map,fitness,multi_squared_error 0,multi_squared_error 1,team0ratio,time,Sqrt. sum of fitnesses,HP,Speed,Damage,Acc,ClipSize,RateOfFire,NrBullets,Range,HP,Speed,Damage,Acc,ClipSize,RateOfFire,NrBullets,Range,HP,Speed,Damage,Acc,ClipSize,RateOfFire,NrBullets,Range,HP,Speed,Damage,Acc,ClipSize,RateOfFire,NrBullets,Range,Run,target team0ratio: 0.5,target time: 0.14
/home/daniel/Projects/ppsevolution/data/maps/custom_maps/Custom_7_Run_0_Map.csv,multi_squared_error,0.000061,0.033075,0.492204,0.321865,0.18203229523063222,0.000000,0.981957,0.850756,1.000000,0.000000,0.023375,1.000000,2.000000,1.000000,0.000000,1.000000,1.000000,0.900692,0.991204,0.760604,2.000000,125.000000,1.319896,132.986225,1.000000,1.000000,0.722059,10.000000,2.000000,300.000000,0.770000,150.000000,1.000000,180.237717,9.916433,7.845437,2.000000,0
/home/daniel/Projects/ppsevolution/data/maps/custom_maps/Custom_7_Run_0_Map.csv,multi_squared_error,0.000979,0.032634,0.468719,0.320649,0.18333738098121113,0.152667,1.000000,0.607641,1.000000,0.038783,0.000000,1.000000,2.000000,0.911068,0.130090,1.000000,1.000000,1.000000,1.000000,0.643772,2.000000,151.716696,1.330000,105.271069,1.000000,8.717805,0.500000,10.000000,2.000000,284.436871,0.842850,150.000000,1.000000,200.000000,10.000000,6.793944,2.000000,1
/home/daniel/Projects/ppsevolution/data/maps/custom_maps/Custom_7_Run_0_Map.csv,multi_squared_error,0.000252,0.033801,0.484111,0.323850,0.18453513863122947,0.000000,1.000000,0.666260,1.000000,0.101308,0.000000,0.787840,2.000000,0.737850,0.000000,1.000000,1.000000,1.000000,1.000000,0.197730,2.000000,125.000000,1.330000,111.953638,1.000000,21.160210,0.500000,8.090563,2.000000,254.123778,0.770000,150.000000,1.000000,200.000000,10.000000,2.779567,2.000000,2
/home/daniel/Projects/ppsevolution/data/maps/custom_maps/Custom_7_Run_0_Map.csv,multi_squared_error,0.000779,0.033383,0.472083,0.322709,0.1848298658172874,0.000000,1.000000,0.639714,1.000000,0.000000,0.079587,0.975020,2.000000,0.746197,0.004380,1.000000,1.000000,0.979727,0.976938,0.039529,2.000000,125.000000,1.330000,108.927378,1.000000,1.000000,1.256081,9.775177,2.000000,255.584453,0.772453,150.000000,1.000000,195.965732,9.780916,1.355764,2.000000,3
/home/daniel/Projects/ppsevolution/data/maps/custom_maps/Custom_7_Run_0_Map.csv,multi_squared_error,0.000078,0.035316,0.491145,0.327925,0.188133254062644,0.129431,0.918539,0.342684,1.000000,0.000000,0.000000,0.988607,2.000000,0.717202,0.000000,1.000000,0.957039,0.944688,1.000000,0.233168,2.000000,147.650358,1.284382,75.065971,1.000000,1.000000,0.500000,9.897467,2.000000,250.510366,0.770000,150.000000,0.957039,188.992941,10.000000,3.098508,2.000000,4
/home/daniel/Projects/ppsevolution/data/maps/custom_maps/Custom_7_Run_0_Map.csv,multi_squared_error,0.001856,0.032236,0.456914,0.319545,0.18464198660736225,0.000000,0.984590,0.650665,1.000000,0.000000,0.289899,0.953449,2.000000,0.929256,0.042135,1.000000,1.000000,0.981354,1.000000,0.580451,2.000000,125.000000,1.321370,110.175802,1.000000,1.000000,3.254044,9.581037,2.000000,287.619779,0.793596,150.000000,1.000000,196.289431,10.000000,6.224063,2.000000,5
/home/daniel/Projects/ppsevolution/data/maps/custom_maps/Custom_7_Run_0_Map.csv,multi_squared_error,0.000989,0.033308,0.468550,0.322505,0.18519531689200375,0.070931,0.836414,0.725501,1.000000,0.000000,0.000000,1.000000,2.000000,1.000000,0.086227,1.000000,1.000000,1.000000,0.923040,0.098610,2.000000,137.412882,1.238392,118.707106,1.000000,1.000000,0.500000,10.000000,2.000000,300.000000,0.818287,150.000000,1.000000,200.000000,9.268883,1.887487,2.000000,6
/home/daniel/Projects/ppsevolution/data/maps/custom_maps/Custom_7_Run_0_Map.csv,multi_squared_error,0.000000,0.033095,0.499321,0.321921,0.18192201972896055,0.000000,0.989697,0.571074,1.000000,0.000000,0.000000,0.797388,2.000000,0.470665,0.027964,1.000000,1.000000,0.914696,1.000000,0.954674,2.000000,125.000000,1.324230,101.102479,1.000000,1.000000,0.500000,8.176490,2.000000,207.366309,0.785660,150.000000,1.000000,183.024408,10.000000,9.592065,2.000000,7
/home/daniel/Projects/ppsevolution/data/maps/custom_maps/Custom_7_Run_0_Map.csv,multi_squared_error,0.000758,0.033641,0.472475,0.323416,0.18546986445696795,0.123207,1.000000,0.577630,1.000000,0.093798,0.120003,1.000000,2.000000,0.777653,0.248104,0.990419,1.000000,0.948610,1.000000,0.261996,2.000000,146.561195,1.330000,101.849811,1.000000,19.665773,1.640026,10.000000,2.000000,261.089248,0.908938,148.907736,1.000000,189.773441,10.000000,3.357967,2.000000,8
/home/daniel/Projects/ppsevolution/data/maps/custom_maps/Custom_7_Run_0_Map.csv,multi_squared_error,0.001475,0.032485,0.461598,0.320235,0.18428070180166686,0.000000,0.968894,0.711085,1.000000,0.000000,0.021635,0.985504,2.000000,0.998246,0.156739,1.000000,1.000000,0.964351,0.987321,0.325247,2.000000,125.000000,1.312581,117.063731,1.000000,1.000000,0.705534,9.869535,2.000000,299.693016,0.857774,150.000000,1.000000,192.905904,9.879545,3.927226,2.000000,9
