/home/daniel/Projects/ppsevolution/data/maps/custom_maps/Custom_7_Run_0_Map.csv,0.000000,0.765789,0.359549,1.000000,0.064236,0.315595,0.870628,1.000000,0.976029,0.000000,0.034102,1.000000,0.900695,0.950043,0.183639,0.000000
/home/daniel/Projects/ppsevolution/data/maps/custom_maps/Custom_7_Run_0_Map.csv,0.000000,1.000000,0.117593,0.994584,0.000000,0.154535,1.000000,0.000000,0.939059,0.152842,0.189406,0.933738,0.902976,0.774307,0.010628,2.000000
/home/daniel/Projects/ppsevolution/data/maps/custom_maps/Custom_7_Run_0_Map.csv,0.023778,0.910531,0.305862,1.000000,0.145703,0.000000,1.000000,1.000000,1.000000,0.001141,0.000000,0.996429,0.973730,0.890989,0.000000,1.000000
/home/daniel/Projects/ppsevolution/data/maps/custom_maps/Custom_7_Run_0_Map.csv,0.000000,0.998823,0.239472,1.000000,0.120921,0.000000,0.966795,2.000000,0.941435,0.241014,0.003583,1.000000,0.904644,1.000000,0.000000,0.000000
/home/daniel/Projects/ppsevolution/data/maps/custom_maps/Custom_7_Run_0_Map.csv,0.055993,1.000000,0.460941,1.000000,0.415865,0.000000,1.000000,0.000000,0.874818,0.119194,0.167621,1.000000,0.619810,1.000000,0.000000,0.000000
/home/daniel/Projects/ppsevolution/data/maps/custom_maps/Custom_7_Run_0_Map.csv,0.000000,0.831681,0.395148,1.000000,0.000000,0.168417,0.883668,0.000000,0.989745,0.000000,0.000000,1.000000,0.876657,0.988787,0.070161,1.000000
/home/daniel/Projects/ppsevolution/data/maps/custom_maps/Custom_7_Run_0_Map.csv,0.000000,1.000000,0.210000,1.000000,0.000000,0.030000,1.000000,1.000000,0.936484,0.000000,0.000000,0.990447,0.961941,1.000000,0.000000,1.000000
/home/daniel/Projects/ppsevolution/data/maps/custom_maps/Custom_7_Run_0_Map.csv,0.125257,0.925190,0.147257,1.000000,0.259121,0.161097,0.948569,0.000000,1.000000,0.058677,0.174339,0.956370,1.000000,1.000000,0.000000,2.000000
/home/daniel/Projects/ppsevolution/data/maps/custom_maps/Custom_7_Run_0_Map.csv,0.000000,0.844593,0.504433,0.970494,0.000000,0.000000,0.973661,2.000000,0.968934,0.095957,0.000000,0.990780,1.000000,1.000000,0.128816,1.000000
/home/daniel/Projects/ppsevolution/data/maps/custom_maps/Custom_7_Run_0_Map.csv,0.208369,1.000000,0.209661,1.000000,0.000000,0.227466,0.979712,1.000000,1.000000,0.000000,0.188135,0.972825,0.839594,0.705316,0.001729,1.000000
