map,fitness,fitness value,team0ratio,time,HP,Speed,Damage,Acc,ClipSize,RateOfFire,NrBullets,Range,HP,Speed,Damage,Acc,ClipSize,RateOfFire,NrBullets,Range,HP,Speed,Damage,Acc,ClipSize,RateOfFire,NrBullets,Range,HP,Speed,Damage,Acc,ClipSize,RateOfFire,NrBullets,Range,Run,target team0ratio: 0.5,target time: 0.14
/home/daniel/Projects/ppsevolution/data/maps/custom_maps/Custom_1_Run_0_Map.csv,squared_error,0.00045366998961799944,0.4945,0.1696,0.000000,0.965177,0.542915,1.000000,0.024401,0.364995,1.000000,1.000000,0.961875,0.199281,0.555244,1.000000,1.000000,1.000000,0.000000,2.000000,125.000000,1.310499,85.550991,1.000000,5.855794,3.967451,10.000000,1.000000,293.328170,0.881597,87.289459,1.000000,200.000000,10.000000,1.000000,2.000000,0
/home/daniel/Projects/ppsevolution/data/maps/custom_maps/Custom_1_Run_0_Map.csv,squared_error,0.00019609448205516237,0.4961,0.1594,0.000000,0.837912,0.477241,1.000000,0.366665,0.170744,1.000000,2.000000,0.577746,0.062369,0.962255,1.000000,1.000000,0.705445,0.517226,2.000000,125.000000,1.239231,76.290995,1.000000,73.966400,2.122064,10.000000,2.000000,226.105534,0.804927,144.678007,1.000000,200.000000,7.201724,5.655030,2.000000,1
/home/daniel/Projects/ppsevolution/data/maps/custom_maps/Custom_1_Run_0_Map.csv,squared_error,0.00027777245936878343,0.5026,0.1634,0.000000,0.740563,0.617959,1.000000,0.575775,0.074276,1.000000,1.000000,0.632666,0.457331,1.000000,1.000000,0.815234,0.838033,0.301504,2.000000,125.000000,1.184715,96.132196,1.000000,115.579178,1.205621,10.000000,1.000000,235.716609,1.026105,150.000000,1.000000,163.231548,8.461315,3.713534,2.000000,2
/home/daniel/Projects/ppsevolution/data/maps/custom_maps/Custom_1_Run_0_Map.csv,squared_error,0.00013938328057200517,0.5013,0.1566,0.016597,0.651642,0.431678,1.000000,0.011162,0.104406,0.853108,2.000000,0.396013,0.386051,1.000000,1.000000,0.889127,0.180561,0.999996,2.000000,127.904523,1.134920,69.866614,1.000000,3.221283,1.491861,8.677968,2.000000,194.302361,0.986188,150.000000,1.000000,177.936231,2.215325,9.999966,2.000000,3
/home/daniel/Projects/ppsevolution/data/maps/custom_maps/Custom_1_Run_0_Map.csv,squared_error,0.00021294950164484563,0.5032,0.1604,0.041862,0.543197,0.289995,1.000000,0.157555,0.037644,0.881894,2.000000,0.240981,0.362771,1.000000,1.000000,0.909849,0.988196,0.077055,2.000000,132.325777,1.074190,49.889297,1.000000,32.353443,0.857618,8.937042,2.000000,167.171734,0.973152,150.000000,1.000000,182.059921,9.887865,1.693497,2.000000,4
/home/daniel/Projects/ppsevolution/data/maps/custom_maps/Custom_1_Run_0_Map.csv,squared_error,0.00015997982128051807,0.5029,0.1577,0.215884,0.937518,0.205792,0.995435,0.150227,0.203861,0.940271,2.000000,0.046609,0.061029,1.000000,1.000000,0.773433,0.228708,0.947661,2.000000,162.779639,1.295010,38.016721,0.995435,30.895243,2.436677,9.462437,2.000000,133.156531,0.804176,150.000000,1.000000,154.913198,2.672731,9.528951,2.000000,5
/home/daniel/Projects/ppsevolution/data/maps/custom_maps/Custom_1_Run_0_Map.csv,squared_error,0.0003121277917022168,0.5035,0.1647,0.057072,0.731448,0.223318,1.000000,0.069901,0.001939,0.999066,2.000000,0.588124,0.395316,0.515826,1.000000,1.000000,0.691373,0.584025,2.000000,134.987560,1.179611,40.487810,1.000000,14.910271,0.518425,9.991594,2.000000,227.921647,0.991377,81.731467,1.000000,200.000000,7.068042,6.256222,2.000000,6
/home/daniel/Projects/ppsevolution/data/maps/custom_maps/Custom_1_Run_0_Map.csv,squared_error,0.00032730848258834196,0.5010,0.1656,0.041819,1.000000,0.151924,1.000000,0.235572,0.276418,0.891755,2.000000,0.236559,0.321055,0.685373,1.000000,0.475726,0.825203,0.089298,2.000000,132.318337,1.330000,30.421316,1.000000,47.878862,3.125970,9.025795,2.000000,166.397747,0.949791,105.637658,1.000000,95.669551,8.339431,1.803681,2.000000,7
/home/daniel/Projects/ppsevolution/data/maps/custom_maps/Custom_1_Run_0_Map.csv,squared_error,0.000166922275745569,0.5019,0.1582,0.000000,0.845105,0.142756,1.000000,0.041409,0.145092,0.975586,2.000000,0.000000,0.220464,0.866465,1.000000,0.552604,0.641744,0.530006,2.000000,125.000000,1.243259,29.128613,1.000000,9.240438,1.878373,9.780278,2.000000,125.000000,0.893460,131.171515,1.000000,110.968251,6.596566,5.770054,2.000000,8
/home/daniel/Projects/ppsevolution/data/maps/custom_maps/Custom_1_Run_0_Map.csv,squared_error,0.00018673932097904348,0.5030,0.1591,0.051645,1.000000,0.428397,1.000000,0.000000,0.243044,1.000000,2.000000,0.483147,0.000000,1.000000,1.000000,0.687352,0.935851,0.352979,2.000000,134.037836,1.330000,69.404012,1.000000,1.000000,2.808919,10.000000,2.000000,209.550768,0.770000,150.000000,1.000000,137.783070,9.390581,4.176807,2.000000,9
map,fitness,fitness value,team0ratio,time,HP,Speed,Damage,Acc,ClipSize,RateOfFire,NrBullets,Range,HP,Speed,Damage,Acc,ClipSize,RateOfFire,NrBullets,Range,HP,Speed,Damage,Acc,ClipSize,RateOfFire,NrBullets,Range,HP,Speed,Damage,Acc,ClipSize,RateOfFire,NrBullets,Range,Run,target team0ratio: 0.5,target time: 0.14
/home/daniel/Projects/ppsevolution/data/maps/custom_maps/Custom_2_Run_0_Map.csv,squared_error,0.03119857237234711,0.4770,0.3887,0.062797,0.803215,0.721853,1.000000,0.243895,0.056652,1.000000,2.000000,0.895774,0.000000,1.000000,1.000000,0.905244,1.000000,0.838007,2.000000,135.989401,1.219801,110.781253,1.000000,49.535009,1.038191,10.000000,2.000000,281.760534,0.770000,150.000000,1.000000,181.143486,10.000000,8.542060,2.000000,0
/home/daniel/Projects/ppsevolution/data/maps/custom_maps/Custom_2_Run_0_Map.csv,squared_error,0.03365879473110039,0.4790,0.3986,0.020352,1.000000,0.648961,1.000000,0.182261,0.000000,0.866501,2.000000,0.977427,0.369242,0.645073,1.000000,1.000000,0.969972,0.685736,2.000000,128.561549,1.330000,100.503511,1.000000,37.269845,0.500000,8.798507,2.000000,296.049769,0.976776,99.955293,1.000000,200.000000,9.714738,7.171623,2.000000,1
/home/daniel/Projects/ppsevolution/data/maps/custom_maps/Custom_2_Run_0_Map.csv,squared_error,0.03155149763330056,0.4449,0.3851,0.002663,1.000000,0.406260,1.000000,0.164243,0.078917,0.821890,2.000000,0.591772,0.000000,0.945235,1.000000,0.835855,0.723063,1.000000,2.000000,125.466101,1.330000,66.282680,1.000000,33.684329,1.249713,8.397008,2.000000,228.560165,0.770000,142.278159,1.000000,167.335052,7.369096,10.000000,2.000000,2
/home/daniel/Projects/ppsevolution/data/maps/custom_maps/Custom_2_Run_0_Map.csv,squared_error,0.031054480839496208,0.4669,0.3870,0.000000,0.794486,0.640366,1.000000,0.000000,0.015353,0.968551,2.000000,0.756481,0.149224,1.000000,1.000000,0.532230,0.809858,0.927855,2.000000,125.000000,1.214912,99.291579,1.000000,1.000000,0.645858,9.716956,2.000000,257.384091,0.853565,150.000000,1.000000,106.913741,8.193650,9.350692,2.000000,3
/home/daniel/Projects/ppsevolution/data/maps/custom_maps/Custom_2_Run_0_Map.csv,squared_error,0.03130319569516092,0.4651,0.3878,0.000000,0.894538,0.655860,1.000000,0.065676,0.561033,0.799124,2.000000,0.846054,0.163304,1.000000,1.000000,0.776214,0.920998,1.000000,2.000000,125.000000,1.270942,101.476291,1.000000,14.069517,5.829816,8.192113,2.000000,273.059528,0.861450,150.000000,1.000000,155.466611,9.249477,10.000000,2.000000,4
/home/daniel/Projects/ppsevolution/data/maps/custom_maps/Custom_2_Run_0_Map.csv,squared_error,0.031017850264814895,0.4809,0.3883,0.038330,0.831670,0.635611,1.000000,0.013834,0.158659,0.843124,2.000000,0.741525,0.834296,1.000000,1.000000,0.765805,1.000000,1.000000,2.000000,131.707769,1.235735,98.621094,1.000000,3.752881,2.007261,8.588118,2.000000,254.766845,1.237206,150.000000,1.000000,153.395254,10.000000,10.000000,2.000000,5
/home/daniel/Projects/ppsevolution/data/maps/custom_maps/Custom_2_Run_0_Map.csv,squared_error,0.03151104669877373,0.4815,0.3904,0.000000,0.862643,0.680791,0.996305,0.193791,0.056769,0.858107,2.000000,0.651451,0.134662,1.000000,1.000000,1.000000,1.000000,0.800915,2.000000,125.000000,1.253080,104.991579,0.996305,39.564462,1.039308,8.722960,2.000000,239.003887,0.845411,150.000000,1.000000,200.000000,10.000000,8.208239,2.000000,6
/home/daniel/Projects/ppsevolution/data/maps/custom_maps/Custom_2_Run_0_Map.csv,squared_error,0.032360614961554124,0.4711,0.3928,0.010727,0.725391,0.500220,1.000000,0.149637,0.000000,1.000000,2.000000,0.439714,0.000000,1.000000,1.000000,0.926624,1.000000,0.164183,2.000000,126.877249,1.176219,79.531009,1.000000,30.777774,0.500000,10.000000,2.000000,201.949931,0.770000,150.000000,1.000000,185.398171,10.000000,2.477650,2.000000,7
/home/daniel/Projects/ppsevolution/data/maps/custom_maps/Custom_2_Run_0_Map.csv,squared_error,0.03132721336123395,0.4543,0.3861,0.000000,1.000000,0.652282,1.000000,0.356078,0.051689,0.920990,2.000000,0.911206,0.310053,0.997357,1.000000,0.864009,0.704857,0.839944,2.000000,125.000000,1.330000,100.971734,1.000000,71.859608,0.991042,9.288911,2.000000,284.461118,0.943630,149.627297,1.000000,172.937886,7.196143,8.559494,2.000000,8
/home/daniel/Projects/ppsevolution/data/maps/custom_maps/Custom_2_Run_0_Map.csv,squared_error,0.03132123275303532,0.4391,0.3828,0.000000,1.000000,0.403111,0.996797,0.035407,0.220738,0.902343,2.000000,0.583043,0.215470,1.000000,1.000000,0.787942,1.000000,1.000000,2.000000,125.000000,1.330000,65.838617,0.996797,8.046035,2.597013,9.121087,2.000000,227.032438,0.890663,150.000000,1.000000,157.800438,10.000000,10.000000,2.000000,9
map,fitness,fitness value,team0ratio,time,HP,Speed,Damage,Acc,ClipSize,RateOfFire,NrBullets,Range,HP,Speed,Damage,Acc,ClipSize,RateOfFire,NrBullets,Range,HP,Speed,Damage,Acc,ClipSize,RateOfFire,NrBullets,Range,HP,Speed,Damage,Acc,ClipSize,RateOfFire,NrBullets,Range,Run,target team0ratio: 0.5,target time: 0.14
/home/daniel/Projects/ppsevolution/data/maps/custom_maps/Custom_3_Run_0_Map.csv,squared_error,0.05566595047214658,0.5444,0.4707,0.006517,0.617768,0.982000,1.000000,0.075031,0.425939,1.000000,2.000000,0.105130,0.045246,0.950972,1.000000,0.953475,0.000000,0.169675,2.000000,126.140481,1.115950,147.461994,1.000000,15.931216,4.546417,10.000000,2.000000,143.397764,0.795338,143.086985,1.000000,190.741509,0.500000,2.527076,2.000000,0
/home/daniel/Projects/ppsevolution/data/maps/custom_maps/Custom_3_Run_0_Map.csv,squared_error,0.05591091782746777,0.5397,0.4720,0.000000,0.791867,1.000000,0.972788,0.000000,0.341102,1.000000,2.000000,0.000000,0.711893,0.955617,1.000000,0.800779,1.000000,0.617644,2.000000,125.000000,1.213446,150.000000,0.972788,1.000000,3.740467,10.000000,2.000000,125.000000,1.168660,143.742010,1.000000,160.355116,10.000000,6.558794,2.000000,1
/home/daniel/Projects/ppsevolution/data/maps/custom_maps/Custom_3_Run_0_Map.csv,squared_error,0.055864574147328934,0.5305,0.4729,0.000000,0.925328,0.848056,1.000000,0.099613,0.090901,0.996030,2.000000,0.159079,0.434736,1.000000,1.000000,1.000000,0.000000,0.259126,2.000000,125.000000,1.288183,128.575906,1.000000,20.822997,1.363562,9.964267,2.000000,152.838772,1.013452,150.000000,1.000000,200.000000,0.500000,3.332134,2.000000,2
/home/daniel/Projects/ppsevolution/data/maps/custom_maps/Custom_3_Run_0_Map.csv,squared_error,0.0547910596235364,0.5205,0.4704,0.000000,0.967856,1.000000,0.972362,0.052944,0.003159,0.952361,2.000000,0.084872,0.008516,0.948833,1.000000,1.000000,0.308296,1.000000,2.000000,125.000000,1.311999,150.000000,0.972362,11.535789,0.530012,9.571250,2.000000,139.852513,0.774769,142.785460,1.000000,200.000000,3.428810,10.000000,2.000000,3
/home/daniel/Projects/ppsevolution/data/maps/custom_maps/Custom_3_Run_0_Map.csv,squared_error,0.055613085610657836,0.5264,0.4725,0.000000,0.756447,0.761042,1.000000,0.330562,0.179140,1.000000,2.000000,0.171837,0.037192,0.976116,1.000000,0.580172,0.337369,0.947664,2.000000,125.000000,1.193610,116.306964,1.000000,66.781810,2.201833,10.000000,2.000000,155.071512,0.790827,146.632414,1.000000,116.454172,3.705006,9.528978,2.000000,4
/home/daniel/Projects/ppsevolution/data/maps/custom_maps/Custom_3_Run_0_Map.csv,squared_error,0.05540563103679486,0.5069,0.4728,0.000000,0.884863,0.843320,0.973919,0.000000,0.293692,0.853597,2.000000,0.014968,0.617939,1.000000,1.000000,1.000000,0.319660,1.000000,2.000000,125.000000,1.265523,127.908072,0.973919,1.000000,3.290076,8.682373,2.000000,127.619381,1.116046,150.000000,1.000000,200.000000,3.536774,10.000000,2.000000,5
/home/daniel/Projects/ppsevolution/data/maps/custom_maps/Custom_3_Run_0_Map.csv,squared_error,0.055454931955500913,0.5018,0.4730,0.004031,0.630091,0.900799,0.968570,0.000000,0.187955,0.979138,2.000000,0.126029,0.190782,1.000000,1.000000,1.000000,0.865118,1.000000,2.000000,125.705466,1.122851,136.012652,0.968570,1.000000,2.285571,9.812241,2.000000,147.055030,0.876838,150.000000,1.000000,200.000000,8.718623,10.000000,2.000000,6
/home/daniel/Projects/ppsevolution/data/maps/custom_maps/Custom_3_Run_0_Map.csv,squared_error,0.055824256147431466,0.5233,0.4733,0.000000,0.803411,0.889992,1.000000,0.000000,0.220646,0.910803,2.000000,0.513669,0.000000,1.000000,1.000000,0.746655,0.733800,0.993890,2.000000,125.000000,1.219910,134.488927,1.000000,1.000000,2.596141,9.197223,2.000000,214.892070,0.770000,150.000000,1.000000,149.584298,7.471104,9.945010,2.000000,7
/home/daniel/Projects/ppsevolution/data/maps/custom_maps/Custom_3_Run_0_Map.csv,squared_error,0.05562967016488979,0.5581,0.4685,0.000000,0.995298,0.867856,1.000000,0.000000,0.444923,0.916845,2.000000,0.000000,0.168508,0.927382,1.000000,0.916254,0.000000,0.865058,2.000000,125.000000,1.327367,131.367733,1.000000,1.000000,4.726764,9.251605,2.000000,125.000000,0.864364,139.760916,1.000000,183.334532,0.500000,8.785518,2.000000,8
/home/daniel/Projects/ppsevolution/data/maps/custom_maps/Custom_3_Run_0_Map.csv,squared_error,0.05512921958091037,0.5396,0.4697,0.006019,0.276654,0.965611,1.000000,0.000000,0.000000,0.975629,2.000000,0.305452,0.019129,1.000000,1.000000,0.717999,0.097625,1.000000,2.000000,126.053257,0.924926,145.151181,1.000000,1.000000,0.500000,9.780657,2.000000,178.454125,0.780712,150.000000,1.000000,143.881719,1.427434,10.000000,2.000000,9
map,fitness,fitness value,team0ratio,time,HP,Speed,Damage,Acc,ClipSize,RateOfFire,NrBullets,Range,HP,Speed,Damage,Acc,ClipSize,RateOfFire,NrBullets,Range,HP,Speed,Damage,Acc,ClipSize,RateOfFire,NrBullets,Range,HP,Speed,Damage,Acc,ClipSize,RateOfFire,NrBullets,Range,Run,target team0ratio: 0.5,target time: 0.14
/home/daniel/Projects/ppsevolution/data/maps/custom_maps/Custom_4_Run_0_Map.csv,squared_error,0.001722138870673468,0.4977,0.1986,0.027423,0.693245,1.000000,1.000000,0.064943,0.046326,1.000000,2.000000,0.716794,0.079121,1.000000,1.000000,0.839448,1.000000,0.302158,2.000000,129.799108,1.158217,150.000000,1.000000,13.923600,0.940096,10.000000,2.000000,250.438870,0.814308,150.000000,1.000000,168.050076,10.000000,3.719420,2.000000,0
/home/daniel/Projects/ppsevolution/data/maps/custom_maps/Custom_4_Run_0_Map.csv,squared_error,0.0015703479164656637,0.5083,0.1954,0.000000,0.646256,1.000000,1.000000,0.119319,0.262364,1.000000,2.000000,0.449041,0.292552,0.979109,1.000000,0.788316,0.254349,0.711694,2.000000,125.000000,1.131903,150.000000,1.000000,24.744398,2.992457,10.000000,2.000000,203.582178,0.933829,147.054348,1.000000,157.874892,2.916319,7.405247,2.000000,1
/home/daniel/Projects/ppsevolution/data/maps/custom_maps/Custom_4_Run_0_Map.csv,squared_error,0.0017783784984456825,0.4930,0.1992,0.064411,1.000000,0.525782,1.000000,0.513947,0.177870,1.000000,2.000000,0.000000,0.090432,0.965679,1.000000,1.000000,0.792698,0.289088,2.000000,136.271927,1.330000,83.135315,1.000000,103.275449,2.189769,10.000000,2.000000,125.000000,0.820642,145.160772,1.000000,200.000000,8.030629,3.601790,2.000000,2
/home/daniel/Projects/ppsevolution/data/maps/custom_maps/Custom_4_Run_0_Map.csv,squared_error,0.0016604388831600175,0.4996,0.1976,0.006255,0.212827,0.598603,1.000000,0.000000,0.479041,0.932667,2.000000,0.000000,0.150296,1.000000,1.000000,0.840343,1.000000,0.453889,2.000000,126.094624,0.889183,93.403016,1.000000,1.000000,5.050892,9.393999,2.000000,125.000000,0.854166,150.000000,1.000000,168.228355,10.000000,5.085003,2.000000,3
/home/daniel/Projects/ppsevolution/data/maps/custom_maps/Custom_4_Run_0_Map.csv,squared_error,0.0017383093438415413,0.4961,0.1988,0.000000,0.962588,0.747334,1.000000,0.163100,0.096649,1.000000,1.000000,0.260031,0.092316,0.916375,1.000000,0.469937,0.920778,0.974963,2.000000,125.000000,1.309049,114.374158,1.000000,33.456852,1.418166,10.000000,1.000000,170.505362,0.821697,138.208895,1.000000,94.517418,9.247388,9.774664,2.000000,4
/home/daniel/Projects/ppsevolution/data/maps/custom_maps/Custom_4_Run_0_Map.csv,squared_error,0.0017400918889889276,0.4955,0.1988,0.000000,0.367055,0.987456,1.000000,0.210322,0.169451,0.954268,2.000000,0.479993,0.000000,0.868542,1.000000,0.696204,0.047821,0.000000,2.000000,125.000000,0.975551,148.231292,1.000000,42.854028,2.109782,9.588415,2.000000,208.998810,0.770000,131.464423,1.000000,139.544548,0.954298,1.000000,2.000000,5
/home/daniel/Projects/ppsevolution/data/maps/custom_maps/Custom_4_Run_0_Map.csv,squared_error,0.0016492537696223403,0.5091,0.1967,0.024193,1.000000,0.847172,1.000000,0.158704,0.258290,1.000000,1.000000,0.084729,0.064744,1.000000,1.000000,1.000000,0.391086,0.381971,2.000000,129.233698,1.330000,128.451255,1.000000,32.582057,2.953752,10.000000,1.000000,139.827576,0.806257,150.000000,1.000000,200.000000,4.215313,4.437735,2.000000,6
/home/daniel/Projects/ppsevolution/data/maps/custom_maps/Custom_4_Run_0_Map.csv,squared_error,0.0016200393101943429,0.5077,0.1964,0.000000,0.873382,1.000000,1.000000,0.000000,0.095274,1.000000,2.000000,0.499566,0.042941,1.000000,1.000000,1.000000,0.802393,0.130087,2.000000,125.000000,1.259094,150.000000,1.000000,1.000000,1.405101,10.000000,2.000000,212.423969,0.794047,150.000000,1.000000,200.000000,8.122732,2.170787,2.000000,7
/home/daniel/Projects/ppsevolution/data/maps/custom_maps/Custom_4_Run_0_Map.csv,squared_error,0.001696038301470088,0.5048,0.1980,0.000000,1.000000,1.000000,0.990556,0.316290,0.036292,0.868646,2.000000,0.335877,0.490141,1.000000,1.000000,1.000000,0.568942,0.000000,2.000000,125.000000,1.330000,150.000000,0.990556,63.941746,0.844773,8.817812,2.000000,183.778451,1.044479,150.000000,1.000000,200.000000,5.904946,1.000000,2.000000,8
/home/daniel/Projects/ppsevolution/data/maps/custom_maps/Custom_4_Run_0_Map.csv,squared_error,0.001444971586160952,0.4960,0.1936,0.000736,0.590062,0.992831,0.966784,0.203176,0.000000,1.000000,2.000000,0.000000,0.213468,0.933367,1.000000,1.000000,0.357490,1.000000,2.000000,125.128875,1.100435,148.989120,0.966784,41.432058,0.500000,10.000000,2.000000,125.000000,0.889542,140.604776,1.000000,200.000000,3.896154,10.000000,2.000000,9
map,fitness,fitness value,team0ratio,time,HP,Speed,Damage,Acc,ClipSize,RateOfFire,NrBullets,Range,HP,Speed,Damage,Acc,ClipSize,RateOfFire,NrBullets,Range,HP,Speed,Damage,Acc,ClipSize,RateOfFire,NrBullets,Range,HP,Speed,Damage,Acc,ClipSize,RateOfFire,NrBullets,Range,Run,target team0ratio: 0.5,target time: 0.14
/home/daniel/Projects/ppsevolution/data/maps/custom_maps/Custom_5_Run_0_Map.csv,squared_error,0.010747129214253264,0.5203,0.2852,0.000000,0.556713,0.986569,0.985300,0.115627,0.615133,0.957495,2.000000,0.013046,0.000000,0.830443,1.000000,0.749616,0.018095,0.049273,2.000000,125.000000,1.081759,148.106254,0.985300,24.009727,6.343768,9.617452,2.000000,127.283134,0.770000,126.092506,1.000000,150.173578,0.671899,1.443459,2.000000,0
/home/daniel/Projects/ppsevolution/data/maps/custom_maps/Custom_5_Run_0_Map.csv,squared_error,0.011236416107964378,0.5384,0.2849,0.000000,1.000000,1.000000,0.984272,0.326231,0.785265,0.963084,2.000000,0.018975,0.055478,0.694990,1.000000,0.813542,0.364057,0.128428,2.000000,125.000000,1.330000,150.000000,0.984272,65.919968,7.960019,9.667756,2.000000,128.320559,0.801068,106.993646,1.000000,162.894928,3.958546,2.155852,2.000000,1
/home/daniel/Projects/ppsevolution/data/maps/custom_maps/Custom_5_Run_0_Map.csv,squared_error,0.011104462731578295,0.5009,0.2890,0.000000,0.582829,0.984242,0.969792,0.318149,0.126268,0.976981,2.000000,0.020464,0.487937,1.000000,1.000000,0.802956,0.059662,0.310208,1.000000,125.000000,1.096384,147.778164,0.969792,64.311666,1.699548,9.792827,2.000000,128.581173,1.043244,150.000000,1.000000,160.788272,1.066789,3.791869,1.000000,2
/home/daniel/Projects/ppsevolution/data/maps/custom_maps/Custom_5_Run_0_Map.csv,squared_error,0.0108283882106377,0.5343,0.2831,0.295876,1.000000,0.996607,0.982784,0.000000,0.542292,1.000000,2.000000,0.000000,0.077729,0.969315,1.000000,0.725539,0.251292,0.039833,2.000000,176.778267,1.330000,149.521634,0.982784,1.000000,5.651772,10.000000,2.000000,125.000000,0.813528,145.673409,1.000000,145.382331,2.887278,1.358497,2.000000,3
/home/daniel/Projects/ppsevolution/data/maps/custom_maps/Custom_5_Run_0_Map.csv,squared_error,0.010936623524509515,0.5160,0.2870,0.046196,0.128077,1.000000,0.983717,0.534147,0.623435,0.897350,2.000000,0.000000,0.140779,0.939879,1.000000,0.116730,0.000000,0.000000,2.000000,133.084220,0.841723,150.000000,0.983717,107.295310,6.422630,9.076146,2.000000,125.000000,0.848836,141.522929,1.000000,24.229222,0.500000,1.000000,2.000000,4
/home/daniel/Projects/ppsevolution/data/maps/custom_maps/Custom_5_Run_0_Map.csv,squared_error,0.010843476720884244,0.5097,0.2869,0.147335,0.639700,1.000000,0.971176,0.252921,0.000000,0.978147,2.000000,0.026670,0.169181,1.000000,1.000000,0.874310,0.000000,0.295689,1.000000,150.783572,1.128232,150.000000,0.971176,51.331306,0.500000,9.803319,2.000000,129.667200,0.864741,150.000000,1.000000,174.987706,0.500000,3.661199,1.000000,5
/home/daniel/Projects/ppsevolution/data/maps/custom_maps/Custom_5_Run_0_Map.csv,squared_error,0.0107108301569716,0.5310,0.2830,0.009450,0.907763,1.000000,0.981494,0.209779,0.738578,0.971330,2.000000,0.000000,0.313700,0.915766,1.000000,0.884025,0.057526,0.581170,1.000000,126.653740,1.278347,150.000000,0.981494,42.745976,7.516490,9.741970,2.000000,125.000000,0.945672,138.123018,1.000000,176.920999,1.046497,6.230526,1.000000,6
/home/daniel/Projects/ppsevolution/data/maps/custom_maps/Custom_5_Run_0_Map.csv,squared_error,0.010588138755908248,0.5041,0.2855,0.000000,0.997336,0.982461,0.966586,0.000000,0.054122,1.000000,2.000000,0.000000,0.000000,0.953421,1.000000,0.781946,0.000000,0.822470,0.000000,125.000000,1.328508,147.527039,0.966586,1.000000,1.014159,10.000000,2.000000,125.000000,0.770000,143.432335,1.000000,156.607322,0.500000,8.402231,0.000000,7
/home/daniel/Projects/ppsevolution/data/maps/custom_maps/Custom_5_Run_0_Map.csv,squared_error,0.010936951226986083,0.5142,0.2872,0.000000,1.000000,1.000000,0.975612,0.257467,0.183491,1.000000,2.000000,0.072391,0.325613,1.000000,1.000000,0.846968,0.389658,0.444673,2.000000,125.000000,1.330000,150.000000,0.975612,52.235966,2.243169,10.000000,2.000000,137.668343,0.952343,150.000000,1.000000,169.546539,4.201752,5.002060,2.000000,8
/home/daniel/Projects/ppsevolution/data/maps/custom_maps/Custom_5_Run_0_Map.csv,squared_error,0.011080745311211164,0.5048,0.2888,0.000000,0.727443,0.986477,0.957112,0.548316,0.150817,1.000000,2.000000,0.000000,0.340602,0.677759,1.000000,0.775527,0.000000,0.819970,1.000000,125.000000,1.177368,148.093268,0.957112,110.114808,1.932762,10.000000,2.000000,125.000000,0.960737,104.564083,1.000000,155.329888,0.500000,8.379734,1.000000,9
map,fitness,fitness value,team0ratio,time,HP,Speed,Damage,Acc,ClipSize,RateOfFire,NrBullets,Range,HP,Speed,Damage,Acc,ClipSize,RateOfFire,NrBullets,Range,HP,Speed,Damage,Acc,ClipSize,RateOfFire,NrBullets,Range,HP,Speed,Damage,Acc,ClipSize,RateOfFire,NrBullets,Range,Run,target team0ratio: 0.5,target time: 0.14
/home/daniel/Projects/ppsevolution/data/maps/custom_maps/Custom_6_Run_0_Map.csv,squared_error,0.05879607152254477,0.3680,0.4565,0.190963,0.918484,0.000000,1.000000,0.029685,0.000000,0.945309,2.000000,1.000000,0.137843,1.000000,1.000000,0.929556,1.000000,0.914371,2.000000,158.418476,1.284351,9.000000,1.000000,6.907291,0.500000,9.507785,2.000000,300.000000,0.847192,150.000000,1.000000,185.981666,10.000000,9.229336,2.000000,0
/home/daniel/Projects/ppsevolution/data/maps/custom_maps/Custom_6_Run_0_Map.csv,squared_error,0.059280825755903474,0.3690,0.4584,0.108847,1.000000,0.000000,1.000000,0.020410,0.000000,0.399036,2.000000,0.933060,0.104411,1.000000,1.000000,0.745700,0.790274,0.886010,2.000000,144.048304,1.330000,9.000000,1.000000,5.061498,0.500000,4.591320,2.000000,288.285527,0.828470,150.000000,1.000000,149.394321,8.007603,8.974089,2.000000,1
/home/daniel/Projects/ppsevolution/data/maps/custom_maps/Custom_6_Run_0_Map.csv,squared_error,0.059371678835717485,0.4421,0.4797,0.079115,0.961678,0.000000,1.000000,0.241772,0.532272,0.497738,2.000000,1.000000,0.602232,0.994043,0.922703,0.902192,0.855183,0.973740,2.000000,138.845153,1.308539,9.000000,1.000000,49.112593,5.556582,5.479644,2.000000,300.000000,1.107250,149.160090,0.922703,180.536193,8.624243,9.763659,2.000000,2
/home/daniel/Projects/ppsevolution/data/maps/custom_maps/Custom_6_Run_0_Map.csv,squared_error,0.05862040631820403,0.4360,0.4764,0.060013,0.992994,0.000000,1.000000,0.389654,0.188108,0.699107,2.000000,1.000000,0.768729,1.000000,0.927323,1.000000,0.884355,1.000000,2.000000,135.502226,1.326077,9.000000,1.000000,78.541184,2.287023,7.291964,2.000000,300.000000,1.200489,150.000000,0.927323,200.000000,8.901375,10.000000,2.000000,3
/home/daniel/Projects/ppsevolution/data/maps/custom_maps/Custom_6_Run_0_Map.csv,squared_error,0.0591132934013153,0.4127,0.4726,0.122672,0.757783,0.000000,1.000000,0.479302,0.000000,0.262893,2.000000,1.000000,0.365002,0.880677,0.966989,1.000000,0.935164,0.741393,2.000000,146.467519,1.194358,9.000000,1.000000,96.381071,0.500000,3.366039,2.000000,300.000000,0.974401,133.175489,0.966989,200.000000,9.384055,7.672536,2.000000,4
/home/daniel/Projects/ppsevolution/data/maps/custom_maps/Custom_6_Run_0_Map.csv,squared_error,0.05906636255383886,0.3749,0.4601,0.075031,0.884347,0.000000,1.000000,0.011629,0.590103,0.451213,2.000000,1.000000,0.356485,1.000000,0.986650,1.000000,1.000000,0.588858,2.000000,138.130408,1.265234,9.000000,1.000000,3.314254,6.105977,5.060919,2.000000,300.000000,0.969632,150.000000,0.986650,200.000000,10.000000,6.299720,2.000000,5
/home/daniel/Projects/ppsevolution/data/maps/custom_maps/Custom_6_Run_0_Map.csv,squared_error,0.05952543472702769,0.3999,0.4702,0.000000,0.442250,0.000000,1.000000,0.113885,0.072790,0.676106,2.000000,1.000000,0.366599,0.918386,0.957760,0.679254,0.895183,0.647868,2.000000,125.000000,1.017660,9.000000,1.000000,23.663117,1.191505,7.084952,2.000000,300.000000,0.975296,138.492492,0.957760,136.171493,9.004234,6.830809,2.000000,6
/home/daniel/Projects/ppsevolution/data/maps/custom_maps/Custom_6_Run_0_Map.csv,squared_error,0.058974688072625174,0.4129,0.4722,0.145484,0.889736,0.000000,1.000000,0.097182,0.366058,1.000000,2.000000,1.000000,0.000000,1.000000,0.951212,1.000000,1.000000,0.711782,2.000000,150.459738,1.268252,9.000000,1.000000,20.339301,3.977550,10.000000,2.000000,300.000000,0.770000,150.000000,0.951212,200.000000,10.000000,7.406038,2.000000,7
/home/daniel/Projects/ppsevolution/data/maps/custom_maps/Custom_6_Run_0_Map.csv,squared_error,0.05880536955705279,0.3975,0.4673,0.069138,0.708733,0.000000,1.000000,0.089863,0.394031,0.676448,2.000000,1.000000,0.438936,1.000000,0.960202,0.998783,0.832445,0.797044,2.000000,137.099181,1.166890,9.000000,1.000000,18.882715,4.243291,7.088031,2.000000,300.000000,1.015804,150.000000,0.960202,199.757794,8.408225,8.173392,2.000000,8
/home/daniel/Projects/ppsevolution/data/maps/custom_maps/Custom_6_Run_0_Map.csv,squared_error,0.05813857738696913,0.4204,0.4716,0.168295,0.975590,0.019576,1.000000,0.009410,0.287253,0.215497,2.000000,1.000000,0.599815,0.972291,0.962478,1.000000,0.856156,0.956909,2.000000,154.451679,1.316331,11.760281,1.000000,2.872672,3.228908,2.939476,2.000000,300.000000,1.105896,146.093083,0.962478,200.000000,8.633480,9.612184,2.000000,9
map,fitness,fitness value,team0ratio,time,HP,Speed,Damage,Acc,ClipSize,RateOfFire,NrBullets,Range,HP,Speed,Damage,Acc,ClipSize,RateOfFire,NrBullets,Range,HP,Speed,Damage,Acc,ClipSize,RateOfFire,NrBullets,Range,HP,Speed,Damage,Acc,ClipSize,RateOfFire,NrBullets,Range,Run,target team0ratio: 0.5,target time: 0.14
/home/daniel/Projects/ppsevolution/data/maps/custom_maps/Custom_7_Run_0_Map.csv,squared_error,0.01687907071292256,0.4944,0.3236,0.052219,0.840223,0.373284,1.000000,0.028365,0.094403,0.931630,2.000000,0.137435,0.220901,1.000000,1.000000,0.502872,0.914651,0.743194,2.000000,134.138311,1.240525,61.633102,1.000000,6.644659,1.396826,9.384667,2.000000,149.051128,0.893704,150.000000,1.000000,101.071621,9.189186,7.688749,2.000000,0
/home/daniel/Projects/ppsevolution/data/maps/custom_maps/Custom_7_Run_0_Map.csv,squared_error,0.017315519819823166,0.4764,0.3246,0.086576,0.986669,0.626687,1.000000,0.417564,0.000000,0.843106,2.000000,0.905397,0.859148,0.920406,1.000000,0.377112,0.875013,0.947023,2.000000,140.150818,1.322535,97.362886,1.000000,84.095262,0.500000,8.587957,2.000000,283.444508,1.251123,138.777182,1.000000,76.045270,8.812628,9.523205,2.000000,1
/home/daniel/Projects/ppsevolution/data/maps/custom_maps/Custom_7_Run_0_Map.csv,squared_error,0.016884253946513016,0.4890,0.3234,0.045680,0.892652,0.693583,1.000000,0.000000,0.384285,0.835052,2.000000,0.807205,0.383836,1.000000,1.000000,0.978828,0.965027,0.784122,2.000000,132.993972,1.269885,106.795152,1.000000,1.000000,4.150703,8.515472,2.000000,266.260868,0.984948,150.000000,1.000000,195.786753,9.667756,8.057100,2.000000,2
/home/daniel/Projects/ppsevolution/data/maps/custom_maps/Custom_7_Run_0_Map.csv,squared_error,0.016809390439053787,0.4750,0.3216,0.000000,0.960642,0.794059,1.000000,0.000000,0.025051,0.902956,2.000000,1.000000,0.070869,0.993404,1.000000,0.930186,0.714462,0.593080,2.000000,125.000000,1.307959,120.962312,1.000000,1.000000,0.737989,9.126601,2.000000,300.000000,0.809686,149.069952,1.000000,186.107026,7.287393,6.337717,2.000000,3
/home/daniel/Projects/ppsevolution/data/maps/custom_maps/Custom_7_Run_0_Map.csv,squared_error,0.017033214219580258,0.4879,0.3242,0.000000,0.319504,0.709202,1.000000,0.029853,0.000000,0.975991,2.000000,0.833448,0.598962,0.898980,0.999728,0.433658,0.826958,0.893486,2.000000,125.000000,0.948922,108.997425,1.000000,6.940677,0.500000,9.783918,2.000000,270.853386,1.105419,135.756195,0.999728,87.297848,8.356099,9.041375,2.000000,4
/home/daniel/Projects/ppsevolution/data/maps/custom_maps/Custom_7_Run_0_Map.csv,squared_error,0.016987267023726434,0.4827,0.3235,0.000000,0.897010,0.780199,1.000000,0.000000,0.128468,1.000000,2.000000,0.962164,0.093533,0.905832,1.000000,1.000000,0.765487,0.570799,2.000000,125.000000,1.272326,119.008022,1.000000,1.000000,1.720445,10.000000,2.000000,293.378728,0.822378,136.722280,1.000000,200.000000,7.772123,6.137192,2.000000,5
/home/daniel/Projects/ppsevolution/data/maps/custom_maps/Custom_7_Run_0_Map.csv,squared_error,0.016686090501501626,0.4856,0.3221,0.000000,0.727217,0.714818,1.000000,0.000000,0.034031,1.000000,2.000000,0.855232,0.399888,0.942906,1.000000,0.983323,0.951466,0.781738,2.000000,125.000000,1.177241,109.789333,1.000000,1.000000,0.823298,10.000000,2.000000,274.665553,0.993937,141.949722,1.000000,196.681293,9.538924,8.035641,2.000000,6
/home/daniel/Projects/ppsevolution/data/maps/custom_maps/Custom_7_Run_0_Map.csv,squared_error,0.017095563670750834,0.4865,0.3244,0.000000,1.000000,0.584932,1.000000,0.000000,0.185417,0.644431,2.000000,0.713779,0.484854,0.875466,1.000000,0.680845,0.962822,0.867034,2.000000,125.000000,1.330000,91.475423,1.000000,1.000000,2.261457,6.799881,2.000000,249.911343,1.041518,132.440676,1.000000,136.488191,9.646808,8.803310,2.000000,7
/home/daniel/Projects/ppsevolution/data/maps/custom_maps/Custom_7_Run_0_Map.csv,squared_error,0.01643806828081334,0.4846,0.3207,0.080889,0.828831,0.733586,1.000000,0.000000,0.044252,1.000000,2.000000,0.943453,0.037882,1.000000,1.000000,0.986096,0.984787,1.000000,2.000000,139.155586,1.234145,112.435606,1.000000,1.000000,0.920391,10.000000,2.000000,290.104226,0.791214,150.000000,1.000000,197.233154,9.855478,10.000000,2.000000,8
/home/daniel/Projects/ppsevolution/data/maps/custom_maps/Custom_7_Run_0_Map.csv,squared_error,0.017736471176937035,0.4737,0.3265,0.153229,0.862240,0.700488,1.000000,0.000000,0.018890,0.568517,1.000000,1.000000,0.097420,0.957009,1.000000,0.712727,0.992859,0.577380,2.000000,151.815113,1.252854,107.768845,1.000000,1.000000,0.679454,6.116652,1.000000,300.000000,0.824555,143.938321,1.000000,142.832766,9.932161,6.196421,2.000000,9
map,fitness,fitness value,team0ratio,time,HP,Speed,Damage,Acc,ClipSize,RateOfFire,NrBullets,Range,HP,Speed,Damage,Acc,ClipSize,RateOfFire,NrBullets,Range,HP,Speed,Damage,Acc,ClipSize,RateOfFire,NrBullets,Range,HP,Speed,Damage,Acc,ClipSize,RateOfFire,NrBullets,Range,Run,target team0ratio: 0.5,target time: 0.14
/home/daniel/Projects/ppsevolution/data/maps/custom_maps/Custom_8_Run_0_Map.csv,squared_error,0.002999079963600514,0.5016,0.2174,0.010454,0.749259,0.908277,0.985899,0.059976,0.161026,1.000000,2.000000,0.295576,0.031361,0.981608,1.000000,1.000000,0.588011,0.221563,2.000000,126.829476,1.189585,137.067047,0.985899,12.935242,2.029746,10.000000,2.000000,176.725877,0.787562,147.406714,1.000000,200.000000,6.086104,2.994070,2.000000,0
/home/daniel/Projects/ppsevolution/data/maps/custom_maps/Custom_8_Run_0_Map.csv,squared_error,0.0031276925779492918,0.4927,0.2188,0.000000,0.785587,0.756015,0.996944,0.000000,0.257293,0.929289,2.000000,0.400285,0.375807,1.000000,1.000000,0.774616,0.699181,0.360595,2.000000,125.000000,1.209928,115.598134,0.996944,1.000000,2.944286,9.363603,2.000000,195.049865,0.980452,150.000000,1.000000,155.148558,7.142217,4.245359,2.000000,1
/home/daniel/Projects/ppsevolution/data/maps/custom_maps/Custom_8_Run_0_Map.csv,squared_error,0.0028821330192682153,0.5048,0.2158,0.000000,0.993942,0.919501,1.000000,0.011585,0.379199,0.932270,2.000000,0.582927,0.119703,1.000000,1.000000,0.971069,0.310463,0.891108,2.000000,125.000000,1.326608,138.649594,1.000000,3.305330,4.102386,9.390430,2.000000,227.012195,0.837034,150.000000,1.000000,194.242724,3.449397,9.019972,2.000000,2
/home/daniel/Projects/ppsevolution/data/maps/custom_maps/Custom_8_Run_0_Map.csv,squared_error,0.003130013886348552,0.4949,0.2190,0.000000,0.751513,0.743302,1.000000,0.000000,0.000000,1.000000,2.000000,0.533312,0.424418,0.938112,1.000000,0.802543,0.956912,0.374893,2.000000,125.000000,1.190847,113.805602,1.000000,1.000000,0.500000,10.000000,2.000000,218.329632,1.007674,141.273736,1.000000,160.706041,9.590661,4.374038,2.000000,3
/home/daniel/Projects/ppsevolution/data/maps/custom_maps/Custom_8_Run_0_Map.csv,squared_error,0.0030933911380579804,0.5139,0.2174,0.023923,0.895406,0.815768,1.000000,0.078341,0.070576,0.914198,2.000000,0.198058,0.116815,1.000000,1.000000,0.540738,0.115585,0.000000,2.000000,129.186540,1.271428,124.023248,1.000000,16.589875,1.170471,9.227783,2.000000,159.660103,0.835417,150.000000,1.000000,108.606891,1.598060,1.000000,2.000000,4
/home/daniel/Projects/ppsevolution/data/maps/custom_maps/Custom_8_Run_0_Map.csv,squared_error,0.0033756073526248313,0.4867,0.2211,0.000000,0.433706,0.865681,1.000000,0.082169,0.343666,0.815364,2.000000,0.723468,0.419946,0.964844,1.000000,0.537727,0.510486,0.634100,2.000000,125.000000,1.012875,131.061039,1.000000,17.351655,3.764829,8.338276,2.000000,251.606903,1.005170,145.043036,1.000000,108.007712,5.349614,6.706897,2.000000,5
/home/daniel/Projects/ppsevolution/data/maps/custom_maps/Custom_8_Run_0_Map.csv,squared_error,0.0030770554930903407,0.5249,0.2144,0.028955,0.872461,0.849223,1.000000,0.000000,0.853421,1.000000,2.000000,0.204549,0.154460,0.991057,1.000000,0.693134,0.213322,0.656712,2.000000,130.067081,1.258578,128.740455,1.000000,1.000000,8.607496,10.000000,2.000000,160.796026,0.856498,148.739047,1.000000,138.933694,2.526559,6.910412,2.000000,6
/home/daniel/Projects/ppsevolution/data/maps/custom_maps/Custom_8_Run_0_Map.csv,squared_error,0.003217932641846736,0.5113,0.2194,0.098655,0.660920,1.000000,1.000000,0.032811,0.030877,1.000000,2.000000,0.636944,0.593532,0.971645,1.000000,0.834334,0.261997,0.012438,2.000000,142.264606,1.140115,150.000000,1.000000,7.529327,0.793329,10.000000,2.000000,236.465170,1.102378,146.001916,1.000000,167.032548,2.988969,1.111939,2.000000,7
/home/daniel/Projects/ppsevolution/data/maps/custom_maps/Custom_8_Run_0_Map.csv,squared_error,0.00320450625609792,0.5136,0.2189,0.000000,0.364053,1.000000,1.000000,0.124581,0.000000,1.000000,2.000000,0.830974,0.000000,0.821769,1.000000,0.945574,0.777857,0.729898,2.000000,125.000000,0.973870,150.000000,1.000000,25.791627,0.500000,10.000000,2.000000,270.420490,0.770000,124.869382,1.000000,189.169302,7.889642,7.569083,2.000000,8
/home/daniel/Projects/ppsevolution/data/maps/custom_maps/Custom_8_Run_0_Map.csv,squared_error,0.0032544503574062837,0.5092,0.2202,0.100873,0.639250,1.000000,0.979241,0.166590,0.000000,0.999364,1.000000,0.170374,0.000000,1.000000,1.000000,0.644424,0.778244,0.287389,2.000000,142.652697,1.127980,150.000000,0.979241,34.151321,0.500000,9.994280,1.000000,154.815452,0.770000,150.000000,1.000000,129.240347,7.893321,3.586503,2.000000,9
map,fitness,fitness value,team0ratio,time,HP,Speed,Damage,Acc,ClipSize,RateOfFire,NrBullets,Range,HP,Speed,Damage,Acc,ClipSize,RateOfFire,NrBullets,Range,HP,Speed,Damage,Acc,ClipSize,RateOfFire,NrBullets,Range,HP,Speed,Damage,Acc,ClipSize,RateOfFire,NrBullets,Range,Run,target team0ratio: 0.5,target time: 0.14
/home/daniel/Projects/ppsevolution/data/maps/custom_maps/Custom_9_Run_0_Map.csv,squared_error,0.0012804863453398947,0.5067,0.1902,0.000000,0.741269,0.830772,1.000000,0.093170,0.506143,1.000000,2.000000,0.670267,0.430129,0.975292,1.000000,0.939332,0.267519,0.276894,2.000000,125.000000,1.185111,126.138904,1.000000,19.540915,5.308357,10.000000,2.000000,242.296800,1.010872,146.516120,1.000000,187.927087,3.041430,3.492044,2.000000,0
/home/daniel/Projects/ppsevolution/data/maps/custom_maps/Custom_9_Run_0_Map.csv,squared_error,0.0012011512006609587,0.5025,0.1889,0.000000,1.000000,0.337639,1.000000,0.156921,0.129573,1.000000,2.000000,0.000000,0.051884,1.000000,1.000000,0.809003,1.000000,0.416818,2.000000,125.000000,1.330000,56.607136,1.000000,32.227378,1.730944,10.000000,2.000000,125.000000,0.799055,150.000000,1.000000,161.991531,10.000000,4.751363,2.000000,1
/home/daniel/Projects/ppsevolution/data/maps/custom_maps/Custom_9_Run_0_Map.csv,squared_error,0.0013135688853923883,0.4954,0.1910,0.000000,0.717888,0.458404,1.000000,0.072800,0.270014,1.000000,1.000000,0.098676,0.000000,0.951733,1.000000,0.407027,0.630029,0.639388,2.000000,125.000000,1.172017,73.634975,1.000000,15.487224,3.065137,10.000000,1.000000,142.268374,0.770000,143.194300,1.000000,81.998363,6.485274,6.754489,2.000000,2
/home/daniel/Projects/ppsevolution/data/maps/custom_maps/Custom_9_Run_0_Map.csv,squared_error,0.0012651389893985105,0.5007,0.1903,0.051716,0.752163,0.848877,0.987353,0.000000,0.000000,0.886976,2.000000,0.549228,0.089673,1.000000,1.000000,0.937151,0.447277,0.056345,2.000000,134.050272,1.191211,128.691628,0.987353,1.000000,0.500000,8.982781,2.000000,221.114864,0.820217,150.000000,1.000000,187.493081,4.749131,1.507109,2.000000,3
/home/daniel/Projects/ppsevolution/data/maps/custom_maps/Custom_9_Run_0_Map.csv,squared_error,0.0014850146441649763,0.4977,0.1944,0.000000,0.372772,0.664825,1.000000,0.093813,0.000000,0.874311,2.000000,0.700215,0.000000,0.871643,1.000000,0.535658,0.963287,0.139009,2.000000,125.000000,0.978753,102.740330,1.000000,19.668691,0.500000,8.868795,2.000000,247.537705,0.770000,131.901700,1.000000,107.595959,9.651227,2.251079,2.000000,4
/home/daniel/Projects/ppsevolution/data/maps/custom_maps/Custom_9_Run_0_Map.csv,squared_error,0.00116037036523243,0.4923,0.1876,0.000000,1.000000,0.399605,1.000000,0.039471,0.077526,1.000000,2.000000,0.000000,0.038818,1.000000,1.000000,0.607327,0.134028,0.327109,2.000000,125.000000,1.330000,65.344256,1.000000,8.854692,1.236493,10.000000,2.000000,125.000000,0.791738,150.000000,1.000000,121.858053,1.773270,3.943984,2.000000,5
/home/daniel/Projects/ppsevolution/data/maps/custom_maps/Custom_9_Run_0_Map.csv,squared_error,0.0011969776113176062,0.5061,0.1885,0.000000,0.156825,0.400933,1.000000,0.000000,0.350516,1.000000,2.000000,0.001364,0.405786,0.972955,1.000000,1.000000,0.605164,0.420505,2.000000,125.000000,0.857822,65.531569,1.000000,1.000000,3.829903,10.000000,2.000000,125.238752,0.997240,146.186647,1.000000,200.000000,6.249061,4.784545,2.000000,6
/home/daniel/Projects/ppsevolution/data/maps/custom_maps/Custom_9_Run_0_Map.csv,squared_error,0.0013689950676404855,0.5027,0.1923,0.000000,0.870230,0.913034,0.986574,0.300309,0.000000,1.000000,2.000000,0.652549,0.060065,1.000000,1.000000,1.000000,0.627060,0.343778,1.000000,125.000000,1.257329,137.737843,0.986574,60.761398,0.500000,10.000000,2.000000,239.196112,0.803636,150.000000,1.000000,200.000000,6.457067,4.093998,1.000000,7
/home/daniel/Projects/ppsevolution/data/maps/custom_maps/Custom_9_Run_0_Map.csv,squared_error,0.0012878060772717954,0.5032,0.1907,0.052583,0.209998,0.405792,1.000000,0.133285,0.008838,1.000000,2.000000,0.104297,0.087987,0.948103,1.000000,0.713006,0.671231,0.172722,2.000000,134.201949,0.887599,66.216659,1.000000,27.523748,0.583962,10.000000,2.000000,143.251940,0.819273,142.682582,1.000000,142.888283,6.876699,2.554497,2.000000,8
/home/daniel/Projects/ppsevolution/data/maps/custom_maps/Custom_9_Run_0_Map.csv,squared_error,0.001324222405619468,0.5018,0.1914,0.000000,0.527616,0.573716,0.994921,0.450509,0.011922,0.931533,1.000000,0.187996,0.000000,1.000000,1.000000,0.675201,0.860223,0.796597,2.000000,125.000000,1.065465,89.893963,0.994921,90.651389,0.613261,9.383801,1.000000,157.899336,0.770000,150.000000,1.000000,135.364981,8.672122,8.169372,2.000000,9
map,fitness,fitness value,team0ratio,time,HP,Speed,Damage,Acc,ClipSize,RateOfFire,NrBullets,Range,HP,Speed,Damage,Acc,ClipSize,RateOfFire,NrBullets,Range,HP,Speed,Damage,Acc,ClipSize,RateOfFire,NrBullets,Range,HP,Speed,Damage,Acc,ClipSize,RateOfFire,NrBullets,Range,Run,target team0ratio: 0.5,target time: 0.14
/home/daniel/Projects/ppsevolution/data/maps/custom_maps/Custom_10_Run_0_Map.csv,squared_error,0.021199431445132054,0.5431,0.3414,0.160085,0.775641,1.000000,1.000000,0.094493,1.000000,1.000000,2.000000,0.075551,0.000000,1.000000,1.000000,0.820686,0.160839,0.475879,1.000000,153.014828,1.204359,150.000000,1.000000,19.804176,10.000000,10.000000,2.000000,138.221476,0.770000,150.000000,1.000000,164.316571,2.027969,5.282907,1.000000,0
/home/daniel/Projects/ppsevolution/data/maps/custom_maps/Custom_10_Run_0_Map.csv,squared_error,0.02084688507729875,0.5368,0.3408,0.007828,0.614032,1.000000,0.994299,0.071874,0.367464,1.000000,2.000000,0.000000,0.286596,0.998744,1.000000,1.000000,0.034345,0.778012,1.000000,126.369835,1.113858,150.000000,0.994299,15.302874,3.990912,10.000000,2.000000,125.000000,0.930494,149.822929,1.000000,200.000000,0.826281,8.002108,1.000000,1
/home/daniel/Projects/ppsevolution/data/maps/custom_maps/Custom_10_Run_0_Map.csv,squared_error,0.02083050212417379,0.5225,0.3429,0.000000,0.264780,1.000000,0.980657,0.155516,0.769254,0.974851,2.000000,0.000000,0.374588,0.884083,1.000000,0.612043,0.050925,0.910304,0.000000,125.000000,0.918277,150.000000,0.980657,31.947591,7.807914,9.773659,2.000000,125.000000,0.979769,133.655638,1.000000,122.796480,0.983790,9.192735,0.000000,2
/home/daniel/Projects/ppsevolution/data/maps/custom_maps/Custom_10_Run_0_Map.csv,squared_error,0.021070550723007345,0.5404,0.3413,0.177066,0.942945,1.000000,0.986499,0.100912,0.560566,0.957632,2.000000,0.000000,0.405757,1.000000,1.000000,1.000000,0.165565,0.694052,0.000000,155.986619,1.298049,150.000000,0.986499,21.081399,5.825377,9.618688,2.000000,125.000000,0.997224,150.000000,1.000000,200.000000,2.072867,7.246467,0.000000,3
/home/daniel/Projects/ppsevolution/data/maps/custom_maps/Custom_10_Run_0_Map.csv,squared_error,0.020990563740072788,0.5460,0.3397,0.000000,0.066204,0.972868,1.000000,0.121390,0.672338,1.000000,2.000000,0.015406,0.130053,0.988266,1.000000,0.532333,0.228159,0.886688,0.000000,125.000000,0.807074,146.174419,1.000000,25.156522,6.887213,10.000000,2.000000,127.696049,0.842829,148.345539,1.000000,106.934227,2.667514,8.980189,0.000000,4
/home/daniel/Projects/ppsevolution/data/maps/custom_maps/Custom_10_Run_0_Map.csv,squared_error,0.021495543471763724,0.5202,0.3464,0.000000,0.637581,1.000000,0.982433,0.000000,0.085762,1.000000,2.000000,0.012216,0.380274,0.882433,1.000000,1.000000,0.110527,0.335557,0.000000,125.000000,1.127045,150.000000,0.982433,1.000000,1.314737,10.000000,2.000000,127.137742,0.982953,133.423076,1.000000,200.000000,1.550003,4.020015,0.000000,5
/home/daniel/Projects/ppsevolution/data/maps/custom_maps/Custom_10_Run_0_Map.csv,squared_error,0.020700547925173354,0.5479,0.3377,0.000000,0.034962,1.000000,1.000000,0.000000,0.878436,0.897827,2.000000,0.011802,0.033062,0.954505,1.000000,1.000000,0.032813,0.933379,0.000000,125.000000,0.789579,150.000000,1.000000,1.000000,8.845140,9.080441,2.000000,127.065434,0.788515,143.585211,1.000000,200.000000,0.811726,9.400414,0.000000,6
/home/daniel/Projects/ppsevolution/data/maps/custom_maps/Custom_10_Run_0_Map.csv,squared_error,0.021289475309297246,0.5580,0.3380,0.051127,0.871119,1.000000,1.000000,0.000000,0.529010,0.927726,2.000000,0.000000,0.320424,1.000000,1.000000,0.959268,0.274752,1.000000,1.000000,133.947280,1.257827,150.000000,1.000000,1.000000,5.525598,9.349534,2.000000,125.000000,0.949437,150.000000,1.000000,191.894381,3.110142,10.000000,1.000000,7
/home/daniel/Projects/ppsevolution/data/maps/custom_maps/Custom_10_Run_0_Map.csv,squared_error,0.021313599625544317,0.5359,0.3433,0.138179,0.643941,1.000000,0.981622,0.191614,0.352537,1.000000,2.000000,0.000000,0.031961,0.990687,0.994060,0.563239,0.290979,0.864195,1.000000,149.181365,1.130607,150.000000,0.981622,39.131203,3.849101,10.000000,2.000000,125.000000,0.787898,148.686909,0.994060,113.084624,3.264303,8.777759,1.000000,8
/home/daniel/Projects/ppsevolution/data/maps/custom_maps/Custom_10_Run_0_Map.csv,squared_error,0.02126932112722041,0.5403,0.3423,0.000000,0.627015,1.000000,1.000000,0.123200,0.398596,0.968993,2.000000,0.064179,0.341862,0.934333,1.000000,0.769708,0.000000,0.776342,2.000000,125.000000,1.121129,150.000000,1.000000,25.516765,4.286661,9.720936,2.000000,136.231343,0.961443,140.740904,1.000000,154.171954,0.500000,7.987078,2.000000,9
