map,fitness,fitness value,team0ratio,time,HP,Speed,Damage,Acc,ClipSize,RateOfFire,NrBullets,Range,HP,Speed,Damage,Acc,ClipSize,RateOfFire,NrBullets,Range,HP,Speed,Damage,Acc,ClipSize,RateOfFire,NrBullets,Range,HP,Speed,Damage,Acc,ClipSize,RateOfFire,NrBullets,Range,Run,target team0ratio: 0.5,target time: 0.14
/home/daniel/Projects/ppsevolution/data/maps/custom_maps/Custom_1_Run_0_Map.csv,squared_error,0.00015184554367249966,0.4922,0.1556,0.000000,0.825752,0.271477,1.000000,0.110329,0.126673,1.000000,2.000000,0.198893,0.642281,1.000000,1.000000,0.872578,0.365857,1.000000,2.000000,125.000000,1.232421,47.278227,1.000000,22.955555,1.703395,10.000000,2.000000,159.806258,1.129677,150.000000,1.000000,174.643112,3.975642,10.000000,2.000000,0
/home/daniel/Projects/ppsevolution/data/maps/custom_maps/Custom_1_Run_0_Map.csv,squared_error,0.00024354348010438443,0.4988,0.1620,0.008332,0.758200,0.488850,1.000000,0.000000,0.024843,1.000000,2.000000,0.804208,0.000000,0.722302,1.000000,0.978412,0.773066,0.372641,2.000000,126.458141,1.194592,77.927903,1.000000,1.000000,0.736006,10.000000,2.000000,265.736407,0.770000,110.844651,1.000000,195.703960,7.844128,4.353769,2.000000,1
/home/daniel/Projects/ppsevolution/data/maps/custom_maps/Custom_1_Run_0_Map.csv,squared_error,0.00025573331506098626,0.5043,0.1622,0.000000,0.389157,0.566361,0.986227,0.000000,0.819833,0.898089,2.000000,0.402955,0.000000,0.895221,1.000000,0.262241,0.867492,0.515254,2.000000,125.000000,0.987928,88.856850,0.986227,1.000000,8.288413,9.082801,2.000000,195.517145,0.770000,135.226192,1.000000,53.185935,8.741175,5.637285,2.000000,2
/home/daniel/Projects/ppsevolution/data/maps/custom_maps/Custom_1_Run_0_Map.csv,squared_error,0.00027019096388006134,0.5068,0.1622,0.223292,0.872812,0.405690,1.000000,0.035481,0.133453,1.000000,2.000000,0.758322,0.013844,0.799650,1.000000,1.000000,0.738285,0.752249,2.000000,164.076122,1.258775,66.202231,1.000000,8.060801,1.767803,10.000000,2.000000,257.706311,0.777753,121.750694,1.000000,200.000000,7.513709,7.770241,2.000000,3
/home/daniel/Projects/ppsevolution/data/maps/custom_maps/Custom_1_Run_0_Map.csv,squared_error,0.00019607978113594265,0.4931,0.1586,0.000000,1.000000,0.227181,1.000000,0.000000,0.345982,0.877523,2.000000,0.330843,0.281183,0.851832,1.000000,0.858405,0.801919,1.000000,2.000000,125.000000,1.330000,41.032508,1.000000,1.000000,3.786833,8.897707,2.000000,182.897502,0.927463,129.108376,1.000000,171.822661,8.118230,10.000000,2.000000,4
/home/daniel/Projects/ppsevolution/data/maps/custom_maps/Custom_1_Run_0_Map.csv,squared_error,0.00022514227641436948,0.4954,0.1607,0.000000,0.775558,0.276107,1.000000,0.380303,0.550485,0.981768,2.000000,0.185624,0.000000,1.000000,1.000000,1.000000,1.000000,0.052286,2.000000,125.000000,1.204312,47.931059,1.000000,76.680212,5.729611,9.835910,2.000000,157.484146,0.770000,150.000000,1.000000,200.000000,10.000000,1.470578,2.000000,5
/home/daniel/Projects/ppsevolution/data/maps/custom_maps/Custom_1_Run_0_Map.csv,squared_error,0.00025385873306217984,0.5028,0.1624,0.000000,0.425838,0.633950,1.000000,0.196099,0.235843,0.998483,2.000000,0.705888,0.087454,0.884731,1.000000,0.652331,0.289265,0.000000,2.000000,125.000000,1.008469,98.386945,1.000000,40.023626,2.740507,9.986347,2.000000,248.530336,0.818974,133.747081,1.000000,130.813881,3.248014,1.000000,2.000000,6
/home/daniel/Projects/ppsevolution/data/maps/custom_maps/Custom_1_Run_0_Map.csv,squared_error,0.000224070639369489,0.5032,0.1609,0.008863,0.481007,0.740957,1.000000,0.000000,0.235302,1.000000,2.000000,0.994139,0.099408,0.944207,1.000000,0.950458,0.735873,0.341666,2.000000,126.550979,1.039364,113.474892,1.000000,1.000000,2.735374,10.000000,2.000000,298.974393,0.825668,142.133156,1.000000,190.141180,7.490791,4.074994,2.000000,7
/home/daniel/Projects/ppsevolution/data/maps/custom_maps/Custom_1_Run_0_Map.csv,squared_error,0.00020812462759939524,0.5075,0.1590,0.000000,0.850001,0.637643,1.000000,0.000000,0.000000,0.910080,2.000000,0.740028,0.000000,1.000000,1.000000,0.965453,0.703620,0.318957,2.000000,125.000000,1.246000,98.907630,1.000000,1.000000,0.500000,9.190719,2.000000,254.504850,0.770000,150.000000,1.000000,193.125161,7.184393,3.870612,2.000000,8
/home/daniel/Projects/ppsevolution/data/maps/custom_maps/Custom_1_Run_0_Map.csv,squared_error,0.00023021850858400574,0.4937,0.1605,0.000000,0.705940,0.643166,1.000000,0.157673,0.098589,0.793224,2.000000,0.917705,0.247196,1.000000,1.000000,1.000000,0.652065,0.730671,2.000000,125.000000,1.165326,99.686464,1.000000,32.376946,1.436599,8.139015,2.000000,285.598343,0.908430,150.000000,1.000000,200.000000,6.694615,7.576037,2.000000,9
map,fitness,fitness value,team0ratio,time,HP,Speed,Damage,Acc,ClipSize,RateOfFire,NrBullets,Range,HP,Speed,Damage,Acc,ClipSize,RateOfFire,NrBullets,Range,HP,Speed,Damage,Acc,ClipSize,RateOfFire,NrBullets,Range,HP,Speed,Damage,Acc,ClipSize,RateOfFire,NrBullets,Range,Run,target team0ratio: 0.5,target time: 0.14
/home/daniel/Projects/ppsevolution/data/maps/custom_maps/Custom_2_Run_0_Map.csv,squared_error,0.03075164993367719,0.4416,0.3810,0.000000,0.862312,0.550111,1.000000,0.129640,0.000000,1.000000,2.000000,0.904118,0.000000,1.000000,1.000000,0.897506,0.998490,1.000000,2.000000,125.000000,1.252895,86.565639,1.000000,26.798434,0.500000,10.000000,2.000000,283.220698,0.770000,150.000000,1.000000,179.603603,9.985653,10.000000,2.000000,0
/home/daniel/Projects/ppsevolution/data/maps/custom_maps/Custom_2_Run_0_Map.csv,squared_error,0.0304934942167884,0.4588,0.3835,0.000000,0.774807,0.589457,1.000000,0.000000,0.129101,1.000000,2.000000,0.801669,0.299536,1.000000,1.000000,1.000000,1.000000,1.000000,2.000000,125.000000,1.203892,92.113498,1.000000,1.000000,1.726463,10.000000,2.000000,265.292127,0.937740,150.000000,1.000000,200.000000,10.000000,10.000000,2.000000,1
/home/daniel/Projects/ppsevolution/data/maps/custom_maps/Custom_2_Run_0_Map.csv,squared_error,0.030993279439443217,0.4742,0.3876,0.000000,0.925995,0.701141,1.000000,0.347302,0.026592,1.000000,2.000000,0.820034,0.000000,1.000000,1.000000,0.554240,0.949334,1.000000,2.000000,125.000000,1.288557,107.860938,1.000000,70.113179,0.752624,10.000000,2.000000,268.506015,0.770000,150.000000,1.000000,111.293806,9.518672,10.000000,2.000000,2
/home/daniel/Projects/ppsevolution/data/maps/custom_maps/Custom_2_Run_0_Map.csv,squared_error,0.03119385505319511,0.4489,0.3845,0.000000,1.000000,0.591223,1.000000,0.000000,0.327333,0.936885,2.000000,0.929725,0.490561,0.938801,1.000000,0.932658,0.868433,0.962542,2.000000,125.000000,1.330000,92.362477,1.000000,1.000000,3.609662,9.431965,2.000000,287.701863,1.044714,141.370885,1.000000,186.598925,8.750118,9.662879,2.000000,3
/home/daniel/Projects/ppsevolution/data/maps/custom_maps/Custom_2_Run_0_Map.csv,squared_error,0.03166662992289772,0.4685,0.3897,0.116845,0.701840,0.482105,1.000000,0.146939,0.366455,1.000000,2.000000,0.560001,0.097976,0.971318,1.000000,0.711544,0.818418,1.000000,2.000000,145.447905,1.163030,76.976810,1.000000,30.240800,3.981320,10.000000,2.000000,223.000121,0.824866,145.955822,1.000000,142.597345,8.274973,10.000000,2.000000,4
/home/daniel/Projects/ppsevolution/data/maps/custom_maps/Custom_2_Run_0_Map.csv,squared_error,0.030933123821407282,0.4761,0.3876,0.000000,0.832195,0.516666,1.000000,0.019233,0.000000,0.839719,2.000000,0.517289,0.152350,0.979904,1.000000,0.780640,1.000000,1.000000,2.000000,125.000000,1.236029,81.849948,1.000000,4.827283,0.500000,8.557467,2.000000,215.525660,0.855316,147.166526,1.000000,156.347322,10.000000,10.000000,2.000000,5
/home/daniel/Projects/ppsevolution/data/maps/custom_maps/Custom_2_Run_0_Map.csv,squared_error,0.03156021613511553,0.4666,0.3890,0.000000,1.000000,0.679858,1.000000,0.353300,0.000000,0.921425,2.000000,0.843953,0.453737,1.000000,1.000000,0.532870,0.771611,0.741883,2.000000,125.000000,1.330000,104.860022,1.000000,71.306695,0.500000,9.292827,2.000000,272.691858,1.024092,150.000000,1.000000,107.041042,7.830302,7.676943,2.000000,6
/home/daniel/Projects/ppsevolution/data/maps/custom_maps/Custom_2_Run_0_Map.csv,squared_error,0.03140508490712276,0.4559,0.3867,0.086462,1.000000,0.547638,1.000000,0.000000,0.000000,0.739233,2.000000,0.938661,0.416576,0.930703,1.000000,0.671449,1.000000,1.000000,2.000000,140.130874,1.330000,86.216990,1.000000,1.000000,0.500000,7.653097,2.000000,289.265735,1.003283,140.229189,1.000000,134.618316,10.000000,10.000000,2.000000,7
/home/daniel/Projects/ppsevolution/data/maps/custom_maps/Custom_2_Run_0_Map.csv,squared_error,0.03160308394848996,0.4677,0.3893,0.000000,1.000000,0.726276,1.000000,0.103739,0.082516,1.000000,2.000000,0.860087,0.425850,1.000000,1.000000,0.878444,0.632892,0.536292,2.000000,125.000000,1.330000,111.404935,1.000000,21.644038,1.283905,10.000000,2.000000,275.515163,1.008476,150.000000,1.000000,175.810291,6.512472,5.826628,2.000000,8
/home/daniel/Projects/ppsevolution/data/maps/custom_maps/Custom_2_Run_0_Map.csv,squared_error,0.03071515804569013,0.4760,0.3867,0.000000,0.892007,0.796141,1.000000,0.211222,0.000000,1.000000,2.000000,1.000000,0.378489,1.000000,1.000000,0.944610,0.930358,0.934172,2.000000,125.000000,1.269524,121.255896,1.000000,43.033187,0.500000,10.000000,2.000000,300.000000,0.981954,150.000000,1.000000,188.977306,9.338401,9.407548,2.000000,9
map,fitness,fitness value,team0ratio,time,HP,Speed,Damage,Acc,ClipSize,RateOfFire,NrBullets,Range,HP,Speed,Damage,Acc,ClipSize,RateOfFire,NrBullets,Range,HP,Speed,Damage,Acc,ClipSize,RateOfFire,NrBullets,Range,HP,Speed,Damage,Acc,ClipSize,RateOfFire,NrBullets,Range,Run,target team0ratio: 0.5,target time: 0.14
/home/daniel/Projects/ppsevolution/data/maps/custom_maps/Custom_3_Run_0_Map.csv,squared_error,0.054941494662924015,0.5226,0.4707,0.000000,0.827342,1.000000,0.972245,0.269232,0.481620,0.963671,2.000000,0.000000,0.353579,0.952725,1.000000,0.848143,0.091129,0.952465,2.000000,125.000000,1.233312,150.000000,0.972245,54.577127,5.075391,9.673042,2.000000,125.000000,0.968004,143.334227,1.000000,169.780397,1.365722,9.572181,2.000000,0
/home/daniel/Projects/ppsevolution/data/maps/custom_maps/Custom_3_Run_0_Map.csv,squared_error,0.054779480159331116,0.5341,0.4692,0.000000,0.279692,0.938241,0.987060,0.001426,0.000000,1.000000,2.000000,0.000000,0.128829,1.000000,1.000000,0.770119,0.111931,0.793033,2.000000,125.000000,0.926627,141.292029,0.987060,1.283748,0.500000,10.000000,2.000000,125.000000,0.842144,150.000000,1.000000,154.253711,1.563348,8.137300,2.000000,1
/home/daniel/Projects/ppsevolution/data/maps/custom_maps/Custom_3_Run_0_Map.csv,squared_error,0.054963272911943646,0.5362,0.4696,0.000000,0.710822,0.964353,0.986636,0.000000,0.347088,0.995720,2.000000,0.066952,0.365396,1.000000,1.000000,0.982510,0.188722,0.793135,2.000000,125.000000,1.168060,144.973828,0.986636,1.000000,3.797335,9.961484,2.000000,136.716678,0.974622,150.000000,1.000000,196.519544,2.292858,8.138213,2.000000,2
/home/daniel/Projects/ppsevolution/data/maps/custom_maps/Custom_3_Run_0_Map.csv,squared_error,0.055089316499039385,0.5393,0.4696,0.015961,0.809511,1.000000,0.984152,0.209657,0.000000,0.811515,2.000000,0.060775,0.049887,1.000000,1.000000,0.957919,0.011696,1.000000,2.000000,127.793190,1.223326,150.000000,0.984152,42.721803,0.500000,8.303632,2.000000,135.635650,0.797937,150.000000,1.000000,191.625822,0.611112,10.000000,2.000000,3
/home/daniel/Projects/ppsevolution/data/maps/custom_maps/Custom_3_Run_0_Map.csv,squared_error,0.054925817115514565,0.5254,0.4705,0.000000,0.923237,0.833882,1.000000,0.000000,0.067323,1.000000,2.000000,0.233673,0.000000,1.000000,1.000000,0.994339,0.069537,0.851630,2.000000,125.000000,1.287013,126.577310,1.000000,1.000000,1.139566,10.000000,2.000000,165.892793,0.770000,150.000000,1.000000,198.873557,1.160598,8.664671,2.000000,4
/home/daniel/Projects/ppsevolution/data/maps/custom_maps/Custom_3_Run_0_Map.csv,squared_error,0.05512227235320569,0.5635,0.4659,0.000000,0.663126,1.000000,0.997539,0.000000,0.711072,1.000000,2.000000,0.013832,0.208940,0.963783,1.000000,0.932666,0.143488,0.876189,2.000000,125.000000,1.141351,150.000000,0.997539,1.000000,7.255183,10.000000,2.000000,127.420673,0.887007,144.893464,1.000000,186.600449,1.863132,8.885699,2.000000,5
/home/daniel/Projects/ppsevolution/data/maps/custom_maps/Custom_3_Run_0_Map.csv,squared_error,0.05508059229225824,0.5496,0.4682,0.000000,0.874172,1.000000,1.000000,0.005740,0.083759,0.996888,2.000000,0.245340,0.000000,1.000000,1.000000,0.719576,0.104078,0.926602,2.000000,125.000000,1.259536,150.000000,1.000000,2.142265,1.295711,9.971996,2.000000,167.934461,0.770000,150.000000,1.000000,144.195556,1.488741,9.339416,2.000000,6
/home/daniel/Projects/ppsevolution/data/maps/custom_maps/Custom_3_Run_0_Map.csv,squared_error,0.055962955044177136,0.5071,0.4745,0.014159,0.876894,1.000000,0.982148,0.074190,0.000000,1.000000,2.000000,0.456842,0.000000,1.000000,1.000000,1.000000,0.701504,0.577012,2.000000,127.477758,1.261061,150.000000,0.982148,15.763723,0.500000,10.000000,2.000000,204.947338,0.770000,150.000000,1.000000,200.000000,7.164289,6.193105,2.000000,7
/home/daniel/Projects/ppsevolution/data/maps/custom_maps/Custom_3_Run_0_Map.csv,squared_error,0.05490627093792949,0.5271,0.4703,0.000000,1.000000,0.942149,0.987409,0.000000,0.997932,1.000000,2.000000,0.113259,0.069977,0.991079,0.998431,0.349355,0.027205,0.924220,2.000000,125.000000,1.330000,141.843013,0.987409,1.000000,9.980358,10.000000,2.000000,144.820293,0.809187,148.742168,0.998431,70.521554,0.758445,9.317984,2.000000,8
/home/daniel/Projects/ppsevolution/data/maps/custom_maps/Custom_3_Run_0_Map.csv,squared_error,0.05449944717690118,0.5265,0.4691,0.015449,0.929860,1.000000,0.976908,0.054104,0.000000,1.000000,2.000000,0.000000,0.000000,0.985916,1.000000,0.930012,0.094721,0.810747,2.000000,127.703533,1.290721,150.000000,0.976908,11.766728,0.500000,10.000000,2.000000,125.000000,0.770000,148.014142,1.000000,186.072393,1.399853,8.296721,2.000000,9
map,fitness,fitness value,team0ratio,time,HP,Speed,Damage,Acc,ClipSize,RateOfFire,NrBullets,Range,HP,Speed,Damage,Acc,ClipSize,RateOfFire,NrBullets,Range,HP,Speed,Damage,Acc,ClipSize,RateOfFire,NrBullets,Range,HP,Speed,Damage,Acc,ClipSize,RateOfFire,NrBullets,Range,Run,target team0ratio: 0.5,target time: 0.14
/home/daniel/Projects/ppsevolution/data/maps/custom_maps/Custom_4_Run_0_Map.csv,squared_error,0.001555223397437508,0.5078,0.1952,0.027951,0.938102,0.631009,1.000000,0.143693,0.021893,0.987569,2.000000,0.000000,0.496349,0.973059,1.000000,0.891511,0.572998,0.811952,2.000000,129.891373,1.295337,97.972325,1.000000,29.594930,0.707981,9.888124,2.000000,125.000000,1.047955,146.201349,1.000000,178.410783,5.943478,8.307572,2.000000,0
/home/daniel/Projects/ppsevolution/data/maps/custom_maps/Custom_4_Run_0_Map.csv,squared_error,0.0017214772219983437,0.5132,0.1972,0.014674,0.808071,0.876553,1.000000,0.000000,0.313710,0.883099,2.000000,0.257681,0.097614,0.964565,1.000000,1.000000,0.644476,0.135012,2.000000,127.568007,1.222520,132.593976,1.000000,1.000000,3.480246,8.947892,2.000000,170.094106,0.824664,145.003610,1.000000,200.000000,6.622524,2.215110,2.000000,1
/home/daniel/Projects/ppsevolution/data/maps/custom_maps/Custom_4_Run_0_Map.csv,squared_error,0.0015504808397829345,0.5043,0.1955,0.000000,0.567217,0.988109,1.000000,0.000000,0.000000,1.000000,2.000000,0.546898,0.018159,1.000000,1.000000,0.967388,0.664971,0.649851,2.000000,125.000000,1.087641,148.323423,1.000000,1.000000,0.500000,10.000000,2.000000,220.707179,0.780169,150.000000,1.000000,193.510116,6.817224,6.848659,2.000000,2
/home/daniel/Projects/ppsevolution/data/maps/custom_maps/Custom_4_Run_0_Map.csv,squared_error,0.0017056864246390317,0.5033,0.1983,0.000000,0.298648,0.845093,1.000000,0.000000,0.000000,0.872792,2.000000,0.354232,0.302319,0.967776,1.000000,0.702591,0.815125,0.182098,2.000000,125.000000,0.937243,128.158140,1.000000,1.000000,0.500000,8.855132,2.000000,186.990614,0.939299,145.456425,1.000000,140.815554,8.243690,2.638881,2.000000,3
/home/daniel/Projects/ppsevolution/data/maps/custom_maps/Custom_4_Run_0_Map.csv,squared_error,0.0016773775547578036,0.5166,0.1955,0.000000,0.883409,0.851797,1.000000,0.018366,0.148756,1.000000,2.000000,0.265890,0.000000,0.964040,1.000000,0.503397,0.918398,0.636583,2.000000,125.000000,1.264709,129.103424,1.000000,4.654877,1.913181,10.000000,2.000000,171.530722,0.770000,144.929603,1.000000,101.176079,9.224777,6.729243,2.000000,4
/home/daniel/Projects/ppsevolution/data/maps/custom_maps/Custom_4_Run_0_Map.csv,squared_error,0.0016708420722212074,0.5132,0.1963,0.000000,0.312087,0.880551,1.000000,0.040469,0.387113,0.962159,2.000000,0.358061,0.000000,0.957323,1.000000,0.889955,0.884943,0.866657,2.000000,125.000000,0.944769,133.157645,1.000000,9.053366,4.177574,9.659434,2.000000,187.660718,0.770000,143.982565,1.000000,178.101083,8.906959,8.799912,2.000000,5
/home/daniel/Projects/ppsevolution/data/maps/custom_maps/Custom_4_Run_0_Map.csv,squared_error,0.0015578180615257147,0.4995,0.1958,0.000000,0.663672,1.000000,1.000000,0.126027,0.000000,0.865097,2.000000,0.493022,0.000000,1.000000,1.000000,1.000000,0.057261,0.557416,2.000000,125.000000,1.141656,150.000000,1.000000,26.079424,0.500000,8.785869,2.000000,211.278891,0.770000,150.000000,1.000000,200.000000,1.043979,6.016744,2.000000,6
/home/daniel/Projects/ppsevolution/data/maps/custom_maps/Custom_4_Run_0_Map.csv,squared_error,0.0015635455740784239,0.5025,0.1959,0.000000,0.356928,0.887965,1.000000,0.000000,0.044216,0.919379,2.000000,0.427769,0.216520,1.000000,1.000000,0.641730,0.562818,1.000000,2.000000,125.000000,0.969880,134.203006,1.000000,1.000000,0.920052,9.274410,2.000000,199.859504,0.891251,150.000000,1.000000,128.704271,5.846768,10.000000,2.000000,7
/home/daniel/Projects/ppsevolution/data/maps/custom_maps/Custom_4_Run_0_Map.csv,squared_error,0.0016548071763190103,0.5007,0.1975,0.040258,0.686602,0.989044,1.000000,0.025899,0.000000,0.982728,2.000000,0.570599,0.000000,1.000000,1.000000,0.394891,0.665318,0.284554,2.000000,132.045088,1.154497,148.455166,1.000000,6.153972,0.500000,9.844556,2.000000,224.854881,0.770000,150.000000,1.000000,79.583355,6.820523,3.560989,2.000000,8
/home/daniel/Projects/ppsevolution/data/maps/custom_maps/Custom_4_Run_0_Map.csv,squared_error,0.0017402394566448315,0.5036,0.1989,0.033940,0.511103,1.000000,1.000000,0.120056,0.036916,0.953687,2.000000,0.611701,0.045863,0.994697,1.000000,0.541813,0.954093,0.163482,2.000000,130.939481,1.056217,150.000000,1.000000,24.891203,0.850701,9.583185,2.000000,232.047656,0.795683,149.252237,1.000000,108.820853,9.563888,2.471335,2.000000,9
map,fitness,fitness value,team0ratio,time,HP,Speed,Damage,Acc,ClipSize,RateOfFire,NrBullets,Range,HP,Speed,Damage,Acc,ClipSize,RateOfFire,NrBullets,Range,HP,Speed,Damage,Acc,ClipSize,RateOfFire,NrBullets,Range,HP,Speed,Damage,Acc,ClipSize,RateOfFire,NrBullets,Range,Run,target team0ratio: 0.5,target time: 0.14
/home/daniel/Projects/ppsevolution/data/maps/custom_maps/Custom_5_Run_0_Map.csv,squared_error,0.010533784776627003,0.5149,0.2844,0.070900,0.718754,1.000000,0.966872,0.000000,0.376392,1.000000,2.000000,0.000000,0.075442,0.913194,1.000000,0.716115,0.142244,0.812415,0.000000,137.407538,1.172502,150.000000,0.966872,1.000000,4.075727,10.000000,2.000000,125.000000,0.812247,137.760392,1.000000,143.506812,1.851316,8.311734,0.000000,0
/home/daniel/Projects/ppsevolution/data/maps/custom_maps/Custom_5_Run_0_Map.csv,squared_error,0.010933478789485378,0.5112,0.2875,0.000000,0.831695,1.000000,0.972246,0.000000,0.378517,0.871500,2.000000,0.000000,0.650395,1.000000,1.000000,0.865049,0.234499,0.252464,2.000000,125.000000,1.235749,150.000000,0.972246,1.000000,4.095909,8.843497,2.000000,125.000000,1.134221,150.000000,1.000000,173.144832,2.727737,3.272176,2.000000,1
/home/daniel/Projects/ppsevolution/data/maps/custom_maps/Custom_5_Run_0_Map.csv,squared_error,0.010729711424642591,0.5088,0.2862,0.031195,0.599162,1.000000,0.963330,0.619729,0.597647,0.984145,2.000000,0.000000,0.048620,0.798515,1.000000,0.562781,0.000000,1.000000,1.000000,130.459121,1.105531,150.000000,0.963330,124.326100,6.177644,9.857303,2.000000,125.000000,0.797227,121.590666,1.000000,112.993419,0.500000,10.000000,1.000000,2
/home/daniel/Projects/ppsevolution/data/maps/custom_maps/Custom_5_Run_0_Map.csv,squared_error,0.011138727817764623,0.5347,0.2852,0.158233,0.473539,1.000000,0.972226,0.112913,0.256698,0.850911,2.000000,0.019553,0.000000,1.000000,1.000000,0.885478,0.800507,0.832201,2.000000,152.690713,1.035182,150.000000,0.972226,23.469696,2.938632,8.658200,2.000000,128.421741,0.770000,150.000000,1.000000,177.210089,8.104814,8.489809,2.000000,3
/home/daniel/Projects/ppsevolution/data/maps/custom_maps/Custom_5_Run_0_Map.csv,squared_error,0.010910691607644367,0.4925,0.2875,0.162817,0.692776,1.000000,0.955167,0.000000,0.424084,1.000000,2.000000,0.000000,0.020982,0.842043,1.000000,0.799789,0.130872,0.583060,2.000000,153.492959,1.157954,150.000000,0.955167,1.000000,4.528794,10.000000,2.000000,125.000000,0.781750,127.728109,1.000000,160.158047,1.743283,6.247539,2.000000,4
/home/daniel/Projects/ppsevolution/data/maps/custom_maps/Custom_5_Run_0_Map.csv,squared_error,0.010909715781707975,0.5231,0.2859,0.000000,0.380102,1.000000,0.978690,0.645023,0.121107,1.000000,2.000000,0.000000,0.000000,0.907193,1.000000,1.000000,0.110454,0.261790,0.000000,125.000000,0.982857,150.000000,0.978690,129.359502,1.650520,10.000000,2.000000,125.000000,0.770000,136.914149,1.000000,200.000000,1.549316,3.356113,0.000000,5
/home/daniel/Projects/ppsevolution/data/maps/custom_maps/Custom_5_Run_0_Map.csv,squared_error,0.01106006431246317,0.5193,0.2875,0.086473,0.601132,1.000000,0.972324,0.110814,0.316443,1.000000,2.000000,0.000000,0.589795,0.895540,1.000000,1.000000,0.594396,0.000000,2.000000,140.132705,1.106634,150.000000,0.972324,23.051973,3.506205,10.000000,2.000000,125.000000,1.100285,135.271175,1.000000,200.000000,6.146762,1.000000,2.000000,6
/home/daniel/Projects/ppsevolution/data/maps/custom_maps/Custom_5_Run_0_Map.csv,squared_error,0.010941726898596306,0.5146,0.2872,0.041214,0.665895,1.000000,0.972046,0.126912,0.268344,1.000000,2.000000,0.000000,0.059518,1.000000,1.000000,0.960023,0.407590,0.056024,0.000000,132.212507,1.142901,150.000000,0.972046,26.255442,3.049270,10.000000,2.000000,125.000000,0.803330,150.000000,1.000000,192.044605,4.372103,1.504218,0.000000,7
/home/daniel/Projects/ppsevolution/data/maps/custom_maps/Custom_5_Run_0_Map.csv,squared_error,0.010795264285705415,0.5235,0.2850,0.226773,0.662233,0.994648,0.967196,0.039514,0.015537,1.000000,2.000000,0.000000,0.192962,0.855512,1.000000,0.889571,0.411882,0.568648,2.000000,164.685215,1.140850,149.245325,0.967196,8.863266,0.647603,10.000000,2.000000,125.000000,0.878059,129.627163,1.000000,178.024679,4.412877,6.117832,2.000000,8
/home/daniel/Projects/ppsevolution/data/maps/custom_maps/Custom_5_Run_0_Map.csv,squared_error,0.010548106479458811,0.5140,0.2846,0.000000,0.740251,1.000000,0.974118,0.000000,0.738054,1.000000,2.000000,0.000000,0.133026,0.985508,1.000000,0.965064,0.070790,0.433534,0.000000,125.000000,1.184541,150.000000,0.974118,1.000000,7.511515,10.000000,2.000000,125.000000,0.844494,147.956566,1.000000,193.047812,1.172503,4.901802,0.000000,9
map,fitness,fitness value,team0ratio,time,HP,Speed,Damage,Acc,ClipSize,RateOfFire,NrBullets,Range,HP,Speed,Damage,Acc,ClipSize,RateOfFire,NrBullets,Range,HP,Speed,Damage,Acc,ClipSize,RateOfFire,NrBullets,Range,HP,Speed,Damage,Acc,ClipSize,RateOfFire,NrBullets,Range,Run,target team0ratio: 0.5,target time: 0.14
/home/daniel/Projects/ppsevolution/data/maps/custom_maps/Custom_6_Run_0_Map.csv,squared_error,0.05808734210547715,0.3977,0.4651,0.027710,0.828936,0.000000,1.000000,0.025991,0.000000,0.395896,2.000000,0.908388,0.116738,0.984499,0.973486,0.903341,0.987414,0.974024,2.000000,129.849292,1.234204,9.000000,1.000000,6.172215,0.500000,4.563062,2.000000,283.967947,0.835373,147.814424,0.973486,180.764901,9.880432,9.766218,2.000000,0
/home/daniel/Projects/ppsevolution/data/maps/custom_maps/Custom_6_Run_0_Map.csv,squared_error,0.05881691726206133,0.4029,0.4689,0.337594,0.744383,0.000000,1.000000,0.000000,0.272004,0.000000,2.000000,0.934618,0.143315,0.940424,1.000000,0.920703,0.975564,0.971409,2.000000,184.078920,1.186854,9.000000,1.000000,1.000000,3.084039,1.000000,2.000000,288.558222,0.850256,141.599831,1.000000,184.219865,9.767862,9.742679,2.000000,1
/home/daniel/Projects/ppsevolution/data/maps/custom_maps/Custom_6_Run_0_Map.csv,squared_error,0.05886880719561769,0.4278,0.4754,0.136622,0.936155,0.000000,1.000000,0.058663,0.220968,0.837832,2.000000,1.000000,0.026373,0.953347,0.942637,0.712876,0.879331,1.000000,2.000000,148.908913,1.294247,9.000000,1.000000,12.673944,2.599195,8.540491,2.000000,300.000000,0.784769,143.421902,0.942637,142.862405,8.853641,10.000000,2.000000,2
/home/daniel/Projects/ppsevolution/data/maps/custom_maps/Custom_6_Run_0_Map.csv,squared_error,0.058117277234951914,0.3872,0.4617,0.000000,1.000000,0.000000,1.000000,0.031595,0.028663,0.488806,2.000000,1.000000,0.000000,1.000000,0.968787,0.948675,1.000000,0.560086,2.000000,125.000000,1.330000,9.000000,1.000000,7.287477,0.772301,5.399258,2.000000,300.000000,0.770000,150.000000,0.968787,189.786258,10.000000,6.040778,2.000000,3
/home/daniel/Projects/ppsevolution/data/maps/custom_maps/Custom_6_Run_0_Map.csv,squared_error,0.05960193791853622,0.4420,0.4804,0.000000,0.924811,0.002197,1.000000,0.058418,0.260844,0.717879,2.000000,1.000000,0.326082,1.000000,0.914496,1.000000,0.993079,0.443147,2.000000,125.000000,1.287894,9.309774,1.000000,12.625129,2.978022,7.460911,2.000000,300.000000,0.952606,150.000000,0.914496,200.000000,9.934252,4.988319,2.000000,4
/home/daniel/Projects/ppsevolution/data/maps/custom_maps/Custom_6_Run_0_Map.csv,squared_error,0.0599048165158085,0.4307,0.4791,0.000000,0.889684,0.000000,1.000000,0.000000,0.000288,1.000000,2.000000,1.000000,0.000000,1.000000,0.920884,0.977807,0.990755,0.074299,2.000000,125.000000,1.268223,9.000000,1.000000,1.000000,0.502738,10.000000,2.000000,300.000000,0.770000,150.000000,0.920884,195.583644,9.912170,1.668690,2.000000,5
/home/daniel/Projects/ppsevolution/data/maps/custom_maps/Custom_6_Run_0_Map.csv,squared_error,0.059192890462197785,0.3859,0.4646,0.228872,1.000000,0.005795,1.000000,0.065659,0.000000,0.000000,2.000000,1.000000,0.197738,0.894757,1.000000,1.000000,0.713444,0.655114,2.000000,165.052550,1.330000,9.817097,1.000000,14.066055,0.500000,1.000000,2.000000,300.000000,0.880733,135.160792,1.000000,200.000000,7.277722,6.896026,2.000000,6
/home/daniel/Projects/ppsevolution/data/maps/custom_maps/Custom_6_Run_0_Map.csv,squared_error,0.05878783111675877,0.3822,0.4620,0.126692,0.990746,0.001150,1.000000,0.042790,0.299207,0.337485,2.000000,0.998208,0.000000,1.000000,0.985063,1.000000,0.942785,0.543878,2.000000,147.171065,1.324817,9.162124,1.000000,9.515154,3.342468,4.037362,2.000000,299.686321,0.770000,150.000000,0.985063,200.000000,9.456459,5.894905,2.000000,7
/home/daniel/Projects/ppsevolution/data/maps/custom_maps/Custom_6_Run_0_Map.csv,squared_error,0.059330526793363265,0.4212,0.4753,0.000000,1.000000,0.000000,1.000000,0.095289,0.297689,0.713613,2.000000,1.000000,0.131349,0.973837,0.931722,0.853718,0.833191,0.606030,2.000000,125.000000,1.330000,9.000000,1.000000,19.962469,3.328046,7.422514,2.000000,300.000000,0.843556,146.310998,0.931722,170.889941,8.415316,6.454270,2.000000,8
/home/daniel/Projects/ppsevolution/data/maps/custom_maps/Custom_6_Run_0_Map.csv,squared_error,0.05835084250771728,0.3651,0.4538,0.093712,0.983910,0.000000,1.000000,0.139587,0.000000,0.526497,2.000000,1.000000,0.000000,1.000000,1.000000,0.889355,1.000000,0.935636,2.000000,141.399664,1.320990,9.000000,1.000000,28.777852,0.500000,5.738470,2.000000,300.000000,0.770000,150.000000,1.000000,177.981566,10.000000,9.420726,2.000000,9
map,fitness,fitness value,team0ratio,time,HP,Speed,Damage,Acc,ClipSize,RateOfFire,NrBullets,Range,HP,Speed,Damage,Acc,ClipSize,RateOfFire,NrBullets,Range,HP,Speed,Damage,Acc,ClipSize,RateOfFire,NrBullets,Range,HP,Speed,Damage,Acc,ClipSize,RateOfFire,NrBullets,Range,Run,target team0ratio: 0.5,target time: 0.14
/home/daniel/Projects/ppsevolution/data/maps/custom_maps/Custom_7_Run_0_Map.csv,squared_error,0.016856436066854025,0.4870,0.3231,0.000000,1.000000,0.766680,1.000000,0.277973,0.148215,0.881438,2.000000,0.913204,0.166849,1.000000,1.000000,0.940189,0.986038,0.753071,2.000000,125.000000,1.330000,117.101906,1.000000,56.316662,1.908041,8.932941,2.000000,284.810669,0.863435,150.000000,1.000000,188.097537,9.867357,7.777638,2.000000,0
/home/daniel/Projects/ppsevolution/data/maps/custom_maps/Custom_7_Run_0_Map.csv,squared_error,0.016689539342269813,0.4878,0.3223,0.039246,0.439228,0.688734,1.000000,0.012232,0.199434,0.968077,2.000000,0.745526,0.321648,1.000000,1.000000,0.923196,0.782944,1.000000,2.000000,131.868007,1.015968,106.111436,1.000000,3.434240,2.394625,9.712696,2.000000,255.467086,0.950123,150.000000,1.000000,184.716077,7.937968,10.000000,2.000000,1
/home/daniel/Projects/ppsevolution/data/maps/custom_maps/Custom_7_Run_0_Map.csv,squared_error,0.01695954170417008,0.4958,0.3241,0.000000,0.576343,0.796737,1.000000,0.000000,0.239935,0.854495,2.000000,0.863333,0.224088,1.000000,1.000000,1.000000,0.922788,0.651862,2.000000,125.000000,1.092752,121.339949,1.000000,1.000000,2.779380,8.690451,2.000000,276.083284,0.895489,150.000000,1.000000,200.000000,9.266482,6.866762,2.000000,2
/home/daniel/Projects/ppsevolution/data/maps/custom_maps/Custom_7_Run_0_Map.csv,squared_error,0.017279303630922015,0.4765,0.3244,0.000000,0.758311,0.660977,1.000000,0.046519,0.196617,1.000000,2.000000,0.906990,0.090716,0.804036,1.000000,0.766489,0.940393,0.650356,2.000000,125.000000,1.194654,102.197728,1.000000,10.257328,2.367858,10.000000,2.000000,283.723263,0.820801,122.369007,1.000000,153.531298,9.433738,6.853201,2.000000,3
/home/daniel/Projects/ppsevolution/data/maps/custom_maps/Custom_7_Run_0_Map.csv,squared_error,0.016887177033407117,0.4914,0.3236,0.000000,0.558629,0.817478,1.000000,0.012366,0.000000,0.943657,2.000000,0.916355,0.289859,1.000000,1.000000,0.388124,0.855241,0.760354,2.000000,125.000000,1.082832,124.264374,1.000000,3.460813,0.500000,9.492916,2.000000,285.362113,0.932321,150.000000,1.000000,78.236658,8.624789,7.843190,2.000000,4
/home/daniel/Projects/ppsevolution/data/maps/custom_maps/Custom_7_Run_0_Map.csv,squared_error,0.016900438955706084,0.4886,0.3235,0.048469,0.874662,0.499581,1.000000,0.000000,0.187022,1.000000,2.000000,0.435981,0.078423,0.969612,1.000000,0.775305,1.000000,0.584596,2.000000,133.482093,1.259811,79.440922,1.000000,1.000000,2.276707,10.000000,2.000000,201.296601,0.813917,145.715281,1.000000,155.285637,10.000000,6.261363,2.000000,5
/home/daniel/Projects/ppsevolution/data/maps/custom_maps/Custom_7_Run_0_Map.csv,squared_error,0.016737654759373718,0.4941,0.3229,0.000000,0.962843,0.490647,1.000000,0.201332,0.047981,1.000000,2.000000,0.276910,0.000000,0.988671,1.000000,0.800442,0.749524,0.849263,2.000000,125.000000,1.309192,78.181188,1.000000,41.065050,0.955819,10.000000,2.000000,173.459219,0.770000,148.402660,1.000000,160.287975,7.620478,8.643366,2.000000,6
/home/daniel/Projects/ppsevolution/data/maps/custom_maps/Custom_7_Run_0_Map.csv,squared_error,0.0165663927795291,0.4695,0.3195,0.072503,0.779008,0.418565,1.000000,0.000000,0.000000,0.941356,2.000000,0.462662,0.250459,1.000000,1.000000,0.876434,0.826406,1.000000,2.000000,137.687940,1.206245,68.017688,1.000000,1.000000,0.500000,9.472201,2.000000,205.965914,0.910257,150.000000,1.000000,175.410354,8.350862,10.000000,2.000000,7
/home/daniel/Projects/ppsevolution/data/maps/custom_maps/Custom_7_Run_0_Map.csv,squared_error,0.017110558225088158,0.4842,0.3243,0.000000,0.436352,0.866141,0.997577,0.120110,0.230675,0.955311,2.000000,1.000000,0.084668,1.000000,1.000000,0.356582,0.873662,0.855890,2.000000,125.000000,1.014357,131.125935,0.997577,24.901806,2.691417,9.597798,2.000000,300.000000,0.817414,150.000000,1.000000,71.959807,8.799792,8.703013,2.000000,8
/home/daniel/Projects/ppsevolution/data/maps/custom_maps/Custom_7_Run_0_Map.csv,squared_error,0.016861286460042486,0.4791,0.3224,0.000000,1.000000,0.664871,1.000000,0.000000,0.264629,1.000000,2.000000,0.890091,0.259845,0.852723,1.000000,1.000000,0.978946,0.892962,2.000000,125.000000,1.330000,102.746844,1.000000,1.000000,3.013978,10.000000,2.000000,280.765926,0.915513,129.233976,1.000000,200.000000,9.799986,9.036654,2.000000,9
map,fitness,fitness value,team0ratio,time,HP,Speed,Damage,Acc,ClipSize,RateOfFire,NrBullets,Range,HP,Speed,Damage,Acc,ClipSize,RateOfFire,NrBullets,Range,HP,Speed,Damage,Acc,ClipSize,RateOfFire,NrBullets,Range,HP,Speed,Damage,Acc,ClipSize,RateOfFire,NrBullets,Range,Run,target team0ratio: 0.5,target time: 0.14
/home/daniel/Projects/ppsevolution/data/maps/custom_maps/Custom_8_Run_0_Map.csv,squared_error,0.0031764974752597954,0.5043,0.2196,0.000000,0.947684,0.999436,1.000000,0.446642,0.082853,0.984978,2.000000,0.795523,0.224829,1.000000,1.000000,0.927110,0.796535,0.434208,2.000000,125.000000,1.300703,149.920493,1.000000,89.881792,1.287105,9.864804,2.000000,264.216505,0.895904,150.000000,1.000000,185.494947,8.067086,4.907872,2.000000,0
/home/daniel/Projects/ppsevolution/data/maps/custom_maps/Custom_8_Run_0_Map.csv,squared_error,0.0029606003791852,0.5189,0.2146,0.000000,0.436888,0.957849,1.000000,0.069377,0.190390,1.000000,2.000000,0.494555,0.000000,1.000000,1.000000,0.959204,0.425621,0.830666,2.000000,125.000000,1.014657,144.056727,1.000000,14.806004,2.308702,10.000000,2.000000,211.547081,0.770000,150.000000,1.000000,191.881626,4.543396,8.475990,2.000000,1
/home/daniel/Projects/ppsevolution/data/maps/custom_maps/Custom_8_Run_0_Map.csv,squared_error,0.0028457767729546416,0.5027,0.2154,0.000000,0.836379,0.960878,1.000000,0.201925,0.100448,1.000000,2.000000,0.585671,0.000000,1.000000,1.000000,0.472585,0.000000,0.947360,2.000000,125.000000,1.238372,144.483810,1.000000,41.183075,1.454260,10.000000,2.000000,227.492384,0.770000,150.000000,1.000000,95.044455,0.500000,9.526240,2.000000,2
/home/daniel/Projects/ppsevolution/data/maps/custom_maps/Custom_8_Run_0_Map.csv,squared_error,0.0030174790158014756,0.5050,0.2175,0.059192,1.000000,0.842630,1.000000,0.377712,0.000000,1.000000,2.000000,0.521024,0.051250,1.000000,1.000000,0.820981,0.466133,0.654208,2.000000,135.358684,1.330000,127.810807,1.000000,76.164689,0.500000,10.000000,2.000000,216.179281,0.798700,150.000000,1.000000,164.375220,4.928267,6.887868,2.000000,3
/home/daniel/Projects/ppsevolution/data/maps/custom_maps/Custom_8_Run_0_Map.csv,squared_error,0.002841757593123381,0.5049,0.2152,0.008879,1.000000,0.730304,0.987108,0.060314,0.024351,1.000000,2.000000,0.148249,0.512768,1.000000,1.000000,1.000000,0.910571,0.919822,2.000000,126.553753,1.330000,111.972911,0.987108,13.002514,0.731332,10.000000,2.000000,150.943658,1.057150,150.000000,1.000000,200.000000,9.150423,9.278397,2.000000,4
/home/daniel/Projects/ppsevolution/data/maps/custom_maps/Custom_8_Run_0_Map.csv,squared_error,0.0030974009424812312,0.4996,0.2187,0.000000,0.981741,0.933736,1.000000,0.122187,0.000000,1.000000,2.000000,0.683511,0.642679,0.963292,1.000000,0.645697,0.398501,0.416497,2.000000,125.000000,1.319775,140.656825,1.000000,25.315125,0.500000,10.000000,2.000000,244.614509,1.129900,144.824137,1.000000,129.493697,4.285760,4.748474,2.000000,5
/home/daniel/Projects/ppsevolution/data/maps/custom_maps/Custom_8_Run_0_Map.csv,squared_error,0.003016043373955774,0.5061,0.2174,0.000000,0.989711,0.773953,1.000000,0.000000,0.082045,1.000000,2.000000,0.305816,0.000000,0.970131,1.000000,0.898490,0.524636,0.010903,2.000000,125.000000,1.324238,118.127371,1.000000,1.000000,1.279430,10.000000,2.000000,178.517845,0.770000,145.788433,1.000000,179.799512,5.484041,1.098127,2.000000,6
/home/daniel/Projects/ppsevolution/data/maps/custom_maps/Custom_8_Run_0_Map.csv,squared_error,0.0029790068074347776,0.5100,0.2165,0.000000,0.455979,0.742798,1.000000,0.000000,0.176242,0.883741,2.000000,0.264001,0.000000,1.000000,1.000000,0.774431,0.601971,0.604010,2.000000,125.000000,1.025348,113.734465,1.000000,1.000000,2.174301,8.953671,2.000000,171.200256,0.770000,150.000000,1.000000,155.111794,6.218725,6.436088,2.000000,7
/home/daniel/Projects/ppsevolution/data/maps/custom_maps/Custom_8_Run_0_Map.csv,squared_error,0.0029416468015338406,0.5035,0.2166,0.000000,0.631582,0.731326,0.985085,0.000000,0.183119,0.976658,2.000000,0.076836,0.741319,1.000000,1.000000,0.782404,0.854959,0.690425,2.000000,125.000000,1.123686,112.117027,0.985085,1.000000,2.239632,9.789921,2.000000,138.446293,1.185139,150.000000,1.000000,156.698328,8.622114,7.213823,2.000000,8
/home/daniel/Projects/ppsevolution/data/maps/custom_maps/Custom_8_Run_0_Map.csv,squared_error,0.0031003816932939133,0.5097,0.2181,0.000000,0.967897,0.602134,1.000000,0.000000,0.000000,0.966298,2.000000,0.110497,0.169285,0.882459,1.000000,0.853774,0.625313,0.073801,2.000000,125.000000,1.312022,93.900917,1.000000,1.000000,0.500000,9.696679,2.000000,144.337036,0.864800,133.426684,1.000000,170.900992,6.440471,1.664209,2.000000,9
map,fitness,fitness value,team0ratio,time,HP,Speed,Damage,Acc,ClipSize,RateOfFire,NrBullets,Range,HP,Speed,Damage,Acc,ClipSize,RateOfFire,NrBullets,Range,HP,Speed,Damage,Acc,ClipSize,RateOfFire,NrBullets,Range,HP,Speed,Damage,Acc,ClipSize,RateOfFire,NrBullets,Range,Run,target team0ratio: 0.5,target time: 0.14
/home/daniel/Projects/ppsevolution/data/maps/custom_maps/Custom_9_Run_0_Map.csv,squared_error,0.0012817444514304195,0.5169,0.1877,0.021676,0.881751,0.759863,0.981158,0.067415,0.297403,1.000000,2.000000,0.129027,0.417871,0.867302,1.000000,0.489500,0.228579,0.444632,2.000000,128.793344,1.263781,116.140623,0.981158,14.415642,3.325328,10.000000,2.000000,147.579735,1.004008,131.289610,1.000000,98.410487,2.671499,5.001690,2.000000,0
/home/daniel/Projects/ppsevolution/data/maps/custom_maps/Custom_9_Run_0_Map.csv,squared_error,0.0012507890241251823,0.5031,0.1899,0.015437,0.988850,0.787779,1.000000,0.000000,0.128446,1.000000,2.000000,0.813384,0.001110,1.000000,1.000000,0.714546,0.880057,0.718638,2.000000,127.701388,1.323756,120.076830,1.000000,1.000000,1.720233,10.000000,2.000000,267.342258,0.770621,150.000000,1.000000,143.194598,8.860544,7.467738,2.000000,1
/home/daniel/Projects/ppsevolution/data/maps/custom_maps/Custom_9_Run_0_Map.csv,squared_error,0.0014059473863403354,0.5167,0.1903,0.000000,0.539593,1.000000,1.000000,0.061777,0.000000,0.730701,2.000000,0.867202,0.206498,0.940022,1.000000,0.748854,0.076589,0.427420,2.000000,125.000000,1.072172,150.000000,1.000000,13.293702,0.500000,7.576312,2.000000,276.760305,0.885639,141.543166,1.000000,150.022008,1.227592,4.846778,2.000000,2
/home/daniel/Projects/ppsevolution/data/maps/custom_maps/Custom_9_Run_0_Map.csv,squared_error,0.0011560427792571156,0.4997,0.1881,0.062715,0.729501,0.461178,1.000000,0.070953,0.000000,1.000000,2.000000,0.215298,0.435246,1.000000,1.000000,0.643109,0.345479,0.846707,2.000000,135.975162,1.178521,74.026119,1.000000,15.119689,0.500000,10.000000,2.000000,162.677125,1.013738,150.000000,1.000000,128.978650,3.782049,8.620363,2.000000,3
/home/daniel/Projects/ppsevolution/data/maps/custom_maps/Custom_9_Run_0_Map.csv,squared_error,0.001296939941447945,0.5016,0.1909,0.000000,0.934601,0.591186,1.000000,0.255881,0.395114,1.000000,1.000000,0.142329,0.337319,1.000000,1.000000,0.649003,0.176011,0.328713,2.000000,125.000000,1.293377,92.357257,1.000000,51.920229,4.253578,10.000000,1.000000,149.907539,0.958899,150.000000,1.000000,130.151583,2.172107,3.958413,2.000000,4
/home/daniel/Projects/ppsevolution/data/maps/custom_maps/Custom_9_Run_0_Map.csv,squared_error,0.001155904369118423,0.5023,0.1880,0.000000,0.304549,0.666220,1.000000,0.101381,0.127542,1.000000,2.000000,0.471107,0.005700,0.945658,1.000000,0.772736,0.235273,0.813566,2.000000,125.000000,0.940547,102.937037,1.000000,21.174789,1.711648,10.000000,2.000000,207.443712,0.773192,142.337788,1.000000,154.774436,2.735096,8.322096,2.000000,5
/home/daniel/Projects/ppsevolution/data/maps/custom_maps/Custom_9_Run_0_Map.csv,squared_error,0.001242467509498723,0.5076,0.1893,0.023937,0.784901,0.978956,1.000000,0.041248,0.045958,1.000000,2.000000,0.836279,0.119929,0.950259,1.000000,0.600130,0.000000,0.177471,2.000000,129.188899,1.209544,147.032806,1.000000,9.208363,0.936597,10.000000,2.000000,271.348764,0.837160,142.986561,1.000000,120.425776,0.500000,2.597241,2.000000,6
/home/daniel/Projects/ppsevolution/data/maps/custom_maps/Custom_9_Run_0_Map.csv,squared_error,0.0012388895070464961,0.5032,0.1897,0.000000,1.000000,0.844434,0.993203,0.000000,0.212930,1.000000,2.000000,0.520324,0.418952,0.922242,1.000000,0.563850,0.023883,0.000000,2.000000,125.000000,1.330000,128.065186,0.993203,1.000000,2.522836,10.000000,2.000000,216.056638,1.004613,139.036134,1.000000,113.206075,0.726885,1.000000,2.000000,7
/home/daniel/Projects/ppsevolution/data/maps/custom_maps/Custom_9_Run_0_Map.csv,squared_error,0.0012870265791184105,0.5010,0.1907,0.000000,0.974774,0.516028,1.000000,0.004281,0.174433,0.952305,2.000000,0.330087,0.586339,1.000000,1.000000,0.876401,0.858497,0.257490,2.000000,125.000000,1.315873,81.760018,1.000000,1.851901,2.157112,9.570748,2.000000,182.765301,1.098350,150.000000,1.000000,175.403833,8.655718,3.317407,2.000000,8
/home/daniel/Projects/ppsevolution/data/maps/custom_maps/Custom_9_Run_0_Map.csv,squared_error,0.0011995727820182673,0.5131,0.1872,0.000000,0.873510,0.418777,1.000000,0.000000,0.059641,0.974357,2.000000,0.000000,0.271043,1.000000,1.000000,0.569997,0.694783,0.557372,2.000000,125.000000,1.259165,68.047608,1.000000,1.000000,1.066587,9.769209,2.000000,125.000000,0.921784,150.000000,1.000000,114.429361,7.100441,6.016344,2.000000,9
map,fitness,fitness value,team0ratio,time,HP,Speed,Damage,Acc,ClipSize,RateOfFire,NrBullets,Range,HP,Speed,Damage,Acc,ClipSize,RateOfFire,NrBullets,Range,HP,Speed,Damage,Acc,ClipSize,RateOfFire,NrBullets,Range,HP,Speed,Damage,Acc,ClipSize,RateOfFire,NrBullets,Range,Run,target team0ratio: 0.5,target time: 0.14
/home/daniel/Projects/ppsevolution/data/maps/custom_maps/Custom_10_Run_0_Map.csv,squared_error,0.02102222999380378,0.5355,0.3420,0.000000,0.486826,1.000000,1.000000,0.058426,0.434501,1.000000,2.000000,0.010690,0.024828,1.000000,1.000000,0.773089,0.000000,0.421181,1.000000,125.000000,1.042623,150.000000,1.000000,12.626852,4.627763,10.000000,2.000000,126.870717,0.783904,150.000000,1.000000,154.844795,0.500000,4.790626,1.000000,0
/home/daniel/Projects/ppsevolution/data/maps/custom_maps/Custom_10_Run_0_Map.csv,squared_error,0.020742292927650213,0.5362,0.3404,0.000000,0.349993,1.000000,1.000000,0.165822,1.000000,1.000000,2.000000,0.171892,0.000000,1.000000,1.000000,1.000000,0.092514,1.000000,0.000000,125.000000,0.965996,150.000000,1.000000,33.998614,10.000000,10.000000,2.000000,155.081116,0.770000,150.000000,1.000000,200.000000,1.378885,10.000000,0.000000,1
/home/daniel/Projects/ppsevolution/data/maps/custom_maps/Custom_10_Run_0_Map.csv,squared_error,0.02090063079152098,0.5486,0.3386,0.000000,0.899859,1.000000,1.000000,0.257472,0.868510,1.000000,2.000000,0.000000,0.203249,1.000000,1.000000,0.882386,0.183584,1.000000,2.000000,125.000000,1.273921,150.000000,1.000000,52.236841,8.750847,10.000000,2.000000,125.000000,0.883819,150.000000,1.000000,176.594759,2.244050,10.000000,2.000000,2
/home/daniel/Projects/ppsevolution/data/maps/custom_maps/Custom_10_Run_0_Map.csv,squared_error,0.02113716804661759,0.5426,0.3411,0.157300,0.061361,1.000000,0.983642,0.151513,0.168114,0.988177,2.000000,0.000000,0.063822,0.758614,1.000000,0.835619,0.019075,1.000000,0.000000,152.527585,0.804362,150.000000,0.983642,31.151019,2.097082,9.893594,2.000000,125.000000,0.805740,115.964534,1.000000,167.288242,0.681217,10.000000,0.000000,3
/home/daniel/Projects/ppsevolution/data/maps/custom_maps/Custom_10_Run_0_Map.csv,squared_error,0.020809817771416477,0.5177,0.3432,0.000000,0.458526,1.000000,0.973691,0.144252,1.000000,0.990216,2.000000,0.000000,0.754246,0.878475,1.000000,0.984605,0.084172,1.000000,0.000000,125.000000,1.026774,150.000000,0.973691,29.706196,10.000000,9.911948,2.000000,125.000000,1.192378,132.864907,1.000000,196.936473,1.299631,10.000000,0.000000,4
/home/daniel/Projects/ppsevolution/data/maps/custom_maps/Custom_10_Run_0_Map.csv,squared_error,0.02066590883536388,0.5211,0.3422,0.269499,0.975136,1.000000,0.970564,0.000000,0.620262,1.000000,2.000000,0.000000,0.385002,1.000000,1.000000,0.669753,0.000000,1.000000,0.000000,172.162299,1.316076,150.000000,0.970564,1.000000,6.392493,10.000000,2.000000,125.000000,0.985601,150.000000,1.000000,134.280918,0.500000,10.000000,0.000000,5
/home/daniel/Projects/ppsevolution/data/maps/custom_maps/Custom_10_Run_0_Map.csv,squared_error,0.020826057276356214,0.5484,0.3383,0.000000,0.970585,1.000000,1.000000,0.000000,0.464293,1.000000,2.000000,0.012820,0.406134,1.000000,1.000000,1.000000,0.000000,0.955168,1.000000,125.000000,1.313527,150.000000,1.000000,1.000000,4.910782,10.000000,2.000000,127.243530,0.997435,150.000000,1.000000,200.000000,0.500000,9.596509,1.000000,6
/home/daniel/Projects/ppsevolution/data/maps/custom_maps/Custom_10_Run_0_Map.csv,squared_error,0.021309585433042007,0.5328,0.3438,0.000000,1.000000,1.000000,1.000000,0.012563,0.029728,0.961004,2.000000,0.000000,0.030695,1.000000,1.000000,0.831572,0.000000,0.168896,2.000000,125.000000,1.330000,150.000000,1.000000,3.500133,0.782416,9.649033,2.000000,125.000000,0.787189,150.000000,1.000000,166.482904,0.500000,2.520065,2.000000,7
/home/daniel/Projects/ppsevolution/data/maps/custom_maps/Custom_10_Run_0_Map.csv,squared_error,0.020504961757195492,0.5472,0.3369,0.000000,0.977374,1.000000,1.000000,0.042482,0.898838,1.000000,2.000000,0.000000,0.066218,1.000000,1.000000,0.704088,0.034449,0.841450,0.000000,125.000000,1.317329,150.000000,1.000000,9.453915,9.038961,10.000000,2.000000,125.000000,0.807082,150.000000,1.000000,141.113459,0.827265,8.573050,0.000000,8
/home/daniel/Projects/ppsevolution/data/maps/custom_maps/Custom_10_Run_0_Map.csv,squared_error,0.02087136209931042,0.5291,0.3422,0.148894,0.755754,1.000000,0.985404,0.000000,0.558298,1.000000,2.000000,0.000000,0.507433,0.986957,1.000000,0.864860,0.000000,0.846451,2.000000,151.056432,1.193222,150.000000,0.985404,1.000000,5.803828,10.000000,2.000000,125.000000,1.054162,148.160968,1.000000,173.107235,0.500000,8.618061,2.000000,9
