map,fitness,fitness value,team0ratio,time,HP,Speed,Damage,Acc,ClipSize,RateOfFire,NrBullets,Range,HP,Speed,Damage,Acc,ClipSize,RateOfFire,NrBullets,Range,HP,Speed,Damage,Acc,ClipSize,RateOfFire,NrBullets,Range,HP,Speed,Damage,Acc,ClipSize,RateOfFire,NrBullets,Range,Run,target team0ratio: 0.5,target time: 0.72
/home/daniel/Projects/ppsevolution/data/maps/custom_maps/Custom_1_Run_0_Map.csv,squared_error,7.307621193149606e-07,0.5005,0.7211,0.787675,1.000000,0.000000,0.000000,0.000000,0.071569,0.792623,0.000000,1.000000,0.247311,0.000000,0.000000,0.709020,0.971983,0.000000,2.000000,262.843129,1.330000,9.000000,0.000000,1.000000,1.179907,8.133605,0.000000,300.000000,0.908494,9.000000,0.000000,142.095023,9.733843,1.000000,2.000000,0
/home/daniel/Projects/ppsevolution/data/maps/custom_maps/Custom_1_Run_0_Map.csv,squared_error,4.2867874347221175e-07,0.5005,0.7192,0.888216,0.878131,0.000000,0.000000,0.302998,0.413771,0.712818,1.000000,1.000000,0.303517,0.000000,0.029598,1.000000,0.421837,0.116668,2.000000,280.437766,1.261754,9.000000,0.000000,61.296690,4.430823,7.415361,1.000000,300.000000,0.939969,9.000000,0.029598,200.000000,4.507454,2.050011,2.000000,1
/home/daniel/Projects/ppsevolution/data/maps/custom_maps/Custom_1_Run_0_Map.csv,squared_error,3.8156142933303936e-07,0.4992,0.7202,0.880101,0.890523,0.000000,0.000000,0.147936,0.153329,0.763934,1.000000,1.000000,0.366621,0.023988,0.000000,1.000000,0.867493,0.138428,0.000000,279.017607,1.268693,9.000000,0.000000,30.439305,1.956625,7.875403,1.000000,300.000000,0.975308,12.382295,0.000000,200.000000,8.741179,2.245850,0.000000,2
/home/daniel/Projects/ppsevolution/data/maps/custom_maps/Custom_1_Run_0_Map.csv,squared_error,4.172234228690059e-07,0.5003,0.7191,0.821817,0.523506,0.000000,0.000000,0.141088,0.000000,0.454749,1.000000,0.911521,0.570410,0.000000,0.000000,1.000000,1.000000,0.148898,1.000000,268.818044,1.063164,9.000000,0.000000,29.076586,0.500000,5.092745,1.000000,284.516092,1.089429,9.000000,0.000000,200.000000,10.000000,2.340081,1.000000,3
/home/daniel/Projects/ppsevolution/data/maps/custom_maps/Custom_1_Run_0_Map.csv,squared_error,2.513148787926532e-07,0.4995,0.7205,0.817766,0.844108,0.000000,0.023612,0.118481,0.009181,0.490393,0.000000,1.000000,0.000000,0.010679,0.000000,0.645255,1.000000,0.047255,2.000000,268.108967,1.242700,9.000000,0.023612,24.577652,0.587217,5.413540,0.000000,300.000000,0.770000,10.505737,0.000000,129.405692,10.000000,1.425297,2.000000,4
/home/daniel/Projects/ppsevolution/data/maps/custom_maps/Custom_1_Run_0_Map.csv,squared_error,2.0266456289234648e-07,0.4994,0.7198,0.782804,0.924576,0.000000,0.000000,0.215116,0.257038,0.565112,2.000000,0.973195,0.000000,0.000000,0.000000,1.000000,0.889224,0.000000,1.000000,261.990645,1.287763,9.000000,0.000000,43.808109,2.941861,6.086009,2.000000,295.309197,0.770000,9.000000,0.000000,200.000000,8.947630,1.000000,1.000000,5
/home/daniel/Projects/ppsevolution/data/maps/custom_maps/Custom_1_Run_0_Map.csv,squared_error,5.993494936091957e-07,0.5001,0.7189,0.837057,0.889423,0.000000,0.029567,0.122779,0.000000,0.287712,1.000000,0.951232,0.000000,0.000000,0.000000,0.893233,0.969493,0.300958,0.000000,271.485031,1.268077,9.000000,0.029567,25.432943,0.500000,3.589410,1.000000,291.465660,0.770000,9.000000,0.000000,178.753399,9.710179,3.708626,0.000000,6
/home/daniel/Projects/ppsevolution/data/maps/custom_maps/Custom_1_Run_0_Map.csv,squared_error,9.590911809283672e-07,0.4991,0.7210,0.887037,0.294141,0.000000,0.000000,0.212083,0.000000,0.642863,0.000000,1.000000,0.000000,0.016031,0.029468,1.000000,0.743047,0.028733,0.000000,280.231510,0.934719,9.000000,0.000000,43.204524,0.500000,6.785764,0.000000,300.000000,0.770000,11.260355,0.029468,200.000000,7.558949,1.258599,0.000000,7
/home/daniel/Projects/ppsevolution/data/maps/custom_maps/Custom_1_Run_0_Map.csv,squared_error,1.8956328389670827e-06,0.4996,0.7219,0.830723,1.000000,0.000000,0.000000,0.540261,0.000000,0.223840,2.000000,0.901193,0.217273,0.000000,0.000000,1.000000,0.767546,0.180527,1.000000,270.376446,1.330000,9.000000,0.000000,108.511875,0.500000,3.014556,2.000000,282.708696,0.891673,9.000000,0.000000,200.000000,7.791682,2.624746,1.000000,8
/home/daniel/Projects/ppsevolution/data/maps/custom_maps/Custom_1_Run_0_Map.csv,squared_error,8.137431822781552e-07,0.4987,0.7198,0.791676,0.993915,0.000000,0.000000,0.122840,0.000000,0.827150,2.000000,1.000000,0.643615,0.000000,0.000000,0.986629,0.987775,0.000000,1.000000,263.543329,1.326592,9.000000,0.000000,25.445074,0.500000,8.444354,2.000000,300.000000,1.130424,9.000000,0.000000,197.339220,9.883858,1.000000,1.000000,9
map,fitness,fitness value,team0ratio,time,HP,Speed,Damage,Acc,ClipSize,RateOfFire,NrBullets,Range,HP,Speed,Damage,Acc,ClipSize,RateOfFire,NrBullets,Range,HP,Speed,Damage,Acc,ClipSize,RateOfFire,NrBullets,Range,HP,Speed,Damage,Acc,ClipSize,RateOfFire,NrBullets,Range,Run,target team0ratio: 0.5,target time: 0.72
/home/daniel/Projects/ppsevolution/data/maps/custom_maps/Custom_2_Run_0_Map.csv,squared_error,4.2978122975226705e-07,0.5008,0.7195,0.000000,1.000000,0.000000,0.554920,0.101982,0.000000,1.000000,1.000000,0.949754,0.000000,0.000000,0.159485,1.000000,0.840725,0.015968,1.000000,125.000000,1.330000,9.000000,0.554920,21.294434,0.500000,10.000000,1.000000,291.206985,0.770000,9.000000,0.159485,200.000000,8.486887,1.143709,1.000000,0
/home/daniel/Projects/ppsevolution/data/maps/custom_maps/Custom_2_Run_0_Map.csv,squared_error,6.877589657790516e-07,0.5011,0.7205,0.602916,0.742724,0.061602,0.463786,0.277266,0.229733,0.914696,1.000000,0.964706,0.000000,0.000000,0.389768,1.000000,1.000000,0.111762,0.000000,230.510305,1.185925,17.685834,0.463786,56.175966,2.682461,9.232262,1.000000,293.823605,0.770000,9.000000,0.389768,200.000000,10.000000,2.005859,0.000000,1
/home/daniel/Projects/ppsevolution/data/maps/custom_maps/Custom_2_Run_0_Map.csv,squared_error,1.09008753517229e-06,0.4986,0.7196,0.160972,0.889380,0.000000,0.542326,0.080425,0.063826,0.749774,0.000000,0.874662,0.091181,0.000000,0.231058,1.000000,0.638013,0.131773,0.000000,153.170168,1.268053,9.000000,0.542326,17.004612,1.106347,7.747970,0.000000,278.065784,0.821062,9.000000,0.231058,200.000000,6.561127,2.185961,0.000000,2
/home/daniel/Projects/ppsevolution/data/maps/custom_maps/Custom_2_Run_0_Map.csv,squared_error,1.0489745546919523e-07,0.4996,0.7198,0.000000,1.000000,0.141934,0.439762,0.000000,0.000000,0.747727,0.000000,0.925387,0.000000,0.000000,0.135258,0.911193,0.675620,0.224080,1.000000,125.000000,1.330000,29.012633,0.439762,1.000000,0.500000,7.729547,0.000000,286.942678,0.770000,9.000000,0.135258,182.327433,6.918395,3.016720,1.000000,3
/home/daniel/Projects/ppsevolution/data/maps/custom_maps/Custom_2_Run_0_Map.csv,squared_error,5.47300498806157e-07,0.4994,0.7191,0.220002,0.874448,0.000000,0.552794,0.007525,0.052816,0.837005,2.000000,0.962340,0.048636,0.000000,0.262849,1.000000,1.000000,0.000000,2.000000,163.500288,1.259691,9.000000,0.552794,2.497551,1.001752,8.533046,2.000000,293.409463,0.797236,9.000000,0.262849,200.000000,10.000000,1.000000,2.000000,4
/home/daniel/Projects/ppsevolution/data/maps/custom_maps/Custom_2_Run_0_Map.csv,squared_error,3.4662889071128737e-07,0.4992,0.7200,0.162069,1.000000,0.135236,0.426901,0.406246,0.095867,0.781280,0.000000,0.947781,0.003017,0.000000,0.209405,0.679313,0.588928,0.142691,0.000000,153.362100,1.330000,28.068208,0.426901,81.842970,1.410741,8.031518,0.000000,290.861664,0.771690,9.000000,0.209405,136.183229,6.094815,2.284221,0.000000,5
/home/daniel/Projects/ppsevolution/data/maps/custom_maps/Custom_2_Run_0_Map.csv,squared_error,4.12844627231851e-07,0.5007,0.7206,0.168357,0.695990,0.198580,0.273876,0.229752,0.156522,0.940138,0.000000,0.731147,0.409722,0.000000,0.202531,0.805463,1.000000,0.191456,2.000000,154.462507,1.159754,36.999739,0.273876,46.720668,1.986960,9.461245,0.000000,252.950702,0.999444,9.000000,0.202531,161.287184,10.000000,2.723101,2.000000,6
/home/daniel/Projects/ppsevolution/data/maps/custom_maps/Custom_2_Run_0_Map.csv,squared_error,2.860450599768964e-07,0.4996,0.7193,0.275731,0.766603,0.000000,0.595631,0.207849,0.164855,0.383789,0.000000,1.000000,0.008305,0.169711,0.135826,0.500507,0.766122,0.000000,2.000000,173.252968,1.199298,9.000000,0.595631,42.361940,2.066123,4.454104,0.000000,300.000000,0.774651,32.929251,0.135826,100.600981,7.778158,1.000000,2.000000,7
/home/daniel/Projects/ppsevolution/data/maps/custom_maps/Custom_2_Run_0_Map.csv,squared_error,2.447850022147716e-06,0.5020,0.7209,0.065671,0.610692,0.004373,0.537106,0.000000,0.249525,0.924371,1.000000,0.934475,0.049078,0.034553,0.138106,0.766270,1.000000,0.000000,1.000000,136.492378,1.111988,9.616628,0.537106,1.000000,2.870484,9.319342,1.000000,288.533043,0.797484,13.871951,0.138106,153.487789,10.000000,1.000000,1.000000,8
/home/daniel/Projects/ppsevolution/data/maps/custom_maps/Custom_2_Run_0_Map.csv,squared_error,1.2060009523480272e-06,0.4992,0.7187,0.446290,0.625153,0.000000,0.492648,0.033147,0.202310,0.986222,0.000000,0.846911,0.000000,0.000000,0.357641,0.766400,0.739243,0.000000,1.000000,203.100733,1.120086,9.000000,0.492648,7.596177,2.421941,9.875996,0.000000,273.209465,0.770000,9.000000,0.357641,153.513635,7.522804,1.000000,1.000000,9
map,fitness,fitness value,team0ratio,time,HP,Speed,Damage,Acc,ClipSize,RateOfFire,NrBullets,Range,HP,Speed,Damage,Acc,ClipSize,RateOfFire,NrBullets,Range,HP,Speed,Damage,Acc,ClipSize,RateOfFire,NrBullets,Range,HP,Speed,Damage,Acc,ClipSize,RateOfFire,NrBullets,Range,Run,target team0ratio: 0.5,target time: 0.72
/home/daniel/Projects/ppsevolution/data/maps/custom_maps/Custom_3_Run_0_Map.csv,squared_error,2.0089421827947793e-06,0.5002,0.7220,0.086837,0.957733,0.270303,0.417063,0.000000,0.037099,0.854369,0.000000,1.000000,0.029734,0.000000,0.306351,0.865757,0.763916,0.133912,1.000000,140.196509,1.306330,47.112719,0.417063,1.000000,0.852440,8.689323,0.000000,300.000000,0.786651,9.000000,0.306351,173.285694,7.757198,2.205205,1.000000,0
/home/daniel/Projects/ppsevolution/data/maps/custom_maps/Custom_3_Run_0_Map.csv,squared_error,1.2518889529473826e-06,0.5012,0.7189,0.000000,0.585172,0.000000,0.637458,0.272182,0.109416,0.933064,2.000000,1.000000,0.381550,0.075233,0.235289,0.773575,0.811851,0.000000,0.000000,125.000000,1.097697,9.000000,0.637458,55.164305,1.539453,9.397576,2.000000,300.000000,0.983668,19.607784,0.235289,154.941333,8.212580,1.000000,0.000000,1
/home/daniel/Projects/ppsevolution/data/maps/custom_maps/Custom_3_Run_0_Map.csv,squared_error,2.264407753909854e-06,0.4980,0.7207,0.150834,1.000000,0.173966,0.422425,0.262434,0.208631,0.982927,2.000000,0.842995,0.000000,0.105231,0.244905,1.000000,0.800421,0.000000,2.000000,151.395929,1.330000,33.529268,0.422425,53.224300,2.481998,9.846345,2.000000,272.524081,0.770000,23.837610,0.244905,200.000000,8.103998,1.000000,2.000000,2
/home/daniel/Projects/ppsevolution/data/maps/custom_maps/Custom_3_Run_0_Map.csv,squared_error,2.3134036790224303e-06,0.5006,0.7179,0.383194,0.815731,0.112314,0.479554,0.000000,0.094628,0.966547,2.000000,0.844609,0.000000,0.058655,0.400211,0.402794,0.891905,0.000000,2.000000,192.058935,1.226810,24.836323,0.479554,1.000000,1.398964,9.698926,2.000000,272.806660,0.770000,17.270297,0.400211,81.155928,8.973099,1.000000,2.000000,3
/home/daniel/Projects/ppsevolution/data/maps/custom_maps/Custom_3_Run_0_Map.csv,squared_error,3.4680367548458723e-07,0.4997,0.7192,0.000000,0.788022,0.000000,0.627256,0.000000,0.419292,0.900023,0.000000,0.898628,0.092147,0.001770,0.318743,0.855665,0.975146,0.000000,2.000000,125.000000,1.211292,9.000000,0.627256,1.000000,4.483270,9.100211,0.000000,282.259945,0.821603,9.249569,0.318743,171.277430,9.763890,1.000000,2.000000,4
/home/daniel/Projects/ppsevolution/data/maps/custom_maps/Custom_3_Run_0_Map.csv,squared_error,6.369075330788039e-07,0.4989,0.7197,0.069130,1.000000,0.328840,0.327856,0.000000,0.204443,0.978005,2.000000,0.970695,0.000000,0.000000,0.296982,0.825143,0.937536,0.095671,2.000000,137.097674,1.330000,55.366370,0.327856,1.000000,2.442209,9.802047,2.000000,294.871557,0.770000,9.000000,0.296982,165.203430,9.406589,1.861040,2.000000,5
/home/daniel/Projects/ppsevolution/data/maps/custom_maps/Custom_3_Run_0_Map.csv,squared_error,1.8535435536477458e-06,0.5003,0.7181,0.000000,0.830650,0.287950,0.334540,0.076752,0.358369,0.842477,2.000000,0.810301,0.031592,0.058758,0.192255,1.000000,0.694611,0.346576,1.000000,125.000000,1.235164,49.600930,0.334540,16.273644,3.904509,8.582289,2.000000,266.802616,0.787691,17.284814,0.192255,200.000000,7.098800,4.119182,1.000000,6
/home/daniel/Projects/ppsevolution/data/maps/custom_maps/Custom_3_Run_0_Map.csv,squared_error,7.3886325270506295e-06,0.4995,0.7162,0.073013,1.000000,0.408035,0.158870,0.025469,0.390918,0.490564,0.000000,0.534041,0.023306,0.000000,0.373831,1.000000,0.944582,0.000000,0.000000,137.777299,1.330000,66.532904,0.158870,6.068388,4.213721,5.415080,0.000000,218.457216,0.783052,9.000000,0.373831,200.000000,9.473528,1.000000,0.000000,7
/home/daniel/Projects/ppsevolution/data/maps/custom_maps/Custom_3_Run_0_Map.csv,squared_error,1.1860188606334817e-06,0.4989,0.7211,0.258506,0.895113,0.000000,0.621889,0.000000,0.000000,1.000000,2.000000,1.000000,0.000000,0.000000,0.406011,0.943423,0.876114,0.062657,1.000000,170.238615,1.271263,9.000000,0.621889,1.000000,0.500000,10.000000,2.000000,300.000000,0.770000,9.000000,0.406011,188.741248,8.823086,1.563914,1.000000,8
/home/daniel/Projects/ppsevolution/data/maps/custom_maps/Custom_3_Run_0_Map.csv,squared_error,1.1653036912378375e-07,0.5005,0.7202,0.346044,0.824673,0.000000,0.638366,0.028444,0.092638,1.000000,0.000000,1.000000,0.058666,0.021121,0.430830,0.857866,0.941480,0.102226,1.000000,185.557757,1.231817,9.000000,0.638366,6.660451,1.380060,10.000000,0.000000,300.000000,0.802853,11.978119,0.430830,171.715361,9.444056,1.920032,1.000000,9
map,fitness,fitness value,team0ratio,time,HP,Speed,Damage,Acc,ClipSize,RateOfFire,NrBullets,Range,HP,Speed,Damage,Acc,ClipSize,RateOfFire,NrBullets,Range,HP,Speed,Damage,Acc,ClipSize,RateOfFire,NrBullets,Range,HP,Speed,Damage,Acc,ClipSize,RateOfFire,NrBullets,Range,Run,target team0ratio: 0.5,target time: 0.72
/home/daniel/Projects/ppsevolution/data/maps/custom_maps/Custom_4_Run_0_Map.csv,squared_error,8.00044692167001e-07,0.5001,0.7187,0.444453,0.336778,0.023029,0.295475,0.012271,0.099571,0.588678,2.000000,1.000000,0.042147,0.000000,0.000000,0.922356,0.964123,0.017457,0.000000,202.779210,0.958595,12.247048,0.295475,3.441982,1.445921,6.298101,2.000000,300.000000,0.793602,9.000000,0.000000,184.548886,9.659170,1.157109,0.000000,0
/home/daniel/Projects/ppsevolution/data/maps/custom_maps/Custom_4_Run_0_Map.csv,squared_error,3.3381458386898216e-07,0.4992,0.7199,0.418655,1.000000,0.000000,0.290211,0.000000,0.180419,0.700929,0.000000,0.903950,0.282687,0.000000,0.000000,1.000000,1.000000,0.000000,2.000000,198.264633,1.330000,9.000000,0.290211,1.000000,2.213984,7.308362,0.000000,283.191220,0.928305,9.000000,0.000000,200.000000,10.000000,1.000000,2.000000,1
/home/daniel/Projects/ppsevolution/data/maps/custom_maps/Custom_4_Run_0_Map.csv,squared_error,8.965348113747243e-08,0.4996,0.7199,0.445914,1.000000,0.000000,0.294831,0.220944,0.000000,1.000000,1.000000,1.000000,0.237297,0.000000,0.000000,0.960872,0.962608,0.080203,0.000000,203.035021,1.330000,9.000000,0.294831,44.967763,0.500000,10.000000,1.000000,300.000000,0.902887,9.000000,0.000000,192.213622,9.644772,1.721823,0.000000,2
/home/daniel/Projects/ppsevolution/data/maps/custom_maps/Custom_4_Run_0_Map.csv,squared_error,1.2498005044222061e-06,0.4987,0.7209,0.461582,0.932988,0.000000,0.293520,0.177035,0.327527,1.000000,0.000000,1.000000,0.277998,0.000000,0.000000,0.890397,0.884224,0.100418,0.000000,205.776850,1.292473,9.000000,0.293520,36.230060,3.611506,10.000000,0.000000,300.000000,0.925679,9.000000,0.000000,178.189054,8.900123,1.903764,0.000000,3
/home/daniel/Projects/ppsevolution/data/maps/custom_maps/Custom_4_Run_0_Map.csv,squared_error,5.915577729068925e-08,0.5001,0.7197,0.453040,0.778630,0.035483,0.272770,0.510808,0.077138,0.694180,1.000000,1.000000,0.000000,0.000000,0.000000,0.958997,0.482107,0.000000,2.000000,204.281928,1.206033,14.003119,0.272770,102.650811,1.232808,7.247617,1.000000,300.000000,0.770000,9.000000,0.000000,191.840342,5.080013,1.000000,2.000000,4
/home/daniel/Projects/ppsevolution/data/maps/custom_maps/Custom_4_Run_0_Map.csv,squared_error,2.9985480280175255e-07,0.5007,0.7202,0.583113,0.712686,0.014488,0.276849,0.171759,0.054704,0.874462,2.000000,1.000000,0.399446,0.000000,0.028912,1.000000,0.845286,0.283343,0.000000,227.044857,1.169104,11.042801,0.276849,35.180117,1.019685,8.870154,2.000000,300.000000,0.993690,9.000000,0.028912,200.000000,8.530215,3.550089,0.000000,5
/home/daniel/Projects/ppsevolution/data/maps/custom_maps/Custom_4_Run_0_Map.csv,squared_error,2.0519053533689712e-07,0.4994,0.7200,0.555753,0.706820,0.000000,0.195179,0.403340,0.096161,1.000000,0.000000,0.796812,0.002617,0.034211,0.000000,0.625704,0.935129,0.165679,2.000000,222.256848,1.165819,9.000000,0.195179,81.264706,1.413530,10.000000,0.000000,264.442153,0.771465,13.823697,0.000000,125.515071,9.383721,2.491115,2.000000,6
/home/daniel/Projects/ppsevolution/data/maps/custom_maps/Custom_4_Run_0_Map.csv,squared_error,2.6058191218509927e-06,0.5019,0.7187,0.421789,0.865119,0.000000,0.245920,0.000000,0.054225,0.966165,0.000000,0.846601,0.103370,0.000000,0.000000,1.000000,1.000000,0.054967,1.000000,198.813084,1.254467,9.000000,0.245920,1.000000,1.015139,9.695484,0.000000,273.155245,0.827887,9.000000,0.000000,200.000000,10.000000,1.494699,1.000000,7
/home/daniel/Projects/ppsevolution/data/maps/custom_maps/Custom_4_Run_0_Map.csv,squared_error,8.810221474505156e-07,0.4989,0.7208,0.425972,0.839001,0.000000,0.292032,0.143231,0.000000,0.800736,1.000000,0.955549,0.070677,0.000000,0.000000,1.000000,0.991716,0.034678,0.000000,199.545174,1.239840,9.000000,0.292032,29.502991,0.500000,8.206622,1.000000,292.221082,0.809579,9.000000,0.000000,200.000000,9.921306,1.312101,0.000000,8
/home/daniel/Projects/ppsevolution/data/maps/custom_maps/Custom_4_Run_0_Map.csv,squared_error,4.35681134388242e-07,0.5009,0.7203,0.465983,0.822676,0.000000,0.311282,0.538718,0.343467,0.689237,1.000000,1.000000,0.062698,0.000000,0.000000,0.941196,0.538415,0.091765,0.000000,206.547034,1.230699,9.000000,0.311282,108.204882,3.762938,7.203131,1.000000,300.000000,0.805111,9.000000,0.000000,188.298019,5.614945,1.825889,0.000000,9
map,fitness,fitness value,team0ratio,time,HP,Speed,Damage,Acc,ClipSize,RateOfFire,NrBullets,Range,HP,Speed,Damage,Acc,ClipSize,RateOfFire,NrBullets,Range,HP,Speed,Damage,Acc,ClipSize,RateOfFire,NrBullets,Range,HP,Speed,Damage,Acc,ClipSize,RateOfFire,NrBullets,Range,Run,target team0ratio: 0.5,target time: 0.72
/home/daniel/Projects/ppsevolution/data/maps/custom_maps/Custom_5_Run_0_Map.csv,squared_error,2.5570113015474944e-07,0.5005,0.7195,0.000000,0.891283,0.000000,0.446306,0.226158,0.064629,0.720973,1.000000,0.926862,0.000000,0.000000,0.000000,1.000000,0.965524,0.139647,2.000000,125.000000,1.269118,9.000000,0.446306,46.005352,1.113971,7.488760,1.000000,287.200811,0.770000,9.000000,0.000000,200.000000,9.672476,2.256824,2.000000,0
/home/daniel/Projects/ppsevolution/data/maps/custom_maps/Custom_5_Run_0_Map.csv,squared_error,1.1694459243301863e-06,0.4995,0.7214,0.300442,0.889281,0.000000,0.454607,0.000000,0.175563,0.674240,1.000000,1.000000,0.115403,0.156058,0.000000,1.000000,1.000000,0.000000,0.000000,177.577386,1.267997,9.000000,0.454607,1.000000,2.167845,7.068160,1.000000,300.000000,0.834626,31.004229,0.000000,200.000000,10.000000,1.000000,0.000000,1
/home/daniel/Projects/ppsevolution/data/maps/custom_maps/Custom_5_Run_0_Map.csv,squared_error,9.93118316301837e-08,0.4996,0.7198,0.075352,0.921410,0.007560,0.443809,0.000000,0.000000,0.874284,1.000000,1.000000,0.080450,0.035885,0.000000,0.531750,0.787138,0.101661,0.000000,138.186672,1.285990,10.066020,0.443809,1.000000,0.500000,8.868557,1.000000,300.000000,0.815052,14.059751,0.000000,106.818156,7.977811,1.914950,0.000000,2
/home/daniel/Projects/ppsevolution/data/maps/custom_maps/Custom_5_Run_0_Map.csv,squared_error,1.850729637283311e-07,0.5003,0.7205,0.232147,0.505622,0.000000,0.446440,0.000000,0.080197,0.883422,0.000000,0.994392,0.028551,0.000000,0.123325,0.998826,0.872748,0.006541,2.000000,165.625648,1.053148,9.000000,0.446440,1.000000,1.261869,8.950802,0.000000,299.018608,0.785989,9.000000,0.123325,199.766277,8.791103,1.058871,2.000000,3
/home/daniel/Projects/ppsevolution/data/maps/custom_maps/Custom_5_Run_0_Map.csv,squared_error,9.853455136095352e-07,0.4989,0.7191,0.000000,0.956691,0.133756,0.325344,0.014158,0.045016,0.894063,1.000000,1.000000,0.219474,0.000000,0.000000,0.921986,0.988224,0.090725,0.000000,125.000000,1.305747,27.859566,0.325344,3.817345,0.927649,9.046566,1.000000,300.000000,0.892906,9.000000,0.000000,184.475303,9.888129,1.816527,0.000000,4
/home/daniel/Projects/ppsevolution/data/maps/custom_maps/Custom_5_Run_0_Map.csv,squared_error,1.1341753391576761e-06,0.5012,0.7210,0.545553,0.887986,0.086027,0.311403,0.039224,0.003012,0.864067,1.000000,0.944491,0.008463,0.000000,0.243230,0.799155,1.000000,0.219649,0.000000,220.471763,1.267272,21.129873,0.311403,8.805504,0.528618,8.776600,1.000000,290.285971,0.774740,9.000000,0.243230,160.031918,10.000000,2.976845,0.000000,5
/home/daniel/Projects/ppsevolution/data/maps/custom_maps/Custom_5_Run_0_Map.csv,squared_error,1.1339974493303666e-06,0.4990,0.7211,0.147816,0.912409,0.000000,0.445160,0.341590,0.101119,0.962842,0.000000,1.000000,0.000000,0.000000,0.057423,0.836317,0.937238,0.218142,1.000000,150.867862,1.280949,9.000000,0.445160,68.976366,1.460628,9.665579,0.000000,300.000000,0.770000,9.000000,0.057423,167.427033,9.403757,2.963276,1.000000,6
/home/daniel/Projects/ppsevolution/data/maps/custom_maps/Custom_5_Run_0_Map.csv,squared_error,7.899263181414541e-08,0.4996,0.7200,0.307973,0.827891,0.000000,0.333861,0.000000,0.000000,0.884110,2.000000,0.750856,0.055005,0.025300,0.120061,0.734181,0.835585,0.102020,2.000000,178.895195,1.233619,9.000000,0.333861,1.000000,0.500000,8.956988,2.000000,256.399823,0.800803,12.567241,0.120061,147.101945,8.438061,1.918178,2.000000,7
/home/daniel/Projects/ppsevolution/data/maps/custom_maps/Custom_5_Run_0_Map.csv,squared_error,2.129285498907023e-06,0.4982,0.7189,0.223014,0.892667,0.000000,0.438950,0.086895,0.015877,1.000000,0.000000,0.998810,0.086211,0.000000,0.125690,0.705851,1.000000,0.000000,2.000000,164.027398,1.269894,9.000000,0.438950,18.292079,0.650835,10.000000,0.000000,299.791761,0.818278,9.000000,0.125690,141.464389,10.000000,1.000000,2.000000,8
/home/daniel/Projects/ppsevolution/data/maps/custom_maps/Custom_5_Run_0_Map.csv,squared_error,7.881365270463579e-07,0.4997,0.7188,0.067729,0.812107,0.081915,0.231648,0.000000,0.085704,0.865458,1.000000,0.625949,0.224560,0.055774,0.000000,1.000000,0.943626,0.000000,0.000000,136.852542,1.224780,20.550005,0.231648,1.000000,1.314192,8.789126,1.000000,234.541123,0.895754,16.864139,0.000000,200.000000,9.464447,1.000000,0.000000,9
map,fitness,fitness value,team0ratio,time,HP,Speed,Damage,Acc,ClipSize,RateOfFire,NrBullets,Range,HP,Speed,Damage,Acc,ClipSize,RateOfFire,NrBullets,Range,HP,Speed,Damage,Acc,ClipSize,RateOfFire,NrBullets,Range,HP,Speed,Damage,Acc,ClipSize,RateOfFire,NrBullets,Range,Run,target team0ratio: 0.5,target time: 0.72
/home/daniel/Projects/ppsevolution/data/maps/custom_maps/Custom_6_Run_0_Map.csv,squared_error,1.0812367115960046e-06,0.5010,0.7189,0.276747,1.000000,0.017377,0.716031,0.108226,0.000000,0.951957,1.000000,1.000000,0.114176,0.000000,0.580405,1.000000,0.823004,0.224424,2.000000,173.430775,1.330000,11.450213,0.716031,22.536913,0.500000,9.567614,1.000000,300.000000,0.833939,9.000000,0.580405,200.000000,8.318534,3.019815,2.000000,0
/home/daniel/Projects/ppsevolution/data/maps/custom_maps/Custom_6_Run_0_Map.csv,squared_error,4.5106009862366057e-07,0.4991,0.7201,0.380921,1.000000,0.278172,0.533528,0.000000,0.153643,1.000000,0.000000,1.000000,0.000000,0.006330,0.600000,0.792077,1.000000,0.000000,0.000000,191.661154,1.330000,48.222244,0.533528,1.000000,1.959607,10.000000,0.000000,300.000000,0.770000,9.892556,0.600000,158.623260,10.000000,1.000000,0.000000,1
/home/daniel/Projects/ppsevolution/data/maps/custom_maps/Custom_6_Run_0_Map.csv,squared_error,9.950321959991114e-07,0.4986,0.7204,0.239584,0.947121,0.000000,0.705605,0.057957,0.000000,1.000000,2.000000,0.949489,0.163044,0.133260,0.488847,0.987247,0.858322,0.084240,2.000000,166.927153,1.300387,9.000000,0.705605,12.533417,0.500000,10.000000,2.000000,291.160619,0.861305,27.789707,0.488847,197.462145,8.654063,1.758164,2.000000,2
/home/daniel/Projects/ppsevolution/data/maps/custom_maps/Custom_6_Run_0_Map.csv,squared_error,2.4628387835263646e-06,0.5005,0.7178,0.182192,0.989338,0.107032,0.666686,0.324802,0.153387,1.000000,2.000000,1.000000,0.000000,0.021223,0.539871,1.000000,0.938835,0.211137,1.000000,156.883635,1.324029,24.091553,0.666686,65.635666,1.957177,10.000000,2.000000,300.000000,0.770000,11.992383,0.539871,200.000000,9.418934,2.900235,1.000000,3
/home/daniel/Projects/ppsevolution/data/maps/custom_maps/Custom_6_Run_0_Map.csv,squared_error,7.817988550414392e-07,0.4991,0.7209,0.053724,0.909589,0.163207,0.637972,0.000000,0.343395,0.992441,1.000000,1.000000,0.000000,0.083515,0.455294,1.000000,0.948117,0.080238,0.000000,134.401779,1.279370,32.012160,0.637972,1.000000,3.762256,9.931967,1.000000,300.000000,0.770000,20.775629,0.455294,200.000000,9.507110,1.722140,0.000000,4
/home/daniel/Projects/ppsevolution/data/maps/custom_maps/Custom_6_Run_0_Map.csv,squared_error,8.40480264799473e-07,0.4987,0.7197,0.000000,0.872737,0.355876,0.485957,0.031744,0.109403,1.000000,2.000000,0.971000,0.229387,0.000000,0.489301,0.959546,0.734257,0.082720,2.000000,125.000000,1.258733,59.178569,0.485957,7.317015,1.539324,10.000000,2.000000,294.924994,0.898457,9.000000,0.489301,191.949613,7.475441,1.744484,2.000000,5
/home/daniel/Projects/ppsevolution/data/maps/custom_maps/Custom_6_Run_0_Map.csv,squared_error,6.838725794551621e-07,0.4989,0.7197,0.224958,0.866802,0.052939,0.719634,0.092561,0.160399,0.741222,0.000000,1.000000,0.030450,0.122995,0.500105,1.000000,1.000000,0.211195,0.000000,164.367572,1.255409,16.464451,0.719634,19.419635,2.023791,7.670999,0.000000,300.000000,0.787052,26.342264,0.500105,200.000000,10.000000,2.900757,0.000000,6
/home/daniel/Projects/ppsevolution/data/maps/custom_maps/Custom_6_Run_0_Map.csv,squared_error,4.870394921681435e-07,0.5009,0.7197,0.278840,0.958474,0.135197,0.615862,0.000000,0.030000,0.909412,1.000000,0.860563,0.000000,0.000000,0.584732,0.851777,0.874047,0.099178,2.000000,173.797063,1.306745,28.062771,0.615862,1.000000,0.785000,9.184709,1.000000,275.598445,0.770000,9.000000,0.584732,170.503675,8.803450,1.892600,2.000000,7
/home/daniel/Projects/ppsevolution/data/maps/custom_maps/Custom_6_Run_0_Map.csv,squared_error,1.9438983104976684e-06,0.5001,0.7220,0.219056,0.607017,0.141130,0.646657,0.036091,0.000000,0.789515,1.000000,0.940499,0.000000,0.119055,0.489269,0.963921,0.973822,0.122365,2.000000,163.334752,1.109929,28.899318,0.646657,8.182115,0.500000,8.105631,1.000000,289.587266,0.770000,25.786756,0.489269,192.820281,9.751310,2.101285,2.000000,8
/home/daniel/Projects/ppsevolution/data/maps/custom_maps/Custom_6_Run_0_Map.csv,squared_error,4.92021427761091e-07,0.4991,0.7196,0.142013,0.777863,0.348109,0.507012,0.055663,0.000000,0.927228,2.000000,1.000000,0.174241,0.034464,0.499333,1.000000,0.794573,0.265300,2.000000,149.852357,1.205603,58.083414,0.507012,12.077026,0.500000,9.345051,2.000000,300.000000,0.867575,13.859358,0.499333,200.000000,8.048446,3.387700,2.000000,9
map,fitness,fitness value,team0ratio,time,HP,Speed,Damage,Acc,ClipSize,RateOfFire,NrBullets,Range,HP,Speed,Damage,Acc,ClipSize,RateOfFire,NrBullets,Range,HP,Speed,Damage,Acc,ClipSize,RateOfFire,NrBullets,Range,HP,Speed,Damage,Acc,ClipSize,RateOfFire,NrBullets,Range,Run,target team0ratio: 0.5,target time: 0.72
/home/daniel/Projects/ppsevolution/data/maps/custom_maps/Custom_7_Run_0_Map.csv,squared_error,2.6654781906472022e-06,0.4999,0.7177,0.126874,0.924679,0.000000,0.531383,0.171459,0.305671,0.987463,0.000000,1.000000,0.234692,0.000000,0.198962,0.997934,0.898473,0.009342,0.000000,147.202987,1.287820,9.000000,0.531383,35.120415,3.403871,9.887168,0.000000,300.000000,0.901427,9.000000,0.198962,199.588791,9.035492,1.084077,0.000000,0
/home/daniel/Projects/ppsevolution/data/maps/custom_maps/Custom_7_Run_0_Map.csv,squared_error,7.203285439601243e-07,0.5011,0.7196,0.497976,0.900654,0.088825,0.323143,0.116539,0.087941,0.953661,1.000000,0.744446,0.000000,0.000000,0.347141,0.984339,0.900909,0.166792,1.000000,212.145837,1.274366,21.524357,0.323143,24.191198,1.335441,9.582946,1.000000,255.278014,0.770000,9.000000,0.347141,196.883495,9.058634,2.501132,1.000000,1
/home/daniel/Projects/ppsevolution/data/maps/custom_maps/Custom_7_Run_0_Map.csv,squared_error,5.54055675846129e-07,0.5009,0.7195,0.048795,0.865562,0.000000,0.493245,0.000000,0.036937,0.871079,0.000000,0.814791,0.077037,0.000000,0.161659,1.000000,1.000000,0.156331,2.000000,133.539124,1.254715,9.000000,0.493245,1.000000,0.850902,8.839712,0.000000,267.588473,0.813141,9.000000,0.161659,200.000000,10.000000,2.406978,2.000000,2
/home/daniel/Projects/ppsevolution/data/maps/custom_maps/Custom_7_Run_0_Map.csv,squared_error,4.859871965841442e-07,0.4990,0.7199,0.000000,1.000000,0.000000,0.528635,0.127531,0.245708,0.836387,0.000000,0.940285,0.184094,0.000000,0.137169,0.782156,0.756081,0.069557,1.000000,125.000000,1.330000,9.000000,0.528635,26.378571,2.834223,8.527483,0.000000,289.549931,0.873093,9.000000,0.137169,156.648992,7.682772,1.626016,1.000000,3
/home/daniel/Projects/ppsevolution/data/maps/custom_maps/Custom_7_Run_0_Map.csv,squared_error,2.12105343202116e-06,0.4989,0.7217,0.526192,0.894193,0.000000,0.498217,0.004491,0.145017,0.857724,1.000000,0.995769,0.000000,0.000000,0.310423,0.646347,0.774963,0.414182,1.000000,217.083577,1.270748,9.000000,0.498217,1.893673,1.877657,8.719515,1.000000,299.259560,0.770000,9.000000,0.310423,129.623003,7.862152,4.727640,1.000000,4
/home/daniel/Projects/ppsevolution/data/maps/custom_maps/Custom_7_Run_0_Map.csv,squared_error,2.3542915235167964e-07,0.4993,0.7198,0.009809,0.936295,0.051360,0.398707,0.155489,0.079996,0.850791,0.000000,0.701850,0.006976,0.000000,0.138036,0.949726,1.000000,0.211721,0.000000,126.716659,1.294325,16.241690,0.398707,31.942290,1.259964,8.657122,0.000000,247.823750,0.773907,9.000000,0.138036,189.995452,10.000000,2.905489,0.000000,5
/home/daniel/Projects/ppsevolution/data/maps/custom_maps/Custom_7_Run_0_Map.csv,squared_error,6.411892717047175e-07,0.4996,0.7210,0.365691,0.790472,0.000000,0.510191,0.000000,0.002054,0.809012,1.000000,0.949316,0.300371,0.067340,0.220998,1.000000,0.745256,0.096453,2.000000,188.995924,1.212664,9.000000,0.510191,1.000000,0.519514,8.281110,1.000000,291.130307,0.938208,18.494969,0.220998,200.000000,7.579932,1.868080,2.000000,6
/home/daniel/Projects/ppsevolution/data/maps/custom_maps/Custom_7_Run_0_Map.csv,squared_error,3.451170211815156e-06,0.5006,0.7174,0.149013,0.826232,0.098925,0.376718,0.136471,0.092151,1.000000,1.000000,0.800226,0.092813,0.013251,0.180644,0.984378,0.020144,0.231372,2.000000,151.077347,1.232690,22.948413,0.376718,28.157692,1.375431,10.000000,1.000000,265.039556,0.821975,10.868384,0.180644,196.891299,0.691364,3.082352,2.000000,7
/home/daniel/Projects/ppsevolution/data/maps/custom_maps/Custom_7_Run_0_Map.csv,squared_error,2.6229247985839385e-06,0.5008,0.7222,0.349720,0.799698,0.000000,0.529188,0.000000,0.084692,0.532005,2.000000,1.000000,0.267865,0.041734,0.211986,0.828981,0.652535,0.220166,0.000000,186.200999,1.217831,9.000000,0.529188,1.000000,1.304573,5.788043,2.000000,300.000000,0.920004,14.884518,0.211986,165.967200,6.699080,2.981493,0.000000,8
/home/daniel/Projects/ppsevolution/data/maps/custom_maps/Custom_7_Run_0_Map.csv,squared_error,7.963435932197469e-07,0.4994,0.7211,0.064411,0.845511,0.370413,0.113407,0.607242,0.124604,1.000000,0.000000,0.909816,0.096955,0.002619,0.135754,0.735856,0.817789,0.062341,1.000000,136.272009,1.243486,61.228188,0.113407,121.841244,1.683742,10.000000,0.000000,284.217754,0.824295,9.369228,0.135754,147.435380,8.268995,1.561070,1.000000,9
map,fitness,fitness value,team0ratio,time,HP,Speed,Damage,Acc,ClipSize,RateOfFire,NrBullets,Range,HP,Speed,Damage,Acc,ClipSize,RateOfFire,NrBullets,Range,HP,Speed,Damage,Acc,ClipSize,RateOfFire,NrBullets,Range,HP,Speed,Damage,Acc,ClipSize,RateOfFire,NrBullets,Range,Run,target team0ratio: 0.5,target time: 0.72
/home/daniel/Projects/ppsevolution/data/maps/custom_maps/Custom_8_Run_0_Map.csv,squared_error,3.726797827681669e-07,0.4992,0.7203,0.236898,0.765054,0.000000,0.376769,0.000000,0.122851,0.759372,2.000000,1.000000,0.000000,0.000000,0.000000,0.892408,1.000000,0.219467,0.000000,166.457124,1.198430,9.000000,0.376769,1.000000,1.667080,7.834344,2.000000,300.000000,0.770000,9.000000,0.000000,178.589271,10.000000,2.975206,0.000000,0
/home/daniel/Projects/ppsevolution/data/maps/custom_maps/Custom_8_Run_0_Map.csv,squared_error,4.348603509356642e-08,0.5003,0.7201,0.590220,0.907167,0.012589,0.327802,0.064549,0.087601,0.975038,0.000000,0.956960,0.384806,0.035731,0.157297,1.000000,1.000000,0.036611,0.000000,228.288536,1.278013,10.775022,0.327802,13.845274,1.332207,9.775345,0.000000,292.467988,0.985491,14.038003,0.157297,200.000000,10.000000,1.329503,0.000000,1
/home/daniel/Projects/ppsevolution/data/maps/custom_maps/Custom_8_Run_0_Map.csv,squared_error,5.919610840691383e-08,0.5001,0.7197,0.331906,1.000000,0.000000,0.350498,0.000000,0.000000,0.987376,1.000000,0.983496,0.076032,0.000000,0.056409,0.560523,1.000000,0.089651,2.000000,183.083581,1.330000,9.000000,0.350498,1.000000,0.500000,9.886385,1.000000,297.111819,0.812578,9.000000,0.056409,112.544078,10.000000,1.806855,2.000000,2
/home/daniel/Projects/ppsevolution/data/maps/custom_maps/Custom_8_Run_0_Map.csv,squared_error,7.35898909881201e-07,0.4995,0.7211,0.272654,0.878044,0.000000,0.376347,0.202557,0.305570,0.796717,1.000000,1.000000,0.388713,0.000000,0.022423,0.902234,0.978509,0.091438,2.000000,172.714366,1.261704,9.000000,0.376347,41.308825,3.402916,8.170452,1.000000,300.000000,0.987679,9.000000,0.022423,180.544556,9.795837,1.822941,2.000000,3
/home/daniel/Projects/ppsevolution/data/maps/custom_maps/Custom_8_Run_0_Map.csv,squared_error,3.5714599012777605e-06,0.5027,0.7199,0.486833,0.922977,0.000000,0.378350,0.162371,0.071314,0.796692,0.000000,1.000000,0.158800,0.000000,0.155727,1.000000,0.832904,0.000000,0.000000,210.195794,1.286867,9.000000,0.378350,33.311880,1.177482,8.170226,0.000000,300.000000,0.858928,9.000000,0.155727,200.000000,8.412593,1.000000,0.000000,4
/home/daniel/Projects/ppsevolution/data/maps/custom_maps/Custom_8_Run_0_Map.csv,squared_error,5.98834528329905e-07,0.5010,0.7196,0.168949,0.949878,0.039807,0.342890,0.047544,0.034481,0.936005,0.000000,0.997899,0.194039,0.000000,0.000000,1.000000,1.000000,0.000000,0.000000,154.566016,1.301932,14.612825,0.342890,10.461259,0.827569,9.424044,0.000000,299.632313,0.878662,9.000000,0.000000,200.000000,10.000000,1.000000,0.000000,5
/home/daniel/Projects/ppsevolution/data/maps/custom_maps/Custom_8_Run_0_Map.csv,squared_error,3.245447282125518e-07,0.5002,0.7192,0.529128,0.948062,0.000000,0.357629,0.073710,0.227325,0.928283,1.000000,1.000000,0.099906,0.000000,0.137196,0.931673,0.943981,0.274426,0.000000,217.597348,1.300914,9.000000,0.357629,15.668238,2.659592,9.354551,1.000000,300.000000,0.825948,9.000000,0.137196,186.402856,9.467815,3.469831,0.000000,6
/home/daniel/Projects/ppsevolution/data/maps/custom_maps/Custom_8_Run_0_Map.csv,squared_error,9.835318919300442e-07,0.5013,0.7195,0.453419,0.940165,0.000000,0.368415,0.169197,0.000000,0.828982,1.000000,1.000000,0.000000,0.036309,0.099369,0.928227,0.742226,0.000000,0.000000,204.348249,1.296493,9.000000,0.368415,34.670240,0.500000,8.460836,1.000000,300.000000,0.770000,14.119576,0.099369,185.717151,7.551144,1.000000,0.000000,7
/home/daniel/Projects/ppsevolution/data/maps/custom_maps/Custom_8_Run_0_Map.csv,squared_error,9.230893109276298e-07,0.4998,0.7213,0.267100,1.000000,0.000000,0.353091,0.146948,0.000000,0.915725,0.000000,0.942691,0.000000,0.030966,0.014485,1.000000,0.806927,0.031555,0.000000,171.742502,1.330000,9.000000,0.353091,30.242720,0.500000,9.241524,0.000000,289.970931,0.770000,13.366203,0.014485,200.000000,8.165808,1.283995,0.000000,8
/home/daniel/Projects/ppsevolution/data/maps/custom_maps/Custom_8_Run_0_Map.csv,squared_error,1.4667587731768308e-08,0.5001,0.7201,0.400078,0.952902,0.142488,0.195142,0.530736,0.268718,0.906224,2.000000,1.000000,0.000000,0.061125,0.000000,0.833853,1.000000,0.103373,0.000000,195.013644,1.303625,29.090739,0.195142,106.616396,3.052825,9.156018,2.000000,300.000000,0.770000,17.618617,0.000000,166.936651,10.000000,1.930353,0.000000,9
map,fitness,fitness value,team0ratio,time,HP,Speed,Damage,Acc,ClipSize,RateOfFire,NrBullets,Range,HP,Speed,Damage,Acc,ClipSize,RateOfFire,NrBullets,Range,HP,Speed,Damage,Acc,ClipSize,RateOfFire,NrBullets,Range,HP,Speed,Damage,Acc,ClipSize,RateOfFire,NrBullets,Range,Run,target team0ratio: 0.5,target time: 0.72
/home/daniel/Projects/ppsevolution/data/maps/custom_maps/Custom_9_Run_0_Map.csv,squared_error,3.1183085623071276e-07,0.5006,0.7205,0.512828,0.334098,0.000000,0.162757,0.007610,0.307690,0.602560,2.000000,0.910727,0.052943,0.000000,0.000000,0.768917,0.856418,0.023510,0.000000,214.744936,0.957095,9.000000,0.162757,2.514421,3.423058,6.423041,2.000000,284.377178,0.799648,9.000000,0.000000,154.014463,8.635968,1.211592,0.000000,0
/home/daniel/Projects/ppsevolution/data/maps/custom_maps/Custom_9_Run_0_Map.csv,squared_error,1.2245631486678353e-07,0.5005,0.7201,0.536296,0.951910,0.000000,0.159602,0.000000,0.322207,0.862621,2.000000,0.947372,0.000000,0.007003,0.000000,0.824923,0.984680,0.064105,2.000000,218.851723,1.303070,9.000000,0.159602,1.000000,3.560965,8.763590,2.000000,290.790133,0.770000,9.987455,0.000000,165.159711,9.854463,1.576943,2.000000,1
/home/daniel/Projects/ppsevolution/data/maps/custom_maps/Custom_9_Run_0_Map.csv,squared_error,1.938743689163393e-06,0.5019,0.7196,0.575223,0.973175,0.000000,0.152668,0.252347,0.277812,1.000000,1.000000,0.940566,0.024585,0.000000,0.000000,0.842962,0.938890,0.288775,2.000000,225.664031,1.314978,9.000000,0.152668,51.217100,3.139217,10.000000,1.000000,289.599055,0.783767,9.000000,0.000000,168.749376,9.419458,3.598972,2.000000,2
/home/daniel/Projects/ppsevolution/data/maps/custom_maps/Custom_9_Run_0_Map.csv,squared_error,4.227067159774616e-07,0.5004,0.7192,0.635370,1.000000,0.000000,0.154137,0.006066,0.127000,1.000000,2.000000,0.960773,0.000000,0.050174,0.000000,0.862885,1.000000,0.117320,1.000000,236.189797,1.330000,9.000000,0.154137,2.207146,1.706499,10.000000,2.000000,293.135301,0.770000,16.074500,0.000000,172.714054,10.000000,2.055884,1.000000,3
/home/daniel/Projects/ppsevolution/data/maps/custom_maps/Custom_9_Run_0_Map.csv,squared_error,4.233579123365174e-07,0.5001,0.7191,0.591260,0.950949,0.000000,0.177279,0.249755,0.137336,0.894472,2.000000,1.000000,0.082107,0.019655,0.000000,0.736023,0.854490,0.137561,2.000000,228.470520,1.302532,9.000000,0.177279,50.701336,1.804692,9.050247,2.000000,300.000000,0.815980,11.771330,0.000000,147.468649,8.617659,2.238045,2.000000,4
/home/daniel/Projects/ppsevolution/data/maps/custom_maps/Custom_9_Run_0_Map.csv,squared_error,2.2463331486307524e-06,0.4996,0.7221,0.483427,1.000000,0.085058,0.032324,0.079592,0.170850,1.000000,1.000000,0.912638,0.019475,0.000000,0.000000,0.896117,0.532881,0.000000,1.000000,209.599674,1.330000,20.993240,0.032324,16.838720,2.123073,10.000000,1.000000,284.711618,0.780906,9.000000,0.000000,179.327285,5.562373,1.000000,1.000000,5
/home/daniel/Projects/ppsevolution/data/maps/custom_maps/Custom_9_Run_0_Map.csv,squared_error,3.762386268047686e-06,0.4980,0.7219,0.466978,0.744443,0.000000,0.200898,0.140328,0.000000,0.575670,0.000000,0.951520,0.027913,0.000000,0.000000,0.880224,0.911130,0.000000,0.000000,206.721206,1.186888,9.000000,0.200898,28.925349,0.500000,6.181032,0.000000,291.515920,0.785631,9.000000,0.000000,176.164616,9.155731,1.000000,0.000000,6
/home/daniel/Projects/ppsevolution/data/maps/custom_maps/Custom_9_Run_0_Map.csv,squared_error,1.6384056342815474e-07,0.4994,0.7201,0.582902,1.000000,0.008309,0.145517,0.478522,0.037569,0.959310,1.000000,0.940965,0.325550,0.000000,0.047852,0.949132,1.000000,0.000000,2.000000,227.007774,1.330000,10.171547,0.145517,96.225816,0.856905,9.633790,1.000000,289.668896,0.952308,9.000000,0.047852,189.877278,10.000000,1.000000,2.000000,7
/home/daniel/Projects/ppsevolution/data/maps/custom_maps/Custom_9_Run_0_Map.csv,squared_error,6.366765028147933e-08,0.4997,0.7202,0.692773,0.882711,0.000000,0.126391,0.422520,0.266779,0.526969,0.000000,0.789727,0.000000,0.087987,0.000000,0.894637,1.000000,0.105234,1.000000,246.235222,1.264318,9.000000,0.126391,85.081417,3.034405,5.742719,0.000000,263.202185,0.770000,21.406206,0.000000,179.032807,10.000000,1.947105,1.000000,8
/home/daniel/Projects/ppsevolution/data/maps/custom_maps/Custom_9_Run_0_Map.csv,squared_error,2.0176940667767072e-06,0.5020,0.7203,0.535818,0.869407,0.043865,0.160503,0.205957,0.356000,0.668029,0.000000,1.000000,0.049152,0.000000,0.000000,0.732680,0.947040,0.152762,0.000000,218.768155,1.256868,15.184944,0.160503,41.985382,3.882003,7.012262,0.000000,300.000000,0.797525,9.000000,0.000000,146.803411,9.496883,2.374859,0.000000,9
map,fitness,fitness value,team0ratio,time,HP,Speed,Damage,Acc,ClipSize,RateOfFire,NrBullets,Range,HP,Speed,Damage,Acc,ClipSize,RateOfFire,NrBullets,Range,HP,Speed,Damage,Acc,ClipSize,RateOfFire,NrBullets,Range,HP,Speed,Damage,Acc,ClipSize,RateOfFire,NrBullets,Range,Run,target team0ratio: 0.5,target time: 0.72
/home/daniel/Projects/ppsevolution/data/maps/custom_maps/Custom_10_Run_0_Map.csv,squared_error,1.8944717152010585e-06,0.5002,0.7219,0.336505,1.000000,0.122169,0.314028,0.000000,0.251772,0.760838,0.000000,0.874274,0.166313,0.183653,0.000000,0.728295,0.817648,0.140178,0.000000,183.888300,1.330000,26.225832,0.314028,1.000000,2.891829,7.847540,0.000000,277.997978,0.863135,34.895008,0.000000,145.930799,8.267659,2.261599,0.000000,0
/home/daniel/Projects/ppsevolution/data/maps/custom_maps/Custom_10_Run_0_Map.csv,squared_error,1.9100152097279998e-06,0.5010,0.7183,0.423936,0.847809,0.131954,0.348594,0.010610,0.152876,0.869458,0.000000,1.000000,0.157387,0.087610,0.063633,0.472378,0.978658,0.783784,1.000000,199.188841,1.244773,27.605534,0.348594,3.111357,1.952319,8.825122,0.000000,300.000000,0.858137,21.353045,0.063633,95.003302,9.797254,8.054052,1.000000,1
/home/daniel/Projects/ppsevolution/data/maps/custom_maps/Custom_10_Run_0_Map.csv,squared_error,2.7034134452889084e-07,0.4994,0.7196,0.344540,0.691950,0.174325,0.254477,0.201552,0.121901,1.000000,0.000000,0.924916,0.046759,0.011161,0.194639,0.784413,1.000000,0.146442,2.000000,185.294477,1.157492,33.579835,0.254477,41.108860,1.658060,10.000000,0.000000,286.860383,0.796185,10.573760,0.194639,157.098164,10.000000,2.317980,2.000000,2
/home/daniel/Projects/ppsevolution/data/maps/custom_maps/Custom_10_Run_0_Map.csv,squared_error,3.048912836192889e-06,0.4983,0.7218,0.070035,0.981669,0.145454,0.323827,0.495902,0.000000,1.000000,0.000000,0.988861,0.042297,0.077470,0.000930,0.843268,0.879565,0.000000,1.000000,137.256163,1.319735,29.508981,0.323827,99.684590,0.500000,10.000000,0.000000,298.050738,0.793687,19.923251,0.000930,168.810247,8.855863,1.000000,1.000000,3
/home/daniel/Projects/ppsevolution/data/maps/custom_maps/Custom_10_Run_0_Map.csv,squared_error,7.400961083455093e-07,0.4988,0.7199,0.038372,1.000000,0.127500,0.370109,0.248210,0.184979,0.836116,0.000000,1.000000,0.002901,0.000000,0.082705,1.000000,0.967902,0.000000,2.000000,131.715150,1.330000,26.977438,0.370109,50.393788,2.257296,8.525042,0.000000,300.000000,0.771625,9.000000,0.082705,200.000000,9.695069,1.000000,2.000000,4
/home/daniel/Projects/ppsevolution/data/maps/custom_maps/Custom_10_Run_0_Map.csv,squared_error,2.4128833225319694e-06,0.5002,0.7222,0.000000,0.278746,0.102552,0.348167,0.236484,0.000000,1.000000,0.000000,0.925064,0.116977,0.000000,0.040499,0.981933,0.853077,0.051004,2.000000,125.000000,0.926098,23.459799,0.348167,48.060399,0.500000,10.000000,0.000000,286.886114,0.835507,9.000000,0.040499,196.404616,8.604236,1.459037,2.000000,5
/home/daniel/Projects/ppsevolution/data/maps/custom_maps/Custom_10_Run_0_Map.csv,squared_error,1.9890952712671076e-06,0.4999,0.7180,0.298593,1.000000,0.000000,0.454517,0.000000,0.110355,1.000000,2.000000,1.000000,0.002949,0.000000,0.190963,0.424312,0.946530,0.132436,1.000000,177.253702,1.330000,9.000000,0.454517,1.000000,1.548372,10.000000,2.000000,300.000000,0.771652,9.000000,0.190963,85.438004,9.492039,2.191921,1.000000,6
/home/daniel/Projects/ppsevolution/data/maps/custom_maps/Custom_10_Run_0_Map.csv,squared_error,1.2673198047792347e-06,0.4997,0.7184,0.205008,1.000000,0.061093,0.380200,0.041086,0.126880,1.000000,0.000000,0.882517,0.285355,0.059494,0.106870,0.964818,0.974817,0.031867,1.000000,160.876413,1.330000,17.614049,0.380200,9.176075,1.705358,10.000000,0.000000,279.440540,0.929799,17.388640,0.106870,192.998869,9.760757,1.286805,1.000000,7
/home/daniel/Projects/ppsevolution/data/maps/custom_maps/Custom_10_Run_0_Map.csv,squared_error,1.7084330298196762e-06,0.4986,0.7212,0.314397,0.663823,0.000000,0.402099,0.416191,0.005003,0.937890,1.000000,0.833951,0.000000,0.087587,0.116287,0.954991,0.840054,0.101419,0.000000,180.019550,1.141741,9.000000,0.402099,83.822013,0.547525,9.441006,1.000000,270.941380,0.770000,21.349752,0.116287,191.043284,8.480516,1.912768,0.000000,8
/home/daniel/Projects/ppsevolution/data/maps/custom_maps/Custom_10_Run_0_Map.csv,squared_error,1.092733784913674e-05,0.5011,0.7245,0.000000,0.771536,0.000000,0.389514,0.082055,0.137165,0.860568,2.000000,0.786966,0.162699,0.043562,0.000000,0.620806,1.000000,0.000000,0.000000,125.000000,1.202060,9.000000,0.389514,17.328978,1.803065,8.745110,2.000000,262.719112,0.861111,15.142241,0.000000,124.540416,10.000000,1.000000,0.000000,9
