map,fitness,fitness value,team0ratio,time,HP,Speed,Damage,Acc,ClipSize,RateOfFire,NrBullets,Range,HP,Speed,Damage,Acc,ClipSize,RateOfFire,NrBullets,Range,HP,Speed,Damage,Acc,ClipSize,RateOfFire,NrBullets,Range,HP,Speed,Damage,Acc,ClipSize,RateOfFire,NrBullets,Range,Run,target team0ratio: 0.5,target time: 0.72
/home/daniel/Projects/ppsevolution/data/maps/custom_maps/Custom_1_Run_0_Map.csv,squared_error,1.33836957550383E-06,0.5012,0.7189,0.828774,1,0,0,0,0.067861,0.794955,2,1,0.384037,0.01549,0,0.881589,1,0.009018,1,270.035535,1.33,9,0,1,1.144682,8.154599,2,300,0.985061,11.184107,0,176.43619,10,1.081163,1,0,,
/home/daniel/Projects/ppsevolution/data/maps/custom_maps/Custom_1_Run_0_Map.csv,squared_error,0.000000033,0.4997,0.72,0.903462,0.707783,0,0.035636,0.004647,0.505567,0.254316,2,1,0.277258,0,0.026436,0.893139,0.623675,0.155314,2,283.105887,1.166358,9,0.035636,1.924748,5.30289,3.28884,2,300,0.925264,9,0.026436,178.73471,6.424915,2.39783,2,1,,
/home/daniel/Projects/ppsevolution/data/maps/custom_maps/Custom_1_Run_0_Map.csv,squared_error,2.27188093431327E-06,0.5013,0.7217,0.876614,0.806482,0.009742,0,0.024161,0.37206,0.192139,0,0.923109,0.102822,0,0,0.575233,0.941613,0.304111,2,278.407364,1.22163,10.373577,0,5.807946,4.034566,2.729251,0,286.544136,0.82758,9,0,115.471331,9.445327,3.736996,2,2,,
/home/daniel/Projects/ppsevolution/data/maps/custom_maps/Custom_1_Run_0_Map.csv,squared_error,0.000000325,0.4998,0.7192,0.837076,0.851833,0,0,0.10667,0,0.493446,1,0.928084,0,0,0,0.99193,0.970588,0.293878,2,271.488386,1.247027,9,0,22.22737,0.5,5.441013,1,287.414738,0.77,9,0,198.394003,9.720583,3.644899,2,3,,
/home/daniel/Projects/ppsevolution/data/maps/custom_maps/Custom_1_Run_0_Map.csv,squared_error,1.93168761418574E-06,0.4983,0.7191,0.879481,0.752231,0,0,0,0.014804,0.492458,1,0.950001,0.118851,0,0.057116,1,0.845836,0.057998,0,278.909254,1.191249,9,0,1,0.640642,5.432118,1,291.250237,0.836557,9,0.057116,200,8.535446,1.521984,0,4,,
/home/daniel/Projects/ppsevolution/data/maps/custom_maps/Custom_1_Run_0_Map.csv,squared_error,6.19349022468925E-07,0.4998,0.7211,0.823509,0.623735,0,0,0.42766,0.044724,0.843976,0,1,0.714981,0,0,1,0.95419,0.048616,2,269.114016,1.119292,9,0,86.104398,0.924875,8.595783,0,300,1.170389,9,0,200,9.564803,1.437543,2,5,,
/home/daniel/Projects/ppsevolution/data/maps/custom_maps/Custom_1_Run_0_Map.csv,squared_error,7.27169505819355E-07,0.5012,0.7203,0.991445,0.969435,0,0,0.307069,0.102852,0.618619,0,0.984373,0.010876,0,0.076162,0.89759,1,0.294609,0,298.502896,1.312884,9,0,62.106774,1.477096,6.567569,0,297.265345,0.776091,9,0.076162,179.620505,10,3.65148,0,6,,
/home/daniel/Projects/ppsevolution/data/maps/custom_maps/Custom_1_Run_0_Map.csv,squared_error,7.38656540165327E-07,0.5,0.7212,1,1,0,0,0.626519,0.120237,0.654228,1,1,0.552656,0.049628,0.041194,1,1,0,0,300,1.33,9,0,125.677248,1.64225,6.888048,1,300,1.079488,15.997502,0.041194,200,10,1,0,7,,
/home/daniel/Projects/ppsevolution/data/maps/custom_maps/Custom_1_Run_0_Map.csv,squared_error,1.05162141087758E-06,0.4988,0.7192,1,0.781872,0,0,0,0.312778,0.747311,0,1,0.19633,0,0.041876,0.853928,0.849681,0.533571,2,300,1.207848,9,0,1,3.471393,7.725798,0,300,0.879945,9,0.041876,170.931583,8.571969,5.802142,2,8,,
/home/daniel/Projects/ppsevolution/data/maps/custom_maps/Custom_1_Run_0_Map.csv,squared_error,5.72397069174686E-07,0.4996,0.719,0.785649,0.936028,0,0,0.25191,0,0.574962,2,0.954828,0.4935,0,0.001867,0.885865,0.905628,0,0,262.488624,1.294176,9,0,51.130081,0.5,6.174658,2,292.094972,1.04636,9,0.001867,177.287233,9.103465,1,0,9,,
map,fitness,fitness value,team0ratio,time,HP,Speed,Damage,Acc,ClipSize,RateOfFire,NrBullets,Range,HP,Speed,Damage,Acc,ClipSize,RateOfFire,NrBullets,Range,HP,Speed,Damage,Acc,ClipSize,RateOfFire,NrBullets,Range,HP,Speed,Damage,Acc,ClipSize,RateOfFire,NrBullets,Range,Run,target team0ratio: 0.5,target time: 0.72
/home/daniel/Projects/ppsevolution/data/maps/custom_maps/Custom_2_Run_0_Map.csv,squared_error,0.000002163,0.4988,0.7217,0.117253,0.982026,0.224414,0.253615,0.037013,0.08727,0.763844,0,0.700307,0.464554,0.073872,0.100654,1,1,0.203793,0,145.519344,1.319935,40.642308,0.253615,8.365502,1.329066,7.8746,0,247.553674,1.03015,19.415959,0.100654,200,10,2.834135,0,0,,
/home/daniel/Projects/ppsevolution/data/maps/custom_maps/Custom_2_Run_0_Map.csv,squared_error,2.09952188290861E-06,0.4994,0.722,0.101241,0.923535,0.181424,0.274403,0.598881,0.252532,0.928233,0,0.732904,0.120878,0,0.183474,0.439978,0.569466,0.04098,1,142.717229,1.28718,34.58085,0.274403,120.177374,2.899053,9.354101,0,253.25816,0.837692,9,0.183474,88.555656,5.909924,1.368824,1,1,,
/home/daniel/Projects/ppsevolution/data/maps/custom_maps/Custom_2_Run_0_Map.csv,squared_error,5.65410625324599E-07,0.5011,0.7199,0.125406,0.500402,0.053923,0.495849,0.250598,0.001755,0.867238,0,0.883589,0.49767,0,0.207949,0.861978,0.877479,0.063337,2,146.946046,1.050225,16.603197,0.495849,50.868983,0.516669,8.805143,0,279.628073,1.048695,9,0.207949,172.533549,8.836049,1.570034,2,2,,
/home/daniel/Projects/ppsevolution/data/maps/custom_maps/Custom_2_Run_0_Map.csv,squared_error,4.52607803749736E-06,0.4985,0.7174,0.212355,0.434748,0,0.533101,0.29357,0.093487,0.723288,2,0.87135,0.374952,0.081446,0.154402,1,0.546036,0.195587,0,162.162146,1.013459,9,0.533101,59.420362,1.388126,7.509594,2,277.486225,0.979973,20.483896,0.154402,200,5.687346,2.760282,0,3,,
/home/daniel/Projects/ppsevolution/data/maps/custom_maps/Custom_2_Run_0_Map.csv,squared_error,0.000000148,0.4995,0.7199,0.169061,0.641224,0.448316,0,0.103031,0.367714,0.987966,2,0.803403,0.080298,0,0.196041,0.948015,1,0.122552,0,154.585691,1.129086,72.212491,0,21.503081,3.993283,9.891692,2,265.595577,0.814967,9,0.196041,189.655042,10,2.10297,0,4,,
/home/daniel/Projects/ppsevolution/data/maps/custom_maps/Custom_2_Run_0_Map.csv,squared_error,4.47621310113962E-06,0.5028,0.721,0.298321,1,0,0.475074,0.034262,0.082934,0.995026,2,0.795896,0.069628,0.121295,0.146421,1,1,0.076608,2,177.206121,1.33,9,0.475074,7.818165,1.287875,9.955234,2,264.281779,0.808992,26.102591,0.146421,200,10,1.689471,2,5,,
/home/daniel/Projects/ppsevolution/data/maps/custom_maps/Custom_2_Run_0_Map.csv,squared_error,1.14188326113948E-05,0.4999,0.7248,0.303672,0.657894,0,0.465535,0.634401,0.127231,0.902568,0,0.760083,0.143064,0.079178,0.15158,0.909143,0.817352,0.343702,1,178.142632,1.13842,9,0.465535,127.245783,1.708698,9.123112,0,258.014597,0.850116,20.164107,0.15158,181.919485,8.264845,4.093317,1,6,,
/home/daniel/Projects/ppsevolution/data/maps/custom_maps/Custom_2_Run_0_Map.csv,squared_error,8.26939916490248E-07,0.4989,0.7206,0.43436,0.852797,0,0.496792,0.109885,0.39333,0.697242,2,0.822121,0.349238,0.050193,0.292928,1,0.917277,0.022751,2,201.013074,1.247567,9,0.496792,22.867018,4.236634,7.275177,2,268.871244,0.965573,16.077207,0.292928,200,9.214135,1.204758,2,7,,
/home/daniel/Projects/ppsevolution/data/maps/custom_maps/Custom_2_Run_0_Map.csv,squared_error,2.3404127871459E-06,0.5009,0.722,0.043007,0.691525,0,0.609472,0.06735,0.280388,0.278348,0,0.966256,0.190651,0,0.197245,0.755462,0.697544,0.004052,2,132.526168,1.157254,9,0.609472,14.402714,3.163682,3.505134,0,294.09472,0.876765,9,0.197245,151.336998,7.126667,1.036468,2,8,,
/home/daniel/Projects/ppsevolution/data/maps/custom_maps/Custom_2_Run_0_Map.csv,squared_error,3.21783987791662E-06,0.5025,0.7203,0.102319,0.747466,0.146594,0.273826,0.148604,0.213993,0.691101,2,0.564275,0.159138,0,0.193479,0.82764,0.954104,0.09042,1,142.905889,1.188581,29.669822,0.273826,30.5722,2.532933,7.219909,2,223.748038,0.859117,9,0.193479,165.700436,9.563984,1.813779,1,9,,
map,fitness,fitness value,team0ratio,time,HP,Speed,Damage,Acc,ClipSize,RateOfFire,NrBullets,Range,HP,Speed,Damage,Acc,ClipSize,RateOfFire,NrBullets,Range,HP,Speed,Damage,Acc,ClipSize,RateOfFire,NrBullets,Range,HP,Speed,Damage,Acc,ClipSize,RateOfFire,NrBullets,Range,Run,target team0ratio: 0.5,target time: 0.72
/home/daniel/Projects/ppsevolution/data/maps/custom_maps/Custom_3_Run_0_Map.csv,squared_error,5.3772932737501E-06,0.5003,0.7167,0.15413,0.832354,0,0.654623,0.160445,0.058312,0.991396,0,1,0.01029,0,0.385895,0.869432,1,0.12707,2,151.972715,1.236118,9,0.654623,32.92859,1.053966,9.922567,0,300,0.775763,9,0.385895,174.016933,10,2.143631,2,0,,
/home/daniel/Projects/ppsevolution/data/maps/custom_maps/Custom_3_Run_0_Map.csv,squared_error,7.38548097601272E-06,0.4982,0.7166,0,0.739756,0,0.638168,0.762624,0.275141,0.99504,2,1,0.188568,0,0.299444,0.966487,0.981276,0.145365,2,125,1.184264,9,0.638168,152.762185,3.113837,9.955356,2,300,0.875598,9,0.299444,193.330941,9.822118,2.308287,2,1,,
/home/daniel/Projects/ppsevolution/data/maps/custom_maps/Custom_3_Run_0_Map.csv,squared_error,2.44127628121833E-06,0.4979,0.7207,0.093822,0.98069,0.130159,0.491043,0.217833,0.069206,0.911933,1,0.870122,0.196111,0.311752,0,1,0.803365,0.279792,0,141.418763,1.319187,27.352365,0.491043,44.348739,1.157453,9.207397,1,277.27134,0.879822,52.956995,0,200,8.131963,3.51813,0,2,,
/home/daniel/Projects/ppsevolution/data/maps/custom_maps/Custom_3_Run_0_Map.csv,squared_error,3.45836267197777E-07,0.5004,0.7193,0.271117,0.699118,0.16807,0.493166,0.133648,0.033927,1,0,0.961166,0.485118,0.06459,0.316726,1,0.942998,0.262212,2,172.445506,1.161506,32.697837,0.493166,27.59593,0.82231,10,0,293.204067,1.041666,18.107184,0.316726,200,9.458484,3.35991,2,3,,
/home/daniel/Projects/ppsevolution/data/maps/custom_maps/Custom_3_Run_0_Map.csv,squared_error,1.7290656156462E-06,0.5014,0.7212,0.165812,0.858807,0.042135,0.548674,0.647262,0.076708,0.983247,0,0.804747,0.435929,0.00705,0.337077,0.924637,1,0.272935,1,154.01715,1.250932,14.941011,0.548674,129.805192,1.228723,9.849225,0,265.830765,1.01412,9.993982,0.337077,185.002784,10,3.456416,1,4,,
/home/daniel/Projects/ppsevolution/data/maps/custom_maps/Custom_3_Run_0_Map.csv,squared_error,4.51388326638458E-06,0.4988,0.7227,0.275114,0.954665,0.041077,0.598359,0,0.23217,1,0,1,0.053287,0.046039,0.354721,1,0.948304,0.141217,2,173.145022,1.304612,14.791889,0.598359,1,2.705614,10,0,300,0.79984,15.491434,0.354721,200,9.508886,2.270953,2,5,,
/home/daniel/Projects/ppsevolution/data/maps/custom_maps/Custom_3_Run_0_Map.csv,squared_error,1.40501142518274E-05,0.4996,0.7147,0.331714,0.860114,0.19708,0.348906,0.219298,0.468247,0.646704,1,0.553297,0.380886,0.185603,0.281368,0.465,0.949749,0,2,183.049894,1.251664,36.788289,0.348906,44.640205,4.94835,6.820334,1,221.826961,0.983296,35.169975,0.281368,93.535006,9.522614,1,2,6,,
/home/daniel/Projects/ppsevolution/data/maps/custom_maps/Custom_3_Run_0_Map.csv,squared_error,3.18721980376046E-06,0.5005,0.7225,0.230601,0.95912,0,0.634832,0,0.132259,0.886071,1,1,0,0.008187,0.371977,0.938944,1,0.220564,1,165.355106,1.307107,9,0.634832,1,1.756464,8.974642,1,300,0.77,10.154317,0.371977,187.849822,10,2.98508,1,7,,
/home/daniel/Projects/ppsevolution/data/maps/custom_maps/Custom_3_Run_0_Map.csv,squared_error,5.45284899372409E-06,0.5028,0.7217,0.437285,0.899042,0.011217,0.629881,0.140329,0.026436,0.69822,0,0.927853,0.032387,0,0.502043,1,1,0,0,201.524891,1.273463,10.581615,0.629881,28.925569,0.751144,7.283984,0,287.37435,0.788137,9,0.502043,200,10,1,0,8,,
/home/daniel/Projects/ppsevolution/data/maps/custom_maps/Custom_3_Run_0_Map.csv,squared_error,8.39386280429756E-07,0.5002,0.7213,0.110713,0.697699,0.113591,0.520065,0.125973,0.158468,0.769106,0,0.861887,0.085174,0.094954,0.261178,0.811661,0.383687,0,0,144.374737,1.160711,25.016261,0.520065,26.068642,2.005443,7.921957,0,275.830202,0.817697,22.38852,0.261178,162.520625,4.145024,1,0,9,,
map,fitness,fitness value,team0ratio,time,HP,Speed,Damage,Acc,ClipSize,RateOfFire,NrBullets,Range,HP,Speed,Damage,Acc,ClipSize,RateOfFire,NrBullets,Range,HP,Speed,Damage,Acc,ClipSize,RateOfFire,NrBullets,Range,HP,Speed,Damage,Acc,ClipSize,RateOfFire,NrBullets,Range,Run,target team0ratio: 0.5,target time: 0.72
/home/daniel/Projects/ppsevolution/data/maps/custom_maps/Custom_4_Run_0_Map.csv,squared_error,1.01746757697725E-05,0.496,0.7179,0.47362,0.72682,0.049248,0,0,0.027643,0.934217,0,0.443997,0.088622,0.01031,0,0.726696,0.635635,0.40214,1,207.88345,1.177019,15.943926,0,1,0.762612,9.407951,0,202.699515,0.819628,10.453776,0,145.612564,6.538536,4.619262,1,0,,
/home/daniel/Projects/ppsevolution/data/maps/custom_maps/Custom_4_Run_0_Map.csv,squared_error,0.000007732,0.4978,0.7167,0.54522,0.829803,0.243095,0.005507,0.26923,0.557103,1,1,1,0.237236,0,0.010085,0.927766,1,0.178359,0,220.413433,1.23469,43.276383,0.005507,54.576801,5.792474,10,1,300,0.902852,9,0.010085,185.625369,10,2.605228,0,1,,
/home/daniel/Projects/ppsevolution/data/maps/custom_maps/Custom_4_Run_0_Map.csv,squared_error,0.000001862,0.5003,0.7181,0.508375,0.752046,0.101366,0.093909,0,0.221564,0.429758,0,0.668124,0.223546,0,0,0.630111,1,0.402956,0,213.965553,1.191146,23.292636,0.093909,1,2.604854,4.867822,0,241.921787,0.895186,9,0,126.392023,10,4.6266,0,2,,
/home/daniel/Projects/ppsevolution/data/maps/custom_maps/Custom_4_Run_0_Map.csv,squared_error,1.48831532396793E-07,0.4995,0.7198,0.498255,0.663754,0.199275,0.033883,0.213562,0,0.974219,1,0.94691,0.204728,0,0,0.851137,0.991176,0.107241,1,212.194603,1.141702,37.097789,0.033883,43.498773,0.5,9.767973,1,290.709216,0.884648,9,0,170.376337,9.916172,1.965167,1,3,,
/home/daniel/Projects/ppsevolution/data/maps/custom_maps/Custom_4_Run_0_Map.csv,squared_error,2.39534243019067E-07,0.5005,0.7195,0.795106,0.806123,0.142102,0.002134,0.89883,0.11741,1,0,0.717481,1,0.113477,0,0.853533,0.768321,0.127143,2,264.143592,1.221429,29.036437,0.002134,179.867205,1.615393,10,0,250.559167,1.33,25.000298,0,170.85311,7.799053,2.144284,2,4,,
/home/daniel/Projects/ppsevolution/data/maps/custom_maps/Custom_4_Run_0_Map.csv,squared_error,1.17459696460005E-06,0.4987,0.7208,0.857444,1,0,0.238314,0.025024,0.506665,0.341847,2,0.808437,0.018542,0.18246,0,0.81902,0.801942,0.026888,0,275.052679,1.33,9,0.238314,5.979797,5.313314,4.076619,2,266.47643,0.780384,34.726885,0,163.984888,8.118453,1.24199,0,5,,
/home/daniel/Projects/ppsevolution/data/maps/custom_maps/Custom_4_Run_0_Map.csv,squared_error,6.1609160660055E-06,0.5035,0.7205,0.447121,0.454038,0,0.304871,0.167022,0.50243,0.027637,2,0.844475,0.136967,0,0,0.967766,1,0,1,203.246261,1.024261,9,0.304871,34.237306,5.273088,1.248734,2,272.78316,0.846701,9,0,193.585532,10,1,1,6,,
/home/daniel/Projects/ppsevolution/data/maps/custom_maps/Custom_4_Run_0_Map.csv,squared_error,1.90672960341658E-06,0.502,0.7201,0.447787,0.826846,0,0.258919,0.369893,0.252757,0.748325,1,0.87492,0.463481,0,0,0.705903,0.505197,0,0,203.36271,1.233034,9,0.258919,74.608729,2.901188,7.734926,1,278.110981,1.02955,9,0,141.474753,5.299372,1,0,7,,
/home/daniel/Projects/ppsevolution/data/maps/custom_maps/Custom_4_Run_0_Map.csv,squared_error,2.02274115890765E-06,0.4999,0.722,0.832313,0.582813,0,0.100048,0.127757,0.274654,0.632449,1,0.525499,0.484825,0.128141,0,0.678529,0.845377,0.360443,2,270.654838,1.096375,9,0.100048,26.4236,3.109212,6.692044,1,216.962315,1.041502,27.067939,0,136.027237,8.53108,4.243987,2,8,,
/home/daniel/Projects/ppsevolution/data/maps/custom_maps/Custom_4_Run_0_Map.csv,squared_error,5.32285046600126E-07,0.501,0.7201,0.713357,1,0.045742,0.154139,0.259393,0.464288,0.923941,1,0.837939,0.09977,0.105108,0,0.606347,0.911907,0,2,249.83749,1.33,15.449601,0.154139,52.619137,4.910734,9.315471,1,271.639394,0.825871,23.820257,0,121.662993,9.163114,1,2,9,,
map,fitness,fitness value,team0ratio,time,HP,Speed,Damage,Acc,ClipSize,RateOfFire,NrBullets,Range,HP,Speed,Damage,Acc,ClipSize,RateOfFire,NrBullets,Range,HP,Speed,Damage,Acc,ClipSize,RateOfFire,NrBullets,Range,HP,Speed,Damage,Acc,ClipSize,RateOfFire,NrBullets,Range,Run,target team0ratio: 0.5,target time: 0.72
/home/daniel/Projects/ppsevolution/data/maps/custom_maps/Custom_5_Run_0_Map.csv,squared_error,7.07881140425546E-07,0.5008,0.7191,0.005866,0.813987,0.087676,0.302018,0.653394,0.157268,1,0,0.849844,0,0,0,0.967865,0.389306,0.067429,2,126.026568,1.225833,21.36229,0.302018,131.025343,1.994045,10,0,273.722741,0.77,9,0,193.605223,4.198406,1.606863,2,0,,
/home/daniel/Projects/ppsevolution/data/maps/custom_maps/Custom_5_Run_0_Map.csv,squared_error,3.77147635005027E-06,0.5024,0.7187,0.408441,0.809831,0,0.447673,0.243561,0.25278,0.827273,0,1,0.00181,0.1847,0,0.821272,0.784759,0.161203,0,196.477164,1.223506,9,0.447673,49.468678,2.901413,8.445455,0,300,0.771014,35.042703,0,164.433166,7.955208,2.450831,0,1,,
/home/daniel/Projects/ppsevolution/data/maps/custom_maps/Custom_5_Run_0_Map.csv,squared_error,1.83321380660543E-08,0.4998,0.7199,0.431409,0.739739,0.099363,0.355257,0,0.291011,0.618053,1,1,0.181311,0.13053,0.074061,0.931779,0.805765,0,0,200.496488,1.184254,23.010158,0.355257,1,3.264601,6.562474,1,300,0.871534,27.404738,0.074061,186.423947,8.154766,1,0,2,,
/home/daniel/Projects/ppsevolution/data/maps/custom_maps/Custom_5_Run_0_Map.csv,squared_error,8.90247202321639E-07,0.4999,0.7213,1,0.628037,0.129951,0.275471,0.081822,0.11157,0.686563,0,1,0,0.08734,0.344947,0.675521,0.915145,0.220261,0,300,1.121701,27.323023,0.275471,17.282505,1.559914,7.179069,0,300,0.77,21.314953,0.344947,135.428673,9.193876,2.982353,0,3,,
/home/daniel/Projects/ppsevolution/data/maps/custom_maps/Custom_5_Run_0_Map.csv,squared_error,5.42606977317637E-06,0.5029,0.7216,0.125,0.947846,0.064291,0.368635,0,0,0.983483,2,0.999835,0.056419,0.040413,0,0.834969,0.726625,0.093629,0,146.874975,1.300794,18.065099,0.368635,1,0.5,9.85135,2,299.971038,0.801595,14.698176,0,167.158809,7.402937,1.84266,0,4,,
/home/daniel/Projects/ppsevolution/data/maps/custom_maps/Custom_5_Run_0_Map.csv,squared_error,9.81290652475705E-08,0.4996,0.7198,0.31764,1,0,0.461816,0.316582,0.092502,0.452916,1,0.984795,0.14667,0.117859,0,0.452196,0.765653,0.323278,2,180.587042,1.33,9,0.461816,63.999772,1.378764,5.076244,1,297.339189,0.852135,25.61815,0,90.986992,7.773707,3.909506,2,5,,
/home/daniel/Projects/ppsevolution/data/maps/custom_maps/Custom_5_Run_0_Map.csv,squared_error,1.37832050525053E-06,0.5005,0.7216,0.078189,1,0.130293,0.324997,0.089294,0.212256,0.786014,1,1,0,0,0,1,0.809842,0.246889,2,138.683056,1.33,27.371325,0.324997,18.769508,2.516431,8.074126,1,300,0.77,9,0,200,8.193503,3.222005,2,6,,
/home/daniel/Projects/ppsevolution/data/maps/custom_maps/Custom_5_Run_0_Map.csv,squared_error,2.28533500253716E-06,0.5019,0.7191,0.212567,0.885692,0,0.455084,0,0.068951,0.641056,0,0.937587,0.125005,0,0.118829,0.885071,1,0.114379,1,162.199283,1.265987,9,0.455084,1,1.155035,6.769506,0,289.07767,0.840003,9,0.118829,177.129057,10,2.029409,1,7,,
/home/daniel/Projects/ppsevolution/data/maps/custom_maps/Custom_5_Run_0_Map.csv,squared_error,9.37282313682918E-07,0.5007,0.7212,0.351181,0.792991,0.02885,0.402578,0.063932,0.164549,0.717757,0,0.932629,0.086843,0.130392,0,0.894795,0.798871,0.289145,2,186.456594,1.214075,13.067912,0.402578,13.722518,2.063213,7.459814,0,288.210136,0.818632,27.385226,0,179.064227,8.089271,3.602301,2,8,,
/home/daniel/Projects/ppsevolution/data/maps/custom_maps/Custom_5_Run_0_Map.csv,squared_error,9.65892360139301E-07,0.5002,0.7214,0,0.277853,0,0.405538,0.084036,0.12806,0.714539,2,0.8609,0,0,0,1,1,0,2,125,0.925598,9,0.405538,17.723098,1.716573,7.430847,2,275.657455,0.77,9,0,200,10,1,2,9,,
map,fitness,fitness value,team0ratio,time,HP,Speed,Damage,Acc,ClipSize,RateOfFire,NrBullets,Range,HP,Speed,Damage,Acc,ClipSize,RateOfFire,NrBullets,Range,HP,Speed,Damage,Acc,ClipSize,RateOfFire,NrBullets,Range,HP,Speed,Damage,Acc,ClipSize,RateOfFire,NrBullets,Range,Run,target team0ratio: 0.5,target time: 0.72
/home/daniel/Projects/ppsevolution/data/maps/custom_maps/Custom_6_Run_0_Map.csv,squared_error,0.000004618,0.499,0.7171,0,1,0.027577,0.692063,0.092423,0,0.99622,1,0.82748,0.156677,0,0.536787,0.97112,1,0.02233,0,125,1.33,12.888401,0.692063,19.392081,0.5,9.965983,1,269.808984,0.857739,9,0.536787,194.252807,10,1.200973,0,0,,
/home/daniel/Projects/ppsevolution/data/maps/custom_maps/Custom_6_Run_0_Map.csv,squared_error,1.05882419543951E-07,0.5004,0.7202,0,1,0.269068,0.559204,0,0,0.865154,2,0.939028,0.056981,0.061277,0.46575,1,0.998426,0.031383,0,125,1.33,46.93858,0.559204,1,0.5,8.786383,2,289.329863,0.801909,17.640032,0.46575,200,9.985049,1.282447,0,1,,
/home/daniel/Projects/ppsevolution/data/maps/custom_maps/Custom_6_Run_0_Map.csv,squared_error,3.3466162888091E-07,0.5006,0.7206,0.243925,1,0.183313,0.614556,0,0.042582,0.970475,2,0.977171,0.159033,0.209104,0.434115,0.971954,1,0,1,167.686884,1.33,34.847182,0.614556,1,0.904528,9.734272,2,296.004877,0.859059,38.483645,0.434115,194.418778,10,1,1,2,,
/home/daniel/Projects/ppsevolution/data/maps/custom_maps/Custom_6_Run_0_Map.csv,squared_error,7.34934142952859E-06,0.497,0.7224,0.177475,1,0.10958,0.688598,0.076789,0,0.477752,1,0.971968,0,0.050606,0.538878,0.898852,0.921241,0.142585,0,156.058065,1.33,24.450744,0.688598,16.28095,0.5,5.299769,1,295.094411,0.77,16.135439,0.538878,179.871606,9.251789,2.283263,0,3,,
/home/daniel/Projects/ppsevolution/data/maps/custom_maps/Custom_6_Run_0_Map.csv,squared_error,3.83829203212815E-07,0.5008,0.7196,0.033136,0.653012,0.190601,0.555954,0.008796,0,0.843986,2,0.63868,0,0.262543,0.351943,0.726428,0.98418,0.098684,0,130.798863,1.135687,35.874674,0.555954,2.750456,0.5,8.595872,2,236.768952,0.77,46.018514,0.351943,145.559118,9.849711,1.88816,0,4,,
/home/daniel/Projects/ppsevolution/data/maps/custom_maps/Custom_6_Run_0_Map.csv,squared_error,5.0933457184329E-06,0.5018,0.7226,0.035063,0.749209,0.056892,0.627879,0.19796,0.206716,1,1,0.652753,0.225898,0.108292,0.438852,0.910036,0.93584,0.185101,0,131.135939,1.189557,17.021762,0.627879,40.394137,2.463801,10,1,239.231826,0.896503,24.26921,0.438852,182.097256,9.390478,2.665911,0,5,,
/home/daniel/Projects/ppsevolution/data/maps/custom_maps/Custom_6_Run_0_Map.csv,squared_error,5.29661399309616E-07,0.5001,0.721,0.047241,1,0.327109,0.334997,0.180782,0.240553,1,2,0.525317,0,0.124497,0.384855,0.85184,1,0.398256,0,133.267246,1.33,55.122309,0.334997,36.975559,2.785251,10,2,216.930521,0.77,26.554092,0.384855,170.516249,10,4.584302,0,6,,
/home/daniel/Projects/ppsevolution/data/maps/custom_maps/Custom_6_Run_0_Map.csv,squared_error,2.15917116476017E-06,0.5013,0.7184,0.267457,1,0.295272,0.53133,0.032625,0,1,1,0.985861,0,0.036635,0.558748,0.991418,1,0,0,171.804996,1.33,50.633305,0.53133,7.492301,0.5,10,1,297.525632,0.77,14.165486,0.558748,198.292168,10,1,0,7,,
/home/daniel/Projects/ppsevolution/data/maps/custom_maps/Custom_6_Run_0_Map.csv,squared_error,3.43658675566582E-06,0.4982,0.7181,0.298005,0.993349,0,0.68348,0.091255,0.032339,0.988673,2,0.837241,0.034684,0.046181,0.56849,0.986075,0.814151,0.124345,2,177.150914,1.326275,9,0.68348,19.159738,0.807219,9.898057,2,271.517241,0.789423,15.511513,0.56849,197.228928,8.23443,2.119106,2,8,,
/home/daniel/Projects/ppsevolution/data/maps/custom_maps/Custom_6_Run_0_Map.csv,squared_error,2.90392092950504E-07,0.4993,0.7202,0.186641,0.69049,0.135833,0.643928,0.095037,0.059667,1,2,1,0,0.05929,0.522112,0.898365,0.87529,0,1,157.662154,1.156675,28.152404,0.643928,19.912412,1.066834,10,2,300,0.77,17.359881,0.522112,179.774638,8.815254,1,1,9,,
map,fitness,fitness value,team0ratio,time,HP,Speed,Damage,Acc,ClipSize,RateOfFire,NrBullets,Range,HP,Speed,Damage,Acc,ClipSize,RateOfFire,NrBullets,Range,HP,Speed,Damage,Acc,ClipSize,RateOfFire,NrBullets,Range,HP,Speed,Damage,Acc,ClipSize,RateOfFire,NrBullets,Range,Run,target team0ratio: 0.5,target time: 0.72
/home/daniel/Projects/ppsevolution/data/maps/custom_maps/Custom_7_Run_0_Map.csv,squared_error,8.42564399631547E-06,0.5022,0.7165,0.41664,0.413293,0.198662,0.262373,0,0.707364,0.759806,0,0.750378,0.298384,0.193751,0.05251,1,0.85552,0.476477,0,197.912022,1.001444,37.011365,0.262373,1,7.219962,7.838254,0,256.316077,0.937095,36.318861,0.05251,200,8.627437,5.288289,0,0,,
/home/daniel/Projects/ppsevolution/data/maps/custom_maps/Custom_7_Run_0_Map.csv,squared_error,1.05356710113543E-06,0.501,0.7211,0.397184,0.86592,0.142503,0.314958,0.121469,0.170285,1,1,0.832334,0.292768,0.012435,0.283925,0.957856,0.767133,0.124387,2,194.507219,1.254915,29.092868,0.314958,25.172359,2.117708,10,1,270.658371,0.93395,10.75334,0.283925,191.613282,7.787768,2.119479,2,1,,
/home/daniel/Projects/ppsevolution/data/maps/custom_maps/Custom_7_Run_0_Map.csv,squared_error,4.9133597327262E-06,0.4982,0.7174,0.22276,0.817864,0.163556,0.332323,0.216199,0.350228,1,0,0.853813,0.721926,0,0.243363,0.875377,0.942021,0,2,163.982992,1.228004,32.061439,0.332323,44.02354,3.827168,10,0,274.417237,1.174279,9,0.243363,175.200094,9.449201,1,2,2,,
/home/daniel/Projects/ppsevolution/data/maps/custom_maps/Custom_7_Run_0_Map.csv,squared_error,6.60054379704864E-07,0.5007,0.7191,0.440521,0.856,0,0.398315,0.085035,0.323723,0.930307,1,0.66229,0.227563,0.096138,0.241208,0.882911,0.704698,0.031056,2,202.091146,1.24936,9,0.398315,17.921917,3.575366,9.372761,1,240.900766,0.897435,22.555393,0.241208,176.699331,7.194633,1.279506,2,3,,
/home/daniel/Projects/ppsevolution/data/maps/custom_maps/Custom_7_Run_0_Map.csv,squared_error,6.98394476242467E-07,0.5012,0.7199,0.152784,0.958199,0.078561,0.403997,0,0.019466,0.932023,2,0.868746,0.443358,0,0.199263,0.577039,0.591876,0,1,151.737122,1.306591,20.07706,0.403997,1,0.684927,9.38821,2,277.030535,1.01828,9,0.199263,115.830857,6.122819,1,1,4,,
/home/daniel/Projects/ppsevolution/data/maps/custom_maps/Custom_7_Run_0_Map.csv,squared_error,1.37473494183102E-06,0.4995,0.7216,0,0.850486,0,0.521441,0.09991,0.361242,0.841204,1,0.951629,0,0,0.110968,1,0.623379,0.165925,1,125,1.246272,9,0.521441,20.882121,3.931795,8.570837,1,291.535112,0.77,9,0.110968,200,6.422097,2.493327,1,5,,
/home/daniel/Projects/ppsevolution/data/maps/custom_maps/Custom_7_Run_0_Map.csv,squared_error,1.60437314364977E-05,0.4947,0.7219,0.090809,1,0.139094,0.341785,0.307578,0.294352,0.789505,2,0.858196,0.079989,0,0.172701,0.684798,0.98403,0,1,140.891523,1.33,28.612208,0.341785,62.208071,3.296349,8.105541,2,275.184292,0.814794,9,0.172701,137.274783,9.848289,1,1,6,,
/home/daniel/Projects/ppsevolution/data/maps/custom_maps/Custom_7_Run_0_Map.csv,squared_error,0.000003071,0.5006,0.7224,0.062704,0.703492,0.247797,0.305321,0.286254,0.051099,0.859107,2,1,0.103403,0.087744,0.020791,0.868264,0.311781,0.226206,2,135.973154,1.163956,43.93939,0.305321,57.964519,0.985438,8.731965,2,300,0.827906,21.371954,0.020791,173.784631,3.461921,3.035851,2,7,,
/home/daniel/Projects/ppsevolution/data/maps/custom_maps/Custom_7_Run_0_Map.csv,squared_error,0.000008678,0.4967,0.7226,0.125096,0.82611,0.088357,0.476415,0.453916,0.129869,0.613174,0,1,0.093024,0,0.192353,1,0.664718,0.040895,2,146.891791,1.232621,21.458274,0.476415,91.329316,1.733752,6.518566,0,300,0.822093,9,0.192353,200,6.814819,1.368053,2,8,,
/home/daniel/Projects/ppsevolution/data/maps/custom_maps/Custom_7_Run_0_Map.csv,squared_error,2.77993614879859E-06,0.4977,0.7193,0,1,0.008461,0.517676,0.288479,0,0.80354,1,0.939829,0.474506,0.065741,0.061664,0.739985,0.803575,0.107791,0,125,1.33,10.192988,0.517676,58.407387,0.5,8.231857,1,289.470025,1.035723,18.269447,0.061664,148.257015,8.133963,1.970121,0,9,,
map,fitness,fitness value,team0ratio,time,HP,Speed,Damage,Acc,ClipSize,RateOfFire,NrBullets,Range,HP,Speed,Damage,Acc,ClipSize,RateOfFire,NrBullets,Range,HP,Speed,Damage,Acc,ClipSize,RateOfFire,NrBullets,Range,HP,Speed,Damage,Acc,ClipSize,RateOfFire,NrBullets,Range,Run,target team0ratio: 0.5,target time: 0.72
/home/daniel/Projects/ppsevolution/data/maps/custom_maps/Custom_8_Run_0_Map.csv,squared_error,0.000004798,0.5,0.7169,0.207095,0.888114,0.035988,0.3619,0,0.557393,0.671941,0,1,0.244575,0,0,0.629692,1,0.082216,2,161.241677,1.267344,14.074303,0.3619,1,5.795236,7.047466,0,300,0.906962,9,0,126.308786,10,1.739947,2,0,,
/home/daniel/Projects/ppsevolution/data/maps/custom_maps/Custom_8_Run_0_Map.csv,squared_error,3.26428953997112E-06,0.4977,0.721,0.703471,0.807788,0.040493,0.084755,0.249235,0.293591,0.878153,2,0.507478,0.374281,0.037949,0.225841,0.999735,1,0,0,248.107507,1.222361,14.709561,0.084755,50.597823,3.289111,8.903379,2,213.808686,0.979597,14.350753,0.225841,199.947171,10,1,0,1,,
/home/daniel/Projects/ppsevolution/data/maps/custom_maps/Custom_8_Run_0_Map.csv,squared_error,9.90567717025949E-07,0.4989,0.7209,0.663455,0.913874,0,0.274035,0,0.106709,0.96693,2,0.841194,0.159315,0.083021,0.121447,1,0.707292,0.118608,2,241.104557,1.28177,9,0.274035,1,1.513737,9.702371,2,272.208915,0.859217,20.705905,0.121447,200,7.219278,2.067468,2,2,,
/home/daniel/Projects/ppsevolution/data/maps/custom_maps/Custom_8_Run_0_Map.csv,squared_error,4.5411727030682E-06,0.4973,0.7186,0.548551,0.840821,0,0.295999,0.49561,0.029149,0.461368,2,0.753093,0.665017,0.108504,0.045425,0.890535,0.861002,0.192795,0,220.996357,1.24086,9,0.295999,99.626442,0.776912,5.152308,2,256.79122,1.14241,24.29907,0.045425,178.216482,8.679521,2.735153,0,3,,
/home/daniel/Projects/ppsevolution/data/maps/custom_maps/Custom_8_Run_0_Map.csv,squared_error,4.06479797886739E-06,0.5003,0.7228,0.397148,0.860091,0.059395,0.247342,0.482835,0.492804,0.974668,0,0.901708,0,0.067563,0,0.99512,0.452363,0.07814,1,194.500985,1.251651,17.374665,0.247342,97.08423,5.181642,9.77201,0,282.798977,0.77,18.526328,0,199.028883,4.797447,1.703256,1,4,,
/home/daniel/Projects/ppsevolution/data/maps/custom_maps/Custom_8_Run_0_Map.csv,squared_error,1.14782400189102E-06,0.4987,0.7208,0.269269,0.757136,0.17071,0,0,0.098946,0.831606,2,0.594723,0.084534,0,0.010709,0.872118,0.74642,0.307884,1,172.121988,1.193996,33.070094,0,1,1.43999,8.484454,2,229.076465,0.817339,9,0.010709,174.551402,7.590989,3.770959,1,5,,
/home/daniel/Projects/ppsevolution/data/maps/custom_maps/Custom_8_Run_0_Map.csv,squared_error,1.40878182990719E-05,0.4964,0.7239,0.383505,0.750798,0.08299,0.211044,0.183198,0.481891,0.741171,2,0.897385,0,0.011734,0.037257,0.369639,1,0.117531,2,192.113438,1.190447,20.701644,0.211044,37.456319,5.077969,7.670535,2,282.04242,0.77,10.654456,0.037257,74.55825,10,2.057781,2,6,,
/home/daniel/Projects/ppsevolution/data/maps/custom_maps/Custom_8_Run_0_Map.csv,squared_error,4.29683021669974E-06,0.5029,0.7204,0.681428,0.93971,0,0.330005,0.356803,0.554129,1,1,1,0.075478,0,0.209066,0.801053,0.66816,0.082568,2,244.249833,1.296238,9,0.330005,72.003856,5.76423,10,1,300,0.812268,9,0.209066,160.409553,6.847515,1.743114,2,7,,
/home/daniel/Projects/ppsevolution/data/maps/custom_maps/Custom_8_Run_0_Map.csv,squared_error,6.06641760880395E-06,0.5034,0.7207,0.437648,0.997425,0.072217,0.233521,0,0,0.792494,1,0.835994,0.006301,0.039671,0.042803,1,0.918197,0.263797,2,201.588328,1.328558,19.182578,0.233521,1,0.5,8.132445,1,271.298956,0.773528,14.593561,0.042803,200,9.22287,3.374171,2,8,,
/home/daniel/Projects/ppsevolution/data/maps/custom_maps/Custom_8_Run_0_Map.csv,squared_error,1.37141123856285E-06,0.5007,0.7215,0.666741,0.73522,0,0.311444,0.372805,0.296495,0.879388,0,0.898448,0,0.189996,0,1,0.69008,0.176841,0,241.679668,1.181723,9,0.311444,75.188208,3.3167,8.914493,0,282.228327,0.77,35.789478,0,200,7.05576,2.591565,0,9,,
map,fitness,fitness value,team0ratio,time,HP,Speed,Damage,Acc,ClipSize,RateOfFire,NrBullets,Range,HP,Speed,Damage,Acc,ClipSize,RateOfFire,NrBullets,Range,HP,Speed,Damage,Acc,ClipSize,RateOfFire,NrBullets,Range,HP,Speed,Damage,Acc,ClipSize,RateOfFire,NrBullets,Range,Run,target team0ratio: 0.5,target time: 0.72
/home/daniel/Projects/ppsevolution/data/maps/custom_maps/Custom_9_Run_0_Map.csv,squared_error,3.47848441427063E-06,0.4974,0.7206,0.668535,1,0.09079,0,0.291229,0.478008,0.769117,1,0.83353,0.066156,0.038072,0.023821,0.793974,0.673061,0.187088,2,241.993703,1.33,21.801358,0,58.954598,5.041078,7.922056,1,270.867804,0.807048,14.368203,0.023821,159.000729,6.894078,2.683788,2,0,,
/home/daniel/Projects/ppsevolution/data/maps/custom_maps/Custom_9_Run_0_Map.csv,squared_error,3.00787311943005E-06,0.4995,0.7176,0.923258,0.965966,0,0,0.102783,0.563333,0.333632,2,0.498972,0.291723,0.068828,0.164117,0.889785,0.922481,0,2,286.570226,1.310941,9,0,21.453907,5.851665,4.002687,2,212.320146,0.933365,18.704681,0.164117,178.067171,9.263568,1,2,1,,
/home/daniel/Projects/ppsevolution/data/maps/custom_maps/Custom_9_Run_0_Map.csv,squared_error,5.03943884010028E-07,0.499,0.72,0.515118,0.806245,0.018969,0.05596,0.523086,0.797618,0.90455,2,0.794666,0.479176,0,0,0.569832,0.870904,0,0,215.145602,1.221497,11.674664,0.05596,105.094153,8.077368,9.140951,2,264.066509,1.038339,9,0,114.396534,8.773591,1,0,2,,
/home/daniel/Projects/ppsevolution/data/maps/custom_maps/Custom_9_Run_0_Map.csv,squared_error,1.91593165302772E-06,0.4995,0.7181,0.528658,1,0.016104,0.131052,0.209878,0.249438,0.8064,1,0.92948,0.175147,0,0,0,0.544801,0.092473,1,217.515229,1.33,11.270699,0.131052,42.765683,2.869657,8.257599,1,287.65903,0.868082,9,0,1,5.675613,1.83226,1,3,,
/home/daniel/Projects/ppsevolution/data/maps/custom_maps/Custom_9_Run_0_Map.csv,squared_error,1.24062461424764E-07,0.4996,0.7203,0.724379,0.942578,0.104818,0,0.283363,0.577501,1,1,0.962272,0.129754,0.074193,0,0,0.923078,0.052441,1,251.766392,1.297844,23.779374,0,57.389172,5.986261,10,1,293.397538,0.842662,19.461223,0,1,9.269237,1.471969,1,4,,
/home/daniel/Projects/ppsevolution/data/maps/custom_maps/Custom_9_Run_0_Map.csv,squared_error,6.8645630829253E-06,0.5001,0.7237,0.878022,0.867651,0,0.117479,0,0.005574,1,2,0.945687,0.163473,0.154122,0,0.52908,0.694207,0,0,278.653926,1.255885,9,0.117479,1,0.552955,10,2,290.495171,0.861545,30.731172,0,106.286957,7.094965,1,0,5,,
/home/daniel/Projects/ppsevolution/data/maps/custom_maps/Custom_9_Run_0_Map.csv,squared_error,4.66230433158876E-07,0.4995,0.7192,0.607261,0.379525,0,0.057078,0.119837,0.441745,0.547874,0,0.636596,0,0,0.053846,0.935066,0.620523,0.254573,1,231.27069,0.982534,9,0.057078,24.847571,4.696575,5.930867,0,236.404265,0.77,9,0.053846,187.078093,6.394969,3.29116,1,6,,
/home/daniel/Projects/ppsevolution/data/maps/custom_maps/Custom_9_Run_0_Map.csv,squared_error,4.28431989844291E-06,0.5017,0.7224,0.589669,0.74058,0.023355,0.185441,0.315809,0.066721,0.443428,1,1,0.175317,0.013698,0,0.571292,0.364957,0.096969,2,228.192146,1.184725,12.293072,0.185441,63.846077,1.133848,4.990854,1,300,0.868178,10.931348,0,114.687066,3.967092,1.872719,2,7,,
/home/daniel/Projects/ppsevolution/data/maps/custom_maps/Custom_9_Run_0_Map.csv,squared_error,0.000001347,0.5003,0.7216,0.648477,0.472396,0.105609,0,0.197546,0.243052,0.983363,1,0.928464,0.360086,0,0.046519,0.714334,0.081867,0.146275,1,238.48345,1.034542,23.890909,0,40.311747,2.808995,9.850266,1,287.481284,0.971648,9,0.046519,143.152378,1.277739,2.316476,1,8,,
/home/daniel/Projects/ppsevolution/data/maps/custom_maps/Custom_9_Run_0_Map.csv,squared_error,9.98217032713493E-07,0.4998,0.7214,0.718247,0.78241,0,0.117128,0,0,0.889638,1,0.865872,0,0.105164,0,0.798471,0.849117,0,0,250.693279,1.20815,9,0.117128,1,0.5,9.006738,1,276.527597,0.77,23.828172,0,159.895716,8.56661,1,0,9,,
map,fitness,fitness value,team0ratio,time,HP,Speed,Damage,Acc,ClipSize,RateOfFire,NrBullets,Range,HP,Speed,Damage,Acc,ClipSize,RateOfFire,NrBullets,Range,HP,Speed,Damage,Acc,ClipSize,RateOfFire,NrBullets,Range,HP,Speed,Damage,Acc,ClipSize,RateOfFire,NrBullets,Range,Run,target team0ratio: 0.5,target time: 0.72
/home/daniel/Projects/ppsevolution/data/maps/custom_maps/Custom_10_Run_0_Map.csv,squared_error,1.16863686740199E-06,0.5005,0.7186,0.239195,0.965408,0.164887,0.241544,0.30837,0.125611,0.883592,2,0.846245,0.092385,0,0.161032,0.682114,0.982292,0.163339,0,166.859076,1.310629,32.249004,0.241544,62.365532,1.693302,8.95233,2,273.092788,0.821736,9,0.161032,136.740613,9.831778,2.470048,0,0,,
/home/daniel/Projects/ppsevolution/data/maps/custom_maps/Custom_10_Run_0_Map.csv,squared_error,1.01878634427528E-05,0.4955,0.7195,0.250775,0.855503,0.313491,0.032154,0.287744,0.022185,0.915749,2,0.781032,0.173179,0,0.17982,0.713851,0.588722,0,2,168.885708,1.249082,53.202192,0.032154,58.261103,0.71076,9.241739,2,261.680595,0.86698,9,0.17982,143.056425,6.092854,1,2,1,,
/home/daniel/Projects/ppsevolution/data/maps/custom_maps/Custom_10_Run_0_Map.csv,squared_error,4.2066913200329E-06,0.4994,0.7172,0.205979,0.967004,0,0.422897,0.123632,0.260053,0.795358,1,0.813059,0,0.093515,0.059722,1,0.98924,0.156011,2,161.046276,1.311522,9,0.422897,25.602721,2.970507,8.158223,1,267.285309,0.77,22.185561,0.059722,200,9.897784,2.404098,2,2,,
/home/daniel/Projects/ppsevolution/data/maps/custom_maps/Custom_10_Run_0_Map.csv,squared_error,5.96859232464617E-06,0.4976,0.7175,0.089709,0.854492,0.36562,0.058026,0.163707,0.441968,0.709375,1,0.854586,0.151905,0.058718,0.01403,0.842396,0.744225,0.124129,1,140.699128,1.248516,60.55244,0.058026,33.577767,4.698699,7.384374,1,274.552559,0.855067,17.279267,0.01403,168.636764,7.57014,2.117158,1,3,,
/home/daniel/Projects/ppsevolution/data/maps/custom_maps/Custom_10_Run_0_Map.csv,squared_error,1.99793629169851E-06,0.4987,0.7215,0.519754,0.788867,0.077052,0.362413,0.005304,0.825402,0.938301,2,1,0.09802,0.065801,0.20832,0.820829,0.749368,0.056138,1,215.957012,1.211765,19.864304,0.362413,2.055397,8.341316,9.444709,2,300,0.824891,18.277893,0.20832,164.344895,7.618994,1.505239,1,4,,
/home/daniel/Projects/ppsevolution/data/maps/custom_maps/Custom_10_Run_0_Map.csv,squared_error,5.94043875407797E-06,0.4987,0.7168,0.324828,1,0,0.304458,0,0.015589,0.724007,1,0.501381,0.055363,0.064416,0.177371,0.726744,0.734496,0.132056,1,181.844822,1.33,9,0.304458,1,0.648099,7.516059,1,212.741588,0.801003,18.082668,0.177371,145.622075,7.477714,2.188504,1,5,,
/home/daniel/Projects/ppsevolution/data/maps/custom_maps/Custom_10_Run_0_Map.csv,squared_error,3.6184995572171E-06,0.5027,0.7202,0.394648,0.765223,0,0.385494,0.369643,0.427157,1,0,0.790447,0.244076,0.060697,0.175741,0.712813,0.920531,0.126637,0,194.063399,1.198525,9,0.385494,74.558872,4.557988,10,0,263.32823,0.906683,17.558303,0.175741,142.849762,9.245046,2.139732,0,6,,
/home/daniel/Projects/ppsevolution/data/maps/custom_maps/Custom_10_Run_0_Map.csv,squared_error,7.81204618079545E-07,0.4988,0.7196,0.209683,0.86559,0.058875,0.369688,0,0.246548,0.895606,0,0.846676,0.345094,0.110919,0,0.770994,0.652006,0.317755,2,161.694506,1.25473,17.30132,0.369688,1,2.842206,9.060452,0,273.168226,0.963252,24.639578,0,154.427787,6.694057,3.859791,2,7,,
/home/daniel/Projects/ppsevolution/data/maps/custom_maps/Custom_10_Run_0_Map.csv,squared_error,1.52519129207178E-06,0.5017,0.7199,0.055661,0.957085,0,0.347466,0.226106,0.202016,0.911669,0,0.606098,0.485768,0,0.05151,0.731922,0.662712,0.368444,2,134.740761,1.305967,9,0.347466,45.995182,2.419153,9.20502,0,231.067226,1.04203,9,0.05151,146.652549,6.79576,4.315995,2,8,,
/home/daniel/Projects/ppsevolution/data/maps/custom_maps/Custom_10_Run_0_Map.csv,squared_error,2.67610011510732E-06,0.4998,0.7223,0.229277,1,0.175336,0.22189,0,0.329036,0.895504,1,0.826346,0,0,0.124067,1,0.955234,0.343755,2,165.1235,1.33,33.722429,0.22189,1,3.625843,9.059532,1,269.610615,0.77,9,0.124067,200,9.574721,4.093799,2,9,,
