map,fitness,fitness value,team0ratio,time,HP,Speed,Damage,Acc,ClipSize,RateOfFire,NrBullets,Range,HP,Speed,Damage,Acc,ClipSize,RateOfFire,NrBullets,Range,HP,Speed,Damage,Acc,ClipSize,RateOfFire,NrBullets,Range,HP,Speed,Damage,Acc,ClipSize,RateOfFire,NrBullets,Range,Run,target team0ratio: 0.5,target time: 0.72
/home/daniel/Projects/ppsevolution/data/maps/custom_maps/Custom_1_Run_0_Map.csv,squared_error,2.5143815208389243e-08,0.4999,0.7198,0.765149,1.000000,0.000000,0.000000,0.000000,0.052748,0.820602,0.000000,0.979801,0.370911,0.000000,0.000000,0.998968,1.000000,0.000000,0.000000,258.901123,1.330000,9.000000,0.000000,1.000000,1.001106,8.385417,0.000000,296.465107,0.977710,9.000000,0.000000,199.794707,10.000000,1.000000,0.000000,0
/home/daniel/Projects/ppsevolution/data/maps/custom_maps/Custom_1_Run_0_Map.csv,squared_error,2.0998045030823587e-07,0.4996,0.7205,0.877803,0.900327,0.000000,0.004914,0.277292,0.474741,0.604367,1.000000,1.000000,0.000000,0.000000,0.001731,0.837094,0.897344,0.278552,2.000000,278.615481,1.274183,9.000000,0.004914,56.181019,5.010038,6.439303,1.000000,300.000000,0.770000,9.000000,0.001731,167.581723,9.024766,3.506968,2.000000,1
/home/daniel/Projects/ppsevolution/data/maps/custom_maps/Custom_1_Run_0_Map.csv,squared_error,2.806856194588791e-07,0.4995,0.7205,0.824421,0.958714,0.000000,0.000000,0.504833,0.351850,0.552954,1.000000,0.979603,0.324556,0.000000,0.006926,0.691251,0.996334,0.017817,1.000000,269.273663,1.306880,9.000000,0.000000,101.461820,3.842577,5.976582,1.000000,296.430529,0.951751,9.000000,0.006926,138.558902,9.965174,1.160349,1.000000,2
/home/daniel/Projects/ppsevolution/data/maps/custom_maps/Custom_1_Run_0_Map.csv,squared_error,3.562358513249943e-07,0.4993,0.7205,0.833815,1.000000,0.000000,0.000000,0.652426,0.728509,0.668072,1.000000,1.000000,0.575349,0.000000,0.000000,0.890231,0.974847,0.039929,0.000000,270.917554,1.330000,9.000000,0.000000,130.832718,7.420833,7.012647,1.000000,300.000000,1.092195,9.000000,0.000000,178.155904,9.761044,1.359361,0.000000,3
/home/daniel/Projects/ppsevolution/data/maps/custom_maps/Custom_1_Run_0_Map.csv,squared_error,2.010016770111588e-06,0.4989,0.7183,0.917597,0.931170,0.000000,0.000000,0.490959,0.000000,0.782260,1.000000,1.000000,0.535900,0.000000,0.004910,0.657919,0.734614,0.436016,1.000000,285.579419,1.291455,9.000000,0.000000,98.700894,0.500000,8.040339,1.000000,300.000000,1.070104,9.000000,0.004910,131.925870,7.478835,4.924148,1.000000,4
/home/daniel/Projects/ppsevolution/data/maps/custom_maps/Custom_1_Run_0_Map.csv,squared_error,1.0632123174587822e-06,0.5012,0.7191,1.000000,0.878952,0.000000,0.008125,0.650929,0.269747,0.515660,1.000000,1.000000,0.065622,0.000000,0.097054,0.947570,0.818787,0.077502,1.000000,300.000000,1.262213,9.000000,0.008125,130.534810,3.062596,5.640942,1.000000,300.000000,0.806748,9.000000,0.097054,189.566470,8.278476,1.697517,1.000000,5
/home/daniel/Projects/ppsevolution/data/maps/custom_maps/Custom_1_Run_0_Map.csv,squared_error,1.0945986393380486e-06,0.5011,0.7191,1.000000,0.713615,0.000000,0.000000,0.017857,0.000000,0.774985,2.000000,1.000000,0.000000,0.000000,0.000000,1.000000,0.627583,0.805703,2.000000,300.000000,1.169625,9.000000,0.000000,4.553453,0.500000,7.974865,2.000000,300.000000,0.770000,9.000000,0.000000,200.000000,6.462040,8.251327,2.000000,6
/home/daniel/Projects/ppsevolution/data/maps/custom_maps/Custom_1_Run_0_Map.csv,squared_error,3.1318141959964912e-06,0.4984,0.7219,1.000000,0.854188,0.000000,0.002072,0.160908,0.000000,0.664975,0.000000,1.000000,0.230522,0.059833,0.002994,0.826110,1.000000,0.252619,1.000000,300.000000,1.248345,9.000000,0.002072,33.020673,0.500000,6.984777,0.000000,300.000000,0.899092,17.436496,0.002994,165.395810,10.000000,3.273567,1.000000,7
/home/daniel/Projects/ppsevolution/data/maps/custom_maps/Custom_1_Run_0_Map.csv,squared_error,8.61409394784146e-07,0.5008,0.7210,1.000000,0.441294,0.000000,0.000000,0.000000,0.130433,0.542023,0.000000,0.972429,0.431478,0.009035,0.075650,0.979927,0.391359,0.146129,0.000000,300.000000,1.017125,9.000000,0.000000,1.000000,1.739114,5.878206,0.000000,295.175093,1.011628,10.273946,0.075650,196.005525,4.217915,2.315165,0.000000,8
/home/daniel/Projects/ppsevolution/data/maps/custom_maps/Custom_1_Run_0_Map.csv,squared_error,6.936870081205185e-07,0.4994,0.7210,1.000000,0.876488,0.000000,0.000000,0.206540,0.240898,0.662051,0.000000,0.990648,0.430859,0.000000,0.000000,0.446263,0.849741,0.717420,2.000000,300.000000,1.260833,9.000000,0.000000,42.101510,2.788532,6.958456,0.000000,298.363398,1.011281,9.000000,0.000000,89.806259,8.572536,7.456784,2.000000,9
map,fitness,fitness value,team0ratio,time,HP,Speed,Damage,Acc,ClipSize,RateOfFire,NrBullets,Range,HP,Speed,Damage,Acc,ClipSize,RateOfFire,NrBullets,Range,HP,Speed,Damage,Acc,ClipSize,RateOfFire,NrBullets,Range,HP,Speed,Damage,Acc,ClipSize,RateOfFire,NrBullets,Range,Run,target team0ratio: 0.5,target time: 0.72
/home/daniel/Projects/ppsevolution/data/maps/custom_maps/Custom_2_Run_0_Map.csv,squared_error,4.123944704133593e-07,0.5008,0.7205,0.471590,0.903045,0.101392,0.414091,0.108363,0.281601,0.873337,2.000000,0.930165,0.235860,0.121797,0.210343,0.868505,0.838364,0.060119,0.000000,207.528251,1.275705,23.296332,0.414091,22.564330,3.175212,8.860030,2.000000,287.778790,0.902082,26.173309,0.210343,173.832518,8.464456,1.541069,0.000000,0
/home/daniel/Projects/ppsevolution/data/maps/custom_maps/Custom_2_Run_0_Map.csv,squared_error,7.948305400589867e-06,0.4965,0.7219,0.513653,1.000000,0.106078,0.364656,0.136998,0.448445,0.733294,1.000000,0.789783,0.233049,0.022915,0.331247,0.665517,0.947301,0.105773,1.000000,214.889276,1.330000,23.956962,0.364656,28.262616,4.760224,7.599645,1.000000,263.212057,0.900508,12.231037,0.331247,133.437812,9.499360,1.951953,1.000000,1
/home/daniel/Projects/ppsevolution/data/maps/custom_maps/Custom_2_Run_0_Map.csv,squared_error,2.3522208422903022e-07,0.4994,0.7198,0.088119,0.557523,0.377260,0.030393,0.404638,0.000000,0.930255,1.000000,0.615080,0.192672,0.058641,0.124838,0.857613,1.000000,0.083526,0.000000,140.420798,1.082213,62.193614,0.030393,81.523022,0.500000,9.372292,1.000000,232.639053,0.877896,17.268407,0.124838,171.665029,10.000000,1.751736,0.000000,2
/home/daniel/Projects/ppsevolution/data/maps/custom_maps/Custom_2_Run_0_Map.csv,squared_error,7.111494501372959e-07,0.5002,0.7188,0.004222,0.776825,0.000000,0.497198,0.081459,0.102368,0.716012,2.000000,0.737841,0.094075,0.000000,0.141847,0.839907,0.946216,0.204552,0.000000,125.738934,1.205022,9.000000,0.497198,17.210278,1.472497,7.444111,2.000000,254.122226,0.822682,9.000000,0.141847,168.141394,9.489056,2.840971,0.000000,3
/home/daniel/Projects/ppsevolution/data/maps/custom_maps/Custom_2_Run_0_Map.csv,squared_error,3.0123382864217577e-06,0.4998,0.7176,0.072720,0.517165,0.074018,0.530873,0.015806,0.320723,0.705962,0.000000,1.000000,0.407532,0.000000,0.196881,1.000000,1.000000,0.000000,0.000000,137.725998,1.059613,19.436475,0.530873,4.145313,3.546868,7.353655,0.000000,300.000000,0.998218,9.000000,0.196881,200.000000,10.000000,1.000000,0.000000,4
/home/daniel/Projects/ppsevolution/data/maps/custom_maps/Custom_2_Run_0_Map.csv,squared_error,3.8778986320833187e-07,0.5003,0.7192,0.255929,1.000000,0.000000,0.559781,0.092328,0.212637,0.936137,1.000000,1.000000,0.189951,0.000000,0.219470,0.843404,1.000000,0.402648,0.000000,169.787611,1.330000,9.000000,0.559781,19.373280,2.520052,9.425237,1.000000,300.000000,0.876373,9.000000,0.219470,168.837311,10.000000,4.623835,0.000000,5
/home/daniel/Projects/ppsevolution/data/maps/custom_maps/Custom_2_Run_0_Map.csv,squared_error,2.6766949035390958e-06,0.4977,0.7198,0.446555,0.557144,0.000000,0.491973,0.000000,0.039746,0.908454,1.000000,0.847730,0.000000,0.344062,0.000000,1.000000,0.768709,0.056882,2.000000,203.147041,1.082001,9.000000,0.491973,1.000000,0.877590,9.176088,1.000000,273.352706,0.770000,57.512792,0.000000,200.000000,7.802739,1.511940,2.000000,6
/home/daniel/Projects/ppsevolution/data/maps/custom_maps/Custom_2_Run_0_Map.csv,squared_error,3.326259615744245e-06,0.5024,0.7209,0.127776,1.000000,0.000000,0.545637,0.058593,0.000000,0.957002,1.000000,0.942294,0.032154,0.052036,0.116179,0.917714,0.786850,0.304610,0.000000,147.360885,1.330000,9.000000,0.545637,12.659966,0.500000,9.613017,1.000000,289.901491,0.788006,16.337089,0.116179,183.625022,7.975079,3.741489,0.000000,7
/home/daniel/Projects/ppsevolution/data/maps/custom_maps/Custom_2_Run_0_Map.csv,squared_error,3.0151022278061123e-07,0.5007,0.7196,0.150835,0.744805,0.154047,0.422845,0.049903,0.227716,0.859220,2.000000,1.000000,0.000000,0.139947,0.013211,1.000000,0.994889,0.350075,1.000000,151.396044,1.187091,30.720598,0.422845,10.930666,2.663298,8.732982,2.000000,300.000000,0.770000,28.732554,0.013211,200.000000,9.951448,4.150672,1.000000,8
/home/daniel/Projects/ppsevolution/data/maps/custom_maps/Custom_2_Run_0_Map.csv,squared_error,8.123080378659386e-07,0.4990,0.7192,0.362605,1.000000,0.000000,0.509993,0.162918,0.070714,0.686164,2.000000,0.841502,0.273607,0.000000,0.321595,0.383132,0.688441,0.025962,2.000000,188.455818,1.330000,9.000000,0.509993,33.420683,1.171787,7.175477,2.000000,272.262769,0.923220,9.000000,0.321595,77.243243,7.040190,1.233655,2.000000,9
map,fitness,fitness value,team0ratio,time,HP,Speed,Damage,Acc,ClipSize,RateOfFire,NrBullets,Range,HP,Speed,Damage,Acc,ClipSize,RateOfFire,NrBullets,Range,HP,Speed,Damage,Acc,ClipSize,RateOfFire,NrBullets,Range,HP,Speed,Damage,Acc,ClipSize,RateOfFire,NrBullets,Range,Run,target team0ratio: 0.5,target time: 0.72
/home/daniel/Projects/ppsevolution/data/maps/custom_maps/Custom_3_Run_0_Map.csv,squared_error,1.7350469052075427e-06,0.5011,0.7185,0.000000,1.000000,0.035908,0.569922,0.000000,0.173594,0.631469,0.000000,0.722974,0.064543,0.227801,0.100475,0.994887,0.864053,0.151950,0.000000,125.000000,1.330000,14.063037,0.569922,1.000000,2.149141,6.683225,0.000000,251.520518,0.806144,41.119919,0.100475,198.982608,8.708505,2.367551,0.000000,0
/home/daniel/Projects/ppsevolution/data/maps/custom_maps/Custom_3_Run_0_Map.csv,squared_error,9.047605020924375e-07,0.5004,0.7187,0.000000,0.964382,0.269600,0.438271,0.443992,0.141844,0.690427,1.000000,1.000000,0.107340,0.000000,0.294609,0.660789,0.738993,0.000000,1.000000,125.000000,1.310054,47.013564,0.438271,89.354455,1.847516,7.213843,1.000000,300.000000,0.830111,9.000000,0.294609,132.496988,7.520438,1.000000,1.000000,1
/home/daniel/Projects/ppsevolution/data/maps/custom_maps/Custom_3_Run_0_Map.csv,squared_error,2.9693085758716003e-06,0.4979,0.7213,0.330695,0.781789,0.103921,0.546788,0.078179,0.374566,0.920704,0.000000,1.000000,0.151843,0.189822,0.220126,0.957484,0.576190,0.249941,1.000000,182.871677,1.207802,23.652795,0.546788,16.557709,4.058381,9.286339,0.000000,300.000000,0.855032,35.764941,0.220126,191.539228,5.973805,3.249468,1.000000,2
/home/daniel/Projects/ppsevolution/data/maps/custom_maps/Custom_3_Run_0_Map.csv,squared_error,6.988735862030797e-07,0.4990,0.7206,0.000000,0.854140,0.059686,0.494251,0.057219,0.385309,0.454828,2.000000,0.585276,0.392181,0.252774,0.070168,1.000000,0.366134,0.000000,0.000000,125.000000,1.248318,17.415793,0.494251,12.386553,4.160435,5.093454,2.000000,227.423363,0.989621,44.641154,0.070168,200.000000,3.978270,1.000000,0.000000,3
/home/daniel/Projects/ppsevolution/data/maps/custom_maps/Custom_3_Run_0_Map.csv,squared_error,3.1568139474983926e-07,0.4992,0.7198,0.066805,1.000000,0.147267,0.537664,0.000000,0.309154,0.725616,1.000000,1.000000,0.000000,0.000000,0.309742,0.856492,0.981622,0.208243,0.000000,136.690938,1.330000,29.764694,0.537664,1.000000,3.436962,7.530540,1.000000,300.000000,0.770000,9.000000,0.309742,171.441908,9.825411,2.874189,0.000000,4
/home/daniel/Projects/ppsevolution/data/maps/custom_maps/Custom_3_Run_0_Map.csv,squared_error,3.2062587282240236e-06,0.4976,0.7193,0.005234,0.702126,0.000000,0.622664,0.285535,0.075993,0.963371,2.000000,0.991006,0.479284,0.324495,0.000000,0.806146,0.865040,0.000000,0.000000,125.915865,1.163191,9.000000,0.622664,57.821425,1.221935,9.670336,2.000000,298.426125,1.038399,54.753798,0.000000,161.423041,8.717876,1.000000,0.000000,5
/home/daniel/Projects/ppsevolution/data/maps/custom_maps/Custom_3_Run_0_Map.csv,squared_error,1.8932150392465594e-06,0.4987,0.7185,0.159892,0.936302,0.000000,0.631361,0.142920,0.190899,0.897528,0.000000,0.914061,0.411703,0.045082,0.353556,0.877282,0.852164,0.000331,1.000000,152.981098,1.294329,9.000000,0.631361,29.440991,2.313545,9.077756,0.000000,284.960673,1.000554,15.356515,0.353556,175.579064,8.595558,1.002981,1.000000,6
/home/daniel/Projects/ppsevolution/data/maps/custom_maps/Custom_3_Run_0_Map.csv,squared_error,2.5795139324287755e-06,0.5023,0.7203,0.080993,0.988717,0.320952,0.303685,0.178823,0.000000,0.958440,1.000000,0.856617,0.063822,0.000000,0.274510,1.000000,1.000000,0.452896,0.000000,139.173719,1.323681,54.254183,0.303685,36.585834,0.500000,9.625956,1.000000,274.908036,0.805740,9.000000,0.274510,200.000000,10.000000,5.076064,0.000000,7
/home/daniel/Projects/ppsevolution/data/maps/custom_maps/Custom_3_Run_0_Map.csv,squared_error,2.1112680717835113e-06,0.5001,0.7221,0.016452,1.000000,0.310953,0.329628,0.061008,0.072882,0.607638,2.000000,0.831470,0.152876,0.245818,0.025658,0.808003,0.932219,0.048322,2.000000,127.879046,1.330000,52.844394,0.329628,13.140496,1.192381,6.468738,2.000000,270.507251,0.855611,43.660315,0.025658,161.792685,9.356078,1.434902,2.000000,8
/home/daniel/Projects/ppsevolution/data/maps/custom_maps/Custom_3_Run_0_Map.csv,squared_error,3.2356026863140804e-06,0.5023,0.7189,0.524644,0.580842,0.311328,0.356356,0.000000,0.057390,1.000000,1.000000,1.000000,0.139309,0.188203,0.305760,1.000000,0.668938,0.120949,0.000000,216.812637,1.095272,52.897199,0.356356,1.000000,1.045206,10.000000,1.000000,300.000000,0.848013,35.536627,0.305760,200.000000,6.854910,2.088542,0.000000,9
map,fitness,fitness value,team0ratio,time,HP,Speed,Damage,Acc,ClipSize,RateOfFire,NrBullets,Range,HP,Speed,Damage,Acc,ClipSize,RateOfFire,NrBullets,Range,HP,Speed,Damage,Acc,ClipSize,RateOfFire,NrBullets,Range,HP,Speed,Damage,Acc,ClipSize,RateOfFire,NrBullets,Range,Run,target team0ratio: 0.5,target time: 0.72
/home/daniel/Projects/ppsevolution/data/maps/custom_maps/Custom_4_Run_0_Map.csv,squared_error,6.233275711594141e-07,0.5008,0.7208,0.867915,0.802378,0.254941,0.000000,0.152679,0.121604,0.680005,2.000000,1.000000,0.108904,0.068569,0.092142,0.909338,1.000000,0.000000,1.000000,276.885053,1.219332,44.946725,0.000000,31.383109,1.655240,7.120044,2.000000,300.000000,0.830986,18.668172,0.092142,181.958269,10.000000,1.000000,1.000000,0
/home/daniel/Projects/ppsevolution/data/maps/custom_maps/Custom_4_Run_0_Map.csv,squared_error,3.4768966073357763e-06,0.4974,0.7195,0.491069,0.751633,0.032939,0.242468,0.133798,0.065100,0.525282,0.000000,0.852397,0.143013,0.010015,0.000000,1.000000,0.866610,0.204474,2.000000,210.937059,1.190914,13.644396,0.242468,27.625713,1.118453,5.727536,0.000000,274.169460,0.850087,10.412144,0.000000,200.000000,8.732797,2.840264,2.000000,1
/home/daniel/Projects/ppsevolution/data/maps/custom_maps/Custom_4_Run_0_Map.csv,squared_error,7.293322607733928e-06,0.5036,0.7211,0.613385,0.674771,0.103311,0.067063,0.000000,0.261294,1.000000,2.000000,0.809173,0.309828,0.006024,0.060409,0.803216,0.899080,0.000000,2.000000,232.342346,1.147872,23.566866,0.067063,1.000000,2.982289,10.000000,2.000000,266.605272,0.943504,9.849326,0.060409,160.840009,9.041256,1.000000,2.000000,2
/home/daniel/Projects/ppsevolution/data/maps/custom_maps/Custom_4_Run_0_Map.csv,squared_error,8.0535280366697e-06,0.4969,0.7225,0.597896,1.000000,0.095007,0.000000,0.079122,0.180845,0.863760,0.000000,0.587947,0.061267,0.000000,0.071370,1.000000,0.554281,0.262843,1.000000,229.631803,1.330000,22.396045,0.000000,16.745336,2.218031,8.773841,0.000000,227.890744,0.804310,9.000000,0.071370,200.000000,5.765669,3.365587,1.000000,3
/home/daniel/Projects/ppsevolution/data/maps/custom_maps/Custom_4_Run_0_Map.csv,squared_error,3.456577958048218e-06,0.4978,0.7185,0.555729,1.000000,0.087006,0.047195,0.000000,0.364388,0.940102,2.000000,0.687016,0.000000,0.025588,0.000000,0.731481,0.906738,0.337613,0.000000,222.252525,1.330000,21.267874,0.047195,1.000000,3.961686,9.460921,2.000000,245.227745,0.770000,12.607850,0.000000,146.564749,9.114010,4.038516,0.000000,4
/home/daniel/Projects/ppsevolution/data/maps/custom_maps/Custom_4_Run_0_Map.csv,squared_error,5.770866778227877e-07,0.4989,0.7199,0.428572,0.690665,0.000000,0.272683,0.134748,0.242098,0.716961,0.000000,0.865766,0.470406,0.000000,0.000000,1.000000,0.881930,0.041993,0.000000,200.000059,1.156773,9.000000,0.272683,27.814893,2.799933,7.452652,0.000000,276.509124,1.033427,9.000000,0.000000,200.000000,8.878340,1.377934,0.000000,5
/home/daniel/Projects/ppsevolution/data/maps/custom_maps/Custom_4_Run_0_Map.csv,squared_error,2.826591690575263e-06,0.5022,0.7208,0.654083,1.000000,0.093382,0.000000,0.000000,0.170871,0.790629,1.000000,0.548340,0.187680,0.075107,0.000000,0.811711,0.437313,0.262118,0.000000,239.464438,1.330000,22.166821,0.000000,1.000000,2.123272,8.115661,1.000000,220.959535,0.875101,19.590082,0.000000,162.530562,4.654472,3.359058,0.000000,6
/home/daniel/Projects/ppsevolution/data/maps/custom_maps/Custom_4_Run_0_Map.csv,squared_error,2.619048104702356e-06,0.4994,0.7178,0.563877,0.961835,0.000000,0.189839,0.137091,0.000000,0.929099,0.000000,0.726291,0.114273,0.015489,0.037828,1.000000,0.789833,0.287554,1.000000,223.678403,1.308627,9.000000,0.189839,28.281039,0.500000,9.361890,0.000000,252.100920,0.833993,11.183998,0.037828,200.000000,8.003410,3.587984,1.000000,7
/home/daniel/Projects/ppsevolution/data/maps/custom_maps/Custom_4_Run_0_Map.csv,squared_error,1.7099734585286883e-06,0.5018,0.7203,0.582096,1.000000,0.033760,0.102407,0.004045,0.527239,0.523612,0.000000,0.555412,0.348851,0.000000,0.064575,0.633244,1.000000,0.203219,0.000000,226.866770,1.330000,13.760164,0.102407,1.804900,5.508772,5.712505,0.000000,222.197156,0.965357,9.000000,0.064575,127.015558,10.000000,2.828973,0.000000,8
/home/daniel/Projects/ppsevolution/data/maps/custom_maps/Custom_4_Run_0_Map.csv,squared_error,3.370028661021289e-06,0.4978,0.7214,0.504162,0.444151,0.000000,0.299917,0.000000,0.000000,0.667647,2.000000,1.000000,0.035208,0.000000,0.000000,0.700433,0.719994,0.186700,1.000000,213.228345,1.018725,9.000000,0.299917,1.000000,0.500000,7.008819,2.000000,300.000000,0.789716,9.000000,0.000000,140.386236,7.339941,2.680296,1.000000,9
map,fitness,fitness value,team0ratio,time,HP,Speed,Damage,Acc,ClipSize,RateOfFire,NrBullets,Range,HP,Speed,Damage,Acc,ClipSize,RateOfFire,NrBullets,Range,HP,Speed,Damage,Acc,ClipSize,RateOfFire,NrBullets,Range,HP,Speed,Damage,Acc,ClipSize,RateOfFire,NrBullets,Range,Run,target team0ratio: 0.5,target time: 0.72
/home/daniel/Projects/ppsevolution/data/maps/custom_maps/Custom_5_Run_0_Map.csv,squared_error,1.0469582902228973e-05,0.4961,0.7177,0.000000,0.574811,0.188166,0.168568,0.284642,0.084559,0.718606,1.000000,0.738875,0.079681,0.000000,0.000000,0.872425,0.631483,0.181009,0.000000,125.000000,1.091894,35.531456,0.168568,57.643769,1.303306,7.467452,1.000000,254.303041,0.814621,9.000000,0.000000,174.612670,6.499089,2.629085,0.000000,0
/home/daniel/Projects/ppsevolution/data/maps/custom_maps/Custom_5_Run_0_Map.csv,squared_error,2.2631514725908084e-06,0.4994,0.7180,0.209455,0.985615,0.123938,0.305657,0.083541,0.119877,1.000000,2.000000,1.000000,0.171779,0.000000,0.085990,0.899006,0.453460,0.162305,0.000000,161.654584,1.321944,26.475311,0.305657,17.624718,1.638831,10.000000,2.000000,300.000000,0.866196,9.000000,0.085990,179.902193,4.807873,2.460745,0.000000,1
/home/daniel/Projects/ppsevolution/data/maps/custom_maps/Custom_5_Run_0_Map.csv,squared_error,2.7623854037812474e-06,0.5004,0.7177,0.089244,1.000000,0.000000,0.363555,0.005138,0.001312,0.911837,2.000000,0.764266,0.060119,0.000000,0.044289,1.000000,0.914955,0.160558,2.000000,140.617751,1.330000,9.000000,0.363555,2.022536,0.512468,9.206534,2.000000,258.746635,0.803667,9.000000,0.044289,200.000000,9.192074,2.445021,2.000000,2
/home/daniel/Projects/ppsevolution/data/maps/custom_maps/Custom_5_Run_0_Map.csv,squared_error,3.2074027853042926e-06,0.5002,0.7225,0.291395,0.765390,0.003073,0.415210,0.244418,0.000000,0.982649,0.000000,0.959280,0.097274,0.108895,0.022220,0.797717,1.000000,0.093020,0.000000,175.994108,1.198619,9.433243,0.415210,49.639168,0.500000,9.843838,0.000000,292.873923,0.824473,24.354132,0.022220,159.745754,10.000000,1.837178,0.000000,3
/home/daniel/Projects/ppsevolution/data/maps/custom_maps/Custom_5_Run_0_Map.csv,squared_error,9.849357924991552e-07,0.5008,0.7188,0.569041,0.814825,0.074686,0.347118,0.384224,0.417387,0.872130,1.000000,1.000000,0.141640,0.000000,0.246227,0.932925,0.909515,0.205502,1.000000,224.582245,1.226302,19.530779,0.347118,77.460548,4.465177,8.849173,1.000000,300.000000,0.849318,9.000000,0.246227,186.652040,9.140394,2.849518,1.000000,4
/home/daniel/Projects/ppsevolution/data/maps/custom_maps/Custom_5_Run_0_Map.csv,squared_error,6.824282251739129e-06,0.5032,0.7219,0.366630,1.000000,0.141969,0.249859,0.453036,0.242240,0.899071,0.000000,0.949518,0.094825,0.000000,0.138955,0.283705,0.838233,0.179675,1.000000,189.160308,1.330000,29.017670,0.249859,91.154253,2.801281,9.091639,0.000000,291.165599,0.823102,9.000000,0.138955,57.457371,8.463215,2.617078,1.000000,5
/home/daniel/Projects/ppsevolution/data/maps/custom_maps/Custom_5_Run_0_Map.csv,squared_error,1.0832612799732744e-07,0.4998,0.7204,0.139841,0.859363,0.000000,0.428253,0.312071,0.213452,0.582940,2.000000,0.904135,0.208646,0.046651,0.015252,1.000000,0.876111,0.088000,2.000000,149.472116,1.251244,9.000000,0.428253,63.102060,2.527794,6.246461,2.000000,283.223668,0.886842,15.577844,0.015252,200.000000,8.823057,1.791997,2.000000,6
/home/daniel/Projects/ppsevolution/data/maps/custom_maps/Custom_5_Run_0_Map.csv,squared_error,5.664957448755093e-06,0.5033,0.7196,0.108484,1.000000,0.000000,0.403470,0.114325,0.204170,0.931348,1.000000,0.892433,0.000000,0.000000,0.067632,0.540436,0.956479,0.000000,0.000000,143.984671,1.330000,9.000000,0.403470,23.750670,2.439614,9.382128,1.000000,281.175737,0.770000,9.000000,0.067632,108.546732,9.586550,1.000000,0.000000,7
/home/daniel/Projects/ppsevolution/data/maps/custom_maps/Custom_5_Run_0_Map.csv,squared_error,1.953293914721147e-06,0.5020,0.7201,0.000000,1.000000,0.063815,0.292290,0.090227,0.000000,1.000000,1.000000,0.771665,0.106732,0.000000,0.000000,0.569069,0.775800,0.098774,0.000000,125.000000,1.330000,17.997981,0.292290,18.955153,0.500000,10.000000,1.000000,260.041337,0.829770,9.000000,0.000000,114.244649,7.870104,1.888968,0.000000,8
/home/daniel/Projects/ppsevolution/data/maps/custom_maps/Custom_5_Run_0_Map.csv,squared_error,1.8175996546261807e-06,0.4981,0.7201,0.300275,1.000000,0.000000,0.439627,0.151987,0.498777,0.961362,0.000000,1.000000,0.227036,0.021435,0.102690,0.984904,0.697227,0.254235,1.000000,177.548106,1.330000,9.000000,0.439627,31.245490,5.238379,9.652259,0.000000,300.000000,0.897140,12.022308,0.102690,196.995972,7.123652,3.288115,1.000000,9
map,fitness,fitness value,team0ratio,time,HP,Speed,Damage,Acc,ClipSize,RateOfFire,NrBullets,Range,HP,Speed,Damage,Acc,ClipSize,RateOfFire,NrBullets,Range,HP,Speed,Damage,Acc,ClipSize,RateOfFire,NrBullets,Range,HP,Speed,Damage,Acc,ClipSize,RateOfFire,NrBullets,Range,Run,target team0ratio: 0.5,target time: 0.72
/home/daniel/Projects/ppsevolution/data/maps/custom_maps/Custom_6_Run_0_Map.csv,squared_error,1.353280870546692e-08,0.5001,0.7201,0.000000,0.973995,0.314112,0.540230,0.085830,0.010495,1.000000,0.000000,1.000000,0.000000,0.000000,0.498727,0.937650,0.703161,0.063738,2.000000,125.000000,1.315437,53.289777,0.540230,18.080157,0.599703,10.000000,0.000000,300.000000,0.770000,9.000000,0.498727,187.592390,7.180031,1.573638,2.000000,0
/home/daniel/Projects/ppsevolution/data/maps/custom_maps/Custom_6_Run_0_Map.csv,squared_error,6.802191303563574e-07,0.4989,0.7198,0.135387,1.000000,0.217147,0.591069,0.000000,0.000000,1.000000,2.000000,1.000000,0.017058,0.004208,0.533360,0.842868,0.873117,0.078146,2.000000,148.692710,1.330000,39.617666,0.591069,1.000000,0.500000,10.000000,2.000000,300.000000,0.779552,9.593285,0.533360,168.730699,8.794612,1.703317,2.000000,1
/home/daniel/Projects/ppsevolution/data/maps/custom_maps/Custom_6_Run_0_Map.csv,squared_error,2.3049642112311585e-06,0.5010,0.7181,0.409952,0.986126,0.011367,0.643946,0.125097,0.000000,0.910258,2.000000,0.668710,0.000000,0.000000,0.642151,1.000000,1.000000,0.078117,0.000000,196.741629,1.322230,10.602710,0.643946,25.894228,0.500000,9.192320,2.000000,242.024230,0.770000,9.000000,0.642151,200.000000,10.000000,1.703056,0.000000,2
/home/daniel/Projects/ppsevolution/data/maps/custom_maps/Custom_6_Run_0_Map.csv,squared_error,8.728814090915282e-07,0.5013,0.7203,0.123517,1.000000,0.000000,0.734735,0.114719,0.079666,0.897916,0.000000,0.971923,0.120007,0.116845,0.483508,0.597613,0.912738,0.000000,2.000000,146.615529,1.330000,9.000000,0.734735,23.828983,1.256829,9.081247,0.000000,295.086521,0.837204,25.475210,0.483508,119.924921,9.171007,1.000000,2.000000,3
/home/daniel/Projects/ppsevolution/data/maps/custom_maps/Custom_6_Run_0_Map.csv,squared_error,7.46269936071268e-06,0.5001,0.7239,0.000000,0.762876,0.286018,0.556572,0.000000,0.000000,1.000000,0.000000,1.000000,0.120567,0.076706,0.437872,0.833826,0.826642,0.000000,2.000000,125.000000,1.197211,49.328539,0.556572,1.000000,0.500000,10.000000,0.000000,300.000000,0.837518,19.815542,0.437872,166.931459,8.353102,1.000000,2.000000,4
/home/daniel/Projects/ppsevolution/data/maps/custom_maps/Custom_6_Run_0_Map.csv,squared_error,1.0132340417186105e-06,0.5004,0.7186,0.044155,0.743273,0.063403,0.701900,0.203873,0.033417,0.906424,2.000000,1.000000,0.033149,0.000000,0.514978,0.990057,0.919179,0.286042,2.000000,132.727095,1.186233,17.939789,0.701900,41.570705,0.817457,9.157813,2.000000,300.000000,0.788564,9.000000,0.514978,198.021418,9.232197,3.574374,2.000000,5
/home/daniel/Projects/ppsevolution/data/maps/custom_maps/Custom_6_Run_0_Map.csv,squared_error,6.191570985248531e-06,0.5035,0.7205,0.044474,0.834758,0.192055,0.626329,0.003894,0.223599,0.843115,1.000000,0.928055,0.013739,0.096843,0.436974,1.000000,0.912672,0.319088,1.000000,132.782916,1.237464,36.079739,0.626329,1.774852,2.624192,8.588035,1.000000,287.409712,0.777694,22.654818,0.436974,200.000000,9.170385,3.871792,1.000000,6
/home/daniel/Projects/ppsevolution/data/maps/custom_maps/Custom_6_Run_0_Map.csv,squared_error,2.9137470006618313e-07,0.5006,0.7204,0.160621,0.894519,0.371036,0.440864,0.029064,0.016668,0.750239,0.000000,0.801867,0.000000,0.117435,0.475817,0.951867,0.833155,0.049298,0.000000,153.108682,1.270930,61.316077,0.440864,6.783781,0.658346,7.752153,0.000000,265.326699,0.770000,25.558328,0.475817,190.421577,8.414974,1.443686,0.000000,7
/home/daniel/Projects/ppsevolution/data/maps/custom_maps/Custom_6_Run_0_Map.csv,squared_error,2.764024752065151e-06,0.5012,0.7220,0.086214,1.000000,0.132713,0.593858,0.064022,0.202458,1.000000,1.000000,0.710070,0.214433,0.214085,0.376446,0.755258,0.807463,0.156150,0.000000,140.087469,1.330000,27.712566,0.593858,13.740476,2.423352,10.000000,1.000000,249.262299,0.890083,39.185919,0.376446,151.296248,8.170897,2.405354,0.000000,8
/home/daniel/Projects/ppsevolution/data/maps/custom_maps/Custom_6_Run_0_Map.csv,squared_error,7.734854297865398e-07,0.4988,0.7197,0.000000,0.929682,0.088626,0.675196,0.000000,0.321687,0.693963,1.000000,0.816421,0.343647,0.050296,0.484450,1.000000,0.699165,0.202400,2.000000,125.000000,1.290622,21.496237,0.675196,1.000000,3.556031,7.245666,1.000000,267.873750,0.962442,16.091755,0.484450,200.000000,7.142067,2.821598,2.000000,9
map,fitness,fitness value,team0ratio,time,HP,Speed,Damage,Acc,ClipSize,RateOfFire,NrBullets,Range,HP,Speed,Damage,Acc,ClipSize,RateOfFire,NrBullets,Range,HP,Speed,Damage,Acc,ClipSize,RateOfFire,NrBullets,Range,HP,Speed,Damage,Acc,ClipSize,RateOfFire,NrBullets,Range,Run,target team0ratio: 0.5,target time: 0.72
/home/daniel/Projects/ppsevolution/data/maps/custom_maps/Custom_7_Run_0_Map.csv,squared_error,4.978279123519984e-07,0.4996,0.7191,0.091571,0.776478,0.000000,0.483297,0.371848,0.104810,0.979813,2.000000,0.876988,0.056927,0.082854,0.035156,0.717562,0.993490,0.416791,1.000000,141.024994,1.204828,9.000000,0.483297,74.997818,1.495695,9.818321,2.000000,278.472964,0.801879,20.682424,0.035156,143.794917,9.938152,4.751118,1.000000,0
/home/daniel/Projects/ppsevolution/data/maps/custom_maps/Custom_7_Run_0_Map.csv,squared_error,4.681332181260632e-06,0.5017,0.7175,0.215202,0.787596,0.000000,0.489423,0.321176,0.530247,0.945403,0.000000,0.886143,0.157216,0.000000,0.237303,0.570055,0.976150,0.000000,2.000000,162.660294,1.211054,9.000000,0.489423,64.914050,5.537342,9.508625,0.000000,280.075082,0.858041,9.000000,0.237303,114.440918,9.773427,1.000000,2.000000,1
/home/daniel/Projects/ppsevolution/data/maps/custom_maps/Custom_7_Run_0_Map.csv,squared_error,4.003669104815766e-06,0.4975,0.7188,0.064229,0.997839,0.000000,0.522044,0.388713,0.160774,1.000000,1.000000,1.000000,0.025814,0.091532,0.074495,0.952037,0.830691,0.000000,0.000000,136.239995,1.328790,9.000000,0.522044,78.353873,2.027350,10.000000,1.000000,300.000000,0.784456,21.905958,0.074495,190.455274,8.391564,1.000000,0.000000,2
/home/daniel/Projects/ppsevolution/data/maps/custom_maps/Custom_7_Run_0_Map.csv,squared_error,8.640571179511283e-08,0.5001,0.7196,0.000000,0.645820,0.348783,0.073426,0.184255,0.139982,1.000000,2.000000,0.753110,0.000000,0.000000,0.075181,1.000000,0.413609,0.445437,0.000000,125.000000,1.131659,58.178359,0.073426,37.666813,1.829825,10.000000,2.000000,256.794279,0.770000,9.000000,0.075181,200.000000,4.429288,5.008929,0.000000,3
/home/daniel/Projects/ppsevolution/data/maps/custom_maps/Custom_7_Run_0_Map.csv,squared_error,1.3825097078353543e-06,0.4996,0.7216,0.000000,1.000000,0.000000,0.439933,0.000000,0.290711,1.000000,2.000000,0.771734,0.080456,0.000000,0.131825,0.627098,0.626953,0.000000,2.000000,125.000000,1.330000,9.000000,0.439933,1.000000,3.261753,10.000000,2.000000,260.053424,0.815055,9.000000,0.131825,125.792490,6.456050,1.000000,2.000000,4
/home/daniel/Projects/ppsevolution/data/maps/custom_maps/Custom_7_Run_0_Map.csv,squared_error,2.1463385242100477e-06,0.5019,0.7209,0.177831,0.547567,0.354131,0.125233,0.249091,0.127583,0.626695,0.000000,0.806268,0.020819,0.049776,0.116294,0.452935,0.567147,0.271610,2.000000,156.120364,1.076638,58.932424,0.125233,50.569017,1.712035,6.640259,0.000000,266.096873,0.781659,16.018435,0.116294,91.134106,5.887895,3.444490,2.000000,5
/home/daniel/Projects/ppsevolution/data/maps/custom_maps/Custom_7_Run_0_Map.csv,squared_error,1.8975039171216159e-06,0.5000,0.7181,0.000000,0.648249,0.000000,0.479076,0.658946,0.766696,0.971820,2.000000,0.867994,0.160570,0.010942,0.115335,0.848015,0.896606,0.007929,2.000000,125.000000,1.133019,9.000000,0.479076,132.130317,7.783608,9.746377,2.000000,276.898985,0.859919,10.542774,0.115335,169.755006,9.017758,1.071363,2.000000,6
/home/daniel/Projects/ppsevolution/data/maps/custom_maps/Custom_7_Run_0_Map.csv,squared_error,9.083194181698334e-07,0.4996,0.7187,0.137430,0.677402,0.305506,0.285033,0.328957,0.019676,0.527206,2.000000,1.000000,0.549038,0.112944,0.062308,0.833632,0.934630,0.030359,2.000000,149.050214,1.149345,52.076289,0.285033,66.462346,0.686924,5.744855,2.000000,300.000000,1.077461,24.925174,0.062308,166.892719,9.378988,1.273228,2.000000,7
/home/daniel/Projects/ppsevolution/data/maps/custom_maps/Custom_7_Run_0_Map.csv,squared_error,4.439646086123541e-06,0.4991,0.7172,0.389115,1.000000,0.000000,0.441991,0.000000,0.082692,0.847329,2.000000,0.783316,0.270331,0.002046,0.312036,0.579345,1.000000,0.044001,2.000000,193.095178,1.330000,9.000000,0.441991,1.000000,1.285575,8.625962,2.000000,262.080359,0.921385,9.288541,0.312036,116.289632,10.000000,1.396006,2.000000,8
/home/daniel/Projects/ppsevolution/data/maps/custom_maps/Custom_7_Run_0_Map.csv,squared_error,9.630332949495734e-06,0.5028,0.7166,0.489609,0.991647,0.050656,0.502746,0.258994,0.082795,0.518079,0.000000,0.977327,0.103171,0.140451,0.224058,0.909221,0.653161,0.025730,1.000000,210.681658,1.325322,16.142473,0.502746,52.539849,1.286550,5.662713,0.000000,296.032296,0.827776,28.803545,0.224058,181.934958,6.705025,1.231569,1.000000,9
map,fitness,fitness value,team0ratio,time,HP,Speed,Damage,Acc,ClipSize,RateOfFire,NrBullets,Range,HP,Speed,Damage,Acc,ClipSize,RateOfFire,NrBullets,Range,HP,Speed,Damage,Acc,ClipSize,RateOfFire,NrBullets,Range,HP,Speed,Damage,Acc,ClipSize,RateOfFire,NrBullets,Range,Run,target team0ratio: 0.5,target time: 0.72
/home/daniel/Projects/ppsevolution/data/maps/custom_maps/Custom_8_Run_0_Map.csv,squared_error,2.1617300193639715e-06,0.4979,0.7200,0.235939,0.810707,0.000000,0.346276,0.072852,0.131065,0.969911,0.000000,0.928656,0.139769,0.000000,0.000000,0.874801,1.000000,0.246280,1.000000,166.289399,1.223996,9.000000,0.346276,15.497616,1.745114,9.729200,0.000000,287.514772,0.848271,9.000000,0.000000,175.085495,10.000000,3.216517,1.000000,0
/home/daniel/Projects/ppsevolution/data/maps/custom_maps/Custom_8_Run_0_Map.csv,squared_error,2.495186291736163e-06,0.5009,0.7179,0.170711,0.952727,0.032381,0.403747,0.000000,0.384747,0.207796,0.000000,1.000000,0.556800,0.000000,0.000000,0.370213,0.857960,0.000000,1.000000,154.874399,1.303527,13.565720,0.403747,1.000000,4.155093,2.870166,0.000000,300.000000,1.081808,9.000000,0.000000,74.672329,8.650623,1.000000,1.000000,1
/home/daniel/Projects/ppsevolution/data/maps/custom_maps/Custom_8_Run_0_Map.csv,squared_error,1.4288407547276346e-06,0.4984,0.7196,0.375107,0.688528,0.283482,0.016595,0.006855,0.012917,0.864395,2.000000,0.956191,0.000000,0.017075,0.020898,0.789398,0.717462,0.266041,0.000000,190.643677,1.155576,48.970986,0.016595,2.364151,0.622707,8.779555,2.000000,292.333425,0.770000,11.407615,0.020898,158.090226,7.315893,3.394368,0.000000,2
/home/daniel/Projects/ppsevolution/data/maps/custom_maps/Custom_8_Run_0_Map.csv,squared_error,2.0895661673677593e-06,0.5005,0.7220,0.237381,0.620890,0.000000,0.364606,0.222076,0.242998,0.952674,0.000000,1.000000,0.138064,0.000000,0.012756,0.834418,0.317760,0.039819,0.000000,166.541598,1.117699,9.000000,0.364606,45.193170,2.808479,9.574064,0.000000,300.000000,0.847316,9.000000,0.012756,167.049250,3.518722,1.358373,0.000000,3
/home/daniel/Projects/ppsevolution/data/maps/custom_maps/Custom_8_Run_0_Map.csv,squared_error,9.245840635515284e-07,0.5002,0.7213,0.553593,0.785185,0.003124,0.250541,0.136592,0.029170,0.995577,1.000000,0.775957,0.000000,0.025364,0.130918,1.000000,0.771116,0.218650,1.000000,221.878855,1.209703,9.440452,0.250541,28.181814,0.777111,9.960193,1.000000,260.792558,0.770000,12.576302,0.130918,200.000000,7.825604,2.967849,1.000000,4
/home/daniel/Projects/ppsevolution/data/maps/custom_maps/Custom_8_Run_0_Map.csv,squared_error,2.065256342316929e-06,0.5017,0.7189,0.669063,0.804842,0.031091,0.335205,0.065478,0.259929,0.783988,0.000000,1.000000,0.099087,0.215241,0.000000,1.000000,0.879312,0.000000,0.000000,242.086000,1.220712,13.383855,0.335205,14.030203,2.969322,8.055895,0.000000,300.000000,0.825489,39.348936,0.000000,200.000000,8.853464,1.000000,0.000000,5
/home/daniel/Projects/ppsevolution/data/maps/custom_maps/Custom_8_Run_0_Map.csv,squared_error,5.686814156914033e-06,0.5033,0.7208,0.399437,0.758989,0.031383,0.231852,0.082364,0.172940,0.705982,0.000000,0.702658,0.008604,0.091846,0.000000,0.819721,0.674776,0.042426,1.000000,194.901534,1.195034,13.424998,0.231852,17.390469,2.142931,7.353836,0.000000,247.965100,0.774818,21.950287,0.000000,164.124463,6.910375,1.381836,1.000000,6
/home/daniel/Projects/ppsevolution/data/maps/custom_maps/Custom_8_Run_0_Map.csv,squared_error,1.367195777231744e-06,0.4999,0.7216,0.616733,0.749113,0.000000,0.383846,0.187214,0.525195,0.489844,1.000000,1.000000,0.352015,0.000000,0.150440,1.000000,0.691343,0.397218,1.000000,232.928197,1.189503,9.000000,0.383846,38.255672,5.489355,5.408594,1.000000,300.000000,0.967128,9.000000,0.150440,200.000000,7.067757,4.574958,1.000000,7
/home/daniel/Projects/ppsevolution/data/maps/custom_maps/Custom_8_Run_0_Map.csv,squared_error,2.733280420469044e-06,0.5009,0.7222,0.271494,0.670765,0.137191,0.167016,0.148277,0.180819,0.868377,2.000000,0.900540,0.023967,0.000000,0.000000,0.905644,0.516478,0.141102,1.000000,172.511456,1.145628,28.343938,0.167016,30.507035,2.217781,8.815389,2.000000,282.594535,0.783422,9.000000,0.000000,181.223158,5.406544,2.269918,1.000000,8
/home/daniel/Projects/ppsevolution/data/maps/custom_maps/Custom_8_Run_0_Map.csv,squared_error,1.222976516626739e-06,0.5009,0.7187,0.588540,0.880583,0.000000,0.309856,0.096387,0.853914,0.959002,1.000000,0.903630,0.230942,0.000000,0.155424,1.000000,0.901454,0.262114,1.000000,227.994549,1.263127,9.000000,0.309856,20.180925,8.612186,9.631016,1.000000,283.135333,0.899328,9.000000,0.155424,200.000000,9.063815,3.359022,1.000000,9
map,fitness,fitness value,team0ratio,time,HP,Speed,Damage,Acc,ClipSize,RateOfFire,NrBullets,Range,HP,Speed,Damage,Acc,ClipSize,RateOfFire,NrBullets,Range,HP,Speed,Damage,Acc,ClipSize,RateOfFire,NrBullets,Range,HP,Speed,Damage,Acc,ClipSize,RateOfFire,NrBullets,Range,Run,target team0ratio: 0.5,target time: 0.72
/home/daniel/Projects/ppsevolution/data/maps/custom_maps/Custom_9_Run_0_Map.csv,squared_error,1.7255846736048828e-06,0.5019,0.7199,0.820334,1.000000,0.006887,0.038493,0.144840,0.033599,1.000000,1.000000,0.726523,0.332634,0.000000,0.184640,1.000000,0.701910,0.030472,2.000000,268.558390,1.330000,9.971108,0.038493,29.823095,0.819190,10.000000,1.000000,252.141582,0.956275,9.000000,0.184640,200.000000,7.168146,1.274250,2.000000,0
/home/daniel/Projects/ppsevolution/data/maps/custom_maps/Custom_9_Run_0_Map.csv,squared_error,8.781984815869834e-08,0.4999,0.7204,0.907698,1.000000,0.000000,0.169042,0.356925,0.359475,0.679696,0.000000,0.938831,0.217905,0.118920,0.074531,1.000000,1.000000,0.041242,0.000000,283.847161,1.330000,9.000000,0.169042,72.028010,3.915011,7.117263,0.000000,289.295457,0.892027,25.767779,0.074531,200.000000,10.000000,1.371180,0.000000,1
/home/daniel/Projects/ppsevolution/data/maps/custom_maps/Custom_9_Run_0_Map.csv,squared_error,6.142438323434e-06,0.5005,0.7235,1.000000,0.844587,0.097494,0.000000,0.718062,0.230682,1.000000,0.000000,0.965758,0.000000,0.000000,0.227113,0.453164,0.558837,0.031641,2.000000,300.000000,1.242969,22.746626,0.000000,143.894328,2.691477,10.000000,0.000000,294.007615,0.770000,9.000000,0.227113,91.179685,5.808947,1.284773,2.000000,2
/home/daniel/Projects/ppsevolution/data/maps/custom_maps/Custom_9_Run_0_Map.csv,squared_error,3.4059151368211948e-06,0.5014,0.7222,0.523111,0.922367,0.123180,0.004137,0.112087,0.264519,0.761480,1.000000,0.894957,0.283820,0.000000,0.000000,0.922868,0.574181,0.079064,1.000000,216.544378,1.286526,26.368355,0.004137,23.305314,3.012931,7.853323,1.000000,281.617477,0.928939,9.000000,0.000000,184.650665,5.954721,1.711577,1.000000,3
/home/daniel/Projects/ppsevolution/data/maps/custom_maps/Custom_9_Run_0_Map.csv,squared_error,8.476042565604606e-07,0.4994,0.7211,0.666043,0.462505,0.136456,0.000000,0.013606,0.052357,0.742078,1.000000,0.926957,0.551976,0.000000,0.076307,0.901240,0.854818,0.061310,0.000000,241.557527,1.029003,28.240248,0.000000,3.707588,0.997389,7.678706,1.000000,287.217400,1.079107,9.000000,0.076307,180.346826,8.620771,1.551790,0.000000,4
/home/daniel/Projects/ppsevolution/data/maps/custom_maps/Custom_9_Run_0_Map.csv,squared_error,3.1595299499372336e-06,0.4975,0.7204,0.717859,0.854313,0.000000,0.000000,0.274706,0.313174,0.917766,1.000000,0.615653,0.209978,0.000000,0.079995,0.717763,0.973654,0.495667,1.000000,250.625319,1.248415,9.000000,0.000000,55.666417,3.475150,9.259894,1.000000,232.739221,0.887588,9.000000,0.079995,143.834902,9.749717,5.461001,1.000000,5
/home/daniel/Projects/ppsevolution/data/maps/custom_maps/Custom_9_Run_0_Map.csv,squared_error,2.6815290913446567e-06,0.5008,0.7178,0.728014,0.654570,0.000000,0.179465,0.479092,0.161673,0.821984,2.000000,1.000000,0.125172,0.059263,0.000000,0.872462,0.519533,0.298985,1.000000,252.402396,1.136559,9.000000,0.179465,96.339241,2.035894,8.397852,2.000000,300.000000,0.840096,17.356118,0.000000,174.619865,5.435565,3.690869,1.000000,6
/home/daniel/Projects/ppsevolution/data/maps/custom_maps/Custom_9_Run_0_Map.csv,squared_error,5.811840002661571e-06,0.5010,0.7233,0.555384,0.565384,0.054417,0.073101,0.604616,0.042729,0.851968,2.000000,0.914987,0.000000,0.000000,0.000000,0.970878,0.817183,0.162984,0.000000,222.192142,1.086615,16.672794,0.073101,121.318534,0.905929,8.667714,2.000000,285.122750,0.770000,9.000000,0.000000,194.204764,8.263242,2.466852,0.000000,7
/home/daniel/Projects/ppsevolution/data/maps/custom_maps/Custom_9_Run_0_Map.csv,squared_error,7.044234157388006e-06,0.5037,0.7195,0.748891,0.675830,0.029084,0.080261,0.201423,0.000000,0.884883,1.000000,0.877233,0.052329,0.000000,0.125565,0.573566,1.000000,0.073740,2.000000,256.055932,1.148465,13.100862,0.080261,41.083188,0.500000,8.963948,1.000000,278.515845,0.799304,9.000000,0.125565,115.139681,10.000000,1.663664,2.000000,8
/home/daniel/Projects/ppsevolution/data/maps/custom_maps/Custom_9_Run_0_Map.csv,squared_error,1.991289020680376e-06,0.4982,0.7192,0.431413,0.814067,0.032691,0.000000,0.252990,0.223598,1.000000,0.000000,0.675477,0.000000,0.000000,0.000000,0.738790,1.000000,0.030063,0.000000,200.497309,1.225878,13.609434,0.000000,51.345063,2.624178,10.000000,0.000000,243.208536,0.770000,9.000000,0.000000,148.019270,10.000000,1.270570,0.000000,9
map,fitness,fitness value,team0ratio,time,HP,Speed,Damage,Acc,ClipSize,RateOfFire,NrBullets,Range,HP,Speed,Damage,Acc,ClipSize,RateOfFire,NrBullets,Range,HP,Speed,Damage,Acc,ClipSize,RateOfFire,NrBullets,Range,HP,Speed,Damage,Acc,ClipSize,RateOfFire,NrBullets,Range,Run,target team0ratio: 0.5,target time: 0.72
/home/daniel/Projects/ppsevolution/data/maps/custom_maps/Custom_10_Run_0_Map.csv,squared_error,1.0868261073511183e-06,0.5000,0.7185,0.723224,1.000000,0.000000,0.347207,0.321229,0.342646,0.866418,2.000000,0.724005,0.000000,0.206526,0.157951,1.000000,0.939518,0.296443,1.000000,251.564236,1.330000,9.000000,0.347207,64.924630,3.755137,8.797765,2.000000,251.700788,0.770000,38.120190,0.157951,200.000000,9.425423,3.667984,1.000000,0
/home/daniel/Projects/ppsevolution/data/maps/custom_maps/Custom_10_Run_0_Map.csv,squared_error,5.040388668760611e-07,0.5008,0.7206,0.255761,0.632378,0.000000,0.439800,0.138305,0.147379,0.930317,2.000000,0.944258,0.006854,0.000000,0.166254,0.880829,0.723329,0.110128,1.000000,169.758160,1.124132,9.000000,0.439800,28.522710,1.900097,9.372852,2.000000,290.245236,0.773838,9.000000,0.166254,176.284966,7.371623,1.991154,1.000000,1
/home/daniel/Projects/ppsevolution/data/maps/custom_maps/Custom_10_Run_0_Map.csv,squared_error,6.0853211851083085e-06,0.5018,0.7230,0.000000,1.000000,0.415906,0.000000,0.220610,0.110861,0.938805,0.000000,0.905146,0.260756,0.000000,0.000000,1.000000,0.842756,0.248624,2.000000,125.000000,1.330000,67.642803,0.000000,44.901457,1.553184,9.449242,0.000000,283.400493,0.916023,9.000000,0.000000,200.000000,8.506183,3.237619,2.000000,2
/home/daniel/Projects/ppsevolution/data/maps/custom_maps/Custom_10_Run_0_Map.csv,squared_error,8.216958873389412e-08,0.4999,0.7196,0.313811,0.776361,0.071512,0.274739,0.161225,0.122185,0.627486,2.000000,0.630972,0.069669,0.104090,0.115426,0.853128,0.796867,0.004601,0.000000,179.916960,1.204762,19.083154,0.274739,33.083759,1.660759,6.647374,2.000000,235.420018,0.809015,23.676644,0.115426,170.772411,8.070240,1.041413,0.000000,3
/home/daniel/Projects/ppsevolution/data/maps/custom_maps/Custom_10_Run_0_Map.csv,squared_error,1.2852378536905076e-06,0.5007,0.7185,0.063914,0.965435,0.241357,0.238353,0.163238,0.511769,0.906606,1.000000,1.000000,0.000000,0.039830,0.000000,0.896176,0.990679,0.212998,2.000000,136.184938,1.310644,43.031312,0.238353,33.484315,5.361808,9.159457,1.000000,300.000000,0.770000,14.616035,0.000000,179.339066,9.911449,2.916983,2.000000,4
/home/daniel/Projects/ppsevolution/data/maps/custom_maps/Custom_10_Run_0_Map.csv,squared_error,1.4809595327917464e-07,0.4995,0.7197,0.000000,0.800959,0.000000,0.479794,0.123020,0.000000,1.000000,1.000000,1.000000,0.226416,0.000000,0.047657,0.750547,1.000000,0.152316,0.000000,125.000000,1.218537,9.000000,0.479794,25.480905,0.500000,10.000000,1.000000,300.000000,0.896793,9.000000,0.047657,150.358933,10.000000,2.370841,0.000000,5
/home/daniel/Projects/ppsevolution/data/maps/custom_maps/Custom_10_Run_0_Map.csv,squared_error,8.520720280299061e-06,0.4960,0.7190,0.077802,0.984142,0.082118,0.410760,0.093660,0.047438,0.671721,0.000000,0.945882,0.078965,0.049724,0.000000,0.684460,1.000000,0.494540,0.000000,138.615304,1.321120,20.578570,0.410760,19.638421,0.950659,7.045490,0.000000,290.529373,0.814220,16.011113,0.000000,137.207478,10.000000,5.450857,0.000000,6
/home/daniel/Projects/ppsevolution/data/maps/custom_maps/Custom_10_Run_0_Map.csv,squared_error,2.421509401725096e-06,0.4979,0.7208,0.022424,1.000000,0.000000,0.441298,0.000000,0.575213,0.749735,0.000000,0.835780,0.003200,0.000000,0.047149,1.000000,0.495143,0.284820,2.000000,128.924285,1.330000,9.000000,0.441298,1.000000,5.964523,7.747613,0.000000,271.261418,0.771792,9.000000,0.047149,200.000000,5.203858,3.563383,2.000000,7
/home/daniel/Projects/ppsevolution/data/maps/custom_maps/Custom_10_Run_0_Map.csv,squared_error,2.3369231393218672e-06,0.5006,0.7221,0.080345,0.494033,0.226526,0.271342,0.195323,0.000000,0.420596,2.000000,0.969676,0.176039,0.000000,0.066051,0.891855,0.804384,0.121899,0.000000,139.060299,1.046659,40.940195,0.271342,39.869270,0.500000,4.785361,2.000000,294.693239,0.868582,9.000000,0.066051,178.479151,8.141650,2.097092,0.000000,8
/home/daniel/Projects/ppsevolution/data/maps/custom_maps/Custom_10_Run_0_Map.csv,squared_error,2.4893787367659035e-06,0.5010,0.7180,0.000000,0.642885,0.079215,0.342493,0.369333,0.035132,0.657131,2.000000,0.770508,0.168892,0.000000,0.070028,1.000000,0.981146,0.040454,0.000000,125.000000,1.130015,20.169289,0.342493,74.497265,0.833757,6.914179,2.000000,259.838938,0.864580,9.000000,0.070028,200.000000,9.820885,1.364082,0.000000,9
