map,fitness,fitness value,team0ratio,time,HP,Speed,Damage,Acc,ClipSize,RateOfFire,NrBullets,Range,HP,Speed,Damage,Acc,ClipSize,RateOfFire,NrBullets,Range,HP,Speed,Damage,Acc,ClipSize,RateOfFire,NrBullets,Range,HP,Speed,Damage,Acc,ClipSize,RateOfFire,NrBullets,Range,Run,target team0ratio: 0.5,target time: 0.14
/home/daniel/Projects/ppsevolution/data/maps/custom_maps/Custom_1_Run_0_Map.csv,squared_error,0.000192070912758484,0.4988,0.1596,0.000000,0.864033,0.387711,1.000000,0.344963,0.000000,1.000000,2.000000,0.397674,0.072910,1.000000,1.000000,0.907770,0.990661,0.100322,2.000000,125.000000,1.253859,63.667234,1.000000,69.647684,0.500000,10.000000,2.000000,194.592944,0.810829,150.000000,1.000000,181.646232,9.911279,1.902894,2.000000,0
/home/daniel/Projects/ppsevolution/data/maps/custom_maps/Custom_1_Run_0_Map.csv,squared_error,0.00020110360837012555,0.4955,0.1596,0.000000,1.000000,0.531025,1.000000,0.091141,0.045291,1.000000,2.000000,0.648521,0.000000,0.994014,1.000000,0.942505,0.803333,0.043636,2.000000,125.000000,1.330000,83.874457,1.000000,19.137087,0.930263,10.000000,2.000000,238.491206,0.770000,149.155933,1.000000,188.558396,8.131660,1.392724,2.000000,1
/home/daniel/Projects/ppsevolution/data/maps/custom_maps/Custom_1_Run_0_Map.csv,squared_error,0.00013488752267043933,0.4956,0.1558,0.007066,1.000000,0.148517,1.000000,0.084669,0.108467,1.000000,2.000000,0.024753,0.000000,0.947125,1.000000,1.000000,0.678174,0.677475,2.000000,126.236624,1.330000,29.940929,1.000000,17.849188,1.530435,10.000000,2.000000,129.331858,0.770000,142.544652,1.000000,200.000000,6.942652,7.097276,2.000000,2
/home/daniel/Projects/ppsevolution/data/maps/custom_maps/Custom_1_Run_0_Map.csv,squared_error,0.00017895805460621964,0.5032,0.1586,0.000000,0.848263,0.623341,1.000000,0.072139,0.040905,0.938157,2.000000,0.629579,0.226174,1.000000,1.000000,0.838560,0.173478,0.307263,2.000000,125.000000,1.245027,96.891128,1.000000,15.355575,0.888596,9.443412,2.000000,235.176350,0.896657,150.000000,1.000000,167.873386,2.148042,3.765365,2.000000,3
/home/daniel/Projects/ppsevolution/data/maps/custom_maps/Custom_1_Run_0_Map.csv,squared_error,0.00015700843095807208,0.5010,0.1577,0.000000,0.813917,0.578277,1.000000,0.007582,0.000000,1.000000,2.000000,0.772833,0.070576,1.000000,1.000000,0.551213,0.877885,0.937178,2.000000,125.000000,1.225794,90.537118,1.000000,2.508847,0.500000,10.000000,2.000000,260.245717,0.809523,150.000000,1.000000,110.691478,8.839911,9.434600,2.000000,4
/home/daniel/Projects/ppsevolution/data/maps/custom_maps/Custom_1_Run_0_Map.csv,squared_error,0.00031983812053393274,0.5052,0.1648,0.097293,0.642619,0.404797,1.000000,0.129207,0.212087,1.000000,2.000000,0.703727,0.197567,0.710215,1.000000,0.882231,0.881251,0.282905,2.000000,142.026229,1.129867,66.076430,1.000000,26.712127,2.514830,10.000000,2.000000,248.152256,0.880637,109.140348,1.000000,176.564002,8.871886,3.546141,2.000000,5
/home/daniel/Projects/ppsevolution/data/maps/custom_maps/Custom_1_Run_0_Map.csv,squared_error,0.00020796899043116202,0.5014,0.1603,0.000000,1.000000,0.847729,0.968182,0.000000,0.276013,1.000000,2.000000,0.441821,0.603677,1.000000,1.000000,0.880778,0.696540,0.000000,2.000000,125.000000,1.330000,128.529756,0.968182,1.000000,3.122122,10.000000,2.000000,202.318755,1.108059,150.000000,1.000000,176.274753,7.117131,1.000000,2.000000,6
/home/daniel/Projects/ppsevolution/data/maps/custom_maps/Custom_1_Run_0_Map.csv,squared_error,0.00019592367734279738,0.5029,0.1596,0.009543,0.682346,0.465095,1.000000,0.105196,0.000000,0.812407,2.000000,0.575605,0.000000,1.000000,1.000000,0.831042,1.000000,0.546955,2.000000,126.670048,1.152114,74.578426,1.000000,21.933923,0.500000,8.311660,2.000000,225.730948,0.770000,150.000000,1.000000,166.377275,10.000000,5.922596,2.000000,7
/home/daniel/Projects/ppsevolution/data/maps/custom_maps/Custom_1_Run_0_Map.csv,squared_error,0.00020787117983989126,0.4984,0.1603,0.022292,0.547760,0.388072,1.000000,0.000000,0.263680,1.000000,2.000000,0.469244,0.087878,0.827789,1.000000,0.532419,0.456670,0.566851,2.000000,128.901149,1.076746,63.718089,1.000000,1.000000,3.004958,10.000000,2.000000,207.117637,0.819211,125.718272,1.000000,106.951389,4.838364,6.101663,2.000000,8
/home/daniel/Projects/ppsevolution/data/maps/custom_maps/Custom_1_Run_0_Map.csv,squared_error,0.00019233705168062435,0.4970,0.1594,0.003603,0.816836,0.359901,1.000000,0.232356,0.000000,1.000000,2.000000,0.359411,0.363123,0.979250,1.000000,1.000000,0.831097,0.097460,2.000000,125.630519,1.227428,59.745996,1.000000,47.238883,0.500000,10.000000,2.000000,187.896860,0.973349,147.074230,1.000000,200.000000,8.395424,1.877141,2.000000,9
map,fitness,fitness value,team0ratio,time,HP,Speed,Damage,Acc,ClipSize,RateOfFire,NrBullets,Range,HP,Speed,Damage,Acc,ClipSize,RateOfFire,NrBullets,Range,HP,Speed,Damage,Acc,ClipSize,RateOfFire,NrBullets,Range,HP,Speed,Damage,Acc,ClipSize,RateOfFire,NrBullets,Range,Run,target team0ratio: 0.5,target time: 0.14
/home/daniel/Projects/ppsevolution/data/maps/custom_maps/Custom_2_Run_0_Map.csv,squared_error,0.031371084373367185,0.4703,0.3887,0.000000,0.879134,0.635031,1.000000,0.171356,0.000000,1.000000,2.000000,0.722519,0.000000,1.000000,1.000000,0.523604,0.971409,0.715617,2.000000,125.000000,1.262315,98.539338,1.000000,35.099821,0.500000,10.000000,2.000000,251.440872,0.770000,150.000000,1.000000,105.197129,9.728390,7.440552,2.000000,0
/home/daniel/Projects/ppsevolution/data/maps/custom_maps/Custom_2_Run_0_Map.csv,squared_error,0.030826739410789276,0.4672,0.3861,0.000000,1.000000,0.750545,1.000000,0.000000,0.021087,0.956153,2.000000,0.962576,0.378767,1.000000,1.000000,0.611551,0.688726,1.000000,2.000000,125.000000,1.330000,114.826864,1.000000,1.000000,0.700329,9.605374,2.000000,293.450801,0.982110,150.000000,1.000000,122.698706,7.042894,10.000000,2.000000,1
/home/daniel/Projects/ppsevolution/data/maps/custom_maps/Custom_2_Run_0_Map.csv,squared_error,0.031008671283059615,0.4386,0.3814,0.000000,1.000000,0.492187,1.000000,0.029330,0.061842,1.000000,2.000000,0.854160,0.128860,0.955447,1.000000,0.861826,0.974718,0.973858,2.000000,125.000000,1.330000,78.398400,1.000000,6.836609,1.087501,10.000000,2.000000,274.478057,0.842162,143.718097,1.000000,172.503319,9.759824,9.764723,2.000000,2
/home/daniel/Projects/ppsevolution/data/maps/custom_maps/Custom_2_Run_0_Map.csv,squared_error,0.030352271519762324,0.4531,0.3819,0.000000,0.913706,0.582127,1.000000,0.000000,0.005176,1.000000,2.000000,0.861829,0.378075,1.000000,1.000000,1.000000,1.000000,1.000000,2.000000,125.000000,1.281675,91.079875,1.000000,1.000000,0.549169,10.000000,2.000000,275.820137,0.981722,150.000000,1.000000,200.000000,10.000000,10.000000,2.000000,3
/home/daniel/Projects/ppsevolution/data/maps/custom_maps/Custom_2_Run_0_Map.csv,squared_error,0.030567404837475297,0.4769,0.3862,0.000000,0.960775,0.580592,1.000000,0.000000,0.000000,1.000000,2.000000,0.551838,0.057938,1.000000,1.000000,0.947707,0.833698,1.000000,2.000000,125.000000,1.308034,90.863540,1.000000,1.000000,0.500000,10.000000,2.000000,221.571733,0.802445,150.000000,1.000000,189.593602,8.420131,10.000000,2.000000,4
/home/daniel/Projects/ppsevolution/data/maps/custom_maps/Custom_2_Run_0_Map.csv,squared_error,0.0305828462330413,0.4714,0.3857,0.000000,0.883071,0.454422,1.000000,0.000000,0.000000,1.000000,2.000000,0.408683,0.149474,1.000000,1.000000,0.863778,1.000000,0.946835,2.000000,125.000000,1.264520,73.073454,1.000000,1.000000,0.500000,10.000000,2.000000,196.519489,0.853706,150.000000,1.000000,172.891773,10.000000,9.521514,2.000000,5
/home/daniel/Projects/ppsevolution/data/maps/custom_maps/Custom_2_Run_0_Map.csv,squared_error,0.030638748538545688,0.4818,0.3869,0.000000,1.000000,0.663564,1.000000,0.087885,0.005329,1.000000,2.000000,0.750096,0.023602,1.000000,0.995768,0.898038,1.000000,1.000000,2.000000,125.000000,1.330000,102.562594,1.000000,18.489094,0.550625,10.000000,2.000000,256.266760,0.783217,150.000000,0.995768,179.709570,10.000000,10.000000,2.000000,6
/home/daniel/Projects/ppsevolution/data/maps/custom_maps/Custom_2_Run_0_Map.csv,squared_error,0.030695607752036082,0.4780,0.3868,0.008437,1.000000,0.684389,1.000000,0.000000,0.070352,1.000000,2.000000,0.740711,0.118609,1.000000,1.000000,0.829210,0.829390,1.000000,2.000000,126.476467,1.330000,105.498829,1.000000,1.000000,1.168348,10.000000,2.000000,254.624496,0.836421,150.000000,1.000000,166.012856,8.379206,10.000000,2.000000,7
/home/daniel/Projects/ppsevolution/data/maps/custom_maps/Custom_2_Run_0_Map.csv,squared_error,0.030398840663314292,0.4533,0.3821,0.000000,1.000000,0.642281,1.000000,0.064104,0.071188,0.999439,2.000000,0.971988,0.354552,1.000000,1.000000,1.000000,1.000000,0.997502,2.000000,125.000000,1.330000,99.561583,1.000000,13.756758,1.176281,9.994950,2.000000,295.097843,0.968549,150.000000,1.000000,200.000000,10.000000,9.977522,2.000000,8
/home/daniel/Projects/ppsevolution/data/maps/custom_maps/Custom_2_Run_0_Map.csv,squared_error,0.03169119290516269,0.4634,0.3891,0.000000,1.000000,0.576690,1.000000,0.034551,0.000000,1.000000,2.000000,0.700200,0.000000,0.973880,1.000000,0.616161,1.000000,0.480233,2.000000,125.000000,1.330000,90.313321,1.000000,7.875578,0.500000,10.000000,2.000000,247.535057,0.770000,146.317071,1.000000,123.616007,10.000000,5.322093,2.000000,9
map,fitness,fitness value,team0ratio,time,HP,Speed,Damage,Acc,ClipSize,RateOfFire,NrBullets,Range,HP,Speed,Damage,Acc,ClipSize,RateOfFire,NrBullets,Range,HP,Speed,Damage,Acc,ClipSize,RateOfFire,NrBullets,Range,HP,Speed,Damage,Acc,ClipSize,RateOfFire,NrBullets,Range,Run,target team0ratio: 0.5,target time: 0.14
/home/daniel/Projects/ppsevolution/data/maps/custom_maps/Custom_3_Run_0_Map.csv,squared_error,0.054374176715435166,0.5297,0.4684,0.025808,0.840805,1.000000,0.977650,0.051921,0.169054,1.000000,2.000000,0.000000,0.299814,1.000000,1.000000,0.911069,0.000000,0.991630,2.000000,129.516417,1.240851,150.000000,0.977650,11.332239,2.106010,10.000000,2.000000,125.000000,0.937896,150.000000,1.000000,182.302676,0.500000,9.924672,2.000000,0
/home/daniel/Projects/ppsevolution/data/maps/custom_maps/Custom_3_Run_0_Map.csv,squared_error,0.05532284583727761,0.5460,0.4694,0.000000,0.996957,1.000000,0.981059,0.000000,0.280493,0.962444,2.000000,0.008995,0.423504,1.000000,1.000000,0.863544,0.602905,0.799150,2.000000,125.000000,1.328296,150.000000,0.981059,1.000000,3.164682,9.661995,2.000000,126.574161,1.007162,150.000000,1.000000,172.845265,6.227600,8.192348,2.000000,1
/home/daniel/Projects/ppsevolution/data/maps/custom_maps/Custom_3_Run_0_Map.csv,squared_error,0.05524798556889981,0.5307,0.4710,0.000000,0.590821,0.963264,0.977473,0.000000,0.061651,1.000000,2.000000,0.031139,0.000000,0.936217,1.000000,0.877073,0.600785,0.743942,2.000000,125.000000,1.100860,144.820245,0.977473,1.000000,1.085689,10.000000,2.000000,130.449321,0.770000,141.006594,1.000000,175.537596,6.207456,7.695478,2.000000,2
/home/daniel/Projects/ppsevolution/data/maps/custom_maps/Custom_3_Run_0_Map.csv,squared_error,0.05512772761195163,0.5021,0.4720,0.000000,0.961646,1.000000,0.962064,0.000000,0.300546,1.000000,2.000000,0.048341,0.210327,1.000000,1.000000,0.979610,0.457757,0.799236,2.000000,125.000000,1.308522,150.000000,0.962064,1.000000,3.355191,10.000000,2.000000,133.459743,0.887783,150.000000,1.000000,195.942362,4.848689,8.193128,2.000000,3
/home/daniel/Projects/ppsevolution/data/maps/custom_maps/Custom_3_Run_0_Map.csv,squared_error,0.05446726336085976,0.5186,0.4695,0.000000,0.918186,0.995987,0.970272,0.041353,0.000000,1.000000,2.000000,0.000000,0.000000,0.977961,1.000000,0.771768,0.256624,0.998316,2.000000,125.000000,1.284184,149.434234,0.970272,9.229191,0.500000,10.000000,2.000000,125.000000,0.770000,146.892437,1.000000,154.581894,2.937927,9.984847,2.000000,4
/home/daniel/Projects/ppsevolution/data/maps/custom_maps/Custom_3_Run_0_Map.csv,squared_error,0.05469466967087679,0.5153,0.4704,0.000000,0.959510,0.998506,0.969710,0.228887,0.000000,0.985317,2.000000,0.000000,0.022668,1.000000,1.000000,1.000000,0.184260,0.859597,2.000000,125.000000,1.307325,149.789299,0.969710,46.548532,0.500000,9.867849,2.000000,125.000000,0.782694,150.000000,1.000000,200.000000,2.250469,8.736371,2.000000,5
/home/daniel/Projects/ppsevolution/data/maps/custom_maps/Custom_3_Run_0_Map.csv,squared_error,0.05486060275572382,0.5228,0.4705,0.000000,0.695858,0.678314,1.000000,0.000000,0.027987,1.000000,2.000000,0.000000,0.161169,1.000000,1.000000,0.515322,0.108712,1.000000,2.000000,125.000000,1.159681,104.642338,1.000000,1.000000,0.765873,10.000000,2.000000,125.000000,0.860255,150.000000,1.000000,103.549101,1.532760,10.000000,2.000000,6
/home/daniel/Projects/ppsevolution/data/maps/custom_maps/Custom_3_Run_0_Map.csv,squared_error,0.05491387020132623,0.5152,0.4711,0.000000,0.982104,0.670619,0.992808,0.073648,0.000000,1.000000,2.000000,0.011859,0.016205,0.997907,1.000000,1.000000,0.525083,1.000000,2.000000,125.000000,1.319978,103.557209,0.992808,15.655875,0.500000,10.000000,2.000000,127.075407,0.779075,149.704928,1.000000,200.000000,5.488291,10.000000,2.000000,7
/home/daniel/Projects/ppsevolution/data/maps/custom_maps/Custom_3_Run_0_Map.csv,squared_error,0.05442323572264473,0.5519,0.4658,0.000000,0.869782,1.000000,0.991778,0.000000,0.113225,1.000000,2.000000,0.016711,0.062987,1.000000,1.000000,0.990668,0.000000,1.000000,2.000000,125.000000,1.257078,150.000000,0.991778,1.000000,1.575639,10.000000,2.000000,127.924458,0.805273,150.000000,1.000000,198.142899,0.500000,10.000000,2.000000,8
/home/daniel/Projects/ppsevolution/data/maps/custom_maps/Custom_3_Run_0_Map.csv,squared_error,0.055457030603790994,0.5280,0.4719,0.000000,0.249357,1.000000,0.980027,0.179154,0.238428,1.000000,2.000000,0.000000,0.000000,1.000000,1.000000,1.000000,0.471355,0.303190,2.000000,125.000000,0.909640,150.000000,0.980027,36.651608,2.765066,10.000000,2.000000,125.000000,0.770000,150.000000,1.000000,200.000000,4.977871,3.728707,2.000000,9
map,fitness,fitness value,team0ratio,time,HP,Speed,Damage,Acc,ClipSize,RateOfFire,NrBullets,Range,HP,Speed,Damage,Acc,ClipSize,RateOfFire,NrBullets,Range,HP,Speed,Damage,Acc,ClipSize,RateOfFire,NrBullets,Range,HP,Speed,Damage,Acc,ClipSize,RateOfFire,NrBullets,Range,Run,target team0ratio: 0.5,target time: 0.14
/home/daniel/Projects/ppsevolution/data/maps/custom_maps/Custom_4_Run_0_Map.csv,squared_error,0.0014699453974013948,0.5070,0.1938,0.000000,0.848920,0.716998,1.000000,0.027815,0.410135,1.000000,2.000000,0.000000,0.081348,1.000000,1.000000,0.766818,0.275675,0.853001,2.000000,125.000000,1.245395,110.096750,1.000000,6.535259,4.396280,10.000000,2.000000,125.000000,0.815555,150.000000,1.000000,153.596840,3.118915,8.677010,2.000000,0
/home/daniel/Projects/ppsevolution/data/maps/custom_maps/Custom_4_Run_0_Map.csv,squared_error,0.001584737474593964,0.5067,0.1959,0.000000,0.795451,0.830206,1.000000,0.005294,0.000000,1.000000,2.000000,0.311553,0.017089,1.000000,1.000000,0.943362,0.947860,0.380117,2.000000,125.000000,1.215453,126.059019,1.000000,2.053548,0.500000,10.000000,2.000000,179.521778,0.779570,150.000000,1.000000,188.729036,9.504668,4.421054,2.000000,1
/home/daniel/Projects/ppsevolution/data/maps/custom_maps/Custom_4_Run_0_Map.csv,squared_error,0.0016494154992141923,0.5102,0.1965,0.000000,0.944147,1.000000,1.000000,0.000000,0.217625,1.000000,2.000000,0.520816,0.063262,1.000000,1.000000,0.679927,0.888476,0.404082,2.000000,125.000000,1.298722,150.000000,1.000000,1.000000,2.567437,10.000000,2.000000,216.142811,0.805427,150.000000,1.000000,136.305553,8.940524,4.636735,2.000000,2
/home/daniel/Projects/ppsevolution/data/maps/custom_maps/Custom_4_Run_0_Map.csv,squared_error,0.0016231340495416497,0.5026,0.1969,0.000000,0.816737,0.729702,1.000000,0.168214,0.236729,0.950016,2.000000,0.106699,0.182888,0.997535,1.000000,0.996700,0.566990,0.196432,2.000000,125.000000,1.227373,111.887976,1.000000,34.474539,2.748929,9.550145,2.000000,143.672379,0.872417,149.652439,1.000000,199.343291,5.886401,2.767885,2.000000,3
/home/daniel/Projects/ppsevolution/data/maps/custom_maps/Custom_4_Run_0_Map.csv,squared_error,0.0015773561053634693,0.5026,0.1961,0.000000,0.835582,0.941215,1.000000,0.000000,0.000000,1.000000,2.000000,0.441881,0.096095,1.000000,1.000000,0.233217,0.578681,0.449759,2.000000,125.000000,1.237926,141.711264,1.000000,1.000000,0.500000,10.000000,2.000000,202.329254,0.823813,150.000000,1.000000,47.410163,5.997465,5.047834,2.000000,4
/home/daniel/Projects/ppsevolution/data/maps/custom_maps/Custom_4_Run_0_Map.csv,squared_error,0.001399695894896133,0.5050,0.1927,0.000000,0.054996,0.790732,1.000000,0.014283,0.186236,1.000000,2.000000,0.063265,0.000000,1.000000,1.000000,0.942355,0.000000,0.945847,2.000000,125.000000,0.800798,120.493254,1.000000,3.842247,2.269239,10.000000,2.000000,136.071339,0.770000,150.000000,1.000000,188.528699,0.500000,9.512619,2.000000,5
/home/daniel/Projects/ppsevolution/data/maps/custom_maps/Custom_4_Run_0_Map.csv,squared_error,0.001539238516294112,0.5072,0.1950,0.000000,0.687464,0.633389,1.000000,0.033761,0.018877,1.000000,2.000000,0.000000,0.000000,1.000000,1.000000,1.000000,1.000000,0.530693,2.000000,125.000000,1.154980,98.307789,1.000000,7.718466,0.679334,10.000000,2.000000,125.000000,0.770000,150.000000,1.000000,200.000000,10.000000,5.776241,2.000000,6
/home/daniel/Projects/ppsevolution/data/maps/custom_maps/Custom_4_Run_0_Map.csv,squared_error,0.0016025181253069881,0.5094,0.1958,0.000000,0.745911,0.941095,1.000000,0.051380,0.049951,0.975996,2.000000,0.366896,0.136480,0.947794,1.000000,0.966184,0.449598,0.317181,2.000000,125.000000,1.187710,141.694421,1.000000,11.224639,0.974538,9.783964,2.000000,189.206869,0.846429,142.638961,1.000000,193.270572,4.771179,3.854630,2.000000,7
/home/daniel/Projects/ppsevolution/data/maps/custom_maps/Custom_4_Run_0_Map.csv,squared_error,0.0014709677061831878,0.5071,0.1938,0.000000,0.532526,0.772619,1.000000,0.040559,0.473869,1.000000,2.000000,0.000000,0.128423,1.000000,1.000000,0.766876,0.000000,0.674817,2.000000,125.000000,1.068214,117.939307,1.000000,9.071240,5.001753,10.000000,2.000000,125.000000,0.841917,150.000000,1.000000,153.608254,0.500000,7.073352,2.000000,8
/home/daniel/Projects/ppsevolution/data/maps/custom_maps/Custom_4_Run_0_Map.csv,squared_error,0.0016168340668472675,0.5035,0.1968,0.000000,0.861227,1.000000,1.000000,0.323418,0.000000,1.000000,2.000000,0.429321,0.266630,0.982953,1.000000,0.520395,0.189248,0.161308,2.000000,125.000000,1.252287,150.000000,1.000000,65.360108,0.500000,10.000000,2.000000,200.131186,0.919313,147.596429,1.000000,104.558511,2.297855,2.451768,2.000000,9
map,fitness,fitness value,team0ratio,time,HP,Speed,Damage,Acc,ClipSize,RateOfFire,NrBullets,Range,HP,Speed,Damage,Acc,ClipSize,RateOfFire,NrBullets,Range,HP,Speed,Damage,Acc,ClipSize,RateOfFire,NrBullets,Range,HP,Speed,Damage,Acc,ClipSize,RateOfFire,NrBullets,Range,Run,target team0ratio: 0.5,target time: 0.14
/home/daniel/Projects/ppsevolution/data/maps/custom_maps/Custom_5_Run_0_Map.csv,squared_error,0.010524229028473145,0.5200,0.2837,0.000000,0.973840,1.000000,0.985269,0.115205,0.316502,1.000000,2.000000,0.000000,0.000000,1.000000,1.000000,0.700593,0.027599,0.136474,2.000000,125.000000,1.315351,150.000000,0.985269,23.925701,3.506767,10.000000,2.000000,125.000000,0.770000,150.000000,1.000000,140.418003,0.762190,2.228264,2.000000,0
/home/daniel/Projects/ppsevolution/data/maps/custom_maps/Custom_5_Run_0_Map.csv,squared_error,0.010243512260277214,0.5124,0.2826,0.000000,0.168404,1.000000,0.974783,0.108643,0.067337,1.000000,2.000000,0.000000,0.061462,1.000000,1.000000,1.000000,0.000000,1.000000,2.000000,125.000000,0.864306,150.000000,0.974783,22.619944,1.139699,10.000000,2.000000,125.000000,0.804419,150.000000,1.000000,200.000000,0.500000,10.000000,2.000000,1
/home/daniel/Projects/ppsevolution/data/maps/custom_maps/Custom_5_Run_0_Map.csv,squared_error,0.010330056167683595,0.5239,0.2817,0.010462,0.452787,1.000000,0.980844,0.000000,0.881657,1.000000,2.000000,0.000000,0.205601,1.000000,1.000000,0.563029,0.000000,0.838950,1.000000,126.830898,1.023561,150.000000,0.980844,1.000000,8.875741,10.000000,2.000000,125.000000,0.885137,150.000000,1.000000,113.042761,0.500000,8.550546,1.000000,2
/home/daniel/Projects/ppsevolution/data/maps/custom_maps/Custom_5_Run_0_Map.csv,squared_error,0.010418860075414031,0.5094,0.2840,0.053612,0.700653,1.000000,0.975830,0.016727,0.466546,1.000000,2.000000,0.000000,0.000000,1.000000,1.000000,0.514661,0.000000,0.498854,2.000000,134.382027,1.162366,150.000000,0.975830,4.328616,4.932190,10.000000,2.000000,125.000000,0.770000,150.000000,1.000000,103.417583,0.500000,5.489684,2.000000,3
/home/daniel/Projects/ppsevolution/data/maps/custom_maps/Custom_5_Run_0_Map.csv,squared_error,0.010324961072520752,0.5107,0.2833,0.011151,1.000000,1.000000,0.971630,0.021920,0.586211,1.000000,2.000000,0.000000,0.087371,0.928066,1.000000,0.785962,0.000000,0.891005,2.000000,126.951458,1.330000,150.000000,0.971630,5.362000,6.069005,10.000000,2.000000,125.000000,0.818928,139.857323,1.000000,157.406362,0.500000,9.019047,2.000000,4
/home/daniel/Projects/ppsevolution/data/maps/custom_maps/Custom_5_Run_0_Map.csv,squared_error,0.010852255795522752,0.5069,0.2872,0.000000,0.829456,1.000000,0.969096,0.000000,0.062420,1.000000,2.000000,0.031492,0.353382,1.000000,1.000000,0.930702,0.505251,0.412970,2.000000,125.000000,1.234495,150.000000,0.969096,1.000000,1.092993,10.000000,2.000000,130.511108,0.967894,150.000000,1.000000,186.209716,5.299886,4.716734,2.000000,5
/home/daniel/Projects/ppsevolution/data/maps/custom_maps/Custom_5_Run_0_Map.csv,squared_error,0.010355199953582972,0.5142,0.2832,0.029578,0.522722,1.000000,0.979761,0.000000,0.845289,1.000000,2.000000,0.000000,0.065894,1.000000,1.000000,0.428396,0.000000,0.543316,2.000000,130.176181,1.062724,150.000000,0.979761,1.000000,8.530245,10.000000,2.000000,125.000000,0.806900,150.000000,1.000000,86.250844,0.500000,5.889842,2.000000,6
/home/daniel/Projects/ppsevolution/data/maps/custom_maps/Custom_5_Run_0_Map.csv,squared_error,0.010484067509402995,0.5223,0.2831,0.000000,0.621141,1.000000,0.982872,0.000000,0.316121,0.998095,2.000000,0.015478,0.000000,0.977974,1.000000,0.964058,0.158267,0.441740,2.000000,125.000000,1.117839,150.000000,0.982872,1.000000,3.503151,9.982852,2.000000,127.708642,0.770000,146.894335,1.000000,192.847468,2.003535,4.975657,2.000000,7
/home/daniel/Projects/ppsevolution/data/maps/custom_maps/Custom_5_Run_0_Map.csv,squared_error,0.010643854561839661,0.5141,0.2852,0.000000,0.343337,1.000000,0.975120,0.010488,1.000000,0.954656,2.000000,0.000000,0.000000,0.851781,1.000000,0.763785,0.013318,0.275941,0.000000,125.000000,0.962269,150.000000,0.975120,3.087107,10.000000,9.591905,2.000000,125.000000,0.770000,129.101143,1.000000,152.993268,0.626522,3.483473,0.000000,8
/home/daniel/Projects/ppsevolution/data/maps/custom_maps/Custom_5_Run_0_Map.csv,squared_error,0.010299990761306764,0.5187,0.2823,0.049120,0.815241,0.989629,0.975107,0.000000,0.000000,1.000000,2.000000,0.000000,0.000000,0.957479,1.000000,0.658901,0.000000,1.000000,2.000000,133.596059,1.226535,148.537723,0.975107,1.000000,0.500000,10.000000,2.000000,125.000000,0.770000,144.004479,1.000000,132.121362,0.500000,10.000000,2.000000,9
map,fitness,fitness value,team0ratio,time,HP,Speed,Damage,Acc,ClipSize,RateOfFire,NrBullets,Range,HP,Speed,Damage,Acc,ClipSize,RateOfFire,NrBullets,Range,HP,Speed,Damage,Acc,ClipSize,RateOfFire,NrBullets,Range,HP,Speed,Damage,Acc,ClipSize,RateOfFire,NrBullets,Range,Run,target team0ratio: 0.5,target time: 0.14
/home/daniel/Projects/ppsevolution/data/maps/custom_maps/Custom_6_Run_0_Map.csv,squared_error,0.059475954425421064,0.4132,0.4738,0.104832,0.786290,0.000000,1.000000,0.000000,0.089911,0.428750,2.000000,0.989001,0.062937,1.000000,0.954226,0.935992,1.000000,0.111240,2.000000,143.345554,1.210322,9.000000,1.000000,1.000000,1.354152,4.858748,2.000000,298.075175,0.805245,150.000000,0.954226,187.262475,10.000000,2.001158,2.000000,0
/home/daniel/Projects/ppsevolution/data/maps/custom_maps/Custom_6_Run_0_Map.csv,squared_error,0.05769833505177359,0.4078,0.4670,0.000000,0.965873,0.000000,1.000000,0.000000,0.242967,1.000000,2.000000,1.000000,0.503464,0.972756,0.948598,0.994272,0.994806,1.000000,2.000000,125.000000,1.310889,9.000000,1.000000,1.000000,2.808185,10.000000,2.000000,300.000000,1.051940,146.158563,0.948598,198.860162,9.950661,10.000000,2.000000,1
/home/daniel/Projects/ppsevolution/data/maps/custom_maps/Custom_6_Run_0_Map.csv,squared_error,0.05832029200518874,0.4000,0.4666,0.358572,0.783961,0.000000,1.000000,0.200623,0.000000,0.069536,2.000000,1.000000,0.077013,0.930123,1.000000,1.000000,1.000000,0.907804,2.000000,187.750041,1.209018,9.000000,1.000000,40.923944,0.500000,1.625821,2.000000,300.000000,0.813127,140.147276,1.000000,200.000000,10.000000,9.170235,2.000000,2
/home/daniel/Projects/ppsevolution/data/maps/custom_maps/Custom_6_Run_0_Map.csv,squared_error,0.05695184451927877,0.4036,0.4634,0.078449,0.785380,0.000000,1.000000,0.051371,0.005627,0.123879,2.000000,1.000000,0.155665,1.000000,0.967267,1.000000,1.000000,1.000000,2.000000,138.728651,1.209813,9.000000,1.000000,11.222920,0.553452,2.114908,2.000000,300.000000,0.857172,150.000000,0.967267,200.000000,10.000000,10.000000,2.000000,3
/home/daniel/Projects/ppsevolution/data/maps/custom_maps/Custom_6_Run_0_Map.csv,squared_error,0.05876792824051136,0.4123,0.4714,0.083930,0.994222,0.000000,1.000000,0.227560,0.000000,0.867210,2.000000,1.000000,0.550286,1.000000,0.950931,0.322379,0.999615,0.874883,2.000000,139.687782,1.326764,9.000000,1.000000,46.284384,0.500000,8.804886,2.000000,300.000000,1.078160,150.000000,0.950931,65.153343,9.996343,8.873950,2.000000,4
/home/daniel/Projects/ppsevolution/data/maps/custom_maps/Custom_6_Run_0_Map.csv,squared_error,0.05836617991620703,0.3980,0.4661,0.089663,1.000000,0.000000,1.000000,0.057068,0.000000,0.558704,2.000000,1.000000,0.000000,1.000000,0.966217,0.601290,1.000000,0.703653,2.000000,140.691094,1.330000,9.000000,1.000000,12.356448,0.500000,6.028340,2.000000,300.000000,0.770000,150.000000,0.966217,120.656748,10.000000,7.332875,2.000000,5
/home/daniel/Projects/ppsevolution/data/maps/custom_maps/Custom_6_Run_0_Map.csv,squared_error,0.057424535720054265,0.3838,0.4583,0.017354,0.886699,0.000000,1.000000,0.098707,0.000000,0.142064,2.000000,1.000000,0.324109,1.000000,0.980690,0.711102,1.000000,0.989461,2.000000,128.037026,1.266551,9.000000,1.000000,20.642618,0.500000,2.278576,2.000000,300.000000,0.951501,150.000000,0.980690,142.509381,10.000000,9.905148,2.000000,6
/home/daniel/Projects/ppsevolution/data/maps/custom_maps/Custom_6_Run_0_Map.csv,squared_error,0.05704985494899602,0.4023,0.4633,0.054815,0.993827,0.000000,1.000000,0.102668,0.163293,0.042360,2.000000,0.992787,0.731933,1.000000,0.968508,0.958343,0.973844,1.000000,2.000000,134.592558,1.326543,9.000000,1.000000,21.430968,2.051287,1.381238,2.000000,298.737806,1.179883,150.000000,0.968508,191.710221,9.751518,10.000000,2.000000,7
/home/daniel/Projects/ppsevolution/data/maps/custom_maps/Custom_6_Run_0_Map.csv,squared_error,0.0585536187534439,0.4038,0.4684,0.000000,0.852811,0.000000,1.000000,0.412985,0.085878,0.917292,2.000000,1.000000,0.209028,0.954400,0.952259,1.000000,1.000000,0.851499,2.000000,125.000000,1.247574,9.000000,1.000000,83.183969,1.315841,9.255627,2.000000,300.000000,0.887055,143.570364,0.952259,200.000000,10.000000,8.663492,2.000000,8
/home/daniel/Projects/ppsevolution/data/maps/custom_maps/Custom_6_Run_0_Map.csv,squared_error,0.05740836609347627,0.4044,0.4651,0.032770,0.931593,0.000000,1.000000,0.000000,0.030954,0.548678,2.000000,1.000000,0.225070,1.000000,0.956965,0.793275,0.964447,1.000000,2.000000,130.734733,1.291692,9.000000,1.000000,1.000000,0.794065,5.938099,2.000000,300.000000,0.896039,150.000000,0.956965,158.861806,9.662251,10.000000,2.000000,9
map,fitness,fitness value,team0ratio,time,HP,Speed,Damage,Acc,ClipSize,RateOfFire,NrBullets,Range,HP,Speed,Damage,Acc,ClipSize,RateOfFire,NrBullets,Range,HP,Speed,Damage,Acc,ClipSize,RateOfFire,NrBullets,Range,HP,Speed,Damage,Acc,ClipSize,RateOfFire,NrBullets,Range,Run,target team0ratio: 0.5,target time: 0.14
/home/daniel/Projects/ppsevolution/data/maps/custom_maps/Custom_7_Run_0_Map.csv,squared_error,0.01644635621695568,0.4801,0.3203,0.000000,0.963968,0.405244,1.000000,0.000000,0.234972,0.851993,2.000000,0.314661,0.124438,1.000000,1.000000,1.000000,1.000000,1.000000,2.000000,125.000000,1.309822,66.139427,1.000000,1.000000,2.732232,8.667936,2.000000,180.065659,0.839685,150.000000,1.000000,200.000000,10.000000,10.000000,2.000000,0
/home/daniel/Projects/ppsevolution/data/maps/custom_maps/Custom_7_Run_0_Map.csv,squared_error,0.016731280548940124,0.4963,0.3229,0.000000,0.873823,0.563024,1.000000,0.003501,0.042546,0.951522,2.000000,0.430317,0.000000,1.000000,1.000000,1.000000,1.000000,0.555098,2.000000,125.000000,1.259341,88.386368,1.000000,1.696641,0.904192,9.563699,2.000000,200.305550,0.770000,150.000000,1.000000,200.000000,10.000000,5.995884,2.000000,1
/home/daniel/Projects/ppsevolution/data/maps/custom_maps/Custom_7_Run_0_Map.csv,squared_error,0.0163254427528607,0.4867,0.3202,0.000000,0.844376,0.477049,1.000000,0.019662,0.000000,0.979762,2.000000,0.387252,0.308117,1.000000,1.000000,0.970803,0.980546,1.000000,2.000000,125.000000,1.242851,76.263952,1.000000,4.912639,0.500000,9.817859,2.000000,192.769105,0.942545,150.000000,1.000000,194.189867,9.815185,10.000000,2.000000,2
/home/daniel/Projects/ppsevolution/data/maps/custom_maps/Custom_7_Run_0_Map.csv,squared_error,0.016707577479392034,0.4816,0.3219,0.000000,0.820270,0.738211,1.000000,0.068785,0.034724,0.991531,2.000000,0.854227,0.046515,1.000000,1.000000,0.568487,0.890084,0.788538,2.000000,125.000000,1.229351,113.087693,1.000000,14.688140,0.829883,9.923783,2.000000,274.489695,0.796049,150.000000,1.000000,114.128991,8.955797,8.096840,2.000000,3
/home/daniel/Projects/ppsevolution/data/maps/custom_maps/Custom_7_Run_0_Map.csv,squared_error,0.017577837154349425,0.4712,0.3253,0.000000,0.566440,0.514085,1.000000,0.334579,0.000000,0.570904,2.000000,0.524867,0.297337,1.000000,1.000000,0.568213,0.684953,0.375295,2.000000,125.000000,1.087206,81.486046,1.000000,67.581287,0.500000,6.138140,2.000000,216.851736,0.936509,150.000000,1.000000,114.074406,7.007051,4.377653,2.000000,4
/home/daniel/Projects/ppsevolution/data/maps/custom_maps/Custom_7_Run_0_Map.csv,squared_error,0.016446208885500486,0.4767,0.3199,0.000000,1.000000,0.680366,1.000000,0.015427,0.000000,1.000000,2.000000,0.840555,0.256817,1.000000,1.000000,0.829403,1.000000,0.897064,2.000000,125.000000,1.330000,104.931552,1.000000,4.069938,0.500000,10.000000,2.000000,272.097161,0.913817,150.000000,1.000000,166.051172,10.000000,9.073578,2.000000,5
/home/daniel/Projects/ppsevolution/data/maps/custom_maps/Custom_7_Run_0_Map.csv,squared_error,0.017050164951930635,0.4854,0.3241,0.000000,0.767011,0.711173,1.000000,0.000000,0.000000,0.575435,2.000000,0.805950,0.006738,1.000000,1.000000,1.000000,0.816409,0.367090,2.000000,125.000000,1.199526,109.275444,1.000000,1.000000,0.500000,6.178913,2.000000,266.041195,0.773773,150.000000,1.000000,200.000000,8.255883,4.303809,2.000000,6
/home/daniel/Projects/ppsevolution/data/maps/custom_maps/Custom_7_Run_0_Map.csv,squared_error,0.016297503534015947,0.4874,0.3201,0.000081,0.736498,0.521172,1.000000,0.000000,0.000000,1.000000,2.000000,0.443479,0.074746,1.000000,1.000000,1.000000,0.957323,1.000000,2.000000,125.014122,1.182439,82.485238,1.000000,1.000000,0.500000,10.000000,2.000000,202.608797,0.811858,150.000000,1.000000,200.000000,9.594569,10.000000,2.000000,7
/home/daniel/Projects/ppsevolution/data/maps/custom_maps/Custom_7_Run_0_Map.csv,squared_error,0.01650770880212309,0.4673,0.3187,0.000000,0.962926,0.713618,1.000000,0.000000,0.124617,0.946546,2.000000,1.000000,0.296824,1.000000,1.000000,1.000000,1.000000,1.000000,2.000000,125.000000,1.309239,109.620169,1.000000,1.000000,1.683859,9.518915,2.000000,300.000000,0.936221,150.000000,1.000000,200.000000,10.000000,10.000000,2.000000,8
/home/daniel/Projects/ppsevolution/data/maps/custom_maps/Custom_7_Run_0_Map.csv,squared_error,0.01670595779866271,0.4879,0.3224,0.000000,0.989984,0.714351,1.000000,0.000000,0.000000,0.914739,2.000000,0.815593,0.584213,1.000000,1.000000,0.881550,0.962089,0.634359,2.000000,125.000000,1.324391,109.723437,1.000000,1.000000,0.500000,9.232648,2.000000,267.728771,1.097159,150.000000,1.000000,176.428525,9.639844,6.709230,2.000000,9
map,fitness,fitness value,team0ratio,time,HP,Speed,Damage,Acc,ClipSize,RateOfFire,NrBullets,Range,HP,Speed,Damage,Acc,ClipSize,RateOfFire,NrBullets,Range,HP,Speed,Damage,Acc,ClipSize,RateOfFire,NrBullets,Range,HP,Speed,Damage,Acc,ClipSize,RateOfFire,NrBullets,Range,Run,target team0ratio: 0.5,target time: 0.14
/home/daniel/Projects/ppsevolution/data/maps/custom_maps/Custom_8_Run_0_Map.csv,squared_error,0.0031371574038963237,0.5046,0.2191,0.000000,0.613304,0.938343,1.000000,0.000000,0.197395,1.000000,2.000000,0.616513,0.018840,0.995511,1.000000,0.444721,0.794820,0.161270,2.000000,125.000000,1.113450,141.306310,1.000000,1.000000,2.375248,10.000000,2.000000,232.889835,0.780550,149.366984,1.000000,89.499564,8.050788,2.451433,2.000000,0
/home/daniel/Projects/ppsevolution/data/maps/custom_maps/Custom_8_Run_0_Map.csv,squared_error,0.0027047998727849167,0.5074,0.2132,0.000000,0.917342,0.633626,1.000000,0.018533,0.130122,1.000000,2.000000,0.000000,0.184649,1.000000,1.000000,0.499374,0.052400,0.912829,2.000000,125.000000,1.283711,98.341313,1.000000,4.688159,1.736159,10.000000,2.000000,125.000000,0.873403,150.000000,1.000000,100.375348,0.997800,9.215460,2.000000,1
/home/daniel/Projects/ppsevolution/data/maps/custom_maps/Custom_8_Run_0_Map.csv,squared_error,0.0029775736540082667,0.5127,0.2161,0.000000,1.000000,0.814941,1.000000,0.000000,0.000000,1.000000,2.000000,0.458738,0.071599,1.000000,1.000000,0.280638,0.932311,0.849426,2.000000,125.000000,1.330000,123.906637,1.000000,1.000000,0.500000,10.000000,2.000000,205.279163,0.810096,150.000000,1.000000,56.846920,9.356956,8.644830,2.000000,2
/home/daniel/Projects/ppsevolution/data/maps/custom_maps/Custom_8_Run_0_Map.csv,squared_error,0.003034202413690638,0.5030,0.2178,0.000000,0.639736,0.834721,1.000000,0.003025,0.000000,1.000000,2.000000,0.530737,0.127628,0.989612,1.000000,0.924309,0.872002,0.289034,2.000000,125.000000,1.128252,126.695639,1.000000,1.601895,0.500000,10.000000,2.000000,217.879047,0.841472,148.535270,1.000000,184.937538,8.784023,3.601303,2.000000,3
/home/daniel/Projects/ppsevolution/data/maps/custom_maps/Custom_8_Run_0_Map.csv,squared_error,0.002823114983785095,0.5033,0.2151,0.000000,1.000000,0.760329,1.000000,0.176834,0.264869,0.971837,2.000000,0.334884,0.000000,1.000000,1.000000,0.949586,0.389958,0.929527,2.000000,125.000000,1.330000,116.206449,1.000000,36.189873,3.016252,9.746537,2.000000,183.604776,0.770000,150.000000,1.000000,189.967686,4.204597,9.365740,2.000000,4
/home/daniel/Projects/ppsevolution/data/maps/custom_maps/Custom_8_Run_0_Map.csv,squared_error,0.0028493750296185055,0.5108,0.2147,0.005028,0.721489,0.635788,1.000000,0.000000,0.000000,1.000000,2.000000,0.221340,0.000000,0.917405,1.000000,1.000000,0.768513,0.994032,2.000000,125.879937,1.174034,98.646089,1.000000,1.000000,0.500000,10.000000,2.000000,163.734489,0.770000,138.354096,1.000000,200.000000,7.800873,9.946287,2.000000,5
/home/daniel/Projects/ppsevolution/data/maps/custom_maps/Custom_8_Run_0_Map.csv,squared_error,0.0029294744917005336,0.5068,0.2162,0.000000,0.885713,0.869749,1.000000,0.000000,0.323204,1.000000,2.000000,0.537960,0.278649,0.979976,1.000000,0.796731,0.551242,0.842027,2.000000,125.000000,1.265999,131.634622,1.000000,1.000000,3.570442,10.000000,2.000000,219.142988,0.926043,147.176617,1.000000,159.549512,5.736799,8.578245,2.000000,6
/home/daniel/Projects/ppsevolution/data/maps/custom_maps/Custom_8_Run_0_Map.csv,squared_error,0.0029445435761213893,0.5029,0.2167,0.000000,0.789197,0.609648,1.000000,0.036493,0.083383,1.000000,2.000000,0.183681,0.297093,1.000000,1.000000,0.781023,0.996342,0.515153,2.000000,125.000000,1.211950,94.960316,1.000000,8.262083,1.292141,10.000000,2.000000,157.144115,0.936372,150.000000,1.000000,156.423603,9.965248,5.636381,2.000000,7
/home/daniel/Projects/ppsevolution/data/maps/custom_maps/Custom_8_Run_0_Map.csv,squared_error,0.0028716233322716835,0.4981,0.2158,0.017222,1.000000,0.759141,0.992429,0.041016,0.223829,0.945514,2.000000,0.298841,0.092663,0.960670,1.000000,1.000000,0.468118,0.944718,2.000000,128.013921,1.330000,116.038848,0.992429,9.162108,2.626379,9.509626,2.000000,177.297254,0.821892,144.454406,1.000000,200.000000,4.947125,9.502459,2.000000,8
/home/daniel/Projects/ppsevolution/data/maps/custom_maps/Custom_8_Run_0_Map.csv,squared_error,0.0030241415875686775,0.5012,0.2178,0.000000,0.709837,0.895336,1.000000,0.051988,0.047181,1.000000,2.000000,0.705947,0.000000,1.000000,1.000000,0.565760,1.000000,0.768822,2.000000,125.000000,1.167509,135.242393,1.000000,11.345595,0.948216,10.000000,2.000000,248.540703,0.770000,150.000000,1.000000,113.586159,10.000000,7.919399,2.000000,9
map,fitness,fitness value,team0ratio,time,HP,Speed,Damage,Acc,ClipSize,RateOfFire,NrBullets,Range,HP,Speed,Damage,Acc,ClipSize,RateOfFire,NrBullets,Range,HP,Speed,Damage,Acc,ClipSize,RateOfFire,NrBullets,Range,HP,Speed,Damage,Acc,ClipSize,RateOfFire,NrBullets,Range,Run,target team0ratio: 0.5,target time: 0.14
/home/daniel/Projects/ppsevolution/data/maps/custom_maps/Custom_9_Run_0_Map.csv,squared_error,0.001021152355564516,0.5058,0.1848,0.046171,0.995797,1.000000,0.969259,0.166522,0.174409,1.000000,2.000000,0.305268,0.008167,1.000000,1.000000,0.945754,0.103475,0.827251,2.000000,133.079950,1.327646,150.000000,0.969259,34.137809,2.156886,10.000000,2.000000,178.421852,0.774574,150.000000,1.000000,189.205019,1.483014,8.445257,2.000000,0
/home/daniel/Projects/ppsevolution/data/maps/custom_maps/Custom_9_Run_0_Map.csv,squared_error,0.0012381166368404446,0.5093,0.1889,0.000000,0.509343,1.000000,1.000000,0.000000,0.333153,1.000000,2.000000,1.000000,0.000000,1.000000,1.000000,1.000000,0.532937,0.747586,2.000000,125.000000,1.055232,150.000000,1.000000,1.000000,3.664957,10.000000,2.000000,300.000000,0.770000,150.000000,1.000000,200.000000,5.562904,7.728274,2.000000,1
/home/daniel/Projects/ppsevolution/data/maps/custom_maps/Custom_9_Run_0_Map.csv,squared_error,0.0012801410930969221,0.5030,0.1905,0.000000,0.721801,1.000000,0.997030,0.000000,0.331200,1.000000,2.000000,0.836238,0.138536,0.993726,1.000000,0.021376,0.287204,0.065797,2.000000,125.000000,1.174209,150.000000,0.997030,1.000000,3.646395,10.000000,2.000000,271.341584,0.847580,149.115357,1.000000,5.253913,3.228442,1.592170,2.000000,2
/home/daniel/Projects/ppsevolution/data/maps/custom_maps/Custom_9_Run_0_Map.csv,squared_error,0.0011660691804681628,0.4957,0.1881,0.000000,0.686061,0.351719,1.000000,0.019449,0.032482,1.000000,2.000000,0.000000,0.593504,1.000000,1.000000,0.860388,0.480740,0.506917,2.000000,125.000000,1.154194,58.592331,1.000000,4.870271,0.808579,10.000000,2.000000,125.000000,1.102362,150.000000,1.000000,172.217246,5.067031,5.562252,2.000000,3
/home/daniel/Projects/ppsevolution/data/maps/custom_maps/Custom_9_Run_0_Map.csv,squared_error,0.0010643199311776593,0.4996,0.1861,0.030094,0.632335,1.000000,0.959549,0.045052,0.497274,1.000000,2.000000,0.102115,0.000000,1.000000,1.000000,0.773899,0.336779,0.286819,2.000000,130.266521,1.124108,150.000000,0.959549,9.965443,5.224108,10.000000,2.000000,142.870204,0.770000,150.000000,1.000000,155.005882,3.699398,3.581372,2.000000,4
/home/daniel/Projects/ppsevolution/data/maps/custom_maps/Custom_9_Run_0_Map.csv,squared_error,0.00116287795185197,0.5024,0.1882,0.000000,1.000000,0.616244,1.000000,0.219661,0.177693,1.000000,2.000000,0.281992,0.000000,1.000000,1.000000,0.667067,0.097283,0.323618,2.000000,125.000000,1.330000,95.890354,1.000000,44.712523,2.188088,10.000000,2.000000,174.348530,0.770000,150.000000,1.000000,133.746364,1.424188,3.912559,2.000000,5
/home/daniel/Projects/ppsevolution/data/maps/custom_maps/Custom_9_Run_0_Map.csv,squared_error,0.0011368830530466797,0.5080,0.1870,0.000000,0.628118,0.700657,0.993635,0.203947,0.000000,1.000000,2.000000,0.205058,0.166454,1.000000,1.000000,1.000000,0.000000,0.189546,2.000000,125.000000,1.121746,107.792578,0.993635,41.585377,0.500000,10.000000,2.000000,160.885128,0.863214,150.000000,1.000000,200.000000,0.500000,2.705913,2.000000,6
/home/daniel/Projects/ppsevolution/data/maps/custom_maps/Custom_9_Run_0_Map.csv,squared_error,0.0012822294462647528,0.4933,0.1902,0.000000,0.914586,1.000000,0.973428,0.219494,0.031366,0.988029,2.000000,0.672513,0.000000,1.000000,1.000000,1.000000,1.000000,0.354216,2.000000,125.000000,1.282168,150.000000,0.973428,44.679321,0.797974,9.892260,2.000000,242.689846,0.770000,150.000000,1.000000,200.000000,10.000000,4.187941,2.000000,7
/home/daniel/Projects/ppsevolution/data/maps/custom_maps/Custom_9_Run_0_Map.csv,squared_error,0.0010159801166468036,0.5096,0.1840,0.000000,0.993512,1.000000,0.958499,0.049821,0.100692,1.000000,2.000000,0.000000,0.130911,1.000000,1.000000,1.000000,0.410641,0.300447,2.000000,125.000000,1.326367,150.000000,0.958499,10.914292,1.456577,10.000000,2.000000,125.000000,0.843310,150.000000,1.000000,200.000000,4.401087,3.704026,2.000000,8
/home/daniel/Projects/ppsevolution/data/maps/custom_maps/Custom_9_Run_0_Map.csv,squared_error,0.001047578205304411,0.5103,0.1846,0.000000,0.950005,1.000000,0.976672,0.043042,0.363541,1.000000,2.000000,0.357075,0.266235,1.000000,1.000000,0.899656,0.031907,0.783505,2.000000,125.000000,1.302003,150.000000,0.976672,9.565427,3.953644,10.000000,2.000000,187.488099,0.919092,150.000000,1.000000,180.031498,0.803117,8.051544,2.000000,9
map,fitness,fitness value,team0ratio,time,HP,Speed,Damage,Acc,ClipSize,RateOfFire,NrBullets,Range,HP,Speed,Damage,Acc,ClipSize,RateOfFire,NrBullets,Range,HP,Speed,Damage,Acc,ClipSize,RateOfFire,NrBullets,Range,HP,Speed,Damage,Acc,ClipSize,RateOfFire,NrBullets,Range,Run,target team0ratio: 0.5,target time: 0.14
/home/daniel/Projects/ppsevolution/data/maps/custom_maps/Custom_10_Run_0_Map.csv,squared_error,0.02044202842485379,0.5494,0.3361,0.000000,1.000000,0.986891,1.000000,0.000000,0.898598,1.000000,2.000000,0.000000,0.098392,1.000000,1.000000,1.000000,0.042652,1.000000,0.000000,125.000000,1.330000,148.151620,1.000000,1.000000,9.036678,10.000000,2.000000,125.000000,0.825100,150.000000,1.000000,200.000000,0.905192,10.000000,0.000000,0
/home/daniel/Projects/ppsevolution/data/maps/custom_maps/Custom_10_Run_0_Map.csv,squared_error,0.02028863490819009,0.5306,0.3391,0.000000,0.653882,1.000000,0.989940,0.023066,0.997422,0.995634,2.000000,0.011786,0.078935,1.000000,1.000000,0.738255,0.036148,0.941185,0.000000,125.000000,1.136174,150.000000,0.989940,5.590180,9.975507,9.960702,2.000000,127.062551,0.814204,150.000000,1.000000,147.912672,0.843406,9.470663,0.000000,1
/home/daniel/Projects/ppsevolution/data/maps/custom_maps/Custom_10_Run_0_Map.csv,squared_error,0.021391453119614257,0.5230,0.3456,0.000000,1.000000,1.000000,0.984472,0.000000,0.176288,0.948008,2.000000,0.000000,0.248125,1.000000,1.000000,0.640568,0.407170,0.545469,2.000000,125.000000,1.330000,150.000000,0.984472,1.000000,2.174736,9.532068,2.000000,125.000000,0.908950,150.000000,1.000000,128.473116,4.368111,5.909221,2.000000,2
/home/daniel/Projects/ppsevolution/data/maps/custom_maps/Custom_10_Run_0_Map.csv,squared_error,0.02033768905334381,0.5225,0.3404,0.000000,0.759936,1.000000,0.981683,0.000000,1.000000,1.000000,2.000000,0.000000,0.200003,0.934186,1.000000,0.861191,0.000000,0.985346,0.000000,125.000000,1.195564,150.000000,0.981683,1.000000,10.000000,10.000000,2.000000,125.000000,0.882002,140.720228,1.000000,172.377032,0.500000,9.868111,0.000000,3
/home/daniel/Projects/ppsevolution/data/maps/custom_maps/Custom_10_Run_0_Map.csv,squared_error,0.020384157901803902,0.5275,0.3400,0.193680,0.844097,1.000000,0.978506,0.000000,0.778095,0.993545,2.000000,0.000000,0.000000,1.000000,1.000000,0.993720,0.059962,1.000000,0.000000,158.894045,1.242695,150.000000,0.978506,1.000000,7.891902,9.941901,2.000000,125.000000,0.770000,150.000000,1.000000,198.750216,1.069641,10.000000,0.000000,4
/home/daniel/Projects/ppsevolution/data/maps/custom_maps/Custom_10_Run_0_Map.csv,squared_error,0.020718595661871692,0.5377,0.3400,0.000000,0.473962,1.000000,1.000000,0.000000,0.920369,1.000000,2.000000,0.000000,0.049458,0.974520,1.000000,0.000000,0.000000,0.678380,1.000000,125.000000,1.035419,150.000000,1.000000,1.000000,9.243502,10.000000,2.000000,125.000000,0.797697,146.407379,1.000000,1.000000,0.500000,7.105420,1.000000,5
/home/daniel/Projects/ppsevolution/data/maps/custom_maps/Custom_10_Run_0_Map.csv,squared_error,0.02042900166688715,0.5183,0.3413,0.000000,0.651284,1.000000,0.979874,0.035720,1.000000,1.000000,2.000000,0.000000,0.000000,0.939419,1.000000,0.356345,0.087456,1.000000,0.000000,125.000000,1.134719,150.000000,0.979874,8.108257,10.000000,10.000000,2.000000,125.000000,0.770000,141.458070,1.000000,71.912634,1.330835,10.000000,0.000000,6
/home/daniel/Projects/ppsevolution/data/maps/custom_maps/Custom_10_Run_0_Map.csv,squared_error,0.020623109399082823,0.5235,0.3417,0.000000,0.109535,1.000000,0.989035,0.082910,0.887295,0.994452,2.000000,0.090330,0.152137,0.964722,1.000000,0.744848,0.000000,0.996759,0.000000,125.000000,0.831340,150.000000,0.989035,17.499084,8.929304,9.950071,2.000000,140.807726,0.855197,145.025807,1.000000,149.224666,0.500000,9.970828,0.000000,7
/home/daniel/Projects/ppsevolution/data/maps/custom_maps/Custom_10_Run_0_Map.csv,squared_error,0.020290014792829443,0.5377,0.3379,0.006731,1.000000,1.000000,0.993208,0.175066,1.000000,1.000000,2.000000,0.000000,0.016720,1.000000,1.000000,0.379365,0.000000,1.000000,0.000000,126.177981,1.330000,150.000000,0.993208,35.838044,10.000000,10.000000,2.000000,125.000000,0.779363,150.000000,1.000000,76.493672,0.500000,10.000000,0.000000,8
/home/daniel/Projects/ppsevolution/data/maps/custom_maps/Custom_10_Run_0_Map.csv,squared_error,0.02050215001463708,0.5446,0.3375,0.000000,0.842969,1.000000,1.000000,0.014388,1.000000,1.000000,2.000000,0.014554,0.164502,1.000000,1.000000,0.968779,0.000000,0.752626,0.000000,125.000000,1.242063,150.000000,1.000000,3.863258,10.000000,10.000000,2.000000,127.547002,0.862121,150.000000,1.000000,193.787053,0.500000,7.773633,0.000000,9
