map,fitness,fitness value,team0ratio,time,HP,Speed,Damage,Acc,ClipSize,RateOfFire,NrBullets,Range,HP,Speed,Damage,Acc,ClipSize,RateOfFire,NrBullets,Range,HP,Speed,Damage,Acc,ClipSize,RateOfFire,NrBullets,Range,HP,Speed,Damage,Acc,ClipSize,RateOfFire,NrBullets,Range,Run,target team0ratio: 0.5,target time: 0.36
/home/daniel/Projects/ppsevolution/data/maps/custom_maps/Custom_1_Run_0_Map.csv,squared_error,5.390885094726682e-07,0.5010,0.3604,0.010335,1.000000,0.125695,0.712563,0.151669,0.000000,0.879663,0.000000,0.962883,0.000000,0.000000,0.600000,0.910421,0.923705,0.000000,1.000000,126.808683,1.330000,26.723056,0.712563,31.182037,0.500000,8.916963,0.000000,293.504523,0.770000,9.000000,0.600000,182.173704,9.275200,1.000000,1.000000,0
/home/daniel/Projects/ppsevolution/data/maps/custom_maps/Custom_1_Run_0_Map.csv,squared_error,5.409677743230757e-07,0.4994,0.3608,0.000000,1.000000,0.076030,0.737244,0.075237,0.037952,0.903135,0.000000,0.976472,0.000000,0.000000,0.590621,1.000000,1.000000,0.125060,1.000000,125.000000,1.330000,19.720261,0.737244,15.972091,0.860545,9.128216,0.000000,295.882583,0.770000,9.000000,0.590621,200.000000,10.000000,2.125543,1.000000,1
/home/daniel/Projects/ppsevolution/data/maps/custom_maps/Custom_1_Run_0_Map.csv,squared_error,8.872324387311735e-07,0.4994,0.3588,0.000000,1.000000,0.210000,0.674739,0.031354,0.000000,0.829843,1.000000,1.000000,0.000000,0.000000,0.600000,0.899789,0.944992,0.000000,0.000000,125.000000,1.330000,38.610000,0.674739,7.239393,0.500000,8.468591,1.000000,300.000000,0.770000,9.000000,0.600000,180.058022,9.477426,1.000000,0.000000,2
/home/daniel/Projects/ppsevolution/data/maps/custom_maps/Custom_1_Run_0_Map.csv,squared_error,7.486754056131269e-07,0.4995,0.3589,0.000000,1.000000,0.191803,0.684453,0.000000,0.000000,0.986638,0.000000,1.000000,0.080702,0.000000,0.600000,0.952626,1.000000,0.000000,0.000000,125.000000,1.330000,36.044188,0.684453,1.000000,0.500000,9.879746,0.000000,300.000000,0.815193,9.000000,0.600000,190.572641,10.000000,1.000000,0.000000,3
/home/daniel/Projects/ppsevolution/data/maps/custom_maps/Custom_1_Run_0_Map.csv,squared_error,9.522199935531545e-07,0.4995,0.3587,0.000000,0.871016,0.210000,0.673595,0.178699,0.030000,1.000000,0.000000,1.000000,0.000000,0.000000,0.600000,1.000000,1.000000,0.000000,0.000000,125.000000,1.257769,38.610000,0.673595,36.561109,0.785000,10.000000,0.000000,300.000000,0.770000,9.000000,0.600000,200.000000,10.000000,1.000000,0.000000,4
/home/daniel/Projects/ppsevolution/data/maps/custom_maps/Custom_1_Run_0_Map.csv,squared_error,4.3788598577805816e-07,0.5008,0.3604,0.000000,1.000000,0.210000,0.678342,0.072663,0.030000,0.894846,0.000000,1.000000,0.000000,0.000000,0.600000,1.000000,1.000000,0.000000,0.000000,125.000000,1.330000,38.610000,0.678342,15.459962,0.785000,9.053612,0.000000,300.000000,0.770000,9.000000,0.600000,200.000000,10.000000,1.000000,0.000000,5
/home/daniel/Projects/ppsevolution/data/maps/custom_maps/Custom_1_Run_0_Map.csv,squared_error,5.820506215627548e-07,0.4989,0.3598,0.000000,1.000000,0.050034,0.749748,0.030000,0.132082,1.000000,0.000000,1.000000,0.000000,0.000000,0.600000,0.696924,1.000000,0.000000,1.000000,125.000000,1.330000,16.054792,0.749748,6.970000,1.754775,10.000000,0.000000,300.000000,0.770000,9.000000,0.600000,139.687946,10.000000,1.000000,1.000000,6
/home/daniel/Projects/ppsevolution/data/maps/custom_maps/Custom_1_Run_0_Map.csv,squared_error,1.8326258650631042e-07,0.5004,0.3595,0.000000,1.000000,0.210000,0.674289,0.030000,0.069497,0.888678,0.000000,1.000000,0.047477,0.000000,0.590349,0.974965,1.000000,0.028482,1.000000,125.000000,1.330000,38.610000,0.674289,6.970000,1.160217,8.998105,0.000000,300.000000,0.796587,9.000000,0.590349,195.018068,10.000000,1.256340,1.000000,7
/home/daniel/Projects/ppsevolution/data/maps/custom_maps/Custom_1_Run_0_Map.csv,squared_error,7.173568464715257e-07,0.4990,0.3606,0.000000,0.973729,0.038584,0.745002,0.030000,0.030000,1.000000,0.000000,0.945300,0.000000,0.000000,0.600000,1.000000,1.000000,0.000000,1.000000,125.000000,1.315288,14.440366,0.745002,6.970000,0.785000,10.000000,0.000000,290.427570,0.770000,9.000000,0.600000,200.000000,10.000000,1.000000,1.000000,8
/home/daniel/Projects/ppsevolution/data/maps/custom_maps/Custom_1_Run_0_Map.csv,squared_error,8.950904181894369e-07,0.4989,0.3608,0.000000,1.000000,0.199028,0.682113,0.030000,0.000000,0.909357,0.000000,1.000000,0.011658,0.000000,0.600000,1.000000,1.000000,0.000000,0.000000,125.000000,1.330000,37.062980,0.682113,6.970000,0.500000,9.184211,0.000000,300.000000,0.776529,9.000000,0.600000,200.000000,10.000000,1.000000,0.000000,9
map,fitness,fitness value,team0ratio,time,HP,Speed,Damage,Acc,ClipSize,RateOfFire,NrBullets,Range,HP,Speed,Damage,Acc,ClipSize,RateOfFire,NrBullets,Range,HP,Speed,Damage,Acc,ClipSize,RateOfFire,NrBullets,Range,HP,Speed,Damage,Acc,ClipSize,RateOfFire,NrBullets,Range,Run,target team0ratio: 0.5,target time: 0.36
/home/daniel/Projects/ppsevolution/data/maps/custom_maps/Custom_2_Run_0_Map.csv,squared_error,0.0004487578192359859,0.4946,0.3895,0.000000,0.883691,0.411416,1.000000,0.076318,0.000000,1.000000,2.000000,0.310327,0.248117,1.000000,0.984026,1.000000,1.000000,1.000000,2.000000,125.000000,1.264867,67.009716,1.000000,16.187197,0.500000,10.000000,2.000000,179.307188,0.908946,150.000000,0.984026,200.000000,10.000000,10.000000,2.000000,0
/home/daniel/Projects/ppsevolution/data/maps/custom_maps/Custom_2_Run_0_Map.csv,squared_error,0.00040299021666390154,0.4941,0.3878,0.000000,1.000000,0.806614,1.000000,0.000000,0.000000,1.000000,2.000000,0.829949,0.233780,1.000000,1.000000,1.000000,1.000000,1.000000,2.000000,125.000000,1.330000,122.732571,1.000000,1.000000,0.500000,10.000000,2.000000,270.241099,0.900917,150.000000,1.000000,200.000000,10.000000,10.000000,2.000000,1
/home/daniel/Projects/ppsevolution/data/maps/custom_maps/Custom_2_Run_0_Map.csv,squared_error,0.00040505871536651805,0.4934,0.3877,0.000000,1.000000,0.556379,1.000000,0.000000,0.000000,1.000000,2.000000,0.381840,0.369829,1.000000,1.000000,0.982172,1.000000,1.000000,2.000000,125.000000,1.330000,87.449423,1.000000,1.000000,0.500000,10.000000,2.000000,191.822060,0.977104,150.000000,1.000000,196.452176,10.000000,10.000000,2.000000,2
/home/daniel/Projects/ppsevolution/data/maps/custom_maps/Custom_2_Run_0_Map.csv,squared_error,0.0004926557863600995,0.4923,0.3904,0.000000,0.970743,0.399319,1.000000,0.000000,0.021995,1.000000,2.000000,0.584962,0.001510,0.999183,0.961948,1.000000,1.000000,1.000000,2.000000,125.000000,1.313616,65.303959,1.000000,1.000000,0.708954,10.000000,2.000000,227.368317,0.770845,149.884780,0.961948,200.000000,10.000000,10.000000,2.000000,3
/home/daniel/Projects/ppsevolution/data/maps/custom_maps/Custom_2_Run_0_Map.csv,squared_error,0.00042435416208730424,0.4975,0.3890,0.000000,0.866849,0.932560,1.000000,0.000000,0.000000,0.987729,2.000000,1.000000,0.000000,0.999882,1.000000,1.000000,1.000000,0.975635,2.000000,125.000000,1.255436,140.490951,1.000000,1.000000,0.500000,9.889558,2.000000,300.000000,0.770000,149.983315,1.000000,200.000000,10.000000,9.780717,2.000000,4
/home/daniel/Projects/ppsevolution/data/maps/custom_maps/Custom_2_Run_0_Map.csv,squared_error,0.0005355736653230242,0.4969,0.3926,0.000000,0.947643,0.284552,1.000000,0.000000,0.000000,1.000000,2.000000,0.543090,0.000000,1.000000,0.943454,0.999256,1.000000,1.000000,2.000000,125.000000,1.300680,49.121782,1.000000,1.000000,0.500000,10.000000,2.000000,220.040809,0.770000,150.000000,0.943454,199.852014,10.000000,10.000000,2.000000,5
/home/daniel/Projects/ppsevolution/data/maps/custom_maps/Custom_2_Run_0_Map.csv,squared_error,0.0004025628470501413,0.4964,0.3881,0.000000,1.000000,0.838588,1.000000,0.000000,0.000000,1.000000,2.000000,0.859134,0.209627,1.000000,1.000000,1.000000,1.000000,1.000000,2.000000,125.000000,1.330000,127.240886,1.000000,1.000000,0.500000,10.000000,2.000000,275.348522,0.887391,150.000000,1.000000,200.000000,10.000000,10.000000,2.000000,6
/home/daniel/Projects/ppsevolution/data/maps/custom_maps/Custom_2_Run_0_Map.csv,squared_error,0.0004999619614654944,0.4949,0.3912,0.000000,1.000000,0.459046,1.000000,0.000000,0.000000,1.000000,2.000000,0.819983,0.451510,1.000000,0.951022,1.000000,1.000000,1.000000,2.000000,125.000000,1.330000,73.725432,1.000000,1.000000,0.500000,10.000000,2.000000,268.497005,1.022845,150.000000,0.951022,200.000000,10.000000,10.000000,2.000000,7
/home/daniel/Projects/ppsevolution/data/maps/custom_maps/Custom_2_Run_0_Map.csv,squared_error,0.0005084023982251968,0.4939,0.3913,0.000000,1.000000,0.510055,1.000000,0.005116,0.000000,1.000000,2.000000,0.954090,0.269681,1.000000,0.948132,1.000000,1.000000,1.000000,2.000000,125.000000,1.330000,80.917786,1.000000,2.018104,0.500000,10.000000,2.000000,291.965757,0.921021,150.000000,0.948132,200.000000,10.000000,10.000000,2.000000,8
/home/daniel/Projects/ppsevolution/data/maps/custom_maps/Custom_2_Run_0_Map.csv,squared_error,0.0004008600888304198,0.4961,0.3880,0.000000,1.000000,0.848163,1.000000,0.000000,0.000000,1.000000,2.000000,0.888563,0.404254,1.000000,1.000000,1.000000,0.989490,1.000000,2.000000,125.000000,1.330000,128.590957,1.000000,1.000000,0.500000,10.000000,2.000000,280.498478,0.996382,150.000000,1.000000,200.000000,9.900158,10.000000,2.000000,9
map,fitness,fitness value,team0ratio,time,HP,Speed,Damage,Acc,ClipSize,RateOfFire,NrBullets,Range,HP,Speed,Damage,Acc,ClipSize,RateOfFire,NrBullets,Range,HP,Speed,Damage,Acc,ClipSize,RateOfFire,NrBullets,Range,HP,Speed,Damage,Acc,ClipSize,RateOfFire,NrBullets,Range,Run,target team0ratio: 0.5,target time: 0.36
/home/daniel/Projects/ppsevolution/data/maps/custom_maps/Custom_3_Run_0_Map.csv,squared_error,0.0061044547352668635,0.5092,0.4701,0.000000,1.000000,0.626106,1.000000,0.000000,0.000000,1.000000,2.000000,0.012238,0.000000,1.000000,1.000000,1.000000,0.000000,1.000000,2.000000,125.000000,1.330000,97.280928,1.000000,1.000000,0.500000,10.000000,2.000000,127.141681,0.770000,150.000000,1.000000,200.000000,0.500000,10.000000,2.000000,0
/home/daniel/Projects/ppsevolution/data/maps/custom_maps/Custom_3_Run_0_Map.csv,squared_error,0.006097154905887867,0.5038,0.4704,0.000000,1.000000,0.595278,1.000000,0.000000,0.000000,1.000000,2.000000,0.000000,0.000000,1.000000,1.000000,1.000000,0.000000,1.000000,2.000000,125.000000,1.330000,92.934187,1.000000,1.000000,0.500000,10.000000,2.000000,125.000000,0.770000,150.000000,1.000000,200.000000,0.500000,10.000000,2.000000,1
/home/daniel/Projects/ppsevolution/data/maps/custom_maps/Custom_3_Run_0_Map.csv,squared_error,0.005989331714274219,0.5084,0.4691,0.000000,1.000000,1.000000,0.967769,0.000000,0.000000,1.000000,2.000000,0.000000,0.007791,1.000000,1.000000,1.000000,0.000000,1.000000,2.000000,125.000000,1.330000,150.000000,0.967769,1.000000,0.500000,10.000000,2.000000,125.000000,0.774363,150.000000,1.000000,200.000000,0.500000,10.000000,2.000000,2
/home/daniel/Projects/ppsevolution/data/maps/custom_maps/Custom_3_Run_0_Map.csv,squared_error,0.006196386877091801,0.5081,0.4710,0.000000,1.000000,0.830001,1.000000,0.000000,0.000000,1.000000,2.000000,0.386411,0.000000,1.000000,1.000000,1.000000,0.000000,1.000000,2.000000,125.000000,1.330000,126.030073,1.000000,1.000000,0.500000,10.000000,2.000000,192.621922,0.770000,150.000000,1.000000,200.000000,0.500000,10.000000,2.000000,3
/home/daniel/Projects/ppsevolution/data/maps/custom_maps/Custom_3_Run_0_Map.csv,squared_error,0.006006473044677311,0.5086,0.4693,0.000000,1.000000,1.000000,0.968282,0.000000,0.414086,1.000000,2.000000,0.000000,0.000000,1.000000,1.000000,1.000000,0.002860,1.000000,2.000000,125.000000,1.330000,150.000000,0.968282,1.000000,4.433814,10.000000,2.000000,125.000000,0.770000,150.000000,1.000000,200.000000,0.527173,10.000000,2.000000,4
/home/daniel/Projects/ppsevolution/data/maps/custom_maps/Custom_3_Run_0_Map.csv,squared_error,0.006157492769986736,0.5051,0.4709,0.000000,0.983938,0.653827,1.000000,0.000000,0.037146,1.000000,2.000000,0.119670,0.000000,1.000000,1.000000,1.000000,0.116698,1.000000,2.000000,125.000000,1.321005,101.189639,1.000000,1.000000,0.852884,10.000000,2.000000,145.942181,0.770000,150.000000,1.000000,200.000000,1.608634,10.000000,2.000000,5
/home/daniel/Projects/ppsevolution/data/maps/custom_maps/Custom_3_Run_0_Map.csv,squared_error,0.0061177293611634175,0.5054,0.4705,0.000000,1.000000,1.000000,0.977973,0.000000,0.073246,1.000000,2.000000,0.247678,0.016103,1.000000,1.000000,1.000000,0.000000,1.000000,2.000000,125.000000,1.330000,150.000000,0.977973,1.000000,1.195839,10.000000,2.000000,168.343637,0.779018,150.000000,1.000000,200.000000,0.500000,10.000000,2.000000,6
/home/daniel/Projects/ppsevolution/data/maps/custom_maps/Custom_3_Run_0_Map.csv,squared_error,0.005988169947168377,0.5078,0.4692,0.000000,1.000000,1.000000,0.967491,0.000000,0.000000,1.000000,2.000000,0.000000,0.000000,1.000000,1.000000,1.000000,0.000000,1.000000,2.000000,125.000000,1.330000,150.000000,0.967491,1.000000,0.500000,10.000000,2.000000,125.000000,0.770000,150.000000,1.000000,200.000000,0.500000,10.000000,2.000000,7
/home/daniel/Projects/ppsevolution/data/maps/custom_maps/Custom_3_Run_0_Map.csv,squared_error,0.006223278454719769,0.5013,0.4716,0.000000,0.859347,0.527969,1.000000,0.000000,0.007414,1.000000,2.000000,0.000000,0.000000,1.000000,1.000000,1.000000,0.511768,1.000000,2.000000,125.000000,1.251234,83.443672,1.000000,1.000000,0.570431,10.000000,2.000000,125.000000,0.770000,150.000000,1.000000,200.000000,5.361797,10.000000,2.000000,8
/home/daniel/Projects/ppsevolution/data/maps/custom_maps/Custom_3_Run_0_Map.csv,squared_error,0.006060228720326852,0.5056,0.4700,0.000000,1.000000,0.873240,0.976028,0.000000,0.028551,1.000000,2.000000,0.000000,0.000000,1.000000,1.000000,1.000000,0.000000,1.000000,2.000000,125.000000,1.330000,132.126861,0.976028,1.000000,0.771232,10.000000,2.000000,125.000000,0.770000,150.000000,1.000000,200.000000,0.500000,10.000000,2.000000,9
map,fitness,fitness value,team0ratio,time,HP,Speed,Damage,Acc,ClipSize,RateOfFire,NrBullets,Range,HP,Speed,Damage,Acc,ClipSize,RateOfFire,NrBullets,Range,HP,Speed,Damage,Acc,ClipSize,RateOfFire,NrBullets,Range,HP,Speed,Damage,Acc,ClipSize,RateOfFire,NrBullets,Range,Run,target team0ratio: 0.5,target time: 0.36
/home/daniel/Projects/ppsevolution/data/maps/custom_maps/Custom_4_Run_0_Map.csv,squared_error,5.648825650219232e-07,0.4990,0.3604,0.000000,0.985845,0.135901,0.800000,0.030000,0.065640,1.000000,0.000000,1.000000,0.000000,0.000000,0.664322,1.000000,1.000000,0.000000,2.000000,125.000000,1.322073,28.162043,0.800000,6.970000,1.123580,10.000000,0.000000,300.000000,0.770000,9.000000,0.664322,200.000000,10.000000,1.000000,2.000000,0
/home/daniel/Projects/ppsevolution/data/maps/custom_maps/Custom_4_Run_0_Map.csv,squared_error,1.947697193351481e-07,0.5004,0.3605,0.000000,0.843128,0.210000,0.759790,0.030000,0.000000,1.000000,1.000000,1.000000,0.157224,0.100080,0.600000,1.000000,0.889852,0.000000,2.000000,125.000000,1.242152,38.610000,0.759790,6.970000,0.500000,10.000000,1.000000,300.000000,0.858046,23.111333,0.600000,200.000000,8.953591,1.000000,2.000000,1
/home/daniel/Projects/ppsevolution/data/maps/custom_maps/Custom_4_Run_0_Map.csv,squared_error,8.246456017559296e-07,0.4999,0.3587,0.104334,0.863923,0.179309,0.800000,0.468302,0.030000,0.975770,0.000000,1.000000,0.152048,0.000000,0.702492,1.000000,0.940838,0.000000,0.000000,143.258480,1.253797,34.282552,0.800000,94.192081,0.785000,9.781926,0.000000,300.000000,0.855147,9.000000,0.702492,200.000000,9.437964,1.000000,0.000000,2
/home/daniel/Projects/ppsevolution/data/maps/custom_maps/Custom_4_Run_0_Map.csv,squared_error,4.420016585939258e-07,0.4998,0.3591,0.000000,0.969004,0.137854,0.800000,0.000000,0.030000,1.000000,1.000000,1.000000,0.000000,0.000000,0.675761,1.000000,1.000000,0.000000,0.000000,125.000000,1.312642,28.437354,0.800000,1.000000,0.785000,10.000000,1.000000,300.000000,0.770000,9.000000,0.675761,200.000000,10.000000,1.000000,0.000000,3
/home/daniel/Projects/ppsevolution/data/maps/custom_maps/Custom_4_Run_0_Map.csv,squared_error,2.1533514735952415e-08,0.5000,0.3602,0.224708,1.000000,0.171276,0.800000,0.000000,0.105500,0.955388,0.000000,1.000000,0.147808,0.000000,0.719801,1.000000,0.932797,0.000000,0.000000,164.323939,1.330000,33.149859,0.800000,1.000000,1.502254,9.598488,0.000000,300.000000,0.852773,9.000000,0.719801,200.000000,9.361574,1.000000,0.000000,4
/home/daniel/Projects/ppsevolution/data/maps/custom_maps/Custom_4_Run_0_Map.csv,squared_error,6.744600594068256e-07,0.5005,0.3610,0.002222,1.000000,0.210000,0.763350,0.000000,0.030000,1.000000,1.000000,1.000000,0.286135,0.110388,0.600000,0.938221,0.769180,0.000000,1.000000,125.388821,1.330000,38.610000,0.763350,1.000000,0.785000,10.000000,1.000000,300.000000,0.930236,24.564643,0.600000,187.705995,7.807210,1.000000,1.000000,5
/home/daniel/Projects/ppsevolution/data/maps/custom_maps/Custom_4_Run_0_Map.csv,squared_error,6.09010678718377e-07,0.5002,0.3589,0.106327,1.000000,0.200013,0.800000,0.252046,0.213211,0.794832,0.000000,1.000000,0.000000,0.000000,0.705262,0.899782,0.866762,0.000000,0.000000,143.607203,1.330000,37.201887,0.800000,51.157218,2.525505,8.153484,0.000000,300.000000,0.770000,9.000000,0.705262,180.056691,8.734235,1.000000,0.000000,6
/home/daniel/Projects/ppsevolution/data/maps/custom_maps/Custom_4_Run_0_Map.csv,squared_error,9.933902352728335e-08,0.4998,0.3604,0.000000,1.000000,0.089455,0.800000,0.000000,0.186640,1.000000,2.000000,1.000000,0.168416,0.000000,0.659760,1.000000,1.000000,0.000000,1.000000,125.000000,1.330000,21.613098,0.800000,1.000000,2.273083,10.000000,2.000000,300.000000,0.864313,9.000000,0.659760,200.000000,10.000000,1.000000,1.000000,7
/home/daniel/Projects/ppsevolution/data/maps/custom_maps/Custom_4_Run_0_Map.csv,squared_error,4.421038268588983e-07,0.5009,0.3601,0.000000,1.000000,0.154439,0.800000,0.030000,0.030000,0.882930,0.000000,0.960858,0.000000,0.177742,0.600000,0.925229,1.000000,0.000000,0.000000,125.000000,1.330000,30.775850,0.800000,6.970000,0.785000,8.946370,0.000000,293.150121,0.770000,34.061576,0.600000,185.120515,10.000000,1.000000,0.000000,8
/home/daniel/Projects/ppsevolution/data/maps/custom_maps/Custom_4_Run_0_Map.csv,squared_error,2.2257947637456774e-07,0.4995,0.3604,0.078056,0.816925,0.098525,0.800000,0.030000,0.167419,1.000000,1.000000,1.000000,0.000000,0.128103,0.618109,0.824997,1.000000,0.003189,2.000000,138.659825,1.227478,22.892017,0.800000,6.970000,2.090477,10.000000,1.000000,300.000000,0.770000,27.062587,0.618109,165.174364,10.000000,1.028704,2.000000,9
map,fitness,fitness value,team0ratio,time,HP,Speed,Damage,Acc,ClipSize,RateOfFire,NrBullets,Range,HP,Speed,Damage,Acc,ClipSize,RateOfFire,NrBullets,Range,HP,Speed,Damage,Acc,ClipSize,RateOfFire,NrBullets,Range,HP,Speed,Damage,Acc,ClipSize,RateOfFire,NrBullets,Range,Run,target team0ratio: 0.5,target time: 0.36
/home/daniel/Projects/ppsevolution/data/maps/custom_maps/Custom_5_Run_0_Map.csv,squared_error,6.372628413011104e-07,0.4994,0.3591,0.000000,0.985015,0.301716,0.965595,0.382218,0.000000,0.892617,2.000000,0.838031,0.002449,0.211069,0.931127,1.000000,0.880580,0.060271,2.000000,125.000000,1.321608,51.542021,0.965595,77.061305,0.500000,9.033552,2.000000,271.655477,0.771372,38.760673,0.931127,200.000000,8.865513,1.542443,2.000000,0
/home/daniel/Projects/ppsevolution/data/maps/custom_maps/Custom_5_Run_0_Map.csv,squared_error,9.534545590273098e-06,0.5038,0.3621,0.187860,0.984390,0.667197,0.851247,0.005406,0.198422,1.000000,2.000000,0.639080,0.007853,0.543239,0.829446,1.000000,0.640740,0.433902,2.000000,157.875557,1.321259,103.074719,0.851247,2.075851,2.385009,10.000000,2.000000,236.839055,0.774398,85.596749,0.829446,200.000000,6.587033,4.905116,2.000000,1
/home/daniel/Projects/ppsevolution/data/maps/custom_maps/Custom_5_Run_0_Map.csv,squared_error,5.690515573735452e-06,0.4987,0.3631,0.000000,1.000000,0.729090,0.847534,0.000000,0.184997,1.000000,2.000000,0.768114,0.121470,0.306609,0.851465,0.909162,0.995292,0.594196,2.000000,125.000000,1.330000,111.801744,0.847534,1.000000,2.257473,10.000000,2.000000,259.420021,0.838023,52.231868,0.851465,181.923215,9.955273,6.347764,2.000000,2
/home/daniel/Projects/ppsevolution/data/maps/custom_maps/Custom_5_Run_0_Map.csv,squared_error,1.1033743328314981e-05,0.5023,0.3641,0.000000,0.803491,0.733991,0.832738,0.025334,0.423076,1.000000,2.000000,0.505896,0.000000,1.000000,0.735172,0.847089,0.799903,0.478296,1.000000,125.000000,1.219955,112.492699,0.832738,6.041399,4.519219,10.000000,2.000000,213.531743,0.770000,150.000000,0.735172,169.570617,8.099078,5.304664,1.000000,3
/home/daniel/Projects/ppsevolution/data/maps/custom_maps/Custom_5_Run_0_Map.csv,squared_error,7.310172852399434e-08,0.5004,0.3600,0.000000,1.000000,0.694545,0.879452,0.013243,0.239238,1.000000,1.000000,0.665126,0.000000,0.464452,0.861019,0.876212,1.000000,0.298093,1.000000,125.000000,1.330000,106.930782,0.879452,3.635374,2.772764,10.000000,1.000000,241.397058,0.770000,74.487777,0.861019,175.366154,10.000000,3.682841,1.000000,4
/home/daniel/Projects/ppsevolution/data/maps/custom_maps/Custom_5_Run_0_Map.csv,squared_error,3.5175905746883495e-07,0.5005,0.3607,0.029684,0.796934,0.346257,0.957252,0.118537,0.000000,1.000000,1.000000,0.760547,0.304480,0.525745,0.877098,0.819994,0.620494,0.760584,0.000000,130.194763,1.216283,57.822297,0.957252,24.588857,0.500000,10.000000,1.000000,258.095800,0.940509,83.130052,0.877098,164.178860,6.394694,7.845258,0.000000,5
/home/daniel/Projects/ppsevolution/data/maps/custom_maps/Custom_5_Run_0_Map.csv,squared_error,2.3613333015106534e-06,0.4992,0.3620,0.121334,1.000000,0.781693,0.804413,0.000000,0.117993,0.993752,2.000000,0.417213,0.000000,0.480068,0.839554,0.863966,1.000000,0.024720,2.000000,146.233429,1.330000,119.218725,0.804413,1.000000,1.620931,9.943772,2.000000,198.012317,0.770000,76.689616,0.839554,172.929192,10.000000,1.222484,2.000000,6
/home/daniel/Projects/ppsevolution/data/maps/custom_maps/Custom_5_Run_0_Map.csv,squared_error,2.7647037702322906e-07,0.5007,0.3599,0.000000,0.948431,0.264010,1.000000,0.254743,0.256187,0.928423,0.000000,0.823262,0.236767,0.048311,0.980903,0.936706,0.921210,0.430892,0.000000,125.000000,1.301122,46.225472,1.000000,51.693907,2.933780,9.355810,0.000000,269.070918,0.902590,15.811811,0.980903,187.404432,9.251494,4.878028,0.000000,7
/home/daniel/Projects/ppsevolution/data/maps/custom_maps/Custom_5_Run_0_Map.csv,squared_error,8.066370820671531e-07,0.4991,0.3609,0.000000,1.000000,0.195892,0.984343,0.000000,0.041122,1.000000,1.000000,0.841251,0.000000,0.097346,0.954222,0.802852,1.000000,0.253248,2.000000,125.000000,1.330000,36.620755,0.984343,1.000000,0.890660,10.000000,1.000000,272.218961,0.770000,22.725743,0.954222,160.767466,10.000000,3.279232,2.000000,8
/home/daniel/Projects/ppsevolution/data/maps/custom_maps/Custom_5_Run_0_Map.csv,squared_error,5.254426328839603e-07,0.4991,0.3596,0.194972,1.000000,0.274075,1.000000,0.000000,0.178790,1.000000,0.000000,0.889066,0.065438,0.000000,1.000000,0.991616,1.000000,0.288342,0.000000,159.120112,1.330000,47.644622,1.000000,1.000000,2.198502,10.000000,0.000000,280.586536,0.806645,9.000000,1.000000,198.331540,10.000000,3.595080,0.000000,9
map,fitness,fitness value,team0ratio,time,HP,Speed,Damage,Acc,ClipSize,RateOfFire,NrBullets,Range,HP,Speed,Damage,Acc,ClipSize,RateOfFire,NrBullets,Range,HP,Speed,Damage,Acc,ClipSize,RateOfFire,NrBullets,Range,HP,Speed,Damage,Acc,ClipSize,RateOfFire,NrBullets,Range,Run,target team0ratio: 0.5,target time: 0.36
/home/daniel/Projects/ppsevolution/data/maps/custom_maps/Custom_6_Run_0_Map.csv,squared_error,0.00800611155932884,0.4662,0.4820,0.000000,1.000000,0.000000,1.000000,0.000000,0.000000,0.832024,2.000000,1.000000,0.402520,1.000000,0.895772,1.000000,1.000000,1.000000,2.000000,125.000000,1.330000,9.000000,1.000000,1.000000,0.500000,8.488212,2.000000,300.000000,0.995411,150.000000,0.895772,200.000000,10.000000,10.000000,2.000000,0
/home/daniel/Projects/ppsevolution/data/maps/custom_maps/Custom_6_Run_0_Map.csv,squared_error,0.00793396676483274,0.4656,0.4812,0.283244,0.998140,0.000000,1.000000,0.000000,0.000000,0.191961,2.000000,1.000000,0.891973,1.000000,0.932796,1.000000,1.000000,1.000000,2.000000,174.567758,1.328958,9.000000,1.000000,1.000000,0.500000,2.727645,2.000000,300.000000,1.269505,150.000000,0.932796,200.000000,10.000000,10.000000,2.000000,1
/home/daniel/Projects/ppsevolution/data/maps/custom_maps/Custom_6_Run_0_Map.csv,squared_error,0.007926892489679635,0.4657,0.4811,0.326387,1.000000,0.000000,1.000000,0.000000,0.000000,0.000000,2.000000,1.000000,0.766763,1.000000,0.938369,1.000000,1.000000,1.000000,2.000000,182.117661,1.330000,9.000000,1.000000,1.000000,0.500000,1.000000,2.000000,300.000000,1.199387,150.000000,0.938369,200.000000,10.000000,10.000000,2.000000,2
/home/daniel/Projects/ppsevolution/data/maps/custom_maps/Custom_6_Run_0_Map.csv,squared_error,0.007996083749981488,0.4635,0.4811,0.081932,1.000000,0.000000,1.000000,0.000000,0.000000,0.640187,2.000000,1.000000,0.143561,1.000000,0.907941,1.000000,1.000000,1.000000,2.000000,139.338062,1.330000,9.000000,1.000000,1.000000,0.500000,6.761685,2.000000,300.000000,0.850394,150.000000,0.907941,200.000000,10.000000,10.000000,2.000000,3
/home/daniel/Projects/ppsevolution/data/maps/custom_maps/Custom_6_Run_0_Map.csv,squared_error,0.008006349986209409,0.4685,0.4825,0.032344,1.000000,0.000000,1.000000,0.000000,0.000000,0.887107,2.000000,1.000000,0.378882,1.000000,0.897265,1.000000,1.000000,0.999660,2.000000,130.660237,1.330000,9.000000,1.000000,1.000000,0.500000,8.983962,2.000000,300.000000,0.982174,150.000000,0.897265,200.000000,10.000000,9.996942,2.000000,4
/home/daniel/Projects/ppsevolution/data/maps/custom_maps/Custom_6_Run_0_Map.csv,squared_error,0.008008545255452526,0.4685,0.4826,0.000000,1.000000,0.000000,1.000000,0.000000,0.000000,0.894494,2.000000,1.000000,0.632269,1.000000,0.893918,1.000000,1.000000,1.000000,2.000000,125.000000,1.330000,9.000000,1.000000,1.000000,0.500000,9.050442,2.000000,300.000000,1.124070,150.000000,0.893918,200.000000,10.000000,10.000000,2.000000,5
/home/daniel/Projects/ppsevolution/data/maps/custom_maps/Custom_6_Run_0_Map.csv,squared_error,0.007971126591402677,0.4645,0.4812,0.098194,0.992327,0.000000,1.000000,0.000000,0.000000,0.277221,2.000000,1.000000,0.473775,1.000000,0.911236,1.000000,1.000000,0.999441,2.000000,142.183924,1.325703,9.000000,1.000000,1.000000,0.500000,3.494990,2.000000,300.000000,1.035314,150.000000,0.911236,200.000000,10.000000,9.994971,2.000000,6
/home/daniel/Projects/ppsevolution/data/maps/custom_maps/Custom_6_Run_0_Map.csv,squared_error,0.00798038159719878,0.4661,0.4817,0.097313,1.000000,0.000000,1.000000,0.000000,0.000000,0.438421,2.000000,1.000000,0.305295,1.000000,0.908591,1.000000,1.000000,1.000000,2.000000,142.029797,1.330000,9.000000,1.000000,1.000000,0.500000,4.945792,2.000000,300.000000,0.940965,150.000000,0.908591,200.000000,10.000000,10.000000,2.000000,7
/home/daniel/Projects/ppsevolution/data/maps/custom_maps/Custom_6_Run_0_Map.csv,squared_error,0.007931185826024582,0.4673,0.4816,0.227313,1.000000,0.000000,1.000000,0.000000,0.000000,0.000000,2.000000,1.000000,0.678933,1.000000,0.925586,1.000000,0.998816,1.000000,2.000000,164.779788,1.330000,9.000000,1.000000,1.000000,0.500000,1.000000,2.000000,300.000000,1.150203,150.000000,0.925586,200.000000,9.988748,10.000000,2.000000,8
/home/daniel/Projects/ppsevolution/data/maps/custom_maps/Custom_6_Run_0_Map.csv,squared_error,0.007975129367263117,0.4660,0.4816,0.115531,1.000000,0.000000,1.000000,0.000000,0.000000,0.029243,2.000000,1.000000,0.169636,1.000000,0.912221,1.000000,1.000000,1.000000,2.000000,145.217892,1.330000,9.000000,1.000000,1.000000,0.500000,1.263184,2.000000,300.000000,0.864996,150.000000,0.912221,200.000000,10.000000,10.000000,2.000000,9
map,fitness,fitness value,team0ratio,time,HP,Speed,Damage,Acc,ClipSize,RateOfFire,NrBullets,Range,HP,Speed,Damage,Acc,ClipSize,RateOfFire,NrBullets,Range,HP,Speed,Damage,Acc,ClipSize,RateOfFire,NrBullets,Range,HP,Speed,Damage,Acc,ClipSize,RateOfFire,NrBullets,Range,Run,target team0ratio: 0.5,target time: 0.36
/home/daniel/Projects/ppsevolution/data/maps/custom_maps/Custom_7_Run_0_Map.csv,squared_error,2.2831031766259072e-06,0.5021,0.3605,0.000000,0.806181,0.609101,0.940885,0.055876,0.274807,0.886457,1.000000,0.752613,0.000000,0.396302,0.929698,1.000000,0.961260,0.200906,2.000000,125.000000,1.221461,94.883292,0.940885,12.119390,3.110668,8.978117,1.000000,256.707362,0.770000,64.878520,0.929698,200.000000,9.631973,2.808158,2.000000,0
/home/daniel/Projects/ppsevolution/data/maps/custom_maps/Custom_7_Run_0_Map.csv,squared_error,1.403271719404195e-07,0.5002,0.3605,0.228136,0.965054,0.552102,0.962476,0.048155,0.021012,0.875014,1.000000,0.828571,0.064631,0.518371,0.952151,0.952749,0.809558,0.307086,0.000000,164.923716,1.310430,86.846416,0.962476,10.582816,0.699617,8.875124,1.000000,269.999910,0.806194,82.090340,0.952151,190.597012,8.190798,3.763774,0.000000,1
/home/daniel/Projects/ppsevolution/data/maps/custom_maps/Custom_7_Run_0_Map.csv,squared_error,4.2516567716482126e-05,0.4993,0.3692,0.124527,1.000000,0.517050,0.875774,0.052773,0.000000,1.000000,2.000000,0.194208,0.078108,0.714669,0.856993,0.940799,0.879289,0.747108,2.000000,146.792237,1.330000,81.904032,0.875774,11.501871,0.500000,10.000000,2.000000,158.986361,0.813740,109.768319,0.856993,188.219006,8.853246,7.723971,2.000000,2
/home/daniel/Projects/ppsevolution/data/maps/custom_maps/Custom_7_Run_0_Map.csv,squared_error,2.8369612305141384e-07,0.4992,0.3600,0.018735,1.000000,0.210000,0.977090,0.030000,0.030000,0.984227,2.000000,1.000000,0.114940,0.098340,0.951082,0.891006,1.000000,0.081665,2.000000,128.278590,1.330000,38.610000,0.977090,6.970000,0.785000,9.858039,2.000000,300.000000,0.834366,22.865977,0.951082,178.310234,10.000000,1.734986,2.000000,3
/home/daniel/Projects/ppsevolution/data/maps/custom_maps/Custom_7_Run_0_Map.csv,squared_error,9.70194448473176e-07,0.5003,0.3587,0.211894,0.957699,0.272184,0.938286,0.041907,0.099884,0.892024,2.000000,0.354322,0.039799,0.587777,0.911672,0.459247,0.957021,0.419541,2.000000,162.081430,1.306311,47.377933,0.938286,9.339419,1.448896,9.028215,2.000000,187.006353,0.792287,91.876576,0.911672,92.390189,9.591702,4.775873,2.000000,4
/home/daniel/Projects/ppsevolution/data/maps/custom_maps/Custom_7_Run_0_Map.csv,squared_error,6.441703646011231e-07,0.5003,0.3589,0.000000,0.949284,0.852549,0.953482,0.000000,0.000000,0.796563,0.000000,0.748061,0.147266,0.728645,0.946058,0.862195,0.833949,0.240484,0.000000,125.000000,1.301599,129.209466,0.953482,1.000000,0.500000,8.169064,0.000000,255.910667,0.852469,111.738879,0.946058,172.576804,8.422514,3.164358,0.000000,5
/home/daniel/Projects/ppsevolution/data/maps/custom_maps/Custom_7_Run_0_Map.csv,squared_error,8.307545698961705e-07,0.4995,0.3588,0.044009,0.967168,0.427923,1.000000,0.456281,0.132425,0.863987,0.000000,0.814762,0.077312,0.187672,1.000000,1.000000,1.000000,0.203724,0.000000,132.701637,1.311614,69.337103,1.000000,91.799902,1.758036,8.775881,0.000000,267.583390,0.813295,35.461698,1.000000,200.000000,10.000000,2.833516,0.000000,6
/home/daniel/Projects/ppsevolution/data/maps/custom_maps/Custom_7_Run_0_Map.csv,squared_error,2.52139600891619e-07,0.4998,0.3607,0.000000,0.984919,0.508231,0.924187,0.098585,0.000000,0.594132,2.000000,0.499589,0.000000,0.682832,0.889442,1.000000,0.877631,0.204305,2.000000,125.000000,1.321555,80.660549,0.924187,20.618338,0.500000,6.347184,2.000000,212.428019,0.770000,105.279248,0.889442,200.000000,8.837491,2.838748,2.000000,7
/home/daniel/Projects/ppsevolution/data/maps/custom_maps/Custom_7_Run_0_Map.csv,squared_error,5.329342068762467e-07,0.5005,0.3609,0.000000,1.000000,0.472949,0.933249,0.000000,0.000000,1.000000,2.000000,0.785749,0.000000,0.522433,0.881069,0.913775,0.564122,0.451140,2.000000,125.000000,1.330000,75.685769,0.933249,1.000000,0.500000,10.000000,2.000000,262.506051,0.770000,82.663057,0.881069,182.841147,5.859163,5.060260,2.000000,8
/home/daniel/Projects/ppsevolution/data/maps/custom_maps/Custom_7_Run_0_Map.csv,squared_error,1.527504714495305e-07,0.5003,0.3596,0.066928,0.939751,0.345352,1.000000,0.000000,0.240852,1.000000,0.000000,0.739706,0.000000,0.132215,1.000000,1.000000,0.900646,0.133973,0.000000,136.712390,1.296260,57.694656,1.000000,1.000000,2.788097,10.000000,0.000000,254.448490,0.770000,27.642336,1.000000,200.000000,9.056141,2.205753,0.000000,9
map,fitness,fitness value,team0ratio,time,HP,Speed,Damage,Acc,ClipSize,RateOfFire,NrBullets,Range,HP,Speed,Damage,Acc,ClipSize,RateOfFire,NrBullets,Range,HP,Speed,Damage,Acc,ClipSize,RateOfFire,NrBullets,Range,HP,Speed,Damage,Acc,ClipSize,RateOfFire,NrBullets,Range,Run,target team0ratio: 0.5,target time: 0.36
/home/daniel/Projects/ppsevolution/data/maps/custom_maps/Custom_8_Run_0_Map.csv,squared_error,9.909760995221087e-07,0.5013,0.3606,0.124122,0.878995,0.210000,0.800000,0.058682,0.030000,1.000000,2.000000,0.964963,0.115074,0.136405,0.694137,1.000000,0.906383,0.000000,0.000000,146.721275,1.262237,38.610000,0.800000,12.677714,0.785000,10.000000,2.000000,293.868509,0.834442,28.233162,0.694137,200.000000,9.110636,1.000000,0.000000,0
/home/daniel/Projects/ppsevolution/data/maps/custom_maps/Custom_8_Run_0_Map.csv,squared_error,2.503478446726538e-07,0.5005,0.3595,0.000000,0.897163,0.210000,0.824345,0.000000,0.139439,1.000000,1.000000,1.000000,0.000000,0.000000,0.742184,1.000000,1.000000,0.000000,0.000000,125.000000,1.272411,38.610000,0.824345,1.000000,1.824672,10.000000,1.000000,300.000000,0.770000,9.000000,0.742184,200.000000,10.000000,1.000000,0.000000,1
/home/daniel/Projects/ppsevolution/data/maps/custom_maps/Custom_8_Run_0_Map.csv,squared_error,4.1412169350181933e-07,0.5007,0.3605,0.110369,0.948755,0.210000,0.800000,0.030000,0.030000,0.990411,1.000000,1.000000,0.000000,0.058763,0.695184,1.000000,1.000000,0.426403,2.000000,144.314513,1.301303,38.610000,0.800000,6.970000,0.785000,9.913702,1.000000,300.000000,0.770000,17.285542,0.695184,200.000000,10.000000,4.837623,2.000000,2
/home/daniel/Projects/ppsevolution/data/maps/custom_maps/Custom_8_Run_0_Map.csv,squared_error,9.425360196992651e-07,0.5003,0.3613,0.000000,1.000000,0.210000,0.800000,0.000000,0.043703,0.883978,2.000000,1.000000,0.017111,0.257152,0.600000,1.000000,0.949469,0.023053,2.000000,125.000000,1.330000,38.610000,0.800000,1.000000,0.915177,8.955804,2.000000,300.000000,0.779582,45.258466,0.600000,200.000000,9.519952,1.207473,2.000000,3
/home/daniel/Projects/ppsevolution/data/maps/custom_maps/Custom_8_Run_0_Map.csv,squared_error,7.583571853111117e-07,0.5007,0.3610,0.000000,1.000000,0.210000,0.800000,0.030000,0.030000,1.000000,1.000000,0.877071,0.000000,0.127016,0.685476,1.000000,0.942861,0.006750,0.000000,125.000000,1.330000,38.610000,0.800000,6.970000,0.785000,10.000000,1.000000,278.487361,0.770000,26.909219,0.685476,200.000000,9.457182,1.060749,0.000000,4
/home/daniel/Projects/ppsevolution/data/maps/custom_maps/Custom_8_Run_0_Map.csv,squared_error,8.274150776401428e-07,0.5000,0.3613,0.000000,1.000000,0.296281,0.789813,0.000000,0.030000,1.000000,1.000000,1.000000,0.097782,0.100820,0.693607,1.000000,1.000000,0.000000,0.000000,125.000000,1.330000,50.775634,0.789813,1.000000,0.785000,10.000000,1.000000,300.000000,0.824758,23.215589,0.693607,200.000000,10.000000,1.000000,0.000000,5
/home/daniel/Projects/ppsevolution/data/maps/custom_maps/Custom_8_Run_0_Map.csv,squared_error,5.491189694375047e-07,0.5010,0.3603,0.000000,1.000000,0.210000,0.800000,0.030000,0.030000,1.000000,2.000000,1.000000,0.217688,0.000000,0.713126,1.000000,1.000000,0.000000,2.000000,125.000000,1.330000,38.610000,0.800000,6.970000,0.785000,10.000000,2.000000,300.000000,0.891905,9.000000,0.713126,200.000000,10.000000,1.000000,2.000000,6
/home/daniel/Projects/ppsevolution/data/maps/custom_maps/Custom_8_Run_0_Map.csv,squared_error,9.280947234515285e-07,0.5013,0.3605,0.000000,1.000000,0.210000,0.800000,0.030000,0.373080,1.000000,2.000000,0.967946,0.000000,0.278845,0.600000,0.907691,1.000000,0.000000,0.000000,125.000000,1.330000,38.610000,0.800000,6.970000,4.044257,10.000000,2.000000,294.390473,0.770000,48.317213,0.600000,181.630454,10.000000,1.000000,0.000000,7
/home/daniel/Projects/ppsevolution/data/maps/custom_maps/Custom_8_Run_0_Map.csv,squared_error,4.93935993097953e-07,0.5010,0.3603,0.000000,1.000000,0.219691,0.800000,0.030000,0.342269,0.826540,2.000000,0.968055,0.000000,0.000000,0.718870,1.000000,1.000000,0.000000,2.000000,125.000000,1.330000,39.976474,0.800000,6.970000,3.751557,8.438860,2.000000,294.409652,0.770000,9.000000,0.718870,200.000000,10.000000,1.000000,2.000000,8
/home/daniel/Projects/ppsevolution/data/maps/custom_maps/Custom_8_Run_0_Map.csv,squared_error,5.00686944451458e-07,0.5002,0.3610,0.000000,1.000000,0.210000,0.800000,0.157479,0.014427,1.000000,2.000000,1.000000,0.087315,0.269151,0.600000,0.859152,1.000000,0.000000,1.000000,125.000000,1.330000,38.610000,0.800000,32.338391,0.637055,10.000000,2.000000,300.000000,0.818897,46.950322,0.600000,171.971207,10.000000,1.000000,1.000000,9
map,fitness,fitness value,team0ratio,time,HP,Speed,Damage,Acc,ClipSize,RateOfFire,NrBullets,Range,HP,Speed,Damage,Acc,ClipSize,RateOfFire,NrBullets,Range,HP,Speed,Damage,Acc,ClipSize,RateOfFire,NrBullets,Range,HP,Speed,Damage,Acc,ClipSize,RateOfFire,NrBullets,Range,Run,target team0ratio: 0.5,target time: 0.36
/home/daniel/Projects/ppsevolution/data/maps/custom_maps/Custom_9_Run_0_Map.csv,squared_error,1.460658449616339e-07,0.4998,0.3595,0.000000,1.000000,0.153165,0.766264,0.030000,0.000000,1.000000,0.000000,1.000000,0.107126,0.000000,0.662412,1.000000,1.000000,0.079027,0.000000,125.000000,1.330000,30.596325,0.766264,6.970000,0.500000,10.000000,0.000000,300.000000,0.829990,9.000000,0.662412,200.000000,10.000000,1.711239,0.000000,0
/home/daniel/Projects/ppsevolution/data/maps/custom_maps/Custom_9_Run_0_Map.csv,squared_error,7.700614003660101e-07,0.4989,0.3594,0.000000,1.000000,0.210000,0.742499,0.135502,0.034054,0.940350,0.000000,1.000000,0.000000,0.130505,0.600000,1.000000,1.000000,0.050111,0.000000,125.000000,1.330000,38.610000,0.742499,27.964831,0.823509,9.463154,0.000000,300.000000,0.770000,27.401169,0.600000,200.000000,10.000000,1.450997,0.000000,1
/home/daniel/Projects/ppsevolution/data/maps/custom_maps/Custom_9_Run_0_Map.csv,squared_error,7.696619375181616e-08,0.4996,0.3601,0.000000,1.000000,0.216565,0.735988,0.030000,0.000000,1.000000,0.000000,1.000000,0.000000,0.127526,0.600000,1.000000,1.000000,0.000000,0.000000,125.000000,1.330000,39.535671,0.735988,6.970000,0.500000,10.000000,0.000000,300.000000,0.770000,26.981120,0.600000,200.000000,10.000000,1.000000,0.000000,2
/home/daniel/Projects/ppsevolution/data/maps/custom_maps/Custom_9_Run_0_Map.csv,squared_error,2.815729553653155e-07,0.5002,0.3607,0.112192,0.847603,0.096113,0.800000,0.024045,0.072677,0.806974,0.000000,1.000000,0.036438,0.000000,0.701326,1.000000,0.932321,0.000000,0.000000,144.633543,1.244658,22.551958,0.800000,5.785007,1.190428,8.262764,0.000000,300.000000,0.790405,9.000000,0.701326,200.000000,9.357051,1.000000,0.000000,3
/home/daniel/Projects/ppsevolution/data/maps/custom_maps/Custom_9_Run_0_Map.csv,squared_error,8.250071038197911e-07,0.5012,0.3604,0.000000,1.000000,0.210000,0.708104,0.154904,0.030000,1.000000,2.000000,0.966158,0.000000,0.000000,0.642039,1.000000,1.000000,0.000000,0.000000,125.000000,1.330000,38.610000,0.708104,31.825943,0.785000,10.000000,2.000000,294.077593,0.770000,9.000000,0.642039,200.000000,10.000000,1.000000,0.000000,4
/home/daniel/Projects/ppsevolution/data/maps/custom_maps/Custom_9_Run_0_Map.csv,squared_error,2.133017834427145e-06,0.4985,0.3585,0.020802,1.000000,0.210000,0.746819,0.030000,0.030000,0.953870,0.000000,1.000000,0.000000,0.000000,0.673486,1.000000,1.000000,0.000000,0.000000,128.640383,1.330000,38.610000,0.746819,6.970000,0.785000,9.584828,0.000000,300.000000,0.770000,9.000000,0.673486,200.000000,10.000000,1.000000,0.000000,5
/home/daniel/Projects/ppsevolution/data/maps/custom_maps/Custom_9_Run_0_Map.csv,squared_error,9.783845937285065e-07,0.5009,0.3589,0.000000,1.000000,0.081763,0.800000,0.030000,0.000000,0.909252,0.000000,1.000000,0.000000,0.159662,0.600000,1.000000,0.629346,0.000000,0.000000,125.000000,1.330000,20.528626,0.800000,6.970000,0.500000,9.183268,0.000000,300.000000,0.770000,31.512408,0.600000,200.000000,6.478789,1.000000,0.000000,6
/home/daniel/Projects/ppsevolution/data/maps/custom_maps/Custom_9_Run_0_Map.csv,squared_error,3.0305388310123045e-08,0.5002,0.3598,0.016677,1.000000,0.056041,0.800000,0.285481,0.030000,0.921825,0.000000,0.957248,0.000000,0.172769,0.600000,1.000000,1.000000,0.000000,0.000000,127.918498,1.330000,16.901795,0.800000,57.810711,0.785000,9.296425,0.000000,292.518336,0.770000,33.360400,0.600000,200.000000,10.000000,1.000000,0.000000,7
/home/daniel/Projects/ppsevolution/data/maps/custom_maps/Custom_9_Run_0_Map.csv,squared_error,1.467330105646903e-06,0.5002,0.3617,0.000000,1.000000,0.005336,0.800000,0.098293,0.117850,1.000000,1.000000,1.000000,0.000000,0.107088,0.600000,0.504162,1.000000,0.000000,2.000000,125.000000,1.330000,9.752331,0.800000,20.560400,1.619579,10.000000,1.000000,300.000000,0.770000,24.099381,0.600000,101.328141,10.000000,1.000000,2.000000,8
/home/daniel/Projects/ppsevolution/data/maps/custom_maps/Custom_9_Run_0_Map.csv,squared_error,4.743383374545575e-08,0.5002,0.3598,0.000000,0.994753,0.088425,0.800000,0.133931,0.030000,0.920344,0.000000,1.000000,0.252237,0.000000,0.676013,1.000000,0.904754,0.000000,0.000000,125.000000,1.327062,21.467973,0.800000,27.652245,0.785000,9.283100,0.000000,300.000000,0.911253,9.000000,0.676013,200.000000,9.095160,1.000000,0.000000,9
map,fitness,fitness value,team0ratio,time,HP,Speed,Damage,Acc,ClipSize,RateOfFire,NrBullets,Range,HP,Speed,Damage,Acc,ClipSize,RateOfFire,NrBullets,Range,HP,Speed,Damage,Acc,ClipSize,RateOfFire,NrBullets,Range,HP,Speed,Damage,Acc,ClipSize,RateOfFire,NrBullets,Range,Run,target team0ratio: 0.5,target time: 0.36
/home/daniel/Projects/ppsevolution/data/maps/custom_maps/Custom_10_Run_0_Map.csv,squared_error,6.0311705239235776e-05,0.5022,0.3708,0.000000,1.000000,0.554871,0.983144,0.017754,0.001528,1.000000,2.000000,0.514808,0.015026,0.226666,1.000000,1.000000,0.780164,0.999489,2.000000,125.000000,1.330000,87.236846,0.983144,4.533030,0.514514,10.000000,2.000000,215.091425,0.778415,40.959965,1.000000,200.000000,7.911562,9.995400,2.000000,0
/home/daniel/Projects/ppsevolution/data/maps/custom_maps/Custom_10_Run_0_Map.csv,squared_error,2.5976705059662462e-06,0.5012,0.3619,0.333903,0.979390,1.000000,0.949514,0.019767,0.430809,1.000000,2.000000,0.423609,0.113308,0.690129,0.982533,0.561350,0.723269,0.622387,2.000000,183.433099,1.318459,150.000000,0.949514,4.933574,4.592685,10.000000,2.000000,199.131549,0.833453,106.308211,0.982533,112.708624,7.371055,6.601481,2.000000,1
/home/daniel/Projects/ppsevolution/data/maps/custom_maps/Custom_10_Run_0_Map.csv,squared_error,1.8155795542447427e-05,0.4985,0.3658,0.147380,1.000000,1.000000,0.947322,0.000000,0.000000,0.924709,2.000000,0.524762,0.000000,0.524870,0.974410,0.798873,0.267794,0.693379,2.000000,150.791444,1.330000,150.000000,0.947322,1.000000,0.500000,9.322378,2.000000,216.833338,0.770000,83.006699,0.974410,159.975783,3.044048,7.240409,2.000000,2
/home/daniel/Projects/ppsevolution/data/maps/custom_maps/Custom_10_Run_0_Map.csv,squared_error,4.296183264762771e-06,0.4999,0.3629,0.000000,0.962513,1.000000,0.911715,0.000000,0.181657,1.000000,2.000000,0.127234,0.053761,0.892292,0.938829,1.000000,0.550620,0.834196,0.000000,125.000000,1.309008,150.000000,0.911715,1.000000,2.225740,10.000000,2.000000,147.265939,0.800106,134.813124,0.938829,200.000000,5.730886,8.507764,0.000000,3
/home/daniel/Projects/ppsevolution/data/maps/custom_maps/Custom_10_Run_0_Map.csv,squared_error,1.3540040963398134e-05,0.5020,0.3648,0.048355,0.853967,0.772976,1.000000,0.068093,0.153377,0.990350,2.000000,0.570781,0.000000,0.707639,1.000000,0.845808,0.809170,0.210667,2.000000,133.462123,1.248221,117.989553,1.000000,14.550600,1.957083,9.913148,2.000000,224.886623,0.770000,108.777120,1.000000,169.315813,8.187118,2.896006,2.000000,4
/home/daniel/Projects/ppsevolution/data/maps/custom_maps/Custom_10_Run_0_Map.csv,squared_error,3.336643551958869e-05,0.5011,0.3681,0.000000,1.000000,0.451962,1.000000,0.000000,0.599260,1.000000,2.000000,0.333665,0.177434,0.998978,0.961143,1.000000,0.840824,0.779623,2.000000,125.000000,1.330000,72.726676,1.000000,1.000000,6.192966,10.000000,2.000000,183.391303,0.869363,149.855938,0.961143,200.000000,8.487825,8.016609,2.000000,5
/home/daniel/Projects/ppsevolution/data/maps/custom_maps/Custom_10_Run_0_Map.csv,squared_error,6.38790418915883e-05,0.5050,0.3701,0.119884,0.897074,0.805949,1.000000,0.184581,0.030666,1.000000,2.000000,0.964270,0.241920,0.378115,1.000000,0.792836,0.435393,0.733143,2.000000,145.979623,1.272361,122.638820,1.000000,37.731615,0.791330,10.000000,2.000000,293.747291,0.905475,62.314213,1.000000,158.774278,4.636231,7.598285,2.000000,6
/home/daniel/Projects/ppsevolution/data/maps/custom_maps/Custom_10_Run_0_Map.csv,squared_error,3.1046479274539354e-05,0.4974,0.3674,0.000000,0.971474,0.565652,1.000000,0.114975,0.000000,1.000000,2.000000,0.496108,0.115283,0.811918,0.976751,0.696893,0.617132,0.897668,2.000000,125.000000,1.314025,88.756979,1.000000,23.880017,0.500000,10.000000,2.000000,211.818916,0.834558,123.480426,0.976751,139.681715,6.362756,9.079011,2.000000,7
/home/daniel/Projects/ppsevolution/data/maps/custom_maps/Custom_10_Run_0_Map.csv,squared_error,1.555177536713551e-05,0.5006,0.3655,0.018163,1.000000,1.000000,0.898320,0.000000,0.236821,1.000000,2.000000,0.120654,0.201591,1.000000,0.908372,1.000000,0.289750,1.000000,2.000000,128.178461,1.330000,150.000000,0.898320,1.000000,2.749797,10.000000,2.000000,146.114491,0.882891,150.000000,0.908372,200.000000,3.252621,10.000000,2.000000,8
/home/daniel/Projects/ppsevolution/data/maps/custom_maps/Custom_10_Run_0_Map.csv,squared_error,0.00010777232020449593,0.5016,0.3746,0.000000,1.000000,0.532301,1.000000,0.000000,0.608301,1.000000,2.000000,0.804369,0.000000,0.170541,1.000000,1.000000,0.613215,1.000000,2.000000,125.000000,1.330000,84.054383,1.000000,1.000000,6.278863,10.000000,2.000000,265.764594,0.770000,33.046259,1.000000,200.000000,6.325542,10.000000,2.000000,9
