map,fitness,fitness value,team0ratio,time,HP,Speed,Damage,Acc,ClipSize,RateOfFire,NrBullets,Range,HP,Speed,Damage,Acc,ClipSize,RateOfFire,NrBullets,Range,HP,Speed,Damage,Acc,ClipSize,RateOfFire,NrBullets,Range,HP,Speed,Damage,Acc,ClipSize,RateOfFire,NrBullets,Range,Run,target team0ratio: 0.5,target time: 0.14
/home/daniel/Projects/ppsevolution/data/maps/custom_maps/Custom_1_Run_0_Map.csv,squared_error,0.00024332072433807183,0.4939,0.1612,0.000000,1.000000,0.676211,1.000000,0.152386,0.025351,1.000000,2.000000,1.000000,0.711288,1.000000,1.000000,0.798718,0.930949,0.294976,2.000000,125.000000,1.330000,104.345818,1.000000,31.324806,0.740836,10.000000,2.000000,300.000000,1.168321,150.000000,1.000000,159.944901,9.344016,3.654781,2.000000,0
/home/daniel/Projects/ppsevolution/data/maps/custom_maps/Custom_1_Run_0_Map.csv,squared_error,0.00026169303617361794,0.5013,0.1628,0.000000,1.000000,0.666930,0.977438,0.156319,0.143899,0.988233,2.000000,0.609946,0.000000,0.724492,1.000000,1.000000,0.849434,0.449634,2.000000,125.000000,1.330000,103.037119,0.977438,32.107578,1.867037,9.894100,2.000000,231.740521,0.770000,111.153377,1.000000,200.000000,8.569624,5.046706,2.000000,1
/home/daniel/Projects/ppsevolution/data/maps/custom_maps/Custom_1_Run_0_Map.csv,squared_error,0.0004401425191117168,0.5094,0.1681,0.000000,0.925023,0.535575,1.000000,0.110079,0.104963,0.541609,2.000000,0.941474,0.445770,0.636810,1.000000,0.941705,0.866619,0.300253,2.000000,125.000000,1.288013,84.516119,1.000000,22.905755,1.497148,5.874484,2.000000,289.758014,1.019631,98.790278,1.000000,188.399380,8.732879,3.702281,2.000000,2
/home/daniel/Projects/ppsevolution/data/maps/custom_maps/Custom_1_Run_0_Map.csv,squared_error,0.00020466593508963618,0.5012,0.1602,0.000000,0.594135,0.410547,1.000000,0.072101,0.000000,1.000000,2.000000,0.261363,0.272761,0.964702,1.000000,0.863586,0.006977,0.514424,1.000000,125.000000,1.102716,66.887099,1.000000,15.348086,0.500000,10.000000,2.000000,170.738438,0.922746,145.022988,1.000000,172.853603,0.566285,5.629817,1.000000,3
/home/daniel/Projects/ppsevolution/data/maps/custom_maps/Custom_1_Run_0_Map.csv,squared_error,0.000153154485040865,0.5024,0.1573,0.000000,0.881100,0.333819,1.000000,0.012427,0.746064,1.000000,2.000000,0.139736,0.541240,1.000000,1.000000,0.907261,0.359383,0.581692,2.000000,125.000000,1.263416,56.068414,1.000000,3.473024,7.587608,10.000000,2.000000,149.453755,1.073095,150.000000,1.000000,181.544887,3.914138,6.235226,2.000000,4
/home/daniel/Projects/ppsevolution/data/maps/custom_maps/Custom_1_Run_0_Map.csv,squared_error,0.00020135632356669476,0.4986,0.1600,0.127371,0.864929,0.271131,0.997849,0.194988,0.154651,1.000000,2.000000,0.208991,0.003765,1.000000,1.000000,0.652960,0.746583,0.245205,2.000000,147.289910,1.254360,47.229424,0.997849,39.802678,1.969181,10.000000,2.000000,161.573459,0.772109,150.000000,1.000000,130.938981,7.592536,3.206843,2.000000,5
/home/daniel/Projects/ppsevolution/data/maps/custom_maps/Custom_1_Run_0_Map.csv,squared_error,0.00019879111917834528,0.5036,0.1596,0.000000,0.982194,0.425303,1.000000,0.000000,0.195547,0.980659,1.000000,0.274024,0.129931,0.965798,1.000000,0.964106,0.653915,0.472760,2.000000,125.000000,1.320028,68.967726,1.000000,1.000000,2.357694,9.825934,1.000000,172.954175,0.842762,145.177460,1.000000,192.857123,6.712189,5.254842,2.000000,6
/home/daniel/Projects/ppsevolution/data/maps/custom_maps/Custom_1_Run_0_Map.csv,squared_error,0.0003239153022249529,0.5085,0.1640,0.000000,0.744664,0.277361,1.000000,0.000000,0.143327,0.915774,1.000000,0.229018,0.000000,0.727767,1.000000,0.881705,0.918834,0.226289,2.000000,125.000000,1.187012,48.107910,1.000000,1.000000,1.861611,9.241970,1.000000,165.078070,0.770000,111.615105,1.000000,176.459203,9.228926,3.036603,2.000000,7
/home/daniel/Projects/ppsevolution/data/maps/custom_maps/Custom_1_Run_0_Map.csv,squared_error,0.0003162525459516051,0.4945,0.1646,0.000000,0.580220,0.023339,1.000000,0.000000,0.327000,0.911891,2.000000,0.000000,0.485530,0.664041,1.000000,0.636041,0.679264,0.005923,2.000000,125.000000,1.094923,12.290757,1.000000,1.000000,3.606501,9.207021,2.000000,125.000000,1.041897,102.629788,1.000000,127.572153,6.953011,1.053307,2.000000,8
/home/daniel/Projects/ppsevolution/data/maps/custom_maps/Custom_1_Run_0_Map.csv,squared_error,0.0002732538691776608,0.4991,0.1634,0.000000,0.834816,0.347723,1.000000,0.277196,0.409435,0.982466,2.000000,0.483027,0.334487,0.765378,1.000000,1.000000,0.823869,0.216545,2.000000,125.000000,1.237497,58.028993,1.000000,56.161933,4.389629,9.842190,2.000000,209.529801,0.957313,116.918296,1.000000,200.000000,8.326756,2.948908,2.000000,9
map,fitness,fitness value,team0ratio,time,HP,Speed,Damage,Acc,ClipSize,RateOfFire,NrBullets,Range,HP,Speed,Damage,Acc,ClipSize,RateOfFire,NrBullets,Range,HP,Speed,Damage,Acc,ClipSize,RateOfFire,NrBullets,Range,HP,Speed,Damage,Acc,ClipSize,RateOfFire,NrBullets,Range,Run,target team0ratio: 0.5,target time: 0.14
/home/daniel/Projects/ppsevolution/data/maps/custom_maps/Custom_2_Run_0_Map.csv,squared_error,0.031494014764415566,0.4445,0.3848,0.010066,0.402484,0.621851,1.000000,0.035820,0.000000,1.000000,2.000000,1.000000,0.320325,1.000000,1.000000,0.997533,1.000000,0.611451,2.000000,126.761631,0.995391,96.680945,1.000000,8.128140,0.500000,10.000000,2.000000,300.000000,0.949382,150.000000,1.000000,199.509084,10.000000,6.503061,2.000000,0
/home/daniel/Projects/ppsevolution/data/maps/custom_maps/Custom_2_Run_0_Map.csv,squared_error,0.03102309349586375,0.4655,0.3867,0.000000,0.877141,0.715657,1.000000,0.065474,0.000000,1.000000,2.000000,0.933972,0.421652,1.000000,1.000000,0.777113,0.857675,0.764154,2.000000,125.000000,1.261199,109.907649,1.000000,14.029373,0.500000,10.000000,2.000000,288.445053,1.006125,150.000000,1.000000,155.645398,8.647912,7.877390,2.000000,1
/home/daniel/Projects/ppsevolution/data/maps/custom_maps/Custom_2_Run_0_Map.csv,squared_error,0.03125082324032438,0.4593,0.3867,0.157169,1.000000,0.542972,1.000000,0.226112,0.000000,1.000000,2.000000,0.827509,0.000000,1.000000,1.000000,0.654088,0.889242,0.957245,2.000000,152.504580,1.330000,85.559054,1.000000,45.996356,0.500000,10.000000,2.000000,269.814017,0.770000,150.000000,1.000000,131.163524,8.947799,9.615205,2.000000,2
/home/daniel/Projects/ppsevolution/data/maps/custom_maps/Custom_2_Run_0_Map.csv,squared_error,0.03084856535132356,0.4686,0.3864,0.000000,0.726875,0.577374,1.000000,0.000000,0.095327,0.883210,2.000000,0.716756,0.056623,1.000000,0.997137,1.000000,1.000000,0.934454,2.000000,125.000000,1.177050,90.409733,1.000000,1.000000,1.405606,8.948894,2.000000,250.432329,0.801709,150.000000,0.997137,200.000000,10.000000,9.410090,2.000000,3
/home/daniel/Projects/ppsevolution/data/maps/custom_maps/Custom_2_Run_0_Map.csv,squared_error,0.0309133162995317,0.4429,0.3820,0.072558,0.718779,0.334890,1.000000,0.000000,0.034640,1.000000,2.000000,0.543142,0.185340,1.000000,1.000000,1.000000,0.898206,1.000000,2.000000,137.697712,1.172516,56.219474,1.000000,1.000000,0.829077,10.000000,2.000000,220.049921,0.873790,150.000000,1.000000,200.000000,9.032961,10.000000,2.000000,4
/home/daniel/Projects/ppsevolution/data/maps/custom_maps/Custom_2_Run_0_Map.csv,squared_error,0.030911580707873133,0.4684,0.3866,0.000000,0.933162,0.506455,1.000000,0.075332,0.000000,0.834291,2.000000,0.635301,0.764730,1.000000,0.995403,0.673251,0.915432,1.000000,2.000000,125.000000,1.292571,80.410090,1.000000,15.991043,0.500000,8.508615,2.000000,236.177723,1.198249,150.000000,0.995403,134.977029,9.196604,10.000000,2.000000,5
/home/daniel/Projects/ppsevolution/data/maps/custom_maps/Custom_2_Run_0_Map.csv,squared_error,0.03179791677396428,0.4512,0.3874,0.008760,1.000000,0.664859,1.000000,0.177543,0.053370,1.000000,2.000000,1.000000,0.252306,1.000000,1.000000,1.000000,1.000000,0.294456,2.000000,126.532919,1.330000,102.745085,1.000000,36.330966,1.007012,10.000000,2.000000,300.000000,0.911291,150.000000,1.000000,200.000000,10.000000,3.650103,2.000000,6
/home/daniel/Projects/ppsevolution/data/maps/custom_maps/Custom_2_Run_0_Map.csv,squared_error,0.031218849012909573,0.4767,0.3888,0.000000,0.922684,0.647883,1.000000,0.086398,0.000000,1.000000,2.000000,0.773390,0.393716,1.000000,0.993029,0.626388,0.828838,0.838121,2.000000,125.000000,1.286703,100.351502,1.000000,18.193285,0.500000,10.000000,2.000000,260.343308,0.990481,150.000000,0.993029,125.651118,8.373964,8.543089,2.000000,7
/home/daniel/Projects/ppsevolution/data/maps/custom_maps/Custom_2_Run_0_Map.csv,squared_error,0.03093770727797943,0.4631,0.3860,0.000000,0.610279,0.692853,1.000000,0.000000,0.000000,1.000000,2.000000,0.844112,0.717093,0.994231,1.000000,0.954440,0.410997,1.000000,2.000000,125.000000,1.111756,106.692223,1.000000,1.000000,0.500000,10.000000,2.000000,272.719553,1.171572,149.186596,1.000000,190.933507,4.404468,10.000000,2.000000,8
/home/daniel/Projects/ppsevolution/data/maps/custom_maps/Custom_2_Run_0_Map.csv,squared_error,0.03117086845127843,0.4510,0.3848,0.063109,1.000000,0.522385,1.000000,0.000287,0.274100,0.879074,2.000000,0.835821,0.000000,0.964577,1.000000,0.892805,0.961866,1.000000,2.000000,136.044075,1.330000,82.656299,1.000000,1.057049,3.103953,8.911664,2.000000,271.268623,0.770000,145.005287,1.000000,178.668188,9.637728,10.000000,2.000000,9
map,fitness,fitness value,team0ratio,time,HP,Speed,Damage,Acc,ClipSize,RateOfFire,NrBullets,Range,HP,Speed,Damage,Acc,ClipSize,RateOfFire,NrBullets,Range,HP,Speed,Damage,Acc,ClipSize,RateOfFire,NrBullets,Range,HP,Speed,Damage,Acc,ClipSize,RateOfFire,NrBullets,Range,Run,target team0ratio: 0.5,target time: 0.14
/home/daniel/Projects/ppsevolution/data/maps/custom_maps/Custom_3_Run_0_Map.csv,squared_error,0.05554684467078109,0.4996,0.4733,0.000000,0.803693,0.946831,0.960149,0.109664,0.055439,0.907664,2.000000,0.004845,0.000000,1.000000,1.000000,0.799844,0.657114,0.869761,2.000000,125.000000,1.220068,142.503104,0.960149,22.823159,1.026675,9.168972,2.000000,125.847901,0.770000,150.000000,1.000000,160.168964,6.742578,8.827847,2.000000,0
/home/daniel/Projects/ppsevolution/data/maps/custom_maps/Custom_3_Run_0_Map.csv,squared_error,0.05524990162589158,0.5624,0.4665,0.000000,0.131107,0.960465,0.998039,0.107968,0.382546,1.000000,2.000000,0.000000,0.000000,0.940588,1.000000,1.000000,0.140912,0.973686,2.000000,125.000000,0.843420,144.425589,0.998039,22.485697,4.134184,10.000000,2.000000,125.000000,0.770000,141.622941,1.000000,200.000000,1.838662,9.763170,2.000000,1
/home/daniel/Projects/ppsevolution/data/maps/custom_maps/Custom_3_Run_0_Map.csv,squared_error,0.055348658370026935,0.5525,0.4685,0.018960,0.706408,0.988277,1.000000,0.088516,0.000000,1.000000,2.000000,0.255127,0.242443,1.000000,1.000000,0.877100,0.143326,0.998414,2.000000,128.317962,1.165589,148.347017,1.000000,18.614598,0.500000,10.000000,2.000000,169.647224,0.905768,150.000000,1.000000,175.542957,1.861597,9.985724,2.000000,2
/home/daniel/Projects/ppsevolution/data/maps/custom_maps/Custom_3_Run_0_Map.csv,squared_error,0.056230449511470326,0.5108,0.4752,0.000000,0.772484,1.000000,0.986489,0.188202,0.099124,1.000000,2.000000,0.556246,0.030976,1.000000,1.000000,0.988439,0.937930,0.648481,2.000000,125.000000,1.202591,150.000000,0.986489,38.452270,1.441676,10.000000,2.000000,222.343036,0.787347,150.000000,1.000000,197.699357,9.410340,6.836332,2.000000,3
/home/daniel/Projects/ppsevolution/data/maps/custom_maps/Custom_3_Run_0_Map.csv,squared_error,0.055105286538828395,0.5563,0.4672,0.041754,0.468732,1.000000,0.990409,0.017037,0.339219,1.000000,2.000000,0.000000,0.000000,0.921976,1.000000,0.734268,0.000000,1.000000,1.000000,132.306979,1.032490,150.000000,0.990409,4.390384,3.722581,10.000000,2.000000,125.000000,0.770000,138.998561,1.000000,147.119343,0.500000,10.000000,1.000000,4
/home/daniel/Projects/ppsevolution/data/maps/custom_maps/Custom_3_Run_0_Map.csv,squared_error,0.05616202410535794,0.5075,0.4751,0.000000,1.000000,0.980396,0.977571,0.033175,0.004010,0.929648,2.000000,0.418312,0.510031,1.000000,1.000000,0.970247,0.887772,0.710878,2.000000,125.000000,1.330000,147.235873,0.977571,7.601909,0.538094,9.366829,2.000000,198.204548,1.055618,150.000000,1.000000,194.079091,8.933831,7.397901,2.000000,5
/home/daniel/Projects/ppsevolution/data/maps/custom_maps/Custom_3_Run_0_Map.csv,squared_error,0.05468356036605923,0.5448,0.4677,0.000000,0.900256,1.000000,0.986191,0.247896,0.342442,1.000000,2.000000,0.000000,0.227091,1.000000,1.000000,0.753315,0.068410,1.000000,2.000000,125.000000,1.274143,150.000000,0.986191,50.331241,3.753200,10.000000,2.000000,125.000000,0.897171,150.000000,1.000000,150.909623,1.149895,10.000000,2.000000,6
/home/daniel/Projects/ppsevolution/data/maps/custom_maps/Custom_3_Run_0_Map.csv,squared_error,0.055882047205297054,0.5508,0.4704,0.115453,1.000000,1.000000,0.995615,0.000000,0.027916,1.000000,2.000000,0.129668,0.200101,0.998802,1.000000,0.735507,0.185200,0.331250,2.000000,145.204256,1.330000,150.000000,0.995615,1.000000,0.765205,10.000000,2.000000,147.691858,0.882057,149.831052,1.000000,147.365974,2.259404,3.981246,2.000000,7
/home/daniel/Projects/ppsevolution/data/maps/custom_maps/Custom_3_Run_0_Map.csv,squared_error,0.056174422091303786,0.5581,0.4701,0.000000,0.261491,1.000000,1.000000,0.569012,0.603289,1.000000,2.000000,0.000000,0.052820,1.000000,1.000000,0.447050,0.296417,0.347880,2.000000,125.000000,0.916435,150.000000,1.000000,114.233303,6.231247,10.000000,2.000000,125.000000,0.799579,150.000000,1.000000,89.962900,3.315962,4.130921,2.000000,8
/home/daniel/Projects/ppsevolution/data/maps/custom_maps/Custom_3_Run_0_Map.csv,squared_error,0.0557792776681386,0.5371,0.4719,0.000000,0.951947,1.000000,0.983443,0.070212,0.613975,1.000000,2.000000,0.110127,0.182093,0.936670,1.000000,0.422902,0.591114,0.599788,2.000000,125.000000,1.303090,150.000000,0.983443,14.972243,6.332759,10.000000,2.000000,144.272154,0.871972,141.070455,1.000000,85.157429,6.115583,6.398091,2.000000,9
map,fitness,fitness value,team0ratio,time,HP,Speed,Damage,Acc,ClipSize,RateOfFire,NrBullets,Range,HP,Speed,Damage,Acc,ClipSize,RateOfFire,NrBullets,Range,HP,Speed,Damage,Acc,ClipSize,RateOfFire,NrBullets,Range,HP,Speed,Damage,Acc,ClipSize,RateOfFire,NrBullets,Range,Run,target team0ratio: 0.5,target time: 0.14
/home/daniel/Projects/ppsevolution/data/maps/custom_maps/Custom_4_Run_0_Map.csv,squared_error,0.0016346312190760053,0.5026,0.1971,0.000000,1.000000,0.951716,1.000000,0.000000,0.184205,0.959488,2.000000,0.511104,0.034113,1.000000,1.000000,0.696344,0.761081,0.364418,2.000000,125.000000,1.330000,143.192011,1.000000,1.000000,2.249944,9.635390,2.000000,214.443217,0.789103,150.000000,1.000000,139.572513,7.730272,4.279761,2.000000,0
/home/daniel/Projects/ppsevolution/data/maps/custom_maps/Custom_4_Run_0_Map.csv,squared_error,0.0017374957760800441,0.5026,0.1989,0.017569,0.404501,1.000000,1.000000,0.061735,0.000000,1.000000,2.000000,0.610623,0.325789,0.967697,1.000000,0.733117,0.937407,0.000000,2.000000,128.074529,0.996521,150.000000,1.000000,13.285363,0.500000,10.000000,2.000000,231.858948,0.952442,145.445305,1.000000,146.890249,9.405362,1.000000,2.000000,1
/home/daniel/Projects/ppsevolution/data/maps/custom_maps/Custom_4_Run_0_Map.csv,squared_error,0.0016464291376520274,0.5085,0.1968,0.068907,0.535595,0.757272,1.000000,0.000000,0.000000,0.873572,2.000000,0.062294,0.339237,1.000000,1.000000,0.896763,0.245987,0.016433,2.000000,137.058811,1.069933,115.775284,1.000000,1.000000,0.500000,8.862145,2.000000,135.901527,0.959973,150.000000,1.000000,179.455880,2.836876,1.147901,2.000000,2
/home/daniel/Projects/ppsevolution/data/maps/custom_maps/Custom_4_Run_0_Map.csv,squared_error,0.0016221300793528876,0.5080,0.1964,0.000000,0.693384,0.758400,1.000000,0.000000,0.018190,1.000000,1.000000,0.000000,0.168717,1.000000,1.000000,0.000000,0.676599,0.657383,2.000000,125.000000,1.158295,115.934457,1.000000,1.000000,0.672801,10.000000,1.000000,125.000000,0.864482,150.000000,1.000000,1.000000,6.927687,6.916443,2.000000,3
/home/daniel/Projects/ppsevolution/data/maps/custom_maps/Custom_4_Run_0_Map.csv,squared_error,0.0018423685898055048,0.5156,0.1987,0.000000,0.833580,1.000000,1.000000,0.476626,0.189737,0.985652,2.000000,0.563339,0.571724,0.994236,1.000000,0.720115,1.000000,0.586455,2.000000,125.000000,1.236805,150.000000,1.000000,95.848593,2.302501,9.870867,2.000000,223.584330,1.090165,149.187285,1.000000,144.302793,10.000000,6.278096,2.000000,4
/home/daniel/Projects/ppsevolution/data/maps/custom_maps/Custom_4_Run_0_Map.csv,squared_error,0.0016045499935772283,0.5109,0.1956,0.002341,0.456172,1.000000,1.000000,0.177522,0.000000,1.000000,2.000000,0.440279,0.632418,1.000000,1.000000,0.233143,0.286036,0.808211,2.000000,125.409663,1.025456,150.000000,1.000000,36.326844,0.500000,10.000000,2.000000,202.048784,1.124154,150.000000,1.000000,47.395474,3.217343,8.273903,2.000000,5
/home/daniel/Projects/ppsevolution/data/maps/custom_maps/Custom_4_Run_0_Map.csv,squared_error,0.0016228940920008077,0.5013,0.1970,0.021421,0.780991,0.867880,0.989332,0.355226,0.003759,0.995502,2.000000,0.144518,0.028190,1.000000,1.000000,0.953902,0.694902,0.056105,2.000000,128.748706,1.207355,131.371035,0.989332,71.689967,0.535714,9.959517,2.000000,150.290727,0.785786,150.000000,1.000000,190.826476,7.101572,1.504942,2.000000,6
/home/daniel/Projects/ppsevolution/data/maps/custom_maps/Custom_4_Run_0_Map.csv,squared_error,0.0015988926673180253,0.5038,0.1964,0.000000,0.842784,1.000000,1.000000,0.000000,0.001432,0.933505,2.000000,0.520542,0.095094,1.000000,1.000000,0.942677,0.554867,0.258536,2.000000,125.000000,1.241959,150.000000,1.000000,1.000000,0.513608,9.401541,2.000000,216.094913,0.823253,150.000000,1.000000,188.592716,5.771236,3.326827,2.000000,7
/home/daniel/Projects/ppsevolution/data/maps/custom_maps/Custom_4_Run_0_Map.csv,squared_error,0.0015392132926123731,0.5030,0.1954,0.000000,1.000000,0.876279,1.000000,0.004614,0.164120,0.929271,2.000000,0.263804,0.000000,1.000000,1.000000,1.000000,0.248038,0.275127,2.000000,125.000000,1.330000,132.555342,1.000000,1.918206,2.059139,9.363438,2.000000,171.165777,0.770000,150.000000,1.000000,200.000000,2.856359,3.476144,2.000000,8
/home/daniel/Projects/ppsevolution/data/maps/custom_maps/Custom_4_Run_0_Map.csv,squared_error,0.0016389986127219197,0.5071,0.1968,0.039831,1.000000,1.000000,1.000000,0.000000,0.109754,0.870978,2.000000,0.491045,0.071461,1.000000,1.000000,0.947596,0.397196,0.263611,2.000000,131.970468,1.330000,150.000000,1.000000,1.000000,1.542668,8.838800,2.000000,210.932903,0.810018,150.000000,1.000000,189.571676,4.273360,3.372497,2.000000,9
map,fitness,fitness value,team0ratio,time,HP,Speed,Damage,Acc,ClipSize,RateOfFire,NrBullets,Range,HP,Speed,Damage,Acc,ClipSize,RateOfFire,NrBullets,Range,HP,Speed,Damage,Acc,ClipSize,RateOfFire,NrBullets,Range,HP,Speed,Damage,Acc,ClipSize,RateOfFire,NrBullets,Range,Run,target team0ratio: 0.5,target time: 0.14
/home/daniel/Projects/ppsevolution/data/maps/custom_maps/Custom_5_Run_0_Map.csv,squared_error,0.010641894603475237,0.5277,0.2832,0.346849,0.545460,1.000000,0.980313,0.000000,0.953855,1.000000,2.000000,0.000000,0.299825,0.999009,1.000000,0.401981,0.053679,0.148312,2.000000,185.698566,1.075457,150.000000,0.980313,1.000000,9.561625,10.000000,2.000000,125.000000,0.937902,149.860303,1.000000,80.994267,1.009954,2.334808,2.000000,0
/home/daniel/Projects/ppsevolution/data/maps/custom_maps/Custom_5_Run_0_Map.csv,squared_error,0.01055815279805752,0.5304,0.2821,0.237548,0.453100,1.000000,0.980604,0.000000,1.000000,1.000000,2.000000,0.055598,0.316735,0.992326,1.000000,0.556677,0.000000,0.841973,2.000000,166.570837,1.023736,150.000000,0.980604,1.000000,10.000000,10.000000,2.000000,134.729718,0.947371,148.917924,1.000000,111.778685,0.500000,8.577757,2.000000,1
/home/daniel/Projects/ppsevolution/data/maps/custom_maps/Custom_5_Run_0_Map.csv,squared_error,0.010646923836842917,0.5175,0.2849,0.000000,0.704407,1.000000,0.974073,0.030401,0.070992,0.938723,2.000000,0.000000,0.041504,0.974855,1.000000,0.522222,0.248659,0.652208,1.000000,125.000000,1.164468,150.000000,0.974073,7.049715,1.174422,9.448508,2.000000,125.000000,0.793243,146.454616,1.000000,104.922186,2.862263,6.869869,1.000000,2
/home/daniel/Projects/ppsevolution/data/maps/custom_maps/Custom_5_Run_0_Map.csv,squared_error,0.01110140624360038,0.5025,0.2890,0.060550,0.450182,1.000000,0.963186,0.116201,0.383918,0.952825,2.000000,0.000000,0.489297,0.944794,1.000000,0.709881,0.318789,0.304585,1.000000,135.596308,1.022102,150.000000,0.963186,24.123924,4.147221,9.575428,2.000000,125.000000,1.044006,142.215931,1.000000,142.266237,3.528491,3.741266,1.000000,3
/home/daniel/Projects/ppsevolution/data/maps/custom_maps/Custom_5_Run_0_Map.csv,squared_error,0.010959393697490712,0.5127,0.2875,0.000000,0.109783,1.000000,0.960403,0.640559,0.380988,1.000000,2.000000,0.000000,0.003848,0.685338,1.000000,0.878497,0.112709,0.804544,0.000000,125.000000,0.831478,150.000000,0.960403,128.471317,4.119390,10.000000,2.000000,125.000000,0.772155,105.632627,1.000000,175.820827,1.570734,8.240894,0.000000,4
/home/daniel/Projects/ppsevolution/data/maps/custom_maps/Custom_5_Run_0_Map.csv,squared_error,0.01090785619674404,0.5136,0.2871,0.113031,0.761425,1.000000,0.974968,0.000000,0.806941,0.967174,2.000000,0.066343,0.185178,0.840083,1.000000,0.177787,0.048662,0.255854,1.000000,144.780370,1.196398,150.000000,0.974968,1.000000,8.165938,9.704562,2.000000,136.610059,0.873700,127.451707,1.000000,36.379565,0.962285,3.302686,1.000000,5
/home/daniel/Projects/ppsevolution/data/maps/custom_maps/Custom_5_Run_0_Map.csv,squared_error,0.011144048294022284,0.5024,0.2893,0.000000,0.267329,0.993741,0.960162,0.007159,0.297164,1.000000,2.000000,0.005118,0.000000,0.922793,1.000000,0.895590,0.759589,0.376335,0.000000,125.000000,0.919704,149.117419,0.960162,2.424705,3.323056,10.000000,2.000000,125.895650,0.770000,139.113800,1.000000,179.222347,7.716099,4.387013,0.000000,6
/home/daniel/Projects/ppsevolution/data/maps/custom_maps/Custom_5_Run_0_Map.csv,squared_error,0.011270832870099928,0.5004,0.2901,0.170678,0.868161,1.000000,0.957181,0.217418,0.165744,1.000000,2.000000,0.019454,0.160026,0.941683,1.000000,0.812708,0.716449,0.206510,2.000000,154.868589,1.256170,150.000000,0.957181,44.266110,2.074564,10.000000,2.000000,128.404453,0.859614,141.777300,1.000000,162.728880,7.306265,2.858590,2.000000,7
/home/daniel/Projects/ppsevolution/data/maps/custom_maps/Custom_5_Run_0_Map.csv,squared_error,0.010773782037836839,0.5178,0.2857,0.191574,0.954285,1.000000,0.974947,0.305586,0.055650,0.959560,2.000000,0.000000,0.193064,0.946098,1.000000,0.812136,0.000000,0.171258,2.000000,158.525379,1.304400,150.000000,0.974947,61.811542,1.028678,9.636038,2.000000,125.000000,0.878116,142.399875,1.000000,162.615108,0.500000,2.541318,2.000000,8
/home/daniel/Projects/ppsevolution/data/maps/custom_maps/Custom_5_Run_0_Map.csv,squared_error,0.010759285932486934,0.5266,0.2843,0.400559,0.250042,1.000000,0.962092,0.000000,0.000000,1.000000,2.000000,0.000000,0.187456,0.793870,1.000000,0.378880,0.270659,0.790512,2.000000,195.097825,0.910024,150.000000,0.962092,1.000000,0.500000,10.000000,2.000000,125.000000,0.874975,120.935634,1.000000,76.397157,3.071259,8.114608,2.000000,9
map,fitness,fitness value,team0ratio,time,HP,Speed,Damage,Acc,ClipSize,RateOfFire,NrBullets,Range,HP,Speed,Damage,Acc,ClipSize,RateOfFire,NrBullets,Range,HP,Speed,Damage,Acc,ClipSize,RateOfFire,NrBullets,Range,HP,Speed,Damage,Acc,ClipSize,RateOfFire,NrBullets,Range,Run,target team0ratio: 0.5,target time: 0.14
/home/daniel/Projects/ppsevolution/data/maps/custom_maps/Custom_6_Run_0_Map.csv,squared_error,0.05883917778708393,0.4352,0.4769,0.108993,1.000000,0.000000,1.000000,0.081734,0.087920,0.207350,2.000000,1.000000,0.118269,0.874283,0.947415,0.681260,0.955439,0.929979,2.000000,144.073753,1.330000,9.000000,1.000000,17.265089,1.335243,2.866153,2.000000,300.000000,0.836231,132.273857,0.947415,136.570766,9.576671,9.369807,2.000000,0
/home/daniel/Projects/ppsevolution/data/maps/custom_maps/Custom_6_Run_0_Map.csv,squared_error,0.05834255982518369,0.4121,0.4701,0.000000,0.489341,0.007462,1.000000,0.180856,0.093644,0.882679,2.000000,0.973617,0.443133,0.974798,0.949267,0.998424,1.000000,1.000000,2.000000,125.000000,1.044031,10.052187,1.000000,36.990289,1.389616,8.944109,2.000000,295.383016,1.018154,146.446585,0.949267,199.686297,10.000000,10.000000,2.000000,1
/home/daniel/Projects/ppsevolution/data/maps/custom_maps/Custom_6_Run_0_Map.csv,squared_error,0.05923367150945064,0.4230,0.4755,0.000000,0.750777,0.022709,1.000000,0.032813,0.037834,0.800472,2.000000,1.000000,0.431027,1.000000,0.936654,0.640131,1.000000,0.586551,2.000000,125.000000,1.190435,12.201956,1.000000,7.529882,0.859421,8.204248,2.000000,300.000000,1.011375,150.000000,0.936654,128.386067,10.000000,6.278959,2.000000,2
/home/daniel/Projects/ppsevolution/data/maps/custom_maps/Custom_6_Run_0_Map.csv,squared_error,0.05882697630893513,0.3933,0.4660,0.087553,0.715322,0.000000,1.000000,0.000000,0.000000,1.000000,2.000000,1.000000,0.041476,0.977358,0.965275,0.975278,0.936848,0.665926,2.000000,140.321699,1.170580,9.000000,1.000000,1.000000,0.500000,10.000000,2.000000,300.000000,0.793227,146.807528,0.965275,195.080403,9.400055,6.993335,2.000000,3
/home/daniel/Projects/ppsevolution/data/maps/custom_maps/Custom_6_Run_0_Map.csv,squared_error,0.05844262867110131,0.3849,0.4619,0.000000,0.623389,0.000000,1.000000,0.249709,0.278469,0.492019,2.000000,1.000000,0.009547,0.953243,0.973278,0.991213,0.953817,0.982303,2.000000,125.000000,1.119098,9.000000,1.000000,50.692091,3.145456,5.428173,2.000000,300.000000,0.775346,143.407291,0.973278,198.251471,9.561264,9.840727,2.000000,4
/home/daniel/Projects/ppsevolution/data/maps/custom_maps/Custom_6_Run_0_Map.csv,squared_error,0.058622297348084274,0.3803,0.4608,0.053033,1.000000,0.000000,1.000000,0.000000,0.542446,0.785669,2.000000,1.000000,0.000000,1.000000,0.974520,0.934796,0.921596,0.961315,2.000000,134.280756,1.330000,9.000000,1.000000,1.000000,5.653232,8.071022,2.000000,300.000000,0.770000,150.000000,0.974520,187.024325,9.255158,9.651832,2.000000,5
/home/daniel/Projects/ppsevolution/data/maps/custom_maps/Custom_6_Run_0_Map.csv,squared_error,0.0582607831014064,0.3601,0.4514,0.000000,0.936067,0.000000,1.000000,0.171484,0.144704,0.246674,2.000000,1.000000,0.348609,1.000000,1.000000,0.936399,0.925769,0.999345,2.000000,125.000000,1.294197,9.000000,1.000000,35.125219,1.874684,3.220062,2.000000,300.000000,0.965221,150.000000,1.000000,187.343393,9.294808,9.994102,2.000000,6
/home/daniel/Projects/ppsevolution/data/maps/custom_maps/Custom_6_Run_0_Map.csv,squared_error,0.05976158130998225,0.3680,0.4595,0.133500,0.753342,0.000000,0.999937,0.177155,0.133635,0.589885,2.000000,0.967812,0.491864,0.993719,1.000000,1.000000,0.972847,0.584198,2.000000,148.362457,1.191872,9.000000,0.999937,36.253814,1.769535,6.308964,2.000000,294.367058,1.045444,149.114323,1.000000,200.000000,9.742050,6.257785,2.000000,7
/home/daniel/Projects/ppsevolution/data/maps/custom_maps/Custom_6_Run_0_Map.csv,squared_error,0.05872969280061041,0.3592,0.4525,0.000000,0.950390,0.000000,1.000000,0.031644,0.000000,0.507887,2.000000,1.000000,0.347703,0.965925,1.000000,0.853963,0.991882,0.794405,2.000000,125.000000,1.302218,9.000000,1.000000,7.297245,0.500000,5.570979,2.000000,300.000000,0.964714,145.195383,1.000000,170.938657,9.922878,8.149649,2.000000,8
/home/daniel/Projects/ppsevolution/data/maps/custom_maps/Custom_6_Run_0_Map.csv,squared_error,0.05838520811589196,0.4152,0.4710,0.000000,0.948627,0.000000,1.000000,0.000000,0.000000,0.666845,2.000000,1.000000,0.630031,1.000000,0.940243,0.893500,0.897388,0.552966,2.000000,125.000000,1.301231,9.000000,1.000000,1.000000,0.500000,7.001604,2.000000,300.000000,1.122817,150.000000,0.940243,178.806540,9.025184,5.976691,2.000000,9
map,fitness,fitness value,team0ratio,time,HP,Speed,Damage,Acc,ClipSize,RateOfFire,NrBullets,Range,HP,Speed,Damage,Acc,ClipSize,RateOfFire,NrBullets,Range,HP,Speed,Damage,Acc,ClipSize,RateOfFire,NrBullets,Range,HP,Speed,Damage,Acc,ClipSize,RateOfFire,NrBullets,Range,Run,target team0ratio: 0.5,target time: 0.14
/home/daniel/Projects/ppsevolution/data/maps/custom_maps/Custom_7_Run_0_Map.csv,squared_error,0.017193774895713956,0.4767,0.3240,0.138975,0.490568,0.511681,1.000000,0.000000,0.330008,0.883999,2.000000,0.620053,0.170742,1.000000,1.000000,0.695923,0.960050,0.592694,2.000000,149.320704,1.044718,81.147082,1.000000,1.000000,3.635072,8.955988,2.000000,233.509297,0.865615,150.000000,1.000000,139.488747,9.620477,6.334249,2.000000,0
/home/daniel/Projects/ppsevolution/data/maps/custom_maps/Custom_7_Run_0_Map.csv,squared_error,0.017438221899669728,0.5047,0.3267,0.015270,0.937404,0.499111,0.996900,0.187979,0.404125,0.811524,2.000000,0.219645,0.000000,0.971837,1.000000,0.909455,1.000000,0.677752,2.000000,127.672301,1.294946,79.374719,0.996900,38.407903,4.339184,8.303712,2.000000,163.437863,0.770000,146.028992,1.000000,181.981506,10.000000,7.099771,2.000000,1
/home/daniel/Projects/ppsevolution/data/maps/custom_maps/Custom_7_Run_0_Map.csv,squared_error,0.01670404683380521,0.4661,0.3196,0.023485,0.877297,0.692307,1.000000,0.023249,0.073165,0.988432,2.000000,0.922431,0.152873,1.000000,1.000000,0.671781,0.781710,1.000000,2.000000,129.109864,1.261286,106.615261,1.000000,5.626650,1.195066,9.895885,2.000000,286.425461,0.855609,150.000000,1.000000,134.684436,7.926248,10.000000,2.000000,2
/home/daniel/Projects/ppsevolution/data/maps/custom_maps/Custom_7_Run_0_Map.csv,squared_error,0.01733977106920622,0.4813,0.3253,0.000000,0.224101,0.449938,1.000000,0.000000,0.121429,1.000000,2.000000,0.384467,0.268201,0.869877,1.000000,0.719758,0.816515,0.441303,2.000000,125.000000,0.895496,72.441212,1.000000,1.000000,1.653573,10.000000,2.000000,192.281797,0.920193,131.652688,1.000000,144.231863,8.256891,4.971726,2.000000,3
/home/daniel/Projects/ppsevolution/data/maps/custom_maps/Custom_7_Run_0_Map.csv,squared_error,0.016675478288858063,0.4797,0.3215,0.000000,0.604886,0.650903,1.000000,0.000000,0.203348,1.000000,2.000000,0.825674,0.123429,0.895246,1.000000,1.000000,1.000000,1.000000,2.000000,125.000000,1.108736,100.777255,1.000000,1.000000,2.431808,10.000000,2.000000,269.492918,0.839120,135.229727,1.000000,200.000000,10.000000,10.000000,2.000000,4
/home/daniel/Projects/ppsevolution/data/maps/custom_maps/Custom_7_Run_0_Map.csv,squared_error,0.01695070528514406,0.4741,0.3223,0.000000,0.434511,0.510458,1.000000,0.045064,0.035921,0.972505,2.000000,0.594065,0.802209,0.933377,1.000000,0.958011,1.000000,0.632230,2.000000,125.000000,1.013326,80.974561,1.000000,9.967775,0.841247,9.752546,2.000000,228.961384,1.219237,140.606124,1.000000,191.644247,10.000000,6.690069,2.000000,5
/home/daniel/Projects/ppsevolution/data/maps/custom_maps/Custom_7_Run_0_Map.csv,squared_error,0.016897729552431812,0.4773,0.3224,0.000000,1.000000,0.579543,1.000000,0.000000,0.359242,0.935960,2.000000,0.669357,0.399410,0.956119,1.000000,0.944362,1.000000,0.674550,2.000000,125.000000,1.330000,90.715529,1.000000,1.000000,3.912798,9.423644,2.000000,242.137557,0.993670,143.812759,1.000000,188.928071,10.000000,7.070952,2.000000,6
/home/daniel/Projects/ppsevolution/data/maps/custom_maps/Custom_7_Run_0_Map.csv,squared_error,0.01686911728124284,0.4686,0.3210,0.000000,0.252778,0.405277,0.999315,0.125147,0.000000,0.818620,2.000000,0.375968,0.387757,1.000000,1.000000,0.558904,0.912824,0.978926,2.000000,125.000000,0.911555,66.144035,0.999315,25.904259,0.500000,8.367582,2.000000,190.794469,0.987144,150.000000,1.000000,112.221970,9.171826,9.810330,2.000000,7
/home/daniel/Projects/ppsevolution/data/maps/custom_maps/Custom_7_Run_0_Map.csv,squared_error,0.016702251152023662,0.4777,0.3214,0.000000,0.955156,0.267232,1.000000,0.032661,0.000000,0.908354,2.000000,0.163673,0.030157,0.885564,0.999533,0.902156,0.973872,0.848538,2.000000,125.000000,1.304887,46.679743,1.000000,7.499616,0.500000,9.175188,2.000000,153.642719,0.786888,133.864570,0.999533,180.529042,9.751782,8.636839,2.000000,8
/home/daniel/Projects/ppsevolution/data/maps/custom_maps/Custom_7_Run_0_Map.csv,squared_error,0.017107630369890405,0.4989,0.3250,0.000000,0.736869,0.563137,1.000000,0.033398,0.095202,1.000000,2.000000,0.383863,0.226784,1.000000,1.000000,0.123120,1.000000,0.522733,2.000000,125.000000,1.182647,88.402331,1.000000,7.646146,1.404419,10.000000,2.000000,192.176003,0.896999,150.000000,1.000000,25.500791,10.000000,5.704600,2.000000,9
map,fitness,fitness value,team0ratio,time,HP,Speed,Damage,Acc,ClipSize,RateOfFire,NrBullets,Range,HP,Speed,Damage,Acc,ClipSize,RateOfFire,NrBullets,Range,HP,Speed,Damage,Acc,ClipSize,RateOfFire,NrBullets,Range,HP,Speed,Damage,Acc,ClipSize,RateOfFire,NrBullets,Range,Run,target team0ratio: 0.5,target time: 0.14
/home/daniel/Projects/ppsevolution/data/maps/custom_maps/Custom_8_Run_0_Map.csv,squared_error,0.003064821589823742,0.4954,0.2182,0.000000,0.616132,0.962542,1.000000,0.122154,0.219020,0.805729,2.000000,0.701864,0.144303,1.000000,1.000000,0.906084,0.089499,0.755270,2.000000,125.000000,1.115034,144.718480,1.000000,25.308673,2.580693,8.251565,2.000000,247.826262,0.850810,150.000000,1.000000,181.310753,1.350244,7.797430,2.000000,0
/home/daniel/Projects/ppsevolution/data/maps/custom_maps/Custom_8_Run_0_Map.csv,squared_error,0.0031033297574357722,0.5030,0.2187,0.007274,0.804909,0.953208,1.000000,0.000000,0.475337,1.000000,2.000000,0.534502,0.000000,0.997788,1.000000,0.599283,0.363733,0.024838,2.000000,126.273014,1.220749,143.402277,1.000000,1.000000,5.015702,10.000000,2.000000,218.537826,0.770000,149.688067,1.000000,120.257218,3.955466,1.223546,2.000000,1
/home/daniel/Projects/ppsevolution/data/maps/custom_maps/Custom_8_Run_0_Map.csv,squared_error,0.003086079439244961,0.5010,0.2186,0.000000,0.811629,1.000000,1.000000,0.010365,0.060303,0.864128,2.000000,0.891483,0.493027,1.000000,1.000000,0.639151,0.692285,1.000000,2.000000,125.000000,1.224512,150.000000,1.000000,3.062570,1.072875,8.777152,2.000000,281.009598,1.046095,150.000000,1.000000,128.191013,7.076710,10.000000,2.000000,2
/home/daniel/Projects/ppsevolution/data/maps/custom_maps/Custom_8_Run_0_Map.csv,squared_error,0.003101835479989296,0.4998,0.2188,0.000000,0.753973,1.000000,1.000000,0.000000,0.335993,1.000000,2.000000,0.696604,0.000000,1.000000,1.000000,0.365940,0.473385,0.289717,2.000000,125.000000,1.192225,150.000000,1.000000,1.000000,3.691934,10.000000,2.000000,246.905706,0.770000,150.000000,1.000000,73.822153,4.997158,3.607457,2.000000,3
/home/daniel/Projects/ppsevolution/data/maps/custom_maps/Custom_8_Run_0_Map.csv,squared_error,0.0028902561100479385,0.4989,0.2160,0.000000,0.696104,0.686826,1.000000,0.079262,0.143104,1.000000,2.000000,0.273929,0.524175,0.946542,1.000000,0.895382,0.291435,0.817123,2.000000,125.000000,1.159818,105.842499,1.000000,16.773150,1.859484,10.000000,2.000000,172.937551,1.063538,142.462492,1.000000,179.181059,3.268629,8.354108,2.000000,4
/home/daniel/Projects/ppsevolution/data/maps/custom_maps/Custom_8_Run_0_Map.csv,squared_error,0.003100346488129423,0.5040,0.2186,0.000000,0.701895,0.867942,1.000000,0.000000,0.012488,1.000000,2.000000,0.638228,0.063177,0.870580,1.000000,0.345499,0.655181,0.636444,2.000000,125.000000,1.163061,131.379800,1.000000,1.000000,0.618635,10.000000,2.000000,236.689969,0.805379,131.751745,1.000000,69.754391,6.724219,6.727994,2.000000,5
/home/daniel/Projects/ppsevolution/data/maps/custom_maps/Custom_8_Run_0_Map.csv,squared_error,0.003021428277856563,0.4948,0.2176,0.000000,0.669332,0.619906,1.000000,0.359994,0.000000,1.000000,2.000000,0.222949,0.000000,1.000000,1.000000,0.962559,0.832718,0.426959,2.000000,125.000000,1.144826,96.406747,1.000000,72.638761,0.500000,10.000000,2.000000,164.016088,0.770000,150.000000,1.000000,192.549241,8.410822,4.842628,2.000000,6
/home/daniel/Projects/ppsevolution/data/maps/custom_maps/Custom_8_Run_0_Map.csv,squared_error,0.0032456306746591447,0.5118,0.2197,0.023817,0.536200,0.854557,1.000000,0.119481,0.000000,0.697054,2.000000,0.610713,0.151498,1.000000,1.000000,0.944926,1.000000,0.679241,2.000000,129.168006,1.070272,129.492500,1.000000,24.776777,0.500000,7.273489,2.000000,231.874762,0.854839,150.000000,1.000000,189.040254,10.000000,7.113168,2.000000,7
/home/daniel/Projects/ppsevolution/data/maps/custom_maps/Custom_8_Run_0_Map.csv,squared_error,0.0030247597186229304,0.4986,0.2178,0.000000,0.906561,0.474951,1.000000,0.239262,0.046946,0.953893,2.000000,0.000000,0.745319,1.000000,1.000000,0.771449,1.000000,0.449459,2.000000,125.000000,1.277674,75.968137,1.000000,48.613226,0.945986,9.585036,2.000000,125.000000,1.187378,150.000000,1.000000,154.518382,10.000000,5.045135,2.000000,8
/home/daniel/Projects/ppsevolution/data/maps/custom_maps/Custom_8_Run_0_Map.csv,squared_error,0.003045104457658171,0.5114,0.2172,0.000000,0.949365,0.842627,1.000000,0.000000,0.339056,0.937879,2.000000,0.418046,0.000000,1.000000,1.000000,0.762960,0.694490,0.430691,2.000000,125.000000,1.301645,127.810362,1.000000,1.000000,3.721033,9.440908,2.000000,198.158017,0.770000,150.000000,1.000000,152.829022,7.097652,4.876215,2.000000,9
map,fitness,fitness value,team0ratio,time,HP,Speed,Damage,Acc,ClipSize,RateOfFire,NrBullets,Range,HP,Speed,Damage,Acc,ClipSize,RateOfFire,NrBullets,Range,HP,Speed,Damage,Acc,ClipSize,RateOfFire,NrBullets,Range,HP,Speed,Damage,Acc,ClipSize,RateOfFire,NrBullets,Range,Run,target team0ratio: 0.5,target time: 0.14
/home/daniel/Projects/ppsevolution/data/maps/custom_maps/Custom_9_Run_0_Map.csv,squared_error,0.0014800894583995288,0.4948,0.1942,0.082879,0.890082,0.445126,0.999636,0.215588,0.153530,0.763966,2.000000,0.367863,0.254226,1.000000,1.000000,1.000000,0.717006,0.938015,1.000000,139.503814,1.268446,71.762722,0.999636,43.902084,1.958534,7.875697,2.000000,189.376069,0.912367,150.000000,1.000000,200.000000,7.311559,9.442137,1.000000,0
/home/daniel/Projects/ppsevolution/data/maps/custom_maps/Custom_9_Run_0_Map.csv,squared_error,0.0012147429474979883,0.5113,0.1880,0.000000,0.739715,0.591579,1.000000,0.143527,0.207662,1.000000,2.000000,0.148598,0.446750,1.000000,1.000000,0.989922,0.076691,0.101412,2.000000,125.000000,1.184241,92.412571,1.000000,29.561841,2.472789,10.000000,2.000000,151.004650,1.020180,150.000000,1.000000,197.994427,1.228569,1.912705,2.000000,1
/home/daniel/Projects/ppsevolution/data/maps/custom_maps/Custom_9_Run_0_Map.csv,squared_error,0.0012699523680515408,0.5020,0.1904,0.068851,1.000000,0.419147,1.000000,0.000000,0.070785,1.000000,2.000000,0.190277,0.576399,0.955136,1.000000,0.735182,0.613660,0.363321,2.000000,137.048982,1.330000,68.099716,1.000000,1.000000,1.172461,10.000000,2.000000,158.298560,1.092784,143.674166,1.000000,147.301314,6.329767,4.269888,2.000000,2
/home/daniel/Projects/ppsevolution/data/maps/custom_maps/Custom_9_Run_0_Map.csv,squared_error,0.001414758205388686,0.5005,0.1932,0.000000,0.332725,0.936527,1.000000,0.073955,0.000000,0.805400,2.000000,1.000000,0.176445,0.962744,1.000000,0.537921,0.521889,0.257695,2.000000,125.000000,0.956326,141.050336,1.000000,15.716969,0.500000,8.248603,2.000000,300.000000,0.868809,144.746953,1.000000,108.046366,5.457941,3.319252,2.000000,3
/home/daniel/Projects/ppsevolution/data/maps/custom_maps/Custom_9_Run_0_Map.csv,squared_error,0.0013700462908614237,0.5059,0.1920,0.031331,0.715332,0.668850,0.997567,0.075063,0.168932,0.904166,2.000000,0.518424,0.534056,0.948280,1.000000,0.993428,0.647974,0.194319,2.000000,130.482885,1.170586,103.307920,0.997567,15.937507,2.104857,9.137494,2.000000,215.724119,1.069071,142.707528,1.000000,198.692166,6.655752,2.748872,2.000000,4
/home/daniel/Projects/ppsevolution/data/maps/custom_maps/Custom_9_Run_0_Map.csv,squared_error,0.001172672062641666,0.4988,0.1884,0.000000,0.743882,0.357631,1.000000,0.070214,0.007001,0.973897,2.000000,0.135558,0.203885,1.000000,1.000000,0.637811,1.000000,0.949949,2.000000,125.000000,1.186574,59.426015,1.000000,14.972635,0.566512,9.765077,2.000000,148.722688,0.884175,150.000000,1.000000,127.924383,10.000000,9.549543,2.000000,5
/home/daniel/Projects/ppsevolution/data/maps/custom_maps/Custom_9_Run_0_Map.csv,squared_error,0.0012779679099638082,0.5005,0.1906,0.000000,0.873004,0.708386,1.000000,0.108034,0.070459,0.882246,2.000000,0.549735,0.308042,1.000000,1.000000,0.796246,0.309026,0.240643,2.000000,125.000000,1.258882,108.882371,1.000000,22.498803,1.169360,8.940217,2.000000,221.203689,0.942503,150.000000,1.000000,159.453041,3.435752,3.165787,2.000000,6
/home/daniel/Projects/ppsevolution/data/maps/custom_maps/Custom_9_Run_0_Map.csv,squared_error,0.001217815797384438,0.4990,0.1893,0.000000,0.745878,0.591282,1.000000,0.000000,0.190764,0.971349,2.000000,0.339508,0.000000,1.000000,1.000000,0.858930,0.440152,0.164208,2.000000,125.000000,1.187692,92.370714,1.000000,1.000000,2.312262,9.742142,2.000000,184.413866,0.770000,150.000000,1.000000,171.926986,4.681440,2.477869,2.000000,7
/home/daniel/Projects/ppsevolution/data/maps/custom_maps/Custom_9_Run_0_Map.csv,squared_error,0.0012223125821910225,0.5029,0.1894,0.000000,0.588792,0.657221,1.000000,0.000000,0.018363,0.973531,2.000000,0.530023,0.020432,0.991892,1.000000,0.599115,0.754170,0.563819,2.000000,125.000000,1.099724,101.668202,1.000000,1.000000,0.674446,9.761775,2.000000,217.754090,0.781442,148.856770,1.000000,120.223910,7.664619,6.074368,2.000000,8
/home/daniel/Projects/ppsevolution/data/maps/custom_maps/Custom_9_Run_0_Map.csv,squared_error,0.0012365534333872348,0.5091,0.1889,0.073983,0.540801,0.796920,0.965353,0.147915,0.000000,0.833715,2.000000,0.087649,0.000000,1.000000,1.000000,0.988428,1.000000,0.394032,2.000000,137.947103,1.072849,121.365750,0.965353,30.435169,0.500000,8.503436,2.000000,140.338536,0.770000,150.000000,1.000000,197.697249,10.000000,4.546290,2.000000,9
map,fitness,fitness value,team0ratio,time,HP,Speed,Damage,Acc,ClipSize,RateOfFire,NrBullets,Range,HP,Speed,Damage,Acc,ClipSize,RateOfFire,NrBullets,Range,HP,Speed,Damage,Acc,ClipSize,RateOfFire,NrBullets,Range,HP,Speed,Damage,Acc,ClipSize,RateOfFire,NrBullets,Range,Run,target team0ratio: 0.5,target time: 0.14
/home/daniel/Projects/ppsevolution/data/maps/custom_maps/Custom_10_Run_0_Map.csv,squared_error,0.02087710772336112,0.5434,0.3397,0.000000,0.767189,1.000000,1.000000,0.000000,0.418063,1.000000,2.000000,0.000000,0.190859,0.987669,1.000000,0.208285,0.000000,0.812088,1.000000,125.000000,1.199626,150.000000,1.000000,1.000000,4.471595,10.000000,2.000000,125.000000,0.876881,148.261279,1.000000,42.448794,0.500000,8.308791,1.000000,0
/home/daniel/Projects/ppsevolution/data/maps/custom_maps/Custom_10_Run_0_Map.csv,squared_error,0.020663098996816676,0.5387,0.3396,0.003126,0.496339,0.972860,1.000000,0.005020,0.891065,1.000000,2.000000,0.092590,0.164855,1.000000,1.000000,0.801268,0.000000,0.987944,0.000000,125.547111,1.047950,146.173279,1.000000,1.999031,8.965119,10.000000,2.000000,141.203259,0.862319,150.000000,1.000000,160.452255,0.500000,9.891498,0.000000,1
/home/daniel/Projects/ppsevolution/data/maps/custom_maps/Custom_10_Run_0_Map.csv,squared_error,0.02079598960790956,0.5421,0.3396,0.079681,0.226775,1.000000,0.993257,0.000000,0.660733,0.873958,2.000000,0.019466,0.155744,0.978055,1.000000,0.789626,0.000000,0.979598,0.000000,138.944090,0.896994,150.000000,0.993257,1.000000,6.776962,8.865618,2.000000,128.406553,0.857217,146.905696,1.000000,158.135582,0.500000,9.816385,0.000000,2
/home/daniel/Projects/ppsevolution/data/maps/custom_maps/Custom_10_Run_0_Map.csv,squared_error,0.021272790079813107,0.5369,0.3429,0.000000,0.792486,1.000000,0.986251,0.050855,0.297946,1.000000,2.000000,0.048307,0.053833,1.000000,1.000000,0.750430,0.766376,0.859036,0.000000,125.000000,1.213792,150.000000,0.986251,11.120149,3.330488,10.000000,2.000000,133.453722,0.800146,150.000000,1.000000,150.335518,7.780575,8.731325,0.000000,3
/home/daniel/Projects/ppsevolution/data/maps/custom_maps/Custom_10_Run_0_Map.csv,squared_error,0.021291576749270694,0.5139,0.3459,0.223017,0.975614,1.000000,0.966035,0.000000,0.696654,1.000000,2.000000,0.000000,0.487914,0.951664,1.000000,1.000000,0.203923,0.606019,0.000000,164.027910,1.316344,150.000000,0.966035,1.000000,7.118211,10.000000,2.000000,125.000000,1.043232,143.184559,1.000000,200.000000,2.437271,6.454173,0.000000,4
/home/daniel/Projects/ppsevolution/data/maps/custom_maps/Custom_10_Run_0_Map.csv,squared_error,0.021481375895155454,0.5340,0.3445,0.000000,1.000000,1.000000,1.000000,0.077636,0.014359,0.897467,2.000000,0.033024,0.000000,1.000000,1.000000,0.876256,0.000000,0.285738,2.000000,125.000000,1.330000,150.000000,1.000000,16.449621,0.636408,9.077204,2.000000,130.779185,0.770000,150.000000,1.000000,175.374893,0.500000,3.571642,2.000000,5
/home/daniel/Projects/ppsevolution/data/maps/custom_maps/Custom_10_Run_0_Map.csv,squared_error,0.021232770180938845,0.5456,0.3410,0.000000,0.842764,1.000000,1.000000,0.058884,0.138956,0.981916,2.000000,0.000000,0.000000,1.000000,1.000000,0.778583,0.198855,0.461193,0.000000,125.000000,1.241948,150.000000,1.000000,12.717845,1.820085,9.837240,2.000000,125.000000,0.770000,150.000000,1.000000,155.937925,2.389125,5.150738,0.000000,6
/home/daniel/Projects/ppsevolution/data/maps/custom_maps/Custom_10_Run_0_Map.csv,squared_error,0.02129430644330955,0.5508,0.3400,0.072415,0.906958,1.000000,1.000000,0.000000,0.571252,1.000000,2.000000,0.000000,0.000000,1.000000,1.000000,0.870185,0.440536,0.670351,2.000000,137.672689,1.277897,150.000000,1.000000,1.000000,5.926892,10.000000,2.000000,125.000000,0.770000,150.000000,1.000000,174.166809,4.685094,7.033162,2.000000,7
/home/daniel/Projects/ppsevolution/data/maps/custom_maps/Custom_10_Run_0_Map.csv,squared_error,0.020751734048099196,0.5469,0.3383,0.053390,0.701997,1.000000,1.000000,0.220016,0.939988,1.000000,2.000000,0.000000,0.219890,1.000000,1.000000,0.821061,0.000000,1.000000,2.000000,134.343304,1.163118,150.000000,1.000000,44.783281,9.429882,10.000000,2.000000,125.000000,0.893138,150.000000,1.000000,164.391202,0.500000,10.000000,2.000000,8
/home/daniel/Projects/ppsevolution/data/maps/custom_maps/Custom_10_Run_0_Map.csv,squared_error,0.020387808224612586,0.5508,0.3354,0.029575,1.000000,1.000000,1.000000,0.000000,1.000000,1.000000,2.000000,0.000000,0.000000,1.000000,1.000000,0.673198,0.053653,0.995387,0.000000,130.175627,1.330000,150.000000,1.000000,1.000000,10.000000,10.000000,2.000000,125.000000,0.770000,150.000000,1.000000,134.966332,1.009704,9.958485,0.000000,9
