map,fitness,fitness value,team0ratio,time,HP,Speed,Damage,Acc,ClipSize,RateOfFire,NrBullets,Range,HP,Speed,Damage,Acc,ClipSize,RateOfFire,NrBullets,Range,HP,Speed,Damage,Acc,ClipSize,RateOfFire,NrBullets,Range,HP,Speed,Damage,Acc,ClipSize,RateOfFire,NrBullets,Range,Run,target team0ratio: 0.5,target time: 0.36
/home/daniel/Projects/ppsevolution/data/maps/custom_maps/Custom_1_Run_0_Map.csv,squared_error,1.3057077217616982e-06,0.5015,0.3594,0.191002,0.924801,0.000000,0.753601,0.151196,0.100215,0.854310,2.000000,0.959150,0.116126,0.087458,0.600000,0.996795,0.988529,0.000000,0.000000,158.425415,1.287889,9.000000,0.753601,31.088094,1.452044,8.688788,2.000000,292.851224,0.835030,21.331634,0.600000,199.362128,9.891023,1.000000,0.000000,0
/home/daniel/Projects/ppsevolution/data/maps/custom_maps/Custom_1_Run_0_Map.csv,squared_error,3.778977275949502e-07,0.4992,0.3596,0.032086,1.000000,0.121208,0.729258,0.000000,0.000000,0.813155,0.000000,1.000000,0.629849,0.032804,0.587476,0.968094,0.923421,0.018709,1.000000,130.615072,1.330000,26.090306,0.729258,1.000000,0.500000,8.318393,0.000000,300.000000,1.122716,13.625429,0.587476,193.650698,9.272495,1.168379,1.000000,1
/home/daniel/Projects/ppsevolution/data/maps/custom_maps/Custom_1_Run_0_Map.csv,squared_error,2.7544398780959943e-07,0.5000,0.3593,0.000000,0.933014,0.306438,0.634437,0.101950,0.000000,0.640119,0.000000,1.000000,0.034241,0.000000,0.600000,0.970912,0.999206,0.000000,1.000000,125.000000,1.292488,52.207756,0.634437,21.288130,0.500000,6.761067,0.000000,300.000000,0.789175,9.000000,0.600000,194.211582,9.992457,1.000000,1.000000,2
/home/daniel/Projects/ppsevolution/data/maps/custom_maps/Custom_1_Run_0_Map.csv,squared_error,1.7613321414301913e-06,0.5001,0.3581,0.024563,0.848456,0.210000,0.624052,0.000000,0.008890,0.872639,1.000000,0.845868,0.208488,0.000000,0.578970,0.879625,0.902405,0.139197,2.000000,129.298565,1.245135,38.610000,0.624052,1.000000,0.584455,8.853751,1.000000,273.026832,0.886753,9.000000,0.578970,176.045352,9.072851,2.252777,2.000000,3
/home/daniel/Projects/ppsevolution/data/maps/custom_maps/Custom_1_Run_0_Map.csv,squared_error,7.309755369135512e-07,0.4988,0.3603,0.000000,0.945114,0.040339,0.749732,0.000000,0.030000,1.000000,1.000000,1.000000,0.144341,0.000000,0.600000,0.943389,1.000000,0.000000,0.000000,125.000000,1.299264,14.687835,0.749732,1.000000,0.785000,10.000000,1.000000,300.000000,0.850831,9.000000,0.600000,188.734445,10.000000,1.000000,0.000000,4
/home/daniel/Projects/ppsevolution/data/maps/custom_maps/Custom_1_Run_0_Map.csv,squared_error,8.512530577810699e-07,0.5013,0.3604,0.090841,1.000000,0.210000,0.660036,0.134772,0.023202,0.900759,1.000000,1.000000,0.000000,0.000000,0.600000,1.000000,0.932142,0.112441,1.000000,140.897127,1.330000,38.610000,0.660036,27.819603,0.720420,9.106831,1.000000,300.000000,0.770000,9.000000,0.600000,200.000000,9.355350,2.011972,1.000000,5
/home/daniel/Projects/ppsevolution/data/maps/custom_maps/Custom_1_Run_0_Map.csv,squared_error,6.184107487029991e-07,0.4997,0.3589,0.003519,1.000000,0.006668,0.721920,0.000000,0.196321,1.000000,2.000000,0.835850,0.000000,0.139425,0.497782,1.000000,1.000000,0.002642,0.000000,125.615888,1.330000,9.940193,0.721920,1.000000,2.365052,10.000000,2.000000,271.273707,0.770000,28.658856,0.497782,200.000000,10.000000,1.023776,0.000000,6
/home/daniel/Projects/ppsevolution/data/maps/custom_maps/Custom_1_Run_0_Map.csv,squared_error,2.9268277653499295e-07,0.5002,0.3593,0.067823,0.887663,0.456590,0.497965,0.000000,0.000000,1.000000,0.000000,1.000000,0.287834,0.000000,0.596757,1.000000,1.000000,0.000000,1.000000,136.869096,1.267091,73.379139,0.497965,1.000000,0.500000,10.000000,0.000000,300.000000,0.931187,9.000000,0.596757,200.000000,10.000000,1.000000,1.000000,7
/home/daniel/Projects/ppsevolution/data/maps/custom_maps/Custom_1_Run_0_Map.csv,squared_error,4.785511559248452e-07,0.4996,0.3609,0.059564,1.000000,0.024957,0.669713,0.030000,0.301487,1.000000,2.000000,0.683079,0.219771,0.057713,0.549345,1.000000,0.949216,0.000000,2.000000,135.423641,1.330000,12.518975,0.669713,6.970000,3.364124,10.000000,2.000000,244.538870,0.893072,17.137543,0.549345,200.000000,9.517554,1.000000,2.000000,8
/home/daniel/Projects/ppsevolution/data/maps/custom_maps/Custom_1_Run_0_Map.csv,squared_error,4.3116357372882224e-07,0.5001,0.3609,0.000000,0.620754,0.000000,0.692848,0.375626,0.000000,1.000000,0.000000,0.601744,0.000000,0.000000,0.600000,1.000000,1.000000,0.000000,1.000000,125.000000,1.117622,9.000000,0.692848,75.749515,0.500000,10.000000,0.000000,230.305221,0.770000,9.000000,0.600000,200.000000,10.000000,1.000000,1.000000,9
map,fitness,fitness value,team0ratio,time,HP,Speed,Damage,Acc,ClipSize,RateOfFire,NrBullets,Range,HP,Speed,Damage,Acc,ClipSize,RateOfFire,NrBullets,Range,HP,Speed,Damage,Acc,ClipSize,RateOfFire,NrBullets,Range,HP,Speed,Damage,Acc,ClipSize,RateOfFire,NrBullets,Range,Run,target team0ratio: 0.5,target time: 0.36
/home/daniel/Projects/ppsevolution/data/maps/custom_maps/Custom_2_Run_0_Map.csv,squared_error,0.00047349302728205315,0.4998,0.3908,0.000000,0.914016,0.712151,1.000000,0.000000,0.467491,0.942301,2.000000,0.561016,0.000000,1.000000,1.000000,1.000000,1.000000,0.999468,2.000000,125.000000,1.281849,109.413356,1.000000,1.000000,4.941167,9.480710,2.000000,223.177881,0.770000,150.000000,1.000000,200.000000,10.000000,9.995209,2.000000,0
/home/daniel/Projects/ppsevolution/data/maps/custom_maps/Custom_2_Run_0_Map.csv,squared_error,0.00043126852680639484,0.4962,0.3891,0.002373,1.000000,0.786501,1.000000,0.000000,0.000000,0.985382,2.000000,0.750902,0.000000,1.000000,1.000000,0.977758,1.000000,0.898074,2.000000,125.415351,1.330000,119.896686,1.000000,1.000000,0.500000,9.868435,2.000000,256.407842,0.770000,150.000000,1.000000,195.573784,10.000000,9.082665,2.000000,1
/home/daniel/Projects/ppsevolution/data/maps/custom_maps/Custom_2_Run_0_Map.csv,squared_error,0.0004375730252678128,0.4910,0.3882,0.000000,0.891151,0.692847,1.000000,0.000000,0.021268,0.990922,2.000000,0.613620,0.123861,1.000000,1.000000,1.000000,0.855638,1.000000,2.000000,125.000000,1.269045,106.691451,1.000000,1.000000,0.702047,9.918294,2.000000,232.383436,0.839362,150.000000,1.000000,200.000000,8.628561,10.000000,2.000000,2
/home/daniel/Projects/ppsevolution/data/maps/custom_maps/Custom_2_Run_0_Map.csv,squared_error,0.00043796008881533734,0.4950,0.3892,0.000000,0.871892,0.911867,1.000000,0.133282,0.000000,1.000000,2.000000,1.000000,0.196264,1.000000,1.000000,0.817847,1.000000,1.000000,2.000000,125.000000,1.258259,137.573258,1.000000,27.523170,0.500000,10.000000,2.000000,300.000000,0.879908,150.000000,1.000000,163.751587,10.000000,10.000000,2.000000,3
/home/daniel/Projects/ppsevolution/data/maps/custom_maps/Custom_2_Run_0_Map.csv,squared_error,0.0004163555582624451,0.4998,0.3889,0.000000,1.000000,0.805982,1.000000,0.000000,0.000000,0.939234,2.000000,0.783781,0.442650,1.000000,1.000000,1.000000,1.000000,1.000000,2.000000,125.000000,1.330000,122.643507,1.000000,1.000000,0.500000,9.453108,2.000000,262.161646,1.017884,150.000000,1.000000,200.000000,10.000000,10.000000,2.000000,4
/home/daniel/Projects/ppsevolution/data/maps/custom_maps/Custom_2_Run_0_Map.csv,squared_error,0.0004124279538441972,0.4940,0.3881,0.000000,0.945427,0.832545,1.000000,0.000000,0.000000,1.000000,2.000000,0.865771,0.060749,1.000000,1.000000,1.000000,1.000000,0.983969,2.000000,125.000000,1.299439,126.388804,1.000000,1.000000,0.500000,10.000000,2.000000,276.509948,0.804020,150.000000,1.000000,200.000000,10.000000,9.855719,2.000000,5
/home/daniel/Projects/ppsevolution/data/maps/custom_maps/Custom_2_Run_0_Map.csv,squared_error,0.00041287995009168523,0.4938,0.3881,0.000000,1.000000,0.893045,1.000000,0.000000,0.115690,1.000000,2.000000,1.000000,0.781214,1.000000,1.000000,1.000000,0.942645,1.000000,2.000000,125.000000,1.330000,134.919319,1.000000,1.000000,1.599057,10.000000,2.000000,300.000000,1.207480,150.000000,1.000000,200.000000,9.455123,10.000000,2.000000,6
/home/daniel/Projects/ppsevolution/data/maps/custom_maps/Custom_2_Run_0_Map.csv,squared_error,0.00042911580525124615,0.4920,0.3882,0.000000,1.000000,0.623115,1.000000,0.012906,0.117296,1.000000,2.000000,0.518896,0.487036,1.000000,1.000000,0.848365,1.000000,1.000000,2.000000,125.000000,1.330000,96.859208,1.000000,3.568243,1.614311,10.000000,2.000000,215.806730,1.042740,150.000000,1.000000,169.824579,10.000000,10.000000,2.000000,7
/home/daniel/Projects/ppsevolution/data/maps/custom_maps/Custom_2_Run_0_Map.csv,squared_error,0.00039878429459951515,0.4961,0.3880,0.000000,0.973422,0.861967,1.000000,0.000000,0.000000,1.000000,2.000000,0.927339,0.631243,1.000000,1.000000,1.000000,1.000000,1.000000,2.000000,125.000000,1.315117,130.537330,1.000000,1.000000,0.500000,10.000000,2.000000,287.284261,1.123496,150.000000,1.000000,200.000000,10.000000,10.000000,2.000000,8
/home/daniel/Projects/ppsevolution/data/maps/custom_maps/Custom_2_Run_0_Map.csv,squared_error,0.0004219143089093752,0.4995,0.3890,0.000000,0.931323,0.780419,1.000000,0.056195,0.000000,1.000000,2.000000,0.707974,0.521020,1.000000,1.000000,1.000000,0.906327,1.000000,2.000000,125.000000,1.291541,119.039027,1.000000,12.182734,0.500000,10.000000,2.000000,248.895459,1.061771,150.000000,1.000000,200.000000,9.110110,10.000000,2.000000,9
map,fitness,fitness value,team0ratio,time,HP,Speed,Damage,Acc,ClipSize,RateOfFire,NrBullets,Range,HP,Speed,Damage,Acc,ClipSize,RateOfFire,NrBullets,Range,HP,Speed,Damage,Acc,ClipSize,RateOfFire,NrBullets,Range,HP,Speed,Damage,Acc,ClipSize,RateOfFire,NrBullets,Range,Run,target team0ratio: 0.5,target time: 0.36
/home/daniel/Projects/ppsevolution/data/maps/custom_maps/Custom_3_Run_0_Map.csv,squared_error,0.006071554025921448,0.5103,0.4697,0.000000,0.732644,1.000000,0.968144,0.000000,0.789222,1.000000,2.000000,0.000000,0.044289,1.000000,1.000000,1.000000,0.167891,1.000000,2.000000,125.000000,1.180281,150.000000,0.968144,1.000000,7.997608,10.000000,2.000000,125.000000,0.794802,150.000000,1.000000,200.000000,2.094964,10.000000,2.000000,0
/home/daniel/Projects/ppsevolution/data/maps/custom_maps/Custom_3_Run_0_Map.csv,squared_error,0.006113143071506888,0.5057,0.4704,0.000000,1.000000,0.620803,1.000000,0.000000,0.102407,1.000000,2.000000,0.027952,0.009291,1.000000,1.000000,1.000000,0.000000,1.000000,2.000000,125.000000,1.330000,96.533241,1.000000,1.000000,1.472862,10.000000,2.000000,129.891519,0.775203,150.000000,1.000000,200.000000,0.500000,10.000000,2.000000,1
/home/daniel/Projects/ppsevolution/data/maps/custom_maps/Custom_3_Run_0_Map.csv,squared_error,0.006283699015720747,0.5091,0.4717,0.000000,0.506219,0.677175,1.000000,0.000000,0.000000,1.000000,2.000000,0.179339,0.000000,1.000000,1.000000,0.947147,0.412623,1.000000,2.000000,125.000000,1.053483,104.481670,1.000000,1.000000,0.500000,10.000000,2.000000,156.384254,0.770000,150.000000,1.000000,189.482312,4.419922,10.000000,2.000000,2
/home/daniel/Projects/ppsevolution/data/maps/custom_maps/Custom_3_Run_0_Map.csv,squared_error,0.006254892460122112,0.5141,0.4710,0.000000,0.944552,1.000000,0.985432,0.000000,0.211488,1.000000,2.000000,0.332724,0.024857,1.000000,1.000000,0.791989,0.132530,0.977900,2.000000,125.000000,1.298949,150.000000,0.985432,1.000000,2.509132,10.000000,2.000000,183.226623,0.783920,150.000000,1.000000,158.605717,1.759040,9.801101,2.000000,3
/home/daniel/Projects/ppsevolution/data/maps/custom_maps/Custom_3_Run_0_Map.csv,squared_error,0.006156274454811414,0.5068,0.4708,0.000000,0.955539,0.629587,1.000000,0.000000,0.184504,1.000000,2.000000,0.023057,0.000000,1.000000,1.000000,0.729314,0.000000,1.000000,2.000000,125.000000,1.305102,97.771736,1.000000,1.000000,2.252793,10.000000,2.000000,129.034979,0.770000,150.000000,1.000000,146.133507,0.500000,10.000000,2.000000,4
/home/daniel/Projects/ppsevolution/data/maps/custom_maps/Custom_3_Run_0_Map.csv,squared_error,0.006217938839664734,0.5100,0.4711,0.000625,1.000000,0.838736,1.000000,0.000000,0.000000,1.000000,2.000000,0.392318,0.000000,1.000000,1.000000,0.954226,0.036506,1.000000,2.000000,125.109423,1.330000,127.261761,1.000000,1.000000,0.500000,10.000000,2.000000,193.655716,0.770000,150.000000,1.000000,190.890921,0.846811,10.000000,2.000000,5
/home/daniel/Projects/ppsevolution/data/maps/custom_maps/Custom_3_Run_0_Map.csv,squared_error,0.006305309291552807,0.5074,0.4721,0.000000,0.685764,0.900073,1.000000,0.000000,0.000000,1.000000,2.000000,0.499674,0.056519,1.000000,1.000000,0.825465,0.001611,0.939543,2.000000,125.000000,1.154028,135.910305,1.000000,1.000000,0.500000,10.000000,2.000000,212.443023,0.801650,150.000000,1.000000,165.267559,0.515301,9.455883,2.000000,6
/home/daniel/Projects/ppsevolution/data/maps/custom_maps/Custom_3_Run_0_Map.csv,squared_error,0.006273026915825405,0.5074,0.4718,0.000000,0.936932,0.922784,1.000000,0.000000,0.000000,1.000000,2.000000,0.566568,0.210982,0.999973,1.000000,0.995597,0.000000,1.000000,2.000000,125.000000,1.294682,139.112527,1.000000,1.000000,0.500000,10.000000,2.000000,224.149318,0.888150,149.996179,1.000000,199.123884,0.500000,10.000000,2.000000,7
/home/daniel/Projects/ppsevolution/data/maps/custom_maps/Custom_3_Run_0_Map.csv,squared_error,0.0061557887610787145,0.5106,0.4705,0.000000,1.000000,0.899953,0.986107,0.009487,0.037132,0.997963,2.000000,0.206021,0.089243,1.000000,1.000000,0.985561,0.000000,1.000000,2.000000,125.000000,1.330000,135.893383,0.986107,2.887989,0.852758,9.981669,2.000000,161.053748,0.819976,150.000000,1.000000,197.126738,0.500000,10.000000,2.000000,8
/home/daniel/Projects/ppsevolution/data/maps/custom_maps/Custom_3_Run_0_Map.csv,squared_error,0.006224509445038497,0.5035,0.4715,0.005016,0.883216,0.742096,1.000000,0.000000,0.145125,1.000000,2.000000,0.274440,0.200974,1.000000,1.000000,1.000000,0.000000,1.000000,2.000000,125.877732,1.264601,113.635584,1.000000,1.000000,1.878687,10.000000,2.000000,173.026967,0.882545,150.000000,1.000000,200.000000,0.500000,10.000000,2.000000,9
map,fitness,fitness value,team0ratio,time,HP,Speed,Damage,Acc,ClipSize,RateOfFire,NrBullets,Range,HP,Speed,Damage,Acc,ClipSize,RateOfFire,NrBullets,Range,HP,Speed,Damage,Acc,ClipSize,RateOfFire,NrBullets,Range,HP,Speed,Damage,Acc,ClipSize,RateOfFire,NrBullets,Range,Run,target team0ratio: 0.5,target time: 0.36
/home/daniel/Projects/ppsevolution/data/maps/custom_maps/Custom_4_Run_0_Map.csv,squared_error,2.17114616208673e-06,0.4994,0.3580,0.000000,0.964374,0.234998,0.703384,0.037888,0.154754,1.000000,2.000000,0.800849,0.149626,0.051675,0.617022,1.000000,0.930499,0.000000,2.000000,125.000000,1.310049,42.134691,0.703384,8.539653,1.970167,10.000000,2.000000,265.148491,0.853790,16.286198,0.617022,200.000000,9.339740,1.000000,2.000000,0
/home/daniel/Projects/ppsevolution/data/maps/custom_maps/Custom_4_Run_0_Map.csv,squared_error,4.460138122254873e-07,0.5009,0.3600,0.140144,1.000000,0.159645,0.800000,0.076735,0.030000,0.981870,0.000000,1.000000,0.000000,0.122742,0.652299,0.984691,0.828841,0.000000,0.000000,149.525180,1.330000,31.510000,0.800000,16.270240,0.785000,9.836831,0.000000,300.000000,0.770000,26.306605,0.652299,196.953435,8.373989,1.000000,0.000000,1
/home/daniel/Projects/ppsevolution/data/maps/custom_maps/Custom_4_Run_0_Map.csv,squared_error,2.890249916511362e-07,0.4993,0.3603,0.200664,0.876277,0.100541,0.800000,0.316654,0.091482,1.000000,2.000000,1.000000,0.000000,0.000000,0.705552,0.913989,0.812635,0.000000,0.000000,160.116188,1.260715,23.176323,0.800000,64.014180,1.369078,10.000000,2.000000,300.000000,0.770000,9.000000,0.705552,182.883765,8.220033,1.000000,0.000000,2
/home/daniel/Projects/ppsevolution/data/maps/custom_maps/Custom_4_Run_0_Map.csv,squared_error,7.688117655171017e-07,0.5003,0.3612,0.000000,1.000000,0.108659,0.809523,0.030000,0.030000,1.000000,0.000000,1.000000,0.000000,0.000000,0.665685,0.958262,0.948795,0.000000,2.000000,125.000000,1.330000,24.320918,0.809523,6.970000,0.785000,10.000000,0.000000,300.000000,0.770000,9.000000,0.665685,191.694218,9.513549,1.000000,2.000000,3
/home/daniel/Projects/ppsevolution/data/maps/custom_maps/Custom_4_Run_0_Map.csv,squared_error,2.1979089101399736e-06,0.4995,0.3580,0.134065,0.863481,0.281590,0.743599,0.000000,0.030000,1.000000,1.000000,1.000000,0.000000,0.000000,0.689551,0.914098,1.000000,0.000000,0.000000,148.461419,1.253549,48.704195,0.743599,1.000000,0.785000,10.000000,1.000000,300.000000,0.770000,9.000000,0.689551,182.905578,10.000000,1.000000,0.000000,4
/home/daniel/Projects/ppsevolution/data/maps/custom_maps/Custom_4_Run_0_Map.csv,squared_error,1.3014578140115506e-06,0.5015,0.3607,0.000000,0.931992,0.029711,0.800000,0.000000,0.134539,0.927159,2.000000,0.874067,0.000000,0.258638,0.515026,0.625638,0.480366,0.194587,0.000000,125.000000,1.291916,13.189317,0.800000,1.000000,1.778125,9.344429,2.000000,277.961809,0.770000,45.467989,0.515026,125.502020,5.063474,2.751282,0.000000,5
/home/daniel/Projects/ppsevolution/data/maps/custom_maps/Custom_4_Run_0_Map.csv,squared_error,6.745393070019502e-07,0.4996,0.3589,0.000000,1.000000,0.096243,0.789724,0.000000,0.000000,0.848035,1.000000,0.816844,0.000000,0.119373,0.626273,0.977609,0.955043,0.000000,0.000000,125.000000,1.330000,22.570228,0.789724,1.000000,0.500000,8.632314,1.000000,267.947638,0.770000,25.831534,0.626273,195.544118,9.572912,1.000000,0.000000,6
/home/daniel/Projects/ppsevolution/data/maps/custom_maps/Custom_4_Run_0_Map.csv,squared_error,8.231756892797495e-07,0.5006,0.3589,0.209121,0.781664,0.084262,0.807248,0.030000,0.100475,0.790157,2.000000,1.000000,0.052151,0.059618,0.678506,0.872570,0.778733,0.000000,2.000000,161.596189,1.207732,20.880985,0.807248,6.970000,1.454509,8.111414,2.000000,300.000000,0.799205,17.406163,0.678506,174.641509,7.897963,1.000000,2.000000,7
/home/daniel/Projects/ppsevolution/data/maps/custom_maps/Custom_4_Run_0_Map.csv,squared_error,6.161258834254555e-08,0.5001,0.3603,0.000000,0.986794,0.210982,0.747247,0.154526,0.000000,0.846479,1.000000,0.854750,0.000000,0.010098,0.655866,0.971460,0.748924,0.000000,1.000000,125.000000,1.322604,38.748395,0.747247,31.750750,0.500000,8.618314,1.000000,274.581331,0.770000,10.423855,0.655866,194.320587,7.614780,1.000000,1.000000,8
/home/daniel/Projects/ppsevolution/data/maps/custom_maps/Custom_4_Run_0_Map.csv,squared_error,7.540877235669563e-07,0.5012,0.3602,0.041154,0.693972,0.210000,0.740848,0.363524,0.000000,0.819655,1.000000,0.803728,0.000000,0.157718,0.600000,0.915540,0.834230,0.043105,0.000000,132.201920,1.158624,38.610000,0.740848,73.341357,0.500000,8.376894,1.000000,265.652349,0.770000,31.238201,0.600000,183.192468,8.425186,1.387945,0.000000,9
map,fitness,fitness value,team0ratio,time,HP,Speed,Damage,Acc,ClipSize,RateOfFire,NrBullets,Range,HP,Speed,Damage,Acc,ClipSize,RateOfFire,NrBullets,Range,HP,Speed,Damage,Acc,ClipSize,RateOfFire,NrBullets,Range,HP,Speed,Damage,Acc,ClipSize,RateOfFire,NrBullets,Range,Run,target team0ratio: 0.5,target time: 0.36
/home/daniel/Projects/ppsevolution/data/maps/custom_maps/Custom_5_Run_0_Map.csv,squared_error,1.1194090017170928e-07,0.5001,0.3605,0.103907,0.924204,0.187787,1.000000,0.000000,0.028169,0.783429,0.000000,0.640849,0.284756,0.000000,1.000000,0.783608,0.875831,0.112686,0.000000,143.183734,1.287554,35.477904,1.000000,1.000000,0.767601,8.050865,0.000000,237.148612,0.929463,9.000000,1.000000,156.938060,8.820392,2.014170,0.000000,0
/home/daniel/Projects/ppsevolution/data/maps/custom_maps/Custom_5_Run_0_Map.csv,squared_error,7.446614852881259e-07,0.4989,0.3594,0.150764,0.989363,0.302750,1.000000,0.070630,0.053106,0.763110,0.000000,0.868765,0.000000,0.000000,1.000000,1.000000,0.767890,0.095846,1.000000,151.383769,1.324043,51.687776,1.000000,15.055355,1.004503,7.867994,0.000000,277.033882,0.770000,9.000000,1.000000,200.000000,7.794958,1.862613,1.000000,1
/home/daniel/Projects/ppsevolution/data/maps/custom_maps/Custom_5_Run_0_Map.csv,squared_error,9.932945582626372e-07,0.4988,0.3592,0.021521,0.817284,0.155210,1.000000,0.193473,0.000000,0.914018,2.000000,0.984293,0.000000,0.086179,0.971833,0.843485,0.829644,0.211261,2.000000,128.766234,1.227679,30.884579,1.000000,39.501210,0.500000,9.226166,2.000000,297.251300,0.770000,21.151260,0.971833,168.853551,8.381621,2.901350,2.000000,2
/home/daniel/Projects/ppsevolution/data/maps/custom_maps/Custom_5_Run_0_Map.csv,squared_error,6.278957703244571e-07,0.5003,0.3589,0.197511,1.000000,0.560315,0.918978,0.000000,0.193487,0.557932,2.000000,0.812464,0.000000,0.072076,0.952754,0.923022,1.000000,0.016796,0.000000,159.564508,1.330000,88.004456,0.918978,1.000000,2.338124,6.021389,2.000000,267.181223,0.770000,19.162676,0.952754,184.681450,10.000000,1.151166,0.000000,3
/home/daniel/Projects/ppsevolution/data/maps/custom_maps/Custom_5_Run_0_Map.csv,squared_error,4.1564342854199974e-07,0.5000,0.3591,0.089806,1.000000,0.338749,0.979985,0.000000,0.000000,1.000000,0.000000,0.852304,0.000000,0.056967,0.968445,1.000000,0.987814,0.000000,2.000000,140.716121,1.330000,56.763569,0.979985,1.000000,0.500000,10.000000,0.000000,274.153154,0.770000,17.032287,0.968445,200.000000,9.884230,1.000000,2.000000,4
/home/daniel/Projects/ppsevolution/data/maps/custom_maps/Custom_5_Run_0_Map.csv,squared_error,4.22652591356597e-07,0.5000,0.3591,0.141954,0.806347,0.260868,1.000000,0.232097,0.303691,1.000000,0.000000,0.761264,0.071564,0.090100,0.986063,0.418154,0.818705,0.050692,0.000000,149.841939,1.221554,45.782361,1.000000,47.187371,3.385062,10.000000,0.000000,258.221165,0.810076,21.704041,0.986063,84.212549,8.277697,1.456224,0.000000,5
/home/daniel/Projects/ppsevolution/data/maps/custom_maps/Custom_5_Run_0_Map.csv,squared_error,1.0279991582031158e-06,0.4990,0.3589,0.000000,0.968492,0.641063,0.935575,0.072303,0.124334,1.000000,0.000000,0.946630,0.234887,0.083484,0.937036,1.000000,1.000000,0.016431,2.000000,125.000000,1.312355,99.389845,0.935575,15.388247,1.681170,10.000000,0.000000,290.660245,0.901537,20.771178,0.937036,200.000000,10.000000,1.147879,2.000000,6
/home/daniel/Projects/ppsevolution/data/maps/custom_maps/Custom_5_Run_0_Map.csv,squared_error,1.0011332752270482e-06,0.5010,0.3590,0.273325,0.860247,0.477503,0.888738,0.098499,0.000000,0.912808,1.000000,0.411192,0.159987,0.056294,0.949762,0.961661,1.000000,0.039383,1.000000,172.831832,1.251738,76.327965,0.888738,20.601393,0.500000,9.215274,1.000000,196.958605,0.859593,16.937510,0.949762,192.370584,10.000000,1.354449,1.000000,7
/home/daniel/Projects/ppsevolution/data/maps/custom_maps/Custom_5_Run_0_Map.csv,squared_error,5.672087828891286e-07,0.4993,0.3592,0.243007,0.865196,0.335478,0.975988,0.000000,0.251042,0.917530,2.000000,1.000000,0.205802,0.279908,0.945665,1.000000,0.777437,0.016454,1.000000,167.526250,1.254510,56.302423,0.975988,1.000000,2.884898,9.257767,2.000000,300.000000,0.885249,48.467084,0.945665,200.000000,7.885653,1.148088,1.000000,8
/home/daniel/Projects/ppsevolution/data/maps/custom_maps/Custom_5_Run_0_Map.csv,squared_error,2.7612938640971674e-07,0.5001,0.3607,0.000000,0.662608,0.257140,1.000000,0.199165,0.000000,0.968808,1.000000,1.000000,0.000000,0.332539,0.937240,0.939967,0.817273,0.012168,2.000000,125.000000,1.141060,45.256704,1.000000,40.633865,0.500000,9.719270,1.000000,300.000000,0.770000,55.888005,0.937240,188.053525,8.264095,1.109516,2.000000,9
map,fitness,fitness value,team0ratio,time,HP,Speed,Damage,Acc,ClipSize,RateOfFire,NrBullets,Range,HP,Speed,Damage,Acc,ClipSize,RateOfFire,NrBullets,Range,HP,Speed,Damage,Acc,ClipSize,RateOfFire,NrBullets,Range,HP,Speed,Damage,Acc,ClipSize,RateOfFire,NrBullets,Range,Run,target team0ratio: 0.5,target time: 0.36
/home/daniel/Projects/ppsevolution/data/maps/custom_maps/Custom_6_Run_0_Map.csv,squared_error,0.00799246436537938,0.4656,0.4817,0.107396,1.000000,0.000000,1.000000,0.025609,0.000000,0.538120,2.000000,1.000000,0.418523,1.000000,0.909940,1.000000,1.000000,1.000000,2.000000,143.794294,1.330000,9.000000,1.000000,6.096226,0.500000,5.843084,2.000000,300.000000,1.004373,150.000000,0.909940,200.000000,10.000000,10.000000,2.000000,0
/home/daniel/Projects/ppsevolution/data/maps/custom_maps/Custom_6_Run_0_Map.csv,squared_error,0.007981545166008013,0.4655,0.4816,0.113146,1.000000,0.000000,1.000000,0.000000,0.000000,0.670438,2.000000,1.000000,0.595789,1.000000,0.910449,0.997871,1.000000,1.000000,2.000000,144.800532,1.330000,9.000000,1.000000,1.000000,0.500000,7.033944,2.000000,300.000000,1.103642,150.000000,0.910449,199.576404,10.000000,10.000000,2.000000,1
/home/daniel/Projects/ppsevolution/data/maps/custom_maps/Custom_6_Run_0_Map.csv,squared_error,0.008047171455585393,0.4708,0.4835,0.099210,0.996836,0.000000,1.000000,0.000000,0.002345,0.479463,2.000000,1.000000,0.014353,1.000000,0.903598,0.923708,1.000000,1.000000,2.000000,142.361675,1.328228,9.000000,1.000000,1.000000,0.522276,5.315163,2.000000,300.000000,0.778038,150.000000,0.903598,184.817818,10.000000,10.000000,2.000000,2
/home/daniel/Projects/ppsevolution/data/maps/custom_maps/Custom_6_Run_0_Map.csv,squared_error,0.007994443441611982,0.4664,0.4819,0.124635,0.985672,0.000000,1.000000,0.000000,0.000000,0.584588,2.000000,1.000000,0.156390,1.000000,0.910359,1.000000,1.000000,1.000000,2.000000,146.811212,1.321976,9.000000,1.000000,1.000000,0.500000,6.261289,2.000000,300.000000,0.857578,150.000000,0.910359,200.000000,10.000000,10.000000,2.000000,3
/home/daniel/Projects/ppsevolution/data/maps/custom_maps/Custom_6_Run_0_Map.csv,squared_error,0.00792619656193153,0.4648,0.4809,0.175643,1.000000,0.000000,1.000000,0.000000,0.014837,0.035319,2.000000,1.000000,0.983501,1.000000,0.922543,1.000000,1.000000,0.996627,2.000000,155.737545,1.330000,9.000000,1.000000,1.000000,0.640949,1.317870,2.000000,300.000000,1.320761,150.000000,0.922543,200.000000,10.000000,9.969645,2.000000,4
/home/daniel/Projects/ppsevolution/data/maps/custom_maps/Custom_6_Run_0_Map.csv,squared_error,0.008004373434505357,0.4635,0.4812,0.000000,1.000000,0.000000,1.000000,0.000000,0.000000,0.408458,2.000000,1.000000,0.488421,1.000000,0.899856,1.000000,1.000000,1.000000,2.000000,125.000000,1.330000,9.000000,1.000000,1.000000,0.500000,4.676125,2.000000,300.000000,1.043516,150.000000,0.899856,200.000000,10.000000,10.000000,2.000000,5
/home/daniel/Projects/ppsevolution/data/maps/custom_maps/Custom_6_Run_0_Map.csv,squared_error,0.008098586635691693,0.4609,0.4811,0.121478,0.970560,0.002156,1.000000,0.005576,0.081986,0.919046,2.000000,1.000000,0.121832,1.000000,0.912831,1.000000,1.000000,1.000000,2.000000,146.258629,1.313514,9.303941,1.000000,2.109683,1.278867,9.271416,2.000000,300.000000,0.838226,150.000000,0.912831,200.000000,10.000000,10.000000,2.000000,6
/home/daniel/Projects/ppsevolution/data/maps/custom_maps/Custom_6_Run_0_Map.csv,squared_error,0.00800043875858918,0.4647,0.4815,0.118817,1.000000,0.000000,1.000000,0.000000,0.000000,0.714195,2.000000,1.000000,0.115172,1.000000,0.910488,1.000000,1.000000,1.000000,2.000000,145.793062,1.330000,9.000000,1.000000,1.000000,0.500000,7.427753,2.000000,300.000000,0.834496,150.000000,0.910488,200.000000,10.000000,10.000000,2.000000,7
/home/daniel/Projects/ppsevolution/data/maps/custom_maps/Custom_6_Run_0_Map.csv,squared_error,0.008044090093965329,0.4671,0.4825,0.131074,0.947643,0.000000,1.000000,0.017343,0.000000,1.000000,2.000000,1.000000,0.304022,1.000000,0.908482,1.000000,1.000000,1.000000,2.000000,147.937967,1.300680,9.000000,1.000000,4.451319,0.500000,10.000000,2.000000,300.000000,0.940252,150.000000,0.908482,200.000000,10.000000,10.000000,2.000000,8
/home/daniel/Projects/ppsevolution/data/maps/custom_maps/Custom_6_Run_0_Map.csv,squared_error,0.008057881975381827,0.4689,0.4831,0.121271,1.000000,0.000000,1.000000,0.091743,0.005951,0.624762,2.000000,1.000000,0.692436,1.000000,0.907945,1.000000,0.971188,1.000000,2.000000,146.222382,1.330000,9.000000,1.000000,19.256822,0.556533,6.622856,2.000000,300.000000,1.157764,150.000000,0.907945,200.000000,9.726289,10.000000,2.000000,9
map,fitness,fitness value,team0ratio,time,HP,Speed,Damage,Acc,ClipSize,RateOfFire,NrBullets,Range,HP,Speed,Damage,Acc,ClipSize,RateOfFire,NrBullets,Range,HP,Speed,Damage,Acc,ClipSize,RateOfFire,NrBullets,Range,HP,Speed,Damage,Acc,ClipSize,RateOfFire,NrBullets,Range,Run,target team0ratio: 0.5,target time: 0.36
/home/daniel/Projects/ppsevolution/data/maps/custom_maps/Custom_7_Run_0_Map.csv,squared_error,2.4535765433170375e-07,0.4998,0.3593,0.017808,1.000000,0.340340,1.000000,0.000000,0.083792,1.000000,0.000000,0.855267,0.128258,0.017980,1.000000,0.981662,0.811958,0.091131,1.000000,128.116418,1.330000,56.987889,1.000000,1.000000,1.296025,10.000000,0.000000,274.671679,0.841824,11.535181,1.000000,196.350698,8.213604,1.820181,1.000000,0
/home/daniel/Projects/ppsevolution/data/maps/custom_maps/Custom_7_Run_0_Map.csv,squared_error,2.7246956601629153e-07,0.4994,0.3595,0.023605,1.000000,0.084634,1.000000,0.144023,0.043972,1.000000,0.000000,0.863753,0.278423,0.476222,0.908809,0.998813,0.911568,0.250159,0.000000,129.130925,1.330000,20.933324,1.000000,29.660607,0.917736,10.000000,0.000000,276.156797,0.925917,76.147236,0.908809,199.763755,9.159892,3.251429,0.000000,1
/home/daniel/Projects/ppsevolution/data/maps/custom_maps/Custom_7_Run_0_Map.csv,squared_error,2.0583725887775542e-07,0.4995,0.3604,0.524537,1.000000,0.248276,1.000000,0.067251,0.092203,1.000000,1.000000,0.997329,0.000000,0.238302,1.000000,1.000000,1.000000,0.007061,1.000000,216.793955,1.330000,44.006865,1.000000,14.383008,1.375927,10.000000,1.000000,299.532532,0.770000,42.600652,1.000000,200.000000,10.000000,1.063550,1.000000,2
/home/daniel/Projects/ppsevolution/data/maps/custom_maps/Custom_7_Run_0_Map.csv,squared_error,7.19771160340336e-07,0.4989,0.3594,0.174626,0.966132,0.210000,1.000000,0.030874,0.111180,0.999097,2.000000,1.000000,0.174616,0.033310,1.000000,0.697747,0.927290,0.000000,1.000000,155.559566,1.311034,38.610000,1.000000,7.143926,1.556205,9.991873,2.000000,300.000000,0.867785,13.696724,1.000000,139.851673,9.309257,1.000000,1.000000,3
/home/daniel/Projects/ppsevolution/data/maps/custom_maps/Custom_7_Run_0_Map.csv,squared_error,8.919778105600096e-07,0.5013,0.3602,0.012721,0.763029,0.381455,1.000000,0.000000,0.248344,0.949429,0.000000,0.896543,0.093698,0.014738,1.000000,0.982557,0.814953,0.065135,1.000000,127.226117,1.197296,62.785177,1.000000,1.000000,2.859265,9.544865,0.000000,281.894953,0.822471,11.078051,1.000000,196.528766,8.242053,1.586216,1.000000,4
/home/daniel/Projects/ppsevolution/data/maps/custom_maps/Custom_7_Run_0_Map.csv,squared_error,2.0443120131404437e-07,0.4997,0.3606,0.053795,0.939690,0.099748,0.999528,0.295917,0.065328,0.729977,1.000000,0.996170,0.069381,0.127674,0.962252,0.873880,1.000000,0.293481,1.000000,134.414102,1.296227,23.064460,0.999528,59.887525,1.120619,7.569791,1.000000,299.329790,0.808853,27.002022,0.962252,174.902036,10.000000,3.641331,1.000000,5
/home/daniel/Projects/ppsevolution/data/maps/custom_maps/Custom_7_Run_0_Map.csv,squared_error,4.36311374898005e-08,0.5001,0.3603,0.185383,0.777933,0.371637,0.998214,0.007187,0.034559,0.741186,0.000000,0.875130,0.154505,0.130501,1.000000,0.557800,0.871855,0.058326,1.000000,157.442021,1.205642,61.400843,0.998214,2.430140,0.828312,7.670675,0.000000,278.147692,0.856523,27.400621,1.000000,112.002168,8.782626,1.524931,1.000000,6
/home/daniel/Projects/ppsevolution/data/maps/custom_maps/Custom_7_Run_0_Map.csv,squared_error,1.4392963440059095e-06,0.5013,0.3589,0.192846,0.897161,0.269877,1.000000,0.173772,0.000000,1.000000,1.000000,1.000000,0.000000,0.023655,1.000000,1.000000,0.855985,0.031595,2.000000,158.748104,1.272410,47.052638,1.000000,35.580573,0.500000,10.000000,1.000000,300.000000,0.770000,12.335328,1.000000,200.000000,8.631855,1.284357,2.000000,7
/home/daniel/Projects/ppsevolution/data/maps/custom_maps/Custom_7_Run_0_Map.csv,squared_error,2.0433479098543436e-07,0.4996,0.3605,0.000000,0.711204,0.248886,1.000000,0.089756,0.319630,1.000000,0.000000,0.969925,0.020615,0.109582,0.967957,1.000000,0.815822,0.192417,1.000000,125.000000,1.168274,44.092962,1.000000,18.861436,3.536488,10.000000,0.000000,294.736804,0.781545,24.451071,0.967957,200.000000,8.250309,2.731752,1.000000,8
/home/daniel/Projects/ppsevolution/data/maps/custom_maps/Custom_7_Run_0_Map.csv,squared_error,7.483176167184049e-08,0.5001,0.3596,0.182501,0.890206,0.163145,1.000000,0.192369,0.358810,1.000000,2.000000,1.000000,0.056717,0.000000,0.998173,1.000000,1.000000,0.000000,2.000000,156.937697,1.268515,32.003388,1.000000,39.281366,3.908694,10.000000,2.000000,300.000000,0.801761,9.000000,0.998173,200.000000,10.000000,1.000000,2.000000,9
map,fitness,fitness value,team0ratio,time,HP,Speed,Damage,Acc,ClipSize,RateOfFire,NrBullets,Range,HP,Speed,Damage,Acc,ClipSize,RateOfFire,NrBullets,Range,HP,Speed,Damage,Acc,ClipSize,RateOfFire,NrBullets,Range,HP,Speed,Damage,Acc,ClipSize,RateOfFire,NrBullets,Range,Run,target team0ratio: 0.5,target time: 0.36
/home/daniel/Projects/ppsevolution/data/maps/custom_maps/Custom_8_Run_0_Map.csv,squared_error,9.6693517247744e-07,0.5013,0.3604,0.000000,1.000000,0.139716,0.858298,0.128370,0.122904,1.000000,0.000000,1.000000,0.003489,0.000000,0.754160,0.658510,0.926226,0.040944,0.000000,125.000000,1.330000,28.699952,0.858298,26.545572,1.667587,10.000000,0.000000,300.000000,0.771954,9.000000,0.754160,132.043494,9.299148,1.368493,0.000000,0
/home/daniel/Projects/ppsevolution/data/maps/custom_maps/Custom_8_Run_0_Map.csv,squared_error,2.3748411938768324e-07,0.4994,0.3597,0.000000,1.000000,0.210000,0.800000,0.053008,0.000000,0.996920,2.000000,1.000000,0.000000,0.200340,0.633399,0.850765,1.000000,0.051939,1.000000,125.000000,1.330000,38.610000,0.800000,11.548623,0.500000,9.972280,2.000000,300.000000,0.770000,37.247872,0.633399,170.302249,10.000000,1.467447,1.000000,1
/home/daniel/Projects/ppsevolution/data/maps/custom_maps/Custom_8_Run_0_Map.csv,squared_error,6.909791444400216e-07,0.4996,0.3611,0.000000,0.986582,0.268828,0.800000,0.204368,0.043814,0.772705,1.000000,1.000000,0.000000,0.133097,0.673496,1.000000,1.000000,0.028173,2.000000,125.000000,1.322486,46.904712,0.800000,41.669246,0.916232,7.954349,1.000000,300.000000,0.770000,27.766735,0.673496,200.000000,10.000000,1.253559,2.000000,2
/home/daniel/Projects/ppsevolution/data/maps/custom_maps/Custom_8_Run_0_Map.csv,squared_error,6.727639845677937e-08,0.5002,0.3597,0.000000,1.000000,0.266882,0.800000,0.062436,0.030000,0.957164,1.000000,1.000000,0.000000,0.077595,0.700634,0.994528,0.889792,0.000000,1.000000,125.000000,1.330000,46.630366,0.800000,13.424778,0.785000,9.614479,1.000000,300.000000,0.770000,19.940938,0.700634,198.911065,8.953025,1.000000,1.000000,3
/home/daniel/Projects/ppsevolution/data/maps/custom_maps/Custom_8_Run_0_Map.csv,squared_error,3.898304577411768e-07,0.5007,0.3606,0.043639,1.000000,0.000000,0.901136,0.134284,0.437351,0.774012,0.000000,0.995831,0.097634,0.196898,0.711762,0.949337,1.000000,0.000000,1.000000,132.636900,1.330000,9.000000,0.901136,27.722449,4.654836,7.966112,0.000000,299.270360,0.824675,36.762589,0.711762,189.918136,10.000000,1.000000,1.000000,4
/home/daniel/Projects/ppsevolution/data/maps/custom_maps/Custom_8_Run_0_Map.csv,squared_error,1.200724092025502e-06,0.4985,0.3605,0.047983,0.684074,0.335237,0.775918,0.000000,0.039729,1.000000,1.000000,1.000000,0.000000,0.119834,0.694054,0.967358,1.000000,0.068210,0.000000,133.397005,1.153082,56.268424,0.775918,1.000000,0.877430,10.000000,1.000000,300.000000,0.770000,25.896652,0.694054,193.504301,10.000000,1.613888,0.000000,5
/home/daniel/Projects/ppsevolution/data/maps/custom_maps/Custom_8_Run_0_Map.csv,squared_error,1.031679921417364e-06,0.5010,0.3611,0.000000,1.000000,0.210000,0.800000,0.000439,0.016766,1.000000,1.000000,0.907849,0.301383,0.000000,0.723988,1.000000,1.000000,0.075772,1.000000,125.000000,1.330000,38.610000,0.800000,1.087304,0.659281,10.000000,1.000000,283.873508,0.938775,9.000000,0.723988,200.000000,10.000000,1.681949,1.000000,6
/home/daniel/Projects/ppsevolution/data/maps/custom_maps/Custom_8_Run_0_Map.csv,squared_error,6.835729726397124e-07,0.5008,0.3592,0.000000,1.000000,0.210000,0.800000,0.000000,0.030000,1.000000,1.000000,0.897734,0.146506,0.078538,0.692124,1.000000,0.979730,0.262360,0.000000,125.000000,1.330000,38.610000,0.800000,1.000000,0.785000,10.000000,1.000000,282.103497,0.852044,20.073814,0.692124,200.000000,9.807439,3.361242,0.000000,7
/home/daniel/Projects/ppsevolution/data/maps/custom_maps/Custom_8_Run_0_Map.csv,squared_error,1.2021275206562512e-08,0.4999,0.3599,0.000000,1.000000,0.210000,0.803348,0.030000,0.074230,0.920311,0.000000,0.805676,0.420281,0.235131,0.645377,1.000000,0.950119,0.000000,1.000000,125.000000,1.330000,38.610000,0.803348,6.970000,1.205184,9.282799,0.000000,265.993298,1.005357,42.153433,0.645377,200.000000,9.526128,1.000000,1.000000,8
/home/daniel/Projects/ppsevolution/data/maps/custom_maps/Custom_8_Run_0_Map.csv,squared_error,2.0880862618994231e-07,0.4996,0.3595,0.048909,0.844772,0.306538,0.800000,0.030000,0.172106,0.820151,0.000000,0.974701,0.000000,0.150684,0.691831,0.858931,1.000000,0.066663,1.000000,133.559154,1.243072,52.221857,0.800000,6.970000,2.135006,8.381360,0.000000,295.572739,0.770000,30.246396,0.691831,171.927265,10.000000,1.599964,1.000000,9
map,fitness,fitness value,team0ratio,time,HP,Speed,Damage,Acc,ClipSize,RateOfFire,NrBullets,Range,HP,Speed,Damage,Acc,ClipSize,RateOfFire,NrBullets,Range,HP,Speed,Damage,Acc,ClipSize,RateOfFire,NrBullets,Range,HP,Speed,Damage,Acc,ClipSize,RateOfFire,NrBullets,Range,Run,target team0ratio: 0.5,target time: 0.36
/home/daniel/Projects/ppsevolution/data/maps/custom_maps/Custom_9_Run_0_Map.csv,squared_error,8.967773657310851e-07,0.5013,0.3602,0.000000,1.000000,0.210000,0.735256,0.000000,0.000000,0.838780,1.000000,1.000000,0.287320,0.000000,0.644328,1.000000,0.860651,0.172554,0.000000,125.000000,1.330000,38.610000,0.735256,1.000000,0.500000,8.549024,1.000000,300.000000,0.930899,9.000000,0.644328,200.000000,8.676180,2.552982,0.000000,0
/home/daniel/Projects/ppsevolution/data/maps/custom_maps/Custom_9_Run_0_Map.csv,squared_error,9.803550291167033e-07,0.4987,0.3596,0.000000,1.000000,0.007379,0.810108,0.030000,0.030000,1.000000,1.000000,1.000000,0.000000,0.010800,0.657711,1.000000,0.697081,0.020019,1.000000,125.000000,1.330000,10.040440,0.810108,6.970000,0.785000,10.000000,1.000000,300.000000,0.770000,10.522809,0.657711,200.000000,7.122274,1.180168,1.000000,1
/home/daniel/Projects/ppsevolution/data/maps/custom_maps/Custom_9_Run_0_Map.csv,squared_error,1.6320956366967958e-06,0.4992,0.3584,0.059572,0.886805,0.000000,0.789179,0.043806,0.000000,0.995210,2.000000,1.000000,0.135432,0.209129,0.541251,1.000000,0.998176,0.155060,2.000000,135.425040,1.266611,9.000000,0.789179,9.717421,0.500000,9.956886,2.000000,300.000000,0.845842,38.487230,0.541251,200.000000,9.982670,2.395544,2.000000,2
/home/daniel/Projects/ppsevolution/data/maps/custom_maps/Custom_9_Run_0_Map.csv,squared_error,3.043238951285276e-07,0.5007,0.3596,0.000000,1.000000,0.210000,0.738059,0.082723,0.076575,0.897284,0.000000,1.000000,0.000000,0.000000,0.650902,0.942123,1.000000,0.000000,2.000000,125.000000,1.330000,38.610000,0.738059,17.461963,1.227465,9.075555,0.000000,300.000000,0.770000,9.000000,0.650902,188.482423,10.000000,1.000000,2.000000,3
/home/daniel/Projects/ppsevolution/data/maps/custom_maps/Custom_9_Run_0_Map.csv,squared_error,2.1767615538294712e-06,0.4980,0.3605,0.000000,0.883889,0.014195,0.807373,0.240310,0.118566,0.887718,1.000000,1.000000,0.034747,0.000000,0.661815,0.821382,1.000000,0.000000,2.000000,125.000000,1.264978,11.001564,0.807373,48.821738,1.626378,8.989462,1.000000,300.000000,0.789458,9.000000,0.661815,164.455073,10.000000,1.000000,2.000000,4
/home/daniel/Projects/ppsevolution/data/maps/custom_maps/Custom_9_Run_0_Map.csv,squared_error,1.796563128948489e-08,0.4998,0.3600,0.000000,1.000000,0.098208,0.770042,0.053570,0.130079,1.000000,0.000000,0.891492,0.000000,0.000000,0.668939,0.998773,1.000000,0.000000,0.000000,125.000000,1.330000,22.847377,0.770042,11.660463,1.735752,10.000000,0.000000,281.011109,0.770000,9.000000,0.668939,199.755909,10.000000,1.000000,0.000000,5
/home/daniel/Projects/ppsevolution/data/maps/custom_maps/Custom_9_Run_0_Map.csv,squared_error,3.570288736966739e-07,0.4997,0.3608,0.000000,0.954858,0.278915,0.706657,0.000000,0.030000,0.964315,0.000000,1.000000,0.027919,0.256914,0.508753,0.949104,0.701308,0.125409,0.000000,125.000000,1.304721,48.326987,0.706657,1.000000,0.785000,9.678835,0.000000,300.000000,0.785634,45.224805,0.508753,189.871628,7.162425,2.128680,0.000000,6
/home/daniel/Projects/ppsevolution/data/maps/custom_maps/Custom_9_Run_0_Map.csv,squared_error,1.4869878144942335e-06,0.5003,0.3583,0.000000,1.000000,0.210000,0.724685,0.000000,0.289136,0.991014,1.000000,1.000000,0.000000,0.116978,0.577752,1.000000,1.000000,0.204225,0.000000,125.000000,1.330000,38.610000,0.724685,1.000000,3.246795,9.919122,1.000000,300.000000,0.770000,25.493931,0.577752,200.000000,10.000000,2.838027,0.000000,7
/home/daniel/Projects/ppsevolution/data/maps/custom_maps/Custom_9_Run_0_Map.csv,squared_error,1.0640002987784827e-06,0.4992,0.3612,0.032424,0.976225,0.213164,0.722760,0.051288,0.000000,0.865492,1.000000,1.000000,0.000000,0.000000,0.646287,1.000000,1.000000,0.032804,2.000000,130.674239,1.316686,39.056188,0.722760,11.206232,0.500000,8.789425,1.000000,300.000000,0.770000,9.000000,0.646287,200.000000,10.000000,1.295233,2.000000,8
/home/daniel/Projects/ppsevolution/data/maps/custom_maps/Custom_9_Run_0_Map.csv,squared_error,1.121297941018204e-06,0.5003,0.3615,0.000000,1.000000,0.030221,0.800000,0.127010,0.034999,1.000000,1.000000,1.000000,0.149825,0.000546,0.652753,1.000000,1.000000,0.168941,0.000000,125.000000,1.330000,13.261205,0.800000,26.274979,0.832487,10.000000,1.000000,300.000000,0.853902,9.076984,0.652753,200.000000,10.000000,2.520465,0.000000,9
map,fitness,fitness value,team0ratio,time,HP,Speed,Damage,Acc,ClipSize,RateOfFire,NrBullets,Range,HP,Speed,Damage,Acc,ClipSize,RateOfFire,NrBullets,Range,HP,Speed,Damage,Acc,ClipSize,RateOfFire,NrBullets,Range,HP,Speed,Damage,Acc,ClipSize,RateOfFire,NrBullets,Range,Run,target team0ratio: 0.5,target time: 0.36
/home/daniel/Projects/ppsevolution/data/maps/custom_maps/Custom_10_Run_0_Map.csv,squared_error,5.830771750005795e-07,0.4993,0.3609,0.000000,0.818977,0.723124,1.000000,0.000000,0.025174,1.000000,2.000000,0.508033,0.203674,0.718756,1.000000,0.813672,0.631380,0.913885,2.000000,125.000000,1.228627,110.960494,1.000000,1.000000,0.739153,10.000000,2.000000,213.905835,0.884057,110.344568,1.000000,162.920694,6.498112,9.224961,2.000000,0
/home/daniel/Projects/ppsevolution/data/maps/custom_maps/Custom_10_Run_0_Map.csv,squared_error,8.417897003766991e-07,0.5012,0.3604,0.000000,0.865840,0.714972,0.994275,0.146558,0.027151,1.000000,2.000000,0.347065,0.201657,0.904145,0.995668,0.720886,1.000000,0.709788,2.000000,125.000000,1.254870,109.811106,0.994275,30.165044,0.757933,10.000000,2.000000,185.736381,0.882928,136.484495,0.995668,144.456289,10.000000,7.388089,2.000000,1
/home/daniel/Projects/ppsevolution/data/maps/custom_maps/Custom_10_Run_0_Map.csv,squared_error,2.534898696417636e-07,0.5001,0.3607,0.035522,0.774751,0.750890,1.000000,0.000000,0.069305,1.000000,2.000000,0.444306,0.240694,0.995374,1.000000,0.643882,0.959212,0.556599,1.000000,131.216362,1.203861,114.875545,1.000000,1.000000,1.158401,10.000000,2.000000,202.753532,0.904789,149.347766,1.000000,129.132455,9.612512,6.009389,1.000000,2
/home/daniel/Projects/ppsevolution/data/maps/custom_maps/Custom_10_Run_0_Map.csv,squared_error,4.62244219267237e-06,0.5018,0.3624,0.041757,0.559329,0.876204,1.000000,0.004770,0.008284,1.000000,2.000000,0.598115,0.000000,0.889254,1.000000,0.574499,0.956183,0.075072,2.000000,132.307500,1.083224,132.544811,1.000000,1.949289,0.578697,10.000000,2.000000,229.670108,0.770000,134.384858,1.000000,115.325224,9.583743,1.675650,2.000000,3
/home/daniel/Projects/ppsevolution/data/maps/custom_maps/Custom_10_Run_0_Map.csv,squared_error,6.932075890975442e-06,0.5017,0.3633,0.063543,0.823253,0.928767,1.000000,0.127160,0.126541,1.000000,2.000000,0.758349,0.305407,0.572828,1.000000,0.909759,0.154106,0.294689,2.000000,136.120105,1.231022,139.956082,1.000000,26.304828,1.702141,10.000000,2.000000,257.711091,0.941028,89.768710,1.000000,182.042034,1.964011,3.652201,2.000000,4
/home/daniel/Projects/ppsevolution/data/maps/custom_maps/Custom_10_Run_0_Map.csv,squared_error,9.855092990342622e-07,0.5010,0.3610,0.000000,0.721730,0.678786,1.000000,0.006465,0.000000,1.000000,2.000000,0.345580,0.368109,0.928233,1.000000,0.939946,0.919265,0.633033,0.000000,125.000000,1.174169,104.708838,1.000000,2.286560,0.500000,10.000000,2.000000,185.476526,0.976141,139.880873,1.000000,188.049328,9.233014,6.697296,0.000000,5
/home/daniel/Projects/ppsevolution/data/maps/custom_maps/Custom_10_Run_0_Map.csv,squared_error,8.180997602870951e-07,0.5009,0.3609,0.000000,1.000000,1.000000,1.000000,0.000000,0.178502,0.939424,2.000000,0.788550,0.265998,0.800326,1.000000,1.000000,0.499539,0.326887,2.000000,125.000000,1.330000,150.000000,1.000000,1.000000,2.195766,9.454818,2.000000,262.996326,0.918959,121.845931,1.000000,200.000000,5.245624,3.941983,2.000000,6
/home/daniel/Projects/ppsevolution/data/maps/custom_maps/Custom_10_Run_0_Map.csv,squared_error,7.736733926357587e-07,0.4996,0.3612,0.036376,0.764812,1.000000,1.000000,0.510773,0.000000,1.000000,2.000000,0.835212,0.751765,0.990407,1.000000,0.821780,0.636607,0.588560,2.000000,131.365838,1.198295,150.000000,1.000000,102.643800,0.500000,10.000000,2.000000,271.162063,1.190988,148.647407,1.000000,164.534277,6.547769,6.297036,2.000000,7
/home/daniel/Projects/ppsevolution/data/maps/custom_maps/Custom_10_Run_0_Map.csv,squared_error,1.6185340693937378e-07,0.4995,0.3601,0.078341,0.696728,0.963992,0.934542,0.166675,0.130720,0.963179,2.000000,0.054680,0.348753,0.445686,0.997802,0.827206,0.721803,0.489694,1.000000,138.709684,1.160168,144.922913,0.934542,34.168334,1.741843,9.668610,2.000000,134.568913,0.965302,71.841691,0.997802,165.613955,7.357132,5.407244,1.000000,8
/home/daniel/Projects/ppsevolution/data/maps/custom_maps/Custom_10_Run_0_Map.csv,squared_error,2.1433776285341913e-06,0.5020,0.3607,0.000000,0.806945,0.909539,0.988024,0.405732,0.089007,0.999710,2.000000,0.372450,0.874284,0.840549,1.000000,0.676451,0.501479,0.054859,1.000000,125.000000,1.221889,137.244955,0.988024,81.740694,1.345570,9.997390,2.000000,190.178670,1.259599,127.517432,1.000000,135.613673,5.264047,1.493732,1.000000,9
