map,fitness,fitness value,team0ratio,time,HP,Speed,Damage,Acc,ClipSize,RateOfFire,NrBullets,Range,HP,Speed,Damage,Acc,ClipSize,RateOfFire,NrBullets,Range,HP,Speed,Damage,Acc,ClipSize,RateOfFire,NrBullets,Range,HP,Speed,Damage,Acc,ClipSize,RateOfFire,NrBullets,Range,Run,target team0ratio: 0.5,target time: 0.36
/home/daniel/Projects/ppsevolution/data/maps/custom_maps/Custom_1_Run_0_Map.csv,squared_error,8.425322594043064e-07,0.5009,0.3609,0.012811,0.848124,0.320974,0.580494,0.251991,0.315508,0.902415,0.000000,0.957022,0.071628,0.000000,0.572966,0.752302,0.959576,0.079957,2.000000,127.241971,1.244949,54.257326,0.580494,51.146237,3.497324,9.121731,0.000000,292.478851,0.810112,9.000000,0.572966,150.708148,9.615968,1.719614,2.000000,0
/home/daniel/Projects/ppsevolution/data/maps/custom_maps/Custom_1_Run_0_Map.csv,squared_error,7.526425635951073e-06,0.5020,0.3633,0.384437,0.927018,0.066782,0.730449,0.260048,0.107848,0.940259,0.000000,0.991465,0.000000,0.463636,0.403947,0.816160,0.842910,0.091272,0.000000,192.276500,1.289130,18.416236,0.730449,52.749493,1.524559,9.462328,0.000000,298.506314,0.770000,74.372688,0.403947,163.415766,8.507646,1.821451,0.000000,1
/home/daniel/Projects/ppsevolution/data/maps/custom_maps/Custom_1_Run_0_Map.csv,squared_error,2.999158182848294e-06,0.4977,0.3592,0.029263,1.000000,0.000000,0.744372,0.115377,0.042141,0.865690,1.000000,0.885595,0.084643,0.431603,0.292993,0.949796,1.000000,0.097588,2.000000,130.120940,1.330000,9.000000,0.744372,23.959983,0.900340,8.791210,1.000000,279.979076,0.817400,69.856069,0.292993,190.009434,10.000000,1.878290,2.000000,2
/home/daniel/Projects/ppsevolution/data/maps/custom_maps/Custom_1_Run_0_Map.csv,squared_error,4.284243725290076e-06,0.4971,0.3596,0.000000,0.501409,0.198717,0.656484,0.000000,0.000000,1.000000,1.000000,0.976487,0.040430,0.000000,0.568954,1.000000,0.997687,0.190165,1.000000,125.000000,1.050789,37.019068,0.656484,1.000000,0.500000,10.000000,1.000000,295.885172,0.792641,9.000000,0.568954,200.000000,9.978025,2.711488,1.000000,3
/home/daniel/Projects/ppsevolution/data/maps/custom_maps/Custom_1_Run_0_Map.csv,squared_error,7.712467212246528e-06,0.4973,0.3572,0.000000,0.842203,0.120059,0.674092,0.151357,0.000000,1.000000,0.000000,0.802286,0.000000,0.000000,0.600393,0.835017,0.833947,0.001856,1.000000,125.000000,1.241634,25.928381,0.674092,31.119974,0.500000,10.000000,0.000000,265.400038,0.770000,9.000000,0.600393,167.168290,8.422500,1.016702,1.000000,4
/home/daniel/Projects/ppsevolution/data/maps/custom_maps/Custom_1_Run_0_Map.csv,squared_error,3.423689860358048e-06,0.5008,0.3575,0.000000,0.909539,0.624181,0.327878,0.233359,0.243277,0.905488,0.000000,0.867874,0.000000,0.148970,0.482132,0.917369,0.755308,0.074665,2.000000,125.000000,1.279342,97.009562,0.327878,47.438364,2.811129,9.149394,0.000000,276.877886,0.770000,30.004811,0.482132,183.556400,7.675429,1.671986,2.000000,5
/home/daniel/Projects/ppsevolution/data/maps/custom_maps/Custom_1_Run_0_Map.csv,squared_error,4.2142865875690264e-07,0.4993,0.3606,0.043147,0.901629,0.060286,0.724940,0.044446,0.000000,1.000000,0.000000,0.886038,0.058683,0.148600,0.502381,1.000000,0.795201,0.207110,0.000000,132.550648,1.274913,17.500373,0.724940,9.844735,0.500000,10.000000,0.000000,280.056664,0.802863,29.952572,0.502381,200.000000,8.054405,2.863993,0.000000,6
/home/daniel/Projects/ppsevolution/data/maps/custom_maps/Custom_1_Run_0_Map.csv,squared_error,2.20608062260223e-06,0.5001,0.3579,0.000000,0.820037,0.424572,0.504380,0.196354,0.522514,0.591222,2.000000,0.891977,0.000000,0.032264,0.564140,0.584858,0.929554,0.010779,2.000000,125.000000,1.229221,68.864683,0.504380,40.074399,5.463883,6.320994,2.000000,281.096036,0.770000,13.549215,0.564140,117.386682,9.330759,1.097013,2.000000,7
/home/daniel/Projects/ppsevolution/data/maps/custom_maps/Custom_1_Run_0_Map.csv,squared_error,8.899699755062504e-07,0.4998,0.3613,0.670008,0.840080,0.472429,0.456688,0.000000,0.141692,0.871674,1.000000,1.000000,0.032098,0.497498,0.437890,0.964363,0.722421,0.000000,2.000000,242.251315,1.240445,75.612435,0.456688,1.000000,1.846078,8.845063,1.000000,300.000000,0.787975,79.147150,0.437890,192.908143,7.363003,1.000000,2.000000,8
/home/daniel/Projects/ppsevolution/data/maps/custom_maps/Custom_1_Run_0_Map.csv,squared_error,1.2537144340903049e-05,0.4992,0.3649,0.000000,0.670332,0.223196,0.624650,0.101812,0.185762,1.000000,1.000000,0.952532,0.117276,0.116902,0.486342,0.746256,0.782629,0.000000,2.000000,125.000000,1.145386,40.470679,0.624650,21.260630,2.264740,10.000000,1.000000,291.693054,0.835675,25.483251,0.486342,149.504855,7.934977,1.000000,2.000000,9
map,fitness,fitness value,team0ratio,time,HP,Speed,Damage,Acc,ClipSize,RateOfFire,NrBullets,Range,HP,Speed,Damage,Acc,ClipSize,RateOfFire,NrBullets,Range,HP,Speed,Damage,Acc,ClipSize,RateOfFire,NrBullets,Range,HP,Speed,Damage,Acc,ClipSize,RateOfFire,NrBullets,Range,Run,target team0ratio: 0.5,target time: 0.36
/home/daniel/Projects/ppsevolution/data/maps/custom_maps/Custom_2_Run_0_Map.csv,squared_error,0.0005278056451076691,0.4990,0.3925,0.000000,1.000000,0.910173,1.000000,0.000000,0.109473,0.995097,2.000000,0.925622,0.417141,0.985264,1.000000,1.000000,0.995416,0.565432,2.000000,125.000000,1.330000,137.334408,1.000000,1.000000,1.539991,9.955872,2.000000,286.983870,1.003599,147.922250,1.000000,200.000000,9.956448,6.088887,2.000000,0
/home/daniel/Projects/ppsevolution/data/maps/custom_maps/Custom_2_Run_0_Map.csv,squared_error,0.0006003474279656513,0.5022,0.3946,0.033131,0.522539,0.753093,1.000000,0.031995,0.174336,0.885974,2.000000,0.579644,0.352132,1.000000,1.000000,1.000000,0.715069,0.744866,2.000000,130.797975,1.062622,115.186078,1.000000,7.367082,2.156191,8.973768,2.000000,226.437774,0.967194,150.000000,1.000000,200.000000,7.293160,7.703795,2.000000,1
/home/daniel/Projects/ppsevolution/data/maps/custom_maps/Custom_2_Run_0_Map.csv,squared_error,0.0005900277847721786,0.5037,0.3942,0.000000,0.889594,0.764518,1.000000,0.000000,0.014317,1.000000,2.000000,0.529568,0.084656,1.000000,1.000000,0.968265,0.816550,0.511631,2.000000,125.000000,1.268173,116.797072,1.000000,1.000000,0.636007,10.000000,2.000000,217.674342,0.817408,150.000000,1.000000,193.684786,8.257227,5.604678,2.000000,2
/home/daniel/Projects/ppsevolution/data/maps/custom_maps/Custom_2_Run_0_Map.csv,squared_error,0.0004573742782576812,0.5003,0.3902,0.000000,0.872583,0.709249,1.000000,0.000000,0.018445,0.937248,2.000000,0.572537,0.073113,1.000000,1.000000,0.709442,1.000000,1.000000,2.000000,125.000000,1.258647,109.004071,1.000000,1.000000,0.675227,9.435235,2.000000,225.194052,0.810943,150.000000,1.000000,142.178929,10.000000,10.000000,2.000000,3
/home/daniel/Projects/ppsevolution/data/maps/custom_maps/Custom_2_Run_0_Map.csv,squared_error,0.000706462840066276,0.4946,0.3972,0.022730,0.789898,0.463690,1.000000,0.441802,0.067145,0.836626,2.000000,0.161718,0.539493,1.000000,1.000000,0.851225,0.945904,0.329490,2.000000,128.977825,1.212343,74.380294,1.000000,88.918518,1.137875,8.529632,2.000000,153.300731,1.072116,150.000000,1.000000,170.393847,9.486089,3.965406,2.000000,4
/home/daniel/Projects/ppsevolution/data/maps/custom_maps/Custom_2_Run_0_Map.csv,squared_error,0.0005125155180145985,0.5002,0.3920,0.000000,1.000000,0.768860,1.000000,0.128167,0.235752,0.874526,2.000000,0.719988,0.000072,0.946781,1.000000,0.911567,1.000000,0.984932,2.000000,125.000000,1.330000,117.409314,1.000000,26.505176,2.739640,8.870738,2.000000,250.997915,0.770040,142.496095,1.000000,182.401813,10.000000,9.864387,2.000000,5
/home/daniel/Projects/ppsevolution/data/maps/custom_maps/Custom_2_Run_0_Map.csv,squared_error,0.0006444877880862483,0.4885,0.3940,0.000000,0.465599,0.785893,1.000000,0.056903,0.244155,1.000000,2.000000,1.000000,0.615513,1.000000,0.981992,0.611712,0.679699,0.741844,2.000000,125.000000,1.030736,119.810850,1.000000,12.323653,2.819474,10.000000,2.000000,300.000000,1.114687,150.000000,0.981992,122.730748,6.957142,7.676599,2.000000,6
/home/daniel/Projects/ppsevolution/data/maps/custom_maps/Custom_2_Run_0_Map.csv,squared_error,0.0004540034720882386,0.4967,0.3899,0.000000,0.925725,0.823304,1.000000,0.000000,0.000000,1.000000,2.000000,0.818937,0.465304,1.000000,1.000000,0.866500,1.000000,0.817549,2.000000,125.000000,1.288406,125.085798,1.000000,1.000000,0.500000,10.000000,2.000000,268.313923,1.030571,150.000000,1.000000,173.433492,10.000000,8.357937,2.000000,7
/home/daniel/Projects/ppsevolution/data/maps/custom_maps/Custom_2_Run_0_Map.csv,squared_error,0.0005530925997743413,0.4915,0.3922,0.000000,1.000000,0.839760,1.000000,0.187524,0.014482,0.942296,2.000000,0.895529,0.427351,1.000000,1.000000,0.618241,1.000000,0.614815,2.000000,125.000000,1.330000,127.406226,1.000000,38.317231,0.637580,9.480664,2.000000,281.717660,1.009317,150.000000,1.000000,124.029970,10.000000,6.533331,2.000000,8
/home/daniel/Projects/ppsevolution/data/maps/custom_maps/Custom_2_Run_0_Map.csv,squared_error,0.000533045097781844,0.4894,0.3909,0.008417,1.000000,0.726586,1.000000,0.173759,0.038988,1.000000,2.000000,0.833170,0.000000,0.873569,0.998624,0.934606,1.000000,0.984652,2.000000,126.472983,1.330000,111.448687,1.000000,35.578042,0.870383,10.000000,2.000000,270.804807,0.770000,132.173246,0.998624,186.986646,10.000000,9.861871,2.000000,9
map,fitness,fitness value,team0ratio,time,HP,Speed,Damage,Acc,ClipSize,RateOfFire,NrBullets,Range,HP,Speed,Damage,Acc,ClipSize,RateOfFire,NrBullets,Range,HP,Speed,Damage,Acc,ClipSize,RateOfFire,NrBullets,Range,HP,Speed,Damage,Acc,ClipSize,RateOfFire,NrBullets,Range,Run,target team0ratio: 0.5,target time: 0.36
/home/daniel/Projects/ppsevolution/data/maps/custom_maps/Custom_3_Run_0_Map.csv,squared_error,0.006668392463725429,0.5020,0.4755,0.001925,1.000000,0.929714,0.975030,0.000000,0.343944,0.984476,2.000000,0.242102,0.026985,0.932054,1.000000,0.505610,0.609238,0.556498,2.000000,125.336896,1.330000,140.089726,0.975030,1.000000,3.767470,9.860286,2.000000,167.367862,0.785111,140.419589,1.000000,101.616447,6.287757,6.008482,2.000000,0
/home/daniel/Projects/ppsevolution/data/maps/custom_maps/Custom_3_Run_0_Map.csv,squared_error,0.006461070996487483,0.5199,0.4719,0.057741,0.488901,0.810900,1.000000,0.043886,0.102999,1.000000,2.000000,0.308430,0.000000,1.000000,1.000000,0.775223,0.152151,1.000000,2.000000,135.104600,1.043785,123.336901,1.000000,9.733291,1.478490,10.000000,2.000000,178.975287,0.770000,150.000000,1.000000,155.269327,1.945434,10.000000,2.000000,1
/home/daniel/Projects/ppsevolution/data/maps/custom_maps/Custom_3_Run_0_Map.csv,squared_error,0.006748189667728572,0.5164,0.4750,0.015417,0.489960,0.831635,1.000000,0.107789,0.162202,1.000000,2.000000,0.490986,0.722815,1.000000,1.000000,0.979430,0.713401,0.779540,2.000000,127.697898,1.044378,126.260469,1.000000,22.449962,2.040920,10.000000,2.000000,210.922517,1.174776,150.000000,1.000000,195.906565,7.277305,8.015859,2.000000,2
/home/daniel/Projects/ppsevolution/data/maps/custom_maps/Custom_3_Run_0_Map.csv,squared_error,0.006307367749316179,0.4955,0.4722,0.000000,0.679763,0.666498,0.995164,0.000000,0.482919,0.944312,2.000000,0.090384,0.060383,1.000000,1.000000,0.990174,0.042905,1.000000,2.000000,125.000000,1.150667,102.976280,0.995164,1.000000,5.087735,9.498807,2.000000,140.817225,0.803815,150.000000,1.000000,198.044695,0.907597,10.000000,2.000000,3
/home/daniel/Projects/ppsevolution/data/maps/custom_maps/Custom_3_Run_0_Map.csv,squared_error,0.006520892431802829,0.5161,0.4731,0.000000,0.352219,0.599616,1.000000,0.317084,0.241759,0.983761,2.000000,0.000000,0.709964,1.000000,1.000000,0.966136,0.414150,1.000000,2.000000,125.000000,0.967243,93.545793,1.000000,64.099655,2.796708,9.853848,2.000000,125.000000,1.167580,150.000000,1.000000,193.261125,4.434422,10.000000,2.000000,4
/home/daniel/Projects/ppsevolution/data/maps/custom_maps/Custom_3_Run_0_Map.csv,squared_error,0.006816541421236086,0.5078,0.4765,0.000000,0.903145,1.000000,1.000000,0.541550,0.162729,1.000000,2.000000,0.812181,0.131969,1.000000,1.000000,1.000000,0.602416,0.691255,2.000000,125.000000,1.275761,150.000000,1.000000,108.768431,2.045921,10.000000,2.000000,267.131681,0.843902,150.000000,1.000000,200.000000,6.222956,7.221292,2.000000,5
/home/daniel/Projects/ppsevolution/data/maps/custom_maps/Custom_3_Run_0_Map.csv,squared_error,0.006721731924799418,0.5024,0.4759,0.009833,0.811812,0.739842,1.000000,0.288121,0.000000,0.951008,2.000000,0.435826,0.000000,1.000000,1.000000,0.929761,0.763859,0.689224,2.000000,126.720779,1.224615,113.317674,1.000000,58.336144,0.500000,9.559068,2.000000,201.269580,0.770000,150.000000,1.000000,186.022512,7.756663,7.203018,2.000000,6
/home/daniel/Projects/ppsevolution/data/maps/custom_maps/Custom_3_Run_0_Map.csv,squared_error,0.006671865350119199,0.5058,0.4754,0.000000,0.346238,0.839159,1.000000,0.128742,0.129892,1.000000,2.000000,0.570476,0.348760,1.000000,1.000000,1.000000,0.754929,0.783634,2.000000,125.000000,0.963893,127.321414,1.000000,26.619685,1.733969,10.000000,2.000000,224.833315,0.965306,150.000000,1.000000,200.000000,7.671828,8.052703,2.000000,7
/home/daniel/Projects/ppsevolution/data/maps/custom_maps/Custom_3_Run_0_Map.csv,squared_error,0.006727364217124038,0.5107,0.4755,0.000000,0.741518,1.000000,1.000000,0.064064,0.496716,0.995061,2.000000,0.758238,0.009488,1.000000,1.000000,0.767891,0.653997,0.681337,2.000000,125.000000,1.185250,150.000000,1.000000,13.748744,5.218800,9.955549,2.000000,257.691569,0.775314,150.000000,1.000000,153.810235,6.712976,7.132029,2.000000,8
/home/daniel/Projects/ppsevolution/data/maps/custom_maps/Custom_3_Run_0_Map.csv,squared_error,0.007175351843361957,0.5185,0.4784,0.000000,0.961242,1.000000,1.000000,0.051856,0.428120,1.000000,2.000000,0.735508,0.465296,1.000000,1.000000,0.865700,0.993992,0.000000,2.000000,125.000000,1.308295,150.000000,1.000000,11.319426,4.567139,10.000000,2.000000,253.713873,1.030566,150.000000,1.000000,173.274286,9.942920,1.000000,2.000000,9
map,fitness,fitness value,team0ratio,time,HP,Speed,Damage,Acc,ClipSize,RateOfFire,NrBullets,Range,HP,Speed,Damage,Acc,ClipSize,RateOfFire,NrBullets,Range,HP,Speed,Damage,Acc,ClipSize,RateOfFire,NrBullets,Range,HP,Speed,Damage,Acc,ClipSize,RateOfFire,NrBullets,Range,Run,target team0ratio: 0.5,target time: 0.36
/home/daniel/Projects/ppsevolution/data/maps/custom_maps/Custom_4_Run_0_Map.csv,squared_error,2.2185884018234977e-06,0.4979,0.3602,0.202187,1.000000,0.090539,0.800372,0.080094,0.275685,1.000000,1.000000,0.984712,0.211317,0.145733,0.633508,1.000000,1.000000,0.173501,1.000000,160.382742,1.330000,21.765961,0.800372,16.938624,3.119005,10.000000,1.000000,297.324620,0.888338,29.548363,0.633508,200.000000,10.000000,2.561510,1.000000,0
/home/daniel/Projects/ppsevolution/data/maps/custom_maps/Custom_4_Run_0_Map.csv,squared_error,3.0915902888530635e-06,0.4982,0.3617,0.119904,0.652349,0.000293,0.819917,0.132226,0.123048,0.705320,2.000000,0.869620,0.147468,0.000000,0.692350,1.000000,0.637991,0.000000,2.000000,145.983194,1.135315,9.041360,0.819917,27.312948,1.668956,7.347884,2.000000,277.183515,0.852582,9.000000,0.692350,200.000000,6.560917,1.000000,2.000000,1
/home/daniel/Projects/ppsevolution/data/maps/custom_maps/Custom_4_Run_0_Map.csv,squared_error,2.55943412331946e-06,0.5021,0.3609,0.000000,1.000000,0.195437,0.755745,0.195894,0.000000,0.987412,2.000000,1.000000,0.009233,0.000000,0.639054,0.827675,0.960680,0.168736,1.000000,125.000000,1.330000,36.556658,0.755745,39.983004,0.500000,9.886707,2.000000,300.000000,0.775171,9.000000,0.639054,165.707304,9.626455,2.518624,1.000000,2
/home/daniel/Projects/ppsevolution/data/maps/custom_maps/Custom_4_Run_0_Map.csv,squared_error,8.465825753269346e-07,0.4992,0.3590,0.000000,1.000000,0.273743,0.725326,0.244425,0.072040,0.998980,2.000000,0.985531,0.000000,0.236388,0.521019,1.000000,0.713169,0.097872,0.000000,125.000000,1.330000,47.597693,0.725326,49.640573,1.184381,9.990816,2.000000,297.467847,0.770000,42.330664,0.521019,200.000000,7.275103,1.880851,0.000000,3
/home/daniel/Projects/ppsevolution/data/maps/custom_maps/Custom_4_Run_0_Map.csv,squared_error,1.5788540221968385e-05,0.5053,0.3618,0.152216,0.771628,0.000000,0.845908,0.193049,0.291807,0.820706,0.000000,0.908090,0.094412,0.000000,0.711217,1.000000,0.986976,0.169651,1.000000,151.637805,1.202112,9.000000,0.845908,39.416761,3.272165,8.386355,0.000000,283.915749,0.822871,9.000000,0.711217,200.000000,9.876268,2.526856,1.000000,4
/home/daniel/Projects/ppsevolution/data/maps/custom_maps/Custom_4_Run_0_Map.csv,squared_error,3.282739782690446e-08,0.4998,0.3598,0.000000,0.940250,0.196189,0.780595,0.019454,0.023097,1.000000,0.000000,1.000000,0.004070,0.097872,0.614709,1.000000,1.000000,0.249580,0.000000,125.000000,1.296540,36.662689,0.780595,4.871388,0.719420,10.000000,0.000000,300.000000,0.772279,22.799886,0.614709,200.000000,10.000000,3.246217,0.000000,5
/home/daniel/Projects/ppsevolution/data/maps/custom_maps/Custom_4_Run_0_Map.csv,squared_error,1.4974996341756484e-06,0.5000,0.3617,0.000000,0.925261,0.192611,0.758922,0.178788,0.350975,0.899793,2.000000,0.998406,0.309179,0.061206,0.605340,0.955777,0.927345,0.195046,1.000000,125.000000,1.288146,36.158180,0.758922,36.578859,3.834265,9.098137,2.000000,299.721052,0.943140,17.630114,0.605340,191.199613,9.309776,2.755416,1.000000,6
/home/daniel/Projects/ppsevolution/data/maps/custom_maps/Custom_4_Run_0_Map.csv,squared_error,3.250533877043344e-07,0.4996,0.3593,0.045632,0.807325,0.229595,0.766962,0.111432,0.262307,1.000000,0.000000,0.962036,0.002427,0.094976,0.636530,1.000000,0.752249,0.000000,0.000000,132.985619,1.222102,41.372920,0.766962,23.174948,2.991913,10.000000,0.000000,293.356300,0.771359,22.391635,0.636530,200.000000,7.646366,1.000000,0.000000,7
/home/daniel/Projects/ppsevolution/data/maps/custom_maps/Custom_4_Run_0_Map.csv,squared_error,5.012005993996399e-06,0.5029,0.3613,0.427907,0.928957,0.186784,0.766589,0.094203,0.194034,0.854582,2.000000,1.000000,0.000000,0.027131,0.719734,0.638615,0.982588,0.000000,1.000000,199.883767,1.290216,35.336489,0.766589,19.746457,2.343319,8.691240,2.000000,300.000000,0.770000,12.825499,0.719734,128.084390,9.834583,1.000000,1.000000,8
/home/daniel/Projects/ppsevolution/data/maps/custom_maps/Custom_4_Run_0_Map.csv,squared_error,9.689852521712814e-06,0.4959,0.3615,0.010695,0.725312,0.131862,0.797587,0.069631,0.000000,0.607598,2.000000,1.000000,0.348232,0.083592,0.622878,1.000000,0.758233,0.174537,1.000000,126.871611,1.176175,27.592503,0.797587,14.856606,0.500000,6.468386,2.000000,300.000000,0.965010,20.786500,0.622878,200.000000,7.703218,2.570835,1.000000,9
map,fitness,fitness value,team0ratio,time,HP,Speed,Damage,Acc,ClipSize,RateOfFire,NrBullets,Range,HP,Speed,Damage,Acc,ClipSize,RateOfFire,NrBullets,Range,HP,Speed,Damage,Acc,ClipSize,RateOfFire,NrBullets,Range,HP,Speed,Damage,Acc,ClipSize,RateOfFire,NrBullets,Range,Run,target team0ratio: 0.5,target time: 0.36
/home/daniel/Projects/ppsevolution/data/maps/custom_maps/Custom_5_Run_0_Map.csv,squared_error,4.236205618801822e-06,0.5022,0.3581,0.495269,0.613576,0.156958,1.000000,0.318345,0.192825,0.895457,0.000000,0.639859,0.488297,0.133371,1.000000,1.000000,0.758471,0.000000,2.000000,211.672051,1.113603,31.131026,1.000000,64.350745,2.331840,9.059116,0.000000,236.975403,1.043446,27.805268,1.000000,200.000000,7.705476,1.000000,2.000000,0
/home/daniel/Projects/ppsevolution/data/maps/custom_maps/Custom_5_Run_0_Map.csv,squared_error,1.1333623434552634e-06,0.5008,0.3613,0.066604,0.877486,0.325064,1.000000,0.209530,0.000000,0.963666,0.000000,1.000000,0.138571,0.203226,0.964652,0.918742,1.000000,0.533970,0.000000,136.655724,1.261392,54.833990,1.000000,42.696438,0.500000,9.672991,0.000000,300.000000,0.847600,37.654889,0.964652,183.829631,10.000000,5.805730,0.000000,1
/home/daniel/Projects/ppsevolution/data/maps/custom_maps/Custom_5_Run_0_Map.csv,squared_error,1.1669647939840072e-06,0.5011,0.3610,0.118676,0.390763,0.144141,1.000000,0.127244,0.000000,1.000000,0.000000,0.667766,0.000000,0.000000,0.987606,0.977839,0.585402,0.159219,1.000000,145.768359,0.988827,29.323901,1.000000,26.321470,0.500000,10.000000,0.000000,241.859020,0.770000,9.000000,0.987606,195.590022,6.061318,2.432968,1.000000,2
/home/daniel/Projects/ppsevolution/data/maps/custom_maps/Custom_5_Run_0_Map.csv,squared_error,1.3051582981972997e-06,0.5011,0.3612,0.284232,1.000000,0.214518,1.000000,0.297831,0.272910,0.611427,1.000000,0.862368,0.108506,0.054439,1.000000,0.932066,1.000000,0.000000,2.000000,174.740605,1.330000,39.247024,1.000000,60.268465,3.092648,6.502842,1.000000,275.914407,0.830764,16.675854,1.000000,186.481161,10.000000,1.000000,2.000000,3
/home/daniel/Projects/ppsevolution/data/maps/custom_maps/Custom_5_Run_0_Map.csv,squared_error,9.363040199474496e-07,0.5013,0.3605,0.039436,0.761407,0.186036,1.000000,0.000000,0.090499,0.783734,0.000000,0.668675,0.010265,0.000000,0.993480,1.000000,0.938634,0.050564,1.000000,131.901244,1.196388,35.231055,1.000000,1.000000,1.359737,8.053607,0.000000,242.018113,0.775748,9.000000,0.993480,200.000000,9.417021,1.455076,1.000000,4
/home/daniel/Projects/ppsevolution/data/maps/custom_maps/Custom_5_Run_0_Map.csv,squared_error,2.2953770897518577e-08,0.4999,0.3602,0.283923,0.913680,0.114112,1.000000,0.169977,0.173077,1.000000,1.000000,0.789525,0.190403,0.000000,1.000000,0.892574,0.919516,0.477086,0.000000,174.686441,1.281661,25.089728,1.000000,34.825442,2.144232,10.000000,1.000000,263.166916,0.876626,9.000000,1.000000,178.622290,9.235406,5.293770,0.000000,5
/home/daniel/Projects/ppsevolution/data/maps/custom_maps/Custom_5_Run_0_Map.csv,squared_error,5.830431831128306e-08,0.4998,0.3598,0.106929,0.990775,0.176941,1.000000,0.244598,0.021543,0.548051,2.000000,0.835889,0.135612,0.000000,1.000000,0.922127,0.832092,0.000000,1.000000,143.712530,1.324834,33.948633,1.000000,49.675044,0.704661,5.932461,2.000000,271.280552,0.845943,9.000000,1.000000,184.503296,8.404870,1.000000,1.000000,6
/home/daniel/Projects/ppsevolution/data/maps/custom_maps/Custom_5_Run_0_Map.csv,squared_error,1.8406106470394016e-06,0.5019,0.3603,0.240787,0.799017,0.191855,1.000000,0.386128,0.159451,0.848074,1.000000,0.836690,0.056582,0.001096,1.000000,0.916806,0.830674,0.342809,0.000000,167.137705,1.217449,36.051494,1.000000,77.839511,2.014785,8.632668,1.000000,271.420828,0.801686,9.154519,1.000000,183.444460,8.391406,4.085277,0.000000,7
/home/daniel/Projects/ppsevolution/data/maps/custom_maps/Custom_5_Run_0_Map.csv,squared_error,3.4266109560078582e-06,0.4992,0.3575,0.325102,1.000000,0.000000,1.000000,0.204105,0.380525,0.850789,2.000000,0.637127,0.000000,0.080839,1.000000,0.932971,1.000000,0.265687,1.000000,181.892800,1.330000,9.000000,1.000000,41.616911,4.114986,8.657105,2.000000,236.497218,0.770000,20.398281,1.000000,186.661139,10.000000,3.391184,1.000000,8
/home/daniel/Projects/ppsevolution/data/maps/custom_maps/Custom_5_Run_0_Map.csv,squared_error,5.670406144766231e-07,0.5005,0.3609,0.000000,1.000000,0.488973,0.943612,0.022646,0.000000,0.726262,1.000000,0.720465,0.494741,0.555676,0.889001,0.777523,1.000000,0.007086,0.000000,125.000000,1.330000,77.945126,0.943612,5.506626,0.500000,7.536356,1.000000,251.081449,1.047055,87.350276,0.889001,155.727119,10.000000,1.063774,0.000000,9
map,fitness,fitness value,team0ratio,time,HP,Speed,Damage,Acc,ClipSize,RateOfFire,NrBullets,Range,HP,Speed,Damage,Acc,ClipSize,RateOfFire,NrBullets,Range,HP,Speed,Damage,Acc,ClipSize,RateOfFire,NrBullets,Range,HP,Speed,Damage,Acc,ClipSize,RateOfFire,NrBullets,Range,Run,target team0ratio: 0.5,target time: 0.36
/home/daniel/Projects/ppsevolution/data/maps/custom_maps/Custom_6_Run_0_Map.csv,squared_error,0.008979913836249602,0.4596,0.4878,0.049735,0.831857,0.053686,1.000000,0.320129,0.000000,1.000000,2.000000,1.000000,0.059207,0.926679,0.917807,0.931009,0.905879,0.742004,2.000000,133.703697,1.235840,16.569701,1.000000,64.705661,0.500000,10.000000,2.000000,300.000000,0.803156,139.661718,0.917807,186.270729,9.105849,7.678038,2.000000,0
/home/daniel/Projects/ppsevolution/data/maps/custom_maps/Custom_6_Run_0_Map.csv,squared_error,0.008157281933286293,0.4659,0.4831,0.102937,0.782981,0.015760,1.000000,0.022842,0.049011,0.345472,2.000000,1.000000,0.241366,0.980024,0.914459,1.000000,1.000000,1.000000,2.000000,143.014061,1.208469,11.222141,1.000000,5.545632,0.965601,4.109246,2.000000,300.000000,0.905165,147.183420,0.914459,200.000000,10.000000,10.000000,2.000000,1
/home/daniel/Projects/ppsevolution/data/maps/custom_maps/Custom_6_Run_0_Map.csv,squared_error,0.008765671151821815,0.4562,0.4849,0.288181,0.926000,0.000000,1.000000,0.083577,0.036925,1.000000,2.000000,0.982012,0.201558,1.000000,0.930008,0.973269,0.908887,0.624814,2.000000,175.431674,1.288560,9.000000,1.000000,17.631865,0.850791,10.000000,2.000000,296.852044,0.882872,150.000000,0.930008,194.680479,9.134423,6.623330,2.000000,2
/home/daniel/Projects/ppsevolution/data/maps/custom_maps/Custom_6_Run_0_Map.csv,squared_error,0.008405866406173598,0.4742,0.4871,0.000000,0.784831,0.000000,1.000000,0.029700,0.216504,0.538176,2.000000,1.000000,0.046861,1.000000,0.885338,0.898128,0.937225,0.966623,2.000000,125.000000,1.209505,9.000000,1.000000,6.910248,2.556793,5.843583,2.000000,300.000000,0.796242,150.000000,0.885338,179.727513,9.403642,9.699606,2.000000,3
/home/daniel/Projects/ppsevolution/data/maps/custom_maps/Custom_6_Run_0_Map.csv,squared_error,0.009464401909910368,0.4788,0.4959,0.148737,0.722687,0.000000,1.000000,0.173302,0.083786,0.555279,2.000000,1.000000,0.637698,0.816426,0.915163,0.834989,0.981663,0.305635,2.000000,151.028936,1.174705,9.000000,1.000000,35.487154,1.295971,5.997508,2.000000,300.000000,1.127111,124.116028,0.915163,167.162851,9.825797,3.750716,2.000000,4
/home/daniel/Projects/ppsevolution/data/maps/custom_maps/Custom_6_Run_0_Map.csv,squared_error,0.00847541027437998,0.4628,0.4848,0.542419,0.981419,0.000000,1.000000,0.205290,0.060279,0.392589,2.000000,0.986095,0.000000,1.000000,0.956138,0.957023,1.000000,0.959892,2.000000,219.923314,1.319595,9.000000,1.000000,41.852614,1.072647,4.533297,2.000000,297.566637,0.770000,150.000000,0.956138,191.447519,10.000000,9.639024,2.000000,5
/home/daniel/Projects/ppsevolution/data/maps/custom_maps/Custom_6_Run_0_Map.csv,squared_error,0.008906057296550179,0.4736,0.4908,0.039727,0.540956,0.000000,1.000000,0.006577,0.114701,1.000000,2.000000,1.000000,0.114066,0.968423,0.888462,0.783412,0.831867,0.622413,2.000000,131.952144,1.072935,9.000000,1.000000,2.308888,1.589663,10.000000,2.000000,300.000000,0.833877,145.547692,0.888462,156.898954,8.402737,6.601715,2.000000,6
/home/daniel/Projects/ppsevolution/data/maps/custom_maps/Custom_6_Run_0_Map.csv,squared_error,0.008761301855141193,0.4530,0.4837,0.143746,0.832482,0.000000,1.000000,0.168829,0.269889,0.764324,2.000000,1.000000,0.332410,1.000000,0.918967,0.697244,0.964468,0.750728,2.000000,150.155507,1.236190,9.000000,1.000000,34.596914,3.063942,7.878914,2.000000,300.000000,0.956150,150.000000,0.918967,139.751482,9.662441,7.756554,2.000000,7
/home/daniel/Projects/ppsevolution/data/maps/custom_maps/Custom_6_Run_0_Map.csv,squared_error,0.0091891122886342,0.4684,0.4918,0.180182,0.888167,0.000000,1.000000,0.000000,0.132226,0.530695,2.000000,1.000000,0.247037,0.933182,0.916316,1.000000,1.000000,0.000000,2.000000,156.531881,1.267374,9.000000,1.000000,1.000000,1.756147,5.776254,2.000000,300.000000,0.908341,140.578682,0.916316,200.000000,10.000000,1.000000,2.000000,8
/home/daniel/Projects/ppsevolution/data/maps/custom_maps/Custom_6_Run_0_Map.csv,squared_error,0.008639577612480982,0.4498,0.4815,0.146226,0.735557,0.000000,1.000000,0.155546,0.163643,0.867766,2.000000,1.000000,0.182299,1.000000,0.922171,0.969802,0.982775,0.769708,2.000000,150.589463,1.181912,9.000000,1.000000,31.953668,2.054607,8.809898,2.000000,300.000000,0.872087,150.000000,0.922171,193.990678,9.836364,7.927371,2.000000,9
map,fitness,fitness value,team0ratio,time,HP,Speed,Damage,Acc,ClipSize,RateOfFire,NrBullets,Range,HP,Speed,Damage,Acc,ClipSize,RateOfFire,NrBullets,Range,HP,Speed,Damage,Acc,ClipSize,RateOfFire,NrBullets,Range,HP,Speed,Damage,Acc,ClipSize,RateOfFire,NrBullets,Range,Run,target team0ratio: 0.5,target time: 0.36
/home/daniel/Projects/ppsevolution/data/maps/custom_maps/Custom_7_Run_0_Map.csv,squared_error,8.671246723281629e-07,0.5002,0.3613,0.158626,1.000000,0.511432,0.994483,0.502227,0.321259,1.000000,1.000000,1.000000,0.159167,0.198736,0.994840,1.000000,0.653086,0.047453,0.000000,152.759628,1.330000,81.111926,0.994483,100.943099,3.551960,10.000000,1.000000,300.000000,0.859134,37.021798,0.994840,200.000000,6.704317,1.427077,0.000000,0
/home/daniel/Projects/ppsevolution/data/maps/custom_maps/Custom_7_Run_0_Map.csv,squared_error,1.4484033714225358e-06,0.4995,0.3584,0.000000,0.749522,0.326955,1.000000,0.012649,0.528030,0.790696,0.000000,0.906417,0.000000,0.000000,0.996059,0.865694,0.910925,0.066637,2.000000,125.000000,1.189732,55.100630,1.000000,3.517247,5.516284,8.116261,0.000000,283.622995,0.770000,9.000000,0.996059,173.273149,9.153792,1.599730,2.000000,1
/home/daniel/Projects/ppsevolution/data/maps/custom_maps/Custom_7_Run_0_Map.csv,squared_error,3.911907345357715e-06,0.4979,0.3619,0.284082,0.953742,0.284806,1.000000,0.386079,0.056630,0.987555,0.000000,0.787986,0.117640,0.185430,1.000000,0.830869,0.836198,0.410552,0.000000,174.714397,1.304096,49.157691,1.000000,77.829653,1.037988,9.887992,0.000000,262.897622,0.835878,35.145668,1.000000,166.342908,8.443880,4.694969,0.000000,2
/home/daniel/Projects/ppsevolution/data/maps/custom_maps/Custom_7_Run_0_Map.csv,squared_error,2.7683102813427067e-06,0.5010,0.3621,0.252058,0.987708,0.131988,1.000000,0.122119,0.431520,0.924074,1.000000,0.779797,0.012069,0.040298,1.000000,0.659971,0.884180,0.000000,2.000000,169.110118,1.323117,27.610293,1.000000,25.301736,4.599436,9.316669,1.000000,261.464481,0.776759,14.681997,1.000000,132.334151,8.899713,1.000000,2.000000,3
/home/daniel/Projects/ppsevolution/data/maps/custom_maps/Custom_7_Run_0_Map.csv,squared_error,3.4488275516792327e-07,0.4993,0.3595,0.076255,0.894070,0.412197,1.000000,0.015799,0.143905,0.732207,1.000000,1.000000,0.197289,0.127229,1.000000,0.893956,0.901124,0.000000,0.000000,138.344659,1.270679,67.119747,1.000000,4.143916,1.867100,7.589860,1.000000,300.000000,0.880482,26.939338,1.000000,178.897256,9.060683,1.000000,0.000000,4
/home/daniel/Projects/ppsevolution/data/maps/custom_maps/Custom_7_Run_0_Map.csv,squared_error,7.801036853074242e-07,0.5006,0.3611,0.000000,0.786876,0.150890,1.000000,0.028561,0.060902,1.000000,1.000000,0.705796,0.174266,0.000000,1.000000,0.922793,1.000000,0.191720,0.000000,125.000000,1.210650,30.275452,1.000000,6.683624,1.078569,10.000000,1.000000,248.514269,0.867589,9.000000,1.000000,184.635885,10.000000,2.725479,0.000000,5
/home/daniel/Projects/ppsevolution/data/maps/custom_maps/Custom_7_Run_0_Map.csv,squared_error,2.1596708673428893e-07,0.5003,0.3606,0.005407,0.881959,0.323432,1.000000,0.000000,0.000000,1.000000,1.000000,0.946445,0.000000,0.023332,1.000000,1.000000,0.985523,0.000000,0.000000,125.946239,1.263897,54.603844,1.000000,1.000000,0.500000,10.000000,1.000000,290.627833,0.770000,12.289778,1.000000,200.000000,9.862464,1.000000,0.000000,6
/home/daniel/Projects/ppsevolution/data/maps/custom_maps/Custom_7_Run_0_Map.csv,squared_error,3.88416443502126e-07,0.4999,0.3591,0.000000,0.778940,0.223474,1.000000,0.105153,0.000000,0.520034,2.000000,0.964675,0.085541,0.000000,1.000000,0.930248,0.889182,0.009949,1.000000,125.000000,1.206207,40.509855,1.000000,21.925473,0.500000,5.680309,2.000000,293.818148,0.817903,9.000000,1.000000,186.119330,8.947232,1.089544,1.000000,7
/home/daniel/Projects/ppsevolution/data/maps/custom_maps/Custom_7_Run_0_Map.csv,squared_error,4.109105573270697e-07,0.4991,0.3599,0.127869,0.966512,0.366057,0.997656,0.235841,0.103830,0.883847,1.000000,1.000000,0.000000,0.094864,1.000000,0.950567,0.974357,0.304616,0.000000,147.377123,1.311247,60.614086,0.997656,47.932371,1.486389,8.954619,1.000000,300.000000,0.770000,22.375853,1.000000,190.162859,9.756387,3.741547,0.000000,8
/home/daniel/Projects/ppsevolution/data/maps/custom_maps/Custom_7_Run_0_Map.csv,squared_error,4.3505815948493687e-07,0.5001,0.3609,0.000000,0.905793,0.000000,1.000000,0.289684,0.223354,0.368114,1.000000,0.974216,0.000000,0.389181,0.895389,1.000000,0.391268,0.000000,2.000000,125.000000,1.277244,9.000000,1.000000,58.647040,2.621866,4.313026,1.000000,295.487837,0.770000,63.874545,0.895389,200.000000,4.217042,1.000000,2.000000,9
map,fitness,fitness value,team0ratio,time,HP,Speed,Damage,Acc,ClipSize,RateOfFire,NrBullets,Range,HP,Speed,Damage,Acc,ClipSize,RateOfFire,NrBullets,Range,HP,Speed,Damage,Acc,ClipSize,RateOfFire,NrBullets,Range,HP,Speed,Damage,Acc,ClipSize,RateOfFire,NrBullets,Range,Run,target team0ratio: 0.5,target time: 0.36
/home/daniel/Projects/ppsevolution/data/maps/custom_maps/Custom_8_Run_0_Map.csv,squared_error,1.091987332884094e-05,0.4989,0.3646,0.000000,0.949165,0.014598,0.855401,0.152847,0.000000,1.000000,0.000000,0.830221,0.131618,0.041147,0.719311,0.941229,0.931292,0.045767,2.000000,125.000000,1.301532,11.058350,0.855401,31.416603,0.500000,10.000000,0.000000,270.288727,0.843706,14.801742,0.719311,188.304521,9.347273,1.411904,2.000000,0
/home/daniel/Projects/ppsevolution/data/maps/custom_maps/Custom_8_Run_0_Map.csv,squared_error,7.394209937274275e-07,0.5011,0.3594,0.041639,0.764934,0.566128,0.683787,0.003702,0.096738,0.746658,0.000000,0.872646,0.081723,0.000000,0.738083,0.684267,0.811572,0.000000,2.000000,132.286860,1.198363,88.824118,0.683787,1.736725,1.419007,7.719923,0.000000,277.712989,0.815765,9.000000,0.738083,137.169040,8.209937,1.000000,2.000000,1
/home/daniel/Projects/ppsevolution/data/maps/custom_maps/Custom_8_Run_0_Map.csv,squared_error,7.201991776315752e-06,0.5019,0.3633,0.009064,0.956117,0.372314,0.748949,0.043013,0.000000,0.876210,2.000000,1.000000,0.160554,0.000000,0.715230,1.000000,0.947122,0.034600,1.000000,126.586212,1.305426,61.496251,0.748949,9.559546,0.500000,8.885886,2.000000,300.000000,0.859910,9.000000,0.715230,200.000000,9.497656,1.311401,1.000000,2
/home/daniel/Projects/ppsevolution/data/maps/custom_maps/Custom_8_Run_0_Map.csv,squared_error,3.317688565967075e-06,0.4985,0.3579,0.054468,0.838340,0.168396,0.790044,0.066693,0.274940,1.000000,2.000000,0.812097,0.000000,0.000000,0.728647,0.982715,0.781822,0.254311,0.000000,134.531886,1.239470,32.743797,0.790044,14.271907,3.111930,10.000000,2.000000,267.116996,0.770000,9.000000,0.728647,196.560302,7.927313,3.288799,0.000000,3
/home/daniel/Projects/ppsevolution/data/maps/custom_maps/Custom_8_Run_0_Map.csv,squared_error,3.1839676851099643e-06,0.4989,0.3623,0.000000,0.908160,0.238761,0.790215,0.211678,0.000000,0.925395,2.000000,0.935771,0.264315,0.450233,0.509028,0.939559,0.797873,0.020629,0.000000,125.000000,1.278569,42.665331,0.790215,43.124020,0.500000,9.328558,2.000000,288.759840,0.918016,72.482861,0.509028,187.972294,8.079789,1.185663,0.000000,4
/home/daniel/Projects/ppsevolution/data/maps/custom_maps/Custom_8_Run_0_Map.csv,squared_error,7.73120163582073e-07,0.4990,0.3607,0.000000,0.915390,0.425886,0.728910,0.048994,0.000000,1.000000,2.000000,0.987774,0.164759,0.220856,0.632507,0.967008,1.000000,0.000000,0.000000,125.000000,1.282618,69.049919,0.728910,10.749765,0.500000,10.000000,2.000000,297.860466,0.862265,40.140709,0.632507,193.434606,10.000000,1.000000,0.000000,5
/home/daniel/Projects/ppsevolution/data/maps/custom_maps/Custom_8_Run_0_Map.csv,squared_error,2.760680710785146e-06,0.4983,0.3617,0.000000,1.000000,0.501171,0.681237,0.028558,0.000000,0.904341,1.000000,0.906799,0.312252,0.099494,0.664139,0.876311,1.000000,0.278269,2.000000,125.000000,1.330000,79.665053,0.681237,6.683048,0.500000,9.139072,1.000000,283.689878,0.944861,23.028686,0.664139,175.385941,10.000000,3.504423,2.000000,6
/home/daniel/Projects/ppsevolution/data/maps/custom_maps/Custom_8_Run_0_Map.csv,squared_error,8.030754342371487e-07,0.5012,0.3604,0.259985,0.714625,0.351914,0.747249,0.000000,0.000000,1.000000,2.000000,0.951884,0.017433,0.000000,0.761320,0.936253,1.000000,0.186780,0.000000,170.497422,1.170190,58.619939,0.747249,1.000000,0.500000,10.000000,2.000000,291.579762,0.779763,9.000000,0.761320,187.314372,10.000000,2.681022,0.000000,7
/home/daniel/Projects/ppsevolution/data/maps/custom_maps/Custom_8_Run_0_Map.csv,squared_error,1.2530709335180757e-06,0.4984,0.3601,0.000000,0.992243,0.518294,0.601227,0.000000,0.364304,0.927682,2.000000,0.456290,0.582213,0.096165,0.711377,0.844950,0.599181,0.005794,0.000000,125.000000,1.325656,82.079395,0.601227,1.000000,3.960888,9.349136,2.000000,204.850694,1.096040,22.559252,0.711377,169.144988,6.192220,1.052147,0.000000,8
/home/daniel/Projects/ppsevolution/data/maps/custom_maps/Custom_8_Run_0_Map.csv,squared_error,2.800380522862846e-06,0.4982,0.3585,0.430997,1.000000,0.623237,0.665835,0.307174,0.000000,0.864865,0.000000,0.913675,0.109230,0.636525,0.555613,1.000000,0.801950,0.108831,2.000000,200.424437,1.330000,96.876352,0.665835,62.127558,0.500000,8.783782,0.000000,284.893087,0.831169,98.750012,0.555613,200.000000,8.118530,1.979475,2.000000,9
map,fitness,fitness value,team0ratio,time,HP,Speed,Damage,Acc,ClipSize,RateOfFire,NrBullets,Range,HP,Speed,Damage,Acc,ClipSize,RateOfFire,NrBullets,Range,HP,Speed,Damage,Acc,ClipSize,RateOfFire,NrBullets,Range,HP,Speed,Damage,Acc,ClipSize,RateOfFire,NrBullets,Range,Run,target team0ratio: 0.5,target time: 0.36
/home/daniel/Projects/ppsevolution/data/maps/custom_maps/Custom_9_Run_0_Map.csv,squared_error,8.822614121186058e-07,0.4999,0.3587,0.055554,0.780868,0.160211,0.764500,0.169213,0.062410,0.465492,1.000000,1.000000,0.080423,0.328272,0.490012,0.776618,0.649219,0.169898,2.000000,134.721867,1.207286,31.589749,0.764500,34.673290,1.092898,5.189424,1.000000,300.000000,0.815037,55.286331,0.490012,155.547067,6.667579,2.529086,2.000000,0
/home/daniel/Projects/ppsevolution/data/maps/custom_maps/Custom_9_Run_0_Map.csv,squared_error,3.8625296460771995e-06,0.4973,0.3595,0.000000,0.937700,0.657236,0.448027,0.327268,0.029706,0.717942,2.000000,0.746254,0.255352,0.313240,0.508437,0.862618,0.956016,0.021944,0.000000,125.000000,1.295112,101.670248,0.448027,66.126420,0.782211,7.461479,2.000000,255.594400,0.912997,53.166862,0.508437,172.660958,9.582150,1.197493,0.000000,1
/home/daniel/Projects/ppsevolution/data/maps/custom_maps/Custom_9_Run_0_Map.csv,squared_error,1.2572203783807365e-05,0.4950,0.3599,0.089151,0.788833,0.608524,0.516610,0.173346,0.195659,0.791092,2.000000,1.000000,0.103075,0.078456,0.618269,0.997011,1.000000,0.003583,2.000000,140.601485,1.211746,94.801891,0.516610,35.495923,2.358761,8.119829,2.000000,300.000000,0.827722,20.062331,0.618269,199.405225,10.000000,1.032248,2.000000,2
/home/daniel/Projects/ppsevolution/data/maps/custom_maps/Custom_9_Run_0_Map.csv,squared_error,2.778466223154628e-06,0.5015,0.3582,0.000000,0.884635,0.000000,0.812984,0.137889,0.106441,1.000000,0.000000,0.910642,0.010699,0.036367,0.657505,1.000000,0.744909,0.000000,1.000000,125.000000,1.265396,9.000000,0.812984,28.439889,1.511187,10.000000,0.000000,284.362388,0.775991,14.127723,0.657505,200.000000,7.576632,1.000000,1.000000,3
/home/daniel/Projects/ppsevolution/data/maps/custom_maps/Custom_9_Run_0_Map.csv,squared_error,2.2039389480489827e-06,0.5016,0.3587,0.048458,1.000000,0.276470,0.736640,0.084122,0.307031,0.531175,0.000000,1.000000,0.056805,0.000000,0.681311,0.737762,1.000000,0.000000,1.000000,133.480145,1.330000,47.982319,0.736640,17.740180,3.416796,5.780577,0.000000,300.000000,0.801811,9.000000,0.681311,147.814704,10.000000,1.000000,1.000000,4
/home/daniel/Projects/ppsevolution/data/maps/custom_maps/Custom_9_Run_0_Map.csv,squared_error,2.068472570033755e-05,0.4964,0.3653,0.084899,0.941390,0.155370,0.706621,0.180511,0.197937,0.840832,2.000000,0.867007,0.097449,0.000000,0.642249,1.000000,0.932440,0.247167,0.000000,139.857407,1.297179,30.907141,0.706621,36.921781,2.380397,8.567488,2.000000,276.726278,0.824571,9.000000,0.642249,200.000000,9.358178,3.224506,0.000000,5
/home/daniel/Projects/ppsevolution/data/maps/custom_maps/Custom_9_Run_0_Map.csv,squared_error,4.046076244847589e-07,0.4992,0.3604,0.044040,0.653280,0.189698,0.724730,0.000000,0.371104,0.675627,1.000000,0.858268,0.000000,0.557716,0.348210,0.841781,0.792381,0.000000,0.000000,132.707067,1.135837,35.747483,0.724730,1.000000,4.025488,7.080639,1.000000,275.196827,0.770000,87.637900,0.348210,168.514376,8.027619,1.000000,0.000000,6
/home/daniel/Projects/ppsevolution/data/maps/custom_maps/Custom_9_Run_0_Map.csv,squared_error,1.4986448310373876e-06,0.5004,0.3583,0.085517,0.557150,0.227912,0.712814,0.217563,0.154513,0.776507,1.000000,0.946370,0.000000,0.233030,0.533036,1.000000,1.000000,0.262542,1.000000,139.965518,1.082004,41.135571,0.712814,44.294967,1.967871,7.988562,1.000000,290.614711,0.770000,41.857265,0.533036,200.000000,10.000000,3.362876,1.000000,7
/home/daniel/Projects/ppsevolution/data/maps/custom_maps/Custom_9_Run_0_Map.csv,squared_error,3.4338221865005997e-06,0.4999,0.3574,0.341396,0.973799,0.140001,0.724642,0.030030,0.000000,1.000000,0.000000,0.827384,0.125280,0.302283,0.584290,0.605710,0.736902,0.068833,1.000000,184.744294,1.315327,28.740201,0.724642,6.976027,0.500000,10.000000,0.000000,269.792188,0.840157,51.621921,0.584290,121.536369,7.500569,1.619496,1.000000,8
/home/daniel/Projects/ppsevolution/data/maps/custom_maps/Custom_9_Run_0_Map.csv,squared_error,1.0606510934567804e-05,0.4962,0.3574,0.212680,0.873531,0.000000,0.787420,0.158633,0.015766,0.851382,2.000000,1.000000,0.000000,0.550295,0.385186,0.975782,0.852860,0.138608,2.000000,162.219070,1.259177,9.000000,0.787420,32.567908,0.649773,8.662437,2.000000,300.000000,0.770000,86.591599,0.385186,195.180521,8.602171,2.247476,2.000000,9
map,fitness,fitness value,team0ratio,time,HP,Speed,Damage,Acc,ClipSize,RateOfFire,NrBullets,Range,HP,Speed,Damage,Acc,ClipSize,RateOfFire,NrBullets,Range,HP,Speed,Damage,Acc,ClipSize,RateOfFire,NrBullets,Range,HP,Speed,Damage,Acc,ClipSize,RateOfFire,NrBullets,Range,Run,target team0ratio: 0.5,target time: 0.36
/home/daniel/Projects/ppsevolution/data/maps/custom_maps/Custom_10_Run_0_Map.csv,squared_error,3.0929014552107693e-06,0.4980,0.3614,0.133411,0.721385,0.889412,1.000000,0.172131,0.000000,1.000000,2.000000,0.687819,0.143798,1.000000,0.997884,0.936051,0.515293,0.396725,2.000000,148.346844,1.173975,134.407152,1.000000,35.254108,0.500000,10.000000,2.000000,245.368308,0.850527,150.000000,0.997884,187.274086,5.395281,4.570523,2.000000,0
/home/daniel/Projects/ppsevolution/data/maps/custom_maps/Custom_10_Run_0_Map.csv,squared_error,4.6971986630524155e-07,0.5010,0.3601,0.102615,0.984746,0.597375,1.000000,0.000000,0.085443,1.000000,2.000000,0.137042,0.755308,1.000000,1.000000,0.876223,0.451343,0.346570,1.000000,142.957576,1.321458,93.229880,1.000000,1.000000,1.311711,10.000000,2.000000,148.982429,1.192972,150.000000,1.000000,175.368426,4.787755,4.119133,1.000000,1
/home/daniel/Projects/ppsevolution/data/maps/custom_maps/Custom_10_Run_0_Map.csv,squared_error,2.1782666020044467e-06,0.5021,0.3604,0.086907,0.809244,0.483856,0.997845,0.414470,0.298058,1.000000,2.000000,0.020202,0.011574,0.738112,1.000000,0.733312,0.273047,0.819287,0.000000,140.208779,1.223177,77.223698,0.997845,83.479439,3.331550,10.000000,2.000000,128.535359,0.776482,113.073854,1.000000,146.929059,3.093949,8.373585,0.000000,2
/home/daniel/Projects/ppsevolution/data/maps/custom_maps/Custom_10_Run_0_Map.csv,squared_error,7.921112335964239e-07,0.5011,0.3606,0.000000,0.895175,0.809273,1.000000,0.802360,0.363430,1.000000,2.000000,0.473583,0.402565,1.000000,1.000000,0.831939,0.868972,0.516902,2.000000,125.000000,1.271298,123.107494,1.000000,160.669556,3.952580,10.000000,2.000000,207.877000,0.995436,150.000000,1.000000,166.555772,8.755234,5.652118,2.000000,3
/home/daniel/Projects/ppsevolution/data/maps/custom_maps/Custom_10_Run_0_Map.csv,squared_error,6.52487182681871e-06,0.5017,0.3632,0.115827,0.766955,0.982038,1.000000,0.761619,0.325358,0.907398,2.000000,0.962100,0.000000,1.000000,1.000000,0.864988,0.982029,1.000000,1.000000,145.269799,1.199495,147.467413,1.000000,152.562271,3.590904,9.166586,2.000000,293.367585,0.770000,150.000000,1.000000,173.132690,9.829273,10.000000,1.000000,4
/home/daniel/Projects/ppsevolution/data/maps/custom_maps/Custom_10_Run_0_Map.csv,squared_error,8.092540957484727e-07,0.4995,0.3612,0.311951,0.811734,1.000000,0.975347,0.031202,0.000000,0.995652,2.000000,0.537770,0.444851,0.881311,1.000000,1.000000,0.614583,0.117683,0.000000,179.591411,1.224571,150.000000,0.975347,7.209146,0.500000,9.960865,2.000000,219.109812,1.019116,133.264785,1.000000,200.000000,6.338536,2.059146,0.000000,5
/home/daniel/Projects/ppsevolution/data/maps/custom_maps/Custom_10_Run_0_Map.csv,squared_error,1.7993224680658651e-06,0.5019,0.3599,0.000000,0.601951,0.940761,1.000000,0.097434,0.094090,1.000000,2.000000,0.661647,0.377240,0.980738,1.000000,1.000000,0.863715,0.329022,2.000000,125.000000,1.107093,141.647310,1.000000,20.389403,1.393854,10.000000,2.000000,240.788155,0.981255,147.284027,1.000000,200.000000,8.705294,3.961201,2.000000,6
/home/daniel/Projects/ppsevolution/data/maps/custom_maps/Custom_10_Run_0_Map.csv,squared_error,6.582871422501872e-07,0.5002,0.3589,0.120498,0.992453,0.982816,0.972260,0.127937,0.250931,1.000000,1.000000,0.235922,0.033374,0.924306,1.000000,0.704255,0.909544,0.541243,0.000000,146.087070,1.325774,147.577037,0.972260,26.459558,2.883846,10.000000,1.000000,166.286376,0.788689,139.327089,1.000000,141.146739,9.140667,5.871184,0.000000,7
/home/daniel/Projects/ppsevolution/data/maps/custom_maps/Custom_10_Run_0_Map.csv,squared_error,2.008914149658407e-06,0.5002,0.3620,0.000000,0.333086,0.964175,1.000000,0.594645,0.495136,1.000000,2.000000,0.732531,0.042042,0.829063,1.000000,0.876412,0.742778,0.383846,2.000000,125.000000,0.956528,144.948693,1.000000,119.334345,5.203790,10.000000,2.000000,253.192951,0.793544,125.897816,1.000000,175.406046,7.556396,4.454616,2.000000,8
/home/daniel/Projects/ppsevolution/data/maps/custom_maps/Custom_10_Run_0_Map.csv,squared_error,1.0524917705147772e-06,0.5010,0.3611,0.000000,0.537119,1.000000,1.000000,0.000000,0.156770,0.505710,2.000000,0.699564,0.186237,0.915560,1.000000,0.944412,0.022199,0.543103,2.000000,125.000000,1.070786,150.000000,1.000000,1.000000,1.989316,5.551391,2.000000,247.423690,0.874292,138.093941,1.000000,188.937954,0.710886,5.887931,2.000000,9
