map,fitness,fitness value,team0ratio,time,HP,Speed,Damage,Acc,ClipSize,RateOfFire,NrBullets,Range,HP,Speed,Damage,Acc,ClipSize,RateOfFire,NrBullets,Range,HP,Speed,Damage,Acc,ClipSize,RateOfFire,NrBullets,Range,HP,Speed,Damage,Acc,ClipSize,RateOfFire,NrBullets,Range,Run,target team0ratio: 0.5,target time: 0.72
/home/daniel/Projects/ppsevolution/data/maps/custom_maps/Custom_1_Run_0_Map.csv,squared_error,9.630542564139113e-07,0.5013,0.7205,0.847274,0.770620,0.000000,0.000000,0.002343,0.185044,0.676187,2.000000,0.995859,0.392814,0.000000,0.000000,0.831868,0.715169,0.149550,0.000000,273.272912,1.201547,9.000000,0.000000,1.466191,2.257915,7.085685,2.000000,299.275356,0.989976,9.000000,0.000000,166.541703,7.294102,2.345946,0.000000,0
/home/daniel/Projects/ppsevolution/data/maps/custom_maps/Custom_1_Run_0_Map.csv,squared_error,2.1641635603658488e-07,0.4995,0.7204,0.775335,0.927387,0.000000,0.000000,0.029536,0.220587,0.379798,1.000000,0.923052,0.108141,0.000000,0.000000,0.908977,0.782151,0.024955,0.000000,260.683538,1.289337,9.000000,0.000000,6.877605,2.595580,4.418186,1.000000,286.534159,0.830559,9.000000,0.000000,181.886394,7.930434,1.224593,0.000000,1
/home/daniel/Projects/ppsevolution/data/maps/custom_maps/Custom_1_Run_0_Map.csv,squared_error,6.063691448162219e-07,0.4993,0.7209,0.784382,0.831299,0.000000,0.000000,0.000000,0.132952,0.795802,0.000000,1.000000,0.270931,0.000000,0.000000,0.850851,0.974589,0.000000,1.000000,262.266858,1.235527,9.000000,0.000000,1.000000,1.763048,8.162220,0.000000,300.000000,0.921722,9.000000,0.000000,170.319282,9.758598,1.000000,1.000000,2
/home/daniel/Projects/ppsevolution/data/maps/custom_maps/Custom_1_Run_0_Map.csv,squared_error,9.774303164363005e-07,0.5013,0.7196,0.812993,0.841306,0.000000,0.000000,0.005705,0.035791,0.878170,0.000000,1.000000,0.169926,0.000000,0.000000,1.000000,0.768288,0.162337,0.000000,267.273789,1.241131,9.000000,0.000000,2.135326,0.840014,8.903531,0.000000,300.000000,0.865158,9.000000,0.000000,200.000000,7.798735,2.461030,0.000000,3
/home/daniel/Projects/ppsevolution/data/maps/custom_maps/Custom_1_Run_0_Map.csv,squared_error,7.180032517055455e-08,0.4996,0.7199,0.816675,1.000000,0.017256,0.010960,0.143606,0.039203,0.526742,0.000000,1.000000,0.173713,0.000000,0.000000,0.926458,0.854126,0.169869,2.000000,267.918187,1.330000,11.433096,0.010960,29.577684,0.872424,5.740679,0.000000,300.000000,0.867279,9.000000,0.000000,185.365171,8.614195,2.528821,2.000000,4
/home/daniel/Projects/ppsevolution/data/maps/custom_maps/Custom_1_Run_0_Map.csv,squared_error,4.965681473663724e-07,0.5009,0.7204,0.798673,0.907233,0.000000,0.000000,0.337348,0.144515,0.867772,0.000000,1.000000,0.601557,0.000000,0.000000,0.944023,1.000000,0.000248,1.000000,264.767709,1.278051,9.000000,0.000000,68.132316,1.872895,8.809950,0.000000,300.000000,1.106872,9.000000,0.000000,188.860532,10.000000,1.002231,1.000000,5
/home/daniel/Projects/ppsevolution/data/maps/custom_maps/Custom_1_Run_0_Map.csv,squared_error,7.39825250786933e-07,0.5007,0.7210,0.955968,1.000000,0.000000,0.000000,0.041249,0.117188,0.733586,1.000000,1.000000,0.538960,0.065732,0.000000,0.907267,0.871088,0.000000,1.000000,292.294388,1.330000,9.000000,0.000000,9.208589,1.613290,7.602271,1.000000,300.000000,1.071818,18.268221,0.000000,181.546215,8.775334,1.000000,1.000000,6
/home/daniel/Projects/ppsevolution/data/maps/custom_maps/Custom_1_Run_0_Map.csv,squared_error,5.624120474408538e-07,0.5006,0.7209,0.789101,0.671829,0.000000,0.000000,0.289422,0.010829,0.796907,0.000000,1.000000,0.189985,0.001748,0.000000,0.999855,1.000000,0.000000,0.000000,263.092689,1.146224,9.000000,0.000000,58.595032,0.602874,8.172162,0.000000,300.000000,0.876392,9.246524,0.000000,199.971230,10.000000,1.000000,0.000000,7
/home/daniel/Projects/ppsevolution/data/maps/custom_maps/Custom_1_Run_0_Map.csv,squared_error,9.961113307895204e-07,0.5014,0.7201,0.807171,0.916412,0.000000,0.000000,0.132060,0.155613,0.726419,2.000000,1.000000,0.336344,0.000000,0.000000,0.833204,0.930245,0.000266,2.000000,266.255007,1.283191,9.000000,0.000000,27.279976,1.978328,7.537773,2.000000,300.000000,0.958353,9.000000,0.000000,166.807654,9.337325,1.002398,2.000000,8
/home/daniel/Projects/ppsevolution/data/maps/custom_maps/Custom_1_Run_0_Map.csv,squared_error,3.0321076584696375e-07,0.5002,0.7192,0.807588,0.557719,0.000000,0.000000,0.150023,0.505355,0.621998,2.000000,1.000000,0.008832,0.000000,0.000000,0.947475,0.906196,0.000000,1.000000,266.327884,1.082323,9.000000,0.000000,30.854573,5.300877,6.597981,2.000000,300.000000,0.774946,9.000000,0.000000,189.547452,9.108858,1.000000,1.000000,9
map,fitness,fitness value,team0ratio,time,HP,Speed,Damage,Acc,ClipSize,RateOfFire,NrBullets,Range,HP,Speed,Damage,Acc,ClipSize,RateOfFire,NrBullets,Range,HP,Speed,Damage,Acc,ClipSize,RateOfFire,NrBullets,Range,HP,Speed,Damage,Acc,ClipSize,RateOfFire,NrBullets,Range,Run,target team0ratio: 0.5,target time: 0.72
/home/daniel/Projects/ppsevolution/data/maps/custom_maps/Custom_2_Run_0_Map.csv,squared_error,8.531448534369183e-08,0.5002,0.7196,0.201243,0.761989,0.056236,0.527749,0.000000,0.016935,0.711219,1.000000,1.000000,0.111927,0.000000,0.250899,0.812588,0.915626,0.000000,1.000000,160.217488,1.196714,16.929346,0.527749,1.000000,0.660881,7.400971,1.000000,300.000000,0.832679,9.000000,0.250899,162.705068,9.198442,1.000000,1.000000,0
/home/daniel/Projects/ppsevolution/data/maps/custom_maps/Custom_2_Run_0_Map.csv,squared_error,1.2977641338524318e-07,0.4999,0.7205,0.064674,0.879418,0.099674,0.480403,0.178406,0.156544,0.916832,1.000000,1.000000,0.039943,0.148361,0.000000,1.000000,0.800706,0.151397,2.000000,136.317960,1.262474,23.054057,0.480403,36.502718,1.987171,9.251485,1.000000,300.000000,0.792368,29.918969,0.000000,200.000000,8.106711,2.362575,2.000000,1
/home/daniel/Projects/ppsevolution/data/maps/custom_maps/Custom_2_Run_0_Map.csv,squared_error,3.8779181940357455e-07,0.5007,0.7205,0.113169,0.643236,0.007598,0.494004,0.000000,0.000000,0.921644,2.000000,0.842716,0.090654,0.106093,0.087222,0.751007,0.816207,0.000000,0.000000,144.804576,1.130212,10.071255,0.494004,1.000000,0.500000,9.294795,2.000000,272.475350,0.820766,23.959110,0.087222,150.450474,8.253970,1.000000,0.000000,2
/home/daniel/Projects/ppsevolution/data/maps/custom_maps/Custom_2_Run_0_Map.csv,squared_error,1.7852280434455415e-07,0.5001,0.7206,0.252779,0.707131,0.000000,0.599223,0.203957,0.217633,0.347181,1.000000,1.000000,0.348603,0.065339,0.182214,1.000000,0.590509,0.306465,0.000000,169.236325,1.165993,9.000000,0.599223,41.587419,2.567516,4.124625,1.000000,300.000000,0.965218,18.212768,0.182214,200.000000,6.109836,3.758188,0.000000,3
/home/daniel/Projects/ppsevolution/data/maps/custom_maps/Custom_2_Run_0_Map.csv,squared_error,8.621675006110985e-07,0.5010,0.7191,0.166375,0.621617,0.209866,0.350900,0.028353,0.016544,0.658183,0.000000,0.867135,0.034898,0.000000,0.238530,1.000000,0.913920,0.000000,2.000000,154.115549,1.118106,38.591051,0.350900,6.642278,0.657167,6.923647,0.000000,276.748639,0.789543,9.000000,0.238530,200.000000,9.182243,1.000000,2.000000,4
/home/daniel/Projects/ppsevolution/data/maps/custom_maps/Custom_2_Run_0_Map.csv,squared_error,9.484824225410044e-07,0.5013,0.7194,0.000000,0.967727,0.000000,0.574141,0.025530,0.252869,0.913392,1.000000,1.000000,0.021118,0.037498,0.120045,1.000000,1.000000,0.000000,1.000000,125.000000,1.311927,9.000000,0.574141,6.080501,2.902254,9.220526,1.000000,300.000000,0.781826,14.287221,0.120045,200.000000,10.000000,1.000000,1.000000,5
/home/daniel/Projects/ppsevolution/data/maps/custom_maps/Custom_2_Run_0_Map.csv,squared_error,3.824641289725382e-07,0.5001,0.7209,0.347117,0.743035,0.000359,0.501300,0.019256,0.000000,1.000000,2.000000,0.884032,0.352096,0.000000,0.301011,0.826855,0.679253,0.000000,2.000000,185.745399,1.186099,9.050571,0.501300,4.831859,0.500000,10.000000,2.000000,279.705620,0.967174,9.000000,0.301011,165.544129,6.952906,1.000000,2.000000,6
/home/daniel/Projects/ppsevolution/data/maps/custom_maps/Custom_2_Run_0_Map.csv,squared_error,9.149529207349263e-07,0.4998,0.7213,0.493471,1.000000,0.000000,0.485397,0.096421,0.094313,0.757750,0.000000,0.774202,0.093494,0.130795,0.227151,0.926400,0.958003,0.208978,2.000000,211.357386,1.330000,9.000000,0.485397,20.187850,1.395976,7.819750,0.000000,260.485383,0.822357,27.442098,0.227151,185.353578,9.601026,2.880801,2.000000,7
/home/daniel/Projects/ppsevolution/data/maps/custom_maps/Custom_2_Run_0_Map.csv,squared_error,1.1903261374620053e-06,0.4985,0.7204,0.471942,0.949410,0.118776,0.422120,0.116190,0.000000,0.898744,1.000000,0.976959,0.142829,0.074090,0.262513,0.961262,1.000000,0.131622,0.000000,207.589877,1.301670,25.747414,0.422120,24.121844,0.500000,9.088692,1.000000,295.967871,0.849984,19.446664,0.262513,192.291151,10.000000,2.184594,0.000000,8
/home/daniel/Projects/ppsevolution/data/maps/custom_maps/Custom_2_Run_0_Map.csv,squared_error,1.154813714663977e-06,0.4996,0.7185,0.320058,0.829637,0.132373,0.304169,0.217259,0.178775,0.962329,2.000000,0.724407,0.000000,0.000000,0.280015,0.689000,1.000000,0.127043,0.000000,181.010228,1.234597,27.664649,0.304169,44.234632,2.198367,9.660961,2.000000,251.771277,0.770000,9.000000,0.280015,138.111024,10.000000,2.143386,0.000000,9
map,fitness,fitness value,team0ratio,time,HP,Speed,Damage,Acc,ClipSize,RateOfFire,NrBullets,Range,HP,Speed,Damage,Acc,ClipSize,RateOfFire,NrBullets,Range,HP,Speed,Damage,Acc,ClipSize,RateOfFire,NrBullets,Range,HP,Speed,Damage,Acc,ClipSize,RateOfFire,NrBullets,Range,Run,target team0ratio: 0.5,target time: 0.72
/home/daniel/Projects/ppsevolution/data/maps/custom_maps/Custom_3_Run_0_Map.csv,squared_error,4.575745647343461e-08,0.5003,0.7198,0.109584,0.938038,0.000000,0.630606,0.000000,0.074419,0.951527,2.000000,1.000000,0.012639,0.000000,0.345367,0.708607,0.997557,0.082395,1.000000,144.177256,1.295302,9.000000,0.630606,1.000000,1.206981,9.563739,2.000000,300.000000,0.777078,9.000000,0.345367,142.012750,9.976788,1.741552,1.000000,0
/home/daniel/Projects/ppsevolution/data/maps/custom_maps/Custom_3_Run_0_Map.csv,squared_error,8.735236826680538e-07,0.4987,0.7196,0.000000,1.000000,0.029958,0.626894,0.067174,0.009734,0.786435,2.000000,1.000000,0.187432,0.000000,0.317619,0.837698,0.904531,0.000000,0.000000,125.000000,1.330000,13.224085,0.626894,14.367716,0.592471,8.077918,2.000000,300.000000,0.874962,9.000000,0.317619,167.701999,9.093046,1.000000,0.000000,1
/home/daniel/Projects/ppsevolution/data/maps/custom_maps/Custom_3_Run_0_Map.csv,squared_error,4.6956410484429056e-07,0.5004,0.7209,0.067191,0.704395,0.109474,0.572397,0.196813,0.191504,0.787289,0.000000,1.000000,0.000000,0.000000,0.327084,0.993407,1.000000,0.068111,1.000000,136.758390,1.164461,24.435794,0.572397,40.165790,2.319290,8.085605,0.000000,300.000000,0.770000,9.000000,0.327084,198.687962,10.000000,1.612995,1.000000,2
/home/daniel/Projects/ppsevolution/data/maps/custom_maps/Custom_3_Run_0_Map.csv,squared_error,5.527488650443462e-07,0.5010,0.7199,0.274365,0.979004,0.088063,0.563082,0.000000,0.230400,0.951350,1.000000,1.000000,0.000000,0.000000,0.386517,0.732590,0.940331,0.227643,2.000000,173.013819,1.318242,21.416837,0.563082,1.000000,2.688798,9.562154,1.000000,300.000000,0.770000,9.000000,0.386517,146.785508,9.433144,3.048783,2.000000,3
/home/daniel/Projects/ppsevolution/data/maps/custom_maps/Custom_3_Run_0_Map.csv,squared_error,6.865082248282486e-07,0.4990,0.7207,0.195665,0.658148,0.000000,0.631367,0.154591,0.101127,1.000000,1.000000,1.000000,0.185268,0.040577,0.352944,0.888339,0.949251,0.000000,1.000000,159.241308,1.138563,9.000000,0.631367,31.763619,1.460711,10.000000,1.000000,300.000000,0.873750,14.721308,0.352944,177.779376,9.517886,1.000000,1.000000,4
/home/daniel/Projects/ppsevolution/data/maps/custom_maps/Custom_3_Run_0_Map.csv,squared_error,3.9047629561823494e-07,0.5004,0.7208,0.224286,0.702467,0.042052,0.570590,0.171886,0.010557,1.000000,2.000000,0.943841,0.187413,0.081150,0.308298,0.866802,1.000000,0.045456,0.000000,164.250032,1.163382,14.929389,0.570590,35.205342,0.600293,10.000000,2.000000,290.172262,0.874952,20.442211,0.308298,173.493645,10.000000,1.409100,0.000000,5
/home/daniel/Projects/ppsevolution/data/maps/custom_maps/Custom_3_Run_0_Map.csv,squared_error,3.233411378296532e-07,0.4992,0.7198,0.358932,0.622827,0.262985,0.411413,0.371944,0.034443,0.833538,2.000000,1.000000,0.151910,0.000000,0.429250,1.000000,0.827667,0.028942,1.000000,187.813144,1.118783,46.080858,0.411413,75.016894,0.827211,8.501845,2.000000,300.000000,0.855070,9.000000,0.429250,200.000000,8.362832,1.260478,1.000000,6
/home/daniel/Projects/ppsevolution/data/maps/custom_maps/Custom_3_Run_0_Map.csv,squared_error,7.727416223417928e-08,0.5004,0.7201,0.072036,0.745401,0.000000,0.653363,0.088951,0.056736,0.820045,1.000000,0.994849,0.276050,0.000000,0.354167,0.977835,0.777249,0.000000,0.000000,137.606287,1.187424,9.000000,0.653363,18.701216,1.038994,8.380404,1.000000,299.098585,0.924588,9.000000,0.354167,195.589203,7.883861,1.000000,0.000000,7
/home/daniel/Projects/ppsevolution/data/maps/custom_maps/Custom_3_Run_0_Map.csv,squared_error,6.582802137529377e-07,0.5008,0.7192,0.251677,0.962490,0.000000,0.652639,0.000000,0.196015,0.834776,0.000000,1.000000,0.000000,0.095480,0.342920,0.937451,0.877963,0.016378,2.000000,169.043516,1.308994,9.000000,0.652639,1.000000,2.362139,8.512981,0.000000,300.000000,0.770000,22.462695,0.342920,187.552665,8.840648,1.147405,2.000000,8
/home/daniel/Projects/ppsevolution/data/maps/custom_maps/Custom_3_Run_0_Map.csv,squared_error,9.6588383788972e-07,0.5009,0.7211,0.297953,0.857511,0.000000,0.620534,0.000000,0.009325,0.673581,0.000000,0.847802,0.241282,0.000000,0.422132,1.000000,0.993463,0.294606,0.000000,177.141819,1.250206,9.000000,0.620534,1.000000,0.588590,7.062233,0.000000,273.365320,0.905118,9.000000,0.422132,200.000000,9.937898,3.651452,0.000000,9
map,fitness,fitness value,team0ratio,time,HP,Speed,Damage,Acc,ClipSize,RateOfFire,NrBullets,Range,HP,Speed,Damage,Acc,ClipSize,RateOfFire,NrBullets,Range,HP,Speed,Damage,Acc,ClipSize,RateOfFire,NrBullets,Range,HP,Speed,Damage,Acc,ClipSize,RateOfFire,NrBullets,Range,Run,target team0ratio: 0.5,target time: 0.72
/home/daniel/Projects/ppsevolution/data/maps/custom_maps/Custom_4_Run_0_Map.csv,squared_error,9.224088314681828e-07,0.4999,0.7214,0.481067,0.864226,0.143049,0.140549,0.194288,0.000000,0.816846,1.000000,1.000000,0.099810,0.003470,0.000000,1.000000,1.000000,0.000000,2.000000,209.186660,1.253967,29.169874,0.140549,39.663367,0.500000,8.351617,1.000000,300.000000,0.825894,9.489224,0.000000,200.000000,10.000000,1.000000,2.000000,0
/home/daniel/Projects/ppsevolution/data/maps/custom_maps/Custom_4_Run_0_Map.csv,squared_error,1.587680718813646e-07,0.5004,0.7204,0.448714,1.000000,0.086051,0.197512,0.009463,0.032650,0.948601,1.000000,1.000000,0.000000,0.000000,0.000000,1.000000,0.282979,0.000000,1.000000,203.525030,1.330000,21.133181,0.197512,2.883148,0.810175,9.537412,1.000000,300.000000,0.770000,9.000000,0.000000,200.000000,3.188301,1.000000,1.000000,1
/home/daniel/Projects/ppsevolution/data/maps/custom_maps/Custom_4_Run_0_Map.csv,squared_error,1.2740019751163468e-06,0.4985,0.7205,0.553755,1.000000,0.000000,0.315740,0.000000,0.027497,0.624760,1.000000,1.000000,0.000000,0.000000,0.000000,0.566412,0.825076,0.507331,0.000000,221.907048,1.330000,9.000000,0.315740,1.000000,0.761225,6.622838,1.000000,300.000000,0.770000,9.000000,0.000000,113.715973,8.338224,5.565978,0.000000,2
/home/daniel/Projects/ppsevolution/data/maps/custom_maps/Custom_4_Run_0_Map.csv,squared_error,8.95353232095856e-08,0.4996,0.7199,0.590676,0.849384,0.195884,0.079956,0.000000,0.000000,0.790293,0.000000,1.000000,0.000000,0.027664,0.028680,0.883143,0.746036,0.017350,2.000000,228.368354,1.245655,36.619619,0.079956,1.000000,0.500000,8.112640,0.000000,300.000000,0.770000,12.900557,0.028680,176.745493,7.587341,1.156147,2.000000,3
/home/daniel/Projects/ppsevolution/data/maps/custom_maps/Custom_4_Run_0_Map.csv,squared_error,2.355156123013545e-06,0.5021,0.7195,0.558691,0.867417,0.000000,0.259270,0.141247,0.018676,1.000000,0.000000,0.917979,0.022609,0.047182,0.004720,0.907197,0.783945,0.061437,1.000000,222.770862,1.255754,9.000000,0.259270,29.108222,0.677426,10.000000,0.000000,285.646328,0.782661,15.652718,0.004720,181.532292,7.947475,1.552931,1.000000,4
/home/daniel/Projects/ppsevolution/data/maps/custom_maps/Custom_4_Run_0_Map.csv,squared_error,4.1677421492709337e-07,0.4995,0.7207,0.494042,0.974504,0.000000,0.302453,0.392976,0.452931,0.844794,0.000000,1.000000,0.000000,0.000000,0.000000,1.000000,1.000000,0.189899,2.000000,211.457292,1.315722,9.000000,0.302453,79.202261,4.802840,8.603147,0.000000,300.000000,0.770000,9.000000,0.000000,200.000000,10.000000,2.709094,2.000000,5
/home/daniel/Projects/ppsevolution/data/maps/custom_maps/Custom_4_Run_0_Map.csv,squared_error,7.066575991217332e-07,0.5012,0.7197,0.437105,0.770843,0.000000,0.284782,0.000000,0.245024,1.000000,0.000000,0.962429,0.266652,0.000000,0.000000,0.980996,0.840182,0.000000,1.000000,201.493335,1.201672,9.000000,0.284782,1.000000,2.827729,10.000000,0.000000,293.425149,0.919325,9.000000,0.000000,196.218225,8.481728,1.000000,1.000000,6
/home/daniel/Projects/ppsevolution/data/maps/custom_maps/Custom_4_Run_0_Map.csv,squared_error,9.855733655513543e-07,0.5003,0.7214,0.437280,0.998909,0.112714,0.156458,0.021973,0.000000,1.000000,0.000000,0.969765,0.044541,0.000000,0.000000,1.000000,0.815999,0.000000,0.000000,201.524063,1.329389,24.892635,0.156458,5.372533,0.500000,10.000000,0.000000,294.708881,0.794943,9.000000,0.000000,200.000000,8.251987,1.000000,0.000000,7
/home/daniel/Projects/ppsevolution/data/maps/custom_maps/Custom_4_Run_0_Map.csv,squared_error,6.340601255778917e-07,0.4994,0.7190,0.631116,0.677119,0.245940,0.000000,0.414577,0.393389,0.833662,1.000000,1.000000,0.038687,0.000000,0.057241,0.718930,0.867703,0.070917,0.000000,235.445369,1.149187,43.677514,0.000000,83.500802,4.237198,8.502957,1.000000,300.000000,0.791665,9.000000,0.057241,144.067032,8.743175,1.638249,0.000000,8
/home/daniel/Projects/ppsevolution/data/maps/custom_maps/Custom_4_Run_0_Map.csv,squared_error,1.7257522752174347e-06,0.5011,0.7185,0.523109,1.000000,0.007867,0.272975,0.081907,0.268005,0.836324,1.000000,0.940454,0.103981,0.000000,0.000000,0.924104,0.938331,0.327705,2.000000,216.544061,1.330000,10.109180,0.272975,17.299523,3.046050,8.526912,1.000000,289.579531,0.828229,9.000000,0.000000,184.896666,9.414145,3.949341,2.000000,9
map,fitness,fitness value,team0ratio,time,HP,Speed,Damage,Acc,ClipSize,RateOfFire,NrBullets,Range,HP,Speed,Damage,Acc,ClipSize,RateOfFire,NrBullets,Range,HP,Speed,Damage,Acc,ClipSize,RateOfFire,NrBullets,Range,HP,Speed,Damage,Acc,ClipSize,RateOfFire,NrBullets,Range,Run,target team0ratio: 0.5,target time: 0.72
/home/daniel/Projects/ppsevolution/data/maps/custom_maps/Custom_5_Run_0_Map.csv,squared_error,4.366343196036769e-06,0.5015,0.7175,0.174300,1.000000,0.023423,0.347492,0.094254,0.090043,0.881734,1.000000,0.791313,0.035636,0.000000,0.106888,0.804991,0.724593,0.000000,2.000000,155.502532,1.330000,12.302575,0.347492,19.756632,1.355404,8.935607,1.000000,263.479810,0.789956,9.000000,0.106888,161.193122,7.383634,1.000000,2.000000,0
/home/daniel/Projects/ppsevolution/data/maps/custom_maps/Custom_5_Run_0_Map.csv,squared_error,1.899846764229075e-06,0.5018,0.7192,0.554034,0.903237,0.004462,0.404416,0.352214,0.121760,1.000000,2.000000,1.000000,0.115377,0.000000,0.251133,0.825317,1.000000,0.121728,1.000000,221.956003,1.275813,9.629180,0.404416,71.090542,1.656721,10.000000,2.000000,300.000000,0.834611,9.000000,0.251133,165.238108,10.000000,2.095553,1.000000,1
/home/daniel/Projects/ppsevolution/data/maps/custom_maps/Custom_5_Run_0_Map.csv,squared_error,2.489249437758498e-08,0.4998,0.7201,0.000000,1.000000,0.000000,0.484501,0.212955,0.146372,0.559793,1.000000,1.000000,0.205139,0.000000,0.000000,1.000000,0.937688,0.150022,2.000000,125.000000,1.330000,9.000000,0.484501,43.378020,1.890530,6.038139,1.000000,300.000000,0.884878,9.000000,0.000000,200.000000,9.408036,2.350197,2.000000,2
/home/daniel/Projects/ppsevolution/data/maps/custom_maps/Custom_5_Run_0_Map.csv,squared_error,1.876498119742083e-07,0.5006,0.7199,0.316984,1.000000,0.000000,0.440000,0.000000,0.033995,0.988634,0.000000,1.000000,0.107352,0.000000,0.168310,1.000000,0.990899,0.010660,2.000000,180.472212,1.330000,9.000000,0.440000,1.000000,0.822951,9.897705,0.000000,300.000000,0.830117,9.000000,0.168310,200.000000,9.913537,1.095937,2.000000,3
/home/daniel/Projects/ppsevolution/data/maps/custom_maps/Custom_5_Run_0_Map.csv,squared_error,7.313506575997246e-07,0.5010,0.7207,0.178536,0.948770,0.058554,0.388992,0.046789,0.240269,0.440104,0.000000,0.882430,0.000000,0.000000,0.100690,1.000000,0.993553,0.131577,0.000000,156.243725,1.301311,17.256147,0.388992,10.310938,2.782552,4.960935,0.000000,279.425212,0.770000,9.000000,0.100690,200.000000,9.938756,2.184195,0.000000,4
/home/daniel/Projects/ppsevolution/data/maps/custom_maps/Custom_5_Run_0_Map.csv,squared_error,1.8695580638280269e-06,0.5009,0.7217,0.380780,0.967014,0.000000,0.437052,0.068407,0.138998,0.943162,0.000000,1.000000,0.211561,0.075822,0.099663,0.955639,0.961038,0.105621,1.000000,191.636496,1.311528,9.000000,0.437052,14.613028,1.820477,9.488460,0.000000,300.000000,0.888474,19.690892,0.099663,191.172080,9.629865,1.950591,1.000000,5
/home/daniel/Projects/ppsevolution/data/maps/custom_maps/Custom_5_Run_0_Map.csv,squared_error,5.998326078156157e-07,0.5004,0.7190,0.156626,0.923189,0.043299,0.415592,0.096780,0.092510,0.909583,0.000000,1.000000,0.244641,0.000000,0.090715,1.000000,1.000000,0.034786,1.000000,152.409613,1.286986,15.105132,0.415592,20.259163,1.378841,9.186251,0.000000,300.000000,0.906999,9.000000,0.090715,200.000000,10.000000,1.313072,1.000000,6
/home/daniel/Projects/ppsevolution/data/maps/custom_maps/Custom_5_Run_0_Map.csv,squared_error,1.0193741148441696e-06,0.5009,0.7211,0.039612,0.843076,0.056574,0.392472,0.000000,0.000000,0.848263,2.000000,1.000000,0.000000,0.000000,0.013644,1.000000,0.996974,0.025562,2.000000,131.932038,1.242122,16.976899,0.392472,1.000000,0.500000,8.634366,2.000000,300.000000,0.770000,9.000000,0.013644,200.000000,9.971258,1.230059,2.000000,7
/home/daniel/Projects/ppsevolution/data/maps/custom_maps/Custom_5_Run_0_Map.csv,squared_error,1.4070536958683584e-06,0.5007,0.7185,0.227027,0.954950,0.000000,0.387617,0.000000,0.224930,1.000000,0.000000,0.842800,0.158918,0.069078,0.049167,0.855363,1.000000,0.073511,1.000000,164.729703,1.304772,9.000000,0.387617,1.000000,2.636834,10.000000,0.000000,272.489947,0.858994,18.739997,0.049167,171.217213,10.000000,1.661603,1.000000,8
/home/daniel/Projects/ppsevolution/data/maps/custom_maps/Custom_5_Run_0_Map.csv,squared_error,3.5564209651967505e-07,0.5006,0.7206,0.103351,0.952130,0.000000,0.417455,0.084882,0.254010,0.952258,0.000000,0.903362,0.000751,0.000000,0.049492,1.000000,1.000000,0.153900,1.000000,143.086364,1.303193,9.000000,0.417455,17.891521,2.913096,9.570318,0.000000,283.088386,0.770421,9.000000,0.049492,200.000000,10.000000,2.385099,1.000000,9
map,fitness,fitness value,team0ratio,time,HP,Speed,Damage,Acc,ClipSize,RateOfFire,NrBullets,Range,HP,Speed,Damage,Acc,ClipSize,RateOfFire,NrBullets,Range,HP,Speed,Damage,Acc,ClipSize,RateOfFire,NrBullets,Range,HP,Speed,Damage,Acc,ClipSize,RateOfFire,NrBullets,Range,Run,target team0ratio: 0.5,target time: 0.72
/home/daniel/Projects/ppsevolution/data/maps/custom_maps/Custom_6_Run_0_Map.csv,squared_error,4.0841618952642943e-07,0.5002,0.7209,0.301724,0.915088,0.256235,0.555980,0.271004,0.243089,0.830812,2.000000,0.982760,0.000000,0.000000,0.585702,0.820362,0.998176,0.030107,0.000000,177.801647,1.282449,45.129170,0.555980,54.929783,2.809347,8.477304,2.000000,296.983043,0.770000,9.000000,0.585702,164.252020,9.982668,1.270966,0.000000,0
/home/daniel/Projects/ppsevolution/data/maps/custom_maps/Custom_6_Run_0_Map.csv,squared_error,6.539694454772567e-07,0.5001,0.7189,0.177025,1.000000,0.292238,0.543978,0.000000,0.000000,1.000000,1.000000,1.000000,0.100168,0.030066,0.536309,1.000000,0.766309,0.026644,0.000000,155.979339,1.330000,50.205565,0.543978,1.000000,0.500000,10.000000,1.000000,300.000000,0.826094,13.239280,0.536309,200.000000,7.779940,1.239798,0.000000,1
/home/daniel/Projects/ppsevolution/data/maps/custom_maps/Custom_6_Run_0_Map.csv,squared_error,3.922859959544902e-07,0.5001,0.7209,0.066063,1.000000,0.299683,0.502322,0.067716,0.167611,0.927362,1.000000,0.904185,0.000000,0.000000,0.517379,0.658219,0.933026,0.000000,1.000000,136.560963,1.330000,51.255282,0.502322,14.475463,2.092302,9.346254,1.000000,283.232368,0.770000,9.000000,0.517379,131.985515,9.363743,1.000000,1.000000,2
/home/daniel/Projects/ppsevolution/data/maps/custom_maps/Custom_6_Run_0_Map.csv,squared_error,9.216657150375295e-07,0.4987,0.7198,0.000000,1.000000,0.000000,0.743971,0.357292,0.030000,0.885915,0.000000,1.000000,0.000000,0.000000,0.518077,0.805834,1.000000,0.196785,0.000000,125.000000,1.330000,9.000000,0.743971,72.101176,0.785000,8.973235,0.000000,300.000000,0.770000,9.000000,0.518077,161.360878,10.000000,2.771068,0.000000,3
/home/daniel/Projects/ppsevolution/data/maps/custom_maps/Custom_6_Run_0_Map.csv,squared_error,5.586093901228828e-07,0.5002,0.7190,0.273116,0.991991,0.009331,0.697038,0.137281,0.074451,1.000000,2.000000,0.931565,0.036666,0.074279,0.545601,0.958085,1.000000,0.027602,1.000000,172.795348,1.325515,10.315741,0.697038,28.318955,1.207288,10.000000,2.000000,288.023893,0.790533,19.473293,0.545601,191.658901,10.000000,1.248416,1.000000,4
/home/daniel/Projects/ppsevolution/data/maps/custom_maps/Custom_6_Run_0_Map.csv,squared_error,3.4435605575992056e-07,0.5007,0.7196,0.213457,0.983324,0.151397,0.657883,0.000000,0.000000,0.767683,1.000000,0.992748,0.031152,0.031939,0.556424,1.000000,0.887549,0.078768,1.000000,162.354977,1.320661,30.346993,0.657883,1.000000,0.500000,7.909146,1.000000,298.730825,0.787445,13.503396,0.556424,200.000000,8.931712,1.708915,1.000000,5
/home/daniel/Projects/ppsevolution/data/maps/custom_maps/Custom_6_Run_0_Map.csv,squared_error,2.709392787466151e-07,0.5001,0.7207,0.000000,1.000000,0.155022,0.596790,0.124760,0.000000,0.842199,0.000000,0.674501,0.000000,0.197677,0.395075,0.824789,0.848764,0.029221,1.000000,125.000000,1.330000,30.858065,0.596790,25.827225,0.500000,8.579794,0.000000,243.037670,0.770000,36.872524,0.395075,165.133017,8.563257,1.262991,1.000000,6
/home/daniel/Projects/ppsevolution/data/maps/custom_maps/Custom_6_Run_0_Map.csv,squared_error,5.374696142553178e-07,0.4990,0.7201,0.000000,0.884759,0.210000,0.609980,0.000000,0.000000,0.982364,2.000000,1.000000,0.208423,0.034216,0.485009,0.626039,0.839603,0.000000,1.000000,125.000000,1.265465,38.610000,0.609980,1.000000,0.500000,9.841275,2.000000,300.000000,0.886717,13.824459,0.485009,125.581713,8.476227,1.000000,1.000000,7
/home/daniel/Projects/ppsevolution/data/maps/custom_maps/Custom_6_Run_0_Map.csv,squared_error,9.38999056199882e-07,0.5001,0.7186,0.123829,0.854955,0.048248,0.705511,0.107908,0.000000,0.987615,1.000000,1.000000,0.063005,0.000000,0.556333,1.000000,0.984878,0.000000,1.000000,146.670083,1.248775,15.802947,0.705511,22.473717,0.500000,9.888538,1.000000,300.000000,0.805283,9.000000,0.556333,200.000000,9.856337,1.000000,1.000000,8
/home/daniel/Projects/ppsevolution/data/maps/custom_maps/Custom_6_Run_0_Map.csv,squared_error,1.396171424713053e-06,0.5010,0.7187,0.047261,1.000000,0.389223,0.528932,0.000000,0.000000,0.662253,0.000000,1.000000,0.122817,0.136710,0.443607,0.938035,0.800450,0.000000,1.000000,133.270682,1.330000,63.880462,0.528932,1.000000,0.500000,6.960279,0.000000,300.000000,0.838778,28.276095,0.443607,187.668937,8.104277,1.000000,1.000000,9
map,fitness,fitness value,team0ratio,time,HP,Speed,Damage,Acc,ClipSize,RateOfFire,NrBullets,Range,HP,Speed,Damage,Acc,ClipSize,RateOfFire,NrBullets,Range,HP,Speed,Damage,Acc,ClipSize,RateOfFire,NrBullets,Range,HP,Speed,Damage,Acc,ClipSize,RateOfFire,NrBullets,Range,Run,target team0ratio: 0.5,target time: 0.72
/home/daniel/Projects/ppsevolution/data/maps/custom_maps/Custom_7_Run_0_Map.csv,squared_error,3.730868888680802e-07,0.5003,0.7192,0.408941,0.883693,0.000000,0.459492,0.000000,0.436742,1.000000,0.000000,0.848518,0.000000,0.023154,0.295726,0.931965,0.895887,0.023213,2.000000,196.564749,1.264868,9.000000,0.459492,1.000000,4.649052,10.000000,0.000000,273.490571,0.770000,12.264776,0.295726,186.460964,9.010930,1.208913,2.000000,0
/home/daniel/Projects/ppsevolution/data/maps/custom_maps/Custom_7_Run_0_Map.csv,squared_error,6.300168527388132e-08,0.5002,0.7197,0.182093,0.934159,0.063698,0.383090,0.091852,0.044889,0.883448,0.000000,0.694222,0.046080,0.139266,0.096265,0.985436,0.941620,0.000000,2.000000,156.866321,1.293129,17.981396,0.383090,19.278452,0.926445,8.951029,0.000000,246.488809,0.795805,28.636453,0.096265,197.101797,9.445394,1.000000,2.000000,1
/home/daniel/Projects/ppsevolution/data/maps/custom_maps/Custom_7_Run_0_Map.csv,squared_error,5.126359400094522e-07,0.4993,0.7208,0.094724,1.000000,0.114523,0.425658,0.000000,0.202613,0.918327,1.000000,1.000000,0.000000,0.000000,0.174020,0.763192,0.443204,0.002655,2.000000,141.576705,1.330000,25.147709,0.425658,1.000000,2.424822,9.264945,1.000000,300.000000,0.770000,9.000000,0.174020,152.875190,4.710443,1.023897,2.000000,2
/home/daniel/Projects/ppsevolution/data/maps/custom_maps/Custom_7_Run_0_Map.csv,squared_error,8.865296292988683e-07,0.4989,0.7207,0.159541,0.984085,0.009140,0.530420,0.222039,0.000000,0.652031,2.000000,1.000000,0.118395,0.023910,0.172766,0.805038,0.767795,0.100967,2.000000,152.919697,1.321088,10.288706,0.530420,45.185811,0.500000,6.868283,2.000000,300.000000,0.836301,12.371315,0.172766,161.202519,7.794049,1.908701,2.000000,3
/home/daniel/Projects/ppsevolution/data/maps/custom_maps/Custom_7_Run_0_Map.csv,squared_error,2.4216641227495093e-07,0.4998,0.7193,0.254304,0.851080,0.021613,0.496346,0.309879,0.127215,0.856395,2.000000,1.000000,0.279975,0.000000,0.241879,0.722941,0.924955,0.000000,1.000000,169.503136,1.246605,12.047453,0.496346,62.665874,1.708538,8.707554,2.000000,300.000000,0.926786,9.000000,0.241879,144.865294,9.287069,1.000000,1.000000,4
/home/daniel/Projects/ppsevolution/data/maps/custom_maps/Custom_7_Run_0_Map.csv,squared_error,2.930178398059829e-07,0.4995,0.7194,0.459617,0.822068,0.121147,0.394215,0.030000,0.226713,0.689144,2.000000,0.967261,0.000000,0.039630,0.286602,0.859180,1.000000,0.021348,1.000000,205.433053,1.230358,26.081760,0.394215,6.970000,2.653775,7.202298,2.000000,294.270596,0.770000,14.587769,0.286602,171.976865,10.000000,1.192135,1.000000,5
/home/daniel/Projects/ppsevolution/data/maps/custom_maps/Custom_7_Run_0_Map.csv,squared_error,7.030350015753738e-07,0.5010,0.7206,0.069949,1.000000,0.037371,0.499023,0.000000,0.000000,0.971905,0.000000,0.962101,0.000000,0.000000,0.151274,1.000000,0.830232,0.228214,2.000000,137.241139,1.330000,14.269308,0.499023,1.000000,0.500000,9.747141,0.000000,293.367653,0.770000,9.000000,0.151274,200.000000,8.387203,3.053922,2.000000,6
/home/daniel/Projects/ppsevolution/data/maps/custom_maps/Custom_7_Run_0_Map.csv,squared_error,6.5145243771949e-07,0.4993,0.7191,0.074002,0.911628,0.047278,0.438763,0.168799,0.378424,0.823031,2.000000,0.863884,0.185495,0.000000,0.167382,0.957532,1.000000,0.000000,0.000000,137.950365,1.280512,15.666234,0.438763,34.591027,4.095026,8.407278,2.000000,276.179784,0.873877,9.000000,0.167382,191.548773,10.000000,1.000000,0.000000,7
/home/daniel/Projects/ppsevolution/data/maps/custom_maps/Custom_7_Run_0_Map.csv,squared_error,7.417755163715186e-07,0.5006,0.7211,0.406886,0.934323,0.000000,0.452648,0.296463,0.256593,0.970077,2.000000,0.851814,0.253760,0.157053,0.142507,0.871548,0.808035,0.045780,2.000000,196.205002,1.293221,9.000000,0.452648,59.996227,2.937629,9.730691,2.000000,274.067492,0.912106,31.144508,0.142507,174.438067,8.176330,1.412024,2.000000,8
/home/daniel/Projects/ppsevolution/data/maps/custom_maps/Custom_7_Run_0_Map.csv,squared_error,4.1780599664491266e-07,0.4991,0.7199,0.049687,1.000000,0.277731,0.259543,0.091597,0.000000,0.471009,0.000000,0.863794,0.000000,0.000000,0.164293,0.841183,0.590751,0.000000,1.000000,133.695197,1.330000,48.160113,0.259543,19.227792,0.500000,5.239085,0.000000,276.163881,0.770000,9.000000,0.164293,168.395419,6.112138,1.000000,1.000000,9
map,fitness,fitness value,team0ratio,time,HP,Speed,Damage,Acc,ClipSize,RateOfFire,NrBullets,Range,HP,Speed,Damage,Acc,ClipSize,RateOfFire,NrBullets,Range,HP,Speed,Damage,Acc,ClipSize,RateOfFire,NrBullets,Range,HP,Speed,Damage,Acc,ClipSize,RateOfFire,NrBullets,Range,Run,target team0ratio: 0.5,target time: 0.72
/home/daniel/Projects/ppsevolution/data/maps/custom_maps/Custom_8_Run_0_Map.csv,squared_error,6.16215023826099e-07,0.4995,0.7210,0.209081,0.846027,0.018682,0.307804,0.000000,0.295079,0.804952,2.000000,0.899096,0.193131,0.000000,0.000000,0.635619,1.000000,0.007586,1.000000,161.589257,1.243775,11.634180,0.307804,1.000000,3.303246,8.244564,2.000000,282.341766,0.878153,9.000000,0.000000,127.488182,10.000000,1.068270,1.000000,0
/home/daniel/Projects/ppsevolution/data/maps/custom_maps/Custom_8_Run_0_Map.csv,squared_error,3.011222467648456e-07,0.4995,0.7194,0.596489,0.963630,0.000000,0.357453,0.250666,0.000000,0.431825,1.000000,0.906782,0.065315,0.184325,0.005155,0.946645,0.648365,0.062367,1.000000,229.385569,1.309633,9.000000,0.357453,50.882557,0.500000,4.886427,1.000000,283.686817,0.806576,34.989890,0.005155,189.382394,6.659464,1.561305,1.000000,1
/home/daniel/Projects/ppsevolution/data/maps/custom_maps/Custom_8_Run_0_Map.csv,squared_error,1.5945370281229674e-06,0.5013,0.7188,0.503727,0.936397,0.000000,0.362639,0.000000,0.000000,0.705186,1.000000,0.946421,0.210444,0.000000,0.159964,1.000000,1.000000,0.049369,1.000000,213.152200,1.294383,9.000000,0.362639,1.000000,0.500000,7.346674,1.000000,290.623652,0.887849,9.000000,0.159964,200.000000,10.000000,1.444321,1.000000,2
/home/daniel/Projects/ppsevolution/data/maps/custom_maps/Custom_8_Run_0_Map.csv,squared_error,2.7588638678539006e-07,0.5004,0.7206,0.282367,0.670261,0.000000,0.380326,0.275821,0.372399,0.709646,0.000000,0.993120,0.260239,0.000000,0.000000,0.528983,0.771008,0.301593,1.000000,174.414302,1.145346,9.000000,0.380326,55.888378,4.037793,7.386817,0.000000,298.796026,0.915734,9.000000,0.000000,106.267604,7.824579,3.714341,1.000000,3
/home/daniel/Projects/ppsevolution/data/maps/custom_maps/Custom_8_Run_0_Map.csv,squared_error,1.3784977553229265e-06,0.4998,0.7216,0.298327,0.974706,0.016022,0.340838,0.000000,0.080816,0.937020,1.000000,0.976572,0.283623,0.000000,0.052774,0.998986,0.848888,0.024710,0.000000,177.207140,1.315836,11.259058,0.340838,1.000000,1.267748,9.433184,1.000000,295.900172,0.928829,9.000000,0.052774,199.798181,8.564436,1.222386,0.000000,4
/home/daniel/Projects/ppsevolution/data/maps/custom_maps/Custom_8_Run_0_Map.csv,squared_error,3.2196807681656817e-06,0.4991,0.7176,0.566413,0.928740,0.000000,0.334413,0.092216,0.184555,0.888077,0.000000,0.925292,0.000000,0.000000,0.204796,0.944375,0.952728,0.000000,0.000000,224.122349,1.290094,9.000000,0.334413,19.350887,2.253277,8.992689,0.000000,286.926099,0.770000,9.000000,0.204796,188.930600,9.550915,1.000000,0.000000,5
/home/daniel/Projects/ppsevolution/data/maps/custom_maps/Custom_8_Run_0_Map.csv,squared_error,3.4694816008667293e-07,0.4992,0.7202,0.231617,0.770593,0.121825,0.237502,0.000635,0.153021,0.880965,2.000000,1.000000,0.263209,0.000000,0.000000,0.981963,0.924746,0.000000,2.000000,165.532981,1.201532,26.177337,0.237502,1.126364,1.953695,8.928681,2.000000,300.000000,0.917397,9.000000,0.000000,196.410625,9.285090,1.000000,2.000000,6
/home/daniel/Projects/ppsevolution/data/maps/custom_maps/Custom_8_Run_0_Map.csv,squared_error,1.0249044095261615e-07,0.4997,0.7203,0.211389,0.741502,0.107288,0.255527,0.115662,0.221052,1.000000,0.000000,1.000000,0.349600,0.000000,0.000000,0.951568,0.944177,0.000000,0.000000,161.993051,1.185241,24.127634,0.255527,24.016801,2.599992,10.000000,0.000000,300.000000,0.965776,9.000000,0.000000,190.362008,9.469678,1.000000,0.000000,7
/home/daniel/Projects/ppsevolution/data/maps/custom_maps/Custom_8_Run_0_Map.csv,squared_error,8.493189598197767e-07,0.5000,0.7187,0.218384,1.000000,0.000000,0.353790,0.084965,0.192158,1.000000,2.000000,0.974883,0.153822,0.000000,0.001771,1.000000,0.683523,0.112385,1.000000,163.217131,1.330000,9.000000,0.353790,17.907976,2.325503,10.000000,2.000000,295.604558,0.856140,9.000000,0.001771,200.000000,6.993468,2.011466,1.000000,8
/home/daniel/Projects/ppsevolution/data/maps/custom_maps/Custom_8_Run_0_Map.csv,squared_error,3.066839448280879e-06,0.4997,0.7175,0.308360,0.814028,0.000000,0.367757,0.226910,0.129519,0.851421,2.000000,1.000000,0.000000,0.003225,0.053224,0.852882,1.000000,0.056061,1.000000,178.963001,1.225856,9.000000,0.367757,46.155176,1.730433,8.662790,2.000000,300.000000,0.770000,9.454704,0.053224,170.723542,10.000000,1.504550,1.000000,9
map,fitness,fitness value,team0ratio,time,HP,Speed,Damage,Acc,ClipSize,RateOfFire,NrBullets,Range,HP,Speed,Damage,Acc,ClipSize,RateOfFire,NrBullets,Range,HP,Speed,Damage,Acc,ClipSize,RateOfFire,NrBullets,Range,HP,Speed,Damage,Acc,ClipSize,RateOfFire,NrBullets,Range,Run,target team0ratio: 0.5,target time: 0.72
/home/daniel/Projects/ppsevolution/data/maps/custom_maps/Custom_9_Run_0_Map.csv,squared_error,4.180720179644942e-09,0.5000,0.7199,0.537428,0.753335,0.000000,0.216658,0.306915,0.372077,0.507142,2.000000,1.000000,0.890400,0.000000,0.000000,0.820413,0.746835,0.000000,2.000000,219.049814,1.191867,9.000000,0.216658,62.075994,4.034735,5.564282,2.000000,300.000000,1.268624,9.000000,0.000000,164.262162,7.594934,1.000000,2.000000,0
/home/daniel/Projects/ppsevolution/data/maps/custom_maps/Custom_9_Run_0_Map.csv,squared_error,1.2040468356218585e-06,0.5015,0.7202,0.711148,0.961778,0.000000,0.174400,0.088286,0.350043,0.887477,0.000000,1.000000,0.011479,0.090951,0.000000,0.405858,0.891393,0.004490,0.000000,249.450863,1.308596,9.000000,0.174400,18.568901,3.825412,8.987292,0.000000,300.000000,0.776428,21.824145,0.000000,81.765695,8.968237,1.040410,0.000000,1
/home/daniel/Projects/ppsevolution/data/maps/custom_maps/Custom_9_Run_0_Map.csv,squared_error,6.292002281867551e-07,0.5007,0.7208,0.492621,0.704528,0.134676,0.000000,0.000000,0.000000,1.000000,2.000000,0.978418,0.000000,0.000000,0.000000,0.901415,0.936694,0.000000,0.000000,211.208705,1.164536,27.989341,0.000000,1.000000,0.500000,10.000000,2.000000,296.223236,0.770000,9.000000,0.000000,180.381643,9.398590,1.000000,0.000000,2
/home/daniel/Projects/ppsevolution/data/maps/custom_maps/Custom_9_Run_0_Map.csv,squared_error,2.4667613072891247e-08,0.5002,0.7199,0.611876,0.921482,0.128539,0.000000,0.068005,0.393255,0.803475,1.000000,0.920423,0.055750,0.048054,0.000000,0.875165,0.908079,0.000000,2.000000,232.078308,1.286030,27.123980,0.000000,14.532965,4.235920,8.231277,1.000000,286.074022,0.801220,15.775571,0.000000,175.157912,9.126751,1.000000,2.000000,3
/home/daniel/Projects/ppsevolution/data/maps/custom_maps/Custom_9_Run_0_Map.csv,squared_error,2.0596120826681568e-07,0.4994,0.7201,0.605484,0.902825,0.000000,0.177977,0.498281,0.329352,0.903584,1.000000,1.000000,0.259062,0.033282,0.006858,0.944607,0.475508,0.000000,2.000000,230.959667,1.275582,9.000000,0.177977,100.157928,3.628848,9.132257,1.000000,300.000000,0.915075,13.692752,0.006858,188.976875,5.017323,1.000000,2.000000,4
/home/daniel/Projects/ppsevolution/data/maps/custom_maps/Custom_9_Run_0_Map.csv,squared_error,8.641812399730801e-07,0.4993,0.7211,0.454764,0.834298,0.065988,0.000000,0.054587,0.000000,0.679943,0.000000,0.684391,0.114685,0.000000,0.000000,1.000000,0.827641,0.075722,2.000000,204.583744,1.237207,18.304242,0.000000,11.862735,0.500000,7.119483,0.000000,244.768346,0.834223,9.000000,0.000000,200.000000,8.362594,1.681500,2.000000,5
/home/daniel/Projects/ppsevolution/data/maps/custom_maps/Custom_9_Run_0_Map.csv,squared_error,2.6545451715945e-07,0.5001,0.7193,0.497544,1.000000,0.007597,0.194245,0.374985,0.087722,0.673212,2.000000,1.000000,0.098240,0.003920,0.000000,0.822334,0.834856,0.000000,0.000000,212.070176,1.330000,10.071123,0.194245,75.622048,1.333361,7.058905,2.000000,300.000000,0.825015,9.552787,0.000000,164.644391,8.431128,1.000000,0.000000,6
/home/daniel/Projects/ppsevolution/data/maps/custom_maps/Custom_9_Run_0_Map.csv,squared_error,7.168085569560455e-07,0.5012,0.7202,0.509567,0.993028,0.041523,0.125054,0.155035,0.165698,0.968350,1.000000,1.000000,0.045567,0.000000,0.000000,0.520283,0.817329,0.011330,1.000000,214.174175,1.326096,14.854808,0.125054,31.852046,2.074136,9.715151,1.000000,300.000000,0.795518,9.000000,0.000000,104.536283,8.264625,1.101974,1.000000,7
/home/daniel/Projects/ppsevolution/data/maps/custom_maps/Custom_9_Run_0_Map.csv,squared_error,6.241366106792434e-07,0.5004,0.7210,0.785928,0.875141,0.000000,0.099289,0.272844,0.000000,1.000000,2.000000,0.870424,0.121774,0.000000,0.164109,1.000000,0.897090,0.000000,0.000000,262.537435,1.260079,9.000000,0.099289,55.295877,0.500000,10.000000,2.000000,277.324191,0.838193,9.000000,0.164109,200.000000,9.022352,1.000000,0.000000,8
/home/daniel/Projects/ppsevolution/data/maps/custom_maps/Custom_9_Run_0_Map.csv,squared_error,5.941771276070779e-07,0.5006,0.7209,0.533854,0.970836,0.037947,0.192249,0.028411,0.000000,0.382044,0.000000,0.980936,0.187116,0.027341,0.000000,0.886452,0.842580,0.000000,0.000000,218.424402,1.313668,14.350583,0.192249,6.653843,0.500000,4.438393,0.000000,296.663851,0.874785,12.855026,0.000000,177.403920,8.504511,1.000000,0.000000,9
map,fitness,fitness value,team0ratio,time,HP,Speed,Damage,Acc,ClipSize,RateOfFire,NrBullets,Range,HP,Speed,Damage,Acc,ClipSize,RateOfFire,NrBullets,Range,HP,Speed,Damage,Acc,ClipSize,RateOfFire,NrBullets,Range,HP,Speed,Damage,Acc,ClipSize,RateOfFire,NrBullets,Range,Run,target team0ratio: 0.5,target time: 0.72
/home/daniel/Projects/ppsevolution/data/maps/custom_maps/Custom_10_Run_0_Map.csv,squared_error,4.530014259359196e-07,0.5002,0.7209,0.142669,1.000000,0.000000,0.382875,0.108758,0.146912,1.000000,2.000000,0.790422,0.000000,0.022462,0.089344,0.796008,1.000000,0.123809,2.000000,149.967017,1.330000,9.000000,0.382875,22.642876,1.895660,10.000000,2.000000,263.323819,0.770000,12.167081,0.089344,159.405514,10.000000,2.114278,2.000000,0
/home/daniel/Projects/ppsevolution/data/maps/custom_maps/Custom_10_Run_0_Map.csv,squared_error,5.069527567343169e-07,0.4993,0.7193,0.070837,0.864620,0.052770,0.393299,0.155525,0.000000,0.840157,1.000000,0.866485,0.245638,0.000000,0.057067,1.000000,0.574752,0.338100,2.000000,137.396396,1.254187,16.440562,0.393299,31.949555,0.500000,8.561413,1.000000,276.634846,0.907558,9.000000,0.057067,200.000000,5.960141,4.042897,2.000000,1
/home/daniel/Projects/ppsevolution/data/maps/custom_maps/Custom_10_Run_0_Map.csv,squared_error,6.519903890030616e-07,0.4997,0.7211,0.000000,0.705792,0.140634,0.337481,0.069648,0.349641,0.910701,0.000000,0.965721,0.168441,0.049304,0.000000,1.000000,0.903978,0.000000,0.000000,125.000000,1.165243,28.829419,0.337481,14.859862,3.821585,9.196311,0.000000,294.001226,0.864327,15.951904,0.000000,200.000000,9.087792,1.000000,0.000000,2
/home/daniel/Projects/ppsevolution/data/maps/custom_maps/Custom_10_Run_0_Map.csv,squared_error,2.1517298924038073e-07,0.5006,0.7198,0.294082,0.923631,0.114513,0.330494,0.017100,0.206667,0.740813,1.000000,0.901261,0.150928,0.063430,0.118379,0.640632,0.736517,0.073567,2.000000,176.464353,1.287233,25.146297,0.330494,4.402993,2.463334,7.667315,1.000000,282.720596,0.854520,17.943640,0.118379,128.485761,7.496916,1.662102,2.000000,3
/home/daniel/Projects/ppsevolution/data/maps/custom_maps/Custom_10_Run_0_Map.csv,squared_error,1.9769330824884547e-07,0.4996,0.7195,0.289625,0.889960,0.209832,0.229711,0.000000,0.194266,0.903030,0.000000,0.921597,0.053739,0.000000,0.195828,0.810594,0.672505,0.096528,0.000000,175.684300,1.268378,38.586248,0.229711,1.000000,2.345526,9.127267,0.000000,286.279412,0.800094,9.000000,0.195828,162.308168,6.888793,1.868750,0.000000,4
/home/daniel/Projects/ppsevolution/data/maps/custom_maps/Custom_10_Run_0_Map.csv,squared_error,3.574068178664929e-07,0.5008,0.7201,0.333996,1.000000,0.004328,0.472703,0.085821,0.003653,1.000000,0.000000,1.000000,0.296633,0.000000,0.235540,1.000000,0.742007,0.000000,1.000000,183.449271,1.330000,9.610288,0.472703,18.078460,0.534704,10.000000,0.000000,300.000000,0.936114,9.000000,0.235540,200.000000,7.549068,1.000000,1.000000,5
/home/daniel/Projects/ppsevolution/data/maps/custom_maps/Custom_10_Run_0_Map.csv,squared_error,1.0500974902144116e-07,0.4996,0.7203,0.157486,0.935479,0.000000,0.474518,0.000000,0.071326,0.966365,1.000000,1.000000,0.107355,0.000000,0.142894,1.000000,0.717528,0.000000,2.000000,152.559984,1.293868,9.000000,0.474518,1.000000,1.177595,9.697282,1.000000,300.000000,0.830119,9.000000,0.142894,200.000000,7.316514,1.000000,2.000000,6
/home/daniel/Projects/ppsevolution/data/maps/custom_maps/Custom_10_Run_0_Map.csv,squared_error,9.516169397557317e-07,0.5001,0.7214,0.031006,0.955732,0.000000,0.490232,0.176606,0.069387,0.930365,0.000000,1.000000,0.345716,0.000000,0.075040,0.828405,0.935917,0.094187,0.000000,130.426011,1.305210,9.000000,0.490232,36.144535,1.159174,9.373281,0.000000,300.000000,0.963601,9.000000,0.075040,165.852524,9.391212,1.847685,0.000000,7
/home/daniel/Projects/ppsevolution/data/maps/custom_maps/Custom_10_Run_0_Map.csv,squared_error,6.994271350606123e-08,0.5003,0.7198,0.297510,0.941047,0.000000,0.463588,0.140033,0.197952,0.973452,1.000000,0.988375,0.070266,0.000000,0.195093,0.845650,0.955555,0.155432,0.000000,177.064240,1.296986,9.000000,0.463588,28.866599,2.380546,9.761064,1.000000,297.965678,0.809349,9.000000,0.195093,169.284259,9.577768,2.398890,0.000000,8
/home/daniel/Projects/ppsevolution/data/maps/custom_maps/Custom_10_Run_0_Map.csv,squared_error,4.750388450248333e-06,0.4982,0.7225,0.263980,1.000000,0.096491,0.383950,0.314833,0.070284,0.677832,2.000000,1.000000,0.496419,0.126323,0.036994,0.929286,0.663753,0.000000,0.000000,171.196447,1.330000,22.605268,0.383950,63.651679,1.167694,7.100489,2.000000,300.000000,1.047995,26.811532,0.036994,185.927975,6.805655,1.000000,0.000000,9
