map,fitness,fitness value,team0ratio,time,HP,Speed,Damage,Acc,ClipSize,RateOfFire,NrBullets,Range,HP,Speed,Damage,Acc,ClipSize,RateOfFire,NrBullets,Range,HP,Speed,Damage,Acc,ClipSize,RateOfFire,NrBullets,Range,HP,Speed,Damage,Acc,ClipSize,RateOfFire,NrBullets,Range,Run,target team0ratio: 0.5,target time: 0.36
/home/daniel/Projects/ppsEvolution/data/maps/custom_maps/Custom_1_Run_0_Map.csv,squared_error,8.034830652327578e-07,0.4990,0.3592,0.000000,1.000000,0.210000,0.673499,0.000000,0.000000,0.971940,0.000000,1.000000,0.000000,0.000000,0.600000,0.923286,1.000000,0.000000,0.000000,125.000000,1.330000,38.610000,0.673499,1.000000,0.500000,9.747459,0.000000,300.000000,0.770000,9.000000,0.600000,184.733972,10.000000,1.000000,0.000000,0
/home/daniel/Projects/ppsEvolution/data/maps/custom_maps/Custom_1_Run_0_Map.csv,squared_error,6.688754061691895e-07,0.5008,0.3609,0.012795,1.000000,0.210000,0.672423,0.030000,0.000000,0.955526,0.000000,1.000000,0.000000,0.000000,0.600000,0.922348,1.000000,0.000000,0.000000,127.239091,1.330000,38.610000,0.672423,6.970000,0.500000,9.599730,0.000000,300.000000,0.770000,9.000000,0.600000,184.547285,10.000000,1.000000,0.000000,1
/home/daniel/Projects/ppsEvolution/data/maps/custom_maps/Custom_1_Run_0_Map.csv,squared_error,4.725549756614045e-07,0.4991,0.3596,0.000000,1.000000,0.167759,0.689468,0.017743,0.030000,1.000000,0.000000,0.973071,0.000000,0.000000,0.600000,1.000000,1.000000,0.000000,0.000000,125.000000,1.330000,32.653955,0.689468,4.530761,0.785000,10.000000,0.000000,295.287345,0.770000,9.000000,0.600000,200.000000,10.000000,1.000000,0.000000,2
/home/daniel/Projects/ppsEvolution/data/maps/custom_maps/Custom_1_Run_0_Map.csv,squared_error,8.150909377093313e-07,0.5013,0.3602,0.000000,1.000000,0.230726,0.654181,0.030000,0.000000,0.877850,0.000000,0.946351,0.000000,0.000000,0.600000,1.000000,1.000000,0.011551,0.000000,125.000000,1.330000,41.532357,0.654181,6.970000,0.500000,8.900646,0.000000,290.611354,0.770000,9.000000,0.600000,200.000000,10.000000,1.103955,0.000000,3
/home/daniel/Projects/ppsEvolution/data/maps/custom_maps/Custom_1_Run_0_Map.csv,squared_error,9.280056356388234e-07,0.4994,0.3588,0.042778,0.944053,0.210000,0.666115,0.000000,0.275465,1.000000,0.000000,1.000000,0.000000,0.000000,0.600000,1.000000,0.917796,0.000000,1.000000,132.486192,1.298670,38.610000,0.666115,1.000000,3.116922,10.000000,0.000000,300.000000,0.770000,9.000000,0.600000,200.000000,9.219058,1.000000,1.000000,4
/home/daniel/Projects/ppsEvolution/data/maps/custom_maps/Custom_1_Run_0_Map.csv,squared_error,5.286121905669468e-07,0.4990,0.3600,0.123979,1.000000,0.210000,0.646467,0.030000,0.074222,1.000000,1.000000,1.000000,0.000000,0.000000,0.600000,1.000000,1.000000,0.083041,2.000000,146.696273,1.330000,38.610000,0.646467,6.970000,1.205111,10.000000,1.000000,300.000000,0.770000,9.000000,0.600000,200.000000,10.000000,1.747372,2.000000,5
/home/daniel/Projects/ppsEvolution/data/maps/custom_maps/Custom_1_Run_0_Map.csv,squared_error,6.891627172535596e-07,0.5011,0.3595,0.000000,0.896345,0.161803,0.683443,0.030000,0.030000,1.000000,0.000000,0.927158,0.000000,0.000000,0.600000,1.000000,1.000000,0.000000,0.000000,125.000000,1.271953,31.814281,0.683443,6.970000,0.785000,10.000000,0.000000,287.252653,0.770000,9.000000,0.600000,200.000000,10.000000,1.000000,0.000000,6
/home/daniel/Projects/ppsEvolution/data/maps/custom_maps/Custom_1_Run_0_Map.csv,squared_error,6.084884539660652e-07,0.5010,0.3603,0.000000,1.000000,0.183737,0.689994,0.030000,0.019655,0.924449,0.000000,0.993022,0.000000,0.000000,0.600000,0.993155,1.000000,0.000000,0.000000,125.000000,1.330000,34.906851,0.689994,6.970000,0.686725,9.320043,0.000000,298.778895,0.770000,9.000000,0.600000,198.637900,10.000000,1.000000,0.000000,7
/home/daniel/Projects/ppsEvolution/data/maps/custom_maps/Custom_1_Run_0_Map.csv,squared_error,7.423706738542425e-07,0.4991,0.3592,0.000000,1.000000,0.109368,0.727358,0.030000,0.030000,0.924062,0.000000,1.000000,0.000000,0.000000,0.600000,1.000000,1.000000,0.000000,1.000000,125.000000,1.330000,24.420842,0.727358,6.970000,0.785000,9.316561,0.000000,300.000000,0.770000,9.000000,0.600000,200.000000,10.000000,1.000000,1.000000,8
/home/daniel/Projects/ppsEvolution/data/maps/custom_maps/Custom_1_Run_0_Map.csv,squared_error,9.852602484052239e-07,0.4992,0.3588,0.000000,1.000000,0.210000,0.673950,0.113640,0.085503,0.982375,0.000000,1.000000,0.000000,0.000000,0.600000,1.000000,1.000000,0.000000,0.000000,125.000000,1.330000,38.610000,0.673950,23.614267,1.312279,9.841373,0.000000,300.000000,0.770000,9.000000,0.600000,200.000000,10.000000,1.000000,0.000000,9
map,fitness,fitness value,team0ratio,time,HP,Speed,Damage,Acc,ClipSize,RateOfFire,NrBullets,Range,HP,Speed,Damage,Acc,ClipSize,RateOfFire,NrBullets,Range,HP,Speed,Damage,Acc,ClipSize,RateOfFire,NrBullets,Range,HP,Speed,Damage,Acc,ClipSize,RateOfFire,NrBullets,Range,Run,target team0ratio: 0.5,target time: 0.36
/home/daniel/Projects/ppsEvolution/data/maps/custom_maps/Custom_2_Run_0_Map.csv,squared_error,0.0004115461974705209,0.4931,0.3878,0.000000,0.987436,0.507754,1.000000,0.000000,0.000000,1.000000,2.000000,0.277603,0.000000,1.000000,1.000000,1.000000,1.000000,1.000000,2.000000,125.000000,1.322964,80.593272,1.000000,1.000000,0.500000,10.000000,2.000000,173.580533,0.770000,150.000000,1.000000,200.000000,10.000000,10.000000,2.000000,0
/home/daniel/Projects/ppsEvolution/data/maps/custom_maps/Custom_2_Run_0_Map.csv,squared_error,0.000503633114713718,0.4950,0.3913,0.000000,1.000000,0.379227,1.000000,0.000000,0.000000,1.000000,2.000000,0.652977,0.238593,1.000000,0.951664,1.000000,1.000000,1.000000,2.000000,125.000000,1.330000,62.471046,1.000000,1.000000,0.500000,10.000000,2.000000,239.270913,0.903612,150.000000,0.951664,200.000000,10.000000,10.000000,2.000000,1
/home/daniel/Projects/ppsEvolution/data/maps/custom_maps/Custom_2_Run_0_Map.csv,squared_error,0.00040159072341180714,0.4956,0.3880,0.000000,1.000000,0.692974,1.000000,0.000000,0.000000,1.000000,2.000000,0.602148,0.192979,1.000000,1.000000,1.000000,1.000000,1.000000,2.000000,125.000000,1.330000,106.709289,1.000000,1.000000,0.500000,10.000000,2.000000,230.375833,0.878068,150.000000,1.000000,200.000000,10.000000,10.000000,2.000000,2
/home/daniel/Projects/ppsEvolution/data/maps/custom_maps/Custom_2_Run_0_Map.csv,squared_error,0.00039863291939287005,0.4970,0.3881,0.000000,1.000000,0.609949,1.000000,0.000000,0.000000,1.000000,2.000000,0.446696,0.488747,1.000000,1.000000,1.000000,1.000000,1.000000,2.000000,125.000000,1.330000,95.002874,1.000000,1.000000,0.500000,10.000000,2.000000,203.171774,1.043698,150.000000,1.000000,200.000000,10.000000,10.000000,2.000000,3
/home/daniel/Projects/ppsEvolution/data/maps/custom_maps/Custom_2_Run_0_Map.csv,squared_error,0.0005622980478398671,0.4960,0.3933,0.000000,1.000000,0.303212,1.000000,0.000000,0.000000,1.000000,2.000000,0.787066,0.595642,1.000000,0.927440,1.000000,1.000000,1.000000,2.000000,125.000000,1.330000,51.752824,1.000000,1.000000,0.500000,10.000000,2.000000,262.736528,1.103559,150.000000,0.927440,200.000000,10.000000,10.000000,2.000000,4
/home/daniel/Projects/ppsEvolution/data/maps/custom_maps/Custom_2_Run_0_Map.csv,squared_error,0.00039953993390751173,0.4973,0.3881,0.000000,1.000000,0.776795,1.000000,0.000000,0.000000,1.000000,2.000000,0.748325,0.448433,1.000000,1.000000,1.000000,1.000000,1.000000,2.000000,125.000000,1.330000,118.528120,1.000000,1.000000,0.500000,10.000000,2.000000,255.956932,1.021122,150.000000,1.000000,200.000000,10.000000,10.000000,2.000000,5
/home/daniel/Projects/ppsEvolution/data/maps/custom_maps/Custom_2_Run_0_Map.csv,squared_error,0.00039852952454981825,0.4963,0.3880,0.000000,1.000000,0.792923,1.000000,0.000000,0.000000,1.000000,2.000000,0.790690,0.454739,1.000000,1.000000,1.000000,1.000000,1.000000,2.000000,125.000000,1.330000,120.802099,1.000000,1.000000,0.500000,10.000000,2.000000,263.370731,1.024654,150.000000,1.000000,200.000000,10.000000,10.000000,2.000000,6
/home/daniel/Projects/ppsEvolution/data/maps/custom_maps/Custom_2_Run_0_Map.csv,squared_error,0.0004935380794075211,0.4936,0.3908,0.000000,1.000000,0.439842,1.000000,0.000000,0.000000,1.000000,2.000000,0.725295,0.185674,1.000000,0.956228,1.000000,1.000000,1.000000,2.000000,125.000000,1.330000,71.017680,1.000000,1.000000,0.500000,10.000000,2.000000,251.926600,0.873978,150.000000,0.956228,200.000000,10.000000,10.000000,2.000000,7
/home/daniel/Projects/ppsEvolution/data/maps/custom_maps/Custom_2_Run_0_Map.csv,squared_error,0.00040625155382405573,0.4945,0.3880,0.000000,0.998384,0.907805,1.000000,0.000000,0.000000,1.000000,2.000000,1.000000,0.081910,1.000000,1.000000,1.000000,1.000000,1.000000,2.000000,125.000000,1.329095,137.000454,1.000000,1.000000,0.500000,10.000000,2.000000,300.000000,0.815869,150.000000,1.000000,200.000000,10.000000,10.000000,2.000000,8
/home/daniel/Projects/ppsEvolution/data/maps/custom_maps/Custom_2_Run_0_Map.csv,squared_error,0.0003908134199201246,0.4955,0.3876,0.000000,1.000000,0.685937,1.000000,0.000000,0.000000,1.000000,2.000000,0.631666,1.000000,1.000000,1.000000,1.000000,1.000000,1.000000,2.000000,125.000000,1.330000,105.717138,1.000000,1.000000,0.500000,10.000000,2.000000,235.541613,1.330000,150.000000,1.000000,200.000000,10.000000,10.000000,2.000000,9
map,fitness,fitness value,team0ratio,time,HP,Speed,Damage,Acc,ClipSize,RateOfFire,NrBullets,Range,HP,Speed,Damage,Acc,ClipSize,RateOfFire,NrBullets,Range,HP,Speed,Damage,Acc,ClipSize,RateOfFire,NrBullets,Range,HP,Speed,Damage,Acc,ClipSize,RateOfFire,NrBullets,Range,Run,target team0ratio: 0.5,target time: 0.36
/home/daniel/Projects/ppsEvolution/data/maps/custom_maps/Custom_3_Run_0_Map.csv,squared_error,0.006097216611166779,0.5038,0.4704,0.000000,1.000000,0.595119,1.000000,0.000000,0.000000,1.000000,2.000000,0.000000,0.000000,1.000000,1.000000,1.000000,0.000000,1.000000,2.000000,125.000000,1.330000,92.911837,1.000000,1.000000,0.500000,10.000000,2.000000,125.000000,0.770000,150.000000,1.000000,200.000000,0.500000,10.000000,2.000000,0
/home/daniel/Projects/ppsEvolution/data/maps/custom_maps/Custom_3_Run_0_Map.csv,squared_error,0.006159736779437883,0.5076,0.4707,0.000000,1.000000,0.746890,1.000000,0.000000,0.000000,1.000000,2.000000,0.242377,0.000000,1.000000,1.000000,1.000000,0.000000,1.000000,2.000000,125.000000,1.330000,114.311513,1.000000,1.000000,0.500000,10.000000,2.000000,167.415997,0.770000,150.000000,1.000000,200.000000,0.500000,10.000000,2.000000,1
/home/daniel/Projects/ppsEvolution/data/maps/custom_maps/Custom_3_Run_0_Map.csv,squared_error,0.006001152361323922,0.5029,0.4695,0.000000,1.000000,1.000000,0.964927,0.000000,0.000000,1.000000,2.000000,0.000000,0.000000,1.000000,1.000000,1.000000,0.000000,1.000000,2.000000,125.000000,1.330000,150.000000,0.964927,1.000000,0.500000,10.000000,2.000000,125.000000,0.770000,150.000000,1.000000,200.000000,0.500000,10.000000,2.000000,2
/home/daniel/Projects/ppsEvolution/data/maps/custom_maps/Custom_3_Run_0_Map.csv,squared_error,0.006132967619429672,0.4974,0.4707,0.000000,1.000000,1.000000,0.957623,0.000000,0.000000,1.000000,2.000000,0.000000,0.000000,1.000000,1.000000,1.000000,0.372545,1.000000,2.000000,125.000000,1.330000,150.000000,0.957623,1.000000,0.500000,10.000000,2.000000,125.000000,0.770000,150.000000,1.000000,200.000000,4.039179,10.000000,2.000000,3
/home/daniel/Projects/ppsEvolution/data/maps/custom_maps/Custom_3_Run_0_Map.csv,squared_error,0.006094873268928731,0.5069,0.4702,0.000000,1.000000,0.636850,0.997504,0.000000,0.000000,1.000000,2.000000,0.000000,0.000000,1.000000,1.000000,1.000000,0.000000,1.000000,2.000000,125.000000,1.330000,98.795820,0.997504,1.000000,0.500000,10.000000,2.000000,125.000000,0.770000,150.000000,1.000000,200.000000,0.500000,10.000000,2.000000,4
/home/daniel/Projects/ppsEvolution/data/maps/custom_maps/Custom_3_Run_0_Map.csv,squared_error,0.006095542969355453,0.5062,0.4702,0.000000,1.000000,0.605600,1.000000,0.000000,0.000000,1.000000,2.000000,0.000000,0.000000,1.000000,1.000000,1.000000,0.000000,1.000000,2.000000,125.000000,1.330000,94.389618,1.000000,1.000000,0.500000,10.000000,2.000000,125.000000,0.770000,150.000000,1.000000,200.000000,0.500000,10.000000,2.000000,5
/home/daniel/Projects/ppsEvolution/data/maps/custom_maps/Custom_3_Run_0_Map.csv,squared_error,0.006131643105764419,0.5085,0.4704,0.000000,1.000000,0.684767,1.000000,0.000000,0.000000,1.000000,2.000000,0.124186,0.003108,1.000000,1.000000,1.000000,0.000000,1.000000,2.000000,125.000000,1.330000,105.552162,1.000000,1.000000,0.500000,10.000000,2.000000,146.732506,0.771740,150.000000,1.000000,200.000000,0.500000,10.000000,2.000000,6
/home/daniel/Projects/ppsEvolution/data/maps/custom_maps/Custom_3_Run_0_Map.csv,squared_error,0.006095595024684106,0.5063,0.4702,0.000000,1.000000,0.606067,1.000000,0.000000,0.000000,1.000000,2.000000,0.000000,0.000000,1.000000,1.000000,1.000000,0.000000,1.000000,2.000000,125.000000,1.330000,94.455500,1.000000,1.000000,0.500000,10.000000,2.000000,125.000000,0.770000,150.000000,1.000000,200.000000,0.500000,10.000000,2.000000,7
/home/daniel/Projects/ppsEvolution/data/maps/custom_maps/Custom_3_Run_0_Map.csv,squared_error,0.0062647371666512235,0.5076,0.4717,0.000000,1.000000,0.986887,1.000000,0.000000,0.000000,1.000000,2.000000,0.667578,0.000000,1.000000,1.000000,1.000000,0.000000,1.000000,2.000000,125.000000,1.330000,148.150998,1.000000,1.000000,0.500000,10.000000,2.000000,241.826226,0.770000,150.000000,1.000000,200.000000,0.500000,10.000000,2.000000,8
/home/daniel/Projects/ppsEvolution/data/maps/custom_maps/Custom_3_Run_0_Map.csv,squared_error,0.005988230257521143,0.5077,0.4692,0.000000,1.000000,1.000000,0.967403,0.000000,0.000000,1.000000,2.000000,0.000000,0.000000,1.000000,1.000000,1.000000,0.000000,1.000000,2.000000,125.000000,1.330000,150.000000,0.967403,1.000000,0.500000,10.000000,2.000000,125.000000,0.770000,150.000000,1.000000,200.000000,0.500000,10.000000,2.000000,9
map,fitness,fitness value,team0ratio,time,HP,Speed,Damage,Acc,ClipSize,RateOfFire,NrBullets,Range,HP,Speed,Damage,Acc,ClipSize,RateOfFire,NrBullets,Range,HP,Speed,Damage,Acc,ClipSize,RateOfFire,NrBullets,Range,HP,Speed,Damage,Acc,ClipSize,RateOfFire,NrBullets,Range,Run,target team0ratio: 0.5,target time: 0.36
/home/daniel/Projects/ppsEvolution/data/maps/custom_maps/Custom_4_Run_0_Map.csv,squared_error,9.616430719063266e-07,0.4989,0.3592,0.000000,1.000000,0.127937,0.800000,0.030000,0.080504,1.000000,1.000000,1.000000,0.000000,0.160522,0.600000,1.000000,0.946620,0.000000,0.000000,125.000000,1.330000,27.039151,0.800000,6.970000,1.264785,10.000000,1.000000,300.000000,0.770000,31.633534,0.600000,200.000000,9.492889,1.000000,0.000000,0
/home/daniel/Projects/ppsEvolution/data/maps/custom_maps/Custom_4_Run_0_Map.csv,squared_error,8.466436115163987e-07,0.5007,0.3611,0.000000,1.000000,0.162012,0.800000,0.030000,0.030000,1.000000,0.000000,1.000000,0.000000,0.000000,0.677282,1.000000,1.000000,0.000000,0.000000,125.000000,1.330000,31.843637,0.800000,6.970000,0.785000,10.000000,0.000000,300.000000,0.770000,9.000000,0.677282,200.000000,10.000000,1.000000,0.000000,1
/home/daniel/Projects/ppsEvolution/data/maps/custom_maps/Custom_4_Run_0_Map.csv,squared_error,2.7498584035186956e-07,0.5002,0.3607,0.159371,0.909712,0.210000,0.765408,0.030000,0.122689,0.978193,1.000000,1.000000,0.000000,0.052465,0.665741,1.000000,1.000000,0.119026,0.000000,152.889857,1.279439,38.610000,0.765408,6.970000,1.665544,9.803741,1.000000,300.000000,0.770000,16.397532,0.665741,200.000000,10.000000,2.071233,0.000000,2
/home/daniel/Projects/ppsEvolution/data/maps/custom_maps/Custom_4_Run_0_Map.csv,squared_error,3.730741054326252e-08,0.5003,0.3599,0.000000,1.000000,0.210000,0.769652,0.000000,0.030000,0.891410,1.000000,1.000000,0.000000,0.128226,0.600000,1.000000,0.859470,0.000000,1.000000,125.000000,1.330000,38.610000,0.769652,1.000000,0.785000,9.022688,1.000000,300.000000,0.770000,27.079863,0.600000,200.000000,8.664964,1.000000,1.000000,3
/home/daniel/Projects/ppsEvolution/data/maps/custom_maps/Custom_4_Run_0_Map.csv,squared_error,1.5377918703050502e-08,0.5001,0.3599,0.031345,1.000000,0.210000,0.800000,0.030000,0.030000,0.687085,0.000000,1.000000,0.000000,0.000000,0.692488,1.000000,0.872631,0.000000,0.000000,130.485342,1.330000,38.610000,0.800000,6.970000,0.785000,7.183763,0.000000,300.000000,0.770000,9.000000,0.692488,200.000000,8.789993,1.000000,0.000000,4
/home/daniel/Projects/ppsEvolution/data/maps/custom_maps/Custom_4_Run_0_Map.csv,squared_error,9.845558083078923e-07,0.4996,0.3614,0.186101,1.000000,0.210000,0.781245,0.000000,0.030000,0.863880,0.000000,1.000000,0.000000,0.000000,0.701498,0.817479,0.868385,0.000000,1.000000,157.567704,1.330000,38.610000,0.781245,1.000000,0.785000,8.774919,0.000000,300.000000,0.770000,9.000000,0.701498,163.678367,8.749657,1.000000,1.000000,5
/home/daniel/Projects/ppsEvolution/data/maps/custom_maps/Custom_4_Run_0_Map.csv,squared_error,3.7909622409700874e-07,0.5002,0.3608,0.000000,1.000000,0.210645,0.757886,0.000000,0.030000,1.000000,1.000000,1.000000,0.115012,0.098855,0.600000,0.951193,1.000000,0.000000,2.000000,125.000000,1.330000,38.701004,0.757886,1.000000,0.785000,10.000000,1.000000,300.000000,0.834407,22.938588,0.600000,190.287462,10.000000,1.000000,2.000000,6
/home/daniel/Projects/ppsEvolution/data/maps/custom_maps/Custom_4_Run_0_Map.csv,squared_error,6.9358446379583e-07,0.5005,0.3611,0.089667,1.000000,0.202955,0.788396,0.030000,0.403788,0.914205,0.000000,1.000000,0.042848,0.000000,0.691351,1.000000,1.000000,0.000000,0.000000,140.691792,1.330000,37.616647,0.788396,6.970000,4.335988,9.227842,0.000000,300.000000,0.793995,9.000000,0.691351,200.000000,10.000000,1.000000,0.000000,7
/home/daniel/Projects/ppsEvolution/data/maps/custom_maps/Custom_4_Run_0_Map.csv,squared_error,1.1879345581668793e-06,0.5001,0.3615,0.096594,1.000000,0.210000,0.800000,0.325993,0.000000,0.649367,0.000000,1.000000,0.063046,0.000000,0.705218,1.000000,1.000000,0.000000,0.000000,141.903905,1.330000,38.610000,0.800000,65.872611,0.500000,6.844300,0.000000,300.000000,0.805306,9.000000,0.705218,200.000000,10.000000,1.000000,0.000000,8
/home/daniel/Projects/ppsEvolution/data/maps/custom_maps/Custom_4_Run_0_Map.csv,squared_error,5.154139065340052e-08,0.4997,0.3602,0.000000,0.856023,0.158028,0.800000,0.113791,0.030000,1.000000,0.000000,0.982282,0.000000,0.000000,0.679946,1.000000,1.000000,0.000000,0.000000,125.000000,1.249373,31.281952,0.800000,23.644441,0.785000,10.000000,0.000000,296.899358,0.770000,9.000000,0.679946,200.000000,10.000000,1.000000,0.000000,9
map,fitness,fitness value,team0ratio,time,HP,Speed,Damage,Acc,ClipSize,RateOfFire,NrBullets,Range,HP,Speed,Damage,Acc,ClipSize,RateOfFire,NrBullets,Range,HP,Speed,Damage,Acc,ClipSize,RateOfFire,NrBullets,Range,HP,Speed,Damage,Acc,ClipSize,RateOfFire,NrBullets,Range,Run,target team0ratio: 0.5,target time: 0.36
/home/daniel/Projects/ppsEvolution/data/maps/custom_maps/Custom_5_Run_0_Map.csv,squared_error,1.3280684191443102e-06,0.4985,0.3606,0.000000,1.000000,0.571794,0.868821,0.000000,0.057290,0.992420,2.000000,0.624638,0.180056,0.269485,0.866045,0.915325,0.778653,0.752857,1.000000,125.000000,1.330000,89.622986,0.868821,1.000000,1.044255,9.931780,2.000000,234.311632,0.870832,46.997389,0.866045,183.149642,7.897208,7.775709,1.000000,0
/home/daniel/Projects/ppsEvolution/data/maps/custom_maps/Custom_5_Run_0_Map.csv,squared_error,3.7980158143116636e-08,0.5002,0.3602,0.000000,0.976966,0.215042,0.994748,0.247112,0.030000,1.000000,2.000000,1.000000,0.121716,0.174675,0.951378,1.000000,0.731386,0.180862,1.000000,125.000000,1.317101,39.320909,0.994748,50.175347,0.785000,10.000000,2.000000,300.000000,0.838161,33.629112,0.951378,200.000000,7.448168,2.627759,1.000000,1
/home/daniel/Projects/ppsEvolution/data/maps/custom_maps/Custom_5_Run_0_Map.csv,squared_error,5.639372822720752e-07,0.4993,0.3608,0.000000,1.000000,0.306514,0.919907,0.129415,0.071811,0.816884,2.000000,0.535721,0.096194,0.375914,0.870482,1.000000,1.000000,0.913138,1.000000,125.000000,1.330000,52.218480,0.919907,26.753676,1.182205,8.351952,2.000000,218.751243,0.823868,62.003832,0.870482,200.000000,10.000000,9.218241,1.000000,2
/home/daniel/Projects/ppsEvolution/data/maps/custom_maps/Custom_5_Run_0_Map.csv,squared_error,5.759323084710442e-07,0.4990,0.3604,0.000000,1.000000,0.341971,0.908808,0.000000,0.000000,0.983465,2.000000,0.530107,0.000000,0.576305,0.814655,1.000000,0.378801,1.000000,2.000000,125.000000,1.330000,57.217847,0.908808,1.000000,0.500000,9.851182,2.000000,217.768727,0.770000,90.258943,0.814655,200.000000,4.098609,10.000000,2.000000,3
/home/daniel/Projects/ppsEvolution/data/maps/custom_maps/Custom_5_Run_0_Map.csv,squared_error,8.563736895041692e-07,0.5005,0.3612,0.008847,0.874573,0.329533,0.935434,0.041737,0.000000,1.000000,1.000000,0.615637,0.134758,0.323342,0.891785,0.928071,1.000000,0.475100,2.000000,126.548269,1.259761,55.464120,0.935434,9.305599,0.500000,10.000000,1.000000,232.736443,0.845464,54.591241,0.891785,185.686114,10.000000,5.275899,2.000000,4
/home/daniel/Projects/ppsEvolution/data/maps/custom_maps/Custom_5_Run_0_Map.csv,squared_error,2.0190221378648467e-06,0.5010,0.3618,0.001582,0.942642,0.416295,0.911341,0.000000,0.213769,1.000000,2.000000,0.789935,0.004209,0.233134,0.873855,1.000000,0.844551,1.000000,2.000000,125.276899,1.297880,67.697584,0.911341,1.000000,2.530806,10.000000,2.000000,263.238557,0.772357,41.871919,0.873855,200.000000,8.523230,10.000000,2.000000,5
/home/daniel/Projects/ppsEvolution/data/maps/custom_maps/Custom_5_Run_0_Map.csv,squared_error,7.001130478158884e-07,0.5007,0.3610,0.000000,1.000000,0.427471,0.905310,0.000000,0.159434,0.994310,2.000000,0.613321,0.000000,0.319289,0.874228,0.997639,0.760829,0.223652,2.000000,125.000000,1.330000,69.273464,0.905310,1.000000,2.014618,9.948789,2.000000,232.331176,0.770000,54.019769,0.874228,199.530206,7.727877,3.012871,2.000000,6
/home/daniel/Projects/ppsEvolution/data/maps/custom_maps/Custom_5_Run_0_Map.csv,squared_error,3.508589009544525e-06,0.4987,0.3623,0.000000,1.000000,0.500499,0.904114,0.062260,0.067294,0.927016,2.000000,0.801301,0.219470,0.233230,0.881855,1.000000,0.862401,0.538601,2.000000,125.000000,1.330000,79.570421,0.904114,13.389686,1.139291,9.343142,2.000000,265.227682,0.892903,41.885476,0.881855,200.000000,8.692806,5.847405,2.000000,7
/home/daniel/Projects/ppsEvolution/data/maps/custom_maps/Custom_5_Run_0_Map.csv,squared_error,8.492915487814033e-07,0.5011,0.3607,0.000000,0.757315,0.861329,0.839553,0.044492,0.226479,1.000000,2.000000,0.863627,0.155301,0.000000,0.908712,0.777271,0.786429,0.106414,2.000000,125.000000,1.194096,130.447352,0.839553,9.853846,2.651551,10.000000,2.000000,276.134677,0.856968,9.000000,0.908712,155.676856,7.971078,1.957723,2.000000,8
/home/daniel/Projects/ppsEvolution/data/maps/custom_maps/Custom_5_Run_0_Map.csv,squared_error,4.5385285953898554e-07,0.4991,0.3602,0.094407,0.887045,0.329084,0.929775,0.030000,0.000000,1.000000,1.000000,0.584697,0.000000,0.333239,0.890495,1.000000,0.742580,0.669496,2.000000,141.521193,1.266745,55.400904,0.929775,6.970000,0.500000,10.000000,1.000000,227.322055,0.770000,55.986719,0.890495,200.000000,7.554507,7.025460,2.000000,9
map,fitness,fitness value,team0ratio,time,HP,Speed,Damage,Acc,ClipSize,RateOfFire,NrBullets,Range,HP,Speed,Damage,Acc,ClipSize,RateOfFire,NrBullets,Range,HP,Speed,Damage,Acc,ClipSize,RateOfFire,NrBullets,Range,HP,Speed,Damage,Acc,ClipSize,RateOfFire,NrBullets,Range,Run,target team0ratio: 0.5,target time: 0.36
/home/daniel/Projects/ppsEvolution/data/maps/custom_maps/Custom_6_Run_0_Map.csv,squared_error,0.007988497866798523,0.4659,0.4817,0.070139,1.000000,0.000000,1.000000,0.000000,0.000000,0.469959,2.000000,1.000000,0.219013,1.000000,0.905299,1.000000,1.000000,1.000000,2.000000,137.274297,1.330000,9.000000,1.000000,1.000000,0.500000,5.229633,2.000000,300.000000,0.892647,150.000000,0.905299,200.000000,10.000000,10.000000,2.000000,0
/home/daniel/Projects/ppsEvolution/data/maps/custom_maps/Custom_6_Run_0_Map.csv,squared_error,0.008010520343662788,0.4685,0.4826,0.000000,1.000000,0.000000,1.000000,0.000000,0.000000,0.912951,2.000000,1.000000,0.503539,1.000000,0.893607,1.000000,1.000000,1.000000,2.000000,125.000000,1.330000,9.000000,1.000000,1.000000,0.500000,9.216561,2.000000,300.000000,1.051982,150.000000,0.893607,200.000000,10.000000,10.000000,2.000000,1
/home/daniel/Projects/ppsEvolution/data/maps/custom_maps/Custom_6_Run_0_Map.csv,squared_error,0.007962886105524907,0.4670,0.4818,0.151638,1.000000,0.000000,1.000000,0.000000,0.000000,0.333497,2.000000,1.000000,0.522176,1.000000,0.914982,1.000000,1.000000,1.000000,2.000000,151.536667,1.330000,9.000000,1.000000,1.000000,0.500000,4.001475,2.000000,300.000000,1.062418,150.000000,0.914982,200.000000,10.000000,10.000000,2.000000,2
/home/daniel/Projects/ppsEvolution/data/maps/custom_maps/Custom_6_Run_0_Map.csv,squared_error,0.007992514289784897,0.4675,0.4822,0.120195,1.000000,0.000000,1.000000,0.000000,0.000000,0.504806,2.000000,1.000000,0.052003,1.000000,0.909054,1.000000,1.000000,0.998850,2.000000,146.034078,1.330000,9.000000,1.000000,1.000000,0.500000,5.543253,2.000000,300.000000,0.799122,150.000000,0.909054,200.000000,10.000000,9.989652,2.000000,3
/home/daniel/Projects/ppsEvolution/data/maps/custom_maps/Custom_6_Run_0_Map.csv,squared_error,0.008000113830937568,0.4683,0.4825,0.044208,1.000000,0.000000,1.000000,0.000000,0.000000,0.646531,2.000000,1.000000,0.306061,1.000000,0.899571,1.000000,1.000000,1.000000,2.000000,132.736479,1.330000,9.000000,1.000000,1.000000,0.500000,6.818783,2.000000,300.000000,0.941394,150.000000,0.899571,200.000000,10.000000,10.000000,2.000000,4
/home/daniel/Projects/ppsEvolution/data/maps/custom_maps/Custom_6_Run_0_Map.csv,squared_error,0.007968344241322194,0.4679,0.4821,0.138983,1.000000,0.000000,1.000000,0.000000,0.000000,0.274506,2.000000,1.000000,0.444140,1.000000,0.912780,1.000000,1.000000,1.000000,2.000000,149.321972,1.330000,9.000000,1.000000,1.000000,0.500000,3.470555,2.000000,300.000000,1.018718,150.000000,0.912780,200.000000,10.000000,10.000000,2.000000,5
/home/daniel/Projects/ppsEvolution/data/maps/custom_maps/Custom_6_Run_0_Map.csv,squared_error,0.00797008673058652,0.4652,0.4814,0.108883,1.000000,0.000000,1.000000,0.000000,0.000000,0.198515,2.000000,1.000000,0.337929,1.000000,0.911814,1.000000,1.000000,1.000000,2.000000,144.054584,1.330000,9.000000,1.000000,1.000000,0.500000,2.786635,2.000000,300.000000,0.959240,150.000000,0.911814,200.000000,10.000000,10.000000,2.000000,6
/home/daniel/Projects/ppsEvolution/data/maps/custom_maps/Custom_6_Run_0_Map.csv,squared_error,0.007983870725079355,0.4660,0.4817,0.076763,1.000000,0.000000,1.000000,0.000000,0.000000,0.518860,2.000000,1.000000,0.377034,1.000000,0.906130,1.000000,1.000000,1.000000,2.000000,138.433445,1.330000,9.000000,1.000000,1.000000,0.500000,5.669742,2.000000,300.000000,0.981139,150.000000,0.906130,200.000000,10.000000,10.000000,2.000000,7
/home/daniel/Projects/ppsEvolution/data/maps/custom_maps/Custom_6_Run_0_Map.csv,squared_error,0.008006588994600869,0.4670,0.4822,0.000000,1.000000,0.000000,1.000000,0.000000,0.000000,0.820211,2.000000,1.000000,0.527335,1.000000,0.895368,0.997179,1.000000,1.000000,2.000000,125.000000,1.330000,9.000000,1.000000,1.000000,0.500000,8.381901,2.000000,300.000000,1.065307,150.000000,0.895368,199.438547,10.000000,10.000000,2.000000,8
/home/daniel/Projects/ppsEvolution/data/maps/custom_maps/Custom_6_Run_0_Map.csv,squared_error,0.007958448992915413,0.4638,0.4809,0.118625,1.000000,0.000000,1.000000,0.000000,0.000000,0.331901,2.000000,1.000000,0.656485,1.000000,0.914488,1.000000,1.000000,1.000000,2.000000,145.759395,1.330000,9.000000,1.000000,1.000000,0.500000,3.987107,2.000000,300.000000,1.137631,150.000000,0.914488,200.000000,10.000000,10.000000,2.000000,9
map,fitness,fitness value,team0ratio,time,HP,Speed,Damage,Acc,ClipSize,RateOfFire,NrBullets,Range,HP,Speed,Damage,Acc,ClipSize,RateOfFire,NrBullets,Range,HP,Speed,Damage,Acc,ClipSize,RateOfFire,NrBullets,Range,HP,Speed,Damage,Acc,ClipSize,RateOfFire,NrBullets,Range,Run,target team0ratio: 0.5,target time: 0.36
/home/daniel/Projects/ppsEvolution/data/maps/custom_maps/Custom_7_Run_0_Map.csv,squared_error,4.3091690014948017e-07,0.5005,0.3608,0.006298,0.850747,0.390511,0.953778,0.040078,0.279886,0.875776,1.000000,0.814478,0.234844,0.387998,0.910476,1.000000,0.983164,0.345625,2.000000,126.102219,1.246418,64.062112,0.953778,8.975570,3.158921,8.881987,1.000000,267.533565,0.901513,63.707772,0.910476,200.000000,9.840061,4.110626,2.000000,0
/home/daniel/Projects/ppsEvolution/data/maps/custom_maps/Custom_7_Run_0_Map.csv,squared_error,1.6200861676864747e-06,0.4995,0.3617,0.000000,1.000000,0.219293,0.933532,0.063202,0.000000,1.000000,2.000000,0.771548,0.000000,0.669955,0.814598,0.997534,1.000000,0.987905,2.000000,125.000000,1.330000,39.920328,0.933532,13.577145,0.500000,10.000000,2.000000,260.020848,0.770000,103.463709,0.814598,199.509355,10.000000,9.891146,2.000000,1
/home/daniel/Projects/ppsEvolution/data/maps/custom_maps/Custom_7_Run_0_Map.csv,squared_error,4.0550160075554365e-07,0.5009,0.3601,0.010627,0.727875,0.305824,0.949904,0.000000,0.080263,0.844895,1.000000,1.000000,0.000000,1.000000,0.787329,1.000000,1.000000,0.722326,2.000000,126.859716,1.177610,52.121229,0.949904,1.000000,1.262495,8.604052,1.000000,300.000000,0.770000,150.000000,0.787329,200.000000,10.000000,7.500933,2.000000,2
/home/daniel/Projects/ppsEvolution/data/maps/custom_maps/Custom_7_Run_0_Map.csv,squared_error,2.0382762205663827e-06,0.4990,0.3617,0.000000,0.915820,0.911880,0.875148,0.119075,0.002886,1.000000,2.000000,0.546500,0.100436,0.827003,0.870862,0.834303,0.940778,1.000000,2.000000,125.000000,1.282859,137.575119,0.875148,24.695856,0.527414,10.000000,2.000000,220.637575,0.826244,125.607418,0.870862,167.026251,9.437389,10.000000,2.000000,3
/home/daniel/Projects/ppsEvolution/data/maps/custom_maps/Custom_7_Run_0_Map.csv,squared_error,2.766733717432165e-06,0.4981,0.3614,0.005816,1.000000,0.373320,0.933683,0.000000,0.241386,1.000000,2.000000,0.774257,0.101646,0.282138,0.906623,1.000000,1.000000,0.853916,2.000000,126.017741,1.330000,61.638177,0.933683,1.000000,2.793162,10.000000,2.000000,260.495026,0.826922,48.781509,0.906623,200.000000,10.000000,8.685246,2.000000,4
/home/daniel/Projects/ppsEvolution/data/maps/custom_maps/Custom_7_Run_0_Map.csv,squared_error,9.006030416493486e-07,0.4991,0.3590,0.000000,1.000000,0.484944,0.944623,0.012005,0.018037,1.000000,2.000000,0.940420,0.067286,0.228520,0.933379,0.811359,1.000000,1.000000,1.000000,125.000000,1.330000,77.377126,0.944623,3.388963,0.671355,10.000000,2.000000,289.573507,0.807680,41.221368,0.933379,162.460497,10.000000,10.000000,1.000000,5
/home/daniel/Projects/ppsEvolution/data/maps/custom_maps/Custom_7_Run_0_Map.csv,squared_error,5.14252614020738e-06,0.4996,0.3632,0.000000,0.769211,0.377557,0.917367,0.000000,0.246405,0.988089,2.000000,0.745745,0.031377,0.988492,0.774438,0.951511,0.949234,1.000000,2.000000,125.000000,1.200758,62.235534,0.917367,1.000000,2.840852,9.892805,2.000000,255.505372,0.787571,148.377399,0.774438,190.350776,9.517726,10.000000,2.000000,6
/home/daniel/Projects/ppsEvolution/data/maps/custom_maps/Custom_7_Run_0_Map.csv,squared_error,3.43192737353343e-07,0.5007,0.3596,0.114416,0.885288,0.190275,1.000000,0.209883,0.030000,1.000000,1.000000,1.000000,0.034739,0.286785,0.954488,0.748211,0.890201,0.092923,0.000000,145.022809,1.265761,35.828726,1.000000,42.766686,0.785000,10.000000,1.000000,300.000000,0.789454,49.436664,0.954488,149.894016,8.956912,1.836309,0.000000,7
/home/daniel/Projects/ppsEvolution/data/maps/custom_maps/Custom_7_Run_0_Map.csv,squared_error,3.266091704613256e-05,0.5009,0.3680,0.000000,0.816303,0.629505,0.861209,0.000000,0.000000,1.000000,2.000000,0.148059,0.032063,0.490441,0.885158,1.000000,1.000000,1.000000,2.000000,125.000000,1.227130,97.760178,0.861209,1.000000,0.500000,10.000000,2.000000,150.910278,0.787956,78.152187,0.885158,200.000000,10.000000,10.000000,2.000000,8
/home/daniel/Projects/ppsEvolution/data/maps/custom_maps/Custom_7_Run_0_Map.csv,squared_error,2.8605385958964392e-05,0.4996,0.3676,0.000000,0.961348,0.536511,0.890963,0.000000,0.000000,1.000000,2.000000,0.640031,0.000000,1.000000,0.776200,1.000000,1.000000,1.000000,2.000000,125.000000,1.308355,84.648085,0.890963,1.000000,0.500000,10.000000,2.000000,237.005486,0.770000,150.000000,0.776200,200.000000,10.000000,10.000000,2.000000,9
map,fitness,fitness value,team0ratio,time,HP,Speed,Damage,Acc,ClipSize,RateOfFire,NrBullets,Range,HP,Speed,Damage,Acc,ClipSize,RateOfFire,NrBullets,Range,HP,Speed,Damage,Acc,ClipSize,RateOfFire,NrBullets,Range,HP,Speed,Damage,Acc,ClipSize,RateOfFire,NrBullets,Range,Run,target team0ratio: 0.5,target time: 0.36
/home/daniel/Projects/ppsEvolution/data/maps/custom_maps/Custom_8_Run_0_Map.csv,squared_error,1.7652409951124898e-07,0.4996,0.3596,0.000000,1.000000,0.236694,0.800000,0.030000,0.030000,1.000000,1.000000,0.909986,0.000000,0.000000,0.740675,0.985612,1.000000,0.000000,0.000000,125.000000,1.330000,42.373835,0.800000,6.970000,0.785000,10.000000,1.000000,284.247522,0.770000,9.000000,0.740675,197.136823,10.000000,1.000000,0.000000,0
/home/daniel/Projects/ppsEvolution/data/maps/custom_maps/Custom_8_Run_0_Map.csv,squared_error,5.0798385298664e-07,0.5000,0.3610,0.000000,1.000000,0.210000,0.815722,0.030000,0.030000,0.842233,1.000000,1.000000,0.000000,0.202318,0.645798,0.770966,0.951821,0.000000,2.000000,125.000000,1.330000,38.610000,0.815722,6.970000,0.785000,8.580096,1.000000,300.000000,0.770000,37.526830,0.645798,154.422277,9.542301,1.000000,2.000000,1
/home/daniel/Projects/ppsEvolution/data/maps/custom_maps/Custom_8_Run_0_Map.csv,squared_error,8.757137531525132e-07,0.4997,0.3613,0.092765,1.000000,0.202157,0.800000,0.030000,0.215247,1.000000,2.000000,1.000000,0.000000,0.000000,0.728914,0.896669,1.000000,0.000000,2.000000,141.233882,1.330000,37.504092,0.800000,6.970000,2.544842,10.000000,2.000000,300.000000,0.770000,9.000000,0.728914,179.437185,10.000000,1.000000,2.000000,2
/home/daniel/Projects/ppsEvolution/data/maps/custom_maps/Custom_8_Run_0_Map.csv,squared_error,2.3412341773294395e-07,0.5007,0.3599,0.000000,1.000000,0.226863,0.800000,0.000000,0.030000,1.000000,2.000000,1.000000,0.000000,0.188010,0.648552,0.834897,1.000000,0.000000,0.000000,125.000000,1.330000,40.987739,0.800000,1.000000,0.785000,10.000000,2.000000,300.000000,0.770000,35.509432,0.648552,167.144415,10.000000,1.000000,0.000000,3
/home/daniel/Projects/ppsEvolution/data/maps/custom_maps/Custom_8_Run_0_Map.csv,squared_error,7.677487331677002e-08,0.4999,0.3604,0.000000,1.000000,0.210000,0.800000,0.117868,0.023676,1.000000,2.000000,1.000000,0.000000,0.267936,0.600000,0.889213,0.952337,0.028035,1.000000,125.000000,1.330000,38.610000,0.800000,24.455767,0.724921,10.000000,2.000000,300.000000,0.770000,46.778952,0.600000,177.953356,9.547199,1.252319,1.000000,4
/home/daniel/Projects/ppsEvolution/data/maps/custom_maps/Custom_8_Run_0_Map.csv,squared_error,4.1204053228512717e-07,0.5006,0.3607,0.000000,1.000000,0.238547,0.800000,0.003455,0.030000,0.922583,2.000000,1.000000,0.000000,0.121128,0.679705,1.000000,1.000000,0.000000,0.000000,125.000000,1.330000,42.635119,0.800000,1.687619,0.785000,9.303246,2.000000,300.000000,0.770000,26.079078,0.679705,200.000000,10.000000,1.000000,0.000000,5
/home/daniel/Projects/ppsEvolution/data/maps/custom_maps/Custom_8_Run_0_Map.csv,squared_error,6.74514986189948e-07,0.4996,0.3611,0.000000,1.000000,0.210000,0.800000,0.030000,0.159463,0.908095,2.000000,1.000000,0.000000,0.000000,0.710271,1.000000,1.000000,0.110104,2.000000,125.000000,1.330000,38.610000,0.800000,6.970000,2.014898,9.172857,2.000000,300.000000,0.770000,9.000000,0.710271,200.000000,10.000000,1.990935,2.000000,6
/home/daniel/Projects/ppsEvolution/data/maps/custom_maps/Custom_8_Run_0_Map.csv,squared_error,2.7239713733989846e-07,0.4999,0.3593,0.000000,1.000000,0.210000,0.800000,0.039628,0.000000,1.000000,2.000000,0.959119,0.000000,0.053509,0.703354,0.936057,0.913095,0.095866,0.000000,125.000000,1.330000,38.610000,0.800000,8.885948,0.500000,10.000000,2.000000,292.845820,0.770000,16.544710,0.703354,187.275415,9.174403,1.862791,0.000000,7
/home/daniel/Projects/ppsEvolution/data/maps/custom_maps/Custom_8_Run_0_Map.csv,squared_error,2.400361695677509e-07,0.4997,0.3594,0.017092,1.000000,0.210000,0.800000,0.012251,0.078403,1.000000,2.000000,1.000000,0.059325,0.050766,0.696807,1.000000,0.804681,0.000000,2.000000,127.991106,1.330000,38.610000,0.800000,3.437925,1.244829,10.000000,2.000000,300.000000,0.803222,16.157944,0.696807,200.000000,8.144471,1.000000,2.000000,8
/home/daniel/Projects/ppsEvolution/data/maps/custom_maps/Custom_8_Run_0_Map.csv,squared_error,6.255566257131454e-07,0.5001,0.3611,0.000000,1.000000,0.210000,0.800000,0.214521,0.001849,1.000000,1.000000,0.897370,0.000000,0.000000,0.730895,1.000000,1.000000,0.000000,1.000000,125.000000,1.330000,38.610000,0.800000,43.689721,0.517566,10.000000,1.000000,282.039723,0.770000,9.000000,0.730895,200.000000,10.000000,1.000000,1.000000,9
map,fitness,fitness value,team0ratio,time,HP,Speed,Damage,Acc,ClipSize,RateOfFire,NrBullets,Range,HP,Speed,Damage,Acc,ClipSize,RateOfFire,NrBullets,Range,HP,Speed,Damage,Acc,ClipSize,RateOfFire,NrBullets,Range,HP,Speed,Damage,Acc,ClipSize,RateOfFire,NrBullets,Range,Run,target team0ratio: 0.5,target time: 0.36
/home/daniel/Projects/ppsEvolution/data/maps/custom_maps/Custom_9_Run_0_Map.csv,squared_error,3.0216518549081146e-07,0.4998,0.3593,0.000000,1.000000,0.281170,0.703093,0.030000,0.046139,1.000000,0.000000,1.000000,0.000000,0.108642,0.600000,1.000000,1.000000,0.000000,1.000000,125.000000,1.330000,48.644967,0.703093,6.970000,0.938322,10.000000,0.000000,300.000000,0.770000,24.318454,0.600000,200.000000,10.000000,1.000000,1.000000,0
/home/daniel/Projects/ppsEvolution/data/maps/custom_maps/Custom_9_Run_0_Map.csv,squared_error,9.103318750682367e-07,0.4987,0.3599,0.000000,1.000000,0.005387,0.804548,0.028721,0.030000,1.000000,0.000000,0.938232,0.039202,0.138221,0.600000,1.000000,1.000000,0.000000,2.000000,125.000000,1.330000,9.759500,0.804548,6.715394,0.785000,10.000000,0.000000,289.190661,0.791953,28.489135,0.600000,200.000000,10.000000,1.000000,2.000000,1
/home/daniel/Projects/ppsEvolution/data/maps/custom_maps/Custom_9_Run_0_Map.csv,squared_error,7.106199501151803e-07,0.4989,0.3594,0.000000,1.000000,0.119284,0.756607,0.000000,0.030000,1.000000,1.000000,1.000000,0.000000,0.079150,0.600000,1.000000,1.000000,0.086240,2.000000,125.000000,1.330000,25.819038,0.756607,1.000000,0.785000,10.000000,1.000000,300.000000,0.770000,20.160095,0.600000,200.000000,10.000000,1.776156,2.000000,2
/home/daniel/Projects/ppsEvolution/data/maps/custom_maps/Custom_9_Run_0_Map.csv,squared_error,8.206886393004825e-07,0.5009,0.3609,0.000000,1.000000,0.210000,0.719331,0.030000,0.030000,1.000000,0.000000,0.919556,0.000000,0.096735,0.600000,1.000000,1.000000,0.159772,0.000000,125.000000,1.330000,38.610000,0.719331,6.970000,0.785000,10.000000,0.000000,285.922220,0.770000,22.639680,0.600000,200.000000,10.000000,2.437950,0.000000,3
/home/daniel/Projects/ppsEvolution/data/maps/custom_maps/Custom_9_Run_0_Map.csv,squared_error,5.9096689404468125e-08,0.4997,0.3599,0.000000,0.930410,0.185908,0.722937,0.030000,0.000000,0.949841,2.000000,1.000000,0.126271,0.074183,0.600000,1.000000,1.000000,0.000000,1.000000,125.000000,1.291029,35.212960,0.722937,6.970000,0.500000,9.548570,2.000000,300.000000,0.840712,19.459783,0.600000,200.000000,10.000000,1.000000,1.000000,4
/home/daniel/Projects/ppsEvolution/data/maps/custom_maps/Custom_9_Run_0_Map.csv,squared_error,7.600331007353272e-07,0.5007,0.3610,0.000000,0.897761,0.062724,0.800000,0.030000,0.035083,1.000000,0.000000,1.000000,0.000000,0.128263,0.611175,1.000000,1.000000,0.000000,0.000000,125.000000,1.272746,17.844148,0.800000,6.970000,0.833289,10.000000,0.000000,300.000000,0.770000,27.085142,0.611175,200.000000,10.000000,1.000000,0.000000,5
/home/daniel/Projects/ppsEvolution/data/maps/custom_maps/Custom_9_Run_0_Map.csv,squared_error,1.073521572574539e-06,0.4995,0.3614,0.000000,1.000000,0.210000,0.714981,0.030000,0.070097,1.000000,1.000000,1.000000,0.000000,0.067841,0.600000,0.863259,1.000000,0.016680,2.000000,125.000000,1.330000,38.610000,0.714981,6.970000,1.165925,10.000000,1.000000,300.000000,0.770000,18.565603,0.600000,172.788567,10.000000,1.150122,2.000000,6
/home/daniel/Projects/ppsEvolution/data/maps/custom_maps/Custom_9_Run_0_Map.csv,squared_error,3.0239553991081466e-07,0.5002,0.3607,0.000000,1.000000,0.210000,0.733683,0.000000,0.030000,1.000000,0.000000,1.000000,0.062451,0.106438,0.600000,1.000000,0.938979,0.000000,1.000000,125.000000,1.330000,38.610000,0.733683,1.000000,0.785000,10.000000,0.000000,300.000000,0.804973,24.007780,0.600000,200.000000,9.420304,1.000000,1.000000,7
/home/daniel/Projects/ppsEvolution/data/maps/custom_maps/Custom_9_Run_0_Map.csv,squared_error,9.293392563521323e-08,0.4998,0.3604,0.000000,0.955692,0.241037,0.711714,0.000000,0.000000,0.852435,1.000000,1.000000,0.000000,0.084271,0.600000,0.982887,1.000000,0.000000,2.000000,125.000000,1.305188,42.986178,0.711714,1.000000,0.500000,8.671915,1.000000,300.000000,0.770000,20.882248,0.600000,196.594472,10.000000,1.000000,2.000000,8
/home/daniel/Projects/ppsEvolution/data/maps/custom_maps/Custom_9_Run_0_Map.csv,squared_error,3.88200885299741e-07,0.5009,0.3602,0.000000,1.000000,0.210000,0.715673,0.083929,0.030000,1.000000,1.000000,0.970802,0.000000,0.075760,0.592692,0.977570,0.945320,0.260221,0.000000,125.000000,1.330000,38.610000,0.715673,17.701887,0.785000,10.000000,1.000000,294.890271,0.770000,19.682102,0.592692,195.536470,9.480541,3.341988,0.000000,9
map,fitness,fitness value,team0ratio,time,HP,Speed,Damage,Acc,ClipSize,RateOfFire,NrBullets,Range,HP,Speed,Damage,Acc,ClipSize,RateOfFire,NrBullets,Range,HP,Speed,Damage,Acc,ClipSize,RateOfFire,NrBullets,Range,HP,Speed,Damage,Acc,ClipSize,RateOfFire,NrBullets,Range,Run,target team0ratio: 0.5,target time: 0.36
/home/daniel/Projects/ppsEvolution/data/maps/custom_maps/Custom_10_Run_0_Map.csv,squared_error,2.133198237554561e-05,0.5003,0.3665,0.000000,1.000000,0.468506,1.000000,0.000000,0.539896,1.000000,2.000000,0.379685,0.000000,0.457706,1.000000,1.000000,0.883729,1.000000,2.000000,125.000000,1.330000,75.059343,1.000000,1.000000,5.629016,10.000000,2.000000,191.444816,0.770000,73.536536,1.000000,200.000000,8.895427,10.000000,2.000000,0
/home/daniel/Projects/ppsEvolution/data/maps/custom_maps/Custom_10_Run_0_Map.csv,squared_error,2.280122508712816e-05,0.5023,0.3664,0.000000,0.960676,0.709223,1.000000,0.000000,0.655497,1.000000,2.000000,0.750188,0.000000,0.376878,1.000000,1.000000,0.445099,0.989029,2.000000,125.000000,1.307978,109.000378,1.000000,1.000000,6.727218,10.000000,2.000000,256.282900,0.770000,62.139744,1.000000,200.000000,4.728444,9.901263,2.000000,1
/home/daniel/Projects/ppsEvolution/data/maps/custom_maps/Custom_10_Run_0_Map.csv,squared_error,0.0002675694384610732,0.5022,0.3830,0.000000,0.954214,1.000000,0.814044,0.000000,0.448823,0.995927,2.000000,0.000000,0.000000,1.000000,0.821174,0.958083,0.324896,1.000000,2.000000,125.000000,1.304360,150.000000,0.814044,1.000000,4.763816,9.963345,2.000000,125.000000,0.770000,150.000000,0.821174,191.658598,3.586511,10.000000,2.000000,2
/home/daniel/Projects/ppsEvolution/data/maps/custom_maps/Custom_10_Run_0_Map.csv,squared_error,5.5245141129680917e-05,0.4991,0.3705,0.000000,1.000000,0.828482,0.895462,0.000000,0.373718,0.976064,2.000000,0.000000,0.330491,1.000000,0.890417,1.000000,0.355511,1.000000,2.000000,125.000000,1.330000,125.815950,0.895462,1.000000,4.050317,9.784577,2.000000,125.000000,0.955075,150.000000,0.890417,200.000000,3.877357,10.000000,2.000000,3
/home/daniel/Projects/ppsEvolution/data/maps/custom_maps/Custom_10_Run_0_Map.csv,squared_error,8.120857440349329e-05,0.5014,0.3727,0.000000,1.000000,1.000000,0.857363,0.000000,0.157362,1.000000,2.000000,0.000000,0.548735,1.000000,0.868039,1.000000,0.035082,1.000000,2.000000,125.000000,1.330000,150.000000,0.857363,1.000000,1.994937,10.000000,2.000000,125.000000,1.077292,150.000000,0.868039,200.000000,0.833278,10.000000,2.000000,4
/home/daniel/Projects/ppsEvolution/data/maps/custom_maps/Custom_10_Run_0_Map.csv,squared_error,3.8436908154040216e-06,0.5012,0.3625,0.076147,1.000000,1.000000,0.969816,0.000000,0.584924,1.000000,2.000000,0.741626,0.000000,0.343310,1.000000,0.851810,0.647565,1.000000,2.000000,138.325695,1.330000,150.000000,0.969816,1.000000,6.056778,10.000000,2.000000,254.784604,0.770000,57.406728,1.000000,170.510283,6.651864,10.000000,2.000000,5
/home/daniel/Projects/ppsEvolution/data/maps/custom_maps/Custom_10_Run_0_Map.csv,squared_error,2.859648416558197e-05,0.5000,0.3676,0.000000,0.971710,0.633501,1.000000,0.000000,0.361217,1.000000,2.000000,0.657461,0.154867,0.780251,0.977562,0.986378,0.848644,1.000000,2.000000,125.000000,1.314157,98.323610,1.000000,1.000000,3.931565,10.000000,2.000000,240.055711,0.856726,119.015375,0.977562,197.289277,8.562122,10.000000,2.000000,6
/home/daniel/Projects/ppsEvolution/data/maps/custom_maps/Custom_10_Run_0_Map.csv,squared_error,1.992621818078824e-05,0.5032,0.3654,0.000000,0.779441,0.728524,0.994720,0.000000,0.000000,0.996379,2.000000,0.591300,0.072523,0.467900,1.000000,0.787873,0.614090,0.721958,2.000000,125.000000,1.206487,111.721941,0.994720,1.000000,0.500000,9.967407,2.000000,228.477584,0.810613,74.973869,1.000000,157.786810,6.333854,7.497623,2.000000,7
/home/daniel/Projects/ppsEvolution/data/maps/custom_maps/Custom_10_Run_0_Map.csv,squared_error,4.1666635996651384e-05,0.5044,0.3680,0.000000,0.980176,0.623338,1.000000,0.000000,0.208142,1.000000,2.000000,0.683143,0.058936,0.374160,1.000000,1.000000,0.677117,1.000000,2.000000,125.000000,1.318899,96.890714,1.000000,1.000000,2.477352,10.000000,2.000000,244.550078,0.803004,61.756553,1.000000,200.000000,6.932611,10.000000,2.000000,8
/home/daniel/Projects/ppsEvolution/data/maps/custom_maps/Custom_10_Run_0_Map.csv,squared_error,4.4952680683141585e-05,0.4977,0.3692,0.000000,1.000000,0.728461,0.965711,0.081509,0.119387,1.000000,2.000000,0.537573,0.000000,0.210222,1.000000,0.940275,0.761829,0.988162,2.000000,125.000000,1.330000,111.713030,0.965711,17.220214,1.634174,10.000000,2.000000,219.075242,0.770000,38.641360,1.000000,188.114690,7.737371,9.893456,2.000000,9
