map,fitness,fitness value,team0ratio,time,HP,Speed,Damage,Acc,ClipSize,RateOfFire,NrBullets,Range,HP,Speed,Damage,Acc,ClipSize,RateOfFire,NrBullets,Range,HP,Speed,Damage,Acc,ClipSize,RateOfFire,NrBullets,Range,HP,Speed,Damage,Acc,ClipSize,RateOfFire,NrBullets,Range,Run,target team0ratio: 0.5,target time: 0.72
/home/daniel/Projects/ppsEvolution/data/maps/custom_maps/Custom_1_Run_0_Map.csv,squared_error,2.787505263597566e-07,0.5005,0.7194,0.938922,0.830073,0.000000,0.000000,0.370810,0.252779,0.572108,2.000000,0.984674,0.121752,0.034903,0.000000,1.000000,0.546619,0.222801,1.000000,289.311359,1.234841,9.000000,0.000000,74.791134,2.901399,6.148968,2.000000,297.317976,0.838181,13.921253,0.000000,200.000000,5.692876,3.005210,1.000000,0
/home/daniel/Projects/ppsEvolution/data/maps/custom_maps/Custom_1_Run_0_Map.csv,squared_error,9.666152145378019e-07,0.4989,0.7191,0.957675,0.238639,0.000000,0.000000,0.000000,0.359555,0.504088,1.000000,0.975085,0.480600,0.055971,0.000000,0.737953,0.974918,0.027054,2.000000,292.593109,0.903638,9.000000,0.000000,1.000000,3.915769,5.536790,1.000000,295.639832,1.039136,16.891975,0.000000,147.852646,9.761721,1.243482,2.000000,1
/home/daniel/Projects/ppsEvolution/data/maps/custom_maps/Custom_1_Run_0_Map.csv,squared_error,3.6481296592513168e-06,0.5013,0.7224,0.868828,0.906361,0.000000,0.000000,0.222792,0.174226,0.768255,1.000000,1.000000,0.559772,0.008172,0.000000,1.000000,0.901341,0.127121,2.000000,277.044917,1.277562,9.000000,0.000000,45.335544,2.155146,7.914298,1.000000,300.000000,1.083472,10.152292,0.000000,200.000000,9.062736,2.144086,2.000000,2
/home/daniel/Projects/ppsEvolution/data/maps/custom_maps/Custom_1_Run_0_Map.csv,squared_error,1.5360187260967436e-06,0.5006,0.7217,0.791807,0.924857,0.000000,0.000000,0.052205,0.378156,0.736971,0.000000,1.000000,0.027894,0.000000,0.000000,1.000000,0.506413,0.000000,2.000000,263.566179,1.287920,9.000000,0.000000,11.388748,4.092482,7.632735,0.000000,300.000000,0.785620,9.000000,0.000000,200.000000,5.310924,1.000000,2.000000,3
/home/daniel/Projects/ppsEvolution/data/maps/custom_maps/Custom_1_Run_0_Map.csv,squared_error,5.1586689747303924e-08,0.5001,0.7203,0.839918,1.000000,0.014789,0.000000,0.000000,0.504738,0.437902,1.000000,1.000000,0.077190,0.000000,0.000000,0.566050,0.983320,0.157154,0.000000,271.985672,1.330000,11.085192,0.000000,1.000000,5.295016,4.941118,1.000000,300.000000,0.813226,9.000000,0.000000,113.644048,9.841541,2.414382,0.000000,4
/home/daniel/Projects/ppsEvolution/data/maps/custom_maps/Custom_1_Run_0_Map.csv,squared_error,5.603416916073641e-07,0.5003,0.7190,0.890575,0.737733,0.000000,0.001500,0.126333,0.308635,0.663410,1.000000,1.000000,0.000000,0.009017,0.000000,0.729139,0.915136,0.300536,0.000000,280.850656,1.183131,9.000000,0.001500,26.140222,3.432029,6.970690,1.000000,300.000000,0.770000,10.271332,0.000000,146.098703,9.193788,3.704825,0.000000,5
/home/daniel/Projects/ppsEvolution/data/maps/custom_maps/Custom_1_Run_0_Map.csv,squared_error,2.8375836519670307e-07,0.5005,0.7194,0.816962,0.505391,0.000000,0.000000,0.000000,0.000000,0.776934,1.000000,1.000000,0.304065,0.000000,0.000000,0.893835,0.775721,0.100174,0.000000,267.968278,1.053019,9.000000,0.000000,1.000000,0.500000,7.992406,1.000000,300.000000,0.940276,9.000000,0.000000,178.873252,7.869351,1.901568,0.000000,6
/home/daniel/Projects/ppsEvolution/data/maps/custom_maps/Custom_1_Run_0_Map.csv,squared_error,8.915970347629459e-07,0.4998,0.7187,0.848125,0.748873,0.000000,0.000000,0.253626,0.000000,0.737428,1.000000,1.000000,0.004539,0.000000,0.041374,1.000000,1.000000,0.000000,1.000000,273.421936,1.189369,9.000000,0.000000,51.471649,0.500000,7.636855,1.000000,300.000000,0.772542,9.000000,0.041374,200.000000,10.000000,1.000000,1.000000,7
/home/daniel/Projects/ppsEvolution/data/maps/custom_maps/Custom_1_Run_0_Map.csv,squared_error,2.0895300780494825e-06,0.5018,0.7191,0.935125,0.765769,0.000000,0.000000,0.041899,0.250645,0.755207,0.000000,0.995679,0.109497,0.058211,0.000000,0.992155,0.839444,0.053148,1.000000,288.646831,1.198831,9.000000,0.000000,9.337976,2.881131,7.796865,0.000000,299.243754,0.831319,17.207801,0.000000,198.438815,8.474714,1.478336,1.000000,8
/home/daniel/Projects/ppsEvolution/data/maps/custom_maps/Custom_1_Run_0_Map.csv,squared_error,9.890847193786973e-08,0.4996,0.7198,0.850532,0.760763,0.000000,0.000000,0.000000,0.000000,0.690721,2.000000,1.000000,0.267961,0.000000,0.034837,0.942386,0.829198,0.000000,0.000000,273.843051,1.196027,9.000000,0.000000,1.000000,0.500000,7.216485,2.000000,300.000000,0.920058,9.000000,0.034837,188.534827,8.377385,1.000000,0.000000,9
map,fitness,fitness value,team0ratio,time,HP,Speed,Damage,Acc,ClipSize,RateOfFire,NrBullets,Range,HP,Speed,Damage,Acc,ClipSize,RateOfFire,NrBullets,Range,HP,Speed,Damage,Acc,ClipSize,RateOfFire,NrBullets,Range,HP,Speed,Damage,Acc,ClipSize,RateOfFire,NrBullets,Range,Run,target team0ratio: 0.5,target time: 0.72
/home/daniel/Projects/ppsEvolution/data/maps/custom_maps/Custom_2_Run_0_Map.csv,squared_error,6.245511595189454e-07,0.4999,0.7211,0.297179,0.975783,0.053533,0.500019,0.000000,0.074993,0.924150,0.000000,0.972784,0.106272,0.049090,0.235460,1.000000,0.867918,0.000000,1.000000,177.006257,1.316439,16.548108,0.500019,1.000000,1.212435,9.317350,0.000000,295.237236,0.829512,15.921651,0.235460,200.000000,8.745223,1.000000,1.000000,0
/home/daniel/Projects/ppsEvolution/data/maps/custom_maps/Custom_2_Run_0_Map.csv,squared_error,4.3090583814089777e-07,0.4994,0.7193,0.248407,0.719971,0.000000,0.543333,0.533557,0.302256,1.000000,2.000000,1.000000,0.163407,0.000000,0.234650,0.891417,0.786270,0.168016,1.000000,168.471153,1.173184,9.000000,0.543333,107.177940,3.371431,10.000000,2.000000,300.000000,0.861508,9.000000,0.234650,178.391936,7.969562,2.512142,1.000000,1
/home/daniel/Projects/ppsEvolution/data/maps/custom_maps/Custom_2_Run_0_Map.csv,squared_error,3.4974982395399534e-08,0.5002,0.7201,0.360750,0.914151,0.000000,0.532420,0.224284,0.240524,0.991314,1.000000,0.984007,0.226197,0.092825,0.170902,0.473134,0.678281,0.293621,0.000000,188.131336,1.281925,9.000000,0.532420,45.632484,2.784982,9.921824,1.000000,297.201282,0.896670,22.088273,0.170902,95.153659,6.943665,3.642586,0.000000,2
/home/daniel/Projects/ppsEvolution/data/maps/custom_maps/Custom_2_Run_0_Map.csv,squared_error,3.9263547526216405e-07,0.5006,0.7193,0.187132,0.904745,0.000000,0.570092,0.281706,0.000000,1.000000,0.000000,1.000000,0.425775,0.000000,0.236591,0.685852,0.697089,0.083037,2.000000,157.748099,1.276657,9.000000,0.570092,57.059440,0.500000,10.000000,0.000000,300.000000,1.008434,9.000000,0.236591,137.484589,7.122349,1.747331,2.000000,3
/home/daniel/Projects/ppsEvolution/data/maps/custom_maps/Custom_2_Run_0_Map.csv,squared_error,5.229072711727987e-07,0.5009,0.7195,0.139746,1.000000,0.154842,0.410507,0.547638,0.044466,1.000000,1.000000,1.000000,0.134186,0.000000,0.200581,0.790030,1.000000,0.035514,1.000000,149.455567,1.330000,30.832679,0.410507,109.979928,0.922428,10.000000,1.000000,300.000000,0.845144,9.000000,0.200581,158.215916,10.000000,1.319628,1.000000,4
/home/daniel/Projects/ppsEvolution/data/maps/custom_maps/Custom_2_Run_0_Map.csv,squared_error,6.353920111905363e-08,0.5003,0.7199,0.000000,0.795632,0.302599,0.305194,0.317354,0.099425,0.721280,0.000000,1.000000,0.102272,0.000000,0.129120,0.882579,1.000000,0.124935,1.000000,125.000000,1.215554,51.666466,0.305194,64.153527,1.444537,7.491521,0.000000,300.000000,0.827272,9.000000,0.129120,176.633251,10.000000,2.124413,1.000000,5
/home/daniel/Projects/ppsEvolution/data/maps/custom_maps/Custom_2_Run_0_Map.csv,squared_error,6.479013614864442e-07,0.5011,0.7199,0.264444,0.782236,0.143103,0.385955,0.048961,0.000000,0.809159,1.000000,0.888473,0.005613,0.001538,0.264603,0.838030,0.708323,0.027438,0.000000,171.277640,1.208052,29.177572,0.385955,10.743155,0.500000,8.282431,1.000000,280.482689,0.773143,9.216807,0.264603,167.767976,7.229069,1.246942,0.000000,6
/home/daniel/Projects/ppsEvolution/data/maps/custom_maps/Custom_2_Run_0_Map.csv,squared_error,1.2390400566004893e-06,0.5012,0.7190,0.224325,0.969792,0.000000,0.553838,0.347707,0.191914,0.789770,2.000000,0.941113,0.321188,0.000000,0.180992,1.000000,0.942422,0.608130,0.000000,164.256878,1.313083,9.000000,0.553838,70.193730,2.323179,8.107927,2.000000,289.694724,0.949865,9.000000,0.180992,200.000000,9.453007,6.473167,0.000000,7
/home/daniel/Projects/ppsEvolution/data/maps/custom_maps/Custom_2_Run_0_Map.csv,squared_error,5.1446499594469494e-08,0.5002,0.7197,0.123847,0.791646,0.005814,0.511803,0.246787,0.388250,0.925332,1.000000,0.858779,0.693914,0.017872,0.166646,0.894577,0.962728,0.134093,0.000000,146.673305,1.213322,9.819705,0.511803,50.110590,4.188371,9.327985,1.000000,275.286328,1.158592,11.520011,0.166646,179.020911,9.645913,2.206838,0.000000,8
/home/daniel/Projects/ppsEvolution/data/maps/custom_maps/Custom_2_Run_0_Map.csv,squared_error,2.906527325220111e-06,0.4989,0.7221,0.457827,0.958888,0.000000,0.542979,0.192037,0.258403,0.941921,0.000000,1.000000,0.228424,0.002153,0.345553,0.769379,0.972139,0.000000,2.000000,205.119800,1.306977,9.000000,0.542979,39.215271,2.954831,9.477288,0.000000,300.000000,0.897917,9.303576,0.345553,154.106344,9.735324,1.000000,2.000000,9
map,fitness,fitness value,team0ratio,time,HP,Speed,Damage,Acc,ClipSize,RateOfFire,NrBullets,Range,HP,Speed,Damage,Acc,ClipSize,RateOfFire,NrBullets,Range,HP,Speed,Damage,Acc,ClipSize,RateOfFire,NrBullets,Range,HP,Speed,Damage,Acc,ClipSize,RateOfFire,NrBullets,Range,Run,target team0ratio: 0.5,target time: 0.72
/home/daniel/Projects/ppsEvolution/data/maps/custom_maps/Custom_3_Run_0_Map.csv,squared_error,5.892630755084816e-07,0.4989,0.7199,0.498971,0.714971,0.126547,0.513561,0.189224,0.000000,0.896814,1.000000,0.954985,0.000000,0.000000,0.480156,0.749222,0.803248,0.239848,0.000000,212.319895,1.170384,26.843062,0.513561,38.655572,0.500000,9.071325,1.000000,292.122291,0.770000,9.000000,0.480156,150.095107,8.130855,3.158628,0.000000,0
/home/daniel/Projects/ppsEvolution/data/maps/custom_maps/Custom_3_Run_0_Map.csv,squared_error,8.240601793658814e-07,0.5002,0.7187,0.037260,0.993611,0.033882,0.619185,0.212352,0.000000,0.696604,1.000000,0.924579,0.000000,0.000000,0.338900,0.959764,0.998625,0.067666,1.000000,131.520431,1.326422,13.777367,0.619185,43.258106,0.500000,7.269432,1.000000,286.801303,0.770000,9.000000,0.338900,191.993125,9.986941,1.608998,1.000000,1
/home/daniel/Projects/ppsEvolution/data/maps/custom_maps/Custom_3_Run_0_Map.csv,squared_error,1.505971192284464e-06,0.5008,0.7184,0.139068,0.862261,0.079228,0.496455,0.127566,0.000000,0.894284,1.000000,0.722036,0.090614,0.138065,0.222830,1.000000,0.966492,0.122790,2.000000,149.336863,1.252866,20.171145,0.496455,26.385599,0.500000,9.048554,1.000000,251.356315,0.820744,28.467185,0.222830,200.000000,9.681676,2.105111,2.000000,2
/home/daniel/Projects/ppsEvolution/data/maps/custom_maps/Custom_3_Run_0_Map.csv,squared_error,6.003407532003339e-06,0.5026,0.7222,0.343556,1.000000,0.000000,0.575918,0.000000,0.410796,0.716093,2.000000,0.817921,0.048615,0.114744,0.307478,0.910457,0.832695,0.242848,0.000000,185.122313,1.330000,9.000000,0.575918,1.000000,4.402561,7.444841,2.000000,268.136166,0.797224,25.178875,0.307478,182.180974,8.410600,3.185635,0.000000,3
/home/daniel/Projects/ppsEvolution/data/maps/custom_maps/Custom_3_Run_0_Map.csv,squared_error,5.970312260413289e-06,0.5006,0.7166,0.244333,1.000000,0.155111,0.519727,0.961886,0.403421,0.865423,1.000000,1.000000,0.477291,0.124203,0.271476,0.727827,0.604891,0.070972,2.000000,167.758296,1.330000,30.870590,0.519727,192.415230,4.332495,8.788804,1.000000,300.000000,1.037283,26.512687,0.271476,145.837574,6.246460,1.638749,2.000000,4
/home/daniel/Projects/ppsEvolution/data/maps/custom_maps/Custom_3_Run_0_Map.csv,squared_error,9.46701355158521e-07,0.5007,0.7188,0.000000,1.000000,0.000000,0.574466,0.035957,0.003551,1.000000,1.000000,0.759445,0.268860,0.093579,0.226661,0.923904,0.735823,0.000000,1.000000,125.000000,1.330000,9.000000,0.574466,8.155450,0.533731,10.000000,1.000000,257.902941,0.920561,22.194580,0.226661,184.856920,7.490315,1.000000,1.000000,5
/home/daniel/Projects/ppsEvolution/data/maps/custom_maps/Custom_3_Run_0_Map.csv,squared_error,1.5076492664150298e-07,0.5005,0.7201,0.260739,0.681824,0.152357,0.509344,0.158302,0.000000,1.000000,0.000000,1.000000,0.106137,0.000000,0.372173,0.590358,1.000000,0.314056,0.000000,170.629399,1.151821,30.482355,0.509344,32.502055,0.500000,10.000000,0.000000,300.000000,0.829437,9.000000,0.372173,118.481328,10.000000,3.826505,0.000000,6
/home/daniel/Projects/ppsEvolution/data/maps/custom_maps/Custom_3_Run_0_Map.csv,squared_error,3.575733746768568e-06,0.5023,0.7186,0.347702,0.536518,0.043401,0.608352,0.025963,0.118502,0.901469,0.000000,0.959159,0.149161,0.000000,0.452464,1.000000,0.782604,0.115451,0.000000,185.847853,1.070450,15.119565,0.608352,6.166598,1.625767,9.113222,0.000000,292.852783,0.853530,9.000000,0.452464,200.000000,7.934735,2.039063,0.000000,7
/home/daniel/Projects/ppsEvolution/data/maps/custom_maps/Custom_3_Run_0_Map.csv,squared_error,1.1212884065521283e-06,0.4998,0.7185,0.000000,0.563556,0.000000,0.643827,0.191264,0.420505,0.517613,2.000000,0.919333,0.000000,0.000000,0.295262,1.000000,0.759124,0.271908,0.000000,125.000000,1.085591,9.000000,0.643827,39.061476,4.494798,5.658517,2.000000,285.883290,0.770000,9.000000,0.295262,200.000000,7.711677,3.447171,0.000000,8
/home/daniel/Projects/ppsEvolution/data/maps/custom_maps/Custom_3_Run_0_Map.csv,squared_error,1.2825146062141173e-06,0.5014,0.7193,0.251250,0.592080,0.148427,0.534114,0.225099,0.116904,0.434959,0.000000,0.893586,0.691817,0.166684,0.241943,1.000000,1.000000,0.147973,1.000000,168.968832,1.101565,29.928227,0.534114,45.794795,1.610584,4.914630,0.000000,281.377632,1.157418,32.502460,0.241943,200.000000,10.000000,2.331759,1.000000,9
map,fitness,fitness value,team0ratio,time,HP,Speed,Damage,Acc,ClipSize,RateOfFire,NrBullets,Range,HP,Speed,Damage,Acc,ClipSize,RateOfFire,NrBullets,Range,HP,Speed,Damage,Acc,ClipSize,RateOfFire,NrBullets,Range,HP,Speed,Damage,Acc,ClipSize,RateOfFire,NrBullets,Range,Run,target team0ratio: 0.5,target time: 0.72
/home/daniel/Projects/ppsEvolution/data/maps/custom_maps/Custom_4_Run_0_Map.csv,squared_error,1.3083873612458444e-06,0.4990,0.7188,0.490102,0.589983,0.000000,0.297822,0.257639,0.163942,0.829245,1.000000,0.979158,0.316750,0.000000,0.019770,1.000000,1.000000,0.084424,0.000000,210.767810,1.100391,9.000000,0.297822,52.270162,2.057446,8.463202,1.000000,296.352687,0.947380,9.000000,0.019770,200.000000,10.000000,1.759816,0.000000,0
/home/daniel/Projects/ppsEvolution/data/maps/custom_maps/Custom_4_Run_0_Map.csv,squared_error,2.327264708419763e-07,0.4994,0.7198,0.501830,0.808992,0.000000,0.261031,0.000000,0.000000,0.958865,0.000000,0.920770,0.213471,0.000000,0.025718,0.621119,0.578853,0.116923,0.000000,212.820267,1.223036,9.000000,0.261031,1.000000,0.500000,9.629786,0.000000,286.134663,0.889544,9.000000,0.025718,124.602631,5.999103,2.052311,0.000000,1
/home/daniel/Projects/ppsEvolution/data/maps/custom_maps/Custom_4_Run_0_Map.csv,squared_error,2.5319269026632304e-06,0.4994,0.7222,0.428741,0.907724,0.000000,0.331614,0.304324,0.000000,0.501401,0.000000,0.963250,0.815191,0.000000,0.000000,0.925048,0.839986,0.000000,0.000000,200.029591,1.278325,9.000000,0.331614,61.560429,0.500000,5.512607,0.000000,293.568809,1.226507,9.000000,0.000000,185.084582,8.479871,1.000000,0.000000,2
/home/daniel/Projects/ppsEvolution/data/maps/custom_maps/Custom_4_Run_0_Map.csv,squared_error,3.6056815780767636e-06,0.4973,0.7198,0.647300,0.926313,0.000000,0.282488,0.105421,0.101758,0.902461,1.000000,0.988143,0.213293,0.000000,0.083628,0.920336,0.803566,0.241783,0.000000,238.277574,1.288736,9.000000,0.282488,21.978797,1.466698,9.122151,1.000000,297.925108,0.889444,9.000000,0.083628,184.146800,8.133875,3.176051,0.000000,3
/home/daniel/Projects/ppsEvolution/data/maps/custom_maps/Custom_4_Run_0_Map.csv,squared_error,5.22562695462619e-07,0.5010,0.7198,0.432650,0.667801,0.000000,0.296130,0.070386,0.165790,0.947790,1.000000,1.000000,0.000000,0.000000,0.000000,1.000000,0.900547,0.000000,0.000000,200.713695,1.143968,9.000000,0.296130,15.006859,2.075001,9.530110,1.000000,300.000000,0.770000,9.000000,0.000000,200.000000,9.055200,1.000000,0.000000,4
/home/daniel/Projects/ppsEvolution/data/maps/custom_maps/Custom_4_Run_0_Map.csv,squared_error,7.543912684725035e-06,0.4961,0.7202,0.412835,1.000000,0.139695,0.050996,0.399399,0.000000,0.861021,0.000000,0.794608,0.000000,0.000000,0.000000,0.751575,0.504624,0.000000,0.000000,197.246177,1.330000,28.696957,0.050996,80.480303,0.500000,8.749191,0.000000,264.056439,0.770000,9.000000,0.000000,150.563406,5.293932,1.000000,0.000000,5
/home/daniel/Projects/ppsEvolution/data/maps/custom_maps/Custom_4_Run_0_Map.csv,squared_error,9.334616363617116e-07,0.5013,0.7205,0.538314,0.770516,0.178250,0.039084,0.000000,0.295640,0.885025,2.000000,0.914850,0.192883,0.000000,0.021282,0.635860,1.000000,0.028437,1.000000,219.204898,1.201489,34.133292,0.039084,1.000000,3.308584,8.965229,2.000000,285.098697,0.878014,9.000000,0.021282,127.536219,10.000000,1.255932,1.000000,6
/home/daniel/Projects/ppsEvolution/data/maps/custom_maps/Custom_4_Run_0_Map.csv,squared_error,1.6494170056631912e-06,0.4984,0.7209,0.717077,0.075731,0.000000,0.264037,0.028284,0.104509,1.000000,0.000000,1.000000,0.000000,0.000000,0.084480,0.705790,0.842194,0.350445,2.000000,250.488509,0.812409,9.000000,0.264037,6.628601,1.492838,10.000000,0.000000,300.000000,0.770000,9.000000,0.084480,141.452296,8.500847,4.154008,2.000000,7
/home/daniel/Projects/ppsEvolution/data/maps/custom_maps/Custom_4_Run_0_Map.csv,squared_error,3.9401804421687e-06,0.5016,0.7223,0.627042,0.983760,0.000000,0.190700,0.225163,0.012896,0.894924,0.000000,0.767428,0.000000,0.000000,0.087958,1.000000,0.883701,0.162443,2.000000,234.732298,1.320906,9.000000,0.190700,45.807463,0.622514,9.054313,0.000000,259.299828,0.770000,9.000000,0.087958,200.000000,8.895163,2.461991,2.000000,8
/home/daniel/Projects/ppsEvolution/data/maps/custom_maps/Custom_4_Run_0_Map.csv,squared_error,3.0530108095490027e-06,0.5017,0.7182,0.620592,0.753121,0.129661,0.000000,0.000000,0.542099,1.000000,0.000000,0.676583,0.482858,0.059215,0.000000,0.737565,0.849195,0.089196,2.000000,233.603568,1.191748,27.282151,0.000000,1.000000,5.649939,10.000000,0.000000,243.402112,1.040400,17.349332,0.000000,147.775472,8.567356,1.802768,2.000000,9
map,fitness,fitness value,team0ratio,time,HP,Speed,Damage,Acc,ClipSize,RateOfFire,NrBullets,Range,HP,Speed,Damage,Acc,ClipSize,RateOfFire,NrBullets,Range,HP,Speed,Damage,Acc,ClipSize,RateOfFire,NrBullets,Range,HP,Speed,Damage,Acc,ClipSize,RateOfFire,NrBullets,Range,Run,target team0ratio: 0.5,target time: 0.72
/home/daniel/Projects/ppsEvolution/data/maps/custom_maps/Custom_5_Run_0_Map.csv,squared_error,2.432173898299782e-06,0.4978,0.7195,0.127814,0.597438,0.000000,0.302957,0.086263,0.000000,0.901133,1.000000,0.618525,0.150322,0.003630,0.077974,1.000000,0.873243,0.079173,1.000000,147.367398,1.104565,9.000000,0.302957,18.166255,0.500000,9.110198,1.000000,233.241844,0.854180,9.511893,0.077974,200.000000,8.795810,1.712557,1.000000,0
/home/daniel/Projects/ppsEvolution/data/maps/custom_maps/Custom_5_Run_0_Map.csv,squared_error,1.8894540238541015e-06,0.4988,0.7185,0.000000,0.884511,0.000000,0.440985,0.000000,0.272844,0.996957,2.000000,1.000000,0.000000,0.000000,0.000000,0.779249,1.000000,0.088383,0.000000,125.000000,1.265326,9.000000,0.440985,1.000000,3.092021,9.972615,2.000000,300.000000,0.770000,9.000000,0.000000,156.070508,10.000000,1.795446,0.000000,1
/home/daniel/Projects/ppsEvolution/data/maps/custom_maps/Custom_5_Run_0_Map.csv,squared_error,8.896632159690226e-07,0.5008,0.7211,0.002123,0.651019,0.000000,0.447774,0.253417,0.000000,0.705393,0.000000,0.921207,0.265913,0.014364,0.000000,0.911796,0.808089,0.000000,2.000000,125.371609,1.134571,9.000000,0.447774,51.429906,0.500000,7.348534,0.000000,286.211255,0.918911,11.025345,0.000000,182.447453,8.176841,1.000000,2.000000,2
/home/daniel/Projects/ppsEvolution/data/maps/custom_maps/Custom_5_Run_0_Map.csv,squared_error,5.531005078011533e-08,0.5002,0.7198,0.000000,1.000000,0.000000,0.430953,0.531860,0.029415,0.893009,2.000000,0.956188,0.237968,0.000000,0.000000,0.867767,1.000000,0.024647,2.000000,125.000000,1.330000,9.000000,0.430953,106.840157,0.779442,9.037077,2.000000,292.332898,0.903262,9.000000,0.000000,173.685560,10.000000,1.221824,2.000000,3
/home/daniel/Projects/ppsEvolution/data/maps/custom_maps/Custom_5_Run_0_Map.csv,squared_error,3.0879871806347106e-07,0.5006,0.7195,0.560551,1.000000,0.000000,0.421472,0.429682,0.231278,0.791047,2.000000,1.000000,0.039135,0.148703,0.120684,0.711566,1.000000,0.000000,0.000000,223.096430,1.330000,9.000000,0.421472,86.506659,2.697145,8.119421,2.000000,300.000000,0.791916,29.967167,0.120684,142.601607,10.000000,1.000000,0.000000,4
/home/daniel/Projects/ppsEvolution/data/maps/custom_maps/Custom_5_Run_0_Map.csv,squared_error,2.932281153321265e-06,0.4976,0.7198,0.132185,0.944007,0.028186,0.378449,0.176298,0.169451,0.861693,1.000000,0.878239,0.301581,0.079401,0.000000,0.938136,0.963150,0.000000,0.000000,148.132347,1.298644,12.974187,0.378449,36.083315,2.109784,8.755238,1.000000,278.691901,0.938885,20.195475,0.000000,187.688969,9.649921,1.000000,0.000000,5
/home/daniel/Projects/ppsEvolution/data/maps/custom_maps/Custom_5_Run_0_Map.csv,squared_error,5.227613841725455e-07,0.5010,0.7197,0.000000,1.000000,0.000000,0.420286,0.012968,0.000000,1.000000,0.000000,0.890346,0.000000,0.000000,0.000000,1.000000,0.874528,0.149084,2.000000,125.000000,1.330000,9.000000,0.420286,3.580727,0.500000,10.000000,0.000000,280.810611,0.770000,9.000000,0.000000,200.000000,8.808017,2.341756,2.000000,6
/home/daniel/Projects/ppsEvolution/data/maps/custom_maps/Custom_5_Run_0_Map.csv,squared_error,9.910216111393683e-07,0.4999,0.7214,0.322491,0.818993,0.049690,0.365982,0.507095,0.000000,0.761629,2.000000,0.971617,0.000000,0.000000,0.135459,0.541596,0.761092,0.097836,2.000000,181.435869,1.228636,16.006288,0.365982,101.911945,0.500000,7.854664,2.000000,295.032932,0.770000,9.000000,0.135459,108.777512,7.730371,1.880527,2.000000,7
/home/daniel/Projects/ppsEvolution/data/maps/custom_maps/Custom_5_Run_0_Map.csv,squared_error,3.6882874111369547e-07,0.4992,0.7197,0.144182,0.858497,0.000000,0.467150,0.254279,0.000000,0.676678,1.000000,1.000000,0.237020,0.000000,0.097365,0.878213,1.000000,0.000000,0.000000,150.231926,1.250759,9.000000,0.467150,51.601450,0.500000,7.090098,1.000000,300.000000,0.902731,9.000000,0.097365,175.764428,10.000000,1.000000,0.000000,8
/home/daniel/Projects/ppsEvolution/data/maps/custom_maps/Custom_5_Run_0_Map.csv,squared_error,1.1896679849313809e-07,0.5003,0.7196,0.655647,0.743563,0.014533,0.417431,0.081749,0.071636,0.740130,1.000000,1.000000,0.000000,0.092883,0.221780,0.783762,1.000000,0.066210,0.000000,239.738191,1.186395,11.049135,0.417431,17.268109,1.180542,7.661174,1.000000,300.000000,0.770000,22.096520,0.221780,156.968543,10.000000,1.595887,0.000000,9
map,fitness,fitness value,team0ratio,time,HP,Speed,Damage,Acc,ClipSize,RateOfFire,NrBullets,Range,HP,Speed,Damage,Acc,ClipSize,RateOfFire,NrBullets,Range,HP,Speed,Damage,Acc,ClipSize,RateOfFire,NrBullets,Range,HP,Speed,Damage,Acc,ClipSize,RateOfFire,NrBullets,Range,Run,target team0ratio: 0.5,target time: 0.72
/home/daniel/Projects/ppsEvolution/data/maps/custom_maps/Custom_6_Run_0_Map.csv,squared_error,1.067366781840245e-06,0.4998,0.7214,0.212756,0.901586,0.179583,0.650709,0.053707,0.014838,0.594539,0.000000,0.975980,0.000000,0.058651,0.537106,0.960253,1.000000,0.178544,0.000000,162.232269,1.274888,34.321163,0.650709,11.687619,0.640964,6.350851,0.000000,295.796544,0.770000,17.269766,0.537106,192.090380,10.000000,2.606897,0.000000,0
/home/daniel/Projects/ppsEvolution/data/maps/custom_maps/Custom_6_Run_0_Map.csv,squared_error,1.342613845932264e-06,0.5005,0.7184,0.000000,0.904934,0.218473,0.628792,0.050883,0.169255,0.828540,0.000000,0.991145,0.000000,0.000000,0.523092,1.000000,0.942622,0.000000,1.000000,125.000000,1.276763,39.804746,0.628792,11.125635,2.107925,8.456861,0.000000,298.450378,0.770000,9.000000,0.523092,200.000000,9.454905,1.000000,1.000000,1
/home/daniel/Projects/ppsEvolution/data/maps/custom_maps/Custom_6_Run_0_Map.csv,squared_error,1.2423779985056496e-06,0.4990,0.7212,0.066697,1.000000,0.142247,0.657249,0.000000,0.103363,0.725592,1.000000,0.926363,0.174826,0.100358,0.471166,1.000000,0.983420,0.056448,0.000000,136.671959,1.330000,29.056842,0.657249,1.000000,1.481951,7.530329,1.000000,287.113496,0.867902,23.150539,0.471166,200.000000,9.842487,1.508031,0.000000,2
/home/daniel/Projects/ppsEvolution/data/maps/custom_maps/Custom_6_Run_0_Map.csv,squared_error,6.00995014661966e-07,0.5010,0.7196,0.145907,0.784096,0.242044,0.569179,0.000000,0.178425,1.000000,0.000000,0.942627,0.198738,0.000000,0.544221,1.000000,0.878144,0.078815,0.000000,150.533656,1.209094,43.128162,0.569179,1.000000,2.195034,10.000000,0.000000,289.959689,0.881293,9.000000,0.544221,200.000000,8.842367,1.709334,0.000000,3
/home/daniel/Projects/ppsEvolution/data/maps/custom_maps/Custom_6_Run_0_Map.csv,squared_error,1.4833679501976344e-06,0.5003,0.7217,0.000000,0.792962,0.042950,0.727202,0.282024,0.179464,0.733225,1.000000,1.000000,0.000000,0.169919,0.396810,0.723929,0.992913,0.138741,2.000000,125.000000,1.214059,15.055896,0.727202,57.122691,2.204907,7.599022,1.000000,300.000000,0.770000,32.958574,0.396810,145.061964,9.932676,2.248665,2.000000,4
/home/daniel/Projects/ppsEvolution/data/maps/custom_maps/Custom_6_Run_0_Map.csv,squared_error,1.3726270786734575e-07,0.4996,0.7204,0.004686,0.899927,0.149154,0.608653,0.389771,0.417080,0.510539,1.000000,0.690716,0.000000,0.016896,0.516264,0.873408,1.000000,0.155751,1.000000,125.819995,1.273959,30.030669,0.608653,78.564419,4.462265,5.594848,1.000000,245.875353,0.770000,11.382380,0.516264,174.808141,10.000000,2.401756,1.000000,5
/home/daniel/Projects/ppsEvolution/data/maps/custom_maps/Custom_6_Run_0_Map.csv,squared_error,1.818255614818958e-06,0.4999,0.7181,0.060087,0.863424,0.239835,0.599980,0.253676,0.040512,0.939840,2.000000,0.978974,0.000000,0.112043,0.445915,0.872653,0.722937,0.190593,2.000000,135.515146,1.253517,42.816674,0.599980,51.481553,0.884860,9.458558,2.000000,296.320505,0.770000,24.798027,0.445915,174.658000,7.367898,2.715341,2.000000,6
/home/daniel/Projects/ppsEvolution/data/maps/custom_maps/Custom_6_Run_0_Map.csv,squared_error,8.07411304163001e-07,0.5013,0.7201,0.189972,1.000000,0.055402,0.696641,0.000000,0.190142,0.982494,2.000000,1.000000,0.026674,0.184653,0.425061,1.000000,0.659619,0.226357,1.000000,158.245025,1.330000,16.811707,0.696641,1.000000,2.306350,9.842443,2.000000,300.000000,0.784938,35.036090,0.425061,200.000000,6.766379,3.037209,1.000000,7
/home/daniel/Projects/ppsEvolution/data/maps/custom_maps/Custom_6_Run_0_Map.csv,squared_error,1.6445020106630662e-07,0.4995,0.7202,0.000000,0.718767,0.000000,0.747042,0.111175,0.254546,0.632174,0.000000,0.922513,0.143412,0.045068,0.496225,1.000000,1.000000,0.215454,0.000000,125.000000,1.172510,9.000000,0.747042,23.123841,2.918187,6.689562,0.000000,286.439806,0.850310,15.354549,0.496225,200.000000,10.000000,2.939085,0.000000,8
/home/daniel/Projects/ppsEvolution/data/maps/custom_maps/Custom_6_Run_0_Map.csv,squared_error,2.008373519242931e-06,0.5020,0.7203,0.000000,0.723687,0.255614,0.603897,0.030000,0.000000,0.947488,0.000000,0.994951,0.024751,0.106558,0.423260,0.876426,1.000000,0.210345,2.000000,125.000000,1.175265,45.041571,0.603897,6.970000,0.500000,9.527390,0.000000,299.116406,0.783860,24.024718,0.423260,175.408761,10.000000,2.893109,2.000000,9
map,fitness,fitness value,team0ratio,time,HP,Speed,Damage,Acc,ClipSize,RateOfFire,NrBullets,Range,HP,Speed,Damage,Acc,ClipSize,RateOfFire,NrBullets,Range,HP,Speed,Damage,Acc,ClipSize,RateOfFire,NrBullets,Range,HP,Speed,Damage,Acc,ClipSize,RateOfFire,NrBullets,Range,Run,target team0ratio: 0.5,target time: 0.72
/home/daniel/Projects/ppsEvolution/data/maps/custom_maps/Custom_7_Run_0_Map.csv,squared_error,8.29470043282758e-07,0.4987,0.7202,0.335592,0.580774,0.000000,0.529449,0.119888,0.090567,0.843682,0.000000,1.000000,0.130050,0.085408,0.179610,1.000000,0.942276,0.200580,1.000000,183.728679,1.095233,9.000000,0.529449,24.857736,1.360386,8.593141,0.000000,300.000000,0.842828,21.042551,0.179610,200.000000,9.451618,2.805216,1.000000,0
/home/daniel/Projects/ppsEvolution/data/maps/custom_maps/Custom_7_Run_0_Map.csv,squared_error,3.4601954253046503e-07,0.5004,0.7193,0.475129,0.905046,0.233876,0.227867,0.022237,0.009958,1.000000,0.000000,0.903931,0.038462,0.000000,0.344085,1.000000,0.950977,0.000000,0.000000,208.147495,1.276826,41.976499,0.227867,5.425140,0.594603,10.000000,0.000000,283.187941,0.791539,9.000000,0.344085,200.000000,9.534284,1.000000,0.000000,1
/home/daniel/Projects/ppsEvolution/data/maps/custom_maps/Custom_7_Run_0_Map.csv,squared_error,3.206067490762688e-06,0.4999,0.7225,0.102640,0.621943,0.061216,0.398628,0.159510,0.098091,0.840189,0.000000,0.765625,0.000000,0.020479,0.166490,0.913721,0.664575,0.000000,1.000000,142.962032,1.118288,17.631459,0.398628,32.742424,1.431865,8.561701,0.000000,258.984337,0.770000,11.887550,0.166490,182.830547,6.813464,1.000000,1.000000,2
/home/daniel/Projects/ppsEvolution/data/maps/custom_maps/Custom_7_Run_0_Map.csv,squared_error,4.4613092182828185e-06,0.4972,0.7188,0.209928,1.000000,0.000000,0.522376,0.000000,0.032635,0.751853,0.000000,0.946888,0.096138,0.026765,0.199392,0.749026,0.983574,0.163003,0.000000,161.737415,1.330000,9.000000,0.522376,1.000000,0.810031,7.766676,0.000000,290.705334,0.823838,12.773870,0.199392,150.056099,9.843958,2.467026,0.000000,3
/home/daniel/Projects/ppsEvolution/data/maps/custom_maps/Custom_7_Run_0_Map.csv,squared_error,5.7724771858154945e-06,0.4968,0.7213,0.423091,0.987770,0.160987,0.400386,0.571262,0.225830,0.300303,0.000000,0.937644,0.074847,0.131949,0.191300,1.000000,0.894149,0.049431,2.000000,199.040841,1.323151,31.699176,0.400386,114.681089,2.645389,3.702728,0.000000,289.087692,0.811914,27.604813,0.191300,200.000000,8.994416,1.444879,2.000000,4
/home/daniel/Projects/ppsEvolution/data/maps/custom_maps/Custom_7_Run_0_Map.csv,squared_error,1.996179033454896e-07,0.5006,0.7202,0.000000,0.971388,0.000000,0.512854,0.210375,0.000000,0.770226,2.000000,0.917020,0.000000,0.092012,0.041269,1.000000,0.238973,0.000000,1.000000,125.000000,1.313978,9.000000,0.512854,42.864644,0.500000,7.932038,2.000000,285.478468,0.770000,21.973642,0.041269,200.000000,2.770243,1.000000,1.000000,5
/home/daniel/Projects/ppsEvolution/data/maps/custom_maps/Custom_7_Run_0_Map.csv,squared_error,6.536877894631894e-07,0.4999,0.7189,0.338604,1.000000,0.000000,0.459938,0.244011,0.000000,0.967329,0.000000,0.788279,0.433602,0.243245,0.050888,0.987092,0.850342,0.037242,1.000000,184.255666,1.330000,9.000000,0.459938,49.558095,0.500000,9.705963,0.000000,262.948850,1.012817,43.297480,0.050888,197.431313,8.578247,1.335178,1.000000,6
/home/daniel/Projects/ppsEvolution/data/maps/custom_maps/Custom_7_Run_0_Map.csv,squared_error,1.1111531789793709e-06,0.5006,0.7186,0.082827,1.000000,0.000000,0.545211,0.000000,0.359852,0.842452,0.000000,1.000000,0.220298,0.090299,0.055939,0.863095,0.833382,0.240335,0.000000,139.494674,1.330000,9.000000,0.545211,1.000000,3.918598,8.582069,0.000000,300.000000,0.893367,21.732101,0.055939,172.755826,8.417128,3.163017,0.000000,7
/home/daniel/Projects/ppsEvolution/data/maps/custom_maps/Custom_7_Run_0_Map.csv,squared_error,1.2580744444796785e-06,0.4994,0.7185,0.664896,1.000000,0.313737,0.221280,0.305515,0.185783,0.646187,0.000000,0.986737,0.174089,0.088624,0.319348,0.718601,1.000000,0.045507,2.000000,241.356780,1.330000,53.236883,0.221280,61.797481,2.264936,6.815682,0.000000,297.678900,0.867490,21.495936,0.319348,144.001585,10.000000,1.409566,2.000000,8
/home/daniel/Projects/ppsEvolution/data/maps/custom_maps/Custom_7_Run_0_Map.csv,squared_error,2.4652104555230518e-06,0.5001,0.7222,0.048511,0.955569,0.061863,0.441431,0.303390,0.551094,0.977897,2.000000,0.960714,0.113899,0.000000,0.117814,1.000000,0.689939,0.137042,0.000000,133.489379,1.305118,17.722633,0.441431,61.374658,5.735397,9.801076,2.000000,293.124941,0.833783,9.000000,0.117814,200.000000,7.054416,2.233380,0.000000,9
map,fitness,fitness value,team0ratio,time,HP,Speed,Damage,Acc,ClipSize,RateOfFire,NrBullets,Range,HP,Speed,Damage,Acc,ClipSize,RateOfFire,NrBullets,Range,HP,Speed,Damage,Acc,ClipSize,RateOfFire,NrBullets,Range,HP,Speed,Damage,Acc,ClipSize,RateOfFire,NrBullets,Range,Run,target team0ratio: 0.5,target time: 0.72
/home/daniel/Projects/ppsEvolution/data/maps/custom_maps/Custom_8_Run_0_Map.csv,squared_error,2.965003542072919e-07,0.5008,0.7198,0.744211,0.457248,0.000000,0.329258,0.421681,0.545881,0.197413,1.000000,0.819673,0.512588,0.243678,0.000000,0.951674,0.952878,0.028619,0.000000,255.236888,1.026059,9.000000,0.329258,84.914442,5.685867,2.776718,1.000000,268.442724,1.057049,43.358607,0.000000,190.383119,9.552341,1.257568,0.000000,0
/home/daniel/Projects/ppsEvolution/data/maps/custom_maps/Custom_8_Run_0_Map.csv,squared_error,1.5794637685758521e-06,0.5004,0.7217,0.282149,0.865519,0.000000,0.297100,0.020015,0.085259,0.719426,1.000000,0.788492,0.148221,0.045023,0.000000,0.712609,1.000000,0.000000,1.000000,174.376108,1.254691,9.000000,0.297100,4.982972,1.309956,7.474830,1.000000,262.986074,0.853004,15.348196,0.000000,142.809092,10.000000,1.000000,1.000000,1
/home/daniel/Projects/ppsEvolution/data/maps/custom_maps/Custom_8_Run_0_Map.csv,squared_error,1.9117406198006396e-06,0.5020,0.7200,0.303587,0.768415,0.000000,0.362528,0.029218,0.351176,0.850381,0.000000,0.968215,0.295077,0.040511,0.000000,0.654927,0.621561,0.021279,2.000000,178.127669,1.200312,9.000000,0.362528,6.814421,3.836170,8.653426,0.000000,294.437615,0.935243,14.711992,0.000000,131.330437,6.404831,1.191514,2.000000,2
/home/daniel/Projects/ppsEvolution/data/maps/custom_maps/Custom_8_Run_0_Map.csv,squared_error,1.3175031587848731e-06,0.5001,0.7184,0.764982,0.945695,0.000000,0.262706,0.636986,0.116744,1.000000,0.000000,0.801807,0.058931,0.076831,0.186837,1.000000,0.847542,0.148643,2.000000,258.871898,1.299589,9.000000,0.262706,127.760214,1.609070,10.000000,0.000000,265.316230,0.803001,19.833176,0.186837,200.000000,8.551650,2.337791,2.000000,3
/home/daniel/Projects/ppsEvolution/data/maps/custom_maps/Custom_8_Run_0_Map.csv,squared_error,6.135378489772377e-08,0.5000,0.7197,0.273146,1.000000,0.000000,0.384817,0.286894,0.208163,0.698304,1.000000,1.000000,0.315295,0.000000,0.002703,0.573376,0.892650,0.330781,0.000000,172.800615,1.330000,9.000000,0.384817,58.091813,2.477550,7.284732,1.000000,300.000000,0.946565,9.000000,0.002703,115.101838,8.980174,3.977033,0.000000,4
/home/daniel/Projects/ppsEvolution/data/maps/custom_maps/Custom_8_Run_0_Map.csv,squared_error,8.807019536590378e-07,0.5010,0.7209,0.388596,0.478259,0.000000,0.322444,0.189102,0.530007,0.863729,1.000000,0.927438,0.050635,0.000000,0.076278,0.564300,0.950749,0.042501,1.000000,193.004238,1.037825,9.000000,0.322444,38.631358,5.535067,8.773563,1.000000,287.301643,0.798356,9.000000,0.076278,113.295746,9.532114,1.382506,1.000000,5
/home/daniel/Projects/ppsEvolution/data/maps/custom_maps/Custom_8_Run_0_Map.csv,squared_error,9.942392491353407e-07,0.4995,0.7187,0.426906,0.805151,0.000000,0.291152,0.331906,0.245927,0.892970,2.000000,0.843582,0.104684,0.000000,0.103871,0.810767,0.613882,0.137435,0.000000,199.708488,1.220884,9.000000,0.291152,67.049365,2.836303,9.036734,2.000000,272.626864,0.828623,9.000000,0.103871,162.342589,6.331881,2.236918,0.000000,6
/home/daniel/Projects/ppsEvolution/data/maps/custom_maps/Custom_8_Run_0_Map.csv,squared_error,7.696302274780436e-07,0.5012,0.7199,0.258994,0.914776,0.000000,0.312983,0.079532,0.106960,0.960931,1.000000,0.880811,0.005371,0.000000,0.000000,0.411664,0.898913,0.216569,2.000000,170.323992,1.282275,9.000000,0.312983,16.826775,1.516116,9.648383,1.000000,279.141945,0.773008,9.000000,0.000000,82.921169,9.039678,2.949125,2.000000,7
/home/daniel/Projects/ppsEvolution/data/maps/custom_maps/Custom_8_Run_0_Map.csv,squared_error,5.156699746862481e-07,0.5009,0.7195,0.207646,1.000000,0.027398,0.324277,0.184082,0.333521,0.821879,1.000000,0.966919,0.000000,0.000000,0.000000,0.246174,0.856314,0.000000,1.000000,161.338067,1.330000,12.863143,0.324277,37.632362,3.668452,8.396912,1.000000,294.210773,0.770000,9.000000,0.000000,49.988702,8.634979,1.000000,1.000000,8
/home/daniel/Projects/ppsEvolution/data/maps/custom_maps/Custom_8_Run_0_Map.csv,squared_error,5.88565704902753e-07,0.4994,0.7191,0.373596,1.000000,0.065019,0.219345,0.503846,0.000000,0.990942,1.000000,0.830113,0.000000,0.068564,0.016363,1.000000,0.805441,0.000000,2.000000,190.379368,1.330000,18.167702,0.219345,101.265391,0.500000,9.918477,1.000000,270.269838,0.770000,18.667502,0.016363,200.000000,8.151693,1.000000,2.000000,9
map,fitness,fitness value,team0ratio,time,HP,Speed,Damage,Acc,ClipSize,RateOfFire,NrBullets,Range,HP,Speed,Damage,Acc,ClipSize,RateOfFire,NrBullets,Range,HP,Speed,Damage,Acc,ClipSize,RateOfFire,NrBullets,Range,HP,Speed,Damage,Acc,ClipSize,RateOfFire,NrBullets,Range,Run,target team0ratio: 0.5,target time: 0.72
/home/daniel/Projects/ppsEvolution/data/maps/custom_maps/Custom_9_Run_0_Map.csv,squared_error,7.764933000771401e-07,0.5009,0.7191,0.573258,0.991524,0.016408,0.145797,0.552392,0.389721,0.876208,0.000000,0.924410,0.362413,0.002941,0.005558,0.821488,0.990197,0.264960,0.000000,225.320225,1.325253,11.313597,0.145797,110.925998,4.202350,8.885869,0.000000,286.771725,0.972951,9.414611,0.005558,164.476065,9.906872,3.384637,0.000000,0
/home/daniel/Projects/ppsEvolution/data/maps/custom_maps/Custom_9_Run_0_Map.csv,squared_error,3.0488070110664384e-06,0.5020,0.7214,0.800340,0.685736,0.000000,0.083051,0.497382,0.008073,0.754886,0.000000,0.776118,0.155965,0.049440,0.085056,0.591760,0.778724,0.145130,2.000000,265.059523,1.154012,9.000000,0.083051,99.979089,0.576690,7.793973,0.000000,260.820604,0.857341,15.971044,0.085056,118.760304,7.897882,2.306166,2.000000,1
/home/daniel/Projects/ppsEvolution/data/maps/custom_maps/Custom_9_Run_0_Map.csv,squared_error,2.2998627259880334e-06,0.5013,0.7183,0.815384,0.519723,0.089558,0.104634,0.203267,0.111602,0.461606,1.000000,0.979641,0.045230,0.109639,0.000000,1.000000,0.937121,0.206715,2.000000,267.692287,1.061045,21.627692,0.104634,41.450179,1.560215,5.154453,1.000000,296.437237,0.795329,24.459035,0.000000,200.000000,9.402647,2.860437,2.000000,2
/home/daniel/Projects/ppsEvolution/data/maps/custom_maps/Custom_9_Run_0_Map.csv,squared_error,2.0643480848121418e-06,0.5003,0.7180,0.615953,0.598419,0.075442,0.000000,0.000000,0.209871,0.740529,0.000000,0.737501,0.124350,0.019503,0.064887,1.000000,0.879235,0.000000,2.000000,232.791725,1.105115,19.637342,0.000000,1.000000,2.493772,7.664765,0.000000,254.062654,0.839636,11.749988,0.064887,200.000000,8.852737,1.000000,2.000000,3
/home/daniel/Projects/ppsEvolution/data/maps/custom_maps/Custom_9_Run_0_Map.csv,squared_error,8.285449003693953e-07,0.5006,0.7211,0.752217,0.460055,0.034148,0.092374,0.168112,0.000000,0.809276,2.000000,0.923238,0.160972,0.000000,0.131147,0.683217,0.812735,0.000000,0.000000,256.637917,1.027631,13.814840,0.092374,34.454380,0.500000,8.283484,2.000000,286.566648,0.860144,9.000000,0.131147,136.960142,8.220983,1.000000,0.000000,4
/home/daniel/Projects/ppsEvolution/data/maps/custom_maps/Custom_9_Run_0_Map.csv,squared_error,4.489596522290891e-07,0.4999,0.7209,0.476608,0.533086,0.076408,0.000000,0.474772,0.158073,0.937071,0.000000,0.802443,0.016597,0.000000,0.004045,0.763915,0.827069,0.000000,0.000000,208.406386,1.068528,19.773504,0.000000,95.479725,2.001690,9.433641,0.000000,265.427469,0.779294,9.000000,0.004045,153.019002,8.357157,1.000000,0.000000,5
/home/daniel/Projects/ppsEvolution/data/maps/custom_maps/Custom_9_Run_0_Map.csv,squared_error,2.9717379484856953e-06,0.4989,0.7178,0.549283,0.983787,0.098579,0.008993,0.000000,0.224158,0.737493,0.000000,0.809174,0.196442,0.000000,0.055686,0.899985,0.658644,0.000000,1.000000,221.124572,1.320921,22.899703,0.008993,1.000000,2.629497,7.637437,0.000000,266.605428,0.880007,9.000000,0.055686,180.096992,6.757114,1.000000,1.000000,6
/home/daniel/Projects/ppsEvolution/data/maps/custom_maps/Custom_9_Run_0_Map.csv,squared_error,5.507677204460001e-06,0.4970,0.7186,0.478470,0.945578,0.053727,0.128980,0.097897,0.048093,0.877945,0.000000,0.971311,0.250550,0.000000,0.000000,0.869519,1.000000,0.070576,0.000000,208.732336,1.299523,16.575503,0.128980,20.481409,0.956885,8.901509,0.000000,294.979388,0.910308,9.000000,0.000000,174.034229,10.000000,1.635180,0.000000,7
/home/daniel/Projects/ppsEvolution/data/maps/custom_maps/Custom_9_Run_0_Map.csv,squared_error,2.472975235062281e-06,0.4992,0.7179,0.562180,0.763593,0.054480,0.099404,0.010008,0.020062,1.000000,2.000000,0.999032,0.000000,0.000000,0.034466,0.540577,0.855185,0.012035,1.000000,223.381436,1.197612,16.681708,0.099404,2.991682,0.690591,10.000000,2.000000,299.830672,0.770000,9.000000,0.034466,108.574760,8.624261,1.108319,1.000000,8
/home/daniel/Projects/ppsEvolution/data/maps/custom_maps/Custom_9_Run_0_Map.csv,squared_error,1.4266217211485695e-06,0.4989,0.7213,0.575979,0.878562,0.043309,0.104426,0.051450,0.096595,1.000000,1.000000,0.976556,0.090219,0.000000,0.000000,0.439096,0.796304,0.268285,1.000000,225.796294,1.261995,15.106546,0.104426,11.238558,1.417649,10.000000,1.000000,295.897338,0.820523,9.000000,0.000000,88.380119,8.064887,3.414563,1.000000,9
map,fitness,fitness value,team0ratio,time,HP,Speed,Damage,Acc,ClipSize,RateOfFire,NrBullets,Range,HP,Speed,Damage,Acc,ClipSize,RateOfFire,NrBullets,Range,HP,Speed,Damage,Acc,ClipSize,RateOfFire,NrBullets,Range,HP,Speed,Damage,Acc,ClipSize,RateOfFire,NrBullets,Range,Run,target team0ratio: 0.5,target time: 0.72
/home/daniel/Projects/ppsEvolution/data/maps/custom_maps/Custom_10_Run_0_Map.csv,squared_error,1.4123527895123115e-06,0.5013,0.7211,0.284874,1.000000,0.168533,0.286640,0.028227,0.350214,0.900830,1.000000,0.978924,0.219849,0.018196,0.128964,0.566136,0.570270,0.239675,1.000000,174.852930,1.330000,32.763223,0.286640,6.617098,3.827033,9.107470,1.000000,296.311723,0.893115,11.565593,0.128964,113.660991,5.917569,3.157072,1.000000,0
/home/daniel/Projects/ppsEvolution/data/maps/custom_maps/Custom_10_Run_0_Map.csv,squared_error,1.1743691615731634e-05,0.5046,0.7183,0.133092,0.920373,0.101094,0.397272,0.063500,0.068946,0.881245,0.000000,1.000000,0.000000,0.061546,0.059649,0.924502,0.995288,0.000000,2.000000,148.291101,1.285409,23.254245,0.397272,13.636462,1.154989,8.931203,0.000000,300.000000,0.770000,17.677955,0.059649,184.975858,9.955232,1.000000,2.000000,1
/home/daniel/Projects/ppsEvolution/data/maps/custom_maps/Custom_10_Run_0_Map.csv,squared_error,2.8734488713839425e-07,0.5001,0.7207,0.000000,0.988825,0.092038,0.356185,0.000000,0.329305,0.478689,0.000000,0.785443,0.051105,0.062773,0.000000,0.968309,0.797589,0.017903,2.000000,125.000000,1.323742,21.977397,0.356185,1.000000,3.628397,5.308201,0.000000,262.452459,0.798619,17.850990,0.000000,193.693553,8.077099,1.161130,2.000000,2
/home/daniel/Projects/ppsEvolution/data/maps/custom_maps/Custom_10_Run_0_Map.csv,squared_error,9.488463375902612e-07,0.5003,0.7213,0.000000,0.901783,0.000000,0.435301,0.254874,0.156782,0.913989,2.000000,0.886439,0.265883,0.000000,0.000000,0.915390,0.381433,0.398958,0.000000,125.000000,1.274999,9.000000,0.435301,51.719844,1.989431,9.225903,2.000000,280.126887,0.918894,9.000000,0.000000,183.162595,4.123612,4.590622,0.000000,3
/home/daniel/Projects/ppsEvolution/data/maps/custom_maps/Custom_10_Run_0_Map.csv,squared_error,3.7970176341843177e-07,0.5008,0.7197,0.485711,0.772974,0.000000,0.459450,0.227063,0.026150,1.000000,1.000000,1.000000,0.327229,0.056080,0.221186,0.971762,0.662213,0.113034,1.000000,209.999506,1.202866,9.000000,0.459450,46.185568,0.748424,10.000000,1.000000,300.000000,0.953248,16.907340,0.221186,194.380611,6.791020,2.017310,1.000000,4
/home/daniel/Projects/ppsEvolution/data/maps/custom_maps/Custom_10_Run_0_Map.csv,squared_error,7.563416575180497e-07,0.5006,0.7189,0.216512,0.984648,0.030329,0.436884,0.000924,0.000000,0.755031,0.000000,0.910287,0.092641,0.056858,0.099504,0.830226,0.572239,0.161259,2.000000,162.889620,1.321403,13.276459,0.436884,1.183909,0.500000,7.795276,0.000000,284.300310,0.821879,17.016926,0.099504,166.214967,5.936274,2.451327,2.000000,5
/home/daniel/Projects/ppsEvolution/data/maps/custom_maps/Custom_10_Run_0_Map.csv,squared_error,4.778492250608238e-07,0.5010,0.7201,0.311127,1.000000,0.076867,0.398759,0.298244,0.072309,0.892496,1.000000,1.000000,0.089026,0.043229,0.154676,0.957153,0.955686,0.084573,1.000000,179.447282,1.330000,19.838217,0.398759,60.350497,1.186934,9.032462,1.000000,300.000000,0.819855,15.095254,0.154676,191.473519,9.579015,1.761159,1.000000,6
/home/daniel/Projects/ppsEvolution/data/maps/custom_maps/Custom_10_Run_0_Map.csv,squared_error,2.7283164645383007e-06,0.4998,0.7223,0.405205,0.837705,0.160988,0.290843,0.000000,0.555172,1.000000,0.000000,1.000000,0.183624,0.020797,0.210227,0.880630,0.730551,0.008513,2.000000,195.910945,1.239115,31.699309,0.290843,1.000000,5.774132,10.000000,0.000000,300.000000,0.872829,11.932376,0.210227,176.245403,7.440233,1.076621,2.000000,7
/home/daniel/Projects/ppsEvolution/data/maps/custom_maps/Custom_10_Run_0_Map.csv,squared_error,4.529366213830771e-07,0.5007,0.7206,0.132705,0.700728,0.020421,0.464096,0.000000,0.465746,0.905484,0.000000,1.000000,0.076423,0.000000,0.129354,0.921313,1.000000,0.000000,1.000000,148.223443,1.162408,11.879385,0.464096,1.000000,4.924590,9.149360,0.000000,300.000000,0.812797,9.000000,0.129354,184.341261,10.000000,1.000000,1.000000,8
/home/daniel/Projects/ppsEvolution/data/maps/custom_maps/Custom_10_Run_0_Map.csv,squared_error,1.4975281645319762e-06,0.5010,0.7186,0.105344,0.578492,0.000000,0.456366,0.107505,0.070715,0.565864,0.000000,0.848828,0.135690,0.094997,0.000996,0.376486,1.000000,0.174721,1.000000,143.435285,1.093956,9.000000,0.456366,22.393418,1.171795,6.092776,0.000000,273.544913,0.845986,22.394528,0.000996,75.920641,10.000000,2.572490,1.000000,9
