map,fitness,fitness value,team0ratio,time,HP,Speed,Damage,Acc,ClipSize,RateOfFire,NrBullets,Range,HP,Speed,Damage,Acc,ClipSize,RateOfFire,NrBullets,Range,HP,Speed,Damage,Acc,ClipSize,RateOfFire,NrBullets,Range,HP,Speed,Damage,Acc,ClipSize,RateOfFire,NrBullets,Range,Run,target team0ratio: 0.5,target time: 0.14
/home/daniel/Projects/ppsEvolution/data/maps/custom_maps/Custom_1_Run_0_Map.csv,squared_error,0.0002322335117682205,0.5007,0.1615,0.000000,0.915019,0.587726,1.000000,0.000000,0.000000,0.991819,2.000000,0.960968,0.199379,0.729766,1.000000,1.000000,0.715256,0.594713,2.000000,125.000000,1.282411,91.869334,1.000000,1.000000,0.500000,9.926371,2.000000,293.169345,0.881652,111.897069,1.000000,200.000000,7.294929,6.352418,2.000000,0
/home/daniel/Projects/ppsEvolution/data/maps/custom_maps/Custom_1_Run_0_Map.csv,squared_error,0.0001171391734993321,0.5002,0.1553,0.000000,1.000000,0.380226,1.000000,0.000000,0.000000,1.000000,2.000000,0.450835,0.000000,1.000000,1.000000,1.000000,0.908931,1.000000,2.000000,125.000000,1.330000,62.611886,1.000000,1.000000,0.500000,10.000000,2.000000,203.896123,0.770000,150.000000,1.000000,200.000000,9.134846,10.000000,2.000000,1
/home/daniel/Projects/ppsEvolution/data/maps/custom_maps/Custom_1_Run_0_Map.csv,squared_error,0.0001374357820548821,0.5002,0.1566,0.000000,1.000000,0.967227,0.952626,0.000000,0.000000,1.000000,2.000000,0.442597,0.090582,0.949170,1.000000,1.000000,0.701574,1.000000,2.000000,125.000000,1.330000,145.379030,0.952626,1.000000,0.500000,10.000000,2.000000,202.454496,0.820726,142.832912,1.000000,200.000000,7.164956,10.000000,2.000000,2
/home/daniel/Projects/ppsEvolution/data/maps/custom_maps/Custom_1_Run_0_Map.csv,squared_error,0.0002119869592396028,0.5031,0.1604,0.000000,0.940667,0.916016,0.945589,0.000000,0.000000,1.000000,2.000000,0.425706,0.000000,0.653454,1.000000,0.936705,0.688752,1.000000,2.000000,125.000000,1.296773,138.158285,0.945589,1.000000,0.500000,10.000000,2.000000,199.498597,0.770000,101.136999,1.000000,187.404262,7.043143,10.000000,2.000000,3
/home/daniel/Projects/ppsEvolution/data/maps/custom_maps/Custom_1_Run_0_Map.csv,squared_error,0.0003018816026161229,0.5007,0.1646,0.000000,1.000000,0.700748,0.952759,0.000000,0.000000,1.000000,2.000000,0.497938,0.027718,0.458235,1.000000,0.959268,0.774143,0.976804,2.000000,125.000000,1.330000,107.805464,0.952759,1.000000,0.500000,10.000000,2.000000,212.139153,0.785522,73.611114,1.000000,191.894367,7.854360,9.791233,2.000000,4
/home/daniel/Projects/ppsEvolution/data/maps/custom_maps/Custom_1_Run_0_Map.csv,squared_error,0.0001438853003593365,0.5008,0.1569,0.055880,0.912064,0.394868,0.995733,0.000000,0.049894,1.000000,2.000000,0.455344,0.000000,0.928152,1.000000,0.997642,0.784633,1.000000,2.000000,134.778914,1.280756,64.676376,0.995733,1.000000,0.973997,10.000000,2.000000,204.685167,0.770000,139.869465,1.000000,199.530783,7.954014,10.000000,2.000000,5
/home/daniel/Projects/ppsEvolution/data/maps/custom_maps/Custom_1_Run_0_Map.csv,squared_error,0.00013455053929266377,0.4992,0.1564,0.000000,1.000000,0.532919,1.000000,0.000000,0.043848,1.000000,2.000000,0.673830,0.079769,1.000000,1.000000,1.000000,0.699906,0.918939,2.000000,125.000000,1.330000,84.141636,1.000000,1.000000,0.916552,10.000000,2.000000,242.920317,0.814670,150.000000,1.000000,200.000000,7.149110,9.270448,2.000000,6
/home/daniel/Projects/ppsEvolution/data/maps/custom_maps/Custom_1_Run_0_Map.csv,squared_error,0.00014385133985616246,0.5011,0.1569,0.000000,0.972119,0.964660,0.964762,0.044052,0.032849,1.000000,2.000000,0.656536,0.030489,1.000000,1.000000,1.000000,0.764953,1.000000,2.000000,125.000000,1.314387,145.017108,0.964762,9.766339,0.812069,10.000000,2.000000,239.893882,0.787074,150.000000,1.000000,200.000000,7.767052,10.000000,2.000000,7
/home/daniel/Projects/ppsEvolution/data/maps/custom_maps/Custom_1_Run_0_Map.csv,squared_error,0.00014379186400169882,0.4993,0.1569,0.000000,1.000000,0.941599,0.968332,0.000000,0.003407,1.000000,2.000000,0.676789,0.136469,1.000000,1.000000,0.814182,0.596887,1.000000,2.000000,125.000000,1.330000,141.765471,0.968332,1.000000,0.532366,10.000000,2.000000,243.438148,0.846422,150.000000,1.000000,163.022198,6.170424,10.000000,2.000000,8
/home/daniel/Projects/ppsEvolution/data/maps/custom_maps/Custom_1_Run_0_Map.csv,squared_error,0.00019309978714204581,0.4999,0.1597,0.000000,0.897921,0.511643,1.000000,0.000000,0.000000,1.000000,2.000000,0.784758,0.000000,0.749846,1.000000,1.000000,0.512629,0.783741,2.000000,125.000000,1.272836,81.141657,1.000000,1.000000,0.500000,10.000000,2.000000,262.332675,0.770000,114.728295,1.000000,200.000000,5.369975,8.053666,2.000000,9
map,fitness,fitness value,team0ratio,time,HP,Speed,Damage,Acc,ClipSize,RateOfFire,NrBullets,Range,HP,Speed,Damage,Acc,ClipSize,RateOfFire,NrBullets,Range,HP,Speed,Damage,Acc,ClipSize,RateOfFire,NrBullets,Range,HP,Speed,Damage,Acc,ClipSize,RateOfFire,NrBullets,Range,Run,target team0ratio: 0.5,target time: 0.14
/home/daniel/Projects/ppsEvolution/data/maps/custom_maps/Custom_2_Run_0_Map.csv,squared_error,0.0301579726292385,0.4637,0.3829,0.000000,1.000000,0.694705,1.000000,0.000000,0.000000,1.000000,2.000000,1.000000,1.000000,1.000000,1.000000,1.000000,1.000000,1.000000,2.000000,125.000000,1.330000,106.953389,1.000000,1.000000,0.500000,10.000000,2.000000,300.000000,1.330000,150.000000,1.000000,200.000000,10.000000,10.000000,2.000000,0
/home/daniel/Projects/ppsEvolution/data/maps/custom_maps/Custom_2_Run_0_Map.csv,squared_error,0.030157864680283,0.4642,0.3830,0.000000,1.000000,0.697027,1.000000,0.000000,0.000000,1.000000,2.000000,1.000000,1.000000,1.000000,1.000000,1.000000,1.000000,1.000000,2.000000,125.000000,1.330000,107.280853,1.000000,1.000000,0.500000,10.000000,2.000000,300.000000,1.330000,150.000000,1.000000,200.000000,10.000000,10.000000,2.000000,1
/home/daniel/Projects/ppsEvolution/data/maps/custom_maps/Custom_2_Run_0_Map.csv,squared_error,0.030159021187240134,0.4658,0.3832,0.000000,1.000000,0.706206,1.000000,0.000000,0.000000,1.000000,2.000000,1.000000,1.000000,1.000000,1.000000,1.000000,1.000000,1.000000,2.000000,125.000000,1.330000,108.575100,1.000000,1.000000,0.500000,10.000000,2.000000,300.000000,1.330000,150.000000,1.000000,200.000000,10.000000,10.000000,2.000000,2
/home/daniel/Projects/ppsEvolution/data/maps/custom_maps/Custom_2_Run_0_Map.csv,squared_error,0.03021335035331691,0.4651,0.3833,0.004040,1.000000,0.711376,1.000000,0.000000,0.000000,1.000000,2.000000,1.000000,0.607531,1.000000,1.000000,1.000000,1.000000,1.000000,2.000000,125.706922,1.330000,109.304077,1.000000,1.000000,0.500000,10.000000,2.000000,300.000000,1.110217,150.000000,1.000000,200.000000,10.000000,10.000000,2.000000,3
/home/daniel/Projects/ppsEvolution/data/maps/custom_maps/Custom_2_Run_0_Map.csv,squared_error,0.03016911003566679,0.4645,0.3831,0.000000,1.000000,0.618529,1.000000,0.000000,0.000000,1.000000,2.000000,0.845845,1.000000,1.000000,1.000000,1.000000,1.000000,1.000000,2.000000,125.000000,1.330000,96.212537,1.000000,1.000000,0.500000,10.000000,2.000000,273.022902,1.330000,150.000000,1.000000,200.000000,10.000000,10.000000,2.000000,4
/home/daniel/Projects/ppsEvolution/data/maps/custom_maps/Custom_2_Run_0_Map.csv,squared_error,0.03015819608227914,0.4651,0.3831,0.000000,1.000000,0.702074,1.000000,0.000000,0.000000,1.000000,2.000000,1.000000,1.000000,1.000000,1.000000,1.000000,1.000000,1.000000,2.000000,125.000000,1.330000,107.992485,1.000000,1.000000,0.500000,10.000000,2.000000,300.000000,1.330000,150.000000,1.000000,200.000000,10.000000,10.000000,2.000000,5
/home/daniel/Projects/ppsEvolution/data/maps/custom_maps/Custom_2_Run_0_Map.csv,squared_error,0.030159924451862753,0.4662,0.3833,0.000000,1.000000,0.708256,1.000000,0.000000,0.000000,1.000000,2.000000,1.000000,0.997066,1.000000,1.000000,1.000000,1.000000,1.000000,2.000000,125.000000,1.330000,108.864036,1.000000,1.000000,0.500000,10.000000,2.000000,300.000000,1.328357,150.000000,1.000000,200.000000,10.000000,10.000000,2.000000,6
/home/daniel/Projects/ppsEvolution/data/maps/custom_maps/Custom_2_Run_0_Map.csv,squared_error,0.030188844053276105,0.4653,0.3833,0.000000,1.000000,0.502587,1.000000,0.000000,0.000000,1.000000,2.000000,0.615086,1.000000,1.000000,1.000000,1.000000,1.000000,1.000000,2.000000,125.000000,1.330000,79.864812,1.000000,1.000000,0.500000,10.000000,2.000000,232.640005,1.330000,150.000000,1.000000,200.000000,10.000000,10.000000,2.000000,7
/home/daniel/Projects/ppsEvolution/data/maps/custom_maps/Custom_2_Run_0_Map.csv,squared_error,0.03015992059088105,0.4621,0.3827,0.000000,1.000000,0.685654,1.000000,0.000000,0.000000,1.000000,2.000000,1.000000,1.000000,1.000000,1.000000,1.000000,1.000000,1.000000,2.000000,125.000000,1.330000,105.677282,1.000000,1.000000,0.500000,10.000000,2.000000,300.000000,1.330000,150.000000,1.000000,200.000000,10.000000,10.000000,2.000000,8
/home/daniel/Projects/ppsEvolution/data/maps/custom_maps/Custom_2_Run_0_Map.csv,squared_error,0.030166221286322063,0.4644,0.3830,0.000000,1.000000,0.638221,1.000000,0.000000,0.000000,1.000000,2.000000,0.884074,1.000000,1.000000,1.000000,1.000000,1.000000,1.000000,2.000000,125.000000,1.330000,98.989166,1.000000,1.000000,0.500000,10.000000,2.000000,279.712891,1.330000,150.000000,1.000000,200.000000,10.000000,10.000000,2.000000,9
map,fitness,fitness value,team0ratio,time,HP,Speed,Damage,Acc,ClipSize,RateOfFire,NrBullets,Range,HP,Speed,Damage,Acc,ClipSize,RateOfFire,NrBullets,Range,HP,Speed,Damage,Acc,ClipSize,RateOfFire,NrBullets,Range,HP,Speed,Damage,Acc,ClipSize,RateOfFire,NrBullets,Range,Run,target team0ratio: 0.5,target time: 0.14
/home/daniel/Projects/ppsEvolution/data/maps/custom_maps/Custom_3_Run_0_Map.csv,squared_error,0.0540534916427244,0.5294,0.4675,0.000000,1.000000,1.000000,0.978855,0.000000,0.000000,1.000000,2.000000,0.000000,0.000000,1.000000,1.000000,1.000000,0.000000,1.000000,2.000000,125.000000,1.330000,150.000000,0.978855,1.000000,0.500000,10.000000,2.000000,125.000000,0.770000,150.000000,1.000000,200.000000,0.500000,10.000000,2.000000,0
/home/daniel/Projects/ppsEvolution/data/maps/custom_maps/Custom_3_Run_0_Map.csv,squared_error,0.05405040373302365,0.5279,0.4676,0.000000,1.000000,1.000000,0.978071,0.000000,0.000000,1.000000,2.000000,0.000000,0.000000,1.000000,1.000000,1.000000,0.000000,1.000000,2.000000,125.000000,1.330000,150.000000,0.978071,1.000000,0.500000,10.000000,2.000000,125.000000,0.770000,150.000000,1.000000,200.000000,0.500000,10.000000,2.000000,1
/home/daniel/Projects/ppsEvolution/data/maps/custom_maps/Custom_3_Run_0_Map.csv,squared_error,0.05407668632059352,0.5341,0.4671,0.000000,1.000000,1.000000,0.981375,0.000000,0.000000,1.000000,2.000000,0.000000,0.000000,1.000000,1.000000,1.000000,0.000000,1.000000,2.000000,125.000000,1.330000,150.000000,0.981375,1.000000,0.500000,10.000000,2.000000,125.000000,0.770000,150.000000,1.000000,200.000000,0.500000,10.000000,2.000000,2
/home/daniel/Projects/ppsEvolution/data/maps/custom_maps/Custom_3_Run_0_Map.csv,squared_error,0.054049314022339034,0.5260,0.4678,0.000000,1.000000,1.000000,0.977065,0.000000,0.000000,1.000000,2.000000,0.000000,0.000000,1.000000,1.000000,1.000000,0.000000,1.000000,2.000000,125.000000,1.330000,150.000000,0.977065,1.000000,0.500000,10.000000,2.000000,125.000000,0.770000,150.000000,1.000000,200.000000,0.500000,10.000000,2.000000,3
/home/daniel/Projects/ppsEvolution/data/maps/custom_maps/Custom_3_Run_0_Map.csv,squared_error,0.05406890817648555,0.5197,0.4683,0.000000,1.000000,1.000000,0.973731,0.000000,0.000000,1.000000,2.000000,0.000000,0.000000,1.000000,1.000000,1.000000,0.000000,1.000000,2.000000,125.000000,1.330000,150.000000,0.973731,1.000000,0.500000,10.000000,2.000000,125.000000,0.770000,150.000000,1.000000,200.000000,0.500000,10.000000,2.000000,4
/home/daniel/Projects/ppsEvolution/data/maps/custom_maps/Custom_3_Run_0_Map.csv,squared_error,0.05405050461466897,0.5280,0.4676,0.000000,1.000000,1.000000,0.978109,0.000000,0.000000,1.000000,2.000000,0.000000,0.000000,1.000000,1.000000,1.000000,0.000000,1.000000,2.000000,125.000000,1.330000,150.000000,0.978109,1.000000,0.500000,10.000000,2.000000,125.000000,0.770000,150.000000,1.000000,200.000000,0.500000,10.000000,2.000000,5
/home/daniel/Projects/ppsEvolution/data/maps/custom_maps/Custom_3_Run_0_Map.csv,squared_error,0.0540494284596578,0.5269,0.4677,0.000000,1.000000,1.000000,0.977541,0.000000,0.000000,1.000000,2.000000,0.000000,0.000000,1.000000,1.000000,1.000000,0.000000,1.000000,2.000000,125.000000,1.330000,150.000000,0.977541,1.000000,0.500000,10.000000,2.000000,125.000000,0.770000,150.000000,1.000000,200.000000,0.500000,10.000000,2.000000,6
/home/daniel/Projects/ppsEvolution/data/maps/custom_maps/Custom_3_Run_0_Map.csv,squared_error,0.054050895733699804,0.5244,0.4679,0.000000,1.000000,1.000000,0.976220,0.000000,0.000000,1.000000,2.000000,0.000000,0.000000,1.000000,1.000000,1.000000,0.000000,1.000000,2.000000,125.000000,1.330000,150.000000,0.976220,1.000000,0.500000,10.000000,2.000000,125.000000,0.770000,150.000000,1.000000,200.000000,0.500000,10.000000,2.000000,7
/home/daniel/Projects/ppsEvolution/data/maps/custom_maps/Custom_3_Run_0_Map.csv,squared_error,0.05404938563585108,0.5258,0.4678,0.000000,1.000000,1.000000,0.976961,0.000000,0.000000,1.000000,2.000000,0.000000,0.000000,1.000000,1.000000,1.000000,0.000000,1.000000,2.000000,125.000000,1.330000,150.000000,0.976961,1.000000,0.500000,10.000000,2.000000,125.000000,0.770000,150.000000,1.000000,200.000000,0.500000,10.000000,2.000000,8
/home/daniel/Projects/ppsEvolution/data/maps/custom_maps/Custom_3_Run_0_Map.csv,squared_error,0.05405996777781444,0.5312,0.4673,0.000000,1.000000,1.000000,0.979817,0.000000,0.000000,1.000000,2.000000,0.000000,0.000000,1.000000,1.000000,1.000000,0.000000,1.000000,2.000000,125.000000,1.330000,150.000000,0.979817,1.000000,0.500000,10.000000,2.000000,125.000000,0.770000,150.000000,1.000000,200.000000,0.500000,10.000000,2.000000,9
map,fitness,fitness value,team0ratio,time,HP,Speed,Damage,Acc,ClipSize,RateOfFire,NrBullets,Range,HP,Speed,Damage,Acc,ClipSize,RateOfFire,NrBullets,Range,HP,Speed,Damage,Acc,ClipSize,RateOfFire,NrBullets,Range,HP,Speed,Damage,Acc,ClipSize,RateOfFire,NrBullets,Range,Run,target team0ratio: 0.5,target time: 0.14
/home/daniel/Projects/ppsEvolution/data/maps/custom_maps/Custom_4_Run_0_Map.csv,squared_error,0.0013130225890816177,0.4978,0.1912,0.000000,1.000000,1.000000,0.973629,0.000000,0.000000,1.000000,2.000000,0.000000,0.000000,1.000000,1.000000,1.000000,0.039023,0.996943,2.000000,125.000000,1.330000,150.000000,0.973629,1.000000,0.500000,10.000000,2.000000,125.000000,0.770000,150.000000,1.000000,200.000000,0.870720,9.972485,2.000000,0
/home/daniel/Projects/ppsEvolution/data/maps/custom_maps/Custom_4_Run_0_Map.csv,squared_error,0.0014030895592738086,0.5048,0.1928,0.000000,0.867400,0.959902,1.000000,0.000000,0.000000,1.000000,2.000000,0.387874,0.000000,1.000000,1.000000,1.000000,0.000000,0.997536,2.000000,125.000000,1.255744,144.346127,1.000000,1.000000,0.500000,10.000000,2.000000,192.877892,0.770000,150.000000,1.000000,200.000000,0.500000,9.977826,2.000000,1
/home/daniel/Projects/ppsEvolution/data/maps/custom_maps/Custom_4_Run_0_Map.csv,squared_error,0.0013926952528683495,0.5012,0.1928,0.000180,1.000000,0.829575,1.000000,0.000000,0.000000,1.000000,2.000000,0.229451,0.000000,1.000000,1.000000,0.965010,0.049931,1.000000,2.000000,125.031531,1.330000,125.970064,1.000000,1.000000,0.500000,10.000000,2.000000,165.153918,0.770000,150.000000,1.000000,193.037081,0.974342,10.000000,2.000000,2
/home/daniel/Projects/ppsEvolution/data/maps/custom_maps/Custom_4_Run_0_Map.csv,squared_error,0.0014327963165546714,0.5075,0.1930,0.000000,0.914882,1.000000,1.000000,0.000000,0.000000,1.000000,2.000000,0.380549,0.000000,1.000000,1.000000,1.000000,0.007041,0.673086,2.000000,125.000000,1.282334,150.000000,1.000000,1.000000,0.500000,10.000000,2.000000,191.596138,0.770000,150.000000,1.000000,200.000000,0.566891,7.057773,2.000000,3
/home/daniel/Projects/ppsEvolution/data/maps/custom_maps/Custom_4_Run_0_Map.csv,squared_error,0.0013502479186806222,0.5034,0.1919,0.000000,1.000000,0.714104,1.000000,0.000000,0.000000,1.000000,2.000000,0.000000,0.000000,1.000000,1.000000,1.000000,0.000000,1.000000,2.000000,125.000000,1.330000,109.688665,1.000000,1.000000,0.500000,10.000000,2.000000,125.000000,0.770000,150.000000,1.000000,200.000000,0.500000,10.000000,2.000000,4
/home/daniel/Projects/ppsEvolution/data/maps/custom_maps/Custom_4_Run_0_Map.csv,squared_error,0.0014090460998976435,0.5050,0.1928,0.000000,0.819245,0.927023,1.000000,0.014424,0.000000,1.000000,2.000000,0.330052,0.000000,1.000000,1.000000,1.000000,0.032536,0.928667,2.000000,125.000000,1.228777,139.710244,1.000000,3.870396,0.500000,10.000000,2.000000,182.759125,0.770000,150.000000,1.000000,200.000000,0.809093,9.358003,2.000000,5
/home/daniel/Projects/ppsEvolution/data/maps/custom_maps/Custom_4_Run_0_Map.csv,squared_error,0.0016451983929936403,0.4983,0.1973,0.000000,0.961697,1.000000,0.945865,0.000000,0.000000,1.000000,2.000000,0.000000,0.077298,0.603150,1.000000,1.000000,0.772044,1.000000,2.000000,125.000000,1.308550,150.000000,0.945865,1.000000,0.500000,10.000000,2.000000,125.000000,0.813287,94.044209,1.000000,200.000000,7.834422,10.000000,2.000000,6
/home/daniel/Projects/ppsEvolution/data/maps/custom_maps/Custom_4_Run_0_Map.csv,squared_error,0.0014099949916602434,0.5064,0.1927,0.000000,0.986646,1.000000,1.000000,0.000000,0.000000,1.000000,2.000000,0.438254,0.000000,1.000000,1.000000,1.000000,0.000000,1.000000,2.000000,125.000000,1.322522,150.000000,1.000000,1.000000,0.500000,10.000000,2.000000,201.694497,0.770000,150.000000,1.000000,200.000000,0.500000,10.000000,2.000000,7
/home/daniel/Projects/ppsEvolution/data/maps/custom_maps/Custom_4_Run_0_Map.csv,squared_error,0.0014010793190840681,0.5052,0.1927,0.000000,1.000000,0.987989,0.997660,0.000301,0.023419,1.000000,2.000000,0.373894,0.000000,1.000000,1.000000,0.969844,0.000000,0.941007,2.000000,125.000000,1.330000,148.306503,0.997660,1.059849,0.722484,10.000000,2.000000,190.431391,0.770000,150.000000,1.000000,193.999002,0.500000,9.469063,2.000000,8
/home/daniel/Projects/ppsEvolution/data/maps/custom_maps/Custom_4_Run_0_Map.csv,squared_error,0.0013560574299971279,0.5010,0.1921,0.000000,1.000000,0.697535,1.000000,0.000000,0.000000,1.000000,2.000000,0.000000,0.000000,1.000000,1.000000,1.000000,0.024452,1.000000,2.000000,125.000000,1.330000,107.352399,1.000000,1.000000,0.500000,10.000000,2.000000,125.000000,0.770000,150.000000,1.000000,200.000000,0.732291,10.000000,2.000000,9
map,fitness,fitness value,team0ratio,time,HP,Speed,Damage,Acc,ClipSize,RateOfFire,NrBullets,Range,HP,Speed,Damage,Acc,ClipSize,RateOfFire,NrBullets,Range,HP,Speed,Damage,Acc,ClipSize,RateOfFire,NrBullets,Range,HP,Speed,Damage,Acc,ClipSize,RateOfFire,NrBullets,Range,Run,target team0ratio: 0.5,target time: 0.14
/home/daniel/Projects/ppsEvolution/data/maps/custom_maps/Custom_5_Run_0_Map.csv,squared_error,0.010184188512625644,0.5156,0.2819,0.000000,0.709818,1.000000,0.975758,0.000000,0.248357,1.000000,2.000000,0.000000,0.000000,1.000000,1.000000,1.000000,0.000000,1.000000,2.000000,125.000000,1.167498,150.000000,0.975758,1.000000,2.859393,10.000000,2.000000,125.000000,0.770000,150.000000,1.000000,200.000000,0.500000,10.000000,2.000000,0
/home/daniel/Projects/ppsEvolution/data/maps/custom_maps/Custom_5_Run_0_Map.csv,squared_error,0.010142796727795632,0.5157,0.2816,0.000090,0.260836,1.000000,0.977634,0.000000,0.779247,1.000000,2.000000,0.000000,0.000324,1.000000,1.000000,1.000000,0.000000,1.000000,2.000000,125.015738,0.916068,150.000000,0.977634,1.000000,7.902844,10.000000,2.000000,125.000000,0.770181,150.000000,1.000000,200.000000,0.500000,10.000000,2.000000,1
/home/daniel/Projects/ppsEvolution/data/maps/custom_maps/Custom_5_Run_0_Map.csv,squared_error,0.01015574501365154,0.5173,0.2815,0.000000,0.002861,1.000000,0.978535,0.000000,0.408281,1.000000,2.000000,0.000000,0.000000,1.000000,1.000000,1.000000,0.000000,1.000000,2.000000,125.000000,0.771602,150.000000,0.978535,1.000000,4.378670,10.000000,2.000000,125.000000,0.770000,150.000000,1.000000,200.000000,0.500000,10.000000,2.000000,2
/home/daniel/Projects/ppsEvolution/data/maps/custom_maps/Custom_5_Run_0_Map.csv,squared_error,0.010117105613560285,0.5172,0.2812,0.000000,0.000000,1.000000,0.979379,0.000000,1.000000,1.000000,2.000000,0.000000,0.000000,1.000000,1.000000,1.000000,0.000000,1.000000,2.000000,125.000000,0.770000,150.000000,0.979379,1.000000,10.000000,10.000000,2.000000,125.000000,0.770000,150.000000,1.000000,200.000000,0.500000,10.000000,2.000000,3
/home/daniel/Projects/ppsEvolution/data/maps/custom_maps/Custom_5_Run_0_Map.csv,squared_error,0.010147220873842741,0.5150,0.2817,0.000000,0.729066,1.000000,0.976497,0.000000,1.000000,1.000000,2.000000,0.000000,0.000000,1.000000,1.000000,1.000000,0.000000,1.000000,2.000000,125.000000,1.178277,150.000000,0.976497,1.000000,10.000000,10.000000,2.000000,125.000000,0.770000,150.000000,1.000000,200.000000,0.500000,10.000000,2.000000,4
/home/daniel/Projects/ppsEvolution/data/maps/custom_maps/Custom_5_Run_0_Map.csv,squared_error,0.01026453030095847,0.5129,0.2827,0.195061,0.706186,1.000000,0.967584,0.000000,0.393008,1.000000,2.000000,0.000000,0.000000,1.000000,1.000000,1.000000,0.000000,1.000000,2.000000,159.135720,1.165464,150.000000,0.967584,1.000000,4.233572,10.000000,2.000000,125.000000,0.770000,150.000000,1.000000,200.000000,0.500000,10.000000,2.000000,5
/home/daniel/Projects/ppsEvolution/data/maps/custom_maps/Custom_5_Run_0_Map.csv,squared_error,0.010152961100858964,0.5211,0.2809,0.000000,0.393071,1.000000,0.980157,0.000000,0.747700,1.000000,2.000000,0.000000,0.000000,1.000000,1.000000,1.000000,0.000000,1.000000,2.000000,125.000000,0.990120,150.000000,0.980157,1.000000,7.603146,10.000000,2.000000,125.000000,0.770000,150.000000,1.000000,200.000000,0.500000,10.000000,2.000000,6
/home/daniel/Projects/ppsEvolution/data/maps/custom_maps/Custom_5_Run_0_Map.csv,squared_error,0.010186695368391797,0.5192,0.2814,0.000000,0.939275,1.000000,0.977295,0.000000,0.366848,1.000000,2.000000,0.000000,0.000000,1.000000,1.000000,1.000000,0.000000,1.000000,2.000000,125.000000,1.295994,150.000000,0.977295,1.000000,3.985061,10.000000,2.000000,125.000000,0.770000,150.000000,1.000000,200.000000,0.500000,10.000000,2.000000,7
/home/daniel/Projects/ppsEvolution/data/maps/custom_maps/Custom_5_Run_0_Map.csv,squared_error,0.010118387308302394,0.5164,0.2813,0.000000,0.012617,1.000000,0.978921,0.000000,1.000000,1.000000,2.000000,0.000000,0.000000,1.000000,1.000000,1.000000,0.000000,1.000000,2.000000,125.000000,0.777065,150.000000,0.978921,1.000000,10.000000,10.000000,2.000000,125.000000,0.770000,150.000000,1.000000,200.000000,0.500000,10.000000,2.000000,8
/home/daniel/Projects/ppsEvolution/data/maps/custom_maps/Custom_5_Run_0_Map.csv,squared_error,0.01013778037702916,0.5141,0.2817,0.000000,0.395439,1.000000,0.976812,0.000000,1.000000,1.000000,2.000000,0.000000,0.000000,1.000000,1.000000,1.000000,0.000000,1.000000,2.000000,125.000000,0.991446,150.000000,0.976812,1.000000,10.000000,10.000000,2.000000,125.000000,0.770000,150.000000,1.000000,200.000000,0.500000,10.000000,2.000000,9
map,fitness,fitness value,team0ratio,time,HP,Speed,Damage,Acc,ClipSize,RateOfFire,NrBullets,Range,HP,Speed,Damage,Acc,ClipSize,RateOfFire,NrBullets,Range,HP,Speed,Damage,Acc,ClipSize,RateOfFire,NrBullets,Range,HP,Speed,Damage,Acc,ClipSize,RateOfFire,NrBullets,Range,Run,target team0ratio: 0.5,target time: 0.14
/home/daniel/Projects/ppsEvolution/data/maps/custom_maps/Custom_6_Run_0_Map.csv,squared_error,0.056413772005190425,0.3986,0.4602,0.000000,1.000000,0.000000,1.000000,0.000000,0.000000,0.000000,2.000000,1.000000,1.000000,1.000000,0.969015,1.000000,1.000000,1.000000,2.000000,125.000000,1.330000,9.000000,1.000000,1.000000,0.500000,1.000000,2.000000,300.000000,1.330000,150.000000,0.969015,200.000000,10.000000,10.000000,2.000000,0
/home/daniel/Projects/ppsEvolution/data/maps/custom_maps/Custom_6_Run_0_Map.csv,squared_error,0.056417022594306775,0.3971,0.4598,0.032022,1.000000,0.000000,1.000000,0.000000,0.000000,0.000000,2.000000,1.000000,1.000000,1.000000,0.973919,1.000000,1.000000,1.000000,2.000000,130.603803,1.330000,9.000000,1.000000,1.000000,0.500000,1.000000,2.000000,300.000000,1.330000,150.000000,0.973919,200.000000,10.000000,10.000000,2.000000,1
/home/daniel/Projects/ppsEvolution/data/maps/custom_maps/Custom_6_Run_0_Map.csv,squared_error,0.05642008959512949,0.3952,0.4592,0.031958,1.000000,0.000000,1.000000,0.000000,0.000000,0.000000,2.000000,1.000000,1.000000,1.000000,0.975829,1.000000,1.000000,1.000000,2.000000,130.592610,1.330000,9.000000,1.000000,1.000000,0.500000,1.000000,2.000000,300.000000,1.330000,150.000000,0.975829,200.000000,10.000000,10.000000,2.000000,2
/home/daniel/Projects/ppsEvolution/data/maps/custom_maps/Custom_6_Run_0_Map.csv,squared_error,0.056412842382916495,0.3981,0.4601,0.000000,1.000000,0.000000,1.000000,0.000000,0.000000,0.000000,2.000000,1.000000,1.000000,1.000000,0.969543,1.000000,1.000000,1.000000,2.000000,125.000000,1.330000,9.000000,1.000000,1.000000,0.500000,1.000000,2.000000,300.000000,1.330000,150.000000,0.969543,200.000000,10.000000,10.000000,2.000000,3
/home/daniel/Projects/ppsEvolution/data/maps/custom_maps/Custom_6_Run_0_Map.csv,squared_error,0.05641950217192476,0.3998,0.4606,0.000000,1.000000,0.000000,1.000000,0.000000,0.000000,0.000000,2.000000,1.000000,0.988895,1.000000,0.967700,1.000000,1.000000,1.000000,2.000000,125.000000,1.330000,9.000000,1.000000,1.000000,0.500000,1.000000,2.000000,300.000000,1.323781,150.000000,0.967700,200.000000,10.000000,10.000000,2.000000,4
/home/daniel/Projects/ppsEvolution/data/maps/custom_maps/Custom_6_Run_0_Map.csv,squared_error,0.05641173381142463,0.3967,0.4596,0.000000,1.000000,0.000000,1.000000,0.000000,0.000000,0.000000,2.000000,1.000000,1.000000,1.000000,0.971015,1.000000,1.000000,1.000000,2.000000,125.000000,1.330000,9.000000,1.000000,1.000000,0.500000,1.000000,2.000000,300.000000,1.330000,150.000000,0.971015,200.000000,10.000000,10.000000,2.000000,5
/home/daniel/Projects/ppsEvolution/data/maps/custom_maps/Custom_6_Run_0_Map.csv,squared_error,0.056413088442050466,0.3982,0.4601,0.000000,1.000000,0.000000,1.000000,0.000000,0.000000,0.000000,2.000000,1.000000,1.000000,1.000000,0.969382,1.000000,1.000000,1.000000,2.000000,125.000000,1.330000,9.000000,1.000000,1.000000,0.500000,1.000000,2.000000,300.000000,1.330000,150.000000,0.969382,200.000000,10.000000,10.000000,2.000000,6
/home/daniel/Projects/ppsEvolution/data/maps/custom_maps/Custom_6_Run_0_Map.csv,squared_error,0.05643636894257809,0.4017,0.4613,0.000000,1.000000,0.000000,1.000000,0.000000,0.000000,0.000000,2.000000,1.000000,0.948234,1.000000,0.965569,1.000000,1.000000,1.000000,2.000000,125.000000,1.330000,9.000000,1.000000,1.000000,0.500000,1.000000,2.000000,300.000000,1.301011,150.000000,0.965569,200.000000,10.000000,10.000000,2.000000,7
/home/daniel/Projects/ppsEvolution/data/maps/custom_maps/Custom_6_Run_0_Map.csv,squared_error,0.056414510206233476,0.3958,0.4593,0.014520,1.000000,0.000000,1.000000,0.000000,0.000000,0.000000,2.000000,1.000000,1.000000,1.000000,0.973447,1.000000,1.000000,1.000000,2.000000,127.541056,1.330000,9.000000,1.000000,1.000000,0.500000,1.000000,2.000000,300.000000,1.330000,150.000000,0.973447,200.000000,10.000000,10.000000,2.000000,8
/home/daniel/Projects/ppsEvolution/data/maps/custom_maps/Custom_6_Run_0_Map.csv,squared_error,0.05641487032253781,0.3991,0.4604,0.000000,1.000000,0.000000,1.000000,0.000000,0.000000,0.000000,2.000000,1.000000,1.000000,1.000000,0.968543,1.000000,1.000000,1.000000,2.000000,125.000000,1.330000,9.000000,1.000000,1.000000,0.500000,1.000000,2.000000,300.000000,1.330000,150.000000,0.968543,200.000000,10.000000,10.000000,2.000000,9
map,fitness,fitness value,team0ratio,time,HP,Speed,Damage,Acc,ClipSize,RateOfFire,NrBullets,Range,HP,Speed,Damage,Acc,ClipSize,RateOfFire,NrBullets,Range,HP,Speed,Damage,Acc,ClipSize,RateOfFire,NrBullets,Range,HP,Speed,Damage,Acc,ClipSize,RateOfFire,NrBullets,Range,Run,target team0ratio: 0.5,target time: 0.14
/home/daniel/Projects/ppsEvolution/data/maps/custom_maps/Custom_7_Run_0_Map.csv,squared_error,0.016230244434930683,0.4833,0.3194,0.000000,1.000000,0.554515,1.000000,0.000000,0.000000,1.000000,2.000000,0.551545,0.000000,1.000000,1.000000,1.000000,1.000000,1.000000,2.000000,125.000000,1.330000,87.186682,1.000000,1.000000,0.500000,10.000000,2.000000,221.520403,0.770000,150.000000,1.000000,200.000000,10.000000,10.000000,2.000000,0
/home/daniel/Projects/ppsEvolution/data/maps/custom_maps/Custom_7_Run_0_Map.csv,squared_error,0.01626138554941517,0.4812,0.3194,0.000000,1.000000,0.677295,1.000000,0.000000,0.000000,1.000000,2.000000,0.795079,0.000000,1.000000,1.000000,1.000000,1.000000,1.000000,2.000000,125.000000,1.330000,104.498532,1.000000,1.000000,0.500000,10.000000,2.000000,264.138845,0.770000,150.000000,1.000000,200.000000,10.000000,10.000000,2.000000,1
/home/daniel/Projects/ppsEvolution/data/maps/custom_maps/Custom_7_Run_0_Map.csv,squared_error,0.016250968087632718,0.4835,0.3195,0.000000,1.000000,0.625907,1.000000,0.000000,0.000000,0.998845,2.000000,0.680698,0.000000,1.000000,1.000000,0.992877,1.000000,1.000000,2.000000,125.000000,1.330000,97.252908,1.000000,1.000000,0.500000,9.989605,2.000000,244.122083,0.770000,150.000000,1.000000,198.582548,10.000000,10.000000,2.000000,2
/home/daniel/Projects/ppsEvolution/data/maps/custom_maps/Custom_7_Run_0_Map.csv,squared_error,0.01625808852763281,0.4830,0.3195,0.000000,1.000000,0.667350,1.000000,0.000000,0.000000,1.000000,2.000000,0.761620,0.000000,1.000000,1.000000,1.000000,1.000000,1.000000,2.000000,125.000000,1.330000,103.096339,1.000000,1.000000,0.500000,10.000000,2.000000,258.283554,0.770000,150.000000,1.000000,200.000000,10.000000,10.000000,2.000000,3
/home/daniel/Projects/ppsEvolution/data/maps/custom_maps/Custom_7_Run_0_Map.csv,squared_error,0.016210420793825755,0.4829,0.3192,0.000000,1.000000,0.473265,1.000000,0.000000,0.000000,1.000000,2.000000,0.405647,0.000000,1.000000,1.000000,1.000000,1.000000,1.000000,2.000000,125.000000,1.330000,75.730426,1.000000,1.000000,0.500000,10.000000,2.000000,195.988179,0.770000,150.000000,1.000000,200.000000,10.000000,10.000000,2.000000,4
/home/daniel/Projects/ppsEvolution/data/maps/custom_maps/Custom_7_Run_0_Map.csv,squared_error,0.016253283947960277,0.4846,0.3196,0.000000,1.000000,0.641692,1.000000,0.000000,0.000000,1.000000,2.000000,0.700575,0.000000,1.000000,1.000000,1.000000,1.000000,1.000000,2.000000,125.000000,1.330000,99.478632,1.000000,1.000000,0.500000,10.000000,2.000000,247.600673,0.770000,150.000000,1.000000,200.000000,10.000000,10.000000,2.000000,5
/home/daniel/Projects/ppsEvolution/data/maps/custom_maps/Custom_7_Run_0_Map.csv,squared_error,0.01624643426948324,0.4815,0.3193,0.000000,1.000000,0.617753,1.000000,0.000000,0.000000,1.000000,2.000000,0.682419,0.000000,1.000000,1.000000,1.000000,1.000000,1.000000,2.000000,125.000000,1.330000,96.103205,1.000000,1.000000,0.500000,10.000000,2.000000,244.423287,0.770000,150.000000,1.000000,200.000000,10.000000,10.000000,2.000000,6
/home/daniel/Projects/ppsEvolution/data/maps/custom_maps/Custom_7_Run_0_Map.csv,squared_error,0.016695576436269156,0.4760,0.3212,0.000000,1.000000,0.353662,1.000000,0.000000,0.000000,1.000000,2.000000,0.763383,0.000000,1.000000,0.959488,1.000000,1.000000,1.000000,2.000000,125.000000,1.330000,58.866315,1.000000,1.000000,0.500000,10.000000,2.000000,258.592029,0.770000,150.000000,0.959488,200.000000,10.000000,10.000000,2.000000,7
/home/daniel/Projects/ppsEvolution/data/maps/custom_maps/Custom_7_Run_0_Map.csv,squared_error,0.01622854144532897,0.4831,0.3194,0.000000,1.000000,0.547890,1.000000,0.000000,0.000000,1.000000,2.000000,0.540820,0.000000,1.000000,1.000000,1.000000,1.000000,1.000000,2.000000,125.000000,1.330000,86.252455,1.000000,1.000000,0.500000,10.000000,2.000000,219.643424,0.770000,150.000000,1.000000,200.000000,10.000000,10.000000,2.000000,8
/home/daniel/Projects/ppsEvolution/data/maps/custom_maps/Custom_7_Run_0_Map.csv,squared_error,0.016236958413778927,0.4788,0.3190,0.000000,1.000000,0.554628,1.000000,0.000000,0.000000,1.000000,2.000000,0.589245,0.000000,1.000000,1.000000,1.000000,1.000000,1.000000,2.000000,125.000000,1.330000,87.202581,1.000000,1.000000,0.500000,10.000000,2.000000,228.117905,0.770000,150.000000,1.000000,200.000000,10.000000,10.000000,2.000000,9
map,fitness,fitness value,team0ratio,time,HP,Speed,Damage,Acc,ClipSize,RateOfFire,NrBullets,Range,HP,Speed,Damage,Acc,ClipSize,RateOfFire,NrBullets,Range,HP,Speed,Damage,Acc,ClipSize,RateOfFire,NrBullets,Range,HP,Speed,Damage,Acc,ClipSize,RateOfFire,NrBullets,Range,Run,target team0ratio: 0.5,target time: 0.14
/home/daniel/Projects/ppsEvolution/data/maps/custom_maps/Custom_8_Run_0_Map.csv,squared_error,0.002590754360638562,0.5009,0.2120,0.000000,1.000000,0.598405,1.000000,0.000000,0.000000,1.000000,2.000000,0.000000,0.000000,1.000000,1.000000,1.000000,0.000000,1.000000,2.000000,125.000000,1.330000,93.375096,1.000000,1.000000,0.500000,10.000000,2.000000,125.000000,0.770000,150.000000,1.000000,200.000000,0.500000,10.000000,2.000000,0
/home/daniel/Projects/ppsEvolution/data/maps/custom_maps/Custom_8_Run_0_Map.csv,squared_error,0.002663019048554135,0.5034,0.2129,0.000000,0.941826,0.796507,1.000000,0.000000,0.000000,1.000000,2.000000,0.324585,0.000000,1.000000,1.000000,1.000000,0.000000,1.000000,2.000000,125.000000,1.297422,121.307468,1.000000,1.000000,0.500000,10.000000,2.000000,181.802384,0.770000,150.000000,1.000000,200.000000,0.500000,10.000000,2.000000,1
/home/daniel/Projects/ppsEvolution/data/maps/custom_maps/Custom_8_Run_0_Map.csv,squared_error,0.0026460783078298303,0.5070,0.2124,0.000000,1.000000,0.757095,1.000000,0.000000,0.000000,1.000000,2.000000,0.224689,0.005891,1.000000,1.000000,1.000000,0.000000,0.991380,2.000000,125.000000,1.330000,115.750380,1.000000,1.000000,0.500000,10.000000,2.000000,164.320575,0.773299,150.000000,1.000000,200.000000,0.500000,9.922419,2.000000,2
/home/daniel/Projects/ppsEvolution/data/maps/custom_maps/Custom_8_Run_0_Map.csv,squared_error,0.0025944129608022185,0.4997,0.2120,0.000000,1.000000,0.592320,1.000000,0.000000,0.000000,1.000000,2.000000,0.000000,0.000000,1.000000,1.000000,1.000000,0.000000,1.000000,2.000000,125.000000,1.330000,92.517065,1.000000,1.000000,0.500000,10.000000,2.000000,125.000000,0.770000,150.000000,1.000000,200.000000,0.500000,10.000000,2.000000,3
/home/daniel/Projects/ppsEvolution/data/maps/custom_maps/Custom_8_Run_0_Map.csv,squared_error,0.002599812942592123,0.5062,0.2118,0.000000,0.873989,0.625901,1.000000,0.000467,0.000000,1.000000,2.000000,0.000000,0.000000,1.000000,1.000000,0.968976,0.000000,1.000000,2.000000,125.000000,1.259434,97.252073,1.000000,1.092834,0.500000,10.000000,2.000000,125.000000,0.770000,150.000000,1.000000,193.826191,0.500000,10.000000,2.000000,4
/home/daniel/Projects/ppsEvolution/data/maps/custom_maps/Custom_8_Run_0_Map.csv,squared_error,0.002589234344938908,0.5022,0.2119,0.000000,1.000000,0.605773,1.000000,0.000000,0.000000,1.000000,2.000000,0.002527,0.000000,1.000000,1.000000,1.000000,0.000000,1.000000,2.000000,125.000000,1.330000,94.414051,1.000000,1.000000,0.500000,10.000000,2.000000,125.442226,0.770000,150.000000,1.000000,200.000000,0.500000,10.000000,2.000000,5
/home/daniel/Projects/ppsEvolution/data/maps/custom_maps/Custom_8_Run_0_Map.csv,squared_error,0.0025606276472108416,0.5006,0.2116,0.000000,1.000000,1.000000,0.967468,0.000000,0.000000,1.000000,2.000000,0.000000,0.000000,1.000000,1.000000,1.000000,0.000000,1.000000,2.000000,125.000000,1.330000,150.000000,0.967468,1.000000,0.500000,10.000000,2.000000,125.000000,0.770000,150.000000,1.000000,200.000000,0.500000,10.000000,2.000000,6
/home/daniel/Projects/ppsEvolution/data/maps/custom_maps/Custom_8_Run_0_Map.csv,squared_error,0.002588084794768667,0.5037,0.2118,0.000000,1.000000,0.611913,1.000000,0.000000,0.000000,1.000000,2.000000,0.000000,0.000000,1.000000,1.000000,1.000000,0.000000,1.000000,2.000000,125.000000,1.330000,95.279712,1.000000,1.000000,0.500000,10.000000,2.000000,125.000000,0.770000,150.000000,1.000000,200.000000,0.500000,10.000000,2.000000,7
/home/daniel/Projects/ppsEvolution/data/maps/custom_maps/Custom_8_Run_0_Map.csv,squared_error,0.002635194398615072,0.5050,0.2124,0.000000,1.000000,0.736269,1.000000,0.000000,0.000000,1.000000,2.000000,0.207309,0.000000,1.000000,1.000000,1.000000,0.000000,1.000000,2.000000,125.000000,1.330000,112.813887,1.000000,1.000000,0.500000,10.000000,2.000000,161.279102,0.770000,150.000000,1.000000,200.000000,0.500000,10.000000,2.000000,8
/home/daniel/Projects/ppsEvolution/data/maps/custom_maps/Custom_8_Run_0_Map.csv,squared_error,0.002635087762936296,0.5060,0.2123,0.000000,0.972920,1.000000,0.983785,0.000000,0.000000,1.000000,2.000000,0.287429,0.000000,1.000000,1.000000,1.000000,0.000000,1.000000,2.000000,125.000000,1.314835,150.000000,0.983785,1.000000,0.500000,10.000000,2.000000,175.300056,0.770000,150.000000,1.000000,200.000000,0.500000,10.000000,2.000000,9
map,fitness,fitness value,team0ratio,time,HP,Speed,Damage,Acc,ClipSize,RateOfFire,NrBullets,Range,HP,Speed,Damage,Acc,ClipSize,RateOfFire,NrBullets,Range,HP,Speed,Damage,Acc,ClipSize,RateOfFire,NrBullets,Range,HP,Speed,Damage,Acc,ClipSize,RateOfFire,NrBullets,Range,Run,target team0ratio: 0.5,target time: 0.14
/home/daniel/Projects/ppsEvolution/data/maps/custom_maps/Custom_9_Run_0_Map.csv,squared_error,0.0009103014145332007,0.5047,0.1824,0.000000,1.000000,1.000000,0.952868,0.006858,0.000000,1.000000,2.000000,0.000000,0.025056,1.000000,1.000000,0.820923,0.347954,0.949179,2.000000,125.000000,1.330000,150.000000,0.952868,2.364777,0.500000,10.000000,2.000000,125.000000,0.784031,150.000000,1.000000,164.363591,3.805564,9.542608,2.000000,0
/home/daniel/Projects/ppsEvolution/data/maps/custom_maps/Custom_9_Run_0_Map.csv,squared_error,0.0009066234158763593,0.5015,0.1826,0.000000,0.817329,1.000000,0.951477,0.000000,0.000000,1.000000,2.000000,0.000000,0.000000,1.000000,1.000000,0.729634,0.357229,1.000000,2.000000,125.000000,1.227704,150.000000,0.951477,1.000000,0.500000,10.000000,2.000000,125.000000,0.770000,150.000000,1.000000,146.197141,3.893680,10.000000,2.000000,1
/home/daniel/Projects/ppsEvolution/data/maps/custom_maps/Custom_9_Run_0_Map.csv,squared_error,0.0009152506005701207,0.5026,0.1827,0.000000,0.758211,1.000000,0.960855,0.000000,0.000000,1.000000,2.000000,0.122997,0.049936,1.000000,1.000000,0.681632,0.105987,1.000000,2.000000,125.000000,1.194598,150.000000,0.960855,1.000000,0.500000,10.000000,2.000000,146.524397,0.797964,150.000000,1.000000,136.644819,1.506874,10.000000,2.000000,2
/home/daniel/Projects/ppsEvolution/data/maps/custom_maps/Custom_9_Run_0_Map.csv,squared_error,0.0010466558043161762,0.5029,0.1857,0.000000,0.111595,0.693740,1.000000,0.000000,0.000000,1.000000,2.000000,0.445173,0.041996,1.000000,1.000000,1.000000,0.000000,1.000000,2.000000,125.000000,0.832493,106.817319,1.000000,1.000000,0.500000,10.000000,2.000000,202.905285,0.793518,150.000000,1.000000,200.000000,0.500000,10.000000,2.000000,3
/home/daniel/Projects/ppsEvolution/data/maps/custom_maps/Custom_9_Run_0_Map.csv,squared_error,0.0009804879717652067,0.5040,0.1841,0.000000,1.000000,0.459574,1.000000,0.000000,0.000000,1.000000,2.000000,0.037239,0.000000,1.000000,1.000000,1.000000,0.000000,1.000000,2.000000,125.000000,1.330000,73.799889,1.000000,1.000000,0.500000,10.000000,2.000000,131.516833,0.770000,150.000000,1.000000,200.000000,0.500000,10.000000,2.000000,4
/home/daniel/Projects/ppsEvolution/data/maps/custom_maps/Custom_9_Run_0_Map.csv,squared_error,0.0009585246695865686,0.5043,0.1836,0.000000,0.941227,0.788151,0.981290,0.000000,0.000000,1.000000,2.000000,0.197883,0.000000,1.000000,1.000000,1.000000,0.000000,1.000000,2.000000,125.000000,1.297087,120.129291,0.981290,1.000000,0.500000,10.000000,2.000000,159.629441,0.770000,150.000000,1.000000,200.000000,0.500000,10.000000,2.000000,5
/home/daniel/Projects/ppsEvolution/data/maps/custom_maps/Custom_9_Run_0_Map.csv,squared_error,0.001015546783833829,0.5029,0.1850,0.000000,1.000000,0.654270,0.997926,0.000000,0.000000,1.000000,2.000000,0.350027,0.000000,1.000000,1.000000,1.000000,0.000000,1.000000,2.000000,125.000000,1.330000,101.252120,0.997926,1.000000,0.500000,10.000000,2.000000,186.254741,0.770000,150.000000,1.000000,200.000000,0.500000,10.000000,2.000000,6
/home/daniel/Projects/ppsEvolution/data/maps/custom_maps/Custom_9_Run_0_Map.csv,squared_error,0.000877501121717574,0.5063,0.1814,0.000000,0.922562,1.000000,0.958200,0.000000,0.081889,1.000000,2.000000,0.009728,0.000000,1.000000,1.000000,1.000000,0.000000,1.000000,2.000000,125.000000,1.286635,150.000000,0.958200,1.000000,1.277944,10.000000,2.000000,126.702400,0.770000,150.000000,1.000000,200.000000,0.500000,10.000000,2.000000,7
/home/daniel/Projects/ppsEvolution/data/maps/custom_maps/Custom_9_Run_0_Map.csv,squared_error,0.0010364860843869246,0.5054,0.1852,0.000000,1.000000,0.706086,1.000000,0.000000,0.000000,1.000000,2.000000,0.463959,0.000000,1.000000,1.000000,1.000000,0.000000,1.000000,2.000000,125.000000,1.330000,108.558132,1.000000,1.000000,0.500000,10.000000,2.000000,206.192817,0.770000,150.000000,1.000000,200.000000,0.500000,10.000000,2.000000,8
/home/daniel/Projects/ppsEvolution/data/maps/custom_maps/Custom_9_Run_0_Map.csv,squared_error,0.0010705713148280922,0.5046,0.1860,0.000000,0.862970,0.849920,1.000000,0.000000,0.000000,1.000000,2.000000,0.715713,0.000000,1.000000,1.000000,0.939474,0.000000,1.000000,2.000000,125.000000,1.253263,128.838726,1.000000,1.000000,0.500000,10.000000,2.000000,250.249838,0.770000,150.000000,1.000000,187.955369,0.500000,10.000000,2.000000,9
map,fitness,fitness value,team0ratio,time,HP,Speed,Damage,Acc,ClipSize,RateOfFire,NrBullets,Range,HP,Speed,Damage,Acc,ClipSize,RateOfFire,NrBullets,Range,HP,Speed,Damage,Acc,ClipSize,RateOfFire,NrBullets,Range,HP,Speed,Damage,Acc,ClipSize,RateOfFire,NrBullets,Range,Run,target team0ratio: 0.5,target time: 0.14
/home/daniel/Projects/ppsEvolution/data/maps/custom_maps/Custom_10_Run_0_Map.csv,squared_error,0.02009934355600289,0.5304,0.3382,0.000000,0.865150,1.000000,0.988703,0.000000,1.000000,1.000000,2.000000,0.000000,0.000000,1.000000,1.000000,1.000000,0.000000,1.000000,0.000000,125.000000,1.254484,150.000000,0.988703,1.000000,10.000000,10.000000,2.000000,125.000000,0.770000,150.000000,1.000000,200.000000,0.500000,10.000000,0.000000,0
/home/daniel/Projects/ppsEvolution/data/maps/custom_maps/Custom_10_Run_0_Map.csv,squared_error,0.02010041151571282,0.5321,0.3379,0.000000,0.850081,1.000000,0.989797,0.000000,1.000000,1.000000,2.000000,0.000000,0.000000,1.000000,1.000000,1.000000,0.000000,1.000000,0.000000,125.000000,1.246045,150.000000,0.989797,1.000000,10.000000,10.000000,2.000000,125.000000,0.770000,150.000000,1.000000,200.000000,0.500000,10.000000,0.000000,1
/home/daniel/Projects/ppsEvolution/data/maps/custom_maps/Custom_10_Run_0_Map.csv,squared_error,0.020104425047892917,0.5270,0.3387,0.000000,1.000000,1.000000,0.986238,0.000000,1.000000,1.000000,2.000000,0.000000,0.000000,1.000000,1.000000,1.000000,0.000000,1.000000,0.000000,125.000000,1.330000,150.000000,0.986238,1.000000,10.000000,10.000000,2.000000,125.000000,0.770000,150.000000,1.000000,200.000000,0.500000,10.000000,0.000000,2
/home/daniel/Projects/ppsEvolution/data/maps/custom_maps/Custom_10_Run_0_Map.csv,squared_error,0.020097671867948082,0.5300,0.3382,0.000000,1.000000,1.000000,0.988148,0.000000,1.000000,1.000000,2.000000,0.000000,0.000000,1.000000,1.000000,1.000000,0.000000,1.000000,0.000000,125.000000,1.330000,150.000000,0.988148,1.000000,10.000000,10.000000,2.000000,125.000000,0.770000,150.000000,1.000000,200.000000,0.500000,10.000000,0.000000,3
/home/daniel/Projects/ppsEvolution/data/maps/custom_maps/Custom_10_Run_0_Map.csv,squared_error,0.02009820679620117,0.5295,0.3383,0.000000,1.000000,1.000000,0.987805,0.000000,1.000000,1.000000,2.000000,0.000000,0.000000,1.000000,1.000000,1.000000,0.000000,1.000000,0.000000,125.000000,1.330000,150.000000,0.987805,1.000000,10.000000,10.000000,2.000000,125.000000,0.770000,150.000000,1.000000,200.000000,0.500000,10.000000,0.000000,4
/home/daniel/Projects/ppsEvolution/data/maps/custom_maps/Custom_10_Run_0_Map.csv,squared_error,0.02009747554485972,0.5305,0.3382,0.000000,1.000000,1.000000,0.988399,0.000000,1.000000,1.000000,2.000000,0.000000,0.000000,1.000000,1.000000,1.000000,0.000000,1.000000,0.000000,125.000000,1.330000,150.000000,0.988399,1.000000,10.000000,10.000000,2.000000,125.000000,0.770000,150.000000,1.000000,200.000000,0.500000,10.000000,0.000000,5
/home/daniel/Projects/ppsEvolution/data/maps/custom_maps/Custom_10_Run_0_Map.csv,squared_error,0.02010598952185201,0.5283,0.3385,0.000000,0.755545,1.000000,0.987740,0.000000,1.000000,1.000000,2.000000,0.000889,0.000000,1.000000,1.000000,1.000000,0.000000,1.000000,0.000000,125.000000,1.193105,150.000000,0.987740,1.000000,10.000000,10.000000,2.000000,125.155654,0.770000,150.000000,1.000000,200.000000,0.500000,10.000000,0.000000,6
/home/daniel/Projects/ppsEvolution/data/maps/custom_maps/Custom_10_Run_0_Map.csv,squared_error,0.020103812734698637,0.5273,0.3387,0.000000,0.965790,1.000000,0.986510,0.000000,1.000000,1.000000,2.000000,0.000000,0.000000,1.000000,1.000000,1.000000,0.000000,1.000000,0.000000,125.000000,1.310843,150.000000,0.986510,1.000000,10.000000,10.000000,2.000000,125.000000,0.770000,150.000000,1.000000,200.000000,0.500000,10.000000,0.000000,7
/home/daniel/Projects/ppsEvolution/data/maps/custom_maps/Custom_10_Run_0_Map.csv,squared_error,0.020116838549181424,0.5351,0.3375,0.000000,0.354713,1.000000,0.992864,0.000000,1.000000,1.000000,2.000000,0.000000,0.000000,1.000000,1.000000,1.000000,0.000000,1.000000,0.000000,125.000000,0.968639,150.000000,0.992864,1.000000,10.000000,10.000000,2.000000,125.000000,0.770000,150.000000,1.000000,200.000000,0.500000,10.000000,0.000000,8
/home/daniel/Projects/ppsEvolution/data/maps/custom_maps/Custom_10_Run_0_Map.csv,squared_error,0.020098016921171767,0.5297,0.3383,0.000000,1.000000,1.000000,0.987906,0.000000,1.000000,1.000000,2.000000,0.000000,0.000000,1.000000,1.000000,1.000000,0.000000,1.000000,0.000000,125.000000,1.330000,150.000000,0.987906,1.000000,10.000000,10.000000,2.000000,125.000000,0.770000,150.000000,1.000000,200.000000,0.500000,10.000000,0.000000,9
