map,fitness,fitness value,team0ratio,time,HP,Speed,Damage,Acc,ClipSize,RateOfFire,NrBullets,Range,HP,Speed,Damage,Acc,ClipSize,RateOfFire,NrBullets,Range,HP,Speed,Damage,Acc,ClipSize,RateOfFire,NrBullets,Range,HP,Speed,Damage,Acc,ClipSize,RateOfFire,NrBullets,Range,Run,target team0ratio: 0.5,target time: 0.72
/home/daniel/Projects/ppsevolution/data/maps/custom_maps/Custom_1_Run_0_Map.csv,squared_error,6.01530827975667e-07,0.5004,0.7190,1.000000,0.749003,0.004689,0.000000,0.017175,0.278118,0.658047,1.000000,1.000000,0.514381,0.029728,0.048086,0.894757,0.880320,0.135234,2.000000,300.000000,1.189442,9.661210,0.000000,4.417812,3.142118,6.922426,1.000000,300.000000,1.058054,13.191582,0.048086,179.056556,8.863039,2.217102,2.000000,0
/home/daniel/Projects/ppsevolution/data/maps/custom_maps/Custom_1_Run_0_Map.csv,squared_error,9.399861467045279e-08,0.5004,0.7200,0.806442,0.708416,0.006078,0.000000,0.000000,0.026516,0.719672,0.000000,1.000000,0.000000,0.000000,0.000000,0.939105,0.541902,0.127817,1.000000,266.127283,1.166713,9.856930,0.000000,1.000000,0.751900,7.477044,0.000000,300.000000,0.770000,9.000000,0.000000,187.881931,5.648065,2.150350,1.000000,1
/home/daniel/Projects/ppsevolution/data/maps/custom_maps/Custom_1_Run_0_Map.csv,squared_error,9.726700397124276e-07,0.5008,0.7211,1.000000,0.940362,0.000000,0.000000,0.182813,0.183070,0.536393,1.000000,1.000000,0.201877,0.000000,0.101412,0.673630,0.611147,0.000000,2.000000,300.000000,1.296603,9.000000,0.000000,37.379868,2.239165,5.827537,1.000000,300.000000,0.883051,9.000000,0.101412,135.052444,6.305897,1.000000,2.000000,2
/home/daniel/Projects/ppsevolution/data/maps/custom_maps/Custom_1_Run_0_Map.csv,squared_error,2.1114932449678005e-07,0.4994,0.7203,0.955649,1.000000,0.000000,0.000000,0.414079,0.000000,0.678986,1.000000,0.996499,0.163690,0.034492,0.032512,1.000000,0.991128,0.139719,0.000000,292.238562,1.330000,9.000000,0.000000,83.401682,0.500000,7.110875,1.000000,299.387410,0.861666,13.863331,0.032512,200.000000,9.915714,2.257469,0.000000,3
/home/daniel/Projects/ppsevolution/data/maps/custom_maps/Custom_1_Run_0_Map.csv,squared_error,6.789784477064134e-07,0.5012,0.7200,0.776274,0.922713,0.000000,0.000000,0.000000,0.158924,0.790695,0.000000,0.988705,0.083805,0.000000,0.000000,0.926966,1.000000,0.000000,2.000000,260.847912,1.286719,9.000000,0.000000,1.000000,2.009778,8.116252,0.000000,298.023386,0.816931,9.000000,0.000000,185.466178,10.000000,1.000000,2.000000,4
/home/daniel/Projects/ppsevolution/data/maps/custom_maps/Custom_1_Run_0_Map.csv,squared_error,3.4198142335811316e-07,0.5008,0.7203,0.823456,1.000000,0.000000,0.000000,0.653775,0.000000,0.714402,1.000000,1.000000,0.000000,0.000000,0.010957,0.930043,0.838391,0.057681,2.000000,269.104754,1.330000,9.000000,0.000000,131.101159,0.500000,7.429620,1.000000,300.000000,0.770000,9.000000,0.010957,186.078526,8.464717,1.519132,2.000000,5
/home/daniel/Projects/ppsevolution/data/maps/custom_maps/Custom_1_Run_0_Map.csv,squared_error,1.7889464812698084e-07,0.5005,0.7204,1.000000,1.000000,0.000000,0.000000,0.289362,0.322926,0.575719,2.000000,1.000000,0.000000,0.079227,0.000000,0.993115,0.932537,0.045594,2.000000,300.000000,1.330000,9.000000,0.000000,58.583072,3.567795,6.181467,2.000000,300.000000,0.770000,20.171075,0.000000,198.629837,9.359102,1.410344,2.000000,6
/home/daniel/Projects/ppsevolution/data/maps/custom_maps/Custom_1_Run_0_Map.csv,squared_error,5.794147809552615e-07,0.4998,0.7189,0.895032,1.000000,0.002754,0.000000,0.195188,0.000000,0.669821,1.000000,1.000000,0.246484,0.021401,0.032311,0.756043,0.541485,0.000000,2.000000,281.630558,1.330000,9.388265,0.000000,39.842364,0.500000,7.028387,1.000000,300.000000,0.908031,12.017503,0.032311,151.452571,5.644111,1.000000,2.000000,7
/home/daniel/Projects/ppsevolution/data/maps/custom_maps/Custom_1_Run_0_Map.csv,squared_error,6.729354505815104e-07,0.4991,0.7207,0.806754,0.875593,0.007938,0.000000,0.222553,0.761048,0.595950,0.000000,1.000000,0.319563,0.000000,0.000000,0.901941,0.953479,0.000000,0.000000,266.182027,1.260332,10.119300,0.000000,45.288071,7.729959,6.363547,0.000000,300.000000,0.948955,9.000000,0.000000,180.486227,9.558052,1.000000,0.000000,8
/home/daniel/Projects/ppsevolution/data/maps/custom_maps/Custom_1_Run_0_Map.csv,squared_error,7.09381944173487e-07,0.4994,0.7190,0.816391,0.873654,0.000000,0.000000,0.112424,0.077081,0.577564,1.000000,0.951429,0.103930,0.000000,0.000000,0.977473,0.603587,0.194206,1.000000,267.868494,1.259246,9.000000,0.000000,23.372306,1.232267,6.198075,1.000000,291.500038,0.828201,9.000000,0.000000,195.517085,6.234080,2.747855,1.000000,9
map,fitness,fitness value,team0ratio,time,HP,Speed,Damage,Acc,ClipSize,RateOfFire,NrBullets,Range,HP,Speed,Damage,Acc,ClipSize,RateOfFire,NrBullets,Range,HP,Speed,Damage,Acc,ClipSize,RateOfFire,NrBullets,Range,HP,Speed,Damage,Acc,ClipSize,RateOfFire,NrBullets,Range,Run,target team0ratio: 0.5,target time: 0.72
/home/daniel/Projects/ppsevolution/data/maps/custom_maps/Custom_2_Run_0_Map.csv,squared_error,8.095691916316825e-07,0.4992,0.7190,0.151350,0.948386,0.000000,0.566986,0.245044,0.309964,0.994324,0.000000,1.000000,0.069242,0.095350,0.120123,1.000000,0.908039,0.104656,2.000000,151.486257,1.301096,9.000000,0.566986,49.763679,3.444654,9.948916,0.000000,300.000000,0.808776,22.444376,0.120123,200.000000,9.126368,1.941907,2.000000,0
/home/daniel/Projects/ppsevolution/data/maps/custom_maps/Custom_2_Run_0_Map.csv,squared_error,4.6105852858319334e-07,0.5008,0.7205,0.000000,0.936677,0.000000,0.585401,0.012106,0.000000,0.785782,1.000000,0.995208,0.089167,0.000000,0.130934,1.000000,0.731753,0.256343,0.000000,125.000000,1.294539,9.000000,0.585401,3.409153,0.500000,8.072041,1.000000,299.161400,0.819934,9.000000,0.130934,200.000000,7.451652,3.307088,0.000000,1
/home/daniel/Projects/ppsevolution/data/maps/custom_maps/Custom_2_Run_0_Map.csv,squared_error,3.5721893899848776e-07,0.4994,0.7206,0.093813,0.893656,0.115941,0.423816,0.140431,0.283490,0.734574,2.000000,0.903625,0.155063,0.000000,0.183460,0.644426,0.957223,0.000000,1.000000,141.417359,1.270447,25.347709,0.423816,28.945724,3.193160,7.611162,2.000000,283.134324,0.856835,9.000000,0.183460,129.240842,9.593619,1.000000,1.000000,2
/home/daniel/Projects/ppsevolution/data/maps/custom_maps/Custom_2_Run_0_Map.csv,squared_error,4.988593214790015e-07,0.5008,0.7194,0.062416,1.000000,0.308733,0.281964,0.162404,0.004302,0.597148,1.000000,0.927983,0.273106,0.000000,0.174262,0.820757,1.000000,0.052474,2.000000,135.922802,1.330000,52.531405,0.281964,33.318354,0.540867,6.374332,1.000000,287.396968,0.922939,9.000000,0.174262,164.330565,10.000000,1.472269,2.000000,3
/home/daniel/Projects/ppsevolution/data/maps/custom_maps/Custom_2_Run_0_Map.csv,squared_error,1.5513938599383358e-06,0.5017,0.7197,0.052871,0.785640,0.000000,0.522309,0.000000,0.066562,1.000000,0.000000,0.839737,0.000000,0.000000,0.169425,1.000000,0.862249,0.143421,1.000000,134.252436,1.209959,9.000000,0.522309,1.000000,1.132337,10.000000,0.000000,271.953995,0.770000,9.000000,0.169425,200.000000,8.691366,2.290786,1.000000,4
/home/daniel/Projects/ppsevolution/data/maps/custom_maps/Custom_2_Run_0_Map.csv,squared_error,1.7548984930300418e-06,0.4982,0.7195,0.398751,0.815473,0.139360,0.332207,0.019387,0.357218,0.817936,1.000000,0.777233,0.065114,0.044396,0.266660,0.343584,0.898726,0.114806,2.000000,194.781407,1.226665,28.649701,0.332207,4.858045,3.893568,8.361423,1.000000,261.015825,0.806464,15.259893,0.266660,69.373259,9.037893,2.033254,2.000000,5
/home/daniel/Projects/ppsevolution/data/maps/custom_maps/Custom_2_Run_0_Map.csv,squared_error,1.970024932643317e-06,0.5014,0.7186,0.262744,0.885936,0.146878,0.380279,0.466769,0.000000,1.000000,0.000000,0.883565,0.162101,0.000000,0.249248,0.872325,0.910864,0.202312,1.000000,170.980204,1.266124,29.709766,0.380279,93.887126,0.500000,10.000000,0.000000,279.623818,0.860777,9.000000,0.249248,174.592663,9.153206,2.820804,1.000000,6
/home/daniel/Projects/ppsevolution/data/maps/custom_maps/Custom_2_Run_0_Map.csv,squared_error,4.1467565429515627e-07,0.4994,0.7207,0.091782,0.903277,0.000000,0.560553,0.161737,0.045322,0.941042,0.000000,0.981191,0.328660,0.096285,0.086410,0.681004,1.000000,0.087724,0.000000,141.061849,1.275835,9.000000,0.560553,33.185590,0.930556,9.469382,0.000000,296.708425,0.954050,22.576205,0.086410,136.519757,10.000000,1.789517,0.000000,7
/home/daniel/Projects/ppsevolution/data/maps/custom_maps/Custom_2_Run_0_Map.csv,squared_error,3.481353069474619e-07,0.4998,0.7192,0.183878,0.854723,0.157381,0.442436,0.095598,0.000000,0.788647,0.000000,1.000000,0.241089,0.052068,0.167514,0.869671,0.870094,0.154833,2.000000,157.178693,1.248645,31.190723,0.442436,20.023912,0.500000,8.097822,0.000000,300.000000,0.905010,16.341548,0.167514,174.064537,8.765896,2.393497,2.000000,8
/home/daniel/Projects/ppsevolution/data/maps/custom_maps/Custom_2_Run_0_Map.csv,squared_error,9.875030555946517e-07,0.5011,0.7208,0.300372,0.806342,0.183325,0.347332,0.000000,0.089643,0.361218,2.000000,0.789926,0.251289,0.000000,0.281869,0.887788,0.833544,0.055602,1.000000,177.565101,1.221552,34.848826,0.347332,1.000000,1.351608,4.250964,2.000000,263.237040,0.910722,9.000000,0.281869,177.669767,8.418672,1.500418,1.000000,9
map,fitness,fitness value,team0ratio,time,HP,Speed,Damage,Acc,ClipSize,RateOfFire,NrBullets,Range,HP,Speed,Damage,Acc,ClipSize,RateOfFire,NrBullets,Range,HP,Speed,Damage,Acc,ClipSize,RateOfFire,NrBullets,Range,HP,Speed,Damage,Acc,ClipSize,RateOfFire,NrBullets,Range,Run,target team0ratio: 0.5,target time: 0.72
/home/daniel/Projects/ppsevolution/data/maps/custom_maps/Custom_3_Run_0_Map.csv,squared_error,3.0700199938678986e-06,0.4986,0.7220,0.470026,1.000000,0.251978,0.401004,0.194378,0.000000,1.000000,0.000000,1.000000,0.000000,0.000000,0.471452,0.551497,0.946905,0.000000,2.000000,207.254532,1.330000,44.528939,0.401004,39.681256,0.500000,10.000000,0.000000,300.000000,0.770000,9.000000,0.471452,110.747859,9.495601,1.000000,2.000000,0
/home/daniel/Projects/ppsevolution/data/maps/custom_maps/Custom_3_Run_0_Map.csv,squared_error,8.765098254855165e-07,0.5013,0.7196,0.093810,0.968097,0.162879,0.431845,0.000000,0.007675,0.977086,1.000000,0.774383,0.283123,0.000000,0.315288,0.949445,0.772312,0.259911,0.000000,141.416802,1.312135,31.965886,0.431845,1.000000,0.572909,9.793771,1.000000,260.517082,0.928549,9.000000,0.315288,189.939469,7.836962,3.339201,0.000000,1
/home/daniel/Projects/ppsevolution/data/maps/custom_maps/Custom_3_Run_0_Map.csv,squared_error,1.0702225866772282e-06,0.4992,0.7188,0.234400,0.963839,0.116774,0.487561,0.034737,0.015396,1.000000,2.000000,0.854490,0.000000,0.009671,0.394114,1.000000,0.945558,0.000000,1.000000,166.019972,1.309750,25.465083,0.487561,7.912641,0.646260,10.000000,2.000000,274.535667,0.770000,10.363594,0.394114,200.000000,9.482804,1.000000,1.000000,2
/home/daniel/Projects/ppsevolution/data/maps/custom_maps/Custom_3_Run_0_Map.csv,squared_error,6.614558875213322e-07,0.5007,0.7191,0.226213,1.000000,0.057570,0.599679,0.287019,0.000000,1.000000,0.000000,1.000000,0.000000,0.037066,0.375107,0.889740,1.000000,0.000000,2.000000,164.587274,1.330000,17.117414,0.599679,58.116817,0.500000,10.000000,0.000000,300.000000,0.770000,14.226251,0.375107,178.058356,10.000000,1.000000,2.000000,3
/home/daniel/Projects/ppsevolution/data/maps/custom_maps/Custom_3_Run_0_Map.csv,squared_error,6.920091602865191e-07,0.5003,0.7211,0.029015,0.507048,0.185912,0.459085,0.491438,0.272595,0.894100,2.000000,0.943946,0.097547,0.000000,0.292862,1.000000,0.725153,0.000000,0.000000,130.077542,1.053947,35.213612,0.459085,98.796203,3.089648,9.046903,2.000000,290.190481,0.824626,9.000000,0.292862,200.000000,7.388950,1.000000,0.000000,4
/home/daniel/Projects/ppsevolution/data/maps/custom_maps/Custom_3_Run_0_Map.csv,squared_error,8.310845062993954e-07,0.5003,0.7213,0.057573,0.731546,0.000000,0.578697,0.074966,0.030243,1.000000,0.000000,0.779784,0.053821,0.000000,0.332214,0.926946,1.000000,0.068587,1.000000,135.075326,1.179666,9.000000,0.578697,15.918267,0.787309,10.000000,0.000000,261.462224,0.800139,9.000000,0.332214,185.462349,10.000000,1.617284,1.000000,5
/home/daniel/Projects/ppsevolution/data/maps/custom_maps/Custom_3_Run_0_Map.csv,squared_error,6.923386123077295e-07,0.4991,0.7208,0.318003,0.736789,0.000000,0.598236,0.186669,0.139833,1.000000,0.000000,0.877097,0.087104,0.029014,0.422527,0.800689,1.000000,0.000000,0.000000,180.650582,1.182602,9.000000,0.598236,38.147073,1.828416,10.000000,0.000000,278.492003,0.818778,13.090922,0.422527,160.337058,10.000000,1.000000,0.000000,6
/home/daniel/Projects/ppsevolution/data/maps/custom_maps/Custom_3_Run_0_Map.csv,squared_error,1.5305016483154364e-06,0.4986,0.7211,0.390578,1.000000,0.000000,0.614878,0.030962,0.121177,0.680811,2.000000,0.913458,0.125204,0.024938,0.428556,1.000000,0.789442,0.191192,2.000000,193.351137,1.330000,9.000000,0.614878,7.161411,1.651182,7.127296,2.000000,284.855078,0.840114,12.516197,0.428556,200.000000,7.999702,2.720724,2.000000,7
/home/daniel/Projects/ppsevolution/data/maps/custom_maps/Custom_3_Run_0_Map.csv,squared_error,2.9382485649946204e-07,0.4993,0.7197,0.000000,1.000000,0.100739,0.478470,0.241512,0.027367,0.896458,1.000000,0.717130,0.223609,0.000000,0.279307,0.977613,0.895268,0.255406,2.000000,125.000000,1.330000,23.204163,0.478470,49.060864,0.759983,9.068123,1.000000,250.497723,0.895221,9.000000,0.279307,195.544924,9.005044,3.298656,2.000000,8
/home/daniel/Projects/ppsevolution/data/maps/custom_maps/Custom_3_Run_0_Map.csv,squared_error,9.598011575036837e-07,0.5004,0.7213,0.131458,0.939029,0.170034,0.485866,0.098288,0.294910,1.000000,1.000000,1.000000,0.095695,0.000000,0.329862,0.736120,0.692597,0.053824,1.000000,148.005201,1.295856,32.974769,0.485866,20.559261,3.301644,10.000000,1.000000,300.000000,0.823589,9.000000,0.329862,147.487926,7.079668,1.484417,1.000000,9
map,fitness,fitness value,team0ratio,time,HP,Speed,Damage,Acc,ClipSize,RateOfFire,NrBullets,Range,HP,Speed,Damage,Acc,ClipSize,RateOfFire,NrBullets,Range,HP,Speed,Damage,Acc,ClipSize,RateOfFire,NrBullets,Range,HP,Speed,Damage,Acc,ClipSize,RateOfFire,NrBullets,Range,Run,target team0ratio: 0.5,target time: 0.72
/home/daniel/Projects/ppsevolution/data/maps/custom_maps/Custom_4_Run_0_Map.csv,squared_error,3.193234051764002e-07,0.5004,0.7193,0.464300,0.714953,0.000000,0.247391,0.543301,0.140252,0.909160,1.000000,0.883256,0.269625,0.000000,0.008041,0.975065,0.781975,0.002945,2.000000,206.252529,1.170373,9.000000,0.247391,109.116809,1.832391,9.182443,1.000000,279.569869,0.920990,9.000000,0.008041,195.037990,7.928761,1.026505,2.000000,0
/home/daniel/Projects/ppsevolution/data/maps/custom_maps/Custom_4_Run_0_Map.csv,squared_error,1.7678188092133226e-07,0.5005,0.7197,0.489516,1.000000,0.000000,0.260022,0.394435,0.349536,0.622376,0.000000,0.842892,0.121107,0.017342,0.000000,0.787579,1.000000,0.076922,2.000000,210.665261,1.330000,9.000000,0.260022,79.492491,3.820596,6.601380,0.000000,272.506067,0.837820,11.445187,0.000000,157.728204,10.000000,1.692297,2.000000,1
/home/daniel/Projects/ppsevolution/data/maps/custom_maps/Custom_4_Run_0_Map.csv,squared_error,8.38866939830059e-08,0.5004,0.7201,0.526557,1.000000,0.060780,0.223752,0.033388,0.028418,1.000000,1.000000,1.000000,0.000000,0.000000,0.000000,1.000000,0.806821,0.355934,0.000000,217.147554,1.330000,17.569921,0.223752,7.644283,0.769970,10.000000,1.000000,300.000000,0.770000,9.000000,0.000000,200.000000,8.164796,4.203402,0.000000,2
/home/daniel/Projects/ppsevolution/data/maps/custom_maps/Custom_4_Run_0_Map.csv,squared_error,3.574798190271846e-07,0.5001,0.7208,0.429231,1.000000,0.089294,0.198651,0.032952,0.050713,0.503151,0.000000,0.903228,0.000000,0.000000,0.000000,0.645001,0.914763,0.005534,0.000000,200.115496,1.330000,21.590449,0.198651,7.557452,0.981777,5.528356,0.000000,283.064916,0.770000,9.000000,0.000000,129.355200,9.190250,1.049809,0.000000,3
/home/daniel/Projects/ppsevolution/data/maps/custom_maps/Custom_4_Run_0_Map.csv,squared_error,5.677433201441213e-07,0.4990,0.7196,0.606528,1.000000,0.000000,0.299321,0.357031,0.259254,0.825007,0.000000,0.994231,0.347246,0.000000,0.092366,0.941215,0.622750,0.000000,0.000000,231.142356,1.330000,9.000000,0.299321,72.049253,2.962915,8.425061,0.000000,298.990418,0.964458,9.000000,0.092366,188.301819,6.416128,1.000000,0.000000,4
/home/daniel/Projects/ppsevolution/data/maps/custom_maps/Custom_4_Run_0_Map.csv,squared_error,4.849210861131541e-07,0.4994,0.7208,0.461499,0.796579,0.000000,0.296969,0.000000,0.104542,0.801162,2.000000,1.000000,0.000000,0.004548,0.000000,1.000000,0.812914,0.000000,2.000000,205.762273,1.216084,9.000000,0.296969,1.000000,1.493150,8.210455,2.000000,300.000000,0.770000,9.641299,0.000000,200.000000,8.222681,1.000000,2.000000,5
/home/daniel/Projects/ppsevolution/data/maps/custom_maps/Custom_4_Run_0_Map.csv,squared_error,5.832224971420734e-07,0.4991,0.7194,0.599112,0.880308,0.000000,0.240642,0.336229,0.285595,0.964593,0.000000,0.872385,0.022331,0.000000,0.000000,0.918046,0.840344,0.677557,1.000000,229.844587,1.262972,9.000000,0.240642,67.909537,3.213151,9.681335,0.000000,277.667438,0.782505,9.000000,0.000000,183.691094,8.483270,7.098013,1.000000,6
/home/daniel/Projects/ppsevolution/data/maps/custom_maps/Custom_4_Run_0_Map.csv,squared_error,5.013546928019428e-07,0.4992,0.7207,0.485578,0.854091,0.000000,0.302446,0.288943,0.000000,0.816868,1.000000,1.000000,0.192266,0.000000,0.000520,0.910169,0.865714,0.144167,2.000000,209.976120,1.248291,9.000000,0.302446,58.499678,0.500000,8.351809,1.000000,300.000000,0.877669,9.000000,0.000520,182.123555,8.724280,2.297500,2.000000,7
/home/daniel/Projects/ppsevolution/data/maps/custom_maps/Custom_4_Run_0_Map.csv,squared_error,2.9672903039640243e-07,0.4993,0.7204,0.444591,0.586039,0.000000,0.241621,0.372648,0.154773,0.491100,1.000000,0.779837,0.039089,0.000000,0.000000,1.000000,0.880224,0.071525,2.000000,202.803453,1.098182,9.000000,0.241621,75.156954,1.970343,5.419902,1.000000,261.471473,0.791890,9.000000,0.000000,200.000000,8.862125,1.643724,2.000000,8
/home/daniel/Projects/ppsevolution/data/maps/custom_maps/Custom_4_Run_0_Map.csv,squared_error,1.6187499848825553e-06,0.5014,0.7189,0.677166,0.898886,0.003042,0.310985,0.000000,0.000000,0.549951,2.000000,1.000000,0.032711,0.070949,0.034408,0.922237,0.950182,0.035852,2.000000,243.504086,1.273376,9.428909,0.310985,1.000000,0.500000,5.949559,2.000000,300.000000,0.788318,19.003749,0.034408,184.525146,9.526733,1.322665,2.000000,9
map,fitness,fitness value,team0ratio,time,HP,Speed,Damage,Acc,ClipSize,RateOfFire,NrBullets,Range,HP,Speed,Damage,Acc,ClipSize,RateOfFire,NrBullets,Range,HP,Speed,Damage,Acc,ClipSize,RateOfFire,NrBullets,Range,HP,Speed,Damage,Acc,ClipSize,RateOfFire,NrBullets,Range,Run,target team0ratio: 0.5,target time: 0.72
/home/daniel/Projects/ppsevolution/data/maps/custom_maps/Custom_5_Run_0_Map.csv,squared_error,3.79816361456175e-07,0.4992,0.7204,0.047584,1.000000,0.032279,0.460272,0.000000,0.003707,0.545451,0.000000,1.000000,0.164541,0.000619,0.000000,0.816291,0.805582,0.334381,2.000000,133.327222,1.330000,13.551381,0.460272,1.000000,0.535217,5.909063,0.000000,300.000000,0.862143,9.087249,0.000000,163.441839,8.153026,4.009425,2.000000,0
/home/daniel/Projects/ppsevolution/data/maps/custom_maps/Custom_5_Run_0_Map.csv,squared_error,1.3932715050486573e-06,0.4988,0.7189,0.073215,0.802646,0.000000,0.466433,0.131557,0.000000,0.684207,2.000000,1.000000,0.115015,0.000000,0.000000,0.960529,0.931460,0.349064,2.000000,137.812657,1.219482,9.000000,0.466433,27.179842,0.500000,7.157863,2.000000,300.000000,0.834409,9.000000,0.000000,192.145282,9.348872,4.141579,2.000000,1
/home/daniel/Projects/ppsevolution/data/maps/custom_maps/Custom_5_Run_0_Map.csv,squared_error,1.3366382672758182e-07,0.4997,0.7204,0.285871,0.659025,0.065934,0.318672,0.161129,0.304811,0.671028,2.000000,0.841585,0.008319,0.000000,0.088592,0.897330,0.624057,0.383102,2.000000,175.027420,1.139054,18.296716,0.318672,33.064719,3.395702,7.039250,2.000000,272.277438,0.774659,9.000000,0.088592,179.568746,6.428542,4.447920,2.000000,2
/home/daniel/Projects/ppsevolution/data/maps/custom_maps/Custom_5_Run_0_Map.csv,squared_error,3.267837253247375e-07,0.4992,0.7203,0.000000,1.000000,0.000000,0.448063,0.225906,0.143074,0.809743,2.000000,1.000000,0.113512,0.008815,0.000000,0.566189,0.776368,0.000000,0.000000,125.000000,1.330000,9.000000,0.448063,45.955275,1.859202,8.287690,2.000000,300.000000,0.833567,10.242893,0.000000,113.671611,7.875496,1.000000,0.000000,3
/home/daniel/Projects/ppsevolution/data/maps/custom_maps/Custom_5_Run_0_Map.csv,squared_error,9.753366891914108e-07,0.5014,0.7201,0.147099,0.760307,0.000000,0.438253,0.000000,0.138903,0.836525,1.000000,0.957955,0.104373,0.050627,0.034297,0.903505,0.847417,0.000000,0.000000,150.742298,1.195772,9.000000,0.438253,1.000000,1.819576,8.528725,1.000000,292.642193,0.828449,16.138418,0.034297,180.797479,8.550461,1.000000,0.000000,4
/home/daniel/Projects/ppsevolution/data/maps/custom_maps/Custom_5_Run_0_Map.csv,squared_error,1.2527450811886464e-07,0.5001,0.7195,0.215945,0.894798,0.000000,0.450032,0.309161,0.300209,0.719493,2.000000,0.996807,0.449462,0.000000,0.102351,0.913559,0.878534,0.074070,1.000000,162.790400,1.271087,9.000000,0.450032,62.522941,3.351989,7.475433,2.000000,299.441167,1.021699,9.000000,0.102351,182.798242,8.846070,1.666632,1.000000,5
/home/daniel/Projects/ppsevolution/data/maps/custom_maps/Custom_5_Run_0_Map.csv,squared_error,2.894366904780508e-06,0.4983,0.7183,0.000000,1.000000,0.000000,0.323486,0.061416,0.145685,0.939841,2.000000,0.672155,0.153847,0.000000,0.026149,0.832939,1.000000,0.000000,1.000000,125.000000,1.330000,9.000000,0.323486,13.221725,1.884007,9.458567,2.000000,242.627156,0.856155,9.000000,0.026149,166.754818,10.000000,1.000000,1.000000,6
/home/daniel/Projects/ppsevolution/data/maps/custom_maps/Custom_5_Run_0_Map.csv,squared_error,4.2863702562641005e-06,0.5023,0.7182,0.331740,0.849424,0.072051,0.377248,0.012761,0.107844,0.951102,0.000000,1.000000,0.281146,0.101933,0.059491,0.952708,0.893156,0.047694,0.000000,183.054456,1.245678,19.159180,0.377248,3.539478,1.524514,9.559922,0.000000,300.000000,0.927441,23.372564,0.059491,190.588803,8.984985,1.429244,0.000000,7
/home/daniel/Projects/ppsevolution/data/maps/custom_maps/Custom_5_Run_0_Map.csv,squared_error,1.6546034272549507e-07,0.5002,0.7195,0.260524,1.000000,0.000000,0.436807,0.320694,0.000000,0.882110,2.000000,1.000000,0.000425,0.000000,0.120859,0.947355,1.000000,0.141580,1.000000,170.591674,1.330000,9.000000,0.436807,64.818188,0.500000,8.938992,2.000000,300.000000,0.770238,9.000000,0.120859,189.523683,10.000000,2.274216,1.000000,8
/home/daniel/Projects/ppsevolution/data/maps/custom_maps/Custom_5_Run_0_Map.csv,squared_error,9.518120323378106e-07,0.5010,0.7210,0.528557,0.967097,0.018823,0.265119,0.000000,0.265991,0.739220,0.000000,0.585334,0.086935,0.255723,0.000000,0.686939,0.623238,0.000000,0.000000,217.497431,1.311575,11.654010,0.265119,1.000000,3.026917,7.652982,0.000000,227.433509,0.818684,45.057006,0.000000,137.700922,6.420765,1.000000,0.000000,9
map,fitness,fitness value,team0ratio,time,HP,Speed,Damage,Acc,ClipSize,RateOfFire,NrBullets,Range,HP,Speed,Damage,Acc,ClipSize,RateOfFire,NrBullets,Range,HP,Speed,Damage,Acc,ClipSize,RateOfFire,NrBullets,Range,HP,Speed,Damage,Acc,ClipSize,RateOfFire,NrBullets,Range,Run,target team0ratio: 0.5,target time: 0.72
/home/daniel/Projects/ppsevolution/data/maps/custom_maps/Custom_6_Run_0_Map.csv,squared_error,6.514462118730204e-07,0.4990,0.7205,0.098038,1.000000,0.063666,0.702215,0.002862,0.000000,0.817721,2.000000,1.000000,0.484912,0.000000,0.549122,0.984768,0.992997,0.003077,0.000000,142.156720,1.330000,17.976900,0.702215,1.569583,0.500000,8.359491,2.000000,300.000000,1.041551,9.000000,0.549122,196.968862,9.933469,1.027696,0.000000,0
/home/daniel/Projects/ppsevolution/data/maps/custom_maps/Custom_6_Run_0_Map.csv,squared_error,1.2478715405067422e-07,0.4996,0.7203,0.124488,0.787393,0.156481,0.643807,0.036681,0.267938,0.373278,2.000000,0.850418,0.098602,0.000000,0.563873,1.000000,1.000000,0.097096,1.000000,146.785426,1.210940,31.063870,0.643807,8.299592,3.045408,4.359499,2.000000,273.823136,0.825217,9.000000,0.563873,200.000000,10.000000,1.873864,1.000000,1
/home/daniel/Projects/ppsevolution/data/maps/custom_maps/Custom_6_Run_0_Map.csv,squared_error,4.5880909473801124e-06,0.4974,0.7185,0.000000,1.000000,0.285116,0.520143,0.000000,0.000000,1.000000,2.000000,0.852523,0.000000,0.168434,0.389770,0.779432,1.000000,0.044025,2.000000,125.000000,1.330000,49.201322,0.520143,1.000000,0.500000,10.000000,2.000000,274.191532,0.770000,32.749211,0.389770,156.106942,10.000000,1.396221,2.000000,2
/home/daniel/Projects/ppsevolution/data/maps/custom_maps/Custom_6_Run_0_Map.csv,squared_error,1.2961305421016308e-07,0.4996,0.7204,0.304189,0.872041,0.182313,0.652686,0.000000,0.250158,0.400382,2.000000,1.000000,0.206131,0.000000,0.600000,0.731512,0.996081,0.112929,2.000000,178.233143,1.258343,34.706131,0.652686,1.000000,2.876504,4.603436,2.000000,300.000000,0.885433,9.000000,0.600000,146.570909,9.962771,2.016357,2.000000,3
/home/daniel/Projects/ppsevolution/data/maps/custom_maps/Custom_6_Run_0_Map.csv,squared_error,7.775173510367441e-07,0.4988,0.7198,0.108567,0.825294,0.263104,0.554088,0.000000,0.230991,0.769762,0.000000,0.880631,0.161423,0.000000,0.544002,0.850816,1.000000,0.000000,2.000000,143.999203,1.232165,46.097596,0.554088,1.000000,2.694419,7.927859,0.000000,279.110352,0.860397,9.000000,0.544002,170.312403,10.000000,1.000000,2.000000,4
/home/daniel/Projects/ppsevolution/data/maps/custom_maps/Custom_6_Run_0_Map.csv,squared_error,7.652248116414487e-07,0.5008,0.7191,0.008099,0.794214,0.197770,0.594006,0.154140,0.000000,1.000000,0.000000,0.870417,0.000000,0.000000,0.514079,1.000000,1.000000,0.106436,1.000000,126.417405,1.214760,36.885533,0.594006,31.673865,0.500000,10.000000,0.000000,277.322956,0.770000,9.000000,0.514079,200.000000,10.000000,1.957923,1.000000,5
/home/daniel/Projects/ppsevolution/data/maps/custom_maps/Custom_6_Run_0_Map.csv,squared_error,3.064502796064723e-07,0.4999,0.7208,0.039512,0.778356,0.016581,0.665401,0.014393,0.418296,1.000000,2.000000,0.760823,0.105681,0.049736,0.479485,0.985729,1.000000,0.150292,1.000000,131.914631,1.205879,11.337991,0.665401,3.864243,4.473814,10.000000,2.000000,258.144064,0.829181,16.012840,0.479485,197.160133,10.000000,2.352630,1.000000,6
/home/daniel/Projects/ppsevolution/data/maps/custom_maps/Custom_6_Run_0_Map.csv,squared_error,1.3310138086638186e-06,0.5010,0.7213,0.205936,0.899985,0.210000,0.554923,0.018080,0.000000,0.925558,2.000000,0.844695,0.337949,0.042966,0.531470,1.000000,1.000000,0.082385,0.000000,161.038715,1.273992,38.610000,0.554923,4.597856,0.500000,9.330021,2.000000,272.821665,0.959252,15.058184,0.531470,200.000000,10.000000,1.741466,0.000000,7
/home/daniel/Projects/ppsevolution/data/maps/custom_maps/Custom_6_Run_0_Map.csv,squared_error,3.1606958144153563e-07,0.5007,0.7204,0.149573,1.000000,0.000000,0.728678,0.000000,0.000000,1.000000,0.000000,1.000000,0.030423,0.003348,0.551421,0.922851,0.943609,0.088931,1.000000,151.175220,1.330000,9.000000,0.728678,1.000000,0.500000,10.000000,0.000000,300.000000,0.787037,9.472082,0.551421,184.647394,9.464285,1.800377,1.000000,8
/home/daniel/Projects/ppsevolution/data/maps/custom_maps/Custom_6_Run_0_Map.csv,squared_error,2.0762034318096335e-06,0.4980,0.7201,0.129891,1.000000,0.358995,0.486530,0.000000,0.044358,1.000000,1.000000,1.000000,0.018571,0.124632,0.448885,0.848742,0.701306,0.000000,0.000000,147.730950,1.330000,59.618282,0.486530,1.000000,0.921401,10.000000,1.000000,300.000000,0.780400,26.573149,0.448885,169.899637,7.162407,1.000000,0.000000,9
map,fitness,fitness value,team0ratio,time,HP,Speed,Damage,Acc,ClipSize,RateOfFire,NrBullets,Range,HP,Speed,Damage,Acc,ClipSize,RateOfFire,NrBullets,Range,HP,Speed,Damage,Acc,ClipSize,RateOfFire,NrBullets,Range,HP,Speed,Damage,Acc,ClipSize,RateOfFire,NrBullets,Range,Run,target team0ratio: 0.5,target time: 0.72
/home/daniel/Projects/ppsevolution/data/maps/custom_maps/Custom_7_Run_0_Map.csv,squared_error,8.936173665582024e-07,0.4992,0.7210,0.551225,0.900548,0.055881,0.448397,0.290987,0.000000,1.000000,1.000000,1.000000,0.203692,0.047311,0.321507,0.992277,0.862676,0.000000,2.000000,221.464430,1.274307,16.879191,0.448397,58.906462,0.500000,10.000000,1.000000,300.000000,0.884067,15.670901,0.321507,198.463128,8.695426,1.000000,2.000000,0
/home/daniel/Projects/ppsevolution/data/maps/custom_maps/Custom_7_Run_0_Map.csv,squared_error,1.0435101647317698e-06,0.5010,0.7210,0.273146,0.957776,0.000000,0.474022,0.223305,0.000000,1.000000,2.000000,0.912587,0.043971,0.000000,0.252226,0.748204,0.811821,0.000000,2.000000,172.800522,1.306354,9.000000,0.474022,45.437664,0.500000,10.000000,2.000000,284.702754,0.794624,9.000000,0.252226,149.892621,8.212304,1.000000,2.000000,1
/home/daniel/Projects/ppsevolution/data/maps/custom_maps/Custom_7_Run_0_Map.csv,squared_error,1.7464732438384285e-06,0.4983,0.7207,0.323966,0.961059,0.010977,0.484067,0.152841,0.000000,1.000000,0.000000,0.934044,0.314871,0.000000,0.283907,0.704922,0.991385,0.000000,2.000000,181.693994,1.308193,10.547810,0.484067,31.415284,0.500000,10.000000,0.000000,288.457685,0.946327,9.000000,0.283907,141.279439,9.918161,1.000000,2.000000,2
/home/daniel/Projects/ppsevolution/data/maps/custom_maps/Custom_7_Run_0_Map.csv,squared_error,4.2875438472550213e-07,0.5009,0.7203,0.157783,0.914219,0.105306,0.460440,0.156479,0.000000,0.625147,1.000000,1.000000,0.000000,0.000000,0.179467,0.723178,1.000000,0.275723,2.000000,152.612020,1.281963,23.848179,0.460440,32.139290,0.500000,6.626326,1.000000,300.000000,0.770000,9.000000,0.179467,144.912489,10.000000,3.481506,2.000000,3
/home/daniel/Projects/ppsevolution/data/maps/custom_maps/Custom_7_Run_0_Map.csv,squared_error,1.4156385186765555e-06,0.4988,0.7188,0.005831,0.940555,0.230191,0.306436,0.000000,0.121393,0.853698,2.000000,0.954960,0.000000,0.000000,0.108284,1.000000,0.944905,0.233692,0.000000,126.020406,1.296711,41.456878,0.306436,1.000000,1.653236,8.683278,2.000000,292.117976,0.770000,9.000000,0.108284,200.000000,9.476598,3.103226,0.000000,4
/home/daniel/Projects/ppsevolution/data/maps/custom_maps/Custom_7_Run_0_Map.csv,squared_error,8.724310892034414e-07,0.5005,0.7188,0.031555,1.000000,0.000000,0.486784,0.114007,0.496506,0.848870,2.000000,0.860479,0.309296,0.086314,0.039949,0.816668,0.189051,0.110793,1.000000,130.522120,1.330000,9.000000,0.486784,23.687366,5.216803,8.639826,2.000000,275.583870,0.943206,21.170341,0.039949,163.516962,2.295987,1.997141,1.000000,5
/home/daniel/Projects/ppsevolution/data/maps/custom_maps/Custom_7_Run_0_Map.csv,squared_error,9.432693413210137e-07,0.4992,0.7211,0.356672,0.998085,0.000000,0.519681,0.011671,0.001314,0.760103,2.000000,1.000000,0.103023,0.068471,0.193607,1.000000,0.591793,0.242914,1.000000,187.417626,1.328928,9.000000,0.519681,3.322448,0.512485,7.840927,2.000000,300.000000,0.827693,18.654348,0.193607,200.000000,6.122033,3.186224,1.000000,6
/home/daniel/Projects/ppsevolution/data/maps/custom_maps/Custom_7_Run_0_Map.csv,squared_error,2.208326627169464e-07,0.4998,0.7206,0.000000,0.893548,0.000000,0.548918,0.024011,0.191172,0.918987,0.000000,1.000000,0.135131,0.019626,0.079164,1.000000,1.000000,0.339122,1.000000,125.000000,1.270387,9.000000,0.548918,5.778250,2.316131,9.270884,0.000000,300.000000,0.845673,11.767282,0.079164,200.000000,10.000000,4.052099,1.000000,7
/home/daniel/Projects/ppsevolution/data/maps/custom_maps/Custom_7_Run_0_Map.csv,squared_error,4.309786108087954e-07,0.4992,0.7195,0.055016,0.812965,0.311897,0.221730,0.080700,0.000000,0.922203,2.000000,1.000000,0.000000,0.000000,0.147361,0.680779,1.000000,0.000000,1.000000,134.627759,1.225261,52.977509,0.221730,17.059234,0.500000,9.299826,2.000000,300.000000,0.770000,9.000000,0.147361,136.475075,10.000000,1.000000,1.000000,8
/home/daniel/Projects/ppsevolution/data/maps/custom_maps/Custom_7_Run_0_Map.csv,squared_error,7.841729440912421e-07,0.5004,0.7212,0.000000,0.839590,0.002469,0.467339,0.715544,0.082080,0.884990,2.000000,0.825398,0.126075,0.000000,0.114836,0.698468,1.000000,0.146743,1.000000,125.000000,1.240171,9.348096,0.467339,143.393301,1.279763,8.964909,2.000000,269.444691,0.840602,9.000000,0.114836,139.995042,10.000000,2.320688,1.000000,9
map,fitness,fitness value,team0ratio,time,HP,Speed,Damage,Acc,ClipSize,RateOfFire,NrBullets,Range,HP,Speed,Damage,Acc,ClipSize,RateOfFire,NrBullets,Range,HP,Speed,Damage,Acc,ClipSize,RateOfFire,NrBullets,Range,HP,Speed,Damage,Acc,ClipSize,RateOfFire,NrBullets,Range,Run,target team0ratio: 0.5,target time: 0.72
/home/daniel/Projects/ppsevolution/data/maps/custom_maps/Custom_8_Run_0_Map.csv,squared_error,3.3002777240660417e-08,0.5001,0.7202,0.278072,0.878375,0.000000,0.382237,0.560790,0.626439,0.750084,0.000000,1.000000,0.230099,0.035268,0.000000,1.000000,1.000000,0.014914,2.000000,173.662515,1.261890,9.000000,0.382237,112.597212,6.451171,7.750758,0.000000,300.000000,0.898855,13.972760,0.000000,200.000000,10.000000,1.134223,2.000000,0
/home/daniel/Projects/ppsevolution/data/maps/custom_maps/Custom_8_Run_0_Map.csv,squared_error,3.958508187736006e-07,0.5000,0.7191,0.218375,0.764880,0.000000,0.390374,0.000000,0.000000,0.789051,0.000000,1.000000,0.000000,0.000000,0.000000,0.706382,0.874488,0.226297,0.000000,163.215576,1.198333,9.000000,0.390374,1.000000,0.500000,8.101462,0.000000,300.000000,0.770000,9.000000,0.000000,141.569954,8.807633,3.036670,0.000000,1
/home/daniel/Projects/ppsevolution/data/maps/custom_maps/Custom_8_Run_0_Map.csv,squared_error,8.367798198356963e-07,0.4987,0.7199,0.440072,0.469511,0.000000,0.283868,0.000000,0.118286,1.000000,1.000000,0.815189,0.153628,0.062238,0.000000,0.956963,0.870976,0.448333,0.000000,202.012553,1.032926,9.000000,0.283868,1.000000,1.623721,10.000000,1.000000,267.658015,0.856032,17.775587,0.000000,191.435621,8.774269,5.034996,0.000000,2
/home/daniel/Projects/ppsevolution/data/maps/custom_maps/Custom_8_Run_0_Map.csv,squared_error,1.7870109517843794e-06,0.4982,0.7194,0.648349,0.902832,0.000000,0.336860,0.000000,0.235880,0.962349,2.000000,1.000000,0.000000,0.192841,0.000000,1.000000,0.612696,0.074075,1.000000,238.461058,1.275586,9.000000,0.336860,1.000000,2.740862,9.661144,2.000000,300.000000,0.770000,36.190607,0.000000,200.000000,6.320614,1.666675,1.000000,3
/home/daniel/Projects/ppsevolution/data/maps/custom_maps/Custom_8_Run_0_Map.csv,squared_error,5.430716417550029e-07,0.4996,0.7210,0.157598,0.950454,0.000000,0.265952,0.088957,0.000000,0.866317,2.000000,0.728414,0.000000,0.000000,0.000000,0.972297,0.990852,0.000000,0.000000,152.579573,1.302254,9.000000,0.265952,18.702416,0.500000,8.796853,2.000000,252.472409,0.770000,9.000000,0.000000,194.487009,9.913097,1.000000,0.000000,4
/home/daniel/Projects/ppsevolution/data/maps/custom_maps/Custom_8_Run_0_Map.csv,squared_error,4.2817941051252333e-08,0.4997,0.7199,0.562128,1.000000,0.174147,0.116136,0.214926,0.293576,0.952860,0.000000,0.916431,0.000000,0.000000,0.175939,0.964075,0.866619,0.000000,2.000000,223.372428,1.330000,33.554765,0.116136,43.770331,3.288975,9.575736,0.000000,285.375466,0.770000,9.000000,0.175939,192.850903,8.732880,1.000000,2.000000,5
/home/daniel/Projects/ppsevolution/data/maps/custom_maps/Custom_8_Run_0_Map.csv,squared_error,3.296524368863617e-07,0.4992,0.7200,0.747008,0.842195,0.000000,0.345172,0.000000,0.224334,0.734617,0.000000,0.954258,0.138807,0.025488,0.240150,0.860254,0.995010,0.085793,0.000000,255.726351,1.241629,9.000000,0.345172,1.000000,2.631177,7.611556,0.000000,291.995103,0.847732,12.593769,0.240150,172.190608,9.952591,1.772138,0.000000,6
/home/daniel/Projects/ppsevolution/data/maps/custom_maps/Custom_8_Run_0_Map.csv,squared_error,4.996623004245887e-07,0.5009,0.7205,0.454689,0.790917,0.000000,0.343948,0.056510,0.263951,1.000000,1.000000,0.979616,0.448518,0.042320,0.054670,0.792474,0.899210,0.165008,0.000000,204.570532,1.212914,9.000000,0.343948,12.245432,3.007537,10.000000,1.000000,296.432739,1.021170,14.967181,0.054670,158.702408,9.042491,2.485068,0.000000,7
/home/daniel/Projects/ppsevolution/data/maps/custom_maps/Custom_8_Run_0_Map.csv,squared_error,1.0338830170725293e-07,0.4999,0.7204,0.438650,0.422103,0.235539,0.000000,0.522478,0.389768,0.848721,1.000000,0.813241,0.223635,0.000000,0.093546,0.687897,1.000000,0.023048,1.000000,201.763749,1.006378,42.211038,0.000000,104.973151,4.202793,8.638486,1.000000,267.317106,0.895236,9.000000,0.093546,137.891414,10.000000,1.207432,1.000000,8
/home/daniel/Projects/ppsevolution/data/maps/custom_maps/Custom_8_Run_0_Map.csv,squared_error,6.716748385998118e-08,0.5003,0.7202,0.364557,0.739623,0.116518,0.261898,0.010956,0.085843,0.757276,0.000000,1.000000,0.203647,0.000000,0.047513,0.988703,0.808193,0.221535,2.000000,188.797394,1.184189,25.429107,0.261898,3.180195,1.315513,7.815488,0.000000,300.000000,0.884043,9.000000,0.047513,197.751899,8.177831,2.993815,2.000000,9
map,fitness,fitness value,team0ratio,time,HP,Speed,Damage,Acc,ClipSize,RateOfFire,NrBullets,Range,HP,Speed,Damage,Acc,ClipSize,RateOfFire,NrBullets,Range,HP,Speed,Damage,Acc,ClipSize,RateOfFire,NrBullets,Range,HP,Speed,Damage,Acc,ClipSize,RateOfFire,NrBullets,Range,Run,target team0ratio: 0.5,target time: 0.72
/home/daniel/Projects/ppsevolution/data/maps/custom_maps/Custom_9_Run_0_Map.csv,squared_error,4.1533757878366897e-07,0.4997,0.7191,0.651833,0.677172,0.000000,0.182528,0.000000,0.255337,0.704463,1.000000,0.966097,0.109107,0.044462,0.023234,0.855760,0.753650,0.025204,2.000000,239.070764,1.149216,9.000000,0.182528,1.000000,2.925697,7.340164,1.000000,294.066921,0.831100,15.269197,0.023234,171.296276,7.659677,1.226836,2.000000,0
/home/daniel/Projects/ppsevolution/data/maps/custom_maps/Custom_9_Run_0_Map.csv,squared_error,6.478608596267828e-07,0.4992,0.7192,0.527675,0.287965,0.000000,0.210244,0.338767,0.000000,0.725272,0.000000,1.000000,0.259043,0.000000,0.019238,1.000000,1.000000,0.000000,1.000000,217.343062,0.931261,9.000000,0.210244,68.414663,0.500000,7.527452,0.000000,300.000000,0.915064,9.000000,0.019238,200.000000,10.000000,1.000000,1.000000,1
/home/daniel/Projects/ppsevolution/data/maps/custom_maps/Custom_9_Run_0_Map.csv,squared_error,1.0701254315933033e-06,0.5012,0.7208,0.536240,0.948700,0.011714,0.187673,0.437525,0.060103,0.691939,2.000000,1.000000,0.278780,0.000000,0.011324,1.000000,0.902359,0.000000,2.000000,218.841974,1.301272,10.651653,0.187673,88.067561,1.070974,7.227454,2.000000,300.000000,0.926117,9.000000,0.011324,200.000000,9.072413,1.000000,2.000000,2
/home/daniel/Projects/ppsevolution/data/maps/custom_maps/Custom_9_Run_0_Map.csv,squared_error,5.246393850029603e-07,0.4990,0.7202,0.475554,1.000000,0.153121,0.001891,0.094182,0.003485,0.595957,1.000000,0.909262,0.161205,0.000000,0.000000,1.000000,1.000000,0.043782,0.000000,208.221995,1.330000,30.590111,0.001891,19.742201,0.533111,6.363609,1.000000,284.120863,0.860275,9.000000,0.000000,200.000000,10.000000,1.394035,0.000000,3
/home/daniel/Projects/ppsevolution/data/maps/custom_maps/Custom_9_Run_0_Map.csv,squared_error,1.5240595834314157e-07,0.4995,0.7201,0.881672,1.000000,0.000000,0.000000,0.000000,0.046995,1.000000,0.000000,0.633780,0.000000,0.164145,0.000000,0.407112,0.851866,0.252136,0.000000,279.292609,1.330000,9.000000,0.000000,1.000000,0.946452,10.000000,0.000000,235.911535,0.770000,32.144395,0.000000,82.015283,8.592726,3.269222,0.000000,4
/home/daniel/Projects/ppsevolution/data/maps/custom_maps/Custom_9_Run_0_Map.csv,squared_error,6.260281659116808e-07,0.4991,0.7207,0.563556,0.974089,0.000000,0.200683,0.242419,0.086739,0.604832,0.000000,0.958281,0.000000,0.000000,0.000000,0.727764,0.867452,0.363462,0.000000,223.622243,1.315490,9.000000,0.200683,49.241300,1.324017,6.443489,0.000000,292.699253,0.770000,9.000000,0.000000,145.825040,8.740790,4.271159,0.000000,5
/home/daniel/Projects/ppsevolution/data/maps/custom_maps/Custom_9_Run_0_Map.csv,squared_error,1.8512951731082296e-06,0.5012,0.7185,0.512734,0.858643,0.012187,0.189365,0.266519,0.039472,0.782399,1.000000,1.000000,0.000000,0.000000,0.013358,1.000000,0.905100,0.000000,2.000000,214.728377,1.250840,10.718318,0.189365,54.037311,0.874985,8.041592,1.000000,300.000000,0.770000,9.000000,0.013358,200.000000,9.098447,1.000000,2.000000,6
/home/daniel/Projects/ppsevolution/data/maps/custom_maps/Custom_9_Run_0_Map.csv,squared_error,1.1346884252646006e-06,0.4986,0.7206,0.563529,0.816900,0.000000,0.173586,0.052405,0.337161,0.810965,0.000000,0.950406,0.050403,0.000000,0.000000,0.740693,0.754714,0.267347,2.000000,223.617544,1.227464,9.000000,0.173586,11.428595,3.703030,8.298688,0.000000,291.320984,0.798226,9.000000,0.000000,148.397923,7.669783,3.406120,2.000000,7
/home/daniel/Projects/ppsevolution/data/maps/custom_maps/Custom_9_Run_0_Map.csv,squared_error,4.376639701860323e-07,0.5003,0.7209,0.567078,1.000000,0.000000,0.165855,0.135598,0.019753,0.927322,1.000000,0.951549,0.099788,0.030479,0.000000,1.000000,1.000000,0.034574,2.000000,224.238703,1.330000,9.000000,0.165855,27.984041,0.687650,9.345894,1.000000,291.521031,0.825881,13.297514,0.000000,200.000000,10.000000,1.311164,2.000000,8
/home/daniel/Projects/ppsevolution/data/maps/custom_maps/Custom_9_Run_0_Map.csv,squared_error,7.921122272598786e-07,0.4987,0.7200,0.469761,1.000000,0.119883,0.031768,0.306290,0.000000,0.879246,0.000000,0.930862,0.415931,0.000000,0.000000,0.991643,0.937131,0.000000,0.000000,207.208213,1.330000,25.903434,0.031768,61.951781,0.500000,8.913210,0.000000,287.900917,1.002921,9.000000,0.000000,198.336920,9.402744,1.000000,0.000000,9
map,fitness,fitness value,team0ratio,time,HP,Speed,Damage,Acc,ClipSize,RateOfFire,NrBullets,Range,HP,Speed,Damage,Acc,ClipSize,RateOfFire,NrBullets,Range,HP,Speed,Damage,Acc,ClipSize,RateOfFire,NrBullets,Range,HP,Speed,Damage,Acc,ClipSize,RateOfFire,NrBullets,Range,Run,target team0ratio: 0.5,target time: 0.72
/home/daniel/Projects/ppsevolution/data/maps/custom_maps/Custom_10_Run_0_Map.csv,squared_error,7.608702340717981e-07,0.5000,0.7188,0.000000,0.828520,0.000000,0.460117,0.304191,0.122024,1.000000,0.000000,0.925847,0.055552,0.000000,0.063133,0.844833,0.657334,0.093009,1.000000,125.000000,1.233971,9.000000,0.460117,61.534022,1.659225,10.000000,0.000000,287.023199,0.801109,9.000000,0.063133,169.121758,6.744670,1.837079,1.000000,0
/home/daniel/Projects/ppsevolution/data/maps/custom_maps/Custom_10_Run_0_Map.csv,squared_error,9.370858338371903e-07,0.4993,0.7212,0.335298,0.716190,0.024824,0.433552,0.089353,0.000000,0.950382,2.000000,1.000000,0.000000,0.000000,0.189010,1.000000,0.859315,0.239419,1.000000,183.677129,1.171067,12.500209,0.433552,18.781271,0.500000,9.553435,2.000000,300.000000,0.770000,9.000000,0.189010,200.000000,8.663495,3.154770,1.000000,1
/home/daniel/Projects/ppsevolution/data/maps/custom_maps/Custom_10_Run_0_Map.csv,squared_error,9.684142553652735e-07,0.5010,0.7210,0.331071,0.752680,0.000000,0.446158,0.428158,0.531646,1.000000,0.000000,0.958358,0.000000,0.175065,0.001546,0.934591,1.000000,0.223038,0.000000,182.937383,1.191501,9.000000,0.446158,86.203419,5.550638,10.000000,0.000000,292.712568,0.770000,33.684123,0.001546,186.983611,10.000000,3.007339,0.000000,2
/home/daniel/Projects/ppsevolution/data/maps/custom_maps/Custom_10_Run_0_Map.csv,squared_error,3.711745397623705e-07,0.5008,0.7202,0.333316,0.789587,0.237262,0.214470,0.000000,0.000000,1.000000,2.000000,1.000000,0.240815,0.051735,0.125013,1.000000,1.000000,0.143303,2.000000,183.330262,1.212169,42.453902,0.214470,1.000000,0.500000,10.000000,2.000000,300.000000,0.904856,16.294642,0.125013,200.000000,10.000000,2.289723,2.000000,3
/home/daniel/Projects/ppsevolution/data/maps/custom_maps/Custom_10_Run_0_Map.csv,squared_error,4.221408764244689e-07,0.4998,0.7191,0.561442,0.993073,0.000000,0.444281,0.122339,0.053459,0.877316,1.000000,0.971274,0.000000,0.237168,0.083281,0.615124,0.822998,0.000000,1.000000,223.252328,1.326121,9.000000,0.444281,25.345492,1.007865,8.895846,1.000000,294.972921,0.770000,42.440677,0.083281,123.409639,8.318481,1.000000,1.000000,4
/home/daniel/Projects/ppsevolution/data/maps/custom_maps/Custom_10_Run_0_Map.csv,squared_error,1.0615083577654252e-06,0.4995,0.7186,0.118682,1.000000,0.053422,0.431501,0.327265,0.172255,0.703233,0.000000,0.927329,0.107607,0.000000,0.104899,0.916690,1.000000,0.288994,0.000000,145.769364,1.330000,16.532525,0.431501,66.125688,2.136419,7.329096,0.000000,287.282493,0.830260,9.000000,0.104899,183.421403,10.000000,3.600942,0.000000,5
/home/daniel/Projects/ppsevolution/data/maps/custom_maps/Custom_10_Run_0_Map.csv,squared_error,6.790191078749619e-07,0.5010,0.7194,0.051258,1.000000,0.231261,0.226351,0.356483,0.000000,0.734937,2.000000,0.931307,0.000000,0.000000,0.069547,0.625880,1.000000,0.081767,0.000000,133.970228,1.330000,41.607860,0.226351,71.940056,0.500000,7.614432,2.000000,287.978690,0.770000,9.000000,0.069547,125.550167,10.000000,1.735906,0.000000,6
/home/daniel/Projects/ppsevolution/data/maps/custom_maps/Custom_10_Run_0_Map.csv,squared_error,3.065031244460475e-07,0.5003,0.7193,0.353868,0.860231,0.000000,0.417602,0.018863,0.137856,0.570872,0.000000,0.746126,0.454920,0.000000,0.258830,0.841445,0.898265,0.000000,1.000000,186.926877,1.251729,9.000000,0.417602,4.753825,1.809635,6.137844,0.000000,255.572062,1.024755,9.000000,0.258830,168.447493,9.033522,1.000000,1.000000,7
/home/daniel/Projects/ppsevolution/data/maps/custom_maps/Custom_10_Run_0_Map.csv,squared_error,2.7976175450986166e-07,0.4995,0.7194,0.384979,0.909604,0.000000,0.486659,0.451163,0.000000,0.588650,1.000000,0.968747,0.248354,0.032579,0.180430,0.985481,0.697951,0.399484,0.000000,192.371379,1.279378,9.000000,0.486659,90.781425,0.500000,6.297851,1.000000,294.530722,0.909078,13.593691,0.180430,197.110701,7.130534,4.595358,0.000000,8
/home/daniel/Projects/ppsevolution/data/maps/custom_maps/Custom_10_Run_0_Map.csv,squared_error,2.643811349941153e-07,0.5001,0.7207,0.527026,0.846677,0.000000,0.435075,0.215163,0.376124,0.803454,1.000000,0.929323,0.065469,0.272733,0.025241,0.967629,0.968659,0.000000,0.000000,217.229512,1.244139,9.000000,0.435075,43.817483,4.073179,8.231082,1.000000,287.631444,0.806663,47.455332,0.025241,193.558097,9.702264,1.000000,0.000000,9
