map,fitness,fitness value,team0ratio,time,HP,Speed,Damage,Acc,ClipSize,RateOfFire,NrBullets,Range,HP,Speed,Damage,Acc,ClipSize,RateOfFire,NrBullets,Range,HP,Speed,Damage,Acc,ClipSize,RateOfFire,NrBullets,Range,HP,Speed,Damage,Acc,ClipSize,RateOfFire,NrBullets,Range,Run,target team0ratio: 0.5,target time: 0.72
/home/daniel/Projects/ppsevolution/data/maps/custom_maps/Custom_1_Run_0_Map.csv,squared_error,4.024097909478769e-07,0.5003,0.7191,0.903241,1.000000,0.000000,0.000000,0.450561,0.000000,0.093465,2.000000,0.908911,0.297059,0.000000,0.056734,0.363626,0.177721,0.000000,2.000000,283.067145,1.330000,9.000000,0.000000,90.661639,0.500000,1.841184,2.000000,284.059374,0.936353,9.000000,0.056734,73.361524,2.188352,1.000000,2.000000,0
/home/daniel/Projects/ppsevolution/data/maps/custom_maps/Custom_1_Run_0_Map.csv,squared_error,4.3976218533431983e-07,0.4993,0.7206,0.824782,1.000000,0.000000,0.000000,0.222896,0.173167,0.677149,1.000000,1.000000,0.299292,0.000000,0.000000,0.673110,0.496199,0.099785,1.000000,269.336870,1.330000,9.000000,0.000000,45.356322,2.145082,7.094345,1.000000,300.000000,0.937604,9.000000,0.000000,134.948890,5.213889,1.898063,1.000000,1
/home/daniel/Projects/ppsevolution/data/maps/custom_maps/Custom_1_Run_0_Map.csv,squared_error,6.686629804704635e-07,0.4989,0.7202,0.829946,0.936117,0.000000,0.000000,0.098368,0.628235,0.745371,0.000000,1.000000,0.069940,0.000000,0.000000,1.000000,0.695451,0.152203,2.000000,270.240559,1.294225,9.000000,0.000000,20.575301,6.468236,7.708336,0.000000,300.000000,0.809166,9.000000,0.000000,200.000000,7.106789,2.369826,2.000000,2
/home/daniel/Projects/ppsevolution/data/maps/custom_maps/Custom_1_Run_0_Map.csv,squared_error,1.8313415344266233e-07,0.4994,0.7199,0.808521,0.562980,0.000000,0.000000,0.388166,0.144567,0.577289,2.000000,0.984069,0.000000,0.000000,0.000000,1.000000,1.000000,0.050687,1.000000,266.491204,1.085269,9.000000,0.000000,78.244936,1.873391,6.195597,2.000000,297.212112,0.770000,9.000000,0.000000,200.000000,10.000000,1.456182,1.000000,3
/home/daniel/Projects/ppsevolution/data/maps/custom_maps/Custom_1_Run_0_Map.csv,squared_error,7.907211140263993e-07,0.5011,0.7206,0.828577,0.264489,0.000000,0.004202,0.023618,0.159516,0.431017,2.000000,0.966821,0.226240,0.000000,0.000000,0.803826,1.000000,0.038875,2.000000,270.000928,0.918114,9.000000,0.004202,5.699900,2.015407,4.879157,2.000000,294.193690,0.896694,9.000000,0.000000,160.961289,10.000000,1.349877,2.000000,4
/home/daniel/Projects/ppsevolution/data/maps/custom_maps/Custom_1_Run_0_Map.csv,squared_error,4.0917388204844023e-07,0.4998,0.7191,0.965135,1.000000,0.017513,0.000000,0.237152,0.872527,0.326030,1.000000,1.000000,0.054219,0.065476,0.000000,0.827776,0.685080,0.000000,2.000000,293.898639,1.330000,11.469271,0.000000,48.193259,8.789004,3.934267,1.000000,300.000000,0.800363,18.232057,0.000000,165.727362,7.008256,1.000000,2.000000,5
/home/daniel/Projects/ppsevolution/data/maps/custom_maps/Custom_1_Run_0_Map.csv,squared_error,5.719933837696192e-07,0.5010,0.7204,0.793861,0.927386,0.000000,0.000000,0.068897,0.100564,0.658357,1.000000,0.996851,0.086487,0.000000,0.000000,0.539586,0.936755,0.000000,1.000000,263.925669,1.289336,9.000000,0.000000,14.710550,1.455360,6.925212,1.000000,299.448902,0.818433,9.000000,0.000000,108.377711,9.399175,1.000000,1.000000,6
/home/daniel/Projects/ppsevolution/data/maps/custom_maps/Custom_1_Run_0_Map.csv,squared_error,4.1983638501787805e-07,0.5002,0.7191,0.824502,0.806222,0.000000,0.000000,0.082326,0.216557,0.816805,1.000000,1.000000,0.348098,0.000000,0.000000,0.939223,0.938763,0.119155,2.000000,269.287778,1.221485,9.000000,0.000000,17.382954,2.557294,8.351247,1.000000,300.000000,0.964935,9.000000,0.000000,187.905435,9.418248,2.072392,2.000000,7
/home/daniel/Projects/ppsevolution/data/maps/custom_maps/Custom_1_Run_0_Map.csv,squared_error,5.906248314431922e-07,0.4996,0.7210,0.901806,1.000000,0.000000,0.008732,0.027902,0.291830,0.558234,1.000000,1.000000,0.231994,0.000000,0.041198,0.778882,0.890028,0.126715,0.000000,282.815980,1.330000,9.000000,0.008732,6.552470,3.272382,6.024102,1.000000,300.000000,0.899917,9.000000,0.041198,155.997577,8.955264,2.140438,0.000000,8
/home/daniel/Projects/ppsevolution/data/maps/custom_maps/Custom_1_Run_0_Map.csv,squared_error,1.0220677099510649e-06,0.4997,0.7186,0.807951,0.832587,0.000000,0.000000,0.704981,0.362650,0.670939,0.000000,1.000000,0.000000,0.000000,0.000000,0.643952,0.927043,0.051012,1.000000,266.391491,1.236249,9.000000,0.000000,141.291315,3.945174,7.038455,0.000000,300.000000,0.770000,9.000000,0.000000,129.146350,9.306908,1.459104,1.000000,9
map,fitness,fitness value,team0ratio,time,HP,Speed,Damage,Acc,ClipSize,RateOfFire,NrBullets,Range,HP,Speed,Damage,Acc,ClipSize,RateOfFire,NrBullets,Range,HP,Speed,Damage,Acc,ClipSize,RateOfFire,NrBullets,Range,HP,Speed,Damage,Acc,ClipSize,RateOfFire,NrBullets,Range,Run,target team0ratio: 0.5,target time: 0.72
/home/daniel/Projects/ppsevolution/data/maps/custom_maps/Custom_2_Run_0_Map.csv,squared_error,7.658486812172872e-06,0.5020,0.7234,0.000000,0.874340,0.000000,0.584745,0.060711,0.116080,0.835415,0.000000,1.000000,0.582435,0.070302,0.079008,1.000000,0.633159,0.000000,2.000000,125.000000,1.259630,9.000000,0.584745,13.081480,1.602757,8.518733,0.000000,300.000000,1.096164,18.912580,0.079008,200.000000,6.515012,1.000000,2.000000,0
/home/daniel/Projects/ppsevolution/data/maps/custom_maps/Custom_2_Run_0_Map.csv,squared_error,4.5839497415724945e-07,0.5004,0.7191,0.033727,0.608432,0.009219,0.514693,0.189787,0.518385,1.000000,0.000000,0.863482,0.173016,0.089493,0.073947,0.996167,1.000000,0.000000,1.000000,130.902266,1.110722,10.299911,0.514693,38.767611,5.424661,10.000000,0.000000,276.109301,0.866889,21.618510,0.073947,199.237134,10.000000,1.000000,1.000000,1
/home/daniel/Projects/ppsevolution/data/maps/custom_maps/Custom_2_Run_0_Map.csv,squared_error,2.993973151717445e-07,0.5008,0.7200,0.179448,0.691439,0.041326,0.513546,0.000000,0.000000,1.000000,2.000000,1.000000,0.216064,0.000000,0.205279,1.000000,1.000000,0.141127,0.000000,156.403323,1.157206,14.826919,0.513546,1.000000,0.500000,10.000000,2.000000,300.000000,0.890996,9.000000,0.205279,200.000000,10.000000,2.270144,0.000000,2
/home/daniel/Projects/ppsevolution/data/maps/custom_maps/Custom_2_Run_0_Map.csv,squared_error,2.7657362590190353e-06,0.4976,0.7200,0.000000,0.854287,0.000000,0.506045,0.144760,0.050602,0.990257,1.000000,0.799481,0.340454,0.024451,0.105845,0.990265,0.577057,0.220133,1.000000,125.000000,1.248401,9.000000,0.506045,29.807200,0.980717,9.912313,1.000000,264.909241,0.960654,12.447642,0.105845,198.062813,5.982040,2.981199,1.000000,3
/home/daniel/Projects/ppsevolution/data/maps/custom_maps/Custom_2_Run_0_Map.csv,squared_error,2.0077861866070903e-06,0.5017,0.7210,0.012630,0.828430,0.000000,0.539064,0.000000,0.172968,0.624388,1.000000,0.834427,0.032603,0.000000,0.171526,1.000000,0.952554,0.000000,1.000000,127.210272,1.233921,9.000000,0.539064,1.000000,2.143200,6.619495,1.000000,271.024801,0.788258,9.000000,0.171526,200.000000,9.549264,1.000000,1.000000,4
/home/daniel/Projects/ppsevolution/data/maps/custom_maps/Custom_2_Run_0_Map.csv,squared_error,1.1885924008765608e-06,0.5012,0.7190,0.198929,0.902411,0.000000,0.520376,0.045933,0.459913,0.927319,1.000000,0.869256,0.069607,0.000000,0.231695,1.000000,0.912561,0.121780,2.000000,159.812524,1.275350,9.000000,0.520376,10.140669,4.869174,9.345869,1.000000,277.119735,0.808980,9.000000,0.231695,200.000000,9.169333,2.096019,2.000000,5
/home/daniel/Projects/ppsevolution/data/maps/custom_maps/Custom_2_Run_0_Map.csv,squared_error,1.4427057683690546e-07,0.5005,0.7201,0.127256,0.492093,0.000000,0.566177,0.757251,0.542244,0.836022,1.000000,1.000000,0.442400,0.003391,0.175717,0.799039,0.542267,0.165341,1.000000,147.269782,1.045572,9.000000,0.566177,151.693019,5.651320,8.524198,1.000000,300.000000,1.017744,9.478111,0.175717,160.008839,5.651535,2.488072,1.000000,6
/home/daniel/Projects/ppsevolution/data/maps/custom_maps/Custom_2_Run_0_Map.csv,squared_error,3.257098680489823e-06,0.4994,0.7175,0.196279,0.932184,0.000000,0.563318,0.207822,0.000000,0.445421,0.000000,0.850865,0.097428,0.000000,0.279540,0.777374,1.000000,0.042900,1.000000,159.348832,1.292023,9.000000,0.563318,42.356518,0.500000,5.008793,0.000000,273.901302,0.824560,9.000000,0.279540,155.697467,10.000000,1.386097,1.000000,7
/home/daniel/Projects/ppsevolution/data/maps/custom_maps/Custom_2_Run_0_Map.csv,squared_error,4.303091712359115e-08,0.5003,0.7201,0.047771,0.718426,0.000000,0.569650,0.337436,0.326345,0.938301,1.000000,1.000000,0.001027,0.000000,0.123615,0.888870,0.762338,0.369472,1.000000,133.359932,1.172319,9.000000,0.569650,68.149673,3.600281,9.444709,1.000000,300.000000,0.770575,9.000000,0.123615,177.885080,7.742210,4.325248,1.000000,8
/home/daniel/Projects/ppsevolution/data/maps/custom_maps/Custom_2_Run_0_Map.csv,squared_error,1.7098061061034202e-06,0.4982,0.7197,0.000000,0.728332,0.097800,0.364910,0.081342,0.000000,0.750194,2.000000,0.658400,0.012823,0.000000,0.166823,0.742869,0.437047,0.000000,2.000000,125.000000,1.177866,22.789788,0.364910,17.187138,0.500000,7.751748,2.000000,240.220051,0.777181,9.000000,0.166823,148.831003,4.651951,1.000000,2.000000,9
map,fitness,fitness value,team0ratio,time,HP,Speed,Damage,Acc,ClipSize,RateOfFire,NrBullets,Range,HP,Speed,Damage,Acc,ClipSize,RateOfFire,NrBullets,Range,HP,Speed,Damage,Acc,ClipSize,RateOfFire,NrBullets,Range,HP,Speed,Damage,Acc,ClipSize,RateOfFire,NrBullets,Range,Run,target team0ratio: 0.5,target time: 0.72
/home/daniel/Projects/ppsevolution/data/maps/custom_maps/Custom_3_Run_0_Map.csv,squared_error,4.175213400799507e-07,0.5004,0.7208,0.019732,0.680455,0.070130,0.581586,0.000000,0.013200,1.000000,1.000000,0.994439,0.241282,0.113385,0.196919,0.976503,0.870943,0.000000,0.000000,128.453161,1.151055,18.888272,0.581586,1.000000,0.625399,10.000000,1.000000,299.026903,0.905118,24.987275,0.196919,195.324105,8.773961,1.000000,0.000000,0
/home/daniel/Projects/ppsevolution/data/maps/custom_maps/Custom_3_Run_0_Map.csv,squared_error,3.6937119565719807e-07,0.5008,0.7196,0.261734,0.967325,0.000000,0.653414,0.175739,0.074609,0.850559,0.000000,1.000000,0.021470,0.066008,0.375816,0.945975,0.810068,0.047724,0.000000,170.803468,1.311702,9.000000,0.653414,35.972098,1.208788,8.655027,0.000000,300.000000,0.782023,18.307165,0.375816,189.249123,8.195643,1.429516,0.000000,1
/home/daniel/Projects/ppsevolution/data/maps/custom_maps/Custom_3_Run_0_Map.csv,squared_error,4.991812336470659e-07,0.5008,0.7206,0.000000,1.000000,0.076230,0.575538,0.118243,0.017171,0.990964,2.000000,1.000000,0.251128,0.000000,0.286301,1.000000,0.790679,0.044414,2.000000,125.000000,1.330000,19.748442,0.575538,24.530363,0.663124,9.918672,2.000000,300.000000,0.910632,9.000000,0.286301,200.000000,8.011454,1.399723,2.000000,2
/home/daniel/Projects/ppsevolution/data/maps/custom_maps/Custom_3_Run_0_Map.csv,squared_error,3.2314794267136714e-06,0.5024,0.7193,0.095080,0.942233,0.045013,0.581327,0.155139,0.000000,0.951185,2.000000,0.938460,0.092938,0.000000,0.345653,0.675068,0.953903,0.004456,0.000000,141.639062,1.297650,15.346780,0.581327,31.872759,0.500000,9.560669,2.000000,289.230515,0.822045,9.000000,0.345653,135.338503,9.562078,1.040104,0.000000,3
/home/daniel/Projects/ppsevolution/data/maps/custom_maps/Custom_3_Run_0_Map.csv,squared_error,8.557775261237677e-07,0.5002,0.7187,0.072720,1.000000,0.009855,0.556805,0.037444,0.144263,0.860604,0.000000,0.679523,0.000000,0.010711,0.344302,1.000000,0.635009,0.058773,2.000000,137.726070,1.330000,10.389616,0.556805,8.451403,1.870497,8.745434,0.000000,243.916598,0.770000,10.510301,0.344302,200.000000,6.532583,1.528959,2.000000,4
/home/daniel/Projects/ppsevolution/data/maps/custom_maps/Custom_3_Run_0_Map.csv,squared_error,2.92406634355291e-07,0.5006,0.7196,0.039345,0.970397,0.077768,0.583636,0.041487,0.257318,0.889123,1.000000,1.000000,0.071823,0.074040,0.225471,0.738299,0.574785,0.192429,0.000000,131.885417,1.313422,19.965251,0.583636,9.255943,2.944525,9.002107,1.000000,300.000000,0.810221,19.439651,0.225471,147.921469,5.960459,2.731860,0.000000,5
/home/daniel/Projects/ppsevolution/data/maps/custom_maps/Custom_3_Run_0_Map.csv,squared_error,1.4146627570781482e-07,0.4995,0.7201,0.078654,0.939402,0.225770,0.457946,0.046658,0.096350,0.970038,0.000000,1.000000,0.150073,0.057701,0.261075,1.000000,0.973243,0.102919,0.000000,138.764508,1.296065,40.833576,0.457946,10.284936,1.415328,9.730338,0.000000,300.000000,0.854041,17.135798,0.261075,200.000000,9.745805,1.926271,0.000000,6
/home/daniel/Projects/ppsevolution/data/maps/custom_maps/Custom_3_Run_0_Map.csv,squared_error,1.254298615378986e-07,0.5005,0.7201,0.153150,1.000000,0.039797,0.589492,0.000000,0.121982,0.490351,2.000000,0.851071,0.642240,0.111941,0.263232,0.895305,0.863530,0.066982,1.000000,151.801317,1.330000,14.611351,0.589492,1.000000,1.658826,5.413160,2.000000,273.937385,1.129655,24.783727,0.263232,179.165667,8.703534,1.602835,1.000000,7
/home/daniel/Projects/ppsevolution/data/maps/custom_maps/Custom_3_Run_0_Map.csv,squared_error,6.137586724844385e-06,0.5034,0.7206,0.341897,0.983465,0.000000,0.632398,0.000000,0.000000,1.000000,1.000000,1.000000,0.083250,0.000000,0.442462,0.865043,0.590326,0.043552,2.000000,184.831963,1.320740,9.000000,0.632398,1.000000,0.500000,10.000000,1.000000,300.000000,0.816620,9.000000,0.442462,173.143510,6.108101,1.391972,2.000000,8
/home/daniel/Projects/ppsevolution/data/maps/custom_maps/Custom_3_Run_0_Map.csv,squared_error,1.1087177285957899e-06,0.4990,0.7189,0.126614,1.000000,0.313519,0.354414,0.263492,0.167630,0.906533,0.000000,0.934225,0.256700,0.008903,0.331063,0.755671,1.000000,0.072356,1.000000,147.157364,1.330000,53.206191,0.354414,53.434908,2.092488,9.158801,0.000000,288.489339,0.913752,10.255287,0.331063,151.378617,10.000000,1.651202,1.000000,9
map,fitness,fitness value,team0ratio,time,HP,Speed,Damage,Acc,ClipSize,RateOfFire,NrBullets,Range,HP,Speed,Damage,Acc,ClipSize,RateOfFire,NrBullets,Range,HP,Speed,Damage,Acc,ClipSize,RateOfFire,NrBullets,Range,HP,Speed,Damage,Acc,ClipSize,RateOfFire,NrBullets,Range,Run,target team0ratio: 0.5,target time: 0.72
/home/daniel/Projects/ppsevolution/data/maps/custom_maps/Custom_4_Run_0_Map.csv,squared_error,8.463767342277684e-07,0.4987,0.7203,0.666671,1.000000,0.041977,0.273173,0.023947,0.000000,0.610230,0.000000,1.000000,0.051485,0.000000,0.124571,1.000000,1.000000,0.051661,0.000000,241.667438,1.330000,14.918718,0.273173,5.765447,0.500000,6.492067,0.000000,300.000000,0.798832,9.000000,0.124571,200.000000,10.000000,1.464952,0.000000,0
/home/daniel/Projects/ppsevolution/data/maps/custom_maps/Custom_4_Run_0_Map.csv,squared_error,2.5050270946288427e-06,0.4992,0.7221,0.660428,0.830298,0.091360,0.143766,0.034583,0.136482,1.000000,0.000000,0.949598,0.224307,0.000000,0.081228,0.677450,0.625836,0.162469,1.000000,240.574874,1.234967,21.881813,0.143766,7.882004,1.796578,10.000000,0.000000,291.179732,0.895612,9.000000,0.081228,135.812470,6.445441,2.462222,1.000000,1
/home/daniel/Projects/ppsevolution/data/maps/custom_maps/Custom_4_Run_0_Map.csv,squared_error,1.1636680107159497e-06,0.4988,0.7210,0.531021,1.000000,0.023050,0.269987,0.000000,0.431640,0.825675,1.000000,0.996782,0.014522,0.000000,0.034847,1.000000,0.956649,0.077968,1.000000,217.928670,1.330000,12.250050,0.269987,1.000000,4.600582,8.431073,1.000000,299.436860,0.778132,9.000000,0.034847,200.000000,9.588168,1.701712,1.000000,2
/home/daniel/Projects/ppsevolution/data/maps/custom_maps/Custom_4_Run_0_Map.csv,squared_error,1.4740905768036404e-06,0.4983,0.7203,0.396014,1.000000,0.000000,0.054761,0.108231,0.543058,0.838431,2.000000,0.437649,0.276663,0.000000,0.000000,0.789476,0.697610,0.000000,1.000000,194.302388,1.330000,9.000000,0.054761,22.538046,5.659047,8.545879,2.000000,201.588580,0.924931,9.000000,0.000000,158.105678,7.127297,1.000000,1.000000,3
/home/daniel/Projects/ppsevolution/data/maps/custom_maps/Custom_4_Run_0_Map.csv,squared_error,3.144732906150085e-08,0.4999,0.7198,0.674945,0.839202,0.000000,0.304363,0.000000,0.243639,0.744018,0.000000,1.000000,0.000000,0.025728,0.085408,0.887734,0.787919,0.118140,0.000000,243.115385,1.239953,9.000000,0.304363,1.000000,2.814570,7.696161,0.000000,300.000000,0.770000,12.627594,0.085408,177.659065,7.985227,2.063256,0.000000,4
/home/daniel/Projects/ppsevolution/data/maps/custom_maps/Custom_4_Run_0_Map.csv,squared_error,1.1161150764563552e-07,0.5000,0.7195,0.474307,0.531937,0.058428,0.265037,0.357817,0.148172,0.465621,1.000000,1.000000,0.530652,0.000000,0.000000,0.392552,1.000000,0.012047,0.000000,208.003774,1.067885,17.238356,0.265037,72.205654,1.907638,5.190590,1.000000,300.000000,1.067165,9.000000,0.000000,79.117811,10.000000,1.108423,0.000000,5
/home/daniel/Projects/ppsevolution/data/maps/custom_maps/Custom_4_Run_0_Map.csv,squared_error,7.886160459065324e-07,0.4997,0.7188,0.507264,0.288444,0.000000,0.288623,0.000000,0.020642,0.883238,2.000000,1.000000,0.000000,0.014641,0.000000,0.865150,0.961997,0.089056,1.000000,213.771165,0.931529,9.000000,0.288623,1.000000,0.696099,8.949145,2.000000,300.000000,0.770000,11.064446,0.000000,173.164793,9.638967,1.801504,1.000000,6
/home/daniel/Projects/ppsevolution/data/maps/custom_maps/Custom_4_Run_0_Map.csv,squared_error,3.563295284976452e-07,0.5001,0.7192,0.480136,0.772767,0.177970,0.118972,0.000000,0.313148,0.687930,0.000000,1.000000,0.000000,0.000000,0.000000,0.860768,0.920172,0.059782,1.000000,209.023836,1.202749,34.093759,0.118972,1.000000,3.474908,7.191374,0.000000,300.000000,0.770000,9.000000,0.000000,172.292844,9.241630,1.538042,1.000000,7
/home/daniel/Projects/ppsevolution/data/maps/custom_maps/Custom_4_Run_0_Map.csv,squared_error,5.749094418668487e-07,0.4996,0.7210,0.470462,0.921630,0.000000,0.305868,0.290970,0.223306,0.855522,1.000000,1.000000,0.666219,0.000000,0.000000,0.975166,0.921662,0.087292,0.000000,207.330880,1.286113,9.000000,0.305868,58.902953,2.621403,8.699699,1.000000,300.000000,1.143083,9.000000,0.000000,195.058020,9.255789,1.785631,0.000000,8
/home/daniel/Projects/ppsevolution/data/maps/custom_maps/Custom_4_Run_0_Map.csv,squared_error,1.0543207321240976e-06,0.4990,0.7190,0.516388,0.835217,0.148054,0.040171,0.266044,0.388423,0.743516,1.000000,0.768940,0.312247,0.000000,0.030565,1.000000,0.736459,0.010792,2.000000,215.367895,1.237722,29.875595,0.040171,53.942795,4.190016,7.691648,1.000000,259.564443,0.944858,9.000000,0.030565,200.000000,7.496358,1.097127,2.000000,9
map,fitness,fitness value,team0ratio,time,HP,Speed,Damage,Acc,ClipSize,RateOfFire,NrBullets,Range,HP,Speed,Damage,Acc,ClipSize,RateOfFire,NrBullets,Range,HP,Speed,Damage,Acc,ClipSize,RateOfFire,NrBullets,Range,HP,Speed,Damage,Acc,ClipSize,RateOfFire,NrBullets,Range,Run,target team0ratio: 0.5,target time: 0.72
/home/daniel/Projects/ppsevolution/data/maps/custom_maps/Custom_5_Run_0_Map.csv,squared_error,1.1300921545228376e-06,0.5005,0.7214,0.325377,0.886154,0.090199,0.357960,0.045407,0.000000,0.548270,0.000000,0.922519,0.385448,0.019185,0.110849,0.972767,0.817038,0.337833,0.000000,181.941041,1.266246,21.718063,0.357960,10.035904,0.500000,5.934429,0.000000,286.440858,0.985851,11.705040,0.110849,194.580588,8.261864,4.040494,0.000000,0
/home/daniel/Projects/ppsevolution/data/maps/custom_maps/Custom_5_Run_0_Map.csv,squared_error,1.2181769298251037e-07,0.5004,0.7197,0.000000,0.851721,0.069249,0.339603,0.000000,0.136486,0.965801,2.000000,0.907505,0.011805,0.000789,0.000000,0.942369,0.942432,0.060825,0.000000,125.000000,1.246964,18.764177,0.339603,1.000000,1.796617,9.692208,2.000000,283.813373,0.776611,9.111273,0.000000,188.531391,9.453099,1.547426,0.000000,1
/home/daniel/Projects/ppsevolution/data/maps/custom_maps/Custom_5_Run_0_Map.csv,squared_error,1.3014266413050536e-07,0.5003,0.7196,0.129705,0.412879,0.084028,0.379912,0.113803,0.258916,0.655518,1.000000,1.000000,0.101455,0.000000,0.062867,0.901439,0.912802,0.000000,2.000000,147.698442,1.001212,20.848004,0.379912,23.646781,2.959699,6.899662,1.000000,300.000000,0.826815,9.000000,0.062867,180.386306,9.171620,1.000000,2.000000,2
/home/daniel/Projects/ppsevolution/data/maps/custom_maps/Custom_5_Run_0_Map.csv,squared_error,1.5545951163183145e-06,0.4983,0.7196,0.333281,1.000000,0.137907,0.296558,0.022014,0.000000,0.906973,0.000000,0.985024,0.077763,0.000000,0.115789,0.854316,1.000000,0.475210,0.000000,183.324118,1.330000,28.444946,0.296558,5.380746,0.500000,9.162760,0.000000,297.379178,0.813547,9.000000,0.115789,171.008845,10.000000,5.276894,0.000000,3
/home/daniel/Projects/ppsevolution/data/maps/custom_maps/Custom_5_Run_0_Map.csv,squared_error,1.4501549241970504e-06,0.4987,0.7211,0.131935,0.977288,0.000000,0.452035,0.000000,0.000000,1.000000,0.000000,1.000000,0.401998,0.028617,0.013163,0.911038,0.938173,0.261580,1.000000,148.088582,1.317281,9.000000,0.452035,1.000000,0.500000,10.000000,0.000000,300.000000,0.995119,13.035055,0.013163,182.296506,9.412643,3.354216,1.000000,4
/home/daniel/Projects/ppsevolution/data/maps/custom_maps/Custom_5_Run_0_Map.csv,squared_error,7.444535670060908e-07,0.5011,0.7206,0.070028,1.000000,0.018870,0.447417,0.095067,0.470729,0.793258,0.000000,1.000000,0.048483,0.000000,0.054207,1.000000,0.877209,0.009906,0.000000,137.254871,1.330000,11.660740,0.447417,19.918363,4.971929,8.139323,0.000000,300.000000,0.797151,9.000000,0.054207,200.000000,8.833489,1.089155,0.000000,5
/home/daniel/Projects/ppsevolution/data/maps/custom_maps/Custom_5_Run_0_Map.csv,squared_error,1.2330957527069997e-06,0.5003,0.7215,0.000000,0.896599,0.000000,0.443793,0.000000,0.123220,1.000000,1.000000,0.989690,0.223806,0.000000,0.000000,0.977032,1.000000,0.043981,1.000000,125.000000,1.272096,9.000000,0.443793,1.000000,1.670594,10.000000,1.000000,298.195719,0.895332,9.000000,0.000000,195.429288,10.000000,1.395832,1.000000,6
/home/daniel/Projects/ppsevolution/data/maps/custom_maps/Custom_5_Run_0_Map.csv,squared_error,9.606005255421132e-07,0.5002,0.7214,0.303958,0.913595,0.000000,0.458112,0.092777,0.326870,0.756486,0.000000,1.000000,0.325234,0.133836,0.000000,1.000000,1.000000,0.181201,0.000000,178.192711,1.281613,9.000000,0.458112,19.462636,3.605262,7.808374,0.000000,300.000000,0.952131,27.870815,0.000000,200.000000,10.000000,2.630812,0.000000,7
/home/daniel/Projects/ppsevolution/data/maps/custom_maps/Custom_5_Run_0_Map.csv,squared_error,2.7972522117353493e-07,0.4995,0.7205,0.549981,1.000000,0.000000,0.410425,0.157358,0.055563,0.411382,2.000000,0.874198,0.036245,0.000000,0.285075,0.866515,0.826833,0.030747,0.000000,221.246751,1.330000,9.000000,0.410425,32.314284,1.027846,4.702435,2.000000,277.984705,0.790297,9.000000,0.285075,173.436479,8.354918,1.276724,0.000000,8
/home/daniel/Projects/ppsevolution/data/maps/custom_maps/Custom_5_Run_0_Map.csv,squared_error,2.406450450519003e-06,0.5005,0.7179,0.270597,0.996900,0.037149,0.320525,0.383303,0.251742,0.597031,2.000000,0.722110,0.000000,0.044819,0.081097,0.990552,0.842850,0.214093,1.000000,172.354470,1.328264,14.237966,0.320525,77.277359,2.891546,6.373275,2.000000,251.369283,0.770000,15.319513,0.081097,198.119799,8.507071,2.926841,1.000000,9
map,fitness,fitness value,team0ratio,time,HP,Speed,Damage,Acc,ClipSize,RateOfFire,NrBullets,Range,HP,Speed,Damage,Acc,ClipSize,RateOfFire,NrBullets,Range,HP,Speed,Damage,Acc,ClipSize,RateOfFire,NrBullets,Range,HP,Speed,Damage,Acc,ClipSize,RateOfFire,NrBullets,Range,Run,target team0ratio: 0.5,target time: 0.72
/home/daniel/Projects/ppsevolution/data/maps/custom_maps/Custom_6_Run_0_Map.csv,squared_error,4.127315759035159e-07,0.5005,0.7193,0.000000,0.881445,0.374590,0.483137,0.283153,0.198189,0.919462,0.000000,0.954886,0.000000,0.000000,0.493695,0.985815,0.882306,0.129524,2.000000,125.000000,1.263609,61.817181,0.483137,57.347421,2.382797,9.275160,0.000000,292.105091,0.770000,9.000000,0.493695,197.177130,8.881911,2.165713,2.000000,0
/home/daniel/Projects/ppsevolution/data/maps/custom_maps/Custom_6_Run_0_Map.csv,squared_error,1.7480369392160166e-06,0.5017,0.7193,0.121639,0.959342,0.223055,0.609931,0.369914,0.149103,0.889045,1.000000,1.000000,0.186178,0.000000,0.543021,0.927945,0.957457,0.108745,0.000000,146.286846,1.307232,40.450752,0.609931,74.612871,1.916481,9.001401,1.000000,300.000000,0.874260,9.000000,0.543021,185.661023,9.595840,1.978704,0.000000,1
/home/daniel/Projects/ppsevolution/data/maps/custom_maps/Custom_6_Run_0_Map.csv,squared_error,3.518043672386077e-07,0.5003,0.7192,0.000000,1.000000,0.137929,0.667912,0.215830,0.010001,1.000000,1.000000,1.000000,0.292627,0.036588,0.478960,0.928185,0.985776,0.218662,0.000000,125.000000,1.330000,28.448005,0.667912,43.950114,0.595006,10.000000,1.000000,300.000000,0.933871,14.158870,0.478960,185.708890,9.864874,2.967957,0.000000,2
/home/daniel/Projects/ppsevolution/data/maps/custom_maps/Custom_6_Run_0_Map.csv,squared_error,7.790750188093142e-07,0.5010,0.7207,0.105040,0.953664,0.265249,0.557172,0.073695,0.000000,1.000000,2.000000,1.000000,0.262962,0.002939,0.519178,0.934272,0.940731,0.111584,0.000000,143.382078,1.304052,46.400121,0.557172,15.665232,0.500000,10.000000,2.000000,300.000000,0.917259,9.414448,0.519178,186.920203,9.436940,2.004260,0.000000,3
/home/daniel/Projects/ppsevolution/data/maps/custom_maps/Custom_6_Run_0_Map.csv,squared_error,2.382304436619571e-06,0.4988,0.7182,0.000000,0.843353,0.095399,0.699656,0.067062,0.000000,0.975458,0.000000,1.000000,0.080107,0.060311,0.489949,0.916187,1.000000,0.016578,0.000000,125.000000,1.242278,22.451271,0.699656,14.345319,0.500000,9.779121,0.000000,300.000000,0.814860,17.503880,0.489949,183.321310,10.000000,1.149205,0.000000,4
/home/daniel/Projects/ppsevolution/data/maps/custom_maps/Custom_6_Run_0_Map.csv,squared_error,7.80062014696333e-06,0.5026,0.7170,0.109786,0.837500,0.359598,0.502182,0.000000,0.800644,0.979557,0.000000,0.958919,0.059710,0.197825,0.398017,0.874758,0.588452,0.000000,0.000000,144.212541,1.239000,59.703326,0.502182,1.000000,8.106120,9.816010,0.000000,292.810909,0.803438,36.893286,0.398017,175.076835,6.090297,1.000000,0.000000,5
/home/daniel/Projects/ppsevolution/data/maps/custom_maps/Custom_6_Run_0_Map.csv,squared_error,3.081795677655887e-06,0.4978,0.7188,0.054890,0.792323,0.000000,0.729844,0.053623,0.000000,0.918456,2.000000,1.000000,0.100063,0.082945,0.465791,0.657704,0.802232,0.276525,2.000000,134.605718,1.213701,9.000000,0.729844,11.670884,0.500000,9.266108,2.000000,300.000000,0.826035,20.695279,0.465791,131.883035,8.121206,3.488722,2.000000,6
/home/daniel/Projects/ppsevolution/data/maps/custom_maps/Custom_6_Run_0_Map.csv,squared_error,2.563759683394571e-06,0.5021,0.7208,0.028339,0.713855,0.000000,0.740839,0.534653,0.030171,0.779895,2.000000,0.995680,0.325104,0.000000,0.532193,0.853084,0.655157,0.077404,1.000000,129.959325,1.169759,9.000000,0.740839,107.396012,0.786622,8.019058,2.000000,299.244044,0.952058,9.000000,0.532193,170.763630,6.723996,1.696632,1.000000,7
/home/daniel/Projects/ppsevolution/data/maps/custom_maps/Custom_6_Run_0_Map.csv,squared_error,2.693644964733712e-06,0.5023,0.7197,0.185836,0.961037,0.258375,0.565149,0.000000,0.000000,1.000000,2.000000,1.000000,0.155478,0.068312,0.511904,0.913083,0.920684,0.000000,0.000000,157.521236,1.308180,45.430931,0.565149,1.000000,0.500000,10.000000,2.000000,300.000000,0.857068,18.632040,0.511904,182.703448,9.246496,1.000000,0.000000,8
/home/daniel/Projects/ppsevolution/data/maps/custom_maps/Custom_6_Run_0_Map.csv,squared_error,3.2041639384489604e-07,0.4995,0.7206,0.000000,0.796050,0.218528,0.598981,0.238436,0.000000,1.000000,2.000000,1.000000,0.000000,0.000000,0.485161,0.858594,0.989239,0.259273,1.000000,125.000000,1.215788,39.812383,0.598981,48.448787,0.500000,10.000000,2.000000,300.000000,0.770000,9.000000,0.485161,171.860170,9.897768,3.333453,1.000000,9
map,fitness,fitness value,team0ratio,time,HP,Speed,Damage,Acc,ClipSize,RateOfFire,NrBullets,Range,HP,Speed,Damage,Acc,ClipSize,RateOfFire,NrBullets,Range,HP,Speed,Damage,Acc,ClipSize,RateOfFire,NrBullets,Range,HP,Speed,Damage,Acc,ClipSize,RateOfFire,NrBullets,Range,Run,target team0ratio: 0.5,target time: 0.72
/home/daniel/Projects/ppsevolution/data/maps/custom_maps/Custom_7_Run_0_Map.csv,squared_error,1.6614439937086086e-06,0.5012,0.7187,0.016275,0.912449,0.000000,0.512605,0.000000,0.525907,0.796634,2.000000,0.920345,0.000000,0.000000,0.115014,1.000000,0.961053,0.206267,1.000000,127.848155,1.280972,9.000000,0.512605,1.000000,5.496115,8.169702,2.000000,286.060416,0.770000,9.000000,0.115014,200.000000,9.630001,2.856404,1.000000,0
/home/daniel/Projects/ppsevolution/data/maps/custom_maps/Custom_7_Run_0_Map.csv,squared_error,4.79332846339962e-07,0.4996,0.7191,0.120768,0.544474,0.092344,0.444005,0.238931,0.000000,0.933451,1.000000,0.970906,0.001969,0.000000,0.171384,1.000000,0.937749,0.209109,2.000000,146.134342,1.074906,22.020434,0.444005,48.547279,0.500000,9.401056,1.000000,294.908618,0.771103,9.000000,0.171384,200.000000,9.408612,2.881981,2.000000,1
/home/daniel/Projects/ppsevolution/data/maps/custom_maps/Custom_7_Run_0_Map.csv,squared_error,6.207073056259503e-07,0.5011,0.7198,0.090956,1.000000,0.125685,0.420324,0.056902,0.281682,0.810561,2.000000,0.995792,0.000000,0.061844,0.098286,1.000000,0.768100,0.044330,1.000000,140.917223,1.330000,26.721545,0.420324,12.323451,3.175976,8.295049,2.000000,299.263552,0.770000,17.720062,0.098286,200.000000,7.796948,1.398969,1.000000,2
/home/daniel/Projects/ppsevolution/data/maps/custom_maps/Custom_7_Run_0_Map.csv,squared_error,9.758648899634096e-07,0.5014,0.7197,0.303051,1.000000,0.033049,0.416433,0.000000,0.085415,1.000000,0.000000,0.791949,0.171470,0.039891,0.220943,0.825053,0.969777,0.159347,0.000000,178.033892,1.330000,13.659905,0.416433,1.000000,1.311444,10.000000,0.000000,263.590988,0.866023,14.624597,0.220943,165.185495,9.712886,2.434121,0.000000,3
/home/daniel/Projects/ppsevolution/data/maps/custom_maps/Custom_7_Run_0_Map.csv,squared_error,1.1790012129324486e-07,0.4995,0.7199,0.026380,0.850380,0.045807,0.493787,0.091127,0.155961,0.986982,1.000000,1.000000,0.203645,0.028340,0.098028,1.000000,0.916110,0.147098,1.000000,129.616480,1.246213,15.458751,0.493787,19.134194,1.981628,9.882836,1.000000,300.000000,0.884041,12.995958,0.098028,200.000000,9.203044,2.323882,1.000000,4
/home/daniel/Projects/ppsevolution/data/maps/custom_maps/Custom_7_Run_0_Map.csv,squared_error,2.885469803413736e-06,0.5006,0.7177,0.018894,0.858293,0.111406,0.440632,0.063354,0.000000,0.849026,0.000000,0.926013,0.244528,0.017527,0.138257,0.946218,0.964627,0.074059,2.000000,128.306482,1.250644,24.708216,0.440632,13.607370,0.500000,8.641236,0.000000,287.052237,0.906936,11.471348,0.138257,189.297476,9.663953,1.666535,2.000000,5
/home/daniel/Projects/ppsevolution/data/maps/custom_maps/Custom_7_Run_0_Map.csv,squared_error,1.306111364112853e-06,0.4995,0.7185,0.214311,0.925967,0.000000,0.537055,0.417849,0.180597,0.798885,0.000000,0.989675,0.085237,0.086220,0.116559,0.880713,0.798596,0.314964,0.000000,162.504441,1.288541,9.000000,0.537055,84.151907,2.215674,8.189962,0.000000,298.193148,0.817733,21.157041,0.116559,176.261832,8.086658,3.834678,0.000000,6
/home/daniel/Projects/ppsevolution/data/maps/custom_maps/Custom_7_Run_0_Map.csv,squared_error,4.115325708483013e-07,0.4991,0.7203,0.176218,0.831291,0.000000,0.543281,0.015998,0.109258,0.722138,1.000000,1.000000,0.108938,0.030821,0.169130,0.975655,0.723109,0.173857,2.000000,155.838075,1.235523,9.000000,0.543281,4.183550,1.537953,7.499242,1.000000,300.000000,0.831005,13.345823,0.169130,195.155433,7.369540,2.564714,2.000000,7
/home/daniel/Projects/ppsevolution/data/maps/custom_maps/Custom_7_Run_0_Map.csv,squared_error,4.5255066501399033e-07,0.5007,0.7206,0.260624,0.646571,0.289298,0.248178,0.392464,0.560503,0.362972,0.000000,0.936091,0.000000,0.000000,0.219400,0.572358,0.918263,0.031217,0.000000,170.609150,1.132080,49.790994,0.248178,79.100366,5.824779,4.266744,0.000000,288.815918,0.770000,9.000000,0.219400,114.899332,9.223497,1.280951,0.000000,8
/home/daniel/Projects/ppsevolution/data/maps/custom_maps/Custom_7_Run_0_Map.csv,squared_error,6.59397410459003e-08,0.4997,0.7202,0.000000,0.825010,0.000000,0.494114,0.080848,0.000000,0.490935,2.000000,0.775488,0.002071,0.000000,0.089780,1.000000,0.637826,0.482227,1.000000,125.000000,1.232006,9.000000,0.494114,17.088746,0.500000,5.418416,2.000000,260.710475,0.771160,9.000000,0.089780,200.000000,6.559343,5.340046,1.000000,9
map,fitness,fitness value,team0ratio,time,HP,Speed,Damage,Acc,ClipSize,RateOfFire,NrBullets,Range,HP,Speed,Damage,Acc,ClipSize,RateOfFire,NrBullets,Range,HP,Speed,Damage,Acc,ClipSize,RateOfFire,NrBullets,Range,HP,Speed,Damage,Acc,ClipSize,RateOfFire,NrBullets,Range,Run,target team0ratio: 0.5,target time: 0.72
/home/daniel/Projects/ppsevolution/data/maps/custom_maps/Custom_8_Run_0_Map.csv,squared_error,2.6077611953752134e-06,0.5019,0.7187,0.343084,0.710017,0.000000,0.275021,0.188596,0.406285,0.746055,0.000000,0.724689,0.000000,0.000000,0.091732,0.923463,0.928426,0.000000,1.000000,185.039689,1.167610,9.000000,0.275021,38.530650,4.359704,7.714497,0.000000,251.820560,0.770000,9.000000,0.091732,184.769054,9.320050,1.000000,1.000000,0
/home/daniel/Projects/ppsevolution/data/maps/custom_maps/Custom_8_Run_0_Map.csv,squared_error,8.25838914320764e-07,0.4998,0.7187,0.352652,0.815360,0.031136,0.336041,0.010591,0.345513,0.898495,1.000000,1.000000,0.244456,0.066597,0.000000,1.000000,0.679011,0.000000,2.000000,186.714082,1.226602,13.390199,0.336041,3.107517,3.782373,9.086458,1.000000,300.000000,0.906895,18.390201,0.000000,200.000000,6.950602,1.000000,2.000000,1
/home/daniel/Projects/ppsevolution/data/maps/custom_maps/Custom_8_Run_0_Map.csv,squared_error,1.1820314462170014e-06,0.5013,0.7191,0.193959,0.702374,0.000000,0.353282,0.083105,0.277013,1.000000,1.000000,0.970236,0.090140,0.000000,0.000000,0.820227,0.998802,0.000000,1.000000,158.942764,1.163329,9.000000,0.353282,17.537937,3.131622,10.000000,1.000000,294.791221,0.820478,9.000000,0.000000,164.225191,9.988620,1.000000,1.000000,2
/home/daniel/Projects/ppsevolution/data/maps/custom_maps/Custom_8_Run_0_Map.csv,squared_error,4.943317374291264e-07,0.4990,0.7202,0.326895,1.000000,0.000000,0.357049,0.250564,0.292723,0.981372,1.000000,1.000000,0.251659,0.000000,0.019748,0.653749,0.988169,0.353561,0.000000,182.206650,1.330000,9.000000,0.357049,50.862155,3.280864,9.832349,1.000000,300.000000,0.910929,9.000000,0.019748,131.096093,9.887605,4.182045,0.000000,3
/home/daniel/Projects/ppsevolution/data/maps/custom_maps/Custom_8_Run_0_Map.csv,squared_error,8.562549296272323e-07,0.5003,0.7213,0.352637,0.864487,0.006552,0.221795,0.000000,0.000000,1.000000,2.000000,0.687183,0.258126,0.000000,0.067232,1.000000,0.994942,0.192350,0.000000,186.711426,1.254113,9.923857,0.221795,1.000000,0.500000,10.000000,2.000000,245.257018,0.914550,9.000000,0.067232,200.000000,9.951951,2.731149,0.000000,4
/home/daniel/Projects/ppsevolution/data/maps/custom_maps/Custom_8_Run_0_Map.csv,squared_error,4.907532490079883e-07,0.4991,0.7203,0.166159,0.777165,0.030176,0.269825,0.080086,0.166901,0.785954,1.000000,0.786534,0.175884,0.000000,0.000000,0.992051,1.000000,0.000000,0.000000,154.077843,1.205212,13.254848,0.269825,16.937179,2.085559,8.073589,1.000000,262.643521,0.868495,9.000000,0.000000,198.418244,10.000000,1.000000,0.000000,5
/home/daniel/Projects/ppsevolution/data/maps/custom_maps/Custom_8_Run_0_Map.csv,squared_error,1.6183207845870467e-07,0.4994,0.7201,0.342265,0.836698,0.000000,0.371474,0.219241,0.304803,0.711992,0.000000,0.970522,0.277737,0.017745,0.058761,0.698938,1.000000,0.000000,1.000000,184.896393,1.238551,9.000000,0.371474,44.628863,3.395627,7.407927,0.000000,294.841436,0.925533,11.502101,0.058761,140.088694,10.000000,1.000000,1.000000,6
/home/daniel/Projects/ppsevolution/data/maps/custom_maps/Custom_8_Run_0_Map.csv,squared_error,2.552520197252701e-06,0.4999,0.7177,0.384894,1.000000,0.000000,0.295488,0.081376,0.135946,1.000000,1.000000,0.825232,0.000000,0.012864,0.056316,1.000000,0.704209,0.297783,2.000000,192.356535,1.330000,9.000000,0.295488,17.193912,1.791489,10.000000,1.000000,269.415563,0.770000,10.813817,0.056316,200.000000,7.189990,3.680051,2.000000,7
/home/daniel/Projects/ppsevolution/data/maps/custom_maps/Custom_8_Run_0_Map.csv,squared_error,8.129980215982999e-07,0.5004,0.7188,0.337589,1.000000,0.018513,0.380964,0.188344,0.000000,0.653240,0.000000,1.000000,0.000000,0.000000,0.058951,0.909983,1.000000,0.271921,0.000000,184.078026,1.330000,11.610395,0.380964,38.480487,0.500000,6.879158,0.000000,300.000000,0.770000,9.000000,0.058951,182.086587,10.000000,3.447287,0.000000,8
/home/daniel/Projects/ppsevolution/data/maps/custom_maps/Custom_8_Run_0_Map.csv,squared_error,9.536312127351811e-07,0.5002,0.7186,0.303067,0.918061,0.002961,0.317898,0.406696,0.102009,1.000000,1.000000,0.884883,0.070936,0.000000,0.024382,0.984763,1.000000,0.309420,1.000000,178.036659,1.284114,9.417558,0.317898,81.932601,1.469085,10.000000,1.000000,279.854544,0.809724,9.000000,0.024382,196.967747,10.000000,3.784782,1.000000,9
map,fitness,fitness value,team0ratio,time,HP,Speed,Damage,Acc,ClipSize,RateOfFire,NrBullets,Range,HP,Speed,Damage,Acc,ClipSize,RateOfFire,NrBullets,Range,HP,Speed,Damage,Acc,ClipSize,RateOfFire,NrBullets,Range,HP,Speed,Damage,Acc,ClipSize,RateOfFire,NrBullets,Range,Run,target team0ratio: 0.5,target time: 0.72
/home/daniel/Projects/ppsevolution/data/maps/custom_maps/Custom_9_Run_0_Map.csv,squared_error,1.5590373712087966e-07,0.4998,0.7205,0.835560,0.585687,0.000000,0.140170,0.023273,0.238631,0.817410,0.000000,0.923130,0.172630,0.000000,0.136300,0.549506,0.699049,0.323804,1.000000,271.223030,1.097985,9.000000,0.140170,5.631276,2.766996,8.356688,0.000000,286.547808,0.866673,9.000000,0.136300,110.351630,7.140964,3.914237,1.000000,0
/home/daniel/Projects/ppsevolution/data/maps/custom_maps/Custom_9_Run_0_Map.csv,squared_error,1.1329334124183928e-06,0.5009,0.7188,0.524893,0.616112,0.000000,0.057365,0.147871,0.755714,0.933583,1.000000,0.724709,0.351372,0.000000,0.000000,0.656178,0.946628,0.106286,2.000000,216.856362,1.115023,9.000000,0.057365,30.426412,7.679286,9.402247,1.000000,251.823992,0.966768,9.000000,0.000000,131.579507,9.492964,1.956576,2.000000,1
/home/daniel/Projects/ppsevolution/data/maps/custom_maps/Custom_9_Run_0_Map.csv,squared_error,1.2216047347386806e-06,0.4985,0.7196,0.608832,0.658962,0.050632,0.120861,0.005982,0.272798,0.778053,2.000000,1.000000,0.059869,0.000000,0.056940,0.732402,0.856230,0.000000,0.000000,231.545647,1.139019,16.139060,0.120861,2.190324,3.091579,8.002476,2.000000,300.000000,0.803527,9.000000,0.056940,146.747961,8.634187,1.000000,0.000000,2
/home/daniel/Projects/ppsevolution/data/maps/custom_maps/Custom_9_Run_0_Map.csv,squared_error,1.8901183798618984e-07,0.4994,0.7201,0.573355,0.955572,0.053993,0.000000,0.460178,0.363464,0.588382,1.000000,0.672602,0.021113,0.049374,0.000000,0.871775,0.878190,0.009729,1.000000,225.337127,1.305121,16.613007,0.000000,92.575324,3.952912,6.295436,1.000000,242.705358,0.781823,15.961669,0.000000,174.483197,8.842809,1.087563,1.000000,3
/home/daniel/Projects/ppsevolution/data/maps/custom_maps/Custom_9_Run_0_Map.csv,squared_error,9.977458446115521e-07,0.5006,0.7187,0.624500,0.904416,0.055069,0.142987,0.399138,0.153166,0.497815,1.000000,0.967876,0.086485,0.000000,0.070895,1.000000,0.911371,0.000000,2.000000,234.287490,1.276473,16.764780,0.142987,80.428548,1.955074,5.480336,1.000000,294.378296,0.818432,9.000000,0.070895,200.000000,9.158021,1.000000,2.000000,4
/home/daniel/Projects/ppsevolution/data/maps/custom_maps/Custom_9_Run_0_Map.csv,squared_error,1.1611915146233118e-06,0.5011,0.7211,0.640158,0.771809,0.053392,0.148321,0.000000,0.000000,0.695630,0.000000,1.000000,0.205303,0.066073,0.000000,1.000000,0.669853,0.000000,0.000000,237.027593,1.202213,16.528281,0.148321,1.000000,0.500000,7.260672,0.000000,300.000000,0.884970,18.316308,0.000000,200.000000,6.863602,1.000000,0.000000,5
/home/daniel/Projects/ppsevolution/data/maps/custom_maps/Custom_9_Run_0_Map.csv,squared_error,3.642025696145134e-07,0.4998,0.7208,0.571399,0.746635,0.194938,0.000000,0.000000,0.195294,0.386574,0.000000,1.000000,0.180382,0.000000,0.000000,0.536111,0.892438,0.256103,0.000000,224.994836,1.188116,36.486258,0.000000,1.000000,2.355289,4.479165,0.000000,300.000000,0.871014,9.000000,0.000000,107.686088,8.978163,3.304923,0.000000,6
/home/daniel/Projects/ppsevolution/data/maps/custom_maps/Custom_9_Run_0_Map.csv,squared_error,2.646327446427654e-07,0.5007,0.7199,0.529944,0.907074,0.000000,0.187141,0.000000,0.079324,1.000000,0.000000,1.000000,0.000000,0.000000,0.000000,0.817377,0.787357,0.184145,1.000000,217.740183,1.277961,9.000000,0.187141,1.000000,1.253576,10.000000,0.000000,300.000000,0.770000,9.000000,0.000000,163.658093,7.979889,2.657308,1.000000,7
/home/daniel/Projects/ppsevolution/data/maps/custom_maps/Custom_9_Run_0_Map.csv,squared_error,1.6877931578391969e-06,0.5015,0.7190,0.527630,0.933634,0.011963,0.123252,0.449026,0.200532,0.866541,0.000000,0.857182,0.150147,0.000000,0.034407,0.903330,1.000000,0.003110,0.000000,217.335219,1.292835,10.686807,0.123252,90.356205,2.405053,8.798867,0.000000,275.006830,0.854082,9.000000,0.034407,180.762759,10.000000,1.027989,0.000000,8
/home/daniel/Projects/ppsevolution/data/maps/custom_maps/Custom_9_Run_0_Map.csv,squared_error,6.135223392504042e-08,0.5001,0.7197,0.666151,0.840348,0.000000,0.098179,0.316863,0.159729,0.906271,0.000000,0.816492,0.453560,0.000000,0.081655,0.485820,0.715949,0.122660,1.000000,241.576510,1.240595,9.000000,0.098179,64.055687,2.017427,9.156439,0.000000,267.886184,1.023993,9.000000,0.081655,97.678258,7.301518,2.103938,1.000000,9
map,fitness,fitness value,team0ratio,time,HP,Speed,Damage,Acc,ClipSize,RateOfFire,NrBullets,Range,HP,Speed,Damage,Acc,ClipSize,RateOfFire,NrBullets,Range,HP,Speed,Damage,Acc,ClipSize,RateOfFire,NrBullets,Range,HP,Speed,Damage,Acc,ClipSize,RateOfFire,NrBullets,Range,Run,target team0ratio: 0.5,target time: 0.72
/home/daniel/Projects/ppsevolution/data/maps/custom_maps/Custom_10_Run_0_Map.csv,squared_error,5.930304290132033e-07,0.5011,0.7202,0.449113,0.940982,0.000000,0.466496,0.025488,0.000000,0.935812,0.000000,1.000000,0.193481,0.236748,0.000000,0.749152,1.000000,0.194935,2.000000,203.594776,1.296950,9.000000,0.466496,6.072115,0.500000,9.422308,0.000000,300.000000,0.878350,42.381452,0.000000,150.081220,10.000000,2.754417,2.000000,0
/home/daniel/Projects/ppsevolution/data/maps/custom_maps/Custom_10_Run_0_Map.csv,squared_error,1.1351106342345957e-06,0.5015,0.7201,0.219966,0.920590,0.000000,0.330246,0.497714,0.137914,1.000000,2.000000,0.642185,0.351764,0.000000,0.161124,1.000000,1.000000,0.130141,1.000000,163.494132,1.285531,9.000000,0.330246,100.045117,1.810188,10.000000,2.000000,237.382433,0.966988,9.000000,0.161124,200.000000,10.000000,2.171268,1.000000,1
/home/daniel/Projects/ppsevolution/data/maps/custom_maps/Custom_10_Run_0_Map.csv,squared_error,2.531592788386622e-07,0.5007,0.7199,0.415506,0.540160,0.000000,0.190129,0.000000,0.031966,0.943815,0.000000,0.258169,0.122634,0.232579,0.000651,0.924180,0.832106,0.328092,0.000000,197.713589,1.072489,9.000000,0.190129,1.000000,0.803675,9.494332,0.000000,170.179526,0.838675,41.793672,0.000651,184.911736,8.405009,3.952830,0.000000,2
/home/daniel/Projects/ppsevolution/data/maps/custom_maps/Custom_10_Run_0_Map.csv,squared_error,5.225449313257784e-07,0.4992,0.7193,0.136162,0.919787,0.087531,0.332831,0.169170,0.190818,0.681782,0.000000,0.775180,0.085673,0.000000,0.116508,0.845416,0.579871,0.205451,2.000000,148.828420,1.285081,21.341855,0.332831,34.664804,2.312772,7.136040,0.000000,260.656546,0.817977,9.000000,0.116508,169.237775,6.008772,2.849062,2.000000,3
/home/daniel/Projects/ppsevolution/data/maps/custom_maps/Custom_10_Run_0_Map.csv,squared_error,1.4074672939841857e-06,0.5012,0.7212,0.243403,0.827327,0.428610,0.000000,0.015264,0.252563,0.800937,2.000000,0.952529,0.190101,0.101521,0.013800,0.838648,0.647010,0.069794,1.000000,167.595502,1.233303,69.433944,0.000000,4.037482,2.899349,8.208431,2.000000,291.692607,0.876456,23.314480,0.013800,167.890944,6.646598,1.628145,1.000000,4
/home/daniel/Projects/ppsevolution/data/maps/custom_maps/Custom_10_Run_0_Map.csv,squared_error,1.4954452089172165e-07,0.4997,0.7205,0.090274,0.693115,0.000000,0.383065,0.290725,0.000000,0.989564,0.000000,0.747817,0.046427,0.032518,0.062520,0.669223,0.869648,0.125148,2.000000,140.797878,1.158144,9.000000,0.383065,58.854345,0.500000,9.906079,0.000000,255.868014,0.795999,13.585063,0.062520,134.175292,8.761653,2.126334,2.000000,5
/home/daniel/Projects/ppsevolution/data/maps/custom_maps/Custom_10_Run_0_Map.csv,squared_error,2.3010222170399742e-07,0.5006,0.7204,0.168722,0.819979,0.016742,0.465637,0.070443,0.220578,0.742192,1.000000,0.993096,0.001809,0.105753,0.000000,0.733318,0.816982,0.210428,1.000000,154.526432,1.229188,11.360578,0.465637,15.018230,2.595489,7.679724,1.000000,298.791795,0.771013,23.911144,0.000000,146.930283,8.261326,2.893856,1.000000,6
/home/daniel/Projects/ppsevolution/data/maps/custom_maps/Custom_10_Run_0_Map.csv,squared_error,1.7819331516193263e-07,0.4994,0.7199,0.518184,0.875103,0.000000,0.444974,0.337007,0.124749,1.000000,2.000000,1.000000,0.086722,0.000000,0.277888,0.904990,1.000000,0.193861,2.000000,215.682182,1.260058,9.000000,0.444974,68.064474,1.685119,10.000000,2.000000,300.000000,0.818564,9.000000,0.277888,181.092926,10.000000,2.744750,2.000000,7
/home/daniel/Projects/ppsevolution/data/maps/custom_maps/Custom_10_Run_0_Map.csv,squared_error,2.3973173695140296e-07,0.5007,0.7202,0.000000,0.903450,0.151597,0.324159,0.150143,0.122444,0.739349,2.000000,0.951395,0.143183,0.025403,0.000000,0.865527,0.901911,0.153992,1.000000,125.000000,1.275932,30.375155,0.324159,30.878513,1.663221,7.654141,2.000000,291.494099,0.850182,12.581847,0.000000,173.239876,9.068158,2.385930,1.000000,8
/home/daniel/Projects/ppsevolution/data/maps/custom_maps/Custom_10_Run_0_Map.csv,squared_error,8.871680573292975e-07,0.5013,0.7203,0.279327,0.941805,0.316068,0.138279,0.256529,0.058432,0.954327,1.000000,1.000000,0.221865,0.000000,0.171432,0.979335,0.717765,0.076370,0.000000,173.882180,1.297411,53.565650,0.138279,52.049304,1.055101,9.588943,1.000000,300.000000,0.894244,9.000000,0.171432,195.887638,7.318764,1.687333,0.000000,9
