map,fitness,fitness value,team0ratio,time,HP,Speed,Damage,Acc,ClipSize,RateOfFire,NrBullets,Range,HP,Speed,Damage,Acc,ClipSize,RateOfFire,NrBullets,Range,HP,Speed,Damage,Acc,ClipSize,RateOfFire,NrBullets,Range,HP,Speed,Damage,Acc,ClipSize,RateOfFire,NrBullets,Range,Run,target team0ratio: 0.5,target time: 0.72
/home/daniel/Projects/ppsevolution/data/maps/custom_maps/Custom_1_Run_0_Map.csv,squared_error,9.266101516487625e-07,0.4990,0.7190,0.829788,0.918438,0.000000,0.000000,0.004826,0.129879,0.635189,2.000000,1.000000,0.457083,0.008981,0.000000,0.430463,0.541522,0.000000,2.000000,270.212846,1.284325,9.000000,0.000000,1.960331,1.733847,6.716702,2.000000,300.000000,1.025966,10.266258,0.000000,86.662060,5.644463,1.000000,2.000000,0
/home/daniel/Projects/ppsevolution/data/maps/custom_maps/Custom_1_Run_0_Map.csv,squared_error,2.2584351451910734e-06,0.5004,0.7179,0.930618,0.485034,0.000000,0.000000,0.314956,0.399617,0.545456,2.000000,1.000000,0.000000,0.000000,0.058006,0.833374,0.905097,0.063403,1.000000,287.858066,1.041619,9.000000,0.000000,63.676175,4.296360,5.909104,2.000000,300.000000,0.770000,9.000000,0.058006,166.841422,9.098423,1.570631,1.000000,1
/home/daniel/Projects/ppsevolution/data/maps/custom_maps/Custom_1_Run_0_Map.csv,squared_error,7.400932934416784e-07,0.5000,0.7212,0.958105,0.463139,0.000000,0.001050,0.125073,0.530597,0.569246,0.000000,1.000000,0.000000,0.009664,0.037867,0.978162,0.279833,0.208750,2.000000,292.668431,1.029358,9.000000,0.001050,25.889457,5.540670,6.123212,0.000000,300.000000,0.770000,10.362586,0.037867,195.654228,3.158416,2.878751,2.000000,2
/home/daniel/Projects/ppsevolution/data/maps/custom_maps/Custom_1_Run_0_Map.csv,squared_error,2.5713765730087104e-07,0.4996,0.7194,0.845456,1.000000,0.000000,0.000000,0.000000,0.300571,0.733978,1.000000,1.000000,0.134295,0.000000,0.000000,0.710711,0.853497,0.214641,2.000000,272.954715,1.330000,9.000000,0.000000,1.000000,3.355424,7.605806,1.000000,300.000000,0.845205,9.000000,0.000000,142.431427,8.608224,2.931766,2.000000,3
/home/daniel/Projects/ppsevolution/data/maps/custom_maps/Custom_1_Run_0_Map.csv,squared_error,8.091608259349086e-07,0.4988,0.7205,0.883889,1.000000,0.000000,0.000000,0.000000,0.000000,0.680821,2.000000,1.000000,0.697536,0.000000,0.021182,0.591253,0.611934,0.145739,1.000000,279.680511,1.330000,9.000000,0.000000,1.000000,0.500000,7.127388,2.000000,300.000000,1.160620,9.000000,0.021182,118.659283,6.313376,2.311653,1.000000,4
/home/daniel/Projects/ppsevolution/data/maps/custom_maps/Custom_1_Run_0_Map.csv,squared_error,3.641911676678007e-06,0.5025,0.7211,0.826425,0.515255,0.000000,0.009087,0.275663,0.000000,0.605379,1.000000,1.000000,0.190606,0.000000,0.000000,1.000000,0.157773,0.081942,0.000000,269.624411,1.058543,9.000000,0.009087,55.856838,0.500000,6.448413,1.000000,300.000000,0.876739,9.000000,0.000000,200.000000,1.998841,1.737476,0.000000,5
/home/daniel/Projects/ppsevolution/data/maps/custom_maps/Custom_1_Run_0_Map.csv,squared_error,7.501369826996817e-07,0.5010,0.7193,0.790563,0.737762,0.000000,0.000000,0.162774,0.252237,0.679258,1.000000,0.992733,0.027543,0.000000,0.000000,0.868889,0.689889,0.000000,1.000000,263.348523,1.183147,9.000000,0.000000,33.391962,2.896249,7.113318,1.000000,298.728255,0.785424,9.000000,0.000000,173.908903,7.053944,1.000000,1.000000,6
/home/daniel/Projects/ppsevolution/data/maps/custom_maps/Custom_1_Run_0_Map.csv,squared_error,3.599844017668401e-06,0.5025,0.7210,0.814517,0.888396,0.000000,0.000000,0.058975,0.050088,0.764776,0.000000,1.000000,0.023497,0.000000,0.000000,0.781537,0.588349,0.099714,2.000000,267.540490,1.267502,9.000000,0.000000,12.735954,0.975838,7.882982,0.000000,300.000000,0.783158,9.000000,0.000000,156.525858,6.089315,1.897423,2.000000,7
/home/daniel/Projects/ppsevolution/data/maps/custom_maps/Custom_1_Run_0_Map.csv,squared_error,1.4344926243666307e-06,0.5015,0.7207,0.910442,0.871190,0.000000,0.000000,0.107789,0.459683,0.570006,2.000000,1.000000,0.140009,0.000000,0.048146,0.878143,0.819835,0.030322,1.000000,284.327354,1.257867,9.000000,0.000000,22.449932,4.866992,6.130056,2.000000,300.000000,0.848405,9.000000,0.048146,175.750455,8.288435,1.272900,1.000000,8
/home/daniel/Projects/ppsevolution/data/maps/custom_maps/Custom_1_Run_0_Map.csv,squared_error,6.332510813092477e-06,0.5026,0.7176,0.822824,1.000000,0.000000,0.010191,0.334770,0.000000,0.828040,0.000000,1.000000,0.772551,0.000000,0.000000,0.712659,0.336761,0.108075,1.000000,268.994177,1.330000,9.000000,0.010191,67.619264,0.500000,8.452357,0.000000,300.000000,1.202629,9.000000,0.000000,142.819220,3.699229,1.972675,1.000000,9
map,fitness,fitness value,team0ratio,time,HP,Speed,Damage,Acc,ClipSize,RateOfFire,NrBullets,Range,HP,Speed,Damage,Acc,ClipSize,RateOfFire,NrBullets,Range,HP,Speed,Damage,Acc,ClipSize,RateOfFire,NrBullets,Range,HP,Speed,Damage,Acc,ClipSize,RateOfFire,NrBullets,Range,Run,target team0ratio: 0.5,target time: 0.72
/home/daniel/Projects/ppsevolution/data/maps/custom_maps/Custom_2_Run_0_Map.csv,squared_error,2.3623413993163386e-06,0.4992,0.7180,0.140563,0.894823,0.000000,0.527824,0.000000,0.081212,1.000000,2.000000,0.909028,0.308414,0.092315,0.092126,0.857125,1.000000,0.242499,0.000000,149.598578,1.271101,9.000000,0.527824,1.000000,1.271513,10.000000,2.000000,284.079963,0.942712,22.016365,0.092126,171.567907,10.000000,3.182488,0.000000,0
/home/daniel/Projects/ppsevolution/data/maps/custom_maps/Custom_2_Run_0_Map.csv,squared_error,3.820996666288968e-06,0.5012,0.7175,0.055289,0.652038,0.038480,0.490184,0.124681,0.000000,1.000000,2.000000,0.858012,0.183246,0.000000,0.164177,1.000000,1.000000,0.166477,2.000000,134.675543,1.135141,14.425735,0.490184,25.811430,0.500000,10.000000,2.000000,275.152172,0.872618,9.000000,0.164177,200.000000,10.000000,2.498294,2.000000,1
/home/daniel/Projects/ppsevolution/data/maps/custom_maps/Custom_2_Run_0_Map.csv,squared_error,1.682316336638232e-06,0.4982,0.7203,0.156222,0.828738,0.106956,0.441699,0.564958,0.186272,0.703003,1.000000,0.908603,0.040008,0.019962,0.202945,0.888567,1.000000,0.000000,1.000000,152.338918,1.234093,24.080824,0.441699,113.426689,2.269582,7.327028,1.000000,284.005603,0.792405,11.814658,0.202945,177.824770,10.000000,1.000000,1.000000,2
/home/daniel/Projects/ppsevolution/data/maps/custom_maps/Custom_2_Run_0_Map.csv,squared_error,1.6266938285099764e-06,0.5002,0.7218,0.431206,1.000000,0.089010,0.469717,0.032514,0.000000,0.908719,0.000000,1.000000,0.083308,0.000000,0.328215,0.803074,0.981079,0.071126,2.000000,200.461021,1.330000,21.550441,0.469717,7.470318,0.500000,9.178475,0.000000,300.000000,0.816653,9.000000,0.328215,160.811804,9.820248,1.640130,2.000000,3
/home/daniel/Projects/ppsevolution/data/maps/custom_maps/Custom_2_Run_0_Map.csv,squared_error,3.482919672049458e-06,0.4975,0.7209,0.000000,0.816126,0.111067,0.445219,0.174414,0.199735,0.977221,0.000000,0.949832,0.051630,0.000000,0.125075,1.000000,1.000000,0.156424,0.000000,125.000000,1.227030,24.660474,0.445219,35.708355,2.397487,9.794993,0.000000,291.220582,0.798913,9.000000,0.125075,200.000000,10.000000,2.407813,0.000000,4
/home/daniel/Projects/ppsevolution/data/maps/custom_maps/Custom_2_Run_0_Map.csv,squared_error,1.0166362610249427e-06,0.4987,0.7205,0.038951,1.000000,0.000000,0.584088,0.065838,0.000000,0.729313,1.000000,1.000000,0.000000,0.067611,0.120012,0.931070,1.000000,0.000000,2.000000,131.816429,1.330000,9.000000,0.584088,14.101663,0.500000,7.563821,1.000000,300.000000,0.770000,18.533099,0.120012,186.282975,10.000000,1.000000,2.000000,5
/home/daniel/Projects/ppsevolution/data/maps/custom_maps/Custom_2_Run_0_Map.csv,squared_error,1.857911863521673e-06,0.4998,0.7219,0.343042,0.584967,0.002144,0.516530,0.569499,0.066120,0.819699,2.000000,0.927168,0.008549,0.000000,0.284527,0.758039,0.790740,0.101394,1.000000,185.032333,1.097582,9.302284,0.516530,114.330318,1.128141,8.377287,2.000000,287.254337,0.774788,9.000000,0.284527,151.849814,8.012028,1.912543,1.000000,6
/home/daniel/Projects/ppsevolution/data/maps/custom_maps/Custom_2_Run_0_Map.csv,squared_error,9.738989989756594e-07,0.5012,0.7207,0.381709,0.908921,0.000000,0.531573,0.218367,0.117650,1.000000,2.000000,1.000000,0.152804,0.000000,0.308670,0.887280,1.000000,0.013851,0.000000,191.799128,1.278996,9.000000,0.531573,44.454962,1.617670,10.000000,2.000000,300.000000,0.855570,9.000000,0.308670,177.568773,10.000000,1.124657,0.000000,7
/home/daniel/Projects/ppsevolution/data/maps/custom_maps/Custom_2_Run_0_Map.csv,squared_error,1.6746408105631115e-07,0.4996,0.7195,0.000000,0.898698,0.000000,0.498540,0.163089,0.155552,0.945127,0.000000,0.775625,0.000000,0.001199,0.166085,0.957101,0.594378,0.000000,0.000000,125.000000,1.273271,9.000000,0.498540,33.454739,1.977741,9.506144,0.000000,260.734300,0.770000,9.169076,0.166085,191.463161,6.146593,1.000000,0.000000,8
/home/daniel/Projects/ppsevolution/data/maps/custom_maps/Custom_2_Run_0_Map.csv,squared_error,2.9553147395062653e-06,0.4987,0.7179,0.198476,0.739369,0.192808,0.396041,0.267358,0.062919,0.725469,0.000000,0.957021,0.634408,0.000000,0.245604,1.000000,0.611585,0.006348,0.000000,159.733291,1.184046,36.185952,0.396041,54.204334,1.097732,7.529225,0.000000,292.478602,1.125268,9.000000,0.245604,200.000000,6.310057,1.057132,0.000000,9
map,fitness,fitness value,team0ratio,time,HP,Speed,Damage,Acc,ClipSize,RateOfFire,NrBullets,Range,HP,Speed,Damage,Acc,ClipSize,RateOfFire,NrBullets,Range,HP,Speed,Damage,Acc,ClipSize,RateOfFire,NrBullets,Range,HP,Speed,Damage,Acc,ClipSize,RateOfFire,NrBullets,Range,Run,target team0ratio: 0.5,target time: 0.72
/home/daniel/Projects/ppsevolution/data/maps/custom_maps/Custom_3_Run_0_Map.csv,squared_error,8.858362909053265e-08,0.5001,0.7204,0.090166,0.867702,0.072917,0.529627,0.503543,0.078076,0.998287,1.000000,0.842665,0.269353,0.000000,0.320849,0.935716,0.756986,0.139144,2.000000,140.779035,1.255913,19.281347,0.529627,101.205140,1.241720,9.984580,1.000000,272.466357,0.920838,9.000000,0.320849,187.207578,7.691362,2.252297,2.000000,0
/home/daniel/Projects/ppsevolution/data/maps/custom_maps/Custom_3_Run_0_Map.csv,squared_error,1.75220256562611e-07,0.5003,0.7195,0.160315,1.000000,0.031596,0.627705,0.000000,0.416098,0.669865,1.000000,1.000000,0.000000,0.123708,0.233641,0.819860,0.916869,0.260600,2.000000,153.055057,1.330000,13.455101,0.627705,1.000000,4.452931,7.028787,1.000000,300.000000,0.770000,26.442861,0.233641,164.152051,9.210254,3.345399,2.000000,1
/home/daniel/Projects/ppsevolution/data/maps/custom_maps/Custom_3_Run_0_Map.csv,squared_error,2.0083425310531654e-06,0.5015,0.7213,0.000000,0.999289,0.013273,0.537987,0.039751,0.360734,0.627365,2.000000,0.649312,0.210280,0.000000,0.306179,0.829798,0.726289,0.015739,1.000000,125.000000,1.329602,10.871518,0.537987,8.910499,3.926973,6.646283,2.000000,238.629680,0.887757,9.000000,0.306179,166.129792,7.399746,1.141649,1.000000,2
/home/daniel/Projects/ppsevolution/data/maps/custom_maps/Custom_3_Run_0_Map.csv,squared_error,6.14014235907239e-08,0.5003,0.7200,0.128109,0.801781,0.269515,0.414150,0.000000,0.088227,0.846362,1.000000,1.000000,0.261846,0.088830,0.209009,0.598226,0.993402,0.291755,2.000000,147.419017,1.218997,47.001616,0.414150,1.000000,1.338158,8.617261,1.000000,300.000000,0.916634,21.525081,0.209009,120.046960,9.937320,3.625799,2.000000,3
/home/daniel/Projects/ppsevolution/data/maps/custom_maps/Custom_3_Run_0_Map.csv,squared_error,5.072654791345539e-06,0.5023,0.7178,0.249772,0.879493,0.000000,0.552905,0.092593,0.000000,1.000000,0.000000,0.698390,0.134358,0.171063,0.268936,0.720090,0.941413,0.000000,1.000000,168.710048,1.262516,9.000000,0.552905,19.426105,0.500000,10.000000,0.000000,247.218170,0.845240,33.119948,0.268936,144.297979,9.443419,1.000000,1.000000,4
/home/daniel/Projects/ppsevolution/data/maps/custom_maps/Custom_3_Run_0_Map.csv,squared_error,1.0312313708010358e-05,0.4955,0.7192,0.000000,0.804945,0.057922,0.596557,0.075123,0.125960,1.000000,0.000000,1.000000,0.000000,0.172688,0.125735,0.772778,0.885354,0.139274,2.000000,125.000000,1.220769,17.167034,0.596557,15.949402,1.696615,10.000000,0.000000,300.000000,0.770000,33.349049,0.125735,154.782867,8.910864,2.253466,2.000000,5
/home/daniel/Projects/ppsevolution/data/maps/custom_maps/Custom_3_Run_0_Map.csv,squared_error,8.028587690318662e-07,0.5000,0.7187,0.173376,1.000000,0.107312,0.534967,0.386629,0.064777,0.589886,2.000000,0.891526,0.278118,0.166917,0.211202,0.637988,0.746980,0.063885,1.000000,155.340804,1.330000,24.130966,0.534967,77.939205,1.115378,6.308974,2.000000,281.017008,0.925746,32.535268,0.211202,127.959708,7.596313,1.574969,1.000000,6
/home/daniel/Projects/ppsevolution/data/maps/custom_maps/Custom_3_Run_0_Map.csv,squared_error,2.446672009710799e-07,0.4995,0.7195,0.000000,0.934060,0.145517,0.456975,0.559989,0.012633,0.851763,1.000000,0.776926,0.001339,0.257100,0.029831,0.599026,0.903373,0.182154,0.000000,125.000000,1.293073,29.517923,0.456975,112.437883,0.620018,8.665867,1.000000,260.962037,0.770750,45.251099,0.029831,120.206116,9.082045,2.639388,0.000000,7
/home/daniel/Projects/ppsevolution/data/maps/custom_maps/Custom_3_Run_0_Map.csv,squared_error,7.85722125567678e-07,0.5002,0.7212,0.000000,0.508588,0.127096,0.375916,0.208709,0.115643,1.000000,1.000000,0.539602,0.960053,0.078727,0.201984,0.707288,1.000000,0.031285,2.000000,125.000000,1.054809,26.920575,0.375916,42.533068,1.598608,10.000000,1.000000,219.430417,1.307630,20.100473,0.201984,141.750232,10.000000,1.281569,2.000000,8
/home/daniel/Projects/ppsevolution/data/maps/custom_maps/Custom_3_Run_0_Map.csv,squared_error,1.583101294329476e-07,0.4994,0.7200,0.000000,0.991110,0.000000,0.642468,0.124801,0.396482,0.254833,1.000000,0.819221,0.200113,0.000000,0.328502,0.977010,0.682717,0.125495,0.000000,125.000000,1.325022,9.000000,0.642468,25.835306,4.266577,3.293497,1.000000,268.363678,0.882063,9.000000,0.328502,195.424997,6.985816,2.129457,0.000000,9
map,fitness,fitness value,team0ratio,time,HP,Speed,Damage,Acc,ClipSize,RateOfFire,NrBullets,Range,HP,Speed,Damage,Acc,ClipSize,RateOfFire,NrBullets,Range,HP,Speed,Damage,Acc,ClipSize,RateOfFire,NrBullets,Range,HP,Speed,Damage,Acc,ClipSize,RateOfFire,NrBullets,Range,Run,target team0ratio: 0.5,target time: 0.72
/home/daniel/Projects/ppsevolution/data/maps/custom_maps/Custom_4_Run_0_Map.csv,squared_error,3.9419888699116937e-07,0.5004,0.7208,0.524850,0.788046,0.185738,0.078764,0.222901,0.191226,0.822972,2.000000,1.000000,0.046877,0.000000,0.000000,0.843019,1.000000,0.160837,0.000000,216.848836,1.211306,35.189116,0.078764,45.357252,2.316649,8.406751,2.000000,300.000000,0.796251,9.000000,0.000000,168.760770,10.000000,2.447533,0.000000,0
/home/daniel/Projects/ppsevolution/data/maps/custom_maps/Custom_4_Run_0_Map.csv,squared_error,7.565312624364824e-07,0.5006,0.7189,0.479326,0.117056,0.000000,0.279730,0.000000,0.000000,0.728288,1.000000,0.928399,0.249010,0.007260,0.000000,0.573681,1.000000,0.069838,0.000000,208.882133,0.835551,9.000000,0.279730,1.000000,0.500000,7.554593,1.000000,287.469840,0.909446,10.023703,0.000000,115.162572,10.000000,1.628539,0.000000,1
/home/daniel/Projects/ppsevolution/data/maps/custom_maps/Custom_4_Run_0_Map.csv,squared_error,9.069992500172898e-07,0.5013,0.7199,0.726881,0.640327,0.227153,0.009682,0.115127,0.347739,0.968249,1.000000,1.000000,0.018088,0.000142,0.041318,1.000000,1.000000,0.602189,2.000000,252.204132,1.128583,41.028568,0.009682,23.910238,3.803521,9.714244,1.000000,300.000000,0.780129,9.020036,0.041318,200.000000,10.000000,6.419705,2.000000,2
/home/daniel/Projects/ppsevolution/data/maps/custom_maps/Custom_4_Run_0_Map.csv,squared_error,2.551348200084833e-09,0.4999,0.7200,0.938929,0.972852,0.030463,0.000000,0.354929,0.363665,0.769373,1.000000,0.463459,0.000000,0.000000,0.255161,0.511793,0.861232,0.000000,2.000000,289.312498,1.314797,13.295309,0.000000,71.630836,3.954814,7.924361,1.000000,206.105245,0.770000,9.000000,0.255161,102.846747,8.681702,1.000000,2.000000,3
/home/daniel/Projects/ppsevolution/data/maps/custom_maps/Custom_4_Run_0_Map.csv,squared_error,1.389083287134029e-06,0.5003,0.7216,0.683193,0.933484,0.104588,0.208623,0.092448,0.030800,0.564270,0.000000,1.000000,0.373532,0.005921,0.093233,1.000000,0.837384,0.144238,0.000000,244.558714,1.292751,23.746916,0.208623,19.397224,0.792602,6.078426,0.000000,300.000000,0.979178,9.834887,0.093233,200.000000,8.455146,2.298143,0.000000,4
/home/daniel/Projects/ppsevolution/data/maps/custom_maps/Custom_4_Run_0_Map.csv,squared_error,1.938368018966237e-06,0.5020,0.7203,0.442312,0.781475,0.000000,0.245478,0.280587,0.000000,1.000000,2.000000,0.911779,0.069348,0.000000,0.000000,0.895851,0.490641,0.000000,0.000000,202.404649,1.207626,9.000000,0.245478,56.836816,0.500000,10.000000,2.000000,284.561370,0.808835,9.000000,0.000000,179.274367,5.161086,1.000000,0.000000,5
/home/daniel/Projects/ppsevolution/data/maps/custom_maps/Custom_4_Run_0_Map.csv,squared_error,1.2082898572004125e-06,0.5011,0.7211,0.480600,1.000000,0.062719,0.242199,0.432135,0.022285,0.703165,0.000000,1.000000,0.122266,0.000000,0.000000,0.586184,0.570999,0.056891,2.000000,209.104996,1.330000,17.843438,0.242199,86.994934,0.711706,7.328488,0.000000,300.000000,0.838469,9.000000,0.000000,117.650594,5.924486,1.512023,2.000000,6
/home/daniel/Projects/ppsevolution/data/maps/custom_maps/Custom_4_Run_0_Map.csv,squared_error,1.2008993603814528e-06,0.4995,0.7215,0.677030,0.260108,0.107885,0.142070,0.082747,0.150633,0.928864,0.000000,0.979813,0.130458,0.046091,0.000000,0.463687,0.970060,0.288045,2.000000,243.480292,0.915661,24.211718,0.142070,17.466630,1.931012,9.359774,0.000000,296.467306,0.843056,15.498857,0.000000,93.273782,9.715573,3.592402,2.000000,7
/home/daniel/Projects/ppsevolution/data/maps/custom_maps/Custom_4_Run_0_Map.csv,squared_error,5.977415878107372e-06,0.4982,0.7171,0.688816,0.749117,0.000000,0.235659,0.172931,0.130856,0.549425,2.000000,0.819476,0.179176,0.000000,0.141605,0.797582,0.994687,0.034551,0.000000,245.542852,1.189506,9.000000,0.235659,35.413324,1.743132,5.944827,2.000000,268.408314,0.870339,9.000000,0.141605,159.718767,9.949531,1.310957,0.000000,8
/home/daniel/Projects/ppsevolution/data/maps/custom_maps/Custom_4_Run_0_Map.csv,squared_error,7.336040567025659e-07,0.4988,0.7197,0.548018,0.704527,0.000000,0.060742,0.053786,0.000000,0.687241,1.000000,0.408232,0.078179,0.032237,0.057594,1.000000,0.606472,0.046860,0.000000,220.903087,1.164535,9.000000,0.060742,11.703457,0.500000,7.185172,1.000000,196.440635,0.813780,13.545367,0.057594,200.000000,6.261486,1.421740,0.000000,9
map,fitness,fitness value,team0ratio,time,HP,Speed,Damage,Acc,ClipSize,RateOfFire,NrBullets,Range,HP,Speed,Damage,Acc,ClipSize,RateOfFire,NrBullets,Range,HP,Speed,Damage,Acc,ClipSize,RateOfFire,NrBullets,Range,HP,Speed,Damage,Acc,ClipSize,RateOfFire,NrBullets,Range,Run,target team0ratio: 0.5,target time: 0.72
/home/daniel/Projects/ppsevolution/data/maps/custom_maps/Custom_5_Run_0_Map.csv,squared_error,2.8120829840900623e-06,0.5002,0.7176,0.000000,0.429294,0.000000,0.316903,0.139356,0.919304,0.896525,1.000000,0.677552,0.092625,0.000000,0.000000,0.259615,0.841763,0.000000,2.000000,125.000000,1.010404,9.000000,0.316903,28.731886,9.233389,9.068727,1.000000,243.571650,0.821870,9.000000,0.000000,52.663382,8.496746,1.000000,2.000000,0
/home/daniel/Projects/ppsevolution/data/maps/custom_maps/Custom_5_Run_0_Map.csv,squared_error,1.2625109140713746e-06,0.5007,0.7186,0.093697,0.978795,0.168830,0.313245,0.233068,0.371927,0.496575,1.000000,1.000000,0.019284,0.000000,0.036647,0.867344,0.564616,0.148330,0.000000,141.397023,1.318125,32.805090,0.313245,47.380457,4.033308,5.469176,1.000000,300.000000,0.780799,9.000000,0.036647,173.601504,5.863855,2.334971,0.000000,1
/home/daniel/Projects/ppsevolution/data/maps/custom_maps/Custom_5_Run_0_Map.csv,squared_error,2.0034835625012265e-06,0.5003,0.7220,0.246090,0.887000,0.008554,0.424132,0.000000,0.401629,1.000000,0.000000,0.983938,0.459759,0.078603,0.033553,1.000000,1.000000,0.033236,1.000000,168.065711,1.266720,10.206182,0.424132,1.000000,4.315472,10.000000,0.000000,297.189177,1.027465,20.082981,0.033553,200.000000,10.000000,1.299120,1.000000,2
/home/daniel/Projects/ppsevolution/data/maps/custom_maps/Custom_5_Run_0_Map.csv,squared_error,1.2340792917172352e-06,0.5002,0.7216,0.745130,0.831083,0.094125,0.240355,1.000000,1.000000,0.963509,2.000000,0.930018,0.000000,0.000000,0.292938,0.609430,0.507640,0.227144,2.000000,255.397681,1.235406,22.271576,0.240355,200.000000,10.000000,9.671579,2.000000,287.753073,0.770000,9.000000,0.292938,122.276594,5.322578,3.044297,2.000000,3
/home/daniel/Projects/ppsevolution/data/maps/custom_maps/Custom_5_Run_0_Map.csv,squared_error,1.184517237061341e-06,0.5000,0.7215,0.204884,0.908400,0.019457,0.419646,0.943380,0.197094,0.828868,0.000000,0.971919,0.567919,0.016607,0.029134,0.498811,0.904589,0.425480,0.000000,160.854718,1.278704,11.743454,0.419646,188.732568,2.372397,8.459815,0.000000,295.085773,1.088035,11.341651,0.029134,100.263390,9.093595,4.829317,0.000000,4
/home/daniel/Projects/ppsevolution/data/maps/custom_maps/Custom_5_Run_0_Map.csv,squared_error,7.988064487392758e-07,0.5000,0.7213,0.000000,0.863294,0.000000,0.446603,0.110543,0.466557,1.000000,0.000000,1.000000,0.522691,0.000000,0.000000,0.578724,1.000000,0.000000,1.000000,125.000000,1.253445,9.000000,0.446603,22.998088,4.932290,10.000000,0.000000,300.000000,1.062707,9.000000,0.000000,116.166084,10.000000,1.000000,1.000000,5
/home/daniel/Projects/ppsevolution/data/maps/custom_maps/Custom_5_Run_0_Map.csv,squared_error,1.0909679720867494e-06,0.5004,0.7186,0.237212,0.961092,0.000000,0.419049,0.011314,0.000000,0.961407,1.000000,0.949333,0.000000,0.098422,0.029764,0.603669,0.821863,0.000000,0.000000,166.512022,1.308212,9.000000,0.419049,3.251455,0.500000,9.652665,1.000000,291.133307,0.770000,22.877529,0.029764,121.130106,8.307696,1.000000,0.000000,6
/home/daniel/Projects/ppsevolution/data/maps/custom_maps/Custom_5_Run_0_Map.csv,squared_error,2.3921119062293665e-06,0.4980,0.7192,0.502098,0.668034,0.000156,0.376721,0.329540,0.155860,0.799214,0.000000,0.835679,0.114458,0.049394,0.202041,0.811355,0.647064,0.097160,0.000000,212.867072,1.144099,9.021926,0.376721,66.578439,1.980666,8.192924,0.000000,271.243765,0.834096,15.964593,0.202041,162.459734,6.647112,1.874436,0.000000,7
/home/daniel/Projects/ppsevolution/data/maps/custom_maps/Custom_5_Run_0_Map.csv,squared_error,3.012645487797328e-06,0.5013,0.7221,0.468607,0.502810,0.017286,0.286474,0.090333,0.160845,1.000000,2.000000,0.734417,0.009716,0.183984,0.000000,0.914760,0.604863,0.113581,2.000000,207.006149,1.051573,11.437309,0.286474,18.976209,2.028025,10.000000,2.000000,253.523011,0.775441,34.941809,0.000000,183.037253,6.246196,2.022231,2.000000,8
/home/daniel/Projects/ppsevolution/data/maps/custom_maps/Custom_5_Run_0_Map.csv,squared_error,2.943333112082717e-06,0.5015,0.7181,0.000000,0.991407,0.000000,0.349168,0.278867,0.285927,0.896540,0.000000,0.678712,0.088501,0.000000,0.000000,0.963290,0.701219,0.241571,1.000000,125.000000,1.325188,9.000000,0.349168,56.494470,3.216302,9.068861,0.000000,243.774638,0.819561,9.000000,0.000000,192.694640,7.161578,3.174140,1.000000,9
map,fitness,fitness value,team0ratio,time,HP,Speed,Damage,Acc,ClipSize,RateOfFire,NrBullets,Range,HP,Speed,Damage,Acc,ClipSize,RateOfFire,NrBullets,Range,HP,Speed,Damage,Acc,ClipSize,RateOfFire,NrBullets,Range,HP,Speed,Damage,Acc,ClipSize,RateOfFire,NrBullets,Range,Run,target team0ratio: 0.5,target time: 0.72
/home/daniel/Projects/ppsevolution/data/maps/custom_maps/Custom_6_Run_0_Map.csv,squared_error,3.665415769518956e-06,0.4992,0.7226,0.108213,0.977591,0.184138,0.643561,0.000000,0.000000,0.732806,0.000000,0.995523,0.023002,0.014702,0.527564,0.668288,0.575345,0.118041,2.000000,143.937340,1.317451,34.963431,0.643561,1.000000,0.500000,7.595253,0.000000,299.216530,0.782881,11.072942,0.527564,133.989317,5.965775,2.062369,2.000000,0
/home/daniel/Projects/ppsevolution/data/maps/custom_maps/Custom_6_Run_0_Map.csv,squared_error,6.552970898184291e-07,0.5011,0.7204,0.124553,0.634851,0.165665,0.627537,0.309058,0.066716,1.000000,0.000000,0.919616,0.164711,0.083019,0.492174,0.999996,1.000000,0.076410,0.000000,146.796851,1.125517,32.358704,0.627537,62.502523,1.133804,10.000000,0.000000,285.932864,0.862238,20.705738,0.492174,199.999190,10.000000,1.687692,0.000000,1
/home/daniel/Projects/ppsevolution/data/maps/custom_maps/Custom_6_Run_0_Map.csv,squared_error,6.170060122202169e-06,0.4965,0.7204,0.131936,1.000000,0.172463,0.636003,0.112340,0.223903,0.864163,1.000000,1.000000,0.223111,0.000000,0.525617,0.934951,0.986483,0.312845,1.000000,148.088847,1.330000,33.317264,0.636003,23.355703,2.627076,8.777469,1.000000,300.000000,0.894942,9.000000,0.525617,187.055331,9.871588,3.815608,1.000000,2
/home/daniel/Projects/ppsevolution/data/maps/custom_maps/Custom_6_Run_0_Map.csv,squared_error,1.0815314464281604e-06,0.4991,0.7211,0.000000,0.642774,0.457222,0.357748,0.328401,0.151178,1.000000,2.000000,0.719726,0.218902,0.570698,0.034616,1.000000,0.796502,0.165902,2.000000,125.000000,1.129954,73.468358,0.357748,66.351853,1.936192,10.000000,2.000000,250.952053,0.892585,89.468439,0.034616,200.000000,8.066773,2.493117,2.000000,3
/home/daniel/Projects/ppsevolution/data/maps/custom_maps/Custom_6_Run_0_Map.csv,squared_error,2.2693648440081876e-06,0.4989,0.7181,0.000000,0.748399,0.130491,0.666757,0.000000,0.000000,0.935984,0.000000,0.881387,0.038706,0.205501,0.397057,0.808331,0.904799,0.027761,0.000000,125.000000,1.189103,27.399238,0.666757,1.000000,0.500000,9.423860,0.000000,279.242716,0.791675,37.975660,0.397057,161.857902,9.095586,1.249853,0.000000,4
/home/daniel/Projects/ppsevolution/data/maps/custom_maps/Custom_6_Run_0_Map.csv,squared_error,6.793809356420884e-06,0.5036,0.7207,0.209581,0.881104,0.081499,0.682972,0.030000,0.000455,0.991934,1.000000,1.000000,0.000000,0.050295,0.536335,0.961605,0.869491,0.000000,2.000000,161.676620,1.263418,20.491298,0.682972,6.970000,0.504321,9.927408,1.000000,300.000000,0.770000,16.091542,0.536335,192.359480,8.760160,1.000000,2.000000,5
/home/daniel/Projects/ppsevolution/data/maps/custom_maps/Custom_6_Run_0_Map.csv,squared_error,1.6351544268006638e-07,0.5000,0.7206,0.000000,0.822146,0.027220,0.717061,0.204580,0.006690,0.981167,1.000000,0.995146,0.040047,0.000000,0.516543,1.000000,0.985990,0.000000,2.000000,125.000000,1.230402,12.837967,0.717061,41.711367,0.563550,9.830503,1.000000,299.150510,0.792426,9.000000,0.516543,200.000000,9.866910,1.000000,2.000000,6
/home/daniel/Projects/ppsevolution/data/maps/custom_maps/Custom_6_Run_0_Map.csv,squared_error,4.765885695696886e-07,0.4997,0.7191,0.248177,1.000000,0.000000,0.655236,0.096121,0.156854,0.981409,1.000000,0.607182,0.201362,0.205186,0.437776,0.950115,0.814951,0.408467,2.000000,168.431004,1.330000,9.000000,0.655236,20.128012,1.990111,9.832685,1.000000,231.256891,0.882762,37.931251,0.437776,190.072973,8.242036,4.676204,2.000000,7
/home/daniel/Projects/ppsevolution/data/maps/custom_maps/Custom_6_Run_0_Map.csv,squared_error,4.011147436440799e-06,0.4986,0.7175,0.204200,0.939118,0.000000,0.725042,0.000000,0.000000,0.865830,1.000000,0.950065,0.246583,0.000000,0.588398,1.000000,1.000000,0.000000,1.000000,160.735085,1.295906,9.000000,0.725042,1.000000,0.500000,8.792471,1.000000,291.261393,0.908086,9.000000,0.588398,200.000000,10.000000,1.000000,1.000000,8
/home/daniel/Projects/ppsevolution/data/maps/custom_maps/Custom_6_Run_0_Map.csv,squared_error,2.596775714903236e-06,0.5012,0.7181,0.215824,1.000000,0.266553,0.574677,0.000000,0.457245,0.841935,1.000000,1.000000,0.144092,0.000000,0.545101,0.747578,0.908086,0.349255,1.000000,162.769145,1.330000,46.584039,0.574677,1.000000,4.843826,8.577414,1.000000,300.000000,0.850692,9.000000,0.545101,149.767946,9.126816,4.143292,1.000000,9
map,fitness,fitness value,team0ratio,time,HP,Speed,Damage,Acc,ClipSize,RateOfFire,NrBullets,Range,HP,Speed,Damage,Acc,ClipSize,RateOfFire,NrBullets,Range,HP,Speed,Damage,Acc,ClipSize,RateOfFire,NrBullets,Range,HP,Speed,Damage,Acc,ClipSize,RateOfFire,NrBullets,Range,Run,target team0ratio: 0.5,target time: 0.72
/home/daniel/Projects/ppsevolution/data/maps/custom_maps/Custom_7_Run_0_Map.csv,squared_error,1.15476543511474e-06,0.4989,0.7189,0.802814,0.746983,0.000000,0.490419,0.061717,0.000000,0.924898,1.000000,1.000000,0.085552,0.016388,0.438378,1.000000,0.898729,0.150838,2.000000,265.492365,1.188311,9.000000,0.490419,13.281624,0.500000,9.324086,1.000000,300.000000,0.817909,11.310665,0.438378,200.000000,9.037928,2.357538,2.000000,0
/home/daniel/Projects/ppsevolution/data/maps/custom_maps/Custom_7_Run_0_Map.csv,squared_error,2.405480620294026e-06,0.5021,0.7194,0.156649,0.911335,0.310421,0.152112,0.060029,0.308576,1.000000,1.000000,0.849164,0.000000,0.067859,0.114142,0.946233,0.979014,0.000000,0.000000,152.413650,1.280348,52.769297,0.152112,12.945674,3.431473,10.000000,1.000000,273.603713,0.770000,18.568108,0.114142,189.300329,9.800630,1.000000,0.000000,1
/home/daniel/Projects/ppsevolution/data/maps/custom_maps/Custom_7_Run_0_Map.csv,squared_error,1.1090572935763838e-06,0.4986,0.7194,0.329920,0.750970,0.000000,0.505810,0.000000,0.400735,1.000000,1.000000,1.000000,0.128479,0.040282,0.226240,0.918932,0.903577,0.071247,1.000000,182.735998,1.190543,9.000000,0.505810,1.000000,4.306979,10.000000,1.000000,300.000000,0.841948,14.679828,0.226240,183.867476,9.083982,1.641225,1.000000,2
/home/daniel/Projects/ppsevolution/data/maps/custom_maps/Custom_7_Run_0_Map.csv,squared_error,1.658893470236258e-06,0.4988,0.7213,0.009165,0.665273,0.036490,0.518212,0.239662,0.319322,0.459953,2.000000,0.970888,0.259896,0.111537,0.000000,1.000000,0.598685,0.162556,2.000000,126.603905,1.142553,14.145112,0.518212,48.692746,3.533563,5.139576,2.000000,294.905321,0.915542,24.726711,0.000000,200.000000,6.187504,2.463005,2.000000,3
/home/daniel/Projects/ppsevolution/data/maps/custom_maps/Custom_7_Run_0_Map.csv,squared_error,2.85010766097282e-06,0.4984,0.7182,0.126959,0.932517,0.349315,0.233433,0.168529,0.000000,0.517885,1.000000,1.000000,0.000000,0.129772,0.000000,0.833606,0.900720,0.356775,0.000000,147.217815,1.292210,58.253362,0.233433,34.537336,0.500000,5.660967,1.000000,300.000000,0.770000,27.297858,0.000000,166.887515,9.056839,4.210972,0.000000,4
/home/daniel/Projects/ppsevolution/data/maps/custom_maps/Custom_7_Run_0_Map.csv,squared_error,5.685940776885698e-07,0.4995,0.7209,0.003665,1.000000,0.132604,0.458225,0.072005,0.000000,0.554719,1.000000,0.996530,0.587071,0.091096,0.000000,1.000000,0.717985,0.370499,1.000000,125.641322,1.330000,27.697100,0.458225,15.328975,0.500000,5.992474,1.000000,299.392769,1.098760,21.844557,0.000000,200.000000,7.320858,4.334489,1.000000,5
/home/daniel/Projects/ppsevolution/data/maps/custom_maps/Custom_7_Run_0_Map.csv,squared_error,4.344069993862949e-07,0.5008,0.7204,0.081474,1.000000,0.235746,0.259561,0.339377,0.000000,0.936077,0.000000,0.854295,0.038791,0.081343,0.061831,0.927405,1.000000,0.166985,0.000000,139.257922,1.330000,42.240211,0.259561,68.535968,0.500000,9.424696,0.000000,274.501706,0.791723,20.469344,0.061831,185.553540,10.000000,2.502865,0.000000,6
/home/daniel/Projects/ppsevolution/data/maps/custom_maps/Custom_7_Run_0_Map.csv,squared_error,7.87969641376631e-07,0.4996,0.7188,0.250601,0.894339,0.187334,0.212039,0.377286,0.407368,1.000000,2.000000,0.675661,0.062787,0.004193,0.227712,1.000000,1.000000,0.276947,2.000000,168.855137,1.270830,35.414095,0.212039,76.079861,4.369994,10.000000,2.000000,243.240729,0.805161,9.591195,0.227712,200.000000,10.000000,3.492519,2.000000,7
/home/daniel/Projects/ppsevolution/data/maps/custom_maps/Custom_7_Run_0_Map.csv,squared_error,4.162764645059968e-06,0.4971,0.7196,0.659047,0.676405,0.000000,0.485889,0.000000,0.000000,1.000000,1.000000,0.976995,0.000000,0.141331,0.252623,0.894280,0.823276,0.271919,2.000000,240.333294,1.148787,9.000000,0.485889,1.000000,0.500000,10.000000,1.000000,295.974132,0.770000,28.927728,0.252623,178.961674,8.321118,3.447267,2.000000,8
/home/daniel/Projects/ppsevolution/data/maps/custom_maps/Custom_7_Run_0_Map.csv,squared_error,5.333276398982975e-06,0.4995,0.7232,0.347157,0.799312,0.000000,0.495507,0.217577,0.105942,0.983864,0.000000,0.970699,0.530956,0.040470,0.234774,0.707770,0.891261,0.000000,0.000000,185.752517,1.217614,9.000000,0.495507,44.297750,1.506448,9.854778,0.000000,294.872312,1.067335,14.706316,0.234774,141.846225,8.966981,1.000000,0.000000,9
map,fitness,fitness value,team0ratio,time,HP,Speed,Damage,Acc,ClipSize,RateOfFire,NrBullets,Range,HP,Speed,Damage,Acc,ClipSize,RateOfFire,NrBullets,Range,HP,Speed,Damage,Acc,ClipSize,RateOfFire,NrBullets,Range,HP,Speed,Damage,Acc,ClipSize,RateOfFire,NrBullets,Range,Run,target team0ratio: 0.5,target time: 0.72
/home/daniel/Projects/ppsevolution/data/maps/custom_maps/Custom_8_Run_0_Map.csv,squared_error,4.107605852379873e-06,0.4993,0.7172,0.329897,0.903005,0.006010,0.348762,0.416562,0.004484,0.917559,2.000000,0.966655,0.102956,0.000000,0.000000,0.818017,0.983035,0.565402,1.000000,182.731917,1.275683,9.847461,0.348762,83.895739,0.542600,9.258030,2.000000,294.164597,0.827656,9.000000,0.000000,163.785464,9.838834,6.088617,1.000000,0
/home/daniel/Projects/ppsevolution/data/maps/custom_maps/Custom_8_Run_0_Map.csv,squared_error,3.197048197308249e-06,0.4986,0.7179,0.305885,0.764677,0.319090,0.000000,0.093519,0.396280,1.000000,0.000000,1.000000,0.120638,0.027874,0.000000,0.893290,0.782526,0.000000,0.000000,178.529841,1.198219,53.991733,0.000000,19.610205,4.264662,10.000000,0.000000,300.000000,0.837557,12.930216,0.000000,178.764644,7.933998,1.000000,0.000000,1
/home/daniel/Projects/ppsevolution/data/maps/custom_maps/Custom_8_Run_0_Map.csv,squared_error,1.7044819112583775e-06,0.5002,0.7182,0.331453,0.970314,0.000000,0.371885,0.184254,0.070342,0.424388,1.000000,0.888029,0.297267,0.043439,0.000000,0.869077,0.773081,0.291812,2.000000,183.004304,1.313376,9.000000,0.371885,37.666477,1.168251,4.819490,1.000000,280.405154,0.936469,15.124831,0.000000,173.946290,7.844267,3.626305,2.000000,2
/home/daniel/Projects/ppsevolution/data/maps/custom_maps/Custom_8_Run_0_Map.csv,squared_error,3.971588245815326e-06,0.5019,0.7179,0.710375,1.000000,0.000000,0.337301,0.689955,0.326889,0.964057,2.000000,1.000000,0.273727,0.039130,0.192258,0.975022,0.859022,0.036975,2.000000,249.315664,1.330000,9.000000,0.337301,138.301047,3.605443,9.676515,2.000000,300.000000,0.923287,14.517268,0.192258,195.029444,8.660711,1.332772,2.000000,3
/home/daniel/Projects/ppsevolution/data/maps/custom_maps/Custom_8_Run_0_Map.csv,squared_error,6.778991926921651e-07,0.5012,0.7200,0.410324,1.000000,0.000000,0.318201,0.359997,0.213530,0.920662,0.000000,0.885297,0.286977,0.000000,0.110497,0.700525,0.866557,0.003547,1.000000,196.806703,1.330000,9.000000,0.318201,72.639317,2.528531,9.285955,0.000000,279.927021,0.930707,9.000000,0.110497,140.404461,8.732289,1.031925,1.000000,4
/home/daniel/Projects/ppsevolution/data/maps/custom_maps/Custom_8_Run_0_Map.csv,squared_error,1.9338481393135003e-06,0.5009,0.7217,0.317443,0.936001,0.072133,0.284782,0.000000,0.402465,0.933895,1.000000,1.000000,0.147895,0.042535,0.000000,1.000000,0.915224,0.019539,0.000000,180.552471,1.294160,19.170811,0.284782,1.000000,4.323419,9.405053,1.000000,300.000000,0.852821,14.997474,0.000000,200.000000,9.194624,1.175852,0.000000,5
/home/daniel/Projects/ppsevolution/data/maps/custom_maps/Custom_8_Run_0_Map.csv,squared_error,2.605969572880417e-06,0.4979,0.7191,0.389194,1.000000,0.159369,0.189708,0.447586,0.000000,0.771519,2.000000,1.000000,0.097009,0.000000,0.052163,0.648577,0.804295,0.254259,1.000000,193.108886,1.330000,31.470997,0.189708,90.069608,0.500000,7.943670,2.000000,300.000000,0.824325,9.000000,0.052163,130.066765,8.140799,3.288334,1.000000,6
/home/daniel/Projects/ppsevolution/data/maps/custom_maps/Custom_8_Run_0_Map.csv,squared_error,7.102054900283959e-06,0.4992,0.7237,0.367304,0.737411,0.008478,0.364090,0.134395,0.375319,0.715099,0.000000,0.983164,0.411748,0.000000,0.078455,1.000000,1.000000,0.036588,0.000000,189.278155,1.182950,10.195333,0.364090,27.744633,4.065532,7.435888,0.000000,297.053672,1.000579,9.000000,0.078455,200.000000,10.000000,1.329290,0.000000,7
/home/daniel/Projects/ppsevolution/data/maps/custom_maps/Custom_8_Run_0_Map.csv,squared_error,2.2879694767226506e-06,0.4979,0.7200,0.248089,0.749713,0.020374,0.162981,0.403091,0.541037,0.893611,2.000000,0.588187,0.218393,0.000000,0.000000,0.517987,0.871852,0.237251,0.000000,168.415629,1.189839,11.872670,0.162981,81.215181,5.639849,9.042502,2.000000,227.932800,0.892300,9.000000,0.000000,104.079489,8.782596,3.135259,0.000000,8
/home/daniel/Projects/ppsevolution/data/maps/custom_maps/Custom_8_Run_0_Map.csv,squared_error,3.274463556391591e-06,0.5016,0.7220,0.754302,0.633293,0.000000,0.308652,0.000000,0.338780,0.560506,0.000000,0.854165,0.171948,0.000000,0.265451,0.685798,0.873898,0.000000,2.000000,257.002905,1.124644,9.000000,0.308652,1.000000,3.718413,6.044551,0.000000,274.478838,0.866291,9.000000,0.265451,137.473720,8.802031,1.000000,2.000000,9
map,fitness,fitness value,team0ratio,time,HP,Speed,Damage,Acc,ClipSize,RateOfFire,NrBullets,Range,HP,Speed,Damage,Acc,ClipSize,RateOfFire,NrBullets,Range,HP,Speed,Damage,Acc,ClipSize,RateOfFire,NrBullets,Range,HP,Speed,Damage,Acc,ClipSize,RateOfFire,NrBullets,Range,Run,target team0ratio: 0.5,target time: 0.72
/home/daniel/Projects/ppsevolution/data/maps/custom_maps/Custom_9_Run_0_Map.csv,squared_error,1.7135846597594245e-05,0.5055,0.7219,0.546285,0.722335,0.098708,0.000000,0.193528,0.567017,0.648683,0.000000,0.797154,0.135442,0.000000,0.000000,0.643011,0.974975,0.174392,0.000000,220.599838,1.174508,22.917890,0.000000,39.512081,5.886662,6.838149,0.000000,264.502036,0.845847,9.000000,0.000000,128.959107,9.762266,2.569526,0.000000,0
/home/daniel/Projects/ppsevolution/data/maps/custom_maps/Custom_9_Run_0_Map.csv,squared_error,4.253063038515774e-06,0.5010,0.7173,0.600611,0.750412,0.000000,0.177798,0.186719,0.146744,1.000000,1.000000,1.000000,0.205254,0.000000,0.000000,0.536801,0.969357,0.343731,2.000000,230.106983,1.190231,9.000000,0.177798,38.156987,1.894073,10.000000,1.000000,300.000000,0.884942,9.000000,0.000000,107.823376,9.708891,4.093580,2.000000,1
/home/daniel/Projects/ppsevolution/data/maps/custom_maps/Custom_9_Run_0_Map.csv,squared_error,7.425363457798793e-07,0.5008,0.7210,0.648048,1.000000,0.000000,0.000000,0.757506,0.260327,0.988688,0.000000,0.586844,0.114025,0.024656,0.000000,0.977611,1.000000,0.590605,1.000000,238.408380,1.330000,9.000000,0.000000,151.743751,2.973105,9.898189,0.000000,227.697744,0.833854,12.476479,0.000000,195.544650,10.000000,6.315442,1.000000,2
/home/daniel/Projects/ppsevolution/data/maps/custom_maps/Custom_9_Run_0_Map.csv,squared_error,4.610514004894902e-07,0.5006,0.7193,0.661660,1.000000,0.089219,0.000000,0.110900,0.270623,0.752257,2.000000,0.846672,0.059798,0.064195,0.000000,0.209436,0.734984,0.039541,1.000000,240.790556,1.330000,21.579942,0.000000,23.069074,3.070916,7.770309,2.000000,273.167628,0.803487,18.051518,0.000000,42.677711,7.482346,1.355866,1.000000,3
/home/daniel/Projects/ppsevolution/data/maps/custom_maps/Custom_9_Run_0_Map.csv,squared_error,3.2738681908569294e-06,0.5020,0.7216,0.503729,1.000000,0.032811,0.135144,0.092022,0.076698,0.792008,2.000000,0.950392,0.200387,0.000000,0.000000,0.973072,0.737972,0.000000,1.000000,213.152552,1.330000,13.626373,0.135144,19.312396,1.228631,8.128068,2.000000,291.318607,0.882217,9.000000,0.000000,194.641380,7.510736,1.000000,1.000000,4
/home/daniel/Projects/ppsevolution/data/maps/custom_maps/Custom_9_Run_0_Map.csv,squared_error,1.7179710606825901e-06,0.4994,0.7217,0.527270,1.000000,0.004920,0.161166,0.000000,0.098770,0.616716,1.000000,0.885036,0.087353,0.013221,0.000000,1.000000,0.909142,0.099691,1.000000,217.272326,1.330000,9.693690,0.161166,1.000000,1.438318,6.550447,1.000000,279.881364,0.818918,10.864174,0.000000,200.000000,9.136850,1.897218,1.000000,5
/home/daniel/Projects/ppsevolution/data/maps/custom_maps/Custom_9_Run_0_Map.csv,squared_error,2.65271008052255e-06,0.4979,0.7210,0.495400,0.974910,0.000000,0.164616,0.583027,0.351919,0.726948,0.000000,0.907366,0.365824,0.000000,0.000000,0.905107,0.530397,0.000000,2.000000,211.694913,1.315949,9.000000,0.164616,117.022328,3.843235,7.542528,0.000000,283.788996,0.974861,9.000000,0.000000,181.116318,5.538772,1.000000,2.000000,6
/home/daniel/Projects/ppsevolution/data/maps/custom_maps/Custom_9_Run_0_Map.csv,squared_error,4.3453876051275073e-07,0.5008,0.7205,0.602299,0.724967,0.000454,0.056070,0.064626,0.485632,0.681845,1.000000,0.658159,0.283469,0.001703,0.000000,0.810861,0.962772,0.472681,2.000000,230.402359,1.175982,9.064063,0.056070,13.860579,5.113507,7.136608,1.000000,240.177850,0.928743,9.240055,0.000000,162.361272,9.646336,5.254127,2.000000,7
/home/daniel/Projects/ppsevolution/data/maps/custom_maps/Custom_9_Run_0_Map.csv,squared_error,2.072848449100225e-06,0.4981,0.7207,0.638415,0.959524,0.051577,0.029882,0.090222,0.069267,0.909562,0.000000,0.791227,0.000000,0.000000,0.068278,0.954464,0.816132,0.269403,2.000000,236.722552,1.307333,16.272333,0.029882,18.954161,1.158035,9.186061,0.000000,263.464702,0.770000,9.000000,0.068278,190.938270,8.253258,3.424631,2.000000,8
/home/daniel/Projects/ppsevolution/data/maps/custom_maps/Custom_9_Run_0_Map.csv,squared_error,4.209170627518468e-07,0.5004,0.7192,0.680607,0.842545,0.128865,0.000000,0.176043,0.383224,1.000000,1.000000,1.000000,0.338905,0.000000,0.079416,0.228470,0.836234,0.020237,0.000000,244.106263,1.241825,27.169906,0.000000,36.032562,4.140627,10.000000,1.000000,300.000000,0.959787,9.000000,0.079416,46.465481,8.444223,1.182134,0.000000,9
map,fitness,fitness value,team0ratio,time,HP,Speed,Damage,Acc,ClipSize,RateOfFire,NrBullets,Range,HP,Speed,Damage,Acc,ClipSize,RateOfFire,NrBullets,Range,HP,Speed,Damage,Acc,ClipSize,RateOfFire,NrBullets,Range,HP,Speed,Damage,Acc,ClipSize,RateOfFire,NrBullets,Range,Run,target team0ratio: 0.5,target time: 0.72
/home/daniel/Projects/ppsevolution/data/maps/custom_maps/Custom_10_Run_0_Map.csv,squared_error,2.6601042019621096e-06,0.5023,0.7204,0.253062,0.696156,0.000000,0.317981,0.234316,0.000000,0.633823,0.000000,0.501258,0.240456,0.000000,0.219483,0.960259,0.887429,0.000000,1.000000,169.285923,1.159847,9.000000,0.317981,47.628814,0.500000,6.704403,0.000000,212.720151,0.904656,9.000000,0.219483,192.091522,8.930573,1.000000,1.000000,0
/home/daniel/Projects/ppsevolution/data/maps/custom_maps/Custom_10_Run_0_Map.csv,squared_error,1.0935112685046665e-06,0.5009,0.7188,0.047170,0.939358,0.345048,0.151249,0.355452,0.335254,0.119306,2.000000,0.897452,0.069125,0.059848,0.000000,0.661505,0.840846,0.000000,0.000000,133.254681,1.296040,57.651712,0.151249,71.734968,3.684910,2.073757,2.000000,282.054177,0.808710,17.438593,0.000000,132.639496,8.488035,1.000000,0.000000,1
/home/daniel/Projects/ppsevolution/data/maps/custom_maps/Custom_10_Run_0_Map.csv,squared_error,2.919906029149122e-07,0.5003,0.7207,0.074209,0.626471,0.322984,0.000000,0.481088,0.235062,0.519042,1.000000,0.567753,0.623098,0.000000,0.073834,0.989464,0.921608,0.150528,1.000000,137.986656,1.120824,54.540700,0.000000,96.736415,2.733091,5.671378,1.000000,224.356737,1.118935,9.000000,0.073834,197.903271,9.255275,2.354751,1.000000,2
/home/daniel/Projects/ppsevolution/data/maps/custom_maps/Custom_10_Run_0_Map.csv,squared_error,7.836063007012058e-07,0.4989,0.7194,0.245803,0.093395,0.034310,0.442167,0.508992,0.343942,0.674461,2.000000,1.000000,0.000000,0.066252,0.078761,0.898536,0.947249,0.167795,0.000000,168.015518,0.822301,13.837690,0.442167,102.289429,3.767445,7.070145,2.000000,300.000000,0.770000,18.341537,0.078761,179.808688,9.498866,2.510151,0.000000,3
/home/daniel/Projects/ppsevolution/data/maps/custom_maps/Custom_10_Run_0_Map.csv,squared_error,7.656177429112083e-07,0.5012,0.7197,0.509116,0.921702,0.256369,0.205836,0.448390,0.083732,0.746973,0.000000,0.969308,0.043010,0.102694,0.177172,0.992134,0.452525,0.000000,2.000000,214.095213,1.286153,45.148015,0.205836,90.229688,1.295456,7.722755,0.000000,294.628977,0.794086,23.479911,0.177172,198.434681,4.798985,1.000000,2.000000,4
/home/daniel/Projects/ppsevolution/data/maps/custom_maps/Custom_10_Run_0_Map.csv,squared_error,1.6143018582689219e-06,0.4999,0.7218,0.000000,0.797166,0.173255,0.296306,0.266296,0.179207,1.000000,1.000000,1.000000,0.033363,0.033411,0.000000,0.924451,0.963862,0.000000,2.000000,125.000000,1.216413,33.428981,0.296306,53.992830,2.202467,10.000000,1.000000,300.000000,0.788683,13.710979,0.000000,184.965719,9.656691,1.000000,2.000000,5
/home/daniel/Projects/ppsevolution/data/maps/custom_maps/Custom_10_Run_0_Map.csv,squared_error,1.2454901862042518e-06,0.5012,0.7190,0.067151,0.512892,0.027197,0.424298,0.000000,0.017814,1.000000,2.000000,0.955465,0.098412,0.077049,0.000000,0.860942,0.737026,0.000000,1.000000,136.751343,1.057220,12.834838,0.424298,1.000000,0.669230,10.000000,2.000000,292.206402,0.825111,19.863965,0.000000,172.327543,7.501750,1.000000,1.000000,6
/home/daniel/Projects/ppsevolution/data/maps/custom_maps/Custom_10_Run_0_Map.csv,squared_error,5.833057647037977e-07,0.5005,0.7190,0.010276,0.978514,0.000000,0.475636,0.000000,0.411714,1.000000,2.000000,1.000000,0.318391,0.000000,0.015592,0.989165,0.820664,0.346330,0.000000,126.798378,1.317968,9.000000,0.475636,1.000000,4.411282,10.000000,2.000000,300.000000,0.948299,9.000000,0.015592,197.843933,8.296310,4.116974,0.000000,7
/home/daniel/Projects/ppsevolution/data/maps/custom_maps/Custom_10_Run_0_Map.csv,squared_error,1.5305320029852791e-06,0.5016,0.7193,0.380592,0.769651,0.233506,0.104653,0.032916,0.286337,0.698250,1.000000,0.662484,0.091779,0.000000,0.213592,0.940817,1.000000,0.331319,2.000000,191.603656,1.201004,41.924391,0.104653,7.550362,3.220197,7.284254,1.000000,240.934674,0.821396,9.000000,0.213592,188.222534,10.000000,3.981872,2.000000,8
/home/daniel/Projects/ppsevolution/data/maps/custom_maps/Custom_10_Run_0_Map.csv,squared_error,1.6041189022083015e-06,0.4983,0.7206,0.822497,1.000000,0.000000,0.456853,0.418375,0.228881,0.716839,2.000000,1.000000,0.018284,0.007217,0.431462,0.749481,0.879411,0.018671,0.000000,268.936998,1.330000,9.000000,0.456853,84.256689,2.674368,7.451554,2.000000,300.000000,0.780239,10.017558,0.431462,150.146743,8.854406,1.168035,0.000000,9
