map,fitness,fitness value,team0ratio,time,HP,Speed,Damage,Acc,ClipSize,RateOfFire,NrBullets,Range,HP,Speed,Damage,Acc,ClipSize,RateOfFire,NrBullets,Range,HP,Speed,Damage,Acc,ClipSize,RateOfFire,NrBullets,Range,HP,Speed,Damage,Acc,ClipSize,RateOfFire,NrBullets,Range,Run,target team0ratio: 0.5,target time: 0.14
/home/daniel/Projects/ppsevolution/data/maps/custom_maps/Custom_1_Run_0_Map.csv,squared_error,0.00012361621497905426,0.4988,0.1557,0.000000,1.000000,0.669031,0.966367,0.000000,0.000000,0.998374,2.000000,0.192582,0.134424,1.000000,1.000000,1.000000,0.827019,0.924686,2.000000,125.000000,1.330000,103.333427,0.966367,1.000000,0.500000,9.985369,2.000000,158.701849,0.845277,150.000000,1.000000,200.000000,8.356676,9.322171,2.000000,0
/home/daniel/Projects/ppsevolution/data/maps/custom_maps/Custom_1_Run_0_Map.csv,squared_error,0.0001331108420644433,0.4993,0.1563,0.000000,1.000000,0.743586,0.968122,0.000000,0.000000,1.000000,2.000000,0.335870,0.089401,1.000000,1.000000,0.542222,0.733310,1.000000,2.000000,125.000000,1.330000,113.845682,0.968122,1.000000,0.500000,10.000000,2.000000,183.777304,0.820064,150.000000,1.000000,108.902122,7.466444,10.000000,2.000000,1
/home/daniel/Projects/ppsevolution/data/maps/custom_maps/Custom_1_Run_0_Map.csv,squared_error,0.000117187724381651,0.4990,0.1553,0.000000,0.895196,0.454130,1.000000,0.000000,0.000000,0.962858,2.000000,0.469527,0.121082,1.000000,1.000000,1.000000,0.347867,0.999520,2.000000,125.000000,1.271310,73.032358,1.000000,1.000000,0.500000,9.665722,2.000000,207.167264,0.837806,150.000000,1.000000,200.000000,3.804739,9.995681,2.000000,2
/home/daniel/Projects/ppsevolution/data/maps/custom_maps/Custom_1_Run_0_Map.csv,squared_error,0.00012572895832302586,0.5027,0.1556,0.000000,1.000000,0.337707,1.000000,0.000000,0.000000,1.000000,2.000000,0.374992,0.360101,1.000000,1.000000,0.949005,0.982175,0.958872,2.000000,125.000000,1.330000,56.616674,1.000000,1.000000,0.500000,10.000000,2.000000,190.623678,0.971657,150.000000,1.000000,189.852065,9.830663,9.629852,2.000000,3
/home/daniel/Projects/ppsevolution/data/maps/custom_maps/Custom_1_Run_0_Map.csv,squared_error,0.00014100800584287748,0.5020,0.1567,0.000000,0.968583,0.757404,0.985926,0.000000,0.092854,1.000000,2.000000,0.690229,0.094297,1.000000,1.000000,1.000000,0.532848,0.947966,2.000000,125.000000,1.312407,115.793908,0.985926,1.000000,1.382113,10.000000,2.000000,245.790013,0.822806,150.000000,1.000000,200.000000,5.562057,9.531691,2.000000,4
/home/daniel/Projects/ppsevolution/data/maps/custom_maps/Custom_1_Run_0_Map.csv,squared_error,0.00015162868409447134,0.4975,0.1572,0.000000,0.896660,0.581059,1.000000,0.000000,0.021843,1.000000,2.000000,0.848983,0.000000,1.000000,1.000000,0.945195,0.994051,1.000000,2.000000,125.000000,1.272130,90.929306,1.000000,1.000000,0.707512,10.000000,2.000000,273.571960,0.770000,150.000000,1.000000,189.093857,9.943488,10.000000,2.000000,5
/home/daniel/Projects/ppsevolution/data/maps/custom_maps/Custom_1_Run_0_Map.csv,squared_error,0.00013488258247363656,0.5004,0.1564,0.000000,0.912899,0.483288,1.000000,0.000000,0.000000,0.986395,2.000000,0.595785,0.020339,1.000000,1.000000,0.934472,0.805756,0.877925,2.000000,125.000000,1.281223,77.143633,1.000000,1.000000,0.500000,9.877551,2.000000,229.262424,0.781390,150.000000,1.000000,186.959832,8.154679,8.901322,2.000000,6
/home/daniel/Projects/ppsevolution/data/maps/custom_maps/Custom_1_Run_0_Map.csv,squared_error,0.0001188297058226828,0.5023,0.1552,0.000000,1.000000,0.459198,1.000000,0.003553,0.000000,1.000000,2.000000,0.494511,0.167020,1.000000,1.000000,1.000000,0.549694,1.000000,2.000000,125.000000,1.330000,73.746905,1.000000,1.707066,0.500000,10.000000,2.000000,211.539485,0.863531,150.000000,1.000000,200.000000,5.722089,10.000000,2.000000,7
/home/daniel/Projects/ppsevolution/data/maps/custom_maps/Custom_1_Run_0_Map.csv,squared_error,0.00012865615420234897,0.5009,0.1560,0.000000,1.000000,0.881280,0.955211,0.000000,0.000000,1.000000,2.000000,0.240216,0.355944,1.000000,1.000000,1.000000,0.461690,0.724349,2.000000,125.000000,1.330000,133.260475,0.955211,1.000000,0.500000,10.000000,2.000000,167.037880,0.969329,150.000000,1.000000,200.000000,4.886052,7.519143,2.000000,8
/home/daniel/Projects/ppsevolution/data/maps/custom_maps/Custom_1_Run_0_Map.csv,squared_error,0.0001479265354845038,0.5005,0.1572,0.000000,1.000000,0.547130,1.000000,0.000000,0.002776,1.000000,2.000000,0.755226,0.077481,1.000000,1.000000,0.886341,1.000000,0.887769,2.000000,125.000000,1.330000,86.145302,1.000000,1.000000,0.526373,10.000000,2.000000,257.164559,0.813389,150.000000,1.000000,177.381819,10.000000,8.989919,2.000000,9
map,fitness,fitness value,team0ratio,time,HP,Speed,Damage,Acc,ClipSize,RateOfFire,NrBullets,Range,HP,Speed,Damage,Acc,ClipSize,RateOfFire,NrBullets,Range,HP,Speed,Damage,Acc,ClipSize,RateOfFire,NrBullets,Range,HP,Speed,Damage,Acc,ClipSize,RateOfFire,NrBullets,Range,Run,target team0ratio: 0.5,target time: 0.14
/home/daniel/Projects/ppsevolution/data/maps/custom_maps/Custom_2_Run_0_Map.csv,squared_error,0.030158257886665887,0.4651,0.3831,0.000000,1.000000,0.702488,1.000000,0.000000,0.000000,1.000000,2.000000,1.000000,1.000000,1.000000,1.000000,1.000000,1.000000,1.000000,2.000000,125.000000,1.330000,108.050816,1.000000,1.000000,0.500000,10.000000,2.000000,300.000000,1.330000,150.000000,1.000000,200.000000,10.000000,10.000000,2.000000,0
/home/daniel/Projects/ppsevolution/data/maps/custom_maps/Custom_2_Run_0_Map.csv,squared_error,0.03022401162673748,0.4631,0.3831,0.000000,1.000000,0.684211,1.000000,0.000000,0.000000,1.000000,2.000000,0.958808,0.476151,1.000000,1.000000,1.000000,1.000000,1.000000,2.000000,125.000000,1.330000,105.473756,1.000000,1.000000,0.500000,10.000000,2.000000,292.791325,1.036645,150.000000,1.000000,200.000000,10.000000,10.000000,2.000000,1
/home/daniel/Projects/ppsevolution/data/maps/custom_maps/Custom_2_Run_0_Map.csv,squared_error,0.030188113565233037,0.4646,0.3832,0.000000,1.000000,0.502995,1.000000,0.000000,0.000000,1.000000,2.000000,0.622619,1.000000,1.000000,1.000000,1.000000,1.000000,1.000000,2.000000,125.000000,1.330000,79.922307,1.000000,1.000000,0.500000,10.000000,2.000000,233.958292,1.330000,150.000000,1.000000,200.000000,10.000000,10.000000,2.000000,2
/home/daniel/Projects/ppsevolution/data/maps/custom_maps/Custom_2_Run_0_Map.csv,squared_error,0.030255227310449842,0.4644,0.3834,0.000000,1.000000,0.510140,1.000000,0.000000,0.000000,1.000000,2.000000,0.610666,0.453493,1.000000,1.000000,1.000000,1.000000,1.000000,2.000000,125.000000,1.330000,80.929726,1.000000,1.000000,0.500000,10.000000,2.000000,231.866529,1.023956,150.000000,1.000000,200.000000,10.000000,10.000000,2.000000,3
/home/daniel/Projects/ppsevolution/data/maps/custom_maps/Custom_2_Run_0_Map.csv,squared_error,0.030220453865298938,0.4666,0.3836,0.000000,1.000000,0.543636,1.000000,0.000000,0.000000,1.000000,2.000000,0.665060,0.706250,1.000000,1.000000,1.000000,1.000000,1.000000,2.000000,125.000000,1.330000,85.652666,1.000000,1.000000,0.500000,10.000000,2.000000,241.385453,1.165500,150.000000,1.000000,200.000000,10.000000,10.000000,2.000000,4
/home/daniel/Projects/ppsevolution/data/maps/custom_maps/Custom_2_Run_0_Map.csv,squared_error,0.030175659873570782,0.4662,0.3833,0.000000,1.000000,0.592434,1.000000,0.000000,0.000000,1.000000,2.000000,0.777224,1.000000,1.000000,1.000000,1.000000,1.000000,1.000000,2.000000,125.000000,1.330000,92.533150,1.000000,1.000000,0.500000,10.000000,2.000000,261.014285,1.330000,150.000000,1.000000,200.000000,10.000000,10.000000,2.000000,5
/home/daniel/Projects/ppsevolution/data/maps/custom_maps/Custom_2_Run_0_Map.csv,squared_error,0.030158746616804042,0.4628,0.3828,0.000000,1.000000,0.689681,1.000000,0.000000,0.000000,1.000000,2.000000,1.000000,1.000000,1.000000,1.000000,1.000000,1.000000,1.000000,2.000000,125.000000,1.330000,106.244967,1.000000,1.000000,0.500000,10.000000,2.000000,300.000000,1.330000,150.000000,1.000000,200.000000,10.000000,10.000000,2.000000,6
/home/daniel/Projects/ppsevolution/data/maps/custom_maps/Custom_2_Run_0_Map.csv,squared_error,0.030158528897772492,0.4630,0.3828,0.000000,1.000000,0.690704,1.000000,0.000000,0.000000,1.000000,2.000000,1.000000,1.000000,1.000000,1.000000,1.000000,1.000000,1.000000,2.000000,125.000000,1.330000,106.389274,1.000000,1.000000,0.500000,10.000000,2.000000,300.000000,1.330000,150.000000,1.000000,200.000000,10.000000,10.000000,2.000000,7
/home/daniel/Projects/ppsevolution/data/maps/custom_maps/Custom_2_Run_0_Map.csv,squared_error,0.030194464774822807,0.4645,0.3832,0.000000,1.000000,0.614971,1.000000,0.000000,0.000000,1.000000,2.000000,0.828097,0.797487,1.000000,1.000000,1.000000,1.000000,1.000000,2.000000,125.000000,1.330000,95.710973,1.000000,1.000000,0.500000,10.000000,2.000000,269.917017,1.216593,150.000000,1.000000,200.000000,10.000000,10.000000,2.000000,8
/home/daniel/Projects/ppsevolution/data/maps/custom_maps/Custom_2_Run_0_Map.csv,squared_error,0.030269865761085743,0.4631,0.3833,0.000000,1.000000,0.491394,1.000000,0.000000,0.000000,1.000000,2.000000,0.584737,0.366908,1.000000,1.000000,1.000000,1.000000,1.000000,2.000000,125.000000,1.330000,78.286583,1.000000,1.000000,0.500000,10.000000,2.000000,227.328922,0.975469,150.000000,1.000000,200.000000,10.000000,10.000000,2.000000,9
map,fitness,fitness value,team0ratio,time,HP,Speed,Damage,Acc,ClipSize,RateOfFire,NrBullets,Range,HP,Speed,Damage,Acc,ClipSize,RateOfFire,NrBullets,Range,HP,Speed,Damage,Acc,ClipSize,RateOfFire,NrBullets,Range,HP,Speed,Damage,Acc,ClipSize,RateOfFire,NrBullets,Range,Run,target team0ratio: 0.5,target time: 0.14
/home/daniel/Projects/ppsevolution/data/maps/custom_maps/Custom_3_Run_0_Map.csv,squared_error,0.05405022044770622,0.5278,0.4676,0.000000,1.000000,1.000000,0.978001,0.000000,0.000000,1.000000,2.000000,0.000000,0.000000,1.000000,1.000000,1.000000,0.000000,1.000000,2.000000,125.000000,1.330000,150.000000,0.978001,1.000000,0.500000,10.000000,2.000000,125.000000,0.770000,150.000000,1.000000,200.000000,0.500000,10.000000,2.000000,0
/home/daniel/Projects/ppsevolution/data/maps/custom_maps/Custom_3_Run_0_Map.csv,squared_error,0.054056809400194535,0.5304,0.4674,0.000000,1.000000,1.000000,0.979402,0.000000,0.000000,1.000000,2.000000,0.000000,0.000000,1.000000,1.000000,1.000000,0.000000,1.000000,2.000000,125.000000,1.330000,150.000000,0.979402,1.000000,0.500000,10.000000,2.000000,125.000000,0.770000,150.000000,1.000000,200.000000,0.500000,10.000000,2.000000,1
/home/daniel/Projects/ppsevolution/data/maps/custom_maps/Custom_3_Run_0_Map.csv,squared_error,0.05405149464602748,0.5286,0.4675,0.000000,1.000000,1.000000,0.978408,0.000000,0.000000,1.000000,2.000000,0.000000,0.000000,1.000000,1.000000,1.000000,0.000000,1.000000,2.000000,125.000000,1.330000,150.000000,0.978408,1.000000,0.500000,10.000000,2.000000,125.000000,0.770000,150.000000,1.000000,200.000000,0.500000,10.000000,2.000000,2
/home/daniel/Projects/ppsevolution/data/maps/custom_maps/Custom_3_Run_0_Map.csv,squared_error,0.05405063644171766,0.5246,0.4679,0.000000,1.000000,1.000000,0.976304,0.000000,0.000000,1.000000,2.000000,0.000000,0.000000,1.000000,1.000000,1.000000,0.000000,1.000000,2.000000,125.000000,1.330000,150.000000,0.976304,1.000000,0.500000,10.000000,2.000000,125.000000,0.770000,150.000000,1.000000,200.000000,0.500000,10.000000,2.000000,3
/home/daniel/Projects/ppsevolution/data/maps/custom_maps/Custom_3_Run_0_Map.csv,squared_error,0.05405559978627895,0.5226,0.4680,0.000000,1.000000,1.000000,0.975241,0.000000,0.000000,1.000000,2.000000,0.000000,0.000000,1.000000,1.000000,1.000000,0.000000,1.000000,2.000000,125.000000,1.330000,150.000000,0.975241,1.000000,0.500000,10.000000,2.000000,125.000000,0.770000,150.000000,1.000000,200.000000,0.500000,10.000000,2.000000,4
/home/daniel/Projects/ppsevolution/data/maps/custom_maps/Custom_3_Run_0_Map.csv,squared_error,0.0540615488938194,0.5281,0.4676,0.000000,1.000000,1.000000,0.978880,0.000000,0.630660,1.000000,2.000000,0.000000,0.000000,1.000000,1.000000,1.000000,0.000000,1.000000,2.000000,125.000000,1.330000,150.000000,0.978880,1.000000,6.491270,10.000000,2.000000,125.000000,0.770000,150.000000,1.000000,200.000000,0.500000,10.000000,2.000000,5
/home/daniel/Projects/ppsevolution/data/maps/custom_maps/Custom_3_Run_0_Map.csv,squared_error,0.05406436668580573,0.5241,0.4679,0.000000,1.000000,1.000000,0.976009,0.000000,0.059843,1.000000,2.000000,0.000000,0.000000,1.000000,1.000000,1.000000,0.008326,1.000000,2.000000,125.000000,1.330000,150.000000,0.976009,1.000000,1.068505,10.000000,2.000000,125.000000,0.770000,150.000000,1.000000,200.000000,0.579097,10.000000,2.000000,6
/home/daniel/Projects/ppsevolution/data/maps/custom_maps/Custom_3_Run_0_Map.csv,squared_error,0.05405731550108658,0.5268,0.4677,0.000000,1.000000,1.000000,0.977559,0.000000,0.090557,1.000000,2.000000,0.000000,0.000000,1.000000,1.000000,1.000000,0.000000,1.000000,2.000000,125.000000,1.330000,150.000000,0.977559,1.000000,1.360290,10.000000,2.000000,125.000000,0.770000,150.000000,1.000000,200.000000,0.500000,10.000000,2.000000,7
/home/daniel/Projects/ppsevolution/data/maps/custom_maps/Custom_3_Run_0_Map.csv,squared_error,0.054053349123627636,0.5233,0.4680,0.000000,1.000000,1.000000,0.975633,0.000000,0.000000,1.000000,2.000000,0.000000,0.000000,1.000000,1.000000,1.000000,0.000000,1.000000,2.000000,125.000000,1.330000,150.000000,0.975633,1.000000,0.500000,10.000000,2.000000,125.000000,0.770000,150.000000,1.000000,200.000000,0.500000,10.000000,2.000000,8
/home/daniel/Projects/ppsevolution/data/maps/custom_maps/Custom_3_Run_0_Map.csv,squared_error,0.054471821288143304,0.5190,0.4695,0.000000,1.000000,0.665035,1.000000,0.000000,0.000000,1.000000,2.000000,0.000000,0.000000,1.000000,1.000000,1.000000,0.000000,1.000000,2.000000,125.000000,1.330000,102.769978,1.000000,1.000000,0.500000,10.000000,2.000000,125.000000,0.770000,150.000000,1.000000,200.000000,0.500000,10.000000,2.000000,9
map,fitness,fitness value,team0ratio,time,HP,Speed,Damage,Acc,ClipSize,RateOfFire,NrBullets,Range,HP,Speed,Damage,Acc,ClipSize,RateOfFire,NrBullets,Range,HP,Speed,Damage,Acc,ClipSize,RateOfFire,NrBullets,Range,HP,Speed,Damage,Acc,ClipSize,RateOfFire,NrBullets,Range,Run,target team0ratio: 0.5,target time: 0.14
/home/daniel/Projects/ppsevolution/data/maps/custom_maps/Custom_4_Run_0_Map.csv,squared_error,0.0014062539550417869,0.4985,0.1930,0.000000,1.000000,1.000000,0.962868,0.000000,0.000000,1.000000,2.000000,0.000000,0.000000,0.997001,1.000000,1.000000,0.989239,1.000000,2.000000,125.000000,1.330000,150.000000,0.962868,1.000000,0.500000,10.000000,2.000000,125.000000,0.770000,149.577145,1.000000,200.000000,9.897772,10.000000,2.000000,0
/home/daniel/Projects/ppsevolution/data/maps/custom_maps/Custom_4_Run_0_Map.csv,squared_error,0.0013735063545636222,0.5047,0.1922,0.000000,1.000000,0.821795,1.000000,0.000000,0.000000,1.000000,2.000000,0.168429,0.000000,1.000000,1.000000,1.000000,0.000000,1.000000,2.000000,125.000000,1.330000,124.873068,1.000000,1.000000,0.500000,10.000000,2.000000,154.475120,0.770000,150.000000,1.000000,200.000000,0.500000,10.000000,2.000000,1
/home/daniel/Projects/ppsevolution/data/maps/custom_maps/Custom_4_Run_0_Map.csv,squared_error,0.0013247412659493558,0.5079,0.1909,0.000000,0.698729,1.000000,0.979901,0.000000,0.000000,1.000000,2.000000,0.000000,0.000000,1.000000,1.000000,0.933302,0.083719,0.979811,2.000000,125.000000,1.161288,150.000000,0.979901,1.000000,0.500000,10.000000,2.000000,125.000000,0.770000,150.000000,1.000000,186.727147,1.295334,9.818295,2.000000,2
/home/daniel/Projects/ppsevolution/data/maps/custom_maps/Custom_4_Run_0_Map.csv,squared_error,0.0013924654257256059,0.5081,0.1921,0.000000,0.855223,0.893456,1.000000,0.000000,0.000000,1.000000,2.000000,0.242728,0.002127,1.000000,1.000000,0.998627,0.000000,1.000000,2.000000,125.000000,1.248925,134.977241,1.000000,1.000000,0.500000,10.000000,2.000000,167.477479,0.771191,150.000000,1.000000,199.726834,0.500000,10.000000,2.000000,3
/home/daniel/Projects/ppsevolution/data/maps/custom_maps/Custom_4_Run_0_Map.csv,squared_error,0.0013751299942036206,0.5013,0.1924,0.000000,1.000000,0.680279,1.000000,0.000000,0.000000,1.000000,2.000000,0.000000,0.000000,1.000000,1.000000,0.952513,0.179908,1.000000,2.000000,125.000000,1.330000,104.919269,1.000000,1.000000,0.500000,10.000000,2.000000,125.000000,0.770000,150.000000,1.000000,190.550074,2.209129,10.000000,2.000000,4
/home/daniel/Projects/ppsevolution/data/maps/custom_maps/Custom_4_Run_0_Map.csv,squared_error,0.0014099955692698834,0.5062,0.1927,0.000000,1.000000,1.000000,1.000000,0.000000,0.000000,1.000000,2.000000,0.441242,0.000000,1.000000,1.000000,1.000000,0.000000,0.998460,2.000000,125.000000,1.330000,150.000000,1.000000,1.000000,0.500000,10.000000,2.000000,202.217405,0.770000,150.000000,1.000000,200.000000,0.500000,9.986137,2.000000,5
/home/daniel/Projects/ppsevolution/data/maps/custom_maps/Custom_4_Run_0_Map.csv,squared_error,0.0013128824237309184,0.5033,0.1911,0.000000,1.000000,1.000000,0.981132,0.000000,0.000000,1.000000,2.000000,0.076849,0.000000,1.000000,1.000000,1.000000,0.000000,1.000000,2.000000,125.000000,1.330000,150.000000,0.981132,1.000000,0.500000,10.000000,2.000000,138.448544,0.770000,150.000000,1.000000,200.000000,0.500000,10.000000,2.000000,6
/home/daniel/Projects/ppsevolution/data/maps/custom_maps/Custom_4_Run_0_Map.csv,squared_error,0.001321188906900636,0.5058,0.1911,0.000000,0.975544,0.971127,0.983059,0.000000,0.000000,1.000000,2.000000,0.042393,0.034127,1.000000,1.000000,0.907950,0.000000,1.000000,2.000000,125.000000,1.316305,145.928922,0.983059,1.000000,0.500000,10.000000,2.000000,132.418857,0.789111,150.000000,1.000000,181.682092,0.500000,10.000000,2.000000,7
/home/daniel/Projects/ppsevolution/data/maps/custom_maps/Custom_4_Run_0_Map.csv,squared_error,0.001333308665582495,0.5038,0.1915,0.000000,1.000000,0.919300,0.987258,0.000000,0.000000,1.000000,2.000000,0.077735,0.000000,1.000000,1.000000,1.000000,0.034518,1.000000,2.000000,125.000000,1.330000,138.621367,0.987258,1.000000,0.500000,10.000000,2.000000,138.603592,0.770000,150.000000,1.000000,200.000000,0.827922,10.000000,2.000000,8
/home/daniel/Projects/ppsevolution/data/maps/custom_maps/Custom_4_Run_0_Map.csv,squared_error,0.0014005892380284507,0.5002,0.1929,0.004926,1.000000,1.000000,0.994833,0.000000,0.000000,1.000000,2.000000,0.403428,0.013791,1.000000,1.000000,1.000000,0.000000,1.000000,2.000000,125.862005,1.330000,150.000000,0.994833,1.000000,0.500000,10.000000,2.000000,195.599837,0.777723,150.000000,1.000000,200.000000,0.500000,10.000000,2.000000,9
map,fitness,fitness value,team0ratio,time,HP,Speed,Damage,Acc,ClipSize,RateOfFire,NrBullets,Range,HP,Speed,Damage,Acc,ClipSize,RateOfFire,NrBullets,Range,HP,Speed,Damage,Acc,ClipSize,RateOfFire,NrBullets,Range,HP,Speed,Damage,Acc,ClipSize,RateOfFire,NrBullets,Range,Run,target team0ratio: 0.5,target time: 0.14
/home/daniel/Projects/ppsevolution/data/maps/custom_maps/Custom_5_Run_0_Map.csv,squared_error,0.010165918701942929,0.5136,0.2819,0.000000,0.083067,1.000000,0.976528,0.000000,0.477749,0.999870,2.000000,0.001048,0.010504,1.000000,1.000000,1.000000,0.000000,1.000000,2.000000,125.000000,0.816518,150.000000,0.976528,1.000000,5.038617,9.998827,2.000000,125.183478,0.775882,150.000000,1.000000,200.000000,0.500000,10.000000,2.000000,0
/home/daniel/Projects/ppsevolution/data/maps/custom_maps/Custom_5_Run_0_Map.csv,squared_error,0.010162781998790778,0.5181,0.2814,0.000000,0.766059,1.000000,0.977589,0.000000,0.697896,1.000000,2.000000,0.000000,0.000000,1.000000,1.000000,1.000000,0.000000,1.000000,2.000000,125.000000,1.198993,150.000000,0.977589,1.000000,7.130007,10.000000,2.000000,125.000000,0.770000,150.000000,1.000000,200.000000,0.500000,10.000000,2.000000,1
/home/daniel/Projects/ppsevolution/data/maps/custom_maps/Custom_5_Run_0_Map.csv,squared_error,0.01018207911144731,0.5159,0.2818,0.000000,0.822366,1.000000,0.975893,0.000000,0.380421,1.000000,2.000000,0.000000,0.000000,1.000000,1.000000,0.990632,0.000000,1.000000,2.000000,125.000000,1.230525,150.000000,0.975893,1.000000,4.114001,10.000000,2.000000,125.000000,0.770000,150.000000,1.000000,198.135806,0.500000,10.000000,2.000000,2
/home/daniel/Projects/ppsevolution/data/maps/custom_maps/Custom_5_Run_0_Map.csv,squared_error,0.010183228250121872,0.5148,0.2819,0.000000,0.825017,1.000000,0.975286,0.000000,0.440310,1.000000,2.000000,0.000000,0.000000,0.996595,1.000000,1.000000,0.000000,1.000000,2.000000,125.000000,1.232010,150.000000,0.975286,1.000000,4.682945,10.000000,2.000000,125.000000,0.770000,149.519862,1.000000,200.000000,0.500000,10.000000,2.000000,3
/home/daniel/Projects/ppsevolution/data/maps/custom_maps/Custom_5_Run_0_Map.csv,squared_error,0.010196494044870294,0.5190,0.2815,0.000000,0.656039,1.000000,0.977369,0.000000,0.000000,1.000000,2.000000,0.000000,0.000000,1.000000,1.000000,0.944260,0.000000,1.000000,2.000000,125.000000,1.137382,150.000000,0.977369,1.000000,0.500000,10.000000,2.000000,125.000000,0.770000,150.000000,1.000000,188.907733,0.500000,10.000000,2.000000,4
/home/daniel/Projects/ppsevolution/data/maps/custom_maps/Custom_5_Run_0_Map.csv,squared_error,0.010116914464749514,0.5176,0.2812,0.000000,0.000000,1.000000,0.979598,0.000000,1.000000,1.000000,2.000000,0.000000,0.000000,1.000000,1.000000,1.000000,0.000000,1.000000,2.000000,125.000000,0.770000,150.000000,0.979598,1.000000,10.000000,10.000000,2.000000,125.000000,0.770000,150.000000,1.000000,200.000000,0.500000,10.000000,2.000000,5
/home/daniel/Projects/ppsevolution/data/maps/custom_maps/Custom_5_Run_0_Map.csv,squared_error,0.010162654907618845,0.5209,0.2810,0.000000,0.244101,1.000000,0.980574,0.000000,0.663659,1.000000,2.000000,0.000000,0.000000,1.000000,1.000000,0.827193,0.000000,1.000000,2.000000,125.000000,0.906697,150.000000,0.980574,1.000000,6.804762,10.000000,2.000000,125.000000,0.770000,150.000000,1.000000,165.611389,0.500000,10.000000,2.000000,6
/home/daniel/Projects/ppsevolution/data/maps/custom_maps/Custom_5_Run_0_Map.csv,squared_error,0.010154547193512926,0.5192,0.2812,0.000000,0.819472,1.000000,0.978341,0.000000,0.915588,1.000000,2.000000,0.000000,0.006900,1.000000,1.000000,1.000000,0.000000,1.000000,2.000000,125.000000,1.228904,150.000000,0.978341,1.000000,9.198089,10.000000,2.000000,125.000000,0.773864,150.000000,1.000000,200.000000,0.500000,10.000000,2.000000,7
/home/daniel/Projects/ppsevolution/data/maps/custom_maps/Custom_5_Run_0_Map.csv,squared_error,0.010171387167795658,0.5140,0.2819,0.000000,0.714317,1.000000,0.975551,0.000000,0.647710,1.000000,2.000000,0.000000,0.000000,1.000000,1.000000,0.974480,0.000000,1.000000,2.000000,125.000000,1.170018,150.000000,0.975551,1.000000,6.653241,10.000000,2.000000,125.000000,0.770000,150.000000,1.000000,194.921452,0.500000,10.000000,2.000000,8
/home/daniel/Projects/ppsevolution/data/maps/custom_maps/Custom_5_Run_0_Map.csv,squared_error,0.01018269986628025,0.5111,0.2823,0.000000,0.199560,1.000000,0.974753,0.000000,0.342127,1.000000,2.000000,0.000000,0.000000,1.000000,1.000000,1.000000,0.000000,1.000000,2.000000,125.000000,0.881754,150.000000,0.974753,1.000000,3.750205,10.000000,2.000000,125.000000,0.770000,150.000000,1.000000,200.000000,0.500000,10.000000,2.000000,9
map,fitness,fitness value,team0ratio,time,HP,Speed,Damage,Acc,ClipSize,RateOfFire,NrBullets,Range,HP,Speed,Damage,Acc,ClipSize,RateOfFire,NrBullets,Range,HP,Speed,Damage,Acc,ClipSize,RateOfFire,NrBullets,Range,HP,Speed,Damage,Acc,ClipSize,RateOfFire,NrBullets,Range,Run,target team0ratio: 0.5,target time: 0.14
/home/daniel/Projects/ppsevolution/data/maps/custom_maps/Custom_6_Run_0_Map.csv,squared_error,0.05641388589855272,0.3960,0.4594,0.012756,1.000000,0.000000,1.000000,0.000000,0.000000,0.000000,2.000000,1.000000,1.000000,1.000000,0.973068,1.000000,1.000000,1.000000,2.000000,127.232289,1.330000,9.000000,1.000000,1.000000,0.500000,1.000000,2.000000,300.000000,1.330000,150.000000,0.973068,200.000000,10.000000,10.000000,2.000000,0
/home/daniel/Projects/ppsevolution/data/maps/custom_maps/Custom_6_Run_0_Map.csv,squared_error,0.05641191566854075,0.3973,0.4598,0.000000,1.000000,0.000000,1.000000,0.000000,0.000000,0.000000,2.000000,1.000000,1.000000,1.000000,0.970381,1.000000,1.000000,1.000000,2.000000,125.000000,1.330000,9.000000,1.000000,1.000000,0.500000,1.000000,2.000000,300.000000,1.330000,150.000000,0.970381,200.000000,10.000000,10.000000,2.000000,1
/home/daniel/Projects/ppsevolution/data/maps/custom_maps/Custom_6_Run_0_Map.csv,squared_error,0.05641266936690362,0.3954,0.4592,0.000000,1.000000,0.000000,1.000000,0.000000,0.000000,0.000000,2.000000,1.000000,1.000000,1.000000,0.972321,1.000000,1.000000,1.000000,2.000000,125.000000,1.330000,9.000000,1.000000,1.000000,0.500000,1.000000,2.000000,300.000000,1.330000,150.000000,0.972321,200.000000,10.000000,10.000000,2.000000,2
/home/daniel/Projects/ppsevolution/data/maps/custom_maps/Custom_6_Run_0_Map.csv,squared_error,0.05641224043934119,0.3958,0.4593,0.000000,1.000000,0.000000,1.000000,0.000000,0.000000,0.000000,2.000000,1.000000,1.000000,1.000000,0.971967,1.000000,1.000000,1.000000,2.000000,125.000000,1.330000,9.000000,1.000000,1.000000,0.500000,1.000000,2.000000,300.000000,1.330000,150.000000,0.971967,200.000000,10.000000,10.000000,2.000000,3
/home/daniel/Projects/ppsevolution/data/maps/custom_maps/Custom_6_Run_0_Map.csv,squared_error,0.056414004671844015,0.3955,0.4592,0.009732,1.000000,0.000000,1.000000,0.000000,0.000000,0.000000,2.000000,1.000000,1.000000,1.000000,0.973209,1.000000,1.000000,1.000000,2.000000,126.703013,1.330000,9.000000,1.000000,1.000000,0.500000,1.000000,2.000000,300.000000,1.330000,150.000000,0.973209,200.000000,10.000000,10.000000,2.000000,4
/home/daniel/Projects/ppsevolution/data/maps/custom_maps/Custom_6_Run_0_Map.csv,squared_error,0.05641179938388047,0.3971,0.4597,0.000000,1.000000,0.000000,1.000000,0.000000,0.000000,0.000000,2.000000,1.000000,1.000000,1.000000,0.970622,1.000000,1.000000,1.000000,2.000000,125.000000,1.330000,9.000000,1.000000,1.000000,0.500000,1.000000,2.000000,300.000000,1.330000,150.000000,0.970622,200.000000,10.000000,10.000000,2.000000,5
/home/daniel/Projects/ppsevolution/data/maps/custom_maps/Custom_6_Run_0_Map.csv,squared_error,0.05643072533152224,0.4025,0.4615,0.000000,1.000000,0.000000,1.000000,0.000000,0.000000,0.000000,2.000000,1.000000,1.000000,1.000000,0.964960,1.000000,1.000000,1.000000,2.000000,125.000000,1.330000,9.000000,1.000000,1.000000,0.500000,1.000000,2.000000,300.000000,1.330000,150.000000,0.964960,200.000000,10.000000,10.000000,2.000000,6
/home/daniel/Projects/ppsevolution/data/maps/custom_maps/Custom_6_Run_0_Map.csv,squared_error,0.05656020611884851,0.3917,0.4584,0.000000,1.000000,0.000000,1.000000,0.000000,0.000000,0.000000,2.000000,1.000000,0.351213,1.000000,0.973605,1.000000,1.000000,1.000000,2.000000,125.000000,1.330000,9.000000,1.000000,1.000000,0.500000,1.000000,2.000000,300.000000,0.966679,150.000000,0.973605,200.000000,10.000000,10.000000,2.000000,7
/home/daniel/Projects/ppsevolution/data/maps/custom_maps/Custom_6_Run_0_Map.csv,squared_error,0.05641416624867982,0.3988,0.4603,0.000000,1.000000,0.000000,1.000000,0.000000,0.000000,0.000000,2.000000,1.000000,1.000000,1.000000,0.968836,1.000000,1.000000,1.000000,2.000000,125.000000,1.330000,9.000000,1.000000,1.000000,0.500000,1.000000,2.000000,300.000000,1.330000,150.000000,0.968836,200.000000,10.000000,10.000000,2.000000,8
/home/daniel/Projects/ppsevolution/data/maps/custom_maps/Custom_6_Run_0_Map.csv,squared_error,0.05641469961388244,0.3990,0.4604,0.000000,1.000000,0.000000,1.000000,0.000000,0.000000,0.000000,2.000000,1.000000,1.000000,1.000000,0.968606,1.000000,1.000000,1.000000,2.000000,125.000000,1.330000,9.000000,1.000000,1.000000,0.500000,1.000000,2.000000,300.000000,1.330000,150.000000,0.968606,200.000000,10.000000,10.000000,2.000000,9
map,fitness,fitness value,team0ratio,time,HP,Speed,Damage,Acc,ClipSize,RateOfFire,NrBullets,Range,HP,Speed,Damage,Acc,ClipSize,RateOfFire,NrBullets,Range,HP,Speed,Damage,Acc,ClipSize,RateOfFire,NrBullets,Range,HP,Speed,Damage,Acc,ClipSize,RateOfFire,NrBullets,Range,Run,target team0ratio: 0.5,target time: 0.14
/home/daniel/Projects/ppsevolution/data/maps/custom_maps/Custom_7_Run_0_Map.csv,squared_error,0.016256794946153435,0.4827,0.3195,0.000000,1.000000,0.660318,1.000000,0.000000,0.000000,1.000000,2.000000,0.751213,0.003992,1.000000,1.000000,1.000000,1.000000,1.000000,2.000000,125.000000,1.330000,102.104788,1.000000,1.000000,0.500000,10.000000,2.000000,256.462209,0.772235,150.000000,1.000000,200.000000,10.000000,10.000000,2.000000,0
/home/daniel/Projects/ppsevolution/data/maps/custom_maps/Custom_7_Run_0_Map.csv,squared_error,0.01622951996374991,0.4812,0.3192,0.000000,1.000000,0.533842,1.000000,0.000000,0.000000,1.000000,2.000000,0.532057,0.027094,1.000000,1.000000,1.000000,1.000000,1.000000,2.000000,125.000000,1.330000,84.271664,1.000000,1.000000,0.500000,10.000000,2.000000,218.109915,0.785173,150.000000,1.000000,200.000000,10.000000,10.000000,2.000000,1
/home/daniel/Projects/ppsevolution/data/maps/custom_maps/Custom_7_Run_0_Map.csv,squared_error,0.016247291631033348,0.4834,0.3195,0.000000,1.000000,0.616873,1.000000,0.000000,0.000000,1.000000,2.000000,0.664535,0.000000,1.000000,1.000000,1.000000,1.000000,0.997948,2.000000,125.000000,1.330000,95.979129,1.000000,1.000000,0.500000,10.000000,2.000000,241.293601,0.770000,150.000000,1.000000,200.000000,10.000000,9.981536,2.000000,2
/home/daniel/Projects/ppsevolution/data/maps/custom_maps/Custom_7_Run_0_Map.csv,squared_error,0.01629056022050704,0.4796,0.3194,0.000000,1.000000,0.780743,1.000000,0.000000,0.000000,1.000000,2.000000,1.000000,0.000000,1.000000,1.000000,1.000000,1.000000,1.000000,2.000000,125.000000,1.330000,119.084817,1.000000,1.000000,0.500000,10.000000,2.000000,300.000000,0.770000,150.000000,1.000000,200.000000,10.000000,10.000000,2.000000,3
/home/daniel/Projects/ppsevolution/data/maps/custom_maps/Custom_7_Run_0_Map.csv,squared_error,0.016229641127178056,0.4870,0.3197,0.000000,1.000000,0.520410,1.000000,0.000000,0.000000,1.000000,2.000000,0.457891,0.000000,1.000000,1.000000,1.000000,1.000000,1.000000,2.000000,125.000000,1.330000,82.377741,1.000000,1.000000,0.500000,10.000000,2.000000,205.130932,0.770000,150.000000,1.000000,200.000000,10.000000,10.000000,2.000000,4
/home/daniel/Projects/ppsevolution/data/maps/custom_maps/Custom_7_Run_0_Map.csv,squared_error,0.016266316358453256,0.4798,0.3192,0.000000,1.000000,0.687144,1.000000,0.000000,0.000000,1.000000,2.000000,0.824967,0.000000,1.000000,1.000000,1.000000,1.000000,1.000000,2.000000,125.000000,1.330000,105.887240,1.000000,1.000000,0.500000,10.000000,2.000000,269.369307,0.770000,150.000000,1.000000,200.000000,10.000000,10.000000,2.000000,5
/home/daniel/Projects/ppsevolution/data/maps/custom_maps/Custom_7_Run_0_Map.csv,squared_error,0.016227734731940988,0.4801,0.3190,0.000000,1.000000,0.531844,1.000000,0.000000,0.000000,1.000000,2.000000,0.536917,0.000000,1.000000,1.000000,1.000000,1.000000,1.000000,2.000000,125.000000,1.330000,83.989984,1.000000,1.000000,0.500000,10.000000,2.000000,218.960509,0.770000,150.000000,1.000000,200.000000,10.000000,10.000000,2.000000,6
/home/daniel/Projects/ppsevolution/data/maps/custom_maps/Custom_7_Run_0_Map.csv,squared_error,0.016200577850645985,0.4833,0.3192,0.000000,1.000000,0.429612,1.000000,0.000000,0.000000,1.000000,2.000000,0.323169,0.000000,1.000000,1.000000,1.000000,1.000000,1.000000,2.000000,125.000000,1.330000,69.575228,1.000000,1.000000,0.500000,10.000000,2.000000,181.554614,0.770000,150.000000,1.000000,200.000000,10.000000,10.000000,2.000000,7
/home/daniel/Projects/ppsevolution/data/maps/custom_maps/Custom_7_Run_0_Map.csv,squared_error,0.016206333656601787,0.4842,0.3193,0.000000,1.000000,0.452135,1.000000,0.000000,0.000000,1.000000,2.000000,0.356892,0.000000,1.000000,1.000000,1.000000,1.000000,1.000000,2.000000,125.000000,1.330000,72.751032,1.000000,1.000000,0.500000,10.000000,2.000000,187.456099,0.770000,150.000000,1.000000,200.000000,10.000000,10.000000,2.000000,8
/home/daniel/Projects/ppsevolution/data/maps/custom_maps/Custom_7_Run_0_Map.csv,squared_error,0.016235364699313283,0.4786,0.3189,0.000000,1.000000,0.536470,1.000000,0.002962,0.000000,1.000000,2.000000,0.557533,0.000000,1.000000,1.000000,1.000000,1.000000,1.000000,2.000000,125.000000,1.330000,84.642319,1.000000,1.589414,0.500000,10.000000,2.000000,222.568271,0.770000,150.000000,1.000000,200.000000,10.000000,10.000000,2.000000,9
map,fitness,fitness value,team0ratio,time,HP,Speed,Damage,Acc,ClipSize,RateOfFire,NrBullets,Range,HP,Speed,Damage,Acc,ClipSize,RateOfFire,NrBullets,Range,HP,Speed,Damage,Acc,ClipSize,RateOfFire,NrBullets,Range,HP,Speed,Damage,Acc,ClipSize,RateOfFire,NrBullets,Range,Run,target team0ratio: 0.5,target time: 0.14
/home/daniel/Projects/ppsevolution/data/maps/custom_maps/Custom_8_Run_0_Map.csv,squared_error,0.002634857109273016,0.5079,0.2122,0.000000,1.000000,0.601901,1.000000,0.000000,0.000000,1.000000,2.000000,0.000000,0.001417,1.000000,1.000000,0.948800,0.249903,1.000000,2.000000,125.000000,1.330000,93.868008,1.000000,1.000000,0.500000,10.000000,2.000000,125.000000,0.770794,150.000000,1.000000,189.811240,2.874081,10.000000,2.000000,0
/home/daniel/Projects/ppsevolution/data/maps/custom_maps/Custom_8_Run_0_Map.csv,squared_error,0.0026556554204023,0.4999,0.2129,0.000000,1.000000,0.529336,1.000000,0.000000,0.000000,1.000000,2.000000,0.000000,0.000000,1.000000,1.000000,1.000000,0.523306,1.000000,2.000000,125.000000,1.330000,83.636333,1.000000,1.000000,0.500000,10.000000,2.000000,125.000000,0.770000,150.000000,1.000000,200.000000,5.471411,10.000000,2.000000,1
/home/daniel/Projects/ppsevolution/data/maps/custom_maps/Custom_8_Run_0_Map.csv,squared_error,0.0026047251508978546,0.5052,0.2120,0.000000,1.000000,0.649038,1.000000,0.000000,0.000000,1.000000,2.000000,0.054315,0.037604,1.000000,1.000000,1.000000,0.000000,1.000000,2.000000,125.000000,1.330000,100.514362,1.000000,1.000000,0.500000,10.000000,2.000000,134.505060,0.791058,150.000000,1.000000,200.000000,0.500000,10.000000,2.000000,2
/home/daniel/Projects/ppsevolution/data/maps/custom_maps/Custom_8_Run_0_Map.csv,squared_error,0.00261242922672634,0.5016,0.2123,0.000000,0.964675,0.584348,1.000000,0.000000,0.000000,1.000000,2.000000,0.000000,0.000000,1.000000,1.000000,0.964748,0.145643,0.998672,2.000000,125.000000,1.310218,91.393061,1.000000,1.000000,0.500000,10.000000,2.000000,125.000000,0.770000,150.000000,1.000000,192.984915,1.883611,9.988044,2.000000,3
/home/daniel/Projects/ppsevolution/data/maps/custom_maps/Custom_8_Run_0_Map.csv,squared_error,0.002651458744956833,0.4993,0.2128,0.000000,0.991964,0.564142,0.998160,0.019030,0.000000,1.000000,2.000000,0.000000,0.000000,1.000000,1.000000,1.000000,0.399151,0.996914,2.000000,125.000000,1.325500,88.544080,0.998160,4.786931,0.500000,10.000000,2.000000,125.000000,0.770000,150.000000,1.000000,200.000000,4.291932,9.972224,2.000000,4
/home/daniel/Projects/ppsevolution/data/maps/custom_maps/Custom_8_Run_0_Map.csv,squared_error,0.002618670150960369,0.5057,0.2121,0.000000,0.975469,0.623657,1.000000,0.000000,0.000000,1.000000,2.000000,0.035860,0.005640,1.000000,1.000000,1.000000,0.145566,1.000000,2.000000,125.000000,1.316263,96.935673,1.000000,1.000000,0.500000,10.000000,2.000000,131.275455,0.773159,150.000000,1.000000,200.000000,1.882880,10.000000,2.000000,5
/home/daniel/Projects/ppsevolution/data/maps/custom_maps/Custom_8_Run_0_Map.csv,squared_error,0.002633771951692409,0.5048,0.2124,0.000000,0.993709,0.573210,1.000000,0.000000,0.000000,1.000000,2.000000,0.000000,0.000000,1.000000,1.000000,0.995385,0.354551,1.000000,2.000000,125.000000,1.326477,89.822660,1.000000,1.000000,0.500000,10.000000,2.000000,125.000000,0.770000,150.000000,1.000000,199.081594,3.868232,10.000000,2.000000,6
/home/daniel/Projects/ppsevolution/data/maps/custom_maps/Custom_8_Run_0_Map.csv,squared_error,0.0026116442078927085,0.5055,0.2121,0.000000,1.000000,0.659149,1.000000,0.000000,0.011422,1.000000,2.000000,0.073502,0.000000,1.000000,1.000000,0.993350,0.027098,1.000000,2.000000,125.000000,1.330000,101.939954,1.000000,1.000000,0.608511,10.000000,2.000000,137.862907,0.770000,150.000000,1.000000,198.676690,0.757435,10.000000,2.000000,7
/home/daniel/Projects/ppsevolution/data/maps/custom_maps/Custom_8_Run_0_Map.csv,squared_error,0.0025568051799615423,0.5088,0.2110,0.000000,1.000000,1.000000,0.971782,0.000000,0.000000,1.000000,2.000000,0.000000,0.000000,1.000000,1.000000,0.989024,0.000000,1.000000,2.000000,125.000000,1.330000,150.000000,0.971782,1.000000,0.500000,10.000000,2.000000,125.000000,0.770000,150.000000,1.000000,197.815868,0.500000,10.000000,2.000000,8
/home/daniel/Projects/ppsevolution/data/maps/custom_maps/Custom_8_Run_0_Map.csv,squared_error,0.0025932698413033244,0.5006,0.2120,0.000000,0.999977,0.596166,1.000000,0.000000,0.000000,1.000000,2.000000,0.000000,0.019896,1.000000,1.000000,1.000000,0.000000,1.000000,2.000000,125.000000,1.329987,93.059475,1.000000,1.000000,0.500000,10.000000,2.000000,125.000000,0.781142,150.000000,1.000000,200.000000,0.500000,10.000000,2.000000,9
map,fitness,fitness value,team0ratio,time,HP,Speed,Damage,Acc,ClipSize,RateOfFire,NrBullets,Range,HP,Speed,Damage,Acc,ClipSize,RateOfFire,NrBullets,Range,HP,Speed,Damage,Acc,ClipSize,RateOfFire,NrBullets,Range,HP,Speed,Damage,Acc,ClipSize,RateOfFire,NrBullets,Range,Run,target team0ratio: 0.5,target time: 0.14
/home/daniel/Projects/ppsevolution/data/maps/custom_maps/Custom_9_Run_0_Map.csv,squared_error,0.001017309590059376,0.5060,0.1847,0.000000,1.000000,0.829547,0.990949,0.000000,0.000000,1.000000,2.000000,0.468091,0.000000,1.000000,1.000000,0.967854,0.000000,1.000000,2.000000,125.000000,1.330000,125.966060,0.990949,1.000000,0.500000,10.000000,2.000000,206.915840,0.770000,150.000000,1.000000,193.602874,0.500000,10.000000,2.000000,0
/home/daniel/Projects/ppsevolution/data/maps/custom_maps/Custom_9_Run_0_Map.csv,squared_error,0.0009401867720592834,0.5049,0.1831,0.000000,0.964323,0.868043,0.974317,0.000000,0.000000,1.000000,2.000000,0.176486,0.041249,1.000000,1.000000,1.000000,0.000000,1.000000,2.000000,125.000000,1.310021,131.394000,0.974317,1.000000,0.500000,10.000000,2.000000,155.885113,0.793099,150.000000,1.000000,200.000000,0.500000,10.000000,2.000000,1
/home/daniel/Projects/ppsevolution/data/maps/custom_maps/Custom_9_Run_0_Map.csv,squared_error,0.0009153311701324492,0.5071,0.1822,0.000000,0.679573,1.000000,0.965569,0.000000,0.000000,1.000000,2.000000,0.135857,0.000000,1.000000,1.000000,0.851328,0.000000,0.942565,2.000000,125.000000,1.150561,150.000000,0.965569,1.000000,0.500000,10.000000,2.000000,148.775044,0.770000,150.000000,1.000000,170.414263,0.500000,9.483081,2.000000,2
/home/daniel/Projects/ppsevolution/data/maps/custom_maps/Custom_9_Run_0_Map.csv,squared_error,0.0010153931080272823,0.5042,0.1849,0.000000,0.990009,0.610693,1.000000,0.000000,0.000000,1.000000,2.000000,0.307582,0.000000,1.000000,1.000000,1.000000,0.000000,1.000000,2.000000,125.000000,1.324405,95.107724,1.000000,1.000000,0.500000,10.000000,2.000000,178.826825,0.770000,150.000000,1.000000,200.000000,0.500000,10.000000,2.000000,3
/home/daniel/Projects/ppsevolution/data/maps/custom_maps/Custom_9_Run_0_Map.csv,squared_error,0.00098186146429132,0.5046,0.1841,0.000000,0.715151,0.661131,0.987965,0.000000,0.120290,1.000000,2.000000,0.110206,0.023106,0.992934,1.000000,0.999838,0.000000,0.969075,2.000000,125.000000,1.170485,102.219427,0.987965,1.000000,1.642752,10.000000,2.000000,144.286008,0.782940,149.003692,1.000000,199.967760,0.500000,9.721679,2.000000,4
/home/daniel/Projects/ppsevolution/data/maps/custom_maps/Custom_9_Run_0_Map.csv,squared_error,0.001024430139619738,0.5045,0.1850,0.000000,1.000000,0.683648,0.989105,0.000000,0.000000,1.000000,2.000000,0.267842,0.000000,1.000000,1.000000,0.999343,0.340380,1.000000,2.000000,125.000000,1.330000,105.394312,0.989105,1.000000,0.500000,10.000000,2.000000,171.872316,0.770000,150.000000,1.000000,199.869288,3.733613,10.000000,2.000000,5
/home/daniel/Projects/ppsevolution/data/maps/custom_maps/Custom_9_Run_0_Map.csv,squared_error,0.0010040653192720935,0.5010,0.1848,0.000000,1.000000,0.529910,1.000000,0.000000,0.000000,1.000000,2.000000,0.195764,0.000000,1.000000,1.000000,1.000000,0.010836,1.000000,2.000000,125.000000,1.330000,83.717377,1.000000,1.000000,0.500000,10.000000,2.000000,159.258677,0.770000,150.000000,1.000000,200.000000,0.602946,10.000000,2.000000,6
/home/daniel/Projects/ppsevolution/data/maps/custom_maps/Custom_9_Run_0_Map.csv,squared_error,0.0009364218840528112,0.5028,0.1832,0.000000,0.882202,0.684705,0.979990,0.000000,0.000000,1.000000,2.000000,0.000000,0.000000,1.000000,1.000000,1.000000,0.000000,0.973180,2.000000,125.000000,1.264033,105.543475,0.979990,1.000000,0.500000,10.000000,2.000000,125.000000,0.770000,150.000000,1.000000,200.000000,0.500000,9.758623,2.000000,7
/home/daniel/Projects/ppsevolution/data/maps/custom_maps/Custom_9_Run_0_Map.csv,squared_error,0.000981792021193661,0.5042,0.1841,0.000000,1.000000,0.444107,1.000000,0.000000,0.107622,1.000000,2.000000,0.000000,0.000000,1.000000,1.000000,1.000000,0.000000,1.000000,2.000000,125.000000,1.330000,71.619154,1.000000,1.000000,1.522406,10.000000,2.000000,125.000000,0.770000,150.000000,1.000000,200.000000,0.500000,10.000000,2.000000,8
/home/daniel/Projects/ppsevolution/data/maps/custom_maps/Custom_9_Run_0_Map.csv,squared_error,0.0010175764272872807,0.5039,0.1849,0.000000,1.000000,0.601483,1.000000,0.000000,0.004773,1.000000,2.000000,0.296287,0.061598,1.000000,1.000000,1.000000,0.000000,1.000000,2.000000,125.000000,1.330000,93.809065,1.000000,1.000000,0.545343,10.000000,2.000000,176.850309,0.804495,150.000000,1.000000,200.000000,0.500000,10.000000,2.000000,9
map,fitness,fitness value,team0ratio,time,HP,Speed,Damage,Acc,ClipSize,RateOfFire,NrBullets,Range,HP,Speed,Damage,Acc,ClipSize,RateOfFire,NrBullets,Range,HP,Speed,Damage,Acc,ClipSize,RateOfFire,NrBullets,Range,HP,Speed,Damage,Acc,ClipSize,RateOfFire,NrBullets,Range,Run,target team0ratio: 0.5,target time: 0.14
/home/daniel/Projects/ppsevolution/data/maps/custom_maps/Custom_10_Run_0_Map.csv,squared_error,0.02011183214067832,0.5253,0.3390,0.000000,1.000000,1.000000,0.985217,0.000000,1.000000,1.000000,2.000000,0.000000,0.000000,1.000000,1.000000,1.000000,0.000000,1.000000,0.000000,125.000000,1.330000,150.000000,0.985217,1.000000,10.000000,10.000000,2.000000,125.000000,0.770000,150.000000,1.000000,200.000000,0.500000,10.000000,0.000000,0
/home/daniel/Projects/ppsevolution/data/maps/custom_maps/Custom_10_Run_0_Map.csv,squared_error,0.020098704905166714,0.5324,0.3379,0.000000,1.000000,1.000000,0.989594,0.000000,1.000000,1.000000,2.000000,0.000000,0.000000,1.000000,1.000000,1.000000,0.000000,1.000000,0.000000,125.000000,1.330000,150.000000,0.989594,1.000000,10.000000,10.000000,2.000000,125.000000,0.770000,150.000000,1.000000,200.000000,0.500000,10.000000,0.000000,1
/home/daniel/Projects/ppsevolution/data/maps/custom_maps/Custom_10_Run_0_Map.csv,squared_error,0.020097532840743827,0.5312,0.3380,0.000000,1.000000,1.000000,0.988874,0.000000,1.000000,1.000000,2.000000,0.000000,0.000000,1.000000,1.000000,1.000000,0.000000,1.000000,0.000000,125.000000,1.330000,150.000000,0.988874,1.000000,10.000000,10.000000,2.000000,125.000000,0.770000,150.000000,1.000000,200.000000,0.500000,10.000000,0.000000,2
/home/daniel/Projects/ppsevolution/data/maps/custom_maps/Custom_10_Run_0_Map.csv,squared_error,0.02010738847781892,0.5345,0.3375,0.000000,0.795132,1.000000,0.991445,0.000000,1.000000,1.000000,2.000000,0.000000,0.000000,1.000000,1.000000,1.000000,0.000000,1.000000,0.000000,125.000000,1.215274,150.000000,0.991445,1.000000,10.000000,10.000000,2.000000,125.000000,0.770000,150.000000,1.000000,200.000000,0.500000,10.000000,0.000000,3
/home/daniel/Projects/ppsevolution/data/maps/custom_maps/Custom_10_Run_0_Map.csv,squared_error,0.020098817675565386,0.5291,0.3384,0.000000,1.000000,1.000000,0.987540,0.000000,1.000000,1.000000,2.000000,0.000000,0.000000,1.000000,1.000000,1.000000,0.000000,1.000000,0.000000,125.000000,1.330000,150.000000,0.987540,1.000000,10.000000,10.000000,2.000000,125.000000,0.770000,150.000000,1.000000,200.000000,0.500000,10.000000,0.000000,4
/home/daniel/Projects/ppsevolution/data/maps/custom_maps/Custom_10_Run_0_Map.csv,squared_error,0.02010221034712582,0.5339,0.3376,0.000000,1.000000,1.000000,0.990536,0.000000,1.000000,1.000000,2.000000,0.000000,0.000000,1.000000,1.000000,1.000000,0.000000,1.000000,0.000000,125.000000,1.330000,150.000000,0.990536,1.000000,10.000000,10.000000,2.000000,125.000000,0.770000,150.000000,1.000000,200.000000,0.500000,10.000000,0.000000,5
/home/daniel/Projects/ppsevolution/data/maps/custom_maps/Custom_10_Run_0_Map.csv,squared_error,0.020099228996200397,0.5327,0.3378,0.000000,1.000000,1.000000,0.989785,0.000000,1.000000,1.000000,2.000000,0.000000,0.000000,1.000000,1.000000,1.000000,0.000000,1.000000,0.000000,125.000000,1.330000,150.000000,0.989785,1.000000,10.000000,10.000000,2.000000,125.000000,0.770000,150.000000,1.000000,200.000000,0.500000,10.000000,0.000000,6
/home/daniel/Projects/ppsevolution/data/maps/custom_maps/Custom_10_Run_0_Map.csv,squared_error,0.020108140043613602,0.5261,0.3388,0.000000,1.000000,1.000000,0.985681,0.000000,1.000000,1.000000,2.000000,0.000000,0.000000,1.000000,1.000000,1.000000,0.000000,1.000000,0.000000,125.000000,1.330000,150.000000,0.985681,1.000000,10.000000,10.000000,2.000000,125.000000,0.770000,150.000000,1.000000,200.000000,0.500000,10.000000,0.000000,7
/home/daniel/Projects/ppsevolution/data/maps/custom_maps/Custom_10_Run_0_Map.csv,squared_error,0.02009914823689246,0.5289,0.3384,0.000000,1.000000,1.000000,0.987424,0.000000,1.000000,1.000000,2.000000,0.000000,0.000000,1.000000,1.000000,1.000000,0.000000,1.000000,0.000000,125.000000,1.330000,150.000000,0.987424,1.000000,10.000000,10.000000,2.000000,125.000000,0.770000,150.000000,1.000000,200.000000,0.500000,10.000000,0.000000,8
/home/daniel/Projects/ppsevolution/data/maps/custom_maps/Custom_10_Run_0_Map.csv,squared_error,0.020097430478420126,0.5308,0.3381,0.000000,1.000000,1.000000,0.988645,0.000000,1.000000,1.000000,2.000000,0.000000,0.000000,1.000000,1.000000,1.000000,0.000000,1.000000,0.000000,125.000000,1.330000,150.000000,0.988645,1.000000,10.000000,10.000000,2.000000,125.000000,0.770000,150.000000,1.000000,200.000000,0.500000,10.000000,0.000000,9
