map,fitness,fitness value,team0ratio,time,HP,Speed,Damage,Acc,ClipSize,RateOfFire,NrBullets,Range,HP,Speed,Damage,Acc,ClipSize,RateOfFire,NrBullets,Range,HP,Speed,Damage,Acc,ClipSize,RateOfFire,NrBullets,Range,HP,Speed,Damage,Acc,ClipSize,RateOfFire,NrBullets,Range,Run,target team0ratio: 0.5,target time: 0.36
/home/daniel/Projects/ppsEvolution/data/maps/custom_maps/Custom_1_Run_0_Map.csv,squared_error,7.437486702379306e-07,0.5009,0.3608,0.050309,1.000000,0.076718,0.731982,0.000000,0.030000,1.000000,0.000000,1.000000,0.056778,0.000000,0.600000,1.000000,1.000000,0.000000,2.000000,133.804099,1.330000,19.817269,0.731982,1.000000,0.785000,10.000000,0.000000,300.000000,0.801796,9.000000,0.600000,200.000000,10.000000,1.000000,2.000000,0
/home/daniel/Projects/ppsEvolution/data/maps/custom_maps/Custom_1_Run_0_Map.csv,squared_error,2.8535440548721583e-07,0.5000,0.3592,0.000000,1.000000,0.000000,0.767253,0.030000,0.003634,0.955052,1.000000,1.000000,0.225718,0.000000,0.593715,1.000000,1.000000,0.081305,1.000000,125.000000,1.330000,9.000000,0.767253,6.970000,0.534521,9.595471,1.000000,300.000000,0.896402,9.000000,0.593715,200.000000,10.000000,1.731748,1.000000,1
/home/daniel/Projects/ppsEvolution/data/maps/custom_maps/Custom_1_Run_0_Map.csv,squared_error,1.8019158507982354e-07,0.5006,0.3599,0.000000,0.859060,0.174547,0.658311,0.030000,0.030000,1.000000,0.000000,0.859058,0.000000,0.000000,0.600000,1.000000,1.000000,0.000000,0.000000,125.000000,1.251074,33.611128,0.658311,6.970000,0.785000,10.000000,0.000000,275.335151,0.770000,9.000000,0.600000,200.000000,10.000000,1.000000,0.000000,2
/home/daniel/Projects/ppsEvolution/data/maps/custom_maps/Custom_1_Run_0_Map.csv,squared_error,2.835522138468552e-07,0.5006,0.3596,0.000000,0.963438,0.210000,0.688424,0.000000,0.000000,0.760599,0.000000,1.000000,0.000000,0.000000,0.600000,1.000000,0.883230,0.091716,0.000000,125.000000,1.309525,38.610000,0.688424,1.000000,0.500000,7.845394,0.000000,300.000000,0.770000,9.000000,0.600000,200.000000,8.890688,1.825444,0.000000,3
/home/daniel/Projects/ppsEvolution/data/maps/custom_maps/Custom_1_Run_0_Map.csv,squared_error,2.8770073196255174e-07,0.5005,0.3594,0.000000,1.000000,0.210000,0.682685,0.030000,0.030000,0.853298,0.000000,1.000000,0.000000,0.006339,0.600000,1.000000,1.000000,0.000000,0.000000,125.000000,1.330000,38.610000,0.682685,6.970000,0.785000,8.679678,0.000000,300.000000,0.770000,9.893785,0.600000,200.000000,10.000000,1.000000,0.000000,4
/home/daniel/Projects/ppsEvolution/data/maps/custom_maps/Custom_1_Run_0_Map.csv,squared_error,6.738083295722612e-07,0.4989,0.3595,0.000000,0.878211,0.210000,0.680925,0.030000,0.030000,0.885873,0.000000,1.000000,0.237528,0.000000,0.601477,1.000000,1.000000,0.000000,0.000000,125.000000,1.261798,38.610000,0.680925,6.970000,0.785000,8.972856,0.000000,300.000000,0.903016,9.000000,0.601477,200.000000,10.000000,1.000000,0.000000,5
/home/daniel/Projects/ppsEvolution/data/maps/custom_maps/Custom_1_Run_0_Map.csv,squared_error,4.83364702126476e-07,0.5006,0.3608,0.050102,1.000000,0.199094,0.697552,0.266335,0.030000,0.677254,0.000000,1.000000,0.000000,0.066955,0.583482,1.000000,1.000000,0.000000,0.000000,133.767778,1.330000,37.072299,0.697552,54.000695,0.785000,7.095284,0.000000,300.000000,0.770000,18.440648,0.583482,200.000000,10.000000,1.000000,0.000000,6
/home/daniel/Projects/ppsEvolution/data/maps/custom_maps/Custom_1_Run_0_Map.csv,squared_error,7.43276071904134e-07,0.4994,0.3611,0.114300,0.887608,0.210000,0.664471,0.030000,0.053554,1.000000,0.000000,1.000000,0.000000,0.009515,0.610488,0.905808,0.910408,0.105823,0.000000,145.002464,1.267061,38.610000,0.664471,6.970000,1.008764,10.000000,0.000000,300.000000,0.770000,10.341622,0.610488,181.255877,9.148878,1.952410,0.000000,7
/home/daniel/Projects/ppsEvolution/data/maps/custom_maps/Custom_1_Run_0_Map.csv,squared_error,6.785531498067479e-07,0.4993,0.3591,0.033076,1.000000,0.295578,0.598349,0.065709,0.119625,0.965586,0.000000,0.920123,0.000000,0.011975,0.600000,1.000000,0.991316,0.000000,0.000000,130.788350,1.330000,50.676558,0.598349,14.076138,1.636434,9.690271,0.000000,286.021533,0.770000,10.688406,0.600000,200.000000,9.917506,1.000000,0.000000,8
/home/daniel/Projects/ppsEvolution/data/maps/custom_maps/Custom_1_Run_0_Map.csv,squared_error,5.719625766744196e-07,0.5010,0.3597,0.000000,1.000000,0.057132,0.748739,0.030000,0.000000,1.000000,0.000000,1.000000,0.000000,0.000000,0.600000,0.967422,1.000000,0.000000,1.000000,125.000000,1.330000,17.055596,0.748739,6.970000,0.500000,10.000000,0.000000,300.000000,0.770000,9.000000,0.600000,193.516936,10.000000,1.000000,1.000000,9
map,fitness,fitness value,team0ratio,time,HP,Speed,Damage,Acc,ClipSize,RateOfFire,NrBullets,Range,HP,Speed,Damage,Acc,ClipSize,RateOfFire,NrBullets,Range,HP,Speed,Damage,Acc,ClipSize,RateOfFire,NrBullets,Range,HP,Speed,Damage,Acc,ClipSize,RateOfFire,NrBullets,Range,Run,target team0ratio: 0.5,target time: 0.36
/home/daniel/Projects/ppsEvolution/data/maps/custom_maps/Custom_2_Run_0_Map.csv,squared_error,0.00040088580790848704,0.4956,0.3880,0.000000,1.000000,0.785373,1.000000,0.000000,0.000000,1.000000,2.000000,0.776678,0.368106,1.000000,1.000000,1.000000,0.984814,1.000000,2.000000,125.000000,1.330000,119.737599,1.000000,1.000000,0.500000,10.000000,2.000000,260.918586,0.976139,150.000000,1.000000,200.000000,9.855737,10.000000,2.000000,0
/home/daniel/Projects/ppsEvolution/data/maps/custom_maps/Custom_2_Run_0_Map.csv,squared_error,0.00040150389279991537,0.4972,0.3882,0.000000,0.992248,0.708380,1.000000,0.000000,0.000000,1.000000,2.000000,0.616603,0.301717,1.000000,1.000000,1.000000,1.000000,1.000000,2.000000,125.000000,1.325659,108.881537,1.000000,1.000000,0.500000,10.000000,2.000000,232.905560,0.938961,150.000000,1.000000,200.000000,10.000000,10.000000,2.000000,1
/home/daniel/Projects/ppsEvolution/data/maps/custom_maps/Custom_2_Run_0_Map.csv,squared_error,0.0003985097401193155,0.4976,0.3881,0.000000,1.000000,0.806251,1.000000,0.000000,0.000000,1.000000,2.000000,0.805956,0.589908,1.000000,1.000000,1.000000,1.000000,1.000000,2.000000,125.000000,1.330000,122.681337,1.000000,1.000000,0.500000,10.000000,2.000000,266.042339,1.100348,150.000000,1.000000,200.000000,10.000000,10.000000,2.000000,2
/home/daniel/Projects/ppsEvolution/data/maps/custom_maps/Custom_2_Run_0_Map.csv,squared_error,0.00039840205040204746,0.4970,0.3881,0.000000,1.000000,0.906653,1.000000,0.000000,0.000000,1.000000,2.000000,1.000000,0.673813,1.000000,1.000000,1.000000,1.000000,1.000000,2.000000,125.000000,1.330000,136.838135,1.000000,1.000000,0.500000,10.000000,2.000000,300.000000,1.147335,150.000000,1.000000,200.000000,10.000000,10.000000,2.000000,3
/home/daniel/Projects/ppsEvolution/data/maps/custom_maps/Custom_2_Run_0_Map.csv,squared_error,0.00040556539824434135,0.4964,0.3883,0.000000,1.000000,0.729929,1.000000,0.000000,0.000000,0.983481,2.000000,0.664451,0.183206,0.997755,1.000000,1.000000,1.000000,1.000000,2.000000,125.000000,1.330000,111.919921,1.000000,1.000000,0.500000,9.851325,2.000000,241.278947,0.872596,149.683483,1.000000,200.000000,10.000000,10.000000,2.000000,4
/home/daniel/Projects/ppsEvolution/data/maps/custom_maps/Custom_2_Run_0_Map.csv,squared_error,0.00039979340548652653,0.4958,0.3880,0.000000,1.000000,0.663347,1.000000,0.000000,0.000000,1.000000,2.000000,0.551343,0.326971,1.000000,1.000000,1.000000,1.000000,1.000000,2.000000,125.000000,1.330000,102.531934,1.000000,1.000000,0.500000,10.000000,2.000000,221.484982,0.953104,150.000000,1.000000,200.000000,10.000000,10.000000,2.000000,5
/home/daniel/Projects/ppsEvolution/data/maps/custom_maps/Custom_2_Run_0_Map.csv,squared_error,0.00039758117841006747,0.4956,0.3878,0.000000,0.989656,0.732930,1.000000,0.000000,0.000000,1.000000,2.000000,0.693259,0.536384,1.000000,1.000000,1.000000,1.000000,1.000000,2.000000,125.000000,1.324207,112.343171,1.000000,1.000000,0.500000,10.000000,2.000000,246.320244,1.070375,150.000000,1.000000,200.000000,10.000000,10.000000,2.000000,6
/home/daniel/Projects/ppsEvolution/data/maps/custom_maps/Custom_2_Run_0_Map.csv,squared_error,0.00041009621274948284,0.4985,0.3886,0.000000,1.000000,0.518010,1.000000,0.000000,0.002629,0.987468,2.000000,0.245328,0.187858,1.000000,1.000000,1.000000,0.996291,1.000000,2.000000,125.000000,1.330000,82.039477,1.000000,1.000000,0.524980,9.887212,2.000000,167.932378,0.875200,150.000000,1.000000,200.000000,9.964762,10.000000,2.000000,7
/home/daniel/Projects/ppsEvolution/data/maps/custom_maps/Custom_2_Run_0_Map.csv,squared_error,0.0004020360887663582,0.4943,0.3878,0.000000,0.966694,0.673924,1.000000,0.000000,0.011225,1.000000,2.000000,0.597037,0.523504,1.000000,1.000000,0.991088,1.000000,1.000000,2.000000,125.000000,1.311348,104.023242,1.000000,1.000000,0.606638,10.000000,2.000000,229.481435,1.063162,150.000000,1.000000,198.226508,10.000000,10.000000,2.000000,8
/home/daniel/Projects/ppsEvolution/data/maps/custom_maps/Custom_2_Run_0_Map.csv,squared_error,0.0005309544846315145,0.4948,0.3922,0.000000,0.769433,0.403443,1.000000,0.000000,0.000000,1.000000,2.000000,0.667596,0.230123,1.000000,0.952522,0.950953,0.916858,1.000000,2.000000,125.000000,1.200882,65.885466,1.000000,1.000000,0.500000,10.000000,2.000000,241.829365,0.898869,150.000000,0.952522,190.239602,9.210147,10.000000,2.000000,9
map,fitness,fitness value,team0ratio,time,HP,Speed,Damage,Acc,ClipSize,RateOfFire,NrBullets,Range,HP,Speed,Damage,Acc,ClipSize,RateOfFire,NrBullets,Range,HP,Speed,Damage,Acc,ClipSize,RateOfFire,NrBullets,Range,HP,Speed,Damage,Acc,ClipSize,RateOfFire,NrBullets,Range,Run,target team0ratio: 0.5,target time: 0.36
/home/daniel/Projects/ppsEvolution/data/maps/custom_maps/Custom_3_Run_0_Map.csv,squared_error,0.005991135646102525,0.5068,0.4693,0.000000,1.000000,1.000000,0.966966,0.000000,0.035727,1.000000,2.000000,0.000000,0.000000,1.000000,1.000000,1.000000,0.000000,1.000000,2.000000,125.000000,1.330000,150.000000,0.966966,1.000000,0.839402,10.000000,2.000000,125.000000,0.770000,150.000000,1.000000,200.000000,0.500000,10.000000,2.000000,0
/home/daniel/Projects/ppsEvolution/data/maps/custom_maps/Custom_3_Run_0_Map.csv,squared_error,0.005996980064085002,0.5038,0.4695,0.000000,1.000000,1.000000,0.965401,0.000000,0.000000,1.000000,2.000000,0.000000,0.000000,1.000000,1.000000,1.000000,0.000000,1.000000,2.000000,125.000000,1.330000,150.000000,0.965401,1.000000,0.500000,10.000000,2.000000,125.000000,0.770000,150.000000,1.000000,200.000000,0.500000,10.000000,2.000000,1
/home/daniel/Projects/ppsEvolution/data/maps/custom_maps/Custom_3_Run_0_Map.csv,squared_error,0.00621281995556101,0.5100,0.4710,0.000000,1.000000,1.000000,0.991650,0.000000,0.037493,1.000000,2.000000,0.488942,0.017043,1.000000,1.000000,1.000000,0.000000,1.000000,2.000000,125.000000,1.330000,150.000000,0.991650,1.000000,0.856188,10.000000,2.000000,210.564867,0.779544,150.000000,1.000000,200.000000,0.500000,10.000000,2.000000,2
/home/daniel/Projects/ppsEvolution/data/maps/custom_maps/Custom_3_Run_0_Map.csv,squared_error,0.006003542301361883,0.5036,0.4695,0.000000,1.000000,1.000000,0.965362,0.000000,0.000000,1.000000,2.000000,0.000000,0.000000,1.000000,1.000000,0.944662,0.000000,1.000000,2.000000,125.000000,1.330000,150.000000,0.965362,1.000000,0.500000,10.000000,2.000000,125.000000,0.770000,150.000000,1.000000,188.987775,0.500000,10.000000,2.000000,3
/home/daniel/Projects/ppsEvolution/data/maps/custom_maps/Custom_3_Run_0_Map.csv,squared_error,0.006095916583921583,0.5071,0.4702,0.001521,1.000000,0.749770,0.987504,0.000000,0.000000,1.000000,2.000000,0.000000,0.000000,1.000000,1.000000,0.930357,0.000000,1.000000,2.000000,125.266238,1.330000,114.717615,0.987504,1.000000,0.500000,10.000000,2.000000,125.000000,0.770000,150.000000,1.000000,186.140952,0.500000,10.000000,2.000000,4
/home/daniel/Projects/ppsEvolution/data/maps/custom_maps/Custom_3_Run_0_Map.csv,squared_error,0.006095452209959934,0.5057,0.4703,0.000000,1.000000,0.603327,1.000000,0.000000,0.000000,1.000000,2.000000,0.000000,0.000000,1.000000,1.000000,1.000000,0.000000,1.000000,2.000000,125.000000,1.330000,94.069083,1.000000,1.000000,0.500000,10.000000,2.000000,125.000000,0.770000,150.000000,1.000000,200.000000,0.500000,10.000000,2.000000,5
/home/daniel/Projects/ppsEvolution/data/maps/custom_maps/Custom_3_Run_0_Map.csv,squared_error,0.006122011721751794,0.5084,0.4703,0.000000,0.949643,0.657557,1.000000,0.000000,0.000000,1.000000,2.000000,0.074349,0.000000,1.000000,1.000000,1.000000,0.000209,1.000000,2.000000,125.000000,1.301800,101.715545,1.000000,1.000000,0.500000,10.000000,2.000000,138.011023,0.770000,150.000000,1.000000,200.000000,0.501990,10.000000,2.000000,6
/home/daniel/Projects/ppsEvolution/data/maps/custom_maps/Custom_3_Run_0_Map.csv,squared_error,0.0062022363616288136,0.5074,0.4711,0.000000,1.000000,0.841764,1.000000,0.000000,0.000000,1.000000,2.000000,0.413246,0.000000,1.000000,1.000000,1.000000,0.000000,1.000000,2.000000,125.000000,1.330000,127.688744,1.000000,1.000000,0.500000,10.000000,2.000000,197.317999,0.770000,150.000000,1.000000,200.000000,0.500000,10.000000,2.000000,7
/home/daniel/Projects/ppsEvolution/data/maps/custom_maps/Custom_3_Run_0_Map.csv,squared_error,0.006203077777923871,0.5064,0.4712,0.000000,1.000000,0.781177,1.000000,0.000000,0.359959,1.000000,2.000000,0.300253,0.000000,1.000000,1.000000,1.000000,0.000000,1.000000,2.000000,125.000000,1.330000,119.145956,1.000000,1.000000,3.919611,10.000000,2.000000,177.544209,0.770000,150.000000,1.000000,200.000000,0.500000,10.000000,2.000000,8
/home/daniel/Projects/ppsEvolution/data/maps/custom_maps/Custom_3_Run_0_Map.csv,squared_error,0.0060349371257674075,0.5128,0.4691,0.000000,0.917581,0.959608,0.973582,0.000000,0.000000,1.000000,2.000000,0.008983,0.000000,1.000000,1.000000,1.000000,0.000000,1.000000,2.000000,125.000000,1.283845,144.304787,0.973582,1.000000,0.500000,10.000000,2.000000,126.572042,0.770000,150.000000,1.000000,200.000000,0.500000,10.000000,2.000000,9
map,fitness,fitness value,team0ratio,time,HP,Speed,Damage,Acc,ClipSize,RateOfFire,NrBullets,Range,HP,Speed,Damage,Acc,ClipSize,RateOfFire,NrBullets,Range,HP,Speed,Damage,Acc,ClipSize,RateOfFire,NrBullets,Range,HP,Speed,Damage,Acc,ClipSize,RateOfFire,NrBullets,Range,Run,target team0ratio: 0.5,target time: 0.36
/home/daniel/Projects/ppsEvolution/data/maps/custom_maps/Custom_4_Run_0_Map.csv,squared_error,5.59047544925298e-08,0.5003,0.3599,0.016205,1.000000,0.218254,0.765528,0.030000,0.179464,1.000000,0.000000,0.942475,0.000000,0.153839,0.600000,1.000000,0.805478,0.000000,0.000000,127.835805,1.330000,39.773807,0.765528,6.970000,2.204907,10.000000,0.000000,289.933165,0.770000,30.691367,0.600000,200.000000,8.152045,1.000000,0.000000,0
/home/daniel/Projects/ppsEvolution/data/maps/custom_maps/Custom_4_Run_0_Map.csv,squared_error,4.2201568530870987e-07,0.5009,0.3602,0.000000,0.875987,0.210000,0.771900,0.000000,0.000000,0.999392,0.000000,1.000000,0.000000,0.000000,0.655592,1.000000,1.000000,0.000000,2.000000,125.000000,1.260553,38.610000,0.771900,1.000000,0.500000,9.994529,0.000000,300.000000,0.770000,9.000000,0.655592,200.000000,10.000000,1.000000,2.000000,1
/home/daniel/Projects/ppsEvolution/data/maps/custom_maps/Custom_4_Run_0_Map.csv,squared_error,5.562099968649625e-07,0.4990,0.3598,0.028168,0.965530,0.128058,0.800000,0.094648,0.000000,1.000000,0.000000,1.000000,0.000000,0.062000,0.638202,0.963101,1.000000,0.130101,2.000000,129.929405,1.310697,27.056178,0.800000,19.835033,0.500000,10.000000,0.000000,300.000000,0.770000,17.741950,0.638202,192.657067,10.000000,2.170912,2.000000,2
/home/daniel/Projects/ppsEvolution/data/maps/custom_maps/Custom_4_Run_0_Map.csv,squared_error,2.4802721458457675e-07,0.5001,0.3607,0.000000,1.000000,0.210000,0.781313,0.000000,0.092176,0.873917,0.000000,1.000000,0.054251,0.000000,0.663591,1.000000,1.000000,0.086616,1.000000,125.000000,1.330000,38.610000,0.781313,1.000000,1.375677,8.865257,0.000000,300.000000,0.800380,9.000000,0.663591,200.000000,10.000000,1.779541,1.000000,3
/home/daniel/Projects/ppsEvolution/data/maps/custom_maps/Custom_4_Run_0_Map.csv,squared_error,5.960749873707613e-08,0.4998,0.3597,0.000000,0.980267,0.162845,0.796857,0.000000,0.030000,1.000000,0.000000,0.992282,0.000000,0.035755,0.658292,0.994717,1.000000,0.097628,0.000000,125.000000,1.318949,31.961081,0.796857,1.000000,0.785000,10.000000,0.000000,298.649383,0.770000,14.041412,0.658292,198.948781,10.000000,1.878651,0.000000,4
/home/daniel/Projects/ppsEvolution/data/maps/custom_maps/Custom_4_Run_0_Map.csv,squared_error,3.311382537908911e-07,0.4993,0.3596,0.000000,0.680687,0.158465,0.800000,0.030000,0.000000,0.825858,0.000000,0.971148,0.016667,0.170540,0.600000,1.000000,0.891084,0.000000,1.000000,125.000000,1.151185,31.343507,0.800000,6.970000,0.500000,8.432722,0.000000,294.950873,0.779333,33.046187,0.600000,200.000000,8.965302,1.000000,1.000000,5
/home/daniel/Projects/ppsEvolution/data/maps/custom_maps/Custom_4_Run_0_Map.csv,squared_error,5.4813479484678e-07,0.5008,0.3594,0.000000,1.000000,0.368179,0.696818,0.130353,0.000000,0.836579,2.000000,0.998542,0.000000,0.000000,0.646904,0.854125,1.000000,0.000000,1.000000,125.000000,1.330000,60.913227,0.696818,26.940207,0.500000,8.529210,2.000000,299.744772,0.770000,9.000000,0.646904,170.970944,10.000000,1.000000,1.000000,6
/home/daniel/Projects/ppsEvolution/data/maps/custom_maps/Custom_4_Run_0_Map.csv,squared_error,2.5956940664002964e-07,0.5007,0.3603,0.000000,1.000000,0.181809,0.800000,0.030000,0.000000,0.802500,0.000000,0.992730,0.000000,0.000000,0.679624,0.781943,0.977255,0.085590,0.000000,125.000000,1.330000,34.635037,0.800000,6.970000,0.500000,8.222497,0.000000,298.727663,0.770000,9.000000,0.679624,156.606609,9.783921,1.770310,0.000000,7
/home/daniel/Projects/ppsEvolution/data/maps/custom_maps/Custom_4_Run_0_Map.csv,squared_error,2.402925875124186e-07,0.5006,0.3603,0.000000,1.000000,0.210000,0.766696,0.030000,0.429397,0.968657,1.000000,1.000000,0.000000,0.185662,0.566297,1.000000,1.000000,0.056421,0.000000,125.000000,1.330000,38.610000,0.766696,6.970000,4.579272,9.717913,1.000000,300.000000,0.770000,35.178301,0.566297,200.000000,10.000000,1.507790,0.000000,8
/home/daniel/Projects/ppsEvolution/data/maps/custom_maps/Custom_4_Run_0_Map.csv,squared_error,6.586077195748815e-07,0.5010,0.3595,0.000000,1.000000,0.210000,0.800000,0.000000,0.000000,0.684637,0.000000,1.000000,0.170748,0.000000,0.683525,1.000000,0.941265,0.060878,0.000000,125.000000,1.330000,38.610000,0.800000,1.000000,0.500000,7.161737,0.000000,300.000000,0.865619,9.000000,0.683525,200.000000,9.442020,1.547898,0.000000,9
map,fitness,fitness value,team0ratio,time,HP,Speed,Damage,Acc,ClipSize,RateOfFire,NrBullets,Range,HP,Speed,Damage,Acc,ClipSize,RateOfFire,NrBullets,Range,HP,Speed,Damage,Acc,ClipSize,RateOfFire,NrBullets,Range,HP,Speed,Damage,Acc,ClipSize,RateOfFire,NrBullets,Range,Run,target team0ratio: 0.5,target time: 0.36
/home/daniel/Projects/ppsEvolution/data/maps/custom_maps/Custom_5_Run_0_Map.csv,squared_error,2.66119002918695e-07,0.5002,0.3607,0.000000,0.865666,0.238470,0.954848,0.157840,0.246831,1.000000,2.000000,0.753946,0.000000,0.000000,0.941666,0.743548,0.872101,0.283941,2.000000,125.000000,1.254773,42.624291,0.954848,32.410192,2.844898,10.000000,2.000000,256.940492,0.770000,9.000000,0.941666,148.965995,8.784963,3.555468,2.000000,0
/home/daniel/Projects/ppsEvolution/data/maps/custom_maps/Custom_5_Run_0_Map.csv,squared_error,2.2755974363122094e-06,0.4994,0.3621,0.000000,0.957207,0.661749,0.852572,0.201594,0.000000,0.978596,2.000000,0.537064,0.044977,0.484709,0.842065,0.961543,0.783346,0.067852,1.000000,125.000000,1.306036,102.306569,0.852572,41.117258,0.500000,9.807364,2.000000,218.986139,0.795187,77.344012,0.842065,192.347018,7.941791,1.610666,1.000000,1
/home/daniel/Projects/ppsEvolution/data/maps/custom_maps/Custom_5_Run_0_Map.csv,squared_error,4.400237112413585e-07,0.5007,0.3594,0.000000,0.604712,0.599275,0.878996,0.000000,0.000000,1.000000,2.000000,0.639690,0.013917,0.314903,0.875538,1.000000,1.000000,0.054606,2.000000,125.000000,1.108639,93.497769,0.878996,1.000000,0.500000,10.000000,2.000000,236.945816,0.777794,53.401310,0.875538,200.000000,10.000000,1.491451,2.000000,2
/home/daniel/Projects/ppsEvolution/data/maps/custom_maps/Custom_5_Run_0_Map.csv,squared_error,4.1544189464339675e-06,0.5016,0.3624,0.000000,0.852823,0.453102,0.906372,0.000000,0.055346,1.000000,2.000000,0.745007,0.026832,0.000000,0.922425,0.972111,0.987473,0.122610,2.000000,125.000000,1.247581,72.887423,0.906372,1.000000,1.025786,10.000000,2.000000,255.376240,0.785026,9.000000,0.922425,194.450026,9.880993,2.103487,2.000000,3
/home/daniel/Projects/ppsEvolution/data/maps/custom_maps/Custom_5_Run_0_Map.csv,squared_error,4.068236512068857e-07,0.4993,0.3606,0.041069,0.790418,0.688650,0.838288,0.000000,0.000000,1.000000,2.000000,0.491400,0.272986,0.407189,0.852575,0.959948,1.000000,0.087824,2.000000,132.187116,1.212634,106.099704,0.838288,1.000000,0.500000,10.000000,2.000000,210.994971,0.922872,66.413677,0.852575,192.029585,10.000000,1.790413,2.000000,4
/home/daniel/Projects/ppsEvolution/data/maps/custom_maps/Custom_5_Run_0_Map.csv,squared_error,5.450823578236364e-07,0.5008,0.3593,0.064892,0.945818,0.612148,0.947488,0.183063,0.331724,1.000000,0.000000,0.967868,0.000000,0.040045,0.955153,0.909633,1.000000,0.106365,1.000000,136.356058,1.299658,95.312827,0.947488,37.429474,3.651374,10.000000,0.000000,294.376901,0.770000,14.646348,0.955153,182.016950,10.000000,1.957282,1.000000,5
/home/daniel/Projects/ppsEvolution/data/maps/custom_maps/Custom_5_Run_0_Map.csv,squared_error,3.88523779100325e-07,0.4991,0.3600,0.014579,0.777008,0.206089,1.000000,0.119225,0.030265,0.685017,0.000000,0.632662,0.000000,0.000000,1.000000,1.000000,1.000000,0.150621,0.000000,127.551365,1.205124,38.058545,1.000000,24.725734,0.787522,7.165149,0.000000,235.715783,0.770000,9.000000,1.000000,200.000000,10.000000,2.355593,0.000000,6
/home/daniel/Projects/ppsEvolution/data/maps/custom_maps/Custom_5_Run_0_Map.csv,squared_error,7.728077738207475e-08,0.4997,0.3602,0.000000,1.000000,0.188718,1.000000,0.331999,0.699117,1.000000,2.000000,0.951192,0.000000,0.652828,0.890769,0.839546,0.616114,0.039281,2.000000,125.000000,1.330000,35.609226,1.000000,67.067833,7.141610,10.000000,2.000000,291.458608,0.770000,101.048794,0.890769,168.069578,6.353084,1.353527,2.000000,7
/home/daniel/Projects/ppsEvolution/data/maps/custom_maps/Custom_5_Run_0_Map.csv,squared_error,1.5251408031560007e-06,0.4998,0.3617,0.198449,0.829819,0.456116,0.939033,0.269698,0.000000,1.000000,2.000000,1.000000,0.258863,0.096895,0.931142,0.816494,0.564479,0.106747,2.000000,159.728594,1.234698,73.312356,0.939033,54.669889,0.500000,10.000000,2.000000,300.000000,0.914964,22.662140,0.931142,163.482253,5.862550,1.960723,2.000000,8
/home/daniel/Projects/ppsEvolution/data/maps/custom_maps/Custom_5_Run_0_Map.csv,squared_error,9.436746698867331e-07,0.4992,0.3611,0.227717,0.956494,0.314461,1.000000,0.000000,0.030000,0.982348,0.000000,0.930794,0.047451,0.000000,1.000000,0.810887,0.747239,0.000000,0.000000,164.850465,1.305637,53.339016,1.000000,1.000000,0.785000,9.841134,0.000000,287.888919,0.796572,9.000000,1.000000,162.366438,7.598770,1.000000,0.000000,9
map,fitness,fitness value,team0ratio,time,HP,Speed,Damage,Acc,ClipSize,RateOfFire,NrBullets,Range,HP,Speed,Damage,Acc,ClipSize,RateOfFire,NrBullets,Range,HP,Speed,Damage,Acc,ClipSize,RateOfFire,NrBullets,Range,HP,Speed,Damage,Acc,ClipSize,RateOfFire,NrBullets,Range,Run,target team0ratio: 0.5,target time: 0.36
/home/daniel/Projects/ppsEvolution/data/maps/custom_maps/Custom_6_Run_0_Map.csv,squared_error,0.00798955900746815,0.4676,0.4822,0.113833,1.000000,0.000000,1.000000,0.000000,0.000000,0.634108,2.000000,1.000000,0.319389,1.000000,0.908263,1.000000,1.000000,1.000000,2.000000,144.920721,1.330000,9.000000,1.000000,1.000000,0.500000,6.706968,2.000000,300.000000,0.948858,150.000000,0.908263,200.000000,10.000000,10.000000,2.000000,0
/home/daniel/Projects/ppsEvolution/data/maps/custom_maps/Custom_6_Run_0_Map.csv,squared_error,0.007945805624462544,0.4686,0.4821,0.243229,1.000000,0.000000,1.000000,0.000000,0.002937,0.000000,2.000000,1.000000,0.524264,1.000000,0.925723,1.000000,1.000000,1.000000,2.000000,167.564995,1.330000,9.000000,1.000000,1.000000,0.527904,1.000000,2.000000,300.000000,1.063588,150.000000,0.925723,200.000000,10.000000,10.000000,2.000000,1
/home/daniel/Projects/ppsEvolution/data/maps/custom_maps/Custom_6_Run_0_Map.csv,squared_error,0.0079910779078369,0.4661,0.4818,0.056281,1.000000,0.000000,1.000000,0.000000,0.000000,0.634483,2.000000,1.000000,0.368152,1.000000,0.903145,1.000000,1.000000,1.000000,2.000000,134.849179,1.330000,9.000000,1.000000,1.000000,0.500000,6.710347,2.000000,300.000000,0.976165,150.000000,0.903145,200.000000,10.000000,10.000000,2.000000,2
/home/daniel/Projects/ppsEvolution/data/maps/custom_maps/Custom_6_Run_0_Map.csv,squared_error,0.007983490035052082,0.4661,0.4817,0.076273,1.000000,0.000000,1.000000,0.000000,0.000000,0.525285,2.000000,1.000000,0.405840,1.000000,0.905975,1.000000,1.000000,1.000000,2.000000,138.347688,1.330000,9.000000,1.000000,1.000000,0.500000,5.727564,2.000000,300.000000,0.997271,150.000000,0.905975,200.000000,10.000000,10.000000,2.000000,3
/home/daniel/Projects/ppsEvolution/data/maps/custom_maps/Custom_6_Run_0_Map.csv,squared_error,0.007981206405591298,0.4647,0.4813,0.114834,1.000000,0.000000,1.000000,0.000000,0.000000,0.464496,2.000000,1.000000,0.231365,1.000000,0.911604,1.000000,1.000000,1.000000,2.000000,145.095904,1.330000,9.000000,1.000000,1.000000,0.500000,5.180466,2.000000,300.000000,0.899564,150.000000,0.911604,200.000000,10.000000,10.000000,2.000000,4
/home/daniel/Projects/ppsEvolution/data/maps/custom_maps/Custom_6_Run_0_Map.csv,squared_error,0.00801073496635224,0.4643,0.4814,0.000000,1.000000,0.000000,1.000000,0.000000,0.000000,0.683397,2.000000,1.000000,0.000000,1.000000,0.897340,1.000000,1.000000,1.000000,2.000000,125.000000,1.330000,9.000000,1.000000,1.000000,0.500000,7.150576,2.000000,300.000000,0.770000,150.000000,0.897340,200.000000,10.000000,10.000000,2.000000,5
/home/daniel/Projects/ppsEvolution/data/maps/custom_maps/Custom_6_Run_0_Map.csv,squared_error,0.007983357099822112,0.4651,0.4815,0.076858,1.000000,0.000000,1.000000,0.000000,0.000000,0.430944,2.000000,1.000000,0.296407,1.000000,0.907096,1.000000,1.000000,1.000000,2.000000,138.450067,1.330000,9.000000,1.000000,1.000000,0.500000,4.878500,2.000000,300.000000,0.935988,150.000000,0.907096,200.000000,10.000000,10.000000,2.000000,6
/home/daniel/Projects/ppsEvolution/data/maps/custom_maps/Custom_6_Run_0_Map.csv,squared_error,0.007975197450708326,0.4634,0.4809,0.041280,1.000000,0.000000,1.000000,0.000000,0.000000,0.522630,2.000000,1.000000,0.991862,1.000000,0.905717,0.999290,1.000000,1.000000,2.000000,132.223997,1.330000,9.000000,1.000000,1.000000,0.500000,5.703666,2.000000,300.000000,1.325443,150.000000,0.905717,199.858688,10.000000,10.000000,2.000000,7
/home/daniel/Projects/ppsEvolution/data/maps/custom_maps/Custom_6_Run_0_Map.csv,squared_error,0.008009617297243688,0.4651,0.4817,0.000000,1.000000,0.000000,1.000000,0.000000,0.000000,0.997325,2.000000,1.000000,0.429676,1.000000,0.896208,1.000000,1.000000,1.000000,2.000000,125.000000,1.330000,9.000000,1.000000,1.000000,0.500000,9.975922,2.000000,300.000000,1.010618,150.000000,0.896208,200.000000,10.000000,10.000000,2.000000,8
/home/daniel/Projects/ppsEvolution/data/maps/custom_maps/Custom_6_Run_0_Map.csv,squared_error,0.007983620358421886,0.4643,0.4812,0.081980,1.000000,0.000000,1.000000,0.010316,0.003704,0.540624,2.000000,1.000000,0.598455,1.000000,0.908593,1.000000,1.000000,1.000000,2.000000,139.346534,1.330000,9.000000,1.000000,3.052788,0.535190,5.865618,2.000000,300.000000,1.105135,150.000000,0.908593,200.000000,10.000000,10.000000,2.000000,9
map,fitness,fitness value,team0ratio,time,HP,Speed,Damage,Acc,ClipSize,RateOfFire,NrBullets,Range,HP,Speed,Damage,Acc,ClipSize,RateOfFire,NrBullets,Range,HP,Speed,Damage,Acc,ClipSize,RateOfFire,NrBullets,Range,HP,Speed,Damage,Acc,ClipSize,RateOfFire,NrBullets,Range,Run,target team0ratio: 0.5,target time: 0.36
/home/daniel/Projects/ppsEvolution/data/maps/custom_maps/Custom_7_Run_0_Map.csv,squared_error,6.07719971372933e-07,0.4993,0.3592,0.000000,1.000000,0.250026,1.000000,0.220434,0.388799,1.000000,1.000000,0.883705,0.123320,0.283021,0.957578,1.000000,0.572291,0.000000,0.000000,125.000000,1.330000,44.253687,1.000000,44.866401,4.193588,10.000000,1.000000,279.648349,0.839059,48.905946,0.957578,200.000000,5.936764,1.000000,0.000000,0
/home/daniel/Projects/ppsEvolution/data/maps/custom_maps/Custom_7_Run_0_Map.csv,squared_error,4.4765093262027985e-07,0.5004,0.3591,0.141054,1.000000,0.259363,0.970778,0.202107,0.000000,0.827484,2.000000,1.000000,0.107164,0.577248,0.892420,0.999927,0.681496,0.104851,1.000000,149.684403,1.330000,45.570132,0.970778,41.219371,0.500000,8.447354,2.000000,300.000000,0.830012,90.391900,0.892420,199.985453,6.974215,1.943662,1.000000,1
/home/daniel/Projects/ppsEvolution/data/maps/custom_maps/Custom_7_Run_0_Map.csv,squared_error,2.4353909160620997e-08,0.4999,0.3598,0.000000,0.906487,0.389415,0.997764,0.097102,0.000000,1.000000,0.000000,0.918821,0.045992,0.229603,0.971675,0.803826,0.663678,0.130311,0.000000,125.000000,1.277633,63.907489,0.997764,20.323221,0.500000,10.000000,0.000000,285.793658,0.795755,41.373978,0.971675,160.961387,6.804943,2.172798,0.000000,2
/home/daniel/Projects/ppsEvolution/data/maps/custom_maps/Custom_7_Run_0_Map.csv,squared_error,4.765482472414698e-07,0.4996,0.3591,0.101516,0.950061,0.363706,1.000000,0.087666,0.030000,1.000000,0.000000,0.884884,0.005204,0.077197,1.000000,0.940002,0.886709,0.038186,1.000000,142.765215,1.302034,60.282590,1.000000,18.445613,0.785000,10.000000,0.000000,279.854697,0.772914,19.884803,1.000000,188.060335,8.923734,1.343676,1.000000,3
/home/daniel/Projects/ppsEvolution/data/maps/custom_maps/Custom_7_Run_0_Map.csv,squared_error,3.426511472561239e-07,0.4998,0.3592,0.000000,0.984071,0.498849,0.950924,0.315918,0.035838,0.912016,2.000000,0.865584,0.139524,0.433127,0.918016,1.000000,0.638929,0.018158,2.000000,125.000000,1.321080,79.337697,0.950924,63.867661,0.840462,9.208147,2.000000,276.477169,0.848133,70.070923,0.918016,200.000000,6.569826,1.163420,2.000000,4
/home/daniel/Projects/ppsEvolution/data/maps/custom_maps/Custom_7_Run_0_Map.csv,squared_error,4.09768835516649e-07,0.5008,0.3604,0.158132,1.000000,0.433137,1.000000,0.000000,0.246118,0.955450,0.000000,0.941365,0.295612,0.106303,1.000000,0.831263,0.744844,0.000000,1.000000,152.673148,1.330000,70.072370,1.000000,1.000000,2.838121,9.599048,0.000000,289.738880,0.935543,23.988668,1.000000,166.421326,7.576023,1.000000,1.000000,5
/home/daniel/Projects/ppsEvolution/data/maps/custom_maps/Custom_7_Run_0_Map.csv,squared_error,2.751162921079149e-07,0.5002,0.3593,0.000000,0.810577,0.353401,0.950753,0.030000,0.000000,0.688491,2.000000,0.924004,0.000078,0.709573,0.853965,0.970030,0.722079,0.082712,2.000000,125.000000,1.223923,58.829541,0.950753,6.970000,0.500000,7.196423,2.000000,286.700689,0.770044,109.049745,0.853965,194.036022,7.359753,1.744404,2.000000,6
/home/daniel/Projects/ppsEvolution/data/maps/custom_maps/Custom_7_Run_0_Map.csv,squared_error,5.368421959875079e-06,0.5007,0.3632,0.047772,1.000000,0.319066,0.931743,0.000000,0.000000,0.952771,2.000000,0.758766,0.000000,0.733400,0.833517,0.830755,1.000000,0.377802,2.000000,133.360115,1.330000,53.988317,0.931743,1.000000,0.500000,9.574938,2.000000,257.783979,0.770000,112.409398,0.833517,166.320298,10.000000,4.400215,2.000000,7
/home/daniel/Projects/ppsEvolution/data/maps/custom_maps/Custom_7_Run_0_Map.csv,squared_error,1.940144149472259e-07,0.4997,0.3605,0.000000,0.881162,0.274054,0.954310,0.190954,0.524920,0.930045,2.000000,0.697843,0.000000,0.837841,0.842434,0.876524,0.534002,0.525777,0.000000,125.000000,1.263451,47.641620,0.954310,38.999878,5.486736,9.370404,2.000000,247.122550,0.770000,127.135651,0.842434,175.428345,5.573019,5.731995,0.000000,8
/home/daniel/Projects/ppsEvolution/data/maps/custom_maps/Custom_7_Run_0_Map.csv,squared_error,1.438695766921698e-07,0.4995,0.3601,0.000000,1.000000,0.456631,1.000000,0.000000,0.185635,1.000000,0.000000,0.955295,0.035676,0.073989,1.000000,0.735866,0.939933,0.112106,0.000000,125.000000,1.330000,73.385023,1.000000,1.000000,2.263534,10.000000,0.000000,292.176570,0.789979,19.432431,1.000000,147.437275,9.429361,2.008951,0.000000,9
map,fitness,fitness value,team0ratio,time,HP,Speed,Damage,Acc,ClipSize,RateOfFire,NrBullets,Range,HP,Speed,Damage,Acc,ClipSize,RateOfFire,NrBullets,Range,HP,Speed,Damage,Acc,ClipSize,RateOfFire,NrBullets,Range,HP,Speed,Damage,Acc,ClipSize,RateOfFire,NrBullets,Range,Run,target team0ratio: 0.5,target time: 0.36
/home/daniel/Projects/ppsEvolution/data/maps/custom_maps/Custom_8_Run_0_Map.csv,squared_error,2.3081059536095684e-07,0.4996,0.3595,0.000000,1.000000,0.213652,0.800000,0.140842,0.000000,1.000000,0.000000,0.820229,0.000000,0.142308,0.685480,1.000000,0.921895,0.000000,1.000000,125.000000,1.330000,39.124984,0.800000,29.027501,0.500000,10.000000,0.000000,268.540030,0.770000,29.065481,0.685480,200.000000,9.258000,1.000000,1.000000,0
/home/daniel/Projects/ppsEvolution/data/maps/custom_maps/Custom_8_Run_0_Map.csv,squared_error,9.839058281848332e-07,0.5007,0.3612,0.000000,1.000000,0.210000,0.800000,0.126562,0.030000,1.000000,2.000000,1.000000,0.000000,0.171173,0.646301,1.000000,1.000000,0.000000,1.000000,125.000000,1.330000,38.610000,0.800000,26.185798,0.785000,10.000000,2.000000,300.000000,0.770000,33.135364,0.646301,200.000000,10.000000,1.000000,1.000000,1
/home/daniel/Projects/ppsEvolution/data/maps/custom_maps/Custom_8_Run_0_Map.csv,squared_error,7.744370564879142e-07,0.4998,0.3612,0.000000,0.909215,0.141827,0.800000,0.000000,0.000000,0.950393,2.000000,0.833851,0.442746,0.316232,0.575446,0.941127,1.000000,0.000000,1.000000,125.000000,1.279161,28.997558,0.800000,1.000000,0.500000,9.553541,2.000000,270.923991,1.017938,53.588684,0.575446,188.284264,10.000000,1.000000,1.000000,2
/home/daniel/Projects/ppsEvolution/data/maps/custom_maps/Custom_8_Run_0_Map.csv,squared_error,4.5547045938860946e-07,0.4991,0.3602,0.090437,1.000000,0.210000,0.800000,0.096298,0.000000,0.989609,2.000000,1.000000,0.000000,0.000000,0.730847,0.822090,0.778740,0.000000,2.000000,140.826521,1.330000,38.610000,0.800000,20.163343,0.500000,9.906477,2.000000,300.000000,0.770000,9.000000,0.730847,164.595841,7.898035,1.000000,2.000000,3
/home/daniel/Projects/ppsEvolution/data/maps/custom_maps/Custom_8_Run_0_Map.csv,squared_error,2.195462147081201e-06,0.4999,0.3621,0.016370,1.000000,0.263824,0.800000,0.000000,0.000000,1.000000,0.000000,0.996833,0.000000,0.203648,0.645439,1.000000,1.000000,0.000000,2.000000,127.864745,1.330000,46.199144,0.800000,1.000000,0.500000,10.000000,0.000000,299.445844,0.770000,37.714340,0.645439,200.000000,10.000000,1.000000,2.000000,4
/home/daniel/Projects/ppsEvolution/data/maps/custom_maps/Custom_8_Run_0_Map.csv,squared_error,5.603422106538993e-07,0.4997,0.3610,0.000000,1.000000,0.226184,0.800000,0.000000,0.030000,0.939470,2.000000,1.000000,0.111080,0.265846,0.600000,1.000000,0.755170,0.108855,0.000000,125.000000,1.330000,40.891959,0.800000,1.000000,0.785000,9.455229,2.000000,300.000000,0.832205,46.484299,0.600000,200.000000,7.674112,1.979699,0.000000,5
/home/daniel/Projects/ppsEvolution/data/maps/custom_maps/Custom_8_Run_0_Map.csv,squared_error,8.017230617625683e-08,0.5001,0.3604,0.026806,1.000000,0.271072,0.800000,0.030000,0.000000,1.000000,0.000000,1.000000,0.088674,0.000000,0.729234,1.000000,0.923656,0.000000,2.000000,129.691104,1.330000,47.221106,0.800000,6.970000,0.500000,10.000000,0.000000,300.000000,0.819658,9.000000,0.729234,200.000000,9.274735,1.000000,2.000000,6
/home/daniel/Projects/ppsEvolution/data/maps/custom_maps/Custom_8_Run_0_Map.csv,squared_error,5.079811154964049e-07,0.4997,0.3610,0.018130,1.000000,0.277041,0.790395,0.166354,0.030000,0.918821,1.000000,1.000000,0.000000,0.000000,0.724812,0.862335,1.000000,0.000000,2.000000,128.172716,1.330000,48.062756,0.790395,34.104440,0.785000,9.269391,1.000000,300.000000,0.770000,9.000000,0.724812,172.604666,10.000000,1.000000,2.000000,7
/home/daniel/Projects/ppsEvolution/data/maps/custom_maps/Custom_8_Run_0_Map.csv,squared_error,3.2439062740437735e-07,0.5006,0.3606,0.043512,1.000000,0.220476,0.800000,0.030000,0.030000,1.000000,2.000000,1.000000,0.000000,0.000000,0.728982,0.975688,1.000000,0.000000,1.000000,132.614556,1.330000,40.087135,0.800000,6.970000,0.785000,10.000000,2.000000,300.000000,0.770000,9.000000,0.728982,195.161990,10.000000,1.000000,1.000000,8
/home/daniel/Projects/ppsEvolution/data/maps/custom_maps/Custom_8_Run_0_Map.csv,squared_error,2.4495012336274864e-07,0.5005,0.3605,0.000000,0.802146,0.210000,0.800000,0.213643,0.030000,0.964836,2.000000,0.980361,0.000000,0.026757,0.701837,1.000000,0.687080,0.169602,1.000000,125.000000,1.219202,38.610000,0.800000,43.514971,0.785000,9.683526,2.000000,296.563142,0.770000,12.772704,0.701837,200.000000,7.027258,2.526416,1.000000,9
map,fitness,fitness value,team0ratio,time,HP,Speed,Damage,Acc,ClipSize,RateOfFire,NrBullets,Range,HP,Speed,Damage,Acc,ClipSize,RateOfFire,NrBullets,Range,HP,Speed,Damage,Acc,ClipSize,RateOfFire,NrBullets,Range,HP,Speed,Damage,Acc,ClipSize,RateOfFire,NrBullets,Range,Run,target team0ratio: 0.5,target time: 0.36
/home/daniel/Projects/ppsEvolution/data/maps/custom_maps/Custom_9_Run_0_Map.csv,squared_error,3.4275626686693323e-07,0.4993,0.3604,0.000000,1.000000,0.210000,0.707534,0.030000,0.005133,1.000000,2.000000,0.983683,0.218136,0.000000,0.633545,0.975959,0.878918,0.000000,1.000000,125.000000,1.330000,38.610000,0.707534,6.970000,0.548768,10.000000,2.000000,297.144574,0.892156,9.000000,0.633545,195.215935,8.849721,1.000000,1.000000,0
/home/daniel/Projects/ppsEvolution/data/maps/custom_maps/Custom_9_Run_0_Map.csv,squared_error,3.520449479949854e-08,0.4998,0.3598,0.000000,1.000000,0.210000,0.731757,0.009890,0.107465,0.906511,1.000000,1.000000,0.004102,0.111294,0.600000,1.000000,0.840163,0.000000,0.000000,125.000000,1.330000,38.610000,0.731757,2.968034,1.520921,9.158598,1.000000,300.000000,0.772297,24.692427,0.600000,200.000000,8.481547,1.000000,0.000000,1
/home/daniel/Projects/ppsEvolution/data/maps/custom_maps/Custom_9_Run_0_Map.csv,squared_error,6.457368542591119e-07,0.5002,0.3589,0.000000,0.870558,0.210000,0.730264,0.141855,0.030000,0.972763,1.000000,1.000000,0.000000,0.106432,0.603958,1.000000,1.000000,0.000000,0.000000,125.000000,1.257512,38.610000,0.730264,29.229197,0.785000,9.754871,1.000000,300.000000,0.770000,24.006903,0.603958,200.000000,10.000000,1.000000,0.000000,2
/home/daniel/Projects/ppsEvolution/data/maps/custom_maps/Custom_9_Run_0_Map.csv,squared_error,5.1737766173688316e-08,0.5003,0.3601,0.075548,0.991447,0.000000,0.800000,0.123834,0.075231,0.910817,2.000000,1.000000,0.000000,0.000000,0.666399,0.949793,0.943295,0.000000,2.000000,138.220813,1.325211,9.000000,0.800000,25.642945,1.214697,9.197350,2.000000,300.000000,0.770000,9.000000,0.666399,190.008824,9.461302,1.000000,2.000000,3
/home/daniel/Projects/ppsEvolution/data/maps/custom_maps/Custom_9_Run_0_Map.csv,squared_error,2.6888908581953136e-07,0.5005,0.3606,0.087495,0.936446,0.210000,0.731419,0.002232,0.169120,1.000000,0.000000,1.000000,0.000000,0.147420,0.600000,1.000000,1.000000,0.000000,1.000000,140.311691,1.294410,38.610000,0.731419,1.444219,2.106645,10.000000,0.000000,300.000000,0.770000,29.786246,0.600000,200.000000,10.000000,1.000000,1.000000,4
/home/daniel/Projects/ppsEvolution/data/maps/custom_maps/Custom_9_Run_0_Map.csv,squared_error,9.969904856134867e-07,0.4987,0.3605,0.000000,0.923345,0.210000,0.740681,0.285436,0.287131,1.000000,0.000000,1.000000,0.020270,0.034886,0.644173,1.000000,0.826512,0.022871,0.000000,125.000000,1.287073,38.610000,0.740681,57.801701,3.227749,10.000000,0.000000,300.000000,0.781351,13.918908,0.644173,200.000000,8.351863,1.205835,0.000000,5
/home/daniel/Projects/ppsEvolution/data/maps/custom_maps/Custom_9_Run_0_Map.csv,squared_error,5.539970910952161e-07,0.5007,0.3592,0.000000,1.000000,0.284405,0.691697,0.000000,0.000000,1.000000,1.000000,0.980973,0.035081,0.000000,0.653693,0.790053,0.995616,0.000000,0.000000,125.000000,1.330000,49.101084,0.691697,1.000000,0.500000,10.000000,1.000000,296.670211,0.789645,9.000000,0.653693,158.220597,9.958348,1.000000,0.000000,6
/home/daniel/Projects/ppsEvolution/data/maps/custom_maps/Custom_9_Run_0_Map.csv,squared_error,4.235872364468329e-07,0.5001,0.3609,0.155270,1.000000,0.411662,0.613127,0.030000,0.030000,1.000000,0.000000,0.911012,0.000000,0.000000,0.680497,1.000000,1.000000,0.000000,1.000000,152.172200,1.330000,67.044362,0.613127,6.970000,0.785000,10.000000,0.000000,284.427115,0.770000,9.000000,0.680497,200.000000,10.000000,1.000000,1.000000,7
/home/daniel/Projects/ppsEvolution/data/maps/custom_maps/Custom_9_Run_0_Map.csv,squared_error,9.586826997100837e-07,0.5006,0.3612,0.000000,1.000000,0.132142,0.761880,0.045954,0.060903,1.000000,0.000000,1.000000,0.000000,0.085167,0.600000,0.977607,0.726606,0.090372,2.000000,125.000000,1.330000,27.631974,0.761880,10.144876,1.078579,10.000000,0.000000,300.000000,0.770000,21.008559,0.600000,195.543783,7.402756,1.813350,2.000000,8
/home/daniel/Projects/ppsEvolution/data/maps/custom_maps/Custom_9_Run_0_Map.csv,squared_error,7.559611660703137e-07,0.5011,0.3605,0.000000,0.981920,0.210000,0.704410,0.030000,0.000000,1.000000,2.000000,0.961920,0.144150,0.072245,0.600000,1.000000,1.000000,0.028130,0.000000,125.000000,1.319875,38.610000,0.704410,6.970000,0.500000,10.000000,2.000000,293.335997,0.850724,19.186602,0.600000,200.000000,10.000000,1.253173,0.000000,9
map,fitness,fitness value,team0ratio,time,HP,Speed,Damage,Acc,ClipSize,RateOfFire,NrBullets,Range,HP,Speed,Damage,Acc,ClipSize,RateOfFire,NrBullets,Range,HP,Speed,Damage,Acc,ClipSize,RateOfFire,NrBullets,Range,HP,Speed,Damage,Acc,ClipSize,RateOfFire,NrBullets,Range,Run,target team0ratio: 0.5,target time: 0.36
/home/daniel/Projects/ppsEvolution/data/maps/custom_maps/Custom_10_Run_0_Map.csv,squared_error,3.7715857753319787e-06,0.5005,0.3627,0.020959,0.789953,0.593659,1.000000,0.003125,0.116860,1.000000,2.000000,0.332555,0.008232,0.710752,1.000000,0.639572,0.893915,0.731531,2.000000,128.667816,1.212374,92.705988,1.000000,1.621974,1.610168,10.000000,2.000000,183.197098,0.774610,109.216006,1.000000,128.274880,8.992195,7.583779,2.000000,0
/home/daniel/Projects/ppsEvolution/data/maps/custom_maps/Custom_10_Run_0_Map.csv,squared_error,3.628594531114947e-07,0.4992,0.3598,0.104153,0.724999,0.799766,1.000000,0.000000,0.000000,1.000000,2.000000,0.549496,0.103469,1.000000,1.000000,1.000000,0.591092,0.719981,0.000000,143.226701,1.175999,121.766966,1.000000,1.000000,0.500000,10.000000,2.000000,221.161751,0.827943,150.000000,1.000000,200.000000,6.115374,7.479825,0.000000,1
/home/daniel/Projects/ppsEvolution/data/maps/custom_maps/Custom_10_Run_0_Map.csv,squared_error,1.3110272926610585e-06,0.5005,0.3615,0.026162,0.956767,0.827313,0.987275,0.056588,0.476855,0.988499,2.000000,0.440967,0.038128,0.670578,1.000000,0.646260,0.718995,0.516332,1.000000,129.578328,1.305790,125.651119,0.987275,12.261090,5.030120,9.896492,2.000000,202.169260,0.791351,103.551547,1.000000,129.605835,7.330456,5.646987,1.000000,2
/home/daniel/Projects/ppsEvolution/data/maps/custom_maps/Custom_10_Run_0_Map.csv,squared_error,6.560804627429254e-06,0.4994,0.3636,0.000000,1.000000,0.841530,0.990834,0.475602,0.035757,0.993779,2.000000,0.515727,0.071004,0.746612,1.000000,0.948283,1.000000,0.293802,2.000000,125.000000,1.330000,127.655737,0.990834,95.644810,0.839695,9.944012,2.000000,215.252217,0.809762,114.272355,1.000000,189.708363,10.000000,3.644214,2.000000,3
/home/daniel/Projects/ppsEvolution/data/maps/custom_maps/Custom_10_Run_0_Map.csv,squared_error,7.687295593463213e-07,0.5012,0.3596,0.126446,0.995573,0.986104,0.995135,0.000000,0.176036,1.000000,2.000000,0.805633,0.158245,0.865129,1.000000,0.977045,0.664729,0.712890,2.000000,147.128052,1.327521,148.040700,0.995135,1.000000,2.172340,10.000000,2.000000,265.985732,0.858617,130.983127,1.000000,195.431908,6.814928,7.416006,2.000000,4
/home/daniel/Projects/ppsEvolution/data/maps/custom_maps/Custom_10_Run_0_Map.csv,squared_error,5.113045238715654e-07,0.5009,0.3605,0.086165,1.000000,1.000000,0.977516,0.246987,0.215992,0.896688,2.000000,0.420447,0.213808,0.573300,1.000000,1.000000,0.395022,0.020045,2.000000,140.078919,1.330000,150.000000,0.977516,50.150400,2.551927,9.070188,2.000000,198.578306,0.889733,89.835301,1.000000,200.000000,4.252706,1.180409,2.000000,5
/home/daniel/Projects/ppsEvolution/data/maps/custom_maps/Custom_10_Run_0_Map.csv,squared_error,3.436490678914371e-06,0.4989,0.3624,0.000000,0.880137,1.000000,1.000000,0.163324,0.260666,0.983487,2.000000,0.817051,0.206174,0.587604,1.000000,0.327045,0.192961,0.381573,2.000000,125.000000,1.262877,150.000000,1.000000,33.501443,2.976325,9.851387,2.000000,267.983998,0.885457,91.852208,1.000000,66.082009,2.333128,4.434153,2.000000,6
/home/daniel/Projects/ppsEvolution/data/maps/custom_maps/Custom_10_Run_0_Map.csv,squared_error,1.8162446021598807e-06,0.5002,0.3619,0.006534,0.893841,1.000000,1.000000,0.258810,0.107472,1.000000,2.000000,0.993284,0.056325,0.766557,1.000000,0.845712,0.900234,1.000000,2.000000,126.143404,1.270551,150.000000,1.000000,52.503179,1.520986,10.000000,2.000000,298.824774,0.801542,117.084590,1.000000,169.296636,9.052222,10.000000,2.000000,7
/home/daniel/Projects/ppsEvolution/data/maps/custom_maps/Custom_10_Run_0_Map.csv,squared_error,1.8177570428009297e-07,0.5000,0.3606,0.000000,0.610160,0.797797,0.966265,0.000000,0.315964,0.957811,2.000000,0.074110,0.523990,0.571237,1.000000,0.631492,0.554568,0.322942,0.000000,125.000000,1.111689,121.489441,0.966265,1.000000,3.501657,9.620298,2.000000,137.969330,1.063434,89.544359,1.000000,126.666969,5.768394,3.906477,0.000000,8
/home/daniel/Projects/ppsEvolution/data/maps/custom_maps/Custom_10_Run_0_Map.csv,squared_error,2.2686138871066244e-06,0.4997,0.3621,0.000000,0.720413,1.000000,0.974517,0.060304,0.060599,1.000000,2.000000,0.634889,0.000000,0.361372,1.000000,0.969533,0.361328,0.572983,2.000000,125.000000,1.173431,150.000000,0.974517,13.000544,1.075686,10.000000,2.000000,236.105516,0.770000,59.953483,1.000000,193.937163,3.932617,6.156851,2.000000,9
