map,fitness,fitness value,team0ratio,time,HP,Speed,Damage,Acc,ClipSize,RateOfFire,NrBullets,Range,HP,Speed,Damage,Acc,ClipSize,RateOfFire,NrBullets,Range,HP,Speed,Damage,Acc,ClipSize,RateOfFire,NrBullets,Range,HP,Speed,Damage,Acc,ClipSize,RateOfFire,NrBullets,Range,Run,target team0ratio: 0.5,target time: 0.36
/home/daniel/Projects/ppsevolution/data/maps/custom_maps/Custom_1_Run_0_Map.csv,squared_error,9.4903301066223e-07,0.4997,0.3587,0.155053,0.898574,0.389862,0.562808,0.000000,0.058287,0.763563,1.000000,1.000000,0.000000,0.000000,0.630978,0.790222,0.959729,0.079865,0.000000,152.134251,1.273202,63.970566,0.562808,1.000000,1.053728,7.872063,1.000000,300.000000,0.770000,9.000000,0.630978,158.254165,9.617427,1.718783,0.000000,0
/home/daniel/Projects/ppsevolution/data/maps/custom_maps/Custom_1_Run_0_Map.csv,squared_error,1.0614567643820464e-06,0.5007,0.3613,0.030843,0.853719,0.236559,0.534968,0.060702,0.000000,1.000000,0.000000,0.619090,0.118736,0.000000,0.594444,0.697417,1.000000,0.068389,1.000000,130.397534,1.248082,42.354755,0.534968,13.079793,0.500000,10.000000,0.000000,233.340751,0.836492,9.000000,0.594444,139.785978,10.000000,1.615499,1.000000,1
/home/daniel/Projects/ppsevolution/data/maps/custom_maps/Custom_1_Run_0_Map.csv,squared_error,1.7905568472322614e-06,0.4992,0.3617,0.090190,0.660912,0.345756,0.479128,0.085640,0.000000,0.718719,1.000000,0.607031,0.000000,0.397503,0.348618,0.999343,1.000000,0.134094,0.000000,140.783238,1.140111,57.751551,0.479128,18.042451,0.500000,7.468469,1.000000,231.230409,0.770000,65.047915,0.348618,199.869324,10.000000,2.206842,0.000000,2
/home/daniel/Projects/ppsevolution/data/maps/custom_maps/Custom_1_Run_0_Map.csv,squared_error,1.449146323753303e-06,0.4997,0.3583,0.166316,0.905360,0.000000,0.750745,0.407567,0.191509,0.872661,0.000000,0.882090,0.013875,0.009131,0.632606,0.907048,1.000000,0.111972,2.000000,154.105311,1.277002,9.000000,0.750745,82.105749,2.319333,8.853946,0.000000,279.365705,0.777770,10.287518,0.632606,181.502585,10.000000,2.007745,2.000000,3
/home/daniel/Projects/ppsevolution/data/maps/custom_maps/Custom_1_Run_0_Map.csv,squared_error,2.703148887781743e-06,0.4977,0.3605,0.000000,0.760007,0.530365,0.457290,0.178751,0.529464,0.751249,0.000000,1.000000,0.166439,0.008506,0.569922,1.000000,0.994131,0.093730,1.000000,125.000000,1.195604,83.781397,0.457290,36.571355,5.529911,7.761240,0.000000,300.000000,0.863206,10.199375,0.569922,200.000000,9.944249,1.843572,1.000000,4
/home/daniel/Projects/ppsevolution/data/maps/custom_maps/Custom_1_Run_0_Map.csv,squared_error,6.258853696681393e-06,0.5035,0.3595,0.073912,1.000000,0.000000,0.718894,0.213713,0.136558,0.962294,2.000000,0.834627,0.063095,0.011894,0.589044,0.776431,1.000000,0.000000,2.000000,137.934540,1.330000,9.000000,0.718894,43.528811,1.797301,9.660648,2.000000,271.059756,0.805333,10.676998,0.589044,155.509823,10.000000,1.000000,2.000000,5
/home/daniel/Projects/ppsevolution/data/maps/custom_maps/Custom_1_Run_0_Map.csv,squared_error,3.2728617370516407e-06,0.4985,0.3621,0.000000,0.933688,0.216416,0.649752,0.019735,0.074832,0.890509,2.000000,1.000000,0.000000,0.000000,0.574145,1.000000,1.000000,0.109069,0.000000,125.000000,1.292865,39.514591,0.649752,4.927292,1.210905,9.014582,2.000000,300.000000,0.770000,9.000000,0.574145,200.000000,10.000000,1.981625,0.000000,6
/home/daniel/Projects/ppsevolution/data/maps/custom_maps/Custom_1_Run_0_Map.csv,squared_error,7.102234043145459e-07,0.4988,0.3599,0.059718,0.660012,0.310186,0.597652,0.000000,0.019777,1.000000,1.000000,1.000000,0.290168,0.050277,0.559650,0.899896,0.814278,0.160958,0.000000,135.450589,1.139607,52.736219,0.597652,1.000000,0.687879,10.000000,1.000000,300.000000,0.932494,16.089112,0.559650,180.079364,8.235638,2.448623,0.000000,7
/home/daniel/Projects/ppsevolution/data/maps/custom_maps/Custom_1_Run_0_Map.csv,squared_error,4.776715463950165e-06,0.5030,0.3609,0.039384,0.721952,0.418374,0.511561,0.090045,0.398813,0.590031,2.000000,0.916313,0.032378,0.000000,0.583208,0.739488,1.000000,0.048387,2.000000,131.892264,1.174293,67.990800,0.511561,18.918879,4.288727,6.310276,2.000000,285.354720,0.788132,9.000000,0.583208,148.158041,10.000000,1.435480,2.000000,8
/home/daniel/Projects/ppsevolution/data/maps/custom_maps/Custom_1_Run_0_Map.csv,squared_error,2.3580830226912237e-06,0.4984,0.3614,0.000000,1.000000,0.108606,0.715082,0.007463,0.167110,0.770003,0.000000,0.909982,0.088911,0.000000,0.600000,0.851894,0.687040,0.000000,1.000000,125.000000,1.330000,24.313396,0.715082,2.485090,2.087547,7.930025,0.000000,284.246853,0.819790,9.000000,0.600000,170.526857,7.026881,1.000000,1.000000,9
map,fitness,fitness value,team0ratio,time,HP,Speed,Damage,Acc,ClipSize,RateOfFire,NrBullets,Range,HP,Speed,Damage,Acc,ClipSize,RateOfFire,NrBullets,Range,HP,Speed,Damage,Acc,ClipSize,RateOfFire,NrBullets,Range,HP,Speed,Damage,Acc,ClipSize,RateOfFire,NrBullets,Range,Run,target team0ratio: 0.5,target time: 0.36
/home/daniel/Projects/ppsevolution/data/maps/custom_maps/Custom_2_Run_0_Map.csv,squared_error,0.0005807456069613932,0.4996,0.3941,0.037799,0.868351,0.840075,1.000000,0.198824,0.120946,0.816859,2.000000,0.812431,0.294699,1.000000,1.000000,0.552130,0.761938,0.891115,2.000000,131.614863,1.256277,127.450604,1.000000,40.566039,1.648983,8.351728,2.000000,267.175448,0.935031,150.000000,1.000000,110.873909,7.738407,9.020035,2.000000,0
/home/daniel/Projects/ppsevolution/data/maps/custom_maps/Custom_2_Run_0_Map.csv,squared_error,0.0004698050982358876,0.4956,0.3903,0.000000,0.912029,0.915501,1.000000,0.097874,0.260133,0.894653,2.000000,1.000000,0.038445,1.000000,1.000000,0.935352,1.000000,0.982184,2.000000,125.000000,1.280736,138.085630,1.000000,20.477013,2.971260,9.051878,2.000000,300.000000,0.791529,150.000000,1.000000,187.135023,10.000000,9.839652,2.000000,1
/home/daniel/Projects/ppsevolution/data/maps/custom_maps/Custom_2_Run_0_Map.csv,squared_error,0.0005314049649501624,0.4951,0.3922,0.000000,1.000000,0.693280,1.000000,0.190926,0.000000,0.969281,2.000000,0.557924,0.042211,0.979171,1.000000,1.000000,0.882162,0.655971,2.000000,125.000000,1.330000,106.752507,1.000000,38.994175,0.500000,9.723529,2.000000,222.636657,0.793638,147.063167,1.000000,200.000000,8.880539,6.903740,2.000000,2
/home/daniel/Projects/ppsevolution/data/maps/custom_maps/Custom_2_Run_0_Map.csv,squared_error,0.0004665901793788369,0.4997,0.3905,0.000000,0.675983,0.701357,1.000000,0.011939,0.000000,1.000000,2.000000,0.543219,0.508943,1.000000,1.000000,0.637413,0.891089,1.000000,2.000000,125.000000,1.148550,107.891389,1.000000,3.375815,0.500000,10.000000,2.000000,220.063393,1.055008,150.000000,1.000000,127.845165,8.965350,10.000000,2.000000,3
/home/daniel/Projects/ppsevolution/data/maps/custom_maps/Custom_2_Run_0_Map.csv,squared_error,0.0005812863555415288,0.4954,0.3938,0.000000,0.944077,0.851309,1.000000,0.082241,0.320163,0.925382,2.000000,0.827910,0.052553,1.000000,1.000000,0.858763,0.979185,0.553934,2.000000,125.000000,1.298683,129.034629,1.000000,17.365872,3.541545,9.328441,2.000000,269.884268,0.799430,150.000000,1.000000,171.893743,9.802255,5.985409,2.000000,4
/home/daniel/Projects/ppsevolution/data/maps/custom_maps/Custom_2_Run_0_Map.csv,squared_error,0.0004969219565741374,0.4956,0.3912,0.000000,1.000000,0.543209,1.000000,0.106262,0.351542,1.000000,2.000000,0.236768,0.549396,0.991668,1.000000,0.907983,0.665891,0.965933,2.000000,125.000000,1.330000,85.592473,1.000000,22.146088,3.839650,10.000000,2.000000,166.434332,1.077662,148.825257,1.000000,181.688598,6.825962,9.693397,2.000000,5
/home/daniel/Projects/ppsevolution/data/maps/custom_maps/Custom_2_Run_0_Map.csv,squared_error,0.0004474432044770144,0.4895,0.3880,0.000000,0.883377,0.737070,1.000000,0.098088,0.000000,1.000000,2.000000,0.740528,0.076368,1.000000,1.000000,1.000000,1.000000,0.957565,2.000000,125.000000,1.264691,112.926928,1.000000,20.519582,0.500000,10.000000,2.000000,254.592437,0.812766,150.000000,1.000000,200.000000,10.000000,9.618084,2.000000,6
/home/daniel/Projects/ppsevolution/data/maps/custom_maps/Custom_2_Run_0_Map.csv,squared_error,0.0004417379418522277,0.4997,0.3897,0.016193,0.861977,0.903870,1.000000,0.000000,0.004240,1.000000,2.000000,0.981086,0.976210,1.000000,1.000000,0.767834,0.989504,0.968758,2.000000,127.833746,1.252707,136.445645,1.000000,1.000000,0.540283,10.000000,2.000000,296.690027,1.316678,150.000000,1.000000,153.798985,9.900286,9.718821,2.000000,7
/home/daniel/Projects/ppsevolution/data/maps/custom_maps/Custom_2_Run_0_Map.csv,squared_error,0.0005030253948946989,0.4935,0.3910,0.000000,0.783290,0.452939,1.000000,0.154528,0.177548,0.974850,2.000000,0.345641,0.259963,1.000000,0.986303,0.791216,0.954240,1.000000,2.000000,125.000000,1.208642,72.864355,1.000000,31.751046,2.186706,9.773648,2.000000,185.487249,0.915579,150.000000,0.986303,158.451924,9.565277,10.000000,2.000000,8
/home/daniel/Projects/ppsevolution/data/maps/custom_maps/Custom_2_Run_0_Map.csv,squared_error,0.0005129119030560464,0.4965,0.3918,0.053088,0.769693,0.698370,1.000000,0.115030,0.000630,0.803578,2.000000,0.682467,0.529772,0.961530,0.999975,1.000000,0.806103,1.000000,2.000000,134.290385,1.201028,107.470133,1.000000,23.890894,0.505986,8.232205,2.000000,244.431706,1.066673,144.575732,0.999975,200.000000,8.157978,10.000000,2.000000,9
map,fitness,fitness value,team0ratio,time,HP,Speed,Damage,Acc,ClipSize,RateOfFire,NrBullets,Range,HP,Speed,Damage,Acc,ClipSize,RateOfFire,NrBullets,Range,HP,Speed,Damage,Acc,ClipSize,RateOfFire,NrBullets,Range,HP,Speed,Damage,Acc,ClipSize,RateOfFire,NrBullets,Range,Run,target team0ratio: 0.5,target time: 0.36
/home/daniel/Projects/ppsevolution/data/maps/custom_maps/Custom_3_Run_0_Map.csv,squared_error,0.006742694404991931,0.5181,0.4747,0.000000,0.826976,0.999784,1.000000,0.135920,0.036801,0.892215,2.000000,0.758661,0.533138,1.000000,1.000000,0.819245,0.543961,1.000000,2.000000,125.000000,1.233107,149.969555,1.000000,28.048130,0.849607,9.029939,2.000000,257.765680,1.068557,150.000000,1.000000,164.029703,5.667630,10.000000,2.000000,0
/home/daniel/Projects/ppsevolution/data/maps/custom_maps/Custom_3_Run_0_Map.csv,squared_error,0.0066170002838687805,0.5223,0.4729,0.000000,0.371524,0.763574,1.000000,0.064414,0.005123,1.000000,2.000000,0.327078,0.000000,0.981281,1.000000,1.000000,0.851865,0.961830,2.000000,125.000000,0.978054,116.663918,1.000000,13.818302,0.548670,10.000000,2.000000,182.238693,0.770000,147.360635,1.000000,200.000000,8.592714,9.656473,2.000000,1
/home/daniel/Projects/ppsevolution/data/maps/custom_maps/Custom_3_Run_0_Map.csv,squared_error,0.006676520858107275,0.5085,0.4752,0.002096,1.000000,1.000000,1.000000,0.000000,0.436469,1.000000,2.000000,0.755407,0.086934,0.989663,1.000000,0.894018,0.461084,0.592960,2.000000,125.366793,1.330000,150.000000,1.000000,1.000000,4.646455,10.000000,2.000000,257.196154,0.818683,148.542530,1.000000,178.909651,4.880295,6.336636,2.000000,2
/home/daniel/Projects/ppsevolution/data/maps/custom_maps/Custom_3_Run_0_Map.csv,squared_error,0.006554946455954568,0.5010,0.4745,0.020672,0.717159,0.792509,1.000000,0.213592,0.260670,1.000000,2.000000,0.424304,0.000000,1.000000,1.000000,1.000000,0.255373,0.738047,2.000000,128.617662,1.171609,120.743766,1.000000,43.504875,2.976361,10.000000,2.000000,199.253140,0.770000,150.000000,1.000000,200.000000,2.926045,7.642427,2.000000,3
/home/daniel/Projects/ppsevolution/data/maps/custom_maps/Custom_3_Run_0_Map.csv,squared_error,0.006305472373880982,0.5053,0.4722,0.000000,1.000000,0.674298,1.000000,0.109109,0.045987,1.000000,2.000000,0.134796,0.177274,0.988261,1.000000,0.582064,0.000000,0.920226,2.000000,125.000000,1.330000,104.076063,1.000000,22.712752,0.936875,10.000000,2.000000,148.589360,0.869273,148.344837,1.000000,116.830809,0.500000,9.282032,2.000000,4
/home/daniel/Projects/ppsevolution/data/maps/custom_maps/Custom_3_Run_0_Map.csv,squared_error,0.006459929564807003,0.5101,0.4732,0.000000,1.000000,0.829023,1.000000,0.029376,0.140348,0.937204,2.000000,0.500627,0.214832,1.000000,1.000000,1.000000,0.523889,1.000000,2.000000,125.000000,1.330000,125.892231,1.000000,6.845851,1.833309,9.434835,2.000000,212.609667,0.890306,150.000000,1.000000,200.000000,5.476950,10.000000,2.000000,5
/home/daniel/Projects/ppsevolution/data/maps/custom_maps/Custom_3_Run_0_Map.csv,squared_error,0.006422956793747862,0.5016,0.4733,0.000000,0.984188,0.933166,1.000000,0.000000,0.018571,0.977283,2.000000,0.701797,0.084646,1.000000,1.000000,0.886297,0.315240,0.973195,2.000000,125.000000,1.321146,140.576339,1.000000,1.000000,0.676427,9.795551,2.000000,247.814496,0.817402,150.000000,1.000000,177.373007,3.494780,9.758751,2.000000,6
/home/daniel/Projects/ppsevolution/data/maps/custom_maps/Custom_3_Run_0_Map.csv,squared_error,0.006384260555318997,0.5132,0.4722,0.000000,1.000000,0.720038,1.000000,0.114147,0.032278,0.870178,2.000000,0.174730,0.048795,1.000000,1.000000,0.765476,0.052747,0.984979,2.000000,125.000000,1.330000,110.525417,1.000000,23.715166,0.806638,8.831602,2.000000,155.577733,0.797325,150.000000,1.000000,153.329767,1.001099,9.864811,2.000000,7
/home/daniel/Projects/ppsevolution/data/maps/custom_maps/Custom_3_Run_0_Map.csv,squared_error,0.006607217543631855,0.5124,0.4743,0.026352,0.470489,1.000000,0.971192,0.454162,0.195928,0.978996,2.000000,0.139769,0.006064,1.000000,1.000000,0.475407,0.609813,0.748078,2.000000,129.611640,1.033474,150.000000,0.971192,91.378335,2.361314,9.810968,2.000000,149.459640,0.773396,150.000000,1.000000,95.605945,6.293223,7.732705,2.000000,8
/home/daniel/Projects/ppsevolution/data/maps/custom_maps/Custom_3_Run_0_Map.csv,squared_error,0.00625629144930732,0.5013,0.4719,0.000000,1.000000,0.563924,1.000000,0.000000,0.000000,1.000000,2.000000,0.042025,0.240145,0.987951,1.000000,0.906709,0.294717,0.962979,2.000000,125.000000,1.330000,88.513279,1.000000,1.000000,0.500000,10.000000,2.000000,132.354449,0.904481,148.301025,1.000000,181.435001,3.299814,9.666810,2.000000,9
map,fitness,fitness value,team0ratio,time,HP,Speed,Damage,Acc,ClipSize,RateOfFire,NrBullets,Range,HP,Speed,Damage,Acc,ClipSize,RateOfFire,NrBullets,Range,HP,Speed,Damage,Acc,ClipSize,RateOfFire,NrBullets,Range,HP,Speed,Damage,Acc,ClipSize,RateOfFire,NrBullets,Range,Run,target team0ratio: 0.5,target time: 0.36
/home/daniel/Projects/ppsevolution/data/maps/custom_maps/Custom_4_Run_0_Map.csv,squared_error,3.4503308252738915e-07,0.5004,0.3607,0.024267,0.772707,0.028239,0.825256,0.016041,0.000000,0.768706,2.000000,1.000000,0.218157,0.106844,0.623863,0.815084,0.895752,0.061369,2.000000,129.246638,1.202716,12.981757,0.825256,4.192112,0.500000,7.918351,2.000000,300.000000,0.892168,24.064946,0.623863,163.201641,9.009641,1.552323,2.000000,0
/home/daniel/Projects/ppsevolution/data/maps/custom_maps/Custom_4_Run_0_Map.csv,squared_error,6.102605134607651e-07,0.5010,0.3605,0.300438,0.985427,0.247866,0.732863,0.130459,0.099588,0.949195,2.000000,1.000000,0.125384,0.331419,0.552214,0.968220,1.000000,0.000000,0.000000,177.576641,1.321839,43.949162,0.732863,26.961431,1.446090,9.542754,2.000000,300.000000,0.840215,55.730062,0.552214,193.675841,10.000000,1.000000,0.000000,1
/home/daniel/Projects/ppsevolution/data/maps/custom_maps/Custom_4_Run_0_Map.csv,squared_error,1.4942740903968958e-06,0.5015,0.3608,0.096858,0.896529,0.195902,0.776745,0.223063,0.058766,1.000000,0.000000,1.000000,0.075082,0.000000,0.673840,0.691404,0.871312,0.000000,2.000000,141.950123,1.272056,36.622181,0.776745,45.389599,1.058279,10.000000,0.000000,300.000000,0.812046,9.000000,0.673840,138.589365,8.777461,1.000000,2.000000,2
/home/daniel/Projects/ppsevolution/data/maps/custom_maps/Custom_4_Run_0_Map.csv,squared_error,1.8226482446294973e-06,0.4989,0.3616,0.197792,1.000000,0.275045,0.735851,0.000000,0.306844,0.945677,0.000000,0.910021,0.151156,0.000000,0.697193,1.000000,0.930035,0.095398,0.000000,159.613597,1.330000,47.781307,0.735851,1.000000,3.415016,9.511091,0.000000,284.253707,0.854648,9.000000,0.697193,200.000000,9.335331,1.858581,0.000000,3
/home/daniel/Projects/ppsevolution/data/maps/custom_maps/Custom_4_Run_0_Map.csv,squared_error,3.273858867873975e-06,0.5025,0.3605,0.328624,0.849268,0.267618,0.725071,0.113446,0.019134,0.777623,0.000000,0.767266,0.118480,0.000000,0.729581,0.783529,1.000000,0.071846,0.000000,182.509188,1.245590,46.734142,0.725071,23.575779,0.681773,7.998606,0.000000,259.271511,0.836349,9.000000,0.729581,156.922233,10.000000,1.646615,0.000000,4
/home/daniel/Projects/ppsevolution/data/maps/custom_maps/Custom_4_Run_0_Map.csv,squared_error,9.964082485960594e-06,0.4974,0.3636,0.124223,0.882855,0.266504,0.733239,0.000000,0.000000,0.951141,1.000000,1.000000,0.073412,0.000000,0.662506,0.987646,0.823234,0.022019,2.000000,146.739031,1.264399,46.577078,0.733239,1.000000,0.500000,9.560270,1.000000,300.000000,0.811111,9.000000,0.662506,197.541645,8.320721,1.198175,2.000000,5
/home/daniel/Projects/ppsevolution/data/maps/custom_maps/Custom_4_Run_0_Map.csv,squared_error,3.510036777814172e-06,0.5000,0.3574,0.035436,0.812150,0.021130,0.800631,0.625255,0.461597,0.931252,2.000000,0.868480,0.150908,0.218191,0.536866,0.760279,0.936258,0.491306,0.000000,131.201288,1.224804,11.979356,0.800631,125.425822,4.885168,9.381270,2.000000,276.984048,0.854508,39.764936,0.536866,152.295446,9.394453,5.421753,0.000000,6
/home/daniel/Projects/ppsevolution/data/maps/custom_maps/Custom_4_Run_0_Map.csv,squared_error,1.0901029570198503e-05,0.5045,0.3589,0.000000,1.000000,0.289498,0.729598,0.000000,0.094391,0.978627,1.000000,1.000000,0.021180,0.202844,0.540652,0.946249,1.000000,0.000000,2.000000,125.000000,1.330000,49.819270,0.729598,1.000000,1.396711,9.807642,1.000000,300.000000,0.781861,37.600987,0.540652,189.303514,10.000000,1.000000,2.000000,7
/home/daniel/Projects/ppsevolution/data/maps/custom_maps/Custom_4_Run_0_Map.csv,squared_error,5.821777225946874e-07,0.5009,0.3606,0.080934,1.000000,0.290706,0.723059,0.038033,0.023952,0.989000,1.000000,1.000000,0.000000,0.000000,0.650213,0.890830,1.000000,0.138772,2.000000,139.163449,1.330000,49.989555,0.723059,8.568620,0.727544,9.900998,1.000000,300.000000,0.770000,9.000000,0.650213,178.275230,10.000000,2.248948,2.000000,8
/home/daniel/Projects/ppsevolution/data/maps/custom_maps/Custom_4_Run_0_Map.csv,squared_error,8.770583576640634e-06,0.4995,0.3558,0.065105,0.583755,0.000000,0.807723,0.201056,0.062399,0.814465,0.000000,0.655629,0.142583,0.372378,0.512464,0.609618,0.809581,0.193283,1.000000,136.393371,1.096903,9.000000,0.807723,41.010143,1.092788,8.330183,0.000000,239.735020,0.849846,61.505292,0.512464,122.314011,8.191022,2.739549,1.000000,9
map,fitness,fitness value,team0ratio,time,HP,Speed,Damage,Acc,ClipSize,RateOfFire,NrBullets,Range,HP,Speed,Damage,Acc,ClipSize,RateOfFire,NrBullets,Range,HP,Speed,Damage,Acc,ClipSize,RateOfFire,NrBullets,Range,HP,Speed,Damage,Acc,ClipSize,RateOfFire,NrBullets,Range,Run,target team0ratio: 0.5,target time: 0.36
/home/daniel/Projects/ppsevolution/data/maps/custom_maps/Custom_5_Run_0_Map.csv,squared_error,8.725034213654118e-07,0.4990,0.3592,0.073331,0.719617,0.229646,1.000000,0.000000,0.304942,0.630350,1.000000,0.754434,0.358511,0.013846,1.000000,0.875858,0.919046,0.000000,0.000000,137.832954,1.172985,41.380047,1.000000,1.000000,3.396953,6.673154,1.000000,257.025952,0.970766,10.952253,1.000000,175.295708,9.230938,1.000000,0.000000,0
/home/daniel/Projects/ppsevolution/data/maps/custom_maps/Custom_5_Run_0_Map.csv,squared_error,3.488588123730199e-08,0.4997,0.3601,0.153294,0.910271,0.186480,1.000000,0.031851,0.157348,0.645244,2.000000,0.865227,0.161646,0.000000,1.000000,0.584805,0.757664,0.034504,0.000000,151.826417,1.279751,35.293622,1.000000,7.338367,1.994804,6.807192,2.000000,276.414695,0.860522,9.000000,1.000000,117.376107,7.697806,1.310533,0.000000,1
/home/daniel/Projects/ppsevolution/data/maps/custom_maps/Custom_5_Run_0_Map.csv,squared_error,4.7736252045417765e-06,0.5030,0.3592,0.261802,1.000000,0.202672,1.000000,0.075784,0.000000,0.602999,1.000000,0.762881,0.158036,0.110285,1.000000,0.708069,1.000000,0.172800,0.000000,170.815386,1.330000,37.576779,1.000000,16.080979,0.500000,6.426995,1.000000,258.504234,0.858500,24.550249,1.000000,141.905690,10.000000,2.555201,0.000000,2
/home/daniel/Projects/ppsevolution/data/maps/custom_maps/Custom_5_Run_0_Map.csv,squared_error,1.1157655369871639e-07,0.4997,0.3604,0.371629,1.000000,0.160120,1.000000,0.068972,0.012970,1.000000,1.000000,0.922434,0.000000,0.022344,1.000000,0.694328,0.924695,0.135251,2.000000,190.035074,1.330000,31.576909,1.000000,14.725441,0.623213,10.000000,1.000000,286.426013,0.770000,12.150498,1.000000,139.171224,9.284605,2.217261,2.000000,3
/home/daniel/Projects/ppsevolution/data/maps/custom_maps/Custom_5_Run_0_Map.csv,squared_error,2.2318186580179787e-07,0.4995,0.3605,0.185610,0.811460,0.377710,1.000000,0.182250,0.319490,0.627431,0.000000,1.000000,0.000000,0.170367,0.978718,0.864274,0.765021,0.023835,2.000000,157.481834,1.224417,62.257144,1.000000,37.267745,3.535151,6.646881,0.000000,300.000000,0.770000,33.021782,0.978718,172.990471,7.767696,1.214516,2.000000,4
/home/daniel/Projects/ppsevolution/data/maps/custom_maps/Custom_5_Run_0_Map.csv,squared_error,4.586178408092658e-06,0.5026,0.3584,0.159860,1.000000,0.608956,0.914063,0.345576,0.000000,0.610594,1.000000,0.690417,0.278405,0.223503,0.930137,1.000000,0.844306,0.092921,1.000000,152.975522,1.330000,94.862734,0.914063,69.769577,0.500000,6.495345,1.000000,245.822916,0.925907,40.513988,0.930137,200.000000,8.520902,1.836290,1.000000,5
/home/daniel/Projects/ppsevolution/data/maps/custom_maps/Custom_5_Run_0_Map.csv,squared_error,9.528282632722277e-07,0.4998,0.3614,0.247775,0.983586,0.247217,1.000000,0.856788,0.064825,0.863724,1.000000,0.920358,0.108964,0.000000,1.000000,0.866024,0.895267,0.060316,1.000000,168.360640,1.320808,43.857591,1.000000,171.500722,1.115834,8.773515,1.000000,286.062578,0.831020,9.000000,1.000000,173.338741,9.005037,1.542847,1.000000,6
/home/daniel/Projects/ppsevolution/data/maps/custom_maps/Custom_5_Run_0_Map.csv,squared_error,1.9753478957014783e-07,0.4996,0.3605,0.497763,0.852973,0.189188,1.000000,0.414030,0.255448,0.770242,2.000000,1.000000,0.255476,0.126886,1.000000,1.000000,1.000000,0.000000,2.000000,212.108494,1.247665,35.675552,1.000000,83.392001,2.926751,7.932178,2.000000,300.000000,0.913067,26.890949,1.000000,200.000000,10.000000,1.000000,2.000000,7
/home/daniel/Projects/ppsevolution/data/maps/custom_maps/Custom_5_Run_0_Map.csv,squared_error,3.952624598070893e-07,0.4996,0.3592,0.244442,0.815509,0.280663,1.000000,0.142039,0.391279,0.881636,0.000000,0.914898,0.119735,0.000000,1.000000,0.742265,1.000000,0.163244,2.000000,167.777384,1.226685,48.573491,1.000000,29.265663,4.217154,8.934722,0.000000,285.107185,0.837052,9.000000,1.000000,148.710728,10.000000,2.469198,2.000000,8
/home/daniel/Projects/ppsevolution/data/maps/custom_maps/Custom_5_Run_0_Map.csv,squared_error,1.5528758554552404e-06,0.5014,0.3610,0.071520,1.000000,0.178181,1.000000,0.133078,0.034536,1.000000,2.000000,0.960546,0.000000,0.000000,0.986757,0.711080,0.979099,0.032312,0.000000,137.516061,1.330000,34.123577,1.000000,27.482465,0.828095,10.000000,2.000000,293.095495,0.770000,9.000000,0.986757,142.504931,9.801440,1.290806,0.000000,9
map,fitness,fitness value,team0ratio,time,HP,Speed,Damage,Acc,ClipSize,RateOfFire,NrBullets,Range,HP,Speed,Damage,Acc,ClipSize,RateOfFire,NrBullets,Range,HP,Speed,Damage,Acc,ClipSize,RateOfFire,NrBullets,Range,HP,Speed,Damage,Acc,ClipSize,RateOfFire,NrBullets,Range,Run,target team0ratio: 0.5,target time: 0.36
/home/daniel/Projects/ppsevolution/data/maps/custom_maps/Custom_6_Run_0_Map.csv,squared_error,0.008165234881548054,0.4728,0.4849,0.089594,0.732778,0.000000,1.000000,0.079842,0.017170,0.067528,2.000000,1.000000,0.094117,1.000000,0.901740,1.000000,1.000000,1.000000,2.000000,140.678921,1.180355,9.000000,1.000000,16.888602,0.663116,1.607748,2.000000,300.000000,0.822705,150.000000,0.901740,200.000000,10.000000,10.000000,2.000000,0
/home/daniel/Projects/ppsevolution/data/maps/custom_maps/Custom_6_Run_0_Map.csv,squared_error,0.008192517931152457,0.4682,0.4840,0.084334,1.000000,0.000000,1.000000,0.002957,0.172130,0.221021,2.000000,1.000000,0.000000,0.948640,0.909281,0.874303,1.000000,1.000000,2.000000,139.758502,1.330000,9.000000,1.000000,1.588508,2.135240,2.989188,2.000000,300.000000,0.770000,142.758310,0.909281,174.986219,10.000000,10.000000,2.000000,1
/home/daniel/Projects/ppsevolution/data/maps/custom_maps/Custom_6_Run_0_Map.csv,squared_error,0.008519355181243957,0.4643,0.4856,0.000000,1.000000,0.000000,1.000000,0.012664,0.322147,0.876863,2.000000,1.000000,0.253868,0.944503,0.898814,0.852852,1.000000,0.766939,2.000000,125.000000,1.330000,9.000000,1.000000,3.520055,3.560399,8.891771,2.000000,300.000000,0.912166,142.174924,0.898814,170.717453,10.000000,7.902454,2.000000,2
/home/daniel/Projects/ppsevolution/data/maps/custom_maps/Custom_6_Run_0_Map.csv,squared_error,0.00845061403957947,0.4614,0.4841,0.174491,0.903052,0.000000,1.000000,0.063815,0.219299,0.787151,2.000000,1.000000,0.088685,1.000000,0.914349,0.881728,0.894079,0.902435,2.000000,155.535874,1.275709,9.000000,1.000000,13.699165,2.583345,8.084363,2.000000,300.000000,0.819664,150.000000,0.914349,176.463898,8.993754,9.121918,2.000000,3
/home/daniel/Projects/ppsevolution/data/maps/custom_maps/Custom_6_Run_0_Map.csv,squared_error,0.009031567707029883,0.4507,0.4850,0.000000,0.511150,0.016308,1.000000,0.088513,0.337588,0.658761,2.000000,1.000000,0.219167,0.883913,0.915963,0.970961,0.768578,0.839077,2.000000,125.000000,1.056244,11.299385,1.000000,18.614138,3.707085,6.928853,2.000000,300.000000,0.892733,133.631759,0.915963,194.221200,7.801487,8.551694,2.000000,4
/home/daniel/Projects/ppsevolution/data/maps/custom_maps/Custom_6_Run_0_Map.csv,squared_error,0.008949661587220967,0.4720,0.4908,0.066498,1.000000,0.000000,1.000000,0.015646,0.000000,0.301639,2.000000,0.948682,0.332395,0.941692,0.908763,0.991994,1.000000,0.189919,2.000000,136.637097,1.330000,9.000000,1.000000,4.113589,0.500000,3.714749,2.000000,291.019368,0.956141,141.778510,0.908763,198.406797,10.000000,2.709268,2.000000,5
/home/daniel/Projects/ppsevolution/data/maps/custom_maps/Custom_6_Run_0_Map.csv,squared_error,0.009058114224365761,0.4593,0.4883,0.000000,0.803405,0.000000,1.000000,0.119415,0.025635,0.736922,2.000000,1.000000,0.255796,0.848865,0.910634,1.000000,0.917042,0.329485,2.000000,125.000000,1.219907,9.000000,1.000000,24.763534,0.743532,7.632302,2.000000,300.000000,0.913246,128.690033,0.910634,200.000000,9.211901,3.965363,2.000000,6
/home/daniel/Projects/ppsevolution/data/maps/custom_maps/Custom_6_Run_0_Map.csv,squared_error,0.008740282601328421,0.4656,0.4876,0.077284,0.946709,0.000000,1.000000,0.108319,0.038357,0.592603,2.000000,1.000000,0.254256,0.903677,0.910496,0.711770,0.910931,0.654065,2.000000,138.524661,1.300157,9.000000,1.000000,22.555512,0.864389,6.333425,2.000000,300.000000,0.912383,136.418398,0.910496,142.642296,9.153841,6.886587,2.000000,7
/home/daniel/Projects/ppsevolution/data/maps/custom_maps/Custom_6_Run_0_Map.csv,squared_error,0.00819730893169291,0.4572,0.4807,0.000000,0.976024,0.000000,1.000000,0.000000,0.099928,0.998674,2.000000,1.000000,0.091637,1.000000,0.901641,0.864008,1.000000,0.981212,2.000000,125.000000,1.316573,9.000000,1.000000,1.000000,1.449315,9.988064,2.000000,300.000000,0.821317,150.000000,0.901641,172.937607,10.000000,9.830904,2.000000,8
/home/daniel/Projects/ppsevolution/data/maps/custom_maps/Custom_6_Run_0_Map.csv,squared_error,0.00827968760627346,0.4737,0.4860,0.188444,0.640956,0.000000,1.000000,0.003224,0.000000,0.584098,2.000000,1.000000,0.814156,0.927252,0.918385,0.979702,1.000000,0.940502,2.000000,157.977713,1.128936,9.000000,1.000000,1.641505,0.500000,6.256886,2.000000,300.000000,1.225927,139.742557,0.918385,195.960609,10.000000,9.464516,2.000000,9
map,fitness,fitness value,team0ratio,time,HP,Speed,Damage,Acc,ClipSize,RateOfFire,NrBullets,Range,HP,Speed,Damage,Acc,ClipSize,RateOfFire,NrBullets,Range,HP,Speed,Damage,Acc,ClipSize,RateOfFire,NrBullets,Range,HP,Speed,Damage,Acc,ClipSize,RateOfFire,NrBullets,Range,Run,target team0ratio: 0.5,target time: 0.36
/home/daniel/Projects/ppsevolution/data/maps/custom_maps/Custom_7_Run_0_Map.csv,squared_error,2.528128410752068e-07,0.4994,0.3596,0.000000,0.714163,0.172629,1.000000,0.022662,0.280966,0.996958,1.000000,0.755266,0.000000,0.140693,0.980806,0.921486,1.000000,0.000000,0.000000,125.000000,1.169931,33.340638,1.000000,5.509837,3.169175,9.972624,1.000000,257.171531,0.770000,28.837738,0.980806,184.375712,10.000000,1.000000,0.000000,0
/home/daniel/Projects/ppsevolution/data/maps/custom_maps/Custom_7_Run_0_Map.csv,squared_error,1.0979638964194476e-06,0.5006,0.3614,0.116109,1.000000,0.202052,1.000000,0.186656,0.357167,0.661386,1.000000,0.871195,0.312853,0.000000,1.000000,0.603526,0.912918,0.070862,2.000000,145.319042,1.330000,37.489307,1.000000,38.144498,3.893090,6.952471,1.000000,277.459174,0.945198,9.000000,1.000000,121.101585,9.172721,1.637759,2.000000,1
/home/daniel/Projects/ppsevolution/data/maps/custom_maps/Custom_7_Run_0_Map.csv,squared_error,3.0867958384491574e-07,0.5003,0.3607,0.000000,0.681709,0.232583,1.000000,0.207247,0.306062,0.675717,2.000000,1.000000,0.071372,0.108584,0.978540,0.942713,0.673505,0.064332,0.000000,125.000000,1.151757,41.794166,1.000000,42.242061,3.407592,7.081455,2.000000,300.000000,0.809968,24.310334,0.978540,188.599947,6.898293,1.578985,0.000000,2
/home/daniel/Projects/ppsevolution/data/maps/custom_maps/Custom_7_Run_0_Map.csv,squared_error,1.3713037002390203e-07,0.4996,0.3604,0.420658,0.934457,0.062144,1.000000,0.000000,0.095826,1.000000,1.000000,0.811097,0.042641,0.075925,1.000000,0.593252,0.632975,0.370040,2.000000,198.615100,1.293296,17.762262,1.000000,1.000000,1.410351,10.000000,1.000000,266.942029,0.793879,19.705384,1.000000,119.057185,6.513260,4.330356,2.000000,3
/home/daniel/Projects/ppsevolution/data/maps/custom_maps/Custom_7_Run_0_Map.csv,squared_error,1.4441643472686592e-06,0.4992,0.3615,0.196019,0.800172,0.238304,1.000000,0.278298,0.442886,0.820489,0.000000,0.855430,0.053426,0.457791,0.952684,0.416401,1.000000,0.000000,0.000000,159.303331,1.218096,42.600916,1.000000,56.381352,4.707414,8.384398,0.000000,274.700179,0.799919,73.548535,0.952684,83.863748,10.000000,1.000000,0.000000,4
/home/daniel/Projects/ppsevolution/data/maps/custom_maps/Custom_7_Run_0_Map.csv,squared_error,6.585314007480602e-07,0.5004,0.3589,0.000000,0.624306,0.261828,1.000000,0.024888,0.172850,0.972725,0.000000,0.700615,0.063581,0.034911,1.000000,0.677617,0.986292,0.053442,1.000000,125.000000,1.119612,45.917807,1.000000,5.952787,2.142078,9.754527,0.000000,247.607557,0.805605,13.922513,1.000000,135.845833,9.869772,1.480979,1.000000,5
/home/daniel/Projects/ppsevolution/data/maps/custom_maps/Custom_7_Run_0_Map.csv,squared_error,1.0694626429376804e-06,0.4985,0.3601,0.116259,0.857136,0.158362,1.000000,0.309410,0.000000,0.870087,2.000000,0.914708,0.173471,0.000000,1.000000,1.000000,0.718851,0.216007,1.000000,145.345408,1.249996,31.329111,1.000000,62.572649,0.500000,8.830787,2.000000,285.073831,0.867144,9.000000,1.000000,200.000000,7.329081,2.944065,1.000000,6
/home/daniel/Projects/ppsevolution/data/maps/custom_maps/Custom_7_Run_0_Map.csv,squared_error,6.470294237772223e-07,0.5009,0.3608,0.152440,1.000000,0.243835,1.000000,0.095169,0.000000,0.852124,1.000000,1.000000,0.382371,0.016837,1.000000,0.981745,0.766424,0.711764,0.000000,151.676930,1.330000,43.380675,1.000000,19.938704,0.500000,8.669116,1.000000,300.000000,0.984128,11.373992,1.000000,196.367270,7.781030,7.405879,0.000000,7
/home/daniel/Projects/ppsevolution/data/maps/custom_maps/Custom_7_Run_0_Map.csv,squared_error,7.427172906695032e-07,0.4988,0.3600,0.505692,0.705076,0.298445,0.984531,0.000000,0.248449,0.717860,0.000000,0.536469,0.185413,0.351735,0.995050,0.843498,0.559515,0.473375,1.000000,213.496171,1.164842,51.080793,0.984531,1.000000,2.860267,7.460736,0.000000,218.882053,0.873831,58.594605,0.995050,168.856110,5.815388,5.260377,1.000000,8
/home/daniel/Projects/ppsevolution/data/maps/custom_maps/Custom_7_Run_0_Map.csv,squared_error,1.2402074428365555e-06,0.5015,0.3604,0.262692,0.916081,0.192582,1.000000,0.149487,0.000000,0.975436,1.000000,0.814760,0.177427,0.081569,1.000000,0.879902,0.610505,0.291155,1.000000,170.971129,1.283005,36.154027,1.000000,30.747952,0.500000,9.778925,1.000000,267.582941,0.869359,20.501233,1.000000,176.100420,6.299799,3.620397,1.000000,9
map,fitness,fitness value,team0ratio,time,HP,Speed,Damage,Acc,ClipSize,RateOfFire,NrBullets,Range,HP,Speed,Damage,Acc,ClipSize,RateOfFire,NrBullets,Range,HP,Speed,Damage,Acc,ClipSize,RateOfFire,NrBullets,Range,HP,Speed,Damage,Acc,ClipSize,RateOfFire,NrBullets,Range,Run,target team0ratio: 0.5,target time: 0.36
/home/daniel/Projects/ppsevolution/data/maps/custom_maps/Custom_8_Run_0_Map.csv,squared_error,2.3881518755004173e-07,0.5006,0.3597,0.000000,1.000000,0.283030,0.795984,0.051947,0.147932,0.757607,2.000000,0.990131,0.011750,0.013112,0.732275,0.915506,1.000000,0.000000,0.000000,125.000000,1.330000,48.907175,0.795984,11.337510,1.905351,7.818459,2.000000,298.272979,0.776580,10.848815,0.732275,183.185673,10.000000,1.000000,0.000000,0
/home/daniel/Projects/ppsevolution/data/maps/custom_maps/Custom_8_Run_0_Map.csv,squared_error,2.9446982199089874e-06,0.4986,0.3580,0.115132,1.000000,0.256389,0.826263,0.000000,0.026700,0.904669,0.000000,1.000000,0.000000,0.000000,0.772236,1.000000,1.000000,0.040058,0.000000,145.148170,1.330000,45.150813,0.826263,1.000000,0.753652,9.142024,0.000000,300.000000,0.770000,9.000000,0.772236,200.000000,10.000000,1.360523,0.000000,1
/home/daniel/Projects/ppsevolution/data/maps/custom_maps/Custom_8_Run_0_Map.csv,squared_error,8.294225984741545e-07,0.4995,0.3612,0.098554,0.773937,0.427100,0.719218,0.332518,0.260668,0.773986,0.000000,0.764416,0.325272,0.006824,0.747649,0.970812,0.927798,0.190741,1.000000,142.246884,1.203405,69.221154,0.719218,67.171157,2.976350,7.965877,0.000000,258.772882,0.952152,9.962170,0.747649,194.191568,9.314077,2.716667,1.000000,2
/home/daniel/Projects/ppsevolution/data/maps/custom_maps/Custom_8_Run_0_Map.csv,squared_error,9.282662864109235e-07,0.4987,0.3605,0.081706,0.838785,0.486648,0.723839,0.067358,0.000000,0.949410,0.000000,1.000000,0.084767,0.033405,0.723860,0.648317,0.673740,0.000000,2.000000,139.298535,1.239720,77.617358,0.723839,14.404287,0.500000,9.544686,0.000000,300.000000,0.817470,13.710123,0.723860,130.015152,6.900531,1.000000,2.000000,3
/home/daniel/Projects/ppsevolution/data/maps/custom_maps/Custom_8_Run_0_Map.csv,squared_error,1.2784825253000262e-06,0.5006,0.3615,0.063336,0.969510,0.231770,0.790460,0.139747,0.073654,1.000000,1.000000,0.906210,0.000000,0.163085,0.673434,0.845961,0.959292,0.000000,1.000000,136.083717,1.312925,41.679537,0.790460,28.809652,1.199709,10.000000,1.000000,283.586735,0.770000,31.994980,0.673434,169.346188,9.613273,1.000000,1.000000,4
/home/daniel/Projects/ppsevolution/data/maps/custom_maps/Custom_8_Run_0_Map.csv,squared_error,2.8684107997946603e-06,0.4978,0.3590,0.023320,0.781895,0.163622,0.823441,0.000000,0.000000,0.875025,2.000000,1.000000,0.170583,0.000000,0.729903,0.955281,0.855484,0.000000,2.000000,129.080987,1.207861,32.070734,0.823441,1.000000,0.500000,8.875227,2.000000,300.000000,0.865526,9.000000,0.729903,191.100915,8.627103,1.000000,2.000000,5
/home/daniel/Projects/ppsevolution/data/maps/custom_maps/Custom_8_Run_0_Map.csv,squared_error,5.69747547712684e-06,0.5017,0.3629,0.284266,0.663791,0.179451,0.819375,0.137746,0.000000,1.000000,1.000000,1.000000,0.000000,0.257264,0.679228,0.796695,1.000000,0.136509,0.000000,174.746471,1.141723,34.302587,0.819375,28.411369,0.500000,10.000000,1.000000,300.000000,0.770000,45.274273,0.679228,159.542209,10.000000,2.228580,0.000000,6
/home/daniel/Projects/ppsevolution/data/maps/custom_maps/Custom_8_Run_0_Map.csv,squared_error,2.1462170848309288e-06,0.5020,0.3594,0.000140,1.000000,0.210000,0.805807,0.118046,0.000000,1.000000,1.000000,0.956917,0.014007,0.000000,0.723502,0.940639,1.000000,0.000000,2.000000,125.024418,1.330000,38.610000,0.805807,24.491096,0.500000,10.000000,1.000000,292.460548,0.777844,9.000000,0.723502,188.187257,10.000000,1.000000,2.000000,7
/home/daniel/Projects/ppsevolution/data/maps/custom_maps/Custom_8_Run_0_Map.csv,squared_error,6.07548887143774e-06,0.5011,0.3567,0.000000,1.000000,0.272759,0.757881,0.441398,0.137826,0.947595,1.000000,0.717946,0.103766,0.040282,0.718647,0.986549,0.709771,0.088618,1.000000,125.000000,1.330000,47.459056,0.757881,88.838240,1.809343,9.528352,1.000000,250.640521,0.828109,14.679706,0.718647,197.323159,7.242825,1.797558,1.000000,8
/home/daniel/Projects/ppsevolution/data/maps/custom_maps/Custom_8_Run_0_Map.csv,squared_error,5.50919571421744e-06,0.5033,0.3599,0.156055,0.682959,0.215900,0.806598,0.022491,0.000000,0.999235,2.000000,1.000000,0.233734,0.088597,0.720949,0.981324,1.000000,0.000000,0.000000,152.309552,1.152457,39.441922,0.806598,5.475611,0.500000,9.993115,2.000000,300.000000,0.900891,21.492218,0.720949,196.283515,10.000000,1.000000,0.000000,9
map,fitness,fitness value,team0ratio,time,HP,Speed,Damage,Acc,ClipSize,RateOfFire,NrBullets,Range,HP,Speed,Damage,Acc,ClipSize,RateOfFire,NrBullets,Range,HP,Speed,Damage,Acc,ClipSize,RateOfFire,NrBullets,Range,HP,Speed,Damage,Acc,ClipSize,RateOfFire,NrBullets,Range,Run,target team0ratio: 0.5,target time: 0.36
/home/daniel/Projects/ppsevolution/data/maps/custom_maps/Custom_9_Run_0_Map.csv,squared_error,1.517463892497987e-09,0.5000,0.3600,0.333747,1.000000,0.087838,0.736359,0.092184,0.152714,1.000000,2.000000,0.862727,0.000000,0.080073,0.677177,0.976734,0.695418,0.000000,0.000000,183.405644,1.330000,21.385225,0.736359,19.344547,1.950782,10.000000,2.000000,275.977260,0.770000,20.290297,0.677177,195.370141,7.106471,1.000000,0.000000,0
/home/daniel/Projects/ppsevolution/data/maps/custom_maps/Custom_9_Run_0_Map.csv,squared_error,3.5768256301266726e-07,0.4993,0.3595,0.002797,0.968526,0.269641,0.688835,0.055405,0.229470,0.871920,1.000000,0.895585,0.003740,0.000000,0.659460,0.966847,0.866447,0.000000,0.000000,125.489550,1.312374,47.019330,0.688835,12.025684,2.679963,8.847282,1.000000,281.727293,0.772094,9.000000,0.659460,193.402611,8.731250,1.000000,0.000000,1
/home/daniel/Projects/ppsevolution/data/maps/custom_maps/Custom_9_Run_0_Map.csv,squared_error,5.490600819206998e-06,0.5033,0.3596,0.000000,1.000000,0.205486,0.730401,0.157763,0.000000,1.000000,1.000000,1.000000,0.145608,0.097331,0.602765,1.000000,1.000000,0.000000,0.000000,125.000000,1.330000,37.973579,0.730401,32.394782,0.500000,10.000000,1.000000,300.000000,0.851540,22.723647,0.602765,200.000000,10.000000,1.000000,0.000000,2
/home/daniel/Projects/ppsevolution/data/maps/custom_maps/Custom_9_Run_0_Map.csv,squared_error,1.2268660984662491e-05,0.4956,0.3623,0.000000,1.000000,0.379171,0.628377,0.021970,0.000000,0.993224,1.000000,1.000000,0.000000,0.046884,0.600000,0.945111,0.713277,0.135582,2.000000,125.000000,1.330000,62.463163,0.628377,5.372101,0.500000,9.939016,1.000000,300.000000,0.770000,15.610659,0.600000,189.077180,7.276128,2.220242,2.000000,3
/home/daniel/Projects/ppsevolution/data/maps/custom_maps/Custom_9_Run_0_Map.csv,squared_error,1.81018166960383e-06,0.4988,0.3585,0.280729,0.816836,0.055697,0.808992,0.271983,0.000000,0.685490,0.000000,1.000000,0.320734,0.157201,0.657523,0.953639,0.810894,0.274551,1.000000,174.127527,1.227428,16.853335,0.808992,55.124652,0.500000,7.169412,0.000000,300.000000,0.949611,31.165335,0.657523,190.774139,8.203490,3.470960,1.000000,4
/home/daniel/Projects/ppsevolution/data/maps/custom_maps/Custom_9_Run_0_Map.csv,squared_error,5.0360886890878685e-06,0.4972,0.3616,0.084574,0.820713,0.329005,0.643904,0.031475,0.259691,0.801817,0.000000,0.767922,0.000000,0.000000,0.685791,0.995177,0.832024,0.000000,0.000000,139.800495,1.229599,55.389727,0.643904,7.263579,2.967062,8.216357,0.000000,259.386327,0.770000,9.000000,0.685791,199.040262,8.404231,1.000000,0.000000,5
/home/daniel/Projects/ppsevolution/data/maps/custom_maps/Custom_9_Run_0_Map.csv,squared_error,3.1435807570292796e-05,0.5025,0.3675,0.000000,1.000000,0.345063,0.644163,0.000000,0.375203,0.799289,2.000000,1.000000,0.000000,0.066570,0.588469,0.730258,0.841442,0.000000,1.000000,125.000000,1.330000,57.653869,0.644163,1.000000,4.064431,8.193599,2.000000,300.000000,0.770000,18.386370,0.588469,146.321254,8.493700,1.000000,1.000000,6
/home/daniel/Projects/ppsevolution/data/maps/custom_maps/Custom_9_Run_0_Map.csv,squared_error,1.1411060984584653e-07,0.5002,0.3596,0.006993,0.759681,0.452987,0.618447,0.000000,0.000000,0.925346,1.000000,1.000000,0.009381,0.000000,0.657988,0.997593,0.966547,0.000000,0.000000,126.223724,1.195421,72.871185,0.618447,1.000000,0.500000,9.328117,1.000000,300.000000,0.775253,9.000000,0.657988,199.521033,9.682193,1.000000,0.000000,7
/home/daniel/Projects/ppsevolution/data/maps/custom_maps/Custom_9_Run_0_Map.csv,squared_error,1.6825091940610428e-06,0.5016,0.3591,0.137316,1.000000,0.315911,0.674550,0.098275,0.244489,0.994679,1.000000,1.000000,0.066267,0.047560,0.644037,0.916763,1.000000,0.217164,0.000000,149.030338,1.330000,53.543388,0.674550,20.556682,2.822647,9.952114,1.000000,300.000000,0.807110,15.706003,0.644037,183.435826,10.000000,2.954477,0.000000,8
/home/daniel/Projects/ppsevolution/data/maps/custom_maps/Custom_9_Run_0_Map.csv,squared_error,6.6453160177061465e-06,0.4991,0.3565,0.095517,0.939435,0.315066,0.658868,0.000000,0.091017,1.000000,2.000000,0.952619,0.055818,0.137032,0.602195,0.981254,1.000000,0.012768,0.000000,141.715487,1.296084,53.424323,0.658868,1.000000,1.364665,10.000000,2.000000,291.708393,0.801258,28.321489,0.602195,196.269603,10.000000,1.114913,0.000000,9
map,fitness,fitness value,team0ratio,time,HP,Speed,Damage,Acc,ClipSize,RateOfFire,NrBullets,Range,HP,Speed,Damage,Acc,ClipSize,RateOfFire,NrBullets,Range,HP,Speed,Damage,Acc,ClipSize,RateOfFire,NrBullets,Range,HP,Speed,Damage,Acc,ClipSize,RateOfFire,NrBullets,Range,Run,target team0ratio: 0.5,target time: 0.36
/home/daniel/Projects/ppsevolution/data/maps/custom_maps/Custom_10_Run_0_Map.csv,squared_error,1.831519557128948e-07,0.5004,0.3595,0.061516,0.930404,0.724840,1.000000,0.170377,0.000000,0.748559,2.000000,0.281295,0.239112,0.980383,1.000000,0.805012,0.142918,0.523804,2.000000,135.765344,1.291026,111.202441,1.000000,34.904924,0.500000,7.737027,2.000000,174.226570,0.903903,147.234021,1.000000,161.197475,1.857720,5.714237,2.000000,0
/home/daniel/Projects/ppsevolution/data/maps/custom_maps/Custom_10_Run_0_Map.csv,squared_error,3.991776947987129e-06,0.5002,0.3628,0.052774,0.771844,0.858374,1.000000,0.043563,0.310532,0.925998,2.000000,0.785152,0.000000,0.592108,1.000000,1.000000,0.278615,0.905172,2.000000,134.235495,1.202232,130.030732,1.000000,9.669040,3.450052,9.333978,2.000000,262.401668,0.770000,92.487295,1.000000,200.000000,3.146843,9.146552,2.000000,1
/home/daniel/Projects/ppsevolution/data/maps/custom_maps/Custom_10_Run_0_Map.csv,squared_error,2.6499079980226554e-06,0.5009,0.3621,0.000000,0.759076,0.970198,0.995841,0.086673,0.380271,0.941921,2.000000,0.777226,0.172881,0.635214,1.000000,0.743325,0.284760,0.611730,0.000000,125.000000,1.195083,145.797874,0.995841,18.247979,4.112573,9.477285,2.000000,261.014588,0.866813,98.565143,1.000000,148.921607,3.205225,6.505570,0.000000,2
/home/daniel/Projects/ppsevolution/data/maps/custom_maps/Custom_10_Run_0_Map.csv,squared_error,2.4652668285014463e-07,0.5007,0.3599,0.053826,0.167992,1.000000,1.000000,0.086662,0.674091,1.000000,2.000000,0.729510,0.000000,1.000000,1.000000,0.968543,0.707342,0.217549,0.000000,134.419564,0.864075,150.000000,1.000000,18.245834,6.903860,10.000000,2.000000,252.664276,0.770000,150.000000,1.000000,193.740119,7.219745,2.957944,0.000000,3
/home/daniel/Projects/ppsevolution/data/maps/custom_maps/Custom_10_Run_0_Map.csv,squared_error,5.529467974476299e-07,0.5005,0.3609,0.000000,0.747288,0.864725,0.979622,0.000000,0.000000,1.000000,2.000000,0.310829,0.007010,0.934652,0.992294,1.000000,1.000000,0.141078,0.000000,125.000000,1.188481,130.926294,0.979622,1.000000,0.500000,10.000000,2.000000,179.395060,0.773925,140.785924,0.992294,200.000000,10.000000,2.269704,0.000000,4
/home/daniel/Projects/ppsevolution/data/maps/custom_maps/Custom_10_Run_0_Map.csv,squared_error,2.5784164652083155e-05,0.4983,0.3670,0.007213,0.990918,1.000000,1.000000,0.349826,0.209431,0.978606,2.000000,0.932417,0.062293,0.633421,1.000000,1.000000,0.808458,0.000000,2.000000,126.262188,1.324914,150.000000,1.000000,70.615321,2.489596,9.807452,2.000000,288.172900,0.804884,98.312412,1.000000,200.000000,8.180353,1.000000,2.000000,5
/home/daniel/Projects/ppsevolution/data/maps/custom_maps/Custom_10_Run_0_Map.csv,squared_error,6.124437333944992e-07,0.4996,0.3610,0.000000,0.818442,1.000000,0.992016,0.734492,0.190229,0.949941,2.000000,0.627938,0.000000,1.000000,1.000000,1.000000,0.855568,0.259043,0.000000,125.000000,1.228327,150.000000,0.992016,147.163903,2.307179,9.549467,2.000000,234.889155,0.770000,150.000000,1.000000,200.000000,8.627897,3.331389,0.000000,6
/home/daniel/Projects/ppsevolution/data/maps/custom_maps/Custom_10_Run_0_Map.csv,squared_error,4.796489428173458e-07,0.4995,0.3609,0.024785,0.946538,0.954930,1.000000,0.166378,0.226474,1.000000,2.000000,0.834600,0.372529,0.824770,1.000000,0.839527,0.509861,0.856505,1.000000,129.337426,1.300061,143.645119,1.000000,34.109180,2.651501,10.000000,2.000000,271.055044,0.978616,125.292635,1.000000,168.065926,5.343675,8.708543,1.000000,7
/home/daniel/Projects/ppsevolution/data/maps/custom_maps/Custom_10_Run_0_Map.csv,squared_error,2.3581538748153894e-06,0.5017,0.3613,0.127947,0.654494,0.811344,1.000000,0.000000,0.447364,0.886435,1.000000,0.328919,0.000000,0.983778,1.000000,0.544975,0.437749,0.558166,2.000000,147.390772,1.136517,123.399512,1.000000,1.000000,4.749958,8.977919,1.000000,182.560855,0.770000,147.712651,1.000000,109.450040,4.658619,6.023494,2.000000,8
/home/daniel/Projects/ppsevolution/data/maps/custom_maps/Custom_10_Run_0_Map.csv,squared_error,8.57507840159114e-08,0.5003,0.3598,0.084797,0.833775,0.620420,0.995126,0.039351,0.117984,1.000000,2.000000,0.239675,0.771640,0.837783,1.000000,0.870620,0.569162,0.955198,1.000000,139.839504,1.236914,96.479243,0.995126,8.830785,1.620850,10.000000,2.000000,166.943209,1.202119,127.127462,1.000000,174.253308,5.907043,9.596784,1.000000,9
