map,fitness,fitness value,team0ratio,time,HP,Speed,Damage,Acc,ClipSize,RateOfFire,NrBullets,Range,HP,Speed,Damage,Acc,ClipSize,RateOfFire,NrBullets,Range,HP,Speed,Damage,Acc,ClipSize,RateOfFire,NrBullets,Range,HP,Speed,Damage,Acc,ClipSize,RateOfFire,NrBullets,Range,Run,target team0ratio: 0.5,target time: 0.36
/home/daniel/Projects/ppsevolution/data/maps/custom_maps/Custom_1_Run_0_Map.csv,squared_error,2.9034713950217263e-06,0.5022,0.3590,0.022157,1.000000,0.154053,0.707630,0.000000,0.000000,0.905685,0.000000,1.000000,0.311065,0.000000,0.600000,1.000000,1.000000,0.000000,1.000000,128.877416,1.330000,30.721404,0.707630,1.000000,0.500000,9.151163,0.000000,300.000000,0.944196,9.000000,0.600000,200.000000,10.000000,1.000000,1.000000,0
/home/daniel/Projects/ppsevolution/data/maps/custom_maps/Custom_1_Run_0_Map.csv,squared_error,3.9118747405381957e-07,0.4991,0.3598,0.000000,0.751714,0.300648,0.557205,0.007405,0.030000,0.834028,1.000000,0.783036,0.000000,0.062469,0.549184,1.000000,0.982020,0.170979,0.000000,125.000000,1.190960,51.391373,0.557205,2.473586,0.785000,8.506253,1.000000,262.031324,0.770000,17.808164,0.549184,200.000000,9.829187,2.538807,0.000000,1
/home/daniel/Projects/ppsevolution/data/maps/custom_maps/Custom_1_Run_0_Map.csv,squared_error,2.6249081316677703e-06,0.5022,0.3593,0.086166,0.996461,0.210000,0.652682,0.474494,0.000000,0.975074,2.000000,0.987646,0.502470,0.000000,0.600000,1.000000,0.775600,0.062019,0.000000,140.078983,1.328018,38.610000,0.652682,95.424382,0.500000,9.775670,2.000000,297.838062,1.051383,9.000000,0.600000,200.000000,7.868196,1.558171,0.000000,2
/home/daniel/Projects/ppsevolution/data/maps/custom_maps/Custom_1_Run_0_Map.csv,squared_error,2.1752992266812264e-06,0.4987,0.3616,0.023310,1.000000,0.055665,0.725216,0.059819,0.081639,1.000000,1.000000,0.926937,0.106729,0.055006,0.566008,0.869271,0.794765,0.000000,0.000000,129.079313,1.330000,16.848789,0.725216,12.903913,1.275575,10.000000,1.000000,287.213953,0.829769,16.755895,0.566008,173.984961,8.050263,1.000000,0.000000,3
/home/daniel/Projects/ppsevolution/data/maps/custom_maps/Custom_1_Run_0_Map.csv,squared_error,6.694708121337114e-07,0.5012,0.3601,0.063143,1.000000,0.438966,0.508936,0.097567,0.000000,0.903904,1.000000,1.000000,0.000000,0.039011,0.573606,0.996253,1.000000,0.000000,1.000000,136.049984,1.330000,70.894275,0.508936,20.415813,0.500000,9.135136,1.000000,300.000000,0.770000,14.500545,0.573606,199.254293,10.000000,1.000000,1.000000,4
/home/daniel/Projects/ppsevolution/data/maps/custom_maps/Custom_1_Run_0_Map.csv,squared_error,2.0543209348318963e-07,0.5003,0.3606,0.207080,0.774839,0.175074,0.629980,0.011100,0.050454,0.937532,0.000000,0.807346,0.000000,0.131894,0.552968,0.935693,0.989500,0.087487,2.000000,161.238939,1.203910,33.685428,0.629980,3.208963,0.979315,9.437791,0.000000,266.285514,0.770000,27.597055,0.552968,187.202969,9.900254,1.787386,2.000000,5
/home/daniel/Projects/ppsevolution/data/maps/custom_maps/Custom_1_Run_0_Map.csv,squared_error,7.771391122225982e-07,0.4995,0.3589,0.000000,0.944931,0.136927,0.710514,0.000000,0.000000,0.898366,1.000000,1.000000,0.061930,0.000000,0.600000,0.956312,1.000000,0.000000,0.000000,125.000000,1.299161,28.306755,0.710514,1.000000,0.500000,9.085292,1.000000,300.000000,0.804681,9.000000,0.600000,191.306115,10.000000,1.000000,0.000000,6
/home/daniel/Projects/ppsevolution/data/maps/custom_maps/Custom_1_Run_0_Map.csv,squared_error,7.163546507228942e-07,0.5008,0.3591,0.000000,0.948172,0.262702,0.625070,0.008723,0.222804,1.000000,1.000000,1.000000,0.000000,0.000000,0.574588,1.000000,1.000000,0.076564,1.000000,125.000000,1.300977,46.040992,0.625070,2.735832,2.616642,10.000000,1.000000,300.000000,0.770000,9.000000,0.574588,200.000000,10.000000,1.689075,1.000000,7
/home/daniel/Projects/ppsevolution/data/maps/custom_maps/Custom_1_Run_0_Map.csv,squared_error,9.506799584137763e-07,0.5002,0.3614,0.000000,1.000000,0.240292,0.619315,0.163641,0.000000,0.826888,1.000000,0.906066,0.000000,0.018746,0.562025,1.000000,0.943315,0.072847,2.000000,125.000000,1.330000,42.881130,0.619315,33.564629,0.500000,8.441991,1.000000,283.561509,0.770000,11.643210,0.562025,200.000000,9.461491,1.655624,2.000000,8
/home/daniel/Projects/ppsevolution/data/maps/custom_maps/Custom_1_Run_0_Map.csv,squared_error,1.6159915434912094e-06,0.5011,0.3614,0.000000,1.000000,0.065851,0.744576,0.018129,0.208740,0.850086,1.000000,1.000000,0.000000,0.000000,0.600000,0.638206,0.787501,0.000000,0.000000,125.000000,1.330000,18.285008,0.744576,4.607585,2.483031,8.650773,1.000000,300.000000,0.770000,9.000000,0.600000,128.003005,7.981257,1.000000,0.000000,9
map,fitness,fitness value,team0ratio,time,HP,Speed,Damage,Acc,ClipSize,RateOfFire,NrBullets,Range,HP,Speed,Damage,Acc,ClipSize,RateOfFire,NrBullets,Range,HP,Speed,Damage,Acc,ClipSize,RateOfFire,NrBullets,Range,HP,Speed,Damage,Acc,ClipSize,RateOfFire,NrBullets,Range,Run,target team0ratio: 0.5,target time: 0.36
/home/daniel/Projects/ppsevolution/data/maps/custom_maps/Custom_2_Run_0_Map.csv,squared_error,0.00042987183142320585,0.4947,0.3888,0.000000,0.835647,0.803249,1.000000,0.000000,0.000000,0.922878,2.000000,0.815116,0.000000,1.000000,1.000000,0.966841,1.000000,1.000000,2.000000,125.000000,1.237962,122.258078,1.000000,1.000000,0.500000,9.305901,2.000000,267.645364,0.770000,150.000000,1.000000,193.401293,10.000000,10.000000,2.000000,0
/home/daniel/Projects/ppsevolution/data/maps/custom_maps/Custom_2_Run_0_Map.csv,squared_error,0.00041789709963022727,0.4932,0.3881,0.004307,1.000000,0.668670,1.000000,0.030438,0.000000,1.000000,2.000000,0.579930,0.149610,1.000000,1.000000,0.910913,0.982295,1.000000,2.000000,125.753810,1.330000,103.282516,1.000000,7.057239,0.500000,10.000000,2.000000,226.487787,0.853781,150.000000,1.000000,182.271606,9.831799,10.000000,2.000000,1
/home/daniel/Projects/ppsevolution/data/maps/custom_maps/Custom_2_Run_0_Map.csv,squared_error,0.00040620167989569077,0.4941,0.3879,0.000000,1.000000,0.620145,1.000000,0.000000,0.000000,1.000000,2.000000,0.476374,0.014529,1.000000,1.000000,1.000000,1.000000,1.000000,2.000000,125.000000,1.330000,96.440443,1.000000,1.000000,0.500000,10.000000,2.000000,208.365535,0.778136,150.000000,1.000000,200.000000,10.000000,10.000000,2.000000,2
/home/daniel/Projects/ppsevolution/data/maps/custom_maps/Custom_2_Run_0_Map.csv,squared_error,0.0004466429204861339,0.4974,0.3898,0.000000,0.983778,0.587422,1.000000,0.327489,0.127066,1.000000,2.000000,0.370876,0.121898,1.000000,1.000000,0.996763,1.000000,1.000000,2.000000,125.000000,1.320916,91.826495,1.000000,66.170296,1.707127,10.000000,2.000000,189.903249,0.838263,150.000000,1.000000,199.355797,10.000000,10.000000,2.000000,3
/home/daniel/Projects/ppsevolution/data/maps/custom_maps/Custom_2_Run_0_Map.csv,squared_error,0.00045670412898100534,0.4922,0.3892,0.046127,0.955446,0.735720,1.000000,0.000000,0.027463,0.859937,2.000000,0.785266,0.125960,1.000000,1.000000,0.900090,1.000000,1.000000,2.000000,133.072188,1.305050,112.736559,1.000000,1.000000,0.760899,8.739429,2.000000,262.421517,0.840538,150.000000,1.000000,180.117944,10.000000,10.000000,2.000000,4
/home/daniel/Projects/ppsevolution/data/maps/custom_maps/Custom_2_Run_0_Map.csv,squared_error,0.0005021580085013749,0.4942,0.3912,0.000000,1.000000,0.695301,1.000000,0.000000,0.718087,1.000000,2.000000,0.518509,0.204757,1.000000,1.000000,0.946592,0.747933,1.000000,2.000000,125.000000,1.330000,107.037377,1.000000,1.000000,7.321825,10.000000,2.000000,215.739015,0.884664,150.000000,1.000000,189.371785,7.605368,10.000000,2.000000,5
/home/daniel/Projects/ppsevolution/data/maps/custom_maps/Custom_2_Run_0_Map.csv,squared_error,0.0004335915060597767,0.4969,0.3893,0.000000,0.885894,0.711336,1.000000,0.176242,0.057972,1.000000,2.000000,0.608596,0.128275,1.000000,1.000000,0.961102,1.000000,1.000000,2.000000,125.000000,1.266101,109.298386,1.000000,36.072129,1.050731,10.000000,2.000000,231.504353,0.841834,150.000000,1.000000,192.259287,10.000000,10.000000,2.000000,6
/home/daniel/Projects/ppsevolution/data/maps/custom_maps/Custom_2_Run_0_Map.csv,squared_error,0.0004767432509819042,0.4982,0.3908,0.012465,1.000000,0.625107,1.000000,0.000000,0.070954,0.926278,2.000000,0.459064,0.315109,1.000000,1.000000,0.671938,1.000000,0.890606,2.000000,127.181342,1.330000,97.140153,1.000000,1.000000,1.174065,9.336503,2.000000,205.336245,0.946461,150.000000,1.000000,134.715593,10.000000,9.015454,2.000000,7
/home/daniel/Projects/ppsevolution/data/maps/custom_maps/Custom_2_Run_0_Map.csv,squared_error,0.0004136890557070633,0.4961,0.3885,0.009869,1.000000,0.779259,1.000000,0.000000,0.000000,0.927647,2.000000,0.793799,0.487839,1.000000,1.000000,0.972387,1.000000,1.000000,2.000000,126.727119,1.330000,118.875462,1.000000,1.000000,0.500000,9.348824,2.000000,263.914823,1.043190,150.000000,1.000000,194.505072,10.000000,10.000000,2.000000,8
/home/daniel/Projects/ppsevolution/data/maps/custom_maps/Custom_2_Run_0_Map.csv,squared_error,0.0004039983228756011,0.4974,0.3883,0.001195,0.972212,0.641012,1.000000,0.000000,0.010986,1.000000,2.000000,0.525298,0.898669,0.988180,1.000000,1.000000,0.984547,1.000000,2.000000,125.209110,1.314439,99.382724,1.000000,1.000000,0.604369,10.000000,2.000000,216.927199,1.273254,148.333335,1.000000,200.000000,9.853197,10.000000,2.000000,9
map,fitness,fitness value,team0ratio,time,HP,Speed,Damage,Acc,ClipSize,RateOfFire,NrBullets,Range,HP,Speed,Damage,Acc,ClipSize,RateOfFire,NrBullets,Range,HP,Speed,Damage,Acc,ClipSize,RateOfFire,NrBullets,Range,HP,Speed,Damage,Acc,ClipSize,RateOfFire,NrBullets,Range,Run,target team0ratio: 0.5,target time: 0.36
/home/daniel/Projects/ppsevolution/data/maps/custom_maps/Custom_3_Run_0_Map.csv,squared_error,0.006126969939421831,0.5078,0.4704,0.000000,1.000000,0.612054,1.000000,0.014134,0.009145,1.000000,2.000000,0.000000,0.089681,1.000000,1.000000,0.899824,0.000000,1.000000,2.000000,125.000000,1.330000,95.299604,1.000000,3.812757,0.586876,10.000000,2.000000,125.000000,0.820221,150.000000,1.000000,180.065009,0.500000,10.000000,2.000000,0
/home/daniel/Projects/ppsevolution/data/maps/custom_maps/Custom_3_Run_0_Map.csv,squared_error,0.006259698910746853,0.5143,0.4710,0.000000,1.000000,0.994521,0.987605,0.000000,0.090313,1.000000,2.000000,0.353729,0.220925,1.000000,1.000000,0.654913,0.000000,1.000000,2.000000,125.000000,1.330000,149.227445,0.987605,1.000000,1.357976,10.000000,2.000000,186.902631,0.893718,150.000000,1.000000,131.327607,0.500000,10.000000,2.000000,1
/home/daniel/Projects/ppsevolution/data/maps/custom_maps/Custom_3_Run_0_Map.csv,squared_error,0.006148978308932606,0.5096,0.4705,0.000000,0.991111,0.815722,0.989261,0.000000,0.250984,0.999608,2.000000,0.124390,0.069844,1.000000,1.000000,1.000000,0.000000,1.000000,2.000000,125.000000,1.325022,124.016820,0.989261,1.000000,2.884349,9.996468,2.000000,146.768280,0.809113,150.000000,1.000000,200.000000,0.500000,10.000000,2.000000,2
/home/daniel/Projects/ppsevolution/data/maps/custom_maps/Custom_3_Run_0_Map.csv,squared_error,0.006289613748086375,0.5082,0.4719,0.000000,0.704420,0.805260,1.000000,0.028725,0.164493,1.000000,2.000000,0.353545,0.234692,1.000000,1.000000,0.946505,0.078632,1.000000,2.000000,125.000000,1.164475,122.541619,1.000000,6.716300,2.062686,10.000000,2.000000,186.870315,0.901427,150.000000,1.000000,189.354534,1.247003,10.000000,2.000000,3
/home/daniel/Projects/ppsevolution/data/maps/custom_maps/Custom_3_Run_0_Map.csv,squared_error,0.0064351487877558865,0.5113,0.4729,0.000000,1.000000,0.949306,1.000000,0.000000,0.000000,0.992667,2.000000,0.698738,0.100355,1.000000,1.000000,0.961494,0.549610,1.000000,2.000000,125.000000,1.330000,142.852214,1.000000,1.000000,0.500000,9.934007,2.000000,247.279073,0.826199,150.000000,1.000000,192.337293,5.721292,10.000000,2.000000,4
/home/daniel/Projects/ppsevolution/data/maps/custom_maps/Custom_3_Run_0_Map.csv,squared_error,0.0062861548172408604,0.5055,0.4720,0.000000,0.439546,0.873553,1.000000,0.006116,0.169168,1.000000,2.000000,0.465315,0.098949,1.000000,1.000000,1.000000,0.000000,1.000000,2.000000,125.000000,1.016145,132.171001,1.000000,2.217140,2.107093,10.000000,2.000000,206.430094,0.825412,150.000000,1.000000,200.000000,0.500000,10.000000,2.000000,5
/home/daniel/Projects/ppsevolution/data/maps/custom_maps/Custom_3_Run_0_Map.csv,squared_error,0.006313872103555089,0.5067,0.4722,0.000000,1.000000,1.000000,1.000000,0.000000,0.099542,1.000000,2.000000,0.720220,0.031555,1.000000,1.000000,1.000000,0.098602,1.000000,2.000000,125.000000,1.330000,150.000000,1.000000,1.000000,1.445649,10.000000,2.000000,251.038446,0.787671,150.000000,1.000000,200.000000,1.436718,10.000000,2.000000,6
/home/daniel/Projects/ppsevolution/data/maps/custom_maps/Custom_3_Run_0_Map.csv,squared_error,0.006205939206122896,0.5098,0.4710,0.000000,0.577178,0.627642,1.000000,0.000000,0.000000,1.000000,2.000000,0.000000,0.136344,1.000000,1.000000,1.000000,0.012212,0.890638,2.000000,125.000000,1.093220,97.497487,1.000000,1.000000,0.500000,10.000000,2.000000,125.000000,0.846353,150.000000,1.000000,200.000000,0.616009,9.015746,2.000000,7
/home/daniel/Projects/ppsevolution/data/maps/custom_maps/Custom_3_Run_0_Map.csv,squared_error,0.006238150322887923,0.5083,0.4714,0.000000,0.972967,0.885371,1.000000,0.000000,0.020226,1.000000,2.000000,0.486030,0.099897,1.000000,1.000000,1.000000,0.000000,1.000000,2.000000,125.000000,1.314862,133.837372,1.000000,1.000000,0.692145,10.000000,2.000000,210.055327,0.825942,150.000000,1.000000,200.000000,0.500000,10.000000,2.000000,8
/home/daniel/Projects/ppsevolution/data/maps/custom_maps/Custom_3_Run_0_Map.csv,squared_error,0.006210689214478131,0.5064,0.4713,0.000000,0.986808,0.735637,1.000000,0.000000,0.191535,1.000000,2.000000,0.255117,0.000000,1.000000,1.000000,1.000000,0.137902,1.000000,2.000000,125.000000,1.322613,112.724843,1.000000,1.000000,2.319580,10.000000,2.000000,169.645466,0.770000,150.000000,1.000000,200.000000,1.810065,10.000000,2.000000,9
map,fitness,fitness value,team0ratio,time,HP,Speed,Damage,Acc,ClipSize,RateOfFire,NrBullets,Range,HP,Speed,Damage,Acc,ClipSize,RateOfFire,NrBullets,Range,HP,Speed,Damage,Acc,ClipSize,RateOfFire,NrBullets,Range,HP,Speed,Damage,Acc,ClipSize,RateOfFire,NrBullets,Range,Run,target team0ratio: 0.5,target time: 0.36
/home/daniel/Projects/ppsevolution/data/maps/custom_maps/Custom_4_Run_0_Map.csv,squared_error,1.0829549288395297e-06,0.4988,0.3591,0.160330,1.000000,0.141430,0.745333,0.008233,0.000000,1.000000,1.000000,0.760482,0.000000,0.139073,0.630402,0.961802,0.993165,0.000000,1.000000,153.057681,1.330000,28.941590,0.745333,2.638456,0.500000,10.000000,1.000000,258.084375,0.770000,28.609238,0.630402,192.398576,9.935066,1.000000,1.000000,0
/home/daniel/Projects/ppsevolution/data/maps/custom_maps/Custom_4_Run_0_Map.csv,squared_error,5.833194957240464e-07,0.4991,0.3593,0.000000,0.881629,0.253063,0.760854,0.129357,0.024558,0.982250,0.000000,1.000000,0.000000,0.114619,0.608816,0.921806,0.941241,0.148888,0.000000,125.000000,1.263712,44.681825,0.760854,26.741986,0.733305,9.840247,0.000000,300.000000,0.770000,25.161292,0.608816,184.439460,9.441792,2.339988,0.000000,1
/home/daniel/Projects/ppsevolution/data/maps/custom_maps/Custom_4_Run_0_Map.csv,squared_error,1.5254500300727774e-07,0.4995,0.3601,0.018416,0.903638,0.150025,0.800000,0.143444,0.038346,0.980793,0.000000,1.000000,0.126829,0.000000,0.669807,1.000000,0.938030,0.124932,1.000000,128.222832,1.276037,30.153467,0.800000,29.545268,0.864286,9.827137,0.000000,300.000000,0.841024,9.000000,0.669807,200.000000,9.411283,2.124388,1.000000,2
/home/daniel/Projects/ppsevolution/data/maps/custom_maps/Custom_4_Run_0_Map.csv,squared_error,8.226177193961177e-07,0.5000,0.3587,0.000000,0.840594,0.148404,0.800000,0.000000,0.072200,0.990153,0.000000,1.000000,0.000000,0.206121,0.575137,1.000000,1.000000,0.038431,1.000000,125.000000,1.240733,29.924925,0.800000,1.000000,1.185902,9.911381,0.000000,300.000000,0.770000,38.063056,0.575137,200.000000,10.000000,1.345879,1.000000,3
/home/daniel/Projects/ppsevolution/data/maps/custom_maps/Custom_4_Run_0_Map.csv,squared_error,1.1566691302107475e-07,0.5005,0.3601,0.175015,0.834908,0.103750,0.786426,0.218853,0.000000,1.000000,2.000000,1.000000,0.104701,0.066068,0.653359,0.842989,1.000000,0.082187,2.000000,155.627545,1.237548,23.628700,0.786426,44.551842,0.500000,10.000000,2.000000,300.000000,0.828633,18.315639,0.653359,168.754825,10.000000,1.739685,2.000000,4
/home/daniel/Projects/ppsevolution/data/maps/custom_maps/Custom_4_Run_0_Map.csv,squared_error,1.2149970207843953e-06,0.4989,0.3611,0.000000,1.000000,0.208166,0.746621,0.107403,0.000000,1.000000,2.000000,1.000000,0.000000,0.079732,0.600000,0.720618,1.000000,0.143266,1.000000,125.000000,1.330000,38.351372,0.746621,22.373181,0.500000,10.000000,2.000000,300.000000,0.770000,20.242208,0.600000,144.402923,10.000000,2.289397,1.000000,5
/home/daniel/Projects/ppsevolution/data/maps/custom_maps/Custom_4_Run_0_Map.csv,squared_error,3.0559921252687624e-07,0.5003,0.3593,0.127943,0.902266,0.187267,0.783569,0.000000,0.044515,0.819567,0.000000,0.989398,0.000000,0.197206,0.600000,0.898406,1.000000,0.043377,2.000000,147.389990,1.275269,35.404581,0.783569,1.000000,0.922895,8.376099,0.000000,298.144724,0.770000,36.806058,0.600000,179.782888,10.000000,1.390391,2.000000,6
/home/daniel/Projects/ppsevolution/data/maps/custom_maps/Custom_4_Run_0_Map.csv,squared_error,9.648150976389133e-08,0.5004,0.3601,0.000000,1.000000,0.128806,0.800000,0.000000,0.177895,0.901309,1.000000,1.000000,0.124003,0.146480,0.600000,0.932744,1.000000,0.000000,1.000000,125.000000,1.330000,27.161641,0.800000,1.000000,2.190003,9.111784,1.000000,300.000000,0.839442,29.653644,0.600000,186.616037,10.000000,1.000000,1.000000,7
/home/daniel/Projects/ppsevolution/data/maps/custom_maps/Custom_4_Run_0_Map.csv,squared_error,4.8382269031318175e-08,0.5001,0.3597,0.059240,0.977445,0.000000,0.823348,0.000000,0.046789,1.000000,2.000000,0.961594,0.000000,0.026845,0.664944,1.000000,0.836147,0.114063,1.000000,135.367062,1.317369,9.000000,0.823348,1.000000,0.944492,10.000000,2.000000,293.278905,0.770000,12.785091,0.664944,200.000000,8.443393,2.026566,1.000000,8
/home/daniel/Projects/ppsevolution/data/maps/custom_maps/Custom_4_Run_0_Map.csv,squared_error,5.295424696743077e-06,0.5019,0.3574,0.000000,1.000000,0.176650,0.767733,0.176867,0.070933,1.000000,2.000000,1.000000,0.000000,0.172579,0.561452,0.910141,0.901967,0.201229,0.000000,125.000000,1.330000,33.907662,0.767733,36.196555,1.173864,10.000000,2.000000,300.000000,0.770000,33.333687,0.561452,182.118032,9.068684,2.811065,0.000000,9
map,fitness,fitness value,team0ratio,time,HP,Speed,Damage,Acc,ClipSize,RateOfFire,NrBullets,Range,HP,Speed,Damage,Acc,ClipSize,RateOfFire,NrBullets,Range,HP,Speed,Damage,Acc,ClipSize,RateOfFire,NrBullets,Range,HP,Speed,Damage,Acc,ClipSize,RateOfFire,NrBullets,Range,Run,target team0ratio: 0.5,target time: 0.36
/home/daniel/Projects/ppsevolution/data/maps/custom_maps/Custom_5_Run_0_Map.csv,squared_error,1.6659794424668684e-06,0.5005,0.3583,0.037240,0.998682,1.000000,0.843922,0.524868,0.236417,0.856544,2.000000,0.966490,0.000000,0.298075,0.877032,0.700978,0.993174,0.329560,1.000000,131.517073,1.329262,150.000000,0.843922,105.448735,2.745958,8.708894,2.000000,294.135811,0.770000,51.028575,0.877032,140.494635,9.935149,3.966044,1.000000,0
/home/daniel/Projects/ppsevolution/data/maps/custom_maps/Custom_5_Run_0_Map.csv,squared_error,1.0220271736046056e-07,0.4997,0.3604,0.000000,0.997042,0.586586,0.910821,0.172781,0.000000,1.000000,2.000000,0.904424,0.177887,0.151736,0.905169,0.655730,0.518824,0.142892,1.000000,125.000000,1.328343,91.708633,0.910821,35.383338,0.500000,10.000000,2.000000,283.274170,0.869617,30.394768,0.905169,131.490246,5.428824,2.286026,1.000000,1
/home/daniel/Projects/ppsevolution/data/maps/custom_maps/Custom_5_Run_0_Map.csv,squared_error,5.293007422153883e-08,0.5002,0.3602,0.000000,0.785164,0.602446,0.929716,0.178065,0.102189,0.447419,2.000000,0.918938,0.052680,0.532587,0.877048,0.953622,0.861428,0.394527,1.000000,125.000000,1.209692,93.944874,0.929716,36.434923,1.470798,5.026774,2.000000,285.814148,0.799501,84.094768,0.877048,190.770746,8.683570,4.550746,1.000000,2
/home/daniel/Projects/ppsevolution/data/maps/custom_maps/Custom_5_Run_0_Map.csv,squared_error,8.967159901686665e-07,0.5013,0.3595,0.199157,1.000000,0.256681,1.000000,0.228983,0.126141,1.000000,0.000000,0.805754,0.135672,0.000000,1.000000,0.800996,0.879701,0.132647,0.000000,159.852457,1.330000,45.192015,1.000000,46.567714,1.698338,10.000000,0.000000,266.006910,0.845976,9.000000,1.000000,160.398155,8.857160,2.193821,0.000000,3
/home/daniel/Projects/ppsevolution/data/maps/custom_maps/Custom_5_Run_0_Map.csv,squared_error,1.3139614619064014e-06,0.5013,0.3610,0.305127,0.631529,0.416238,0.941020,0.360133,0.243093,0.957955,2.000000,0.959410,0.000000,0.170478,0.930717,0.939933,0.776309,0.339829,2.000000,178.397183,1.123656,67.689603,0.941020,72.666447,2.809385,9.621596,2.000000,292.896688,0.770000,33.037448,0.930717,188.046757,7.874932,4.058460,2.000000,4
/home/daniel/Projects/ppsevolution/data/maps/custom_maps/Custom_5_Run_0_Map.csv,squared_error,5.141912886898548e-07,0.4990,0.3598,0.077701,0.865511,0.263276,1.000000,0.103280,0.006082,0.991544,1.000000,1.000000,0.309653,0.157349,0.968909,0.868392,0.932121,0.140440,1.000000,138.597713,1.254686,46.121924,1.000000,21.552660,0.557782,9.923892,1.000000,300.000000,0.943406,31.186142,0.968909,173.810034,9.355154,2.263958,1.000000,5
/home/daniel/Projects/ppsevolution/data/maps/custom_maps/Custom_5_Run_0_Map.csv,squared_error,9.831197251265955e-07,0.4996,0.3587,0.163142,0.859249,0.198107,1.000000,0.000000,0.000000,0.812378,2.000000,0.914028,0.000000,0.000000,1.000000,0.738155,0.832545,0.013105,0.000000,153.549854,1.251180,36.933063,1.000000,1.000000,0.500000,8.311406,2.000000,284.954874,0.770000,9.000000,1.000000,147.892839,8.409176,1.117945,0.000000,6
/home/daniel/Projects/ppsevolution/data/maps/custom_maps/Custom_5_Run_0_Map.csv,squared_error,2.0530253819607765e-06,0.5016,0.3587,0.329275,0.829064,0.186235,1.000000,0.737922,0.307001,0.672840,1.000000,0.814857,0.139557,0.051036,1.000000,0.968134,0.793975,0.369217,2.000000,182.623133,1.234276,35.259147,1.000000,147.846413,3.416507,7.055561,1.000000,267.599915,0.848152,16.196119,1.000000,193.658602,8.042760,4.322956,2.000000,7
/home/daniel/Projects/ppsevolution/data/maps/custom_maps/Custom_5_Run_0_Map.csv,squared_error,2.752104161587098e-07,0.5000,0.3607,0.094953,0.370412,0.369253,0.978424,0.092850,0.057877,0.847875,1.000000,0.985471,0.389141,0.275194,0.939811,0.949266,1.000000,0.123348,2.000000,141.616792,0.977431,61.064701,0.978424,19.477088,1.049828,8.630875,1.000000,297.457411,0.987919,47.802395,0.939811,189.904032,10.000000,2.110132,2.000000,8
/home/daniel/Projects/ppsevolution/data/maps/custom_maps/Custom_5_Run_0_Map.csv,squared_error,5.269924694097352e-07,0.4997,0.3590,0.000000,0.785693,0.276272,1.000000,0.000000,0.028750,1.000000,0.000000,0.878112,0.000000,0.000000,0.988459,1.000000,1.000000,0.397110,0.000000,125.000000,1.209988,47.954376,1.000000,1.000000,0.773122,10.000000,0.000000,278.669531,0.770000,9.000000,0.988459,200.000000,10.000000,4.573987,0.000000,9
map,fitness,fitness value,team0ratio,time,HP,Speed,Damage,Acc,ClipSize,RateOfFire,NrBullets,Range,HP,Speed,Damage,Acc,ClipSize,RateOfFire,NrBullets,Range,HP,Speed,Damage,Acc,ClipSize,RateOfFire,NrBullets,Range,HP,Speed,Damage,Acc,ClipSize,RateOfFire,NrBullets,Range,Run,target team0ratio: 0.5,target time: 0.36
/home/daniel/Projects/ppsevolution/data/maps/custom_maps/Custom_6_Run_0_Map.csv,squared_error,0.00802578665448491,0.4658,0.4820,0.000000,0.937439,0.000000,1.000000,0.000000,0.000000,0.071235,2.000000,1.000000,0.655027,1.000000,0.899217,1.000000,1.000000,1.000000,2.000000,125.000000,1.294966,9.000000,1.000000,1.000000,0.500000,1.641116,2.000000,300.000000,1.136815,150.000000,0.899217,200.000000,10.000000,10.000000,2.000000,0
/home/daniel/Projects/ppsevolution/data/maps/custom_maps/Custom_6_Run_0_Map.csv,squared_error,0.00801133504703319,0.4639,0.4813,0.000000,1.000000,0.000000,1.000000,0.000000,0.000000,0.731420,2.000000,1.000000,0.000000,1.000000,0.897560,1.000000,1.000000,1.000000,2.000000,125.000000,1.330000,9.000000,1.000000,1.000000,0.500000,7.582782,2.000000,300.000000,0.770000,150.000000,0.897560,200.000000,10.000000,10.000000,2.000000,1
/home/daniel/Projects/ppsevolution/data/maps/custom_maps/Custom_6_Run_0_Map.csv,squared_error,0.008026959730433842,0.4603,0.4803,0.000000,1.000000,0.000000,1.000000,0.000000,0.025456,0.233803,2.000000,1.000000,0.362108,1.000000,0.903155,1.000000,1.000000,1.000000,2.000000,125.000000,1.330000,9.000000,1.000000,1.000000,0.741835,3.104227,2.000000,300.000000,0.972781,150.000000,0.903155,200.000000,10.000000,10.000000,2.000000,2
/home/daniel/Projects/ppsevolution/data/maps/custom_maps/Custom_6_Run_0_Map.csv,squared_error,0.008021983349232717,0.4640,0.4814,0.084523,0.984681,0.000000,1.000000,0.000000,0.024825,0.214149,2.000000,1.000000,0.296228,1.000000,0.909686,0.945469,1.000000,1.000000,2.000000,139.791602,1.321422,9.000000,1.000000,1.000000,0.735842,2.927339,2.000000,300.000000,0.935888,150.000000,0.909686,189.148306,10.000000,10.000000,2.000000,3
/home/daniel/Projects/ppsevolution/data/maps/custom_maps/Custom_6_Run_0_Map.csv,squared_error,0.00807136973184409,0.4734,0.4842,0.000000,1.000000,0.001042,1.000000,0.000000,0.000000,0.901234,2.000000,0.990084,0.044731,1.000000,0.889828,1.000000,1.000000,1.000000,2.000000,125.000000,1.330000,9.146918,1.000000,1.000000,0.500000,9.111102,2.000000,298.264752,0.795049,150.000000,0.889828,200.000000,10.000000,10.000000,2.000000,4
/home/daniel/Projects/ppsevolution/data/maps/custom_maps/Custom_6_Run_0_Map.csv,squared_error,0.008019979250751416,0.4597,0.4801,0.000000,1.000000,0.000000,1.000000,0.000000,0.000000,0.444493,2.000000,1.000000,0.226291,1.000000,0.902837,1.000000,1.000000,1.000000,2.000000,125.000000,1.330000,9.000000,1.000000,1.000000,0.500000,5.000437,2.000000,300.000000,0.896723,150.000000,0.902837,200.000000,10.000000,10.000000,2.000000,5
/home/daniel/Projects/ppsevolution/data/maps/custom_maps/Custom_6_Run_0_Map.csv,squared_error,0.007989535968698128,0.4667,0.4819,0.232364,1.000000,0.000000,1.000000,0.001607,0.000000,0.570142,2.000000,1.000000,0.571613,1.000000,0.922907,0.999177,1.000000,1.000000,2.000000,165.663768,1.330000,9.000000,1.000000,1.319772,0.500000,6.131279,2.000000,300.000000,1.090103,150.000000,0.922907,199.836292,10.000000,10.000000,2.000000,6
/home/daniel/Projects/ppsevolution/data/maps/custom_maps/Custom_6_Run_0_Map.csv,squared_error,0.008023665720990942,0.4618,0.4808,0.006888,1.000000,0.000000,1.000000,0.000000,0.000000,0.960938,2.000000,0.998649,0.159857,1.000000,0.899735,1.000000,1.000000,1.000000,2.000000,126.205321,1.330000,9.000000,1.000000,1.000000,0.500000,9.648442,2.000000,299.763576,0.859520,150.000000,0.899735,200.000000,10.000000,10.000000,2.000000,7
/home/daniel/Projects/ppsevolution/data/maps/custom_maps/Custom_6_Run_0_Map.csv,squared_error,0.00802273912751726,0.4663,0.4821,0.077027,0.969525,0.000000,1.000000,0.000000,0.038772,0.467830,2.000000,1.000000,0.021729,1.000000,0.905027,1.000000,1.000000,1.000000,2.000000,138.479673,1.312934,9.000000,1.000000,1.000000,0.868332,5.210469,2.000000,300.000000,0.782168,150.000000,0.905027,200.000000,10.000000,10.000000,2.000000,8
/home/daniel/Projects/ppsevolution/data/maps/custom_maps/Custom_6_Run_0_Map.csv,squared_error,0.008046847433133074,0.4688,0.4830,0.148629,0.988566,0.000000,1.000000,0.000000,0.057370,0.541069,2.000000,1.000000,0.060386,0.985656,0.911882,1.000000,1.000000,1.000000,2.000000,151.010092,1.323597,9.000000,1.000000,1.000000,1.045014,5.869619,2.000000,300.000000,0.803816,147.977449,0.911882,200.000000,10.000000,10.000000,2.000000,9
map,fitness,fitness value,team0ratio,time,HP,Speed,Damage,Acc,ClipSize,RateOfFire,NrBullets,Range,HP,Speed,Damage,Acc,ClipSize,RateOfFire,NrBullets,Range,HP,Speed,Damage,Acc,ClipSize,RateOfFire,NrBullets,Range,HP,Speed,Damage,Acc,ClipSize,RateOfFire,NrBullets,Range,Run,target team0ratio: 0.5,target time: 0.36
/home/daniel/Projects/ppsevolution/data/maps/custom_maps/Custom_7_Run_0_Map.csv,squared_error,6.781004183899699e-07,0.4991,0.3608,0.035365,0.871719,0.428115,1.000000,0.446335,0.072227,0.936298,0.000000,1.000000,0.220033,0.030089,1.000000,1.000000,0.890390,0.188690,1.000000,131.188816,1.258162,69.364161,1.000000,89.820625,1.186152,9.426678,0.000000,300.000000,0.893218,13.242570,1.000000,200.000000,8.958709,2.698206,1.000000,0
/home/daniel/Projects/ppsevolution/data/maps/custom_maps/Custom_7_Run_0_Map.csv,squared_error,5.346944358562727e-09,0.5000,0.3599,0.000000,1.000000,0.000000,1.000000,0.349987,0.041150,0.913374,2.000000,0.962127,0.022797,0.074892,0.958781,0.922366,0.742994,0.265597,1.000000,125.000000,1.330000,9.000000,1.000000,70.647360,0.890925,9.220365,2.000000,293.372223,0.782766,19.559721,0.958781,184.550791,7.558441,3.390370,1.000000,1
/home/daniel/Projects/ppsevolution/data/maps/custom_maps/Custom_7_Run_0_Map.csv,squared_error,7.678022374826002e-07,0.4997,0.3612,0.212722,0.952686,0.247809,1.000000,0.000000,0.011286,0.701521,1.000000,0.903350,0.000000,0.090534,0.999502,1.000000,0.686561,0.039732,1.000000,162.226395,1.303504,43.941031,1.000000,1.000000,0.607219,7.313690,1.000000,283.086197,0.770000,21.765321,0.999502,200.000000,7.022325,1.357585,1.000000,2
/home/daniel/Projects/ppsevolution/data/maps/custom_maps/Custom_7_Run_0_Map.csv,squared_error,4.32936465588786e-07,0.5006,0.3593,0.036820,0.983237,0.274569,1.000000,0.155162,0.000000,1.000000,1.000000,1.000000,0.087567,0.000000,0.993992,0.873504,0.847882,0.215970,1.000000,131.443547,1.320613,47.714236,1.000000,31.877241,0.500000,10.000000,1.000000,300.000000,0.819037,9.000000,0.993992,174.827356,8.554882,2.943734,1.000000,3
/home/daniel/Projects/ppsevolution/data/maps/custom_maps/Custom_7_Run_0_Map.csv,squared_error,7.145931268361534e-07,0.4988,0.3603,0.000000,0.820677,0.168444,1.000000,0.000000,0.209894,1.000000,1.000000,0.745467,0.182135,0.000000,1.000000,1.000000,1.000000,0.270201,0.000000,125.000000,1.229579,32.750668,1.000000,1.000000,2.493995,10.000000,1.000000,255.456783,0.871996,9.000000,1.000000,200.000000,10.000000,3.431809,0.000000,4
/home/daniel/Projects/ppsevolution/data/maps/custom_maps/Custom_7_Run_0_Map.csv,squared_error,4.92460676890959e-07,0.4996,0.3591,0.098282,1.000000,0.384596,1.000000,0.150472,0.000000,0.928863,1.000000,1.000000,0.283144,0.107357,1.000000,0.696673,0.916360,0.164607,0.000000,142.199412,1.330000,63.227973,1.000000,30.943919,0.500000,9.359769,1.000000,300.000000,0.928561,24.137374,1.000000,139.637872,9.205422,2.481461,0.000000,5
/home/daniel/Projects/ppsevolution/data/maps/custom_maps/Custom_7_Run_0_Map.csv,squared_error,1.92881174992293e-06,0.5017,0.3590,0.082672,1.000000,0.162040,1.000000,0.251182,0.094186,0.646564,0.000000,1.000000,0.129790,0.230975,0.949189,0.979079,1.000000,0.009610,2.000000,139.467531,1.330000,31.847584,1.000000,50.985236,1.394768,6.819073,0.000000,300.000000,0.842682,41.567534,0.949189,195.836757,10.000000,1.086488,2.000000,6
/home/daniel/Projects/ppsevolution/data/maps/custom_maps/Custom_7_Run_0_Map.csv,squared_error,7.531342878366013e-07,0.4993,0.3610,0.000000,0.947380,0.246008,1.000000,0.431341,0.000000,0.875466,1.000000,0.725165,0.000000,0.077968,1.000000,0.725114,1.000000,0.000000,0.000000,125.000000,1.300533,43.687129,1.000000,86.836939,0.500000,8.879190,1.000000,251.903813,0.770000,19.993480,1.000000,145.297647,10.000000,1.000000,0.000000,7
/home/daniel/Projects/ppsevolution/data/maps/custom_maps/Custom_7_Run_0_Map.csv,squared_error,1.4019652940361912e-07,0.5003,0.3596,0.000000,1.000000,0.000000,1.000000,0.607676,0.189622,1.000000,1.000000,1.000000,0.000000,0.241492,0.920216,0.849533,0.903788,0.017345,2.000000,125.000000,1.330000,9.000000,1.000000,121.927519,2.301407,10.000000,1.000000,300.000000,0.770000,43.050427,0.920216,170.056984,9.085981,1.156109,2.000000,8
/home/daniel/Projects/ppsevolution/data/maps/custom_maps/Custom_7_Run_0_Map.csv,squared_error,1.0958315772598038e-07,0.5005,0.3601,0.092770,1.000000,0.333864,0.997223,0.000000,0.044356,1.000000,1.000000,0.964656,0.391160,0.023153,1.000000,0.937140,0.922340,0.017239,1.000000,141.234772,1.330000,56.074766,0.997223,1.000000,0.921382,10.000000,1.000000,293.814783,0.989050,12.264590,1.000000,187.490838,9.262231,1.155153,1.000000,9
map,fitness,fitness value,team0ratio,time,HP,Speed,Damage,Acc,ClipSize,RateOfFire,NrBullets,Range,HP,Speed,Damage,Acc,ClipSize,RateOfFire,NrBullets,Range,HP,Speed,Damage,Acc,ClipSize,RateOfFire,NrBullets,Range,HP,Speed,Damage,Acc,ClipSize,RateOfFire,NrBullets,Range,Run,target team0ratio: 0.5,target time: 0.36
/home/daniel/Projects/ppsevolution/data/maps/custom_maps/Custom_8_Run_0_Map.csv,squared_error,1.5004516984219996e-06,0.5015,0.3591,0.000000,0.850070,0.127980,0.846048,0.029794,0.669025,0.782877,1.000000,1.000000,0.146757,0.434959,0.527157,0.973040,0.774246,0.181178,2.000000,125.000000,1.246039,27.045110,0.846048,6.928984,6.855733,8.045895,1.000000,300.000000,0.852184,70.329213,0.527157,194.634876,7.855339,2.630603,2.000000,0
/home/daniel/Projects/ppsevolution/data/maps/custom_maps/Custom_8_Run_0_Map.csv,squared_error,7.940451076706135e-07,0.5008,0.3590,0.048610,0.956935,0.420507,0.760271,0.166083,0.372259,0.945109,0.000000,1.000000,0.166453,0.218224,0.655559,0.989769,0.915767,0.060764,1.000000,133.506772,1.305884,68.291432,0.760271,34.050538,4.036456,9.505977,0.000000,300.000000,0.863214,39.769534,0.655559,197.964055,9.199788,1.546880,1.000000,1
/home/daniel/Projects/ppsevolution/data/maps/custom_maps/Custom_8_Run_0_Map.csv,squared_error,2.699538420849058e-07,0.4993,0.3603,0.000000,0.945817,0.309516,0.800000,0.121831,0.228192,0.800622,0.000000,0.954030,0.064578,0.348123,0.600000,0.928339,0.967754,0.000000,1.000000,125.000000,1.299658,52.641737,0.800000,25.244435,2.667821,8.205596,0.000000,291.955245,0.806164,58.085277,0.600000,185.739445,9.693662,1.000000,1.000000,2
/home/daniel/Projects/ppsevolution/data/maps/custom_maps/Custom_8_Run_0_Map.csv,squared_error,6.645457689870836e-07,0.5001,0.3611,0.000000,0.803819,0.021145,0.883346,0.031948,0.119068,0.952381,1.000000,1.000000,0.086634,0.092005,0.725862,0.867570,0.892960,0.026419,0.000000,125.000000,1.220139,11.981466,0.883346,7.357645,1.631146,9.571430,1.000000,300.000000,0.818515,21.972691,0.725862,173.646467,8.983121,1.237769,0.000000,3
/home/daniel/Projects/ppsevolution/data/maps/custom_maps/Custom_8_Run_0_Map.csv,squared_error,1.1349663742301373e-06,0.5002,0.3615,0.027097,0.874311,0.210000,0.770977,0.118469,0.346975,0.903725,2.000000,0.825457,0.000000,0.078250,0.681006,0.916385,0.960530,0.091823,2.000000,129.742037,1.259614,38.610000,0.770977,24.575280,3.796263,9.133522,2.000000,269.454920,0.770000,20.033183,0.681006,183.360588,9.625033,1.826407,2.000000,4
/home/daniel/Projects/ppsevolution/data/maps/custom_maps/Custom_8_Run_0_Map.csv,squared_error,7.76285582406883e-07,0.5002,0.3588,0.000000,0.905714,0.161466,0.800000,0.030000,0.118203,1.000000,1.000000,0.818087,0.010984,0.172670,0.653843,1.000000,0.913414,0.015944,2.000000,125.000000,1.277200,31.766741,0.800000,6.970000,1.622930,10.000000,1.000000,268.165143,0.776151,33.346452,0.653843,200.000000,9.177434,1.143492,2.000000,5
/home/daniel/Projects/ppsevolution/data/maps/custom_maps/Custom_8_Run_0_Map.csv,squared_error,1.1162141534583822e-06,0.4987,0.3607,0.000000,1.000000,0.178156,0.825244,0.086114,0.000000,1.000000,1.000000,1.000000,0.082964,0.000000,0.730037,1.000000,1.000000,0.082254,1.000000,125.000000,1.330000,34.119937,0.825244,18.136616,0.500000,10.000000,1.000000,300.000000,0.816460,9.000000,0.730037,200.000000,10.000000,1.740287,1.000000,6
/home/daniel/Projects/ppsevolution/data/maps/custom_maps/Custom_8_Run_0_Map.csv,squared_error,4.351707137284715e-06,0.4992,0.3628,0.143303,1.000000,0.294706,0.800000,0.000000,0.032609,1.000000,0.000000,1.000000,0.000000,0.089106,0.732115,1.000000,1.000000,0.000000,0.000000,150.077976,1.330000,50.553491,0.800000,1.000000,0.809782,10.000000,0.000000,300.000000,0.770000,21.563967,0.732115,200.000000,10.000000,1.000000,0.000000,7
/home/daniel/Projects/ppsevolution/data/maps/custom_maps/Custom_8_Run_0_Map.csv,squared_error,3.292568819325845e-07,0.4996,0.3593,0.010440,1.000000,0.259356,0.800000,0.094537,0.030000,1.000000,1.000000,1.000000,0.000000,0.048115,0.711697,0.895401,0.858709,0.043105,1.000000,126.826965,1.330000,45.569132,0.800000,19.812912,0.785000,10.000000,1.000000,300.000000,0.770000,15.784172,0.711697,179.184879,8.657736,1.387942,1.000000,8
/home/daniel/Projects/ppsevolution/data/maps/custom_maps/Custom_8_Run_0_Map.csv,squared_error,7.077748591434851e-07,0.4988,0.3601,0.024777,1.000000,0.133123,0.830968,0.005686,0.030000,1.000000,2.000000,1.000000,0.047999,0.075410,0.705932,1.000000,1.000000,0.063696,0.000000,129.335955,1.330000,27.770318,0.830968,2.131576,0.785000,10.000000,2.000000,300.000000,0.796879,19.632791,0.705932,200.000000,10.000000,1.573264,0.000000,9
map,fitness,fitness value,team0ratio,time,HP,Speed,Damage,Acc,ClipSize,RateOfFire,NrBullets,Range,HP,Speed,Damage,Acc,ClipSize,RateOfFire,NrBullets,Range,HP,Speed,Damage,Acc,ClipSize,RateOfFire,NrBullets,Range,HP,Speed,Damage,Acc,ClipSize,RateOfFire,NrBullets,Range,Run,target team0ratio: 0.5,target time: 0.36
/home/daniel/Projects/ppsevolution/data/maps/custom_maps/Custom_9_Run_0_Map.csv,squared_error,4.539175129280051e-09,0.5000,0.3599,0.000000,0.952259,0.213734,0.721218,0.408883,0.000000,0.895249,1.000000,1.000000,0.040073,0.022352,0.608479,0.930562,0.845738,0.424207,1.000000,125.000000,1.303265,39.136531,0.721218,82.367793,0.500000,9.057245,1.000000,300.000000,0.792441,12.151634,0.608479,186.181741,8.534511,4.817860,1.000000,0
/home/daniel/Projects/ppsevolution/data/maps/custom_maps/Custom_9_Run_0_Map.csv,squared_error,1.5619594632383917e-07,0.4996,0.3604,0.101949,0.991521,0.359359,0.655327,0.000000,0.128164,0.864363,0.000000,0.916099,0.109000,0.169733,0.600000,1.000000,1.000000,0.041173,0.000000,142.841033,1.325252,59.669608,0.655327,1.000000,1.717555,8.779266,0.000000,285.317402,0.831040,32.932288,0.600000,200.000000,10.000000,1.370560,0.000000,1
/home/daniel/Projects/ppsevolution/data/maps/custom_maps/Custom_9_Run_0_Map.csv,squared_error,9.366112443444799e-07,0.5013,0.3603,0.000000,0.936289,0.078657,0.764786,0.035643,0.420826,0.922768,2.000000,0.995944,0.080990,0.087912,0.590287,1.000000,0.947454,0.000000,2.000000,125.000000,1.294322,20.090580,0.764786,8.092870,4.497851,9.304908,2.000000,299.290132,0.815354,21.395641,0.590287,200.000000,9.500812,1.000000,2.000000,2
/home/daniel/Projects/ppsevolution/data/maps/custom_maps/Custom_9_Run_0_Map.csv,squared_error,4.2228912261705603e-07,0.5009,0.3598,0.000000,1.000000,0.252103,0.706090,0.134513,0.000000,0.904390,1.000000,1.000000,0.198042,0.000000,0.634275,1.000000,1.000000,0.082294,2.000000,125.000000,1.330000,44.546459,0.706090,27.768066,0.500000,9.139511,1.000000,300.000000,0.880903,9.000000,0.634275,200.000000,10.000000,1.740642,2.000000,3
/home/daniel/Projects/ppsevolution/data/maps/custom_maps/Custom_9_Run_0_Map.csv,squared_error,7.812270160513963e-07,0.4989,0.3605,0.089282,1.000000,0.206690,0.742979,0.000000,0.138500,0.453079,2.000000,0.994631,0.213120,0.054144,0.656830,1.000000,0.982108,0.000000,0.000000,140.624351,1.330000,38.143246,0.742979,1.000000,1.815747,5.077709,2.000000,299.060497,0.889347,16.634240,0.656830,200.000000,9.830028,1.000000,0.000000,4
/home/daniel/Projects/ppsevolution/data/maps/custom_maps/Custom_9_Run_0_Map.csv,squared_error,1.4520204235914265e-06,0.4998,0.3583,0.000000,0.948754,0.267636,0.692929,0.077302,0.000000,1.000000,1.000000,1.000000,0.000000,0.000000,0.631847,0.780749,0.983968,0.119663,2.000000,125.000000,1.301302,46.736730,0.692929,16.383039,0.500000,10.000000,1.000000,300.000000,0.770000,9.000000,0.631847,156.369095,9.847695,2.076966,2.000000,5
/home/daniel/Projects/ppsevolution/data/maps/custom_maps/Custom_9_Run_0_Map.csv,squared_error,7.982295314469756e-07,0.4998,0.3587,0.000000,0.888458,0.000000,0.800000,0.088129,0.000000,1.000000,1.000000,0.928231,0.061479,0.046746,0.640794,0.710358,0.917571,0.013354,1.000000,125.000000,1.267536,9.000000,0.800000,18.537721,0.500000,10.000000,1.000000,287.440424,0.804428,15.591142,0.640794,142.361171,9.216927,1.120190,1.000000,6
/home/daniel/Projects/ppsevolution/data/maps/custom_maps/Custom_9_Run_0_Map.csv,squared_error,9.378227169378418e-07,0.5011,0.3608,0.000000,1.000000,0.210000,0.746478,0.007982,0.192644,0.806532,0.000000,0.986222,0.180465,0.180316,0.574556,1.000000,0.846900,0.000000,0.000000,125.000000,1.330000,38.610000,0.746478,2.588516,2.330117,8.258789,0.000000,297.588864,0.871061,34.424537,0.574556,200.000000,8.545549,1.000000,0.000000,7
/home/daniel/Projects/ppsevolution/data/maps/custom_maps/Custom_9_Run_0_Map.csv,squared_error,1.8774580904618713e-07,0.4995,0.3597,0.000000,0.890798,0.123191,0.747110,0.000000,0.028003,1.000000,2.000000,0.994442,0.000000,0.037167,0.621639,1.000000,0.971494,0.000000,1.000000,125.000000,1.268847,26.369969,0.747110,1.000000,0.766032,10.000000,2.000000,299.027305,0.770000,14.240547,0.621639,200.000000,9.729190,1.000000,1.000000,8
/home/daniel/Projects/ppsevolution/data/maps/custom_maps/Custom_9_Run_0_Map.csv,squared_error,2.646079788633046e-08,0.4998,0.3601,0.142345,0.875067,0.000000,0.800000,0.110483,0.488130,0.861728,2.000000,1.000000,0.068520,0.178516,0.600000,1.000000,1.000000,0.073146,0.000000,149.910440,1.260037,9.000000,0.800000,22.986208,5.137233,8.755551,2.000000,300.000000,0.808371,34.170698,0.600000,200.000000,10.000000,1.658318,0.000000,9
map,fitness,fitness value,team0ratio,time,HP,Speed,Damage,Acc,ClipSize,RateOfFire,NrBullets,Range,HP,Speed,Damage,Acc,ClipSize,RateOfFire,NrBullets,Range,HP,Speed,Damage,Acc,ClipSize,RateOfFire,NrBullets,Range,HP,Speed,Damage,Acc,ClipSize,RateOfFire,NrBullets,Range,Run,target team0ratio: 0.5,target time: 0.36
/home/daniel/Projects/ppsevolution/data/maps/custom_maps/Custom_10_Run_0_Map.csv,squared_error,8.386766417658103e-07,0.5011,0.3607,0.000000,0.581567,0.869753,1.000000,0.000000,0.212133,1.000000,2.000000,0.573244,0.000000,0.796849,1.000000,0.405561,0.402543,0.453563,0.000000,125.000000,1.095677,131.635113,1.000000,1.000000,2.515263,10.000000,2.000000,225.317723,0.770000,121.355655,1.000000,81.706586,4.324160,5.082068,0.000000,0
/home/daniel/Projects/ppsevolution/data/maps/custom_maps/Custom_10_Run_0_Map.csv,squared_error,5.111333885543743e-06,0.5002,0.3632,0.000000,0.700004,0.954282,0.952707,0.208770,0.657295,0.889118,2.000000,0.394403,0.522418,0.314916,1.000000,1.000000,0.713808,0.807038,2.000000,125.000000,1.162002,143.553708,0.952707,42.545168,6.744303,9.002063,2.000000,194.020484,1.062554,53.403102,1.000000,200.000000,7.281173,8.263342,2.000000,1
/home/daniel/Projects/ppsevolution/data/maps/custom_maps/Custom_10_Run_0_Map.csv,squared_error,2.809618986936642e-06,0.4991,0.3622,0.114917,0.889370,1.000000,0.994253,0.000000,0.000000,0.895320,2.000000,0.700074,0.264703,0.771332,1.000000,0.835560,0.158895,0.124959,1.000000,145.110411,1.268047,150.000000,0.994253,1.000000,0.500000,9.057883,2.000000,247.512956,0.918233,117.757805,1.000000,167.276456,2.009500,2.124627,1.000000,2
/home/daniel/Projects/ppsevolution/data/maps/custom_maps/Custom_10_Run_0_Map.csv,squared_error,7.197338730471063e-07,0.4999,0.3612,0.000000,0.844200,0.764244,1.000000,0.000000,0.708133,1.000000,2.000000,0.545702,0.059316,0.663919,1.000000,0.964005,0.419340,0.770480,1.000000,125.000000,1.242752,116.758467,1.000000,1.000000,7.227261,10.000000,2.000000,220.497872,0.803217,102.612641,1.000000,192.837051,4.483728,7.934323,1.000000,3
/home/daniel/Projects/ppsevolution/data/maps/custom_maps/Custom_10_Run_0_Map.csv,squared_error,7.093041354579694e-07,0.5006,0.3610,0.093499,0.746430,0.985273,1.000000,0.000000,0.342201,0.905821,2.000000,0.923633,0.246755,0.845864,1.000000,0.711408,0.585555,0.963677,2.000000,141.362282,1.188001,147.923518,1.000000,1.000000,3.750909,9.152393,2.000000,286.635699,0.908183,128.266863,1.000000,142.570136,6.062772,9.673090,2.000000,4
/home/daniel/Projects/ppsevolution/data/maps/custom_maps/Custom_10_Run_0_Map.csv,squared_error,3.999979479154193e-07,0.5005,0.3608,0.000000,0.930332,0.742466,1.000000,0.113112,0.295212,1.000000,2.000000,0.324097,0.278918,0.964731,1.000000,0.810424,0.844906,0.059161,2.000000,125.000000,1.290986,113.687773,1.000000,23.509386,3.304511,10.000000,2.000000,181.717023,0.926194,145.027098,1.000000,162.274463,8.526608,1.532451,2.000000,5
/home/daniel/Projects/ppsevolution/data/maps/custom_maps/Custom_10_Run_0_Map.csv,squared_error,4.4452847900018715e-07,0.5009,0.3603,0.000000,0.610627,0.969264,0.996317,0.000000,0.157685,1.000000,2.000000,0.724932,0.390673,0.858492,1.000000,1.000000,0.877986,0.493000,2.000000,125.000000,1.111951,145.666270,0.996317,1.000000,1.998005,10.000000,2.000000,251.863028,0.988777,130.047342,1.000000,200.000000,8.840871,5.436997,2.000000,6
/home/daniel/Projects/ppsevolution/data/maps/custom_maps/Custom_10_Run_0_Map.csv,squared_error,7.895282695848645e-07,0.4995,0.3611,0.029281,0.847613,0.989861,1.000000,0.000000,0.190266,1.000000,2.000000,0.773509,0.000000,0.982349,1.000000,0.903411,0.989085,0.129480,2.000000,130.124169,1.244663,148.570389,1.000000,1.000000,2.307526,10.000000,2.000000,260.364054,0.770000,147.511243,1.000000,180.778730,9.896308,2.165321,2.000000,7
/home/daniel/Projects/ppsevolution/data/maps/custom_maps/Custom_10_Run_0_Map.csv,squared_error,1.8126938714459803e-06,0.5010,0.3616,0.000000,1.000000,1.000000,1.000000,0.198547,0.085916,1.000000,2.000000,0.890070,0.000000,0.769920,1.000000,0.867233,0.767387,0.604115,2.000000,125.000000,1.330000,150.000000,1.000000,40.510914,1.316204,10.000000,2.000000,280.762264,0.770000,117.558790,1.000000,173.579274,7.790180,6.437039,2.000000,8
/home/daniel/Projects/ppsevolution/data/maps/custom_maps/Custom_10_Run_0_Map.csv,squared_error,2.625692490130435e-06,0.5002,0.3623,0.030352,0.961173,1.000000,1.000000,0.144152,0.000000,0.948959,2.000000,0.851283,0.567104,0.962677,1.000000,0.830512,0.679699,0.450508,1.000000,130.311617,1.308257,150.000000,1.000000,29.686210,0.500000,9.540628,2.000000,273.974598,1.087578,144.737442,1.000000,166.271809,6.957141,5.054574,1.000000,9
