/home/daniel/Projects/ppsevolution/data/maps/custom_maps/Custom_1_Run_0_Map.csv,0.778095,0.964436,0.000000,0.000000,0.157149,0.000000,0.747689,1.000000,1.000000,0.141821,0.000000,0.000000,0.816760,0.936792,0.000000,1.000000
/home/daniel/Projects/ppsevolution/data/maps/custom_maps/Custom_1_Run_0_Map.csv,0.778802,0.672750,0.003302,0.000000,0.000000,0.252319,0.749561,0.000000,1.000000,0.148807,0.000000,0.000000,1.000000,0.839200,0.000000,0.000000
/home/daniel/Projects/ppsevolution/data/maps/custom_maps/Custom_1_Run_0_Map.csv,0.850430,0.616805,0.000000,0.036130,0.213726,0.037382,0.330849,1.000000,1.000000,0.000000,0.000000,0.000000,0.757203,0.797017,0.219386,2.000000
/home/daniel/Projects/ppsevolution/data/maps/custom_maps/Custom_1_Run_0_Map.csv,0.818414,1.000000,0.000000,0.000000,0.000000,0.137923,0.713881,2.000000,1.000000,0.657903,0.000000,0.000000,0.666968,0.928130,0.028876,0.000000
/home/daniel/Projects/ppsevolution/data/maps/custom_maps/Custom_1_Run_0_Map.csv,0.776082,0.877485,0.000000,0.000000,0.022649,0.026210,0.842170,0.000000,1.000000,0.263678,0.000000,0.000000,0.815900,0.988403,0.000000,1.000000
/home/daniel/Projects/ppsevolution/data/maps/custom_maps/Custom_1_Run_0_Map.csv,0.776937,0.797829,0.000000,0.000000,0.470817,0.000000,0.785882,0.000000,1.000000,0.014990,0.000000,0.000000,0.926305,0.765228,0.007653,1.000000
/home/daniel/Projects/ppsevolution/data/maps/custom_maps/Custom_1_Run_0_Map.csv,0.797753,0.998272,0.000000,0.000000,0.000000,0.192260,0.779306,1.000000,1.000000,0.112804,0.000000,0.000000,0.895874,0.662375,0.098935,1.000000
/home/daniel/Projects/ppsevolution/data/maps/custom_maps/Custom_1_Run_0_Map.csv,0.794886,0.870028,0.000000,0.000000,0.000000,0.453536,0.680795,1.000000,1.000000,0.013196,0.000000,0.000000,0.909470,0.744143,0.000000,1.000000
/home/daniel/Projects/ppsevolution/data/maps/custom_maps/Custom_1_Run_0_Map.csv,0.774217,1.000000,0.000000,0.000000,0.052749,0.120561,0.543383,2.000000,0.965111,0.000000,0.000000,0.000000,0.932140,0.780886,0.000000,1.000000
/home/daniel/Projects/ppsevolution/data/maps/custom_maps/Custom_1_Run_0_Map.csv,0.795455,0.692570,0.000000,0.000000,0.271228,0.415572,0.713574,0.000000,1.000000,0.046228,0.000000,0.000967,0.947579,0.517960,0.000000,1.000000
/home/daniel/Projects/ppsevolution/data/maps/custom_maps/Custom_2_Run_0_Map.csv,0.256879,0.899939,0.108086,0.461914,0.153031,0.150975,0.830511,1.000000,1.000000,0.175403,0.000000,0.261899,0.834825,0.810186,0.000000,1.000000
/home/daniel/Projects/ppsevolution/data/maps/custom_maps/Custom_2_Run_0_Map.csv,0.000000,0.768494,0.000000,0.560155,0.030000,0.000000,1.000000,2.000000,1.000000,0.000000,0.000000,0.148861,0.817968,0.935000,0.000000,1.000000
/home/daniel/Projects/ppsevolution/data/maps/custom_maps/Custom_2_Run_0_Map.csv,0.133861,1.000000,0.000000,0.590312,0.000000,0.060108,0.747933,0.000000,1.000000,0.000000,0.000000,0.240470,0.832170,1.000000,0.000000,2.000000
/home/daniel/Projects/ppsevolution/data/maps/custom_maps/Custom_2_Run_0_Map.csv,0.120471,1.000000,0.000000,0.554087,0.351058,0.234533,0.948616,1.000000,1.000000,0.016904,0.192803,0.000000,0.904321,0.993333,0.074427,1.000000
/home/daniel/Projects/ppsevolution/data/maps/custom_maps/Custom_2_Run_0_Map.csv,0.360756,0.714044,0.000000,0.535513,0.411816,0.025082,0.943214,2.000000,1.000000,0.201167,0.123373,0.179545,0.945696,0.934366,0.000000,0.000000
/home/daniel/Projects/ppsevolution/data/maps/custom_maps/Custom_2_Run_0_Map.csv,0.209238,1.000000,0.069397,0.433718,0.089405,0.075196,1.000000,2.000000,0.869658,0.088158,0.031131,0.190473,0.979142,0.854752,0.134057,0.000000
/home/daniel/Projects/ppsevolution/data/maps/custom_maps/Custom_2_Run_0_Map.csv,0.162997,1.000000,0.000000,0.505321,0.142020,0.000000,0.915160,2.000000,0.859617,0.000000,0.000000,0.231530,0.883519,0.907965,0.000000,0.000000
/home/daniel/Projects/ppsevolution/data/maps/custom_maps/Custom_2_Run_0_Map.csv,0.129312,0.959418,0.000000,0.574373,0.069177,0.000000,1.000000,0.000000,1.000000,0.000000,0.016172,0.207089,0.993180,0.819690,0.046168,2.000000
/home/daniel/Projects/ppsevolution/data/maps/custom_maps/Custom_2_Run_0_Map.csv,0.312064,0.981280,0.000000,0.515166,0.021999,0.076529,1.000000,2.000000,0.930400,0.448903,0.049095,0.228812,0.583334,0.881338,0.047612,0.000000
/home/daniel/Projects/ppsevolution/data/maps/custom_maps/Custom_2_Run_0_Map.csv,0.122831,1.000000,0.210000,0.356451,0.000000,0.161618,0.952020,0.000000,1.000000,0.000000,0.016185,0.174734,0.704426,0.932854,0.000000,1.000000
/home/daniel/Projects/ppsevolution/data/maps/custom_maps/Custom_3_Run_0_Map.csv,0.067464,0.920628,0.210000,0.491175,0.201211,0.030000,0.767653,0.000000,1.000000,0.000000,0.000000,0.329989,0.920935,0.535769,0.000000,2.000000
/home/daniel/Projects/ppsevolution/data/maps/custom_maps/Custom_3_Run_0_Map.csv,0.000000,0.901004,0.076193,0.557916,0.132060,0.000000,1.000000,0.000000,0.901347,0.056032,0.000000,0.293669,0.844093,0.994384,0.122506,2.000000
/home/daniel/Projects/ppsevolution/data/maps/custom_maps/Custom_3_Run_0_Map.csv,0.351560,0.666896,0.000000,0.656430,0.313966,0.349751,0.748445,0.000000,1.000000,0.121630,0.000000,0.438910,1.000000,1.000000,0.335979,0.000000
/home/daniel/Projects/ppsevolution/data/maps/custom_maps/Custom_3_Run_0_Map.csv,0.045957,1.000000,0.000000,0.610474,0.059546,0.007920,0.996052,2.000000,0.923077,0.051724,0.000000,0.329415,0.743571,0.918952,0.000000,2.000000
/home/daniel/Projects/ppsevolution/data/maps/custom_maps/Custom_3_Run_0_Map.csv,0.269432,1.000000,0.210000,0.438589,0.054368,0.072176,0.912506,0.000000,0.897350,0.035802,0.000000,0.401373,1.000000,0.859693,0.178204,1.000000
/home/daniel/Projects/ppsevolution/data/maps/custom_maps/Custom_3_Run_0_Map.csv,0.000000,0.931625,0.185157,0.494546,0.000000,0.187276,0.965975,0.000000,0.996735,0.000000,0.000000,0.277718,0.993153,0.998092,0.169721,0.000000
/home/daniel/Projects/ppsevolution/data/maps/custom_maps/Custom_3_Run_0_Map.csv,0.362256,0.996317,0.037918,0.616993,0.000000,0.000000,0.877679,0.000000,0.975462,0.175296,0.000000,0.469477,1.000000,1.000000,0.000000,1.000000
/home/daniel/Projects/ppsevolution/data/maps/custom_maps/Custom_3_Run_0_Map.csv,0.000000,0.837411,0.166915,0.506234,0.063367,0.086203,0.886928,1.000000,1.000000,0.000000,0.000000,0.290894,0.721362,1.000000,0.000000,1.000000
/home/daniel/Projects/ppsevolution/data/maps/custom_maps/Custom_3_Run_0_Map.csv,0.000000,0.995697,0.000000,0.627849,0.000000,0.208691,0.845720,1.000000,0.916189,0.231658,0.000000,0.319124,0.796421,0.807469,0.000000,0.000000
/home/daniel/Projects/ppsevolution/data/maps/custom_maps/Custom_3_Run_0_Map.csv,0.031391,1.000000,0.061925,0.600083,0.192074,0.000000,1.000000,0.000000,1.000000,0.191199,0.009530,0.316058,0.962136,1.000000,0.000000,0.000000
/home/daniel/Projects/ppsevolution/data/maps/custom_maps/Custom_4_Run_0_Map.csv,0.493161,0.684941,0.000000,0.241462,0.029147,0.041587,0.820780,0.000000,0.839040,0.018511,0.000000,0.000000,0.771929,0.956586,0.305743,0.000000
/home/daniel/Projects/ppsevolution/data/maps/custom_maps/Custom_4_Run_0_Map.csv,0.491996,0.938680,0.000000,0.298403,0.275857,0.158501,0.941476,0.000000,1.000000,0.144859,0.000000,0.000000,0.882505,0.736270,0.249981,0.000000
/home/daniel/Projects/ppsevolution/data/maps/custom_maps/Custom_4_Run_0_Map.csv,0.463081,1.000000,0.000000,0.312521,0.077910,0.057375,0.821846,0.000000,1.000000,0.000000,0.000000,0.000000,0.832220,0.955098,0.194650,0.000000
/home/daniel/Projects/ppsevolution/data/maps/custom_maps/Custom_4_Run_0_Map.csv,0.500927,1.000000,0.116178,0.148089,0.000000,0.000000,1.000000,2.000000,1.000000,0.013678,0.000000,0.024496,1.000000,0.477907,0.000000,0.000000
/home/daniel/Projects/ppsevolution/data/maps/custom_maps/Custom_4_Run_0_Map.csv,0.414494,0.847179,0.031690,0.180429,0.143948,0.000000,1.000000,0.000000,0.801325,0.000000,0.000000,0.000000,1.000000,0.893308,0.047441,1.000000
/home/daniel/Projects/ppsevolution/data/maps/custom_maps/Custom_4_Run_0_Map.csv,0.441597,0.560217,0.000000,0.283027,0.000000,0.143673,0.833914,1.000000,0.956574,0.000000,0.000000,0.000000,0.864059,1.000000,0.043033,0.000000
/home/daniel/Projects/ppsevolution/data/maps/custom_maps/Custom_4_Run_0_Map.csv,0.426003,0.899332,0.000000,0.304457,0.050447,0.000000,0.841288,0.000000,0.981250,0.221714,0.000000,0.000000,0.835065,0.886054,0.000000,1.000000
/home/daniel/Projects/ppsevolution/data/maps/custom_maps/Custom_4_Run_0_Map.csv,0.420871,1.000000,0.022089,0.289083,0.000000,0.222027,0.799144,1.000000,1.000000,0.000000,0.000000,0.000000,1.000000,0.670203,0.000000,0.000000
/home/daniel/Projects/ppsevolution/data/maps/custom_maps/Custom_4_Run_0_Map.csv,0.767481,0.871709,0.020383,0.156504,0.000000,0.079300,0.920849,0.000000,0.769273,0.000000,0.000000,0.174991,0.908085,0.836636,0.082934,1.000000
/home/daniel/Projects/ppsevolution/data/maps/custom_maps/Custom_4_Run_0_Map.csv,0.450647,0.856857,0.000000,0.235872,0.376619,0.173249,0.746206,2.000000,0.839512,0.002951,0.000000,0.000000,0.913618,1.000000,0.057419,1.000000
/home/daniel/Projects/ppsevolution/data/maps/custom_maps/Custom_5_Run_0_Map.csv,0.314814,1.000000,0.000000,0.456694,0.000000,0.118803,0.472229,2.000000,0.989421,0.099911,0.000000,0.163504,0.514763,0.930054,0.006651,2.000000
/home/daniel/Projects/ppsevolution/data/maps/custom_maps/Custom_5_Run_0_Map.csv,0.307035,0.811020,0.132329,0.318900,0.000000,0.107743,0.731334,0.000000,1.000000,0.266274,0.020587,0.108084,0.605861,0.926902,0.107271,2.000000
/home/daniel/Projects/ppsevolution/data/maps/custom_maps/Custom_5_Run_0_Map.csv,0.349021,0.713159,0.012879,0.434869,0.181260,0.014221,0.776067,0.000000,1.000000,0.000000,0.003079,0.170955,0.814966,1.000000,0.046169,2.000000
/home/daniel/Projects/ppsevolution/data/maps/custom_maps/Custom_5_Run_0_Map.csv,0.040271,1.000000,0.000000,0.380670,0.000000,0.196959,1.000000,0.000000,0.805064,0.355621,0.000000,0.034908,0.988793,1.000000,0.000000,2.000000
/home/daniel/Projects/ppsevolution/data/maps/custom_maps/Custom_5_Run_0_Map.csv,0.000000,0.849719,0.000000,0.434489,0.246622,0.154955,0.831669,2.000000,0.965041,0.076161,0.000000,0.000000,0.745345,0.732810,0.000000,2.000000
/home/daniel/Projects/ppsevolution/data/maps/custom_maps/Custom_5_Run_0_Map.csv,0.437401,0.994244,0.000000,0.457994,0.000000,0.000000,0.707177,0.000000,1.000000,0.119297,0.022763,0.207461,0.965605,1.000000,0.081141,0.000000
/home/daniel/Projects/ppsevolution/data/maps/custom_maps/Custom_5_Run_0_Map.csv,0.185212,0.657913,0.205448,0.158950,0.000000,0.137859,0.861836,2.000000,0.876059,0.000000,0.000000,0.069060,0.564111,0.834305,0.088511,1.000000
/home/daniel/Projects/ppsevolution/data/maps/custom_maps/Custom_5_Run_0_Map.csv,0.033104,1.000000,0.075970,0.306145,0.456696,0.000000,0.834433,1.000000,0.810788,0.209806,0.000000,0.023066,0.600930,1.000000,0.060709,0.000000
/home/daniel/Projects/ppsevolution/data/maps/custom_maps/Custom_5_Run_0_Map.csv,0.055466,1.000000,0.146892,0.306294,0.000000,0.031305,0.921399,1.000000,1.000000,0.282652,0.000000,0.015688,0.909017,0.871512,0.097561,1.000000
/home/daniel/Projects/ppsevolution/data/maps/custom_maps/Custom_5_Run_0_Map.csv,0.033196,0.922319,0.191544,0.265886,0.000000,0.000000,0.772008,1.000000,1.000000,0.205582,0.013173,0.000000,0.755206,1.000000,0.026352,0.000000
/home/daniel/Projects/ppsevolution/data/maps/custom_maps/Custom_6_Run_0_Map.csv,0.337728,0.809105,0.210000,0.589223,0.000000,0.066488,0.826584,1.000000,0.930299,0.000000,0.000000,0.600000,0.866802,0.775242,0.092797,2.000000
/home/daniel/Projects/ppsevolution/data/maps/custom_maps/Custom_6_Run_0_Map.csv,0.000000,1.000000,0.259672,0.572478,0.000000,0.084997,1.000000,0.000000,0.955251,0.107791,0.000000,0.503479,0.856022,0.831856,0.092055,2.000000
/home/daniel/Projects/ppsevolution/data/maps/custom_maps/Custom_6_Run_0_Map.csv,0.175771,0.941420,0.119309,0.658056,0.058026,0.138236,1.000000,1.000000,1.000000,0.000000,0.002281,0.548857,1.000000,0.754557,0.114900,1.000000
/home/daniel/Projects/ppsevolution/data/maps/custom_maps/Custom_6_Run_0_Map.csv,0.292315,0.944826,0.357241,0.483880,0.033545,0.034989,1.000000,0.000000,1.000000,0.139894,0.000000,0.580109,0.836196,0.725579,0.000000,1.000000
/home/daniel/Projects/ppsevolution/data/maps/custom_maps/Custom_6_Run_0_Map.csv,0.025078,1.000000,0.196653,0.606882,0.016095,0.293383,1.000000,2.000000,1.000000,0.000000,0.000000,0.493967,0.962443,1.000000,0.160945,1.000000
/home/daniel/Projects/ppsevolution/data/maps/custom_maps/Custom_6_Run_0_Map.csv,0.000000,0.862692,0.188378,0.646281,0.197258,0.000000,0.882306,0.000000,1.000000,0.000000,0.000000,0.526643,1.000000,1.000000,0.000000,0.000000
/home/daniel/Projects/ppsevolution/data/maps/custom_maps/Custom_6_Run_0_Map.csv,0.000000,0.931053,0.205356,0.626275,0.000000,0.036963,1.000000,0.000000,1.000000,0.080412,0.048560,0.474391,1.000000,0.960539,0.056591,1.000000
/home/daniel/Projects/ppsevolution/data/maps/custom_maps/Custom_6_Run_0_Map.csv,0.104283,0.787444,0.242145,0.593009,0.018792,0.061409,0.987144,1.000000,1.000000,0.174580,0.116478,0.459043,1.000000,0.749733,0.000000,0.000000
/home/daniel/Projects/ppsevolution/data/maps/custom_maps/Custom_6_Run_0_Map.csv,0.205733,0.949821,0.210000,0.588993,0.009743,0.106411,0.844861,1.000000,0.943227,0.000000,0.000000,0.565308,1.000000,0.845068,0.000000,1.000000
/home/daniel/Projects/ppsevolution/data/maps/custom_maps/Custom_6_Run_0_Map.csv,0.048051,0.790974,0.119432,0.670867,0.041539,0.000000,1.000000,0.000000,1.000000,0.000000,0.000000,0.527927,0.998911,1.000000,0.000000,1.000000
/home/daniel/Projects/ppsevolution/data/maps/custom_maps/Custom_7_Run_0_Map.csv,0.260248,0.934678,0.219474,0.223256,0.070710,0.467957,0.806487,2.000000,0.739751,0.000000,0.147852,0.077111,0.950968,1.000000,0.100530,1.000000
/home/daniel/Projects/ppsevolution/data/maps/custom_maps/Custom_7_Run_0_Map.csv,0.099936,1.000000,0.179248,0.365582,0.086388,0.205801,0.905790,1.000000,1.000000,0.000000,0.000000,0.150294,0.542017,0.873117,0.191301,2.000000
/home/daniel/Projects/ppsevolution/data/maps/custom_maps/Custom_7_Run_0_Map.csv,0.377107,0.909012,0.103144,0.423718,0.000000,0.167234,0.824423,2.000000,1.000000,0.119359,0.000000,0.286270,1.000000,0.668133,0.084220,2.000000
/home/daniel/Projects/ppsevolution/data/maps/custom_maps/Custom_7_Run_0_Map.csv,0.225876,1.000000,0.000000,0.491336,0.000000,0.000000,1.000000,0.000000,0.910140,0.000000,0.000000,0.246351,1.000000,0.834710,0.000000,1.000000
/home/daniel/Projects/ppsevolution/data/maps/custom_maps/Custom_7_Run_0_Map.csv,0.000000,0.645402,0.076328,0.445406,0.287573,0.260704,1.000000,1.000000,0.946466,0.000000,0.000000,0.132540,0.911625,1.000000,0.000000,2.000000
/home/daniel/Projects/ppsevolution/data/maps/custom_maps/Custom_7_Run_0_Map.csv,0.000000,0.912907,0.203254,0.299339,0.063863,0.153488,0.976027,2.000000,0.880414,0.000000,0.036616,0.091702,0.945035,0.890901,0.039949,1.000000
/home/daniel/Projects/ppsevolution/data/maps/custom_maps/Custom_7_Run_0_Map.csv,0.258905,1.000000,0.000000,0.485533,0.038795,0.127580,0.915371,1.000000,0.863962,0.204305,0.088266,0.173302,1.000000,1.000000,0.000000,2.000000
/home/daniel/Projects/ppsevolution/data/maps/custom_maps/Custom_7_Run_0_Map.csv,0.128717,0.795036,0.000000,0.540026,0.192448,0.000000,0.807598,1.000000,1.000000,0.353315,0.079922,0.075121,0.624364,0.950109,0.312883,1.000000
/home/daniel/Projects/ppsevolution/data/maps/custom_maps/Custom_7_Run_0_Map.csv,0.000000,0.773275,0.019245,0.510252,0.018461,0.009084,0.954305,0.000000,0.928311,0.022505,0.000000,0.127554,0.968298,0.972347,0.199308,2.000000
/home/daniel/Projects/ppsevolution/data/maps/custom_maps/Custom_7_Run_0_Map.csv,0.506264,0.691199,0.000000,0.474155,0.263216,0.249701,0.801805,1.000000,0.881927,0.000000,0.000000,0.341797,1.000000,0.981693,0.160936,2.000000
/home/daniel/Projects/ppsevolution/data/maps/custom_maps/Custom_8_Run_0_Map.csv,0.252334,0.572590,0.092917,0.267659,0.261798,0.122066,0.920960,0.000000,1.000000,0.000000,0.000000,0.000000,0.761531,0.880976,0.093602,2.000000
/home/daniel/Projects/ppsevolution/data/maps/custom_maps/Custom_8_Run_0_Map.csv,0.275150,0.945378,0.057065,0.326278,0.076483,0.117155,0.710305,1.000000,1.000000,0.165816,0.030922,0.000000,1.000000,1.000000,0.037336,1.000000
/home/daniel/Projects/ppsevolution/data/maps/custom_maps/Custom_8_Run_0_Map.csv,0.281943,1.000000,0.000000,0.316472,0.500418,0.264511,1.000000,1.000000,0.893432,0.188056,0.022253,0.000000,0.938188,0.966784,0.177419,0.000000
/home/daniel/Projects/ppsevolution/data/maps/custom_maps/Custom_8_Run_0_Map.csv,0.487065,0.921536,0.019187,0.329459,0.000000,0.050280,0.756835,1.000000,0.937978,0.120878,0.000000,0.151926,1.000000,0.868945,0.000000,2.000000
/home/daniel/Projects/ppsevolution/data/maps/custom_maps/Custom_8_Run_0_Map.csv,0.273415,0.812321,0.000000,0.258889,0.040116,0.130476,0.936932,1.000000,0.726547,0.000000,0.031683,0.022493,0.916191,0.611480,0.000000,0.000000
/home/daniel/Projects/ppsevolution/data/maps/custom_maps/Custom_8_Run_0_Map.csv,0.307071,1.000000,0.044677,0.301670,0.094611,0.274228,0.868144,2.000000,0.970997,0.000000,0.000000,0.053424,0.817713,1.000000,0.000000,1.000000
/home/daniel/Projects/ppsevolution/data/maps/custom_maps/Custom_8_Run_0_Map.csv,0.333209,0.527216,0.000000,0.356335,0.012715,0.000000,1.000000,2.000000,1.000000,0.154190,0.000000,0.032671,1.000000,1.000000,0.237330,2.000000
/home/daniel/Projects/ppsevolution/data/maps/custom_maps/Custom_8_Run_0_Map.csv,0.287139,0.899725,0.000000,0.330954,0.148138,0.211949,1.000000,1.000000,0.932562,0.161207,0.004937,0.000000,0.751183,0.689980,0.255797,2.000000
/home/daniel/Projects/ppsevolution/data/maps/custom_maps/Custom_8_Run_0_Map.csv,0.206287,1.000000,0.132169,0.221706,0.000000,0.026310,0.996342,1.000000,1.000000,0.219898,0.000000,0.000000,0.746899,0.952307,0.000000,0.000000
/home/daniel/Projects/ppsevolution/data/maps/custom_maps/Custom_8_Run_0_Map.csv,0.332726,0.837351,0.000000,0.400573,0.000000,0.011472,0.506258,1.000000,1.000000,0.000000,0.000000,0.083249,1.000000,0.676207,0.000000,1.000000
/home/daniel/Projects/ppsevolution/data/maps/custom_maps/Custom_9_Run_0_Map.csv,0.484085,0.922685,0.013554,0.192488,0.000000,0.344059,0.784077,0.000000,1.000000,0.061242,0.000000,0.000000,0.799843,0.941732,0.035775,0.000000
/home/daniel/Projects/ppsevolution/data/maps/custom_maps/Custom_9_Run_0_Map.csv,0.445080,0.930449,0.000000,0.155802,0.082148,0.062190,0.727369,0.000000,0.849216,0.058196,0.000000,0.000000,0.995737,0.797504,0.000000,0.000000
/home/daniel/Projects/ppsevolution/data/maps/custom_maps/Custom_9_Run_0_Map.csv,0.593104,0.992947,0.005482,0.119206,0.384685,0.044116,0.970448,2.000000,0.896096,0.103967,0.000000,0.045182,0.960443,0.959202,0.084933,1.000000
/home/daniel/Projects/ppsevolution/data/maps/custom_maps/Custom_9_Run_0_Map.csv,0.510503,0.831815,0.079814,0.000000,0.116064,0.112269,0.623859,1.000000,0.723809,0.302758,0.003269,0.021087,0.971692,1.000000,0.002052,2.000000
/home/daniel/Projects/ppsevolution/data/maps/custom_maps/Custom_9_Run_0_Map.csv,0.543722,0.822691,0.000000,0.167810,0.399345,0.366034,1.000000,0.000000,0.973308,0.125908,0.000000,0.027841,0.964802,0.917139,0.000000,0.000000
/home/daniel/Projects/ppsevolution/data/maps/custom_maps/Custom_9_Run_0_Map.csv,0.483756,1.000000,0.000000,0.140274,0.024050,0.249283,1.000000,2.000000,0.919481,0.000000,0.000000,0.000000,0.896165,0.933843,0.000000,0.000000
/home/daniel/Projects/ppsevolution/data/maps/custom_maps/Custom_9_Run_0_Map.csv,0.567904,0.721063,0.000000,0.067024,0.102483,0.039812,1.000000,2.000000,0.764107,0.102792,0.011316,0.027518,0.787136,1.000000,0.102658,1.000000
/home/daniel/Projects/ppsevolution/data/maps/custom_maps/Custom_9_Run_0_Map.csv,0.555588,0.942744,0.019808,0.162722,0.139546,0.002905,1.000000,1.000000,1.000000,0.429701,0.016710,0.000000,0.932509,0.925181,0.091761,1.000000
/home/daniel/Projects/ppsevolution/data/maps/custom_maps/Custom_9_Run_0_Map.csv,0.481709,0.774303,0.000000,0.231598,0.250846,0.171694,0.451607,0.000000,1.000000,0.262693,0.000000,0.000000,0.731590,1.000000,0.000000,0.000000
/home/daniel/Projects/ppsevolution/data/maps/custom_maps/Custom_9_Run_0_Map.csv,0.550146,0.991849,0.000000,0.115247,0.096830,0.244970,0.872046,2.000000,0.849972,0.074197,0.019227,0.000000,0.722399,1.000000,0.078227,1.000000
/home/daniel/Projects/ppsevolution/data/maps/custom_maps/Custom_10_Run_0_Map.csv,0.000000,0.485268,0.000000,0.452344,0.046054,0.277860,0.978750,0.000000,0.889875,0.436109,0.000000,0.063467,0.936909,0.994703,0.064705,0.000000
/home/daniel/Projects/ppsevolution/data/maps/custom_maps/Custom_10_Run_0_Map.csv,0.345946,1.000000,0.041074,0.443330,0.066798,0.000000,0.810616,1.000000,1.000000,0.124892,0.000000,0.229518,0.906654,0.914658,0.116088,0.000000
/home/daniel/Projects/ppsevolution/data/maps/custom_maps/Custom_10_Run_0_Map.csv,0.238241,1.000000,0.044434,0.421782,0.052343,0.110358,0.835522,1.000000,0.955830,0.000000,0.014573,0.141502,0.989488,1.000000,0.223282,1.000000
/home/daniel/Projects/ppsevolution/data/maps/custom_maps/Custom_10_Run_0_Map.csv,0.486609,0.925404,0.000000,0.467307,0.000000,0.170193,1.000000,0.000000,1.000000,0.079545,0.032904,0.268340,0.967569,0.743731,0.000000,2.000000
/home/daniel/Projects/ppsevolution/data/maps/custom_maps/Custom_10_Run_0_Map.csv,0.000000,1.000000,0.000000,0.404998,0.133110,0.430398,1.000000,2.000000,0.837719,0.000000,0.000000,0.048516,0.943853,0.056306,0.086271,0.000000
/home/daniel/Projects/ppsevolution/data/maps/custom_maps/Custom_10_Run_0_Map.csv,0.389708,0.899706,0.054222,0.402538,0.009925,0.197308,1.000000,2.000000,1.000000,0.232270,0.000000,0.241595,1.000000,0.687281,0.000000,1.000000
/home/daniel/Projects/ppsevolution/data/maps/custom_maps/Custom_10_Run_0_Map.csv,0.000000,0.870544,0.053995,0.436393,0.067493,0.000000,1.000000,0.000000,1.000000,0.000000,0.025459,0.019741,0.800267,1.000000,0.160489,1.000000
/home/daniel/Projects/ppsevolution/data/maps/custom_maps/Custom_10_Run_0_Map.csv,0.000000,0.848341,0.056837,0.408095,0.060194,0.301228,0.984601,2.000000,0.984766,0.000000,0.033287,0.000000,0.965378,1.000000,0.114267,1.000000
/home/daniel/Projects/ppsevolution/data/maps/custom_maps/Custom_10_Run_0_Map.csv,0.118278,1.000000,0.030370,0.442226,0.049575,0.000000,0.770643,1.000000,0.953105,0.018911,0.000000,0.099302,0.756572,0.979531,0.205898,1.000000
/home/daniel/Projects/ppsevolution/data/maps/custom_maps/Custom_10_Run_0_Map.csv,0.320821,1.000000,0.000000,0.520802,0.018997,0.000000,0.378387,0.000000,1.000000,0.299798,0.000000,0.238033,0.547977,0.979186,0.000000,2.000000
