/home/daniel/Projects/ppsevolution/data/maps/custom_maps/Custom_1_Run_0_Map.csv,0.054176,0.860800,0.210000,0.658620,0.021930,0.217395,1.000000,1.000000,1.000000,0.061187,0.000000,0.600000,0.979573,1.000000,0.026416,0.000000
/home/daniel/Projects/ppsevolution/data/maps/custom_maps/Custom_1_Run_0_Map.csv,0.093163,0.993680,0.210000,0.660782,0.000000,0.030000,1.000000,0.000000,0.970005,0.144835,0.034062,0.600000,0.860368,0.991648,0.000000,0.000000
/home/daniel/Projects/ppsevolution/data/maps/custom_maps/Custom_1_Run_0_Map.csv,0.042321,0.913504,0.231996,0.628203,0.096852,0.030000,1.000000,1.000000,0.927336,0.119364,0.000000,0.600000,0.915162,0.979577,0.000000,0.000000
/home/daniel/Projects/ppsevolution/data/maps/custom_maps/Custom_1_Run_0_Map.csv,0.000000,0.944579,0.073672,0.742973,0.154827,0.022219,0.907544,0.000000,1.000000,0.000000,0.000000,0.600000,0.804779,1.000000,0.000000,1.000000
/home/daniel/Projects/ppsevolution/data/maps/custom_maps/Custom_1_Run_0_Map.csv,0.000000,0.769823,0.009138,0.766337,0.000000,0.000000,0.899708,1.000000,1.000000,0.082990,0.000000,0.600000,1.000000,0.963919,0.045934,1.000000
/home/daniel/Projects/ppsevolution/data/maps/custom_maps/Custom_1_Run_0_Map.csv,0.000000,1.000000,0.200913,0.650297,0.072212,0.089439,1.000000,0.000000,0.893623,0.000000,0.000000,0.600000,0.952514,1.000000,0.000000,0.000000
/home/daniel/Projects/ppsevolution/data/maps/custom_maps/Custom_1_Run_0_Map.csv,0.098048,1.000000,0.210000,0.653523,0.043549,0.075656,1.000000,0.000000,0.962277,0.000000,0.000000,0.613979,1.000000,1.000000,0.000000,1.000000
/home/daniel/Projects/ppsevolution/data/maps/custom_maps/Custom_1_Run_0_Map.csv,0.000000,1.000000,0.029390,0.744112,0.629095,0.010451,0.995839,2.000000,1.000000,0.000000,0.000000,0.591739,0.931717,0.908971,0.000000,0.000000
/home/daniel/Projects/ppsevolution/data/maps/custom_maps/Custom_1_Run_0_Map.csv,0.000000,1.000000,0.210000,0.645769,0.000000,0.000000,0.902573,0.000000,0.882573,0.307925,0.000000,0.591433,1.000000,1.000000,0.000000,1.000000
/home/daniel/Projects/ppsevolution/data/maps/custom_maps/Custom_1_Run_0_Map.csv,0.000000,1.000000,0.191779,0.668681,0.058297,0.000000,0.735127,0.000000,0.904398,0.247716,0.000000,0.590653,0.985803,0.954449,0.000000,2.000000
/home/daniel/Projects/ppsevolution/data/maps/custom_maps/Custom_2_Run_0_Map.csv,0.000000,1.000000,0.892324,1.000000,0.000000,0.000000,1.000000,2.000000,1.000000,0.234239,1.000000,1.000000,0.865265,1.000000,1.000000,2.000000
/home/daniel/Projects/ppsevolution/data/maps/custom_maps/Custom_2_Run_0_Map.csv,0.000000,0.946768,0.774083,1.000000,0.000000,0.028177,1.000000,2.000000,0.683782,0.004112,1.000000,1.000000,0.835132,1.000000,1.000000,2.000000
/home/daniel/Projects/ppsevolution/data/maps/custom_maps/Custom_2_Run_0_Map.csv,0.000000,1.000000,0.640850,1.000000,0.000000,0.000000,0.983281,2.000000,0.457352,0.025004,1.000000,1.000000,1.000000,0.985768,1.000000,2.000000
/home/daniel/Projects/ppsevolution/data/maps/custom_maps/Custom_2_Run_0_Map.csv,0.000000,1.000000,0.811565,1.000000,0.041346,0.000000,1.000000,2.000000,0.807486,0.401748,1.000000,1.000000,1.000000,0.911108,1.000000,2.000000
/home/daniel/Projects/ppsevolution/data/maps/custom_maps/Custom_2_Run_0_Map.csv,0.000000,0.969918,0.734773,1.000000,0.000000,0.000000,0.907819,2.000000,0.725599,0.079478,0.990739,1.000000,0.955499,0.961853,1.000000,2.000000
/home/daniel/Projects/ppsevolution/data/maps/custom_maps/Custom_2_Run_0_Map.csv,0.000000,1.000000,0.890004,1.000000,0.065282,0.000000,1.000000,2.000000,0.955616,0.108717,1.000000,1.000000,1.000000,1.000000,1.000000,2.000000
/home/daniel/Projects/ppsevolution/data/maps/custom_maps/Custom_2_Run_0_Map.csv,0.000000,0.984177,0.615662,1.000000,0.006549,0.000000,1.000000,2.000000,0.444785,0.162317,1.000000,1.000000,0.951540,1.000000,0.947907,2.000000
/home/daniel/Projects/ppsevolution/data/maps/custom_maps/Custom_2_Run_0_Map.csv,0.000000,0.973173,0.664147,1.000000,0.000000,0.026661,1.000000,2.000000,0.495409,0.162588,1.000000,1.000000,1.000000,1.000000,1.000000,2.000000
/home/daniel/Projects/ppsevolution/data/maps/custom_maps/Custom_2_Run_0_Map.csv,0.000000,0.850450,0.690674,1.000000,0.000000,0.000000,1.000000,2.000000,0.736614,0.400813,1.000000,0.986969,1.000000,0.998263,0.924051,2.000000
/home/daniel/Projects/ppsevolution/data/maps/custom_maps/Custom_2_Run_0_Map.csv,0.000000,1.000000,0.855230,1.000000,0.000000,0.000000,1.000000,2.000000,0.878382,0.000000,1.000000,1.000000,1.000000,1.000000,1.000000,2.000000
/home/daniel/Projects/ppsevolution/data/maps/custom_maps/Custom_3_Run_0_Map.csv,0.000000,0.959798,1.000000,0.964124,0.000000,0.000000,1.000000,2.000000,0.000000,0.223677,1.000000,1.000000,1.000000,0.000000,1.000000,2.000000
/home/daniel/Projects/ppsevolution/data/maps/custom_maps/Custom_3_Run_0_Map.csv,0.000000,0.986346,1.000000,0.974622,0.000000,0.067450,1.000000,2.000000,0.085244,0.000000,1.000000,1.000000,0.990783,0.000000,0.994959,2.000000
/home/daniel/Projects/ppsevolution/data/maps/custom_maps/Custom_3_Run_0_Map.csv,0.000000,0.927963,0.872062,1.000000,0.000000,0.134320,1.000000,2.000000,0.453021,0.000000,1.000000,1.000000,1.000000,0.000000,1.000000,2.000000
/home/daniel/Projects/ppsevolution/data/maps/custom_maps/Custom_3_Run_0_Map.csv,0.000000,1.000000,0.585105,1.000000,0.000000,0.000000,1.000000,2.000000,0.000000,0.000000,1.000000,1.000000,1.000000,0.000000,1.000000,2.000000
/home/daniel/Projects/ppsevolution/data/maps/custom_maps/Custom_3_Run_0_Map.csv,0.000000,1.000000,0.931770,0.991213,0.000000,0.000000,1.000000,2.000000,0.416589,0.000000,1.000000,1.000000,1.000000,0.082358,1.000000,2.000000
/home/daniel/Projects/ppsevolution/data/maps/custom_maps/Custom_3_Run_0_Map.csv,0.000000,0.859229,0.597150,1.000000,0.000000,0.000000,1.000000,2.000000,0.000000,0.000000,1.000000,1.000000,1.000000,0.000000,1.000000,2.000000
/home/daniel/Projects/ppsevolution/data/maps/custom_maps/Custom_3_Run_0_Map.csv,0.000000,1.000000,0.669659,1.000000,0.000000,0.000000,1.000000,2.000000,0.109805,0.000000,1.000000,1.000000,1.000000,0.000000,1.000000,2.000000
/home/daniel/Projects/ppsevolution/data/maps/custom_maps/Custom_3_Run_0_Map.csv,0.000000,1.000000,0.602401,1.000000,0.000000,0.004009,1.000000,2.000000,0.000000,0.000191,1.000000,1.000000,1.000000,0.000000,1.000000,2.000000
/home/daniel/Projects/ppsevolution/data/maps/custom_maps/Custom_3_Run_0_Map.csv,0.000000,0.834674,0.623134,1.000000,0.000000,0.031295,1.000000,2.000000,0.000000,0.053937,1.000000,1.000000,1.000000,0.000000,1.000000,2.000000
/home/daniel/Projects/ppsevolution/data/maps/custom_maps/Custom_3_Run_0_Map.csv,0.003056,0.792662,1.000000,0.969095,0.000000,0.116277,1.000000,2.000000,0.000000,0.000000,1.000000,1.000000,1.000000,0.013767,1.000000,2.000000
/home/daniel/Projects/ppsevolution/data/maps/custom_maps/Custom_4_Run_0_Map.csv,0.021562,1.000000,0.049269,0.830571,0.195299,0.109233,0.909163,1.000000,1.000000,0.096177,0.000000,0.684482,1.000000,1.000000,0.021542,1.000000
/home/daniel/Projects/ppsevolution/data/maps/custom_maps/Custom_4_Run_0_Map.csv,0.000000,1.000000,0.189717,0.800000,0.405935,0.111946,0.821492,0.000000,1.000000,0.000000,0.050269,0.655533,1.000000,0.771395,0.150839,0.000000
/home/daniel/Projects/ppsevolution/data/maps/custom_maps/Custom_4_Run_0_Map.csv,0.000000,1.000000,0.228961,0.749555,0.169544,0.030000,1.000000,1.000000,1.000000,0.074868,0.025777,0.629166,0.931541,1.000000,0.083757,2.000000
/home/daniel/Projects/ppsevolution/data/maps/custom_maps/Custom_4_Run_0_Map.csv,0.102465,0.844370,0.139508,0.800000,0.183031,0.000000,0.776359,1.000000,1.000000,0.276281,0.000000,0.682400,0.943416,0.966686,0.042376,2.000000
/home/daniel/Projects/ppsevolution/data/maps/custom_maps/Custom_4_Run_0_Map.csv,0.153552,0.839762,0.162472,0.800000,0.443066,0.030000,0.665350,0.000000,1.000000,0.000000,0.213177,0.603242,0.756168,1.000000,0.248912,1.000000
/home/daniel/Projects/ppsevolution/data/maps/custom_maps/Custom_4_Run_0_Map.csv,0.000000,1.000000,0.057932,0.813975,0.030000,0.000000,0.808821,1.000000,0.901062,0.007484,0.174163,0.599225,1.000000,1.000000,0.000000,1.000000
/home/daniel/Projects/ppsevolution/data/maps/custom_maps/Custom_4_Run_0_Map.csv,0.000000,0.902493,0.186293,0.758229,0.114686,0.167469,0.901936,1.000000,0.889547,0.000000,0.000000,0.656061,1.000000,1.000000,0.000000,2.000000
/home/daniel/Projects/ppsevolution/data/maps/custom_maps/Custom_4_Run_0_Map.csv,0.000000,1.000000,0.210000,0.730686,0.000000,0.000000,1.000000,2.000000,0.920839,0.096343,0.111222,0.583908,0.756346,1.000000,0.000000,2.000000
/home/daniel/Projects/ppsevolution/data/maps/custom_maps/Custom_4_Run_0_Map.csv,0.000000,1.000000,0.187748,0.767911,0.000000,0.000000,1.000000,2.000000,1.000000,0.189360,0.000000,0.655882,1.000000,0.852404,0.030022,0.000000
/home/daniel/Projects/ppsevolution/data/maps/custom_maps/Custom_4_Run_0_Map.csv,0.000000,0.823356,0.161919,0.789849,0.000000,0.030000,0.914692,0.000000,0.988758,0.000000,0.000000,0.658633,1.000000,1.000000,0.056006,2.000000
/home/daniel/Projects/ppsevolution/data/maps/custom_maps/Custom_5_Run_0_Map.csv,0.578047,1.000000,0.210000,1.000000,0.148147,0.405129,0.970059,1.000000,0.967508,0.180035,0.124086,1.000000,0.864234,0.819499,0.188916,1.000000
/home/daniel/Projects/ppsevolution/data/maps/custom_maps/Custom_5_Run_0_Map.csv,0.000000,0.951428,0.258056,1.000000,0.018023,0.162525,0.953874,1.000000,0.921854,0.000000,0.498602,0.924252,0.616299,1.000000,0.094875,1.000000
/home/daniel/Projects/ppsevolution/data/maps/custom_maps/Custom_5_Run_0_Map.csv,0.000000,0.846076,0.942885,0.816526,0.224643,0.375012,0.843741,2.000000,0.700181,0.000000,0.384366,0.851068,0.594185,0.833929,0.270060,1.000000
/home/daniel/Projects/ppsevolution/data/maps/custom_maps/Custom_5_Run_0_Map.csv,0.005473,0.928923,0.059218,1.000000,0.166627,0.000000,1.000000,2.000000,0.818687,0.059065,0.064233,0.970868,0.985309,0.794203,0.000000,2.000000
/home/daniel/Projects/ppsevolution/data/maps/custom_maps/Custom_5_Run_0_Map.csv,0.098117,1.000000,0.365031,0.956400,0.174064,0.132419,0.782119,2.000000,0.947100,0.000000,0.268332,0.915413,0.927976,0.616233,0.463576,2.000000
/home/daniel/Projects/ppsevolution/data/maps/custom_maps/Custom_5_Run_0_Map.csv,0.000000,0.969355,0.254741,0.998755,0.183795,0.207206,1.000000,1.000000,1.000000,0.047162,0.103133,0.966355,1.000000,1.000000,0.048052,2.000000
/home/daniel/Projects/ppsevolution/data/maps/custom_maps/Custom_5_Run_0_Map.csv,0.404016,1.000000,0.347912,1.000000,0.000000,0.116913,0.837326,0.000000,0.999246,0.163049,0.109532,1.000000,0.767800,0.918274,0.107222,1.000000
/home/daniel/Projects/ppsevolution/data/maps/custom_maps/Custom_5_Run_0_Map.csv,0.000000,0.987429,0.046161,1.000000,0.000000,0.070377,1.000000,2.000000,0.941754,0.000000,0.238241,0.944675,0.880747,1.000000,0.728540,2.000000
/home/daniel/Projects/ppsevolution/data/maps/custom_maps/Custom_5_Run_0_Map.csv,0.059104,0.952811,0.000000,1.000000,0.212662,0.000000,1.000000,2.000000,0.684877,0.050299,0.000000,0.987681,1.000000,1.000000,0.006579,2.000000
/home/daniel/Projects/ppsevolution/data/maps/custom_maps/Custom_5_Run_0_Map.csv,0.000000,0.855094,0.885370,0.849429,0.314591,0.160719,0.927752,2.000000,0.803672,0.153228,0.514259,0.841695,1.000000,0.961785,0.010288,2.000000
/home/daniel/Projects/ppsevolution/data/maps/custom_maps/Custom_6_Run_0_Map.csv,0.138482,1.000000,0.000000,1.000000,0.000000,0.000000,0.220694,2.000000,1.000000,0.613583,1.000000,0.918587,1.000000,1.000000,1.000000,2.000000
/home/daniel/Projects/ppsevolution/data/maps/custom_maps/Custom_6_Run_0_Map.csv,0.038334,1.000000,0.000000,1.000000,0.000000,0.000000,0.626474,2.000000,1.000000,0.137043,1.000000,0.899016,1.000000,1.000000,1.000000,2.000000
/home/daniel/Projects/ppsevolution/data/maps/custom_maps/Custom_6_Run_0_Map.csv,0.144772,1.000000,0.000000,1.000000,0.000000,0.000000,0.219901,2.000000,1.000000,0.825084,0.996004,0.919443,1.000000,1.000000,1.000000,2.000000
/home/daniel/Projects/ppsevolution/data/maps/custom_maps/Custom_6_Run_0_Map.csv,0.001896,1.000000,0.000000,1.000000,0.000000,0.000000,0.979804,2.000000,1.000000,0.103580,1.000000,0.895417,1.000000,1.000000,1.000000,2.000000
/home/daniel/Projects/ppsevolution/data/maps/custom_maps/Custom_6_Run_0_Map.csv,0.119835,1.000000,0.000000,1.000000,0.000000,0.000000,0.592563,2.000000,1.000000,0.042113,1.000000,0.907363,1.000000,1.000000,1.000000,2.000000
/home/daniel/Projects/ppsevolution/data/maps/custom_maps/Custom_6_Run_0_Map.csv,0.267097,1.000000,0.000000,1.000000,0.001261,0.000000,0.470647,2.000000,1.000000,0.184107,1.000000,0.927891,1.000000,1.000000,1.000000,2.000000
/home/daniel/Projects/ppsevolution/data/maps/custom_maps/Custom_6_Run_0_Map.csv,0.073232,0.989273,0.000000,1.000000,0.000000,0.017101,0.902038,2.000000,1.000000,0.096949,1.000000,0.905376,0.999290,1.000000,1.000000,2.000000
/home/daniel/Projects/ppsevolution/data/maps/custom_maps/Custom_6_Run_0_Map.csv,0.150083,1.000000,0.000000,1.000000,0.000000,0.006079,0.474018,2.000000,1.000000,0.287141,1.000000,0.913963,0.996567,1.000000,1.000000,2.000000
/home/daniel/Projects/ppsevolution/data/maps/custom_maps/Custom_6_Run_0_Map.csv,0.131350,1.000000,0.000000,1.000000,0.000000,0.000000,0.289500,2.000000,1.000000,0.000000,1.000000,0.913033,1.000000,1.000000,1.000000,2.000000
/home/daniel/Projects/ppsevolution/data/maps/custom_maps/Custom_6_Run_0_Map.csv,0.141349,1.000000,0.000000,1.000000,0.000000,0.000000,0.221043,2.000000,1.000000,0.925215,1.000000,0.916677,1.000000,1.000000,1.000000,2.000000
/home/daniel/Projects/ppsevolution/data/maps/custom_maps/Custom_7_Run_0_Map.csv,0.000000,1.000000,0.443138,0.997763,0.113121,0.000000,0.994636,0.000000,1.000000,0.000000,0.000000,1.000000,1.000000,0.814096,0.123698,1.000000
/home/daniel/Projects/ppsevolution/data/maps/custom_maps/Custom_7_Run_0_Map.csv,0.006419,0.888703,0.256585,0.962615,0.125557,0.000000,0.700300,2.000000,1.000000,0.161071,0.378043,0.894875,0.862870,0.897811,0.178979,2.000000
/home/daniel/Projects/ppsevolution/data/maps/custom_maps/Custom_7_Run_0_Map.csv,0.111752,1.000000,0.180620,1.000000,0.086841,0.002450,0.978767,2.000000,1.000000,0.000000,0.128746,0.978185,0.954451,0.662389,0.088023,0.000000
/home/daniel/Projects/ppsevolution/data/maps/custom_maps/Custom_7_Run_0_Map.csv,0.000000,1.000000,0.377566,1.000000,0.000000,0.000000,0.625585,0.000000,0.968067,0.000000,0.033351,1.000000,0.897617,0.823356,0.472284,0.000000
/home/daniel/Projects/ppsevolution/data/maps/custom_maps/Custom_7_Run_0_Map.csv,0.114260,0.852857,0.093738,0.977794,0.000000,0.000000,1.000000,0.000000,0.960905,0.160742,0.799615,0.827588,0.745815,1.000000,0.304864,2.000000
/home/daniel/Projects/ppsevolution/data/maps/custom_maps/Custom_7_Run_0_Map.csv,0.000000,0.889697,0.424014,0.994141,0.000000,0.030000,0.916903,0.000000,0.754403,0.000000,0.111147,0.999954,1.000000,0.955779,0.000000,0.000000
/home/daniel/Projects/ppsevolution/data/maps/custom_maps/Custom_7_Run_0_Map.csv,0.026871,1.000000,0.238219,1.000000,0.186075,0.179756,0.804353,2.000000,0.915291,0.000000,0.032112,1.000000,1.000000,0.972532,0.000000,0.000000
/home/daniel/Projects/ppsevolution/data/maps/custom_maps/Custom_7_Run_0_Map.csv,0.000000,0.757769,0.239200,0.990808,0.000000,0.263602,1.000000,2.000000,0.758492,0.084791,0.000000,1.000000,1.000000,1.000000,0.084135,0.000000
/home/daniel/Projects/ppsevolution/data/maps/custom_maps/Custom_7_Run_0_Map.csv,0.087609,0.967928,0.492976,0.990908,0.000000,0.291830,0.907568,1.000000,1.000000,0.000000,0.094079,0.998198,1.000000,0.818399,0.197908,0.000000
/home/daniel/Projects/ppsevolution/data/maps/custom_maps/Custom_7_Run_0_Map.csv,0.027108,0.856123,0.249251,1.000000,0.000000,0.000000,0.870717,2.000000,1.000000,0.100654,0.000000,1.000000,0.981086,0.912939,0.000000,0.000000
/home/daniel/Projects/ppsevolution/data/maps/custom_maps/Custom_8_Run_0_Map.csv,0.007990,1.000000,0.317591,0.800000,0.030000,0.101944,1.000000,0.000000,1.000000,0.000000,0.000000,0.747848,1.000000,1.000000,0.000000,0.000000
/home/daniel/Projects/ppsevolution/data/maps/custom_maps/Custom_8_Run_0_Map.csv,0.000000,0.810607,0.210000,0.800000,0.000000,0.000000,0.981432,2.000000,1.000000,0.000000,0.053873,0.692015,0.936484,0.752121,0.000000,2.000000
/home/daniel/Projects/ppsevolution/data/maps/custom_maps/Custom_8_Run_0_Map.csv,0.000000,1.000000,0.175315,0.800000,0.000000,0.063911,1.000000,2.000000,0.904120,0.000000,0.301644,0.585678,1.000000,1.000000,0.099383,0.000000
/home/daniel/Projects/ppsevolution/data/maps/custom_maps/Custom_8_Run_0_Map.csv,0.000000,1.000000,0.268262,0.800000,0.215551,0.245311,0.813721,1.000000,1.000000,0.046290,0.297716,0.600000,0.783440,1.000000,0.000000,2.000000
/home/daniel/Projects/ppsevolution/data/maps/custom_maps/Custom_8_Run_0_Map.csv,0.000000,1.000000,0.213132,0.792085,0.186085,0.123181,0.958261,2.000000,0.971232,0.019188,0.069933,0.676847,0.703305,0.962408,0.282422,1.000000
/home/daniel/Projects/ppsevolution/data/maps/custom_maps/Custom_8_Run_0_Map.csv,0.000000,1.000000,0.210000,0.800000,0.360672,0.006856,1.000000,2.000000,1.000000,0.017290,0.250956,0.600000,1.000000,1.000000,0.234208,0.000000
/home/daniel/Projects/ppsevolution/data/maps/custom_maps/Custom_8_Run_0_Map.csv,0.031536,0.935195,0.210000,0.800000,0.000560,0.132175,1.000000,2.000000,1.000000,0.206214,0.046307,0.700079,0.990633,1.000000,0.037653,2.000000
/home/daniel/Projects/ppsevolution/data/maps/custom_maps/Custom_8_Run_0_Map.csv,0.037923,1.000000,0.210000,0.800000,0.000000,0.126768,1.000000,1.000000,0.936749,0.112030,0.000000,0.727163,1.000000,1.000000,0.000000,2.000000
/home/daniel/Projects/ppsevolution/data/maps/custom_maps/Custom_8_Run_0_Map.csv,0.031296,1.000000,0.283809,0.800000,0.030000,0.145002,1.000000,1.000000,1.000000,0.129665,0.000000,0.741961,0.908944,0.667492,0.000000,0.000000
/home/daniel/Projects/ppsevolution/data/maps/custom_maps/Custom_8_Run_0_Map.csv,0.084550,0.880579,0.210000,0.811799,0.134794,0.247650,0.969344,1.000000,1.000000,0.117178,0.000000,0.733826,1.000000,1.000000,0.058038,2.000000
/home/daniel/Projects/ppsevolution/data/maps/custom_maps/Custom_9_Run_0_Map.csv,0.020969,0.942696,0.195723,0.718173,0.227629,0.299865,1.000000,1.000000,1.000000,0.005479,0.000000,0.601026,0.962745,0.805329,0.703839,0.000000
/home/daniel/Projects/ppsevolution/data/maps/custom_maps/Custom_9_Run_0_Map.csv,0.013054,1.000000,0.210000,0.707035,0.030000,0.000000,1.000000,2.000000,1.000000,0.018505,0.000000,0.632742,0.749445,0.941969,0.044709,1.000000
/home/daniel/Projects/ppsevolution/data/maps/custom_maps/Custom_9_Run_0_Map.csv,0.000000,0.791959,0.000000,0.820420,0.091483,0.000000,1.000000,0.000000,1.000000,0.210893,0.133582,0.600000,1.000000,1.000000,0.237893,0.000000
/home/daniel/Projects/ppsevolution/data/maps/custom_maps/Custom_9_Run_0_Map.csv,0.000000,1.000000,0.210000,0.677815,0.000000,0.072671,1.000000,1.000000,0.798393,0.058731,0.064587,0.600000,0.969999,0.763940,0.132425,1.000000
/home/daniel/Projects/ppsevolution/data/maps/custom_maps/Custom_9_Run_0_Map.csv,0.000000,0.874593,0.236298,0.718520,0.000000,0.034581,1.000000,0.000000,1.000000,0.024916,0.081132,0.604825,1.000000,1.000000,0.000000,2.000000
/home/daniel/Projects/ppsevolution/data/maps/custom_maps/Custom_9_Run_0_Map.csv,0.000000,1.000000,0.079090,0.792941,0.030000,0.000000,1.000000,0.000000,0.968199,0.115403,0.000000,0.672008,0.935499,0.905827,0.000501,0.000000
/home/daniel/Projects/ppsevolution/data/maps/custom_maps/Custom_9_Run_0_Map.csv,0.055188,0.876117,0.076637,0.800000,0.083181,0.000000,0.875177,0.000000,0.975885,0.000000,0.015320,0.680050,0.984767,0.768246,0.040782,0.000000
/home/daniel/Projects/ppsevolution/data/maps/custom_maps/Custom_9_Run_0_Map.csv,0.055795,1.000000,0.210000,0.740457,0.185443,0.000000,1.000000,0.000000,1.000000,0.000000,0.000000,0.673777,0.832730,1.000000,0.000000,0.000000
/home/daniel/Projects/ppsevolution/data/maps/custom_maps/Custom_9_Run_0_Map.csv,0.049504,0.999594,0.172097,0.752134,0.000000,0.030000,0.986395,0.000000,1.000000,0.000000,0.144777,0.600000,1.000000,0.853869,0.000000,1.000000
/home/daniel/Projects/ppsevolution/data/maps/custom_maps/Custom_9_Run_0_Map.csv,0.000000,0.882155,0.210000,0.739496,0.030000,0.140909,1.000000,0.000000,1.000000,0.076233,0.000000,0.650471,1.000000,1.000000,0.179598,0.000000
/home/daniel/Projects/ppsevolution/data/maps/custom_maps/Custom_10_Run_0_Map.csv,0.000000,0.628223,1.000000,1.000000,0.000000,0.000000,1.000000,2.000000,0.702132,0.000000,0.863080,1.000000,0.553326,0.660911,0.000000,2.000000
/home/daniel/Projects/ppsevolution/data/maps/custom_maps/Custom_10_Run_0_Map.csv,0.000299,0.839466,1.000000,1.000000,0.000000,0.111989,1.000000,1.000000,0.671870,0.102131,0.968672,1.000000,0.961550,0.975485,0.327670,2.000000
/home/daniel/Projects/ppsevolution/data/maps/custom_maps/Custom_10_Run_0_Map.csv,0.067345,0.963461,0.703739,1.000000,0.037396,0.000000,1.000000,2.000000,0.381343,0.164110,1.000000,1.000000,0.827840,0.938990,0.349558,1.000000
/home/daniel/Projects/ppsevolution/data/maps/custom_maps/Custom_10_Run_0_Map.csv,0.095367,0.871202,1.000000,0.987304,0.000449,0.570254,0.938462,2.000000,0.644626,0.077442,0.814353,1.000000,0.994596,0.974698,0.191754,2.000000
/home/daniel/Projects/ppsevolution/data/maps/custom_maps/Custom_10_Run_0_Map.csv,0.056273,0.929111,0.900401,1.000000,0.296955,0.353238,1.000000,2.000000,0.624017,0.042990,0.841157,1.000000,0.604093,0.578879,0.146465,2.000000
/home/daniel/Projects/ppsevolution/data/maps/custom_maps/Custom_10_Run_0_Map.csv,0.000000,0.754183,0.910669,1.000000,0.353146,0.046050,1.000000,2.000000,0.679309,0.089539,0.961794,1.000000,0.739155,0.930425,0.634029,2.000000
/home/daniel/Projects/ppsevolution/data/maps/custom_maps/Custom_10_Run_0_Map.csv,0.000000,0.870431,0.698068,1.000000,0.125247,0.204910,0.975578,2.000000,0.364307,0.030870,0.769209,1.000000,1.000000,0.525573,0.498914,2.000000
/home/daniel/Projects/ppsevolution/data/maps/custom_maps/Custom_10_Run_0_Map.csv,0.041972,1.000000,0.523320,1.000000,0.037189,0.275485,0.968815,2.000000,0.141886,0.224597,0.820242,1.000000,0.590387,0.801250,0.719571,1.000000
/home/daniel/Projects/ppsevolution/data/maps/custom_maps/Custom_10_Run_0_Map.csv,0.000000,0.902231,1.000000,0.989578,0.000000,0.210593,1.000000,2.000000,0.598086,0.000000,0.576526,1.000000,0.582163,0.572869,0.008348,2.000000
/home/daniel/Projects/ppsevolution/data/maps/custom_maps/Custom_10_Run_0_Map.csv,0.000000,0.829046,0.821723,0.985015,0.064694,0.183407,0.942033,2.000000,0.212379,0.000000,0.833571,1.000000,0.554206,0.839406,0.068010,1.000000
