/home/daniel/Projects/ppsevolution/data/maps/custom_maps/Custom_1_Run_0_Map.csv,0.000000,1.000000,0.356829,1.000000,0.012999,0.190291,0.972335,2.000000,0.361710,0.000000,1.000000,1.000000,1.000000,0.677851,1.000000,2.000000
/home/daniel/Projects/ppsevolution/data/maps/custom_maps/Custom_1_Run_0_Map.csv,0.000000,0.843076,0.506416,1.000000,0.000000,0.000000,1.000000,2.000000,0.610049,0.000000,1.000000,1.000000,0.859672,0.855533,0.797890,2.000000
/home/daniel/Projects/ppsevolution/data/maps/custom_maps/Custom_1_Run_0_Map.csv,0.000000,1.000000,0.268803,1.000000,0.000000,0.055011,1.000000,2.000000,0.163869,0.000000,1.000000,1.000000,0.947683,0.793284,0.689172,2.000000
/home/daniel/Projects/ppsevolution/data/maps/custom_maps/Custom_1_Run_0_Map.csv,0.113564,1.000000,0.595491,1.000000,0.000000,0.058268,1.000000,2.000000,0.781042,0.000000,1.000000,1.000000,0.590418,0.571405,0.505465,2.000000
/home/daniel/Projects/ppsevolution/data/maps/custom_maps/Custom_1_Run_0_Map.csv,0.002971,0.623080,0.557208,1.000000,0.000000,0.435498,1.000000,2.000000,0.663947,0.035225,1.000000,1.000000,0.630795,0.784609,0.589185,2.000000
/home/daniel/Projects/ppsevolution/data/maps/custom_maps/Custom_1_Run_0_Map.csv,0.000000,0.859185,0.439996,1.000000,0.000000,0.031606,1.000000,2.000000,0.490106,0.000000,1.000000,1.000000,0.862346,0.659213,1.000000,2.000000
/home/daniel/Projects/ppsevolution/data/maps/custom_maps/Custom_1_Run_0_Map.csv,0.000000,0.655408,0.888785,0.971800,0.000000,0.095721,1.000000,2.000000,0.503122,0.000000,1.000000,1.000000,1.000000,0.342234,0.467759,2.000000
/home/daniel/Projects/ppsevolution/data/maps/custom_maps/Custom_1_Run_0_Map.csv,0.000000,1.000000,0.578110,0.992621,0.000000,0.000000,0.994478,2.000000,0.568033,0.152617,1.000000,1.000000,0.901125,0.903610,0.305927,2.000000
/home/daniel/Projects/ppsevolution/data/maps/custom_maps/Custom_1_Run_0_Map.csv,0.000000,0.966947,0.405602,1.000000,0.000000,0.092899,1.000000,2.000000,0.321182,0.121600,1.000000,1.000000,0.973728,0.381631,0.638178,2.000000
/home/daniel/Projects/ppsevolution/data/maps/custom_maps/Custom_1_Run_0_Map.csv,0.000000,1.000000,0.393509,1.000000,0.422833,0.000000,0.949246,2.000000,0.323322,0.037182,1.000000,1.000000,0.801704,0.537327,0.521644,2.000000
/home/daniel/Projects/ppsevolution/data/maps/custom_maps/Custom_2_Run_0_Map.csv,0.000000,1.000000,0.699158,1.000000,0.000000,0.000000,1.000000,2.000000,1.000000,0.487740,1.000000,1.000000,1.000000,1.000000,1.000000,2.000000
/home/daniel/Projects/ppsevolution/data/maps/custom_maps/Custom_2_Run_0_Map.csv,0.000000,1.000000,0.644793,1.000000,0.000000,0.000000,1.000000,2.000000,0.896548,0.563850,1.000000,1.000000,1.000000,1.000000,1.000000,2.000000
/home/daniel/Projects/ppsevolution/data/maps/custom_maps/Custom_2_Run_0_Map.csv,0.000000,1.000000,0.638738,1.000000,0.000000,0.000000,1.000000,2.000000,0.888117,0.729293,1.000000,1.000000,0.997968,1.000000,1.000000,2.000000
/home/daniel/Projects/ppsevolution/data/maps/custom_maps/Custom_2_Run_0_Map.csv,0.000000,1.000000,0.652933,1.000000,0.000000,0.000000,1.000000,2.000000,0.887902,0.835122,1.000000,1.000000,1.000000,1.000000,1.000000,2.000000
/home/daniel/Projects/ppsevolution/data/maps/custom_maps/Custom_2_Run_0_Map.csv,0.000000,1.000000,0.678635,1.000000,0.000000,0.000000,0.992489,2.000000,0.966117,0.534495,1.000000,1.000000,1.000000,1.000000,1.000000,2.000000
/home/daniel/Projects/ppsevolution/data/maps/custom_maps/Custom_2_Run_0_Map.csv,0.000000,0.991600,0.594741,1.000000,0.002840,0.000000,1.000000,2.000000,0.776933,0.384578,1.000000,1.000000,1.000000,1.000000,1.000000,2.000000
/home/daniel/Projects/ppsevolution/data/maps/custom_maps/Custom_2_Run_0_Map.csv,0.000000,1.000000,0.537648,1.000000,0.000000,0.000000,1.000000,2.000000,0.675997,0.953233,1.000000,1.000000,1.000000,1.000000,1.000000,2.000000
/home/daniel/Projects/ppsevolution/data/maps/custom_maps/Custom_2_Run_0_Map.csv,0.000000,0.995182,0.662062,1.000000,0.000000,0.000000,1.000000,2.000000,0.924852,0.648535,1.000000,1.000000,0.987038,1.000000,1.000000,2.000000
/home/daniel/Projects/ppsevolution/data/maps/custom_maps/Custom_2_Run_0_Map.csv,0.000000,1.000000,0.657811,1.000000,0.000000,0.003443,1.000000,2.000000,0.871068,0.662507,1.000000,1.000000,1.000000,1.000000,1.000000,2.000000
/home/daniel/Projects/ppsevolution/data/maps/custom_maps/Custom_2_Run_0_Map.csv,0.000000,0.993883,0.732063,1.000000,0.000000,0.004694,1.000000,2.000000,1.000000,0.386515,1.000000,1.000000,1.000000,1.000000,1.000000,2.000000
/home/daniel/Projects/ppsevolution/data/maps/custom_maps/Custom_3_Run_0_Map.csv,0.000000,0.877819,1.000000,0.981097,0.000000,0.188386,1.000000,2.000000,0.000000,0.000000,1.000000,1.000000,1.000000,0.000000,1.000000,2.000000
/home/daniel/Projects/ppsevolution/data/maps/custom_maps/Custom_3_Run_0_Map.csv,0.000000,1.000000,1.000000,0.980641,0.000000,0.057185,1.000000,2.000000,0.000000,0.000000,1.000000,1.000000,1.000000,0.000000,1.000000,2.000000
/home/daniel/Projects/ppsevolution/data/maps/custom_maps/Custom_3_Run_0_Map.csv,0.000000,1.000000,1.000000,0.978076,0.000000,0.114533,1.000000,2.000000,0.000000,0.000000,1.000000,1.000000,1.000000,0.000000,1.000000,2.000000
/home/daniel/Projects/ppsevolution/data/maps/custom_maps/Custom_3_Run_0_Map.csv,0.000000,1.000000,1.000000,0.976806,0.000000,0.000000,1.000000,2.000000,0.000000,0.000000,1.000000,1.000000,1.000000,0.000000,1.000000,2.000000
/home/daniel/Projects/ppsevolution/data/maps/custom_maps/Custom_3_Run_0_Map.csv,0.000000,0.951872,1.000000,0.978724,0.000000,0.000000,1.000000,2.000000,0.000000,0.000000,1.000000,1.000000,1.000000,0.000000,1.000000,2.000000
/home/daniel/Projects/ppsevolution/data/maps/custom_maps/Custom_3_Run_0_Map.csv,0.000000,1.000000,1.000000,0.977224,0.000000,0.121738,1.000000,2.000000,0.000000,0.000000,1.000000,1.000000,1.000000,0.000000,1.000000,2.000000
/home/daniel/Projects/ppsevolution/data/maps/custom_maps/Custom_3_Run_0_Map.csv,0.000000,1.000000,1.000000,0.978217,0.003814,0.909859,1.000000,2.000000,0.000000,0.004381,1.000000,1.000000,1.000000,0.031650,1.000000,2.000000
/home/daniel/Projects/ppsevolution/data/maps/custom_maps/Custom_3_Run_0_Map.csv,0.000000,0.944051,1.000000,0.982706,0.000000,1.000000,1.000000,2.000000,0.000000,0.000000,1.000000,1.000000,1.000000,0.000000,1.000000,2.000000
/home/daniel/Projects/ppsevolution/data/maps/custom_maps/Custom_3_Run_0_Map.csv,0.000000,1.000000,1.000000,0.978140,0.000000,0.000000,1.000000,2.000000,0.000000,0.009501,1.000000,1.000000,1.000000,0.000000,1.000000,2.000000
/home/daniel/Projects/ppsevolution/data/maps/custom_maps/Custom_3_Run_0_Map.csv,0.000000,1.000000,0.757268,0.994666,0.000000,0.053366,1.000000,2.000000,0.000000,0.000000,1.000000,1.000000,1.000000,0.000000,1.000000,2.000000
/home/daniel/Projects/ppsevolution/data/maps/custom_maps/Custom_4_Run_0_Map.csv,0.019824,0.700897,0.946523,0.989737,0.000000,0.000000,1.000000,2.000000,0.218959,0.036136,1.000000,1.000000,1.000000,0.294309,0.590943,2.000000
/home/daniel/Projects/ppsevolution/data/maps/custom_maps/Custom_4_Run_0_Map.csv,0.000000,0.629905,0.958356,0.976623,0.000000,0.001468,1.000000,2.000000,0.000000,0.000000,1.000000,1.000000,0.527898,0.749148,0.413632,2.000000
/home/daniel/Projects/ppsevolution/data/maps/custom_maps/Custom_4_Run_0_Map.csv,0.000000,1.000000,0.941751,0.987102,0.000000,0.000000,1.000000,2.000000,0.029853,0.000000,1.000000,1.000000,1.000000,0.000000,0.574327,2.000000
/home/daniel/Projects/ppsevolution/data/maps/custom_maps/Custom_4_Run_0_Map.csv,0.000000,0.566360,1.000000,0.978569,0.000000,0.000000,1.000000,2.000000,0.000000,0.000000,1.000000,1.000000,1.000000,0.000000,0.989680,2.000000
/home/daniel/Projects/ppsevolution/data/maps/custom_maps/Custom_4_Run_0_Map.csv,0.000000,1.000000,0.726708,1.000000,0.000000,0.000000,1.000000,2.000000,0.000000,0.000000,1.000000,1.000000,0.849301,0.003226,1.000000,2.000000
/home/daniel/Projects/ppsevolution/data/maps/custom_maps/Custom_4_Run_0_Map.csv,0.000000,1.000000,0.973042,0.984466,0.000000,0.072660,1.000000,2.000000,0.140699,0.186748,1.000000,1.000000,0.971521,0.000000,1.000000,2.000000
/home/daniel/Projects/ppsevolution/data/maps/custom_maps/Custom_4_Run_0_Map.csv,0.000000,0.669194,0.792867,0.990556,0.058270,0.039041,1.000000,2.000000,0.000000,0.264291,0.998222,1.000000,1.000000,0.000000,1.000000,2.000000
/home/daniel/Projects/ppsevolution/data/maps/custom_maps/Custom_4_Run_0_Map.csv,0.000000,0.900134,0.626563,1.000000,0.039915,0.031001,1.000000,2.000000,0.000000,0.000000,1.000000,1.000000,1.000000,0.721397,0.572211,2.000000
/home/daniel/Projects/ppsevolution/data/maps/custom_maps/Custom_4_Run_0_Map.csv,0.000000,0.810458,0.703510,0.998954,0.000000,0.000000,1.000000,2.000000,0.000000,0.000000,1.000000,1.000000,0.972399,0.161996,0.964147,2.000000
/home/daniel/Projects/ppsevolution/data/maps/custom_maps/Custom_4_Run_0_Map.csv,0.000000,0.490274,0.967798,0.988796,0.000000,0.006463,1.000000,2.000000,0.148019,0.000000,1.000000,1.000000,1.000000,0.000000,1.000000,2.000000
/home/daniel/Projects/ppsevolution/data/maps/custom_maps/Custom_5_Run_0_Map.csv,0.000000,0.880370,1.000000,0.978166,0.000000,0.378415,1.000000,2.000000,0.000000,0.000000,0.999837,1.000000,0.971349,0.000000,1.000000,2.000000
/home/daniel/Projects/ppsevolution/data/maps/custom_maps/Custom_5_Run_0_Map.csv,0.000000,1.000000,1.000000,0.973693,0.000000,0.762750,1.000000,2.000000,0.000000,0.000000,1.000000,1.000000,1.000000,0.000000,0.994889,2.000000
/home/daniel/Projects/ppsevolution/data/maps/custom_maps/Custom_5_Run_0_Map.csv,0.000000,0.298545,1.000000,0.980422,0.001152,0.957902,1.000000,2.000000,0.000000,0.047761,0.971835,1.000000,0.721504,0.000000,1.000000,2.000000
/home/daniel/Projects/ppsevolution/data/maps/custom_maps/Custom_5_Run_0_Map.csv,0.000000,0.495550,1.000000,0.976511,0.000000,0.265708,1.000000,2.000000,0.000000,0.002584,1.000000,1.000000,0.913513,0.000000,1.000000,2.000000
/home/daniel/Projects/ppsevolution/data/maps/custom_maps/Custom_5_Run_0_Map.csv,0.058431,0.964160,1.000000,0.971306,0.000000,0.762158,1.000000,2.000000,0.000000,0.071372,1.000000,1.000000,1.000000,0.000000,1.000000,2.000000
/home/daniel/Projects/ppsevolution/data/maps/custom_maps/Custom_5_Run_0_Map.csv,0.000000,0.799877,1.000000,0.978016,0.000000,0.489351,1.000000,2.000000,0.000000,0.000000,1.000000,1.000000,0.735441,0.000000,1.000000,2.000000
/home/daniel/Projects/ppsevolution/data/maps/custom_maps/Custom_5_Run_0_Map.csv,0.000000,0.907461,1.000000,0.975452,0.000000,0.621920,1.000000,2.000000,0.000000,0.000000,1.000000,1.000000,0.995277,0.000000,1.000000,2.000000
/home/daniel/Projects/ppsevolution/data/maps/custom_maps/Custom_5_Run_0_Map.csv,0.000000,0.914172,1.000000,0.972959,0.000000,1.000000,1.000000,2.000000,0.000000,0.000000,1.000000,1.000000,1.000000,0.000000,1.000000,2.000000
/home/daniel/Projects/ppsevolution/data/maps/custom_maps/Custom_5_Run_0_Map.csv,0.000000,0.880279,1.000000,0.977868,0.000000,0.221864,1.000000,2.000000,0.000000,0.001447,1.000000,1.000000,0.992689,0.000000,1.000000,2.000000
/home/daniel/Projects/ppsevolution/data/maps/custom_maps/Custom_5_Run_0_Map.csv,0.023558,0.716876,1.000000,0.978923,0.000000,0.606047,1.000000,2.000000,0.000000,0.000000,1.000000,1.000000,0.850268,0.000000,1.000000,2.000000
/home/daniel/Projects/ppsevolution/data/maps/custom_maps/Custom_6_Run_0_Map.csv,0.000000,1.000000,0.000000,1.000000,0.000000,0.000000,0.000000,2.000000,1.000000,0.908703,1.000000,0.965670,1.000000,1.000000,1.000000,2.000000
/home/daniel/Projects/ppsevolution/data/maps/custom_maps/Custom_6_Run_0_Map.csv,0.000000,1.000000,0.000000,1.000000,0.000000,0.000000,0.053923,2.000000,1.000000,0.542154,1.000000,0.964279,0.999835,1.000000,1.000000,2.000000
/home/daniel/Projects/ppsevolution/data/maps/custom_maps/Custom_6_Run_0_Map.csv,0.000000,1.000000,0.000000,1.000000,0.000000,0.000000,0.000000,2.000000,1.000000,0.902318,1.000000,0.971150,1.000000,0.999287,0.985172,2.000000
/home/daniel/Projects/ppsevolution/data/maps/custom_maps/Custom_6_Run_0_Map.csv,0.013951,1.000000,0.000000,1.000000,0.004983,0.000000,0.000000,2.000000,1.000000,0.241650,1.000000,0.965565,1.000000,1.000000,1.000000,2.000000
/home/daniel/Projects/ppsevolution/data/maps/custom_maps/Custom_6_Run_0_Map.csv,0.000000,1.000000,0.000000,1.000000,0.000000,0.000000,0.000000,2.000000,1.000000,0.801703,1.000000,0.962161,1.000000,1.000000,1.000000,2.000000
/home/daniel/Projects/ppsevolution/data/maps/custom_maps/Custom_6_Run_0_Map.csv,0.000000,1.000000,0.000000,1.000000,0.000000,0.000000,0.000000,2.000000,1.000000,1.000000,1.000000,0.966869,1.000000,1.000000,1.000000,2.000000
/home/daniel/Projects/ppsevolution/data/maps/custom_maps/Custom_6_Run_0_Map.csv,0.018790,1.000000,0.000000,1.000000,0.000000,0.000000,0.000000,2.000000,1.000000,0.494278,1.000000,0.974924,1.000000,1.000000,1.000000,2.000000
/home/daniel/Projects/ppsevolution/data/maps/custom_maps/Custom_6_Run_0_Map.csv,0.000000,1.000000,0.000000,1.000000,0.000000,0.000000,0.000000,2.000000,1.000000,0.959446,1.000000,0.971490,1.000000,1.000000,1.000000,2.000000
/home/daniel/Projects/ppsevolution/data/maps/custom_maps/Custom_6_Run_0_Map.csv,0.000000,0.963298,0.000000,1.000000,0.000000,0.000000,0.084986,2.000000,1.000000,0.002662,1.000000,0.962905,1.000000,1.000000,1.000000,2.000000
/home/daniel/Projects/ppsevolution/data/maps/custom_maps/Custom_6_Run_0_Map.csv,0.000000,1.000000,0.000000,1.000000,0.000000,0.000000,0.000000,2.000000,1.000000,0.863419,1.000000,0.965595,1.000000,1.000000,1.000000,2.000000
/home/daniel/Projects/ppsevolution/data/maps/custom_maps/Custom_7_Run_0_Map.csv,0.000000,1.000000,0.395973,1.000000,0.000000,0.000000,1.000000,2.000000,0.275601,0.004963,1.000000,1.000000,1.000000,1.000000,1.000000,2.000000
/home/daniel/Projects/ppsevolution/data/maps/custom_maps/Custom_7_Run_0_Map.csv,0.000000,1.000000,0.741654,1.000000,0.000000,0.000000,1.000000,2.000000,0.923812,0.000000,1.000000,1.000000,1.000000,1.000000,1.000000,2.000000
/home/daniel/Projects/ppsevolution/data/maps/custom_maps/Custom_7_Run_0_Map.csv,0.000000,0.920550,0.529595,1.000000,0.000000,0.000000,1.000000,2.000000,0.524720,0.000000,1.000000,1.000000,1.000000,1.000000,1.000000,2.000000
/home/daniel/Projects/ppsevolution/data/maps/custom_maps/Custom_7_Run_0_Map.csv,0.000000,1.000000,0.321003,1.000000,0.000000,0.000000,1.000000,2.000000,0.131972,0.000000,1.000000,1.000000,0.964837,1.000000,1.000000,2.000000
/home/daniel/Projects/ppsevolution/data/maps/custom_maps/Custom_7_Run_0_Map.csv,0.000000,0.961589,0.578561,1.000000,0.000000,0.000000,1.000000,2.000000,0.566362,0.000000,1.000000,1.000000,1.000000,1.000000,0.997641,2.000000
/home/daniel/Projects/ppsevolution/data/maps/custom_maps/Custom_7_Run_0_Map.csv,0.000000,1.000000,0.614855,1.000000,0.000000,0.000000,1.000000,2.000000,0.697558,0.053886,1.000000,1.000000,1.000000,1.000000,1.000000,2.000000
/home/daniel/Projects/ppsevolution/data/maps/custom_maps/Custom_7_Run_0_Map.csv,0.000000,1.000000,0.771365,1.000000,0.000000,0.000000,1.000000,2.000000,0.954816,0.000000,1.000000,1.000000,1.000000,1.000000,1.000000,2.000000
/home/daniel/Projects/ppsevolution/data/maps/custom_maps/Custom_7_Run_0_Map.csv,0.000000,1.000000,0.732985,1.000000,0.000000,0.000000,1.000000,2.000000,0.885198,0.000000,1.000000,1.000000,1.000000,1.000000,1.000000,2.000000
/home/daniel/Projects/ppsevolution/data/maps/custom_maps/Custom_7_Run_0_Map.csv,0.000000,0.843886,0.621410,1.000000,0.000000,0.000000,1.000000,2.000000,0.678820,0.017847,1.000000,1.000000,0.872370,1.000000,1.000000,2.000000
/home/daniel/Projects/ppsevolution/data/maps/custom_maps/Custom_7_Run_0_Map.csv,0.000000,1.000000,0.595581,1.000000,0.000000,0.000000,1.000000,2.000000,0.633273,0.000000,1.000000,1.000000,1.000000,1.000000,1.000000,2.000000
/home/daniel/Projects/ppsevolution/data/maps/custom_maps/Custom_8_Run_0_Map.csv,0.000000,0.935491,0.628034,0.997546,0.000000,0.109777,0.972821,2.000000,0.006629,0.015600,1.000000,1.000000,1.000000,0.224797,1.000000,2.000000
/home/daniel/Projects/ppsevolution/data/maps/custom_maps/Custom_8_Run_0_Map.csv,0.000000,1.000000,0.600474,1.000000,0.000000,0.037568,1.000000,2.000000,0.000000,0.000000,1.000000,1.000000,0.997192,0.005040,1.000000,2.000000
/home/daniel/Projects/ppsevolution/data/maps/custom_maps/Custom_8_Run_0_Map.csv,0.000000,1.000000,0.556600,1.000000,0.000000,0.100890,1.000000,2.000000,0.000000,0.000000,1.000000,1.000000,1.000000,0.341117,1.000000,2.000000
/home/daniel/Projects/ppsevolution/data/maps/custom_maps/Custom_8_Run_0_Map.csv,0.000000,1.000000,0.607455,1.000000,0.000000,0.000000,1.000000,2.000000,0.000000,0.000000,1.000000,1.000000,1.000000,0.000000,0.991326,2.000000
/home/daniel/Projects/ppsevolution/data/maps/custom_maps/Custom_8_Run_0_Map.csv,0.000000,0.918897,0.561691,1.000000,0.000000,0.000000,1.000000,2.000000,0.000000,0.000000,1.000000,1.000000,1.000000,0.211440,1.000000,2.000000
/home/daniel/Projects/ppsevolution/data/maps/custom_maps/Custom_8_Run_0_Map.csv,0.000000,0.739870,0.804170,0.984668,0.000000,0.000000,1.000000,2.000000,0.000000,0.038709,1.000000,1.000000,0.884345,0.000000,0.968831,2.000000
/home/daniel/Projects/ppsevolution/data/maps/custom_maps/Custom_8_Run_0_Map.csv,0.000000,1.000000,0.929642,1.000000,0.000000,0.000000,1.000000,2.000000,0.564689,0.000000,0.996861,1.000000,0.984719,0.069187,1.000000,2.000000
/home/daniel/Projects/ppsevolution/data/maps/custom_maps/Custom_8_Run_0_Map.csv,0.000000,1.000000,0.609771,1.000000,0.000000,0.000000,1.000000,2.000000,0.002811,0.000000,1.000000,1.000000,1.000000,0.005641,0.984962,2.000000
/home/daniel/Projects/ppsevolution/data/maps/custom_maps/Custom_8_Run_0_Map.csv,0.000000,0.994686,0.703073,1.000000,0.000000,0.047759,0.995947,2.000000,0.315432,0.000000,1.000000,1.000000,1.000000,0.601612,1.000000,2.000000
/home/daniel/Projects/ppsevolution/data/maps/custom_maps/Custom_8_Run_0_Map.csv,0.000000,0.846258,0.621492,1.000000,0.000000,0.117223,1.000000,2.000000,0.000000,0.000000,1.000000,1.000000,0.676781,0.014560,1.000000,2.000000
/home/daniel/Projects/ppsevolution/data/maps/custom_maps/Custom_9_Run_0_Map.csv,0.000000,0.081923,0.673681,1.000000,0.000000,0.000000,1.000000,2.000000,0.340019,0.000000,1.000000,1.000000,0.712916,0.000000,0.912954,2.000000
/home/daniel/Projects/ppsevolution/data/maps/custom_maps/Custom_9_Run_0_Map.csv,0.000000,0.986661,0.749155,1.000000,0.000000,0.000000,1.000000,2.000000,0.554762,0.000000,1.000000,1.000000,0.952694,0.000000,1.000000,2.000000
/home/daniel/Projects/ppsevolution/data/maps/custom_maps/Custom_9_Run_0_Map.csv,0.000000,1.000000,0.374715,1.000000,0.017273,0.000000,1.000000,2.000000,0.000000,0.000000,1.000000,1.000000,0.489351,0.424977,1.000000,2.000000
/home/daniel/Projects/ppsevolution/data/maps/custom_maps/Custom_9_Run_0_Map.csv,0.000000,0.679057,0.929136,0.980876,0.000000,0.054894,1.000000,2.000000,0.463291,0.000000,0.988890,1.000000,0.757123,0.405762,0.701503,2.000000
/home/daniel/Projects/ppsevolution/data/maps/custom_maps/Custom_9_Run_0_Map.csv,0.000000,1.000000,1.000000,0.956340,0.000000,0.019153,1.000000,2.000000,0.000000,0.062793,1.000000,1.000000,0.784301,0.053033,1.000000,2.000000
/home/daniel/Projects/ppsevolution/data/maps/custom_maps/Custom_9_Run_0_Map.csv,0.000000,0.980189,0.534697,1.000000,0.000000,0.000000,1.000000,2.000000,0.320139,0.032338,1.000000,1.000000,1.000000,0.414530,0.941225,2.000000
/home/daniel/Projects/ppsevolution/data/maps/custom_maps/Custom_9_Run_0_Map.csv,0.000000,0.653670,1.000000,0.968437,0.000000,0.000000,1.000000,2.000000,0.221050,0.029580,1.000000,1.000000,1.000000,0.000000,1.000000,2.000000
/home/daniel/Projects/ppsevolution/data/maps/custom_maps/Custom_9_Run_0_Map.csv,0.000000,1.000000,0.559836,1.000000,0.000000,0.000000,1.000000,2.000000,0.152304,0.000000,1.000000,1.000000,0.890401,0.047368,0.639500,2.000000
/home/daniel/Projects/ppsevolution/data/maps/custom_maps/Custom_9_Run_0_Map.csv,0.000000,0.787847,1.000000,1.000000,0.009329,0.244830,1.000000,2.000000,0.944350,0.000000,1.000000,1.000000,1.000000,0.000000,0.936096,2.000000
/home/daniel/Projects/ppsevolution/data/maps/custom_maps/Custom_9_Run_0_Map.csv,0.014755,1.000000,0.447705,1.000000,0.042446,0.156836,1.000000,2.000000,0.017807,0.000000,1.000000,1.000000,0.862575,0.000000,1.000000,2.000000
/home/daniel/Projects/ppsevolution/data/maps/custom_maps/Custom_10_Run_0_Map.csv,0.000000,0.474949,1.000000,0.989563,0.000000,1.000000,1.000000,2.000000,0.000000,0.000000,1.000000,1.000000,1.000000,0.000000,1.000000,0.000000
/home/daniel/Projects/ppsevolution/data/maps/custom_maps/Custom_10_Run_0_Map.csv,0.000000,0.478468,1.000000,0.992025,0.000000,1.000000,1.000000,2.000000,0.000000,0.029942,1.000000,1.000000,0.712154,0.000000,1.000000,0.000000
/home/daniel/Projects/ppsevolution/data/maps/custom_maps/Custom_10_Run_0_Map.csv,0.000000,0.675436,1.000000,0.988174,0.000000,1.000000,1.000000,2.000000,0.000000,0.000000,1.000000,1.000000,0.391644,0.000000,1.000000,0.000000
/home/daniel/Projects/ppsevolution/data/maps/custom_maps/Custom_10_Run_0_Map.csv,0.000000,0.879762,1.000000,0.991158,0.000000,1.000000,1.000000,2.000000,0.000000,0.007498,1.000000,1.000000,0.935543,0.000000,1.000000,0.000000
/home/daniel/Projects/ppsevolution/data/maps/custom_maps/Custom_10_Run_0_Map.csv,0.000000,1.000000,1.000000,0.990175,0.000000,1.000000,1.000000,2.000000,0.000000,0.000000,1.000000,1.000000,1.000000,0.000000,1.000000,0.000000
/home/daniel/Projects/ppsevolution/data/maps/custom_maps/Custom_10_Run_0_Map.csv,0.000000,1.000000,1.000000,0.987102,0.000000,1.000000,1.000000,2.000000,0.000000,0.000000,1.000000,1.000000,1.000000,0.000000,1.000000,0.000000
/home/daniel/Projects/ppsevolution/data/maps/custom_maps/Custom_10_Run_0_Map.csv,0.002308,1.000000,1.000000,0.987485,0.000000,1.000000,1.000000,2.000000,0.000000,0.000000,1.000000,1.000000,1.000000,0.000000,1.000000,0.000000
/home/daniel/Projects/ppsevolution/data/maps/custom_maps/Custom_10_Run_0_Map.csv,0.000000,1.000000,1.000000,0.989685,0.000000,1.000000,1.000000,2.000000,0.000000,0.000000,1.000000,1.000000,1.000000,0.000000,1.000000,0.000000
/home/daniel/Projects/ppsevolution/data/maps/custom_maps/Custom_10_Run_0_Map.csv,0.000000,1.000000,1.000000,0.984574,0.000000,1.000000,1.000000,2.000000,0.000000,0.000000,1.000000,1.000000,1.000000,0.000000,1.000000,0.000000
/home/daniel/Projects/ppsevolution/data/maps/custom_maps/Custom_10_Run_0_Map.csv,0.001016,0.449156,1.000000,0.986714,0.000000,1.000000,1.000000,2.000000,0.000000,0.000000,1.000000,1.000000,1.000000,0.000000,1.000000,0.000000
