/home/daniel/Projects/ppsevolution/data/maps/custom_maps/Custom_1_Run_0_Map.csv,0.000000,0.828938,0.440483,1.000000,0.000000,0.293559,1.000000,2.000000,0.476756,0.168427,1.000000,1.000000,0.859387,0.749693,0.782630,2.000000
/home/daniel/Projects/ppsevolution/data/maps/custom_maps/Custom_1_Run_0_Map.csv,0.000000,0.926531,0.264432,1.000000,0.185904,0.118298,1.000000,2.000000,0.203097,0.189810,1.000000,1.000000,0.990789,1.000000,0.289940,2.000000
/home/daniel/Projects/ppsevolution/data/maps/custom_maps/Custom_1_Run_0_Map.csv,0.032595,0.950275,0.550150,1.000000,0.000000,0.005830,0.998927,2.000000,0.703669,0.005181,1.000000,1.000000,0.906392,0.547148,0.709398,2.000000
/home/daniel/Projects/ppsevolution/data/maps/custom_maps/Custom_1_Run_0_Map.csv,0.000000,0.508227,0.521506,1.000000,0.000000,0.000000,0.996450,2.000000,0.532568,0.202822,1.000000,1.000000,0.945987,0.416726,0.303516,2.000000
/home/daniel/Projects/ppsevolution/data/maps/custom_maps/Custom_1_Run_0_Map.csv,0.000000,1.000000,0.955847,0.950582,0.000000,0.000000,1.000000,2.000000,0.350094,0.094754,1.000000,1.000000,0.876054,1.000000,0.254035,2.000000
/home/daniel/Projects/ppsevolution/data/maps/custom_maps/Custom_1_Run_0_Map.csv,0.000000,0.952635,0.312834,1.000000,0.000000,0.534287,1.000000,2.000000,0.286857,0.030832,0.992684,1.000000,0.914753,1.000000,0.978573,2.000000
/home/daniel/Projects/ppsevolution/data/maps/custom_maps/Custom_1_Run_0_Map.csv,0.000000,1.000000,0.389503,1.000000,0.039457,0.000000,0.994607,2.000000,0.540899,0.450145,0.890366,1.000000,0.587424,0.944523,0.904264,2.000000
/home/daniel/Projects/ppsevolution/data/maps/custom_maps/Custom_1_Run_0_Map.csv,0.000000,0.814797,0.371642,1.000000,0.182462,0.132056,0.955821,2.000000,0.415973,0.226264,1.000000,1.000000,1.000000,1.000000,0.435051,2.000000
/home/daniel/Projects/ppsevolution/data/maps/custom_maps/Custom_1_Run_0_Map.csv,0.000000,0.855781,0.651442,1.000000,0.000000,0.060510,1.000000,2.000000,0.810260,0.026893,1.000000,1.000000,0.972229,0.428812,0.918469,2.000000
/home/daniel/Projects/ppsevolution/data/maps/custom_maps/Custom_1_Run_0_Map.csv,0.000000,0.720158,0.247061,1.000000,0.170890,0.028237,0.943548,2.000000,0.128112,0.013715,1.000000,1.000000,0.473330,0.651016,1.000000,2.000000
/home/daniel/Projects/ppsevolution/data/maps/custom_maps/Custom_2_Run_0_Map.csv,0.000000,1.000000,0.657418,1.000000,0.000000,0.000000,1.000000,2.000000,0.864119,0.000000,1.000000,1.000000,1.000000,1.000000,1.000000,2.000000
/home/daniel/Projects/ppsevolution/data/maps/custom_maps/Custom_2_Run_0_Map.csv,0.004924,1.000000,0.688438,1.000000,0.000000,0.000000,1.000000,2.000000,1.000000,0.717488,1.000000,1.000000,1.000000,0.977267,1.000000,2.000000
/home/daniel/Projects/ppsevolution/data/maps/custom_maps/Custom_2_Run_0_Map.csv,0.000000,0.857411,0.482061,1.000000,0.043966,0.000000,1.000000,2.000000,0.541102,0.952144,1.000000,1.000000,0.979764,1.000000,1.000000,2.000000
/home/daniel/Projects/ppsevolution/data/maps/custom_maps/Custom_2_Run_0_Map.csv,0.000000,1.000000,0.671025,1.000000,0.077653,0.000000,1.000000,2.000000,0.867429,0.363752,1.000000,1.000000,1.000000,1.000000,1.000000,2.000000
/home/daniel/Projects/ppsevolution/data/maps/custom_maps/Custom_2_Run_0_Map.csv,0.000000,1.000000,0.683664,1.000000,0.000000,0.000000,1.000000,2.000000,0.902826,0.571091,1.000000,1.000000,1.000000,1.000000,1.000000,2.000000
/home/daniel/Projects/ppsevolution/data/maps/custom_maps/Custom_2_Run_0_Map.csv,0.000000,0.988733,0.595476,1.000000,0.000000,0.000000,1.000000,2.000000,0.756840,0.446094,1.000000,1.000000,1.000000,1.000000,1.000000,2.000000
/home/daniel/Projects/ppsevolution/data/maps/custom_maps/Custom_2_Run_0_Map.csv,0.000000,1.000000,0.722156,1.000000,0.000000,0.000000,1.000000,2.000000,0.981848,0.237440,1.000000,1.000000,1.000000,0.992948,1.000000,2.000000
/home/daniel/Projects/ppsevolution/data/maps/custom_maps/Custom_2_Run_0_Map.csv,0.000000,1.000000,0.415372,1.000000,0.000000,0.000000,1.000000,2.000000,0.425481,0.155083,1.000000,1.000000,0.800038,1.000000,1.000000,2.000000
/home/daniel/Projects/ppsevolution/data/maps/custom_maps/Custom_2_Run_0_Map.csv,0.000000,0.991749,0.707068,1.000000,0.000000,0.000000,1.000000,2.000000,1.000000,0.939887,1.000000,1.000000,1.000000,1.000000,1.000000,2.000000
/home/daniel/Projects/ppsevolution/data/maps/custom_maps/Custom_2_Run_0_Map.csv,0.000000,0.898447,0.739809,1.000000,0.000000,0.003104,1.000000,2.000000,1.000000,0.560989,1.000000,1.000000,0.956327,1.000000,1.000000,2.000000
/home/daniel/Projects/ppsevolution/data/maps/custom_maps/Custom_3_Run_0_Map.csv,0.000000,0.973707,1.000000,0.980149,0.000000,0.333256,1.000000,2.000000,0.000000,0.000000,1.000000,1.000000,0.965241,0.000000,1.000000,2.000000
/home/daniel/Projects/ppsevolution/data/maps/custom_maps/Custom_3_Run_0_Map.csv,0.000000,0.773022,1.000000,0.982642,0.000000,0.405717,1.000000,2.000000,0.000000,0.000000,1.000000,1.000000,0.940486,0.000000,0.997996,2.000000
/home/daniel/Projects/ppsevolution/data/maps/custom_maps/Custom_3_Run_0_Map.csv,0.000000,0.844314,1.000000,0.986147,0.000000,0.296644,0.987229,2.000000,0.000000,0.000000,1.000000,1.000000,1.000000,0.000000,1.000000,2.000000
/home/daniel/Projects/ppsevolution/data/maps/custom_maps/Custom_3_Run_0_Map.csv,0.000000,1.000000,1.000000,0.983262,0.000000,0.367818,1.000000,2.000000,0.000000,0.000000,1.000000,1.000000,0.912740,0.000000,1.000000,2.000000
/home/daniel/Projects/ppsevolution/data/maps/custom_maps/Custom_3_Run_0_Map.csv,0.000000,0.804811,1.000000,0.976959,0.000000,0.791338,0.999867,2.000000,0.000000,0.000000,1.000000,1.000000,0.984657,0.000000,0.976110,2.000000
/home/daniel/Projects/ppsevolution/data/maps/custom_maps/Custom_3_Run_0_Map.csv,0.000000,0.321365,1.000000,1.000000,0.000000,0.316846,1.000000,2.000000,0.001003,0.013073,1.000000,1.000000,0.917293,0.003828,0.408603,2.000000
/home/daniel/Projects/ppsevolution/data/maps/custom_maps/Custom_3_Run_0_Map.csv,0.000000,0.899451,1.000000,0.977830,0.000000,0.000000,1.000000,2.000000,0.000000,0.026098,1.000000,1.000000,1.000000,0.000000,1.000000,2.000000
/home/daniel/Projects/ppsevolution/data/maps/custom_maps/Custom_3_Run_0_Map.csv,0.000000,1.000000,0.652479,1.000000,0.000000,0.000000,1.000000,2.000000,0.000000,0.000000,1.000000,1.000000,1.000000,0.000490,1.000000,2.000000
/home/daniel/Projects/ppsevolution/data/maps/custom_maps/Custom_3_Run_0_Map.csv,0.000000,0.959029,1.000000,0.981596,0.000000,0.044262,1.000000,2.000000,0.220077,0.052198,1.000000,1.000000,1.000000,0.000000,1.000000,2.000000
/home/daniel/Projects/ppsevolution/data/maps/custom_maps/Custom_3_Run_0_Map.csv,0.000000,1.000000,0.686956,1.000000,0.000000,0.000000,1.000000,2.000000,0.000000,0.116973,1.000000,1.000000,0.979228,0.000000,1.000000,2.000000
/home/daniel/Projects/ppsevolution/data/maps/custom_maps/Custom_4_Run_0_Map.csv,0.000852,0.534980,0.715191,1.000000,0.000000,0.022138,1.000000,2.000000,0.068884,0.013851,1.000000,1.000000,1.000000,0.404669,0.601902,2.000000
/home/daniel/Projects/ppsevolution/data/maps/custom_maps/Custom_4_Run_0_Map.csv,0.000000,0.728746,0.918764,0.998150,0.089096,0.187743,0.977216,2.000000,0.419217,0.000000,1.000000,1.000000,0.174308,0.571799,0.759918,2.000000
/home/daniel/Projects/ppsevolution/data/maps/custom_maps/Custom_4_Run_0_Map.csv,0.000000,0.424492,1.000000,0.989593,0.000000,0.000000,0.901418,2.000000,0.422455,0.000000,1.000000,1.000000,0.905582,0.830457,0.926748,2.000000
/home/daniel/Projects/ppsevolution/data/maps/custom_maps/Custom_4_Run_0_Map.csv,0.000000,0.784560,1.000000,0.987251,0.078407,0.000000,1.000000,2.000000,0.193635,0.006868,1.000000,1.000000,0.851120,0.000000,0.814002,2.000000
/home/daniel/Projects/ppsevolution/data/maps/custom_maps/Custom_4_Run_0_Map.csv,0.000000,0.517849,0.830154,0.993002,0.034157,0.000000,1.000000,2.000000,0.102623,0.000000,0.954907,1.000000,0.935997,0.305986,0.763165,2.000000
/home/daniel/Projects/ppsevolution/data/maps/custom_maps/Custom_4_Run_0_Map.csv,0.000000,1.000000,1.000000,0.988208,0.010384,0.000000,1.000000,2.000000,0.194441,0.041224,1.000000,1.000000,0.950669,0.042111,0.790453,2.000000
/home/daniel/Projects/ppsevolution/data/maps/custom_maps/Custom_4_Run_0_Map.csv,0.000000,0.719462,0.751702,1.000000,0.000000,0.000000,1.000000,2.000000,0.006666,0.000000,1.000000,1.000000,0.736869,0.000000,1.000000,2.000000
/home/daniel/Projects/ppsevolution/data/maps/custom_maps/Custom_4_Run_0_Map.csv,0.000000,1.000000,1.000000,1.000000,0.000000,0.080412,1.000000,2.000000,0.351612,0.002988,1.000000,1.000000,1.000000,0.000000,0.482696,2.000000
/home/daniel/Projects/ppsevolution/data/maps/custom_maps/Custom_4_Run_0_Map.csv,0.000000,0.786604,0.726186,1.000000,0.004936,0.056099,1.000000,2.000000,0.000000,0.000015,1.000000,1.000000,1.000000,0.018779,0.912651,2.000000
/home/daniel/Projects/ppsevolution/data/maps/custom_maps/Custom_4_Run_0_Map.csv,0.000000,0.793535,1.000000,0.972409,0.000000,0.000000,1.000000,2.000000,0.000000,0.048510,1.000000,1.000000,0.887731,0.526780,0.275093,2.000000
/home/daniel/Projects/ppsevolution/data/maps/custom_maps/Custom_5_Run_0_Map.csv,0.000000,0.428949,1.000000,0.978199,0.000000,0.041828,1.000000,2.000000,0.000000,0.029177,1.000000,1.000000,0.780117,0.019520,1.000000,2.000000
/home/daniel/Projects/ppsevolution/data/maps/custom_maps/Custom_5_Run_0_Map.csv,0.000000,0.668849,1.000000,0.972305,0.000000,0.682866,1.000000,2.000000,0.000000,0.055098,1.000000,1.000000,1.000000,0.000000,1.000000,2.000000
/home/daniel/Projects/ppsevolution/data/maps/custom_maps/Custom_5_Run_0_Map.csv,0.000000,0.527794,1.000000,0.974354,0.000000,0.324300,1.000000,2.000000,0.000000,0.000000,1.000000,1.000000,1.000000,0.000000,1.000000,2.000000
/home/daniel/Projects/ppsevolution/data/maps/custom_maps/Custom_5_Run_0_Map.csv,0.000000,0.755932,1.000000,0.981328,0.000000,0.886915,1.000000,2.000000,0.000000,0.005371,1.000000,1.000000,1.000000,0.000000,0.918724,2.000000
/home/daniel/Projects/ppsevolution/data/maps/custom_maps/Custom_5_Run_0_Map.csv,0.000000,0.013628,1.000000,0.980766,0.000000,0.753030,1.000000,2.000000,0.000000,0.000000,1.000000,1.000000,0.928950,0.000000,0.987082,2.000000
/home/daniel/Projects/ppsevolution/data/maps/custom_maps/Custom_5_Run_0_Map.csv,0.002319,0.775594,1.000000,0.977469,0.000000,0.141705,1.000000,2.000000,0.000000,0.308577,1.000000,1.000000,0.981109,0.000000,0.921929,2.000000
/home/daniel/Projects/ppsevolution/data/maps/custom_maps/Custom_5_Run_0_Map.csv,0.000000,0.740202,1.000000,0.973783,0.000000,0.000000,1.000000,2.000000,0.000000,0.000000,1.000000,1.000000,0.609605,0.000000,1.000000,2.000000
/home/daniel/Projects/ppsevolution/data/maps/custom_maps/Custom_5_Run_0_Map.csv,0.000000,0.900014,1.000000,0.974318,0.000000,0.334426,1.000000,2.000000,0.000000,0.000000,1.000000,1.000000,1.000000,0.000000,1.000000,2.000000
/home/daniel/Projects/ppsevolution/data/maps/custom_maps/Custom_5_Run_0_Map.csv,0.012666,0.892262,1.000000,0.972098,0.000000,0.183741,1.000000,2.000000,0.000000,0.000000,1.000000,1.000000,0.642738,0.000000,1.000000,2.000000
/home/daniel/Projects/ppsevolution/data/maps/custom_maps/Custom_5_Run_0_Map.csv,0.000000,1.000000,1.000000,0.971212,0.000000,0.000000,1.000000,2.000000,0.000000,0.000000,1.000000,1.000000,1.000000,0.000000,1.000000,2.000000
/home/daniel/Projects/ppsevolution/data/maps/custom_maps/Custom_6_Run_0_Map.csv,0.029923,1.000000,0.000000,1.000000,0.000000,0.000000,0.009041,2.000000,1.000000,0.788283,0.997722,0.970102,0.984398,1.000000,1.000000,2.000000
/home/daniel/Projects/ppsevolution/data/maps/custom_maps/Custom_6_Run_0_Map.csv,0.000000,1.000000,0.000000,1.000000,0.000000,0.000000,0.264954,2.000000,1.000000,0.383180,1.000000,0.974105,1.000000,1.000000,1.000000,2.000000
/home/daniel/Projects/ppsevolution/data/maps/custom_maps/Custom_6_Run_0_Map.csv,0.000000,0.929764,0.000000,1.000000,0.000000,0.000000,0.263038,2.000000,1.000000,0.164629,0.975288,0.971604,0.973467,1.000000,1.000000,2.000000
/home/daniel/Projects/ppsevolution/data/maps/custom_maps/Custom_6_Run_0_Map.csv,0.000000,1.000000,0.000000,1.000000,0.000000,0.000000,0.000000,2.000000,1.000000,0.088805,1.000000,0.974644,1.000000,1.000000,1.000000,2.000000
/home/daniel/Projects/ppsevolution/data/maps/custom_maps/Custom_6_Run_0_Map.csv,0.000000,1.000000,0.000000,1.000000,0.000000,0.000000,0.677037,2.000000,1.000000,0.000000,1.000000,0.948596,1.000000,1.000000,0.999718,2.000000
/home/daniel/Projects/ppsevolution/data/maps/custom_maps/Custom_6_Run_0_Map.csv,0.145239,1.000000,0.000000,1.000000,0.090609,0.000000,0.018666,2.000000,1.000000,0.138755,1.000000,0.978703,1.000000,0.985170,1.000000,2.000000
/home/daniel/Projects/ppsevolution/data/maps/custom_maps/Custom_6_Run_0_Map.csv,0.133938,0.980685,0.000000,1.000000,0.000000,0.000000,0.611531,2.000000,1.000000,0.068100,1.000000,0.965528,1.000000,0.949263,1.000000,2.000000
/home/daniel/Projects/ppsevolution/data/maps/custom_maps/Custom_6_Run_0_Map.csv,0.000000,0.998834,0.000000,1.000000,0.000000,0.000000,0.000000,2.000000,1.000000,0.203865,1.000000,0.963953,1.000000,1.000000,1.000000,2.000000
/home/daniel/Projects/ppsevolution/data/maps/custom_maps/Custom_6_Run_0_Map.csv,0.016696,0.932454,0.000000,1.000000,0.000000,0.000000,0.000000,2.000000,1.000000,0.176179,1.000000,0.978131,1.000000,1.000000,1.000000,2.000000
/home/daniel/Projects/ppsevolution/data/maps/custom_maps/Custom_6_Run_0_Map.csv,0.000000,0.965483,0.000000,1.000000,0.000000,0.000000,0.111399,2.000000,1.000000,0.303510,1.000000,0.964151,1.000000,0.992851,1.000000,2.000000
/home/daniel/Projects/ppsevolution/data/maps/custom_maps/Custom_7_Run_0_Map.csv,0.000000,0.809782,0.567599,1.000000,0.000000,0.000000,1.000000,2.000000,0.571639,0.000000,1.000000,1.000000,0.988341,1.000000,0.985619,2.000000
/home/daniel/Projects/ppsevolution/data/maps/custom_maps/Custom_7_Run_0_Map.csv,0.000000,1.000000,0.754287,1.000000,0.000000,0.000000,1.000000,2.000000,0.925103,0.144930,1.000000,1.000000,1.000000,1.000000,1.000000,2.000000
/home/daniel/Projects/ppsevolution/data/maps/custom_maps/Custom_7_Run_0_Map.csv,0.000000,1.000000,0.587073,1.000000,0.000000,0.006796,1.000000,2.000000,0.591958,0.000000,1.000000,1.000000,1.000000,1.000000,1.000000,2.000000
/home/daniel/Projects/ppsevolution/data/maps/custom_maps/Custom_7_Run_0_Map.csv,0.000000,1.000000,0.548956,1.000000,0.000000,0.000000,1.000000,2.000000,0.543233,0.092102,1.000000,1.000000,0.979458,0.984612,1.000000,2.000000
/home/daniel/Projects/ppsevolution/data/maps/custom_maps/Custom_7_Run_0_Map.csv,0.000000,1.000000,0.528909,1.000000,0.010942,0.000000,1.000000,2.000000,0.495748,0.208128,1.000000,1.000000,1.000000,1.000000,1.000000,2.000000
/home/daniel/Projects/ppsevolution/data/maps/custom_maps/Custom_7_Run_0_Map.csv,0.000000,1.000000,0.608533,1.000000,0.000000,0.000000,1.000000,2.000000,0.707315,0.122154,1.000000,1.000000,1.000000,0.990046,0.998131,2.000000
/home/daniel/Projects/ppsevolution/data/maps/custom_maps/Custom_7_Run_0_Map.csv,0.000000,1.000000,0.284420,1.000000,0.000000,0.005983,1.000000,2.000000,0.063779,0.070065,1.000000,1.000000,1.000000,1.000000,1.000000,2.000000
/home/daniel/Projects/ppsevolution/data/maps/custom_maps/Custom_7_Run_0_Map.csv,0.000000,0.773366,0.549871,1.000000,0.000000,0.027192,1.000000,2.000000,0.554036,0.166491,1.000000,1.000000,0.982091,1.000000,1.000000,2.000000
/home/daniel/Projects/ppsevolution/data/maps/custom_maps/Custom_7_Run_0_Map.csv,0.000000,1.000000,0.477761,1.000000,0.006096,0.000000,1.000000,2.000000,0.402627,0.182913,1.000000,1.000000,0.858277,0.903813,1.000000,2.000000
/home/daniel/Projects/ppsevolution/data/maps/custom_maps/Custom_7_Run_0_Map.csv,0.000000,0.996378,0.498093,1.000000,0.000000,0.008713,1.000000,2.000000,0.507208,0.285517,1.000000,1.000000,0.992347,0.983305,1.000000,2.000000
/home/daniel/Projects/ppsevolution/data/maps/custom_maps/Custom_8_Run_0_Map.csv,0.000000,0.866423,1.000000,0.982592,0.000000,0.661503,1.000000,2.000000,0.222210,0.053009,0.979842,1.000000,1.000000,0.308127,1.000000,2.000000
/home/daniel/Projects/ppsevolution/data/maps/custom_maps/Custom_8_Run_0_Map.csv,0.000000,0.818513,0.804896,0.987625,0.004679,0.000000,1.000000,2.000000,0.060884,0.059080,1.000000,1.000000,0.766174,0.000000,1.000000,2.000000
/home/daniel/Projects/ppsevolution/data/maps/custom_maps/Custom_8_Run_0_Map.csv,0.000000,0.931467,0.790639,1.000000,0.000000,0.233117,0.998882,2.000000,0.329990,0.098286,1.000000,1.000000,1.000000,0.000000,1.000000,2.000000
/home/daniel/Projects/ppsevolution/data/maps/custom_maps/Custom_8_Run_0_Map.csv,0.000000,0.433522,0.658262,0.999768,0.000000,0.000000,1.000000,2.000000,0.163806,0.019674,1.000000,1.000000,0.785627,0.507429,1.000000,2.000000
/home/daniel/Projects/ppsevolution/data/maps/custom_maps/Custom_8_Run_0_Map.csv,0.000000,0.832658,0.768406,1.000000,0.000000,0.000000,0.995131,2.000000,0.279111,0.000000,1.000000,1.000000,0.822386,0.163949,1.000000,2.000000
/home/daniel/Projects/ppsevolution/data/maps/custom_maps/Custom_8_Run_0_Map.csv,0.000084,1.000000,0.500191,1.000000,0.000000,0.001737,1.000000,2.000000,0.004320,0.036440,1.000000,1.000000,0.823683,0.606757,1.000000,2.000000
/home/daniel/Projects/ppsevolution/data/maps/custom_maps/Custom_8_Run_0_Map.csv,0.000000,1.000000,0.656228,1.000000,0.013671,0.000000,1.000000,2.000000,0.038990,0.061893,1.000000,1.000000,0.810330,0.040707,1.000000,2.000000
/home/daniel/Projects/ppsevolution/data/maps/custom_maps/Custom_8_Run_0_Map.csv,0.000000,1.000000,0.797452,1.000000,0.000000,0.069308,1.000000,2.000000,0.451394,0.000000,1.000000,1.000000,0.999580,0.741415,0.864755,2.000000
/home/daniel/Projects/ppsevolution/data/maps/custom_maps/Custom_8_Run_0_Map.csv,0.000000,1.000000,0.561111,1.000000,0.000000,0.000000,1.000000,2.000000,0.000000,0.000000,1.000000,1.000000,0.986621,0.553971,1.000000,2.000000
/home/daniel/Projects/ppsevolution/data/maps/custom_maps/Custom_8_Run_0_Map.csv,0.000000,0.276388,0.602683,1.000000,0.061913,0.000000,1.000000,2.000000,0.000000,0.000000,1.000000,1.000000,1.000000,0.036312,0.941977,2.000000
/home/daniel/Projects/ppsevolution/data/maps/custom_maps/Custom_9_Run_0_Map.csv,0.000000,0.958004,0.882206,0.977772,0.159133,0.209623,1.000000,2.000000,0.452668,0.126265,1.000000,1.000000,0.862314,0.797096,0.363182,2.000000
/home/daniel/Projects/ppsevolution/data/maps/custom_maps/Custom_9_Run_0_Map.csv,0.000000,0.956241,0.352344,1.000000,0.155692,0.269382,1.000000,2.000000,0.007556,0.393473,1.000000,1.000000,0.919682,0.778893,0.333324,2.000000
/home/daniel/Projects/ppsevolution/data/maps/custom_maps/Custom_9_Run_0_Map.csv,0.000000,0.928237,0.491945,1.000000,0.000000,0.000000,1.000000,2.000000,0.251670,0.000000,1.000000,1.000000,0.869443,0.390201,0.980961,2.000000
/home/daniel/Projects/ppsevolution/data/maps/custom_maps/Custom_9_Run_0_Map.csv,0.000000,0.630283,0.881905,0.987949,0.000000,0.043392,1.000000,2.000000,0.445387,0.000000,1.000000,1.000000,0.923567,0.000000,0.658765,2.000000
/home/daniel/Projects/ppsevolution/data/maps/custom_maps/Custom_9_Run_0_Map.csv,0.000000,0.880028,0.570492,1.000000,0.000000,0.000000,1.000000,2.000000,0.261919,0.047888,1.000000,1.000000,1.000000,0.282556,0.902641,2.000000
/home/daniel/Projects/ppsevolution/data/maps/custom_maps/Custom_9_Run_0_Map.csv,0.000000,0.927650,0.934740,0.979355,0.000000,0.689041,1.000000,2.000000,0.462840,0.029426,1.000000,1.000000,0.890181,0.510956,0.538716,2.000000
/home/daniel/Projects/ppsevolution/data/maps/custom_maps/Custom_9_Run_0_Map.csv,0.000000,0.981428,0.550994,1.000000,0.053104,0.000000,1.000000,2.000000,0.312489,0.643320,1.000000,1.000000,0.803652,0.467378,0.289037,2.000000
/home/daniel/Projects/ppsevolution/data/maps/custom_maps/Custom_9_Run_0_Map.csv,0.000000,0.767297,0.405820,1.000000,0.132587,0.000000,1.000000,2.000000,0.000000,0.000000,1.000000,1.000000,0.769903,0.161321,1.000000,2.000000
/home/daniel/Projects/ppsevolution/data/maps/custom_maps/Custom_9_Run_0_Map.csv,0.000000,0.810199,0.656525,0.998761,0.000000,0.000000,1.000000,2.000000,0.424724,0.041356,1.000000,1.000000,0.710352,0.126694,0.865205,2.000000
/home/daniel/Projects/ppsevolution/data/maps/custom_maps/Custom_9_Run_0_Map.csv,0.000000,0.565131,0.714785,1.000000,0.000000,0.000000,1.000000,2.000000,0.549869,0.000000,0.988929,1.000000,0.850688,0.286604,0.799619,2.000000
/home/daniel/Projects/ppsevolution/data/maps/custom_maps/Custom_10_Run_0_Map.csv,0.000000,0.957156,1.000000,0.985598,0.027959,1.000000,1.000000,2.000000,0.000000,0.000000,1.000000,1.000000,0.994029,0.000000,1.000000,0.000000
/home/daniel/Projects/ppsevolution/data/maps/custom_maps/Custom_10_Run_0_Map.csv,0.000000,0.930931,1.000000,0.987475,0.000000,1.000000,1.000000,2.000000,0.000000,0.104372,1.000000,1.000000,1.000000,0.000000,1.000000,0.000000
/home/daniel/Projects/ppsevolution/data/maps/custom_maps/Custom_10_Run_0_Map.csv,0.000000,0.849819,1.000000,0.988145,0.020840,0.993145,1.000000,2.000000,0.000000,0.097544,1.000000,1.000000,0.658223,0.008320,1.000000,0.000000
/home/daniel/Projects/ppsevolution/data/maps/custom_maps/Custom_10_Run_0_Map.csv,0.052495,0.374315,1.000000,0.988035,0.000000,0.276848,1.000000,2.000000,0.000000,0.000000,1.000000,1.000000,0.766669,0.000000,1.000000,0.000000
/home/daniel/Projects/ppsevolution/data/maps/custom_maps/Custom_10_Run_0_Map.csv,0.020036,0.752233,0.995471,0.993668,0.000000,0.998472,1.000000,2.000000,0.000000,0.000000,1.000000,1.000000,0.967475,0.000000,0.725291,0.000000
/home/daniel/Projects/ppsevolution/data/maps/custom_maps/Custom_10_Run_0_Map.csv,0.000000,0.740699,1.000000,0.985779,0.093151,0.938608,0.989876,2.000000,0.000000,0.008547,1.000000,1.000000,1.000000,0.000000,1.000000,0.000000
/home/daniel/Projects/ppsevolution/data/maps/custom_maps/Custom_10_Run_0_Map.csv,0.000000,0.801346,1.000000,0.993928,0.000000,1.000000,1.000000,2.000000,0.009379,0.000000,1.000000,1.000000,0.905284,0.000000,1.000000,0.000000
/home/daniel/Projects/ppsevolution/data/maps/custom_maps/Custom_10_Run_0_Map.csv,0.000000,0.932321,1.000000,0.990051,0.077433,1.000000,1.000000,2.000000,0.000000,0.036603,1.000000,1.000000,0.917590,0.000000,1.000000,0.000000
/home/daniel/Projects/ppsevolution/data/maps/custom_maps/Custom_10_Run_0_Map.csv,0.040417,0.805924,1.000000,0.989024,0.000000,0.999318,0.995771,2.000000,0.000000,0.000000,1.000000,1.000000,0.216265,0.000000,1.000000,0.000000
/home/daniel/Projects/ppsevolution/data/maps/custom_maps/Custom_10_Run_0_Map.csv,0.000000,0.958985,1.000000,0.987554,0.000000,1.000000,1.000000,2.000000,0.000000,0.045023,1.000000,1.000000,0.975499,0.000000,0.997910,0.000000
