HP,Speed,Damage,Acc,ClipSize,RateOfFire,NrBullets,Range,HP,Speed,Damage,Acc,ClipSize,RateOfFire,NrBullets,Range,fitness,
0.011433,0.696523,0.661831,1.000000,0.118791,0.323810,1.000000,0.000000,0.899425,0.167654,0.952165,1.000000,0.798783,0.602263,0.509302,0.000000,0.001108
0.086699,0.741289,0.470207,1.000000,0.000000,0.091250,1.000000,2.000000,0.589634,0.000000,1.000000,1.000000,0.797917,0.564114,0.722187,1.000000,0.000236
0.124074,0.889177,0.470207,1.000000,0.224849,0.202803,1.000000,2.000000,0.600646,0.062972,0.852112,0.968716,0.969207,0.256130,0.680950,0.000000,0.001852
0.000000,0.919458,0.630745,1.000000,0.000000,0.205548,0.818388,2.000000,0.628418,0.039279,0.918286,1.000000,0.720450,0.502045,0.541029,0.000000,0.000586
0.000000,0.953005,0.695747,1.000000,0.153330,0.398872,1.000000,2.000000,1.000000,0.000000,0.803683,1.000000,0.937563,0.960947,0.871122,0.000000,0.000489
0.000000,0.895816,0.681303,1.000000,0.047442,0.100145,1.000000,1.000000,0.708109,0.000000,0.955505,1.000000,0.938349,0.959225,0.813227,0.000000,0.000522
0.086699,0.741289,0.470207,1.000000,0.189222,0.216349,0.942093,0.000000,0.633635,0.000000,1.000000,1.000000,0.924229,0.400227,0.443803,0.000000,0.001552
0.039832,0.885740,0.643973,0.955830,0.319374,0.352033,0.988626,1.000000,0.691181,0.066788,0.937806,0.979478,0.793039,0.769531,0.781650,1.000000,0.002778
0.000000,1.000000,0.657414,1.000000,0.077268,0.077403,1.000000,1.000000,0.702776,0.000000,0.933920,0.883681,0.731397,0.644423,0.722187,2.000000,0.012270
0.106570,0.479028,0.470207,0.965054,0.159533,0.255723,0.958483,2.000000,0.868820,0.000000,0.841294,0.746036,0.744771,0.567251,0.598923,1.000000,0.019188
0.042302,0.563849,0.470207,0.994507,0.230122,0.084554,0.805270,1.000000,0.529925,0.304604,0.929800,0.886814,0.877929,0.998813,0.849527,0.000000,0.009624
0.000000,0.891081,0.729075,0.960469,0.104130,0.197383,1.000000,0.000000,0.742289,0.130423,0.967517,1.000000,0.800408,0.721014,0.598923,1.000000,0.004904
0.000000,0.960840,0.685175,1.000000,0.192725,0.206859,0.459572,2.000000,0.572413,0.109993,0.955828,1.000000,1.000000,0.721191,0.526005,1.000000,0.001350
0.052622,0.614864,0.425693,0.949649,0.000000,0.157727,1.000000,2.000000,1.000000,0.000000,0.960328,1.000000,0.985577,0.960947,0.819082,2.000000,0.013769
0.088454,0.883225,0.820505,1.000000,0.036022,0.174638,0.793527,2.000000,0.599951,0.188299,0.822618,1.000000,0.809945,0.591303,0.325183,1.000000,0.002812
0.000000,0.920216,0.613042,1.000000,0.000000,0.190639,1.000000,2.000000,0.773046,0.100469,1.000000,0.989107,0.977732,0.814925,0.566480,2.000000,0.000374
0.108330,0.741289,0.371310,1.000000,0.405390,0.000000,1.000000,0.000000,0.600646,0.000000,0.994371,1.000000,0.865826,0.500197,0.755783,2.000000,0.001707
0.091332,0.412210,0.559215,1.000000,0.000000,0.218034,0.789945,0.000000,0.925746,0.035181,0.960328,1.000000,0.670512,0.871130,0.615026,2.000000,0.001139
0.000000,1.000000,0.618181,1.000000,0.000000,0.311551,0.818388,1.000000,0.626705,0.069295,0.917675,1.000000,0.753799,0.502045,0.541029,2.000000,0.000273
0.000000,0.712773,0.607192,1.000000,0.189998,0.238777,1.000000,0.000000,0.740797,0.000894,0.868689,1.000000,0.791319,0.317445,0.546335,2.000000,0.000704
0.000000,0.918335,0.559510,1.000000,0.000000,0.171466,0.919577,0.000000,0.678951,0.074803,1.000000,1.000000,0.878954,0.387071,0.716056,1.000000,0.001053
0.021374,0.999022,0.574207,1.000000,0.142987,0.035711,0.986419,2.000000,0.691181,0.266928,0.852885,1.000000,0.875131,0.721014,0.598923,1.000000,0.000447
0.000000,0.961953,0.481615,1.000000,0.091731,0.119642,0.955697,1.000000,0.812692,0.276930,0.980061,1.000000,0.785726,0.946732,0.761106,1.000000,0.000999
0.162932,0.744833,0.392544,1.000000,0.138403,0.000000,0.820869,0.000000,0.496898,0.000000,0.969882,0.974125,0.884474,0.594005,0.722187,0.000000,0.000817
0.173204,0.640693,0.306348,1.000000,0.068138,0.127931,0.998544,2.000000,0.551631,0.000000,0.822349,1.000000,0.853401,0.594005,0.913737,1.000000,0.000296
0.164833,0.659110,0.501971,1.000000,0.241885,0.019118,1.000000,1.000000,0.600646,0.146186,0.908235,1.000000,0.857619,0.625590,0.549866,1.000000,0.000399
0.174727,0.674259,0.620923,0.875232,0.128007,0.193952,0.951021,0.000000,1.000000,0.000000,1.000000,1.000000,0.978397,1.000000,0.747289,0.000000,0.036357
0.086699,0.822470,0.547698,0.974494,0.324622,0.063318,0.950524,1.000000,0.600646,0.000000,1.000000,1.000000,0.924229,0.500197,0.713241,1.000000,0.002703
0.065430,0.903041,0.712243,1.000000,0.000000,0.204777,1.000000,0.000000,0.773046,0.177289,1.000000,1.000000,0.846139,0.636160,0.335178,2.000000,0.000322
0.000000,0.812558,0.630745,0.954825,0.198830,0.204777,1.000000,2.000000,0.803880,0.231074,1.000000,1.000000,1.000000,0.636160,0.325183,2.000000,0.006708
0.152879,0.741289,0.470207,1.000000,0.131533,0.000000,0.998257,1.000000,0.813310,0.000000,0.917182,1.000000,0.829958,0.594005,0.767012,2.000000,0.000599
0.000000,0.640693,0.315530,0.884457,0.121198,0.298433,1.000000,1.000000,0.722755,0.000000,0.950467,1.000000,0.793820,0.642112,0.721480,1.000000,0.043492
0.086699,0.716601,0.380862,0.996989,0.165173,0.083086,1.000000,2.000000,0.687829,0.000000,1.000000,1.000000,0.793820,0.573127,0.630286,2.000000,0.000992
0.000000,1.000000,0.574207,0.988528,0.099494,0.035711,0.921464,0.000000,0.644145,0.244767,0.864204,0.846695,0.665280,0.833997,0.598923,0.000000,0.012979
0.000000,0.797992,0.314843,1.000000,0.139781,0.128789,1.000000,2.000000,0.680767,0.105547,1.000000,1.000000,0.874561,0.746550,0.632008,0.000000,0.001690
0.000000,1.000000,0.574207,0.948614,0.085771,0.071543,0.986419,2.000000,0.681683,0.000000,0.967517,0.994730,0.954556,0.922485,0.528926,0.000000,0.006413
0.086699,0.741289,0.413661,1.000000,0.130205,0.000000,0.956937,1.000000,0.717941,0.000000,1.000000,1.000000,0.797917,0.702205,0.675378,0.000000,0.001270
0.034351,1.000000,0.640502,1.000000,0.070278,0.000000,0.937010,2.000000,0.870613,0.179871,1.000000,1.000000,0.785726,0.946732,0.761106,2.000000,0.000217
0.086699,0.640693,0.588779,1.000000,0.000000,0.140962,1.000000,0.000000,0.581424,0.000000,0.874243,1.000000,0.724052,0.594005,0.722187,0.000000,0.000519
0.181449,0.903041,0.654936,1.000000,0.000000,0.204777,0.997965,2.000000,0.773046,0.000000,1.000000,0.853343,0.773410,0.488091,0.325183,2.000000,0.017817
0.000000,1.000000,0.574207,1.000000,0.078272,0.000000,0.921056,0.000000,0.812692,0.405394,1.000000,1.000000,0.785726,0.953928,0.761106,1.000000,0.000899
0.043779,0.903129,0.603713,1.000000,0.153330,0.203935,0.934803,2.000000,0.934627,0.256692,0.919454,1.000000,1.000000,0.891282,0.821712,0.000000,0.000371
0.086699,0.741289,0.474754,1.000000,0.096917,0.163016,0.902780,1.000000,0.580650,0.074803,1.000000,1.000000,0.695073,0.472264,0.716056,1.000000,0.000483
0.000000,0.793340,0.584114,1.000000,0.000000,0.057978,0.956937,2.000000,0.438420,0.000000,0.957866,0.966123,0.793820,0.549087,0.705025,0.000000,0.003361
0.000000,0.903041,0.630745,1.000000,0.000000,0.204777,1.000000,0.000000,0.773046,0.167673,0.972952,1.000000,0.846139,0.636160,0.325183,2.000000,0.000675
0.086699,0.640693,0.421347,1.000000,0.000000,0.261315,1.000000,1.000000,0.602693,0.129154,0.950406,1.000000,0.657521,0.579408,0.722187,1.000000,0.000679
0.092036,0.730958,0.532313,1.000000,0.207930,0.083086,0.960360,1.000000,0.600646,0.093269,0.957596,1.000000,0.869162,0.656878,0.549866,0.000000,0.000445
0.000000,1.000000,0.574207,0.919501,0.000000,0.000000,0.809145,1.000000,0.812692,0.392347,0.907876,1.000000,0.785726,1.000000,0.813396,0.000000,0.018551
0.000000,0.915807,0.632727,1.000000,0.153330,0.221332,1.000000,0.000000,1.000000,0.115923,1.000000,1.000000,0.820783,0.911447,0.694189,0.000000,0.001592
0.000000,0.941280,0.383817,1.000000,0.313022,0.000000,1.000000,1.000000,0.756224,0.119151,1.000000,1.000000,0.679319,1.000000,0.740885,0.000000,0.001852
0.000000,0.967760,0.501611,0.868485,0.029245,0.000000,0.937010,1.000000,0.798691,0.023919,0.882243,1.000000,0.702082,0.602263,0.598923,2.000000,0.042315
0.000000,1.000000,0.669925,1.000000,0.097331,0.357016,0.919376,2.000000,0.822310,0.276930,0.980061,1.000000,0.711661,1.000000,0.761106,0.000000,0.000470
0.272949,0.702131,0.584114,0.934884,0.050037,0.323810,1.000000,2.000000,0.780485,0.131068,1.000000,1.000000,0.993443,0.689878,0.567252,0.000000,0.009505
0.064568,0.617122,0.584114,0.967198,0.000000,0.177472,0.843167,1.000000,0.699215,0.131068,1.000000,1.000000,0.928314,0.689637,0.220769,0.000000,0.004306
0.000000,0.954962,0.829946,1.000000,0.011359,0.279128,1.000000,1.000000,0.775581,0.117176,1.000000,1.000000,0.919962,0.669773,0.609355,2.000000,0.000499
0.046541,0.617122,0.584114,1.000000,0.000000,0.323810,0.865405,2.000000,1.000000,0.000000,0.960328,0.805902,0.999325,0.954527,0.596956,0.000000,0.020301
0.074848,0.823781,0.658243,1.000000,0.000000,0.440171,0.971023,2.000000,0.240988,0.107727,0.802952,0.911655,0.738378,0.534017,0.661378,1.000000,0.018523
0.120657,0.293158,0.520575,0.964004,0.134597,0.026761,0.851012,1.000000,0.792673,0.261128,0.752418,1.000000,0.846139,0.781292,0.298397,1.000000,0.004476
0.209084,0.505907,0.533800,1.000000,0.413085,0.428792,0.986750,1.000000,0.691181,0.252719,0.998900,1.000000,0.793039,0.769531,0.598923,1.000000,0.000427
0.000000,0.851889,0.595569,1.000000,0.000000,0.440021,1.000000,1.000000,0.666613,0.131068,1.000000,1.000000,0.919962,0.809618,0.220769,1.000000,0.000392
0.000000,1.000000,0.616766,1.000000,0.251229,0.000000,0.973744,2.000000,0.893411,0.212086,1.000000,0.976074,0.679319,1.000000,0.740885,0.000000,0.000928
0.030566,0.640693,0.291153,1.000000,0.097249,0.140962,1.000000,1.000000,0.655572,0.000000,0.950467,1.000000,0.713224,0.594005,0.722187,2.000000,0.002263
0.142693,0.909682,0.685175,1.000000,0.275804,0.000000,1.000000,1.000000,1.000000,0.078218,1.000000,1.000000,0.995757,0.914923,0.849527,2.000000,0.000263
0.000000,1.000000,0.685175,1.000000,0.153330,0.221332,1.000000,2.000000,1.000000,0.000000,0.960328,1.000000,0.930134,1.000000,0.849527,1.000000,0.000267
0.000000,0.890575,0.789842,0.963008,0.047442,0.000000,1.000000,0.000000,0.955050,0.025801,0.887435,1.000000,1.000000,1.000000,0.726342,1.000000,0.004031
0.000000,0.895937,0.738109,0.870223,0.076499,0.183198,1.000000,2.000000,0.773046,0.187738,0.985813,1.000000,1.000000,0.738810,0.188299,0.000000,0.027307
0.000000,1.000000,0.613819,1.000000,0.319374,0.449528,1.000000,1.000000,0.712345,0.247590,0.980825,1.000000,0.783599,0.769531,0.627383,0.000000,0.000458
0.086699,0.582260,0.470207,1.000000,0.064597,0.140962,0.885607,2.000000,0.581424,0.000000,0.978141,0.888720,0.797917,0.630932,0.674188,2.000000,0.010750
0.039832,0.691364,0.580899,1.000000,0.319374,0.415212,1.000000,0.000000,0.589634,0.030884,1.000000,0.951762,0.791319,0.269734,0.882666,2.000000,0.001603
0.000000,0.910861,0.594304,0.978036,0.131669,0.172774,0.911088,2.000000,0.691181,0.066788,0.967517,1.000000,0.793039,0.673464,0.598923,2.000000,0.001338
0.008390,0.307257,0.520575,1.000000,0.000000,0.281476,1.000000,1.000000,0.483946,0.107727,0.859179,1.000000,0.750273,0.397442,0.821950,0.000000,0.000397
0.251618,0.633087,0.584114,0.807798,0.000000,0.323810,0.806294,1.000000,0.869122,0.137261,1.000000,1.000000,0.919962,0.809618,0.220769,1.000000,0.051085
0.000000,0.726808,0.552352,1.000000,0.064597,0.000000,0.958706,2.000000,0.736450,0.000000,0.835424,0.895856,0.634783,0.518749,0.863287,0.000000,0.010699
0.489843,0.546221,0.632286,1.000000,0.000000,0.323810,0.929435,1.000000,0.769188,0.131068,1.000000,1.000000,0.804685,0.892482,0.220769,2.000000,0.001166
0.052727,0.896108,0.592711,1.000000,0.000000,0.119543,1.000000,0.000000,0.860400,0.061802,0.960328,1.000000,0.828893,0.960947,0.814785,1.000000,0.000761
0.032402,0.952210,0.695747,0.982001,0.153330,0.439099,1.000000,1.000000,1.000000,0.000000,0.887435,1.000000,0.938358,1.000000,0.726342,2.000000,0.001484
0.000000,0.967760,0.614201,0.926479,0.078272,0.070500,0.939698,2.000000,0.812692,0.276930,0.906968,1.000000,0.785726,1.000000,0.804748,0.000000,0.013544
0.086699,0.547249,0.606744,1.000000,0.032993,0.000000,0.932944,2.000000,0.569395,0.000000,1.000000,1.000000,0.839150,0.487301,0.699912,2.000000,0.000496
0.056682,1.000000,0.890253,0.915607,0.276519,0.200217,0.537297,2.000000,0.569395,0.058240,1.000000,1.000000,0.723505,0.755677,0.628034,0.000000,0.004790
0.111319,0.741289,0.512500,1.000000,0.165173,0.128310,0.862595,0.000000,1.000000,0.028433,0.627131,1.000000,0.846139,0.738810,0.492683,0.000000,0.001175
0.143060,0.791501,0.470207,0.964836,0.273893,0.000000,1.000000,0.000000,0.530296,0.000000,1.000000,0.904937,0.956036,0.500197,0.868699,0.000000,0.001494
0.000000,0.987567,0.612878,1.000000,0.122254,0.090918,1.000000,2.000000,0.773046,0.121501,0.982899,1.000000,0.846139,0.813233,0.233072,2.000000,0.000199
0.000000,0.793340,0.434515,1.000000,0.000000,0.171466,0.902780,2.000000,0.581529,0.074803,1.000000,1.000000,0.837590,0.333817,0.716056,0.000000,0.000588
0.075612,0.741289,0.389793,0.906226,0.165173,0.182330,0.956937,2.000000,0.338937,0.000000,1.000000,1.000000,0.668451,0.575481,0.628034,1.000000,0.022325
0.000000,0.904946,0.593944,1.000000,0.189667,0.244408,1.000000,2.000000,0.898349,0.000000,0.960328,0.872233,0.985577,0.960947,0.849527,2.000000,0.012018
0.000000,0.919458,0.885689,0.933841,0.000000,0.225605,1.000000,1.000000,0.850512,0.000000,1.000000,1.000000,0.868972,0.738810,0.224842,2.000000,0.007447
0.086699,0.832384,0.552352,1.000000,0.064597,0.028635,1.000000,0.000000,0.589634,0.141357,0.879052,0.893858,0.682020,0.653373,1.000000,0.000000,0.010557
0.209084,0.513332,0.488973,1.000000,0.000000,0.457421,0.850086,1.000000,0.780485,0.095894,1.000000,1.000000,0.831097,0.809618,0.281327,0.000000,0.000758
0.000000,0.919458,0.788114,1.000000,0.000000,0.204777,1.000000,0.000000,0.775147,0.188924,1.000000,0.916387,0.972612,0.474214,0.384593,1.000000,0.006308
0.025609,0.903041,0.630745,1.000000,0.000000,0.335307,0.818388,2.000000,0.454750,0.039279,0.918286,0.975104,0.711759,0.628582,0.442791,0.000000,0.003398
0.086699,0.741289,0.470207,1.000000,0.064597,0.083086,0.956937,2.000000,0.589634,0.000000,1.000000,1.000000,0.797917,0.594005,0.722187,2.000000,0.000172
0.086699,0.741289,0.470207,1.000000,0.224849,0.083086,1.000000,2.000000,0.600646,0.000000,0.994371,1.000000,0.924229,0.500197,0.722187,2.000000,0.000181
0.000000,0.967760,0.574207,1.000000,0.078272,0.000000,0.937010,2.000000,0.812692,0.276930,0.980061,1.000000,0.785726,1.000000,0.761106,2.000000,0.000183
0.000000,0.999022,0.574207,1.000000,0.079760,0.035711,0.986419,2.000000,0.691181,0.130423,0.967517,1.000000,0.793039,0.721014,0.598923,2.000000,0.000184
0.086699,0.741289,0.470207,1.000000,0.165173,0.083086,0.956937,2.000000,0.569395,0.000000,1.000000,1.000000,0.793820,0.642112,0.628034,2.000000,0.000185
0.000000,0.903041,0.630745,1.000000,0.000000,0.204777,1.000000,2.000000,0.773046,0.167673,1.000000,1.000000,0.846139,0.636160,0.325183,2.000000,0.000187
0.086699,0.640693,0.470207,1.000000,0.064597,0.140962,1.000000,2.000000,0.581424,0.000000,0.950467,1.000000,0.797917,0.594005,0.722187,2.000000,0.000187
0.000000,0.919458,0.630745,1.000000,0.000000,0.190639,1.000000,2.000000,0.773046,0.167673,1.000000,1.000000,0.846139,0.738810,0.325183,2.000000,0.000188
0.000000,0.910861,0.685175,1.000000,0.153330,0.206859,1.000000,2.000000,1.000000,0.000000,0.960328,1.000000,0.985577,0.960947,0.849527,2.000000,0.000189
0.046541,0.617122,0.584114,1.000000,0.000000,0.323810,1.000000,2.000000,0.775581,0.131068,1.000000,1.000000,0.919962,0.721014,0.609355,2.000000,0.000190
HP,Speed,Damage,Acc,ClipSize,RateOfFire,NrBullets,Range,HP,Speed,Damage,Acc,ClipSize,RateOfFire,NrBullets,Range,fitness,
0.000000,0.766782,0.653926,1.000000,0.072269,0.000000,1.000000,2.000000,0.859675,0.526521,1.000000,1.000000,1.000000,0.969910,1.000000,2.000000,0.030425
0.103944,0.667270,0.578740,1.000000,0.119024,0.346604,0.894256,0.000000,0.943240,0.616319,0.914480,0.997804,0.849565,0.948006,0.793456,1.000000,0.035788
0.000000,0.659602,0.600794,1.000000,0.086433,0.000000,0.987132,1.000000,0.694984,0.377043,0.912718,1.000000,0.995701,0.909339,0.992361,2.000000,0.031828
0.000000,0.656441,0.653926,1.000000,0.008198,0.000000,0.965150,2.000000,0.850734,0.512415,0.944661,1.000000,1.000000,1.000000,1.000000,2.000000,0.030754
0.000000,0.713721,0.622103,0.927360,0.090642,0.000000,1.000000,2.000000,0.824538,0.501903,1.000000,1.000000,1.000000,0.869352,1.000000,0.000000,0.051854
0.042715,0.797204,0.653926,1.000000,0.027567,0.000000,0.884612,2.000000,0.906622,0.695061,1.000000,1.000000,1.000000,1.000000,0.966844,2.000000,0.030648
0.114899,0.710697,0.683765,1.000000,0.086433,0.021986,0.700938,2.000000,0.803668,1.000000,1.000000,0.973448,0.890345,1.000000,0.932156,2.000000,0.033733
0.000000,0.755264,0.653926,0.962933,0.000000,0.000000,0.899645,2.000000,0.841476,0.421379,0.938098,1.000000,0.953122,0.980051,0.913757,1.000000,0.038059
0.094107,0.818226,0.546615,0.996136,0.033468,0.082782,0.965150,1.000000,0.859675,0.622510,0.977504,1.000000,0.892319,1.000000,1.000000,2.000000,0.032315
0.070155,0.808672,0.709341,1.000000,0.037740,0.000000,1.000000,2.000000,0.785830,0.185141,1.000000,1.000000,1.000000,1.000000,0.992980,2.000000,0.030854
0.117888,0.885530,0.827105,1.000000,0.002212,0.000000,0.923493,2.000000,0.907455,0.601541,0.891473,0.961730,0.990196,1.000000,0.848122,1.000000,0.038219
0.000000,1.000000,0.653926,1.000000,0.034257,0.067258,0.806402,1.000000,0.668132,0.498064,1.000000,1.000000,1.000000,0.957988,1.000000,1.000000,0.032963
0.000000,0.859072,0.410247,1.000000,0.076552,0.000000,0.764276,2.000000,0.785586,0.654517,0.996079,1.000000,1.000000,1.000000,1.000000,1.000000,0.032621
0.000000,1.000000,0.688103,0.906935,0.081306,0.000000,1.000000,2.000000,1.000000,0.258443,1.000000,1.000000,0.995781,1.000000,0.995696,2.000000,0.056047
0.019870,0.823877,0.521988,0.996575,0.269894,0.120233,1.000000,1.000000,0.975175,0.710808,1.000000,1.000000,1.000000,0.928865,0.937998,0.000000,0.036371
0.015167,0.808332,0.676466,1.000000,0.039623,0.000000,0.891655,1.000000,1.000000,0.549203,1.000000,1.000000,1.000000,0.947778,0.965106,1.000000,0.033068
0.000000,0.738326,0.703030,0.951999,0.000000,0.076022,0.731623,1.000000,0.890921,0.657565,1.000000,0.972920,1.000000,0.989593,0.966844,1.000000,0.039972
0.000000,0.801438,0.675933,1.000000,0.027567,0.000000,1.000000,0.000000,0.751717,1.000000,1.000000,1.000000,0.899744,0.975545,0.997596,2.000000,0.031991
0.088701,0.686336,0.580809,0.960698,0.000000,0.015124,1.000000,2.000000,0.982465,0.363315,1.000000,0.950461,0.941714,0.761177,1.000000,2.000000,0.035891
0.282580,0.706581,0.344106,1.000000,0.239043,0.120095,1.000000,2.000000,0.807242,0.584682,1.000000,0.985973,0.925863,1.000000,0.982574,0.000000,0.034833
0.000000,0.817242,0.653926,0.844538,0.027567,0.000000,1.000000,2.000000,0.890921,0.774143,0.857233,1.000000,1.000000,0.985474,0.838900,2.000000,0.077796
0.000000,0.894312,0.715599,0.921467,0.000000,0.000000,1.000000,2.000000,0.867015,0.416204,1.000000,1.000000,1.000000,0.909682,1.000000,2.000000,0.048531
0.000000,0.764276,0.653926,1.000000,0.000000,0.000000,1.000000,0.000000,0.824538,0.435433,1.000000,1.000000,1.000000,0.939231,0.975306,2.000000,0.032284
0.009636,0.916669,0.521988,1.000000,0.188179,0.120233,1.000000,2.000000,0.947633,0.898627,1.000000,1.000000,0.951487,0.928865,0.767076,2.000000,0.031423
0.010922,0.816058,0.550815,1.000000,0.056127,0.000000,0.965150,2.000000,0.859675,0.645169,1.000000,0.979615,1.000000,1.000000,0.980938,0.000000,0.033956
0.070155,0.435401,0.751462,0.923348,0.079327,0.000000,1.000000,0.000000,0.849666,0.657375,1.000000,1.000000,1.000000,0.974502,0.967237,2.000000,0.050464
0.000000,0.896952,0.530058,1.000000,0.000000,0.000000,1.000000,2.000000,0.681564,0.445706,0.944588,0.932258,0.944041,1.000000,0.961898,2.000000,0.035448
0.000000,0.840502,0.653926,0.966652,0.081423,0.007889,1.000000,0.000000,0.859675,0.526521,1.000000,0.968188,1.000000,1.000000,1.000000,2.000000,0.036776
0.000000,0.805250,0.653926,1.000000,0.143004,0.000000,0.982109,0.000000,0.859675,0.526521,1.000000,1.000000,0.989629,0.841953,1.000000,1.000000,0.034054
0.068329,1.000000,0.688103,1.000000,0.000000,0.000000,1.000000,0.000000,0.765187,0.304882,1.000000,1.000000,0.905578,0.927201,1.000000,2.000000,0.032100
0.121666,0.856252,0.764865,0.990894,0.000000,0.000000,0.829918,0.000000,1.000000,0.000000,1.000000,1.000000,1.000000,1.000000,1.000000,1.000000,0.034911
0.184306,0.947251,0.653926,1.000000,0.000000,0.000000,1.000000,2.000000,0.824538,0.450894,1.000000,1.000000,0.958382,1.000000,1.000000,2.000000,0.030999
0.139839,0.720636,0.697503,1.000000,0.333448,0.000000,0.925085,2.000000,0.764274,0.526521,1.000000,1.000000,1.000000,1.000000,1.000000,2.000000,0.031597
0.000000,1.000000,0.590632,0.884132,0.000000,0.000000,1.000000,0.000000,0.714569,0.313169,1.000000,0.873181,0.869116,0.927201,0.962813,0.000000,0.052363
0.000000,0.766782,0.491891,1.000000,0.078691,0.073909,0.965150,2.000000,0.850734,0.526521,1.000000,1.000000,0.925542,1.000000,1.000000,1.000000,0.032371
0.000000,0.776652,0.721774,1.000000,0.027567,0.007624,0.949387,1.000000,1.000000,0.526521,1.000000,1.000000,1.000000,0.859222,0.966844,2.000000,0.031472
0.047722,0.958288,0.874154,1.000000,0.093427,0.000000,1.000000,0.000000,0.867480,0.548672,0.986823,1.000000,0.903574,1.000000,1.000000,0.000000,0.035492
0.000000,0.817242,0.640159,1.000000,0.000000,0.071017,1.000000,1.000000,0.821728,0.530331,1.000000,1.000000,1.000000,1.000000,1.000000,2.000000,0.031215
0.138040,0.789734,0.751966,1.000000,0.000000,0.071017,1.000000,2.000000,0.821728,0.335349,0.939134,1.000000,0.911688,1.000000,1.000000,2.000000,0.031845
0.117367,0.801438,0.653926,1.000000,0.027567,0.000000,1.000000,2.000000,0.890921,0.657565,1.000000,1.000000,0.988767,0.985474,0.977542,1.000000,0.032222
0.000000,0.958288,0.763264,1.000000,0.093427,0.000000,1.000000,1.000000,0.988147,0.474682,0.917771,1.000000,0.903574,1.000000,0.992361,2.000000,0.031574
0.028205,0.638576,0.764463,1.000000,0.141613,0.018483,1.000000,0.000000,0.864975,0.318488,0.912718,1.000000,1.000000,1.000000,1.000000,2.000000,0.032625
0.096727,0.817242,0.603567,1.000000,0.000000,0.225095,1.000000,0.000000,0.821728,0.253776,1.000000,0.909862,0.895250,0.961436,0.954228,1.000000,0.039820
0.000000,0.766782,0.571968,1.000000,0.000000,0.099233,0.871882,1.000000,0.759996,0.526521,1.000000,0.943131,1.000000,0.840561,1.000000,0.000000,0.037280
0.000000,0.856252,0.764865,0.888050,0.114641,0.000000,0.835676,0.000000,1.000000,1.000000,1.000000,1.000000,1.000000,1.000000,0.997596,2.000000,0.064014
0.000000,0.684676,0.519917,1.000000,0.020436,0.000000,0.793289,2.000000,0.803668,0.000000,0.982816,0.904767,0.925040,0.887269,0.748658,1.000000,0.039704
0.000000,0.701682,0.649676,1.000000,0.031342,0.000000,0.652181,1.000000,0.808185,1.000000,1.000000,1.000000,0.890345,1.000000,0.997596,1.000000,0.033254
0.000000,0.801438,0.653926,1.000000,0.081402,0.000000,1.000000,0.000000,0.890921,0.798991,1.000000,1.000000,0.894170,1.000000,0.966844,0.000000,0.035505
0.000000,0.822519,0.653926,1.000000,0.000000,0.102063,1.000000,0.000000,0.681142,0.506596,1.000000,1.000000,0.975133,0.838746,0.961898,0.000000,0.035386
0.095683,0.844966,0.699934,1.000000,0.000491,0.000000,0.933412,0.000000,0.853055,0.128827,0.881463,1.000000,0.903574,1.000000,0.802738,1.000000,0.034929
0.021239,0.714467,0.653926,1.000000,0.000000,0.033395,1.000000,0.000000,0.807050,0.710808,1.000000,1.000000,1.000000,1.000000,1.000000,2.000000,0.032140
0.000000,0.926288,0.355227,0.974988,0.044713,0.000000,1.000000,2.000000,0.765529,0.347935,1.000000,1.000000,0.907696,0.897529,0.966844,2.000000,0.037496
0.000000,0.801438,0.594827,0.957180,0.027567,0.000000,1.000000,2.000000,0.857379,0.647634,1.000000,1.000000,1.000000,1.000000,0.966844,2.000000,0.039042
0.094937,0.928932,0.669194,1.000000,0.201324,0.232813,0.870573,0.000000,1.000000,0.518736,0.978930,1.000000,0.917900,0.870612,0.747221,2.000000,0.033617
0.000000,0.766782,0.636763,1.000000,0.000000,0.000000,0.893834,2.000000,1.000000,0.621043,0.929766,1.000000,1.000000,0.890635,0.799833,1.000000,0.032839
0.000000,0.766782,0.653926,1.000000,0.008198,0.000000,0.965150,1.000000,0.850734,0.551105,0.964470,1.000000,1.000000,0.998312,0.966844,1.000000,0.032948
0.000000,0.814071,0.635005,0.792141,0.174591,0.000000,0.905768,0.000000,0.807982,0.692204,1.000000,0.995088,0.848625,0.928120,0.955600,1.000000,0.095712
0.000000,0.773841,0.595579,1.000000,0.072374,0.000000,1.000000,1.000000,0.618337,0.841035,0.852442,1.000000,1.000000,0.876885,0.992016,2.000000,0.032074
0.000000,1.000000,0.747094,0.829810,0.093427,0.000000,1.000000,2.000000,1.000000,0.548672,1.000000,1.000000,0.903574,1.000000,1.000000,1.000000,0.081779
0.000000,0.940754,0.763264,1.000000,0.000000,0.000000,1.000000,1.000000,0.858510,0.258443,1.000000,1.000000,0.810521,0.927201,0.917796,2.000000,0.031405
0.000000,0.721031,0.858006,0.991894,0.009995,0.038955,1.000000,0.000000,0.823636,0.487554,1.000000,1.000000,1.000000,0.863836,1.000000,1.000000,0.034187
0.022838,0.897463,0.236238,0.968225,0.027567,0.116013,0.948682,0.000000,0.905367,0.646001,0.946355,0.837377,0.898750,0.927607,0.886103,1.000000,0.041893
0.000000,0.945854,0.580809,1.000000,0.000000,0.000000,1.000000,2.000000,0.955783,0.657565,1.000000,0.981824,1.000000,0.950643,0.966844,0.000000,0.033683
0.000000,0.678671,0.653926,1.000000,0.000000,0.015124,1.000000,0.000000,0.897835,0.501632,1.000000,0.950461,0.925863,0.991495,0.982574,2.000000,0.033581
0.007584,0.935226,0.653926,1.000000,0.000000,0.000000,0.707034,1.000000,1.000000,0.672094,1.000000,1.000000,0.956595,0.985474,1.000000,1.000000,0.033155
0.000000,0.694925,0.675601,1.000000,0.000000,0.000000,1.000000,2.000000,0.822289,0.330416,1.000000,1.000000,1.000000,1.000000,1.000000,2.000000,0.030447
0.000000,0.771304,0.662068,0.985901,0.000000,0.000000,0.905768,1.000000,0.846896,0.515568,0.847623,0.929315,0.787444,1.000000,0.870866,0.000000,0.040401
0.001981,0.859435,0.600210,0.935357,0.000000,0.000000,0.935173,1.000000,0.807982,0.700780,1.000000,1.000000,1.000000,1.000000,0.980938,1.000000,0.049390
0.000000,0.989393,0.707641,1.000000,0.000000,0.000000,0.856153,0.000000,0.833876,0.236512,0.894492,0.976488,1.000000,0.876885,1.000000,0.000000,0.036707
0.000000,0.856252,0.764865,0.868288,0.000000,0.000000,0.990012,2.000000,1.000000,0.037015,0.930532,1.000000,1.000000,0.977082,1.000000,0.000000,0.070540
0.016049,0.856252,0.845499,1.000000,0.000000,0.000000,1.000000,2.000000,1.000000,0.037015,1.000000,1.000000,1.000000,1.000000,1.000000,2.000000,0.030630
0.000000,0.822519,0.812586,1.000000,0.000000,0.000000,0.963818,2.000000,0.681142,0.320873,1.000000,1.000000,0.985972,0.972625,0.961898,1.000000,0.032989
0.000000,0.766782,0.575933,0.922016,0.140838,0.000000,1.000000,2.000000,0.859675,0.526521,1.000000,0.831592,1.000000,0.894801,1.000000,1.000000,0.042408
0.000000,0.801438,0.653926,1.000000,0.126895,0.016962,0.966516,2.000000,0.859675,0.526521,1.000000,1.000000,1.000000,0.814874,0.817641,2.000000,0.030954
0.000000,0.766782,0.653926,1.000000,0.000000,0.000000,1.000000,0.000000,1.000000,0.551105,0.964470,1.000000,1.000000,0.853807,0.965323,0.000000,0.036088
0.000000,0.723106,0.653926,1.000000,0.000000,0.000000,0.965150,2.000000,0.859675,0.526521,1.000000,1.000000,1.000000,0.925163,0.941385,0.000000,0.033631
0.217738,0.860436,0.539328,0.990875,0.000000,0.105668,0.965150,1.000000,0.923761,0.605465,1.000000,1.000000,1.000000,1.000000,0.834792,2.000000,0.033380
0.092763,0.766782,0.801473,0.987583,0.190109,0.000000,0.982799,1.000000,0.946228,0.280445,1.000000,1.000000,0.977270,0.994205,0.982503,0.000000,0.035644
0.000000,0.817451,0.869369,1.000000,0.000000,0.000000,0.942579,0.000000,1.000000,0.037015,1.000000,0.805983,1.000000,0.837636,1.000000,2.000000,0.056204
0.000000,0.958191,0.688103,1.000000,0.139593,0.000000,1.000000,2.000000,0.950994,0.048855,0.910665,1.000000,0.995781,1.000000,1.000000,2.000000,0.030851
0.137971,0.754282,0.344106,1.000000,0.076500,0.185488,0.995994,2.000000,0.890921,0.564066,1.000000,0.914842,1.000000,1.000000,1.000000,1.000000,0.035850
0.000000,0.799219,0.635005,0.923287,0.117556,0.056851,0.905768,0.000000,0.827033,0.406284,1.000000,1.000000,1.000000,1.000000,1.000000,0.000000,0.057212
0.043041,0.696616,0.653926,1.000000,0.048130,0.000000,0.826455,2.000000,0.850734,0.438398,1.000000,1.000000,1.000000,0.975616,0.943783,2.000000,0.030925
0.000000,0.818087,0.664936,1.000000,0.027567,0.000000,0.967904,1.000000,0.889946,0.526521,1.000000,0.997014,0.969282,1.000000,1.000000,2.000000,0.031264
0.053694,0.738751,0.653926,1.000000,0.000000,0.010163,0.940860,2.000000,0.949973,0.749924,0.874355,1.000000,0.813645,0.985474,1.000000,1.000000,0.032894
0.046205,0.801438,0.659624,0.774022,0.000000,0.000000,0.793289,0.000000,0.684566,1.000000,1.000000,0.797762,0.826154,1.000000,0.997596,0.000000,0.064998
0.000000,0.822519,0.591091,0.981702,0.000000,0.000000,0.975114,0.000000,0.758018,0.445706,1.000000,1.000000,0.857126,0.993133,1.000000,2.000000,0.035723
0.061130,0.992574,0.769870,0.993906,0.080093,0.031191,1.000000,2.000000,0.788713,0.252345,1.000000,0.978986,1.000000,0.816454,0.982646,0.000000,0.035596
0.043026,0.817242,0.693114,1.000000,0.027567,0.000000,1.000000,2.000000,1.000000,0.657565,0.976520,1.000000,0.990246,0.964395,0.907923,2.000000,0.030722
0.058288,0.801872,0.653926,1.000000,0.005993,0.000000,0.868869,0.000000,0.581429,0.433690,0.827424,1.000000,1.000000,1.000000,0.992703,2.000000,0.033433
0.000000,1.000000,0.688103,1.000000,0.000000,0.000000,1.000000,2.000000,0.950994,0.258443,1.000000,1.000000,0.995781,0.927201,1.000000,2.000000,0.030315
0.000000,0.856252,0.764865,1.000000,0.000000,0.000000,1.000000,2.000000,1.000000,0.037015,1.000000,1.000000,1.000000,1.000000,1.000000,2.000000,0.030371
0.000000,0.801438,0.653926,1.000000,0.027567,0.000000,1.000000,2.000000,0.890921,0.710808,1.000000,1.000000,1.000000,1.000000,0.966844,2.000000,0.030383
0.000000,0.766782,0.653926,1.000000,0.000000,0.000000,0.965150,2.000000,0.859675,0.526521,1.000000,1.000000,1.000000,1.000000,1.000000,2.000000,0.030399
0.000000,0.801438,0.653926,1.000000,0.027567,0.000000,1.000000,2.000000,0.890921,0.657565,1.000000,1.000000,1.000000,0.985474,0.966844,2.000000,0.030401
0.000000,0.766782,0.653926,1.000000,0.000000,0.000000,1.000000,2.000000,0.859675,0.526521,1.000000,1.000000,1.000000,0.930263,1.000000,2.000000,0.030405
0.000000,0.766782,0.653926,1.000000,0.008198,0.000000,0.965150,2.000000,0.850734,0.526521,1.000000,1.000000,1.000000,1.000000,1.000000,2.000000,0.030408
0.000000,0.817242,0.653926,1.000000,0.000000,0.000000,1.000000,2.000000,0.824538,0.435433,1.000000,1.000000,1.000000,1.000000,0.961898,2.000000,0.030413
0.000000,0.958288,0.763264,1.000000,0.093427,0.000000,1.000000,2.000000,0.988147,0.548672,1.000000,1.000000,0.903574,1.000000,1.000000,2.000000,0.030416
0.000000,0.801438,0.653926,1.000000,0.027567,0.016962,0.982109,2.000000,0.859675,0.526521,1.000000,1.000000,1.000000,0.960072,1.000000,2.000000,0.030420
