gen, fitness
0,0.013430,0.000000,1.000000,0.210000,0.800000,0.030000,0.030000,1.000000,0.000000,1.000000,0.000000,0.000000,0.600000,1.000000,1.000000,0.000000,0.000000
1,0.013430,0.000000,1.000000,0.210000,0.800000,0.030000,0.030000,1.000000,0.000000,1.000000,0.000000,0.000000,0.600000,1.000000,1.000000,0.000000,0.000000
2,0.000092,0.000000,1.000000,0.210000,0.664546,0.072667,0.030000,1.000000,0.000000,0.984911,0.000000,0.000000,0.600000,0.902079,0.880538,0.000000,2.000000
3,0.000090,0.000000,1.000000,0.309817,0.592127,0.005332,0.000000,0.927090,1.000000,1.000000,0.096494,0.000000,0.590886,1.000000,1.000000,0.015028,0.000000
4,0.000055,0.060632,1.000000,0.000000,0.686666,0.000000,0.030000,0.765655,1.000000,0.605039,0.114915,0.026339,0.600000,0.850965,1.000000,0.000000,2.000000
5,0.000049,0.000000,1.000000,0.000000,0.686666,0.155454,0.162525,0.765655,0.000000,0.499670,0.114915,0.000000,0.600000,0.850965,1.000000,0.000000,2.000000
6,0.000016,0.000000,0.871565,0.172311,0.658626,0.026620,0.000000,1.000000,2.000000,0.943328,0.000000,0.105069,0.502398,0.783544,1.000000,0.085321,2.000000
7,0.000002,0.028771,1.000000,0.098755,0.714751,0.023824,0.483358,0.928330,2.000000,1.000000,0.052613,0.065176,0.553714,0.801098,0.932312,0.000000,0.000000
8,0.000002,0.028771,1.000000,0.098755,0.714751,0.023824,0.483358,0.928330,2.000000,1.000000,0.052613,0.065176,0.553714,0.801098,0.932312,0.000000,0.000000
9,0.000002,0.028771,1.000000,0.098755,0.714751,0.023824,0.483358,0.928330,2.000000,1.000000,0.052613,0.065176,0.553714,0.801098,0.932312,0.000000,0.000000
10,0.000002,0.028771,1.000000,0.098755,0.714751,0.023824,0.483358,0.928330,2.000000,1.000000,0.052613,0.065176,0.553714,0.801098,0.932312,0.000000,0.000000
11,0.000002,0.028771,1.000000,0.098755,0.714751,0.023824,0.483358,0.928330,2.000000,1.000000,0.052613,0.065176,0.553714,0.801098,0.932312,0.000000,0.000000
12,0.000002,0.028771,1.000000,0.098755,0.714751,0.023824,0.483358,0.928330,2.000000,1.000000,0.052613,0.065176,0.553714,0.801098,0.932312,0.000000,0.000000
13,0.000002,0.028771,1.000000,0.098755,0.714751,0.023824,0.483358,0.928330,2.000000,1.000000,0.052613,0.065176,0.553714,0.801098,0.932312,0.000000,0.000000
14,0.000002,0.028771,1.000000,0.098755,0.714751,0.023824,0.483358,0.928330,2.000000,1.000000,0.052613,0.065176,0.553714,0.801098,0.932312,0.000000,0.000000
15,0.000001,0.000000,0.835688,0.243049,0.654913,0.000000,0.334124,0.942784,0.000000,0.986201,0.166072,0.011776,0.590886,1.000000,1.000000,0.000000,0.000000
gen, fitness
0,0.034276,0.000000,1.000000,0.210000,0.800000,0.030000,0.030000,1.000000,0.000000,1.000000,0.000000,0.000000,0.600000,1.000000,1.000000,0.000000,0.000000
1,0.034276,0.000000,1.000000,0.210000,0.800000,0.030000,0.030000,1.000000,0.000000,1.000000,0.000000,0.000000,0.600000,1.000000,1.000000,0.000000,0.000000
2,0.014626,0.033222,1.000000,0.323977,0.820114,0.030000,0.024966,1.000000,0.000000,0.903873,0.000000,0.000000,0.778048,1.000000,1.000000,0.134199,2.000000
3,0.014626,0.033222,1.000000,0.323977,0.820114,0.030000,0.024966,1.000000,0.000000,0.903873,0.000000,0.000000,0.778048,1.000000,1.000000,0.134199,2.000000
4,0.007621,0.000000,1.000000,0.224322,0.922871,0.000000,0.083155,0.993368,0.000000,0.938507,0.191245,0.254991,0.805034,0.951926,0.945934,0.150991,2.000000
5,0.003319,0.008378,0.907267,0.332745,0.994339,0.001215,0.000000,0.993368,0.000000,0.966914,0.035549,0.254991,0.954491,1.000000,0.945934,0.157832,1.000000
6,0.002421,0.008378,0.979004,0.332745,1.000000,0.001215,0.000000,0.993368,1.000000,1.000000,0.069376,0.361717,0.954491,1.000000,0.960280,0.286604,1.000000
7,0.002421,0.008378,0.979004,0.332745,1.000000,0.001215,0.000000,0.993368,1.000000,1.000000,0.069376,0.361717,0.954491,1.000000,0.960280,0.286604,1.000000
8,0.002226,0.000660,0.909790,0.345604,1.000000,0.001215,0.059798,1.000000,2.000000,0.966914,0.035549,0.254991,0.971575,1.000000,0.945934,0.157832,2.000000
9,0.002096,0.000000,0.878970,0.354790,1.000000,0.082486,0.000000,0.936245,2.000000,0.601903,0.080361,0.341380,1.000000,1.000000,1.000000,0.157832,1.000000
10,0.001607,0.000000,0.842101,0.354790,1.000000,0.205754,0.000000,0.889298,2.000000,0.514062,0.080361,0.417979,1.000000,1.000000,1.000000,0.093870,2.000000
11,0.001526,0.000660,0.909790,0.345604,1.000000,0.000000,0.088324,1.000000,2.000000,0.869146,0.031788,0.481203,0.954491,1.000000,0.699659,0.391288,2.000000
12,0.001377,0.004536,1.000000,0.391645,1.000000,0.013490,0.082050,0.990474,2.000000,0.577080,0.101478,0.516287,1.000000,1.000000,0.924423,0.227213,2.000000
13,0.001377,0.004536,1.000000,0.391645,1.000000,0.013490,0.082050,0.990474,2.000000,0.577080,0.101478,0.516287,1.000000,1.000000,0.924423,0.227213,2.000000
14,0.001222,0.000000,1.000000,0.496832,1.000000,0.013490,0.082050,0.990474,2.000000,0.577080,0.000000,0.516287,1.000000,1.000000,0.924423,0.227213,2.000000
15,0.001222,0.000000,1.000000,0.496832,1.000000,0.013490,0.082050,0.990474,2.000000,0.577080,0.000000,0.516287,1.000000,1.000000,0.924423,0.227213,2.000000
16,0.001110,0.035773,1.000000,0.413380,1.000000,0.203318,0.197934,1.000000,2.000000,0.526333,0.074012,0.530847,1.000000,1.000000,1.000000,0.541352,2.000000
17,0.000993,0.000000,0.991693,0.508707,1.000000,0.196788,0.104581,0.886164,2.000000,0.728456,0.207792,0.746744,0.980455,1.000000,0.893748,0.247160,2.000000
18,0.000993,0.000000,0.991693,0.508707,1.000000,0.196788,0.104581,0.886164,2.000000,0.728456,0.207792,0.746744,0.980455,1.000000,0.893748,0.247160,2.000000
19,0.000993,0.000000,0.991693,0.508707,1.000000,0.196788,0.104581,0.886164,2.000000,0.728456,0.207792,0.746744,0.980455,1.000000,0.893748,0.247160,2.000000
20,0.000961,0.000000,1.000000,0.413380,1.000000,0.203318,0.138421,1.000000,2.000000,0.415841,0.074012,0.693688,1.000000,1.000000,1.000000,0.435641,2.000000
21,0.000944,0.000000,0.874320,0.487470,1.000000,0.203318,0.245948,0.936245,2.000000,0.433326,0.145505,0.971190,1.000000,1.000000,0.983891,0.304224,2.000000
22,0.000944,0.000000,0.874320,0.487470,1.000000,0.203318,0.245948,0.936245,2.000000,0.433326,0.145505,0.971190,1.000000,1.000000,0.983891,0.304224,2.000000
23,0.000848,0.000000,1.000000,0.454720,1.000000,0.289640,0.000000,0.959249,2.000000,0.420508,0.258874,0.725117,1.000000,0.868048,1.000000,0.494085,2.000000
24,0.000807,0.000000,1.000000,0.532426,1.000000,0.004828,0.000000,1.000000,2.000000,0.553335,0.228104,0.688213,1.000000,1.000000,1.000000,0.500714,2.000000
25,0.000807,0.000000,1.000000,0.532426,1.000000,0.004828,0.000000,1.000000,2.000000,0.553335,0.228104,0.688213,1.000000,1.000000,1.000000,0.500714,2.000000
26,0.000772,0.000000,0.880638,0.645632,0.995877,0.135655,0.289800,0.888620,2.000000,0.611096,0.515874,1.000000,0.980455,1.000000,0.920649,0.252976,2.000000
27,0.000772,0.000000,0.880638,0.645632,0.995877,0.135655,0.289800,0.888620,2.000000,0.611096,0.515874,1.000000,0.980455,1.000000,0.920649,0.252976,2.000000
28,0.000738,0.000000,0.866148,0.776941,1.000000,0.000000,0.000000,1.000000,1.000000,0.478839,0.062719,1.000000,1.000000,1.000000,1.000000,0.198725,2.000000
29,0.000738,0.000000,0.866148,0.776941,1.000000,0.000000,0.000000,1.000000,1.000000,0.478839,0.062719,1.000000,1.000000,1.000000,1.000000,0.198725,2.000000
30,0.000641,0.000000,0.985444,0.695907,1.000000,0.000000,0.000000,0.843623,2.000000,0.532911,0.251143,1.000000,1.000000,0.838740,1.000000,0.247160,2.000000
31,0.000641,0.000000,0.985444,0.695907,1.000000,0.000000,0.000000,0.843623,2.000000,0.532911,0.251143,1.000000,1.000000,0.838740,1.000000,0.247160,2.000000
32,0.000641,0.000000,0.985444,0.695907,1.000000,0.000000,0.000000,0.843623,2.000000,0.532911,0.251143,1.000000,1.000000,0.838740,1.000000,0.247160,2.000000
33,0.000641,0.000000,0.985444,0.695907,1.000000,0.000000,0.000000,0.843623,2.000000,0.532911,0.251143,1.000000,1.000000,0.838740,1.000000,0.247160,2.000000
34,0.000641,0.000000,0.985444,0.695907,1.000000,0.000000,0.000000,0.843623,2.000000,0.532911,0.251143,1.000000,1.000000,0.838740,1.000000,0.247160,2.000000
35,0.000596,0.000000,0.985444,0.695907,1.000000,0.000000,0.000000,0.909927,2.000000,0.532911,0.167973,1.000000,1.000000,1.000000,0.861856,0.346481,2.000000
36,0.000566,0.043671,1.000000,0.695907,1.000000,0.075306,0.000000,1.000000,2.000000,0.604165,0.156581,0.964868,1.000000,1.000000,1.000000,0.516479,2.000000
37,0.000566,0.043671,1.000000,0.695907,1.000000,0.075306,0.000000,1.000000,2.000000,0.604165,0.156581,0.964868,1.000000,1.000000,1.000000,0.516479,2.000000
38,0.000550,0.000000,0.889059,0.623174,1.000000,0.000000,0.000000,0.891673,2.000000,0.394039,0.159559,0.996894,1.000000,0.925810,0.841578,0.608128,2.000000
39,0.000544,0.000000,0.985444,0.695907,1.000000,0.000000,0.000000,0.909927,2.000000,0.532911,0.167973,1.000000,1.000000,1.000000,1.000000,0.506362,2.000000
40,0.000544,0.000000,0.985444,0.695907,1.000000,0.000000,0.000000,0.909927,2.000000,0.532911,0.167973,1.000000,1.000000,1.000000,1.000000,0.506362,2.000000
41,0.000544,0.000000,0.985444,0.695907,1.000000,0.000000,0.000000,0.909927,2.000000,0.532911,0.167973,1.000000,1.000000,1.000000,1.000000,0.506362,2.000000
42,0.000544,0.000000,0.985444,0.695907,1.000000,0.000000,0.000000,0.909927,2.000000,0.532911,0.167973,1.000000,1.000000,1.000000,1.000000,0.506362,2.000000
43,0.000538,0.000000,1.000000,0.692410,1.000000,0.000000,0.060476,1.000000,2.000000,0.604165,0.156581,0.994273,1.000000,1.000000,1.000000,0.497470,2.000000
44,0.000538,0.000000,1.000000,0.692410,1.000000,0.000000,0.060476,1.000000,2.000000,0.604165,0.156581,0.994273,1.000000,1.000000,1.000000,0.497470,2.000000
45,0.000538,0.000000,1.000000,0.692410,1.000000,0.000000,0.060476,1.000000,2.000000,0.604165,0.156581,0.994273,1.000000,1.000000,1.000000,0.497470,2.000000
46,0.000538,0.000000,1.000000,0.692410,1.000000,0.000000,0.060476,1.000000,2.000000,0.604165,0.156581,0.994273,1.000000,1.000000,1.000000,0.497470,2.000000
47,0.000538,0.000000,1.000000,0.692410,1.000000,0.000000,0.060476,1.000000,2.000000,0.604165,0.156581,0.994273,1.000000,1.000000,1.000000,0.497470,2.000000
48,0.000526,0.079562,0.888560,0.695907,1.000000,0.301434,0.298137,1.000000,2.000000,0.694191,0.000000,1.000000,1.000000,0.992953,0.974827,0.905357,2.000000
49,0.000520,0.000000,0.985444,0.604343,1.000000,0.000000,0.065302,0.993826,2.000000,0.472232,0.194023,0.981293,1.000000,0.868759,1.000000,0.668133,2.000000
50,0.000520,0.000000,0.985444,0.604343,1.000000,0.000000,0.065302,0.993826,2.000000,0.472232,0.194023,0.981293,1.000000,0.868759,1.000000,0.668133,2.000000
51,0.000520,0.000000,0.985444,0.604343,1.000000,0.000000,0.065302,0.993826,2.000000,0.472232,0.194023,0.981293,1.000000,0.868759,1.000000,0.668133,2.000000
52,0.000520,0.000000,0.985444,0.604343,1.000000,0.000000,0.065302,0.993826,2.000000,0.472232,0.194023,0.981293,1.000000,0.868759,1.000000,0.668133,2.000000
53,0.000520,0.000000,0.985444,0.604343,1.000000,0.000000,0.065302,0.993826,2.000000,0.472232,0.194023,0.981293,1.000000,0.868759,1.000000,0.668133,2.000000
54,0.000520,0.079562,0.888560,0.753889,1.000000,0.301434,0.234668,0.999441,2.000000,0.821507,0.000000,1.000000,1.000000,1.000000,1.000000,0.905357,2.000000
55,0.000469,0.003417,1.000000,0.651604,1.000000,0.000000,0.000000,0.782118,2.000000,0.512393,0.065777,1.000000,1.000000,0.992953,0.974827,0.905357,2.000000
56,0.000469,0.003417,1.000000,0.651604,1.000000,0.000000,0.000000,0.782118,2.000000,0.512393,0.065777,1.000000,1.000000,0.992953,0.974827,0.905357,2.000000
57,0.000469,0.003417,1.000000,0.651604,1.000000,0.000000,0.000000,0.782118,2.000000,0.512393,0.065777,1.000000,1.000000,0.992953,0.974827,0.905357,2.000000
58,0.000469,0.003417,1.000000,0.651604,1.000000,0.000000,0.000000,0.782118,2.000000,0.512393,0.065777,1.000000,1.000000,0.992953,0.974827,0.905357,2.000000
59,0.000469,0.003417,1.000000,0.651604,1.000000,0.000000,0.000000,0.782118,2.000000,0.512393,0.065777,1.000000,1.000000,0.992953,0.974827,0.905357,2.000000
60,0.000469,0.003417,1.000000,0.651604,1.000000,0.000000,0.000000,0.782118,2.000000,0.512393,0.065777,1.000000,1.000000,0.992953,0.974827,0.905357,2.000000
61,0.000457,0.000000,0.930682,0.692410,1.000000,0.000000,0.167499,1.000000,2.000000,0.604165,0.156581,0.994273,1.000000,1.000000,1.000000,0.867374,2.000000
62,0.000457,0.000000,0.930682,0.692410,1.000000,0.000000,0.167499,1.000000,2.000000,0.604165,0.156581,0.994273,1.000000,1.000000,1.000000,0.867374,2.000000
63,0.000457,0.000000,0.930682,0.692410,1.000000,0.000000,0.167499,1.000000,2.000000,0.604165,0.156581,0.994273,1.000000,1.000000,1.000000,0.867374,2.000000
64,0.000457,0.000000,0.930682,0.692410,1.000000,0.000000,0.167499,1.000000,2.000000,0.604165,0.156581,0.994273,1.000000,1.000000,1.000000,0.867374,2.000000
65,0.000457,0.000000,0.930682,0.692410,1.000000,0.000000,0.167499,1.000000,2.000000,0.604165,0.156581,0.994273,1.000000,1.000000,1.000000,0.867374,2.000000
66,0.000457,0.000000,0.930682,0.692410,1.000000,0.000000,0.167499,1.000000,2.000000,0.604165,0.156581,0.994273,1.000000,1.000000,1.000000,0.867374,2.000000
67,0.000457,0.000000,0.930682,0.692410,1.000000,0.000000,0.167499,1.000000,2.000000,0.604165,0.156581,0.994273,1.000000,1.000000,1.000000,0.867374,2.000000
68,0.000450,0.030192,1.000000,0.616678,1.000000,0.016302,0.052740,1.000000,2.000000,0.412379,0.000000,1.000000,1.000000,0.949840,0.976593,0.946276,2.000000
69,0.000450,0.030192,1.000000,0.616678,1.000000,0.016302,0.052740,1.000000,2.000000,0.412379,0.000000,1.000000,1.000000,0.949840,0.976593,0.946276,2.000000
70,0.000450,0.030192,1.000000,0.616678,1.000000,0.016302,0.052740,1.000000,2.000000,0.412379,0.000000,1.000000,1.000000,0.949840,0.976593,0.946276,2.000000
71,0.000429,0.000000,0.930682,0.692410,1.000000,0.000000,0.167499,1.000000,2.000000,0.628241,0.156581,1.000000,1.000000,1.000000,1.000000,1.000000,2.000000
72,0.000429,0.000000,0.930682,0.692410,1.000000,0.000000,0.167499,1.000000,2.000000,0.628241,0.156581,1.000000,1.000000,1.000000,1.000000,1.000000,2.000000
73,0.000429,0.000000,0.930682,0.692410,1.000000,0.000000,0.167499,1.000000,2.000000,0.628241,0.156581,1.000000,1.000000,1.000000,1.000000,1.000000,2.000000
74,0.000429,0.000000,0.930682,0.692410,1.000000,0.000000,0.167499,1.000000,2.000000,0.628241,0.156581,1.000000,1.000000,1.000000,1.000000,1.000000,2.000000
75,0.000429,0.000000,0.930682,0.692410,1.000000,0.000000,0.167499,1.000000,2.000000,0.628241,0.156581,1.000000,1.000000,1.000000,1.000000,1.000000,2.000000
76,0.000429,0.000000,0.930682,0.692410,1.000000,0.000000,0.167499,1.000000,2.000000,0.628241,0.156581,1.000000,1.000000,1.000000,1.000000,1.000000,2.000000
77,0.000422,0.000000,1.000000,0.638920,1.000000,0.016302,0.000000,1.000000,2.000000,0.517815,0.189354,1.000000,1.000000,0.999538,0.885243,1.000000,2.000000
78,0.000422,0.000000,1.000000,0.638920,1.000000,0.016302,0.000000,1.000000,2.000000,0.517815,0.189354,1.000000,1.000000,0.999538,0.885243,1.000000,2.000000
79,0.000422,0.000000,1.000000,0.638920,1.000000,0.016302,0.000000,1.000000,2.000000,0.517815,0.189354,1.000000,1.000000,0.999538,0.885243,1.000000,2.000000
80,0.000416,0.000000,1.000000,0.507596,1.000000,0.000000,0.045050,1.000000,2.000000,0.232998,0.111332,1.000000,1.000000,0.966867,0.963760,1.000000,2.000000
81,0.000416,0.000000,1.000000,0.507596,1.000000,0.000000,0.045050,1.000000,2.000000,0.232998,0.111332,1.000000,1.000000,0.966867,0.963760,1.000000,2.000000
gen, fitness
0,0.044384,0.000000,1.000000,0.210000,0.800000,0.030000,0.030000,1.000000,0.000000,1.000000,0.000000,0.000000,0.600000,1.000000,1.000000,0.000000,0.000000
1,0.044384,0.000000,1.000000,0.210000,0.800000,0.030000,0.030000,1.000000,0.000000,1.000000,0.000000,0.000000,0.600000,1.000000,1.000000,0.000000,0.000000
2,0.022229,0.000000,1.000000,0.210000,0.885614,0.030000,0.030000,1.000000,0.000000,1.000000,0.000000,0.000000,0.817041,0.919162,1.000000,0.000000,0.000000
3,0.016001,0.006472,1.000000,0.289818,0.911500,0.000000,0.000000,1.000000,0.000000,0.818836,0.000000,0.000000,0.888386,1.000000,1.000000,0.003032,2.000000
4,0.015525,0.006472,1.000000,0.289818,0.893851,0.123377,0.044415,1.000000,2.000000,0.818836,0.000000,0.000000,0.878391,1.000000,1.000000,0.167451,1.000000
5,0.015092,0.000000,0.999269,0.120877,0.932628,0.076085,0.081537,1.000000,2.000000,0.811266,0.000000,0.082659,0.888386,0.910397,0.939671,0.000000,2.000000
6,0.013575,0.000000,0.925933,0.421227,0.932628,0.000000,0.081537,1.000000,2.000000,0.989657,0.010478,0.087349,0.923279,0.953277,1.000000,0.000000,0.000000
7,0.010795,0.000000,1.000000,0.234721,1.000000,0.000221,0.058551,0.682261,2.000000,0.956288,0.000000,0.000000,1.000000,0.946470,1.000000,0.084044,2.000000
8,0.010370,0.071267,1.000000,0.293579,1.000000,0.241878,0.014484,0.958694,1.000000,0.688939,0.000000,0.000000,1.000000,0.743735,0.969447,0.000000,2.000000
9,0.009624,0.071267,1.000000,0.293579,1.000000,0.310418,0.014484,0.958694,2.000000,0.653575,0.028846,0.070587,1.000000,1.000000,0.913820,0.000000,2.000000
10,0.009624,0.071267,1.000000,0.293579,1.000000,0.310418,0.014484,0.958694,2.000000,0.653575,0.028846,0.070587,1.000000,1.000000,0.913820,0.000000,2.000000
11,0.009274,0.071267,1.000000,0.603846,1.000000,0.000000,0.000000,0.983652,1.000000,0.752229,0.089633,0.193775,1.000000,0.781602,1.000000,0.084044,2.000000
12,0.009115,0.167602,0.823339,0.603846,1.000000,0.000000,0.000000,0.983652,1.000000,0.953115,0.000000,0.267798,1.000000,1.000000,1.000000,0.039269,2.000000
13,0.009115,0.167602,0.823339,0.603846,1.000000,0.000000,0.000000,0.983652,1.000000,0.953115,0.000000,0.267798,1.000000,1.000000,1.000000,0.039269,2.000000
14,0.009115,0.167602,0.823339,0.603846,1.000000,0.000000,0.000000,0.983652,1.000000,0.953115,0.000000,0.267798,1.000000,1.000000,1.000000,0.039269,2.000000
15,0.008806,0.167602,0.821522,0.632979,1.000000,0.044556,0.000000,0.949140,2.000000,0.953115,0.125277,0.267798,1.000000,1.000000,0.926794,0.402835,2.000000
16,0.008776,0.000000,1.000000,0.634514,1.000000,0.000000,0.007949,1.000000,1.000000,0.953115,0.000000,0.284604,1.000000,1.000000,0.893584,0.209300,2.000000
17,0.008514,0.025402,1.000000,0.554189,0.978472,0.206298,0.000000,0.884530,2.000000,0.650690,0.239821,0.193775,1.000000,0.978825,1.000000,0.524925,2.000000
18,0.008005,0.000000,0.776362,0.602313,1.000000,0.000000,0.000000,1.000000,2.000000,0.830505,0.230133,0.373695,1.000000,0.808608,1.000000,0.524925,2.000000
19,0.008005,0.000000,0.776362,0.602313,1.000000,0.000000,0.000000,1.000000,2.000000,0.830505,0.230133,0.373695,1.000000,0.808608,1.000000,0.524925,2.000000
20,0.007944,0.000000,0.915232,0.584865,1.000000,0.086433,0.153858,1.000000,2.000000,0.830505,0.230133,0.458572,1.000000,0.899085,1.000000,0.746054,2.000000
21,0.007944,0.000000,0.915232,0.584865,1.000000,0.086433,0.153858,1.000000,2.000000,0.830505,0.230133,0.458572,1.000000,0.899085,1.000000,0.746054,2.000000
22,0.007810,0.024804,0.915232,0.597341,1.000000,0.000000,0.024213,1.000000,2.000000,0.830505,0.182549,0.458572,1.000000,0.899085,1.000000,0.746054,2.000000
23,0.007622,0.104375,0.724053,0.766425,1.000000,0.000000,0.000000,1.000000,2.000000,0.860703,0.075525,0.597845,1.000000,0.729958,0.819948,0.536967,2.000000
24,0.007622,0.104375,0.724053,0.766425,1.000000,0.000000,0.000000,1.000000,2.000000,0.860703,0.075525,0.597845,1.000000,0.729958,0.819948,0.536967,2.000000
25,0.007496,0.154699,1.000000,0.787278,0.999807,0.000000,0.000000,1.000000,2.000000,0.860703,0.000000,0.820027,0.992855,0.782307,0.819948,0.536967,2.000000
26,0.007496,0.154699,1.000000,0.787278,0.999807,0.000000,0.000000,1.000000,2.000000,0.860703,0.000000,0.820027,0.992855,0.782307,0.819948,0.536967,2.000000
27,0.007496,0.154699,1.000000,0.787278,0.999807,0.000000,0.000000,1.000000,2.000000,0.860703,0.000000,0.820027,0.992855,0.782307,0.819948,0.536967,2.000000
28,0.007338,0.000000,0.957629,0.656233,1.000000,0.000000,0.000000,1.000000,2.000000,0.664717,0.080043,0.651916,1.000000,0.659527,0.883027,0.676650,2.000000
29,0.007317,0.000000,0.881733,0.688684,1.000000,0.042761,0.104102,1.000000,2.000000,0.663479,0.076479,0.730639,1.000000,1.000000,0.784552,0.536967,2.000000
30,0.007317,0.000000,0.881733,0.688684,1.000000,0.042761,0.104102,1.000000,2.000000,0.663479,0.076479,0.730639,1.000000,1.000000,0.784552,0.536967,2.000000
31,0.007213,0.000000,0.881733,0.688684,1.000000,0.042761,0.000000,1.000000,2.000000,0.634683,0.076479,0.730639,1.000000,1.000000,0.784552,0.562579,2.000000
32,0.007044,0.000000,0.957629,0.787278,0.999807,0.089246,0.128397,1.000000,2.000000,0.634683,0.076479,0.800473,1.000000,0.866176,0.784552,0.562579,2.000000
33,0.007022,0.000000,1.000000,0.963865,0.999807,0.097399,0.000000,0.982117,2.000000,0.862868,0.037290,0.866622,1.000000,0.674150,0.819948,0.536967,2.000000
34,0.007022,0.000000,1.000000,0.963865,0.999807,0.097399,0.000000,0.982117,2.000000,0.862868,0.037290,0.866622,1.000000,0.674150,0.819948,0.536967,2.000000
35,0.006918,0.000000,0.879314,0.882187,1.000000,0.191633,0.118581,1.000000,2.000000,0.524779,0.005853,1.000000,1.000000,0.905096,1.000000,0.513254,2.000000
36,0.006893,0.000000,0.832771,0.770446,1.000000,0.261725,0.048541,1.000000,2.000000,0.524779,0.005853,1.000000,1.000000,0.998883,1.000000,0.353669,2.000000
37,0.006893,0.000000,0.832771,0.770446,1.000000,0.261725,0.048541,1.000000,2.000000,0.524779,0.005853,1.000000,1.000000,0.998883,1.000000,0.353669,2.000000
38,0.006814,0.000000,0.807791,0.955335,1.000000,0.230134,0.157567,1.000000,2.000000,0.749357,0.000000,1.000000,1.000000,0.970150,0.673567,0.463295,2.000000
39,0.006804,0.000000,0.816706,0.841130,1.000000,0.213212,0.118581,1.000000,2.000000,0.524779,0.000000,1.000000,1.000000,0.905096,1.000000,0.597974,2.000000
40,0.006804,0.000000,0.816706,0.841130,1.000000,0.213212,0.118581,1.000000,2.000000,0.524779,0.000000,1.000000,1.000000,0.905096,1.000000,0.597974,2.000000
41,0.006804,0.000000,0.816706,0.841130,1.000000,0.213212,0.118581,1.000000,2.000000,0.524779,0.000000,1.000000,1.000000,0.905096,1.000000,0.597974,2.000000
42,0.006764,0.000000,0.652684,0.740743,1.000000,0.269472,0.181353,1.000000,2.000000,0.325681,0.019391,1.000000,1.000000,0.738722,0.673567,0.463295,2.000000
43,0.006698,0.000000,0.948720,0.860028,1.000000,0.000000,0.000000,1.000000,2.000000,0.524779,0.005853,1.000000,1.000000,0.846390,0.945782,0.693938,2.000000
44,0.006698,0.000000,0.948720,0.860028,1.000000,0.000000,0.000000,1.000000,2.000000,0.524779,0.005853,1.000000,1.000000,0.846390,0.945782,0.693938,2.000000
45,0.006698,0.000000,0.948720,0.860028,1.000000,0.000000,0.000000,1.000000,2.000000,0.524779,0.005853,1.000000,1.000000,0.846390,0.945782,0.693938,2.000000
46,0.006633,0.000000,0.642264,0.739547,1.000000,0.004820,0.084061,1.000000,2.000000,0.512059,0.113714,1.000000,1.000000,0.833737,1.000000,0.858087,2.000000
47,0.006633,0.000000,0.642264,0.739547,1.000000,0.004820,0.084061,1.000000,2.000000,0.512059,0.113714,1.000000,1.000000,0.833737,1.000000,0.858087,2.000000
48,0.006633,0.000000,0.642264,0.739547,1.000000,0.004820,0.084061,1.000000,2.000000,0.512059,0.113714,1.000000,1.000000,0.833737,1.000000,0.858087,2.000000
49,0.006633,0.000000,0.642264,0.739547,1.000000,0.004820,0.084061,1.000000,2.000000,0.512059,0.113714,1.000000,1.000000,0.833737,1.000000,0.858087,2.000000
50,0.006633,0.000000,0.642264,0.739547,1.000000,0.004820,0.084061,1.000000,2.000000,0.512059,0.113714,1.000000,1.000000,0.833737,1.000000,0.858087,2.000000
51,0.006633,0.000000,0.642264,0.739547,1.000000,0.004820,0.084061,1.000000,2.000000,0.512059,0.113714,1.000000,1.000000,0.833737,1.000000,0.858087,2.000000
52,0.006592,0.000000,0.642264,0.739547,1.000000,0.004820,0.000000,1.000000,2.000000,0.489334,0.113714,1.000000,1.000000,0.833737,0.960826,0.858087,2.000000
53,0.006576,0.000000,0.723652,0.731949,1.000000,0.000000,0.000000,1.000000,2.000000,0.489334,0.146286,1.000000,1.000000,0.794457,0.960826,0.907191,2.000000
54,0.006576,0.000000,0.723652,0.731949,1.000000,0.000000,0.000000,1.000000,2.000000,0.489334,0.146286,1.000000,1.000000,0.794457,0.960826,0.907191,2.000000
55,0.006576,0.000000,0.723652,0.731949,1.000000,0.000000,0.000000,1.000000,2.000000,0.489334,0.146286,1.000000,1.000000,0.794457,0.960826,0.907191,2.000000
56,0.006563,0.007290,0.707659,0.722299,1.000000,0.011644,0.000000,1.000000,2.000000,0.489334,0.146286,1.000000,1.000000,0.851799,0.960826,0.960622,2.000000
57,0.006563,0.007290,0.707659,0.722299,1.000000,0.011644,0.000000,1.000000,2.000000,0.489334,0.146286,1.000000,1.000000,0.851799,0.960826,0.960622,2.000000
58,0.006563,0.007290,0.707659,0.722299,1.000000,0.011644,0.000000,1.000000,2.000000,0.489334,0.146286,1.000000,1.000000,0.851799,0.960826,0.960622,2.000000
59,0.006563,0.007290,0.707659,0.722299,1.000000,0.011644,0.000000,1.000000,2.000000,0.489334,0.146286,1.000000,1.000000,0.851799,0.960826,0.960622,2.000000
60,0.006563,0.007290,0.707659,0.722299,1.000000,0.011644,0.000000,1.000000,2.000000,0.489334,0.146286,1.000000,1.000000,0.851799,0.960826,0.960622,2.000000
61,0.006563,0.007290,0.707659,0.722299,1.000000,0.011644,0.000000,1.000000,2.000000,0.489334,0.146286,1.000000,1.000000,0.851799,0.960826,0.960622,2.000000
62,0.006563,0.007290,0.707659,0.722299,1.000000,0.011644,0.000000,1.000000,2.000000,0.489334,0.146286,1.000000,1.000000,0.851799,0.960826,0.960622,2.000000
63,0.006547,0.007290,1.000000,0.742707,1.000000,0.000000,0.133813,1.000000,2.000000,0.462828,0.000000,1.000000,1.000000,0.688618,0.901533,0.882697,2.000000
64,0.006547,0.007290,1.000000,0.742707,1.000000,0.000000,0.133813,1.000000,2.000000,0.462828,0.000000,1.000000,1.000000,0.688618,0.901533,0.882697,2.000000
65,0.006547,0.007290,1.000000,0.742707,1.000000,0.000000,0.133813,1.000000,2.000000,0.462828,0.000000,1.000000,1.000000,0.688618,0.901533,0.882697,2.000000
66,0.006547,0.007290,1.000000,0.742707,1.000000,0.000000,0.133813,1.000000,2.000000,0.462828,0.000000,1.000000,1.000000,0.688618,0.901533,0.882697,2.000000
67,0.006547,0.007290,1.000000,0.742707,1.000000,0.000000,0.133813,1.000000,2.000000,0.462828,0.000000,1.000000,1.000000,0.688618,0.901533,0.882697,2.000000
68,0.006519,0.000000,0.705980,0.845187,1.000000,0.041154,0.000000,1.000000,2.000000,0.561127,0.005853,1.000000,1.000000,0.987481,0.703203,0.831007,2.000000
69,0.006519,0.000000,0.705980,0.845187,1.000000,0.041154,0.000000,1.000000,2.000000,0.561127,0.005853,1.000000,1.000000,0.987481,0.703203,0.831007,2.000000
70,0.006519,0.000000,0.705980,0.845187,1.000000,0.041154,0.000000,1.000000,2.000000,0.561127,0.005853,1.000000,1.000000,0.987481,0.703203,0.831007,2.000000
71,0.006482,0.016929,1.000000,0.742707,1.000000,0.000000,0.000000,1.000000,2.000000,0.489334,0.088360,1.000000,1.000000,0.948836,1.000000,1.000000,2.000000
72,0.006482,0.016929,1.000000,0.742707,1.000000,0.000000,0.000000,1.000000,2.000000,0.489334,0.088360,1.000000,1.000000,0.948836,1.000000,1.000000,2.000000
73,0.006482,0.016929,1.000000,0.742707,1.000000,0.000000,0.000000,1.000000,2.000000,0.489334,0.088360,1.000000,1.000000,0.948836,1.000000,1.000000,2.000000
74,0.006482,0.016929,1.000000,0.742707,1.000000,0.000000,0.000000,1.000000,2.000000,0.489334,0.088360,1.000000,1.000000,0.948836,1.000000,1.000000,2.000000
75,0.006461,0.056878,0.961533,0.739547,1.000000,0.000000,0.113606,1.000000,2.000000,0.300878,0.105300,1.000000,1.000000,0.691204,0.429328,1.000000,2.000000
76,0.006461,0.056878,0.961533,0.739547,1.000000,0.000000,0.113606,1.000000,2.000000,0.300878,0.105300,1.000000,1.000000,0.691204,0.429328,1.000000,2.000000
77,0.006461,0.056878,0.961533,0.739547,1.000000,0.000000,0.113606,1.000000,2.000000,0.300878,0.105300,1.000000,1.000000,0.691204,0.429328,1.000000,2.000000
78,0.006461,0.056878,0.961533,0.739547,1.000000,0.000000,0.113606,1.000000,2.000000,0.300878,0.105300,1.000000,1.000000,0.691204,0.429328,1.000000,2.000000
79,0.006461,0.056878,0.961533,0.739547,1.000000,0.000000,0.113606,1.000000,2.000000,0.300878,0.105300,1.000000,1.000000,0.691204,0.429328,1.000000,2.000000
80,0.006431,0.000000,0.644454,0.817581,1.000000,0.082805,0.000000,1.000000,2.000000,0.378532,0.604032,1.000000,1.000000,0.813712,0.213058,0.984337,2.000000
81,0.006431,0.000000,0.644454,0.817581,1.000000,0.082805,0.000000,1.000000,2.000000,0.378532,0.604032,1.000000,1.000000,0.813712,0.213058,0.984337,2.000000
82,0.006431,0.000000,0.644454,0.817581,1.000000,0.082805,0.000000,1.000000,2.000000,0.378532,0.604032,1.000000,1.000000,0.813712,0.213058,0.984337,2.000000
83,0.006431,0.000000,0.644454,0.817581,1.000000,0.082805,0.000000,1.000000,2.000000,0.378532,0.604032,1.000000,1.000000,0.813712,0.213058,0.984337,2.000000
84,0.006431,0.000000,0.644454,0.817581,1.000000,0.082805,0.000000,1.000000,2.000000,0.378532,0.604032,1.000000,1.000000,0.813712,0.213058,0.984337,2.000000
85,0.006431,0.000000,0.644454,0.817581,1.000000,0.082805,0.000000,1.000000,2.000000,0.378532,0.604032,1.000000,1.000000,0.813712,0.213058,0.984337,2.000000
86,0.006361,0.000000,0.591354,0.751047,1.000000,0.000000,0.339070,1.000000,2.000000,0.288052,0.000000,1.000000,1.000000,0.724594,0.289356,0.944159,2.000000
87,0.006361,0.000000,0.591354,0.751047,1.000000,0.000000,0.339070,1.000000,2.000000,0.288052,0.000000,1.000000,1.000000,0.724594,0.289356,0.944159,2.000000
88,0.006361,0.000000,0.591354,0.751047,1.000000,0.000000,0.339070,1.000000,2.000000,0.288052,0.000000,1.000000,1.000000,0.724594,0.289356,0.944159,2.000000
89,0.006310,0.000000,0.953287,0.808436,1.000000,0.000000,0.235735,1.000000,2.000000,0.417109,0.090986,1.000000,1.000000,1.000000,0.099657,0.927164,2.000000
90,0.006310,0.000000,0.953287,0.808436,1.000000,0.000000,0.235735,1.000000,2.000000,0.417109,0.090986,1.000000,1.000000,1.000000,0.099657,0.927164,2.000000
91,0.006310,0.000000,0.953287,0.808436,1.000000,0.000000,0.235735,1.000000,2.000000,0.417109,0.090986,1.000000,1.000000,1.000000,0.099657,0.927164,2.000000
92,0.006264,0.000000,0.953287,0.808436,1.000000,0.000000,0.212369,1.000000,2.000000,0.417109,0.048307,1.000000,1.000000,1.000000,0.099657,1.000000,2.000000
93,0.006264,0.000000,0.953287,0.808436,1.000000,0.000000,0.212369,1.000000,2.000000,0.417109,0.048307,1.000000,1.000000,1.000000,0.099657,1.000000,2.000000
94,0.006264,0.000000,0.953287,0.808436,1.000000,0.000000,0.212369,1.000000,2.000000,0.417109,0.048307,1.000000,1.000000,1.000000,0.099657,1.000000,2.000000
95,0.006264,0.000000,0.953287,0.808436,1.000000,0.000000,0.212369,1.000000,2.000000,0.417109,0.048307,1.000000,1.000000,1.000000,0.099657,1.000000,2.000000
96,0.006264,0.000000,0.953287,0.808436,1.000000,0.000000,0.212369,1.000000,2.000000,0.417109,0.048307,1.000000,1.000000,1.000000,0.099657,1.000000,2.000000
97,0.006264,0.000000,0.953287,0.808436,1.000000,0.000000,0.212369,1.000000,2.000000,0.417109,0.048307,1.000000,1.000000,1.000000,0.099657,1.000000,2.000000
98,0.006264,0.000000,0.953287,0.808436,1.000000,0.000000,0.212369,1.000000,2.000000,0.417109,0.048307,1.000000,1.000000,1.000000,0.099657,1.000000,2.000000
99,0.006264,0.000000,0.953287,0.808436,1.000000,0.000000,0.212369,1.000000,2.000000,0.417109,0.048307,1.000000,1.000000,1.000000,0.099657,1.000000,2.000000
100,0.006264,0.000000,0.953287,0.808436,1.000000,0.000000,0.212369,1.000000,2.000000,0.417109,0.048307,1.000000,1.000000,1.000000,0.099657,1.000000,2.000000
101,0.006264,0.000000,0.953287,0.808436,1.000000,0.000000,0.212369,1.000000,2.000000,0.417109,0.048307,1.000000,1.000000,1.000000,0.099657,1.000000,2.000000
102,0.006256,0.000000,0.829686,1.000000,0.979404,0.266914,0.062289,1.000000,2.000000,0.239901,0.029878,1.000000,1.000000,0.936779,0.124464,1.000000,2.000000
gen, fitness
0,0.006335,0.000000,1.000000,0.210000,0.800000,0.030000,0.030000,1.000000,0.000000,1.000000,0.000000,0.000000,0.600000,1.000000,1.000000,0.000000,0.000000
1,0.006335,0.000000,1.000000,0.210000,0.800000,0.030000,0.030000,1.000000,0.000000,1.000000,0.000000,0.000000,0.600000,1.000000,1.000000,0.000000,0.000000
2,0.000424,0.000000,1.000000,0.096070,0.800000,0.030000,0.030000,1.000000,0.000000,1.000000,0.000000,0.215183,0.511699,1.000000,1.000000,0.000735,1.000000
3,0.000015,0.000000,1.000000,0.210000,0.764088,0.000000,0.000000,0.914942,2.000000,1.000000,0.000000,0.142669,0.600000,1.000000,0.875313,0.000000,0.000000
4,0.000015,0.000000,1.000000,0.210000,0.764088,0.000000,0.000000,0.914942,2.000000,1.000000,0.000000,0.142669,0.600000,1.000000,0.875313,0.000000,0.000000
5,0.000014,0.000000,1.000000,0.176902,0.800000,0.000000,0.000071,1.000000,0.000000,1.000000,0.000000,0.074586,0.654048,0.818379,0.815074,0.000000,0.000000
6,0.000014,0.000000,1.000000,0.176902,0.800000,0.000000,0.000071,1.000000,0.000000,1.000000,0.000000,0.074586,0.654048,0.818379,0.815074,0.000000,0.000000
7,0.000001,0.006335,1.000000,0.234463,0.734805,0.220554,0.000000,1.000000,1.000000,0.902403,0.000000,0.129160,0.591429,0.999616,0.902517,0.000000,1.000000
8,0.000001,0.006335,1.000000,0.234463,0.734805,0.220554,0.000000,1.000000,1.000000,0.902403,0.000000,0.129160,0.591429,0.999616,0.902517,0.000000,1.000000
9,0.000001,0.006335,1.000000,0.234463,0.734805,0.220554,0.000000,1.000000,1.000000,0.902403,0.000000,0.129160,0.591429,0.999616,0.902517,0.000000,1.000000
10,0.000001,0.006335,1.000000,0.234463,0.734805,0.220554,0.000000,1.000000,1.000000,0.902403,0.000000,0.129160,0.591429,0.999616,0.902517,0.000000,1.000000
11,0.000001,0.006335,1.000000,0.234463,0.734805,0.220554,0.000000,1.000000,1.000000,0.902403,0.000000,0.129160,0.591429,0.999616,0.902517,0.000000,1.000000
12,0.000001,0.006335,1.000000,0.234463,0.734805,0.220554,0.000000,1.000000,1.000000,0.902403,0.000000,0.129160,0.591429,0.999616,0.902517,0.000000,1.000000
13,0.000001,0.006335,1.000000,0.234463,0.734805,0.220554,0.000000,1.000000,1.000000,0.902403,0.000000,0.129160,0.591429,0.999616,0.902517,0.000000,1.000000
14,0.000001,0.006335,1.000000,0.234463,0.734805,0.220554,0.000000,1.000000,1.000000,0.902403,0.000000,0.129160,0.591429,0.999616,0.902517,0.000000,1.000000
15,0.000001,0.006335,1.000000,0.234463,0.734805,0.220554,0.000000,1.000000,1.000000,0.902403,0.000000,0.129160,0.591429,0.999616,0.902517,0.000000,1.000000
16,0.000001,0.006335,1.000000,0.234463,0.734805,0.220554,0.000000,1.000000,1.000000,0.902403,0.000000,0.129160,0.591429,0.999616,0.902517,0.000000,1.000000
17,0.000001,0.006335,1.000000,0.234463,0.734805,0.220554,0.000000,1.000000,1.000000,0.902403,0.000000,0.129160,0.591429,0.999616,0.902517,0.000000,1.000000
gen, fitness
0,0.018541,0.000000,1.000000,0.210000,0.800000,0.030000,0.030000,1.000000,0.000000,1.000000,0.000000,0.000000,0.600000,1.000000,1.000000,0.000000,0.000000
1,0.018541,0.000000,1.000000,0.210000,0.800000,0.030000,0.030000,1.000000,0.000000,1.000000,0.000000,0.000000,0.600000,1.000000,1.000000,0.000000,0.000000
2,0.003527,0.000000,1.000000,0.127734,0.858973,0.000000,0.030000,1.000000,2.000000,0.953847,0.000000,0.000000,0.780570,1.000000,1.000000,0.000000,0.000000
3,0.003527,0.000000,1.000000,0.127734,0.858973,0.000000,0.030000,1.000000,2.000000,0.953847,0.000000,0.000000,0.780570,1.000000,1.000000,0.000000,0.000000
4,0.002999,0.000000,0.975097,0.257391,0.830965,0.000000,0.000000,0.925176,1.000000,0.839751,0.000000,0.000000,0.807990,0.879577,0.985998,0.000000,2.000000
5,0.000421,0.088743,1.000000,0.065373,0.983259,0.027742,0.025995,0.812231,2.000000,1.000000,0.067019,0.000000,0.938598,0.936956,0.806241,0.000000,0.000000
6,0.000421,0.088743,1.000000,0.065373,0.983259,0.027742,0.025995,0.812231,2.000000,1.000000,0.067019,0.000000,0.938598,0.936956,0.806241,0.000000,0.000000
7,0.000279,0.000000,1.000000,0.223617,0.939109,0.000000,0.040226,1.000000,2.000000,0.810574,0.090495,0.000000,0.907563,1.000000,0.956155,0.000000,2.000000
8,0.000001,0.074435,1.000000,0.550157,0.930872,0.027742,0.025995,0.755371,1.000000,0.810574,0.013460,0.000000,0.958964,0.978840,0.956155,0.000000,0.000000
gen, fitness
0,0.069293,0.000000,1.000000,0.210000,0.800000,0.030000,0.030000,1.000000,0.000000,1.000000,0.000000,0.000000,0.600000,1.000000,1.000000,0.000000,0.000000
1,0.069293,0.000000,1.000000,0.210000,0.800000,0.030000,0.030000,1.000000,0.000000,1.000000,0.000000,0.000000,0.600000,1.000000,1.000000,0.000000,0.000000
2,0.037367,0.003344,0.939262,0.210000,0.800000,0.072290,0.000000,0.937745,0.000000,1.000000,0.000000,0.000000,0.784216,1.000000,1.000000,0.000000,2.000000
3,0.036988,0.034755,0.939262,0.210000,0.800000,0.072290,0.000000,0.937745,2.000000,1.000000,0.000000,0.000000,0.790586,1.000000,1.000000,0.000000,2.000000
4,0.028290,0.000000,1.000000,0.210000,0.899427,0.161809,0.085004,1.000000,1.000000,0.935228,0.021166,0.132227,0.860066,1.000000,1.000000,0.138621,0.000000
5,0.024896,0.002136,0.961173,0.277373,0.911620,0.362046,0.165414,1.000000,1.000000,1.000000,0.021166,0.132227,0.860066,1.000000,1.000000,0.138621,2.000000
6,0.024896,0.002136,0.961173,0.277373,0.911620,0.362046,0.165414,1.000000,1.000000,1.000000,0.021166,0.132227,0.860066,1.000000,1.000000,0.138621,2.000000
7,0.019996,0.000000,0.928551,0.385671,0.963825,0.102488,0.183693,0.744662,2.000000,1.000000,0.032591,0.147354,0.942074,0.964380,1.000000,0.122334,2.000000
8,0.018605,0.000000,1.000000,0.277373,1.000000,0.225297,0.020336,0.951451,2.000000,0.970002,0.021267,0.055987,0.992440,1.000000,0.928759,0.019766,1.000000
9,0.016317,0.002136,1.000000,0.293734,1.000000,0.439922,0.124930,1.000000,0.000000,1.000000,0.095729,0.110402,1.000000,0.932920,1.000000,0.052945,2.000000
10,0.014782,0.137301,0.998215,0.210963,1.000000,0.102488,0.108024,0.686320,2.000000,1.000000,0.032591,0.178907,1.000000,0.981884,0.954923,0.154287,2.000000
11,0.014557,0.002136,1.000000,0.110354,1.000000,0.201711,0.124930,1.000000,2.000000,0.761688,0.000000,0.162484,1.000000,0.662056,0.970663,0.172531,2.000000
12,0.013917,0.145387,0.998215,0.183303,1.000000,0.300622,0.000000,0.852820,2.000000,0.994420,0.110071,0.233840,1.000000,1.000000,1.000000,0.272771,2.000000
13,0.013202,0.000000,0.998215,0.183303,1.000000,0.126021,0.000000,0.852820,2.000000,0.994420,0.110071,0.311073,1.000000,0.820300,1.000000,0.272771,2.000000
14,0.013128,0.145387,0.992329,0.210890,1.000000,0.300622,0.000000,0.874511,2.000000,0.980516,0.122736,0.427007,1.000000,1.000000,1.000000,0.272771,2.000000
15,0.012805,0.306023,0.992329,0.142383,1.000000,0.300622,0.000000,0.655275,2.000000,0.963401,0.122736,0.524515,1.000000,1.000000,1.000000,0.194009,2.000000
16,0.012238,0.000000,1.000000,0.192817,1.000000,0.100122,0.032536,0.828653,2.000000,0.990765,0.000000,0.388635,0.968090,0.846769,1.000000,0.352256,2.000000
17,0.011375,0.000000,1.000000,0.100288,1.000000,0.100122,0.032536,0.828653,2.000000,1.000000,0.000000,0.388635,0.968090,0.846769,1.000000,0.418711,2.000000
18,0.011375,0.000000,1.000000,0.100288,1.000000,0.100122,0.032536,0.828653,2.000000,1.000000,0.000000,0.388635,0.968090,0.846769,1.000000,0.418711,2.000000
19,0.011195,0.336231,0.809577,0.000000,1.000000,0.257530,0.063054,0.696428,1.000000,1.000000,0.344960,0.633555,0.963776,1.000000,0.926297,0.464613,2.000000
20,0.011195,0.336231,0.809577,0.000000,1.000000,0.257530,0.063054,0.696428,1.000000,1.000000,0.344960,0.633555,0.963776,1.000000,0.926297,0.464613,2.000000
21,0.010492,0.266781,0.809577,0.000000,1.000000,0.257530,0.063054,0.764802,2.000000,1.000000,0.344960,0.633555,0.963776,1.000000,0.926297,0.464613,2.000000
22,0.010492,0.266781,0.809577,0.000000,1.000000,0.257530,0.063054,0.764802,2.000000,1.000000,0.344960,0.633555,0.963776,1.000000,0.926297,0.464613,2.000000
23,0.009492,0.187094,1.000000,0.024907,1.000000,0.093286,0.000000,0.944370,2.000000,0.979693,0.000000,0.832854,0.945933,0.980447,1.000000,0.464613,2.000000
24,0.009293,0.013872,1.000000,0.038483,1.000000,0.146376,0.080508,0.864839,2.000000,1.000000,0.375725,0.883137,0.919074,0.851127,0.774054,0.476180,2.000000
25,0.009293,0.013872,1.000000,0.038483,1.000000,0.146376,0.080508,0.864839,2.000000,1.000000,0.375725,0.883137,0.919074,0.851127,0.774054,0.476180,2.000000
26,0.009244,0.121733,1.000000,0.123020,1.000000,0.158494,0.000000,0.716528,2.000000,1.000000,0.066057,0.945617,0.932851,0.810764,0.915888,0.676218,2.000000
27,0.009180,0.111893,1.000000,0.004096,1.000000,0.000000,0.104362,1.000000,2.000000,1.000000,0.066057,1.000000,0.932851,0.862626,0.915888,0.676218,2.000000
28,0.009180,0.111893,1.000000,0.004096,1.000000,0.000000,0.104362,1.000000,2.000000,1.000000,0.066057,1.000000,0.932851,0.862626,0.915888,0.676218,2.000000
29,0.009151,0.004294,1.000000,0.100288,1.000000,0.018504,0.000000,0.886977,2.000000,1.000000,0.129021,1.000000,0.911834,0.930204,0.971951,0.276598,2.000000
30,0.008630,0.111893,1.000000,0.000000,1.000000,0.000000,0.104362,0.897193,2.000000,1.000000,0.066057,1.000000,0.916476,0.862626,0.915888,0.676218,2.000000
31,0.008630,0.111893,1.000000,0.000000,1.000000,0.000000,0.104362,0.897193,2.000000,1.000000,0.066057,1.000000,0.916476,0.862626,0.915888,0.676218,2.000000
32,0.008630,0.111893,1.000000,0.000000,1.000000,0.000000,0.104362,0.897193,2.000000,1.000000,0.066057,1.000000,0.916476,0.862626,0.915888,0.676218,2.000000
33,0.008630,0.111893,1.000000,0.000000,1.000000,0.000000,0.104362,0.897193,2.000000,1.000000,0.066057,1.000000,0.916476,0.862626,0.915888,0.676218,2.000000
34,0.008630,0.111893,1.000000,0.000000,1.000000,0.000000,0.104362,0.897193,2.000000,1.000000,0.066057,1.000000,0.916476,0.862626,0.915888,0.676218,2.000000
35,0.008630,0.111893,1.000000,0.000000,1.000000,0.000000,0.104362,0.897193,2.000000,1.000000,0.066057,1.000000,0.916476,0.862626,0.915888,0.676218,2.000000
36,0.008630,0.111893,1.000000,0.000000,1.000000,0.000000,0.104362,0.897193,2.000000,1.000000,0.066057,1.000000,0.916476,0.862626,0.915888,0.676218,2.000000
37,0.008630,0.111893,1.000000,0.000000,1.000000,0.000000,0.104362,0.897193,2.000000,1.000000,0.066057,1.000000,0.916476,0.862626,0.915888,0.676218,2.000000
38,0.008630,0.111893,1.000000,0.000000,1.000000,0.000000,0.104362,0.897193,2.000000,1.000000,0.066057,1.000000,0.916476,0.862626,0.915888,0.676218,2.000000
39,0.008630,0.111893,1.000000,0.000000,1.000000,0.000000,0.104362,0.897193,2.000000,1.000000,0.066057,1.000000,0.916476,0.862626,0.915888,0.676218,2.000000
40,0.008630,0.111893,1.000000,0.000000,1.000000,0.000000,0.104362,0.897193,2.000000,1.000000,0.066057,1.000000,0.916476,0.862626,0.915888,0.676218,2.000000
gen, fitness
0,0.020772,0.000000,1.000000,0.210000,0.800000,0.030000,0.030000,1.000000,0.000000,1.000000,0.000000,0.000000,0.600000,1.000000,1.000000,0.000000,0.000000
1,0.020772,0.000000,1.000000,0.210000,0.800000,0.030000,0.030000,1.000000,0.000000,1.000000,0.000000,0.000000,0.600000,1.000000,1.000000,0.000000,0.000000
2,0.005856,0.000000,1.000000,0.203155,0.800000,0.000000,0.030000,1.000000,2.000000,1.000000,0.000000,0.000000,0.742259,1.000000,1.000000,0.070413,1.000000
3,0.003075,0.000000,1.000000,0.210000,0.883890,0.047091,0.030000,1.000000,2.000000,0.807531,0.000000,0.321672,0.832797,1.000000,0.789990,0.000000,1.000000
4,0.000798,0.092002,1.000000,0.210000,0.888722,0.047091,0.030000,1.000000,1.000000,0.662023,0.000000,0.391508,0.811818,1.000000,0.903581,0.147004,2.000000
5,0.000759,0.092002,0.839104,0.127562,0.919000,0.000000,0.030000,1.000000,2.000000,0.675640,0.065381,0.391508,0.811818,0.967909,0.792068,0.147004,1.000000
6,0.000081,0.000000,1.000000,0.210000,0.954785,0.041545,0.008385,1.000000,0.000000,0.790884,0.000000,0.414242,0.862401,0.926101,0.816514,0.105095,2.000000
7,0.000007,0.000000,1.000000,0.210000,0.954785,0.041545,0.008385,1.000000,2.000000,0.790884,0.000000,0.578009,0.862401,0.926101,0.947688,0.173692,2.000000
8,0.000007,0.000000,1.000000,0.210000,0.954785,0.041545,0.008385,1.000000,2.000000,0.790884,0.000000,0.578009,0.862401,0.926101,0.947688,0.173692,2.000000
9,0.000007,0.000000,1.000000,0.210000,0.954785,0.041545,0.008385,1.000000,2.000000,0.790884,0.000000,0.578009,0.862401,0.926101,0.947688,0.173692,2.000000
10,0.000007,0.000000,1.000000,0.210000,0.954785,0.041545,0.008385,1.000000,2.000000,0.790884,0.000000,0.578009,0.862401,0.926101,0.947688,0.173692,2.000000
11,0.000007,0.000000,1.000000,0.210000,0.954785,0.041545,0.008385,1.000000,2.000000,0.790884,0.000000,0.578009,0.862401,0.926101,0.947688,0.173692,2.000000
12,0.000003,0.037652,1.000000,0.416079,1.000000,0.021945,0.038417,1.000000,0.000000,0.919588,0.079859,0.056195,1.000000,0.722799,0.753130,0.085657,1.000000
13,0.000002,0.070730,0.645925,0.374387,1.000000,0.000000,0.000000,0.891999,1.000000,0.905563,0.000000,0.072098,1.000000,0.929184,0.449011,0.129239,0.000000
14,0.000002,0.070730,0.645925,0.374387,1.000000,0.000000,0.000000,0.891999,1.000000,0.905563,0.000000,0.072098,1.000000,0.929184,0.449011,0.129239,0.000000
15,0.000002,0.070730,0.645925,0.374387,1.000000,0.000000,0.000000,0.891999,1.000000,0.905563,0.000000,0.072098,1.000000,0.929184,0.449011,0.129239,0.000000
16,0.000000,0.023489,0.960904,0.402277,1.000000,0.075101,0.036418,0.944807,0.000000,0.999647,0.052462,0.000000,1.000000,0.742866,0.857232,0.069492,1.000000
gen, fitness
0,0.008197,0.000000,1.000000,0.210000,0.800000,0.030000,0.030000,1.000000,0.000000,1.000000,0.000000,0.000000,0.600000,1.000000,1.000000,0.000000,0.000000
1,0.008197,0.000000,1.000000,0.210000,0.800000,0.030000,0.030000,1.000000,0.000000,1.000000,0.000000,0.000000,0.600000,1.000000,1.000000,0.000000,0.000000
2,0.000214,0.000000,1.000000,0.250278,0.781548,0.000000,0.030000,1.000000,1.000000,0.895406,0.000000,0.052866,0.722160,1.000000,1.000000,0.000000,0.000000
3,0.000004,0.105393,0.975097,0.378171,0.745812,0.030000,0.000000,1.000000,1.000000,0.910642,0.000000,0.000000,0.751529,0.850980,0.960774,0.000000,0.000000
4,0.000004,0.105393,0.975097,0.378171,0.745812,0.030000,0.000000,1.000000,1.000000,0.910642,0.000000,0.000000,0.751529,0.850980,0.960774,0.000000,0.000000
5,0.000004,0.105393,0.975097,0.378171,0.745812,0.030000,0.000000,1.000000,1.000000,0.910642,0.000000,0.000000,0.751529,0.850980,0.960774,0.000000,0.000000
6,0.000004,0.105393,0.975097,0.378171,0.745812,0.030000,0.000000,1.000000,1.000000,0.910642,0.000000,0.000000,0.751529,0.850980,0.960774,0.000000,0.000000
7,0.000004,0.105393,0.975097,0.378171,0.745812,0.030000,0.000000,1.000000,1.000000,0.910642,0.000000,0.000000,0.751529,0.850980,0.960774,0.000000,0.000000
8,0.000004,0.105393,0.975097,0.378171,0.745812,0.030000,0.000000,1.000000,1.000000,0.910642,0.000000,0.000000,0.751529,0.850980,0.960774,0.000000,0.000000
9,0.000004,0.105393,0.975097,0.378171,0.745812,0.030000,0.000000,1.000000,1.000000,0.910642,0.000000,0.000000,0.751529,0.850980,0.960774,0.000000,0.000000
10,0.000004,0.105393,0.975097,0.378171,0.745812,0.030000,0.000000,1.000000,1.000000,0.910642,0.000000,0.000000,0.751529,0.850980,0.960774,0.000000,0.000000
11,0.000004,0.105393,0.975097,0.378171,0.745812,0.030000,0.000000,1.000000,1.000000,0.910642,0.000000,0.000000,0.751529,0.850980,0.960774,0.000000,0.000000
12,0.000004,0.105393,0.975097,0.378171,0.745812,0.030000,0.000000,1.000000,1.000000,0.910642,0.000000,0.000000,0.751529,0.850980,0.960774,0.000000,0.000000
13,0.000004,0.105393,0.975097,0.378171,0.745812,0.030000,0.000000,1.000000,1.000000,0.910642,0.000000,0.000000,0.751529,0.850980,0.960774,0.000000,0.000000
gen, fitness
0,0.011091,0.000000,1.000000,0.210000,0.800000,0.030000,0.030000,1.000000,0.000000,1.000000,0.000000,0.000000,0.600000,1.000000,1.000000,0.000000,0.000000
1,0.011091,0.000000,1.000000,0.210000,0.800000,0.030000,0.030000,1.000000,0.000000,1.000000,0.000000,0.000000,0.600000,1.000000,1.000000,0.000000,0.000000
2,0.000070,0.000000,1.000000,0.291220,0.658745,0.030000,0.030000,1.000000,1.000000,1.000000,0.000000,0.000000,0.613918,1.000000,1.000000,0.029403,2.000000
3,0.000043,0.000000,0.854501,0.247507,0.685353,0.037960,0.030000,1.000000,1.000000,0.997589,0.000000,0.004178,0.613918,0.798284,1.000000,0.029403,2.000000
4,0.000043,0.000000,0.854501,0.247507,0.685353,0.037960,0.030000,1.000000,1.000000,0.997589,0.000000,0.004178,0.613918,0.798284,1.000000,0.029403,2.000000
5,0.000003,0.007784,1.000000,0.247507,0.663592,0.030000,0.000000,1.000000,0.000000,0.769166,0.000000,0.114377,0.588591,0.913634,1.000000,0.077793,1.000000
6,0.000003,0.007784,1.000000,0.247507,0.663592,0.030000,0.000000,1.000000,0.000000,0.769166,0.000000,0.114377,0.588591,0.913634,1.000000,0.077793,1.000000
7,0.000003,0.007784,1.000000,0.247507,0.663592,0.030000,0.000000,1.000000,0.000000,0.769166,0.000000,0.114377,0.588591,0.913634,1.000000,0.077793,1.000000
8,0.000003,0.007784,1.000000,0.247507,0.663592,0.030000,0.000000,1.000000,0.000000,0.769166,0.000000,0.114377,0.588591,0.913634,1.000000,0.077793,1.000000
9,0.000003,0.007784,1.000000,0.247507,0.663592,0.030000,0.000000,1.000000,0.000000,0.769166,0.000000,0.114377,0.588591,0.913634,1.000000,0.077793,1.000000
10,0.000003,0.007784,1.000000,0.247507,0.663592,0.030000,0.000000,1.000000,0.000000,0.769166,0.000000,0.114377,0.588591,0.913634,1.000000,0.077793,1.000000
11,0.000003,0.007784,1.000000,0.247507,0.663592,0.030000,0.000000,1.000000,0.000000,0.769166,0.000000,0.114377,0.588591,0.913634,1.000000,0.077793,1.000000
12,0.000003,0.007784,1.000000,0.247507,0.663592,0.030000,0.000000,1.000000,0.000000,0.769166,0.000000,0.114377,0.588591,0.913634,1.000000,0.077793,1.000000
13,0.000003,0.007784,1.000000,0.247507,0.663592,0.030000,0.000000,1.000000,0.000000,0.769166,0.000000,0.114377,0.588591,0.913634,1.000000,0.077793,1.000000
14,0.000003,0.007784,1.000000,0.247507,0.663592,0.030000,0.000000,1.000000,0.000000,0.769166,0.000000,0.114377,0.588591,0.913634,1.000000,0.077793,1.000000
15,0.000003,0.007784,1.000000,0.247507,0.663592,0.030000,0.000000,1.000000,0.000000,0.769166,0.000000,0.114377,0.588591,0.913634,1.000000,0.077793,1.000000
gen, fitness
0,0.020988,0.000000,1.000000,0.210000,0.800000,0.030000,0.030000,1.000000,0.000000,1.000000,0.000000,0.000000,0.600000,1.000000,1.000000,0.000000,0.000000
1,0.020988,0.000000,1.000000,0.210000,0.800000,0.030000,0.030000,1.000000,0.000000,1.000000,0.000000,0.000000,0.600000,1.000000,1.000000,0.000000,0.000000
2,0.008711,0.000000,1.000000,0.210000,0.800000,0.030000,0.030000,1.000000,2.000000,1.000000,0.010129,0.000000,0.708430,1.000000,0.885744,0.000000,2.000000
3,0.004617,0.000000,1.000000,0.210000,0.903360,0.063575,0.000000,0.908968,1.000000,1.000000,0.010129,0.000000,0.830285,1.000000,0.885744,0.002621,2.000000
4,0.004617,0.000000,1.000000,0.210000,0.903360,0.063575,0.000000,0.908968,1.000000,1.000000,0.010129,0.000000,0.830285,1.000000,0.885744,0.002621,2.000000
5,0.003545,0.000000,1.000000,0.066762,0.996763,0.063575,0.000000,0.884554,0.000000,0.828238,0.104910,0.128897,0.903697,1.000000,0.918427,0.056979,0.000000
6,0.002660,0.000000,1.000000,0.354489,0.903360,0.063575,0.175590,0.954667,2.000000,1.000000,0.265611,0.000000,0.885402,1.000000,0.978801,0.429203,1.000000
7,0.001548,0.000000,1.000000,0.600811,0.931929,0.213225,0.045104,1.000000,2.000000,1.000000,0.000000,0.208948,0.928270,1.000000,0.731421,0.096293,1.000000
8,0.001309,0.000000,0.934668,0.216891,0.996763,0.063575,0.000000,0.884554,2.000000,0.956889,0.251897,0.128897,0.962015,1.000000,0.762467,0.056979,1.000000
9,0.001194,0.000000,1.000000,0.457937,1.000000,0.019363,0.045104,0.968372,2.000000,1.000000,0.000000,0.261067,0.990391,0.934745,0.764577,0.013109,2.000000
10,0.000821,0.000000,0.970026,0.325042,0.996763,0.161344,0.148105,0.770307,2.000000,0.956889,0.251897,0.190956,0.962015,1.000000,0.965446,0.366784,2.000000
11,0.000780,0.000000,0.903550,0.447113,0.986387,0.174812,0.000000,0.937247,1.000000,0.795847,0.325783,0.000000,1.000000,0.995737,0.859289,0.088738,0.000000
12,0.000583,0.207061,0.804364,0.309815,0.996763,0.000000,0.007390,1.000000,1.000000,0.761418,0.262617,0.000000,1.000000,1.000000,0.908625,0.498944,2.000000
13,0.000467,0.000000,0.861315,0.423992,1.000000,0.066952,0.019854,0.933152,2.000000,0.722062,0.259517,0.047226,1.000000,0.993734,0.791566,0.000000,1.000000
14,0.000467,0.000000,0.861315,0.423992,1.000000,0.066952,0.019854,0.933152,2.000000,0.722062,0.259517,0.047226,1.000000,0.993734,0.791566,0.000000,1.000000
15,0.000222,0.066941,1.000000,0.641768,1.000000,0.101947,0.047002,1.000000,2.000000,0.927674,0.000000,0.191632,1.000000,1.000000,0.849153,0.000000,2.000000
16,0.000222,0.066941,1.000000,0.641768,1.000000,0.101947,0.047002,1.000000,2.000000,0.927674,0.000000,0.191632,1.000000,1.000000,0.849153,0.000000,2.000000
17,0.000180,0.078791,1.000000,0.699831,1.000000,0.257522,0.159640,0.886585,2.000000,0.874877,0.237855,0.342526,1.000000,0.853602,0.946324,0.232721,1.000000
18,0.000111,0.051523,0.759637,0.899674,1.000000,0.029201,0.304561,0.672659,2.000000,1.000000,0.043019,0.436783,1.000000,0.885467,0.907344,0.198331,2.000000
19,0.000111,0.051523,0.759637,0.899674,1.000000,0.029201,0.304561,0.672659,2.000000,1.000000,0.043019,0.436783,1.000000,0.885467,0.907344,0.198331,2.000000
20,0.000111,0.051523,0.759637,0.899674,1.000000,0.029201,0.304561,0.672659,2.000000,1.000000,0.043019,0.436783,1.000000,0.885467,0.907344,0.198331,2.000000
21,0.000111,0.051523,0.759637,0.899674,1.000000,0.029201,0.304561,0.672659,2.000000,1.000000,0.043019,0.436783,1.000000,0.885467,0.907344,0.198331,2.000000
22,0.000062,0.085642,0.404923,0.987429,1.000000,0.029201,0.529251,0.680701,2.000000,1.000000,0.184048,0.690266,1.000000,0.667529,0.911625,0.448403,1.000000
23,0.000061,0.085642,0.371755,1.000000,1.000000,0.000000,0.529251,0.680701,2.000000,1.000000,0.069138,0.690266,1.000000,0.667529,0.911625,0.448403,1.000000
24,0.000030,0.116374,0.566118,0.923940,1.000000,0.243547,0.000000,0.973446,2.000000,0.921234,0.072707,0.659974,1.000000,0.855653,0.852796,0.560540,2.000000
25,0.000024,0.000000,0.566118,0.923940,1.000000,0.243547,0.000000,0.973446,2.000000,0.921234,0.047832,0.659974,1.000000,1.000000,0.889848,0.560540,1.000000
26,0.000024,0.000000,0.566118,0.923940,1.000000,0.243547,0.000000,0.973446,2.000000,0.921234,0.047832,0.659974,1.000000,1.000000,0.889848,0.560540,1.000000
27,0.000012,0.000000,0.553662,1.000000,1.000000,0.055658,0.114053,1.000000,2.000000,0.914486,0.211236,0.734578,1.000000,0.678965,0.752069,0.432928,0.000000
28,0.000011,0.000000,0.592728,1.000000,1.000000,0.000000,0.304302,0.717741,2.000000,0.891439,0.059770,0.883720,1.000000,0.504402,0.992301,0.630220,2.000000
29,0.000011,0.000000,0.592728,1.000000,1.000000,0.000000,0.304302,0.717741,2.000000,0.891439,0.059770,0.883720,1.000000,0.504402,0.992301,0.630220,2.000000
30,0.000011,0.000000,0.592728,1.000000,1.000000,0.000000,0.304302,0.717741,2.000000,0.891439,0.059770,0.883720,1.000000,0.504402,0.992301,0.630220,2.000000
31,0.000011,0.000000,0.592728,1.000000,1.000000,0.000000,0.304302,0.717741,2.000000,0.891439,0.059770,0.883720,1.000000,0.504402,0.992301,0.630220,2.000000
32,0.000005,0.050156,0.740393,0.926239,0.988368,0.017051,0.210309,1.000000,2.000000,0.634452,0.034655,0.783869,1.000000,0.527816,0.897314,0.466890,0.000000
33,0.000002,0.084283,0.553662,0.870465,0.988368,0.017051,0.015979,0.967790,2.000000,0.547979,0.213009,0.752782,1.000000,0.471635,0.897314,0.540852,2.000000
34,0.000002,0.084283,0.553662,0.870465,0.988368,0.017051,0.015979,0.967790,2.000000,0.547979,0.213009,0.752782,1.000000,0.471635,0.897314,0.540852,2.000000
35,0.000002,0.084283,0.553662,0.870465,0.988368,0.017051,0.015979,0.967790,2.000000,0.547979,0.213009,0.752782,1.000000,0.471635,0.897314,0.540852,2.000000
36,0.000002,0.084283,0.553662,0.870465,0.988368,0.017051,0.015979,0.967790,2.000000,0.547979,0.213009,0.752782,1.000000,0.471635,0.897314,0.540852,2.000000
37,0.000001,0.000000,0.727986,1.000000,1.000000,0.000000,0.000000,1.000000,2.000000,0.817022,0.423369,1.000000,1.000000,0.835372,0.775289,0.432928,0.000000
