gen, fitness
0,0.094016,0.000000,1.000000,0.210000,0.800000,0.030000,0.030000,1.000000,0.000000,1.000000,0.000000,0.000000,0.600000,1.000000,1.000000,0.000000,0.000000
1,0.094016,0.000000,1.000000,0.210000,0.800000,0.030000,0.030000,1.000000,0.000000,1.000000,0.000000,0.000000,0.600000,1.000000,1.000000,0.000000,0.000000
2,0.061046,0.000000,1.000000,0.103151,0.726462,0.033974,0.030000,0.969115,0.000000,1.000000,0.000000,0.000000,0.373368,0.966316,1.000000,0.000000,0.000000
3,0.045223,0.136787,0.916128,0.014544,0.628030,0.022127,0.062780,1.000000,1.000000,1.000000,0.000000,0.085091,0.461400,1.000000,1.000000,0.000000,2.000000
4,0.035857,0.237943,0.806457,0.034858,0.534633,0.024158,0.170686,1.000000,2.000000,0.861454,0.066339,0.000000,0.430208,1.000000,0.998021,0.111335,1.000000
5,0.022712,0.090840,0.833278,0.000000,0.554344,0.021920,0.055098,0.735145,0.000000,1.000000,0.120652,0.000153,0.166435,0.977475,1.000000,0.003406,0.000000
6,0.014464,0.316604,0.849786,0.000000,0.392210,0.064571,0.114884,0.807724,2.000000,0.969497,0.000000,0.000000,0.190342,0.981492,0.979442,0.105162,1.000000
7,0.007454,0.420098,1.000000,0.000000,0.156212,0.204593,0.103069,0.898932,1.000000,0.697156,0.000000,0.000000,0.166718,0.975065,1.000000,0.000000,0.000000
8,0.004969,0.420098,0.830015,0.000000,0.195541,0.000000,0.102103,1.000000,1.000000,0.883741,0.134271,0.047258,0.000000,0.763244,1.000000,0.142621,0.000000
9,0.003738,0.420098,0.830015,0.000000,0.084712,0.000000,0.037178,1.000000,1.000000,0.744189,0.116146,0.051791,0.000000,0.694997,1.000000,0.025290,1.000000
10,0.001437,0.678173,0.907232,0.000000,0.073484,0.082848,0.111896,0.865457,1.000000,0.940946,0.133219,0.000000,0.080545,0.720366,0.997500,0.189917,1.000000
11,0.000963,0.557563,1.000000,0.000000,0.094084,0.000000,0.000000,0.600059,0.000000,0.913937,0.000000,0.000000,0.000000,0.618642,0.791259,0.138559,2.000000
12,0.000916,0.818414,0.907232,0.000000,0.014022,0.178494,0.139064,0.765246,1.000000,0.805503,0.028786,0.006354,0.106569,0.740080,1.000000,0.189917,2.000000
13,0.000174,0.790382,0.971012,0.000000,0.000000,0.002122,0.271072,0.940865,0.000000,0.918796,0.121114,0.000000,0.000000,0.620853,0.962774,0.328102,2.000000
14,0.000029,0.835519,0.642351,0.000000,0.000000,0.156383,0.099456,0.808355,1.000000,1.000000,0.252103,0.000000,0.000000,0.628699,0.960257,0.081448,2.000000
15,0.000029,0.835519,0.642351,0.000000,0.000000,0.156383,0.099456,0.808355,1.000000,1.000000,0.252103,0.000000,0.000000,0.628699,0.960257,0.081448,2.000000
16,0.000018,0.835519,0.519560,0.000000,0.003233,0.156383,0.153194,0.808355,0.000000,1.000000,0.253573,0.000000,0.000000,0.409786,0.856796,0.188364,2.000000
17,0.000018,0.835519,0.519560,0.000000,0.003233,0.156383,0.153194,0.808355,0.000000,1.000000,0.253573,0.000000,0.000000,0.409786,0.856796,0.188364,2.000000
18,0.000018,0.835519,0.519560,0.000000,0.003233,0.156383,0.153194,0.808355,0.000000,1.000000,0.253573,0.000000,0.000000,0.409786,0.856796,0.188364,2.000000
19,0.000000,0.956502,0.930427,0.000000,0.000000,0.000000,0.061125,0.743939,0.000000,1.000000,0.257783,0.028562,0.000000,0.484597,0.932143,0.380771,1.000000
gen, fitness
0,0.011444,0.000000,1.000000,0.210000,0.800000,0.030000,0.030000,1.000000,0.000000,1.000000,0.000000,0.000000,0.600000,1.000000,1.000000,0.000000,0.000000
1,0.011444,0.000000,1.000000,0.210000,0.800000,0.030000,0.030000,1.000000,0.000000,1.000000,0.000000,0.000000,0.600000,1.000000,1.000000,0.000000,0.000000
2,0.003934,0.000000,1.000000,0.210000,0.666391,0.146569,0.030000,1.000000,0.000000,0.953905,0.000000,0.000000,0.502129,0.973007,1.000000,0.018067,2.000000
3,0.003934,0.000000,1.000000,0.210000,0.666391,0.146569,0.030000,1.000000,0.000000,0.953905,0.000000,0.000000,0.502129,0.973007,1.000000,0.018067,2.000000
4,0.002033,0.156815,1.000000,0.027990,0.678997,0.039989,0.083546,0.968467,1.000000,1.000000,0.048550,0.231604,0.298311,0.973691,1.000000,0.029009,0.000000
5,0.000963,0.000000,1.000000,0.137289,0.516234,0.020733,0.387956,1.000000,2.000000,0.822420,0.000000,0.000000,0.313139,1.000000,0.944647,0.124249,0.000000
6,0.000834,0.117004,0.990889,0.000000,0.658311,0.000000,0.000000,0.869070,1.000000,0.918413,0.000000,0.057158,0.346345,1.000000,0.993412,0.000000,2.000000
7,0.000327,0.170308,0.960285,0.046113,0.554107,0.000000,0.102307,0.842999,2.000000,1.000000,0.094020,0.310674,0.000043,0.963432,0.851662,0.146692,0.000000
8,0.000031,0.159200,1.000000,0.000000,0.554107,0.000000,0.096921,0.840136,0.000000,1.000000,0.094020,0.210497,0.000043,1.000000,0.901961,0.037076,2.000000
9,0.000011,0.037092,1.000000,0.164318,0.416524,0.359214,0.000000,0.840237,1.000000,0.976944,0.000000,0.000000,0.179858,0.954010,0.973945,0.000000,1.000000
10,0.000002,0.034238,0.841990,0.000000,0.528383,0.092384,0.000000,0.960401,2.000000,0.921641,0.157003,0.000000,0.157534,0.446962,0.848816,0.000000,0.000000
11,0.000002,0.034238,0.841990,0.000000,0.528383,0.092384,0.000000,0.960401,2.000000,0.921641,0.157003,0.000000,0.157534,0.446962,0.848816,0.000000,0.000000
12,0.000002,0.034238,0.841990,0.000000,0.528383,0.092384,0.000000,0.960401,2.000000,0.921641,0.157003,0.000000,0.157534,0.446962,0.848816,0.000000,0.000000
13,0.000001,0.212364,1.000000,0.021068,0.547183,0.242908,0.000000,0.824323,2.000000,1.000000,0.169289,0.171873,0.047337,1.000000,0.777082,0.242430,1.000000
14,0.000001,0.212364,1.000000,0.021068,0.547183,0.242908,0.000000,0.824323,2.000000,1.000000,0.169289,0.171873,0.047337,1.000000,0.777082,0.242430,1.000000
15,0.000001,0.212364,1.000000,0.021068,0.547183,0.242908,0.000000,0.824323,2.000000,1.000000,0.169289,0.171873,0.047337,1.000000,0.777082,0.242430,1.000000
16,0.000001,0.212364,1.000000,0.021068,0.547183,0.242908,0.000000,0.824323,2.000000,1.000000,0.169289,0.171873,0.047337,1.000000,0.777082,0.242430,1.000000
17,0.000001,0.212364,1.000000,0.021068,0.547183,0.242908,0.000000,0.824323,2.000000,1.000000,0.169289,0.171873,0.047337,1.000000,0.777082,0.242430,1.000000
18,0.000001,0.212364,1.000000,0.021068,0.547183,0.242908,0.000000,0.824323,2.000000,1.000000,0.169289,0.171873,0.047337,1.000000,0.777082,0.242430,1.000000
19,0.000000,0.159200,1.000000,0.079729,0.478403,0.000000,0.498269,0.904591,2.000000,1.000000,0.017820,0.025802,0.179858,0.995507,1.000000,0.000000,2.000000
gen, fitness
0,0.010533,0.000000,1.000000,0.210000,0.800000,0.030000,0.030000,1.000000,0.000000,1.000000,0.000000,0.000000,0.600000,1.000000,1.000000,0.000000,0.000000
1,0.010533,0.000000,1.000000,0.210000,0.800000,0.030000,0.030000,1.000000,0.000000,1.000000,0.000000,0.000000,0.600000,1.000000,1.000000,0.000000,0.000000
2,0.001369,0.000000,0.892664,0.210000,0.666888,0.110135,0.153929,1.000000,0.000000,1.000000,0.000000,0.000000,0.517858,1.000000,1.000000,0.123431,2.000000
3,0.001183,0.110106,0.892664,0.000000,0.666888,0.000000,0.213519,1.000000,1.000000,0.792600,0.102777,0.000000,0.517858,0.959741,1.000000,0.278286,0.000000
4,0.001157,0.169809,0.900707,0.087907,0.662667,0.000000,0.050972,0.936126,1.000000,0.797123,0.040139,0.117277,0.451930,1.000000,1.000000,0.000828,0.000000
5,0.000404,0.164897,1.000000,0.000000,0.669111,0.134502,0.000000,0.938074,2.000000,0.954994,0.109022,0.000000,0.487536,0.682327,0.879509,0.000000,1.000000
6,0.000127,0.000000,0.984909,0.230205,0.502046,0.026768,0.002615,0.933611,2.000000,1.000000,0.000000,0.107785,0.234185,0.796070,1.000000,0.173896,2.000000
7,0.000041,0.041184,0.919066,0.094195,0.562623,0.063724,0.238311,1.000000,2.000000,0.930453,0.026690,0.054456,0.290062,0.923625,0.866263,0.107140,0.000000
8,0.000041,0.041184,0.919066,0.094195,0.562623,0.063724,0.238311,1.000000,2.000000,0.930453,0.026690,0.054456,0.290062,0.923625,0.866263,0.107140,0.000000
9,0.000004,0.243559,0.843093,0.224136,0.411135,0.000000,0.000000,0.884021,0.000000,0.840184,0.072632,0.000000,0.411642,0.970500,1.000000,0.071782,1.000000
10,0.000004,0.243559,0.843093,0.224136,0.411135,0.000000,0.000000,0.884021,0.000000,0.840184,0.072632,0.000000,0.411642,0.970500,1.000000,0.071782,1.000000
11,0.000004,0.243559,0.843093,0.224136,0.411135,0.000000,0.000000,0.884021,0.000000,0.840184,0.072632,0.000000,0.411642,0.970500,1.000000,0.071782,1.000000
12,0.000004,0.243559,0.843093,0.224136,0.411135,0.000000,0.000000,0.884021,0.000000,0.840184,0.072632,0.000000,0.411642,0.970500,1.000000,0.071782,1.000000
13,0.000004,0.243559,0.843093,0.224136,0.411135,0.000000,0.000000,0.884021,0.000000,0.840184,0.072632,0.000000,0.411642,0.970500,1.000000,0.071782,1.000000
14,0.000004,0.243559,0.843093,0.224136,0.411135,0.000000,0.000000,0.884021,0.000000,0.840184,0.072632,0.000000,0.411642,0.970500,1.000000,0.071782,1.000000
15,0.000004,0.243559,0.843093,0.224136,0.411135,0.000000,0.000000,0.884021,0.000000,0.840184,0.072632,0.000000,0.411642,0.970500,1.000000,0.071782,1.000000
16,0.000004,0.243559,0.843093,0.224136,0.411135,0.000000,0.000000,0.884021,0.000000,0.840184,0.072632,0.000000,0.411642,0.970500,1.000000,0.071782,1.000000
17,0.000004,0.243559,0.843093,0.224136,0.411135,0.000000,0.000000,0.884021,0.000000,0.840184,0.072632,0.000000,0.411642,0.970500,1.000000,0.071782,1.000000
18,0.000004,0.243559,0.843093,0.224136,0.411135,0.000000,0.000000,0.884021,0.000000,0.840184,0.072632,0.000000,0.411642,0.970500,1.000000,0.071782,1.000000
19,0.000004,0.243559,0.843093,0.224136,0.411135,0.000000,0.000000,0.884021,0.000000,0.840184,0.072632,0.000000,0.411642,0.970500,1.000000,0.071782,1.000000
gen, fitness
0,0.067934,0.000000,1.000000,0.210000,0.800000,0.030000,0.030000,1.000000,0.000000,1.000000,0.000000,0.000000,0.600000,1.000000,1.000000,0.000000,0.000000
1,0.067934,0.000000,1.000000,0.210000,0.800000,0.030000,0.030000,1.000000,0.000000,1.000000,0.000000,0.000000,0.600000,1.000000,1.000000,0.000000,0.000000
2,0.035640,0.000000,1.000000,0.173022,0.617493,0.000000,0.054722,0.890326,0.000000,0.996470,0.043691,0.000000,0.491005,0.998097,1.000000,0.044225,2.000000
3,0.034367,0.000000,0.935393,0.195076,0.593920,0.000000,0.000000,0.847426,2.000000,0.979335,0.107832,0.000000,0.457234,1.000000,0.935361,0.051357,1.000000
4,0.025768,0.194478,0.965372,0.092123,0.637930,0.318288,0.253355,0.863972,0.000000,0.957020,0.200610,0.000000,0.372423,1.000000,0.844450,0.106593,0.000000
5,0.016589,0.000000,0.996455,0.195076,0.480226,0.256129,0.000000,0.643483,1.000000,1.000000,0.223196,0.000000,0.262487,1.000000,1.000000,0.000000,0.000000
6,0.009071,0.089868,0.647674,0.170906,0.358595,0.081243,0.066796,1.000000,1.000000,1.000000,0.197738,0.000000,0.175418,1.000000,0.738324,0.008028,2.000000
7,0.008085,0.000000,0.935493,0.014090,0.431210,0.156982,0.166117,0.670923,2.000000,0.936290,0.555603,0.080740,0.036525,1.000000,1.000000,0.069348,1.000000
8,0.002643,0.238115,0.726982,0.042345,0.399363,0.000000,0.000000,0.407520,1.000000,0.859232,0.000000,0.000000,0.075196,0.960432,0.787837,0.000000,1.000000
9,0.000770,0.357566,1.000000,0.000000,0.329194,0.061040,0.000000,0.726986,1.000000,1.000000,0.218096,0.000000,0.051965,0.658489,0.650676,0.042206,1.000000
10,0.000406,0.378811,1.000000,0.000000,0.351115,0.000000,0.000000,0.541042,1.000000,1.000000,0.000000,0.000000,0.051965,0.551373,0.628207,0.000000,2.000000
11,0.000004,0.552324,0.968549,0.000000,0.319843,0.215409,0.000000,0.739634,0.000000,1.000000,0.278050,0.000000,0.063033,0.921149,0.699483,0.025253,1.000000
12,0.000004,0.552324,0.968549,0.000000,0.319843,0.215409,0.000000,0.739634,0.000000,1.000000,0.278050,0.000000,0.063033,0.921149,0.699483,0.025253,1.000000
13,0.000004,0.552324,0.968549,0.000000,0.319843,0.215409,0.000000,0.739634,0.000000,1.000000,0.278050,0.000000,0.063033,0.921149,0.699483,0.025253,1.000000
14,0.000004,0.552324,0.968549,0.000000,0.319843,0.215409,0.000000,0.739634,0.000000,1.000000,0.278050,0.000000,0.063033,0.921149,0.699483,0.025253,1.000000
15,0.000004,0.552324,0.968549,0.000000,0.319843,0.215409,0.000000,0.739634,0.000000,1.000000,0.278050,0.000000,0.063033,0.921149,0.699483,0.025253,1.000000
16,0.000001,0.599777,1.000000,0.229105,0.025771,0.333814,0.321547,0.344571,1.000000,0.881235,0.318097,0.000000,0.046271,0.490385,0.758111,0.044548,0.000000
gen, fitness
0,0.030614,0.000000,1.000000,0.210000,0.800000,0.030000,0.030000,1.000000,0.000000,1.000000,0.000000,0.000000,0.600000,1.000000,1.000000,0.000000,0.000000
1,0.030614,0.000000,1.000000,0.210000,0.800000,0.030000,0.030000,1.000000,0.000000,1.000000,0.000000,0.000000,0.600000,1.000000,1.000000,0.000000,0.000000
2,0.012161,0.000000,0.973815,0.219398,0.632200,0.000000,0.000000,0.775580,2.000000,1.000000,0.151933,0.000000,0.375220,1.000000,0.892787,0.058898,1.000000
3,0.007855,0.000000,0.994796,0.267384,0.512578,0.191702,0.000000,1.000000,0.000000,1.000000,0.000000,0.000000,0.439167,0.900204,0.931235,0.133435,1.000000
4,0.005651,0.000000,0.994796,0.208253,0.490542,0.225516,0.000000,1.000000,2.000000,1.000000,0.000000,0.000000,0.362745,0.781678,0.931235,0.043468,2.000000
5,0.004551,0.000000,0.988988,0.413737,0.314592,0.106232,0.106653,0.744667,2.000000,0.927875,0.167838,0.076787,0.207919,1.000000,1.000000,0.146571,1.000000
6,0.000818,0.119522,1.000000,0.122296,0.394344,0.069189,0.157458,1.000000,2.000000,1.000000,0.000000,0.000000,0.166381,0.748418,0.956735,0.253486,1.000000
7,0.000018,0.378941,0.943116,0.040020,0.394344,0.065399,0.266550,0.879474,1.000000,1.000000,0.079774,0.000000,0.173210,0.625918,0.875599,0.230178,1.000000
8,0.000018,0.378941,0.943116,0.040020,0.394344,0.065399,0.266550,0.879474,1.000000,1.000000,0.079774,0.000000,0.173210,0.625918,0.875599,0.230178,1.000000
9,0.000018,0.378941,0.943116,0.040020,0.394344,0.065399,0.266550,0.879474,1.000000,1.000000,0.079774,0.000000,0.173210,0.625918,0.875599,0.230178,1.000000
10,0.000018,0.378941,0.943116,0.040020,0.394344,0.065399,0.266550,0.879474,1.000000,1.000000,0.079774,0.000000,0.173210,0.625918,0.875599,0.230178,1.000000
11,0.000007,0.109988,0.954969,0.099125,0.333612,0.284975,0.000000,0.936457,1.000000,1.000000,0.043256,0.033163,0.000000,0.660133,0.626438,0.094471,2.000000
12,0.000001,0.011321,1.000000,0.066318,0.354147,0.307346,0.131445,0.918251,0.000000,0.898293,0.301791,0.000000,0.022288,0.805378,0.615627,0.000000,1.000000
13,0.000001,0.011321,1.000000,0.066318,0.354147,0.307346,0.131445,0.918251,0.000000,0.898293,0.301791,0.000000,0.022288,0.805378,0.615627,0.000000,1.000000
14,0.000001,0.011321,1.000000,0.066318,0.354147,0.307346,0.131445,0.918251,0.000000,0.898293,0.301791,0.000000,0.022288,0.805378,0.615627,0.000000,1.000000
15,0.000001,0.011321,1.000000,0.066318,0.354147,0.307346,0.131445,0.918251,0.000000,0.898293,0.301791,0.000000,0.022288,0.805378,0.615627,0.000000,1.000000
16,0.000001,0.011321,1.000000,0.066318,0.354147,0.307346,0.131445,0.918251,0.000000,0.898293,0.301791,0.000000,0.022288,0.805378,0.615627,0.000000,1.000000
17,0.000001,0.011321,1.000000,0.066318,0.354147,0.307346,0.131445,0.918251,0.000000,0.898293,0.301791,0.000000,0.022288,0.805378,0.615627,0.000000,1.000000
18,0.000001,0.011321,1.000000,0.066318,0.354147,0.307346,0.131445,0.918251,0.000000,0.898293,0.301791,0.000000,0.022288,0.805378,0.615627,0.000000,1.000000
19,0.000001,0.011321,1.000000,0.066318,0.354147,0.307346,0.131445,0.918251,0.000000,0.898293,0.301791,0.000000,0.022288,0.805378,0.615627,0.000000,1.000000
20,0.000001,0.011321,1.000000,0.066318,0.354147,0.307346,0.131445,0.918251,0.000000,0.898293,0.301791,0.000000,0.022288,0.805378,0.615627,0.000000,1.000000
21,0.000001,0.011321,1.000000,0.066318,0.354147,0.307346,0.131445,0.918251,0.000000,0.898293,0.301791,0.000000,0.022288,0.805378,0.615627,0.000000,1.000000
gen, fitness
0,0.009712,0.000000,1.000000,0.210000,0.800000,0.030000,0.030000,1.000000,0.000000,1.000000,0.000000,0.000000,0.600000,1.000000,1.000000,0.000000,0.000000
1,0.009712,0.000000,1.000000,0.210000,0.800000,0.030000,0.030000,1.000000,0.000000,1.000000,0.000000,0.000000,0.600000,1.000000,1.000000,0.000000,0.000000
2,0.000301,0.020746,0.920016,0.288928,0.604584,0.042450,0.000000,1.000000,2.000000,0.980777,0.000000,0.146325,0.499662,1.000000,1.000000,0.000000,0.000000
3,0.000038,0.058252,1.000000,0.053632,0.713155,0.072355,0.245311,0.712131,2.000000,0.982121,0.000000,0.000000,0.531173,0.999616,0.807900,0.042048,2.000000
4,0.000038,0.058252,1.000000,0.053632,0.713155,0.072355,0.245311,0.712131,2.000000,0.982121,0.000000,0.000000,0.531173,0.999616,0.807900,0.042048,2.000000
5,0.000030,0.000000,1.000000,0.099696,0.684992,0.028587,0.000000,0.926215,1.000000,0.893099,0.054385,0.028706,0.524363,0.873933,0.813577,0.011849,1.000000
6,0.000030,0.000000,1.000000,0.099696,0.684992,0.028587,0.000000,0.926215,1.000000,0.893099,0.054385,0.028706,0.524363,0.873933,0.813577,0.011849,1.000000
7,0.000004,0.129158,1.000000,0.032560,0.705757,0.013464,0.203252,0.843359,2.000000,1.000000,0.000000,0.000000,0.531173,1.000000,0.700663,0.155774,2.000000
8,0.000004,0.129158,1.000000,0.032560,0.705757,0.013464,0.203252,0.843359,2.000000,1.000000,0.000000,0.000000,0.531173,1.000000,0.700663,0.155774,2.000000
9,0.000004,0.129158,1.000000,0.032560,0.705757,0.013464,0.203252,0.843359,2.000000,1.000000,0.000000,0.000000,0.531173,1.000000,0.700663,0.155774,2.000000
10,0.000004,0.129158,1.000000,0.032560,0.705757,0.013464,0.203252,0.843359,2.000000,1.000000,0.000000,0.000000,0.531173,1.000000,0.700663,0.155774,2.000000
11,0.000004,0.129158,1.000000,0.032560,0.705757,0.013464,0.203252,0.843359,2.000000,1.000000,0.000000,0.000000,0.531173,1.000000,0.700663,0.155774,2.000000
12,0.000004,0.129158,1.000000,0.032560,0.705757,0.013464,0.203252,0.843359,2.000000,1.000000,0.000000,0.000000,0.531173,1.000000,0.700663,0.155774,2.000000
13,0.000004,0.129158,1.000000,0.032560,0.705757,0.013464,0.203252,0.843359,2.000000,1.000000,0.000000,0.000000,0.531173,1.000000,0.700663,0.155774,2.000000
14,0.000004,0.129158,1.000000,0.032560,0.705757,0.013464,0.203252,0.843359,2.000000,1.000000,0.000000,0.000000,0.531173,1.000000,0.700663,0.155774,2.000000
15,0.000004,0.129158,1.000000,0.032560,0.705757,0.013464,0.203252,0.843359,2.000000,1.000000,0.000000,0.000000,0.531173,1.000000,0.700663,0.155774,2.000000
16,0.000004,0.129158,1.000000,0.032560,0.705757,0.013464,0.203252,0.843359,2.000000,1.000000,0.000000,0.000000,0.531173,1.000000,0.700663,0.155774,2.000000
17,0.000004,0.129158,1.000000,0.032560,0.705757,0.013464,0.203252,0.843359,2.000000,1.000000,0.000000,0.000000,0.531173,1.000000,0.700663,0.155774,2.000000
gen, fitness
0,0.026348,0.000000,1.000000,0.210000,0.800000,0.030000,0.030000,1.000000,0.000000,1.000000,0.000000,0.000000,0.600000,1.000000,1.000000,0.000000,0.000000
1,0.026348,0.000000,1.000000,0.210000,0.800000,0.030000,0.030000,1.000000,0.000000,1.000000,0.000000,0.000000,0.600000,1.000000,1.000000,0.000000,0.000000
2,0.009221,0.000000,1.000000,0.066152,0.708301,0.220712,0.030000,0.920235,0.000000,1.000000,0.011002,0.000000,0.548293,1.000000,0.964273,0.000000,2.000000
3,0.004542,0.133174,1.000000,0.261376,0.531894,0.073708,0.025196,0.919351,0.000000,1.000000,0.080218,0.000000,0.490126,1.000000,0.929832,0.000000,2.000000
4,0.001478,0.282873,1.000000,0.000000,0.556066,0.049432,0.064487,0.661936,2.000000,1.000000,0.000000,0.014339,0.372525,0.879678,1.000000,0.015916,1.000000
5,0.000141,0.462709,0.873475,0.000000,0.556066,0.162292,0.149893,0.672742,0.000000,0.971767,0.000000,0.105148,0.263387,0.844994,1.000000,0.000000,2.000000
6,0.000120,0.468971,0.980454,0.000000,0.426771,0.031853,0.114336,0.751712,2.000000,0.869558,0.000000,0.000000,0.296788,1.000000,0.912498,0.000000,0.000000
7,0.000114,0.510851,0.962215,0.000000,0.497157,0.221306,0.060235,0.516383,1.000000,1.000000,0.027850,0.114239,0.204093,1.000000,0.965259,0.023486,0.000000
8,0.000028,0.449498,0.952314,0.084837,0.406405,0.133074,0.149893,1.000000,2.000000,0.910560,0.078342,0.105703,0.207149,0.634071,1.000000,0.253827,1.000000
9,0.000028,0.449498,0.952314,0.084837,0.406405,0.133074,0.149893,1.000000,2.000000,0.910560,0.078342,0.105703,0.207149,0.634071,1.000000,0.253827,1.000000
10,0.000007,0.338449,1.000000,0.000000,0.548677,0.000000,0.000000,0.316856,0.000000,0.927005,0.131332,0.000000,0.312158,0.773420,0.873192,0.021886,1.000000
11,0.000007,0.338449,1.000000,0.000000,0.548677,0.000000,0.000000,0.316856,0.000000,0.927005,0.131332,0.000000,0.312158,0.773420,0.873192,0.021886,1.000000
12,0.000007,0.338449,1.000000,0.000000,0.548677,0.000000,0.000000,0.316856,0.000000,0.927005,0.131332,0.000000,0.312158,0.773420,0.873192,0.021886,1.000000
13,0.000000,0.455081,0.817345,0.000000,0.503474,0.000000,0.005425,0.701727,1.000000,0.922119,0.130210,0.043488,0.273657,1.000000,0.894859,0.245189,1.000000
gen, fitness
0,0.052335,0.000000,1.000000,0.210000,0.800000,0.030000,0.030000,1.000000,0.000000,1.000000,0.000000,0.000000,0.600000,1.000000,1.000000,0.000000,0.000000
1,0.052335,0.000000,1.000000,0.210000,0.800000,0.030000,0.030000,1.000000,0.000000,1.000000,0.000000,0.000000,0.600000,1.000000,1.000000,0.000000,0.000000
2,0.020158,0.131493,1.000000,0.056303,0.689571,0.053986,0.000000,1.000000,2.000000,1.000000,0.000000,0.000000,0.494887,0.817047,0.889239,0.000000,2.000000
3,0.015880,0.131493,1.000000,0.095625,0.626117,0.008174,0.131870,0.912539,0.000000,0.951066,0.023454,0.000000,0.490987,0.817047,0.912494,0.000000,0.000000
4,0.007693,0.313480,0.890918,0.110841,0.506013,0.000000,0.072331,1.000000,0.000000,1.000000,0.000000,0.051102,0.372200,0.747775,0.868481,0.000000,0.000000
5,0.007693,0.313480,0.890918,0.110841,0.506013,0.000000,0.072331,1.000000,0.000000,1.000000,0.000000,0.051102,0.372200,0.747775,0.868481,0.000000,0.000000
6,0.002354,0.178567,0.939275,0.066616,0.433753,0.000000,0.203726,1.000000,2.000000,0.954188,0.000000,0.015660,0.089714,0.879654,0.841199,0.194988,1.000000
7,0.002354,0.178567,0.939275,0.066616,0.433753,0.000000,0.203726,1.000000,2.000000,0.954188,0.000000,0.015660,0.089714,0.879654,0.841199,0.194988,1.000000
8,0.000206,0.277445,0.923638,0.042020,0.365347,0.030362,0.000000,1.000000,1.000000,0.988945,0.099575,0.020760,0.071938,1.000000,0.768585,0.000000,1.000000
9,0.000206,0.277445,0.923638,0.042020,0.365347,0.030362,0.000000,1.000000,1.000000,0.988945,0.099575,0.020760,0.071938,1.000000,0.768585,0.000000,1.000000
10,0.000206,0.277445,0.923638,0.042020,0.365347,0.030362,0.000000,1.000000,1.000000,0.988945,0.099575,0.020760,0.071938,1.000000,0.768585,0.000000,1.000000
11,0.000141,0.346143,1.000000,0.037815,0.358981,0.051142,0.067381,0.987814,1.000000,1.000000,0.180342,0.048469,0.000000,0.923043,0.848597,0.273051,2.000000
12,0.000035,0.166560,0.745435,0.000000,0.366322,0.000000,0.179148,0.971563,1.000000,1.000000,0.000000,0.000000,0.000000,0.279414,0.482089,0.000000,2.000000
13,0.000001,0.394570,1.000000,0.000000,0.363350,0.051142,0.229256,0.922418,2.000000,1.000000,0.301802,0.048469,0.000000,0.922298,0.838562,0.354148,1.000000
14,0.000001,0.394570,1.000000,0.000000,0.363350,0.051142,0.229256,0.922418,2.000000,1.000000,0.301802,0.048469,0.000000,0.922298,0.838562,0.354148,1.000000
15,0.000001,0.394570,1.000000,0.000000,0.363350,0.051142,0.229256,0.922418,2.000000,1.000000,0.301802,0.048469,0.000000,0.922298,0.838562,0.354148,1.000000
16,0.000001,0.394570,1.000000,0.000000,0.363350,0.051142,0.229256,0.922418,2.000000,1.000000,0.301802,0.048469,0.000000,0.922298,0.838562,0.354148,1.000000
17,0.000001,0.394570,1.000000,0.000000,0.363350,0.051142,0.229256,0.922418,2.000000,1.000000,0.301802,0.048469,0.000000,0.922298,0.838562,0.354148,1.000000
18,0.000001,0.394570,1.000000,0.000000,0.363350,0.051142,0.229256,0.922418,2.000000,1.000000,0.301802,0.048469,0.000000,0.922298,0.838562,0.354148,1.000000
19,0.000001,0.394570,1.000000,0.000000,0.363350,0.051142,0.229256,0.922418,2.000000,1.000000,0.301802,0.048469,0.000000,0.922298,0.838562,0.354148,1.000000
20,0.000001,0.394570,1.000000,0.000000,0.363350,0.051142,0.229256,0.922418,2.000000,1.000000,0.301802,0.048469,0.000000,0.922298,0.838562,0.354148,1.000000
21,0.000001,0.394570,1.000000,0.000000,0.363350,0.051142,0.229256,0.922418,2.000000,1.000000,0.301802,0.048469,0.000000,0.922298,0.838562,0.354148,1.000000
22,0.000001,0.394570,1.000000,0.000000,0.363350,0.051142,0.229256,0.922418,2.000000,1.000000,0.301802,0.048469,0.000000,0.922298,0.838562,0.354148,1.000000
23,0.000001,0.394570,1.000000,0.000000,0.363350,0.051142,0.229256,0.922418,2.000000,1.000000,0.301802,0.048469,0.000000,0.922298,0.838562,0.354148,1.000000
gen, fitness
0,0.080636,0.000000,1.000000,0.210000,0.800000,0.030000,0.030000,1.000000,0.000000,1.000000,0.000000,0.000000,0.600000,1.000000,1.000000,0.000000,0.000000
1,0.080636,0.000000,1.000000,0.210000,0.800000,0.030000,0.030000,1.000000,0.000000,1.000000,0.000000,0.000000,0.600000,1.000000,1.000000,0.000000,0.000000
2,0.042263,0.044947,1.000000,0.210000,0.607705,0.230493,0.030000,1.000000,1.000000,1.000000,0.000000,0.000000,0.529241,0.959498,1.000000,0.000000,0.000000
3,0.031354,0.071037,1.000000,0.242571,0.455209,0.175988,0.222792,0.734561,1.000000,1.000000,0.000000,0.025458,0.435388,0.919283,1.000000,0.000000,2.000000
4,0.027515,0.158383,0.923370,0.082154,0.549621,0.000000,0.000000,0.619607,2.000000,0.952656,0.120470,0.097089,0.360695,0.847400,0.854740,0.101368,1.000000
5,0.020059,0.158383,0.882689,0.082154,0.511349,0.022208,0.000000,0.601275,0.000000,1.000000,0.204277,0.012463,0.360695,0.792003,0.833832,0.071172,1.000000
6,0.010909,0.273535,0.985291,0.001112,0.451123,0.000000,0.000000,0.826732,0.000000,0.936115,0.137128,0.078855,0.196771,0.965491,0.822136,0.206820,0.000000
7,0.008382,0.290109,1.000000,0.001112,0.451123,0.000000,0.000000,0.731907,2.000000,0.936115,0.137128,0.008697,0.050504,0.930131,0.696838,0.310449,1.000000
8,0.001841,0.450402,1.000000,0.040315,0.210109,0.239759,0.000000,0.446761,0.000000,0.905755,0.217252,0.068283,0.080403,0.884914,1.000000,0.000000,0.000000
9,0.001841,0.450402,1.000000,0.040315,0.210109,0.239759,0.000000,0.446761,0.000000,0.905755,0.217252,0.068283,0.080403,0.884914,1.000000,0.000000,0.000000
10,0.000206,0.473452,0.799207,0.024562,0.171478,0.239467,0.145937,0.466787,0.000000,0.940386,0.000000,0.000000,0.007132,0.690311,1.000000,0.184606,2.000000
11,0.000141,0.441331,1.000000,0.040315,0.127072,0.242244,0.000000,0.616116,1.000000,0.898401,0.281709,0.000000,0.000000,0.879517,1.000000,0.113333,0.000000
12,0.000126,0.524134,1.000000,0.040315,0.210109,0.317359,0.000000,0.495376,2.000000,1.000000,0.097450,0.000000,0.052698,1.000000,1.000000,0.000000,1.000000
13,0.000066,0.695578,0.948607,0.000000,0.158857,0.131559,0.135782,0.395760,1.000000,0.794615,0.421222,0.113083,0.008873,1.000000,0.925981,0.079443,0.000000
14,0.000019,0.733253,0.794907,0.000000,0.188986,0.250934,0.069258,0.614748,1.000000,1.000000,0.075654,0.000000,0.096171,0.827925,0.903214,0.129262,0.000000
15,0.000019,0.733253,0.794907,0.000000,0.188986,0.250934,0.069258,0.614748,1.000000,1.000000,0.075654,0.000000,0.096171,0.827925,0.903214,0.129262,0.000000
16,0.000004,0.781300,0.770270,0.000000,0.158857,0.186460,0.171287,0.299794,0.000000,0.794615,0.421222,0.113083,0.017505,1.000000,0.676427,0.079443,2.000000
17,0.000004,0.781300,0.770270,0.000000,0.158857,0.186460,0.171287,0.299794,0.000000,0.794615,0.421222,0.113083,0.017505,1.000000,0.676427,0.079443,2.000000
18,0.000004,0.781300,0.770270,0.000000,0.158857,0.186460,0.171287,0.299794,0.000000,0.794615,0.421222,0.113083,0.017505,1.000000,0.676427,0.079443,2.000000
19,0.000004,0.781300,0.770270,0.000000,0.158857,0.186460,0.171287,0.299794,0.000000,0.794615,0.421222,0.113083,0.017505,1.000000,0.676427,0.079443,2.000000
20,0.000004,0.781300,0.770270,0.000000,0.158857,0.186460,0.171287,0.299794,0.000000,0.794615,0.421222,0.113083,0.017505,1.000000,0.676427,0.079443,2.000000
21,0.000004,0.781300,0.770270,0.000000,0.158857,0.186460,0.171287,0.299794,0.000000,0.794615,0.421222,0.113083,0.017505,1.000000,0.676427,0.079443,2.000000
22,0.000004,0.781300,0.770270,0.000000,0.158857,0.186460,0.171287,0.299794,0.000000,0.794615,0.421222,0.113083,0.017505,1.000000,0.676427,0.079443,2.000000
23,0.000004,0.781300,0.770270,0.000000,0.158857,0.186460,0.171287,0.299794,0.000000,0.794615,0.421222,0.113083,0.017505,1.000000,0.676427,0.079443,2.000000
24,0.000004,0.781300,0.770270,0.000000,0.158857,0.186460,0.171287,0.299794,0.000000,0.794615,0.421222,0.113083,0.017505,1.000000,0.676427,0.079443,2.000000
25,0.000004,0.781300,0.770270,0.000000,0.158857,0.186460,0.171287,0.299794,0.000000,0.794615,0.421222,0.113083,0.017505,1.000000,0.676427,0.079443,2.000000
26,0.000004,0.781300,0.770270,0.000000,0.158857,0.186460,0.171287,0.299794,0.000000,0.794615,0.421222,0.113083,0.017505,1.000000,0.676427,0.079443,2.000000
gen, fitness
0,0.025383,0.000000,1.000000,0.210000,0.800000,0.030000,0.030000,1.000000,0.000000,1.000000,0.000000,0.000000,0.600000,1.000000,1.000000,0.000000,0.000000
1,0.025383,0.000000,1.000000,0.210000,0.800000,0.030000,0.030000,1.000000,0.000000,1.000000,0.000000,0.000000,0.600000,1.000000,1.000000,0.000000,0.000000
2,0.008465,0.000000,1.000000,0.136260,0.641933,0.030000,0.248053,1.000000,1.000000,1.000000,0.136985,0.064297,0.493482,0.978312,1.000000,0.000000,0.000000
3,0.004878,0.083787,1.000000,0.283653,0.524790,0.033160,0.114957,1.000000,0.000000,1.000000,0.079816,0.099004,0.364675,0.945180,1.000000,0.000000,0.000000
4,0.000770,0.222932,0.831832,0.000000,0.555598,0.000000,0.030000,0.732691,1.000000,0.917429,0.096224,0.000000,0.317951,1.000000,0.682086,0.000000,1.000000
5,0.000770,0.222932,0.831832,0.000000,0.555598,0.000000,0.030000,0.732691,1.000000,0.917429,0.096224,0.000000,0.317951,1.000000,0.682086,0.000000,1.000000
6,0.000265,0.246290,0.742128,0.000000,0.479253,0.006157,0.000000,0.732691,0.000000,0.930503,0.096224,0.025710,0.230190,0.931148,0.686458,0.000000,1.000000
7,0.000144,0.233146,0.638287,0.165301,0.336504,0.002217,0.000000,0.680096,2.000000,1.000000,0.088099,0.000000,0.199670,0.953089,1.000000,0.110270,2.000000
8,0.000083,0.213959,0.729846,0.048776,0.477991,0.000000,0.188782,0.683972,1.000000,1.000000,0.000000,0.040265,0.163673,0.975479,0.819825,0.034861,1.000000
9,0.000014,0.212541,0.579955,0.247622,0.226379,0.000000,0.000000,0.680096,0.000000,0.975076,0.051429,0.000000,0.139615,0.832019,1.000000,0.052734,0.000000
10,0.000003,0.249487,0.912099,0.004811,0.473567,0.000000,0.146429,0.683972,2.000000,1.000000,0.103959,0.065273,0.095614,0.883536,0.953409,0.094513,1.000000
11,0.000003,0.249487,0.912099,0.004811,0.473567,0.000000,0.146429,0.683972,2.000000,1.000000,0.103959,0.065273,0.095614,0.883536,0.953409,0.094513,1.000000
12,0.000000,0.052906,0.706378,0.198547,0.302602,0.000000,0.221623,0.680096,1.000000,1.000000,0.000000,0.000000,0.068727,0.909788,1.000000,0.082712,1.000000
