gen, fitness
0,0.094016,0.000000,1.000000,0.210000,0.800000,0.030000,0.030000,1.000000,0.000000,1.000000,0.000000,0.000000,0.600000,1.000000,1.000000,0.000000,0.000000
1,0.094016,0.000000,1.000000,0.210000,0.800000,0.030000,0.030000,1.000000,0.000000,1.000000,0.000000,0.000000,0.600000,1.000000,1.000000,0.000000,0.000000
2,0.056748,0.000000,0.934272,0.210000,0.637956,0.000000,0.090006,1.000000,1.000000,1.000000,0.000000,0.000000,0.477740,1.000000,0.965541,0.036454,1.000000
3,0.039722,0.009470,0.862669,0.223164,0.464555,0.075195,0.100266,1.000000,1.000000,1.000000,0.000000,0.000000,0.377204,1.000000,1.000000,0.083478,2.000000
4,0.033390,0.046724,1.000000,0.049633,0.532897,0.267417,0.104001,0.857671,0.000000,0.945493,0.000700,0.000000,0.371799,0.950679,0.964875,0.000000,0.000000
5,0.027025,0.000000,0.940221,0.036409,0.511785,0.000000,0.073514,0.776307,1.000000,0.926967,0.000000,0.014476,0.220794,1.000000,0.992042,0.042813,0.000000
6,0.019679,0.133317,0.978210,0.020130,0.464143,0.242841,0.104001,0.941623,0.000000,0.945493,0.080333,0.000000,0.003901,1.000000,0.962590,0.127698,0.000000
7,0.019642,0.177953,0.972426,0.000000,0.487324,0.006262,0.000000,0.791168,0.000000,1.000000,0.000000,0.000000,0.189703,0.926947,0.627124,0.262180,2.000000
8,0.010959,0.169070,0.980495,0.000000,0.385330,0.186492,0.104001,0.745643,0.000000,0.945493,0.227544,0.015410,0.000000,0.809507,1.000000,0.000000,1.000000
9,0.006851,0.518942,0.980495,0.028542,0.169181,0.347048,0.109502,0.991922,2.000000,1.000000,0.349144,0.052328,0.123358,0.871198,0.745906,0.058946,0.000000
10,0.001461,0.609050,0.980495,0.000000,0.000000,0.333067,0.109502,0.961807,2.000000,1.000000,0.195880,0.000000,0.027215,0.954584,0.753572,0.058946,0.000000
11,0.001010,0.580097,1.000000,0.052169,0.010815,0.259501,0.176008,0.820847,0.000000,0.878521,0.258546,0.009980,0.000000,1.000000,0.767059,0.023549,0.000000
12,0.000101,0.876864,1.000000,0.000000,0.000141,0.319377,0.317447,1.000000,2.000000,1.000000,0.056775,0.000000,0.047739,0.874772,0.833156,0.219369,2.000000
13,0.000074,1.000000,1.000000,0.000000,0.000141,0.254314,0.417029,1.000000,0.000000,1.000000,0.053596,0.034894,0.047739,0.910785,0.768455,0.302934,1.000000
14,0.000074,1.000000,1.000000,0.000000,0.000141,0.254314,0.417029,1.000000,0.000000,1.000000,0.053596,0.034894,0.047739,0.910785,0.768455,0.302934,1.000000
15,0.000040,0.938430,0.985452,0.000000,0.000000,0.270100,0.000000,0.620010,2.000000,0.952481,0.380982,0.000000,0.099739,0.763544,0.795989,0.022515,1.000000
16,0.000028,0.875602,0.831432,0.000000,0.000000,0.282895,0.530901,0.639212,0.000000,0.980950,0.231390,0.000000,0.010056,0.788023,0.696320,0.354826,0.000000
17,0.000012,0.922480,0.831432,0.000000,0.000000,0.282895,0.575502,0.576187,1.000000,1.000000,0.157173,0.000000,0.000000,0.721724,1.000000,0.434588,2.000000
18,0.000012,0.922480,0.831432,0.000000,0.000000,0.282895,0.575502,0.576187,1.000000,1.000000,0.157173,0.000000,0.000000,0.721724,1.000000,0.434588,2.000000
19,0.000006,0.886864,0.976285,0.000000,0.000000,0.312849,0.238515,0.652178,1.000000,1.000000,0.397273,0.000000,0.046009,0.989143,0.826445,0.000000,2.000000
20,0.000006,0.886864,0.976285,0.000000,0.000000,0.312849,0.238515,0.652178,1.000000,1.000000,0.397273,0.000000,0.046009,0.989143,0.826445,0.000000,2.000000
21,0.000006,0.886864,0.976285,0.000000,0.000000,0.312849,0.238515,0.652178,1.000000,1.000000,0.397273,0.000000,0.046009,0.989143,0.826445,0.000000,2.000000
22,0.000006,0.886864,0.976285,0.000000,0.000000,0.312849,0.238515,0.652178,1.000000,1.000000,0.397273,0.000000,0.046009,0.989143,0.826445,0.000000,2.000000
23,0.000001,0.871705,0.823303,0.000000,0.000000,0.282895,0.474898,0.590233,1.000000,1.000000,0.024540,0.000000,0.000000,0.694700,0.964833,0.261489,0.000000
gen, fitness
0,0.011444,0.000000,1.000000,0.210000,0.800000,0.030000,0.030000,1.000000,0.000000,1.000000,0.000000,0.000000,0.600000,1.000000,1.000000,0.000000,0.000000
1,0.011444,0.000000,1.000000,0.210000,0.800000,0.030000,0.030000,1.000000,0.000000,1.000000,0.000000,0.000000,0.600000,1.000000,1.000000,0.000000,0.000000
2,0.006208,0.089702,1.000000,0.337437,0.596246,0.018640,0.106415,0.964095,1.000000,1.000000,0.037305,0.025128,0.582951,1.000000,1.000000,0.000000,2.000000
3,0.003304,0.000000,1.000000,0.146562,0.686122,0.016372,0.030000,0.929127,0.000000,1.000000,0.041763,0.000000,0.502842,1.000000,1.000000,0.000000,2.000000
4,0.001585,0.261147,1.000000,0.098235,0.629001,0.084030,0.000000,0.867670,1.000000,0.953903,0.000000,0.015566,0.469097,1.000000,0.996265,0.201831,1.000000
5,0.000582,0.084323,0.741632,0.000000,0.664944,0.096230,0.118974,1.000000,0.000000,1.000000,0.113763,0.026435,0.323498,1.000000,1.000000,0.000000,0.000000
6,0.000119,0.346952,1.000000,0.128271,0.430552,0.000000,0.015374,0.939153,0.000000,1.000000,0.154849,0.000000,0.299064,0.937610,1.000000,0.187218,2.000000
7,0.000095,0.082956,0.826406,0.050689,0.533702,0.000000,0.218961,0.880045,0.000000,1.000000,0.057753,0.008288,0.215202,0.895486,1.000000,0.010729,2.000000
8,0.000033,0.373521,0.889284,0.072961,0.337059,0.181340,0.140050,0.994049,2.000000,0.697203,0.206312,0.000000,0.298203,1.000000,0.949948,0.130991,0.000000
9,0.000012,0.105387,0.907259,0.139450,0.427839,0.000000,0.218961,0.792988,1.000000,1.000000,0.079390,0.000000,0.152313,0.883411,0.990734,0.216958,0.000000
10,0.000012,0.105387,0.907259,0.139450,0.427839,0.000000,0.218961,0.792988,1.000000,1.000000,0.079390,0.000000,0.152313,0.883411,0.990734,0.216958,0.000000
11,0.000012,0.105387,0.907259,0.139450,0.427839,0.000000,0.218961,0.792988,1.000000,1.000000,0.079390,0.000000,0.152313,0.883411,0.990734,0.216958,0.000000
12,0.000004,0.342437,0.962881,0.113793,0.430051,0.023049,0.000000,0.964189,2.000000,0.957349,0.000000,0.082045,0.179239,0.959752,0.836886,0.267249,2.000000
13,0.000004,0.342437,0.962881,0.113793,0.430051,0.023049,0.000000,0.964189,2.000000,0.957349,0.000000,0.082045,0.179239,0.959752,0.836886,0.267249,2.000000
14,0.000002,0.105387,0.907259,0.027753,0.533208,0.000000,0.251835,0.947162,1.000000,1.000000,0.126306,0.000000,0.184431,1.000000,0.964480,0.037141,0.000000
15,0.000002,0.105387,0.907259,0.027753,0.533208,0.000000,0.251835,0.947162,1.000000,1.000000,0.126306,0.000000,0.184431,1.000000,0.964480,0.037141,0.000000
16,0.000002,0.105387,0.907259,0.027753,0.533208,0.000000,0.251835,0.947162,1.000000,1.000000,0.126306,0.000000,0.184431,1.000000,0.964480,0.037141,0.000000
17,0.000002,0.105387,0.907259,0.027753,0.533208,0.000000,0.251835,0.947162,1.000000,1.000000,0.126306,0.000000,0.184431,1.000000,0.964480,0.037141,0.000000
18,0.000002,0.105387,0.907259,0.027753,0.533208,0.000000,0.251835,0.947162,1.000000,1.000000,0.126306,0.000000,0.184431,1.000000,0.964480,0.037141,0.000000
19,0.000002,0.105387,0.907259,0.027753,0.533208,0.000000,0.251835,0.947162,1.000000,1.000000,0.126306,0.000000,0.184431,1.000000,0.964480,0.037141,0.000000
gen, fitness
0,0.010533,0.000000,1.000000,0.210000,0.800000,0.030000,0.030000,1.000000,0.000000,1.000000,0.000000,0.000000,0.600000,1.000000,1.000000,0.000000,0.000000
1,0.010533,0.000000,1.000000,0.210000,0.800000,0.030000,0.030000,1.000000,0.000000,1.000000,0.000000,0.000000,0.600000,1.000000,1.000000,0.000000,0.000000
2,0.001341,0.000000,1.000000,0.000000,0.717369,0.030000,0.030000,1.000000,2.000000,1.000000,0.000000,0.000000,0.505619,0.989117,0.907044,0.081195,2.000000
3,0.000909,0.000000,1.000000,0.000000,0.717369,0.018095,0.030000,0.940023,2.000000,0.885269,0.184155,0.000000,0.484017,0.935172,1.000000,0.071629,2.000000
4,0.000256,0.170035,0.997858,0.010746,0.677317,0.000000,0.071447,0.878369,2.000000,0.953479,0.000000,0.000000,0.467615,0.893144,0.979090,0.000000,1.000000
5,0.000177,0.005301,0.978131,0.000000,0.690855,0.000000,0.042038,1.000000,0.000000,1.000000,0.058198,0.025898,0.344912,1.000000,0.835430,0.000000,1.000000
6,0.000165,0.261870,1.000000,0.122249,0.597108,0.253094,0.000000,0.872021,1.000000,0.967704,0.091269,0.043231,0.449369,0.832353,0.932129,0.044487,1.000000
7,0.000057,0.105162,0.881208,0.000000,0.656180,0.000000,0.044538,0.962059,2.000000,0.984632,0.000000,0.000000,0.389228,1.000000,0.866920,0.000000,1.000000
8,0.000011,0.005301,1.000000,0.000000,0.623874,0.000000,0.000000,1.000000,2.000000,1.000000,0.143317,0.033965,0.254776,0.906011,0.840720,0.000000,2.000000
9,0.000011,0.005301,1.000000,0.000000,0.623874,0.000000,0.000000,1.000000,2.000000,1.000000,0.143317,0.033965,0.254776,0.906011,0.840720,0.000000,2.000000
10,0.000011,0.005301,1.000000,0.000000,0.623874,0.000000,0.000000,1.000000,2.000000,1.000000,0.143317,0.033965,0.254776,0.906011,0.840720,0.000000,2.000000
11,0.000004,0.015603,0.970273,0.118103,0.565759,0.000000,0.340891,0.741702,1.000000,1.000000,0.189050,0.068581,0.252070,0.930081,0.908936,0.000000,0.000000
12,0.000004,0.015603,0.970273,0.118103,0.565759,0.000000,0.340891,0.741702,1.000000,1.000000,0.189050,0.068581,0.252070,0.930081,0.908936,0.000000,0.000000
13,0.000004,0.015603,0.970273,0.118103,0.565759,0.000000,0.340891,0.741702,1.000000,1.000000,0.189050,0.068581,0.252070,0.930081,0.908936,0.000000,0.000000
14,0.000004,0.015603,0.970273,0.118103,0.565759,0.000000,0.340891,0.741702,1.000000,1.000000,0.189050,0.068581,0.252070,0.930081,0.908936,0.000000,0.000000
15,0.000004,0.015603,0.970273,0.118103,0.565759,0.000000,0.340891,0.741702,1.000000,1.000000,0.189050,0.068581,0.252070,0.930081,0.908936,0.000000,0.000000
16,0.000004,0.015603,0.970273,0.118103,0.565759,0.000000,0.340891,0.741702,1.000000,1.000000,0.189050,0.068581,0.252070,0.930081,0.908936,0.000000,0.000000
17,0.000004,0.015603,0.970273,0.118103,0.565759,0.000000,0.340891,0.741702,1.000000,1.000000,0.189050,0.068581,0.252070,0.930081,0.908936,0.000000,0.000000
18,0.000004,0.015603,0.970273,0.118103,0.565759,0.000000,0.340891,0.741702,1.000000,1.000000,0.189050,0.068581,0.252070,0.930081,0.908936,0.000000,0.000000
gen, fitness
0,0.067934,0.000000,1.000000,0.210000,0.800000,0.030000,0.030000,1.000000,0.000000,1.000000,0.000000,0.000000,0.600000,1.000000,1.000000,0.000000,0.000000
1,0.067934,0.000000,1.000000,0.210000,0.800000,0.030000,0.030000,1.000000,0.000000,1.000000,0.000000,0.000000,0.600000,1.000000,1.000000,0.000000,0.000000
2,0.041123,0.081852,1.000000,0.212207,0.663942,0.000000,0.000000,0.970888,0.000000,1.000000,0.000000,0.000000,0.520680,0.965954,1.000000,0.000000,2.000000
3,0.032261,0.071368,1.000000,0.008219,0.692092,0.000000,0.074141,1.000000,0.000000,1.000000,0.107981,0.000000,0.508646,1.000000,1.000000,0.083878,0.000000
4,0.024582,0.028199,0.829486,0.000000,0.529717,0.017791,0.087856,0.816577,1.000000,0.837107,0.152705,0.000000,0.388329,0.885321,1.000000,0.113422,2.000000
5,0.020476,0.048755,0.834775,0.166086,0.529717,0.017791,0.190831,0.816577,0.000000,0.890561,0.152705,0.000000,0.242801,0.932452,1.000000,0.053882,1.000000
6,0.017072,0.000000,0.954296,0.000000,0.611575,0.192231,0.096058,0.900088,2.000000,0.922769,0.211013,0.000000,0.221011,1.000000,1.000000,0.102173,0.000000
7,0.005152,0.117618,0.676573,0.052624,0.415962,0.007642,0.075240,1.000000,2.000000,1.000000,0.039504,0.032657,0.052861,1.000000,0.910997,0.151558,0.000000
8,0.001948,0.352416,0.991276,0.000000,0.427078,0.000000,0.055698,0.971126,0.000000,1.000000,0.095293,0.088353,0.000000,0.865165,0.973593,0.097295,2.000000
9,0.000481,0.352416,1.000000,0.038977,0.224720,0.000000,0.055698,0.971126,2.000000,0.968443,0.319443,0.000000,0.003364,0.872759,0.929678,0.000000,1.000000
10,0.000216,0.352416,0.941539,0.060933,0.247871,0.037400,0.043656,0.954766,1.000000,1.000000,0.319443,0.000000,0.000000,0.871000,0.971019,0.000000,2.000000
11,0.000100,0.405137,0.601608,0.000000,0.277799,0.000000,0.220152,1.000000,1.000000,0.950172,0.062868,0.014722,0.000000,0.929892,0.977100,0.000000,1.000000
12,0.000044,0.389118,0.768118,0.000000,0.325067,0.062187,0.006130,0.335757,1.000000,0.910529,0.312608,0.000000,0.000000,1.000000,0.843326,0.050103,2.000000
13,0.000044,0.389118,0.768118,0.000000,0.325067,0.062187,0.006130,0.335757,1.000000,0.910529,0.312608,0.000000,0.000000,1.000000,0.843326,0.050103,2.000000
14,0.000036,0.494629,0.627116,0.000000,0.325067,0.005263,0.130431,0.368006,0.000000,0.979707,0.332909,0.000000,0.000000,0.809309,0.843326,0.098425,1.000000
15,0.000022,0.502293,0.536259,0.000000,0.215624,0.000000,0.163067,1.000000,2.000000,0.835426,0.021781,0.000000,0.012501,0.552081,0.890137,0.246288,1.000000
16,0.000002,0.457066,0.716506,0.041510,0.270302,0.046928,0.011600,0.243024,1.000000,0.888219,0.342908,0.000000,0.000000,0.750691,0.774142,0.098425,2.000000
17,0.000000,0.509800,0.620597,0.161742,0.106351,0.139802,0.261213,0.860391,1.000000,1.000000,0.000000,0.000000,0.000000,0.779912,0.994191,0.105466,2.000000
gen, fitness
0,0.030614,0.000000,1.000000,0.210000,0.800000,0.030000,0.030000,1.000000,0.000000,1.000000,0.000000,0.000000,0.600000,1.000000,1.000000,0.000000,0.000000
1,0.030614,0.000000,1.000000,0.210000,0.800000,0.030000,0.030000,1.000000,0.000000,1.000000,0.000000,0.000000,0.600000,1.000000,1.000000,0.000000,0.000000
2,0.011500,0.020072,1.000000,0.247178,0.622710,0.241441,0.030000,1.000000,1.000000,1.000000,0.000000,0.015200,0.456750,1.000000,0.848646,0.042313,0.000000
3,0.010944,0.028190,1.000000,0.117393,0.641224,0.000000,0.213767,0.808467,2.000000,1.000000,0.000000,0.185398,0.362740,0.940569,0.821073,0.181508,0.000000
4,0.004892,0.062210,0.685580,0.236349,0.457742,0.184885,0.000000,0.986625,0.000000,0.887928,0.000000,0.135800,0.184511,0.909067,0.878679,0.000000,2.000000
5,0.002730,0.140520,0.871728,0.106838,0.474432,0.047642,0.114751,0.698440,2.000000,0.841008,0.240731,0.096751,0.234950,0.786433,1.000000,0.077875,0.000000
6,0.001133,0.071337,0.732159,0.161732,0.363211,0.095349,0.018689,0.790544,1.000000,0.910527,0.014345,0.000000,0.207822,0.566008,0.770877,0.023864,1.000000
7,0.001061,0.014335,0.854219,0.164968,0.385989,0.069506,0.091834,0.757696,1.000000,0.927981,0.338772,0.000000,0.162140,0.888072,1.000000,0.142349,1.000000
8,0.000172,0.132794,0.791429,0.000000,0.452128,0.115300,0.380596,0.338981,1.000000,0.851095,0.000000,0.000000,0.063981,1.000000,1.000000,0.091710,0.000000
9,0.000036,0.132794,0.791429,0.000000,0.452128,0.153520,0.318825,0.188939,1.000000,0.851095,0.000000,0.000000,0.063981,0.772827,1.000000,0.129512,2.000000
10,0.000036,0.132794,0.791429,0.000000,0.452128,0.153520,0.318825,0.188939,1.000000,0.851095,0.000000,0.000000,0.063981,0.772827,1.000000,0.129512,2.000000
11,0.000004,0.000000,0.903488,0.000000,0.447159,0.039932,0.383053,0.188939,2.000000,0.851095,0.000000,0.000000,0.000000,0.688738,1.000000,0.236214,1.000000
12,0.000004,0.000000,0.903488,0.000000,0.447159,0.039932,0.383053,0.188939,2.000000,0.851095,0.000000,0.000000,0.000000,0.688738,1.000000,0.236214,1.000000
13,0.000004,0.000000,0.903488,0.000000,0.447159,0.039932,0.383053,0.188939,2.000000,0.851095,0.000000,0.000000,0.000000,0.688738,1.000000,0.236214,1.000000
14,0.000004,0.000000,0.903488,0.000000,0.447159,0.039932,0.383053,0.188939,2.000000,0.851095,0.000000,0.000000,0.000000,0.688738,1.000000,0.236214,1.000000
15,0.000004,0.000000,0.903488,0.000000,0.447159,0.039932,0.383053,0.188939,2.000000,0.851095,0.000000,0.000000,0.000000,0.688738,1.000000,0.236214,1.000000
16,0.000004,0.000000,0.903488,0.000000,0.447159,0.039932,0.383053,0.188939,2.000000,0.851095,0.000000,0.000000,0.000000,0.688738,1.000000,0.236214,1.000000
17,0.000002,0.063982,0.540769,0.000000,0.388789,0.135108,0.302177,0.175968,2.000000,0.713964,0.022660,0.000000,0.061036,0.842683,0.834488,0.000000,0.000000
18,0.000002,0.063982,0.540769,0.000000,0.388789,0.135108,0.302177,0.175968,2.000000,0.713964,0.022660,0.000000,0.061036,0.842683,0.834488,0.000000,0.000000
19,0.000002,0.000000,0.592960,0.147934,0.237480,0.468658,0.000000,0.205654,0.000000,0.698576,0.000000,0.000000,0.000000,0.602392,0.847267,0.078888,2.000000
20,0.000002,0.000000,0.592960,0.147934,0.237480,0.468658,0.000000,0.205654,0.000000,0.698576,0.000000,0.000000,0.000000,0.602392,0.847267,0.078888,2.000000
21,0.000001,0.000000,0.688926,0.224823,0.213517,0.296100,0.186512,0.189873,0.000000,0.797875,0.107730,0.018838,0.000000,0.930152,0.880759,0.000000,0.000000
gen, fitness
0,0.009712,0.000000,1.000000,0.210000,0.800000,0.030000,0.030000,1.000000,0.000000,1.000000,0.000000,0.000000,0.600000,1.000000,1.000000,0.000000,0.000000
1,0.009712,0.000000,1.000000,0.210000,0.800000,0.030000,0.030000,1.000000,0.000000,1.000000,0.000000,0.000000,0.600000,1.000000,1.000000,0.000000,0.000000
2,0.000692,0.000000,1.000000,0.013891,0.752740,0.037204,0.000000,1.000000,1.000000,1.000000,0.000000,0.041951,0.580579,1.000000,0.988513,0.000000,2.000000
3,0.000207,0.000000,1.000000,0.146669,0.706064,0.000000,0.018305,1.000000,0.000000,0.967148,0.094365,0.000000,0.570799,0.830394,0.946554,0.000000,0.000000
4,0.000098,0.000000,1.000000,0.245981,0.627202,0.000000,0.000000,0.741025,0.000000,1.000000,0.546457,0.028628,0.522295,0.984805,1.000000,0.000000,2.000000
5,0.000018,0.000000,1.000000,0.236568,0.604943,0.000000,0.029852,0.741025,2.000000,0.868339,0.535979,0.018423,0.531910,0.942044,0.863592,0.054317,1.000000
6,0.000009,0.057422,0.878410,0.005085,0.722373,0.138390,0.014981,1.000000,1.000000,1.000000,0.046273,0.082240,0.460166,1.000000,1.000000,0.202777,0.000000
7,0.000009,0.057422,0.878410,0.005085,0.722373,0.138390,0.014981,1.000000,1.000000,1.000000,0.046273,0.082240,0.460166,1.000000,1.000000,0.202777,0.000000
8,0.000009,0.057422,0.878410,0.005085,0.722373,0.138390,0.014981,1.000000,1.000000,1.000000,0.046273,0.082240,0.460166,1.000000,1.000000,0.202777,0.000000
9,0.000009,0.057422,0.878410,0.005085,0.722373,0.138390,0.014981,1.000000,1.000000,1.000000,0.046273,0.082240,0.460166,1.000000,1.000000,0.202777,0.000000
10,0.000009,0.057422,0.878410,0.005085,0.722373,0.138390,0.014981,1.000000,1.000000,1.000000,0.046273,0.082240,0.460166,1.000000,1.000000,0.202777,0.000000
11,0.000009,0.057422,0.878410,0.005085,0.722373,0.138390,0.014981,1.000000,1.000000,1.000000,0.046273,0.082240,0.460166,1.000000,1.000000,0.202777,0.000000
12,0.000002,0.133559,0.703846,0.114164,0.618911,0.000000,0.000000,0.929570,2.000000,0.786708,0.000000,0.006795,0.524335,1.000000,0.797958,0.464706,0.000000
13,0.000002,0.133559,0.703846,0.114164,0.618911,0.000000,0.000000,0.929570,2.000000,0.786708,0.000000,0.006795,0.524335,1.000000,0.797958,0.464706,0.000000
14,0.000002,0.133559,0.703846,0.114164,0.618911,0.000000,0.000000,0.929570,2.000000,0.786708,0.000000,0.006795,0.524335,1.000000,0.797958,0.464706,0.000000
15,0.000002,0.133559,0.703846,0.114164,0.618911,0.000000,0.000000,0.929570,2.000000,0.786708,0.000000,0.006795,0.524335,1.000000,0.797958,0.464706,0.000000
gen, fitness
0,0.026348,0.000000,1.000000,0.210000,0.800000,0.030000,0.030000,1.000000,0.000000,1.000000,0.000000,0.000000,0.600000,1.000000,1.000000,0.000000,0.000000
1,0.026348,0.000000,1.000000,0.210000,0.800000,0.030000,0.030000,1.000000,0.000000,1.000000,0.000000,0.000000,0.600000,1.000000,1.000000,0.000000,0.000000
2,0.012531,0.043609,0.890517,0.169507,0.703267,0.000000,0.080762,1.000000,0.000000,0.896943,0.096806,0.000000,0.600000,1.000000,0.786760,0.000000,1.000000
3,0.001974,0.068148,0.917744,0.096658,0.554176,0.131889,0.109693,1.000000,0.000000,0.942294,0.000000,0.000000,0.376907,0.992455,0.882606,0.000000,1.000000
4,0.001974,0.068148,0.917744,0.096658,0.554176,0.131889,0.109693,1.000000,0.000000,0.942294,0.000000,0.000000,0.376907,0.992455,0.882606,0.000000,1.000000
5,0.000411,0.000000,1.000000,0.049054,0.554176,0.028647,0.021007,0.968896,1.000000,1.000000,0.000000,0.000000,0.233034,0.958778,0.928567,0.000000,1.000000
6,0.000062,0.365044,1.000000,0.067265,0.475717,0.000000,0.033439,0.666806,1.000000,0.924535,0.079692,0.078254,0.255853,0.858279,0.610880,0.000000,1.000000
7,0.000002,0.447265,1.000000,0.055936,0.410266,0.000000,0.081962,0.784192,2.000000,0.877415,0.172848,0.058703,0.255853,0.534071,0.553512,0.056368,1.000000
8,0.000002,0.447265,1.000000,0.055936,0.410266,0.000000,0.081962,0.784192,2.000000,0.877415,0.172848,0.058703,0.255853,0.534071,0.553512,0.056368,1.000000
9,0.000002,0.447265,1.000000,0.055936,0.410266,0.000000,0.081962,0.784192,2.000000,0.877415,0.172848,0.058703,0.255853,0.534071,0.553512,0.056368,1.000000
10,0.000002,0.447265,1.000000,0.055936,0.410266,0.000000,0.081962,0.784192,2.000000,0.877415,0.172848,0.058703,0.255853,0.534071,0.553512,0.056368,1.000000
11,0.000002,0.447265,1.000000,0.055936,0.410266,0.000000,0.081962,0.784192,2.000000,0.877415,0.172848,0.058703,0.255853,0.534071,0.553512,0.056368,1.000000
12,0.000002,0.447265,1.000000,0.055936,0.410266,0.000000,0.081962,0.784192,2.000000,0.877415,0.172848,0.058703,0.255853,0.534071,0.553512,0.056368,1.000000
13,0.000002,0.447265,1.000000,0.055936,0.410266,0.000000,0.081962,0.784192,2.000000,0.877415,0.172848,0.058703,0.255853,0.534071,0.553512,0.056368,1.000000
14,0.000002,0.447265,1.000000,0.055936,0.410266,0.000000,0.081962,0.784192,2.000000,0.877415,0.172848,0.058703,0.255853,0.534071,0.553512,0.056368,1.000000
15,0.000002,0.447265,1.000000,0.055936,0.410266,0.000000,0.081962,0.784192,2.000000,0.877415,0.172848,0.058703,0.255853,0.534071,0.553512,0.056368,1.000000
16,0.000002,0.447265,1.000000,0.055936,0.410266,0.000000,0.081962,0.784192,2.000000,0.877415,0.172848,0.058703,0.255853,0.534071,0.553512,0.056368,1.000000
17,0.000002,0.447265,1.000000,0.055936,0.410266,0.000000,0.081962,0.784192,2.000000,0.877415,0.172848,0.058703,0.255853,0.534071,0.553512,0.056368,1.000000
gen, fitness
0,0.052335,0.000000,1.000000,0.210000,0.800000,0.030000,0.030000,1.000000,0.000000,1.000000,0.000000,0.000000,0.600000,1.000000,1.000000,0.000000,0.000000
1,0.052335,0.000000,1.000000,0.210000,0.800000,0.030000,0.030000,1.000000,0.000000,1.000000,0.000000,0.000000,0.600000,1.000000,1.000000,0.000000,0.000000
2,0.021225,0.011344,1.000000,0.161803,0.620954,0.030000,0.000000,0.891866,1.000000,0.857669,0.000000,0.000000,0.491115,1.000000,1.000000,0.000000,0.000000
3,0.017085,0.000000,1.000000,0.300002,0.503859,0.000000,0.000000,1.000000,2.000000,1.000000,0.000000,0.000000,0.397028,1.000000,1.000000,0.000000,1.000000
4,0.008747,0.017377,0.881682,0.051047,0.573538,0.000000,0.248159,0.975675,1.000000,0.946368,0.000000,0.000000,0.296257,1.000000,0.906061,0.222318,0.000000
5,0.008115,0.017377,0.935385,0.018039,0.593792,0.000000,0.248159,0.843285,0.000000,0.935885,0.000000,0.001490,0.296257,1.000000,0.799999,0.222318,1.000000
6,0.006431,0.216905,0.709370,0.264750,0.244826,0.106561,0.134581,0.910209,0.000000,0.678615,0.066009,0.069421,0.221986,1.000000,0.931973,0.339957,1.000000
7,0.002152,0.416503,0.780794,0.264750,0.165659,0.118954,0.329235,0.837653,0.000000,0.817359,0.066009,0.069421,0.167449,0.963141,0.900109,0.391028,2.000000
8,0.002027,0.416503,0.780794,0.225435,0.165659,0.118954,0.328988,0.613634,1.000000,0.681672,0.044512,0.000000,0.167449,0.906950,1.000000,0.391028,1.000000
9,0.000290,0.416503,0.701813,0.129281,0.165659,0.084443,0.383885,0.899929,1.000000,0.817359,0.003947,0.016373,0.116462,1.000000,0.931265,0.308661,2.000000
10,0.000064,0.428006,0.890367,0.117708,0.180346,0.156266,0.299361,0.629922,1.000000,0.881222,0.125107,0.030754,0.000000,0.861853,0.719621,0.312366,2.000000
11,0.000064,0.428006,0.890367,0.117708,0.180346,0.156266,0.299361,0.629922,1.000000,0.881222,0.125107,0.030754,0.000000,0.861853,0.719621,0.312366,2.000000
12,0.000000,0.399293,0.770747,0.022352,0.298598,0.205242,0.310485,1.000000,0.000000,0.894736,0.112560,0.060537,0.000000,1.000000,0.931474,0.308661,0.000000
gen, fitness
0,0.080636,0.000000,1.000000,0.210000,0.800000,0.030000,0.030000,1.000000,0.000000,1.000000,0.000000,0.000000,0.600000,1.000000,1.000000,0.000000,0.000000
1,0.080636,0.000000,1.000000,0.210000,0.800000,0.030000,0.030000,1.000000,0.000000,1.000000,0.000000,0.000000,0.600000,1.000000,1.000000,0.000000,0.000000
2,0.058736,0.079564,0.866703,0.053624,0.747441,0.160449,0.030000,1.000000,2.000000,1.000000,0.006752,0.093426,0.600000,0.835174,1.000000,0.000000,0.000000
3,0.035020,0.000000,1.000000,0.055500,0.668803,0.018425,0.224027,1.000000,0.000000,0.991185,0.077996,0.000000,0.248525,1.000000,0.972987,0.000000,2.000000
4,0.029950,0.091433,1.000000,0.148231,0.547099,0.000000,0.314905,0.775607,0.000000,1.000000,0.006774,0.086939,0.382646,0.940219,0.923612,0.027959,0.000000
5,0.017369,0.120564,1.000000,0.099803,0.343204,0.198712,0.065937,1.000000,1.000000,0.602473,0.093764,0.000000,0.250916,1.000000,0.749247,0.060966,1.000000
6,0.007641,0.120564,1.000000,0.099803,0.144592,0.198712,0.026032,0.939328,2.000000,0.602473,0.093764,0.000000,0.172728,0.989128,0.831873,0.000000,0.000000
7,0.007403,0.204004,1.000000,0.101936,0.144592,0.261822,0.166106,0.829671,1.000000,0.602473,0.014157,0.000000,0.202077,1.000000,0.874759,0.026630,2.000000
8,0.004358,0.336522,0.933821,0.101936,0.100956,0.249158,0.051834,0.781907,0.000000,0.649370,0.000000,0.000000,0.202077,0.981070,0.765713,0.023554,0.000000
9,0.003061,0.130184,1.000000,0.015938,0.247156,0.267862,0.420884,0.990233,2.000000,1.000000,0.062526,0.000000,0.019514,1.000000,0.808740,0.000000,1.000000
10,0.000872,0.545864,1.000000,0.000000,0.147524,0.341930,0.000000,0.624143,2.000000,0.649370,0.113262,0.000000,0.121595,0.903828,0.756522,0.023554,2.000000
11,0.000096,0.489968,0.892131,0.000000,0.027514,0.358659,0.063856,0.555463,1.000000,0.597156,0.169685,0.000000,0.000000,0.815558,0.991883,0.256270,2.000000
12,0.000027,0.440829,1.000000,0.000000,0.046195,0.278180,0.201624,0.777333,2.000000,0.671176,0.042520,0.000000,0.000000,1.000000,0.477586,0.024607,2.000000
13,0.000027,0.440829,1.000000,0.000000,0.046195,0.278180,0.201624,0.777333,2.000000,0.671176,0.042520,0.000000,0.000000,1.000000,0.477586,0.024607,2.000000
14,0.000001,0.438534,0.741617,0.009603,0.000000,0.235408,0.141441,0.833495,1.000000,0.591818,0.000000,0.000000,0.000000,1.000000,0.591735,0.010482,2.000000
gen, fitness
0,0.025383,0.000000,1.000000,0.210000,0.800000,0.030000,0.030000,1.000000,0.000000,1.000000,0.000000,0.000000,0.600000,1.000000,1.000000,0.000000,0.000000
1,0.025383,0.000000,1.000000,0.210000,0.800000,0.030000,0.030000,1.000000,0.000000,1.000000,0.000000,0.000000,0.600000,1.000000,1.000000,0.000000,0.000000
2,0.007802,0.050362,0.902793,0.000000,0.727720,0.000000,0.146265,1.000000,0.000000,1.000000,0.000000,0.089613,0.482517,1.000000,0.932359,0.200536,0.000000
3,0.004162,0.169178,0.821004,0.000000,0.683798,0.039795,0.464993,0.800564,0.000000,0.955295,0.084294,0.000000,0.493356,0.953288,1.000000,0.000000,0.000000
4,0.003654,0.184625,0.984727,0.176861,0.525232,0.034054,0.000000,1.000000,0.000000,0.967602,0.000000,0.000000,0.448284,0.911123,1.000000,0.058946,2.000000
5,0.000617,0.403609,0.713889,0.016385,0.512195,0.226958,0.422665,0.829046,0.000000,0.955295,0.159619,0.000000,0.381230,0.856969,0.977404,0.000000,0.000000
6,0.000221,0.298003,0.850469,0.076218,0.394263,0.297599,0.000000,0.959413,0.000000,0.873412,0.205100,0.000000,0.292084,0.936964,0.974613,0.000000,0.000000
7,0.000115,0.295912,0.798299,0.000000,0.394263,0.218795,0.000000,0.959413,1.000000,0.823149,0.205100,0.000000,0.234278,0.936964,0.948715,0.002103,2.000000
8,0.000115,0.295912,0.798299,0.000000,0.394263,0.218795,0.000000,0.959413,1.000000,0.823149,0.205100,0.000000,0.234278,0.936964,0.948715,0.002103,2.000000
9,0.000076,0.295912,0.562429,0.000000,0.408395,0.307297,0.231988,0.805119,0.000000,0.838498,0.224152,0.000000,0.166137,1.000000,0.859429,0.088969,1.000000
10,0.000010,0.000000,0.795359,0.041826,0.423261,0.061035,0.000000,0.773489,0.000000,0.846379,0.301390,0.068699,0.000000,0.910963,0.984690,0.098642,0.000000
11,0.000010,0.000000,0.795359,0.041826,0.423261,0.061035,0.000000,0.773489,0.000000,0.846379,0.301390,0.068699,0.000000,0.910963,0.984690,0.098642,0.000000
12,0.000001,0.224055,0.785458,0.240581,0.248324,0.368831,0.000000,0.689477,1.000000,1.000000,0.107168,0.000000,0.157813,0.841588,1.000000,0.007393,2.000000
13,0.000001,0.224055,0.785458,0.240581,0.248324,0.368831,0.000000,0.689477,1.000000,1.000000,0.107168,0.000000,0.157813,0.841588,1.000000,0.007393,2.000000
14,0.000001,0.224055,0.785458,0.240581,0.248324,0.368831,0.000000,0.689477,1.000000,1.000000,0.107168,0.000000,0.157813,0.841588,1.000000,0.007393,2.000000
15,0.000001,0.224055,0.785458,0.240581,0.248324,0.368831,0.000000,0.689477,1.000000,1.000000,0.107168,0.000000,0.157813,0.841588,1.000000,0.007393,2.000000
16,0.000001,0.224055,0.785458,0.240581,0.248324,0.368831,0.000000,0.689477,1.000000,1.000000,0.107168,0.000000,0.157813,0.841588,1.000000,0.007393,2.000000
17,0.000001,0.224055,0.785458,0.240581,0.248324,0.368831,0.000000,0.689477,1.000000,1.000000,0.107168,0.000000,0.157813,0.841588,1.000000,0.007393,2.000000
18,0.000001,0.224055,0.785458,0.240581,0.248324,0.368831,0.000000,0.689477,1.000000,1.000000,0.107168,0.000000,0.157813,0.841588,1.000000,0.007393,2.000000
19,0.000001,0.224055,0.785458,0.240581,0.248324,0.368831,0.000000,0.689477,1.000000,1.000000,0.107168,0.000000,0.157813,0.841588,1.000000,0.007393,2.000000
20,0.000001,0.224055,0.785458,0.240581,0.248324,0.368831,0.000000,0.689477,1.000000,1.000000,0.107168,0.000000,0.157813,0.841588,1.000000,0.007393,2.000000
