gen, fitness
0,0.094016,0.000000,1.000000,0.210000,0.800000,0.030000,0.030000,1.000000,0.000000,1.000000,0.000000,0.000000,0.600000,1.000000,1.000000,0.000000,0.000000
1,0.094016,0.000000,1.000000,0.210000,0.800000,0.030000,0.030000,1.000000,0.000000,1.000000,0.000000,0.000000,0.600000,1.000000,1.000000,0.000000,0.000000
2,0.062464,0.000000,1.000000,0.210000,0.611214,0.030000,0.030000,1.000000,0.000000,1.000000,0.000000,0.000000,0.600000,0.954398,1.000000,0.000000,0.000000
3,0.054434,0.000000,1.000000,0.247049,0.611214,0.030000,0.077847,0.838711,0.000000,1.000000,0.000000,0.088838,0.427478,0.995945,1.000000,0.000000,2.000000
4,0.047162,0.046770,1.000000,0.070170,0.611214,0.030000,0.077847,0.838711,2.000000,1.000000,0.000000,0.220682,0.339167,0.995945,0.950424,0.000000,0.000000
5,0.037944,0.000000,0.885621,0.048543,0.611214,0.000000,0.077847,0.838711,2.000000,1.000000,0.000000,0.088838,0.260956,1.000000,1.000000,0.109501,1.000000
6,0.031743,0.000000,1.000000,0.000000,0.611214,0.047733,0.080859,0.999005,1.000000,1.000000,0.000000,0.000000,0.265697,1.000000,1.000000,0.000000,1.000000
7,0.026684,0.000000,1.000000,0.000000,0.469155,0.000000,0.080859,0.964234,0.000000,1.000000,0.000000,0.000000,0.265697,1.000000,0.798864,0.000000,2.000000
8,0.024358,0.082772,0.810498,0.118842,0.447502,0.025445,0.014873,0.835896,1.000000,1.000000,0.462683,0.000000,0.111690,0.886630,0.928007,0.187443,2.000000
9,0.019215,0.162242,0.876372,0.000000,0.451809,0.070589,0.000000,0.919622,0.000000,0.954746,0.157055,0.000000,0.171702,1.000000,1.000000,0.309167,2.000000
10,0.013780,0.082772,1.000000,0.000000,0.392571,0.000000,0.135934,0.964234,0.000000,1.000000,0.006615,0.000000,0.057006,0.977447,0.933149,0.357824,1.000000
11,0.011192,0.237738,0.785406,0.048543,0.190157,0.000000,0.111853,0.964234,0.000000,0.922948,0.088452,0.000000,0.156872,1.000000,1.000000,0.000000,0.000000
12,0.004638,0.314685,0.785406,0.048543,0.190157,0.154414,0.046789,0.889680,1.000000,1.000000,0.000000,0.000000,0.000000,0.998486,0.836574,0.095031,2.000000
13,0.004638,0.314685,0.785406,0.048543,0.190157,0.154414,0.046789,0.889680,1.000000,1.000000,0.000000,0.000000,0.000000,0.998486,0.836574,0.095031,2.000000
14,0.004396,0.292392,1.000000,0.000000,0.231076,0.141965,0.017409,0.811490,2.000000,1.000000,0.000000,0.000000,0.000000,0.998486,0.938387,0.093793,2.000000
15,0.002771,0.450668,0.785406,0.000000,0.190157,0.154414,0.000000,0.932245,1.000000,1.000000,0.000000,0.000000,0.000000,0.710735,0.330133,0.024152,0.000000
16,0.001704,0.525477,0.649568,0.048543,0.000000,0.245326,0.075944,0.964234,1.000000,1.000000,0.000000,0.000000,0.029765,0.846187,0.799553,0.000000,2.000000
17,0.001094,0.635092,0.649568,0.000000,0.102909,0.154414,0.133314,0.970502,1.000000,1.000000,0.000000,0.000000,0.000000,0.693271,1.000000,0.285161,1.000000
18,0.000970,0.635092,0.649568,0.000000,0.102909,0.211855,0.133314,0.970502,1.000000,1.000000,0.000000,0.000000,0.000000,0.885179,1.000000,0.038301,0.000000
19,0.000303,0.635092,0.649568,0.000000,0.000000,0.158816,0.107504,0.726225,0.000000,0.904209,0.000000,0.000000,0.000000,0.710830,0.461923,0.022215,0.000000
20,0.000213,0.726008,0.606089,0.006385,0.026130,0.319141,0.000000,0.932138,2.000000,1.000000,0.000000,0.000000,0.000000,0.963229,0.828785,0.112705,2.000000
21,0.000157,0.723046,0.606089,0.000000,0.000000,0.105027,0.000000,0.912933,1.000000,1.000000,0.000000,0.000000,0.000000,0.821839,1.000000,0.106832,1.000000
22,0.000083,0.723046,0.728929,0.000000,0.000000,0.392547,0.000000,0.912933,2.000000,0.988748,0.000000,0.000000,0.000000,0.821839,0.688887,0.000000,1.000000
23,0.000067,0.723046,0.606089,0.000000,0.000000,0.060437,0.000000,0.891566,0.000000,1.000000,0.127730,0.000000,0.000000,0.988068,1.000000,0.000000,1.000000
24,0.000061,0.742273,0.649568,0.000000,0.000000,0.287641,0.159789,0.802851,2.000000,1.000000,0.146347,0.000000,0.000000,0.821839,0.769797,0.000000,0.000000
25,0.000022,0.804309,0.552869,0.000000,0.000000,0.287641,0.159789,0.802851,1.000000,1.000000,0.146347,0.000000,0.000000,0.821839,0.769797,0.000000,1.000000
26,0.000008,0.778464,0.532755,0.000000,0.000000,0.287641,0.159789,0.802851,1.000000,1.000000,0.348439,0.000000,0.000000,0.988068,0.959112,0.000000,0.000000
27,0.000001,0.804309,0.552869,0.000000,0.000000,0.215767,0.192542,0.802851,0.000000,1.000000,0.146347,0.000000,0.000000,0.994187,0.935900,0.038192,2.000000
gen, fitness
0,0.011444,0.000000,1.000000,0.210000,0.800000,0.030000,0.030000,1.000000,0.000000,1.000000,0.000000,0.000000,0.600000,1.000000,1.000000,0.000000,0.000000
1,0.011444,0.000000,1.000000,0.210000,0.800000,0.030000,0.030000,1.000000,0.000000,1.000000,0.000000,0.000000,0.600000,1.000000,1.000000,0.000000,0.000000
2,0.003786,0.054911,0.949744,0.210000,0.672462,0.030000,0.030000,1.000000,0.000000,1.000000,0.000000,0.011045,0.502084,1.000000,1.000000,0.000000,1.000000
3,0.001742,0.150107,0.966938,0.093787,0.579731,0.030000,0.030000,1.000000,2.000000,0.774000,0.000000,0.000000,0.412884,1.000000,0.964294,0.000000,2.000000
4,0.001742,0.150107,0.966938,0.093787,0.579731,0.030000,0.030000,1.000000,2.000000,0.774000,0.000000,0.000000,0.412884,1.000000,0.964294,0.000000,2.000000
5,0.000833,0.000000,0.972418,0.000000,0.685503,0.000000,0.066884,0.958188,0.000000,1.000000,0.000000,0.012175,0.293422,1.000000,0.964294,0.000000,1.000000
6,0.000042,0.252224,0.875095,0.077043,0.514486,0.074191,0.066884,0.912442,0.000000,1.000000,0.010770,0.012175,0.293422,1.000000,0.964294,0.000000,1.000000
7,0.000032,0.334471,1.000000,0.000000,0.574052,0.074191,0.000000,0.934562,1.000000,1.000000,0.010442,0.000000,0.323834,0.885326,1.000000,0.036231,1.000000
8,0.000019,0.186145,0.878084,0.077043,0.514486,0.000000,0.000000,0.912442,0.000000,1.000000,0.010770,0.012175,0.255739,1.000000,0.964294,0.000000,0.000000
9,0.000019,0.186145,0.878084,0.077043,0.514486,0.000000,0.000000,0.912442,0.000000,1.000000,0.010770,0.012175,0.255739,1.000000,0.964294,0.000000,0.000000
10,0.000019,0.186145,0.878084,0.077043,0.514486,0.000000,0.000000,0.912442,0.000000,1.000000,0.010770,0.012175,0.255739,1.000000,0.964294,0.000000,0.000000
11,0.000019,0.186145,0.878084,0.077043,0.514486,0.000000,0.000000,0.912442,0.000000,1.000000,0.010770,0.012175,0.255739,1.000000,0.964294,0.000000,0.000000
12,0.000019,0.000000,1.000000,0.000000,0.588952,0.000000,0.211470,0.844070,1.000000,1.000000,0.000000,0.008809,0.178068,0.860819,0.910664,0.007914,2.000000
13,0.000019,0.000000,1.000000,0.000000,0.588952,0.000000,0.211470,0.844070,1.000000,1.000000,0.000000,0.008809,0.178068,0.860819,0.910664,0.007914,2.000000
14,0.000018,0.334471,1.000000,0.000000,0.574052,0.074191,0.001126,0.787367,1.000000,1.000000,0.138404,0.000000,0.323834,0.885326,0.928152,0.085417,1.000000
15,0.000000,0.000000,1.000000,0.000000,0.588952,0.116012,0.000000,0.828261,1.000000,1.000000,0.010770,0.000000,0.140142,0.806519,1.000000,0.240744,2.000000
gen, fitness
0,0.010533,0.000000,1.000000,0.210000,0.800000,0.030000,0.030000,1.000000,0.000000,1.000000,0.000000,0.000000,0.600000,1.000000,1.000000,0.000000,0.000000
1,0.010533,0.000000,1.000000,0.210000,0.800000,0.030000,0.030000,1.000000,0.000000,1.000000,0.000000,0.000000,0.600000,1.000000,1.000000,0.000000,0.000000
2,0.001971,0.072638,1.000000,0.086318,0.756377,0.041252,0.030000,1.000000,1.000000,1.000000,0.050204,0.000000,0.600000,1.000000,1.000000,0.000000,0.000000
3,0.000927,0.055291,0.981599,0.127864,0.641252,0.000000,0.000000,0.784119,2.000000,0.881349,0.000000,0.000000,0.527571,1.000000,0.977586,0.000000,0.000000
4,0.000927,0.055291,0.981599,0.127864,0.641252,0.000000,0.000000,0.784119,2.000000,0.881349,0.000000,0.000000,0.527571,1.000000,0.977586,0.000000,0.000000
5,0.000518,0.127113,1.000000,0.034873,0.662841,0.057032,0.030000,1.000000,1.000000,1.000000,0.208044,0.000000,0.480292,1.000000,0.849691,0.000000,0.000000
6,0.000273,0.259558,1.000000,0.034873,0.662841,0.057032,0.007662,0.908046,1.000000,1.000000,0.241254,0.000000,0.506204,0.798610,0.849691,0.000000,2.000000
7,0.000172,0.073718,0.990427,0.034873,0.662841,0.000000,0.030000,0.797373,2.000000,1.000000,0.208044,0.000000,0.408211,1.000000,0.737828,0.128884,2.000000
8,0.000031,0.073718,0.990427,0.034873,0.662841,0.000000,0.030000,0.797373,0.000000,1.000000,0.239240,0.000000,0.381242,1.000000,0.737828,0.128884,1.000000
9,0.000007,0.284678,1.000000,0.000000,0.613069,0.019211,0.087083,0.978098,2.000000,0.939437,0.145290,0.000000,0.408211,1.000000,0.737828,0.128884,2.000000
10,0.000004,0.389613,1.000000,0.034873,0.595769,0.057032,0.010716,0.927448,1.000000,0.951117,0.125515,0.065358,0.420723,0.945024,1.000000,0.000000,1.000000
11,0.000004,0.389613,1.000000,0.034873,0.595769,0.057032,0.010716,0.927448,1.000000,0.951117,0.125515,0.065358,0.420723,0.945024,1.000000,0.000000,1.000000
12,0.000004,0.389613,1.000000,0.034873,0.595769,0.057032,0.010716,0.927448,1.000000,0.951117,0.125515,0.065358,0.420723,0.945024,1.000000,0.000000,1.000000
13,0.000004,0.389613,1.000000,0.034873,0.595769,0.057032,0.010716,0.927448,1.000000,0.951117,0.125515,0.065358,0.420723,0.945024,1.000000,0.000000,1.000000
14,0.000004,0.389613,1.000000,0.034873,0.595769,0.057032,0.010716,0.927448,1.000000,0.951117,0.125515,0.065358,0.420723,0.945024,1.000000,0.000000,1.000000
15,0.000004,0.389613,1.000000,0.034873,0.595769,0.057032,0.010716,0.927448,1.000000,0.951117,0.125515,0.065358,0.420723,0.945024,1.000000,0.000000,1.000000
16,0.000002,0.148929,1.000000,0.000000,0.626884,0.057032,0.030000,0.825383,0.000000,0.858002,0.349221,0.000000,0.381242,0.992956,0.739716,0.146298,1.000000
17,0.000002,0.148929,1.000000,0.000000,0.626884,0.057032,0.030000,0.825383,0.000000,0.858002,0.349221,0.000000,0.381242,0.992956,0.739716,0.146298,1.000000
18,0.000002,0.452523,1.000000,0.000000,0.613069,0.000000,0.010716,0.927448,1.000000,0.951117,0.098198,0.065358,0.436395,0.945024,1.000000,0.000000,1.000000
19,0.000001,0.260980,0.938957,0.030505,0.649411,0.498673,0.000000,0.474874,0.000000,0.982949,0.290653,0.000000,0.420723,0.945024,0.922478,0.167887,1.000000
gen, fitness
0,0.067934,0.000000,1.000000,0.210000,0.800000,0.030000,0.030000,1.000000,0.000000,1.000000,0.000000,0.000000,0.600000,1.000000,1.000000,0.000000,0.000000
1,0.067934,0.000000,1.000000,0.210000,0.800000,0.030000,0.030000,1.000000,0.000000,1.000000,0.000000,0.000000,0.600000,1.000000,1.000000,0.000000,0.000000
2,0.047325,0.000000,1.000000,0.210000,0.704935,0.030000,0.030000,1.000000,0.000000,1.000000,0.055604,0.000000,0.447805,1.000000,1.000000,0.000000,0.000000
3,0.038700,0.000000,1.000000,0.173657,0.666663,0.030000,0.000000,1.000000,1.000000,1.000000,0.000000,0.000000,0.447805,1.000000,0.975834,0.000000,0.000000
4,0.024456,0.000000,1.000000,0.074417,0.611697,0.030000,0.030000,1.000000,0.000000,1.000000,0.000000,0.000000,0.392736,1.000000,0.824086,0.000000,0.000000
5,0.024456,0.000000,1.000000,0.074417,0.611697,0.030000,0.030000,1.000000,0.000000,1.000000,0.000000,0.000000,0.392736,1.000000,0.824086,0.000000,0.000000
6,0.019326,0.018691,0.881242,0.173657,0.476359,0.000000,0.070417,1.000000,0.000000,1.000000,0.052422,0.000000,0.320957,1.000000,1.000000,0.000000,1.000000
7,0.015338,0.000000,0.932994,0.173657,0.502974,0.000000,0.000000,0.710043,2.000000,1.000000,0.120856,0.000000,0.146659,0.938582,1.000000,0.135772,0.000000
8,0.009296,0.000000,0.962171,0.000000,0.562568,0.010453,0.057813,1.000000,0.000000,1.000000,0.052422,0.000000,0.130958,0.517432,1.000000,0.000000,1.000000
9,0.006650,0.000000,1.000000,0.000000,0.538341,0.030000,0.030000,0.895737,1.000000,1.000000,0.082737,0.000000,0.031807,0.681086,0.959043,0.000000,0.000000
10,0.003147,0.223299,1.000000,0.034283,0.419284,0.024393,0.030000,0.952684,0.000000,0.977790,0.052422,0.000000,0.085956,0.502633,1.000000,0.000000,0.000000
11,0.001990,0.244456,1.000000,0.034283,0.382348,0.143561,0.000000,0.821829,1.000000,1.000000,0.083583,0.056127,0.000000,0.982390,1.000000,0.156841,1.000000
12,0.000832,0.250767,0.916951,0.033604,0.382348,0.143561,0.019138,0.739454,0.000000,1.000000,0.083583,0.000000,0.000000,0.914020,0.957027,0.025531,0.000000
13,0.000607,0.244456,1.000000,0.000000,0.382348,0.143561,0.096944,0.783254,0.000000,1.000000,0.083583,0.000000,0.000000,1.000000,1.000000,0.151597,0.000000
14,0.000524,0.223299,1.000000,0.000000,0.382348,0.087273,0.000000,0.739454,0.000000,0.979331,0.012090,0.000000,0.000000,0.914020,0.957027,0.025531,0.000000
15,0.000218,0.337605,1.000000,0.000000,0.335575,0.143561,0.038315,0.891572,2.000000,0.991248,0.083583,0.000000,0.000000,0.771757,1.000000,0.000000,1.000000
16,0.000198,0.334790,0.916951,0.000000,0.319581,0.128822,0.000000,1.000000,1.000000,0.959749,0.233027,0.000000,0.000000,0.961685,1.000000,0.013249,2.000000
17,0.000173,0.358690,0.916951,0.000000,0.319581,0.273894,0.000000,1.000000,1.000000,0.959749,0.233027,0.000000,0.000000,0.961685,1.000000,0.000000,2.000000
18,0.000039,0.361539,0.595120,0.000000,0.319906,0.000000,0.025183,0.541586,0.000000,0.915569,0.145383,0.000000,0.000000,1.000000,1.000000,0.000000,1.000000
19,0.000005,0.412671,1.000000,0.000000,0.335575,0.242811,0.000000,0.506755,1.000000,0.974969,0.186144,0.000000,0.000000,0.861347,1.000000,0.064263,0.000000
20,0.000005,0.412671,1.000000,0.000000,0.335575,0.242811,0.000000,0.506755,1.000000,0.974969,0.186144,0.000000,0.000000,0.861347,1.000000,0.064263,0.000000
21,0.000005,0.412671,1.000000,0.000000,0.335575,0.242811,0.000000,0.506755,1.000000,0.974969,0.186144,0.000000,0.000000,0.861347,1.000000,0.064263,0.000000
22,0.000002,0.412671,0.902420,0.000000,0.335575,0.170432,0.000000,0.570557,0.000000,0.991076,0.143970,0.000000,0.000000,0.897131,0.873655,0.056889,0.000000
23,0.000002,0.412671,0.902420,0.000000,0.335575,0.170432,0.000000,0.570557,0.000000,0.991076,0.143970,0.000000,0.000000,0.897131,0.873655,0.056889,0.000000
24,0.000002,0.412671,1.000000,0.000000,0.335575,0.118505,0.000000,0.628248,0.000000,0.991076,0.000000,0.000000,0.000000,1.000000,0.840920,0.056889,0.000000
25,0.000002,0.412671,0.957160,0.000000,0.335575,0.079638,0.000000,0.597781,0.000000,0.991076,0.203625,0.000000,0.000000,1.000000,0.822172,0.002618,0.000000
26,0.000001,0.412671,0.878368,0.000000,0.335575,0.287218,0.009255,0.597781,0.000000,1.000000,0.203625,0.000000,0.000000,1.000000,0.916679,0.000000,0.000000
gen, fitness
0,0.030614,0.000000,1.000000,0.210000,0.800000,0.030000,0.030000,1.000000,0.000000,1.000000,0.000000,0.000000,0.600000,1.000000,1.000000,0.000000,0.000000
1,0.030614,0.000000,1.000000,0.210000,0.800000,0.030000,0.030000,1.000000,0.000000,1.000000,0.000000,0.000000,0.600000,1.000000,1.000000,0.000000,0.000000
2,0.004520,0.000000,1.000000,0.127946,0.561142,0.030000,0.030000,0.995603,0.000000,1.000000,0.000000,0.000000,0.358700,1.000000,1.000000,0.000000,0.000000
3,0.004390,0.265136,1.000000,0.122904,0.561142,0.030000,0.030000,0.995603,0.000000,1.000000,0.169738,0.001326,0.358700,1.000000,0.867821,0.000000,0.000000
4,0.002555,0.265136,1.000000,0.122904,0.424759,0.000000,0.030000,1.000000,0.000000,0.932511,0.169738,0.001326,0.358700,1.000000,0.867166,0.143879,0.000000
5,0.001903,0.021878,1.000000,0.211548,0.406009,0.270453,0.146250,1.000000,1.000000,1.000000,0.000000,0.069222,0.128101,1.000000,1.000000,0.000000,1.000000
6,0.000545,0.000000,1.000000,0.126178,0.408471,0.020206,0.030000,1.000000,1.000000,1.000000,0.084360,0.000000,0.128101,1.000000,0.920180,0.000000,0.000000
7,0.000075,0.326743,0.864753,0.122904,0.299407,0.000000,0.030000,0.993423,2.000000,1.000000,0.000000,0.000000,0.128101,1.000000,0.920180,0.075820,1.000000
8,0.000016,0.265136,0.726602,0.122904,0.299407,0.000000,0.030000,0.993423,2.000000,1.000000,0.089885,0.000000,0.128101,1.000000,0.920180,0.075820,1.000000
9,0.000004,0.460145,1.000000,0.122904,0.294889,0.100522,0.000000,0.981609,0.000000,1.000000,0.089885,0.072001,0.128101,0.927366,0.920180,0.075820,1.000000
10,0.000004,0.460145,1.000000,0.122904,0.294889,0.100522,0.000000,0.981609,0.000000,1.000000,0.089885,0.072001,0.128101,0.927366,0.920180,0.075820,1.000000
11,0.000004,0.460145,1.000000,0.122904,0.294889,0.100522,0.000000,0.981609,0.000000,1.000000,0.089885,0.072001,0.128101,0.927366,0.920180,0.075820,1.000000
12,0.000001,0.460145,0.805664,0.122904,0.294889,0.000000,0.000000,0.972067,1.000000,1.000000,0.000000,0.100147,0.094216,0.856651,1.000000,0.084632,2.000000
gen, fitness
0,0.009712,0.000000,1.000000,0.210000,0.800000,0.030000,0.030000,1.000000,0.000000,1.000000,0.000000,0.000000,0.600000,1.000000,1.000000,0.000000,0.000000
1,0.009712,0.000000,1.000000,0.210000,0.800000,0.030000,0.030000,1.000000,0.000000,1.000000,0.000000,0.000000,0.600000,1.000000,1.000000,0.000000,0.000000
2,0.001229,0.000000,1.000000,0.210000,0.730099,0.030000,0.030000,1.000000,0.000000,1.000000,0.108074,0.000000,0.600000,1.000000,1.000000,0.000000,0.000000
3,0.000258,0.000000,1.000000,0.108158,0.730099,0.030000,0.030000,1.000000,0.000000,1.000000,0.108074,0.000000,0.600000,1.000000,1.000000,0.000000,0.000000
4,0.000126,0.081256,0.885600,0.075074,0.730099,0.196491,0.030000,1.000000,0.000000,1.000000,0.108074,0.000000,0.600000,0.873149,1.000000,0.000000,0.000000
5,0.000110,0.208205,0.890639,0.210000,0.644729,0.030000,0.030000,0.912438,0.000000,0.979899,0.167362,0.038645,0.569104,1.000000,1.000000,0.000000,1.000000
6,0.000062,0.194886,1.000000,0.167880,0.644729,0.224646,0.243226,1.000000,0.000000,1.000000,0.242843,0.000000,0.563337,0.887181,1.000000,0.013950,0.000000
7,0.000007,0.117906,0.885600,0.000000,0.730099,0.264366,0.030000,1.000000,1.000000,1.000000,0.108074,0.000000,0.551957,1.000000,1.000000,0.020324,2.000000
8,0.000001,0.117906,0.708660,0.000000,0.730099,0.264366,0.030000,0.939383,1.000000,1.000000,0.163957,0.000000,0.551957,1.000000,1.000000,0.020324,1.000000
gen, fitness
0,0.026348,0.000000,1.000000,0.210000,0.800000,0.030000,0.030000,1.000000,0.000000,1.000000,0.000000,0.000000,0.600000,1.000000,1.000000,0.000000,0.000000
1,0.026348,0.000000,1.000000,0.210000,0.800000,0.030000,0.030000,1.000000,0.000000,1.000000,0.000000,0.000000,0.600000,1.000000,1.000000,0.000000,0.000000
2,0.011056,0.171332,1.000000,0.210000,0.672214,0.030000,0.030000,0.946952,0.000000,0.918118,0.000000,0.000000,0.600000,1.000000,0.880299,0.000000,2.000000
3,0.009702,0.171332,1.000000,0.210000,0.672214,0.030000,0.030000,0.946952,0.000000,1.000000,0.000000,0.000000,0.600000,0.900968,1.000000,0.000000,0.000000
4,0.005055,0.171332,0.997905,0.210000,0.592743,0.030000,0.171195,0.984899,0.000000,1.000000,0.150164,0.000000,0.506461,1.000000,0.955037,0.000000,1.000000
5,0.004508,0.000000,1.000000,0.239885,0.564103,0.017609,0.126542,0.946952,0.000000,0.952655,0.267560,0.000000,0.358660,0.994772,0.882441,0.000000,2.000000
6,0.004508,0.000000,1.000000,0.239885,0.564103,0.017609,0.126542,0.946952,0.000000,0.952655,0.267560,0.000000,0.358660,0.994772,0.882441,0.000000,2.000000
7,0.001833,0.212286,1.000000,0.177250,0.519850,0.000000,0.118609,0.946952,0.000000,1.000000,0.119366,0.000000,0.411980,0.965716,0.983598,0.000000,0.000000
8,0.000348,0.192202,0.942016,0.026782,0.558377,0.166047,0.053658,0.946952,0.000000,0.952655,0.348065,0.000000,0.310162,1.000000,0.882441,0.000000,2.000000
9,0.000348,0.192202,0.942016,0.026782,0.558377,0.166047,0.053658,0.946952,0.000000,0.952655,0.348065,0.000000,0.310162,1.000000,0.882441,0.000000,2.000000
10,0.000180,0.155672,0.885747,0.016632,0.449750,0.024047,0.000000,0.984330,1.000000,0.863703,0.025842,0.000000,0.234148,1.000000,0.925340,0.000000,2.000000
11,0.000033,0.206682,0.704279,0.016632,0.460329,0.088564,0.000000,0.946952,2.000000,0.863703,0.000000,0.000000,0.252611,1.000000,0.983598,0.000000,0.000000
12,0.000003,0.212286,1.000000,0.269628,0.265243,0.201456,0.000000,0.951827,0.000000,0.983438,0.000000,0.000000,0.235488,1.000000,0.751213,0.006818,1.000000
13,0.000003,0.212286,1.000000,0.269628,0.265243,0.201456,0.000000,0.951827,0.000000,0.983438,0.000000,0.000000,0.235488,1.000000,0.751213,0.006818,1.000000
14,0.000003,0.212286,1.000000,0.269628,0.265243,0.201456,0.000000,0.951827,0.000000,0.983438,0.000000,0.000000,0.235488,1.000000,0.751213,0.006818,1.000000
15,0.000003,0.212286,1.000000,0.269628,0.265243,0.201456,0.000000,0.951827,0.000000,0.983438,0.000000,0.000000,0.235488,1.000000,0.751213,0.006818,1.000000
16,0.000001,0.212286,0.881621,0.114411,0.422292,0.254587,0.053658,0.882152,0.000000,0.983438,0.000000,0.030591,0.187146,1.000000,0.793058,0.099890,0.000000
17,0.000001,0.212286,0.881621,0.114411,0.422292,0.254587,0.053658,0.882152,0.000000,0.983438,0.000000,0.030591,0.187146,1.000000,0.793058,0.099890,0.000000
18,0.000001,0.212286,0.881621,0.114411,0.422292,0.254587,0.053658,0.882152,0.000000,0.983438,0.000000,0.030591,0.187146,1.000000,0.793058,0.099890,0.000000
19,0.000001,0.212286,0.881621,0.114411,0.422292,0.254587,0.053658,0.882152,0.000000,0.983438,0.000000,0.030591,0.187146,1.000000,0.793058,0.099890,0.000000
20,0.000001,0.212286,0.881621,0.114411,0.422292,0.254587,0.053658,0.882152,0.000000,0.983438,0.000000,0.030591,0.187146,1.000000,0.793058,0.099890,0.000000
21,0.000001,0.212286,0.881621,0.114411,0.422292,0.254587,0.053658,0.882152,0.000000,0.983438,0.000000,0.030591,0.187146,1.000000,0.793058,0.099890,0.000000
22,0.000001,0.212286,0.881621,0.114411,0.422292,0.254587,0.053658,0.882152,0.000000,0.983438,0.000000,0.030591,0.187146,1.000000,0.793058,0.099890,0.000000
gen, fitness
0,0.052335,0.000000,1.000000,0.210000,0.800000,0.030000,0.030000,1.000000,0.000000,1.000000,0.000000,0.000000,0.600000,1.000000,1.000000,0.000000,0.000000
1,0.052335,0.000000,1.000000,0.210000,0.800000,0.030000,0.030000,1.000000,0.000000,1.000000,0.000000,0.000000,0.600000,1.000000,1.000000,0.000000,0.000000
2,0.023666,0.000000,1.000000,0.210000,0.634735,0.030000,0.030000,1.000000,0.000000,1.000000,0.031160,0.000000,0.514318,1.000000,1.000000,0.000000,1.000000
3,0.012065,0.081148,1.000000,0.057293,0.608394,0.030000,0.030000,1.000000,2.000000,1.000000,0.114265,0.000000,0.408341,1.000000,1.000000,0.000000,0.000000
4,0.012065,0.081148,1.000000,0.057293,0.608394,0.030000,0.030000,1.000000,2.000000,1.000000,0.114265,0.000000,0.408341,1.000000,1.000000,0.000000,0.000000
5,0.001897,0.000000,1.000000,0.079194,0.448074,0.391347,0.025051,0.877902,0.000000,0.983530,0.000000,0.000000,0.087746,0.871148,1.000000,0.000000,0.000000
6,0.000781,0.035787,1.000000,0.060910,0.318565,0.172104,0.127752,1.000000,0.000000,1.000000,0.062660,0.007617,0.000000,1.000000,1.000000,0.048003,0.000000
7,0.000009,0.182260,1.000000,0.060910,0.318565,0.172104,0.127752,1.000000,0.000000,1.000000,0.117022,0.007617,0.000000,1.000000,1.000000,0.048003,0.000000
8,0.000009,0.182260,1.000000,0.060910,0.318565,0.172104,0.127752,1.000000,0.000000,1.000000,0.117022,0.007617,0.000000,1.000000,1.000000,0.048003,0.000000
9,0.000009,0.182260,1.000000,0.060910,0.318565,0.172104,0.127752,1.000000,0.000000,1.000000,0.117022,0.007617,0.000000,1.000000,1.000000,0.048003,0.000000
10,0.000000,0.182260,1.000000,0.000000,0.318565,0.341118,0.012343,1.000000,0.000000,0.862668,0.062660,0.007617,0.000000,0.957140,0.860900,0.000000,1.000000
gen, fitness
0,0.080636,0.000000,1.000000,0.210000,0.800000,0.030000,0.030000,1.000000,0.000000,1.000000,0.000000,0.000000,0.600000,1.000000,1.000000,0.000000,0.000000
1,0.080636,0.000000,1.000000,0.210000,0.800000,0.030000,0.030000,1.000000,0.000000,1.000000,0.000000,0.000000,0.600000,1.000000,1.000000,0.000000,0.000000
2,0.047599,0.000000,1.000000,0.210000,0.654107,0.025694,0.030000,0.885742,0.000000,1.000000,0.000000,0.000000,0.574416,1.000000,1.000000,0.000000,0.000000
3,0.043375,0.000000,1.000000,0.018339,0.742721,0.030000,0.000000,0.876386,1.000000,1.000000,0.000000,0.000000,0.464995,0.911023,1.000000,0.000000,0.000000
4,0.033496,0.086122,0.813707,0.197641,0.568017,0.042548,0.000000,1.000000,0.000000,1.000000,0.015615,0.000000,0.333365,0.984209,1.000000,0.034811,0.000000
5,0.026993,0.068908,1.000000,0.210000,0.481719,0.042548,0.000000,1.000000,2.000000,1.000000,0.015615,0.000000,0.333365,0.984209,1.000000,0.086209,2.000000
6,0.023221,0.000000,1.000000,0.049439,0.568017,0.150557,0.000000,0.971620,0.000000,0.948383,0.060148,0.000000,0.333365,1.000000,1.000000,0.002840,0.000000
7,0.015849,0.213945,0.708451,0.124122,0.399891,0.042548,0.000000,0.950079,0.000000,1.000000,0.015615,0.000000,0.333365,0.962065,1.000000,0.000000,2.000000
8,0.012642,0.000000,1.000000,0.049439,0.468899,0.098874,0.000000,0.801664,2.000000,0.952819,0.015615,0.000000,0.151515,1.000000,1.000000,0.055438,1.000000
9,0.008707,0.318142,0.806293,0.073076,0.306189,0.103215,0.344733,1.000000,2.000000,1.000000,0.015615,0.000000,0.255247,0.880881,0.850844,0.000000,2.000000
10,0.005295,0.309115,0.806293,0.073076,0.306189,0.103215,0.344733,1.000000,2.000000,1.000000,0.015615,0.000000,0.151515,1.000000,1.000000,0.119028,0.000000
11,0.003806,0.375046,0.790938,0.033462,0.224707,0.082263,0.311227,0.751836,1.000000,1.000000,0.000000,0.000000,0.114120,0.917403,1.000000,0.330335,1.000000
12,0.001658,0.330718,1.000000,0.199478,0.080880,0.042548,0.000000,0.806593,0.000000,1.000000,0.000000,0.000000,0.066340,0.917403,1.000000,0.112704,1.000000
13,0.000787,0.271718,0.990755,0.174704,0.075775,0.008837,0.000000,0.783205,1.000000,1.000000,0.015615,0.000000,0.002518,0.902654,0.859419,0.000000,0.000000
14,0.000787,0.271718,0.990755,0.174704,0.075775,0.008837,0.000000,0.783205,1.000000,1.000000,0.015615,0.000000,0.002518,0.902654,0.859419,0.000000,0.000000
15,0.000293,0.397085,1.000000,0.106418,0.049688,0.000000,0.000000,0.943035,1.000000,0.948685,0.000000,0.000000,0.000000,0.921970,0.755891,0.112704,2.000000
16,0.000071,0.537106,0.409391,0.092906,0.096449,0.090229,0.000000,0.821908,2.000000,1.000000,0.000000,0.000000,0.051293,0.866348,1.000000,0.000000,0.000000
17,0.000020,0.552305,1.000000,0.114674,0.059363,0.008837,0.668054,0.805651,2.000000,1.000000,0.072119,0.000000,0.000000,0.858705,1.000000,0.114606,1.000000
18,0.000007,0.635604,1.000000,0.000000,0.153034,0.189301,0.206326,0.661290,1.000000,0.887594,0.097598,0.000000,0.078063,0.759650,0.819818,0.000000,1.000000
19,0.000005,0.552305,1.000000,0.114674,0.059363,0.008837,0.668054,0.805651,0.000000,1.000000,0.072119,0.000000,0.017974,0.858705,1.000000,0.114606,1.000000
20,0.000001,0.552305,1.000000,0.155277,0.000000,0.008837,0.668054,0.829276,1.000000,1.000000,0.000000,0.000000,0.000000,0.860017,0.717016,0.166469,0.000000
21,0.000001,0.552305,1.000000,0.155277,0.000000,0.008837,0.668054,0.829276,1.000000,1.000000,0.000000,0.000000,0.000000,0.860017,0.717016,0.166469,0.000000
22,0.000000,0.537106,0.541248,0.092906,0.084429,0.095256,0.000000,0.893534,0.000000,1.000000,0.077607,0.000000,0.011219,0.993136,0.694599,0.114606,0.000000
gen, fitness
0,0.025383,0.000000,1.000000,0.210000,0.800000,0.030000,0.030000,1.000000,0.000000,1.000000,0.000000,0.000000,0.600000,1.000000,1.000000,0.000000,0.000000
1,0.025383,0.000000,1.000000,0.210000,0.800000,0.030000,0.030000,1.000000,0.000000,1.000000,0.000000,0.000000,0.600000,1.000000,1.000000,0.000000,0.000000
2,0.011063,0.000000,1.000000,0.210000,0.654802,0.107617,0.030000,1.000000,0.000000,1.000000,0.000000,0.000000,0.600000,1.000000,1.000000,0.000000,0.000000
3,0.005301,0.000000,1.000000,0.162272,0.607174,0.030000,0.030000,1.000000,0.000000,1.000000,0.000000,0.000000,0.464086,0.897821,1.000000,0.000000,0.000000
4,0.003703,0.000000,1.000000,0.210000,0.481021,0.000000,0.030000,1.000000,0.000000,1.000000,0.000000,0.149170,0.258885,1.000000,1.000000,0.000000,0.000000
5,0.003703,0.000000,1.000000,0.210000,0.481021,0.000000,0.030000,1.000000,0.000000,1.000000,0.000000,0.149170,0.258885,1.000000,1.000000,0.000000,0.000000
6,0.002605,0.030918,1.000000,0.210000,0.481021,0.000000,0.030000,0.771777,1.000000,0.987907,0.000000,0.107376,0.258885,1.000000,0.884013,0.000000,0.000000
7,0.002316,0.004447,0.986827,0.162272,0.365363,0.000000,0.000000,1.000000,1.000000,0.899880,0.000000,0.000000,0.286622,1.000000,1.000000,0.016505,1.000000
8,0.001567,0.000000,1.000000,0.000000,0.572528,0.000000,0.030000,1.000000,0.000000,0.832183,0.144810,0.000000,0.255002,0.940105,1.000000,0.048182,1.000000
9,0.000677,0.033318,0.957940,0.059147,0.484515,0.030000,0.128550,1.000000,1.000000,1.000000,0.000000,0.000000,0.216338,0.898667,0.976706,0.000000,0.000000
10,0.000325,0.140796,0.986827,0.162272,0.365363,0.226502,0.043326,0.998706,1.000000,0.956672,0.000000,0.000000,0.216338,0.898667,1.000000,0.000000,0.000000
11,0.000314,0.054039,0.933441,0.210000,0.341286,0.228844,0.137072,1.000000,0.000000,1.000000,0.259759,0.000000,0.126663,0.961241,0.978039,0.000000,2.000000
12,0.000086,0.052876,0.831478,0.255177,0.270212,0.000000,0.106856,0.781358,0.000000,1.000000,0.203780,0.000000,0.126663,0.970014,0.978039,0.000000,2.000000
13,0.000029,0.000000,1.000000,0.044444,0.443905,0.137933,0.024123,0.781358,2.000000,1.000000,0.144810,0.014738,0.000000,1.000000,1.000000,0.147375,2.000000
14,0.000009,0.150446,1.000000,0.025850,0.441795,0.000000,0.030123,0.974836,1.000000,0.968299,0.000000,0.120300,0.000000,1.000000,1.000000,0.141783,2.000000
15,0.000009,0.150446,1.000000,0.025850,0.441795,0.000000,0.030123,0.974836,1.000000,0.968299,0.000000,0.120300,0.000000,1.000000,1.000000,0.141783,2.000000
16,0.000009,0.150446,1.000000,0.025850,0.441795,0.000000,0.030123,0.974836,1.000000,0.968299,0.000000,0.120300,0.000000,1.000000,1.000000,0.141783,2.000000
17,0.000009,0.150446,1.000000,0.025850,0.441795,0.000000,0.030123,0.974836,1.000000,0.968299,0.000000,0.120300,0.000000,1.000000,1.000000,0.141783,2.000000
18,0.000006,0.136542,1.000000,0.024118,0.497528,0.000000,0.234052,0.653718,0.000000,1.000000,0.277342,0.000000,0.140433,1.000000,1.000000,0.122735,1.000000
19,0.000006,0.136542,1.000000,0.024118,0.497528,0.000000,0.234052,0.653718,0.000000,1.000000,0.277342,0.000000,0.140433,1.000000,1.000000,0.122735,1.000000
20,0.000002,0.150446,0.932479,0.025850,0.480365,0.217638,0.000000,0.639498,0.000000,1.000000,0.000000,0.021638,0.126663,1.000000,0.933830,0.006969,1.000000
21,0.000002,0.150446,0.932479,0.025850,0.480365,0.217638,0.000000,0.639498,0.000000,1.000000,0.000000,0.021638,0.126663,1.000000,0.933830,0.006969,1.000000
22,0.000002,0.150446,0.932479,0.025850,0.480365,0.217638,0.000000,0.639498,0.000000,1.000000,0.000000,0.021638,0.126663,1.000000,0.933830,0.006969,1.000000
23,0.000002,0.150446,0.932479,0.025850,0.480365,0.217638,0.000000,0.639498,0.000000,1.000000,0.000000,0.021638,0.126663,1.000000,0.933830,0.006969,1.000000
24,0.000000,0.016890,1.000000,0.025850,0.494797,0.098405,0.559807,0.449582,1.000000,0.997126,0.225260,0.000000,0.078520,1.000000,0.978039,0.014390,1.000000
