gen, fitness
0,0.094016,0.000000,1.000000,0.210000,0.800000,0.030000,0.030000,1.000000,0.000000,1.000000,0.000000,0.000000,0.600000,1.000000,1.000000,0.000000,0.000000
1,0.094016,0.000000,1.000000,0.210000,0.800000,0.030000,0.030000,1.000000,0.000000,1.000000,0.000000,0.000000,0.600000,1.000000,1.000000,0.000000,0.000000
2,0.083018,0.000000,1.000000,0.086029,0.800000,0.030000,0.030000,1.000000,0.000000,0.896553,0.000000,0.000000,0.600000,1.000000,1.000000,0.000000,0.000000
3,0.064876,0.000000,1.000000,0.210000,0.668372,0.082293,0.030000,1.000000,0.000000,1.000000,0.000000,0.000000,0.600000,1.000000,0.977755,0.000000,0.000000
4,0.060898,0.000000,1.000000,0.086029,0.622071,0.030000,0.030000,1.000000,0.000000,0.896553,0.000000,0.000000,0.600000,1.000000,1.000000,0.000000,0.000000
5,0.054660,0.134571,1.000000,0.086029,0.622071,0.030000,0.030000,1.000000,0.000000,0.896553,0.000000,0.000000,0.600000,1.000000,1.000000,0.000000,0.000000
6,0.048498,0.000000,1.000000,0.086029,0.622071,0.030000,0.030000,1.000000,0.000000,0.896553,0.000000,0.000000,0.499557,1.000000,1.000000,0.000000,1.000000
7,0.046131,0.029024,0.931610,0.070597,0.622071,0.082293,0.030000,0.931963,0.000000,1.000000,0.000000,0.000000,0.484450,1.000000,0.977755,0.149526,2.000000
8,0.039162,0.000000,1.000000,0.086029,0.622071,0.042499,0.030000,0.931963,0.000000,1.000000,0.015646,0.000000,0.301089,1.000000,0.977755,0.149526,0.000000
9,0.037822,0.029024,0.931610,0.070597,0.622071,0.021960,0.030000,0.931963,0.000000,1.000000,0.000000,0.000000,0.301089,1.000000,0.977755,0.149526,0.000000
10,0.036181,0.034389,1.000000,0.049696,0.622071,0.000000,0.030000,0.931963,0.000000,1.000000,0.015646,0.000000,0.301089,0.814923,0.828763,0.149526,0.000000
11,0.031223,0.000000,0.940995,0.086029,0.489324,0.042499,0.030000,0.931963,0.000000,1.000000,0.015646,0.000000,0.301089,1.000000,0.977755,0.149526,0.000000
12,0.029507,0.034389,1.000000,0.049696,0.532227,0.000000,0.030000,0.931963,0.000000,1.000000,0.015646,0.000000,0.284667,1.000000,0.977755,0.149526,0.000000
13,0.025565,0.049565,0.896902,0.086029,0.489324,0.042499,0.000000,0.931963,0.000000,1.000000,0.015646,0.000000,0.149426,1.000000,0.946620,0.149526,0.000000
14,0.019458,0.049565,0.896902,0.086029,0.377573,0.042499,0.000000,0.856095,0.000000,1.000000,0.015646,0.000000,0.149426,1.000000,0.946620,0.149526,0.000000
15,0.015877,0.049565,0.896902,0.086029,0.377573,0.042499,0.000000,0.856095,0.000000,1.000000,0.015646,0.000000,0.029517,1.000000,0.946620,0.183452,0.000000
16,0.012156,0.034389,1.000000,0.049696,0.243705,0.000000,0.030000,0.856095,0.000000,1.000000,0.015646,0.000000,0.056499,1.000000,0.946620,0.149526,0.000000
17,0.010917,0.289002,0.896902,0.086029,0.207963,0.042499,0.000000,0.856095,0.000000,1.000000,0.015646,0.000000,0.149426,0.947895,0.946620,0.149526,1.000000
18,0.007670,0.289002,0.896902,0.086029,0.207963,0.042499,0.000000,0.856095,2.000000,1.000000,0.015646,0.000000,0.056499,1.000000,0.946620,0.149526,0.000000
19,0.004378,0.289002,0.896902,0.021113,0.207963,0.042499,0.000000,0.856095,0.000000,1.000000,0.015646,0.000000,0.000000,0.947895,0.946620,0.149526,1.000000
20,0.004188,0.289002,0.979132,0.021113,0.200256,0.042499,0.000000,0.856095,0.000000,1.000000,0.015646,0.000000,0.000000,0.947895,0.946620,0.149526,0.000000
21,0.003051,0.392864,0.896902,0.000000,0.207963,0.042499,0.000000,0.856095,0.000000,1.000000,0.015646,0.000000,0.000000,0.871038,0.892890,0.149526,1.000000
22,0.002692,0.463729,0.896902,0.086029,0.100010,0.000000,0.000000,0.856095,0.000000,1.000000,0.015646,0.000000,0.000000,0.788775,0.946620,0.149526,0.000000
23,0.002403,0.503807,0.896902,0.000000,0.100010,0.000000,0.201155,0.924216,0.000000,1.000000,0.106779,0.000000,0.029517,1.000000,0.946620,0.211652,0.000000
24,0.001356,0.545792,0.896902,0.000000,0.048441,0.042499,0.000000,0.856095,0.000000,1.000000,0.000000,0.000000,0.000000,0.871038,0.892890,0.149526,1.000000
25,0.001106,0.545792,0.896902,0.000000,0.048441,0.042499,0.000000,0.856095,0.000000,0.815985,0.000000,0.000000,0.000000,0.871038,0.889512,0.149526,1.000000
26,0.000840,0.586899,1.000000,0.000000,0.100010,0.000000,0.201155,0.924216,0.000000,1.000000,0.015646,0.000000,0.000000,0.944555,0.946620,0.149526,1.000000
27,0.000508,0.622571,0.896902,0.000000,0.048441,0.042499,0.000000,0.856095,0.000000,0.942922,0.176285,0.000000,0.000000,0.871038,0.892890,0.145075,1.000000
28,0.000429,0.622571,0.896902,0.000000,0.048441,0.042499,0.000000,0.856095,0.000000,0.942922,0.176285,0.000000,0.000000,0.871038,0.892890,0.079064,1.000000
29,0.000341,0.664179,1.000000,0.000000,0.048441,0.042499,0.000000,0.856095,0.000000,0.942922,0.176285,0.000000,0.000000,0.871038,0.892890,0.145075,1.000000
30,0.000289,0.708594,0.896902,0.000000,0.048441,0.042499,0.000000,0.818763,0.000000,0.942922,0.176285,0.000000,0.000000,0.871038,0.834834,0.145075,1.000000
31,0.000178,0.666879,1.000000,0.000000,0.042391,0.000000,0.201155,0.884397,0.000000,1.000000,0.000000,0.000000,0.000000,0.871038,0.889512,0.000000,1.000000
32,0.000132,0.708594,0.896902,0.000000,0.011953,0.042499,0.000000,0.818763,0.000000,0.933062,0.176285,0.000000,0.000000,0.871038,0.834834,0.145075,1.000000
33,0.000132,0.708594,0.896902,0.000000,0.011953,0.042499,0.000000,0.818763,0.000000,0.933062,0.176285,0.000000,0.000000,0.871038,0.834834,0.145075,1.000000
34,0.000073,0.766051,1.000000,0.000000,0.000000,0.000000,0.000000,0.903050,1.000000,0.942922,0.176285,0.000000,0.000000,0.871038,0.834834,0.145075,2.000000
35,0.000058,0.742034,1.000000,0.000000,0.000000,0.000000,0.000000,0.903050,0.000000,0.942922,0.176285,0.000000,0.000000,0.871038,0.834834,0.145075,1.000000
36,0.000012,0.742034,1.000000,0.000000,0.000508,0.205439,0.000000,0.698775,0.000000,0.945606,0.346704,0.000000,0.000000,0.991695,0.660887,0.000000,2.000000
37,0.000011,0.742034,1.000000,0.000000,0.003097,0.205439,0.000000,0.698775,0.000000,0.945606,0.346704,0.000000,0.000000,0.991695,0.660887,0.000000,2.000000
38,0.000004,0.766051,0.933899,0.000000,0.000508,0.205439,0.000000,0.698775,0.000000,0.945606,0.346704,0.000000,0.000000,0.991695,0.660887,0.000000,2.000000
39,0.000000,0.816234,1.000000,0.000000,0.000000,0.205439,0.190853,0.812411,0.000000,1.000000,0.176285,0.000000,0.000000,0.837024,1.000000,0.145075,1.000000
gen, fitness
0,0.011444,0.000000,1.000000,0.210000,0.800000,0.030000,0.030000,1.000000,0.000000,1.000000,0.000000,0.000000,0.600000,1.000000,1.000000,0.000000,0.000000
1,0.011444,0.000000,1.000000,0.210000,0.800000,0.030000,0.030000,1.000000,0.000000,1.000000,0.000000,0.000000,0.600000,1.000000,1.000000,0.000000,0.000000
2,0.006094,0.000000,1.000000,0.210000,0.733859,0.030000,0.030000,1.000000,0.000000,1.000000,0.000000,0.000000,0.600000,1.000000,1.000000,0.000000,0.000000
3,0.005914,0.000000,1.000000,0.167456,0.733859,0.030000,0.030000,0.878267,0.000000,1.000000,0.000000,0.000000,0.600000,1.000000,1.000000,0.000000,1.000000
4,0.005743,0.000000,1.000000,0.032533,0.800000,0.030000,0.160631,1.000000,0.000000,1.000000,0.000000,0.000000,0.579289,1.000000,1.000000,0.285432,0.000000
5,0.001160,0.018872,1.000000,0.210000,0.546026,0.030000,0.066993,1.000000,0.000000,1.000000,0.000000,0.000000,0.344130,0.880290,1.000000,0.000000,0.000000
6,0.001160,0.018872,1.000000,0.210000,0.546026,0.030000,0.066993,1.000000,0.000000,1.000000,0.000000,0.000000,0.344130,0.880290,1.000000,0.000000,0.000000
7,0.001127,0.000000,1.000000,0.210000,0.524505,0.030000,0.066993,1.000000,2.000000,1.000000,0.000000,0.000000,0.344130,0.880290,1.000000,0.000000,0.000000
8,0.000669,0.018872,1.000000,0.135018,0.546026,0.030000,0.066993,1.000000,0.000000,0.929547,0.000000,0.000000,0.303440,0.880290,1.000000,0.000000,0.000000
9,0.000503,0.018872,1.000000,0.135018,0.546026,0.030000,0.066993,1.000000,0.000000,1.000000,0.000000,0.000000,0.303440,0.880290,1.000000,0.000000,2.000000
10,0.000500,0.000000,1.000000,0.113296,0.546026,0.000000,0.066993,0.895782,2.000000,1.000000,0.127082,0.042760,0.160507,0.880290,0.906251,0.000000,0.000000
11,0.000437,0.018872,1.000000,0.135018,0.546026,0.030000,0.066993,1.000000,0.000000,1.000000,0.000000,0.000000,0.282896,0.892888,1.000000,0.000000,0.000000
12,0.000253,0.000000,1.000000,0.084435,0.546026,0.030000,0.066993,1.000000,0.000000,1.000000,0.000000,0.000000,0.169910,0.880290,1.000000,0.088825,0.000000
13,0.000146,0.018872,1.000000,0.135018,0.492846,0.000000,0.066993,1.000000,0.000000,1.000000,0.000000,0.052262,0.169910,0.880290,1.000000,0.088825,0.000000
14,0.000106,0.000000,1.000000,0.135018,0.483730,0.030000,0.066993,1.000000,0.000000,1.000000,0.000000,0.000000,0.174630,1.000000,1.000000,0.000000,0.000000
15,0.000021,0.000000,1.000000,0.117820,0.483730,0.030000,0.066993,1.000000,0.000000,1.000000,0.000000,0.000000,0.174630,1.000000,1.000000,0.000000,0.000000
16,0.000017,0.000000,1.000000,0.117820,0.483730,0.030000,0.066993,1.000000,0.000000,1.000000,0.000000,0.000000,0.174630,1.000000,1.000000,0.034192,1.000000
17,0.000017,0.000000,1.000000,0.117820,0.483730,0.030000,0.066993,1.000000,0.000000,1.000000,0.000000,0.000000,0.174630,1.000000,1.000000,0.034192,1.000000
18,0.000010,0.000000,1.000000,0.117820,0.483730,0.030000,0.066993,1.000000,0.000000,1.000000,0.000000,0.000000,0.174630,1.000000,1.000000,0.000000,2.000000
19,0.000010,0.000000,1.000000,0.117820,0.483730,0.030000,0.066993,1.000000,0.000000,1.000000,0.000000,0.000000,0.174630,1.000000,0.896892,0.000000,2.000000
20,0.000010,0.000000,1.000000,0.117820,0.483730,0.030000,0.066993,0.894152,0.000000,1.000000,0.000000,0.000000,0.174630,1.000000,0.904535,0.000000,0.000000
21,0.000009,0.000000,1.000000,0.117820,0.483730,0.017886,0.066993,0.931105,0.000000,1.000000,0.000000,0.000000,0.174630,1.000000,1.000000,0.000000,2.000000
22,0.000009,0.000000,1.000000,0.117820,0.483730,0.017886,0.066993,0.931105,0.000000,1.000000,0.000000,0.000000,0.174630,1.000000,1.000000,0.000000,2.000000
23,0.000002,0.000000,1.000000,0.117820,0.483730,0.030000,0.066993,0.819071,0.000000,1.000000,0.000000,0.000000,0.152501,1.000000,0.904535,0.067185,0.000000
24,0.000000,0.000000,1.000000,0.117820,0.483730,0.030000,0.066993,0.766683,0.000000,1.000000,0.000000,0.000000,0.152501,1.000000,0.822422,0.067185,0.000000
gen, fitness
0,0.010533,0.000000,1.000000,0.210000,0.800000,0.030000,0.030000,1.000000,0.000000,1.000000,0.000000,0.000000,0.600000,1.000000,1.000000,0.000000,0.000000
1,0.010533,0.000000,1.000000,0.210000,0.800000,0.030000,0.030000,1.000000,0.000000,1.000000,0.000000,0.000000,0.600000,1.000000,1.000000,0.000000,0.000000
2,0.004452,0.000000,1.000000,0.210000,0.632294,0.030000,0.030000,1.000000,0.000000,1.000000,0.000000,0.000000,0.600000,1.000000,1.000000,0.000000,0.000000
3,0.001973,0.144774,1.000000,0.210000,0.632294,0.030000,0.000000,1.000000,0.000000,1.000000,0.000000,0.000000,0.600000,1.000000,1.000000,0.000000,0.000000
4,0.001778,0.000000,1.000000,0.008724,0.798507,0.030000,0.030000,1.000000,0.000000,1.000000,0.000000,0.000000,0.600000,0.964922,1.000000,0.000000,0.000000
5,0.001346,0.144774,1.000000,0.210000,0.632294,0.030000,0.031779,1.000000,0.000000,1.000000,0.000000,0.000000,0.498315,1.000000,1.000000,0.000000,0.000000
6,0.001343,0.144774,1.000000,0.210000,0.632294,0.030000,0.000000,1.000000,0.000000,1.000000,0.000000,0.000000,0.576945,0.856920,1.000000,0.000000,1.000000
7,0.000922,0.000000,1.000000,0.179102,0.632294,0.030000,0.000000,1.000000,2.000000,1.000000,0.000000,0.000000,0.498315,1.000000,1.000000,0.000000,0.000000
8,0.000724,0.045675,1.000000,0.247451,0.579016,0.000000,0.000000,0.958383,1.000000,1.000000,0.033216,0.000000,0.498315,1.000000,0.865400,0.000000,0.000000
9,0.000573,0.144774,1.000000,0.171108,0.632294,0.030000,0.031779,0.837600,1.000000,1.000000,0.059814,0.000000,0.498315,0.827746,1.000000,0.000000,0.000000
10,0.000453,0.144774,1.000000,0.210000,0.606356,0.030000,0.031779,0.837600,0.000000,1.000000,0.059814,0.000000,0.507813,1.000000,1.000000,0.000000,0.000000
11,0.000329,0.199642,1.000000,0.120263,0.632294,0.030000,0.035866,0.837600,1.000000,1.000000,0.059814,0.000000,0.498315,0.841624,1.000000,0.000000,2.000000
12,0.000273,0.144774,1.000000,0.129279,0.632294,0.030000,0.031779,0.664491,2.000000,1.000000,0.059814,0.000000,0.465578,1.000000,1.000000,0.000000,0.000000
13,0.000152,0.144774,1.000000,0.129279,0.632294,0.000000,0.031779,0.664491,0.000000,1.000000,0.059814,0.000000,0.465578,1.000000,1.000000,0.000000,0.000000
14,0.000139,0.199642,1.000000,0.120263,0.632294,0.030000,0.035866,0.664491,0.000000,1.000000,0.059814,0.000000,0.465578,1.000000,1.000000,0.000000,0.000000
15,0.000117,0.199642,1.000000,0.120263,0.632294,0.030000,0.035866,0.622106,0.000000,1.000000,0.059814,0.000000,0.465578,1.000000,1.000000,0.000000,1.000000
16,0.000074,0.199642,1.000000,0.099820,0.632294,0.030000,0.035866,0.664491,0.000000,1.000000,0.059814,0.000000,0.465578,1.000000,1.000000,0.000000,0.000000
17,0.000074,0.199642,1.000000,0.099820,0.632294,0.030000,0.035866,0.664491,0.000000,1.000000,0.059814,0.000000,0.465578,1.000000,1.000000,0.000000,0.000000
18,0.000074,0.199642,1.000000,0.099820,0.632294,0.030000,0.035866,0.664491,0.000000,1.000000,0.059814,0.000000,0.465578,1.000000,1.000000,0.000000,0.000000
19,0.000020,0.292575,1.000000,0.054163,0.632294,0.030000,0.035866,0.664491,0.000000,1.000000,0.059814,0.000000,0.465578,0.794068,1.000000,0.000000,1.000000
20,0.000020,0.292575,1.000000,0.054163,0.632294,0.030000,0.035866,0.664491,0.000000,1.000000,0.059814,0.000000,0.465578,0.794068,1.000000,0.000000,1.000000
21,0.000005,0.292575,1.000000,0.054163,0.632294,0.030000,0.035866,0.664491,0.000000,0.986509,0.059814,0.000000,0.465578,1.000000,1.000000,0.000000,0.000000
22,0.000005,0.292575,1.000000,0.054163,0.632294,0.030000,0.035866,0.664491,0.000000,0.986509,0.059814,0.000000,0.465578,1.000000,1.000000,0.000000,0.000000
23,0.000005,0.292575,1.000000,0.054163,0.632294,0.030000,0.035866,0.664491,0.000000,0.986509,0.059814,0.000000,0.465578,1.000000,1.000000,0.000000,0.000000
24,0.000002,0.320542,1.000000,0.054163,0.632294,0.106434,0.035866,0.664491,0.000000,1.000000,0.059814,0.000000,0.465578,1.000000,1.000000,0.042581,0.000000
25,0.000002,0.320542,1.000000,0.054163,0.632294,0.106434,0.035866,0.664491,0.000000,1.000000,0.059814,0.000000,0.465578,1.000000,1.000000,0.042581,0.000000
26,0.000002,0.320542,1.000000,0.054163,0.632294,0.106434,0.035866,0.664491,0.000000,1.000000,0.059814,0.000000,0.465578,1.000000,1.000000,0.042581,0.000000
27,0.000000,0.320542,1.000000,0.054163,0.632294,0.108635,0.035866,0.618475,0.000000,1.000000,0.059814,0.000000,0.465578,1.000000,1.000000,0.012846,0.000000
gen, fitness
0,0.067934,0.000000,1.000000,0.210000,0.800000,0.030000,0.030000,1.000000,0.000000,1.000000,0.000000,0.000000,0.600000,1.000000,1.000000,0.000000,0.000000
1,0.067934,0.000000,1.000000,0.210000,0.800000,0.030000,0.030000,1.000000,0.000000,1.000000,0.000000,0.000000,0.600000,1.000000,1.000000,0.000000,0.000000
2,0.048916,0.000000,1.000000,0.210000,0.673584,0.030000,0.030000,1.000000,0.000000,1.000000,0.000000,0.000000,0.600000,1.000000,1.000000,0.000000,0.000000
3,0.037568,0.000000,1.000000,0.161586,0.668687,0.030000,0.030000,1.000000,0.000000,1.000000,0.000000,0.000000,0.496440,1.000000,1.000000,0.000000,0.000000
4,0.037568,0.000000,1.000000,0.161586,0.668687,0.030000,0.030000,1.000000,0.000000,1.000000,0.000000,0.000000,0.496440,1.000000,1.000000,0.000000,0.000000
5,0.037568,0.000000,1.000000,0.161586,0.668687,0.030000,0.030000,1.000000,0.000000,1.000000,0.000000,0.000000,0.496440,1.000000,1.000000,0.000000,0.000000
6,0.035939,0.000000,1.000000,0.161586,0.668687,0.030000,0.000000,0.777086,1.000000,1.000000,0.000000,0.000000,0.456291,1.000000,1.000000,0.000000,0.000000
7,0.033911,0.088063,1.000000,0.330130,0.385481,0.030000,0.120077,0.866195,0.000000,1.000000,0.000000,0.000000,0.496440,1.000000,0.932287,0.000000,0.000000
8,0.030626,0.000000,1.000000,0.161586,0.550250,0.030000,0.000000,0.777086,0.000000,1.000000,0.000000,0.000000,0.456291,1.000000,1.000000,0.000000,1.000000
9,0.023942,0.000000,1.000000,0.161586,0.535475,0.030000,0.000000,0.893124,0.000000,1.000000,0.000000,0.000000,0.379273,1.000000,1.000000,0.000000,1.000000
10,0.022422,0.000000,1.000000,0.010247,0.607684,0.000000,0.048389,0.777086,1.000000,1.000000,0.000000,0.000000,0.379273,1.000000,0.930838,0.000000,2.000000
11,0.018305,0.000000,1.000000,0.161586,0.535475,0.030000,0.000000,0.893124,0.000000,1.000000,0.000000,0.000000,0.258645,1.000000,1.000000,0.000000,1.000000
12,0.016426,0.295660,0.970686,0.453751,0.125544,0.030000,0.120077,0.866195,0.000000,1.000000,0.000000,0.000000,0.379273,1.000000,0.930838,0.000000,2.000000
13,0.012007,0.105185,1.000000,0.000000,0.535475,0.030000,0.201437,0.893124,0.000000,1.000000,0.000000,0.000000,0.277425,1.000000,1.000000,0.000000,1.000000
14,0.009750,0.350831,0.905607,0.315099,0.274160,0.030000,0.120077,0.866195,0.000000,1.000000,0.044546,0.000000,0.258645,1.000000,1.000000,0.000000,1.000000
15,0.008179,0.302651,1.000000,0.000000,0.535475,0.030000,0.201437,0.893124,0.000000,1.000000,0.000000,0.053945,0.216779,1.000000,0.860480,0.000000,2.000000
16,0.005884,0.105185,1.000000,0.000000,0.432388,0.030000,0.112738,0.893124,0.000000,1.000000,0.000000,0.000000,0.145956,0.955526,0.914599,0.000000,1.000000
17,0.004539,0.350831,0.953148,0.000000,0.454029,0.030000,0.314192,0.893124,2.000000,1.000000,0.000000,0.000000,0.212838,1.000000,1.000000,0.000000,1.000000
18,0.002120,0.105185,1.000000,0.000000,0.432388,0.030000,0.112738,0.893124,1.000000,1.000000,0.000000,0.000000,0.015585,0.955526,0.914599,0.000000,1.000000
19,0.002022,0.439763,0.905607,0.030928,0.274160,0.030000,0.181332,0.843017,0.000000,1.000000,0.000000,0.000000,0.145956,0.955526,0.914599,0.000000,1.000000
20,0.001381,0.439763,0.905607,0.030928,0.274160,0.030000,0.181332,0.843017,0.000000,0.927891,0.000000,0.000000,0.145956,0.955526,0.914599,0.000000,1.000000
21,0.000007,0.460092,0.905607,0.030928,0.274160,0.030000,0.181332,0.818418,0.000000,1.000000,0.000000,0.000000,0.005300,0.955526,0.914599,0.000000,1.000000
22,0.000007,0.460092,0.905607,0.030928,0.274160,0.030000,0.181332,0.818418,0.000000,1.000000,0.000000,0.000000,0.005300,0.955526,0.914599,0.000000,1.000000
23,0.000007,0.460092,0.905607,0.030928,0.274160,0.030000,0.181332,0.818418,0.000000,1.000000,0.000000,0.000000,0.005300,0.955526,0.914599,0.000000,1.000000
24,0.000001,0.460092,0.905607,0.030928,0.274160,0.030000,0.181332,0.818418,1.000000,1.000000,0.006257,0.000000,0.015585,0.955526,1.000000,0.000000,1.000000
25,0.000001,0.439763,0.905607,0.030928,0.274160,0.000000,0.144424,0.893124,0.000000,1.000000,0.000000,0.000000,0.005300,0.955526,0.914599,0.000000,1.000000
gen, fitness
0,0.030614,0.000000,1.000000,0.210000,0.800000,0.030000,0.030000,1.000000,0.000000,1.000000,0.000000,0.000000,0.600000,1.000000,1.000000,0.000000,0.000000
1,0.030614,0.000000,1.000000,0.210000,0.800000,0.030000,0.030000,1.000000,0.000000,1.000000,0.000000,0.000000,0.600000,1.000000,1.000000,0.000000,0.000000
2,0.014998,0.000000,1.000000,0.210000,0.664209,0.030000,0.030000,1.000000,0.000000,1.000000,0.000000,0.000000,0.600000,1.000000,1.000000,0.000000,0.000000
3,0.014998,0.000000,1.000000,0.210000,0.664209,0.030000,0.030000,1.000000,0.000000,1.000000,0.000000,0.000000,0.600000,1.000000,1.000000,0.000000,0.000000
4,0.014984,0.000000,1.000000,0.210000,0.664209,0.030000,0.000000,1.000000,0.000000,1.000000,0.000000,0.000000,0.600000,1.000000,1.000000,0.000000,0.000000
5,0.011821,0.000000,1.000000,0.210000,0.664209,0.030000,0.030000,1.000000,0.000000,1.000000,0.000000,0.000000,0.523043,1.000000,1.000000,0.000000,0.000000
6,0.011231,0.000000,1.000000,0.210000,0.664209,0.030000,0.030000,0.840349,0.000000,1.000000,0.000000,0.000625,0.523043,0.798172,1.000000,0.000000,0.000000
7,0.011231,0.000000,1.000000,0.210000,0.664209,0.030000,0.030000,0.840349,0.000000,1.000000,0.000000,0.000625,0.523043,0.798172,1.000000,0.000000,0.000000
8,0.006193,0.000000,1.000000,0.257990,0.458653,0.030000,0.030000,0.938784,0.000000,1.000000,0.000000,0.000000,0.403109,1.000000,1.000000,0.000000,1.000000
9,0.006088,0.000000,1.000000,0.296699,0.458653,0.030000,0.030000,0.938784,0.000000,1.000000,0.000000,0.000000,0.403109,1.000000,1.000000,0.000000,1.000000
10,0.004093,0.000000,1.000000,0.257990,0.458653,0.030000,0.030000,0.938784,0.000000,1.000000,0.000000,0.000000,0.240111,1.000000,1.000000,0.137877,2.000000
11,0.003376,0.000000,1.000000,0.110551,0.572189,0.030000,0.030000,0.853013,0.000000,1.000000,0.187223,0.000000,0.308199,1.000000,1.000000,0.000000,0.000000
12,0.003185,0.000000,1.000000,0.257990,0.409663,0.030000,0.030000,0.938784,2.000000,1.000000,0.000000,0.000000,0.240111,1.000000,1.000000,0.185993,2.000000
13,0.002901,0.183102,0.980418,0.000000,0.608036,0.030000,0.030000,0.853013,0.000000,1.000000,0.166884,0.000000,0.368349,1.000000,1.000000,0.110723,0.000000
14,0.001757,0.050777,0.894159,0.000000,0.601492,0.030000,0.030000,0.938784,0.000000,1.000000,0.109235,0.025988,0.145572,1.000000,1.000000,0.157698,0.000000
15,0.001035,0.000000,1.000000,0.177349,0.409663,0.030000,0.030000,0.938784,0.000000,1.000000,0.000000,0.000000,0.145572,1.000000,1.000000,0.157698,0.000000
16,0.000319,0.000000,1.000000,0.098892,0.409663,0.030000,0.030000,0.938784,0.000000,1.000000,0.013243,0.000000,0.000000,1.000000,1.000000,0.137877,2.000000
17,0.000117,0.000000,1.000000,0.035046,0.409663,0.030000,0.030000,0.879308,0.000000,1.000000,0.013243,0.000000,0.000000,1.000000,1.000000,0.137877,2.000000
18,0.000085,0.000000,1.000000,0.098892,0.374456,0.030000,0.000000,0.938784,1.000000,0.974858,0.013243,0.000000,0.000000,1.000000,0.919569,0.137877,2.000000
19,0.000006,0.000000,1.000000,0.035046,0.433321,0.030000,0.030000,0.879308,0.000000,0.982820,0.013243,0.000000,0.000000,1.000000,1.000000,0.137877,2.000000
20,0.000000,0.000000,1.000000,0.035046,0.433321,0.030000,0.030000,0.879308,0.000000,1.000000,0.013243,0.000000,0.000000,0.959746,1.000000,0.137877,2.000000
gen, fitness
0,0.009712,0.000000,1.000000,0.210000,0.800000,0.030000,0.030000,1.000000,0.000000,1.000000,0.000000,0.000000,0.600000,1.000000,1.000000,0.000000,0.000000
1,0.009712,0.000000,1.000000,0.210000,0.800000,0.030000,0.030000,1.000000,0.000000,1.000000,0.000000,0.000000,0.600000,1.000000,1.000000,0.000000,0.000000
2,0.000232,0.000000,1.000000,0.210000,0.684484,0.112511,0.030000,1.000000,0.000000,1.000000,0.000000,0.000000,0.600000,1.000000,1.000000,0.000000,0.000000
3,0.000225,0.000000,1.000000,0.174623,0.703298,0.075014,0.030000,1.000000,1.000000,1.000000,0.000000,0.000000,0.600000,1.000000,1.000000,0.000000,0.000000
4,0.000214,0.000000,0.798097,0.210000,0.684484,0.112511,0.000000,1.000000,0.000000,0.989409,0.000000,0.000000,0.600000,1.000000,1.000000,0.000000,0.000000
5,0.000214,0.000000,0.798097,0.210000,0.684484,0.112511,0.000000,1.000000,0.000000,0.989409,0.000000,0.000000,0.600000,1.000000,1.000000,0.000000,0.000000
6,0.000201,0.000000,1.000000,0.195793,0.703298,0.075014,0.030000,0.880032,0.000000,0.989409,0.000000,0.000000,0.600000,1.000000,1.000000,0.000000,0.000000
7,0.000194,0.000000,1.000000,0.195793,0.703298,0.041604,0.030000,0.880032,0.000000,1.000000,0.000000,0.000000,0.600000,0.966847,1.000000,0.000000,0.000000
8,0.000147,0.042038,0.781921,0.210000,0.684484,0.075014,0.030000,0.880032,0.000000,0.989409,0.000000,0.000000,0.600000,1.000000,1.000000,0.000000,0.000000
9,0.000147,0.042038,0.781921,0.210000,0.684484,0.075014,0.030000,0.880032,0.000000,0.989409,0.000000,0.000000,0.600000,1.000000,1.000000,0.000000,0.000000
10,0.000134,0.044270,0.781921,0.210000,0.684484,0.075014,0.030000,0.822524,0.000000,0.987673,0.000000,0.000000,0.600000,1.000000,1.000000,0.029038,0.000000
11,0.000134,0.044270,0.781921,0.210000,0.684484,0.075014,0.030000,0.822524,0.000000,0.987673,0.000000,0.000000,0.600000,1.000000,1.000000,0.029038,0.000000
12,0.000107,0.042038,0.781921,0.195793,0.703298,0.000000,0.030000,0.614539,0.000000,0.989409,0.000000,0.000000,0.600000,1.000000,1.000000,0.000000,0.000000
13,0.000097,0.042038,0.705439,0.195793,0.703298,0.000000,0.030000,0.614539,0.000000,0.989409,0.000000,0.000000,0.600000,1.000000,0.829781,0.000000,0.000000
14,0.000089,0.042038,0.705439,0.195793,0.703298,0.000000,0.030000,0.614539,0.000000,1.000000,0.000000,0.000000,0.600000,1.000000,0.829781,0.000000,0.000000
15,0.000072,0.042038,0.705439,0.195793,0.703298,0.000000,0.030000,0.492677,0.000000,1.000000,0.000000,0.000000,0.600000,1.000000,0.829781,0.000000,0.000000
16,0.000070,0.042038,0.705439,0.195793,0.703298,0.000000,0.000000,0.492677,0.000000,1.000000,0.000000,0.000000,0.600000,1.000000,0.829781,0.000000,0.000000
17,0.000070,0.042038,0.705439,0.195793,0.703298,0.000000,0.000000,0.492677,0.000000,1.000000,0.000000,0.000000,0.600000,1.000000,0.829781,0.000000,0.000000
18,0.000062,0.042038,0.705439,0.195793,0.703298,0.000000,0.030000,0.492677,0.000000,1.000000,0.000000,0.000000,0.590880,1.000000,0.829781,0.103343,0.000000
19,0.000062,0.042038,0.705439,0.195793,0.703298,0.000000,0.030000,0.492677,0.000000,1.000000,0.000000,0.000000,0.590880,1.000000,0.829781,0.103343,0.000000
20,0.000060,0.042038,0.705439,0.195793,0.703298,0.000000,0.000000,0.451748,0.000000,0.982135,0.017424,0.000000,0.600000,0.956557,0.829781,0.000000,0.000000
21,0.000060,0.042038,0.705439,0.195793,0.703298,0.000000,0.000000,0.451748,0.000000,0.982135,0.017424,0.000000,0.600000,0.956557,0.829781,0.000000,0.000000
22,0.000033,0.042038,0.609190,0.195793,0.703298,0.000000,0.001545,0.274081,0.000000,0.956886,0.000000,0.000000,0.590880,1.000000,0.829781,0.103343,0.000000
23,0.000033,0.042038,0.609190,0.195793,0.703298,0.000000,0.001545,0.274081,0.000000,0.956886,0.000000,0.000000,0.590880,1.000000,0.829781,0.103343,0.000000
24,0.000026,0.075548,0.652507,0.195793,0.691656,0.000000,0.001545,0.274081,1.000000,0.956886,0.000000,0.000000,0.590880,1.000000,0.829781,0.103343,0.000000
25,0.000025,0.075548,0.652507,0.195793,0.691656,0.000000,0.001545,0.274081,1.000000,0.956886,0.000000,0.000000,0.590880,1.000000,0.808343,0.103343,0.000000
26,0.000018,0.042038,0.422823,0.195793,0.696687,0.000000,0.001545,0.274081,0.000000,0.956886,0.000000,0.000000,0.590880,1.000000,0.829781,0.000947,0.000000
27,0.000010,0.075548,0.652507,0.195793,0.691656,0.000000,0.001545,0.274081,0.000000,0.956886,0.000000,0.000000,0.590880,1.000000,0.598386,0.008970,0.000000
28,0.000010,0.075548,0.652507,0.195793,0.691656,0.000000,0.001545,0.274081,0.000000,0.956886,0.000000,0.000000,0.590880,1.000000,0.598386,0.008970,0.000000
29,0.000006,0.042038,0.326229,0.195793,0.703298,0.000000,0.001545,0.057285,0.000000,0.956886,0.000000,0.000000,0.590880,1.000000,0.829781,0.000000,0.000000
30,0.000005,0.075548,0.682988,0.195793,0.691656,0.020032,0.000000,0.184514,0.000000,0.956886,0.067373,0.000000,0.590880,1.000000,0.829781,0.000000,0.000000
31,0.000005,0.075548,0.682988,0.195793,0.691656,0.020032,0.000000,0.184514,0.000000,0.956886,0.067373,0.000000,0.590880,1.000000,0.829781,0.000000,0.000000
32,0.000004,0.046765,0.326229,0.195793,0.703298,0.027301,0.001545,0.057285,0.000000,0.956886,0.000000,0.000000,0.590880,0.933107,0.829781,0.000000,0.000000
gen, fitness
0,0.026348,0.000000,1.000000,0.210000,0.800000,0.030000,0.030000,1.000000,0.000000,1.000000,0.000000,0.000000,0.600000,1.000000,1.000000,0.000000,0.000000
1,0.026348,0.000000,1.000000,0.210000,0.800000,0.030000,0.030000,1.000000,0.000000,1.000000,0.000000,0.000000,0.600000,1.000000,1.000000,0.000000,0.000000
2,0.016035,0.000000,1.000000,0.069986,0.800000,0.030000,0.030000,1.000000,0.000000,1.000000,0.000000,0.000000,0.622944,1.000000,1.000000,0.000000,0.000000
3,0.014495,0.000000,1.000000,0.210000,0.734032,0.030000,0.030000,1.000000,0.000000,1.000000,0.000000,0.000000,0.600000,1.000000,1.000000,0.000000,0.000000
4,0.012196,0.000000,1.000000,0.056103,0.715775,0.000000,0.030000,1.000000,0.000000,0.897903,0.040630,0.000000,0.600000,1.000000,1.000000,0.000000,0.000000
5,0.012192,0.000000,1.000000,0.056103,0.715775,0.000000,0.030000,1.000000,0.000000,0.897903,0.031438,0.000000,0.600000,1.000000,1.000000,0.000000,0.000000
6,0.009117,0.000000,1.000000,0.210000,0.647495,0.030000,0.064758,1.000000,0.000000,1.000000,0.000000,0.000000,0.554538,1.000000,1.000000,0.000000,0.000000
7,0.007986,0.119353,1.000000,0.210000,0.647495,0.179041,0.064758,1.000000,0.000000,1.000000,0.000000,0.000000,0.554538,1.000000,1.000000,0.000000,1.000000
8,0.007927,0.077921,1.000000,0.056103,0.715775,0.000000,0.030000,1.000000,0.000000,1.000000,0.000000,0.000000,0.554538,1.000000,1.000000,0.000000,0.000000
9,0.004227,0.084594,1.000000,0.084508,0.611938,0.094779,0.092514,1.000000,0.000000,0.949378,0.000000,0.000000,0.468312,1.000000,0.928124,0.000000,0.000000
10,0.003241,0.185282,1.000000,0.084508,0.611938,0.094779,0.092514,1.000000,0.000000,0.949378,0.000000,0.000000,0.468312,0.903383,1.000000,0.000000,0.000000
11,0.003123,0.119353,1.000000,0.061531,0.647495,0.179041,0.064758,0.899215,0.000000,1.000000,0.019858,0.000000,0.444375,1.000000,1.000000,0.000000,2.000000
12,0.002158,0.084594,1.000000,0.084508,0.611938,0.094779,0.167761,1.000000,0.000000,1.000000,0.000000,0.000000,0.361996,1.000000,0.769924,0.000000,0.000000
13,0.001951,0.084594,1.000000,0.084508,0.603690,0.094779,0.167761,1.000000,0.000000,1.000000,0.000000,0.000000,0.361996,1.000000,0.769924,0.000000,0.000000
14,0.001235,0.135931,1.000000,0.015477,0.611938,0.138866,0.167761,1.000000,0.000000,1.000000,0.000000,0.000000,0.361996,1.000000,0.769924,0.000000,0.000000
15,0.000485,0.084594,1.000000,0.084508,0.402934,0.094779,0.167761,1.000000,0.000000,0.799859,0.000000,0.000000,0.265884,1.000000,0.769924,0.000000,0.000000
16,0.000476,0.084594,1.000000,0.084508,0.402934,0.094779,0.167761,1.000000,1.000000,0.799859,0.000000,0.000000,0.265884,1.000000,0.769924,0.000000,0.000000
17,0.000075,0.208394,1.000000,0.084508,0.402934,0.094779,0.167761,1.000000,0.000000,0.799859,0.000000,0.000000,0.265884,1.000000,0.769924,0.095286,0.000000
18,0.000070,0.185282,0.992109,0.084508,0.401914,0.094779,0.148090,1.000000,0.000000,0.799859,0.238619,0.000000,0.265884,1.000000,0.807001,0.000000,0.000000
19,0.000035,0.208394,1.000000,0.067528,0.402934,0.094779,0.167761,1.000000,0.000000,0.799859,0.000000,0.000000,0.265884,0.972915,0.769924,0.000000,0.000000
20,0.000002,0.084594,0.990853,0.084508,0.402934,0.094779,0.167761,0.976024,0.000000,0.828763,0.000000,0.000000,0.181954,1.000000,0.683117,0.095286,2.000000
21,0.000001,0.084594,0.822597,0.084508,0.402934,0.060175,0.167761,1.000000,0.000000,0.828763,0.000000,0.000000,0.181954,1.000000,0.683117,0.054707,2.000000
gen, fitness
0,0.052335,0.000000,1.000000,0.210000,0.800000,0.030000,0.030000,1.000000,0.000000,1.000000,0.000000,0.000000,0.600000,1.000000,1.000000,0.000000,0.000000
1,0.052335,0.000000,1.000000,0.210000,0.800000,0.030000,0.030000,1.000000,0.000000,1.000000,0.000000,0.000000,0.600000,1.000000,1.000000,0.000000,0.000000
2,0.031979,0.000000,1.000000,0.016468,0.800000,0.030000,0.030000,1.000000,0.000000,1.000000,0.000000,0.000000,0.600000,1.000000,1.000000,0.000000,0.000000
3,0.027852,0.000000,1.000000,0.000000,0.800000,0.030000,0.030000,1.000000,0.000000,1.000000,0.000000,0.000000,0.525102,1.000000,1.000000,0.000000,0.000000
4,0.027813,0.000000,1.000000,0.000000,0.800000,0.030000,0.030000,1.000000,0.000000,1.000000,0.065643,0.000000,0.525102,1.000000,1.000000,0.000000,0.000000
5,0.027807,0.000000,1.000000,0.000000,0.800000,0.030000,0.030000,1.000000,0.000000,1.000000,0.000000,0.000000,0.525102,1.000000,0.866489,0.000000,0.000000
6,0.023061,0.000000,1.000000,0.016468,0.708367,0.030000,0.030000,1.000000,0.000000,1.000000,0.000000,0.000000,0.545145,1.000000,1.000000,0.000000,0.000000
7,0.019943,0.029109,1.000000,0.000000,0.724517,0.030000,0.030000,1.000000,1.000000,1.000000,0.000000,0.000000,0.505856,1.000000,1.000000,0.053314,0.000000
8,0.016938,0.156429,1.000000,0.000000,0.668186,0.174138,0.164268,1.000000,0.000000,1.000000,0.000000,0.000000,0.525102,1.000000,1.000000,0.000000,0.000000
9,0.010497,0.156429,1.000000,0.000000,0.668186,0.174138,0.164268,1.000000,0.000000,1.000000,0.000000,0.000000,0.414082,1.000000,1.000000,0.000000,0.000000
10,0.010497,0.156429,1.000000,0.000000,0.668186,0.174138,0.164268,1.000000,0.000000,1.000000,0.000000,0.000000,0.414082,1.000000,1.000000,0.000000,0.000000
11,0.010490,0.156429,1.000000,0.000000,0.668186,0.174138,0.152467,1.000000,0.000000,1.000000,0.000000,0.000000,0.414082,1.000000,1.000000,0.000000,0.000000
12,0.010025,0.156429,1.000000,0.000000,0.668186,0.174138,0.164268,1.000000,0.000000,1.000000,0.000000,0.000000,0.393170,1.000000,1.000000,0.000000,0.000000
13,0.002907,0.243222,0.963932,0.000000,0.537594,0.176014,0.164268,1.000000,0.000000,1.000000,0.000000,0.000000,0.176639,1.000000,1.000000,0.000000,2.000000
14,0.002608,0.156429,1.000000,0.000000,0.537594,0.176014,0.164268,1.000000,0.000000,1.000000,0.000000,0.000000,0.176639,1.000000,1.000000,0.161699,2.000000
15,0.001228,0.243222,0.963932,0.000000,0.427690,0.176014,0.164268,1.000000,0.000000,1.000000,0.000000,0.000000,0.176639,1.000000,1.000000,0.000000,2.000000
16,0.000914,0.243222,0.963932,0.000000,0.427690,0.176014,0.164268,1.000000,0.000000,1.000000,0.000000,0.000000,0.161398,1.000000,1.000000,0.000000,2.000000
17,0.000438,0.431393,0.963932,0.000000,0.427690,0.176014,0.164268,1.000000,0.000000,1.000000,0.000000,0.000000,0.176639,1.000000,1.000000,0.000000,2.000000
18,0.000386,0.243222,0.963932,0.000000,0.427690,0.176014,0.164268,1.000000,0.000000,1.000000,0.000000,0.000000,0.066382,0.923696,1.000000,0.000000,2.000000
19,0.000203,0.243222,0.963932,0.000000,0.427690,0.176014,0.164268,0.833134,0.000000,1.000000,0.000000,0.015364,0.055699,0.939592,1.000000,0.005032,0.000000
20,0.000201,0.243222,0.963932,0.000000,0.427690,0.176014,0.267557,0.833134,0.000000,1.000000,0.000000,0.015364,0.055699,1.000000,1.000000,0.005032,0.000000
21,0.000147,0.243222,0.963932,0.000000,0.411013,0.218803,0.164268,1.000000,0.000000,1.000000,0.180760,0.003392,0.066382,0.923696,1.000000,0.042801,2.000000
22,0.000051,0.243222,0.963932,0.000000,0.403669,0.176014,0.267557,0.833134,0.000000,1.000000,0.000000,0.015364,0.055699,1.000000,1.000000,0.005032,0.000000
23,0.000050,0.243222,0.989517,0.000000,0.403669,0.176014,0.267557,0.833134,0.000000,1.000000,0.000000,0.015364,0.055699,1.000000,1.000000,0.005032,0.000000
24,0.000041,0.331994,0.963932,0.000000,0.390408,0.176014,0.268180,0.833134,0.000000,1.000000,0.000000,0.015364,0.055699,1.000000,1.000000,0.005032,2.000000
25,0.000018,0.310931,0.963932,0.000000,0.390085,0.218803,0.092071,0.840200,0.000000,1.000000,0.220507,0.000000,0.066382,0.923696,1.000000,0.042801,0.000000
26,0.000011,0.243222,0.963932,0.000000,0.390085,0.218803,0.267557,0.833134,0.000000,1.000000,0.000000,0.000000,0.055699,1.000000,1.000000,0.000000,0.000000
27,0.000007,0.310931,0.963932,0.000000,0.390085,0.218803,0.092071,0.840200,0.000000,1.000000,0.220507,0.000000,0.066382,0.923696,0.813089,0.136443,0.000000
28,0.000005,0.253684,0.963932,0.000000,0.403669,0.176014,0.267557,0.657532,0.000000,1.000000,0.000000,0.000000,0.055699,1.000000,1.000000,0.005032,1.000000
29,0.000005,0.253684,0.963932,0.000000,0.403669,0.176014,0.267557,0.657532,0.000000,1.000000,0.000000,0.000000,0.055699,1.000000,1.000000,0.005032,1.000000
30,0.000004,0.253684,0.963932,0.000000,0.403669,0.176014,0.267557,0.657532,0.000000,1.000000,0.000000,0.000000,0.055699,1.000000,1.000000,0.000000,1.000000
31,0.000002,0.253684,1.000000,0.000000,0.403669,0.176014,0.119129,0.623658,0.000000,1.000000,0.000000,0.000000,0.055699,1.000000,1.000000,0.005032,1.000000
32,0.000002,0.253684,1.000000,0.000000,0.403669,0.176014,0.119129,0.655106,0.000000,1.000000,0.000000,0.000000,0.055699,1.000000,1.000000,0.005032,1.000000
33,0.000002,0.253684,1.000000,0.000000,0.403669,0.017771,0.119129,0.655106,0.000000,1.000000,0.000000,0.000000,0.055699,1.000000,0.961758,0.005032,1.000000
34,0.000000,0.253684,1.000000,0.000000,0.403669,0.176014,0.119129,0.623658,0.000000,1.000000,0.000000,0.000000,0.055699,1.000000,1.000000,0.005032,0.000000
gen, fitness
0,0.080636,0.000000,1.000000,0.210000,0.800000,0.030000,0.030000,1.000000,0.000000,1.000000,0.000000,0.000000,0.600000,1.000000,1.000000,0.000000,0.000000
1,0.080636,0.000000,1.000000,0.210000,0.800000,0.030000,0.030000,1.000000,0.000000,1.000000,0.000000,0.000000,0.600000,1.000000,1.000000,0.000000,0.000000
2,0.063202,0.000000,1.000000,0.210000,0.713413,0.030000,0.030000,1.000000,2.000000,1.000000,0.000000,0.000000,0.600000,1.000000,1.000000,0.000000,0.000000
3,0.058837,0.000000,1.000000,0.038017,0.800000,0.030000,0.030000,1.000000,0.000000,1.000000,0.000000,0.000000,0.600745,1.000000,1.000000,0.000000,0.000000
4,0.052944,0.000000,1.000000,0.210000,0.528298,0.030000,0.030000,1.000000,0.000000,1.000000,0.000000,0.000000,0.600000,1.000000,1.000000,0.000000,0.000000
5,0.047869,0.000000,1.000000,0.210000,0.528298,0.030000,0.030000,1.000000,0.000000,1.000000,0.000000,0.000000,0.575498,1.000000,1.000000,0.000000,0.000000
6,0.046302,0.000000,1.000000,0.227984,0.528298,0.040115,0.030000,1.000000,0.000000,0.852820,0.015518,0.000000,0.566745,1.000000,0.993805,0.129904,0.000000
7,0.043106,0.000000,0.934613,0.210000,0.620054,0.030000,0.030000,1.000000,0.000000,1.000000,0.000000,0.000000,0.536005,1.000000,1.000000,0.000000,0.000000
8,0.040900,0.162579,0.946521,0.227984,0.528298,0.040115,0.000000,1.000000,0.000000,0.852820,0.015518,0.000000,0.566745,1.000000,0.993805,0.129904,0.000000
9,0.030207,0.109906,1.000000,0.210000,0.480577,0.000000,0.030000,1.000000,0.000000,1.000000,0.000000,0.000000,0.461812,0.890044,1.000000,0.000000,0.000000
10,0.029683,0.000000,0.946228,0.210000,0.488217,0.030000,0.030000,1.000000,0.000000,1.000000,0.000000,0.000000,0.413301,1.000000,0.976251,0.000000,0.000000
11,0.025271,0.000000,0.946228,0.210000,0.488217,0.030000,0.030000,1.000000,0.000000,1.000000,0.000000,0.000000,0.263745,1.000000,0.976251,0.000000,0.000000
12,0.025271,0.000000,0.946228,0.210000,0.488217,0.030000,0.030000,1.000000,0.000000,1.000000,0.000000,0.000000,0.263745,1.000000,0.976251,0.000000,0.000000
13,0.016664,0.000000,0.946228,0.039482,0.488217,0.030000,0.030000,1.000000,0.000000,1.000000,0.000000,0.000000,0.263745,1.000000,0.976251,0.000000,2.000000
14,0.013129,0.000000,0.946228,0.039482,0.488217,0.030000,0.100862,1.000000,2.000000,1.000000,0.000000,0.000000,0.143441,1.000000,0.976251,0.000000,2.000000
15,0.013127,0.000000,0.946228,0.039482,0.488217,0.030000,0.100862,1.000000,2.000000,1.000000,0.007157,0.000000,0.143441,1.000000,0.976251,0.000000,2.000000
16,0.009822,0.000000,0.946228,0.000000,0.419679,0.000000,0.030000,1.000000,2.000000,1.000000,0.007157,0.000000,0.143441,1.000000,0.976251,0.000000,2.000000
17,0.007570,0.120142,0.946228,0.000000,0.419679,0.000000,0.030000,1.000000,2.000000,1.000000,0.007157,0.000000,0.143441,1.000000,0.976251,0.000000,2.000000
18,0.004888,0.120142,0.946228,0.039482,0.291954,0.030000,0.030000,0.996439,0.000000,1.000000,0.000000,0.027101,0.067681,1.000000,0.976251,0.000000,0.000000
19,0.004888,0.120142,0.946228,0.039482,0.291954,0.030000,0.030000,0.996439,0.000000,1.000000,0.000000,0.027101,0.067681,1.000000,0.976251,0.000000,0.000000
20,0.000910,0.338938,0.946228,0.000000,0.291954,0.016827,0.030000,0.996439,0.000000,0.995476,0.000000,0.027101,0.000000,1.000000,0.976251,0.000000,0.000000
21,0.000904,0.338938,0.946228,0.000000,0.291954,0.016827,0.030000,0.996439,0.000000,0.995476,0.045128,0.027101,0.000000,1.000000,0.976251,0.000000,0.000000
22,0.000876,0.338938,0.946228,0.000000,0.291954,0.000166,0.030000,0.996439,0.000000,1.000000,0.000000,0.027101,0.000000,1.000000,1.000000,0.000000,0.000000
23,0.000283,0.338938,0.946228,0.000000,0.245472,0.030000,0.088355,0.996439,0.000000,1.000000,0.000000,0.000000,0.000000,1.000000,0.948797,0.000000,0.000000
24,0.000245,0.338938,0.946228,0.000000,0.245472,0.030000,0.088355,0.866050,0.000000,1.000000,0.000000,0.000000,0.000000,1.000000,0.948797,0.000000,0.000000
25,0.000026,0.469503,0.946228,0.000000,0.210759,0.030000,0.082456,0.996439,0.000000,1.000000,0.000000,0.000000,0.000000,1.000000,0.948797,0.113670,0.000000
26,0.000026,0.469503,0.946228,0.000000,0.210759,0.030000,0.082456,0.996439,0.000000,1.000000,0.000000,0.000000,0.000000,1.000000,0.948797,0.113670,0.000000
27,0.000002,0.461365,0.946228,0.000000,0.210759,0.030000,0.082456,0.721512,1.000000,1.000000,0.000000,0.000000,0.000000,0.960659,1.000000,0.000000,0.000000
28,0.000002,0.461365,0.946228,0.000000,0.210759,0.030000,0.082456,0.721512,1.000000,1.000000,0.000000,0.000000,0.000000,0.960659,1.000000,0.000000,0.000000
29,0.000001,0.463282,0.946228,0.000000,0.210759,0.030000,0.082456,0.721512,1.000000,1.000000,0.000000,0.000000,0.000000,0.960659,1.000000,0.000000,0.000000
30,0.000000,0.461365,0.946228,0.000000,0.210759,0.030000,0.082456,0.721512,0.000000,0.987498,0.000000,0.000000,0.000000,0.960659,1.000000,0.000000,0.000000
gen, fitness
0,0.025383,0.000000,1.000000,0.210000,0.800000,0.030000,0.030000,1.000000,0.000000,1.000000,0.000000,0.000000,0.600000,1.000000,1.000000,0.000000,0.000000
1,0.025383,0.000000,1.000000,0.210000,0.800000,0.030000,0.030000,1.000000,0.000000,1.000000,0.000000,0.000000,0.600000,1.000000,1.000000,0.000000,0.000000
2,0.012482,0.000000,1.000000,0.027164,0.800000,0.030000,0.030000,1.000000,0.000000,1.000000,0.000000,0.000000,0.600000,1.000000,1.000000,0.000000,0.000000
3,0.008271,0.000000,1.000000,0.210000,0.642266,0.030000,0.030000,1.000000,0.000000,1.000000,0.000000,0.000000,0.424158,1.000000,1.000000,0.000000,0.000000
4,0.004482,0.000000,1.000000,0.210000,0.565191,0.030000,0.058294,1.000000,0.000000,1.000000,0.000000,0.000000,0.424158,1.000000,1.000000,0.000000,0.000000
5,0.004479,0.000000,1.000000,0.210000,0.565191,0.030000,0.039240,1.000000,0.000000,1.000000,0.000000,0.000000,0.424158,1.000000,1.000000,0.000000,0.000000
6,0.004442,0.000000,1.000000,0.096888,0.642266,0.030000,0.030000,1.000000,0.000000,1.000000,0.266352,0.000000,0.424158,1.000000,1.000000,0.000000,0.000000
7,0.004215,0.000000,1.000000,0.096888,0.616138,0.030000,0.030000,1.000000,0.000000,1.000000,0.281341,0.000000,0.424158,1.000000,1.000000,0.000000,0.000000
8,0.003682,0.054220,1.000000,0.130272,0.576258,0.030000,0.030000,1.000000,0.000000,1.000000,0.000000,0.000000,0.424158,1.000000,1.000000,0.000000,0.000000
9,0.003288,0.000000,1.000000,0.096888,0.616138,0.030000,0.030000,1.000000,0.000000,1.000000,0.281341,0.000000,0.344129,1.000000,1.000000,0.000000,0.000000
10,0.002568,0.021886,1.000000,0.028627,0.565191,0.030000,0.187803,1.000000,0.000000,1.000000,0.281341,0.000000,0.333876,1.000000,1.000000,0.000000,0.000000
11,0.000843,0.021886,1.000000,0.028627,0.565191,0.000000,0.187803,1.000000,0.000000,1.000000,0.281341,0.000000,0.219542,1.000000,0.993973,0.000000,0.000000
12,0.000843,0.021886,1.000000,0.028627,0.565191,0.000000,0.187803,1.000000,0.000000,1.000000,0.281341,0.000000,0.219542,1.000000,0.993973,0.000000,0.000000
13,0.000678,0.021886,0.938992,0.028627,0.540202,0.000000,0.187803,1.000000,0.000000,1.000000,0.128899,0.000000,0.219542,1.000000,0.993973,0.000000,1.000000
14,0.000678,0.021886,0.938992,0.028627,0.540202,0.000000,0.187803,1.000000,0.000000,1.000000,0.128899,0.000000,0.219542,1.000000,0.993973,0.000000,1.000000
15,0.000570,0.181899,1.000000,0.000000,0.565191,0.000000,0.187803,0.993581,0.000000,1.000000,0.281341,0.000000,0.257583,1.000000,1.000000,0.000000,0.000000
16,0.000058,0.243622,1.000000,0.130272,0.381733,0.030000,0.030000,0.989483,0.000000,1.000000,0.281341,0.000000,0.219542,1.000000,0.993973,0.000000,0.000000
17,0.000058,0.243622,1.000000,0.130272,0.381733,0.030000,0.030000,0.989483,0.000000,1.000000,0.281341,0.000000,0.219542,1.000000,0.993973,0.000000,0.000000
18,0.000058,0.243622,1.000000,0.130272,0.381733,0.030000,0.030000,0.989483,0.000000,1.000000,0.281341,0.000000,0.219542,1.000000,0.993973,0.000000,0.000000
19,0.000057,0.243622,1.000000,0.130272,0.381733,0.030000,0.030000,0.989483,0.000000,1.000000,0.372636,0.000000,0.219542,1.000000,0.919744,0.000000,0.000000
20,0.000027,0.280193,1.000000,0.096375,0.381733,0.030000,0.063460,0.989483,0.000000,1.000000,0.281341,0.000000,0.219542,1.000000,0.993973,0.000000,0.000000
21,0.000027,0.280193,1.000000,0.096375,0.381733,0.030000,0.063460,0.989483,0.000000,1.000000,0.281341,0.000000,0.219542,1.000000,0.993973,0.000000,0.000000
22,0.000013,0.280193,0.990717,0.096375,0.381733,0.030000,0.063460,0.989483,0.000000,1.000000,0.217350,0.000000,0.216376,1.000000,1.000000,0.000000,0.000000
23,0.000004,0.188542,0.990717,0.096375,0.381733,0.030000,0.063460,0.989483,0.000000,1.000000,0.157224,0.000000,0.160183,1.000000,1.000000,0.000000,1.000000
24,0.000004,0.188542,0.990717,0.096375,0.381733,0.073580,0.063460,0.989483,0.000000,1.000000,0.157224,0.000000,0.160183,1.000000,1.000000,0.000000,1.000000
25,0.000000,0.307124,0.990717,0.096375,0.381733,0.000000,0.063460,0.989483,0.000000,1.000000,0.281341,0.000000,0.219542,1.000000,0.980651,0.000000,0.000000
