gen, fitness
0,0.013430,0.000000,1.000000,0.210000,0.800000,0.030000,0.030000,1.000000,0.000000,1.000000,0.000000,0.000000,0.600000,1.000000,1.000000,0.000000,0.000000
1,0.013430,0.000000,1.000000,0.210000,0.800000,0.030000,0.030000,1.000000,0.000000,1.000000,0.000000,0.000000,0.600000,1.000000,1.000000,0.000000,0.000000
2,0.000155,0.145386,1.000000,0.210000,0.643171,0.030000,0.000000,1.000000,1.000000,1.000000,0.000000,0.049593,0.600000,1.000000,0.943058,0.000000,1.000000
3,0.000155,0.145386,1.000000,0.210000,0.643171,0.030000,0.000000,1.000000,1.000000,1.000000,0.000000,0.049593,0.600000,1.000000,0.943058,0.000000,1.000000
4,0.000018,0.000000,1.000000,0.000000,0.778632,0.017745,0.005190,0.913406,0.000000,1.000000,0.108055,0.000000,0.598038,1.000000,1.000000,0.087162,2.000000
5,0.000014,0.000000,0.730070,0.240920,0.639839,0.000000,0.281942,0.927138,1.000000,1.000000,0.059926,0.000000,0.547246,0.929346,0.907908,0.374586,0.000000
6,0.000014,0.000000,0.730070,0.240920,0.639839,0.000000,0.281942,0.927138,1.000000,1.000000,0.059926,0.000000,0.547246,0.929346,0.907908,0.374586,0.000000
7,0.000005,0.145386,1.000000,0.119115,0.716350,0.000000,0.105096,0.662285,2.000000,0.981415,0.313570,0.179462,0.530962,1.000000,0.920126,0.005297,0.000000
8,0.000005,0.145386,1.000000,0.119115,0.716350,0.000000,0.105096,0.662285,2.000000,0.981415,0.313570,0.179462,0.530962,1.000000,0.920126,0.005297,0.000000
9,0.000005,0.145386,1.000000,0.119115,0.716350,0.000000,0.105096,0.662285,2.000000,0.981415,0.313570,0.179462,0.530962,1.000000,0.920126,0.005297,0.000000
10,0.000002,0.000000,0.952548,0.114565,0.699879,0.000000,0.048641,0.755254,0.000000,0.832478,0.086250,0.000000,0.610239,0.834276,1.000000,0.000000,0.000000
11,0.000002,0.000000,0.952548,0.114565,0.699879,0.000000,0.048641,0.755254,0.000000,0.832478,0.086250,0.000000,0.610239,0.834276,1.000000,0.000000,0.000000
12,0.000002,0.000000,0.952548,0.114565,0.699879,0.000000,0.048641,0.755254,0.000000,0.832478,0.086250,0.000000,0.610239,0.834276,1.000000,0.000000,0.000000
13,0.000002,0.000000,0.952548,0.114565,0.699879,0.000000,0.048641,0.755254,0.000000,0.832478,0.086250,0.000000,0.610239,0.834276,1.000000,0.000000,0.000000
14,0.000002,0.000000,0.952548,0.114565,0.699879,0.000000,0.048641,0.755254,0.000000,0.832478,0.086250,0.000000,0.610239,0.834276,1.000000,0.000000,0.000000
gen, fitness
0,0.034276,0.000000,1.000000,0.210000,0.800000,0.030000,0.030000,1.000000,0.000000,1.000000,0.000000,0.000000,0.600000,1.000000,1.000000,0.000000,0.000000
1,0.034276,0.000000,1.000000,0.210000,0.800000,0.030000,0.030000,1.000000,0.000000,1.000000,0.000000,0.000000,0.600000,1.000000,1.000000,0.000000,0.000000
2,0.014188,0.160603,0.953476,0.182244,0.860716,0.000000,0.180614,0.910583,1.000000,1.000000,0.000000,0.012638,0.812929,0.886009,1.000000,0.000000,2.000000
3,0.008737,0.000000,0.827893,0.019478,0.946368,0.164781,0.049907,0.841665,0.000000,1.000000,0.110579,0.323861,0.832643,1.000000,1.000000,0.000000,1.000000
4,0.004793,0.000000,0.849121,0.266780,1.000000,0.331066,0.127622,0.972778,0.000000,0.886088,0.000000,0.162627,0.945525,0.882931,0.682660,0.000000,1.000000
5,0.003647,0.028495,1.000000,0.369587,1.000000,0.074713,0.100789,0.914194,1.000000,0.952141,0.044430,0.000000,0.999098,0.804426,0.912169,0.000000,2.000000
6,0.002912,0.000000,0.848852,0.171808,1.000000,0.441640,0.027321,1.000000,1.000000,0.935704,0.263163,0.509243,0.899883,0.936058,0.986152,0.265177,1.000000
7,0.002634,0.029513,0.848852,0.174030,1.000000,0.542414,0.000000,1.000000,2.000000,1.000000,0.344011,0.504312,0.937594,0.782441,0.878773,0.405747,0.000000
8,0.002138,0.000000,0.799416,0.300245,1.000000,0.423792,0.038832,1.000000,2.000000,1.000000,0.271457,0.502909,0.926090,0.790048,1.000000,0.193765,2.000000
9,0.001962,0.056412,0.837350,0.308963,1.000000,0.339736,0.038832,1.000000,2.000000,0.931629,0.072817,0.502909,0.941329,0.779149,0.959316,0.221352,2.000000
10,0.001893,0.000000,0.857511,0.371451,1.000000,0.650071,0.000000,1.000000,2.000000,0.878184,0.510509,0.406966,0.989601,0.760883,0.927844,0.373146,2.000000
11,0.001558,0.010665,0.763780,0.300245,1.000000,0.423792,0.056610,1.000000,2.000000,0.958809,0.417442,0.608565,0.933523,0.790048,1.000000,0.193765,2.000000
12,0.001558,0.010665,0.763780,0.300245,1.000000,0.423792,0.056610,1.000000,2.000000,0.958809,0.417442,0.608565,0.933523,0.790048,1.000000,0.193765,2.000000
13,0.001496,0.150482,0.809199,0.375862,1.000000,0.047951,0.000000,1.000000,2.000000,0.571831,0.187888,0.477499,1.000000,1.000000,0.669123,0.331862,2.000000
14,0.001379,0.014855,0.958718,0.382334,1.000000,0.000000,0.250484,1.000000,2.000000,0.382890,0.000000,0.474791,1.000000,0.992499,0.494585,0.357446,2.000000
15,0.001325,0.000000,0.813332,0.542325,1.000000,0.120966,0.000000,1.000000,2.000000,0.457461,0.092512,0.502002,1.000000,0.927410,0.539147,0.460602,2.000000
16,0.001259,0.000000,0.762148,0.598018,1.000000,0.296839,0.000000,1.000000,2.000000,0.554894,0.003170,0.512255,1.000000,0.851282,0.505738,0.589640,2.000000
17,0.001095,0.000000,1.000000,0.434570,1.000000,0.000000,0.021608,0.855866,2.000000,0.194488,0.000000,0.668748,1.000000,0.945635,0.494585,0.274502,2.000000
18,0.001062,0.010665,0.639177,0.494526,1.000000,0.000000,0.000000,0.936656,2.000000,0.535513,0.000000,0.778581,1.000000,1.000000,0.820049,0.289172,2.000000
19,0.001062,0.010665,0.639177,0.494526,1.000000,0.000000,0.000000,0.936656,2.000000,0.535513,0.000000,0.778581,1.000000,1.000000,0.820049,0.289172,2.000000
20,0.001010,0.061397,0.857603,0.494526,1.000000,0.000000,0.000000,1.000000,2.000000,0.602876,0.000000,0.726907,0.973371,1.000000,0.351063,0.632967,2.000000
21,0.000905,0.000000,0.789388,0.545006,1.000000,0.222570,0.205249,0.955395,1.000000,0.277088,0.063472,0.811413,1.000000,0.961287,0.439074,0.769101,2.000000
22,0.000905,0.000000,0.789388,0.545006,1.000000,0.222570,0.205249,0.955395,1.000000,0.277088,0.063472,0.811413,1.000000,0.961287,0.439074,0.769101,2.000000
23,0.000654,0.096812,0.910748,0.704939,1.000000,0.056014,0.023773,1.000000,2.000000,0.670544,0.000000,0.973248,1.000000,1.000000,0.745244,0.430500,2.000000
24,0.000654,0.096812,0.910748,0.704939,1.000000,0.056014,0.023773,1.000000,2.000000,0.670544,0.000000,0.973248,1.000000,1.000000,0.745244,0.430500,2.000000
25,0.000654,0.096812,0.910748,0.704939,1.000000,0.056014,0.023773,1.000000,2.000000,0.670544,0.000000,0.973248,1.000000,1.000000,0.745244,0.430500,2.000000
26,0.000593,0.000000,0.856532,0.727419,1.000000,0.240312,0.114507,1.000000,2.000000,0.663620,0.021196,1.000000,1.000000,0.671211,0.734142,0.787102,2.000000
27,0.000593,0.000000,0.856532,0.727419,1.000000,0.240312,0.114507,1.000000,2.000000,0.663620,0.021196,1.000000,1.000000,0.671211,0.734142,0.787102,2.000000
28,0.000593,0.000000,0.856532,0.727419,1.000000,0.240312,0.114507,1.000000,2.000000,0.663620,0.021196,1.000000,1.000000,0.671211,0.734142,0.787102,2.000000
29,0.000571,0.000000,0.952040,0.798479,1.000000,0.139657,0.125663,1.000000,2.000000,0.607938,0.136896,1.000000,1.000000,0.551858,0.803660,0.792251,2.000000
30,0.000571,0.000000,0.952040,0.798479,1.000000,0.139657,0.125663,1.000000,2.000000,0.607938,0.136896,1.000000,1.000000,0.551858,0.803660,0.792251,2.000000
31,0.000571,0.000000,0.952040,0.798479,1.000000,0.139657,0.125663,1.000000,2.000000,0.607938,0.136896,1.000000,1.000000,0.551858,0.803660,0.792251,2.000000
32,0.000571,0.000000,0.952040,0.798479,1.000000,0.139657,0.125663,1.000000,2.000000,0.607938,0.136896,1.000000,1.000000,0.551858,0.803660,0.792251,2.000000
33,0.000571,0.000000,0.952040,0.798479,1.000000,0.139657,0.125663,1.000000,2.000000,0.607938,0.136896,1.000000,1.000000,0.551858,0.803660,0.792251,2.000000
34,0.000571,0.000000,0.952040,0.798479,1.000000,0.139657,0.125663,1.000000,2.000000,0.607938,0.136896,1.000000,1.000000,0.551858,0.803660,0.792251,2.000000
35,0.000571,0.000000,0.952040,0.798479,1.000000,0.139657,0.125663,1.000000,2.000000,0.607938,0.136896,1.000000,1.000000,0.551858,0.803660,0.792251,2.000000
36,0.000571,0.000000,0.952040,0.798479,1.000000,0.139657,0.125663,1.000000,2.000000,0.607938,0.136896,1.000000,1.000000,0.551858,0.803660,0.792251,2.000000
37,0.000571,0.000000,0.952040,0.798479,1.000000,0.139657,0.125663,1.000000,2.000000,0.607938,0.136896,1.000000,1.000000,0.551858,0.803660,0.792251,2.000000
38,0.000571,0.000000,0.952040,0.798479,1.000000,0.139657,0.125663,1.000000,2.000000,0.607938,0.136896,1.000000,1.000000,0.551858,0.803660,0.792251,2.000000
39,0.000571,0.000000,0.952040,0.798479,1.000000,0.139657,0.125663,1.000000,2.000000,0.607938,0.136896,1.000000,1.000000,0.551858,0.803660,0.792251,2.000000
gen, fitness
0,0.044384,0.000000,1.000000,0.210000,0.800000,0.030000,0.030000,1.000000,0.000000,1.000000,0.000000,0.000000,0.600000,1.000000,1.000000,0.000000,0.000000
1,0.044384,0.000000,1.000000,0.210000,0.800000,0.030000,0.030000,1.000000,0.000000,1.000000,0.000000,0.000000,0.600000,1.000000,1.000000,0.000000,0.000000
2,0.026182,0.175092,1.000000,0.210000,0.848321,0.198619,0.000000,1.000000,2.000000,1.000000,0.027920,0.000000,0.763734,1.000000,1.000000,0.035778,1.000000
3,0.026182,0.175092,1.000000,0.210000,0.848321,0.198619,0.000000,1.000000,2.000000,1.000000,0.027920,0.000000,0.763734,1.000000,1.000000,0.035778,1.000000
4,0.020363,0.000000,0.983237,0.253901,0.908216,0.021473,0.000000,1.000000,0.000000,0.718679,0.043566,0.000000,0.938460,1.000000,0.942823,0.338476,1.000000
5,0.019306,0.000000,0.983237,0.162184,0.898393,0.196185,0.000000,0.691851,0.000000,0.718679,0.000000,0.039656,0.848961,1.000000,0.942823,0.338476,0.000000
6,0.012236,0.000000,0.808872,0.023591,1.000000,0.000000,0.000000,1.000000,1.000000,0.718679,0.209325,0.000000,0.994964,0.917013,0.875677,0.398780,1.000000
7,0.010573,0.066215,0.851370,0.254610,0.985085,0.228453,0.000000,0.537880,2.000000,0.718679,0.009152,0.152914,0.977580,0.973772,1.000000,0.392280,2.000000
8,0.010573,0.066215,0.851370,0.254610,0.985085,0.228453,0.000000,0.537880,2.000000,0.718679,0.009152,0.152914,0.977580,0.973772,1.000000,0.392280,2.000000
9,0.009741,0.125153,0.748972,0.107662,1.000000,0.237546,0.000000,1.000000,2.000000,0.548938,0.137309,0.075285,1.000000,1.000000,0.875677,0.518582,1.000000
10,0.008884,0.007825,0.681220,0.245003,1.000000,0.009623,0.000000,0.980290,2.000000,0.616420,0.285500,0.084584,1.000000,0.907536,0.744393,0.509244,2.000000
11,0.008884,0.007825,0.681220,0.245003,1.000000,0.009623,0.000000,0.980290,2.000000,0.616420,0.285500,0.084584,1.000000,0.907536,0.744393,0.509244,2.000000
12,0.008884,0.007825,0.681220,0.245003,1.000000,0.009623,0.000000,0.980290,2.000000,0.616420,0.285500,0.084584,1.000000,0.907536,0.744393,0.509244,2.000000
13,0.008884,0.007825,0.681220,0.245003,1.000000,0.009623,0.000000,0.980290,2.000000,0.616420,0.285500,0.084584,1.000000,0.907536,0.744393,0.509244,2.000000
14,0.008685,0.000000,0.537386,0.276570,0.999574,0.128505,0.000132,0.924168,2.000000,0.522853,0.399962,0.197393,1.000000,0.951328,0.685312,0.401598,2.000000
15,0.008685,0.000000,0.537386,0.276570,0.999574,0.128505,0.000132,0.924168,2.000000,0.522853,0.399962,0.197393,1.000000,0.951328,0.685312,0.401598,2.000000
16,0.008685,0.000000,0.537386,0.276570,0.999574,0.128505,0.000132,0.924168,2.000000,0.522853,0.399962,0.197393,1.000000,0.951328,0.685312,0.401598,2.000000
17,0.008685,0.000000,0.537386,0.276570,0.999574,0.128505,0.000132,0.924168,2.000000,0.522853,0.399962,0.197393,1.000000,0.951328,0.685312,0.401598,2.000000
18,0.007963,0.000000,0.524357,0.470938,1.000000,0.096075,0.307535,0.814133,2.000000,0.301091,0.360923,0.520433,1.000000,0.764568,0.830031,0.308324,2.000000
19,0.007963,0.000000,0.524357,0.470938,1.000000,0.096075,0.307535,0.814133,2.000000,0.301091,0.360923,0.520433,1.000000,0.764568,0.830031,0.308324,2.000000
20,0.007963,0.000000,0.524357,0.470938,1.000000,0.096075,0.307535,0.814133,2.000000,0.301091,0.360923,0.520433,1.000000,0.764568,0.830031,0.308324,2.000000
21,0.007753,0.000000,0.744836,0.658891,1.000000,0.242520,0.044206,1.000000,2.000000,0.424753,0.293159,0.611825,1.000000,0.788161,0.902967,0.284150,2.000000
22,0.007753,0.000000,0.744836,0.658891,1.000000,0.242520,0.044206,1.000000,2.000000,0.424753,0.293159,0.611825,1.000000,0.788161,0.902967,0.284150,2.000000
23,0.007349,0.146310,0.566827,0.710578,0.985374,0.000000,0.160449,0.895918,2.000000,0.303141,0.394589,0.759674,1.000000,0.996005,0.753224,0.603629,2.000000
24,0.007349,0.146310,0.566827,0.710578,0.985374,0.000000,0.160449,0.895918,2.000000,0.303141,0.394589,0.759674,1.000000,0.996005,0.753224,0.603629,2.000000
25,0.007260,0.000000,0.723570,0.530017,1.000000,0.000000,0.303305,0.766326,2.000000,0.252340,0.417344,0.772231,1.000000,1.000000,0.733710,0.577275,2.000000
26,0.007260,0.000000,0.723570,0.530017,1.000000,0.000000,0.303305,0.766326,2.000000,0.252340,0.417344,0.772231,1.000000,1.000000,0.733710,0.577275,2.000000
27,0.007026,0.000000,0.709752,0.658891,1.000000,0.095668,0.118574,1.000000,2.000000,0.376016,0.272193,0.964295,1.000000,0.809415,0.902967,0.216562,2.000000
28,0.007026,0.000000,0.709752,0.658891,1.000000,0.095668,0.118574,1.000000,2.000000,0.376016,0.272193,0.964295,1.000000,0.809415,0.902967,0.216562,2.000000
29,0.006775,0.000000,0.339782,0.735682,1.000000,0.111717,0.013232,0.930724,2.000000,0.233475,0.448572,0.980086,1.000000,0.901749,0.600110,0.809197,2.000000
30,0.006775,0.000000,0.339782,0.735682,1.000000,0.111717,0.013232,0.930724,2.000000,0.233475,0.448572,0.980086,1.000000,0.901749,0.600110,0.809197,2.000000
31,0.006656,0.040218,0.905824,0.572427,1.000000,0.070821,0.372921,0.976165,2.000000,0.013105,0.319813,0.979416,1.000000,1.000000,0.763104,0.953944,2.000000
32,0.006656,0.040218,0.905824,0.572427,1.000000,0.070821,0.372921,0.976165,2.000000,0.013105,0.319813,0.979416,1.000000,1.000000,0.763104,0.953944,2.000000
33,0.006656,0.040218,0.905824,0.572427,1.000000,0.070821,0.372921,0.976165,2.000000,0.013105,0.319813,0.979416,1.000000,1.000000,0.763104,0.953944,2.000000
34,0.006640,0.000000,0.954124,0.558479,1.000000,0.084805,0.324944,0.995285,2.000000,0.080404,0.319813,0.867817,1.000000,1.000000,0.651286,1.000000,2.000000
35,0.006483,0.009332,0.859613,0.486548,1.000000,0.119857,0.342146,1.000000,2.000000,0.033101,0.429788,1.000000,1.000000,1.000000,0.766770,0.968681,2.000000
36,0.006483,0.009332,0.859613,0.486548,1.000000,0.119857,0.342146,1.000000,2.000000,0.033101,0.429788,1.000000,1.000000,1.000000,0.766770,0.968681,2.000000
37,0.006483,0.009332,0.859613,0.486548,1.000000,0.119857,0.342146,1.000000,2.000000,0.033101,0.429788,1.000000,1.000000,1.000000,0.766770,0.968681,2.000000
38,0.006483,0.009332,0.859613,0.486548,1.000000,0.119857,0.342146,1.000000,2.000000,0.033101,0.429788,1.000000,1.000000,1.000000,0.766770,0.968681,2.000000
39,0.006483,0.009332,0.859613,0.486548,1.000000,0.119857,0.342146,1.000000,2.000000,0.033101,0.429788,1.000000,1.000000,1.000000,0.766770,0.968681,2.000000
40,0.006483,0.009332,0.859613,0.486548,1.000000,0.119857,0.342146,1.000000,2.000000,0.033101,0.429788,1.000000,1.000000,1.000000,0.766770,0.968681,2.000000
41,0.006483,0.009332,0.859613,0.486548,1.000000,0.119857,0.342146,1.000000,2.000000,0.033101,0.429788,1.000000,1.000000,1.000000,0.766770,0.968681,2.000000
42,0.006483,0.009332,0.859613,0.486548,1.000000,0.119857,0.342146,1.000000,2.000000,0.033101,0.429788,1.000000,1.000000,1.000000,0.766770,0.968681,2.000000
43,0.006483,0.009332,0.859613,0.486548,1.000000,0.119857,0.342146,1.000000,2.000000,0.033101,0.429788,1.000000,1.000000,1.000000,0.766770,0.968681,2.000000
44,0.006483,0.009332,0.859613,0.486548,1.000000,0.119857,0.342146,1.000000,2.000000,0.033101,0.429788,1.000000,1.000000,1.000000,0.766770,0.968681,2.000000
45,0.006483,0.009332,0.859613,0.486548,1.000000,0.119857,0.342146,1.000000,2.000000,0.033101,0.429788,1.000000,1.000000,1.000000,0.766770,0.968681,2.000000
gen, fitness
0,0.006335,0.000000,1.000000,0.210000,0.800000,0.030000,0.030000,1.000000,0.000000,1.000000,0.000000,0.000000,0.600000,1.000000,1.000000,0.000000,0.000000
1,0.006335,0.000000,1.000000,0.210000,0.800000,0.030000,0.030000,1.000000,0.000000,1.000000,0.000000,0.000000,0.600000,1.000000,1.000000,0.000000,0.000000
2,0.000060,0.000000,0.880100,0.210000,0.785524,0.030000,0.027906,0.945581,0.000000,0.972825,0.000000,0.000000,0.671882,1.000000,1.000000,0.000000,1.000000
3,0.000060,0.000000,0.880100,0.210000,0.785524,0.030000,0.027906,0.945581,0.000000,0.972825,0.000000,0.000000,0.671882,1.000000,1.000000,0.000000,1.000000
4,0.000060,0.000000,0.880100,0.210000,0.785524,0.030000,0.027906,0.945581,0.000000,0.972825,0.000000,0.000000,0.671882,1.000000,1.000000,0.000000,1.000000
5,0.000052,0.000000,0.953736,0.083257,0.815389,0.407769,0.083171,1.000000,0.000000,1.000000,0.162539,0.000000,0.670666,0.936159,1.000000,0.026249,2.000000
6,0.000052,0.000000,0.953736,0.083257,0.815389,0.407769,0.083171,1.000000,0.000000,1.000000,0.162539,0.000000,0.670666,0.936159,1.000000,0.026249,2.000000
7,0.000042,0.000000,0.941171,0.000000,0.839653,0.066187,0.000000,0.955760,1.000000,1.000000,0.048267,0.000000,0.671882,0.836004,1.000000,0.000000,1.000000
8,0.000039,0.076440,0.882313,0.000000,0.839653,0.026729,0.000000,0.814960,0.000000,0.874189,0.048267,0.000000,0.703272,0.836004,1.000000,0.000000,0.000000
9,0.000039,0.076440,0.882313,0.000000,0.839653,0.026729,0.000000,0.814960,0.000000,0.874189,0.048267,0.000000,0.703272,0.836004,1.000000,0.000000,0.000000
10,0.000039,0.076440,0.882313,0.000000,0.839653,0.026729,0.000000,0.814960,0.000000,0.874189,0.048267,0.000000,0.703272,0.836004,1.000000,0.000000,0.000000
11,0.000010,0.093678,0.948387,0.062572,0.808365,0.056272,0.108680,0.908283,2.000000,1.000000,0.055174,0.211309,0.577717,0.827036,1.000000,0.343563,0.000000
12,0.000010,0.093678,0.948387,0.062572,0.808365,0.056272,0.108680,0.908283,2.000000,1.000000,0.055174,0.211309,0.577717,0.827036,1.000000,0.343563,0.000000
13,0.000001,0.045961,0.941171,0.000000,0.839653,0.066187,0.000000,0.906021,1.000000,1.000000,0.000000,0.183962,0.607329,0.798543,1.000000,0.000000,2.000000
gen, fitness
0,0.018541,0.000000,1.000000,0.210000,0.800000,0.030000,0.030000,1.000000,0.000000,1.000000,0.000000,0.000000,0.600000,1.000000,1.000000,0.000000,0.000000
1,0.018541,0.000000,1.000000,0.210000,0.800000,0.030000,0.030000,1.000000,0.000000,1.000000,0.000000,0.000000,0.600000,1.000000,1.000000,0.000000,0.000000
2,0.005178,0.028010,1.000000,0.238583,0.800000,0.000000,0.030000,0.995263,2.000000,0.988716,0.129730,0.035555,0.722290,0.820440,1.000000,0.000000,1.000000
3,0.003730,0.000000,1.000000,0.239445,0.869384,0.068919,0.000000,1.000000,1.000000,1.000000,0.087089,0.000000,0.839842,1.000000,1.000000,0.184668,1.000000
4,0.001471,0.108629,1.000000,0.436332,0.805326,0.156575,0.222495,0.856875,2.000000,0.824840,0.137834,0.035225,0.822328,0.956491,1.000000,0.079616,1.000000
5,0.000757,0.113422,1.000000,0.191727,0.988256,0.205500,0.142363,0.951898,1.000000,0.770254,0.096707,0.256846,0.969845,1.000000,0.940784,0.000000,2.000000
6,0.000035,0.000000,0.985016,0.316735,0.957057,0.131854,0.105591,1.000000,2.000000,1.000000,0.000000,0.000000,0.936425,1.000000,0.973314,0.143420,1.000000
7,0.000035,0.000000,0.985016,0.316735,0.957057,0.131854,0.105591,1.000000,2.000000,1.000000,0.000000,0.000000,0.936425,1.000000,0.973314,0.143420,1.000000
8,0.000035,0.000000,0.985016,0.316735,0.957057,0.131854,0.105591,1.000000,2.000000,1.000000,0.000000,0.000000,0.936425,1.000000,0.973314,0.143420,1.000000
9,0.000016,0.000000,0.937218,0.762975,0.916307,0.031584,0.000000,0.894346,0.000000,0.983653,0.449982,0.517271,0.864956,0.993697,0.858735,0.211811,2.000000
10,0.000016,0.000000,0.937218,0.762975,0.916307,0.031584,0.000000,0.894346,0.000000,0.983653,0.449982,0.517271,0.864956,0.993697,0.858735,0.211811,2.000000
11,0.000016,0.000000,0.937218,0.762975,0.916307,0.031584,0.000000,0.894346,0.000000,0.983653,0.449982,0.517271,0.864956,0.993697,0.858735,0.211811,2.000000
12,0.000016,0.000000,0.937218,0.762975,0.916307,0.031584,0.000000,0.894346,0.000000,0.983653,0.449982,0.517271,0.864956,0.993697,0.858735,0.211811,2.000000
13,0.000014,0.000333,0.874267,0.453156,1.000000,0.099044,0.453703,0.564129,0.000000,1.000000,0.299514,0.000000,1.000000,0.468276,1.000000,0.062189,1.000000
14,0.000014,0.000333,0.874267,0.453156,1.000000,0.099044,0.453703,0.564129,0.000000,1.000000,0.299514,0.000000,1.000000,0.468276,1.000000,0.062189,1.000000
15,0.000000,0.000000,0.927301,0.377327,1.000000,0.021541,0.294665,0.405301,0.000000,0.873247,0.350916,0.000000,1.000000,0.536546,1.000000,0.026725,1.000000
gen, fitness
0,0.069293,0.000000,1.000000,0.210000,0.800000,0.030000,0.030000,1.000000,0.000000,1.000000,0.000000,0.000000,0.600000,1.000000,1.000000,0.000000,0.000000
1,0.069293,0.000000,1.000000,0.210000,0.800000,0.030000,0.030000,1.000000,0.000000,1.000000,0.000000,0.000000,0.600000,1.000000,1.000000,0.000000,0.000000
2,0.036259,0.000000,0.756532,0.330390,0.811295,0.049176,0.030000,0.901068,1.000000,0.944823,0.000000,0.051507,0.795844,1.000000,0.983142,0.142904,1.000000
3,0.027105,0.034752,0.929114,0.245585,0.916878,0.000000,0.000000,1.000000,1.000000,0.921705,0.000000,0.037238,0.962706,0.970302,1.000000,0.002395,2.000000
4,0.020353,0.081133,0.796451,0.396667,0.971837,0.000000,0.219258,0.834031,0.000000,0.912149,0.000000,0.085781,0.999111,1.000000,0.960397,0.289951,1.000000
5,0.016435,0.000000,0.982779,0.077478,1.000000,0.386380,0.048436,0.979232,1.000000,0.937772,0.031274,0.091803,0.974468,1.000000,0.928146,0.000000,1.000000
6,0.016435,0.000000,0.982779,0.077478,1.000000,0.386380,0.048436,0.979232,1.000000,0.937772,0.031274,0.091803,0.974468,1.000000,0.928146,0.000000,1.000000
7,0.015109,0.012070,0.552810,0.000000,1.000000,0.261049,0.000000,1.000000,0.000000,0.758066,0.308124,0.127184,0.974468,0.961936,0.988810,0.042016,2.000000
8,0.014735,0.000000,0.930205,0.076162,1.000000,0.372793,0.000000,0.913357,2.000000,1.000000,0.019093,0.091803,0.974468,0.919329,1.000000,0.000000,2.000000
9,0.013815,0.009127,1.000000,0.000000,1.000000,0.230354,0.192781,0.849417,2.000000,1.000000,0.061861,0.119247,0.985233,0.912283,0.510162,0.284567,2.000000
10,0.012314,0.130644,0.923046,0.000000,1.000000,0.204086,0.264608,0.877320,2.000000,0.864121,0.023938,0.635111,0.948602,0.713258,0.942112,0.090259,1.000000
11,0.012314,0.130644,0.923046,0.000000,1.000000,0.204086,0.264608,0.877320,2.000000,0.864121,0.023938,0.635111,0.948602,0.713258,0.942112,0.090259,1.000000
12,0.012276,0.283873,0.790024,0.000000,1.000000,0.389562,0.000000,0.770706,1.000000,0.870863,0.000000,0.559077,0.968225,1.000000,0.974362,0.204139,2.000000
13,0.011751,0.130644,0.923046,0.061809,1.000000,0.204086,0.173021,1.000000,1.000000,0.927076,0.023938,0.609585,0.938321,0.692035,0.854453,0.207513,2.000000
14,0.011751,0.130644,0.923046,0.061809,1.000000,0.204086,0.173021,1.000000,1.000000,0.927076,0.023938,0.609585,0.938321,0.692035,0.854453,0.207513,2.000000
15,0.011751,0.130644,0.923046,0.061809,1.000000,0.204086,0.173021,1.000000,1.000000,0.927076,0.023938,0.609585,0.938321,0.692035,0.854453,0.207513,2.000000
16,0.011688,0.188639,1.000000,0.075548,1.000000,0.321779,0.145913,0.806609,1.000000,1.000000,0.000000,0.755774,0.948698,0.574132,0.785679,0.127964,2.000000
17,0.011688,0.188639,1.000000,0.075548,1.000000,0.321779,0.145913,0.806609,1.000000,1.000000,0.000000,0.755774,0.948698,0.574132,0.785679,0.127964,2.000000
18,0.010943,0.000000,1.000000,0.000000,1.000000,0.321779,0.345269,0.845670,2.000000,1.000000,0.048203,0.580198,0.911602,0.691081,0.731700,0.159588,2.000000
19,0.010328,0.031902,0.589894,0.064698,1.000000,0.279890,0.133344,1.000000,2.000000,0.989661,0.152105,0.910637,0.917392,0.901964,0.516261,0.120741,2.000000
20,0.010328,0.031902,0.589894,0.064698,1.000000,0.279890,0.133344,1.000000,2.000000,0.989661,0.152105,0.910637,0.917392,0.901964,0.516261,0.120741,2.000000
21,0.010328,0.031902,0.589894,0.064698,1.000000,0.279890,0.133344,1.000000,2.000000,0.989661,0.152105,0.910637,0.917392,0.901964,0.516261,0.120741,2.000000
22,0.010328,0.031902,0.589894,0.064698,1.000000,0.279890,0.133344,1.000000,2.000000,0.989661,0.152105,0.910637,0.917392,0.901964,0.516261,0.120741,2.000000
23,0.009683,0.145243,0.588869,0.000000,1.000000,0.432025,0.108821,0.975237,1.000000,1.000000,0.044907,1.000000,0.873485,0.740513,0.835167,0.758060,2.000000
24,0.009683,0.145243,0.588869,0.000000,1.000000,0.432025,0.108821,0.975237,1.000000,1.000000,0.044907,1.000000,0.873485,0.740513,0.835167,0.758060,2.000000
25,0.009652,0.000000,0.532016,0.053530,1.000000,0.305999,0.088815,0.920881,2.000000,0.976126,0.145370,1.000000,0.917392,0.908503,1.000000,0.077819,2.000000
26,0.009540,0.000000,1.000000,0.000000,1.000000,0.273419,0.424819,0.764967,2.000000,1.000000,0.000000,0.856601,0.911501,0.529276,1.000000,0.283646,2.000000
27,0.009540,0.000000,1.000000,0.000000,1.000000,0.273419,0.424819,0.764967,2.000000,1.000000,0.000000,0.856601,0.911501,0.529276,1.000000,0.283646,2.000000
28,0.009540,0.000000,1.000000,0.000000,1.000000,0.273419,0.424819,0.764967,2.000000,1.000000,0.000000,0.856601,0.911501,0.529276,1.000000,0.283646,2.000000
29,0.009386,0.000000,0.910911,0.127877,1.000000,0.252392,0.266802,0.973218,2.000000,1.000000,0.000000,0.925544,0.925774,0.461614,0.988129,0.931023,2.000000
30,0.009386,0.000000,0.910911,0.127877,1.000000,0.252392,0.266802,0.973218,2.000000,1.000000,0.000000,0.925544,0.925774,0.461614,0.988129,0.931023,2.000000
31,0.009317,0.000000,0.910911,0.106152,0.998081,0.252392,0.229502,0.862716,2.000000,0.992090,0.000000,1.000000,0.905385,0.682099,0.988129,0.744389,2.000000
32,0.009317,0.000000,0.910911,0.106152,0.998081,0.252392,0.229502,0.862716,2.000000,0.992090,0.000000,1.000000,0.905385,0.682099,0.988129,0.744389,2.000000
33,0.009317,0.000000,0.910911,0.106152,0.998081,0.252392,0.229502,0.862716,2.000000,0.992090,0.000000,1.000000,0.905385,0.682099,0.988129,0.744389,2.000000
34,0.009317,0.000000,0.910911,0.106152,0.998081,0.252392,0.229502,0.862716,2.000000,0.992090,0.000000,1.000000,0.905385,0.682099,0.988129,0.744389,2.000000
35,0.009317,0.000000,0.910911,0.106152,0.998081,0.252392,0.229502,0.862716,2.000000,0.992090,0.000000,1.000000,0.905385,0.682099,0.988129,0.744389,2.000000
36,0.009317,0.000000,0.910911,0.106152,0.998081,0.252392,0.229502,0.862716,2.000000,0.992090,0.000000,1.000000,0.905385,0.682099,0.988129,0.744389,2.000000
37,0.009317,0.000000,0.910911,0.106152,0.998081,0.252392,0.229502,0.862716,2.000000,0.992090,0.000000,1.000000,0.905385,0.682099,0.988129,0.744389,2.000000
38,0.008952,0.042414,1.000000,0.000000,1.000000,0.154261,0.233250,0.584924,2.000000,0.970993,0.000000,0.903510,0.925774,0.472759,1.000000,0.842520,2.000000
39,0.008952,0.042414,1.000000,0.000000,1.000000,0.154261,0.233250,0.584924,2.000000,0.970993,0.000000,0.903510,0.925774,0.472759,1.000000,0.842520,2.000000
40,0.008952,0.042414,1.000000,0.000000,1.000000,0.154261,0.233250,0.584924,2.000000,0.970993,0.000000,0.903510,0.925774,0.472759,1.000000,0.842520,2.000000
41,0.008952,0.042414,1.000000,0.000000,1.000000,0.154261,0.233250,0.584924,2.000000,0.970993,0.000000,0.903510,0.925774,0.472759,1.000000,0.842520,2.000000
42,0.008952,0.042414,1.000000,0.000000,1.000000,0.154261,0.233250,0.584924,2.000000,0.970993,0.000000,0.903510,0.925774,0.472759,1.000000,0.842520,2.000000
43,0.008952,0.042414,1.000000,0.000000,1.000000,0.154261,0.233250,0.584924,2.000000,0.970993,0.000000,0.903510,0.925774,0.472759,1.000000,0.842520,2.000000
44,0.008952,0.042414,1.000000,0.000000,1.000000,0.154261,0.233250,0.584924,2.000000,0.970993,0.000000,0.903510,0.925774,0.472759,1.000000,0.842520,2.000000
45,0.008952,0.042414,1.000000,0.000000,1.000000,0.154261,0.233250,0.584924,2.000000,0.970993,0.000000,0.903510,0.925774,0.472759,1.000000,0.842520,2.000000
46,0.008952,0.042414,1.000000,0.000000,1.000000,0.154261,0.233250,0.584924,2.000000,0.970993,0.000000,0.903510,0.925774,0.472759,1.000000,0.842520,2.000000
47,0.008952,0.042414,1.000000,0.000000,1.000000,0.154261,0.233250,0.584924,2.000000,0.970993,0.000000,0.903510,0.925774,0.472759,1.000000,0.842520,2.000000
48,0.008952,0.042414,1.000000,0.000000,1.000000,0.154261,0.233250,0.584924,2.000000,0.970993,0.000000,0.903510,0.925774,0.472759,1.000000,0.842520,2.000000
gen, fitness
0,0.020772,0.000000,1.000000,0.210000,0.800000,0.030000,0.030000,1.000000,0.000000,1.000000,0.000000,0.000000,0.600000,1.000000,1.000000,0.000000,0.000000
1,0.020772,0.000000,1.000000,0.210000,0.800000,0.030000,0.030000,1.000000,0.000000,1.000000,0.000000,0.000000,0.600000,1.000000,1.000000,0.000000,0.000000
2,0.006963,0.051907,1.000000,0.251647,0.800000,0.104881,0.002053,1.000000,2.000000,1.000000,0.000000,0.120718,0.773398,0.849734,1.000000,0.000000,1.000000
3,0.002619,0.182642,1.000000,0.406749,0.821660,0.131713,0.163555,0.931857,0.000000,0.908679,0.000000,0.084290,0.808715,0.984314,1.000000,0.000000,2.000000
4,0.001230,0.000000,0.922452,0.306433,0.975454,0.000000,0.176988,1.000000,0.000000,1.000000,0.000000,0.044795,0.926665,1.000000,0.959976,0.000000,1.000000
5,0.000605,0.000000,1.000000,0.285764,0.933135,0.000000,0.000000,0.974302,0.000000,0.810704,0.010115,0.000000,0.912952,1.000000,1.000000,0.193040,0.000000
6,0.000574,0.000000,0.922452,0.130197,0.975454,0.000000,0.176988,1.000000,1.000000,1.000000,0.000000,0.000000,0.955799,0.970223,0.950279,0.000000,1.000000
7,0.000034,0.053833,0.701371,0.122554,1.000000,0.000000,0.000000,0.982243,0.000000,0.845724,0.000000,0.214640,0.952129,0.860684,0.915449,0.269078,1.000000
8,0.000031,0.000000,0.744493,0.045470,1.000000,0.245112,0.000000,1.000000,2.000000,0.971395,0.245029,0.167166,0.954674,0.425661,0.968625,0.404814,1.000000
9,0.000002,0.022141,0.779018,0.219593,1.000000,0.115437,0.000000,0.983893,2.000000,1.000000,0.264705,0.000000,0.995412,1.000000,1.000000,0.000000,0.000000
10,0.000002,0.022141,0.779018,0.219593,1.000000,0.115437,0.000000,0.983893,2.000000,1.000000,0.264705,0.000000,0.995412,1.000000,1.000000,0.000000,0.000000
11,0.000002,0.022141,0.779018,0.219593,1.000000,0.115437,0.000000,0.983893,2.000000,1.000000,0.264705,0.000000,0.995412,1.000000,1.000000,0.000000,0.000000
12,0.000002,0.022141,0.779018,0.219593,1.000000,0.115437,0.000000,0.983893,2.000000,1.000000,0.264705,0.000000,0.995412,1.000000,1.000000,0.000000,0.000000
13,0.000002,0.022141,0.779018,0.219593,1.000000,0.115437,0.000000,0.983893,2.000000,1.000000,0.264705,0.000000,0.995412,1.000000,1.000000,0.000000,0.000000
14,0.000002,0.022141,0.779018,0.219593,1.000000,0.115437,0.000000,0.983893,2.000000,1.000000,0.264705,0.000000,0.995412,1.000000,1.000000,0.000000,0.000000
15,0.000001,0.000000,0.617601,0.000000,1.000000,0.000000,0.019346,1.000000,2.000000,1.000000,0.291993,0.000000,0.968994,1.000000,0.837521,0.046479,2.000000
gen, fitness
0,0.008197,0.000000,1.000000,0.210000,0.800000,0.030000,0.030000,1.000000,0.000000,1.000000,0.000000,0.000000,0.600000,1.000000,1.000000,0.000000,0.000000
1,0.008197,0.000000,1.000000,0.210000,0.800000,0.030000,0.030000,1.000000,0.000000,1.000000,0.000000,0.000000,0.600000,1.000000,1.000000,0.000000,0.000000
2,0.000190,0.042751,0.959459,0.229761,0.800000,0.000000,0.030000,1.000000,0.000000,0.970670,0.072536,0.000000,0.711466,1.000000,1.000000,0.142937,1.000000
3,0.000064,0.000000,0.833987,0.257977,0.804972,0.000000,0.060794,1.000000,1.000000,1.000000,0.000000,0.100888,0.701672,0.891860,1.000000,0.086297,1.000000
4,0.000052,0.000000,1.000000,0.305569,0.797945,0.006331,0.000000,1.000000,0.000000,1.000000,0.000000,0.201518,0.664875,0.978702,0.970481,0.000000,2.000000
5,0.000017,0.000000,0.924939,0.389093,0.747764,0.171262,0.000000,1.000000,0.000000,0.864355,0.124707,0.090952,0.711901,0.845126,0.746441,0.000000,0.000000
6,0.000004,0.227292,0.669669,0.216974,0.795678,0.094797,0.056510,0.870881,2.000000,0.928046,0.088738,0.099280,0.728474,1.000000,0.750896,0.038544,0.000000
7,0.000004,0.227292,0.669669,0.216974,0.795678,0.094797,0.056510,0.870881,2.000000,0.928046,0.088738,0.099280,0.728474,1.000000,0.750896,0.038544,0.000000
8,0.000004,0.227292,0.669669,0.216974,0.795678,0.094797,0.056510,0.870881,2.000000,0.928046,0.088738,0.099280,0.728474,1.000000,0.750896,0.038544,0.000000
9,0.000004,0.227292,0.669669,0.216974,0.795678,0.094797,0.056510,0.870881,2.000000,0.928046,0.088738,0.099280,0.728474,1.000000,0.750896,0.038544,0.000000
10,0.000004,0.227292,0.669669,0.216974,0.795678,0.094797,0.056510,0.870881,2.000000,0.928046,0.088738,0.099280,0.728474,1.000000,0.750896,0.038544,0.000000
11,0.000004,0.227292,0.669669,0.216974,0.795678,0.094797,0.056510,0.870881,2.000000,0.928046,0.088738,0.099280,0.728474,1.000000,0.750896,0.038544,0.000000
12,0.000004,0.227292,0.669669,0.216974,0.795678,0.094797,0.056510,0.870881,2.000000,0.928046,0.088738,0.099280,0.728474,1.000000,0.750896,0.038544,0.000000
13,0.000004,0.227292,0.669669,0.216974,0.795678,0.094797,0.056510,0.870881,2.000000,0.928046,0.088738,0.099280,0.728474,1.000000,0.750896,0.038544,0.000000
14,0.000004,0.227292,0.669669,0.216974,0.795678,0.094797,0.056510,0.870881,2.000000,0.928046,0.088738,0.099280,0.728474,1.000000,0.750896,0.038544,0.000000
15,0.000004,0.227292,0.669669,0.216974,0.795678,0.094797,0.056510,0.870881,2.000000,0.928046,0.088738,0.099280,0.728474,1.000000,0.750896,0.038544,0.000000
16,0.000004,0.227292,0.669669,0.216974,0.795678,0.094797,0.056510,0.870881,2.000000,0.928046,0.088738,0.099280,0.728474,1.000000,0.750896,0.038544,0.000000
gen, fitness
0,0.011091,0.000000,1.000000,0.210000,0.800000,0.030000,0.030000,1.000000,0.000000,1.000000,0.000000,0.000000,0.600000,1.000000,1.000000,0.000000,0.000000
1,0.011091,0.000000,1.000000,0.210000,0.800000,0.030000,0.030000,1.000000,0.000000,1.000000,0.000000,0.000000,0.600000,1.000000,1.000000,0.000000,0.000000
2,0.000131,0.000000,1.000000,0.210000,0.729660,0.151343,0.000000,0.964132,2.000000,1.000000,0.157145,0.087196,0.600000,0.984820,0.934701,0.055073,2.000000
3,0.000131,0.000000,1.000000,0.210000,0.729660,0.151343,0.000000,0.964132,2.000000,1.000000,0.157145,0.087196,0.600000,0.984820,0.934701,0.055073,2.000000
4,0.000033,0.122727,0.962098,0.101820,0.717254,0.000000,0.004138,0.884325,1.000000,0.758824,0.000000,0.154816,0.593115,1.000000,0.901609,0.099836,0.000000
5,0.000032,0.071457,0.935702,0.176057,0.727715,0.204068,0.000000,0.935620,2.000000,0.941319,0.042729,0.078376,0.626989,1.000000,0.914736,0.000000,1.000000
6,0.000008,0.152532,1.000000,0.312305,0.667156,0.000000,0.000000,1.000000,0.000000,0.930824,0.000000,0.000000,0.668460,1.000000,1.000000,0.135842,2.000000
7,0.000008,0.152532,1.000000,0.312305,0.667156,0.000000,0.000000,1.000000,0.000000,0.930824,0.000000,0.000000,0.668460,1.000000,1.000000,0.135842,2.000000
8,0.000008,0.152532,1.000000,0.312305,0.667156,0.000000,0.000000,1.000000,0.000000,0.930824,0.000000,0.000000,0.668460,1.000000,1.000000,0.135842,2.000000
9,0.000002,0.000000,0.973246,0.095908,0.717254,0.000000,0.000000,0.986567,0.000000,0.660757,0.000000,0.109676,0.593115,1.000000,1.000000,0.099836,2.000000
10,0.000002,0.322183,1.000000,0.312305,0.669869,0.000000,0.183194,1.000000,0.000000,0.930824,0.023492,0.000000,0.713609,1.000000,0.995737,0.000000,1.000000
11,0.000002,0.322183,1.000000,0.312305,0.669869,0.000000,0.183194,1.000000,0.000000,0.930824,0.023492,0.000000,0.713609,1.000000,0.995737,0.000000,1.000000
12,0.000002,0.322183,1.000000,0.312305,0.669869,0.000000,0.183194,1.000000,0.000000,0.930824,0.023492,0.000000,0.713609,1.000000,0.995737,0.000000,1.000000
13,0.000002,0.322183,1.000000,0.312305,0.669869,0.000000,0.183194,1.000000,0.000000,0.930824,0.023492,0.000000,0.713609,1.000000,0.995737,0.000000,1.000000
14,0.000002,0.322183,1.000000,0.312305,0.669869,0.000000,0.183194,1.000000,0.000000,0.930824,0.023492,0.000000,0.713609,1.000000,0.995737,0.000000,1.000000
15,0.000002,0.322183,1.000000,0.312305,0.669869,0.000000,0.183194,1.000000,0.000000,0.930824,0.023492,0.000000,0.713609,1.000000,0.995737,0.000000,1.000000
16,0.000002,0.322183,1.000000,0.312305,0.669869,0.000000,0.183194,1.000000,0.000000,0.930824,0.023492,0.000000,0.713609,1.000000,0.995737,0.000000,1.000000
gen, fitness
0,0.020988,0.000000,1.000000,0.210000,0.800000,0.030000,0.030000,1.000000,0.000000,1.000000,0.000000,0.000000,0.600000,1.000000,1.000000,0.000000,0.000000
1,0.020988,0.000000,1.000000,0.210000,0.800000,0.030000,0.030000,1.000000,0.000000,1.000000,0.000000,0.000000,0.600000,1.000000,1.000000,0.000000,0.000000
2,0.006812,0.065029,0.987421,0.180564,0.841794,0.181095,0.036604,1.000000,2.000000,1.000000,0.000000,0.000000,0.793190,1.000000,0.948836,0.119912,2.000000
3,0.003722,0.000000,1.000000,0.216049,0.905485,0.000000,0.000000,1.000000,2.000000,1.000000,0.083457,0.129222,0.815325,0.837984,0.941451,0.128862,0.000000
4,0.003722,0.000000,1.000000,0.216049,0.905485,0.000000,0.000000,1.000000,2.000000,1.000000,0.083457,0.129222,0.815325,0.837984,0.941451,0.128862,0.000000
5,0.002563,0.052330,0.823704,0.136473,0.979677,0.174680,0.134611,0.912288,0.000000,0.861792,0.148815,0.183451,0.909841,0.807109,0.629236,0.159800,2.000000
6,0.001893,0.148757,0.834361,0.258354,1.000000,0.174680,0.000963,0.908770,0.000000,0.894522,0.203645,0.208513,0.938757,0.807109,0.629236,0.085023,1.000000
7,0.000876,0.094213,0.544617,0.376591,0.995173,0.294495,0.122099,0.817569,1.000000,0.776176,0.048564,0.255005,0.978910,0.889492,0.566543,0.477073,1.000000
8,0.000876,0.094213,0.544617,0.376591,0.995173,0.294495,0.122099,0.817569,1.000000,0.776176,0.048564,0.255005,0.978910,0.889492,0.566543,0.477073,1.000000
9,0.000504,0.053918,0.711903,0.316653,1.000000,0.338742,0.122099,0.918776,2.000000,0.719481,0.000000,0.475678,0.950771,0.832403,0.496489,0.397467,1.000000
10,0.000234,0.213584,0.452789,0.582873,0.997521,0.065823,0.230101,0.954911,2.000000,0.759699,0.098929,0.347224,0.993921,0.849389,0.694576,0.356479,1.000000
11,0.000234,0.213584,0.452789,0.582873,0.997521,0.065823,0.230101,0.954911,2.000000,0.759699,0.098929,0.347224,0.993921,0.849389,0.694576,0.356479,1.000000
12,0.000221,0.321259,0.448281,0.642742,0.978807,0.150790,0.335486,0.926509,2.000000,0.793743,0.044072,0.215841,1.000000,0.601347,0.623892,0.295501,1.000000
13,0.000092,0.088991,0.389040,0.776923,1.000000,0.327908,0.220290,1.000000,2.000000,0.705205,0.060732,0.432885,1.000000,1.000000,0.508797,0.434319,2.000000
14,0.000092,0.088991,0.389040,0.776923,1.000000,0.327908,0.220290,1.000000,2.000000,0.705205,0.060732,0.432885,1.000000,1.000000,0.508797,0.434319,2.000000
15,0.000079,0.088991,0.667540,0.781804,1.000000,0.357838,0.147207,1.000000,1.000000,0.657746,0.104999,0.516929,1.000000,1.000000,0.322742,0.434319,1.000000
16,0.000041,0.172163,0.857877,0.840759,1.000000,0.020063,0.371923,0.797113,2.000000,0.761771,0.305859,0.808122,1.000000,0.863392,0.764200,0.433519,1.000000
17,0.000027,0.354629,0.810951,0.776192,0.982285,0.021930,0.117964,0.873938,2.000000,0.526224,0.170231,0.755389,1.000000,0.866885,1.000000,0.395443,2.000000
18,0.000024,0.114854,0.613955,0.780721,1.000000,0.270144,0.311514,0.828010,2.000000,0.693061,0.337233,0.756946,1.000000,1.000000,0.764200,0.570685,2.000000
19,0.000017,0.432574,0.789551,0.680581,0.982285,0.008583,0.000000,0.963683,2.000000,0.329795,0.170231,0.934336,1.000000,0.751020,1.000000,0.437121,1.000000
20,0.000008,0.003761,0.997003,0.989289,1.000000,0.000000,0.371923,0.797113,1.000000,0.648976,0.174533,0.955423,1.000000,0.837976,0.544610,0.467262,1.000000
21,0.000008,0.003761,0.997003,0.989289,1.000000,0.000000,0.371923,0.797113,1.000000,0.648976,0.174533,0.955423,1.000000,0.837976,0.544610,0.467262,1.000000
22,0.000008,0.003761,0.997003,0.989289,1.000000,0.000000,0.371923,0.797113,1.000000,0.648976,0.174533,0.955423,1.000000,0.837976,0.544610,0.467262,1.000000
23,0.000000,0.000000,0.999540,0.967067,1.000000,0.000000,0.095052,0.892688,2.000000,0.668252,0.159184,0.945683,1.000000,0.682079,0.425239,0.240611,1.000000
