gen, fitness
0,0.013430,0.000000,1.000000,0.210000,0.800000,0.030000,0.030000,1.000000,0.000000,1.000000,0.000000,0.000000,0.600000,1.000000,1.000000,0.000000,0.000000
1,0.013430,0.000000,1.000000,0.210000,0.800000,0.030000,0.030000,1.000000,0.000000,1.000000,0.000000,0.000000,0.600000,1.000000,1.000000,0.000000,0.000000
2,0.000032,0.085590,0.859186,0.132054,0.708921,0.069901,0.168883,1.000000,1.000000,1.000000,0.000000,0.093536,0.561550,0.942579,0.923794,0.000000,1.000000
3,0.000032,0.085590,0.859186,0.132054,0.708921,0.069901,0.168883,1.000000,1.000000,1.000000,0.000000,0.093536,0.561550,0.942579,0.923794,0.000000,1.000000
4,0.000032,0.085590,0.859186,0.132054,0.708921,0.069901,0.168883,1.000000,1.000000,1.000000,0.000000,0.093536,0.561550,0.942579,0.923794,0.000000,1.000000
5,0.000010,0.264158,0.809426,0.343530,0.566278,0.181281,0.009436,0.884887,0.000000,1.000000,0.176954,0.129744,0.559610,0.881468,1.000000,0.000000,2.000000
6,0.000010,0.264158,0.809426,0.343530,0.566278,0.181281,0.009436,0.884887,0.000000,1.000000,0.176954,0.129744,0.559610,0.881468,1.000000,0.000000,2.000000
7,0.000010,0.264158,0.809426,0.343530,0.566278,0.181281,0.009436,0.884887,0.000000,1.000000,0.176954,0.129744,0.559610,0.881468,1.000000,0.000000,2.000000
8,0.000010,0.264158,0.809426,0.343530,0.566278,0.181281,0.009436,0.884887,0.000000,1.000000,0.176954,0.129744,0.559610,0.881468,1.000000,0.000000,2.000000
9,0.000010,0.264158,0.809426,0.343530,0.566278,0.181281,0.009436,0.884887,0.000000,1.000000,0.176954,0.129744,0.559610,0.881468,1.000000,0.000000,2.000000
10,0.000010,0.264158,0.809426,0.343530,0.566278,0.181281,0.009436,0.884887,0.000000,1.000000,0.176954,0.129744,0.559610,0.881468,1.000000,0.000000,2.000000
11,0.000010,0.264158,0.809426,0.343530,0.566278,0.181281,0.009436,0.884887,0.000000,1.000000,0.176954,0.129744,0.559610,0.881468,1.000000,0.000000,2.000000
12,0.000010,0.264158,0.809426,0.343530,0.566278,0.181281,0.009436,0.884887,0.000000,1.000000,0.176954,0.129744,0.559610,0.881468,1.000000,0.000000,2.000000
13,0.000010,0.264158,0.809426,0.343530,0.566278,0.181281,0.009436,0.884887,0.000000,1.000000,0.176954,0.129744,0.559610,0.881468,1.000000,0.000000,2.000000
14,0.000010,0.264158,0.809426,0.343530,0.566278,0.181281,0.009436,0.884887,0.000000,1.000000,0.176954,0.129744,0.559610,0.881468,1.000000,0.000000,2.000000
15,0.000010,0.264158,0.809426,0.343530,0.566278,0.181281,0.009436,0.884887,0.000000,1.000000,0.176954,0.129744,0.559610,0.881468,1.000000,0.000000,2.000000
gen, fitness
0,0.034276,0.000000,1.000000,0.210000,0.800000,0.030000,0.030000,1.000000,0.000000,1.000000,0.000000,0.000000,0.600000,1.000000,1.000000,0.000000,0.000000
1,0.034276,0.000000,1.000000,0.210000,0.800000,0.030000,0.030000,1.000000,0.000000,1.000000,0.000000,0.000000,0.600000,1.000000,1.000000,0.000000,0.000000
2,0.016616,0.000000,0.929115,0.287535,0.808640,0.114212,0.007518,0.916433,1.000000,0.883376,0.036090,0.000000,0.756827,1.000000,1.000000,0.000000,2.000000
3,0.012904,0.000000,1.000000,0.382851,0.902812,0.000000,0.000000,1.000000,2.000000,1.000000,0.150978,0.266015,0.757982,0.658401,1.000000,0.117173,2.000000
4,0.005121,0.000000,0.869608,0.156362,0.977379,0.098902,0.071694,0.954760,0.000000,1.000000,0.139325,0.206432,0.908367,0.715136,0.892951,0.116807,1.000000
5,0.005121,0.000000,0.869608,0.156362,0.977379,0.098902,0.071694,0.954760,0.000000,1.000000,0.139325,0.206432,0.908367,0.715136,0.892951,0.116807,1.000000
6,0.004271,0.132928,0.936145,0.282975,1.000000,0.401212,0.403328,0.823868,2.000000,0.975168,0.289982,0.494460,0.907837,1.000000,0.916820,0.178026,2.000000
7,0.003017,0.000000,0.771033,0.182390,1.000000,0.000000,0.199308,0.967857,2.000000,0.893839,0.200225,0.258982,0.957458,0.619610,1.000000,0.068410,1.000000
8,0.002991,0.016407,0.558875,0.047474,1.000000,0.394342,0.502753,0.777918,1.000000,0.955578,0.416680,0.558511,0.902317,0.989338,0.794456,0.367681,1.000000
9,0.002389,0.134154,0.630952,0.295231,1.000000,0.005660,0.374825,0.804379,1.000000,0.982062,0.439532,0.393029,0.965375,1.000000,0.628754,0.431522,2.000000
10,0.001638,0.246796,0.880179,0.294061,1.000000,0.072912,0.191304,0.935989,2.000000,0.826518,0.623180,0.615737,0.961689,1.000000,0.675931,0.193680,2.000000
11,0.001638,0.246796,0.880179,0.294061,1.000000,0.072912,0.191304,0.935989,2.000000,0.826518,0.623180,0.615737,0.961689,1.000000,0.675931,0.193680,2.000000
12,0.001638,0.246796,0.880179,0.294061,1.000000,0.072912,0.191304,0.935989,2.000000,0.826518,0.623180,0.615737,0.961689,1.000000,0.675931,0.193680,2.000000
13,0.001638,0.246796,0.880179,0.294061,1.000000,0.072912,0.191304,0.935989,2.000000,0.826518,0.623180,0.615737,0.961689,1.000000,0.675931,0.193680,2.000000
14,0.001638,0.246796,0.880179,0.294061,1.000000,0.072912,0.191304,0.935989,2.000000,0.826518,0.623180,0.615737,0.961689,1.000000,0.675931,0.193680,2.000000
15,0.001638,0.246796,0.880179,0.294061,1.000000,0.072912,0.191304,0.935989,2.000000,0.826518,0.623180,0.615737,0.961689,1.000000,0.675931,0.193680,2.000000
16,0.001218,0.178719,0.636175,0.577085,1.000000,0.174078,0.283948,0.973524,2.000000,0.685730,0.692107,0.930601,1.000000,1.000000,0.929201,0.123733,1.000000
17,0.000960,0.241320,0.757633,0.661152,1.000000,0.326079,0.329750,1.000000,1.000000,0.626700,0.617815,1.000000,1.000000,0.969829,0.961604,0.179389,2.000000
18,0.000960,0.241320,0.757633,0.661152,1.000000,0.326079,0.329750,1.000000,1.000000,0.626700,0.617815,1.000000,1.000000,0.969829,0.961604,0.179389,2.000000
19,0.000803,0.000000,1.000000,0.768532,1.000000,0.392311,0.285064,0.854782,2.000000,0.893665,0.702498,1.000000,1.000000,0.995315,1.000000,0.213678,2.000000
20,0.000803,0.000000,1.000000,0.768532,1.000000,0.392311,0.285064,0.854782,2.000000,0.893665,0.702498,1.000000,1.000000,0.995315,1.000000,0.213678,2.000000
21,0.000803,0.000000,1.000000,0.768532,1.000000,0.392311,0.285064,0.854782,2.000000,0.893665,0.702498,1.000000,1.000000,0.995315,1.000000,0.213678,2.000000
22,0.000803,0.000000,1.000000,0.768532,1.000000,0.392311,0.285064,0.854782,2.000000,0.893665,0.702498,1.000000,1.000000,0.995315,1.000000,0.213678,2.000000
23,0.000803,0.000000,1.000000,0.768532,1.000000,0.392311,0.285064,0.854782,2.000000,0.893665,0.702498,1.000000,1.000000,0.995315,1.000000,0.213678,2.000000
24,0.000662,0.000000,1.000000,0.971601,1.000000,0.534740,0.062702,0.668525,2.000000,0.980698,0.664315,1.000000,1.000000,0.840096,0.708017,0.750984,2.000000
25,0.000662,0.000000,1.000000,0.971601,1.000000,0.534740,0.062702,0.668525,2.000000,0.980698,0.664315,1.000000,1.000000,0.840096,0.708017,0.750984,2.000000
26,0.000662,0.000000,1.000000,0.971601,1.000000,0.534740,0.062702,0.668525,2.000000,0.980698,0.664315,1.000000,1.000000,0.840096,0.708017,0.750984,2.000000
27,0.000662,0.000000,1.000000,0.971601,1.000000,0.534740,0.062702,0.668525,2.000000,0.980698,0.664315,1.000000,1.000000,0.840096,0.708017,0.750984,2.000000
28,0.000662,0.000000,1.000000,0.971601,1.000000,0.534740,0.062702,0.668525,2.000000,0.980698,0.664315,1.000000,1.000000,0.840096,0.708017,0.750984,2.000000
29,0.000662,0.000000,1.000000,0.971601,1.000000,0.534740,0.062702,0.668525,2.000000,0.980698,0.664315,1.000000,1.000000,0.840096,0.708017,0.750984,2.000000
30,0.000662,0.000000,1.000000,0.971601,1.000000,0.534740,0.062702,0.668525,2.000000,0.980698,0.664315,1.000000,1.000000,0.840096,0.708017,0.750984,2.000000
31,0.000515,0.004403,0.616810,0.819372,1.000000,0.122442,0.043567,1.000000,2.000000,0.742880,0.721971,1.000000,1.000000,0.739397,0.886694,0.857255,2.000000
32,0.000515,0.004403,0.616810,0.819372,1.000000,0.122442,0.043567,1.000000,2.000000,0.742880,0.721971,1.000000,1.000000,0.739397,0.886694,0.857255,2.000000
33,0.000515,0.004403,0.616810,0.819372,1.000000,0.122442,0.043567,1.000000,2.000000,0.742880,0.721971,1.000000,1.000000,0.739397,0.886694,0.857255,2.000000
34,0.000515,0.004403,0.616810,0.819372,1.000000,0.122442,0.043567,1.000000,2.000000,0.742880,0.721971,1.000000,1.000000,0.739397,0.886694,0.857255,2.000000
35,0.000515,0.004403,0.616810,0.819372,1.000000,0.122442,0.043567,1.000000,2.000000,0.742880,0.721971,1.000000,1.000000,0.739397,0.886694,0.857255,2.000000
36,0.000515,0.004403,0.616810,0.819372,1.000000,0.122442,0.043567,1.000000,2.000000,0.742880,0.721971,1.000000,1.000000,0.739397,0.886694,0.857255,2.000000
37,0.000515,0.004403,0.616810,0.819372,1.000000,0.122442,0.043567,1.000000,2.000000,0.742880,0.721971,1.000000,1.000000,0.739397,0.886694,0.857255,2.000000
38,0.000448,0.000000,0.980110,0.762480,1.000000,0.179945,0.000000,1.000000,2.000000,0.784985,1.000000,1.000000,1.000000,0.847532,0.976522,0.893904,2.000000
39,0.000448,0.000000,0.980110,0.762480,1.000000,0.179945,0.000000,1.000000,2.000000,0.784985,1.000000,1.000000,1.000000,0.847532,0.976522,0.893904,2.000000
40,0.000448,0.000000,0.980110,0.762480,1.000000,0.179945,0.000000,1.000000,2.000000,0.784985,1.000000,1.000000,1.000000,0.847532,0.976522,0.893904,2.000000
41,0.000448,0.000000,0.980110,0.762480,1.000000,0.179945,0.000000,1.000000,2.000000,0.784985,1.000000,1.000000,1.000000,0.847532,0.976522,0.893904,2.000000
42,0.000448,0.000000,0.980110,0.762480,1.000000,0.179945,0.000000,1.000000,2.000000,0.784985,1.000000,1.000000,1.000000,0.847532,0.976522,0.893904,2.000000
43,0.000448,0.000000,0.980110,0.762480,1.000000,0.179945,0.000000,1.000000,2.000000,0.784985,1.000000,1.000000,1.000000,0.847532,0.976522,0.893904,2.000000
44,0.000448,0.000000,0.980110,0.762480,1.000000,0.179945,0.000000,1.000000,2.000000,0.784985,1.000000,1.000000,1.000000,0.847532,0.976522,0.893904,2.000000
45,0.000448,0.000000,0.980110,0.762480,1.000000,0.179945,0.000000,1.000000,2.000000,0.784985,1.000000,1.000000,1.000000,0.847532,0.976522,0.893904,2.000000
46,0.000448,0.000000,0.980110,0.762480,1.000000,0.179945,0.000000,1.000000,2.000000,0.784985,1.000000,1.000000,1.000000,0.847532,0.976522,0.893904,2.000000
47,0.000448,0.000000,0.980110,0.762480,1.000000,0.179945,0.000000,1.000000,2.000000,0.784985,1.000000,1.000000,1.000000,0.847532,0.976522,0.893904,2.000000
48,0.000448,0.000000,0.980110,0.762480,1.000000,0.179945,0.000000,1.000000,2.000000,0.784985,1.000000,1.000000,1.000000,0.847532,0.976522,0.893904,2.000000
gen, fitness
0,0.044384,0.000000,1.000000,0.210000,0.800000,0.030000,0.030000,1.000000,0.000000,1.000000,0.000000,0.000000,0.600000,1.000000,1.000000,0.000000,0.000000
1,0.044384,0.000000,1.000000,0.210000,0.800000,0.030000,0.030000,1.000000,0.000000,1.000000,0.000000,0.000000,0.600000,1.000000,1.000000,0.000000,0.000000
2,0.021728,0.026307,0.738766,0.280625,0.868440,0.162499,0.031574,1.000000,1.000000,1.000000,0.000000,0.000000,0.792030,1.000000,1.000000,0.000000,2.000000
3,0.013662,0.098325,0.981937,0.502256,0.906091,0.000000,0.069939,0.795592,2.000000,0.895810,0.026216,0.000000,0.923450,1.000000,1.000000,0.072206,1.000000
4,0.011044,0.122481,0.992348,0.407466,1.000000,0.022398,0.000000,0.890435,2.000000,0.989904,0.082554,0.439354,0.989779,0.845473,0.864551,0.097506,0.000000
5,0.009410,0.094968,0.951538,0.661726,1.000000,0.139722,0.000000,0.946795,1.000000,1.000000,0.067459,0.518389,1.000000,0.917554,0.795215,0.169742,2.000000
6,0.008941,0.186611,0.939541,0.509924,1.000000,0.000000,0.138774,0.833870,2.000000,0.616608,0.211779,0.570438,0.986910,0.818914,1.000000,0.000000,2.000000
7,0.008703,0.232808,0.820349,0.495235,1.000000,0.022531,0.002075,1.000000,2.000000,0.742333,0.009681,0.606614,1.000000,0.753305,0.799533,0.380403,1.000000
8,0.008703,0.232808,0.820349,0.495235,1.000000,0.022531,0.002075,1.000000,2.000000,0.742333,0.009681,0.606614,1.000000,0.753305,0.799533,0.380403,1.000000
9,0.008027,0.090539,0.977660,0.602304,1.000000,0.000000,0.000000,1.000000,2.000000,0.772110,0.140811,0.428523,1.000000,0.993594,0.761850,0.276702,2.000000
10,0.008027,0.090539,0.977660,0.602304,1.000000,0.000000,0.000000,1.000000,2.000000,0.772110,0.140811,0.428523,1.000000,0.993594,0.761850,0.276702,2.000000
11,0.008027,0.090539,0.977660,0.602304,1.000000,0.000000,0.000000,1.000000,2.000000,0.772110,0.140811,0.428523,1.000000,0.993594,0.761850,0.276702,2.000000
12,0.008027,0.090539,0.977660,0.602304,1.000000,0.000000,0.000000,1.000000,2.000000,0.772110,0.140811,0.428523,1.000000,0.993594,0.761850,0.276702,2.000000
13,0.007643,0.000000,1.000000,0.775661,1.000000,0.000000,0.113006,1.000000,2.000000,0.433580,0.139635,0.724645,1.000000,0.853313,1.000000,0.462512,2.000000
14,0.007452,0.082009,0.766325,0.665458,1.000000,0.078049,0.092964,0.912670,2.000000,0.426515,0.095047,0.947388,1.000000,0.831010,0.885707,0.346828,1.000000
15,0.007452,0.082009,0.766325,0.665458,1.000000,0.078049,0.092964,0.912670,2.000000,0.426515,0.095047,0.947388,1.000000,0.831010,0.885707,0.346828,1.000000
16,0.007452,0.082009,0.766325,0.665458,1.000000,0.078049,0.092964,0.912670,2.000000,0.426515,0.095047,0.947388,1.000000,0.831010,0.885707,0.346828,1.000000
17,0.007452,0.082009,0.766325,0.665458,1.000000,0.078049,0.092964,0.912670,2.000000,0.426515,0.095047,0.947388,1.000000,0.831010,0.885707,0.346828,1.000000
18,0.007223,0.000000,0.499873,0.842751,1.000000,0.193289,0.078237,0.913776,2.000000,0.634511,0.000000,1.000000,1.000000,1.000000,1.000000,0.573918,1.000000
19,0.007223,0.000000,0.499873,0.842751,1.000000,0.193289,0.078237,0.913776,2.000000,0.634511,0.000000,1.000000,1.000000,1.000000,1.000000,0.573918,1.000000
20,0.006970,0.145683,0.484236,0.842450,0.983123,0.058348,0.045396,1.000000,2.000000,0.371389,0.142153,1.000000,1.000000,0.908153,0.907163,0.331352,2.000000
21,0.006970,0.145683,0.484236,0.842450,0.983123,0.058348,0.045396,1.000000,2.000000,0.371389,0.142153,1.000000,1.000000,0.908153,0.907163,0.331352,2.000000
22,0.006970,0.145683,0.484236,0.842450,0.983123,0.058348,0.045396,1.000000,2.000000,0.371389,0.142153,1.000000,1.000000,0.908153,0.907163,0.331352,2.000000
23,0.006970,0.145683,0.484236,0.842450,0.983123,0.058348,0.045396,1.000000,2.000000,0.371389,0.142153,1.000000,1.000000,0.908153,0.907163,0.331352,2.000000
24,0.006970,0.145683,0.484236,0.842450,0.983123,0.058348,0.045396,1.000000,2.000000,0.371389,0.142153,1.000000,1.000000,0.908153,0.907163,0.331352,2.000000
25,0.006970,0.145683,0.484236,0.842450,0.983123,0.058348,0.045396,1.000000,2.000000,0.371389,0.142153,1.000000,1.000000,0.908153,0.907163,0.331352,2.000000
26,0.006970,0.145683,0.484236,0.842450,0.983123,0.058348,0.045396,1.000000,2.000000,0.371389,0.142153,1.000000,1.000000,0.908153,0.907163,0.331352,2.000000
27,0.006970,0.145683,0.484236,0.842450,0.983123,0.058348,0.045396,1.000000,2.000000,0.371389,0.142153,1.000000,1.000000,0.908153,0.907163,0.331352,2.000000
28,0.006970,0.145683,0.484236,0.842450,0.983123,0.058348,0.045396,1.000000,2.000000,0.371389,0.142153,1.000000,1.000000,0.908153,0.907163,0.331352,2.000000
29,0.006970,0.145683,0.484236,0.842450,0.983123,0.058348,0.045396,1.000000,2.000000,0.371389,0.142153,1.000000,1.000000,0.908153,0.907163,0.331352,2.000000
30,0.006970,0.145683,0.484236,0.842450,0.983123,0.058348,0.045396,1.000000,2.000000,0.371389,0.142153,1.000000,1.000000,0.908153,0.907163,0.331352,2.000000
gen, fitness
0,0.006335,0.000000,1.000000,0.210000,0.800000,0.030000,0.030000,1.000000,0.000000,1.000000,0.000000,0.000000,0.600000,1.000000,1.000000,0.000000,0.000000
1,0.006335,0.000000,1.000000,0.210000,0.800000,0.030000,0.030000,1.000000,0.000000,1.000000,0.000000,0.000000,0.600000,1.000000,1.000000,0.000000,0.000000
2,0.000041,0.000000,1.000000,0.262719,0.736656,0.000000,0.119320,0.712064,2.000000,0.991729,0.000000,0.000000,0.649274,0.960870,1.000000,0.000000,1.000000
3,0.000041,0.000000,1.000000,0.262719,0.736656,0.000000,0.119320,0.712064,2.000000,0.991729,0.000000,0.000000,0.649274,0.960870,1.000000,0.000000,1.000000
4,0.000041,0.000000,1.000000,0.262719,0.736656,0.000000,0.119320,0.712064,2.000000,0.991729,0.000000,0.000000,0.649274,0.960870,1.000000,0.000000,1.000000
5,0.000035,0.175914,0.857149,0.140168,0.735331,0.019735,0.139474,0.924809,1.000000,0.784802,0.073536,0.322502,0.499537,0.928226,0.751690,0.077233,2.000000
6,0.000031,0.086703,0.781217,0.286340,0.715472,0.000000,0.121866,1.000000,0.000000,0.890248,0.000000,0.195752,0.573732,0.837942,0.817237,0.269544,0.000000
7,0.000031,0.086703,0.781217,0.286340,0.715472,0.000000,0.121866,1.000000,0.000000,0.890248,0.000000,0.195752,0.573732,0.837942,0.817237,0.269544,0.000000
8,0.000031,0.086703,0.781217,0.286340,0.715472,0.000000,0.121866,1.000000,0.000000,0.890248,0.000000,0.195752,0.573732,0.837942,0.817237,0.269544,0.000000
9,0.000031,0.086703,0.781217,0.286340,0.715472,0.000000,0.121866,1.000000,0.000000,0.890248,0.000000,0.195752,0.573732,0.837942,0.817237,0.269544,0.000000
10,0.000031,0.086703,0.781217,0.286340,0.715472,0.000000,0.121866,1.000000,0.000000,0.890248,0.000000,0.195752,0.573732,0.837942,0.817237,0.269544,0.000000
11,0.000031,0.086703,0.781217,0.286340,0.715472,0.000000,0.121866,1.000000,0.000000,0.890248,0.000000,0.195752,0.573732,0.837942,0.817237,0.269544,0.000000
12,0.000031,0.086703,0.781217,0.286340,0.715472,0.000000,0.121866,1.000000,0.000000,0.890248,0.000000,0.195752,0.573732,0.837942,0.817237,0.269544,0.000000
gen, fitness
0,0.018541,0.000000,1.000000,0.210000,0.800000,0.030000,0.030000,1.000000,0.000000,1.000000,0.000000,0.000000,0.600000,1.000000,1.000000,0.000000,0.000000
1,0.018541,0.000000,1.000000,0.210000,0.800000,0.030000,0.030000,1.000000,0.000000,1.000000,0.000000,0.000000,0.600000,1.000000,1.000000,0.000000,0.000000
2,0.003929,0.037207,0.860318,0.178139,0.835075,0.025398,0.076185,0.935808,1.000000,0.854904,0.000000,0.000000,0.765471,0.978617,0.834635,0.000000,2.000000
3,0.002628,0.188439,0.928829,0.178402,1.000000,0.060158,0.000000,0.840240,1.000000,0.779451,0.159591,0.143829,0.947236,0.988104,0.973890,0.000000,2.000000
4,0.000302,0.249224,0.915381,0.197450,1.000000,0.088699,0.000000,0.883581,2.000000,0.810550,0.192183,0.378773,0.957753,1.000000,1.000000,0.000000,0.000000
5,0.000302,0.249224,0.915381,0.197450,1.000000,0.088699,0.000000,0.883581,2.000000,0.810550,0.192183,0.378773,0.957753,1.000000,1.000000,0.000000,0.000000
6,0.000064,0.095353,0.637026,0.302478,1.000000,0.329048,0.332343,0.756720,1.000000,0.873587,0.000000,0.167732,0.975400,0.862399,0.822124,0.132964,2.000000
7,0.000004,0.171554,0.648121,0.116419,1.000000,0.145891,0.040944,1.000000,2.000000,0.817609,0.000000,0.403213,0.948716,1.000000,0.971176,0.094391,1.000000
8,0.000004,0.171554,0.648121,0.116419,1.000000,0.145891,0.040944,1.000000,2.000000,0.817609,0.000000,0.403213,0.948716,1.000000,0.971176,0.094391,1.000000
9,0.000004,0.171554,0.648121,0.116419,1.000000,0.145891,0.040944,1.000000,2.000000,0.817609,0.000000,0.403213,0.948716,1.000000,0.971176,0.094391,1.000000
10,0.000004,0.171554,0.648121,0.116419,1.000000,0.145891,0.040944,1.000000,2.000000,0.817609,0.000000,0.403213,0.948716,1.000000,0.971176,0.094391,1.000000
11,0.000004,0.171554,0.648121,0.116419,1.000000,0.145891,0.040944,1.000000,2.000000,0.817609,0.000000,0.403213,0.948716,1.000000,0.971176,0.094391,1.000000
12,0.000004,0.171554,0.648121,0.116419,1.000000,0.145891,0.040944,1.000000,2.000000,0.817609,0.000000,0.403213,0.948716,1.000000,0.971176,0.094391,1.000000
13,0.000004,0.171554,0.648121,0.116419,1.000000,0.145891,0.040944,1.000000,2.000000,0.817609,0.000000,0.403213,0.948716,1.000000,0.971176,0.094391,1.000000
14,0.000003,0.252867,0.690159,0.324818,1.000000,0.169716,0.223629,0.969377,0.000000,0.963145,0.360652,0.017153,1.000000,0.767290,0.959967,0.130790,1.000000
15,0.000003,0.252867,0.690159,0.324818,1.000000,0.169716,0.223629,0.969377,0.000000,0.963145,0.360652,0.017153,1.000000,0.767290,0.959967,0.130790,1.000000
16,0.000003,0.252867,0.690159,0.324818,1.000000,0.169716,0.223629,0.969377,0.000000,0.963145,0.360652,0.017153,1.000000,0.767290,0.959967,0.130790,1.000000
17,0.000001,0.773218,0.566876,0.142277,1.000000,0.218076,0.349649,0.636783,2.000000,0.821037,0.019141,0.312069,1.000000,0.818225,0.485484,0.000000,0.000000
gen, fitness
0,0.069293,0.000000,1.000000,0.210000,0.800000,0.030000,0.030000,1.000000,0.000000,1.000000,0.000000,0.000000,0.600000,1.000000,1.000000,0.000000,0.000000
1,0.069293,0.000000,1.000000,0.210000,0.800000,0.030000,0.030000,1.000000,0.000000,1.000000,0.000000,0.000000,0.600000,1.000000,1.000000,0.000000,0.000000
2,0.032408,0.128055,1.000000,0.103427,0.857298,0.197985,0.000000,1.000000,1.000000,0.971154,0.196602,0.150479,0.784106,0.930803,1.000000,0.000000,2.000000
3,0.019341,0.000000,0.876722,0.245085,1.000000,0.184728,0.000000,1.000000,0.000000,1.000000,0.095153,0.007706,1.000000,1.000000,0.991497,0.000000,0.000000
4,0.014654,0.000000,1.000000,0.000000,1.000000,0.191293,0.151091,1.000000,2.000000,0.985785,0.000735,0.061103,1.000000,1.000000,0.801563,0.022602,2.000000
5,0.013232,0.000000,1.000000,0.000000,1.000000,0.101367,0.066388,1.000000,1.000000,0.893942,0.185890,0.289003,0.946099,1.000000,0.659732,0.000000,2.000000
6,0.013232,0.000000,1.000000,0.000000,1.000000,0.101367,0.066388,1.000000,1.000000,0.893942,0.185890,0.289003,0.946099,1.000000,0.659732,0.000000,2.000000
7,0.012773,0.000000,0.795786,0.000000,1.000000,0.011678,0.233197,0.819350,1.000000,0.924056,0.000000,0.313406,0.951108,0.777841,0.942498,0.000000,2.000000
8,0.012482,0.093052,1.000000,0.026336,1.000000,0.105596,0.289666,0.841350,2.000000,0.987066,0.081657,0.496683,0.910186,0.965860,0.743915,0.357802,2.000000
9,0.012482,0.093052,1.000000,0.026336,1.000000,0.105596,0.289666,0.841350,2.000000,0.987066,0.081657,0.496683,0.910186,0.965860,0.743915,0.357802,2.000000
10,0.012165,0.000000,0.531801,0.000000,1.000000,0.153212,0.047430,0.522980,1.000000,0.994091,0.175827,0.391370,0.933448,0.655126,0.928268,0.046148,2.000000
11,0.011810,0.088297,1.000000,0.000000,1.000000,0.008369,0.420440,0.574394,2.000000,1.000000,0.165640,0.861868,0.903292,0.996314,1.000000,0.030539,0.000000
12,0.010918,0.000000,0.999471,0.000000,1.000000,0.140174,0.407080,0.797051,2.000000,0.892643,0.000000,0.607025,0.948701,0.929599,0.926120,0.218573,2.000000
13,0.010918,0.000000,0.999471,0.000000,1.000000,0.140174,0.407080,0.797051,2.000000,0.892643,0.000000,0.607025,0.948701,0.929599,0.926120,0.218573,2.000000
14,0.010918,0.000000,0.999471,0.000000,1.000000,0.140174,0.407080,0.797051,2.000000,0.892643,0.000000,0.607025,0.948701,0.929599,0.926120,0.218573,2.000000
15,0.010579,0.172817,0.956299,0.000000,1.000000,0.086639,0.420276,0.576208,1.000000,1.000000,0.095366,0.882063,0.934784,1.000000,0.699850,0.228047,2.000000
16,0.010579,0.172817,0.956299,0.000000,1.000000,0.086639,0.420276,0.576208,1.000000,1.000000,0.095366,0.882063,0.934784,1.000000,0.699850,0.228047,2.000000
17,0.010579,0.172817,0.956299,0.000000,1.000000,0.086639,0.420276,0.576208,1.000000,1.000000,0.095366,0.882063,0.934784,1.000000,0.699850,0.228047,2.000000
18,0.010084,0.106205,0.904818,0.097710,1.000000,0.000000,0.479128,0.741900,2.000000,0.983567,0.123793,1.000000,0.933872,1.000000,0.661571,0.135454,2.000000
19,0.010084,0.106205,0.904818,0.097710,1.000000,0.000000,0.479128,0.741900,2.000000,0.983567,0.123793,1.000000,0.933872,1.000000,0.661571,0.135454,2.000000
20,0.010084,0.106205,0.904818,0.097710,1.000000,0.000000,0.479128,0.741900,2.000000,0.983567,0.123793,1.000000,0.933872,1.000000,0.661571,0.135454,2.000000
21,0.010084,0.106205,0.904818,0.097710,1.000000,0.000000,0.479128,0.741900,2.000000,0.983567,0.123793,1.000000,0.933872,1.000000,0.661571,0.135454,2.000000
22,0.010084,0.106205,0.904818,0.097710,1.000000,0.000000,0.479128,0.741900,2.000000,0.983567,0.123793,1.000000,0.933872,1.000000,0.661571,0.135454,2.000000
23,0.010084,0.106205,0.904818,0.097710,1.000000,0.000000,0.479128,0.741900,2.000000,0.983567,0.123793,1.000000,0.933872,1.000000,0.661571,0.135454,2.000000
24,0.010084,0.106205,0.904818,0.097710,1.000000,0.000000,0.479128,0.741900,2.000000,0.983567,0.123793,1.000000,0.933872,1.000000,0.661571,0.135454,2.000000
25,0.010084,0.106205,0.904818,0.097710,1.000000,0.000000,0.479128,0.741900,2.000000,0.983567,0.123793,1.000000,0.933872,1.000000,0.661571,0.135454,2.000000
26,0.010084,0.106205,0.904818,0.097710,1.000000,0.000000,0.479128,0.741900,2.000000,0.983567,0.123793,1.000000,0.933872,1.000000,0.661571,0.135454,2.000000
27,0.010084,0.106205,0.904818,0.097710,1.000000,0.000000,0.479128,0.741900,2.000000,0.983567,0.123793,1.000000,0.933872,1.000000,0.661571,0.135454,2.000000
28,0.010084,0.106205,0.904818,0.097710,1.000000,0.000000,0.479128,0.741900,2.000000,0.983567,0.123793,1.000000,0.933872,1.000000,0.661571,0.135454,2.000000
gen, fitness
0,0.020772,0.000000,1.000000,0.210000,0.800000,0.030000,0.030000,1.000000,0.000000,1.000000,0.000000,0.000000,0.600000,1.000000,1.000000,0.000000,0.000000
1,0.020772,0.000000,1.000000,0.210000,0.800000,0.030000,0.030000,1.000000,0.000000,1.000000,0.000000,0.000000,0.600000,1.000000,1.000000,0.000000,0.000000
2,0.002045,0.056453,0.941754,0.381298,0.817652,0.000000,0.000000,1.000000,1.000000,0.832177,0.082518,0.233988,0.765279,0.813787,1.000000,0.018078,2.000000
3,0.001235,0.000000,0.831738,0.282348,0.892951,0.000000,0.011362,0.794885,0.000000,0.923909,0.047142,0.059222,0.850193,0.936218,1.000000,0.018914,2.000000
4,0.000954,0.055756,0.802350,0.348286,0.930884,0.055036,0.037143,0.834959,2.000000,0.857313,0.045275,0.000000,0.953377,1.000000,0.767611,0.169934,2.000000
5,0.000024,0.285182,0.761472,0.101455,1.000000,0.184740,0.115954,0.961341,1.000000,0.843087,0.137741,0.000000,1.000000,0.958971,0.905454,0.194079,2.000000
6,0.000024,0.285182,0.761472,0.101455,1.000000,0.184740,0.115954,0.961341,1.000000,0.843087,0.137741,0.000000,1.000000,0.958971,0.905454,0.194079,2.000000
7,0.000024,0.285182,0.761472,0.101455,1.000000,0.184740,0.115954,0.961341,1.000000,0.843087,0.137741,0.000000,1.000000,0.958971,0.905454,0.194079,2.000000
8,0.000005,0.000000,1.000000,0.160452,1.000000,0.367795,0.440205,0.894947,2.000000,0.805148,0.417889,0.000000,1.000000,0.767302,0.971966,0.201377,0.000000
9,0.000005,0.000000,1.000000,0.160452,1.000000,0.367795,0.440205,0.894947,2.000000,0.805148,0.417889,0.000000,1.000000,0.767302,0.971966,0.201377,0.000000
10,0.000005,0.000000,1.000000,0.160452,1.000000,0.367795,0.440205,0.894947,2.000000,0.805148,0.417889,0.000000,1.000000,0.767302,0.971966,0.201377,0.000000
11,0.000003,0.300730,0.876463,0.099216,1.000000,0.161696,0.000000,0.932016,2.000000,0.844451,0.332148,0.085473,1.000000,0.873231,0.817779,0.000000,1.000000
12,0.000003,0.300730,0.876463,0.099216,1.000000,0.161696,0.000000,0.932016,2.000000,0.844451,0.332148,0.085473,1.000000,0.873231,0.817779,0.000000,1.000000
13,0.000003,0.300730,0.876463,0.099216,1.000000,0.161696,0.000000,0.932016,2.000000,0.844451,0.332148,0.085473,1.000000,0.873231,0.817779,0.000000,1.000000
14,0.000003,0.300730,0.876463,0.099216,1.000000,0.161696,0.000000,0.932016,2.000000,0.844451,0.332148,0.085473,1.000000,0.873231,0.817779,0.000000,1.000000
15,0.000003,0.300730,0.876463,0.099216,1.000000,0.161696,0.000000,0.932016,2.000000,0.844451,0.332148,0.085473,1.000000,0.873231,0.817779,0.000000,1.000000
16,0.000003,0.300730,0.876463,0.099216,1.000000,0.161696,0.000000,0.932016,2.000000,0.844451,0.332148,0.085473,1.000000,0.873231,0.817779,0.000000,1.000000
17,0.000003,0.300730,0.876463,0.099216,1.000000,0.161696,0.000000,0.932016,2.000000,0.844451,0.332148,0.085473,1.000000,0.873231,0.817779,0.000000,1.000000
18,0.000003,0.300730,0.876463,0.099216,1.000000,0.161696,0.000000,0.932016,2.000000,0.844451,0.332148,0.085473,1.000000,0.873231,0.817779,0.000000,1.000000
gen, fitness
0,0.008197,0.000000,1.000000,0.210000,0.800000,0.030000,0.030000,1.000000,0.000000,1.000000,0.000000,0.000000,0.600000,1.000000,1.000000,0.000000,0.000000
1,0.008197,0.000000,1.000000,0.210000,0.800000,0.030000,0.030000,1.000000,0.000000,1.000000,0.000000,0.000000,0.600000,1.000000,1.000000,0.000000,0.000000
2,0.000242,0.193978,0.944114,0.180126,0.797359,0.119847,0.120730,0.857166,2.000000,1.000000,0.000000,0.086179,0.692084,0.726919,0.946345,0.036505,1.000000
3,0.000043,0.152091,1.000000,0.344993,0.725929,0.000000,0.000000,1.000000,1.000000,0.850128,0.041988,0.094116,0.703074,0.764503,0.949634,0.216647,0.000000
4,0.000043,0.152091,1.000000,0.344993,0.725929,0.000000,0.000000,1.000000,1.000000,0.850128,0.041988,0.094116,0.703074,0.764503,0.949634,0.216647,0.000000
5,0.000028,0.043335,0.942806,0.000000,0.897155,0.098600,0.000000,0.974560,0.000000,1.000000,0.007208,0.371464,0.631391,0.830322,0.971177,0.118825,0.000000
6,0.000028,0.043335,0.942806,0.000000,0.897155,0.098600,0.000000,0.974560,0.000000,1.000000,0.007208,0.371464,0.631391,0.830322,0.971177,0.118825,0.000000
7,0.000028,0.043335,0.942806,0.000000,0.897155,0.098600,0.000000,0.974560,0.000000,1.000000,0.007208,0.371464,0.631391,0.830322,0.971177,0.118825,0.000000
8,0.000003,0.344105,0.866862,0.648046,0.609198,0.097016,0.000000,0.898343,1.000000,0.781164,0.053102,0.431910,0.614313,0.775603,0.965426,0.085352,2.000000
9,0.000003,0.344105,0.866862,0.648046,0.609198,0.097016,0.000000,0.898343,1.000000,0.781164,0.053102,0.431910,0.614313,0.775603,0.965426,0.085352,2.000000
10,0.000003,0.344105,0.866862,0.648046,0.609198,0.097016,0.000000,0.898343,1.000000,0.781164,0.053102,0.431910,0.614313,0.775603,0.965426,0.085352,2.000000
11,0.000003,0.344105,0.866862,0.648046,0.609198,0.097016,0.000000,0.898343,1.000000,0.781164,0.053102,0.431910,0.614313,0.775603,0.965426,0.085352,2.000000
12,0.000003,0.344105,0.866862,0.648046,0.609198,0.097016,0.000000,0.898343,1.000000,0.781164,0.053102,0.431910,0.614313,0.775603,0.965426,0.085352,2.000000
13,0.000003,0.344105,0.866862,0.648046,0.609198,0.097016,0.000000,0.898343,1.000000,0.781164,0.053102,0.431910,0.614313,0.775603,0.965426,0.085352,2.000000
14,0.000003,0.344105,0.866862,0.648046,0.609198,0.097016,0.000000,0.898343,1.000000,0.781164,0.053102,0.431910,0.614313,0.775603,0.965426,0.085352,2.000000
15,0.000003,0.344105,0.866862,0.648046,0.609198,0.097016,0.000000,0.898343,1.000000,0.781164,0.053102,0.431910,0.614313,0.775603,0.965426,0.085352,2.000000
16,0.000003,0.344105,0.866862,0.648046,0.609198,0.097016,0.000000,0.898343,1.000000,0.781164,0.053102,0.431910,0.614313,0.775603,0.965426,0.085352,2.000000
17,0.000003,0.344105,0.866862,0.648046,0.609198,0.097016,0.000000,0.898343,1.000000,0.781164,0.053102,0.431910,0.614313,0.775603,0.965426,0.085352,2.000000
18,0.000003,0.344105,0.866862,0.648046,0.609198,0.097016,0.000000,0.898343,1.000000,0.781164,0.053102,0.431910,0.614313,0.775603,0.965426,0.085352,2.000000
gen, fitness
0,0.011091,0.000000,1.000000,0.210000,0.800000,0.030000,0.030000,1.000000,0.000000,1.000000,0.000000,0.000000,0.600000,1.000000,1.000000,0.000000,0.000000
1,0.011091,0.000000,1.000000,0.210000,0.800000,0.030000,0.030000,1.000000,0.000000,1.000000,0.000000,0.000000,0.600000,1.000000,1.000000,0.000000,0.000000
2,0.000029,0.000000,1.000000,0.222272,0.699930,0.044050,0.038678,1.000000,2.000000,1.000000,0.000000,0.000000,0.628328,0.987885,1.000000,0.100719,2.000000
3,0.000029,0.000000,1.000000,0.222272,0.699930,0.044050,0.038678,1.000000,2.000000,1.000000,0.000000,0.000000,0.628328,0.987885,1.000000,0.100719,2.000000
4,0.000029,0.000000,1.000000,0.222272,0.699930,0.044050,0.038678,1.000000,2.000000,1.000000,0.000000,0.000000,0.628328,0.987885,1.000000,0.100719,2.000000
5,0.000009,0.072746,0.909879,0.147313,0.702705,0.015315,0.013020,0.944845,1.000000,0.752665,0.138222,0.000000,0.662315,1.000000,1.000000,0.000000,2.000000
6,0.000009,0.072746,0.909879,0.147313,0.702705,0.015315,0.013020,0.944845,1.000000,0.752665,0.138222,0.000000,0.662315,1.000000,1.000000,0.000000,2.000000
7,0.000009,0.072746,0.909879,0.147313,0.702705,0.015315,0.013020,0.944845,1.000000,0.752665,0.138222,0.000000,0.662315,1.000000,1.000000,0.000000,2.000000
8,0.000009,0.072746,0.909879,0.147313,0.702705,0.015315,0.013020,0.944845,1.000000,0.752665,0.138222,0.000000,0.662315,1.000000,1.000000,0.000000,2.000000
9,0.000009,0.072746,0.909879,0.147313,0.702705,0.015315,0.013020,0.944845,1.000000,0.752665,0.138222,0.000000,0.662315,1.000000,1.000000,0.000000,2.000000
10,0.000009,0.072746,0.909879,0.147313,0.702705,0.015315,0.013020,0.944845,1.000000,0.752665,0.138222,0.000000,0.662315,1.000000,1.000000,0.000000,2.000000
11,0.000009,0.072746,0.909879,0.147313,0.702705,0.015315,0.013020,0.944845,1.000000,0.752665,0.138222,0.000000,0.662315,1.000000,1.000000,0.000000,2.000000
12,0.000009,0.072746,0.909879,0.147313,0.702705,0.015315,0.013020,0.944845,1.000000,0.752665,0.138222,0.000000,0.662315,1.000000,1.000000,0.000000,2.000000
13,0.000002,0.158719,1.000000,0.314665,0.662225,0.049996,0.000000,1.000000,2.000000,0.975087,0.185780,0.000000,0.677886,1.000000,0.983561,0.023692,0.000000
14,0.000002,0.158719,1.000000,0.314665,0.662225,0.049996,0.000000,1.000000,2.000000,0.975087,0.185780,0.000000,0.677886,1.000000,0.983561,0.023692,0.000000
15,0.000002,0.158719,1.000000,0.314665,0.662225,0.049996,0.000000,1.000000,2.000000,0.975087,0.185780,0.000000,0.677886,1.000000,0.983561,0.023692,0.000000
gen, fitness
0,0.020988,0.000000,1.000000,0.210000,0.800000,0.030000,0.030000,1.000000,0.000000,1.000000,0.000000,0.000000,0.600000,1.000000,1.000000,0.000000,0.000000
1,0.020988,0.000000,1.000000,0.210000,0.800000,0.030000,0.030000,1.000000,0.000000,1.000000,0.000000,0.000000,0.600000,1.000000,1.000000,0.000000,0.000000
2,0.003511,0.000000,1.000000,0.356296,0.891894,0.000000,0.070949,0.998637,1.000000,1.000000,0.049580,0.000000,0.852854,1.000000,0.999211,0.000000,2.000000
3,0.003511,0.000000,1.000000,0.356296,0.891894,0.000000,0.070949,0.998637,1.000000,1.000000,0.049580,0.000000,0.852854,1.000000,0.999211,0.000000,2.000000
4,0.001554,0.027229,1.000000,0.241281,0.966393,0.055867,0.030280,1.000000,2.000000,0.892446,0.000000,0.092030,0.920896,1.000000,0.724677,0.000000,1.000000
5,0.001554,0.027229,1.000000,0.241281,0.966393,0.055867,0.030280,1.000000,2.000000,0.892446,0.000000,0.092030,0.920896,1.000000,0.724677,0.000000,1.000000
6,0.001554,0.027229,1.000000,0.241281,0.966393,0.055867,0.030280,1.000000,2.000000,0.892446,0.000000,0.092030,0.920896,1.000000,0.724677,0.000000,1.000000
7,0.000450,0.000000,0.669662,0.451154,1.000000,0.057273,0.332408,1.000000,2.000000,0.845538,0.477640,0.000000,1.000000,0.860051,0.838733,0.022665,1.000000
8,0.000357,0.000000,0.834141,0.466453,0.989400,0.173511,0.000000,1.000000,2.000000,0.682013,0.000000,0.000000,1.000000,1.000000,0.643081,0.000000,2.000000
9,0.000306,0.454963,0.893672,0.992255,0.920448,0.311567,0.170683,0.906191,2.000000,0.967726,0.159648,0.090999,0.993370,1.000000,0.892955,0.103706,0.000000
10,0.000282,0.078160,0.692628,0.924803,1.000000,0.261904,0.068944,0.989824,0.000000,0.988352,0.522798,0.222597,1.000000,1.000000,0.582039,0.000000,1.000000
11,0.000115,0.463888,0.945220,0.585479,1.000000,0.000000,0.000000,0.765068,2.000000,0.617026,0.277739,0.841018,1.000000,1.000000,0.872649,0.384131,1.000000
12,0.000055,0.078247,0.871976,1.000000,1.000000,0.237796,0.000000,0.878180,1.000000,0.783998,0.022570,0.848402,1.000000,0.801436,0.665980,0.000000,1.000000
13,0.000012,0.000000,0.553030,0.996533,1.000000,0.237094,0.168248,0.969958,2.000000,0.747599,0.258180,0.899647,1.000000,0.378949,0.908659,0.102933,1.000000
14,0.000012,0.000000,0.553030,0.996533,1.000000,0.237094,0.168248,0.969958,2.000000,0.747599,0.258180,0.899647,1.000000,0.378949,0.908659,0.102933,1.000000
15,0.000012,0.000000,0.553030,0.996533,1.000000,0.237094,0.168248,0.969958,2.000000,0.747599,0.258180,0.899647,1.000000,0.378949,0.908659,0.102933,1.000000
16,0.000012,0.000000,0.553030,0.996533,1.000000,0.237094,0.168248,0.969958,2.000000,0.747599,0.258180,0.899647,1.000000,0.378949,0.908659,0.102933,1.000000
17,0.000005,0.083170,1.000000,0.860487,1.000000,0.341637,0.113412,1.000000,2.000000,0.630834,0.170658,1.000000,0.996944,0.964543,0.663637,0.206526,1.000000
18,0.000005,0.083170,1.000000,0.860487,1.000000,0.341637,0.113412,1.000000,2.000000,0.630834,0.170658,1.000000,0.996944,0.964543,0.663637,0.206526,1.000000
19,0.000005,0.083170,1.000000,0.860487,1.000000,0.341637,0.113412,1.000000,2.000000,0.630834,0.170658,1.000000,0.996944,0.964543,0.663637,0.206526,1.000000
20,0.000005,0.083170,1.000000,0.860487,1.000000,0.341637,0.113412,1.000000,2.000000,0.630834,0.170658,1.000000,0.996944,0.964543,0.663637,0.206526,1.000000
21,0.000005,0.083170,1.000000,0.860487,1.000000,0.341637,0.113412,1.000000,2.000000,0.630834,0.170658,1.000000,0.996944,0.964543,0.663637,0.206526,1.000000
22,0.000002,0.083222,0.483337,1.000000,1.000000,0.083796,0.272567,0.990383,2.000000,0.679197,0.090104,0.990483,1.000000,1.000000,0.537426,0.158049,2.000000
23,0.000002,0.083222,0.483337,1.000000,1.000000,0.083796,0.272567,0.990383,2.000000,0.679197,0.090104,0.990483,1.000000,1.000000,0.537426,0.158049,2.000000
