gen, fitness
0,0.094016,0.000000,1.000000,0.210000,0.800000,0.030000,0.030000,1.000000,0.000000,1.000000,0.000000,0.000000,0.600000,1.000000,1.000000,0.000000,0.000000
1,0.094016,0.000000,1.000000,0.210000,0.800000,0.030000,0.030000,1.000000,0.000000,1.000000,0.000000,0.000000,0.600000,1.000000,1.000000,0.000000,0.000000
2,0.053060,0.066399,0.985398,0.209185,0.589378,0.000000,0.030000,0.988018,1.000000,0.904902,0.044611,0.000000,0.458707,1.000000,0.847555,0.000000,1.000000
3,0.044181,0.005192,0.985398,0.121886,0.589378,0.056834,0.000000,0.988018,0.000000,1.000000,0.122398,0.000000,0.458707,0.747925,0.929209,0.000000,1.000000
4,0.036864,0.137142,0.931193,0.059611,0.592208,0.127778,0.002627,1.000000,1.000000,1.000000,0.097941,0.000000,0.379626,1.000000,0.801997,0.152988,2.000000
5,0.029439,0.000000,0.860872,0.088623,0.411645,0.139535,0.117368,0.695128,0.000000,0.815600,0.000000,0.104060,0.190003,1.000000,0.648681,0.049058,0.000000
6,0.020758,0.460652,0.868473,0.033031,0.436473,0.016932,0.000000,0.872280,2.000000,1.000000,0.039663,0.000000,0.343726,1.000000,1.000000,0.000000,2.000000
7,0.011485,0.468684,0.525125,0.031311,0.257660,0.027910,0.000000,0.790664,1.000000,0.775079,0.000000,0.000000,0.137731,1.000000,1.000000,0.077449,2.000000
8,0.005689,0.440632,0.440716,0.041243,0.149941,0.027910,0.028412,0.790664,1.000000,0.803110,0.000000,0.000000,0.076639,1.000000,1.000000,0.110372,1.000000
9,0.004682,0.505093,0.629171,0.049923,0.087151,0.027910,0.000000,0.863008,1.000000,0.775079,0.145692,0.024130,0.080618,1.000000,1.000000,0.077449,1.000000
10,0.003856,0.547566,0.505468,0.027297,0.153915,0.000000,0.163393,0.790664,1.000000,0.925269,0.165524,0.023445,0.090451,1.000000,0.884193,0.000000,0.000000
11,0.001651,0.647647,0.847926,0.000000,0.128682,0.000000,0.000000,1.000000,1.000000,0.992038,0.188485,0.000000,0.070728,0.747110,1.000000,0.000000,1.000000
12,0.000301,0.687566,1.000000,0.000000,0.073844,0.000000,0.000000,0.752663,0.000000,1.000000,0.083706,0.000000,0.008312,0.803426,0.977754,0.146818,1.000000
13,0.000212,0.785891,1.000000,0.000000,0.055679,0.000000,0.000000,0.816898,1.000000,1.000000,0.254452,0.000000,0.000000,0.710191,0.739024,0.271193,0.000000
14,0.000150,0.717516,0.794129,0.000000,0.000000,0.000000,0.108041,0.818180,0.000000,0.902218,0.254452,0.000000,0.000000,0.677163,0.448201,0.000000,2.000000
15,0.000010,0.862395,0.838176,0.007397,0.000000,0.000000,0.089295,0.688109,2.000000,1.000000,0.254452,0.000000,0.000000,0.686721,0.921768,0.323880,2.000000
16,0.000010,0.862395,0.838176,0.007397,0.000000,0.000000,0.089295,0.688109,2.000000,1.000000,0.254452,0.000000,0.000000,0.686721,0.921768,0.323880,2.000000
17,0.000010,0.862395,0.838176,0.007397,0.000000,0.000000,0.089295,0.688109,2.000000,1.000000,0.254452,0.000000,0.000000,0.686721,0.921768,0.323880,2.000000
18,0.000000,0.832151,0.790920,0.000000,0.000000,0.000000,0.037262,0.680462,2.000000,1.000000,0.166686,0.000000,0.000000,0.912202,0.528857,0.158502,0.000000
gen, fitness
0,0.011444,0.000000,1.000000,0.210000,0.800000,0.030000,0.030000,1.000000,0.000000,1.000000,0.000000,0.000000,0.600000,1.000000,1.000000,0.000000,0.000000
1,0.011444,0.000000,1.000000,0.210000,0.800000,0.030000,0.030000,1.000000,0.000000,1.000000,0.000000,0.000000,0.600000,1.000000,1.000000,0.000000,0.000000
2,0.005723,0.103708,0.989060,0.006342,0.794381,0.094964,0.030000,0.985189,1.000000,1.000000,0.000000,0.000000,0.617308,0.943239,1.000000,0.000000,2.000000
3,0.002659,0.087417,0.989060,0.006342,0.715421,0.000000,0.074823,0.798568,2.000000,0.986863,0.045881,0.000000,0.489235,1.000000,0.868103,0.244570,0.000000
4,0.002498,0.106720,0.954038,0.000000,0.755140,0.000000,0.000000,0.798568,0.000000,1.000000,0.160043,0.104921,0.367289,1.000000,0.985081,0.263185,2.000000
5,0.002109,0.106720,0.990311,0.000000,0.755140,0.000000,0.075693,0.669448,0.000000,1.000000,0.088970,0.104921,0.367289,1.000000,0.787834,0.250155,0.000000
6,0.000357,0.133764,0.908996,0.000000,0.651372,0.000000,0.148080,0.783336,1.000000,1.000000,0.160043,0.000000,0.288784,1.000000,0.922475,0.281588,0.000000
7,0.000283,0.026307,1.000000,0.000000,0.644109,0.025368,0.095343,0.733573,0.000000,0.960501,0.365848,0.104921,0.194355,0.968830,0.922716,0.000000,0.000000
8,0.000283,0.026307,1.000000,0.000000,0.644109,0.025368,0.095343,0.733573,0.000000,0.960501,0.365848,0.104921,0.194355,0.968830,0.922716,0.000000,0.000000
9,0.000085,0.021345,0.954038,0.000000,0.548274,0.010480,0.000000,0.934877,0.000000,0.999732,0.098704,0.065419,0.063004,1.000000,1.000000,0.157825,0.000000
10,0.000026,0.088107,0.911750,0.000000,0.559630,0.000000,0.555066,0.771845,2.000000,0.926397,0.211196,0.000000,0.220516,1.000000,0.887859,0.000000,2.000000
11,0.000005,0.204869,0.936587,0.015159,0.538840,0.224833,0.039906,0.545474,0.000000,0.833515,0.173238,0.026179,0.255896,0.837457,0.739663,0.021991,1.000000
12,0.000004,0.000000,0.963382,0.000000,0.576984,0.000000,0.003623,1.000000,0.000000,1.000000,0.061529,0.023088,0.094414,0.947169,1.000000,0.312193,2.000000
13,0.000000,0.000000,1.000000,0.000000,0.577629,0.000000,0.000000,1.000000,1.000000,1.000000,0.151455,0.022608,0.094414,1.000000,1.000000,0.340572,1.000000
gen, fitness
0,0.010533,0.000000,1.000000,0.210000,0.800000,0.030000,0.030000,1.000000,0.000000,1.000000,0.000000,0.000000,0.600000,1.000000,1.000000,0.000000,0.000000
1,0.010533,0.000000,1.000000,0.210000,0.800000,0.030000,0.030000,1.000000,0.000000,1.000000,0.000000,0.000000,0.600000,1.000000,1.000000,0.000000,0.000000
2,0.000598,0.000000,1.000000,0.196803,0.579812,0.000000,0.000000,0.963755,1.000000,1.000000,0.000000,0.000000,0.455035,0.899497,1.000000,0.000000,0.000000
3,0.000290,0.096804,0.996216,0.196803,0.511990,0.031152,0.102776,0.801662,0.000000,0.952663,0.019509,0.073539,0.326373,0.899497,0.986862,0.228692,1.000000
4,0.000290,0.096804,0.996216,0.196803,0.511990,0.031152,0.102776,0.801662,0.000000,0.952663,0.019509,0.073539,0.326373,0.899497,0.986862,0.228692,1.000000
5,0.000007,0.370447,0.892468,0.164589,0.515955,0.097440,0.037993,0.672439,1.000000,0.962174,0.053092,0.001942,0.426175,1.000000,0.948285,0.323312,0.000000
6,0.000007,0.370447,0.892468,0.164589,0.515955,0.097440,0.037993,0.672439,1.000000,0.962174,0.053092,0.001942,0.426175,1.000000,0.948285,0.323312,0.000000
7,0.000003,0.370447,0.976943,0.153010,0.439257,0.000000,0.102776,0.838243,2.000000,0.772792,0.134161,0.000000,0.455029,1.000000,1.000000,0.058246,0.000000
8,0.000000,0.261041,0.949458,0.000000,0.598082,0.164867,0.205433,0.938284,0.000000,0.838487,0.006907,0.043140,0.367766,0.955333,1.000000,0.257751,0.000000
gen, fitness
0,0.067934,0.000000,1.000000,0.210000,0.800000,0.030000,0.030000,1.000000,0.000000,1.000000,0.000000,0.000000,0.600000,1.000000,1.000000,0.000000,0.000000
1,0.067934,0.000000,1.000000,0.210000,0.800000,0.030000,0.030000,1.000000,0.000000,1.000000,0.000000,0.000000,0.600000,1.000000,1.000000,0.000000,0.000000
2,0.033628,0.053148,0.868587,0.210000,0.620230,0.016963,0.030000,0.922205,0.000000,1.000000,0.061977,0.000000,0.440602,1.000000,0.930904,0.066093,2.000000
3,0.029228,0.000000,1.000000,0.122358,0.546019,0.000000,0.160733,0.827503,2.000000,0.961147,0.076252,0.011433,0.426240,0.960925,1.000000,0.014346,0.000000
4,0.027212,0.000000,1.000000,0.101256,0.602891,0.080648,0.063554,0.951510,1.000000,0.889592,0.013509,0.000000,0.381225,0.909259,1.000000,0.000000,0.000000
5,0.017186,0.227547,0.940009,0.000000,0.549660,0.509140,0.303645,0.963843,1.000000,1.000000,0.004530,0.000000,0.376119,0.993724,0.929358,0.203322,0.000000
6,0.009631,0.444447,0.819357,0.000000,0.549577,0.335687,0.124761,0.649373,2.000000,0.948428,0.085163,0.000000,0.279152,0.911501,1.000000,0.049166,1.000000
7,0.005829,0.444447,0.771140,0.000000,0.470426,0.335687,0.265371,0.771793,2.000000,1.000000,0.085163,0.000000,0.291344,0.911501,1.000000,0.009241,0.000000
8,0.003796,0.542388,0.870170,0.048553,0.340124,0.206912,0.000000,0.789013,0.000000,1.000000,0.085440,0.179226,0.085050,1.000000,1.000000,0.025094,2.000000
9,0.002092,0.558163,0.695413,0.030391,0.247976,0.147806,0.000000,0.612535,0.000000,1.000000,0.084835,0.000000,0.148800,0.919413,0.954208,0.142404,2.000000
10,0.000867,0.325419,0.656358,0.000000,0.427349,0.439849,0.026586,0.417536,0.000000,0.989982,0.000000,0.000000,0.000000,0.993656,0.870637,0.000000,0.000000
11,0.000119,0.704013,0.925679,0.000000,0.241359,0.092479,0.179603,1.000000,1.000000,1.000000,0.202640,0.000000,0.103636,1.000000,0.992499,0.111179,2.000000
12,0.000009,0.615763,0.520563,0.000000,0.247976,0.329451,0.104645,0.921485,0.000000,0.925886,0.080960,0.000000,0.077679,0.958347,0.971389,0.000000,2.000000
13,0.000009,0.615763,0.520563,0.000000,0.247976,0.329451,0.104645,0.921485,0.000000,0.925886,0.080960,0.000000,0.077679,0.958347,0.971389,0.000000,2.000000
14,0.000003,0.438147,0.955092,0.058310,0.108742,0.317441,0.221145,0.855222,2.000000,0.731601,0.035900,0.000000,0.000000,0.814261,0.845138,0.043095,1.000000
15,0.000003,0.438147,0.955092,0.058310,0.108742,0.317441,0.221145,0.855222,2.000000,0.731601,0.035900,0.000000,0.000000,0.814261,0.845138,0.043095,1.000000
16,0.000003,0.438147,0.955092,0.058310,0.108742,0.317441,0.221145,0.855222,2.000000,0.731601,0.035900,0.000000,0.000000,0.814261,0.845138,0.043095,1.000000
17,0.000003,0.438147,0.955092,0.058310,0.108742,0.317441,0.221145,0.855222,2.000000,0.731601,0.035900,0.000000,0.000000,0.814261,0.845138,0.043095,1.000000
18,0.000003,0.438147,0.955092,0.058310,0.108742,0.317441,0.221145,0.855222,2.000000,0.731601,0.035900,0.000000,0.000000,0.814261,0.845138,0.043095,1.000000
19,0.000003,0.438147,0.955092,0.058310,0.108742,0.317441,0.221145,0.855222,2.000000,0.731601,0.035900,0.000000,0.000000,0.814261,0.845138,0.043095,1.000000
20,0.000003,0.438147,0.955092,0.058310,0.108742,0.317441,0.221145,0.855222,2.000000,0.731601,0.035900,0.000000,0.000000,0.814261,0.845138,0.043095,1.000000
21,0.000003,0.438147,0.955092,0.058310,0.108742,0.317441,0.221145,0.855222,2.000000,0.731601,0.035900,0.000000,0.000000,0.814261,0.845138,0.043095,1.000000
22,0.000001,0.591205,0.759681,0.017726,0.267817,0.174224,0.311841,0.985000,0.000000,0.992629,0.244469,0.000000,0.041949,0.911751,1.000000,0.239596,1.000000
gen, fitness
0,0.030614,0.000000,1.000000,0.210000,0.800000,0.030000,0.030000,1.000000,0.000000,1.000000,0.000000,0.000000,0.600000,1.000000,1.000000,0.000000,0.000000
1,0.030614,0.000000,1.000000,0.210000,0.800000,0.030000,0.030000,1.000000,0.000000,1.000000,0.000000,0.000000,0.600000,1.000000,1.000000,0.000000,0.000000
2,0.012007,0.000000,1.000000,0.144877,0.634373,0.000000,0.088806,1.000000,1.000000,1.000000,0.000000,0.033180,0.496151,1.000000,1.000000,0.181553,0.000000
3,0.008306,0.000000,0.904664,0.114209,0.616567,0.095559,0.189505,0.845505,1.000000,0.901030,0.000000,0.055094,0.399970,0.707838,1.000000,0.148901,1.000000
4,0.006730,0.128080,0.922108,0.174906,0.549431,0.002282,0.088364,0.857778,1.000000,1.000000,0.083821,0.000000,0.463758,1.000000,0.931155,0.000000,1.000000
5,0.003957,0.000975,0.485678,0.134711,0.555849,0.093670,0.000000,0.929437,0.000000,1.000000,0.324278,0.036894,0.182142,0.822108,0.743493,0.000000,1.000000
6,0.000479,0.279604,0.797896,0.038563,0.484434,0.000000,0.333656,0.909956,0.000000,1.000000,0.147443,0.000000,0.166283,1.000000,1.000000,0.300402,2.000000
7,0.000178,0.305863,0.614868,0.000000,0.405883,0.175923,0.272707,0.979708,2.000000,1.000000,0.013274,0.000000,0.046536,1.000000,1.000000,0.357881,0.000000
8,0.000122,0.209495,1.000000,0.000000,0.449998,0.485555,0.305377,1.000000,0.000000,0.927060,0.205107,0.000000,0.154753,0.772412,1.000000,0.000000,2.000000
9,0.000021,0.152810,0.927271,0.000000,0.405171,0.519133,0.305377,1.000000,0.000000,0.923970,0.176625,0.004457,0.000000,0.987794,1.000000,0.413092,2.000000
10,0.000014,0.000000,0.508495,0.044870,0.383572,0.060590,0.000000,1.000000,0.000000,0.922409,0.338355,0.000000,0.000000,1.000000,0.888858,0.019571,0.000000
11,0.000014,0.000000,0.508495,0.044870,0.383572,0.060590,0.000000,1.000000,0.000000,0.922409,0.338355,0.000000,0.000000,1.000000,0.888858,0.019571,0.000000
12,0.000003,0.152810,0.955014,0.000000,0.405171,0.410590,0.301443,1.000000,1.000000,0.923970,0.000000,0.017442,0.000000,0.931463,0.758059,0.413092,1.000000
13,0.000001,0.268486,0.734591,0.000000,0.450169,0.000000,0.261677,0.766638,1.000000,1.000000,0.436463,0.016739,0.096499,1.000000,0.775379,0.144716,2.000000
14,0.000001,0.268486,0.734591,0.000000,0.450169,0.000000,0.261677,0.766638,1.000000,1.000000,0.436463,0.016739,0.096499,1.000000,0.775379,0.144716,2.000000
15,0.000001,0.268486,0.734591,0.000000,0.450169,0.000000,0.261677,0.766638,1.000000,1.000000,0.436463,0.016739,0.096499,1.000000,0.775379,0.144716,2.000000
16,0.000001,0.268486,0.734591,0.000000,0.450169,0.000000,0.261677,0.766638,1.000000,1.000000,0.436463,0.016739,0.096499,1.000000,0.775379,0.144716,2.000000
17,0.000001,0.268486,0.734591,0.000000,0.450169,0.000000,0.261677,0.766638,1.000000,1.000000,0.436463,0.016739,0.096499,1.000000,0.775379,0.144716,2.000000
18,0.000001,0.268402,0.727389,0.026000,0.447369,0.000000,0.012175,0.635775,0.000000,1.000000,0.616361,0.088002,0.000000,0.838839,0.612367,0.358426,1.000000
gen, fitness
0,0.009712,0.000000,1.000000,0.210000,0.800000,0.030000,0.030000,1.000000,0.000000,1.000000,0.000000,0.000000,0.600000,1.000000,1.000000,0.000000,0.000000
1,0.009712,0.000000,1.000000,0.210000,0.800000,0.030000,0.030000,1.000000,0.000000,1.000000,0.000000,0.000000,0.600000,1.000000,1.000000,0.000000,0.000000
2,0.000032,0.058078,1.000000,0.217393,0.599453,0.030000,0.030000,1.000000,2.000000,1.000000,0.000000,0.039398,0.504637,1.000000,0.965265,0.000000,2.000000
3,0.000006,0.112184,0.838495,0.052002,0.702847,0.030000,0.021949,0.936756,0.000000,1.000000,0.173494,0.000000,0.528455,0.905791,1.000000,0.172567,1.000000
4,0.000006,0.112184,0.838495,0.052002,0.702847,0.030000,0.021949,0.936756,0.000000,1.000000,0.173494,0.000000,0.528455,0.905791,1.000000,0.172567,1.000000
5,0.000006,0.112184,0.838495,0.052002,0.702847,0.030000,0.021949,0.936756,0.000000,1.000000,0.173494,0.000000,0.528455,0.905791,1.000000,0.172567,1.000000
6,0.000006,0.112184,0.838495,0.052002,0.702847,0.030000,0.021949,0.936756,0.000000,1.000000,0.173494,0.000000,0.528455,0.905791,1.000000,0.172567,1.000000
7,0.000006,0.112184,0.838495,0.052002,0.702847,0.030000,0.021949,0.936756,0.000000,1.000000,0.173494,0.000000,0.528455,0.905791,1.000000,0.172567,1.000000
8,0.000006,0.112184,0.838495,0.052002,0.702847,0.030000,0.021949,0.936756,0.000000,1.000000,0.173494,0.000000,0.528455,0.905791,1.000000,0.172567,1.000000
9,0.000006,0.112184,0.838495,0.052002,0.702847,0.030000,0.021949,0.936756,0.000000,1.000000,0.173494,0.000000,0.528455,0.905791,1.000000,0.172567,1.000000
10,0.000006,0.112184,0.838495,0.052002,0.702847,0.030000,0.021949,0.936756,0.000000,1.000000,0.173494,0.000000,0.528455,0.905791,1.000000,0.172567,1.000000
11,0.000006,0.112184,0.838495,0.052002,0.702847,0.030000,0.021949,0.936756,0.000000,1.000000,0.173494,0.000000,0.528455,0.905791,1.000000,0.172567,1.000000
12,0.000006,0.112184,0.838495,0.052002,0.702847,0.030000,0.021949,0.936756,0.000000,1.000000,0.173494,0.000000,0.528455,0.905791,1.000000,0.172567,1.000000
13,0.000006,0.112184,0.838495,0.052002,0.702847,0.030000,0.021949,0.936756,0.000000,1.000000,0.173494,0.000000,0.528455,0.905791,1.000000,0.172567,1.000000
gen, fitness
0,0.026348,0.000000,1.000000,0.210000,0.800000,0.030000,0.030000,1.000000,0.000000,1.000000,0.000000,0.000000,0.600000,1.000000,1.000000,0.000000,0.000000
1,0.026348,0.000000,1.000000,0.210000,0.800000,0.030000,0.030000,1.000000,0.000000,1.000000,0.000000,0.000000,0.600000,1.000000,1.000000,0.000000,0.000000
2,0.011747,0.000000,1.000000,0.210000,0.605091,0.000000,0.000000,1.000000,2.000000,0.890109,0.024086,0.000000,0.582683,0.978840,1.000000,0.043277,0.000000
3,0.003283,0.000000,1.000000,0.228681,0.460407,0.000000,0.262324,1.000000,0.000000,1.000000,0.026049,0.000000,0.382473,0.898088,1.000000,0.035655,0.000000
4,0.001891,0.228864,1.000000,0.177467,0.526905,0.000000,0.000000,0.798922,2.000000,1.000000,0.433853,0.010861,0.358238,0.898651,1.000000,0.027650,1.000000
5,0.001793,0.182526,0.942876,0.141849,0.487673,0.000000,0.000000,0.798922,1.000000,0.752547,0.422024,0.010861,0.352679,1.000000,1.000000,0.000000,2.000000
6,0.000980,0.079441,1.000000,0.083904,0.413803,0.050786,0.000000,0.600547,2.000000,0.695654,0.346406,0.010861,0.293066,0.985213,1.000000,0.027611,1.000000
7,0.000619,0.277286,0.916362,0.049970,0.526905,0.000000,0.000000,0.603937,0.000000,0.933965,0.294272,0.110723,0.262827,0.549389,0.890274,0.000000,2.000000
8,0.000038,0.287143,0.928903,0.258052,0.303574,0.000000,0.000000,0.729660,2.000000,0.967131,0.477309,0.000000,0.266606,0.924931,1.000000,0.000000,1.000000
9,0.000038,0.287143,0.928903,0.258052,0.303574,0.000000,0.000000,0.729660,2.000000,0.967131,0.477309,0.000000,0.266606,0.924931,1.000000,0.000000,1.000000
10,0.000016,0.055477,0.922919,0.064780,0.440177,0.153118,0.041303,0.908215,0.000000,0.840272,0.395686,0.118280,0.014444,0.985213,1.000000,0.193133,0.000000
11,0.000014,0.055477,0.983266,0.000000,0.471196,0.000000,0.041303,0.891973,2.000000,0.840272,0.575092,0.118280,0.000000,0.878924,1.000000,0.170981,1.000000
12,0.000014,0.055477,0.983266,0.000000,0.471196,0.000000,0.041303,0.891973,2.000000,0.840272,0.575092,0.118280,0.000000,0.878924,1.000000,0.170981,1.000000
13,0.000012,0.356757,0.975261,0.258604,0.165012,0.018031,0.157963,0.541777,2.000000,0.672297,0.155530,0.000000,0.314717,1.000000,0.816998,0.000000,0.000000
14,0.000012,0.356757,0.975261,0.258604,0.165012,0.018031,0.157963,0.541777,2.000000,0.672297,0.155530,0.000000,0.314717,1.000000,0.816998,0.000000,0.000000
15,0.000006,0.262851,1.000000,0.100573,0.332528,0.000000,0.000000,0.717291,2.000000,0.724797,0.256243,0.000000,0.253230,1.000000,0.757294,0.080644,0.000000
16,0.000002,0.289086,0.822091,0.295304,0.195297,0.415219,0.003650,1.000000,0.000000,0.920696,0.556392,0.038657,0.194325,0.924480,0.963942,0.085646,0.000000
17,0.000002,0.289086,0.822091,0.295304,0.195297,0.415219,0.003650,1.000000,0.000000,0.920696,0.556392,0.038657,0.194325,0.924480,0.963942,0.085646,0.000000
18,0.000002,0.289086,0.822091,0.295304,0.195297,0.415219,0.003650,1.000000,0.000000,0.920696,0.556392,0.038657,0.194325,0.924480,0.963942,0.085646,0.000000
19,0.000002,0.289086,0.822091,0.295304,0.195297,0.415219,0.003650,1.000000,0.000000,0.920696,0.556392,0.038657,0.194325,0.924480,0.963942,0.085646,0.000000
20,0.000002,0.289086,0.822091,0.295304,0.195297,0.415219,0.003650,1.000000,0.000000,0.920696,0.556392,0.038657,0.194325,0.924480,0.963942,0.085646,0.000000
gen, fitness
0,0.052335,0.000000,1.000000,0.210000,0.800000,0.030000,0.030000,1.000000,0.000000,1.000000,0.000000,0.000000,0.600000,1.000000,1.000000,0.000000,0.000000
1,0.052335,0.000000,1.000000,0.210000,0.800000,0.030000,0.030000,1.000000,0.000000,1.000000,0.000000,0.000000,0.600000,1.000000,1.000000,0.000000,0.000000
2,0.021419,0.020104,1.000000,0.201962,0.619329,0.030000,0.010725,1.000000,0.000000,1.000000,0.000000,0.000000,0.498685,1.000000,1.000000,0.000000,1.000000
3,0.012956,0.104036,1.000000,0.011750,0.556579,0.024471,0.000000,1.000000,1.000000,0.848331,0.000000,0.000000,0.429128,1.000000,0.887033,0.033525,2.000000
4,0.008242,0.064624,0.998731,0.078282,0.444641,0.000000,0.277792,1.000000,2.000000,1.000000,0.000000,0.023888,0.267111,0.989442,0.851105,0.088990,1.000000
5,0.003075,0.202377,0.949243,0.000000,0.405399,0.071378,0.013690,0.849770,1.000000,0.823241,0.130904,0.073188,0.154702,1.000000,1.000000,0.147893,0.000000
6,0.003075,0.202377,0.949243,0.000000,0.405399,0.071378,0.013690,0.849770,1.000000,0.823241,0.130904,0.073188,0.154702,1.000000,1.000000,0.147893,0.000000
7,0.001308,0.000000,0.964960,0.140492,0.292714,0.256282,0.171804,0.950293,0.000000,0.901831,0.000000,0.000000,0.058316,0.812476,0.868567,0.088990,0.000000
8,0.000073,0.253876,0.888313,0.089960,0.286543,0.150104,0.000000,0.970234,0.000000,1.000000,0.000000,0.034201,0.000000,0.930240,0.977487,0.209928,0.000000
9,0.000073,0.253876,0.888313,0.089960,0.286543,0.150104,0.000000,0.970234,0.000000,1.000000,0.000000,0.034201,0.000000,0.930240,0.977487,0.209928,0.000000
10,0.000005,0.343888,0.897080,0.000000,0.314683,0.000000,0.000000,0.970233,2.000000,0.907759,0.000000,0.000000,0.024523,0.838659,0.544887,0.291851,2.000000
11,0.000005,0.343888,0.897080,0.000000,0.314683,0.000000,0.000000,0.970233,2.000000,0.907759,0.000000,0.000000,0.024523,0.838659,0.544887,0.291851,2.000000
12,0.000005,0.343888,0.897080,0.000000,0.314683,0.000000,0.000000,0.970233,2.000000,0.907759,0.000000,0.000000,0.024523,0.838659,0.544887,0.291851,2.000000
13,0.000003,0.550914,0.804383,0.089727,0.146132,0.321327,0.000000,0.816569,2.000000,0.766739,0.018002,0.000000,0.178652,0.817826,0.874803,0.000000,0.000000
14,0.000003,0.550914,0.804383,0.089727,0.146132,0.321327,0.000000,0.816569,2.000000,0.766739,0.018002,0.000000,0.178652,0.817826,0.874803,0.000000,0.000000
15,0.000003,0.550914,0.804383,0.089727,0.146132,0.321327,0.000000,0.816569,2.000000,0.766739,0.018002,0.000000,0.178652,0.817826,0.874803,0.000000,0.000000
16,0.000003,0.550914,0.804383,0.089727,0.146132,0.321327,0.000000,0.816569,2.000000,0.766739,0.018002,0.000000,0.178652,0.817826,0.874803,0.000000,0.000000
17,0.000003,0.550914,0.804383,0.089727,0.146132,0.321327,0.000000,0.816569,2.000000,0.766739,0.018002,0.000000,0.178652,0.817826,0.874803,0.000000,0.000000
18,0.000003,0.550914,0.804383,0.089727,0.146132,0.321327,0.000000,0.816569,2.000000,0.766739,0.018002,0.000000,0.178652,0.817826,0.874803,0.000000,0.000000
19,0.000003,0.550914,0.804383,0.089727,0.146132,0.321327,0.000000,0.816569,2.000000,0.766739,0.018002,0.000000,0.178652,0.817826,0.874803,0.000000,0.000000
20,0.000003,0.550914,0.804383,0.089727,0.146132,0.321327,0.000000,0.816569,2.000000,0.766739,0.018002,0.000000,0.178652,0.817826,0.874803,0.000000,0.000000
gen, fitness
0,0.080636,0.000000,1.000000,0.210000,0.800000,0.030000,0.030000,1.000000,0.000000,1.000000,0.000000,0.000000,0.600000,1.000000,1.000000,0.000000,0.000000
1,0.080636,0.000000,1.000000,0.210000,0.800000,0.030000,0.030000,1.000000,0.000000,1.000000,0.000000,0.000000,0.600000,1.000000,1.000000,0.000000,0.000000
2,0.036736,0.000000,1.000000,0.000000,0.610475,0.030000,0.072860,0.827859,1.000000,1.000000,0.000000,0.000000,0.506787,0.954534,0.956373,0.000000,0.000000
3,0.032914,0.000000,0.996305,0.000000,0.654221,0.030000,0.072860,0.868434,1.000000,0.985855,0.000000,0.219345,0.273734,0.796084,1.000000,0.000000,2.000000
4,0.025201,0.259527,0.973741,0.051384,0.541564,0.000000,0.414118,0.876864,1.000000,0.936996,0.000000,0.000000,0.456564,0.769638,0.953304,0.000000,2.000000
5,0.022602,0.343913,0.917931,0.078043,0.563217,0.000000,0.098635,0.827859,1.000000,1.000000,0.000000,0.000000,0.366015,0.954534,0.999786,0.000000,1.000000
6,0.009715,0.246516,0.976993,0.000000,0.445256,0.084776,0.000000,0.614934,2.000000,0.873197,0.000000,0.030457,0.199187,0.970988,0.818256,0.057260,2.000000
7,0.008921,0.040800,0.873074,0.075997,0.284821,0.000000,0.000000,0.899597,0.000000,0.740152,0.224967,0.090393,0.002011,0.719896,0.859817,0.313128,1.000000
8,0.001273,0.325724,0.959389,0.000000,0.285047,0.166791,0.224479,1.000000,1.000000,1.000000,0.231709,0.000000,0.048328,0.866858,0.837679,0.000000,1.000000
9,0.001273,0.325724,0.959389,0.000000,0.285047,0.166791,0.224479,1.000000,1.000000,1.000000,0.231709,0.000000,0.048328,0.866858,0.837679,0.000000,1.000000
10,0.000700,0.343038,0.941510,0.000000,0.277216,0.000000,0.292964,1.000000,0.000000,1.000000,0.162608,0.000000,0.000000,0.820525,0.769466,0.116464,0.000000
11,0.000378,0.505550,0.916440,0.002713,0.000000,0.000000,0.000000,0.895948,2.000000,0.723517,0.113848,0.011817,0.000000,0.708736,0.992343,0.000000,2.000000
12,0.000085,0.509574,0.879717,0.000000,0.000000,0.189625,0.032380,0.880691,0.000000,0.600972,0.102784,0.000000,0.000000,0.941904,0.383784,0.072876,2.000000
13,0.000085,0.509574,0.879717,0.000000,0.000000,0.189625,0.032380,0.880691,0.000000,0.600972,0.102784,0.000000,0.000000,0.941904,0.383784,0.072876,2.000000
14,0.000049,0.592433,1.000000,0.040622,0.031491,0.325728,0.040968,0.734319,1.000000,0.775418,0.000000,0.025034,0.000000,1.000000,0.235079,0.152344,0.000000
15,0.000049,0.592433,1.000000,0.040622,0.031491,0.325728,0.040968,0.734319,1.000000,0.775418,0.000000,0.025034,0.000000,1.000000,0.235079,0.152344,0.000000
16,0.000045,0.493511,0.818089,0.040622,0.049190,0.124844,0.040968,0.823920,2.000000,0.775418,0.000000,0.025034,0.000000,1.000000,1.000000,0.079821,0.000000
17,0.000004,0.504610,0.981031,0.072945,0.000000,0.000000,0.534464,0.780326,0.000000,0.743691,0.000000,0.025034,0.000000,0.797792,1.000000,0.034598,0.000000
18,0.000004,0.504610,0.981031,0.072945,0.000000,0.000000,0.534464,0.780326,0.000000,0.743691,0.000000,0.025034,0.000000,0.797792,1.000000,0.034598,0.000000
19,0.000004,0.504610,0.981031,0.072945,0.000000,0.000000,0.534464,0.780326,0.000000,0.743691,0.000000,0.025034,0.000000,0.797792,1.000000,0.034598,0.000000
20,0.000004,0.504610,0.981031,0.072945,0.000000,0.000000,0.534464,0.780326,0.000000,0.743691,0.000000,0.025034,0.000000,0.797792,1.000000,0.034598,0.000000
21,0.000004,0.504610,0.981031,0.072945,0.000000,0.000000,0.534464,0.780326,0.000000,0.743691,0.000000,0.025034,0.000000,0.797792,1.000000,0.034598,0.000000
22,0.000004,0.504610,0.981031,0.072945,0.000000,0.000000,0.534464,0.780326,0.000000,0.743691,0.000000,0.025034,0.000000,0.797792,1.000000,0.034598,0.000000
23,0.000004,0.504610,0.981031,0.072945,0.000000,0.000000,0.534464,0.780326,0.000000,0.743691,0.000000,0.025034,0.000000,0.797792,1.000000,0.034598,0.000000
24,0.000001,0.506674,0.927527,0.058928,0.000000,0.043670,0.073297,0.886858,0.000000,0.699414,0.266459,0.000000,0.000000,0.822788,0.961996,0.263953,1.000000
25,0.000001,0.506674,0.927527,0.058928,0.000000,0.043670,0.073297,0.886858,0.000000,0.699414,0.266459,0.000000,0.000000,0.822788,0.961996,0.263953,1.000000
26,0.000001,0.506674,0.927527,0.058928,0.000000,0.043670,0.073297,0.886858,0.000000,0.699414,0.266459,0.000000,0.000000,0.822788,0.961996,0.263953,1.000000
27,0.000001,0.506674,0.927527,0.058928,0.000000,0.043670,0.073297,0.886858,0.000000,0.699414,0.266459,0.000000,0.000000,0.822788,0.961996,0.263953,1.000000
gen, fitness
0,0.025383,0.000000,1.000000,0.210000,0.800000,0.030000,0.030000,1.000000,0.000000,1.000000,0.000000,0.000000,0.600000,1.000000,1.000000,0.000000,0.000000
1,0.025383,0.000000,1.000000,0.210000,0.800000,0.030000,0.030000,1.000000,0.000000,1.000000,0.000000,0.000000,0.600000,1.000000,1.000000,0.000000,0.000000
2,0.009845,0.000000,0.921687,0.070105,0.738995,0.000000,0.030000,1.000000,1.000000,1.000000,0.061057,0.039835,0.497885,1.000000,1.000000,0.000000,0.000000
3,0.005929,0.094696,1.000000,0.039612,0.665907,0.253393,0.000000,1.000000,2.000000,1.000000,0.296036,0.133186,0.365043,0.946999,0.915872,0.000000,2.000000
4,0.003432,0.119350,0.857114,0.006053,0.621233,0.017822,0.016452,1.000000,1.000000,1.000000,0.111891,0.000000,0.418595,1.000000,0.999365,0.038966,1.000000
5,0.001507,0.223493,1.000000,0.014851,0.548265,0.000000,0.000000,0.934454,0.000000,0.897893,0.061057,0.000000,0.260199,1.000000,0.918357,0.000000,2.000000
6,0.000403,0.227022,1.000000,0.000000,0.523306,0.062334,0.000000,0.802929,0.000000,0.890175,0.000000,0.000000,0.260199,0.938394,0.932184,0.000000,1.000000
7,0.000403,0.227022,1.000000,0.000000,0.523306,0.062334,0.000000,0.802929,0.000000,0.890175,0.000000,0.000000,0.260199,0.938394,0.932184,0.000000,1.000000
8,0.000222,0.286424,0.903887,0.000000,0.390558,0.053984,0.127243,0.719619,1.000000,0.856645,0.553165,0.000000,0.177389,0.788029,0.956341,0.019811,1.000000
9,0.000222,0.286424,0.903887,0.000000,0.390558,0.053984,0.127243,0.719619,1.000000,0.856645,0.553165,0.000000,0.177389,0.788029,0.956341,0.019811,1.000000
10,0.000018,0.217254,1.000000,0.000000,0.437781,0.176206,0.000000,0.768616,0.000000,0.829788,0.000000,0.111362,0.087747,0.786912,0.636990,0.000000,1.000000
11,0.000018,0.217254,1.000000,0.000000,0.437781,0.176206,0.000000,0.768616,0.000000,0.829788,0.000000,0.111362,0.087747,0.786912,0.636990,0.000000,1.000000
12,0.000018,0.217254,1.000000,0.000000,0.437781,0.176206,0.000000,0.768616,0.000000,0.829788,0.000000,0.111362,0.087747,0.786912,0.636990,0.000000,1.000000
13,0.000009,0.565668,1.000000,0.052760,0.334018,0.127621,0.215997,0.778310,2.000000,0.762544,0.313526,0.148779,0.180296,1.000000,0.817364,0.000000,1.000000
14,0.000009,0.565668,1.000000,0.052760,0.334018,0.127621,0.215997,0.778310,2.000000,0.762544,0.313526,0.148779,0.180296,1.000000,0.817364,0.000000,1.000000
15,0.000006,0.451570,1.000000,0.120585,0.292893,0.214827,0.000000,0.650423,1.000000,0.829788,0.000000,0.088745,0.190098,0.782080,0.732942,0.000000,2.000000
16,0.000006,0.451570,1.000000,0.120585,0.292893,0.214827,0.000000,0.650423,1.000000,0.829788,0.000000,0.088745,0.190098,0.782080,0.732942,0.000000,2.000000
17,0.000001,0.373165,0.944879,0.000000,0.512005,0.316460,0.420678,0.505527,0.000000,1.000000,0.683417,0.000000,0.240246,0.913375,0.709302,0.102206,2.000000
