gen, fitness
0,0.013430,0.000000,1.000000,0.210000,0.800000,0.030000,0.030000,1.000000,0.000000,1.000000,0.000000,0.000000,0.600000,1.000000,1.000000,0.000000,0.000000
1,0.013430,0.000000,1.000000,0.210000,0.800000,0.030000,0.030000,1.000000,0.000000,1.000000,0.000000,0.000000,0.600000,1.000000,1.000000,0.000000,0.000000
2,0.000049,0.054717,1.000000,0.000000,0.756944,0.030000,0.000000,1.000000,0.000000,1.000000,0.000000,0.000000,0.600000,1.000000,1.000000,0.000000,2.000000
3,0.000049,0.054717,1.000000,0.000000,0.756944,0.030000,0.000000,1.000000,0.000000,1.000000,0.000000,0.000000,0.600000,1.000000,1.000000,0.000000,2.000000
4,0.000015,0.054717,1.000000,0.011327,0.756944,0.030000,0.000000,1.000000,0.000000,1.000000,0.133075,0.000000,0.600000,1.000000,1.000000,0.049900,2.000000
5,0.000009,0.009426,1.000000,0.000000,0.735491,0.083136,0.090638,1.000000,2.000000,0.913179,0.000000,0.000000,0.585802,1.000000,1.000000,0.000000,0.000000
6,0.000009,0.009426,1.000000,0.000000,0.735491,0.083136,0.090638,1.000000,2.000000,0.913179,0.000000,0.000000,0.585802,1.000000,1.000000,0.000000,0.000000
7,0.000009,0.009426,1.000000,0.000000,0.735491,0.083136,0.090638,1.000000,2.000000,0.913179,0.000000,0.000000,0.585802,1.000000,1.000000,0.000000,0.000000
8,0.000009,0.009426,1.000000,0.000000,0.735491,0.083136,0.090638,1.000000,2.000000,0.913179,0.000000,0.000000,0.585802,1.000000,1.000000,0.000000,0.000000
9,0.000002,0.000000,1.000000,0.047169,0.748401,0.109924,0.025259,0.996045,1.000000,1.000000,0.151527,0.000000,0.600000,1.000000,1.000000,0.035527,0.000000
10,0.000002,0.000000,1.000000,0.047169,0.748401,0.109924,0.025259,0.996045,1.000000,1.000000,0.151527,0.000000,0.600000,1.000000,1.000000,0.035527,0.000000
11,0.000001,0.000000,1.000000,0.047169,0.748401,0.012626,0.025259,0.996045,1.000000,1.000000,0.227793,0.000000,0.600000,1.000000,0.967748,0.006919,0.000000
gen, fitness
0,0.034276,0.000000,1.000000,0.210000,0.800000,0.030000,0.030000,1.000000,0.000000,1.000000,0.000000,0.000000,0.600000,1.000000,1.000000,0.000000,0.000000
1,0.034276,0.000000,1.000000,0.210000,0.800000,0.030000,0.030000,1.000000,0.000000,1.000000,0.000000,0.000000,0.600000,1.000000,1.000000,0.000000,0.000000
2,0.017099,0.015893,0.872391,0.169322,0.952119,0.030000,0.072086,1.000000,0.000000,1.000000,0.000000,0.000000,0.822631,1.000000,1.000000,0.033281,2.000000
3,0.011240,0.008055,1.000000,0.169322,0.905169,0.030000,0.000000,1.000000,2.000000,1.000000,0.148348,0.000000,0.822631,1.000000,1.000000,0.033281,2.000000
4,0.006010,0.009187,0.872391,0.169322,0.952119,0.000000,0.072086,0.992189,2.000000,1.000000,0.000000,0.138309,0.914706,1.000000,1.000000,0.033281,1.000000
5,0.006010,0.009187,0.872391,0.169322,0.952119,0.000000,0.072086,0.992189,2.000000,1.000000,0.000000,0.138309,0.914706,1.000000,1.000000,0.033281,1.000000
6,0.003681,0.123192,0.707383,0.169322,1.000000,0.134977,0.072086,0.959367,2.000000,1.000000,0.000000,0.191947,0.965991,1.000000,0.968194,0.000000,1.000000
7,0.003375,0.184833,0.854143,0.084413,1.000000,0.000000,0.229148,1.000000,2.000000,0.966708,0.000000,0.313272,0.965991,1.000000,0.983445,0.000000,1.000000
8,0.003375,0.184833,0.854143,0.084413,1.000000,0.000000,0.229148,1.000000,2.000000,0.966708,0.000000,0.313272,0.965991,1.000000,0.983445,0.000000,1.000000
9,0.002707,0.064001,0.804960,0.231491,1.000000,0.140657,0.072086,0.800536,2.000000,0.966708,0.000000,0.393918,0.959760,1.000000,1.000000,0.000000,1.000000
10,0.002416,0.000000,0.707383,0.223904,1.000000,0.134977,0.037629,0.917252,2.000000,1.000000,0.000000,0.313272,0.965991,1.000000,0.983445,0.000000,2.000000
11,0.002080,0.000000,0.707383,0.183681,1.000000,0.132339,0.099620,0.923950,1.000000,0.882136,0.016492,0.550832,0.921258,1.000000,0.983445,0.016222,2.000000
12,0.002080,0.000000,0.707383,0.183681,1.000000,0.132339,0.099620,0.923950,1.000000,0.882136,0.016492,0.550832,0.921258,1.000000,0.983445,0.016222,2.000000
13,0.001730,0.000000,0.707383,0.277128,1.000000,0.132339,0.099620,0.923950,2.000000,0.989167,0.070378,0.666867,0.914706,1.000000,1.000000,0.000000,2.000000
14,0.001629,0.070399,0.807984,0.280722,1.000000,0.068126,0.072086,0.716540,2.000000,0.893528,0.000000,0.577384,0.959743,1.000000,1.000000,0.162329,2.000000
15,0.001367,0.000000,0.786844,0.519970,1.000000,0.000000,0.099620,0.933790,2.000000,0.934245,0.028325,0.664165,0.959743,0.926490,0.671972,0.000000,2.000000
16,0.001279,0.000000,0.786844,0.519970,1.000000,0.000000,0.116958,0.933790,2.000000,1.000000,0.010578,0.688905,0.959743,0.926490,0.647158,0.085276,2.000000
17,0.001279,0.000000,0.786844,0.519970,1.000000,0.000000,0.116958,0.933790,2.000000,1.000000,0.010578,0.688905,0.959743,0.926490,0.647158,0.085276,2.000000
18,0.001111,0.000000,0.866380,0.421176,1.000000,0.050562,0.247164,0.933790,2.000000,0.804666,0.216491,0.739151,0.959743,0.926490,1.000000,0.162329,2.000000
19,0.001015,0.000000,0.684920,0.430724,1.000000,0.000000,0.099598,0.933790,2.000000,0.934245,0.051816,0.772624,0.959743,0.843186,1.000000,0.488983,2.000000
20,0.000939,0.017807,0.866380,0.439115,1.000000,0.050562,0.247164,0.933790,2.000000,0.848222,0.216491,0.731933,0.959743,1.000000,1.000000,0.575906,2.000000
21,0.000829,0.000000,0.641985,0.714305,1.000000,0.011112,0.069877,1.000000,2.000000,1.000000,0.014068,0.832010,0.976296,1.000000,1.000000,0.285794,2.000000
22,0.000829,0.000000,0.641985,0.714305,1.000000,0.011112,0.069877,1.000000,2.000000,1.000000,0.014068,0.832010,0.976296,1.000000,1.000000,0.285794,2.000000
23,0.000742,0.000000,0.703709,0.476055,1.000000,0.000000,0.290293,0.933790,2.000000,0.848222,0.186374,0.848166,0.959743,1.000000,1.000000,0.754014,2.000000
24,0.000742,0.000000,0.703709,0.476055,1.000000,0.000000,0.290293,0.933790,2.000000,0.848222,0.186374,0.848166,0.959743,1.000000,1.000000,0.754014,2.000000
25,0.000719,0.000000,0.829215,0.537729,1.000000,0.000000,0.099598,0.950695,2.000000,0.878594,0.549351,0.855975,0.959743,1.000000,1.000000,0.754014,2.000000
26,0.000697,0.000000,0.831191,0.601701,1.000000,0.000000,0.164049,0.950695,2.000000,0.934245,0.303767,1.000000,0.959743,0.811664,0.876058,0.479002,2.000000
27,0.000697,0.000000,0.831191,0.601701,1.000000,0.000000,0.164049,0.950695,2.000000,0.934245,0.303767,1.000000,0.959743,0.811664,0.876058,0.479002,2.000000
28,0.000602,0.000000,0.831191,0.601701,1.000000,0.000000,0.382292,0.941299,2.000000,1.000000,0.620233,0.952916,0.959743,0.949569,1.000000,0.891770,2.000000
29,0.000602,0.000000,0.831191,0.601701,1.000000,0.000000,0.382292,0.941299,2.000000,1.000000,0.620233,0.952916,0.959743,0.949569,1.000000,0.891770,2.000000
30,0.000602,0.000000,0.831191,0.601701,1.000000,0.000000,0.382292,0.941299,2.000000,1.000000,0.620233,0.952916,0.959743,0.949569,1.000000,0.891770,2.000000
31,0.000596,0.000000,0.831191,0.601701,1.000000,0.000000,0.382292,0.941299,2.000000,1.000000,0.615273,0.952916,0.959743,0.949569,1.000000,0.912461,2.000000
32,0.000532,0.000000,0.869572,0.582371,1.000000,0.000000,0.244092,0.949080,2.000000,0.953988,0.153118,1.000000,0.959743,0.975860,1.000000,1.000000,2.000000
33,0.000530,0.000000,0.869572,0.582371,1.000000,0.000000,0.244092,0.949080,2.000000,0.953988,0.153118,1.000000,0.959743,1.000000,1.000000,1.000000,2.000000
34,0.000530,0.000000,0.869572,0.582371,1.000000,0.000000,0.244092,0.949080,2.000000,0.953988,0.153118,1.000000,0.959743,1.000000,1.000000,1.000000,2.000000
35,0.000530,0.000000,0.869572,0.582371,1.000000,0.000000,0.244092,0.949080,2.000000,0.953988,0.153118,1.000000,0.959743,1.000000,1.000000,1.000000,2.000000
36,0.000515,0.030788,0.871056,0.591511,1.000000,0.000000,0.000000,0.949080,2.000000,0.953988,0.231711,1.000000,0.959743,0.975860,1.000000,1.000000,2.000000
37,0.000515,0.030788,0.871056,0.591511,1.000000,0.000000,0.000000,0.949080,2.000000,0.953988,0.231711,1.000000,0.959743,0.975860,1.000000,1.000000,2.000000
38,0.000474,0.011225,1.000000,0.738781,1.000000,0.000000,0.279398,1.000000,2.000000,1.000000,0.289506,1.000000,0.976288,0.994349,0.996166,1.000000,2.000000
39,0.000474,0.011225,1.000000,0.738781,1.000000,0.000000,0.279398,1.000000,2.000000,1.000000,0.289506,1.000000,0.976288,0.994349,0.996166,1.000000,2.000000
40,0.000474,0.011225,1.000000,0.738781,1.000000,0.000000,0.279398,1.000000,2.000000,1.000000,0.289506,1.000000,0.976288,0.994349,0.996166,1.000000,2.000000
41,0.000474,0.011225,1.000000,0.738781,1.000000,0.000000,0.279398,1.000000,2.000000,1.000000,0.289506,1.000000,0.976288,0.994349,0.996166,1.000000,2.000000
42,0.000474,0.011225,1.000000,0.738781,1.000000,0.000000,0.279398,1.000000,2.000000,1.000000,0.289506,1.000000,0.976288,0.994349,0.996166,1.000000,2.000000
43,0.000467,0.030788,0.831935,0.734061,1.000000,0.120684,0.000000,1.000000,2.000000,0.957109,0.233703,1.000000,0.981951,1.000000,0.958129,1.000000,2.000000
44,0.000467,0.030788,0.831935,0.734061,1.000000,0.120684,0.000000,1.000000,2.000000,0.957109,0.233703,1.000000,0.981951,1.000000,0.958129,1.000000,2.000000
45,0.000456,0.000000,0.831935,0.779180,1.000000,0.000000,0.000000,1.000000,2.000000,0.957109,0.233703,1.000000,0.981951,1.000000,1.000000,1.000000,2.000000
46,0.000442,0.000000,1.000000,0.734061,1.000000,0.060067,0.000000,1.000000,2.000000,0.931870,0.233703,1.000000,0.981951,1.000000,0.958129,1.000000,2.000000
47,0.000442,0.000000,1.000000,0.734061,1.000000,0.060067,0.000000,1.000000,2.000000,0.931870,0.233703,1.000000,0.981951,1.000000,0.958129,1.000000,2.000000
48,0.000442,0.000000,1.000000,0.734061,1.000000,0.060067,0.000000,1.000000,2.000000,0.931870,0.233703,1.000000,0.981951,1.000000,0.958129,1.000000,2.000000
49,0.000442,0.000000,1.000000,0.734061,1.000000,0.060067,0.000000,1.000000,2.000000,0.931870,0.233703,1.000000,0.981951,1.000000,0.958129,1.000000,2.000000
50,0.000442,0.000000,1.000000,0.734061,1.000000,0.060067,0.000000,1.000000,2.000000,0.931870,0.233703,1.000000,0.981951,1.000000,0.958129,1.000000,2.000000
51,0.000442,0.000000,1.000000,0.734061,1.000000,0.060067,0.000000,1.000000,2.000000,0.931870,0.233703,1.000000,0.981951,1.000000,0.958129,1.000000,2.000000
52,0.000442,0.000000,1.000000,0.734061,1.000000,0.060067,0.000000,1.000000,2.000000,0.931870,0.233703,1.000000,0.981951,1.000000,0.958129,1.000000,2.000000
53,0.000442,0.000000,1.000000,0.734061,1.000000,0.060067,0.000000,1.000000,2.000000,0.931870,0.233703,1.000000,0.981951,1.000000,0.958129,1.000000,2.000000
54,0.000436,0.000000,0.768027,0.822997,1.000000,0.009355,0.000000,0.967100,2.000000,0.937538,0.006333,1.000000,0.993316,1.000000,1.000000,1.000000,2.000000
55,0.000436,0.000000,0.768027,0.822997,1.000000,0.009355,0.000000,0.967100,2.000000,0.937538,0.006333,1.000000,0.993316,1.000000,1.000000,1.000000,2.000000
56,0.000436,0.000000,0.768027,0.822997,1.000000,0.009355,0.000000,0.967100,2.000000,0.937538,0.006333,1.000000,0.993316,1.000000,1.000000,1.000000,2.000000
gen, fitness
0,0.044384,0.000000,1.000000,0.210000,0.800000,0.030000,0.030000,1.000000,0.000000,1.000000,0.000000,0.000000,0.600000,1.000000,1.000000,0.000000,0.000000
1,0.044384,0.000000,1.000000,0.210000,0.800000,0.030000,0.030000,1.000000,0.000000,1.000000,0.000000,0.000000,0.600000,1.000000,1.000000,0.000000,0.000000
2,0.027939,0.000000,1.000000,0.368975,0.800000,0.011276,0.030000,1.000000,0.000000,1.000000,0.126888,0.000000,0.747407,0.910912,1.000000,0.000000,0.000000
3,0.024038,0.000000,1.000000,0.320855,0.800000,0.011276,0.000000,1.000000,2.000000,1.000000,0.102856,0.000000,0.747407,0.910912,1.000000,0.000000,2.000000
4,0.022894,0.060430,0.895595,0.367725,0.800000,0.030000,0.000000,1.000000,2.000000,0.961947,0.102856,0.100980,0.747407,0.910912,1.000000,0.000000,1.000000
5,0.020742,0.100392,0.703675,0.175156,0.887183,0.189050,0.157263,0.916796,2.000000,1.000000,0.000000,0.011940,0.814160,0.910912,1.000000,0.000000,1.000000
6,0.018377,0.082946,0.618351,0.164663,0.903718,0.249446,0.154646,0.916796,2.000000,1.000000,0.000000,0.000000,0.874833,1.000000,1.000000,0.153691,2.000000
7,0.015630,0.250592,0.878775,0.114144,1.000000,0.030000,0.099301,1.000000,1.000000,1.000000,0.000000,0.571497,0.955947,1.000000,1.000000,0.066412,0.000000
8,0.015630,0.250592,0.878775,0.114144,1.000000,0.030000,0.099301,1.000000,1.000000,1.000000,0.000000,0.571497,0.955947,1.000000,1.000000,0.066412,0.000000
9,0.014661,0.250592,0.890606,0.017936,1.000000,0.045511,0.392765,0.855053,1.000000,1.000000,0.000000,0.037290,0.959839,0.871492,0.821791,0.000000,1.000000
10,0.011806,0.250592,0.822411,0.114144,1.000000,0.038416,0.293757,1.000000,2.000000,0.952101,0.000000,0.596248,0.934819,1.000000,0.867527,0.000000,2.000000
11,0.011806,0.250592,0.822411,0.114144,1.000000,0.038416,0.293757,1.000000,2.000000,0.952101,0.000000,0.596248,0.934819,1.000000,0.867527,0.000000,2.000000
12,0.011806,0.250592,0.822411,0.114144,1.000000,0.038416,0.293757,1.000000,2.000000,0.952101,0.000000,0.596248,0.934819,1.000000,0.867527,0.000000,2.000000
13,0.011776,0.250592,0.770219,0.114144,1.000000,0.068554,0.295038,1.000000,2.000000,0.905497,0.000000,0.282617,0.944472,1.000000,0.688577,0.087077,2.000000
14,0.010727,0.250592,0.702623,0.248749,1.000000,0.038416,0.302304,1.000000,2.000000,0.893848,0.000000,0.626033,0.934819,1.000000,0.867527,0.000000,2.000000
15,0.010368,0.138159,0.855547,0.395021,1.000000,0.237971,0.000000,0.937702,2.000000,0.937189,0.000000,0.687820,0.934819,1.000000,0.867527,0.000000,2.000000
16,0.010071,0.138159,0.836627,0.395021,1.000000,0.062588,0.000000,0.937702,2.000000,1.000000,0.000000,0.241640,1.000000,0.952661,0.697542,0.000000,2.000000
17,0.008841,0.000000,0.725021,0.500968,1.000000,0.069187,0.293757,0.845285,2.000000,0.784248,0.000000,0.208730,1.000000,0.944017,0.697542,0.000000,2.000000
18,0.008841,0.000000,0.725021,0.500968,1.000000,0.069187,0.293757,0.845285,2.000000,0.784248,0.000000,0.208730,1.000000,0.944017,0.697542,0.000000,2.000000
19,0.008841,0.000000,0.725021,0.500968,1.000000,0.069187,0.293757,0.845285,2.000000,0.784248,0.000000,0.208730,1.000000,0.944017,0.697542,0.000000,2.000000
20,0.008693,0.000000,0.792962,0.473555,1.000000,0.038416,0.030662,0.941328,2.000000,0.718905,0.092832,0.391681,0.987152,0.774968,1.000000,0.147639,2.000000
21,0.008593,0.118775,0.792962,0.473555,1.000000,0.038416,0.093335,0.943127,2.000000,0.718905,0.092832,0.356928,0.998350,0.781948,1.000000,0.147639,2.000000
22,0.008313,0.000000,0.725021,0.532087,1.000000,0.038416,0.492673,0.893887,2.000000,0.643943,0.000000,0.344157,1.000000,0.643828,0.822727,0.228524,2.000000
23,0.008313,0.000000,0.725021,0.532087,1.000000,0.038416,0.492673,0.893887,2.000000,0.643943,0.000000,0.344157,1.000000,0.643828,0.822727,0.228524,2.000000
24,0.008218,0.000000,0.838484,0.611742,1.000000,0.088220,0.069948,0.960257,2.000000,0.699071,0.091894,0.391681,1.000000,0.774968,1.000000,0.032599,2.000000
25,0.008168,0.000000,0.580025,0.474502,1.000000,0.000000,0.030662,0.917816,2.000000,0.489397,0.000000,0.589574,0.987152,1.000000,0.546442,0.000000,2.000000
26,0.008042,0.000000,0.615844,0.601320,1.000000,0.000000,0.132003,0.941328,2.000000,0.678333,0.075681,0.673478,1.000000,0.767236,0.942509,0.228524,2.000000
27,0.007620,0.000000,0.704472,0.621180,1.000000,0.013320,0.030662,0.917816,2.000000,0.489397,0.000000,0.589574,1.000000,1.000000,0.422875,0.000000,2.000000
28,0.007615,0.006166,0.838484,0.601320,1.000000,0.000000,0.053904,0.941328,2.000000,0.552320,0.075681,0.673478,1.000000,0.767236,1.000000,0.171908,2.000000
29,0.007615,0.006166,0.838484,0.601320,1.000000,0.000000,0.053904,0.941328,2.000000,0.552320,0.075681,0.673478,1.000000,0.767236,1.000000,0.171908,2.000000
30,0.007340,0.000000,0.797004,0.535618,1.000000,0.078316,0.000000,1.000000,2.000000,0.198837,0.000000,0.639395,1.000000,1.000000,0.449655,0.102795,2.000000
31,0.007223,0.000000,0.501814,0.688800,1.000000,0.108842,0.534286,1.000000,2.000000,0.147562,0.000000,0.798951,1.000000,0.954347,0.420995,0.102795,2.000000
32,0.006841,0.000000,0.501814,0.688800,1.000000,0.062484,0.534286,1.000000,2.000000,0.147562,0.000000,0.965644,1.000000,1.000000,0.420995,0.097165,2.000000
33,0.006841,0.000000,0.501814,0.688800,1.000000,0.062484,0.534286,1.000000,2.000000,0.147562,0.000000,0.965644,1.000000,1.000000,0.420995,0.097165,2.000000
34,0.006840,0.000000,0.501814,0.663273,1.000000,0.062484,0.534286,1.000000,2.000000,0.147562,0.000000,0.965644,1.000000,1.000000,0.420995,0.097165,2.000000
35,0.006840,0.000000,0.501814,0.663273,1.000000,0.062484,0.534286,1.000000,2.000000,0.147562,0.000000,0.965644,1.000000,1.000000,0.420995,0.097165,2.000000
36,0.006727,0.000000,0.554924,0.670599,1.000000,0.141011,0.344569,1.000000,2.000000,0.063182,0.000000,1.000000,1.000000,0.991244,0.352691,0.176362,2.000000
37,0.006691,0.000000,0.536988,0.688800,1.000000,0.000000,0.577220,1.000000,2.000000,0.134064,0.034321,1.000000,1.000000,1.000000,0.449655,0.276585,2.000000
38,0.006556,0.014056,0.719273,0.688800,1.000000,0.062484,0.531819,0.976044,2.000000,0.111169,0.006587,1.000000,1.000000,1.000000,0.317402,0.605870,2.000000
39,0.006542,0.000000,0.288426,0.688800,1.000000,0.126167,0.235143,0.982236,2.000000,0.111169,0.006587,1.000000,1.000000,0.972257,0.317402,0.605870,2.000000
40,0.006542,0.000000,0.288426,0.688800,1.000000,0.126167,0.235143,0.982236,2.000000,0.111169,0.006587,1.000000,1.000000,0.972257,0.317402,0.605870,2.000000
41,0.006524,0.000000,0.630727,0.688800,1.000000,0.000000,0.713178,1.000000,2.000000,0.111169,0.000000,1.000000,1.000000,1.000000,0.241990,0.493052,2.000000
42,0.006524,0.000000,0.630727,0.688800,1.000000,0.000000,0.713178,1.000000,2.000000,0.111169,0.000000,1.000000,1.000000,1.000000,0.241990,0.493052,2.000000
43,0.006520,0.000000,0.630727,0.660126,1.000000,0.000000,0.582595,1.000000,2.000000,0.111169,0.000000,1.000000,1.000000,0.893135,0.148483,0.493052,2.000000
44,0.006506,0.000000,0.501814,0.758313,0.994427,0.000000,0.339332,1.000000,2.000000,0.079106,0.228847,1.000000,1.000000,1.000000,0.137459,0.473725,2.000000
45,0.006467,0.000000,0.630727,0.647519,1.000000,0.000000,0.443165,1.000000,2.000000,0.111169,0.006587,1.000000,1.000000,0.972257,0.317402,0.605870,2.000000
46,0.006437,0.000000,0.630727,0.647519,1.000000,0.000000,0.400267,1.000000,2.000000,0.111169,0.151628,1.000000,1.000000,0.972257,0.317402,0.690859,2.000000
47,0.006422,0.023328,0.630727,0.630365,1.000000,0.000000,0.419979,1.000000,2.000000,0.022747,0.000000,0.985884,1.000000,1.000000,0.308468,0.824445,2.000000
48,0.006422,0.023328,0.630727,0.630365,1.000000,0.000000,0.419979,1.000000,2.000000,0.022747,0.000000,0.985884,1.000000,1.000000,0.308468,0.824445,2.000000
49,0.006422,0.023328,0.630727,0.630365,1.000000,0.000000,0.419979,1.000000,2.000000,0.022747,0.000000,0.985884,1.000000,1.000000,0.308468,0.824445,2.000000
50,0.006367,0.000000,0.630727,0.580390,1.000000,0.000000,0.241580,1.000000,2.000000,0.019733,0.226456,0.999433,1.000000,0.833975,0.280072,0.802879,2.000000
51,0.006299,0.000000,0.594101,0.585623,1.000000,0.026650,0.107670,1.000000,2.000000,0.019733,0.226456,0.999433,1.000000,1.000000,0.248750,0.870493,2.000000
52,0.006299,0.000000,0.594101,0.585623,1.000000,0.026650,0.107670,1.000000,2.000000,0.019733,0.226456,0.999433,1.000000,1.000000,0.248750,0.870493,2.000000
53,0.006278,0.000000,0.630727,0.601804,1.000000,0.000000,0.243771,1.000000,2.000000,0.019733,0.226456,1.000000,1.000000,0.694462,0.179791,0.959271,2.000000
54,0.006278,0.000000,0.630727,0.601804,1.000000,0.026240,0.243771,1.000000,2.000000,0.019733,0.317898,1.000000,1.000000,0.694462,0.179791,1.000000,2.000000
55,0.006278,0.000000,0.630727,0.601804,1.000000,0.026240,0.243771,1.000000,2.000000,0.019733,0.317898,1.000000,1.000000,0.694462,0.179791,1.000000,2.000000
56,0.006278,0.000000,0.630727,0.601804,1.000000,0.026240,0.243771,1.000000,2.000000,0.019733,0.317898,1.000000,1.000000,0.694462,0.179791,1.000000,2.000000
57,0.006247,0.000000,0.515629,0.601804,1.000000,0.000000,0.107670,1.000000,2.000000,0.019733,0.226456,0.999433,1.000000,0.890688,0.248750,1.000000,2.000000
58,0.006247,0.000000,0.515629,0.601804,1.000000,0.000000,0.107670,1.000000,2.000000,0.019733,0.226456,0.999433,1.000000,0.890688,0.248750,1.000000,2.000000
59,0.006247,0.000000,0.515629,0.601804,1.000000,0.000000,0.107670,1.000000,2.000000,0.019733,0.226456,0.999433,1.000000,0.890688,0.248750,1.000000,2.000000
60,0.006239,0.000000,0.736298,0.601804,1.000000,0.003240,0.302451,1.000000,2.000000,0.001956,0.278061,1.000000,1.000000,0.838883,0.177250,1.000000,2.000000
61,0.006239,0.000000,0.736298,0.601804,1.000000,0.003240,0.302451,1.000000,2.000000,0.001956,0.278061,1.000000,1.000000,0.838883,0.177250,1.000000,2.000000
62,0.006199,0.000000,0.585086,0.601804,1.000000,0.000000,0.107670,1.000000,2.000000,0.019733,0.320214,1.000000,1.000000,1.000000,0.078507,1.000000,2.000000
63,0.006199,0.000000,0.585086,0.601804,1.000000,0.000000,0.107670,1.000000,2.000000,0.019733,0.320214,1.000000,1.000000,1.000000,0.078507,1.000000,2.000000
64,0.006199,0.000000,0.585086,0.601804,1.000000,0.000000,0.107670,1.000000,2.000000,0.019733,0.320214,1.000000,1.000000,1.000000,0.078507,1.000000,2.000000
65,0.006167,0.000000,0.775174,0.601804,1.000000,0.000000,0.107670,1.000000,2.000000,0.019733,0.181667,1.000000,1.000000,1.000000,0.078507,1.000000,2.000000
66,0.006167,0.000000,0.775174,0.601804,1.000000,0.000000,0.107670,1.000000,2.000000,0.019733,0.181667,1.000000,1.000000,1.000000,0.078507,1.000000,2.000000
67,0.006167,0.000000,0.775174,0.601804,1.000000,0.000000,0.107670,1.000000,2.000000,0.019733,0.181667,1.000000,1.000000,1.000000,0.078507,1.000000,2.000000
68,0.006167,0.000000,0.775174,0.601804,1.000000,0.000000,0.107670,1.000000,2.000000,0.019733,0.181667,1.000000,1.000000,1.000000,0.078507,1.000000,2.000000
69,0.006167,0.000000,0.775174,0.601804,1.000000,0.000000,0.107670,1.000000,2.000000,0.019733,0.181667,1.000000,1.000000,1.000000,0.078507,1.000000,2.000000
70,0.006155,0.000000,0.775174,0.601804,1.000000,0.000000,0.107670,1.000000,2.000000,0.019733,0.100209,1.000000,1.000000,1.000000,0.057422,1.000000,2.000000
71,0.006151,0.000000,0.671877,0.601804,1.000000,0.000000,0.107670,1.000000,2.000000,0.000000,0.162658,1.000000,1.000000,1.000000,0.000000,1.000000,2.000000
72,0.006146,0.000000,1.000000,0.601804,1.000000,0.003240,0.162951,1.000000,2.000000,0.019733,0.200505,1.000000,1.000000,0.992032,0.006078,1.000000,2.000000
73,0.006140,0.000000,1.000000,0.601804,1.000000,0.003240,0.162951,1.000000,2.000000,0.000000,0.200505,1.000000,1.000000,0.974542,0.006078,1.000000,2.000000
74,0.006140,0.000000,1.000000,0.601804,1.000000,0.003240,0.162951,1.000000,2.000000,0.000000,0.200505,1.000000,1.000000,0.974542,0.006078,1.000000,2.000000
75,0.006140,0.000000,1.000000,0.601804,1.000000,0.003240,0.162951,1.000000,2.000000,0.000000,0.200505,1.000000,1.000000,0.974542,0.006078,1.000000,2.000000
76,0.006133,0.000000,1.000000,0.601804,1.000000,0.003240,0.070639,1.000000,2.000000,0.019733,0.100209,1.000000,1.000000,1.000000,0.057422,1.000000,2.000000
77,0.006133,0.000000,1.000000,0.601804,1.000000,0.003240,0.070639,1.000000,2.000000,0.019733,0.100209,1.000000,1.000000,1.000000,0.057422,1.000000,2.000000
78,0.006133,0.000000,1.000000,0.601804,1.000000,0.003240,0.070639,1.000000,2.000000,0.019733,0.100209,1.000000,1.000000,1.000000,0.057422,1.000000,2.000000
79,0.006122,0.000000,0.888653,0.601804,1.000000,0.000000,0.000000,1.000000,2.000000,0.000000,0.047242,1.000000,1.000000,1.000000,0.057422,1.000000,2.000000
80,0.006122,0.000000,0.888653,0.601804,1.000000,0.000000,0.000000,1.000000,2.000000,0.000000,0.047242,1.000000,1.000000,1.000000,0.057422,1.000000,2.000000
81,0.006122,0.000000,0.888653,0.601804,1.000000,0.000000,0.000000,1.000000,2.000000,0.000000,0.047242,1.000000,1.000000,1.000000,0.057422,1.000000,2.000000
82,0.006122,0.000000,0.888653,0.601804,1.000000,0.000000,0.000000,1.000000,2.000000,0.000000,0.047242,1.000000,1.000000,1.000000,0.057422,1.000000,2.000000
83,0.006122,0.000000,0.888653,0.601804,1.000000,0.000000,0.000000,1.000000,2.000000,0.000000,0.047242,1.000000,1.000000,1.000000,0.057422,1.000000,2.000000
84,0.006122,0.000000,0.888653,0.601804,1.000000,0.000000,0.000000,1.000000,2.000000,0.000000,0.047242,1.000000,1.000000,1.000000,0.057422,1.000000,2.000000
85,0.006122,0.000000,0.888653,0.601804,1.000000,0.000000,0.000000,1.000000,2.000000,0.000000,0.047242,1.000000,1.000000,1.000000,0.057422,1.000000,2.000000
86,0.006118,0.000000,0.955972,0.601804,1.000000,0.000000,0.000000,1.000000,2.000000,0.000000,0.047242,1.000000,1.000000,1.000000,0.057422,1.000000,2.000000
87,0.006118,0.000000,0.955972,0.601804,1.000000,0.000000,0.000000,1.000000,2.000000,0.000000,0.047242,1.000000,1.000000,1.000000,0.057422,1.000000,2.000000
88,0.006104,0.000000,0.888653,0.601804,1.000000,0.000000,0.000000,1.000000,2.000000,0.000000,0.000000,1.000000,1.000000,1.000000,0.000000,1.000000,2.000000
89,0.006104,0.000000,0.888653,0.601804,1.000000,0.000000,0.000000,1.000000,2.000000,0.000000,0.000000,1.000000,1.000000,1.000000,0.000000,1.000000,2.000000
90,0.006104,0.000000,0.888653,0.601804,1.000000,0.000000,0.000000,1.000000,2.000000,0.000000,0.000000,1.000000,1.000000,1.000000,0.000000,1.000000,2.000000
91,0.006104,0.000000,0.888653,0.601804,1.000000,0.000000,0.000000,1.000000,2.000000,0.000000,0.000000,1.000000,1.000000,1.000000,0.000000,1.000000,2.000000
92,0.006104,0.000000,0.888653,0.601804,1.000000,0.000000,0.000000,1.000000,2.000000,0.000000,0.000000,1.000000,1.000000,1.000000,0.000000,1.000000,2.000000
93,0.006101,0.000000,1.000000,0.601804,1.000000,0.000000,0.000000,1.000000,2.000000,0.000000,0.047242,1.000000,1.000000,1.000000,0.000000,1.000000,2.000000
94,0.006101,0.000000,1.000000,0.601804,1.000000,0.000000,0.000000,1.000000,2.000000,0.000000,0.047242,1.000000,1.000000,1.000000,0.000000,1.000000,2.000000
95,0.006101,0.000000,1.000000,0.601804,1.000000,0.000000,0.000000,1.000000,2.000000,0.000000,0.047242,1.000000,1.000000,1.000000,0.000000,1.000000,2.000000
96,0.006101,0.000000,1.000000,0.601804,1.000000,0.000000,0.000000,1.000000,2.000000,0.000000,0.047242,1.000000,1.000000,1.000000,0.000000,1.000000,2.000000
97,0.006098,0.000000,1.000000,0.601804,1.000000,0.000000,0.000000,1.000000,2.000000,0.000000,0.000000,1.000000,1.000000,0.982252,0.000000,1.000000,2.000000
98,0.006098,0.000000,1.000000,0.601804,1.000000,0.000000,0.000000,1.000000,2.000000,0.000000,0.000000,1.000000,1.000000,0.982252,0.000000,1.000000,2.000000
gen, fitness
0,0.006335,0.000000,1.000000,0.210000,0.800000,0.030000,0.030000,1.000000,0.000000,1.000000,0.000000,0.000000,0.600000,1.000000,1.000000,0.000000,0.000000
1,0.006335,0.000000,1.000000,0.210000,0.800000,0.030000,0.030000,1.000000,0.000000,1.000000,0.000000,0.000000,0.600000,1.000000,1.000000,0.000000,0.000000
2,0.000095,0.000000,1.000000,0.210000,0.800000,0.030000,0.000000,1.000000,0.000000,1.000000,0.000000,0.216695,0.600000,1.000000,1.000000,0.000000,0.000000
3,0.000039,0.044442,0.974670,0.167817,0.775448,0.049251,0.000000,1.000000,2.000000,1.000000,0.095093,0.000000,0.672118,1.000000,0.953764,0.151985,0.000000
4,0.000039,0.044442,0.974670,0.167817,0.775448,0.049251,0.000000,1.000000,2.000000,1.000000,0.095093,0.000000,0.672118,1.000000,0.953764,0.151985,0.000000
5,0.000024,0.054891,0.648522,0.181827,0.775448,0.030000,0.000000,1.000000,0.000000,1.000000,0.000000,0.000000,0.653972,1.000000,0.985221,0.087908,2.000000
6,0.000024,0.054891,0.648522,0.181827,0.775448,0.030000,0.000000,1.000000,0.000000,1.000000,0.000000,0.000000,0.653972,1.000000,0.985221,0.087908,2.000000
7,0.000006,0.044442,0.809875,0.167817,0.775448,0.180859,0.010954,0.966182,2.000000,1.000000,0.074237,0.000000,0.672118,1.000000,1.000000,0.000000,0.000000
8,0.000000,0.079613,0.974670,0.167817,0.775448,0.025695,0.000000,0.926874,2.000000,1.000000,0.000000,0.000000,0.672118,1.000000,0.831674,0.000000,1.000000
gen, fitness
0,0.018541,0.000000,1.000000,0.210000,0.800000,0.030000,0.030000,1.000000,0.000000,1.000000,0.000000,0.000000,0.600000,1.000000,1.000000,0.000000,0.000000
1,0.018541,0.000000,1.000000,0.210000,0.800000,0.030000,0.030000,1.000000,0.000000,1.000000,0.000000,0.000000,0.600000,1.000000,1.000000,0.000000,0.000000
2,0.005334,0.000000,1.000000,0.210000,0.800000,0.030000,0.030000,1.000000,2.000000,0.980883,0.000000,0.000000,0.738460,1.000000,1.000000,0.000000,2.000000
3,0.004158,0.000000,1.000000,0.370427,0.800000,0.030000,0.030000,1.000000,1.000000,1.000000,0.000000,0.347565,0.633771,0.977041,1.000000,0.035856,0.000000
4,0.003192,0.000000,1.000000,0.360494,0.822082,0.030000,0.000000,1.000000,0.000000,0.893403,0.060038,0.000000,0.810703,1.000000,0.651583,0.001115,0.000000
5,0.000831,0.000000,1.000000,0.210000,0.923839,0.000000,0.000000,1.000000,2.000000,0.914149,0.142159,0.192163,0.834316,1.000000,0.985213,0.050538,2.000000
6,0.000666,0.032066,1.000000,0.185443,0.923839,0.155492,0.000000,1.000000,2.000000,0.914149,0.142159,0.239236,0.834316,1.000000,0.985213,0.050538,0.000000
7,0.000249,0.204533,1.000000,0.252169,0.923839,0.000000,0.000000,1.000000,2.000000,0.914149,0.099799,0.000000,0.915785,1.000000,1.000000,0.050255,2.000000
8,0.000249,0.204533,1.000000,0.252169,0.923839,0.000000,0.000000,1.000000,2.000000,0.914149,0.099799,0.000000,0.915785,1.000000,1.000000,0.050255,2.000000
9,0.000249,0.204533,1.000000,0.252169,0.923839,0.000000,0.000000,1.000000,2.000000,0.914149,0.099799,0.000000,0.915785,1.000000,1.000000,0.050255,2.000000
10,0.000033,0.207388,1.000000,0.420897,0.923839,0.000000,0.003719,1.000000,2.000000,0.914149,0.168522,0.119447,0.923468,1.000000,0.998423,0.050255,0.000000
11,0.000031,0.128458,1.000000,0.252169,1.000000,0.000000,0.071416,1.000000,1.000000,0.856749,0.162421,0.000000,1.000000,0.907028,1.000000,0.125456,1.000000
12,0.000031,0.128458,1.000000,0.252169,1.000000,0.000000,0.071416,1.000000,1.000000,0.856749,0.162421,0.000000,1.000000,0.907028,1.000000,0.125456,1.000000
13,0.000031,0.128458,1.000000,0.252169,1.000000,0.000000,0.071416,1.000000,1.000000,0.856749,0.162421,0.000000,1.000000,0.907028,1.000000,0.125456,1.000000
14,0.000001,0.196918,0.941666,0.319558,0.961621,0.000000,0.000000,1.000000,2.000000,0.914149,0.000000,0.082200,0.954050,1.000000,0.842064,0.005676,2.000000
gen, fitness
0,0.069293,0.000000,1.000000,0.210000,0.800000,0.030000,0.030000,1.000000,0.000000,1.000000,0.000000,0.000000,0.600000,1.000000,1.000000,0.000000,0.000000
1,0.069293,0.000000,1.000000,0.210000,0.800000,0.030000,0.030000,1.000000,0.000000,1.000000,0.000000,0.000000,0.600000,1.000000,1.000000,0.000000,0.000000
2,0.027728,0.000000,1.000000,0.229092,0.915295,0.030000,0.030000,1.000000,0.000000,1.000000,0.000000,0.079769,0.877850,1.000000,0.860169,0.000000,0.000000
3,0.027728,0.000000,1.000000,0.229092,0.915295,0.030000,0.030000,1.000000,0.000000,1.000000,0.000000,0.079769,0.877850,1.000000,0.860169,0.000000,0.000000
4,0.018261,0.000000,1.000000,0.068341,0.962833,0.000000,0.030000,1.000000,2.000000,1.000000,0.053598,0.000000,0.941156,1.000000,0.943078,0.000000,2.000000
5,0.016625,0.000000,1.000000,0.050509,0.985366,0.000000,0.030000,1.000000,2.000000,1.000000,0.053598,0.000000,1.000000,1.000000,0.943078,0.000000,2.000000
6,0.014052,0.000000,1.000000,0.050509,1.000000,0.000000,0.030000,1.000000,2.000000,1.000000,0.000000,0.066052,1.000000,1.000000,1.000000,0.000000,2.000000
7,0.013909,0.061673,1.000000,0.015091,1.000000,0.000000,0.030000,0.923593,0.000000,0.950820,0.053598,0.201384,0.962967,1.000000,0.943078,0.000000,2.000000
8,0.012337,0.000000,1.000000,0.005492,1.000000,0.000000,0.315270,0.871335,1.000000,0.955630,0.000384,0.365659,0.941156,0.897691,0.905403,0.000000,2.000000
9,0.012337,0.000000,1.000000,0.005492,1.000000,0.000000,0.315270,0.871335,1.000000,0.955630,0.000384,0.365659,0.941156,0.897691,0.905403,0.000000,2.000000
10,0.012309,0.000000,1.000000,0.005492,1.000000,0.000000,0.244696,0.871335,1.000000,0.944046,0.000384,0.365659,0.941156,0.937863,0.905403,0.000000,2.000000
11,0.011986,0.000000,1.000000,0.005492,1.000000,0.000000,0.315270,0.871335,1.000000,0.955630,0.000384,0.418597,0.941156,0.897691,0.905403,0.051181,2.000000
12,0.010842,0.085123,1.000000,0.000000,1.000000,0.000000,0.142175,0.871335,2.000000,0.989028,0.000384,0.441320,0.941156,0.963661,1.000000,0.297717,2.000000
13,0.010778,0.000000,1.000000,0.000000,1.000000,0.046205,0.424826,0.984518,2.000000,0.999253,0.000000,0.534337,0.941156,0.988427,1.000000,0.094798,2.000000
14,0.010352,0.000000,0.921386,0.000000,1.000000,0.046205,0.479207,0.984518,2.000000,0.999253,0.000000,0.552053,0.923531,0.963661,1.000000,0.249260,2.000000
15,0.010352,0.000000,0.921386,0.000000,1.000000,0.046205,0.479207,0.984518,2.000000,0.999253,0.000000,0.552053,0.923531,0.963661,1.000000,0.249260,2.000000
16,0.010286,0.051821,1.000000,0.000000,1.000000,0.046205,0.406062,0.935314,2.000000,1.000000,0.000000,0.552053,0.923531,0.963661,1.000000,0.371532,2.000000
17,0.010197,0.051821,1.000000,0.000000,1.000000,0.046205,0.319648,0.935314,2.000000,1.000000,0.000000,0.552053,0.923531,0.963661,1.000000,0.405569,2.000000
18,0.009974,0.000000,1.000000,0.000000,1.000000,0.000000,0.592180,0.984518,2.000000,0.999253,0.000000,0.671395,0.910272,1.000000,1.000000,0.178883,2.000000
19,0.009926,0.000000,1.000000,0.000000,1.000000,0.000000,0.513757,0.984518,2.000000,0.999253,0.000000,0.610702,0.910272,1.000000,1.000000,0.445000,2.000000
20,0.009712,0.000000,1.000000,0.000000,1.000000,0.000000,0.513757,1.000000,2.000000,1.000000,0.000000,0.663191,0.910272,1.000000,1.000000,0.384848,2.000000
21,0.009712,0.000000,1.000000,0.000000,1.000000,0.000000,0.513757,1.000000,2.000000,1.000000,0.000000,0.663191,0.910272,1.000000,1.000000,0.384848,2.000000
22,0.009712,0.000000,1.000000,0.000000,1.000000,0.000000,0.513757,1.000000,2.000000,1.000000,0.000000,0.663191,0.910272,1.000000,1.000000,0.384848,2.000000
23,0.009672,0.000000,0.965822,0.000000,1.000000,0.090625,0.161255,0.896565,2.000000,0.943438,0.107610,0.723794,0.910272,0.869396,1.000000,0.367676,2.000000
24,0.009349,0.000000,1.000000,0.000000,1.000000,0.000000,0.592180,0.984518,2.000000,0.999253,0.000000,0.927549,0.910272,1.000000,1.000000,0.178883,2.000000
25,0.009282,0.000000,0.899406,0.000000,1.000000,0.000000,0.378163,0.984518,2.000000,0.999253,0.088255,0.683648,0.910272,0.974113,1.000000,0.647660,2.000000
26,0.008896,0.000000,1.000000,0.000000,1.000000,0.047355,0.208740,0.988105,2.000000,1.000000,0.323074,0.844513,0.898258,1.000000,0.999063,0.490122,2.000000
27,0.008896,0.000000,1.000000,0.000000,1.000000,0.047355,0.208740,0.988105,2.000000,1.000000,0.323074,0.844513,0.898258,1.000000,0.999063,0.490122,2.000000
28,0.008679,0.066810,1.000000,0.000000,1.000000,0.000000,0.391074,0.872472,2.000000,1.000000,0.128698,0.920218,0.910272,0.959278,1.000000,0.647660,2.000000
29,0.008679,0.066810,1.000000,0.000000,1.000000,0.000000,0.391074,0.872472,2.000000,1.000000,0.128698,0.920218,0.910272,0.959278,1.000000,0.647660,2.000000
30,0.008679,0.066810,1.000000,0.000000,1.000000,0.000000,0.391074,0.872472,2.000000,1.000000,0.128698,0.920218,0.910272,0.959278,1.000000,0.647660,2.000000
31,0.008579,0.052644,1.000000,0.000000,1.000000,0.084878,0.135584,0.988105,2.000000,1.000000,0.239050,0.927549,0.912595,1.000000,1.000000,0.663352,2.000000
32,0.008533,0.052644,1.000000,0.000000,1.000000,0.031218,0.135584,0.988105,2.000000,1.000000,0.239050,0.927549,0.912595,1.000000,1.000000,0.678955,2.000000
33,0.008533,0.052644,1.000000,0.000000,1.000000,0.031218,0.135584,0.988105,2.000000,1.000000,0.239050,0.927549,0.912595,1.000000,1.000000,0.678955,2.000000
34,0.008452,0.050908,1.000000,0.000000,1.000000,0.000000,0.135584,0.937990,2.000000,1.000000,0.016217,0.924144,0.912595,1.000000,1.000000,0.750181,2.000000
35,0.008344,0.000000,1.000000,0.000000,1.000000,0.075199,0.094467,1.000000,2.000000,1.000000,0.535086,1.000000,0.898258,1.000000,1.000000,0.731927,2.000000
36,0.008344,0.000000,1.000000,0.000000,1.000000,0.075199,0.094467,1.000000,2.000000,1.000000,0.535086,1.000000,0.898258,1.000000,1.000000,0.731927,2.000000
37,0.008274,0.052644,0.963110,0.000000,1.000000,0.000000,0.000000,0.988105,2.000000,1.000000,0.247825,0.983851,0.893688,0.957143,1.000000,0.805776,2.000000
38,0.008274,0.052644,0.963110,0.000000,1.000000,0.000000,0.000000,0.988105,2.000000,1.000000,0.247825,0.983851,0.893688,0.957143,1.000000,0.805776,2.000000
39,0.008219,0.137953,1.000000,0.000000,1.000000,0.000000,0.027075,0.984335,2.000000,1.000000,0.539664,1.000000,0.898258,1.000000,1.000000,0.892203,2.000000
40,0.008156,0.052644,0.963110,0.000000,1.000000,0.000000,0.000000,0.988105,2.000000,1.000000,0.247825,0.983851,0.893688,0.957143,1.000000,0.939568,2.000000
41,0.008156,0.052644,0.963110,0.000000,1.000000,0.000000,0.000000,0.988105,2.000000,1.000000,0.247825,0.983851,0.893688,0.957143,1.000000,0.939568,2.000000
42,0.008156,0.052644,0.963110,0.000000,1.000000,0.000000,0.000000,0.988105,2.000000,1.000000,0.247825,0.983851,0.893688,0.957143,1.000000,0.939568,2.000000
43,0.008156,0.052644,0.963110,0.000000,1.000000,0.000000,0.000000,0.988105,2.000000,1.000000,0.247825,0.983851,0.893688,0.957143,1.000000,0.939568,2.000000
44,0.008115,0.052644,0.932377,0.000000,1.000000,0.067928,0.094467,1.000000,2.000000,1.000000,0.539664,0.999458,0.898258,1.000000,1.000000,1.000000,2.000000
45,0.008115,0.052644,0.932377,0.000000,1.000000,0.067928,0.094467,1.000000,2.000000,1.000000,0.539664,0.999458,0.898258,1.000000,1.000000,1.000000,2.000000
46,0.008085,0.028766,0.963110,0.000000,1.000000,0.000000,0.027075,0.793756,2.000000,1.000000,0.539664,1.000000,0.898258,1.000000,0.935652,0.992380,2.000000
47,0.008085,0.028766,0.963110,0.000000,1.000000,0.000000,0.027075,0.793756,2.000000,1.000000,0.539664,1.000000,0.898258,1.000000,0.935652,0.992380,2.000000
48,0.008085,0.028766,0.963110,0.000000,1.000000,0.000000,0.027075,0.793756,2.000000,1.000000,0.539664,1.000000,0.898258,1.000000,0.935652,0.992380,2.000000
49,0.008070,0.048581,1.000000,0.000000,1.000000,0.000000,0.027075,0.793756,2.000000,1.000000,0.539664,1.000000,0.898258,1.000000,0.935652,1.000000,2.000000
50,0.008070,0.048581,1.000000,0.000000,1.000000,0.000000,0.027075,0.793756,2.000000,1.000000,0.539664,1.000000,0.898258,1.000000,0.935652,1.000000,2.000000
51,0.008070,0.048581,1.000000,0.000000,1.000000,0.000000,0.027075,0.793756,2.000000,1.000000,0.539664,1.000000,0.898258,1.000000,0.935652,1.000000,2.000000
52,0.008070,0.048581,1.000000,0.000000,1.000000,0.000000,0.027075,0.793756,2.000000,1.000000,0.539664,1.000000,0.898258,1.000000,0.935652,1.000000,2.000000
53,0.008028,0.048581,1.000000,0.000000,1.000000,0.000000,0.043456,0.793756,2.000000,1.000000,0.539664,1.000000,0.898258,1.000000,1.000000,1.000000,2.000000
54,0.008028,0.048581,1.000000,0.000000,1.000000,0.000000,0.043456,0.793756,2.000000,1.000000,0.539664,1.000000,0.898258,1.000000,1.000000,1.000000,2.000000
55,0.008014,0.028766,1.000000,0.000000,1.000000,0.000000,0.027075,0.793756,2.000000,1.000000,0.539664,1.000000,0.898258,1.000000,1.000000,1.000000,2.000000
56,0.008014,0.028766,1.000000,0.000000,1.000000,0.000000,0.027075,0.793756,2.000000,1.000000,0.539664,1.000000,0.898258,1.000000,1.000000,1.000000,2.000000
57,0.008001,0.028766,1.000000,0.000000,1.000000,0.000000,0.000000,0.870402,2.000000,1.000000,0.539664,1.000000,0.898258,1.000000,1.000000,1.000000,2.000000
58,0.008001,0.028766,1.000000,0.000000,1.000000,0.000000,0.000000,0.870402,2.000000,1.000000,0.539664,1.000000,0.898258,1.000000,1.000000,1.000000,2.000000
59,0.008001,0.028766,1.000000,0.000000,1.000000,0.000000,0.000000,0.870402,2.000000,1.000000,0.539664,1.000000,0.898258,1.000000,1.000000,1.000000,2.000000
60,0.008001,0.028766,1.000000,0.000000,1.000000,0.000000,0.000000,0.870402,2.000000,1.000000,0.539664,1.000000,0.898258,1.000000,1.000000,1.000000,2.000000
61,0.008001,0.028766,1.000000,0.000000,1.000000,0.000000,0.000000,0.870402,2.000000,1.000000,0.539664,1.000000,0.898258,1.000000,1.000000,1.000000,2.000000
62,0.008001,0.028766,1.000000,0.000000,1.000000,0.000000,0.000000,0.870402,2.000000,1.000000,0.539664,1.000000,0.898258,1.000000,1.000000,1.000000,2.000000
63,0.008001,0.028766,1.000000,0.000000,1.000000,0.000000,0.000000,0.870402,2.000000,1.000000,0.539664,1.000000,0.898258,1.000000,1.000000,1.000000,2.000000
64,0.008001,0.028766,1.000000,0.000000,1.000000,0.000000,0.000000,0.870402,2.000000,1.000000,0.539664,1.000000,0.898258,1.000000,1.000000,1.000000,2.000000
65,0.008001,0.028766,1.000000,0.000000,1.000000,0.000000,0.000000,0.870402,2.000000,1.000000,0.539664,1.000000,0.898258,1.000000,1.000000,1.000000,2.000000
66,0.008001,0.028766,1.000000,0.000000,1.000000,0.000000,0.000000,0.870402,2.000000,1.000000,0.539664,1.000000,0.898258,1.000000,1.000000,1.000000,2.000000
67,0.007998,0.032697,1.000000,0.000000,1.000000,0.000000,0.000000,0.758258,2.000000,1.000000,0.683524,1.000000,0.898258,1.000000,1.000000,1.000000,2.000000
gen, fitness
0,0.020772,0.000000,1.000000,0.210000,0.800000,0.030000,0.030000,1.000000,0.000000,1.000000,0.000000,0.000000,0.600000,1.000000,1.000000,0.000000,0.000000
1,0.020772,0.000000,1.000000,0.210000,0.800000,0.030000,0.030000,1.000000,0.000000,1.000000,0.000000,0.000000,0.600000,1.000000,1.000000,0.000000,0.000000
2,0.007707,0.000000,0.936970,0.210000,0.800000,0.030000,0.000000,0.940893,0.000000,1.000000,0.000000,0.000000,0.736952,1.000000,1.000000,0.000000,1.000000
3,0.004013,0.000000,1.000000,0.304366,0.800000,0.002110,0.000000,1.000000,2.000000,1.000000,0.092097,0.137515,0.727018,1.000000,1.000000,0.000000,1.000000
4,0.001959,0.027603,1.000000,0.165497,0.899718,0.057262,0.246121,1.000000,1.000000,1.000000,0.000000,0.170894,0.776039,0.936711,0.758412,0.208234,2.000000
5,0.001959,0.027603,1.000000,0.165497,0.899718,0.057262,0.246121,1.000000,1.000000,1.000000,0.000000,0.170894,0.776039,0.936711,0.758412,0.208234,2.000000
6,0.001373,0.051092,1.000000,0.180524,0.881693,0.000000,0.129581,0.941464,2.000000,0.948767,0.215443,0.375088,0.747962,1.000000,0.898710,0.000000,1.000000
7,0.000708,0.103739,0.975254,0.180524,0.939343,0.088044,0.000000,0.986773,1.000000,1.000000,0.187333,0.221512,0.883251,0.936711,0.959961,0.000000,1.000000
8,0.000678,0.190199,0.975254,0.180524,0.939343,0.319010,0.000000,1.000000,1.000000,1.000000,0.317315,0.221512,0.883251,0.936711,0.959961,0.000000,0.000000
9,0.000496,0.190199,0.975254,0.180524,0.939343,0.315922,0.000000,0.993403,2.000000,1.000000,0.290317,0.200853,0.883251,0.936711,0.959961,0.023525,0.000000
10,0.000496,0.190199,0.975254,0.180524,0.939343,0.315922,0.000000,0.993403,2.000000,1.000000,0.290317,0.200853,0.883251,0.936711,0.959961,0.023525,0.000000
11,0.000170,0.000000,0.600857,0.276599,0.939343,0.088044,0.000000,0.986773,1.000000,1.000000,0.124118,0.222000,0.872198,1.000000,0.678245,0.214956,2.000000
12,0.000170,0.000000,0.600857,0.276599,0.939343,0.088044,0.000000,0.986773,1.000000,1.000000,0.124118,0.222000,0.872198,1.000000,0.678245,0.214956,2.000000
13,0.000113,0.000000,1.000000,0.325875,1.000000,0.138495,0.000000,0.841979,1.000000,1.000000,0.187333,0.333119,0.960547,0.936711,1.000000,0.103892,2.000000
14,0.000019,0.000000,1.000000,0.325875,1.000000,0.138495,0.135961,0.927794,0.000000,1.000000,0.420450,0.168377,0.965177,1.000000,0.689772,0.021050,0.000000
15,0.000019,0.000000,1.000000,0.325875,1.000000,0.138495,0.135961,0.927794,0.000000,1.000000,0.420450,0.168377,0.965177,1.000000,0.689772,0.021050,0.000000
16,0.000014,0.000000,1.000000,0.325875,1.000000,0.138495,0.058391,0.927794,0.000000,1.000000,0.420450,0.168377,0.965177,1.000000,0.689772,0.000000,2.000000
17,0.000014,0.000000,1.000000,0.325875,1.000000,0.138495,0.058391,0.927794,0.000000,1.000000,0.420450,0.168377,0.965177,1.000000,0.689772,0.000000,2.000000
18,0.000010,0.000000,0.897743,0.379664,1.000000,0.138495,0.001745,0.914018,0.000000,1.000000,0.187333,0.333119,0.960547,0.936711,0.995309,0.208919,0.000000
19,0.000001,0.000000,1.000000,0.286529,1.000000,0.133228,0.000000,0.867988,0.000000,1.000000,0.182563,0.321043,0.945609,0.710787,0.771380,0.173998,0.000000
20,0.000001,0.000000,1.000000,0.286529,1.000000,0.133228,0.000000,0.867988,0.000000,1.000000,0.182563,0.321043,0.945609,0.710787,0.771380,0.173998,0.000000
21,0.000001,0.000000,1.000000,0.285448,1.000000,0.093636,0.000000,0.927765,0.000000,1.000000,0.609184,0.168377,0.965177,0.925571,0.861986,0.000000,1.000000
gen, fitness
0,0.008197,0.000000,1.000000,0.210000,0.800000,0.030000,0.030000,1.000000,0.000000,1.000000,0.000000,0.000000,0.600000,1.000000,1.000000,0.000000,0.000000
1,0.008197,0.000000,1.000000,0.210000,0.800000,0.030000,0.030000,1.000000,0.000000,1.000000,0.000000,0.000000,0.600000,1.000000,1.000000,0.000000,0.000000
2,0.000338,0.168991,0.942165,0.210000,0.838045,0.030000,0.030000,1.000000,0.000000,1.000000,0.000000,0.024406,0.753069,0.986878,0.934423,0.000000,1.000000
3,0.000152,0.000000,1.000000,0.194993,0.846581,0.000000,0.030000,1.000000,0.000000,1.000000,0.141593,0.000000,0.759922,0.823611,0.927081,0.000000,2.000000
4,0.000008,0.000000,1.000000,0.076031,0.838045,0.030000,0.030000,1.000000,2.000000,1.000000,0.000000,0.024406,0.703653,1.000000,0.998241,0.247453,1.000000
5,0.000008,0.000000,1.000000,0.076031,0.838045,0.030000,0.030000,1.000000,2.000000,1.000000,0.000000,0.024406,0.703653,1.000000,0.998241,0.247453,1.000000
6,0.000008,0.000000,1.000000,0.076031,0.838045,0.030000,0.030000,1.000000,2.000000,1.000000,0.000000,0.024406,0.703653,1.000000,0.998241,0.247453,1.000000
7,0.000003,0.000000,1.000000,0.245327,0.800000,0.000000,0.069667,0.995104,1.000000,1.000000,0.096934,0.035857,0.704809,0.912611,0.858157,0.000000,2.000000
8,0.000003,0.009607,1.000000,0.316354,0.778783,0.000000,0.000000,0.734936,1.000000,1.000000,0.000000,0.000000,0.712197,1.000000,0.998241,0.257671,2.000000
9,0.000002,0.000000,1.000000,0.167717,0.800000,0.000000,0.030000,1.000000,2.000000,0.916202,0.053410,0.000000,0.711143,1.000000,0.919594,0.157786,1.000000
10,0.000002,0.000000,1.000000,0.167717,0.800000,0.000000,0.030000,1.000000,2.000000,0.916202,0.053410,0.000000,0.711143,1.000000,0.919594,0.157786,1.000000
11,0.000001,0.000000,0.976254,0.225173,0.813633,0.085472,0.000000,1.000000,0.000000,0.944115,0.049916,0.000000,0.732220,0.928745,0.902598,0.263036,0.000000
12,0.000001,0.000000,0.976254,0.225173,0.813633,0.085472,0.000000,1.000000,0.000000,0.944115,0.049916,0.000000,0.732220,0.928745,0.902598,0.263036,0.000000
13,0.000001,0.000000,0.976254,0.225173,0.813633,0.085472,0.000000,1.000000,0.000000,0.944115,0.049916,0.000000,0.732220,0.928745,0.902598,0.263036,0.000000
14,0.000001,0.000000,0.976254,0.225173,0.813633,0.085472,0.000000,1.000000,0.000000,0.944115,0.049916,0.000000,0.732220,0.928745,0.902598,0.263036,0.000000
gen, fitness
0,0.011091,0.000000,1.000000,0.210000,0.800000,0.030000,0.030000,1.000000,0.000000,1.000000,0.000000,0.000000,0.600000,1.000000,1.000000,0.000000,0.000000
1,0.011091,0.000000,1.000000,0.210000,0.800000,0.030000,0.030000,1.000000,0.000000,1.000000,0.000000,0.000000,0.600000,1.000000,1.000000,0.000000,0.000000
2,0.000325,0.000000,1.000000,0.000000,0.800000,0.211878,0.030000,0.980717,0.000000,1.000000,0.054553,0.058004,0.600000,1.000000,0.992747,0.000000,0.000000
3,0.000070,0.000000,0.945795,0.116529,0.800000,0.000000,0.030000,1.000000,0.000000,1.000000,0.000000,0.066111,0.666496,0.915780,1.000000,0.000000,0.000000
4,0.000000,0.034106,0.880753,0.247643,0.693485,0.000000,0.030000,1.000000,1.000000,0.950687,0.002747,0.100302,0.600000,0.994982,0.887850,0.000000,1.000000
gen, fitness
0,0.020988,0.000000,1.000000,0.210000,0.800000,0.030000,0.030000,1.000000,0.000000,1.000000,0.000000,0.000000,0.600000,1.000000,1.000000,0.000000,0.000000
1,0.020988,0.000000,1.000000,0.210000,0.800000,0.030000,0.030000,1.000000,0.000000,1.000000,0.000000,0.000000,0.600000,1.000000,1.000000,0.000000,0.000000
2,0.010021,0.000000,1.000000,0.286682,0.800000,0.030000,0.030958,1.000000,0.000000,1.000000,0.030882,0.192849,0.649975,1.000000,1.000000,0.000000,0.000000
3,0.006794,0.000000,1.000000,0.383265,0.800000,0.000000,0.030000,1.000000,1.000000,0.930126,0.000000,0.083451,0.737880,0.935710,1.000000,0.000000,1.000000
4,0.006794,0.000000,1.000000,0.383265,0.800000,0.000000,0.030000,1.000000,1.000000,0.930126,0.000000,0.083451,0.737880,0.935710,1.000000,0.000000,1.000000
5,0.004650,0.034858,1.000000,0.189450,0.925840,0.196128,0.047499,1.000000,0.000000,1.000000,0.000000,0.274937,0.818883,1.000000,1.000000,0.085241,2.000000
6,0.003596,0.000000,0.899989,0.228607,0.910008,0.032236,0.000000,0.907958,2.000000,1.000000,0.000000,0.307299,0.791927,1.000000,1.000000,0.072109,2.000000
7,0.002615,0.000000,0.826683,0.334779,0.925840,0.357857,0.003895,1.000000,2.000000,1.000000,0.056312,0.398895,0.840044,1.000000,1.000000,0.072109,2.000000
8,0.002038,0.000000,0.847964,0.403680,0.925840,0.357857,0.000000,1.000000,2.000000,0.852017,0.011597,0.398895,0.840044,1.000000,1.000000,0.022391,1.000000
9,0.001794,0.000000,1.000000,0.383265,1.000000,0.421727,0.003895,1.000000,2.000000,0.954984,0.056312,0.319444,0.933592,0.960296,1.000000,0.072109,1.000000
10,0.001133,0.138984,0.851598,0.508031,0.953692,0.357857,0.000000,0.970803,1.000000,0.852017,0.011597,0.398895,0.913681,1.000000,1.000000,0.005304,2.000000
11,0.000955,0.000000,1.000000,0.371593,1.000000,0.562826,0.003895,1.000000,2.000000,0.954984,0.056312,0.431838,0.933592,0.960296,1.000000,0.342064,0.000000
12,0.000685,0.000000,0.826683,0.554143,0.976713,0.393724,0.017267,1.000000,2.000000,1.000000,0.000000,0.386217,0.933592,0.923656,0.922669,0.072109,2.000000
13,0.000518,0.091066,1.000000,0.368129,1.000000,0.339475,0.003895,1.000000,2.000000,0.805318,0.000000,0.778568,0.933592,1.000000,0.922669,0.000000,2.000000
14,0.000514,0.091066,1.000000,0.368129,1.000000,0.339475,0.003895,1.000000,2.000000,0.805318,0.000000,0.809646,0.933592,0.972355,0.912357,0.022391,2.000000
15,0.000514,0.091066,1.000000,0.368129,1.000000,0.339475,0.003895,1.000000,2.000000,0.805318,0.000000,0.809646,0.933592,0.972355,0.912357,0.022391,2.000000
16,0.000141,0.102083,0.850548,0.606996,1.000000,0.492407,0.061986,1.000000,2.000000,0.747435,0.029917,0.402949,1.000000,0.934639,1.000000,0.335577,1.000000
17,0.000120,0.102083,0.850548,0.606996,1.000000,0.430171,0.061986,1.000000,2.000000,0.736989,0.029917,0.402949,1.000000,0.934639,1.000000,0.335577,2.000000
18,0.000120,0.102083,0.850548,0.606996,1.000000,0.430171,0.061986,1.000000,2.000000,0.736989,0.029917,0.402949,1.000000,0.934639,1.000000,0.335577,2.000000
19,0.000108,0.102083,0.850548,0.771280,1.000000,0.345232,0.003940,0.995762,2.000000,0.867920,0.100694,0.431838,1.000000,1.000000,1.000000,0.000000,2.000000
20,0.000100,0.000000,0.804616,0.640691,1.000000,0.235150,0.085617,1.000000,2.000000,0.736989,0.029917,0.402949,1.000000,0.934639,1.000000,0.335577,2.000000
21,0.000100,0.000000,0.804616,0.640691,1.000000,0.235150,0.085617,1.000000,2.000000,0.736989,0.029917,0.402949,1.000000,0.934639,1.000000,0.335577,2.000000
22,0.000071,0.102083,0.850548,0.771280,1.000000,0.345232,0.003940,1.000000,2.000000,0.867920,0.100694,0.554479,1.000000,1.000000,1.000000,0.335577,2.000000
23,0.000069,0.000000,0.807584,0.686964,1.000000,0.159207,0.232884,0.983768,2.000000,0.736989,0.363060,0.430902,1.000000,0.973713,0.753205,0.517688,1.000000
24,0.000069,0.000000,0.807584,0.686964,1.000000,0.159207,0.232884,0.983768,2.000000,0.736989,0.363060,0.430902,1.000000,0.973713,0.753205,0.517688,1.000000
25,0.000069,0.000000,0.807584,0.686964,1.000000,0.159207,0.232884,0.983768,2.000000,0.736989,0.363060,0.430902,1.000000,0.973713,0.753205,0.517688,1.000000
26,0.000068,0.042654,0.850548,0.760443,1.000000,0.247576,0.113444,0.874212,2.000000,0.735548,0.081458,0.532790,1.000000,0.781071,0.962165,0.336076,2.000000
27,0.000034,0.000000,0.780193,0.686964,1.000000,0.103299,0.232884,0.983768,2.000000,0.601507,0.500374,0.497647,1.000000,0.973713,0.686966,0.517688,2.000000
28,0.000034,0.000000,0.780193,0.686964,1.000000,0.103299,0.232884,0.983768,2.000000,0.601507,0.500374,0.497647,1.000000,0.973713,0.686966,0.517688,2.000000
29,0.000034,0.000000,0.780193,0.686964,1.000000,0.103299,0.232884,0.983768,2.000000,0.601507,0.500374,0.497647,1.000000,0.973713,0.686966,0.517688,2.000000
30,0.000030,0.000000,0.780193,0.686964,1.000000,0.103299,0.232884,1.000000,2.000000,0.601507,0.375105,0.497647,1.000000,0.973713,0.686966,0.517688,2.000000
31,0.000030,0.000000,0.780193,0.686964,1.000000,0.103299,0.232884,1.000000,2.000000,0.601507,0.375105,0.497647,1.000000,0.973713,0.686966,0.517688,2.000000
32,0.000016,0.000000,0.414185,0.813248,1.000000,0.242222,0.230411,0.956582,2.000000,0.702437,0.034442,0.554479,1.000000,1.000000,0.573371,0.610209,2.000000
33,0.000016,0.000000,0.414185,0.813248,1.000000,0.242222,0.230411,0.956582,2.000000,0.702437,0.034442,0.554479,1.000000,1.000000,0.573371,0.610209,2.000000
34,0.000015,0.026491,0.771740,0.830986,1.000000,0.000000,0.664263,1.000000,2.000000,0.743302,0.324435,0.524551,1.000000,0.922841,0.512036,0.512520,2.000000
35,0.000006,0.000000,0.794792,0.686964,1.000000,0.103299,0.232884,1.000000,2.000000,0.398629,0.414570,0.820960,1.000000,0.990472,0.699435,0.473124,0.000000
36,0.000006,0.000000,0.794792,0.686964,1.000000,0.103299,0.232884,1.000000,2.000000,0.398629,0.414570,0.820960,1.000000,0.990472,0.699435,0.473124,0.000000
37,0.000005,0.000000,0.261766,0.856769,1.000000,0.242222,0.179054,1.000000,2.000000,0.660181,0.029823,0.652909,1.000000,1.000000,0.452860,0.512520,2.000000
38,0.000004,0.000000,0.794792,0.686964,1.000000,0.208655,0.232884,1.000000,2.000000,0.370626,0.414570,0.845593,1.000000,0.951827,0.699435,0.473124,0.000000
39,0.000001,0.000000,0.703139,0.686964,1.000000,0.151901,0.427706,1.000000,2.000000,0.280543,0.322836,0.820960,1.000000,0.878479,0.286328,0.610209,0.000000
