gen, fitness
0,0.013430,0.000000,1.000000,0.210000,0.800000,0.030000,0.030000,1.000000,0.000000,1.000000,0.000000,0.000000,0.600000,1.000000,1.000000,0.000000,0.000000
1,0.013430,0.000000,1.000000,0.210000,0.800000,0.030000,0.030000,1.000000,0.000000,1.000000,0.000000,0.000000,0.600000,1.000000,1.000000,0.000000,0.000000
2,0.000039,0.000000,1.000000,0.086520,0.702170,0.052354,0.030000,0.696823,2.000000,0.869870,0.000000,0.000000,0.600000,1.000000,0.901603,0.000000,1.000000
3,0.000039,0.000000,1.000000,0.086520,0.702170,0.052354,0.030000,0.696823,2.000000,0.869870,0.000000,0.000000,0.600000,1.000000,0.901603,0.000000,1.000000
4,0.000039,0.000000,1.000000,0.086520,0.702170,0.052354,0.030000,0.696823,2.000000,0.869870,0.000000,0.000000,0.600000,1.000000,0.901603,0.000000,1.000000
5,0.000039,0.000000,1.000000,0.086520,0.702170,0.052354,0.030000,0.696823,2.000000,0.869870,0.000000,0.000000,0.600000,1.000000,0.901603,0.000000,1.000000
6,0.000008,0.265529,1.000000,0.109571,0.633235,0.005373,0.406709,0.939945,1.000000,0.712179,0.452804,0.000000,0.638010,0.865651,0.812208,0.000000,2.000000
7,0.000008,0.265529,1.000000,0.109571,0.633235,0.005373,0.406709,0.939945,1.000000,0.712179,0.452804,0.000000,0.638010,0.865651,0.812208,0.000000,2.000000
8,0.000008,0.265529,1.000000,0.109571,0.633235,0.005373,0.406709,0.939945,1.000000,0.712179,0.452804,0.000000,0.638010,0.865651,0.812208,0.000000,2.000000
9,0.000008,0.265529,1.000000,0.109571,0.633235,0.005373,0.406709,0.939945,1.000000,0.712179,0.452804,0.000000,0.638010,0.865651,0.812208,0.000000,2.000000
10,0.000008,0.265529,1.000000,0.109571,0.633235,0.005373,0.406709,0.939945,1.000000,0.712179,0.452804,0.000000,0.638010,0.865651,0.812208,0.000000,2.000000
11,0.000008,0.265529,1.000000,0.109571,0.633235,0.005373,0.406709,0.939945,1.000000,0.712179,0.452804,0.000000,0.638010,0.865651,0.812208,0.000000,2.000000
12,0.000008,0.265529,1.000000,0.109571,0.633235,0.005373,0.406709,0.939945,1.000000,0.712179,0.452804,0.000000,0.638010,0.865651,0.812208,0.000000,2.000000
13,0.000008,0.265529,1.000000,0.109571,0.633235,0.005373,0.406709,0.939945,1.000000,0.712179,0.452804,0.000000,0.638010,0.865651,0.812208,0.000000,2.000000
14,0.000008,0.265529,1.000000,0.109571,0.633235,0.005373,0.406709,0.939945,1.000000,0.712179,0.452804,0.000000,0.638010,0.865651,0.812208,0.000000,2.000000
15,0.000008,0.265529,1.000000,0.109571,0.633235,0.005373,0.406709,0.939945,1.000000,0.712179,0.452804,0.000000,0.638010,0.865651,0.812208,0.000000,2.000000
16,0.000006,0.000000,0.632081,0.075869,0.748767,0.174480,0.046222,0.929554,0.000000,1.000000,0.122045,0.000000,0.604238,1.000000,0.856624,0.000000,0.000000
gen, fitness
0,0.034276,0.000000,1.000000,0.210000,0.800000,0.030000,0.030000,1.000000,0.000000,1.000000,0.000000,0.000000,0.600000,1.000000,1.000000,0.000000,0.000000
1,0.034276,0.000000,1.000000,0.210000,0.800000,0.030000,0.030000,1.000000,0.000000,1.000000,0.000000,0.000000,0.600000,1.000000,1.000000,0.000000,0.000000
2,0.016164,0.000000,1.000000,0.144561,0.864721,0.105034,0.030000,0.874443,0.000000,1.000000,0.000000,0.000000,0.797103,1.000000,1.000000,0.036276,1.000000
3,0.013775,0.000000,0.902277,0.239405,0.891380,0.135315,0.198558,1.000000,0.000000,1.000000,0.069705,0.080364,0.793808,1.000000,1.000000,0.000000,0.000000
4,0.008532,0.000000,1.000000,0.362135,0.913789,0.025557,0.222110,1.000000,0.000000,0.995795,0.174878,0.000000,0.886368,0.708846,1.000000,0.000000,1.000000
5,0.003730,0.000000,0.907764,0.232801,1.000000,0.197363,0.130198,1.000000,2.000000,1.000000,0.208969,0.080364,0.978812,0.708846,1.000000,0.000000,1.000000
6,0.003661,0.000000,0.971520,0.012297,1.000000,0.000000,0.257353,0.815056,1.000000,0.476906,0.000000,0.190643,0.986991,0.912808,0.979313,0.036659,1.000000
7,0.002483,0.000000,1.000000,0.458247,1.000000,0.374485,0.142653,1.000000,1.000000,0.690982,0.017709,0.296804,1.000000,0.570592,1.000000,0.161883,1.000000
8,0.002412,0.000000,1.000000,0.541788,1.000000,0.331073,0.142653,1.000000,2.000000,0.801415,0.000000,0.307894,1.000000,0.629177,1.000000,0.031137,1.000000
9,0.002153,0.000000,0.969867,0.610675,1.000000,0.344398,0.142653,0.874660,0.000000,0.768191,0.004444,0.411417,1.000000,0.516558,0.601791,0.230399,2.000000
10,0.001812,0.027199,0.885721,0.686340,1.000000,0.382421,0.089082,0.674077,2.000000,0.768191,0.000000,0.591736,1.000000,0.561378,0.462241,0.229781,1.000000
11,0.001626,0.104485,0.885721,0.686340,1.000000,0.225263,0.000000,0.600435,1.000000,0.810432,0.081533,0.601920,1.000000,0.599091,0.534436,0.229781,2.000000
12,0.001626,0.104485,0.885721,0.686340,1.000000,0.225263,0.000000,0.600435,1.000000,0.810432,0.081533,0.601920,1.000000,0.599091,0.534436,0.229781,2.000000
13,0.001485,0.115222,1.000000,0.593443,1.000000,0.358144,0.000000,0.606090,2.000000,0.614002,0.000000,0.611892,1.000000,0.513706,0.353967,0.363463,2.000000
14,0.001219,0.104485,0.885721,0.686340,1.000000,0.146794,0.000000,0.714747,2.000000,0.761789,0.081533,0.725958,1.000000,0.470192,0.432332,0.229781,2.000000
15,0.001085,0.092066,0.633884,0.440153,1.000000,0.223855,0.182029,1.000000,2.000000,0.482122,0.000000,1.000000,0.984675,0.542029,0.797464,0.000000,2.000000
16,0.001085,0.092066,0.633884,0.440153,1.000000,0.223855,0.182029,1.000000,2.000000,0.482122,0.000000,1.000000,0.984675,0.542029,0.797464,0.000000,2.000000
17,0.000894,0.027973,0.933610,0.687126,1.000000,0.275073,0.099145,0.949127,1.000000,0.335278,0.103175,1.000000,1.000000,0.704636,0.979435,0.037235,2.000000
18,0.000894,0.027973,0.933610,0.687126,1.000000,0.275073,0.099145,0.949127,1.000000,0.335278,0.103175,1.000000,1.000000,0.704636,0.979435,0.037235,2.000000
19,0.000894,0.027973,0.933610,0.687126,1.000000,0.275073,0.099145,0.949127,1.000000,0.335278,0.103175,1.000000,1.000000,0.704636,0.979435,0.037235,2.000000
20,0.000894,0.027973,0.933610,0.687126,1.000000,0.275073,0.099145,0.949127,1.000000,0.335278,0.103175,1.000000,1.000000,0.704636,0.979435,0.037235,2.000000
21,0.000894,0.027973,0.933610,0.687126,1.000000,0.275073,0.099145,0.949127,1.000000,0.335278,0.103175,1.000000,1.000000,0.704636,0.979435,0.037235,2.000000
22,0.000808,0.289730,0.995061,0.652370,1.000000,0.540479,0.235538,0.719491,2.000000,0.919573,0.000000,1.000000,1.000000,0.900509,0.966908,0.586846,2.000000
23,0.000808,0.289730,0.995061,0.652370,1.000000,0.540479,0.235538,0.719491,2.000000,0.919573,0.000000,1.000000,1.000000,0.900509,0.966908,0.586846,2.000000
24,0.000808,0.289730,0.995061,0.652370,1.000000,0.540479,0.235538,0.719491,2.000000,0.919573,0.000000,1.000000,1.000000,0.900509,0.966908,0.586846,2.000000
25,0.000736,0.060191,0.993756,0.691600,1.000000,0.418148,0.100301,1.000000,2.000000,0.484017,0.000000,1.000000,1.000000,0.605710,0.898759,0.271582,2.000000
26,0.000736,0.060191,0.993756,0.691600,1.000000,0.418148,0.100301,1.000000,2.000000,0.484017,0.000000,1.000000,1.000000,0.605710,0.898759,0.271582,2.000000
27,0.000736,0.060191,0.993756,0.691600,1.000000,0.418148,0.100301,1.000000,2.000000,0.484017,0.000000,1.000000,1.000000,0.605710,0.898759,0.271582,2.000000
28,0.000736,0.060191,0.993756,0.691600,1.000000,0.418148,0.100301,1.000000,2.000000,0.484017,0.000000,1.000000,1.000000,0.605710,0.898759,0.271582,2.000000
29,0.000736,0.060191,0.993756,0.691600,1.000000,0.418148,0.100301,1.000000,2.000000,0.484017,0.000000,1.000000,1.000000,0.605710,0.898759,0.271582,2.000000
30,0.000704,0.018270,0.993756,0.691600,1.000000,0.534616,0.169310,0.956551,2.000000,0.482174,0.000000,1.000000,1.000000,0.605710,0.898759,0.377857,2.000000
31,0.000704,0.018270,0.993756,0.691600,1.000000,0.534616,0.169310,0.956551,2.000000,0.482174,0.000000,1.000000,1.000000,0.605710,0.898759,0.377857,2.000000
32,0.000704,0.018270,0.993756,0.691600,1.000000,0.534616,0.169310,0.956551,2.000000,0.482174,0.000000,1.000000,1.000000,0.605710,0.898759,0.377857,2.000000
33,0.000704,0.018270,0.993756,0.691600,1.000000,0.534616,0.169310,0.956551,2.000000,0.482174,0.000000,1.000000,1.000000,0.605710,0.898759,0.377857,2.000000
34,0.000704,0.018270,0.993756,0.691600,1.000000,0.534616,0.169310,0.956551,2.000000,0.482174,0.000000,1.000000,1.000000,0.605710,0.898759,0.377857,2.000000
35,0.000704,0.018270,0.993756,0.691600,1.000000,0.534616,0.169310,0.956551,2.000000,0.482174,0.000000,1.000000,1.000000,0.605710,0.898759,0.377857,2.000000
36,0.000685,0.000000,0.651864,1.000000,1.000000,0.380703,0.284731,1.000000,2.000000,1.000000,0.269364,0.949797,1.000000,0.598847,0.691341,0.686826,2.000000
37,0.000685,0.000000,0.651864,1.000000,1.000000,0.380703,0.284731,1.000000,2.000000,1.000000,0.269364,0.949797,1.000000,0.598847,0.691341,0.686826,2.000000
38,0.000631,0.000000,0.993679,0.839479,1.000000,0.391345,0.041281,0.521637,2.000000,0.827548,0.148790,1.000000,1.000000,1.000000,0.691341,0.725730,2.000000
39,0.000631,0.000000,0.993679,0.839479,1.000000,0.391345,0.041281,0.521637,2.000000,0.827548,0.148790,1.000000,1.000000,1.000000,0.691341,0.725730,2.000000
40,0.000604,0.000000,0.898852,0.600918,1.000000,0.369002,0.148242,0.924011,2.000000,0.287071,0.132305,1.000000,1.000000,0.817330,0.925826,0.695363,2.000000
41,0.000604,0.000000,0.898852,0.600918,1.000000,0.369002,0.148242,0.924011,2.000000,0.287071,0.132305,1.000000,1.000000,0.817330,0.925826,0.695363,2.000000
42,0.000597,0.079942,0.987876,0.601406,1.000000,0.439524,0.000000,0.960706,2.000000,0.461045,0.130606,1.000000,1.000000,0.668318,0.905293,0.669309,2.000000
43,0.000597,0.079942,0.987876,0.601406,1.000000,0.439524,0.000000,0.960706,2.000000,0.461045,0.130606,1.000000,1.000000,0.668318,0.905293,0.669309,2.000000
44,0.000597,0.079942,0.987876,0.601406,1.000000,0.439524,0.000000,0.960706,2.000000,0.461045,0.130606,1.000000,1.000000,0.668318,0.905293,0.669309,2.000000
45,0.000597,0.079942,0.987876,0.601406,1.000000,0.439524,0.000000,0.960706,2.000000,0.461045,0.130606,1.000000,1.000000,0.668318,0.905293,0.669309,2.000000
46,0.000597,0.079942,0.987876,0.601406,1.000000,0.439524,0.000000,0.960706,2.000000,0.461045,0.130606,1.000000,1.000000,0.668318,0.905293,0.669309,2.000000
47,0.000597,0.079942,0.987876,0.601406,1.000000,0.439524,0.000000,0.960706,2.000000,0.461045,0.130606,1.000000,1.000000,0.668318,0.905293,0.669309,2.000000
48,0.000597,0.079942,0.987876,0.601406,1.000000,0.439524,0.000000,0.960706,2.000000,0.461045,0.130606,1.000000,1.000000,0.668318,0.905293,0.669309,2.000000
49,0.000597,0.079942,0.987876,0.601406,1.000000,0.439524,0.000000,0.960706,2.000000,0.461045,0.130606,1.000000,1.000000,0.668318,0.905293,0.669309,2.000000
50,0.000597,0.079942,0.987876,0.601406,1.000000,0.439524,0.000000,0.960706,2.000000,0.461045,0.130606,1.000000,1.000000,0.668318,0.905293,0.669309,2.000000
gen, fitness
0,0.044384,0.000000,1.000000,0.210000,0.800000,0.030000,0.030000,1.000000,0.000000,1.000000,0.000000,0.000000,0.600000,1.000000,1.000000,0.000000,0.000000
1,0.044384,0.000000,1.000000,0.210000,0.800000,0.030000,0.030000,1.000000,0.000000,1.000000,0.000000,0.000000,0.600000,1.000000,1.000000,0.000000,0.000000
2,0.025001,0.000000,0.990784,0.232583,0.800000,0.000000,0.277246,1.000000,2.000000,0.921010,0.000000,0.036643,0.766943,0.956444,1.000000,0.000000,2.000000
3,0.016265,0.000000,0.914551,0.200315,0.947544,0.000000,0.073848,0.994881,0.000000,1.000000,0.103893,0.000000,0.891390,0.914104,0.946324,0.000000,2.000000
4,0.016265,0.000000,0.914551,0.200315,0.947544,0.000000,0.073848,0.994881,0.000000,1.000000,0.103893,0.000000,0.891390,0.914104,0.946324,0.000000,2.000000
5,0.012381,0.000000,0.639216,0.245676,1.000000,0.421237,0.000000,0.931180,1.000000,0.894540,0.395660,0.005868,1.000000,0.954246,0.941952,0.011318,0.000000
6,0.011901,0.000000,0.847906,0.235992,1.000000,0.000000,0.112358,0.884241,0.000000,0.668600,0.214863,0.141355,1.000000,0.921797,0.946324,0.000000,1.000000
7,0.009401,0.022719,0.645997,0.364497,1.000000,0.000000,0.171959,0.878159,2.000000,0.668600,0.411333,0.091532,1.000000,0.964968,0.873772,0.000000,2.000000
8,0.009401,0.022719,0.645997,0.364497,1.000000,0.000000,0.171959,0.878159,2.000000,0.668600,0.411333,0.091532,1.000000,0.964968,0.873772,0.000000,2.000000
9,0.008656,0.020958,0.845311,0.479218,1.000000,0.000000,0.198802,1.000000,2.000000,0.780646,0.000000,0.251403,1.000000,1.000000,1.000000,0.000000,2.000000
10,0.008579,0.179514,1.000000,0.543665,1.000000,0.010105,0.190040,1.000000,2.000000,0.622301,0.439284,0.459427,1.000000,0.901607,0.863298,0.360843,1.000000
11,0.008082,0.051273,0.990340,0.606170,1.000000,0.000000,0.042722,0.970599,2.000000,0.799795,0.000000,0.444381,1.000000,0.981455,1.000000,0.203325,2.000000
12,0.008082,0.051273,0.990340,0.606170,1.000000,0.000000,0.042722,0.970599,2.000000,0.799795,0.000000,0.444381,1.000000,0.981455,1.000000,0.203325,2.000000
13,0.008082,0.051273,0.990340,0.606170,1.000000,0.000000,0.042722,0.970599,2.000000,0.799795,0.000000,0.444381,1.000000,0.981455,1.000000,0.203325,2.000000
14,0.007874,0.000000,0.954836,0.643324,1.000000,0.092361,0.023578,1.000000,1.000000,0.511744,0.219604,0.610288,1.000000,1.000000,1.000000,0.174222,2.000000
15,0.007757,0.115515,0.962566,0.520027,1.000000,0.029585,0.021465,0.908524,2.000000,0.523990,0.383996,0.641488,1.000000,0.835059,0.963716,0.397062,2.000000
16,0.007624,0.000000,0.819698,0.847610,1.000000,0.000000,0.011712,1.000000,1.000000,0.475520,0.234564,0.762306,1.000000,0.919655,1.000000,0.329467,2.000000
17,0.007476,0.092587,0.822452,1.000000,0.955780,0.000000,0.000000,1.000000,1.000000,0.226317,0.453958,0.577430,1.000000,0.726850,0.818498,0.444140,2.000000
18,0.007329,0.144554,1.000000,0.578810,1.000000,0.000000,0.000000,1.000000,2.000000,0.399793,0.080642,0.825349,1.000000,0.883036,0.716945,0.143997,2.000000
19,0.007329,0.144554,1.000000,0.578810,1.000000,0.000000,0.000000,1.000000,2.000000,0.399793,0.080642,0.825349,1.000000,0.883036,0.716945,0.143997,2.000000
20,0.007329,0.144554,1.000000,0.578810,1.000000,0.000000,0.000000,1.000000,2.000000,0.399793,0.080642,0.825349,1.000000,0.883036,0.716945,0.143997,2.000000
21,0.007329,0.144554,1.000000,0.578810,1.000000,0.000000,0.000000,1.000000,2.000000,0.399793,0.080642,0.825349,1.000000,0.883036,0.716945,0.143997,2.000000
22,0.007329,0.144554,1.000000,0.578810,1.000000,0.000000,0.000000,1.000000,2.000000,0.399793,0.080642,0.825349,1.000000,0.883036,0.716945,0.143997,2.000000
23,0.007134,0.000000,0.814379,0.880410,1.000000,0.000000,0.224473,0.990713,1.000000,0.380120,0.030957,1.000000,1.000000,0.851626,0.708736,0.055273,2.000000
24,0.007134,0.000000,0.814379,0.880410,1.000000,0.000000,0.224473,0.990713,1.000000,0.380120,0.030957,1.000000,1.000000,0.851626,0.708736,0.055273,2.000000
25,0.007134,0.000000,0.814379,0.880410,1.000000,0.000000,0.224473,0.990713,1.000000,0.380120,0.030957,1.000000,1.000000,0.851626,0.708736,0.055273,2.000000
26,0.006912,0.019153,0.747463,0.766151,0.993257,0.000000,0.097594,0.945769,2.000000,0.279601,0.000000,1.000000,1.000000,0.768907,0.788486,0.043242,2.000000
27,0.006912,0.019153,0.747463,0.766151,0.993257,0.000000,0.097594,0.945769,2.000000,0.279601,0.000000,1.000000,1.000000,0.768907,0.788486,0.043242,2.000000
28,0.006912,0.019153,0.747463,0.766151,0.993257,0.000000,0.097594,0.945769,2.000000,0.279601,0.000000,1.000000,1.000000,0.768907,0.788486,0.043242,2.000000
29,0.006912,0.019153,0.747463,0.766151,0.993257,0.000000,0.097594,0.945769,2.000000,0.279601,0.000000,1.000000,1.000000,0.768907,0.788486,0.043242,2.000000
30,0.006758,0.000000,0.837254,0.894592,0.969892,0.000000,0.155231,1.000000,2.000000,0.304143,0.115606,0.948541,1.000000,1.000000,0.956950,0.725190,2.000000
31,0.006758,0.000000,0.837254,0.894592,0.969892,0.000000,0.155231,1.000000,2.000000,0.304143,0.115606,0.948541,1.000000,1.000000,0.956950,0.725190,2.000000
32,0.006758,0.000000,0.837254,0.894592,0.969892,0.000000,0.155231,1.000000,2.000000,0.304143,0.115606,0.948541,1.000000,1.000000,0.956950,0.725190,2.000000
33,0.006758,0.000000,0.837254,0.894592,0.969892,0.000000,0.155231,1.000000,2.000000,0.304143,0.115606,0.948541,1.000000,1.000000,0.956950,0.725190,2.000000
34,0.006758,0.000000,0.837254,0.894592,0.969892,0.000000,0.155231,1.000000,2.000000,0.304143,0.115606,0.948541,1.000000,1.000000,0.956950,0.725190,2.000000
35,0.006758,0.000000,0.837254,0.894592,0.969892,0.000000,0.155231,1.000000,2.000000,0.304143,0.115606,0.948541,1.000000,1.000000,0.956950,0.725190,2.000000
36,0.006604,0.000000,0.861673,0.968020,0.975414,0.052544,0.245561,1.000000,2.000000,0.401783,0.068467,0.980144,1.000000,1.000000,1.000000,0.759232,2.000000
37,0.006604,0.000000,0.861673,0.968020,0.975414,0.052544,0.245561,1.000000,2.000000,0.401783,0.068467,0.980144,1.000000,1.000000,1.000000,0.759232,2.000000
38,0.006604,0.000000,0.861673,0.968020,0.975414,0.052544,0.245561,1.000000,2.000000,0.401783,0.068467,0.980144,1.000000,1.000000,1.000000,0.759232,2.000000
39,0.006604,0.000000,0.861673,0.968020,0.975414,0.052544,0.245561,1.000000,2.000000,0.401783,0.068467,0.980144,1.000000,1.000000,1.000000,0.759232,2.000000
40,0.006604,0.000000,0.861673,0.968020,0.975414,0.052544,0.245561,1.000000,2.000000,0.401783,0.068467,0.980144,1.000000,1.000000,1.000000,0.759232,2.000000
41,0.006604,0.000000,0.861673,0.968020,0.975414,0.052544,0.245561,1.000000,2.000000,0.401783,0.068467,0.980144,1.000000,1.000000,1.000000,0.759232,2.000000
42,0.006472,0.000000,0.823266,0.908955,0.983410,0.041024,0.036510,1.000000,2.000000,0.277159,0.142416,0.859638,1.000000,1.000000,0.000000,0.768539,2.000000
43,0.006365,0.000000,0.741754,1.000000,0.986254,0.164110,0.195608,1.000000,2.000000,0.400808,0.000000,1.000000,1.000000,1.000000,0.262489,0.913092,2.000000
44,0.006365,0.000000,0.741754,1.000000,0.986254,0.164110,0.195608,1.000000,2.000000,0.400808,0.000000,1.000000,1.000000,1.000000,0.262489,0.913092,2.000000
45,0.006365,0.000000,0.741754,1.000000,0.986254,0.164110,0.195608,1.000000,2.000000,0.400808,0.000000,1.000000,1.000000,1.000000,0.262489,0.913092,2.000000
46,0.006365,0.000000,0.741754,1.000000,0.986254,0.164110,0.195608,1.000000,2.000000,0.400808,0.000000,1.000000,1.000000,1.000000,0.262489,0.913092,2.000000
47,0.006365,0.000000,0.741754,1.000000,0.986254,0.164110,0.195608,1.000000,2.000000,0.400808,0.000000,1.000000,1.000000,1.000000,0.262489,0.913092,2.000000
48,0.006365,0.000000,0.741754,1.000000,0.986254,0.164110,0.195608,1.000000,2.000000,0.400808,0.000000,1.000000,1.000000,1.000000,0.262489,0.913092,2.000000
49,0.006344,0.029837,0.914603,1.000000,0.974958,0.000000,0.506854,1.000000,2.000000,0.144691,0.119591,1.000000,1.000000,0.899916,0.018861,0.969424,1.000000
50,0.006344,0.029837,0.914603,1.000000,0.974958,0.000000,0.506854,1.000000,2.000000,0.144691,0.119591,1.000000,1.000000,0.899916,0.018861,0.969424,1.000000
51,0.006344,0.029837,0.914603,1.000000,0.974958,0.000000,0.506854,1.000000,2.000000,0.144691,0.119591,1.000000,1.000000,0.899916,0.018861,0.969424,1.000000
52,0.006344,0.029837,0.914603,1.000000,0.974958,0.000000,0.506854,1.000000,2.000000,0.144691,0.119591,1.000000,1.000000,0.899916,0.018861,0.969424,1.000000
53,0.006344,0.029837,0.914603,1.000000,0.974958,0.000000,0.506854,1.000000,2.000000,0.144691,0.119591,1.000000,1.000000,0.899916,0.018861,0.969424,1.000000
54,0.006344,0.029837,0.914603,1.000000,0.974958,0.000000,0.506854,1.000000,2.000000,0.144691,0.119591,1.000000,1.000000,0.899916,0.018861,0.969424,1.000000
55,0.006344,0.029837,0.914603,1.000000,0.974958,0.000000,0.506854,1.000000,2.000000,0.144691,0.119591,1.000000,1.000000,0.899916,0.018861,0.969424,1.000000
56,0.006344,0.029837,0.914603,1.000000,0.974958,0.000000,0.506854,1.000000,2.000000,0.144691,0.119591,1.000000,1.000000,0.899916,0.018861,0.969424,1.000000
57,0.006344,0.029837,0.914603,1.000000,0.974958,0.000000,0.506854,1.000000,2.000000,0.144691,0.119591,1.000000,1.000000,0.899916,0.018861,0.969424,1.000000
58,0.006344,0.029837,0.914603,1.000000,0.974958,0.000000,0.506854,1.000000,2.000000,0.144691,0.119591,1.000000,1.000000,0.899916,0.018861,0.969424,1.000000
59,0.006344,0.029837,0.914603,1.000000,0.974958,0.000000,0.506854,1.000000,2.000000,0.144691,0.119591,1.000000,1.000000,0.899916,0.018861,0.969424,1.000000
gen, fitness
0,0.006335,0.000000,1.000000,0.210000,0.800000,0.030000,0.030000,1.000000,0.000000,1.000000,0.000000,0.000000,0.600000,1.000000,1.000000,0.000000,0.000000
1,0.006335,0.000000,1.000000,0.210000,0.800000,0.030000,0.030000,1.000000,0.000000,1.000000,0.000000,0.000000,0.600000,1.000000,1.000000,0.000000,0.000000
2,0.000098,0.000000,1.000000,0.286629,0.677579,0.030000,0.030000,0.991332,2.000000,0.893032,0.000000,0.086632,0.579485,1.000000,1.000000,0.000000,0.000000
3,0.000072,0.021405,0.980785,0.087194,0.762635,0.099908,0.044281,1.000000,2.000000,0.856803,0.182428,0.073196,0.594841,1.000000,0.940903,0.180297,0.000000
4,0.000045,0.103957,0.975910,0.170967,0.800000,0.000000,0.145049,0.962703,0.000000,1.000000,0.030199,0.054178,0.685643,1.000000,1.000000,0.000000,0.000000
5,0.000004,0.000000,1.000000,0.087492,0.775007,0.054648,0.293579,0.960857,2.000000,0.866658,0.108273,0.326587,0.476736,1.000000,1.000000,0.068434,1.000000
6,0.000004,0.000000,1.000000,0.087492,0.775007,0.054648,0.293579,0.960857,2.000000,0.866658,0.108273,0.326587,0.476736,1.000000,1.000000,0.068434,1.000000
7,0.000004,0.000000,1.000000,0.087492,0.775007,0.054648,0.293579,0.960857,2.000000,0.866658,0.108273,0.326587,0.476736,1.000000,1.000000,0.068434,1.000000
8,0.000004,0.000000,1.000000,0.087492,0.775007,0.054648,0.293579,0.960857,2.000000,0.866658,0.108273,0.326587,0.476736,1.000000,1.000000,0.068434,1.000000
9,0.000004,0.000000,1.000000,0.087492,0.775007,0.054648,0.293579,0.960857,2.000000,0.866658,0.108273,0.326587,0.476736,1.000000,1.000000,0.068434,1.000000
10,0.000004,0.000000,1.000000,0.087492,0.775007,0.054648,0.293579,0.960857,2.000000,0.866658,0.108273,0.326587,0.476736,1.000000,1.000000,0.068434,1.000000
11,0.000004,0.000000,1.000000,0.087492,0.775007,0.054648,0.293579,0.960857,2.000000,0.866658,0.108273,0.326587,0.476736,1.000000,1.000000,0.068434,1.000000
12,0.000004,0.000000,1.000000,0.087492,0.775007,0.054648,0.293579,0.960857,2.000000,0.866658,0.108273,0.326587,0.476736,1.000000,1.000000,0.068434,1.000000
13,0.000004,0.000000,1.000000,0.087492,0.775007,0.054648,0.293579,0.960857,2.000000,0.866658,0.108273,0.326587,0.476736,1.000000,1.000000,0.068434,1.000000
14,0.000004,0.000000,1.000000,0.087492,0.775007,0.054648,0.293579,0.960857,2.000000,0.866658,0.108273,0.326587,0.476736,1.000000,1.000000,0.068434,1.000000
15,0.000004,0.000000,1.000000,0.087492,0.775007,0.054648,0.293579,0.960857,2.000000,0.866658,0.108273,0.326587,0.476736,1.000000,1.000000,0.068434,1.000000
gen, fitness
0,0.018541,0.000000,1.000000,0.210000,0.800000,0.030000,0.030000,1.000000,0.000000,1.000000,0.000000,0.000000,0.600000,1.000000,1.000000,0.000000,0.000000
1,0.018541,0.000000,1.000000,0.210000,0.800000,0.030000,0.030000,1.000000,0.000000,1.000000,0.000000,0.000000,0.600000,1.000000,1.000000,0.000000,0.000000
2,0.003135,0.000000,0.986269,0.063276,0.925587,0.153356,0.189386,1.000000,2.000000,0.945998,0.000000,0.063945,0.802618,0.970527,1.000000,0.042286,2.000000
3,0.000867,0.140605,1.000000,0.397661,0.868245,0.347870,0.000000,0.905318,2.000000,1.000000,0.000000,0.170476,0.821310,1.000000,0.907905,0.000000,2.000000
4,0.000204,0.090705,0.955415,0.063276,1.000000,0.347776,0.333053,1.000000,1.000000,1.000000,0.019750,0.172806,0.941273,0.877077,1.000000,0.157114,1.000000
5,0.000050,0.235294,1.000000,0.517404,0.923182,0.167639,0.090231,0.987595,2.000000,1.000000,0.025190,0.093692,0.935501,0.987283,0.824512,0.110969,1.000000
6,0.000050,0.235294,1.000000,0.517404,0.923182,0.167639,0.090231,0.987595,2.000000,1.000000,0.025190,0.093692,0.935501,0.987283,0.824512,0.110969,1.000000
7,0.000050,0.235294,1.000000,0.517404,0.923182,0.167639,0.090231,0.987595,2.000000,1.000000,0.025190,0.093692,0.935501,0.987283,0.824512,0.110969,1.000000
8,0.000050,0.235294,1.000000,0.517404,0.923182,0.167639,0.090231,0.987595,2.000000,1.000000,0.025190,0.093692,0.935501,0.987283,0.824512,0.110969,1.000000
9,0.000050,0.235294,1.000000,0.517404,0.923182,0.167639,0.090231,0.987595,2.000000,1.000000,0.025190,0.093692,0.935501,0.987283,0.824512,0.110969,1.000000
10,0.000005,0.139911,0.681275,0.185363,1.000000,0.304132,0.476537,1.000000,0.000000,0.692363,0.180151,0.261426,0.963162,0.964871,0.961038,0.112830,0.000000
11,0.000005,0.139911,0.681275,0.185363,1.000000,0.304132,0.476537,1.000000,0.000000,0.692363,0.180151,0.261426,0.963162,0.964871,0.961038,0.112830,0.000000
12,0.000005,0.139911,0.681275,0.185363,1.000000,0.304132,0.476537,1.000000,0.000000,0.692363,0.180151,0.261426,0.963162,0.964871,0.961038,0.112830,0.000000
13,0.000005,0.139911,0.681275,0.185363,1.000000,0.304132,0.476537,1.000000,0.000000,0.692363,0.180151,0.261426,0.963162,0.964871,0.961038,0.112830,0.000000
14,0.000005,0.139911,0.681275,0.185363,1.000000,0.304132,0.476537,1.000000,0.000000,0.692363,0.180151,0.261426,0.963162,0.964871,0.961038,0.112830,0.000000
15,0.000000,0.190437,0.647609,0.276282,1.000000,0.402235,0.230592,1.000000,0.000000,0.833374,0.000000,0.003549,1.000000,0.988135,1.000000,0.079107,0.000000
gen, fitness
0,0.069293,0.000000,1.000000,0.210000,0.800000,0.030000,0.030000,1.000000,0.000000,1.000000,0.000000,0.000000,0.600000,1.000000,1.000000,0.000000,0.000000
1,0.069293,0.000000,1.000000,0.210000,0.800000,0.030000,0.030000,1.000000,0.000000,1.000000,0.000000,0.000000,0.600000,1.000000,1.000000,0.000000,0.000000
2,0.032420,0.000000,1.000000,0.126324,0.975373,0.017875,0.000000,1.000000,1.000000,0.970796,0.000000,0.000000,0.879649,1.000000,0.906781,0.120614,2.000000
3,0.030963,0.000000,1.000000,0.166037,0.888763,0.084909,0.000000,1.000000,2.000000,0.787017,0.096028,0.000000,0.846389,1.000000,0.848610,0.081154,2.000000
4,0.029604,0.030722,0.851204,0.062424,0.888783,0.217375,0.061891,0.675909,1.000000,0.994372,0.000000,0.000000,0.840516,0.959851,0.911467,0.048773,2.000000
5,0.016989,0.000000,0.814416,0.075987,1.000000,0.017875,0.059286,1.000000,2.000000,0.996205,0.038211,0.000000,1.000000,1.000000,0.906781,0.155054,0.000000
6,0.016989,0.000000,0.814416,0.075987,1.000000,0.017875,0.059286,1.000000,2.000000,0.996205,0.038211,0.000000,1.000000,1.000000,0.906781,0.155054,0.000000
7,0.015124,0.008809,1.000000,0.162010,1.000000,0.293095,0.204142,0.886891,1.000000,0.894635,0.234915,0.126268,0.989698,0.776346,0.962559,0.257488,2.000000
8,0.013143,0.000000,0.815083,0.049378,1.000000,0.000000,0.056653,1.000000,2.000000,0.874901,0.083174,0.110828,1.000000,0.823420,0.827886,0.567500,2.000000
9,0.013143,0.000000,0.815083,0.049378,1.000000,0.000000,0.056653,1.000000,2.000000,0.874901,0.083174,0.110828,1.000000,0.823420,0.827886,0.567500,2.000000
10,0.013143,0.000000,0.815083,0.049378,1.000000,0.000000,0.056653,1.000000,2.000000,0.874901,0.083174,0.110828,1.000000,0.823420,0.827886,0.567500,2.000000
11,0.012487,0.000000,0.996583,0.180728,1.000000,0.452156,0.137839,1.000000,0.000000,1.000000,0.290963,0.514951,0.935756,0.999804,1.000000,0.303426,2.000000
12,0.011421,0.000000,1.000000,0.198738,1.000000,0.365283,0.053463,0.711380,2.000000,1.000000,0.290963,0.514951,0.962161,0.908805,0.915608,0.570882,2.000000
13,0.011290,0.050770,0.798336,0.081578,1.000000,0.282528,0.000000,0.976891,1.000000,1.000000,0.276936,0.603459,0.950951,1.000000,0.847519,0.522869,2.000000
14,0.011290,0.050770,0.798336,0.081578,1.000000,0.282528,0.000000,0.976891,1.000000,1.000000,0.276936,0.603459,0.950951,1.000000,0.847519,0.522869,2.000000
15,0.011290,0.050770,0.798336,0.081578,1.000000,0.282528,0.000000,0.976891,1.000000,1.000000,0.276936,0.603459,0.950951,1.000000,0.847519,0.522869,2.000000
16,0.010650,0.041215,0.977410,0.000000,1.000000,0.239418,0.006062,0.852113,0.000000,0.982852,0.418509,0.569638,0.916155,0.988791,0.741365,0.764177,2.000000
17,0.010650,0.041215,0.977410,0.000000,1.000000,0.239418,0.006062,0.852113,0.000000,0.982852,0.418509,0.569638,0.916155,0.988791,0.741365,0.764177,2.000000
18,0.010650,0.041215,0.977410,0.000000,1.000000,0.239418,0.006062,0.852113,0.000000,0.982852,0.418509,0.569638,0.916155,0.988791,0.741365,0.764177,2.000000
19,0.010415,0.041215,1.000000,0.052444,1.000000,0.206940,0.000000,0.622966,2.000000,1.000000,0.488696,0.514951,0.962161,0.939726,0.992777,0.575535,2.000000
20,0.009734,0.071037,0.808983,0.000000,1.000000,0.347345,0.000000,1.000000,1.000000,1.000000,0.118791,0.806503,0.886345,1.000000,0.657026,0.764208,2.000000
21,0.009553,0.000000,0.935266,0.000000,1.000000,0.130763,0.731666,1.000000,2.000000,0.899821,0.360848,0.886181,0.907326,0.729726,1.000000,0.505530,2.000000
22,0.009553,0.000000,0.935266,0.000000,1.000000,0.130763,0.731666,1.000000,2.000000,0.899821,0.360848,0.886181,0.907326,0.729726,1.000000,0.505530,2.000000
23,0.009553,0.000000,0.935266,0.000000,1.000000,0.130763,0.731666,1.000000,2.000000,0.899821,0.360848,0.886181,0.907326,0.729726,1.000000,0.505530,2.000000
24,0.009553,0.000000,0.935266,0.000000,1.000000,0.130763,0.731666,1.000000,2.000000,0.899821,0.360848,0.886181,0.907326,0.729726,1.000000,0.505530,2.000000
25,0.009553,0.000000,0.935266,0.000000,1.000000,0.130763,0.731666,1.000000,2.000000,0.899821,0.360848,0.886181,0.907326,0.729726,1.000000,0.505530,2.000000
26,0.009553,0.000000,0.935266,0.000000,1.000000,0.130763,0.731666,1.000000,2.000000,0.899821,0.360848,0.886181,0.907326,0.729726,1.000000,0.505530,2.000000
27,0.009553,0.000000,0.935266,0.000000,1.000000,0.130763,0.731666,1.000000,2.000000,0.899821,0.360848,0.886181,0.907326,0.729726,1.000000,0.505530,2.000000
28,0.009088,0.001464,0.784286,0.000000,1.000000,0.248497,0.051993,1.000000,2.000000,1.000000,0.196866,0.806503,0.924569,1.000000,0.921086,0.724451,2.000000
29,0.009088,0.001464,0.784286,0.000000,1.000000,0.248497,0.051993,1.000000,2.000000,1.000000,0.196866,0.806503,0.924569,1.000000,0.921086,0.724451,2.000000
30,0.009088,0.001464,0.784286,0.000000,1.000000,0.248497,0.051993,1.000000,2.000000,1.000000,0.196866,0.806503,0.924569,1.000000,0.921086,0.724451,2.000000
31,0.009088,0.001464,0.784286,0.000000,1.000000,0.248497,0.051993,1.000000,2.000000,1.000000,0.196866,0.806503,0.924569,1.000000,0.921086,0.724451,2.000000
32,0.009088,0.001464,0.784286,0.000000,1.000000,0.248497,0.051993,1.000000,2.000000,1.000000,0.196866,0.806503,0.924569,1.000000,0.921086,0.724451,2.000000
33,0.009088,0.001464,0.784286,0.000000,1.000000,0.248497,0.051993,1.000000,2.000000,1.000000,0.196866,0.806503,0.924569,1.000000,0.921086,0.724451,2.000000
34,0.009088,0.001464,0.784286,0.000000,1.000000,0.248497,0.051993,1.000000,2.000000,1.000000,0.196866,0.806503,0.924569,1.000000,0.921086,0.724451,2.000000
35,0.009058,0.118346,0.808983,0.005385,1.000000,0.251454,0.010825,0.916751,2.000000,0.966782,0.365602,1.000000,0.902415,0.484333,0.956834,0.565991,2.000000
36,0.009038,0.000000,0.960526,0.051936,1.000000,0.396199,0.000000,0.791578,2.000000,0.928475,0.153864,0.954165,0.923968,1.000000,0.738767,1.000000,2.000000
37,0.009038,0.000000,0.960526,0.051936,1.000000,0.396199,0.000000,0.791578,2.000000,0.928475,0.153864,0.954165,0.923968,1.000000,0.738767,1.000000,2.000000
38,0.008723,0.046293,0.778231,0.000000,1.000000,0.028691,0.012672,1.000000,2.000000,1.000000,0.000000,0.822042,0.905218,0.660566,0.914580,0.910407,2.000000
39,0.008723,0.046293,0.778231,0.000000,1.000000,0.028691,0.012672,1.000000,2.000000,1.000000,0.000000,0.822042,0.905218,0.660566,0.914580,0.910407,2.000000
40,0.008723,0.046293,0.778231,0.000000,1.000000,0.028691,0.012672,1.000000,2.000000,1.000000,0.000000,0.822042,0.905218,0.660566,0.914580,0.910407,2.000000
41,0.008723,0.046293,0.778231,0.000000,1.000000,0.028691,0.012672,1.000000,2.000000,1.000000,0.000000,0.822042,0.905218,0.660566,0.914580,0.910407,2.000000
42,0.008723,0.046293,0.778231,0.000000,1.000000,0.028691,0.012672,1.000000,2.000000,1.000000,0.000000,0.822042,0.905218,0.660566,0.914580,0.910407,2.000000
43,0.008723,0.046293,0.778231,0.000000,1.000000,0.028691,0.012672,1.000000,2.000000,1.000000,0.000000,0.822042,0.905218,0.660566,0.914580,0.910407,2.000000
44,0.008723,0.046293,0.778231,0.000000,1.000000,0.028691,0.012672,1.000000,2.000000,1.000000,0.000000,0.822042,0.905218,0.660566,0.914580,0.910407,2.000000
45,0.008723,0.046293,0.778231,0.000000,1.000000,0.028691,0.012672,1.000000,2.000000,1.000000,0.000000,0.822042,0.905218,0.660566,0.914580,0.910407,2.000000
46,0.008723,0.046293,0.778231,0.000000,1.000000,0.028691,0.012672,1.000000,2.000000,1.000000,0.000000,0.822042,0.905218,0.660566,0.914580,0.910407,2.000000
47,0.008723,0.046293,0.778231,0.000000,1.000000,0.028691,0.012672,1.000000,2.000000,1.000000,0.000000,0.822042,0.905218,0.660566,0.914580,0.910407,2.000000
48,0.008723,0.046293,0.778231,0.000000,1.000000,0.028691,0.012672,1.000000,2.000000,1.000000,0.000000,0.822042,0.905218,0.660566,0.914580,0.910407,2.000000
gen, fitness
0,0.020772,0.000000,1.000000,0.210000,0.800000,0.030000,0.030000,1.000000,0.000000,1.000000,0.000000,0.000000,0.600000,1.000000,1.000000,0.000000,0.000000
1,0.020772,0.000000,1.000000,0.210000,0.800000,0.030000,0.030000,1.000000,0.000000,1.000000,0.000000,0.000000,0.600000,1.000000,1.000000,0.000000,0.000000
2,0.003454,0.000000,0.909241,0.310085,0.800000,0.007182,0.000000,0.869807,2.000000,0.880249,0.120578,0.000000,0.785112,1.000000,0.979112,0.006411,2.000000
3,0.001351,0.000000,1.000000,0.070477,0.914279,0.000000,0.125168,1.000000,0.000000,0.826163,0.000000,0.000000,0.856682,0.961340,0.966940,0.208511,2.000000
4,0.000947,0.027418,1.000000,0.234673,0.924976,0.044287,0.064896,1.000000,0.000000,0.977074,0.000000,0.007640,0.881963,1.000000,1.000000,0.000000,1.000000
5,0.000947,0.027418,1.000000,0.234673,0.924976,0.044287,0.064896,1.000000,0.000000,0.977074,0.000000,0.007640,0.881963,1.000000,1.000000,0.000000,1.000000
6,0.000116,0.070964,0.902854,0.306292,0.948144,0.028204,0.025190,1.000000,2.000000,1.000000,0.000000,0.112293,0.921093,0.989244,1.000000,0.000000,2.000000
7,0.000098,0.070645,0.846057,0.310882,1.000000,0.000000,0.066424,1.000000,0.000000,0.969436,0.215227,0.007640,1.000000,1.000000,0.816693,0.092080,0.000000
8,0.000026,0.000000,0.939545,0.341969,1.000000,0.000000,0.002172,0.975187,2.000000,1.000000,0.049818,0.171455,0.987445,0.781982,0.944918,0.005135,0.000000
9,0.000026,0.000000,0.939545,0.341969,1.000000,0.000000,0.002172,0.975187,2.000000,1.000000,0.049818,0.171455,0.987445,0.781982,0.944918,0.005135,0.000000
10,0.000014,0.097763,0.860850,0.199014,1.000000,0.099381,0.065286,0.550229,1.000000,0.611080,0.000000,0.180545,1.000000,0.792069,0.792813,0.006315,1.000000
11,0.000014,0.097763,0.860850,0.199014,1.000000,0.099381,0.065286,0.550229,1.000000,0.611080,0.000000,0.180545,1.000000,0.792069,0.792813,0.006315,1.000000
12,0.000000,0.343348,0.866852,0.355425,1.000000,0.000000,0.021552,0.888082,1.000000,1.000000,0.000000,0.225335,1.000000,0.871446,0.877193,0.000000,0.000000
gen, fitness
0,0.008197,0.000000,1.000000,0.210000,0.800000,0.030000,0.030000,1.000000,0.000000,1.000000,0.000000,0.000000,0.600000,1.000000,1.000000,0.000000,0.000000
1,0.008197,0.000000,1.000000,0.210000,0.800000,0.030000,0.030000,1.000000,0.000000,1.000000,0.000000,0.000000,0.600000,1.000000,1.000000,0.000000,0.000000
2,0.000050,0.052978,0.976299,0.210000,0.839353,0.175190,0.099894,1.000000,0.000000,1.000000,0.061498,0.088473,0.738752,0.819270,0.881301,0.000000,0.000000
3,0.000050,0.052978,0.976299,0.210000,0.839353,0.175190,0.099894,1.000000,0.000000,1.000000,0.061498,0.088473,0.738752,0.819270,0.881301,0.000000,0.000000
4,0.000002,0.236669,0.958016,0.284333,0.802741,0.000000,0.000000,0.981080,0.000000,1.000000,0.123205,0.067161,0.749259,0.934844,1.000000,0.105957,1.000000
5,0.000002,0.236669,0.958016,0.284333,0.802741,0.000000,0.000000,0.981080,0.000000,1.000000,0.123205,0.067161,0.749259,0.934844,1.000000,0.105957,1.000000
6,0.000002,0.236669,0.958016,0.284333,0.802741,0.000000,0.000000,0.981080,0.000000,1.000000,0.123205,0.067161,0.749259,0.934844,1.000000,0.105957,1.000000
7,0.000002,0.236669,0.958016,0.284333,0.802741,0.000000,0.000000,0.981080,0.000000,1.000000,0.123205,0.067161,0.749259,0.934844,1.000000,0.105957,1.000000
8,0.000002,0.236669,0.958016,0.284333,0.802741,0.000000,0.000000,0.981080,0.000000,1.000000,0.123205,0.067161,0.749259,0.934844,1.000000,0.105957,1.000000
9,0.000002,0.236669,0.958016,0.284333,0.802741,0.000000,0.000000,0.981080,0.000000,1.000000,0.123205,0.067161,0.749259,0.934844,1.000000,0.105957,1.000000
10,0.000002,0.236669,0.958016,0.284333,0.802741,0.000000,0.000000,0.981080,0.000000,1.000000,0.123205,0.067161,0.749259,0.934844,1.000000,0.105957,1.000000
11,0.000002,0.236669,0.958016,0.284333,0.802741,0.000000,0.000000,0.981080,0.000000,1.000000,0.123205,0.067161,0.749259,0.934844,1.000000,0.105957,1.000000
12,0.000002,0.236669,0.958016,0.284333,0.802741,0.000000,0.000000,0.981080,0.000000,1.000000,0.123205,0.067161,0.749259,0.934844,1.000000,0.105957,1.000000
13,0.000002,0.236669,0.958016,0.284333,0.802741,0.000000,0.000000,0.981080,0.000000,1.000000,0.123205,0.067161,0.749259,0.934844,1.000000,0.105957,1.000000
14,0.000002,0.236669,0.958016,0.284333,0.802741,0.000000,0.000000,0.981080,0.000000,1.000000,0.123205,0.067161,0.749259,0.934844,1.000000,0.105957,1.000000
gen, fitness
0,0.011091,0.000000,1.000000,0.210000,0.800000,0.030000,0.030000,1.000000,0.000000,1.000000,0.000000,0.000000,0.600000,1.000000,1.000000,0.000000,0.000000
1,0.011091,0.000000,1.000000,0.210000,0.800000,0.030000,0.030000,1.000000,0.000000,1.000000,0.000000,0.000000,0.600000,1.000000,1.000000,0.000000,0.000000
2,0.000176,0.000000,1.000000,0.133864,0.710293,0.004156,0.130047,0.946686,1.000000,0.914767,0.000000,0.000000,0.600000,1.000000,0.784239,0.066775,2.000000
3,0.000011,0.000000,0.996486,0.145124,0.756424,0.123154,0.086034,1.000000,0.000000,1.000000,0.095207,0.081296,0.608772,1.000000,1.000000,0.009963,1.000000
4,0.000011,0.000000,0.996486,0.145124,0.756424,0.123154,0.086034,1.000000,0.000000,1.000000,0.095207,0.081296,0.608772,1.000000,1.000000,0.009963,1.000000
5,0.000011,0.000000,0.996486,0.145124,0.756424,0.123154,0.086034,1.000000,0.000000,1.000000,0.095207,0.081296,0.608772,1.000000,1.000000,0.009963,1.000000
6,0.000011,0.000000,0.996486,0.145124,0.756424,0.123154,0.086034,1.000000,0.000000,1.000000,0.095207,0.081296,0.608772,1.000000,1.000000,0.009963,1.000000
7,0.000011,0.000000,0.996486,0.145124,0.756424,0.123154,0.086034,1.000000,0.000000,1.000000,0.095207,0.081296,0.608772,1.000000,1.000000,0.009963,1.000000
8,0.000011,0.000000,0.996486,0.145124,0.756424,0.123154,0.086034,1.000000,0.000000,1.000000,0.095207,0.081296,0.608772,1.000000,1.000000,0.009963,1.000000
9,0.000011,0.000000,0.996486,0.145124,0.756424,0.123154,0.086034,1.000000,0.000000,1.000000,0.095207,0.081296,0.608772,1.000000,1.000000,0.009963,1.000000
10,0.000002,0.005299,0.908921,0.038122,0.811989,0.046979,0.297870,0.777947,0.000000,1.000000,0.000000,0.141459,0.597549,0.915793,0.872203,0.125294,2.000000
11,0.000002,0.005299,0.908921,0.038122,0.811989,0.046979,0.297870,0.777947,0.000000,1.000000,0.000000,0.141459,0.597549,0.915793,0.872203,0.125294,2.000000
12,0.000002,0.005299,0.908921,0.038122,0.811989,0.046979,0.297870,0.777947,0.000000,1.000000,0.000000,0.141459,0.597549,0.915793,0.872203,0.125294,2.000000
13,0.000002,0.005299,0.908921,0.038122,0.811989,0.046979,0.297870,0.777947,0.000000,1.000000,0.000000,0.141459,0.597549,0.915793,0.872203,0.125294,2.000000
gen, fitness
0,0.020988,0.000000,1.000000,0.210000,0.800000,0.030000,0.030000,1.000000,0.000000,1.000000,0.000000,0.000000,0.600000,1.000000,1.000000,0.000000,0.000000
1,0.020988,0.000000,1.000000,0.210000,0.800000,0.030000,0.030000,1.000000,0.000000,1.000000,0.000000,0.000000,0.600000,1.000000,1.000000,0.000000,0.000000
2,0.009468,0.000000,0.966270,0.210000,0.798415,0.050763,0.000000,0.872317,2.000000,1.000000,0.000000,0.060855,0.714222,1.000000,1.000000,0.000000,1.000000
3,0.006393,0.000000,1.000000,0.290497,0.814714,0.000000,0.006237,1.000000,2.000000,1.000000,0.120671,0.000000,0.762062,1.000000,1.000000,0.148058,0.000000
4,0.004866,0.021567,0.873930,0.347177,0.854550,0.010623,0.176110,0.917849,2.000000,0.980758,0.000000,0.000000,0.850798,1.000000,0.937429,0.098114,0.000000
5,0.004300,0.035873,1.000000,0.512886,0.746563,0.056060,0.045450,0.931934,2.000000,0.567461,0.020451,0.080770,0.807784,0.974231,1.000000,0.000000,1.000000
6,0.001228,0.078906,0.615763,0.167704,1.000000,0.037237,0.398739,1.000000,2.000000,0.980758,0.013214,0.151057,0.955576,1.000000,1.000000,0.142888,2.000000
7,0.001228,0.078906,0.615763,0.167704,1.000000,0.037237,0.398739,1.000000,2.000000,0.980758,0.013214,0.151057,0.955576,1.000000,1.000000,0.142888,2.000000
8,0.000446,0.129522,0.845543,0.646367,1.000000,0.000000,0.190333,0.842643,1.000000,1.000000,0.000000,0.117422,1.000000,1.000000,0.886312,0.000000,2.000000
9,0.000415,0.000000,0.820988,0.694639,1.000000,0.000000,0.038333,0.734006,1.000000,1.000000,0.005646,0.252031,0.991879,0.935054,0.927458,0.342394,0.000000
10,0.000415,0.000000,0.820988,0.694639,1.000000,0.000000,0.038333,0.734006,1.000000,1.000000,0.005646,0.252031,0.991879,0.935054,0.927458,0.342394,0.000000
11,0.000303,0.000000,0.723356,0.795282,0.983552,0.137981,0.630105,0.964260,2.000000,1.000000,0.089016,0.037355,1.000000,0.915366,1.000000,0.015160,1.000000
12,0.000251,0.236002,0.970204,0.646367,1.000000,0.066548,0.301030,0.852445,2.000000,1.000000,0.006437,0.278574,1.000000,0.984668,0.926972,0.131211,2.000000
13,0.000225,0.080716,0.845861,0.937257,0.977679,0.238661,0.096638,0.902330,2.000000,1.000000,0.128065,0.156275,1.000000,0.767791,0.948121,0.029630,0.000000
14,0.000155,0.011502,0.799479,0.632318,1.000000,0.092018,0.499327,0.921268,2.000000,0.807133,0.207000,0.291540,1.000000,0.830076,0.897796,0.538486,0.000000
15,0.000155,0.011502,0.799479,0.632318,1.000000,0.092018,0.499327,0.921268,2.000000,0.807133,0.207000,0.291540,1.000000,0.830076,0.897796,0.538486,0.000000
16,0.000155,0.011502,0.799479,0.632318,1.000000,0.092018,0.499327,0.921268,2.000000,0.807133,0.207000,0.291540,1.000000,0.830076,0.897796,0.538486,0.000000
17,0.000071,0.213310,0.424357,1.000000,0.988428,0.296165,0.742568,0.985314,2.000000,0.980309,0.237430,0.382204,1.000000,0.873474,1.000000,0.060382,2.000000
18,0.000071,0.213310,0.424357,1.000000,0.988428,0.296165,0.742568,0.985314,2.000000,0.980309,0.237430,0.382204,1.000000,0.873474,1.000000,0.060382,2.000000
19,0.000071,0.213310,0.424357,1.000000,0.988428,0.296165,0.742568,0.985314,2.000000,0.980309,0.237430,0.382204,1.000000,0.873474,1.000000,0.060382,2.000000
20,0.000071,0.213310,0.424357,1.000000,0.988428,0.296165,0.742568,0.985314,2.000000,0.980309,0.237430,0.382204,1.000000,0.873474,1.000000,0.060382,2.000000
21,0.000071,0.213310,0.424357,1.000000,0.988428,0.296165,0.742568,0.985314,2.000000,0.980309,0.237430,0.382204,1.000000,0.873474,1.000000,0.060382,2.000000
22,0.000054,0.000000,0.810330,0.737744,0.985320,0.037120,0.648408,0.999682,2.000000,0.597845,0.313543,0.417576,1.000000,0.630253,0.926641,0.472347,0.000000
23,0.000027,0.340384,0.424357,0.973332,0.988428,0.421853,0.926191,0.985314,1.000000,0.562613,0.066198,0.757220,1.000000,1.000000,0.825463,0.054074,2.000000
24,0.000020,0.000000,0.887954,0.952205,0.980664,0.142653,0.630426,1.000000,1.000000,0.495173,0.398294,0.425078,1.000000,0.823715,0.578781,0.352030,2.000000
25,0.000020,0.000000,0.887954,0.952205,0.980664,0.142653,0.630426,1.000000,1.000000,0.495173,0.398294,0.425078,1.000000,0.823715,0.578781,0.352030,2.000000
26,0.000020,0.000000,0.887954,0.952205,0.980664,0.142653,0.630426,1.000000,1.000000,0.495173,0.398294,0.425078,1.000000,0.823715,0.578781,0.352030,2.000000
27,0.000014,0.176754,0.475705,0.869105,1.000000,0.352552,0.626314,0.881654,2.000000,0.788084,0.452890,0.996816,1.000000,0.948184,0.950784,0.879794,1.000000
28,0.000014,0.176754,0.475705,0.869105,1.000000,0.352552,0.626314,0.881654,2.000000,0.788084,0.452890,0.996816,1.000000,0.948184,0.950784,0.879794,1.000000
29,0.000014,0.176754,0.475705,0.869105,1.000000,0.352552,0.626314,0.881654,2.000000,0.788084,0.452890,0.996816,1.000000,0.948184,0.950784,0.879794,1.000000
30,0.000005,0.091243,0.984819,1.000000,1.000000,0.000000,0.967779,0.936837,2.000000,0.832839,0.614286,1.000000,1.000000,0.921623,0.784198,0.554833,2.000000
31,0.000005,0.091243,0.984819,1.000000,1.000000,0.000000,0.967779,0.936837,2.000000,0.832839,0.614286,1.000000,1.000000,0.921623,0.784198,0.554833,2.000000
32,0.000004,0.104817,0.926204,1.000000,1.000000,0.003093,1.000000,0.871881,2.000000,0.928106,0.626972,1.000000,1.000000,1.000000,0.784198,0.596536,0.000000
33,0.000004,0.104817,0.926204,1.000000,1.000000,0.003093,1.000000,0.871881,2.000000,0.928106,0.626972,1.000000,1.000000,1.000000,0.784198,0.596536,0.000000
