gen, fitness
0,0.094016,0.000000,1.000000,0.210000,0.800000,0.030000,0.030000,1.000000,0.000000,1.000000,0.000000,0.000000,0.600000,1.000000,1.000000,0.000000,0.000000
1,0.094016,0.000000,1.000000,0.210000,0.800000,0.030000,0.030000,1.000000,0.000000,1.000000,0.000000,0.000000,0.600000,1.000000,1.000000,0.000000,0.000000
2,0.046229,0.289914,0.942604,0.034169,0.652297,0.125861,0.030000,1.000000,1.000000,0.901998,0.022848,0.110125,0.385251,1.000000,0.909485,0.000000,1.000000
3,0.041390,0.137794,0.942604,0.034169,0.659560,0.146809,0.145399,1.000000,0.000000,0.976321,0.000000,0.000276,0.378623,1.000000,1.000000,0.084117,0.000000
4,0.031547,0.014583,1.000000,0.034169,0.538761,0.217770,0.236597,1.000000,1.000000,0.976321,0.000000,0.067757,0.222083,0.804549,1.000000,0.122301,2.000000
5,0.024030,0.127234,0.763955,0.020082,0.554702,0.000000,0.000000,0.689441,0.000000,1.000000,0.128538,0.093776,0.000000,0.993926,0.830057,0.124580,2.000000
6,0.019983,0.133697,1.000000,0.148875,0.331251,0.025875,0.019054,0.421650,1.000000,0.858758,0.182046,0.093776,0.032312,1.000000,0.830057,0.233903,1.000000
7,0.014783,0.109609,0.926010,0.108017,0.297438,0.000000,0.034164,0.708203,1.000000,1.000000,0.163399,0.093776,0.000000,0.912174,1.000000,0.203926,0.000000
8,0.008429,0.457043,1.000000,0.041206,0.201318,0.135735,0.075608,0.568432,2.000000,0.858758,0.202944,0.133440,0.057085,1.000000,0.839345,0.000000,0.000000
9,0.006945,0.166869,1.000000,0.015163,0.163922,0.134657,0.198139,0.769803,1.000000,0.931706,0.667683,0.000000,0.009344,0.699731,0.850906,0.052588,2.000000
10,0.002715,0.434412,0.797502,0.000000,0.161009,0.128614,0.271584,0.769803,1.000000,0.931706,0.673133,0.000000,0.009344,0.699731,0.804251,0.076723,0.000000
11,0.002033,0.570103,0.946514,0.121866,0.000000,0.323753,0.140298,0.623779,1.000000,0.915203,0.202888,0.000000,0.000000,0.608825,1.000000,0.000000,1.000000
12,0.001510,0.522623,0.802204,0.000000,0.055664,0.083746,0.297203,0.810933,1.000000,0.888857,0.027908,0.000000,0.029333,0.579606,0.804200,0.000000,0.000000
13,0.001159,0.594554,0.763980,0.001113,0.049690,0.000000,0.229244,0.725065,0.000000,0.888857,0.146968,0.000000,0.029333,0.336619,0.745750,0.103680,2.000000
14,0.000512,0.782293,0.860712,0.001113,0.000000,0.097390,0.217725,0.602967,2.000000,0.830296,0.202888,0.000000,0.087788,0.558296,0.783997,0.000000,2.000000
15,0.000206,0.721429,0.750946,0.020148,0.026040,0.100240,0.000000,0.354952,0.000000,1.000000,0.126597,0.000000,0.022272,0.472355,0.817208,0.000000,1.000000
16,0.000028,0.812857,0.960830,0.025398,0.000000,0.313882,0.007434,0.563591,0.000000,1.000000,0.180327,0.000000,0.022272,0.472355,0.738048,0.088102,0.000000
17,0.000028,0.812857,0.960830,0.025398,0.000000,0.313882,0.007434,0.563591,0.000000,1.000000,0.180327,0.000000,0.022272,0.472355,0.738048,0.088102,0.000000
18,0.000002,0.868494,0.658304,0.011189,0.000000,0.000000,0.097232,0.371641,2.000000,0.967268,0.263863,0.000000,0.000000,0.487577,0.811649,0.277075,0.000000
19,0.000002,0.812857,0.886233,0.000000,0.015531,0.322737,0.007434,0.563591,0.000000,1.000000,0.642902,0.000000,0.000000,0.505877,0.644558,0.000000,2.000000
20,0.000002,0.812857,0.886233,0.000000,0.015531,0.322737,0.007434,0.563591,0.000000,1.000000,0.642902,0.000000,0.000000,0.505877,0.644558,0.000000,2.000000
21,0.000002,0.812857,0.886233,0.000000,0.015531,0.322737,0.007434,0.563591,0.000000,1.000000,0.642902,0.000000,0.000000,0.505877,0.644558,0.000000,2.000000
22,0.000002,0.812857,0.886233,0.000000,0.015531,0.322737,0.007434,0.563591,0.000000,1.000000,0.642902,0.000000,0.000000,0.505877,0.644558,0.000000,2.000000
23,0.000002,0.812857,0.886233,0.000000,0.015531,0.322737,0.007434,0.563591,0.000000,1.000000,0.642902,0.000000,0.000000,0.505877,0.644558,0.000000,2.000000
24,0.000000,0.879329,0.975406,0.000000,0.000000,0.236516,0.000000,0.669664,1.000000,1.000000,0.030850,0.015415,0.025865,0.702254,1.000000,0.068846,1.000000
gen, fitness
0,0.011444,0.000000,1.000000,0.210000,0.800000,0.030000,0.030000,1.000000,0.000000,1.000000,0.000000,0.000000,0.600000,1.000000,1.000000,0.000000,0.000000
1,0.011444,0.000000,1.000000,0.210000,0.800000,0.030000,0.030000,1.000000,0.000000,1.000000,0.000000,0.000000,0.600000,1.000000,1.000000,0.000000,0.000000
2,0.004620,0.023108,0.902230,0.080909,0.739697,0.030000,0.180261,1.000000,2.000000,1.000000,0.000000,0.000000,0.493268,1.000000,0.815795,0.000000,2.000000
3,0.002443,0.096817,1.000000,0.282005,0.547741,0.000000,0.038522,0.962758,1.000000,1.000000,0.155100,0.000000,0.477682,1.000000,0.849324,0.000000,2.000000
4,0.001263,0.072967,1.000000,0.037545,0.671936,0.000000,0.124178,0.928787,0.000000,1.000000,0.155100,0.000000,0.418047,1.000000,0.868562,0.001276,1.000000
5,0.001263,0.072967,1.000000,0.037545,0.671936,0.000000,0.124178,0.928787,0.000000,1.000000,0.155100,0.000000,0.418047,1.000000,0.868562,0.001276,1.000000
6,0.000437,0.266662,0.989431,0.090974,0.602915,0.007160,0.081891,0.512564,0.000000,1.000000,0.054448,0.084081,0.329768,1.000000,0.988482,0.087074,0.000000
7,0.000437,0.266662,0.989431,0.090974,0.602915,0.007160,0.081891,0.512564,0.000000,1.000000,0.054448,0.084081,0.329768,1.000000,0.988482,0.087074,0.000000
8,0.000015,0.281357,1.000000,0.005484,0.565505,0.353466,0.359766,0.794078,1.000000,1.000000,0.047746,0.059840,0.243019,0.864057,0.855256,0.000000,1.000000
9,0.000015,0.281357,1.000000,0.005484,0.565505,0.353466,0.359766,0.794078,1.000000,1.000000,0.047746,0.059840,0.243019,0.864057,0.855256,0.000000,1.000000
10,0.000015,0.281357,1.000000,0.005484,0.565505,0.353466,0.359766,0.794078,1.000000,1.000000,0.047746,0.059840,0.243019,0.864057,0.855256,0.000000,1.000000
11,0.000015,0.281357,1.000000,0.005484,0.565505,0.353466,0.359766,0.794078,1.000000,1.000000,0.047746,0.059840,0.243019,0.864057,0.855256,0.000000,1.000000
12,0.000015,0.281357,1.000000,0.005484,0.565505,0.353466,0.359766,0.794078,1.000000,1.000000,0.047746,0.059840,0.243019,0.864057,0.855256,0.000000,1.000000
13,0.000015,0.281357,1.000000,0.005484,0.565505,0.353466,0.359766,0.794078,1.000000,1.000000,0.047746,0.059840,0.243019,0.864057,0.855256,0.000000,1.000000
14,0.000015,0.281357,1.000000,0.005484,0.565505,0.353466,0.359766,0.794078,1.000000,1.000000,0.047746,0.059840,0.243019,0.864057,0.855256,0.000000,1.000000
15,0.000015,0.281357,1.000000,0.005484,0.565505,0.353466,0.359766,0.794078,1.000000,1.000000,0.047746,0.059840,0.243019,0.864057,0.855256,0.000000,1.000000
16,0.000015,0.281357,1.000000,0.005484,0.565505,0.353466,0.359766,0.794078,1.000000,1.000000,0.047746,0.059840,0.243019,0.864057,0.855256,0.000000,1.000000
17,0.000002,0.329453,1.000000,0.140892,0.412976,0.418933,0.431253,0.968254,1.000000,0.989545,0.121832,0.253677,0.000000,1.000000,0.885477,0.123361,2.000000
18,0.000002,0.329453,1.000000,0.140892,0.412976,0.418933,0.431253,0.968254,1.000000,0.989545,0.121832,0.253677,0.000000,1.000000,0.885477,0.123361,2.000000
19,0.000002,0.329453,1.000000,0.140892,0.412976,0.418933,0.431253,0.968254,1.000000,0.989545,0.121832,0.253677,0.000000,1.000000,0.885477,0.123361,2.000000
20,0.000002,0.329453,1.000000,0.140892,0.412976,0.418933,0.431253,0.968254,1.000000,0.989545,0.121832,0.253677,0.000000,1.000000,0.885477,0.123361,2.000000
21,0.000002,0.341835,0.865857,0.000000,0.481259,0.349510,0.409146,0.911812,2.000000,0.790853,0.187307,0.000000,0.276101,0.923608,0.872440,0.269154,2.000000
22,0.000001,0.438092,1.000000,0.058937,0.458890,0.349510,0.443689,0.787030,2.000000,0.909318,0.000000,0.000000,0.316560,0.733541,0.872440,0.188222,2.000000
gen, fitness
0,0.010533,0.000000,1.000000,0.210000,0.800000,0.030000,0.030000,1.000000,0.000000,1.000000,0.000000,0.000000,0.600000,1.000000,1.000000,0.000000,0.000000
1,0.010533,0.000000,1.000000,0.210000,0.800000,0.030000,0.030000,1.000000,0.000000,1.000000,0.000000,0.000000,0.600000,1.000000,1.000000,0.000000,0.000000
2,0.000845,0.139692,0.906186,0.210000,0.616317,0.166999,0.030000,1.000000,1.000000,1.000000,0.000000,0.000000,0.504366,1.000000,1.000000,0.084314,0.000000
3,0.000487,0.000000,0.960850,0.341096,0.472141,0.273226,0.129667,0.802661,0.000000,0.936934,0.131490,0.000000,0.433172,0.890130,1.000000,0.179957,1.000000
4,0.000209,0.449688,1.000000,0.000000,0.646468,0.153752,0.156379,0.891148,2.000000,1.000000,0.098085,0.000000,0.459422,0.926372,1.000000,0.291352,2.000000
5,0.000103,0.123769,1.000000,0.186603,0.495564,0.321762,0.103652,1.000000,1.000000,0.942309,0.000000,0.000000,0.385372,1.000000,0.999154,0.181286,1.000000
6,0.000001,0.133705,1.000000,0.027762,0.606507,0.052236,0.117969,0.873698,0.000000,0.901534,0.059639,0.141875,0.253066,1.000000,0.908370,0.000000,0.000000
gen, fitness
0,0.067934,0.000000,1.000000,0.210000,0.800000,0.030000,0.030000,1.000000,0.000000,1.000000,0.000000,0.000000,0.600000,1.000000,1.000000,0.000000,0.000000
1,0.067934,0.000000,1.000000,0.210000,0.800000,0.030000,0.030000,1.000000,0.000000,1.000000,0.000000,0.000000,0.600000,1.000000,1.000000,0.000000,0.000000
2,0.039608,0.000000,0.815700,0.210000,0.641607,0.000000,0.199890,0.748914,1.000000,0.906795,0.000000,0.045692,0.431303,1.000000,0.995749,0.000000,1.000000
3,0.026782,0.000000,0.767091,0.194567,0.556383,0.101274,0.030000,1.000000,0.000000,1.000000,0.045273,0.003167,0.383409,1.000000,1.000000,0.004851,2.000000
4,0.016408,0.019875,0.788362,0.177101,0.193610,0.009699,0.126273,0.851849,2.000000,0.845710,0.119392,0.145367,0.093054,0.803682,1.000000,0.039865,0.000000
5,0.012278,0.000000,0.935992,0.291347,0.300643,0.134104,0.048739,0.974910,0.000000,0.944499,0.165956,0.145367,0.000000,0.658143,0.974896,0.039865,0.000000
6,0.008501,0.258157,0.653066,0.220075,0.252714,0.045018,0.226070,0.742021,1.000000,0.728996,0.000000,0.031915,0.062677,0.827985,0.901586,0.066652,0.000000
7,0.006680,0.077766,0.730364,0.060260,0.406339,0.000000,0.242686,0.639884,1.000000,0.841989,0.203130,0.047355,0.075606,0.646392,0.974896,0.039865,1.000000
8,0.001455,0.132355,0.948185,0.000000,0.296899,0.240434,0.000000,1.000000,2.000000,0.803020,0.171037,0.000000,0.003357,0.894640,0.883131,0.000000,1.000000
9,0.000218,0.359689,0.521246,0.066819,0.162182,0.108156,0.000000,1.000000,1.000000,0.876309,0.147756,0.000000,0.000000,0.696873,0.880869,0.003176,1.000000
10,0.000218,0.359689,0.521246,0.066819,0.162182,0.108156,0.000000,1.000000,1.000000,0.876309,0.147756,0.000000,0.000000,0.696873,0.880869,0.003176,1.000000
11,0.000218,0.359689,0.521246,0.066819,0.162182,0.108156,0.000000,1.000000,1.000000,0.876309,0.147756,0.000000,0.000000,0.696873,0.880869,0.003176,1.000000
12,0.000084,0.500825,0.713437,0.056083,0.128675,0.062896,0.000000,1.000000,2.000000,0.876309,0.136183,0.000000,0.000000,0.696873,0.796823,0.000000,0.000000
13,0.000066,0.453959,0.651605,0.011983,0.300503,0.356984,0.089148,0.808744,1.000000,1.000000,0.257141,0.000000,0.036835,0.707480,1.000000,0.000000,0.000000
14,0.000007,0.518696,0.573674,0.000000,0.103086,0.263406,0.347830,0.892053,0.000000,0.559880,0.364906,0.000000,0.043160,0.897545,1.000000,0.117506,0.000000
15,0.000007,0.518696,0.573674,0.000000,0.103086,0.263406,0.347830,0.892053,0.000000,0.559880,0.364906,0.000000,0.043160,0.897545,1.000000,0.117506,0.000000
16,0.000007,0.518696,0.573674,0.000000,0.103086,0.263406,0.347830,0.892053,0.000000,0.559880,0.364906,0.000000,0.043160,0.897545,1.000000,0.117506,0.000000
17,0.000002,0.624030,0.662292,0.003869,0.207703,0.126112,0.000000,0.786842,0.000000,0.788774,0.060756,0.073630,0.000000,0.700757,1.000000,0.093900,1.000000
18,0.000002,0.624030,0.662292,0.003869,0.207703,0.126112,0.000000,0.786842,0.000000,0.788774,0.060756,0.073630,0.000000,0.700757,1.000000,0.093900,1.000000
19,0.000002,0.624030,0.662292,0.003869,0.207703,0.126112,0.000000,0.786842,0.000000,0.788774,0.060756,0.073630,0.000000,0.700757,1.000000,0.093900,1.000000
20,0.000002,0.624030,0.662292,0.003869,0.207703,0.126112,0.000000,0.786842,0.000000,0.788774,0.060756,0.073630,0.000000,0.700757,1.000000,0.093900,1.000000
21,0.000002,0.624030,0.662292,0.003869,0.207703,0.126112,0.000000,0.786842,0.000000,0.788774,0.060756,0.073630,0.000000,0.700757,1.000000,0.093900,1.000000
22,0.000002,0.624030,0.662292,0.003869,0.207703,0.126112,0.000000,0.786842,0.000000,0.788774,0.060756,0.073630,0.000000,0.700757,1.000000,0.093900,1.000000
23,0.000002,0.624030,0.662292,0.003869,0.207703,0.126112,0.000000,0.786842,0.000000,0.788774,0.060756,0.073630,0.000000,0.700757,1.000000,0.093900,1.000000
24,0.000002,0.624030,0.662292,0.003869,0.207703,0.126112,0.000000,0.786842,0.000000,0.788774,0.060756,0.073630,0.000000,0.700757,1.000000,0.093900,1.000000
gen, fitness
0,0.030614,0.000000,1.000000,0.210000,0.800000,0.030000,0.030000,1.000000,0.000000,1.000000,0.000000,0.000000,0.600000,1.000000,1.000000,0.000000,0.000000
1,0.030614,0.000000,1.000000,0.210000,0.800000,0.030000,0.030000,1.000000,0.000000,1.000000,0.000000,0.000000,0.600000,1.000000,1.000000,0.000000,0.000000
2,0.015802,0.000000,1.000000,0.267217,0.685333,0.170196,0.035967,0.813923,0.000000,1.000000,0.000000,0.000000,0.600000,0.978812,0.885673,0.000000,1.000000
3,0.009181,0.000000,1.000000,0.026115,0.638510,0.000000,0.162354,0.851160,1.000000,1.000000,0.000000,0.009279,0.445086,1.000000,0.817484,0.106196,0.000000
4,0.003145,0.187499,1.000000,0.105537,0.485080,0.000000,0.000000,1.000000,0.000000,1.000000,0.021052,0.016311,0.338382,0.899161,0.918538,0.059813,2.000000
5,0.000927,0.140228,1.000000,0.004394,0.456491,0.005555,0.479448,1.000000,1.000000,0.869797,0.008087,0.000000,0.215661,0.875427,0.871267,0.084093,1.000000
6,0.000868,0.141979,1.000000,0.000000,0.434043,0.080908,0.000000,0.901144,1.000000,0.892678,0.105707,0.123022,0.051721,0.699557,1.000000,0.111498,2.000000
7,0.000581,0.075405,0.868390,0.000000,0.383397,0.187725,0.248112,0.997305,1.000000,0.935998,0.107349,0.009138,0.051721,0.801171,1.000000,0.105244,1.000000
8,0.000105,0.497893,0.954086,0.000000,0.409776,0.191519,0.000000,0.772685,0.000000,0.809260,0.033994,0.000000,0.306960,0.889620,0.837851,0.000000,1.000000
9,0.000073,0.250917,0.900182,0.142506,0.272818,0.084619,0.305890,0.920942,2.000000,0.927194,0.000000,0.000000,0.157603,0.968525,0.736337,0.000000,2.000000
10,0.000009,0.131075,0.910909,0.000000,0.430504,0.187725,0.508077,0.997305,0.000000,1.000000,0.107349,0.000000,0.051721,0.801171,1.000000,0.018547,2.000000
11,0.000009,0.131075,0.910909,0.000000,0.430504,0.187725,0.508077,0.997305,0.000000,1.000000,0.107349,0.000000,0.051721,0.801171,1.000000,0.018547,2.000000
12,0.000009,0.131075,0.910909,0.000000,0.430504,0.187725,0.508077,0.997305,0.000000,1.000000,0.107349,0.000000,0.051721,0.801171,1.000000,0.018547,2.000000
13,0.000005,0.266245,0.743158,0.012826,0.404141,0.340813,0.000000,1.000000,1.000000,0.967474,0.000000,0.098699,0.000000,0.669087,0.923525,0.140209,2.000000
14,0.000005,0.266245,0.743158,0.012826,0.404141,0.340813,0.000000,1.000000,1.000000,0.967474,0.000000,0.098699,0.000000,0.669087,0.923525,0.140209,2.000000
15,0.000005,0.266245,0.743158,0.012826,0.404141,0.340813,0.000000,1.000000,1.000000,0.967474,0.000000,0.098699,0.000000,0.669087,0.923525,0.140209,2.000000
16,0.000005,0.266245,0.743158,0.012826,0.404141,0.340813,0.000000,1.000000,1.000000,0.967474,0.000000,0.098699,0.000000,0.669087,0.923525,0.140209,2.000000
17,0.000005,0.266245,0.743158,0.012826,0.404141,0.340813,0.000000,1.000000,1.000000,0.967474,0.000000,0.098699,0.000000,0.669087,0.923525,0.140209,2.000000
18,0.000005,0.266245,0.743158,0.012826,0.404141,0.340813,0.000000,1.000000,1.000000,0.967474,0.000000,0.098699,0.000000,0.669087,0.923525,0.140209,2.000000
19,0.000005,0.266245,0.743158,0.012826,0.404141,0.340813,0.000000,1.000000,1.000000,0.967474,0.000000,0.098699,0.000000,0.669087,0.923525,0.140209,2.000000
20,0.000005,0.266245,0.743158,0.012826,0.404141,0.340813,0.000000,1.000000,1.000000,0.967474,0.000000,0.098699,0.000000,0.669087,0.923525,0.140209,2.000000
gen, fitness
0,0.009712,0.000000,1.000000,0.210000,0.800000,0.030000,0.030000,1.000000,0.000000,1.000000,0.000000,0.000000,0.600000,1.000000,1.000000,0.000000,0.000000
1,0.009712,0.000000,1.000000,0.210000,0.800000,0.030000,0.030000,1.000000,0.000000,1.000000,0.000000,0.000000,0.600000,1.000000,1.000000,0.000000,0.000000
2,0.000108,0.171792,0.954935,0.086666,0.675005,0.000000,0.190541,1.000000,2.000000,1.000000,0.000000,0.000000,0.574536,0.920159,0.963312,0.074528,1.000000
3,0.000019,0.000000,0.957463,0.106503,0.672484,0.169137,0.018817,0.904116,2.000000,1.000000,0.104504,0.000000,0.517433,1.000000,1.000000,0.000000,1.000000
4,0.000019,0.000000,0.957463,0.106503,0.672484,0.169137,0.018817,0.904116,2.000000,1.000000,0.104504,0.000000,0.517433,1.000000,1.000000,0.000000,1.000000
5,0.000009,0.232868,0.692554,0.000000,0.705926,0.000000,0.200873,0.962743,2.000000,1.000000,0.077739,0.126883,0.476237,0.879632,1.000000,0.022942,2.000000
6,0.000006,0.035058,0.745428,0.000000,0.705926,0.000000,0.163487,0.962743,0.000000,0.819458,0.166796,0.126883,0.432097,1.000000,1.000000,0.116487,2.000000
7,0.000001,0.173181,0.805027,0.050503,0.690447,0.000000,0.199389,1.000000,2.000000,0.986197,0.161895,0.000000,0.554427,0.812848,0.924996,0.085893,2.000000
gen, fitness
0,0.026348,0.000000,1.000000,0.210000,0.800000,0.030000,0.030000,1.000000,0.000000,1.000000,0.000000,0.000000,0.600000,1.000000,1.000000,0.000000,0.000000
1,0.026348,0.000000,1.000000,0.210000,0.800000,0.030000,0.030000,1.000000,0.000000,1.000000,0.000000,0.000000,0.600000,1.000000,1.000000,0.000000,0.000000
2,0.010801,0.000000,0.974515,0.106938,0.713510,0.030000,0.000000,1.000000,2.000000,1.000000,0.124506,0.000000,0.538222,1.000000,0.811568,0.177335,0.000000
3,0.005461,0.038772,1.000000,0.210000,0.449726,0.000000,0.000000,1.000000,1.000000,0.963005,0.068457,0.027148,0.419356,0.989216,1.000000,0.000000,0.000000
4,0.002054,0.000000,0.940468,0.207884,0.455480,0.110220,0.095521,1.000000,1.000000,0.935415,0.000000,0.000000,0.201180,0.878749,0.866848,0.000000,1.000000
5,0.001292,0.069620,0.967048,0.106869,0.530568,0.104658,0.000000,1.000000,1.000000,0.893308,0.184275,0.000000,0.315496,1.000000,0.997348,0.000000,2.000000
6,0.000863,0.042661,0.859864,0.106869,0.500727,0.104658,0.000000,1.000000,2.000000,0.936869,0.128523,0.013159,0.257399,0.984676,0.997348,0.142944,0.000000
7,0.000220,0.000000,1.000000,0.000000,0.553523,0.138163,0.000000,1.000000,0.000000,0.919713,0.297142,0.008195,0.158751,1.000000,0.866848,0.000000,0.000000
8,0.000064,0.000000,1.000000,0.000000,0.553523,0.123244,0.000000,1.000000,0.000000,1.000000,0.496734,0.008195,0.158751,0.966319,0.767522,0.071965,2.000000
9,0.000022,0.109474,0.951780,0.227241,0.308619,0.176502,0.269008,1.000000,2.000000,1.000000,0.000000,0.011757,0.123105,0.804247,0.522116,0.422262,2.000000
10,0.000022,0.109474,0.951780,0.227241,0.308619,0.176502,0.269008,1.000000,2.000000,1.000000,0.000000,0.011757,0.123105,0.804247,0.522116,0.422262,2.000000
11,0.000012,0.107945,0.762529,0.000000,0.488857,0.123244,0.000000,1.000000,1.000000,0.871276,0.491637,0.088887,0.106643,1.000000,0.767522,0.000000,1.000000
12,0.000012,0.107945,0.762529,0.000000,0.488857,0.123244,0.000000,1.000000,1.000000,0.871276,0.491637,0.088887,0.106643,1.000000,0.767522,0.000000,1.000000
13,0.000005,0.094070,1.000000,0.084356,0.453486,0.214236,0.000000,0.892032,0.000000,0.906722,0.676169,0.148116,0.000000,0.948624,0.907431,0.345894,2.000000
14,0.000005,0.094070,1.000000,0.084356,0.453486,0.214236,0.000000,0.892032,0.000000,0.906722,0.676169,0.148116,0.000000,0.948624,0.907431,0.345894,2.000000
15,0.000003,0.000000,0.822338,0.155646,0.418180,0.105703,0.584230,0.532204,2.000000,1.000000,0.454030,0.070090,0.039745,0.936657,0.924104,0.000000,1.000000
16,0.000003,0.000000,0.822338,0.155646,0.418180,0.105703,0.584230,0.532204,2.000000,1.000000,0.454030,0.070090,0.039745,0.936657,0.924104,0.000000,1.000000
17,0.000003,0.106618,0.568982,0.227200,0.272288,0.059478,0.797059,0.569117,1.000000,0.822274,0.515903,0.000000,0.158751,0.899592,0.733784,0.000000,0.000000
18,0.000003,0.106618,0.568982,0.227200,0.272288,0.059478,0.797059,0.569117,1.000000,0.822274,0.515903,0.000000,0.158751,0.899592,0.733784,0.000000,0.000000
19,0.000003,0.106618,0.568982,0.227200,0.272288,0.059478,0.797059,0.569117,1.000000,0.822274,0.515903,0.000000,0.158751,0.899592,0.733784,0.000000,0.000000
gen, fitness
0,0.052335,0.000000,1.000000,0.210000,0.800000,0.030000,0.030000,1.000000,0.000000,1.000000,0.000000,0.000000,0.600000,1.000000,1.000000,0.000000,0.000000
1,0.052335,0.000000,1.000000,0.210000,0.800000,0.030000,0.030000,1.000000,0.000000,1.000000,0.000000,0.000000,0.600000,1.000000,1.000000,0.000000,0.000000
2,0.028240,0.000000,0.817021,0.086993,0.721637,0.030000,0.058363,0.953049,2.000000,1.000000,0.000000,0.039311,0.526456,0.958157,0.965505,0.000000,0.000000
3,0.017444,0.315050,0.901485,0.143622,0.570695,0.107356,0.166675,0.947774,2.000000,0.878920,0.000000,0.000000,0.540920,0.777576,1.000000,0.078971,0.000000
4,0.006232,0.503237,0.901485,0.000000,0.570695,0.107356,0.238092,0.726684,1.000000,0.856965,0.000000,0.000000,0.415187,1.000000,0.844888,0.017210,0.000000
5,0.006232,0.503237,0.901485,0.000000,0.570695,0.107356,0.238092,0.726684,1.000000,0.856965,0.000000,0.000000,0.415187,1.000000,0.844888,0.017210,0.000000
6,0.003616,0.021851,0.827603,0.109718,0.485689,0.000000,0.000000,0.849771,0.000000,1.000000,0.062878,0.000000,0.098445,0.904560,0.873844,0.228827,0.000000
7,0.000186,0.505553,0.901485,0.000000,0.423623,0.060365,0.223329,0.775609,0.000000,1.000000,0.000000,0.000000,0.156813,1.000000,1.000000,0.386940,1.000000
8,0.000074,0.426494,1.000000,0.045878,0.357954,0.000000,0.180065,0.727206,1.000000,1.000000,0.000000,0.077754,0.000000,1.000000,0.924977,0.328183,2.000000
9,0.000056,0.472270,0.873099,0.008300,0.329036,0.269489,0.086351,0.566496,0.000000,0.908153,0.000000,0.000000,0.104543,1.000000,0.710468,0.154025,0.000000
10,0.000053,0.625262,1.000000,0.084463,0.240753,0.033803,0.191654,0.929554,0.000000,0.990504,0.147916,0.084929,0.065398,0.742798,0.817737,0.121104,0.000000
11,0.000047,0.628155,0.961101,0.045878,0.334252,0.000000,0.081262,0.287099,0.000000,0.908153,0.000000,0.047132,0.155236,0.909993,0.804972,0.091915,0.000000
12,0.000013,0.335328,0.552282,0.000000,0.375691,0.127039,0.136554,0.612167,2.000000,1.000000,0.260676,0.000000,0.000000,1.000000,0.715108,0.404800,2.000000
13,0.000013,0.335328,0.552282,0.000000,0.375691,0.127039,0.136554,0.612167,2.000000,1.000000,0.260676,0.000000,0.000000,1.000000,0.715108,0.404800,2.000000
14,0.000000,0.655646,0.961101,0.000000,0.409461,0.000000,0.188097,0.191400,1.000000,1.000000,0.161185,0.195734,0.000000,1.000000,0.854429,0.272059,0.000000
gen, fitness
0,0.080636,0.000000,1.000000,0.210000,0.800000,0.030000,0.030000,1.000000,0.000000,1.000000,0.000000,0.000000,0.600000,1.000000,1.000000,0.000000,0.000000
1,0.080636,0.000000,1.000000,0.210000,0.800000,0.030000,0.030000,1.000000,0.000000,1.000000,0.000000,0.000000,0.600000,1.000000,1.000000,0.000000,0.000000
2,0.039356,0.000000,1.000000,0.134517,0.656189,0.003772,0.040670,1.000000,0.000000,1.000000,0.017630,0.000000,0.469409,1.000000,0.936780,0.000000,1.000000
3,0.024798,0.000000,1.000000,0.085436,0.522073,0.000000,0.001134,1.000000,2.000000,0.896047,0.000000,0.000000,0.330737,1.000000,0.837939,0.000000,0.000000
4,0.012874,0.113912,1.000000,0.076973,0.379935,0.000000,0.182983,1.000000,1.000000,0.936333,0.000000,0.000000,0.245704,1.000000,0.680497,0.000000,2.000000
5,0.012874,0.113912,1.000000,0.076973,0.379935,0.000000,0.182983,1.000000,1.000000,0.936333,0.000000,0.000000,0.245704,1.000000,0.680497,0.000000,2.000000
6,0.007616,0.468689,0.966137,0.080907,0.286925,0.131170,0.142094,0.832604,0.000000,0.759528,0.199415,0.000000,0.222438,1.000000,0.819206,0.000000,2.000000
7,0.005801,0.400135,0.883788,0.000000,0.367180,0.000000,0.060505,1.000000,2.000000,1.000000,0.000000,0.000000,0.238176,0.715399,0.907689,0.021473,0.000000
8,0.003471,0.019330,0.633985,0.000000,0.268953,0.161189,0.240115,0.703572,1.000000,0.773490,0.183467,0.000000,0.000000,0.967775,0.950905,0.000000,2.000000
9,0.000498,0.325855,0.549573,0.000000,0.254361,0.057685,0.322372,0.702666,0.000000,0.930267,0.158483,0.000000,0.000000,0.925436,0.789882,0.000000,1.000000
10,0.000427,0.531521,0.738749,0.000000,0.222939,0.211279,0.426190,0.617185,0.000000,0.930993,0.000000,0.017532,0.089699,0.998706,1.000000,0.000000,1.000000
11,0.000375,0.722725,0.916538,0.000000,0.197872,0.274186,0.489426,0.389190,1.000000,0.858384,0.000000,0.017532,0.089699,0.998706,1.000000,0.000000,2.000000
12,0.000020,0.549829,0.735099,0.000000,0.138643,0.217288,0.000000,0.833956,1.000000,0.898021,0.051148,0.029136,0.000000,1.000000,1.000000,0.019219,0.000000
13,0.000005,0.733149,0.916538,0.016300,0.170744,0.217884,0.029000,0.625039,1.000000,0.982548,0.000000,0.083008,0.024483,1.000000,0.971581,0.007986,1.000000
14,0.000005,0.733149,0.916538,0.016300,0.170744,0.217884,0.029000,0.625039,1.000000,0.982548,0.000000,0.083008,0.024483,1.000000,0.971581,0.007986,1.000000
15,0.000005,0.733149,0.916538,0.016300,0.170744,0.217884,0.029000,0.625039,1.000000,0.982548,0.000000,0.083008,0.024483,1.000000,0.971581,0.007986,1.000000
16,0.000005,0.732120,0.852802,0.057120,0.025744,0.380000,0.053947,0.838424,2.000000,0.807840,0.369084,0.107877,0.000000,1.000000,0.945146,0.000000,0.000000
17,0.000005,0.732120,0.852802,0.057120,0.025744,0.380000,0.053947,0.838424,2.000000,0.807840,0.369084,0.107877,0.000000,1.000000,0.945146,0.000000,0.000000
18,0.000000,0.453174,0.793308,0.000000,0.100926,0.029769,0.000000,0.894157,1.000000,0.785746,0.000000,0.000000,0.004057,0.957955,0.971581,0.000000,0.000000
gen, fitness
0,0.025383,0.000000,1.000000,0.210000,0.800000,0.030000,0.030000,1.000000,0.000000,1.000000,0.000000,0.000000,0.600000,1.000000,1.000000,0.000000,0.000000
1,0.025383,0.000000,1.000000,0.210000,0.800000,0.030000,0.030000,1.000000,0.000000,1.000000,0.000000,0.000000,0.600000,1.000000,1.000000,0.000000,0.000000
2,0.008506,0.069092,1.000000,0.162263,0.649263,0.174504,0.048058,1.000000,2.000000,1.000000,0.000000,0.020736,0.519065,1.000000,1.000000,0.000000,1.000000
3,0.007057,0.137730,0.959212,0.255587,0.535269,0.131093,0.000000,0.888939,2.000000,1.000000,0.000000,0.000000,0.519065,1.000000,1.000000,0.103673,2.000000
4,0.003859,0.132092,0.921139,0.064483,0.569250,0.081377,0.257406,1.000000,0.000000,1.000000,0.229891,0.000000,0.434307,0.919244,1.000000,0.000000,0.000000
5,0.002522,0.000000,0.927506,0.000000,0.580390,0.151319,0.257406,0.920602,1.000000,1.000000,0.229891,0.000000,0.308787,0.932330,0.960926,0.000000,2.000000
6,0.001205,0.328159,0.665991,0.000000,0.569250,0.002273,0.446466,1.000000,0.000000,0.985198,0.114133,0.000000,0.388538,0.920330,0.841905,0.000000,2.000000
7,0.000483,0.498630,0.895952,0.041563,0.415245,0.073914,0.131668,0.707066,1.000000,0.867584,0.191148,0.000000,0.257015,1.000000,0.742508,0.136692,1.000000
8,0.000032,0.056790,1.000000,0.027571,0.425897,0.000000,0.000000,0.707066,0.000000,0.799662,0.358594,0.000000,0.097256,0.978293,0.535914,0.121617,0.000000
9,0.000032,0.056790,1.000000,0.027571,0.425897,0.000000,0.000000,0.707066,0.000000,0.799662,0.358594,0.000000,0.097256,0.978293,0.535914,0.121617,0.000000
10,0.000028,0.402629,1.000000,0.078180,0.379347,0.434106,0.088630,0.973974,0.000000,0.916377,0.159248,0.000000,0.274383,0.945256,0.646546,0.062693,2.000000
11,0.000009,0.143050,1.000000,0.078180,0.379347,0.509036,0.290355,0.880281,1.000000,0.959894,0.202018,0.076508,0.031281,0.888499,0.817871,0.072847,1.000000
12,0.000009,0.143050,1.000000,0.078180,0.379347,0.509036,0.290355,0.880281,1.000000,0.959894,0.202018,0.076508,0.031281,0.888499,0.817871,0.072847,1.000000
13,0.000003,0.000000,0.990218,0.000000,0.443943,0.241642,0.000941,0.890128,0.000000,0.854082,0.197533,0.053860,0.011851,0.785683,0.914017,0.101398,1.000000
14,0.000003,0.000000,0.990218,0.000000,0.443943,0.241642,0.000941,0.890128,0.000000,0.854082,0.197533,0.053860,0.011851,0.785683,0.914017,0.101398,1.000000
15,0.000002,0.317817,0.554891,0.144572,0.290311,0.000000,0.406168,0.877857,1.000000,0.913026,0.489542,0.000000,0.177277,0.760807,0.884752,0.148294,1.000000
16,0.000000,0.278296,0.598028,0.048802,0.423404,0.073914,0.321144,0.728847,0.000000,0.936481,0.445628,0.070532,0.124504,0.938513,0.542300,0.004144,0.000000
