gen, fitness
0,0.013430,0.000000,1.000000,0.210000,0.800000,0.030000,0.030000,1.000000,0.000000,1.000000,0.000000,0.000000,0.600000,1.000000,1.000000,0.000000,0.000000
1,0.013430,0.000000,1.000000,0.210000,0.800000,0.030000,0.030000,1.000000,0.000000,1.000000,0.000000,0.000000,0.600000,1.000000,1.000000,0.000000,0.000000
2,0.000280,0.000000,1.000000,0.127948,0.704579,0.030000,0.030000,1.000000,0.000000,1.000000,0.000000,0.000000,0.600000,1.000000,0.944261,0.168122,0.000000
3,0.000181,0.000000,1.000000,0.127948,0.704579,0.030000,0.030000,1.000000,1.000000,1.000000,0.000000,0.000000,0.600000,1.000000,0.983385,0.168122,0.000000
4,0.000001,0.000000,0.977068,0.073755,0.744539,0.030000,0.012063,1.000000,0.000000,1.000000,0.251275,0.000000,0.600000,1.000000,0.914993,0.027660,0.000000
gen, fitness
0,0.034276,0.000000,1.000000,0.210000,0.800000,0.030000,0.030000,1.000000,0.000000,1.000000,0.000000,0.000000,0.600000,1.000000,1.000000,0.000000,0.000000
1,0.034276,0.000000,1.000000,0.210000,0.800000,0.030000,0.030000,1.000000,0.000000,1.000000,0.000000,0.000000,0.600000,1.000000,1.000000,0.000000,0.000000
2,0.021308,0.000000,1.000000,0.210000,0.800000,0.030000,0.030000,1.000000,2.000000,1.000000,0.000000,0.000000,0.787492,1.000000,1.000000,0.000000,0.000000
3,0.016975,0.000000,1.000000,0.283488,0.800000,0.055957,0.030000,1.000000,2.000000,0.948304,0.112934,0.000000,0.809399,1.000000,1.000000,0.000000,2.000000
4,0.005020,0.000000,0.985717,0.210000,0.980117,0.030000,0.030000,0.982474,0.000000,0.948478,0.000000,0.177427,0.916703,1.000000,0.963866,0.000000,1.000000
5,0.003917,0.000000,0.985717,0.210000,0.980117,0.030000,0.030000,0.852851,2.000000,0.948478,0.000000,0.177427,0.971118,1.000000,1.000000,0.151529,2.000000
6,0.003917,0.000000,0.985717,0.210000,0.980117,0.030000,0.030000,0.852851,2.000000,0.948478,0.000000,0.177427,0.971118,1.000000,1.000000,0.151529,2.000000
7,0.003295,0.000000,1.000000,0.094506,1.000000,0.030000,0.034307,1.000000,2.000000,0.948478,0.032862,0.123108,0.971118,1.000000,1.000000,0.151529,1.000000
8,0.003127,0.228707,1.000000,0.039447,1.000000,0.030000,0.008073,0.901462,2.000000,0.570531,0.129196,0.177427,1.000000,0.845139,1.000000,0.000000,2.000000
9,0.002604,0.000000,1.000000,0.210000,1.000000,0.030000,0.030000,1.000000,2.000000,0.946627,0.032862,0.112045,1.000000,0.861534,1.000000,0.312406,2.000000
10,0.002379,0.000000,1.000000,0.347098,1.000000,0.021976,0.030000,0.950473,2.000000,0.948478,0.000000,0.205283,1.000000,1.000000,1.000000,0.418143,1.000000
11,0.002292,0.000000,1.000000,0.210000,1.000000,0.030000,0.096458,1.000000,2.000000,0.946627,0.015969,0.265173,0.971118,0.970814,1.000000,0.076691,2.000000
12,0.001819,0.000000,1.000000,0.078954,1.000000,0.135678,0.000000,0.895044,2.000000,0.868767,0.000000,0.335792,0.950485,1.000000,1.000000,0.505479,2.000000
13,0.001819,0.000000,1.000000,0.078954,1.000000,0.135678,0.000000,0.895044,2.000000,0.868767,0.000000,0.335792,0.950485,1.000000,1.000000,0.505479,2.000000
14,0.001595,0.000000,0.846879,0.242362,1.000000,0.116127,0.000000,0.948863,2.000000,0.444913,0.093639,0.313795,1.000000,0.744664,0.854605,0.505479,2.000000
15,0.001595,0.000000,0.846879,0.242362,1.000000,0.116127,0.000000,0.948863,2.000000,0.444913,0.093639,0.313795,1.000000,0.744664,0.854605,0.505479,2.000000
16,0.001474,0.000000,1.000000,0.483931,1.000000,0.021976,0.000000,1.000000,2.000000,0.868767,0.080876,0.335792,1.000000,0.878846,0.864539,0.479364,2.000000
17,0.001474,0.000000,1.000000,0.483931,1.000000,0.021976,0.000000,1.000000,2.000000,0.868767,0.080876,0.335792,1.000000,0.878846,0.864539,0.479364,2.000000
18,0.001472,0.000000,1.000000,0.483931,1.000000,0.021976,0.000000,1.000000,2.000000,0.868767,0.009187,0.335792,1.000000,0.878846,0.864539,0.479364,2.000000
19,0.001247,0.000000,1.000000,0.508595,1.000000,0.071986,0.000000,1.000000,2.000000,0.821023,0.080876,0.511533,1.000000,1.000000,1.000000,0.438970,2.000000
20,0.001085,0.000000,1.000000,0.534863,1.000000,0.021976,0.034308,1.000000,2.000000,0.946134,0.000000,0.596192,0.976462,0.684754,0.837376,0.505479,2.000000
21,0.001085,0.000000,1.000000,0.534863,1.000000,0.021976,0.034308,1.000000,2.000000,0.946134,0.000000,0.596192,0.976462,0.684754,0.837376,0.505479,2.000000
22,0.001032,0.098427,1.000000,0.467753,1.000000,0.000000,0.000000,1.000000,2.000000,0.897910,0.000000,0.727146,0.976462,0.684754,0.974601,0.430651,2.000000
23,0.001004,0.000000,1.000000,0.614662,1.000000,0.140047,0.085290,1.000000,2.000000,0.826009,0.000000,0.612815,1.000000,1.000000,1.000000,0.454807,2.000000
24,0.000926,0.098427,1.000000,0.467753,1.000000,0.000000,0.000000,1.000000,2.000000,0.897910,0.000000,0.630183,0.976462,0.618148,0.911289,0.866610,2.000000
25,0.000828,0.032961,1.000000,0.628365,1.000000,0.021976,0.000000,1.000000,2.000000,0.761382,0.390765,0.605749,1.000000,0.918557,1.000000,0.800739,2.000000
26,0.000814,0.000000,1.000000,0.614662,1.000000,0.140047,0.057347,1.000000,2.000000,0.761382,0.390765,0.605749,1.000000,0.918557,1.000000,0.800739,2.000000
27,0.000722,0.000000,1.000000,0.544536,1.000000,0.036904,0.000000,1.000000,2.000000,0.575836,0.066350,0.675001,1.000000,0.807469,0.864539,0.891855,2.000000
28,0.000624,0.000000,1.000000,0.644809,1.000000,0.192829,0.000000,1.000000,2.000000,0.624691,0.536205,0.831446,1.000000,0.723473,1.000000,0.711362,2.000000
29,0.000624,0.000000,1.000000,0.644809,1.000000,0.192829,0.000000,1.000000,2.000000,0.624691,0.536205,0.831446,1.000000,0.723473,1.000000,0.711362,2.000000
30,0.000563,0.000000,0.971428,0.600042,1.000000,0.000000,0.044271,1.000000,2.000000,0.610597,0.922955,0.831446,1.000000,0.723473,1.000000,0.885225,2.000000
31,0.000546,0.000000,1.000000,0.644809,1.000000,0.002625,0.000000,1.000000,2.000000,0.667766,0.536205,0.831446,1.000000,0.723473,1.000000,0.935283,2.000000
32,0.000515,0.000000,1.000000,0.644809,1.000000,0.002625,0.000000,1.000000,2.000000,0.667766,0.536205,0.841007,1.000000,0.804146,1.000000,1.000000,2.000000
33,0.000515,0.000000,1.000000,0.644809,1.000000,0.002625,0.000000,1.000000,2.000000,0.667766,0.536205,0.841007,1.000000,0.804146,1.000000,1.000000,2.000000
34,0.000509,0.000000,1.000000,0.598305,1.000000,0.127402,0.000000,1.000000,2.000000,0.477785,0.536205,0.861353,1.000000,1.000000,0.985420,1.000000,2.000000
35,0.000483,0.000000,0.772342,0.737790,1.000000,0.000000,0.007306,1.000000,2.000000,0.667766,0.536205,0.929409,1.000000,0.874802,1.000000,1.000000,2.000000
36,0.000483,0.000000,0.772342,0.737790,1.000000,0.000000,0.007306,1.000000,2.000000,0.667766,0.536205,0.929409,1.000000,0.874802,1.000000,1.000000,2.000000
37,0.000422,0.000000,1.000000,0.598305,1.000000,0.127402,0.000000,1.000000,2.000000,0.474048,0.536205,0.981729,1.000000,1.000000,0.985420,1.000000,2.000000
38,0.000422,0.000000,1.000000,0.598305,1.000000,0.127402,0.000000,1.000000,2.000000,0.474048,0.536205,0.981729,1.000000,1.000000,0.985420,1.000000,2.000000
39,0.000422,0.000000,1.000000,0.598305,1.000000,0.127402,0.000000,1.000000,2.000000,0.474048,0.536205,0.981729,1.000000,1.000000,0.985420,1.000000,2.000000
40,0.000417,0.000000,1.000000,0.698163,1.000000,0.107493,0.000000,0.948866,2.000000,0.667766,0.541451,1.000000,1.000000,1.000000,1.000000,1.000000,2.000000
41,0.000417,0.000000,0.973902,0.691731,1.000000,0.000000,0.008623,1.000000,2.000000,0.593757,0.309524,1.000000,0.998511,0.888553,0.989468,1.000000,2.000000
42,0.000417,0.000000,0.973902,0.691731,1.000000,0.000000,0.008623,1.000000,2.000000,0.593757,0.309524,1.000000,0.998511,0.888553,0.989468,1.000000,2.000000
43,0.000410,0.000000,0.955601,0.696785,1.000000,0.002625,0.000000,0.998336,2.000000,0.678684,0.671153,1.000000,0.997748,1.000000,0.943557,1.000000,2.000000
44,0.000410,0.000000,0.955601,0.696785,1.000000,0.002625,0.000000,0.998336,2.000000,0.678684,0.671153,1.000000,0.997748,1.000000,0.943557,1.000000,2.000000
45,0.000410,0.000000,0.955601,0.696785,1.000000,0.002625,0.000000,0.998336,2.000000,0.678684,0.671153,1.000000,0.997748,1.000000,0.943557,1.000000,2.000000
46,0.000410,0.000000,0.955601,0.696785,1.000000,0.002625,0.000000,0.998336,2.000000,0.678684,0.671153,1.000000,0.997748,1.000000,0.943557,1.000000,2.000000
47,0.000410,0.000000,0.955601,0.696785,1.000000,0.002625,0.000000,0.998336,2.000000,0.678684,0.671153,1.000000,0.997748,1.000000,0.943557,1.000000,2.000000
gen, fitness
0,0.044384,0.000000,1.000000,0.210000,0.800000,0.030000,0.030000,1.000000,0.000000,1.000000,0.000000,0.000000,0.600000,1.000000,1.000000,0.000000,0.000000
1,0.044384,0.000000,1.000000,0.210000,0.800000,0.030000,0.030000,1.000000,0.000000,1.000000,0.000000,0.000000,0.600000,1.000000,1.000000,0.000000,0.000000
2,0.029445,0.137329,1.000000,0.210000,0.800000,0.110512,0.030000,1.000000,1.000000,1.000000,0.000000,0.000000,0.757262,1.000000,1.000000,0.000000,1.000000
3,0.025040,0.000000,0.867777,0.286412,0.914051,0.075093,0.030000,1.000000,0.000000,1.000000,0.000000,0.200875,0.750212,1.000000,0.939798,0.000000,1.000000
4,0.018968,0.000000,0.867777,0.286412,0.914051,0.075093,0.000000,0.851004,2.000000,0.908048,0.000000,0.000000,0.847323,0.973950,0.946655,0.000000,2.000000
5,0.017090,0.000000,0.780039,0.290260,0.914051,0.075093,0.000000,0.676539,2.000000,0.764507,0.119525,0.159421,0.847382,1.000000,1.000000,0.007839,0.000000
6,0.012945,0.000000,0.867777,0.286412,0.978564,0.075093,0.000000,0.851004,2.000000,0.908048,0.000000,0.000000,0.950703,0.973950,0.946655,0.000000,1.000000
7,0.011340,0.000000,0.867777,0.286412,0.978564,0.075093,0.000000,0.851004,2.000000,0.908048,0.000000,0.000000,0.976645,0.973950,0.914611,0.000000,2.000000
8,0.011340,0.000000,0.867777,0.286412,0.978564,0.075093,0.000000,0.851004,2.000000,0.908048,0.000000,0.000000,0.976645,0.973950,0.914611,0.000000,2.000000
9,0.010833,0.000000,0.799316,0.233308,1.000000,0.047736,0.077289,1.000000,1.000000,0.821689,0.000000,0.081316,0.978608,1.000000,0.914611,0.000000,2.000000
10,0.009728,0.046957,1.000000,0.397158,0.991529,0.000000,0.000000,0.851004,2.000000,0.887071,0.113412,0.081316,1.000000,1.000000,0.914611,0.000000,2.000000
11,0.009371,0.000000,0.700297,0.416057,1.000000,0.000000,0.000000,0.851004,2.000000,0.888495,0.000000,0.171086,0.994650,0.973950,0.914611,0.000000,2.000000
12,0.008705,0.143545,1.000000,0.430299,1.000000,0.036903,0.000000,0.851004,2.000000,0.661123,0.000000,0.361286,1.000000,1.000000,1.000000,0.000000,2.000000
13,0.008572,0.048536,1.000000,0.845318,1.000000,0.000000,0.055669,0.765501,2.000000,0.816158,0.000000,0.361286,1.000000,1.000000,0.619033,0.059952,2.000000
14,0.008153,0.048536,0.943298,0.331438,1.000000,0.000000,0.110512,1.000000,2.000000,0.319607,0.077850,0.406617,1.000000,0.879330,0.894431,0.000000,2.000000
15,0.008153,0.048536,0.943298,0.331438,1.000000,0.000000,0.110512,1.000000,2.000000,0.319607,0.077850,0.406617,1.000000,0.879330,0.894431,0.000000,2.000000
16,0.008153,0.048536,0.943298,0.331438,1.000000,0.000000,0.110512,1.000000,2.000000,0.319607,0.077850,0.406617,1.000000,0.879330,0.894431,0.000000,2.000000
17,0.007874,0.000000,0.786860,0.717721,0.978564,0.000000,0.000000,0.839801,2.000000,0.319607,0.077850,0.406617,1.000000,0.879330,0.613758,0.016548,2.000000
18,0.007764,0.000000,1.000000,0.837374,1.000000,0.000000,0.139477,0.773901,2.000000,0.751950,0.000000,0.639649,1.000000,1.000000,0.847318,0.107010,2.000000
19,0.007764,0.000000,1.000000,0.837374,1.000000,0.000000,0.139477,0.773901,2.000000,0.751950,0.000000,0.639649,1.000000,1.000000,0.847318,0.107010,2.000000
20,0.007764,0.000000,1.000000,0.837374,1.000000,0.000000,0.139477,0.773901,2.000000,0.751950,0.000000,0.639649,1.000000,1.000000,0.847318,0.107010,2.000000
21,0.007764,0.000000,1.000000,0.837374,1.000000,0.000000,0.139477,0.773901,2.000000,0.751950,0.000000,0.639649,1.000000,1.000000,0.847318,0.107010,2.000000
22,0.007715,0.000000,1.000000,0.628467,0.978564,0.000000,0.241374,1.000000,2.000000,0.319607,0.077850,0.487833,1.000000,0.853084,0.838483,0.176849,2.000000
23,0.007698,0.000000,0.999482,0.643399,0.978564,0.000000,0.159382,1.000000,2.000000,0.319607,0.000000,0.430157,1.000000,0.933602,0.539461,0.126666,2.000000
24,0.007171,0.000000,0.885853,0.673188,1.000000,0.047614,0.184894,0.943600,2.000000,0.319607,0.077850,0.826486,1.000000,0.881113,0.671975,0.109054,2.000000
25,0.007171,0.000000,0.885853,0.673188,1.000000,0.047614,0.184894,0.943600,2.000000,0.319607,0.077850,0.826486,1.000000,0.881113,0.671975,0.109054,2.000000
26,0.007159,0.000000,0.885853,0.673188,1.000000,0.047614,0.184894,1.000000,2.000000,0.319607,0.000000,0.826486,1.000000,0.853084,0.838483,0.117106,2.000000
27,0.007159,0.000000,0.885853,0.673188,1.000000,0.047614,0.184894,1.000000,2.000000,0.319607,0.000000,0.826486,1.000000,0.853084,0.838483,0.117106,2.000000
28,0.007058,0.035851,0.935414,0.628467,1.000000,0.000000,0.000000,0.991135,2.000000,0.313389,0.022841,0.978794,1.000000,0.317392,0.671975,0.109054,2.000000
29,0.006931,0.000000,1.000000,0.673188,1.000000,0.156580,0.000000,0.991135,2.000000,0.313389,0.000000,0.969023,1.000000,0.323033,0.671975,0.214166,2.000000
30,0.006914,0.025130,0.880285,0.673188,1.000000,0.000000,0.159814,1.000000,2.000000,0.313389,0.000000,0.969023,1.000000,0.385311,0.581647,0.214166,2.000000
31,0.006908,0.025130,0.783923,0.673188,1.000000,0.033667,0.245541,1.000000,2.000000,0.243869,0.098935,0.977833,1.000000,0.910828,0.852202,0.185714,2.000000
32,0.006860,0.000000,1.000000,0.720435,1.000000,0.047614,0.184894,0.991135,2.000000,0.313389,0.022841,0.976589,1.000000,0.542498,0.766814,0.231564,2.000000
33,0.006838,0.000000,0.880285,0.673188,1.000000,0.000000,0.255209,1.000000,2.000000,0.191719,0.000000,0.980823,1.000000,0.961293,0.618577,0.000000,2.000000
34,0.006830,0.000000,0.829905,0.673188,1.000000,0.000000,0.143927,1.000000,2.000000,0.313389,0.000000,0.909924,1.000000,0.481670,0.739857,0.472719,2.000000
35,0.006766,0.000000,0.848959,0.733843,1.000000,0.156580,0.134421,1.000000,2.000000,0.237042,0.051935,1.000000,1.000000,0.910592,0.595695,0.276239,2.000000
36,0.006743,0.000000,1.000000,0.673188,1.000000,0.156580,0.000000,0.955401,2.000000,0.349692,0.051935,1.000000,1.000000,0.910592,0.732931,0.527065,2.000000
37,0.006710,0.000000,1.000000,0.673188,1.000000,0.156580,0.000000,1.000000,2.000000,0.349692,0.021483,1.000000,1.000000,0.892933,0.732931,0.527065,2.000000
38,0.006645,0.000000,0.848959,0.733843,1.000000,0.156580,0.000000,1.000000,2.000000,0.349692,0.021483,1.000000,1.000000,0.892933,0.674078,0.527065,2.000000
39,0.006559,0.000000,0.846356,0.673188,1.000000,0.072350,0.000000,1.000000,2.000000,0.289548,0.021483,1.000000,1.000000,0.892933,0.674078,0.646644,2.000000
40,0.006541,0.000000,0.848959,0.751635,1.000000,0.000000,0.052972,0.998834,2.000000,0.355958,0.000000,1.000000,1.000000,0.828270,0.630965,0.646644,2.000000
41,0.006541,0.000000,0.848959,0.751635,1.000000,0.000000,0.052972,0.998834,2.000000,0.355958,0.000000,1.000000,1.000000,0.828270,0.630965,0.646644,2.000000
42,0.006461,0.000000,0.965126,0.751635,1.000000,0.000000,0.250215,1.000000,2.000000,0.355958,0.000000,1.000000,1.000000,0.828270,0.660451,0.858994,2.000000
43,0.006461,0.000000,0.965126,0.751635,1.000000,0.000000,0.250215,1.000000,2.000000,0.355958,0.000000,1.000000,1.000000,0.828270,0.660451,0.858994,2.000000
44,0.006457,0.000000,0.979085,0.657318,1.000000,0.000000,0.000000,0.947832,2.000000,0.164591,0.000000,1.000000,1.000000,0.887330,0.615207,0.809310,2.000000
45,0.006457,0.000000,0.979085,0.657318,1.000000,0.000000,0.000000,0.947832,2.000000,0.164591,0.000000,1.000000,1.000000,0.887330,0.615207,0.809310,2.000000
46,0.006457,0.000000,0.979085,0.657318,1.000000,0.000000,0.000000,0.947832,2.000000,0.164591,0.000000,1.000000,1.000000,0.887330,0.615207,0.809310,2.000000
47,0.006457,0.000000,0.979085,0.657318,1.000000,0.000000,0.000000,0.947832,2.000000,0.164591,0.000000,1.000000,1.000000,0.887330,0.615207,0.809310,2.000000
48,0.006427,0.000000,0.965126,0.751635,1.000000,0.000000,0.250215,1.000000,2.000000,0.355958,0.000000,1.000000,1.000000,0.913454,0.579264,0.858994,2.000000
49,0.006409,0.000000,1.000000,0.751635,1.000000,0.041335,0.197464,1.000000,2.000000,0.381136,0.040938,1.000000,1.000000,0.798524,0.660451,1.000000,2.000000
50,0.006409,0.000000,1.000000,0.751635,1.000000,0.041335,0.197464,1.000000,2.000000,0.381136,0.040938,1.000000,1.000000,0.798524,0.660451,1.000000,2.000000
51,0.006409,0.000000,1.000000,0.751635,1.000000,0.041335,0.197464,1.000000,2.000000,0.381136,0.040938,1.000000,1.000000,0.798524,0.660451,1.000000,2.000000
52,0.006392,0.000000,0.979085,0.621777,1.000000,0.000000,0.000000,0.947832,2.000000,0.144746,0.000000,1.000000,1.000000,0.913454,0.579264,0.858994,2.000000
53,0.006387,0.000000,0.965126,0.751635,1.000000,0.086272,0.012318,1.000000,2.000000,0.355958,0.000000,1.000000,1.000000,0.881217,0.619909,1.000000,2.000000
54,0.006313,0.000000,0.901078,0.668204,1.000000,0.000000,0.000000,1.000000,2.000000,0.164591,0.004838,1.000000,1.000000,0.887330,0.546992,1.000000,2.000000
55,0.006308,0.000000,0.901078,0.668204,1.000000,0.000000,0.062502,1.000000,2.000000,0.178143,0.000000,1.000000,1.000000,0.887330,0.546992,1.000000,2.000000
56,0.006308,0.000000,0.901078,0.668204,1.000000,0.000000,0.062502,1.000000,2.000000,0.178143,0.000000,1.000000,1.000000,0.887330,0.546992,1.000000,2.000000
57,0.006308,0.000000,0.901078,0.668204,1.000000,0.000000,0.062502,1.000000,2.000000,0.178143,0.000000,1.000000,1.000000,0.887330,0.546992,1.000000,2.000000
58,0.006308,0.000000,0.901078,0.668204,1.000000,0.000000,0.062502,1.000000,2.000000,0.178143,0.000000,1.000000,1.000000,0.887330,0.546992,1.000000,2.000000
59,0.006308,0.000000,0.901078,0.668204,1.000000,0.000000,0.062502,1.000000,2.000000,0.178143,0.000000,1.000000,1.000000,0.887330,0.546992,1.000000,2.000000
60,0.006290,0.000000,1.000000,0.647758,1.000000,0.032951,0.000000,1.000000,2.000000,0.190706,0.000000,1.000000,1.000000,0.864587,0.529316,1.000000,2.000000
61,0.006195,0.000000,1.000000,0.678679,1.000000,0.017956,0.024139,1.000000,2.000000,0.164591,0.004838,1.000000,1.000000,1.000000,0.209743,1.000000,2.000000
62,0.006195,0.000000,1.000000,0.678679,1.000000,0.017956,0.024139,1.000000,2.000000,0.164591,0.004838,1.000000,1.000000,1.000000,0.209743,1.000000,2.000000
63,0.006195,0.000000,1.000000,0.678679,1.000000,0.017956,0.024139,1.000000,2.000000,0.164591,0.004838,1.000000,1.000000,1.000000,0.209743,1.000000,2.000000
64,0.006195,0.000000,1.000000,0.678679,1.000000,0.017956,0.024139,1.000000,2.000000,0.164591,0.004838,1.000000,1.000000,1.000000,0.209743,1.000000,2.000000
65,0.006195,0.000000,1.000000,0.678679,1.000000,0.017956,0.024139,1.000000,2.000000,0.164591,0.004838,1.000000,1.000000,1.000000,0.209743,1.000000,2.000000
66,0.006195,0.000000,0.942441,0.644912,1.000000,0.000000,0.113791,1.000000,2.000000,0.134853,0.000000,1.000000,1.000000,1.000000,0.209743,1.000000,2.000000
67,0.006195,0.000000,0.942441,0.644912,1.000000,0.000000,0.113791,1.000000,2.000000,0.134853,0.000000,1.000000,1.000000,1.000000,0.209743,1.000000,2.000000
68,0.006195,0.000000,0.942441,0.644912,1.000000,0.000000,0.113791,1.000000,2.000000,0.134853,0.000000,1.000000,1.000000,1.000000,0.209743,1.000000,2.000000
69,0.006195,0.000000,0.942441,0.644912,1.000000,0.000000,0.113791,1.000000,2.000000,0.134853,0.000000,1.000000,1.000000,1.000000,0.209743,1.000000,2.000000
70,0.006195,0.000000,0.942441,0.644912,1.000000,0.000000,0.113791,1.000000,2.000000,0.134853,0.000000,1.000000,1.000000,1.000000,0.209743,1.000000,2.000000
71,0.006186,0.000000,1.000000,0.678679,1.000000,0.000000,0.011499,1.000000,2.000000,0.164591,0.000000,1.000000,1.000000,1.000000,0.117451,0.958948,2.000000
gen, fitness
0,0.006335,0.000000,1.000000,0.210000,0.800000,0.030000,0.030000,1.000000,0.000000,1.000000,0.000000,0.000000,0.600000,1.000000,1.000000,0.000000,0.000000
1,0.006335,0.000000,1.000000,0.210000,0.800000,0.030000,0.030000,1.000000,0.000000,1.000000,0.000000,0.000000,0.600000,1.000000,1.000000,0.000000,0.000000
2,0.000263,0.000000,1.000000,0.210000,0.800000,0.030000,0.030000,1.000000,0.000000,1.000000,0.000000,0.188213,0.600000,1.000000,1.000000,0.000000,2.000000
3,0.000020,0.000000,0.955596,0.145690,0.800000,0.030000,0.000000,1.000000,0.000000,1.000000,0.000000,0.000000,0.671009,1.000000,0.898370,0.000000,2.000000
4,0.000016,0.000000,1.000000,0.210000,0.762255,0.091459,0.274861,1.000000,1.000000,1.000000,0.170824,0.000000,0.654244,1.000000,1.000000,0.000000,0.000000
5,0.000016,0.000000,1.000000,0.210000,0.762255,0.091459,0.274861,1.000000,1.000000,1.000000,0.170824,0.000000,0.654244,1.000000,1.000000,0.000000,0.000000
6,0.000016,0.000000,1.000000,0.210000,0.762255,0.091459,0.274861,1.000000,1.000000,1.000000,0.170824,0.000000,0.654244,1.000000,1.000000,0.000000,0.000000
7,0.000008,0.000000,1.000000,0.145106,0.800000,0.000000,0.000000,0.897249,1.000000,1.000000,0.000000,0.000000,0.671009,0.899129,0.960839,0.000000,1.000000
8,0.000004,0.000000,0.916383,0.124306,0.803743,0.000000,0.336893,0.928075,0.000000,0.976714,0.151858,0.242624,0.545235,1.000000,0.866425,0.148131,2.000000
9,0.000004,0.000000,0.916383,0.124306,0.803743,0.000000,0.336893,0.928075,0.000000,0.976714,0.151858,0.242624,0.545235,1.000000,0.866425,0.148131,2.000000
10,0.000001,0.000000,1.000000,0.089040,0.820990,0.000000,0.163057,0.947546,1.000000,1.000000,0.000000,0.000000,0.680981,0.887303,0.823357,0.000000,0.000000
11,0.000001,0.000000,1.000000,0.089040,0.820990,0.000000,0.163057,0.947546,1.000000,1.000000,0.000000,0.000000,0.680981,0.887303,0.823357,0.000000,0.000000
12,0.000001,0.000000,1.000000,0.089040,0.820990,0.000000,0.163057,0.947546,1.000000,1.000000,0.000000,0.000000,0.680981,0.887303,0.823357,0.000000,0.000000
13,0.000001,0.000000,1.000000,0.089040,0.820990,0.000000,0.163057,0.947546,1.000000,1.000000,0.000000,0.000000,0.680981,0.887303,0.823357,0.000000,0.000000
gen, fitness
0,0.018541,0.000000,1.000000,0.210000,0.800000,0.030000,0.030000,1.000000,0.000000,1.000000,0.000000,0.000000,0.600000,1.000000,1.000000,0.000000,0.000000
1,0.018541,0.000000,1.000000,0.210000,0.800000,0.030000,0.030000,1.000000,0.000000,1.000000,0.000000,0.000000,0.600000,1.000000,1.000000,0.000000,0.000000
2,0.004365,0.005511,1.000000,0.248721,0.800000,0.072407,0.030000,1.000000,2.000000,0.899697,0.000000,0.120281,0.710346,1.000000,1.000000,0.000000,0.000000
3,0.002832,0.000000,0.974354,0.210000,0.906552,0.030000,0.209017,1.000000,0.000000,0.988805,0.000000,0.000000,0.817795,1.000000,1.000000,0.030543,1.000000
4,0.002152,0.000000,1.000000,0.210000,0.883762,0.030000,0.030000,1.000000,2.000000,0.899697,0.000000,0.120281,0.782913,1.000000,1.000000,0.000000,2.000000
5,0.001309,0.000000,0.974354,0.210000,0.906552,0.030000,0.062119,1.000000,1.000000,0.967341,0.000000,0.000000,0.859838,0.935711,0.765544,0.091532,2.000000
6,0.000250,0.000000,1.000000,0.248721,0.992533,0.030000,0.062119,1.000000,1.000000,0.967341,0.000000,0.000000,0.958360,0.935711,0.719904,0.284519,1.000000
7,0.000250,0.000000,1.000000,0.248721,0.992533,0.030000,0.062119,1.000000,1.000000,0.967341,0.000000,0.000000,0.958360,0.935711,0.719904,0.284519,1.000000
8,0.000052,0.000000,1.000000,0.154497,0.992533,0.030000,0.064460,1.000000,1.000000,0.967341,0.000000,0.000000,0.958360,0.935711,0.719904,0.284519,1.000000
9,0.000052,0.000000,1.000000,0.154497,0.992533,0.030000,0.064460,1.000000,1.000000,0.967341,0.000000,0.000000,0.958360,0.935711,0.719904,0.284519,1.000000
10,0.000033,0.000000,1.000000,0.154497,0.992533,0.030000,0.064460,1.000000,1.000000,0.949948,0.000000,0.000000,0.958360,0.935711,0.719904,0.284519,2.000000
11,0.000006,0.083951,1.000000,0.157162,1.000000,0.030000,0.096493,1.000000,1.000000,0.967341,0.029873,0.000000,0.976158,0.935711,0.717230,0.333469,2.000000
12,0.000006,0.083951,1.000000,0.157162,1.000000,0.030000,0.096493,1.000000,1.000000,0.967341,0.029873,0.000000,0.976158,0.935711,0.717230,0.333469,2.000000
13,0.000003,0.000000,1.000000,0.116088,1.000000,0.159606,0.064460,1.000000,2.000000,0.967341,0.000000,0.000000,0.977002,0.935926,0.856678,0.320978,1.000000
14,0.000002,0.083951,0.990168,0.176577,0.992533,0.231537,0.000000,0.777925,2.000000,0.844015,0.275623,0.000000,0.987176,0.935711,0.790075,0.284519,0.000000
15,0.000001,0.000000,0.942014,0.241199,1.000000,0.000000,0.311615,0.980411,1.000000,0.967341,0.000863,0.000000,0.977002,0.863621,0.615068,0.320978,0.000000
gen, fitness
0,0.069293,0.000000,1.000000,0.210000,0.800000,0.030000,0.030000,1.000000,0.000000,1.000000,0.000000,0.000000,0.600000,1.000000,1.000000,0.000000,0.000000
1,0.069293,0.000000,1.000000,0.210000,0.800000,0.030000,0.030000,1.000000,0.000000,1.000000,0.000000,0.000000,0.600000,1.000000,1.000000,0.000000,0.000000
2,0.045117,0.057187,1.000000,0.274002,0.800000,0.030000,0.030000,1.000000,1.000000,1.000000,0.000000,0.000000,0.753652,1.000000,1.000000,0.101844,0.000000
3,0.036329,0.025296,1.000000,0.210000,0.800000,0.030000,0.000000,1.000000,2.000000,0.972716,0.000000,0.136754,0.747133,0.789424,1.000000,0.058742,2.000000
4,0.032419,0.000000,1.000000,0.000000,0.884120,0.000000,0.030000,0.921729,2.000000,0.877423,0.000000,0.030846,0.829284,1.000000,1.000000,0.000000,0.000000
5,0.022533,0.000000,1.000000,0.261889,0.944021,0.000000,0.170088,1.000000,0.000000,0.879671,0.000000,0.207768,0.879189,1.000000,1.000000,0.048134,2.000000
6,0.022533,0.000000,1.000000,0.261889,0.944021,0.000000,0.170088,1.000000,0.000000,0.879671,0.000000,0.207768,0.879189,1.000000,1.000000,0.048134,2.000000
7,0.017285,0.056112,1.000000,0.008191,1.000000,0.000000,0.176882,0.921729,2.000000,0.877423,0.064948,0.030846,1.000000,0.801893,1.000000,0.058742,0.000000
8,0.014456,0.056112,1.000000,0.008191,1.000000,0.000000,0.264732,0.831551,2.000000,0.779551,0.064948,0.122886,1.000000,0.798495,0.934963,0.058742,2.000000
9,0.014375,0.000000,1.000000,0.141516,0.975895,0.000000,0.116212,0.864549,0.000000,1.000000,0.066892,0.530672,0.913068,1.000000,1.000000,0.004600,2.000000
10,0.011938,0.000000,1.000000,0.008191,1.000000,0.030000,0.000000,0.809456,2.000000,1.000000,0.211250,0.445787,0.971187,0.911002,1.000000,0.032703,2.000000
11,0.011615,0.082724,1.000000,0.008191,1.000000,0.030000,0.014049,0.809456,2.000000,0.918172,0.252563,0.614939,0.971187,0.911002,1.000000,0.047552,2.000000
12,0.011327,0.032317,1.000000,0.000000,1.000000,0.044765,0.000000,1.000000,0.000000,0.918667,0.004861,0.638359,0.927718,0.914221,1.000000,0.159457,2.000000
13,0.010942,0.000000,0.979156,0.044855,1.000000,0.030000,0.014049,0.620060,2.000000,0.918172,0.562613,0.560195,0.971187,0.748600,1.000000,0.458880,2.000000
14,0.009914,0.000000,1.000000,0.008191,1.000000,0.000000,0.151335,1.000000,2.000000,1.000000,0.211250,0.638359,0.927718,1.000000,1.000000,0.159457,2.000000
15,0.009914,0.000000,1.000000,0.008191,1.000000,0.000000,0.151335,1.000000,2.000000,1.000000,0.211250,0.638359,0.927718,1.000000,1.000000,0.159457,2.000000
16,0.009442,0.142183,1.000000,0.000000,1.000000,0.353318,0.076384,0.829193,2.000000,1.000000,0.200324,0.783852,0.927718,0.914221,1.000000,0.360331,2.000000
17,0.009442,0.142183,1.000000,0.000000,1.000000,0.353318,0.076384,0.829193,2.000000,1.000000,0.200324,0.783852,0.927718,0.914221,1.000000,0.360331,2.000000
18,0.008924,0.000000,1.000000,0.008191,1.000000,0.011817,0.151335,1.000000,2.000000,1.000000,0.307296,0.784353,0.913543,1.000000,0.934470,0.611305,2.000000
19,0.008924,0.000000,1.000000,0.008191,1.000000,0.011817,0.151335,1.000000,2.000000,1.000000,0.307296,0.784353,0.913543,1.000000,0.934470,0.611305,2.000000
20,0.008924,0.000000,1.000000,0.008191,1.000000,0.011817,0.151335,1.000000,2.000000,1.000000,0.307296,0.784353,0.913543,1.000000,0.934470,0.611305,2.000000
21,0.008807,0.123940,1.000000,0.000000,1.000000,0.224763,0.204578,1.000000,2.000000,1.000000,0.104537,0.956735,0.913543,0.997240,0.996091,0.521648,2.000000
22,0.008671,0.000000,0.970313,0.000000,1.000000,0.000000,0.204578,1.000000,2.000000,1.000000,0.236142,0.816161,0.913543,1.000000,0.996091,0.731927,2.000000
23,0.008671,0.000000,0.970313,0.000000,1.000000,0.000000,0.204578,1.000000,2.000000,1.000000,0.236142,0.816161,0.913543,1.000000,0.996091,0.731927,2.000000
24,0.008671,0.000000,0.970313,0.000000,1.000000,0.000000,0.204578,1.000000,2.000000,1.000000,0.236142,0.816161,0.913543,1.000000,0.996091,0.731927,2.000000
25,0.008671,0.000000,0.970313,0.000000,1.000000,0.000000,0.204578,1.000000,2.000000,1.000000,0.236142,0.816161,0.913543,1.000000,0.996091,0.731927,2.000000
26,0.008644,0.032797,1.000000,0.000000,1.000000,0.060976,0.055627,1.000000,2.000000,1.000000,0.486562,0.824398,0.927718,0.954239,0.963611,0.919098,2.000000
27,0.008644,0.123940,1.000000,0.000000,1.000000,0.224763,0.204578,1.000000,2.000000,1.000000,0.446022,1.000000,0.913543,1.000000,0.952508,0.663751,2.000000
28,0.008439,0.000000,0.791989,0.008191,1.000000,0.000000,0.208065,0.767870,2.000000,1.000000,0.446022,0.930081,0.913543,0.967609,1.000000,0.893564,2.000000
29,0.008439,0.000000,0.791989,0.008191,1.000000,0.000000,0.208065,0.767870,2.000000,1.000000,0.446022,0.930081,0.913543,0.967609,1.000000,0.893564,2.000000
30,0.008439,0.000000,0.791989,0.008191,1.000000,0.000000,0.208065,0.767870,2.000000,1.000000,0.446022,0.930081,0.913543,0.967609,1.000000,0.893564,2.000000
31,0.008304,0.066053,1.000000,0.000000,1.000000,0.000000,0.208065,0.767870,2.000000,1.000000,0.446022,0.930081,0.913543,0.967609,1.000000,0.893564,2.000000
32,0.008304,0.066053,1.000000,0.000000,1.000000,0.000000,0.208065,0.767870,2.000000,1.000000,0.446022,0.930081,0.913543,0.967609,1.000000,0.893564,2.000000
33,0.008230,0.066053,0.791989,0.000000,1.000000,0.000000,0.000000,1.000000,2.000000,1.000000,0.481847,0.929028,0.913543,0.864964,0.999716,1.000000,2.000000
34,0.008230,0.066053,0.791989,0.000000,1.000000,0.000000,0.000000,1.000000,2.000000,1.000000,0.481847,0.929028,0.913543,0.864964,0.999716,1.000000,2.000000
35,0.008230,0.066053,0.791989,0.000000,1.000000,0.000000,0.000000,1.000000,2.000000,1.000000,0.481847,0.929028,0.913543,0.864964,0.999716,1.000000,2.000000
36,0.008176,0.066053,1.000000,0.011327,1.000000,0.000000,0.000000,1.000000,2.000000,1.000000,0.481847,0.976934,0.913543,0.990917,0.999716,0.939927,2.000000
37,0.008176,0.066053,1.000000,0.011327,1.000000,0.000000,0.000000,1.000000,2.000000,1.000000,0.481847,0.976934,0.913543,0.990917,0.999716,0.939927,2.000000
38,0.008176,0.066053,1.000000,0.011327,1.000000,0.000000,0.000000,1.000000,2.000000,1.000000,0.481847,0.976934,0.913543,0.990917,0.999716,0.939927,2.000000
39,0.008174,0.066053,1.000000,0.000000,1.000000,0.000000,0.000000,1.000000,2.000000,1.000000,0.481847,0.929028,0.913543,0.864964,0.999716,1.000000,2.000000
40,0.008161,0.127183,1.000000,0.011327,1.000000,0.000000,0.000000,1.000000,2.000000,1.000000,0.421967,0.976934,0.913543,0.990917,0.999716,0.939927,2.000000
41,0.008031,0.125594,1.000000,0.000000,1.000000,0.026000,0.000000,0.909524,2.000000,1.000000,0.498292,1.000000,0.913543,1.000000,1.000000,1.000000,2.000000
42,0.008031,0.125594,1.000000,0.000000,1.000000,0.026000,0.000000,0.909524,2.000000,1.000000,0.498292,1.000000,0.913543,1.000000,1.000000,1.000000,2.000000
43,0.008031,0.125594,1.000000,0.000000,1.000000,0.026000,0.000000,0.909524,2.000000,1.000000,0.498292,1.000000,0.913543,1.000000,1.000000,1.000000,2.000000
44,0.008031,0.125594,1.000000,0.000000,1.000000,0.026000,0.000000,0.909524,2.000000,1.000000,0.498292,1.000000,0.913543,1.000000,1.000000,1.000000,2.000000
45,0.008031,0.125594,1.000000,0.000000,1.000000,0.026000,0.000000,0.909524,2.000000,1.000000,0.498292,1.000000,0.913543,1.000000,1.000000,1.000000,2.000000
46,0.008031,0.125594,1.000000,0.000000,1.000000,0.026000,0.000000,0.909524,2.000000,1.000000,0.498292,1.000000,0.913543,1.000000,1.000000,1.000000,2.000000
47,0.008031,0.125594,1.000000,0.000000,1.000000,0.026000,0.000000,0.909524,2.000000,1.000000,0.498292,1.000000,0.913543,1.000000,1.000000,1.000000,2.000000
48,0.008031,0.125594,1.000000,0.000000,1.000000,0.026000,0.000000,0.909524,2.000000,1.000000,0.498292,1.000000,0.913543,1.000000,1.000000,1.000000,2.000000
49,0.008031,0.125594,1.000000,0.000000,1.000000,0.026000,0.000000,0.909524,2.000000,1.000000,0.498292,1.000000,0.913543,1.000000,1.000000,1.000000,2.000000
50,0.008031,0.125594,1.000000,0.000000,1.000000,0.026000,0.000000,0.909524,2.000000,1.000000,0.498292,1.000000,0.913543,1.000000,1.000000,1.000000,2.000000
51,0.008031,0.125594,1.000000,0.000000,1.000000,0.026000,0.000000,0.909524,2.000000,1.000000,0.498292,1.000000,0.913543,1.000000,1.000000,1.000000,2.000000
gen, fitness
0,0.020772,0.000000,1.000000,0.210000,0.800000,0.030000,0.030000,1.000000,0.000000,1.000000,0.000000,0.000000,0.600000,1.000000,1.000000,0.000000,0.000000
1,0.020772,0.000000,1.000000,0.210000,0.800000,0.030000,0.030000,1.000000,0.000000,1.000000,0.000000,0.000000,0.600000,1.000000,1.000000,0.000000,0.000000
2,0.006316,0.000000,1.000000,0.210000,0.800000,0.030000,0.030000,1.000000,2.000000,1.000000,0.000000,0.000000,0.731264,1.000000,1.000000,0.000000,0.000000
3,0.006316,0.000000,1.000000,0.210000,0.800000,0.030000,0.030000,1.000000,2.000000,1.000000,0.000000,0.000000,0.731264,1.000000,1.000000,0.000000,0.000000
4,0.002645,0.105757,1.000000,0.209731,0.917083,0.030000,0.056892,0.987180,0.000000,0.967672,0.000000,0.000000,0.853921,1.000000,1.000000,0.127229,0.000000
5,0.001915,0.000000,1.000000,0.209731,0.917083,0.030000,0.000000,0.987180,0.000000,0.967672,0.000000,0.000000,0.853921,0.847964,1.000000,0.000000,0.000000
6,0.001279,0.000000,1.000000,0.209731,0.917083,0.145843,0.000000,0.987180,0.000000,0.967672,0.000000,0.000000,0.853921,0.922746,0.847127,0.171964,2.000000
7,0.000590,0.112621,1.000000,0.209731,0.943680,0.078127,0.000000,0.987435,1.000000,0.967672,0.000000,0.005914,0.914106,1.000000,1.000000,0.000000,1.000000
8,0.000192,0.105757,0.772661,0.209731,0.997200,0.207265,0.056892,0.987180,0.000000,1.000000,0.000000,0.000000,0.974102,0.851909,1.000000,0.127229,0.000000
9,0.000056,0.000000,1.000000,0.209731,1.000000,0.134550,0.000000,1.000000,2.000000,1.000000,0.000000,0.000000,1.000000,0.851909,1.000000,0.127229,0.000000
10,0.000056,0.000000,1.000000,0.209731,1.000000,0.134550,0.000000,1.000000,2.000000,1.000000,0.000000,0.000000,1.000000,0.851909,1.000000,0.127229,0.000000
11,0.000015,0.098402,1.000000,0.384264,1.000000,0.134550,0.048025,1.000000,1.000000,1.000000,0.022001,0.079334,1.000000,0.851909,0.930608,0.134333,1.000000
12,0.000005,0.000000,1.000000,0.328287,1.000000,0.134550,0.002033,1.000000,1.000000,1.000000,0.000000,0.000000,1.000000,0.851909,0.957977,0.123333,1.000000
13,0.000004,0.105757,0.704583,0.209731,0.997200,0.106123,0.056892,1.000000,1.000000,0.894049,0.009641,0.000000,1.000000,0.851909,1.000000,0.330842,1.000000
14,0.000002,0.054406,0.927532,0.231566,1.000000,0.372034,0.000000,1.000000,1.000000,0.862858,0.103283,0.000000,1.000000,0.865385,1.000000,0.167111,1.000000
15,0.000002,0.054406,0.927532,0.231566,1.000000,0.372034,0.000000,1.000000,1.000000,0.862858,0.103283,0.000000,1.000000,0.865385,1.000000,0.167111,1.000000
16,0.000000,0.000000,0.992463,0.328287,1.000000,0.134550,0.002033,0.988343,1.000000,1.000000,0.000000,0.000000,1.000000,0.865385,1.000000,0.167111,0.000000
gen, fitness
0,0.008197,0.000000,1.000000,0.210000,0.800000,0.030000,0.030000,1.000000,0.000000,1.000000,0.000000,0.000000,0.600000,1.000000,1.000000,0.000000,0.000000
1,0.008197,0.000000,1.000000,0.210000,0.800000,0.030000,0.030000,1.000000,0.000000,1.000000,0.000000,0.000000,0.600000,1.000000,1.000000,0.000000,0.000000
2,0.000022,0.000000,1.000000,0.210000,0.800000,0.030000,0.030000,1.000000,2.000000,1.000000,0.070307,0.000000,0.707838,1.000000,1.000000,0.085814,2.000000
3,0.000022,0.000000,1.000000,0.210000,0.800000,0.030000,0.030000,1.000000,2.000000,1.000000,0.070307,0.000000,0.707838,1.000000,1.000000,0.085814,2.000000
4,0.000003,0.000000,1.000000,0.210000,0.789322,0.030000,0.047402,1.000000,2.000000,0.918795,0.000000,0.193138,0.640023,1.000000,0.824702,0.000000,1.000000
5,0.000003,0.000000,1.000000,0.210000,0.789322,0.030000,0.047402,1.000000,2.000000,0.918795,0.000000,0.193138,0.640023,1.000000,0.824702,0.000000,1.000000
6,0.000003,0.000000,1.000000,0.210000,0.789322,0.030000,0.047402,1.000000,2.000000,0.918795,0.000000,0.193138,0.640023,1.000000,0.824702,0.000000,1.000000
7,0.000003,0.000000,1.000000,0.210000,0.789322,0.030000,0.047402,1.000000,2.000000,0.918795,0.000000,0.193138,0.640023,1.000000,0.824702,0.000000,1.000000
8,0.000003,0.000000,1.000000,0.210000,0.789322,0.030000,0.047402,1.000000,2.000000,0.918795,0.000000,0.193138,0.640023,1.000000,0.824702,0.000000,1.000000
9,0.000003,0.000000,1.000000,0.210000,0.800000,0.117881,0.030000,1.000000,2.000000,1.000000,0.212021,0.000000,0.707838,1.000000,0.805827,0.085814,2.000000
10,0.000003,0.000000,1.000000,0.210000,0.800000,0.117881,0.030000,1.000000,2.000000,1.000000,0.212021,0.000000,0.707838,1.000000,0.805827,0.085814,2.000000
11,0.000003,0.000000,1.000000,0.210000,0.800000,0.117881,0.030000,1.000000,2.000000,1.000000,0.212021,0.000000,0.707838,1.000000,0.805827,0.085814,2.000000
12,0.000000,0.000000,0.881615,0.273556,0.776548,0.196979,0.131709,1.000000,0.000000,0.800071,0.187198,0.109419,0.696093,0.685154,0.824702,0.000000,1.000000
gen, fitness
0,0.011091,0.000000,1.000000,0.210000,0.800000,0.030000,0.030000,1.000000,0.000000,1.000000,0.000000,0.000000,0.600000,1.000000,1.000000,0.000000,0.000000
1,0.011091,0.000000,1.000000,0.210000,0.800000,0.030000,0.030000,1.000000,0.000000,1.000000,0.000000,0.000000,0.600000,1.000000,1.000000,0.000000,0.000000
2,0.000309,0.000000,1.000000,0.164295,0.753739,0.030000,0.128873,1.000000,0.000000,0.879351,0.000000,0.125665,0.600000,1.000000,1.000000,0.025913,0.000000
3,0.000071,0.000000,1.000000,0.048432,0.757099,0.000000,0.000000,1.000000,2.000000,1.000000,0.000000,0.013837,0.600000,1.000000,1.000000,0.150948,2.000000
4,0.000071,0.000000,1.000000,0.048432,0.757099,0.000000,0.098376,1.000000,2.000000,1.000000,0.000000,0.013837,0.600000,1.000000,1.000000,0.150948,2.000000
5,0.000013,0.000000,1.000000,0.197348,0.702766,0.000000,0.000000,1.000000,2.000000,1.000000,0.000000,0.013837,0.600000,0.986061,1.000000,0.150948,2.000000
6,0.000012,0.000000,1.000000,0.119549,0.753739,0.000000,0.128873,1.000000,0.000000,0.863052,0.195876,0.113024,0.600000,1.000000,1.000000,0.150948,1.000000
7,0.000012,0.000000,1.000000,0.119549,0.753739,0.000000,0.128873,1.000000,0.000000,0.863052,0.195876,0.113024,0.600000,1.000000,1.000000,0.150948,1.000000
8,0.000012,0.000000,1.000000,0.119549,0.753739,0.000000,0.128873,1.000000,0.000000,0.863052,0.195876,0.113024,0.600000,1.000000,1.000000,0.150948,1.000000
9,0.000005,0.000000,1.000000,0.197348,0.702766,0.000000,0.000000,1.000000,2.000000,0.953689,0.040787,0.037317,0.600000,0.908676,1.000000,0.176601,1.000000
10,0.000005,0.000000,1.000000,0.197348,0.702766,0.000000,0.000000,1.000000,2.000000,0.953689,0.040787,0.037317,0.600000,0.908676,1.000000,0.176601,1.000000
11,0.000002,0.000000,1.000000,0.012062,0.757099,0.065998,0.128873,1.000000,2.000000,0.800128,0.024979,0.088680,0.600000,1.000000,1.000000,0.000000,1.000000
12,0.000002,0.000000,1.000000,0.012062,0.757099,0.065998,0.128873,1.000000,2.000000,0.800128,0.024979,0.088680,0.600000,1.000000,1.000000,0.000000,1.000000
13,0.000001,0.000000,0.919726,0.177648,0.731079,0.000000,0.187801,1.000000,0.000000,0.908808,0.000000,0.094250,0.600000,1.000000,0.550160,0.070547,1.000000
gen, fitness
0,0.020988,0.000000,1.000000,0.210000,0.800000,0.030000,0.030000,1.000000,0.000000,1.000000,0.000000,0.000000,0.600000,1.000000,1.000000,0.000000,0.000000
1,0.020988,0.000000,1.000000,0.210000,0.800000,0.030000,0.030000,1.000000,0.000000,1.000000,0.000000,0.000000,0.600000,1.000000,1.000000,0.000000,0.000000
2,0.008983,0.000000,1.000000,0.209447,0.801887,0.030000,0.030000,1.000000,2.000000,1.000000,0.000000,0.000000,0.710611,1.000000,1.000000,0.000000,1.000000
3,0.008834,0.000000,1.000000,0.210000,0.800000,0.021369,0.030000,1.000000,2.000000,1.000000,0.000000,0.100861,0.678651,1.000000,1.000000,0.001083,1.000000
4,0.006842,0.115605,0.971737,0.210000,0.830310,0.030000,0.113708,1.000000,0.000000,0.748221,0.025233,0.000000,0.808414,0.941549,0.823258,0.000000,0.000000
5,0.005795,0.003961,0.854671,0.396767,0.800000,0.201414,0.030000,1.000000,2.000000,0.829238,0.079730,0.107213,0.803060,1.000000,0.949729,0.000000,2.000000
6,0.003971,0.000000,0.950078,0.341253,0.985418,0.094234,0.030000,1.000000,0.000000,1.000000,0.180774,0.000000,0.922275,0.931534,1.000000,0.000000,1.000000
7,0.003409,0.115605,0.971737,0.210000,0.985418,0.094234,0.030000,1.000000,0.000000,1.000000,0.250580,0.000000,0.922275,1.000000,1.000000,0.000000,1.000000
8,0.001424,0.003961,0.854671,0.391411,0.985418,0.000000,0.030000,1.000000,2.000000,1.000000,0.180774,0.000000,0.994513,0.954364,1.000000,0.000000,1.000000
9,0.001379,0.003961,0.854671,0.391411,0.985418,0.000000,0.030000,1.000000,2.000000,1.000000,0.180774,0.000000,0.994513,0.954364,1.000000,0.094196,1.000000
10,0.001296,0.364505,0.854671,0.391411,0.985418,0.000000,0.000000,1.000000,0.000000,1.000000,0.180774,0.000000,0.994513,0.954364,1.000000,0.094196,1.000000
11,0.000511,0.112874,1.000000,0.675350,0.981770,0.094234,0.030000,1.000000,1.000000,1.000000,0.180774,0.000000,1.000000,0.931534,0.917760,0.137749,0.000000
12,0.000511,0.112874,1.000000,0.675350,0.981770,0.094234,0.030000,1.000000,1.000000,1.000000,0.180774,0.000000,1.000000,0.931534,0.917760,0.137749,0.000000
13,0.000389,0.060133,1.000000,0.604763,0.981770,0.097659,0.030000,1.000000,2.000000,0.913101,0.082130,0.000000,1.000000,0.837449,1.000000,0.000000,1.000000
14,0.000359,0.178839,0.889105,0.683212,0.981770,0.094234,0.030000,0.956524,2.000000,1.000000,0.180774,0.139983,1.000000,0.892023,0.937082,0.000000,2.000000
15,0.000339,0.000000,1.000000,0.641655,1.000000,0.000000,0.000000,0.880795,2.000000,0.837484,0.034073,0.199901,1.000000,1.000000,0.971071,0.078295,1.000000
16,0.000334,0.060133,1.000000,0.604763,0.981770,0.005863,0.030000,1.000000,2.000000,0.913101,0.082130,0.000000,1.000000,0.837449,0.937082,0.000000,2.000000
17,0.000228,0.030871,1.000000,0.856151,0.981770,0.170699,0.110633,0.881676,2.000000,1.000000,0.180774,0.222425,1.000000,0.888935,0.937082,0.000000,0.000000
18,0.000228,0.030871,1.000000,0.856151,0.981770,0.170699,0.110633,0.881676,2.000000,1.000000,0.180774,0.222425,1.000000,0.888935,0.937082,0.000000,0.000000
19,0.000224,0.000000,1.000000,0.637285,1.000000,0.000000,0.000000,0.880795,2.000000,0.837484,0.000000,0.287186,1.000000,0.757665,0.593870,0.000000,0.000000
20,0.000207,0.060133,0.961296,0.637285,1.000000,0.000000,0.000000,0.858760,2.000000,0.837484,0.000000,0.287186,1.000000,0.757665,0.495583,0.000000,0.000000
21,0.000102,0.000000,0.917834,0.877195,0.981770,0.135441,0.042745,1.000000,2.000000,0.860320,0.226568,0.208210,1.000000,0.797750,0.555384,0.270066,0.000000
22,0.000095,0.000000,1.000000,1.000000,0.981770,0.097659,0.000000,0.719825,2.000000,0.837484,0.000000,0.287186,1.000000,0.757665,0.495583,0.000000,0.000000
23,0.000068,0.194494,0.881845,1.000000,0.981770,0.152006,0.000000,0.719825,2.000000,0.837484,0.000000,0.416353,1.000000,0.757665,0.495583,0.001897,0.000000
24,0.000025,0.000000,0.946182,1.000000,0.981770,0.232907,0.000000,1.000000,2.000000,0.748066,0.000000,0.362640,1.000000,0.793821,0.495583,0.120191,2.000000
25,0.000025,0.000000,0.946182,1.000000,0.981770,0.232907,0.000000,1.000000,2.000000,0.748066,0.000000,0.362640,1.000000,0.793821,0.495583,0.120191,2.000000
26,0.000025,0.000000,0.946182,1.000000,0.981770,0.232907,0.000000,1.000000,2.000000,0.748066,0.000000,0.362640,1.000000,0.793821,0.495583,0.120191,2.000000
27,0.000023,0.023949,0.765830,1.000000,0.981770,0.232907,0.007648,1.000000,2.000000,0.748066,0.000000,0.362640,1.000000,0.793821,0.495583,0.120191,2.000000
28,0.000023,0.023949,0.765830,1.000000,0.981770,0.232907,0.007648,1.000000,2.000000,0.748066,0.000000,0.362640,1.000000,0.793821,0.495583,0.120191,2.000000
29,0.000023,0.023949,0.765830,1.000000,0.981770,0.232907,0.007648,1.000000,2.000000,0.748066,0.000000,0.362640,1.000000,0.793821,0.495583,0.120191,2.000000
30,0.000023,0.023949,0.765830,1.000000,0.981770,0.232907,0.007648,1.000000,2.000000,0.748066,0.000000,0.362640,1.000000,0.793821,0.495583,0.120191,2.000000
31,0.000014,0.000000,0.951001,0.967781,1.000000,0.092044,0.274505,1.000000,2.000000,0.819207,0.079732,0.515436,1.000000,0.768344,0.445492,0.000000,2.000000
32,0.000007,0.026665,0.802290,1.000000,1.000000,0.095112,0.156991,1.000000,2.000000,0.819207,0.090590,0.616388,1.000000,0.900759,0.495583,0.000000,2.000000
33,0.000007,0.026665,0.802290,1.000000,1.000000,0.095112,0.156991,1.000000,2.000000,0.819207,0.090590,0.616388,1.000000,0.900759,0.495583,0.000000,2.000000
34,0.000007,0.026665,0.802290,1.000000,1.000000,0.095112,0.156991,1.000000,2.000000,0.819207,0.090590,0.616388,1.000000,0.900759,0.495583,0.000000,2.000000
