gen, fitness
0,0.027983,0.000000,1.000000,0.210000,0.800000,0.030000,0.030000,1.000000,0.000000,1.000000,0.000000,0.000000,0.600000,1.000000,1.000000,0.000000,0.000000
1,0.027983,0.000000,1.000000,0.210000,0.800000,0.030000,0.030000,1.000000,0.000000,1.000000,0.000000,0.000000,0.600000,1.000000,1.000000,0.000000,0.000000
2,0.011787,0.000000,0.952851,0.153463,0.800000,0.142346,0.053424,0.789081,1.000000,0.985106,0.132123,0.018587,0.777437,0.956557,1.000000,0.101512,1.000000
3,0.007345,0.032076,0.854660,0.292850,0.782779,0.030000,0.060359,1.000000,1.000000,0.740460,0.193273,0.026954,0.766307,1.000000,0.862058,0.107322,2.000000
4,0.002450,0.000000,1.000000,0.147729,0.941374,0.000000,0.008039,1.000000,1.000000,0.845776,0.000000,0.046126,0.917437,1.000000,1.000000,0.139224,1.000000
5,0.002450,0.000000,1.000000,0.147729,0.941374,0.000000,0.008039,1.000000,1.000000,0.845776,0.000000,0.046126,0.917437,1.000000,1.000000,0.139224,1.000000
6,0.001237,0.122184,0.799425,0.237677,0.995220,0.428247,0.210530,0.922585,1.000000,0.834305,0.000000,0.137507,1.000000,1.000000,1.000000,0.041364,1.000000
7,0.001237,0.122184,0.799425,0.237677,0.995220,0.428247,0.210530,0.922585,1.000000,0.834305,0.000000,0.137507,1.000000,1.000000,1.000000,0.041364,1.000000
8,0.000963,0.116825,0.862796,0.237677,1.000000,0.254704,0.210530,0.922585,1.000000,0.716938,0.079964,0.281231,1.000000,0.883217,0.856283,0.109553,1.000000
9,0.000755,0.106206,0.862796,0.312123,1.000000,0.254704,0.105790,0.997717,0.000000,0.733922,0.270803,0.281231,1.000000,0.789304,0.775745,0.109553,2.000000
10,0.000636,0.060722,0.733699,0.162917,1.000000,0.564080,0.298468,1.000000,2.000000,0.839957,0.043571,0.253541,1.000000,0.895203,1.000000,0.212578,2.000000
11,0.000518,0.000000,0.906299,0.299211,1.000000,0.303281,0.210530,0.772346,2.000000,0.822891,0.000000,0.369695,1.000000,0.881489,0.856283,0.202143,2.000000
12,0.000425,0.000000,0.995912,0.509820,1.000000,0.147447,0.222361,0.772346,1.000000,0.822891,0.000000,0.605567,1.000000,0.881489,0.763968,0.225329,2.000000
13,0.000425,0.000000,0.995912,0.509820,1.000000,0.147447,0.222361,0.772346,1.000000,0.822891,0.000000,0.605567,1.000000,0.881489,0.763968,0.225329,2.000000
14,0.000425,0.000000,0.995912,0.509820,1.000000,0.147447,0.222361,0.772346,1.000000,0.822891,0.000000,0.605567,1.000000,0.881489,0.763968,0.225329,2.000000
15,0.000425,0.000000,0.995912,0.509820,1.000000,0.147447,0.222361,0.772346,1.000000,0.822891,0.000000,0.605567,1.000000,0.881489,0.763968,0.225329,2.000000
16,0.000425,0.000000,0.995912,0.509820,1.000000,0.147447,0.222361,0.772346,1.000000,0.822891,0.000000,0.605567,1.000000,0.881489,0.763968,0.225329,2.000000
17,0.000418,0.156379,1.000000,0.486670,1.000000,0.474055,0.025259,0.847843,2.000000,0.972634,0.006028,0.700821,1.000000,0.532775,0.942844,0.141025,2.000000
18,0.000418,0.156379,1.000000,0.486670,1.000000,0.474055,0.025259,0.847843,2.000000,0.972634,0.006028,0.700821,1.000000,0.532775,0.942844,0.141025,2.000000
19,0.000418,0.156379,1.000000,0.486670,1.000000,0.474055,0.025259,0.847843,2.000000,0.972634,0.006028,0.700821,1.000000,0.532775,0.942844,0.141025,2.000000
20,0.000391,0.116334,0.969521,0.461379,1.000000,0.101678,0.344639,0.871391,2.000000,0.782681,0.126238,0.897060,1.000000,1.000000,0.934719,0.326181,1.000000
21,0.000322,0.116334,0.908643,0.456366,1.000000,0.204356,0.344639,0.975309,2.000000,0.697246,0.126238,0.927693,1.000000,1.000000,0.930460,0.532329,1.000000
22,0.000322,0.116334,0.908643,0.456366,1.000000,0.204356,0.344639,0.975309,2.000000,0.697246,0.126238,0.927693,1.000000,1.000000,0.930460,0.532329,1.000000
23,0.000227,0.000000,1.000000,0.504891,1.000000,0.398468,0.162034,0.911522,2.000000,0.579822,0.272964,0.972983,1.000000,0.938950,0.857632,0.467829,2.000000
24,0.000227,0.000000,1.000000,0.504891,1.000000,0.398468,0.162034,0.911522,2.000000,0.579822,0.272964,0.972983,1.000000,0.938950,0.857632,0.467829,2.000000
25,0.000227,0.000000,1.000000,0.504891,1.000000,0.398468,0.162034,0.911522,2.000000,0.579822,0.272964,0.972983,1.000000,0.938950,0.857632,0.467829,2.000000
26,0.000227,0.000000,1.000000,0.504891,1.000000,0.398468,0.162034,0.911522,2.000000,0.579822,0.272964,0.972983,1.000000,0.938950,0.857632,0.467829,2.000000
27,0.000209,0.116610,0.908643,0.456366,1.000000,0.158069,0.375663,1.000000,2.000000,0.610498,0.126238,1.000000,1.000000,0.923848,0.932480,0.615152,2.000000
28,0.000209,0.001188,1.000000,0.598091,0.995741,0.065135,0.183800,1.000000,2.000000,0.636780,0.524153,1.000000,1.000000,0.937239,0.927052,0.495097,2.000000
29,0.000209,0.001188,1.000000,0.598091,0.995741,0.065135,0.183800,1.000000,2.000000,0.636780,0.524153,1.000000,1.000000,0.937239,0.927052,0.495097,2.000000
30,0.000209,0.001188,1.000000,0.598091,0.995741,0.065135,0.183800,1.000000,2.000000,0.636780,0.524153,1.000000,1.000000,0.937239,0.927052,0.495097,2.000000
31,0.000209,0.001188,1.000000,0.598091,0.995741,0.065135,0.183800,1.000000,2.000000,0.636780,0.524153,1.000000,1.000000,0.937239,0.927052,0.495097,2.000000
32,0.000209,0.001188,1.000000,0.598091,0.995741,0.065135,0.183800,1.000000,2.000000,0.636780,0.524153,1.000000,1.000000,0.937239,0.927052,0.495097,2.000000
33,0.000209,0.001188,1.000000,0.598091,0.995741,0.065135,0.183800,1.000000,2.000000,0.636780,0.524153,1.000000,1.000000,0.937239,0.927052,0.495097,2.000000
34,0.000209,0.001188,1.000000,0.598091,0.995741,0.065135,0.183800,1.000000,2.000000,0.636780,0.524153,1.000000,1.000000,0.937239,0.927052,0.495097,2.000000
35,0.000209,0.001188,1.000000,0.598091,0.995741,0.065135,0.183800,1.000000,2.000000,0.636780,0.524153,1.000000,1.000000,0.937239,0.927052,0.495097,2.000000
36,0.000209,0.001188,1.000000,0.598091,0.995741,0.065135,0.183800,1.000000,2.000000,0.636780,0.524153,1.000000,1.000000,0.937239,0.927052,0.495097,2.000000
37,0.000209,0.001188,1.000000,0.598091,0.995741,0.065135,0.183800,1.000000,2.000000,0.636780,0.524153,1.000000,1.000000,0.937239,0.927052,0.495097,2.000000
gen, fitness
0,0.112030,0.000000,1.000000,0.210000,0.800000,0.030000,0.030000,1.000000,0.000000,1.000000,0.000000,0.000000,0.600000,1.000000,1.000000,0.000000,0.000000
1,0.112030,0.000000,1.000000,0.210000,0.800000,0.030000,0.030000,1.000000,0.000000,1.000000,0.000000,0.000000,0.600000,1.000000,1.000000,0.000000,0.000000
2,0.084168,0.035470,1.000000,0.431120,0.800000,0.000000,0.116109,1.000000,0.000000,0.826587,0.000000,0.000000,0.749119,0.978996,0.817653,0.058519,2.000000
3,0.067659,0.000000,0.798232,0.391925,0.874042,0.266381,0.000000,0.829288,2.000000,1.000000,0.107616,0.037672,0.823763,1.000000,0.836257,0.227537,1.000000
4,0.058147,0.000000,0.938290,0.022755,0.964904,0.077758,0.067759,0.948008,2.000000,1.000000,0.000000,0.000000,0.896254,0.933755,1.000000,0.138901,1.000000
5,0.055188,0.000228,0.938290,0.137612,1.000000,0.000000,0.070030,0.948008,2.000000,1.000000,0.000000,0.000000,0.930972,0.933755,0.798560,0.000000,2.000000
6,0.045664,0.000000,0.802774,0.407129,1.000000,0.004387,0.300293,1.000000,2.000000,0.860328,0.319087,0.171891,1.000000,0.997634,0.570122,0.030055,0.000000
7,0.041171,0.000000,0.961218,0.027408,1.000000,0.018550,0.058528,0.992201,2.000000,1.000000,0.038314,0.391585,1.000000,0.836216,0.782737,0.022142,2.000000
8,0.041171,0.000000,0.961218,0.027408,1.000000,0.018550,0.058528,0.992201,2.000000,1.000000,0.038314,0.391585,1.000000,0.836216,0.782737,0.022142,2.000000
9,0.040056,0.000000,1.000000,0.212767,1.000000,0.074705,0.000000,0.999922,1.000000,0.916298,0.029234,0.318095,1.000000,0.739906,1.000000,0.161502,2.000000
10,0.037608,0.000000,0.968160,0.381586,1.000000,0.135786,0.000000,0.999922,2.000000,0.758492,0.046331,0.400058,1.000000,0.988700,1.000000,0.057724,2.000000
11,0.037608,0.000000,0.968160,0.381586,1.000000,0.135786,0.000000,0.999922,2.000000,0.758492,0.046331,0.400058,1.000000,0.988700,1.000000,0.057724,2.000000
12,0.037608,0.000000,0.968160,0.381586,1.000000,0.135786,0.000000,0.999922,2.000000,0.758492,0.046331,0.400058,1.000000,0.988700,1.000000,0.057724,2.000000
13,0.037608,0.000000,0.968160,0.381586,1.000000,0.135786,0.000000,0.999922,2.000000,0.758492,0.046331,0.400058,1.000000,0.988700,1.000000,0.057724,2.000000
14,0.037534,0.000000,0.994228,0.474435,1.000000,0.135786,0.146602,0.999922,2.000000,1.000000,0.028378,0.451473,0.986722,0.783542,1.000000,0.057724,2.000000
15,0.036014,0.171448,0.917060,0.382302,1.000000,0.085889,0.501067,0.821467,2.000000,1.000000,0.145116,0.630126,1.000000,0.912696,0.917175,0.383200,2.000000
16,0.036014,0.171448,0.917060,0.382302,1.000000,0.085889,0.501067,0.821467,2.000000,1.000000,0.145116,0.630126,1.000000,0.912696,0.917175,0.383200,2.000000
17,0.034707,0.146240,0.771657,0.292832,1.000000,0.037518,0.000000,0.958797,2.000000,0.386477,0.000000,0.824484,1.000000,0.814218,0.862594,0.000000,2.000000
18,0.034707,0.146240,0.771657,0.292832,1.000000,0.037518,0.000000,0.958797,2.000000,0.386477,0.000000,0.824484,1.000000,0.814218,0.862594,0.000000,2.000000
19,0.034707,0.146240,0.771657,0.292832,1.000000,0.037518,0.000000,0.958797,2.000000,0.386477,0.000000,0.824484,1.000000,0.814218,0.862594,0.000000,2.000000
20,0.033732,0.171448,0.806272,0.394191,1.000000,0.226428,0.480268,0.851387,2.000000,0.803765,0.094397,0.896950,1.000000,0.702190,0.936113,0.514631,2.000000
21,0.033732,0.171448,0.806272,0.394191,1.000000,0.226428,0.480268,0.851387,2.000000,0.803765,0.094397,0.896950,1.000000,0.702190,0.936113,0.514631,2.000000
22,0.033206,0.348558,0.271856,0.152449,1.000000,0.070998,0.000000,0.930811,2.000000,0.579774,0.544621,0.880520,1.000000,0.948806,0.956535,0.765568,2.000000
23,0.033206,0.348558,0.271856,0.152449,1.000000,0.070998,0.000000,0.930811,2.000000,0.579774,0.544621,0.880520,1.000000,0.948806,0.956535,0.765568,2.000000
24,0.032748,0.000000,1.000000,0.519591,1.000000,0.000000,0.184499,0.998566,2.000000,1.000000,0.067346,0.992560,1.000000,0.957943,1.000000,0.237285,2.000000
25,0.032716,0.115419,0.540498,0.576284,1.000000,0.375193,0.000000,0.601781,2.000000,0.767351,0.264888,1.000000,1.000000,0.779978,0.950006,0.580130,2.000000
26,0.032716,0.115419,0.540498,0.576284,1.000000,0.375193,0.000000,0.601781,2.000000,0.767351,0.264888,1.000000,1.000000,0.779978,0.950006,0.580130,2.000000
27,0.032626,0.033506,0.158772,0.389402,1.000000,0.011894,0.427843,1.000000,1.000000,0.214990,0.284886,1.000000,1.000000,0.717723,0.851532,0.858864,2.000000
28,0.031420,0.000000,0.158772,0.372288,1.000000,0.011894,0.432544,1.000000,2.000000,0.214990,0.381774,1.000000,1.000000,0.774409,0.851532,1.000000,2.000000
29,0.031420,0.000000,0.158772,0.372288,1.000000,0.011894,0.432544,1.000000,2.000000,0.214990,0.381774,1.000000,1.000000,0.774409,0.851532,1.000000,2.000000
30,0.031420,0.000000,0.158772,0.372288,1.000000,0.011894,0.432544,1.000000,2.000000,0.214990,0.381774,1.000000,1.000000,0.774409,0.851532,1.000000,2.000000
31,0.031420,0.000000,0.158772,0.372288,1.000000,0.011894,0.432544,1.000000,2.000000,0.214990,0.381774,1.000000,1.000000,0.774409,0.851532,1.000000,2.000000
32,0.031420,0.000000,0.158772,0.372288,1.000000,0.011894,0.432544,1.000000,2.000000,0.214990,0.381774,1.000000,1.000000,0.774409,0.851532,1.000000,2.000000
33,0.031420,0.000000,0.158772,0.372288,1.000000,0.011894,0.432544,1.000000,2.000000,0.214990,0.381774,1.000000,1.000000,0.774409,0.851532,1.000000,2.000000
34,0.031420,0.000000,0.158772,0.372288,1.000000,0.011894,0.432544,1.000000,2.000000,0.214990,0.381774,1.000000,1.000000,0.774409,0.851532,1.000000,2.000000
35,0.031420,0.000000,0.158772,0.372288,1.000000,0.011894,0.432544,1.000000,2.000000,0.214990,0.381774,1.000000,1.000000,0.774409,0.851532,1.000000,2.000000
36,0.031420,0.000000,0.158772,0.372288,1.000000,0.011894,0.432544,1.000000,2.000000,0.214990,0.381774,1.000000,1.000000,0.774409,0.851532,1.000000,2.000000
37,0.031420,0.000000,0.158772,0.372288,1.000000,0.011894,0.432544,1.000000,2.000000,0.214990,0.381774,1.000000,1.000000,0.774409,0.851532,1.000000,2.000000
38,0.031420,0.000000,0.158772,0.372288,1.000000,0.011894,0.432544,1.000000,2.000000,0.214990,0.381774,1.000000,1.000000,0.774409,0.851532,1.000000,2.000000
gen, fitness
0,0.128870,0.000000,1.000000,0.210000,0.800000,0.030000,0.030000,1.000000,0.000000,1.000000,0.000000,0.000000,0.600000,1.000000,1.000000,0.000000,0.000000
1,0.128870,0.000000,1.000000,0.210000,0.800000,0.030000,0.030000,1.000000,0.000000,1.000000,0.000000,0.000000,0.600000,1.000000,1.000000,0.000000,0.000000
2,0.088500,0.000000,1.000000,0.276087,0.966695,0.001150,0.000000,1.000000,0.000000,1.000000,0.027893,0.000000,0.859175,1.000000,1.000000,0.017243,1.000000
3,0.088500,0.000000,1.000000,0.276087,0.966695,0.001150,0.000000,1.000000,0.000000,1.000000,0.027893,0.000000,0.859175,1.000000,1.000000,0.017243,1.000000
4,0.077471,0.029082,1.000000,0.376538,1.000000,0.000000,0.017473,0.921237,1.000000,0.964717,0.288923,0.235034,0.912521,0.953313,0.900480,0.000000,0.000000
5,0.068962,0.049165,1.000000,0.449915,1.000000,0.128883,0.000000,0.795154,0.000000,1.000000,0.098541,0.180333,0.965181,0.926370,0.956715,0.000000,2.000000
6,0.063382,0.029082,1.000000,0.476127,1.000000,0.066942,0.166791,0.885382,2.000000,0.805377,0.299791,0.087122,0.998299,1.000000,1.000000,0.060206,2.000000
7,0.061716,0.012601,0.446960,0.684270,1.000000,0.021870,0.027844,1.000000,2.000000,1.000000,0.000000,0.145965,1.000000,0.770169,0.722779,0.000000,2.000000
8,0.061716,0.012601,0.446960,0.684270,1.000000,0.021870,0.027844,1.000000,2.000000,1.000000,0.000000,0.145965,1.000000,0.770169,0.722779,0.000000,2.000000
9,0.060855,0.159112,0.170221,0.783325,1.000000,0.076772,0.103300,1.000000,2.000000,0.716666,0.374489,0.350173,1.000000,0.912282,0.895857,0.154070,2.000000
10,0.060828,0.209983,0.109173,0.763229,1.000000,0.219850,0.000000,0.870579,2.000000,0.875468,0.421666,0.532584,1.000000,1.000000,0.895857,0.165411,2.000000
11,0.060445,0.036947,0.188176,0.783325,1.000000,0.118523,0.103300,0.958496,1.000000,0.716666,0.271713,0.458609,1.000000,1.000000,0.775510,0.291036,2.000000
12,0.060238,0.060260,0.490046,0.698596,1.000000,0.054047,0.000000,1.000000,2.000000,0.844045,0.140967,0.442907,0.999677,1.000000,1.000000,0.124614,2.000000
13,0.059105,0.087983,0.298181,0.958942,1.000000,0.188210,0.013651,1.000000,2.000000,0.663907,0.198437,0.583107,1.000000,0.437327,0.958611,0.331542,2.000000
14,0.059105,0.087983,0.298181,0.958942,1.000000,0.188210,0.013651,1.000000,2.000000,0.663907,0.198437,0.583107,1.000000,0.437327,0.958611,0.331542,2.000000
15,0.058081,0.001623,0.172660,0.791829,1.000000,0.113810,0.267618,1.000000,2.000000,0.690241,0.264306,0.855522,1.000000,0.887497,0.877427,0.306275,2.000000
16,0.057037,0.000000,0.385648,1.000000,1.000000,0.000000,0.000000,1.000000,2.000000,0.844761,0.146102,1.000000,1.000000,0.947567,0.788865,0.194790,2.000000
17,0.057037,0.000000,0.385648,1.000000,1.000000,0.000000,0.000000,1.000000,2.000000,0.844761,0.146102,1.000000,1.000000,0.947567,0.788865,0.194790,2.000000
18,0.057037,0.000000,0.385648,1.000000,1.000000,0.000000,0.000000,1.000000,2.000000,0.844761,0.146102,1.000000,1.000000,0.947567,0.788865,0.194790,2.000000
19,0.057037,0.000000,0.385648,1.000000,1.000000,0.000000,0.000000,1.000000,2.000000,0.844761,0.146102,1.000000,1.000000,0.947567,0.788865,0.194790,2.000000
20,0.057037,0.000000,0.385648,1.000000,1.000000,0.000000,0.000000,1.000000,2.000000,0.844761,0.146102,1.000000,1.000000,0.947567,0.788865,0.194790,2.000000
21,0.057037,0.000000,0.385648,1.000000,1.000000,0.000000,0.000000,1.000000,2.000000,0.844761,0.146102,1.000000,1.000000,0.947567,0.788865,0.194790,2.000000
22,0.057037,0.000000,0.385648,1.000000,1.000000,0.000000,0.000000,1.000000,2.000000,0.844761,0.146102,1.000000,1.000000,0.947567,0.788865,0.194790,2.000000
23,0.057037,0.000000,0.385648,1.000000,1.000000,0.000000,0.000000,1.000000,2.000000,0.844761,0.146102,1.000000,1.000000,0.947567,0.788865,0.194790,2.000000
24,0.057037,0.000000,0.385648,1.000000,1.000000,0.000000,0.000000,1.000000,2.000000,0.844761,0.146102,1.000000,1.000000,0.947567,0.788865,0.194790,2.000000
25,0.057037,0.000000,0.385648,1.000000,1.000000,0.000000,0.000000,1.000000,2.000000,0.844761,0.146102,1.000000,1.000000,0.947567,0.788865,0.194790,2.000000
26,0.056856,0.000000,0.318261,0.993557,1.000000,0.010214,0.219354,0.985129,2.000000,0.694153,0.188871,1.000000,1.000000,0.899491,0.854609,0.286716,2.000000
27,0.056856,0.000000,0.318261,0.993557,1.000000,0.010214,0.219354,0.985129,2.000000,0.694153,0.188871,1.000000,1.000000,0.899491,0.854609,0.286716,2.000000
28,0.056856,0.000000,0.318261,0.993557,1.000000,0.010214,0.219354,0.985129,2.000000,0.694153,0.188871,1.000000,1.000000,0.899491,0.854609,0.286716,2.000000
29,0.056856,0.000000,0.318261,0.993557,1.000000,0.010214,0.219354,0.985129,2.000000,0.694153,0.188871,1.000000,1.000000,0.899491,0.854609,0.286716,2.000000
30,0.056856,0.000000,0.318261,0.993557,1.000000,0.010214,0.219354,0.985129,2.000000,0.694153,0.188871,1.000000,1.000000,0.899491,0.854609,0.286716,2.000000
31,0.056856,0.000000,0.318261,0.993557,1.000000,0.010214,0.219354,0.985129,2.000000,0.694153,0.188871,1.000000,1.000000,0.899491,0.854609,0.286716,2.000000
32,0.056854,0.000000,0.371334,0.908682,1.000000,0.076789,0.209542,1.000000,2.000000,0.630677,0.000000,0.919384,1.000000,0.560808,0.730957,0.542929,2.000000
33,0.056854,0.000000,0.371334,0.908682,1.000000,0.076789,0.209542,1.000000,2.000000,0.630677,0.000000,0.919384,1.000000,0.560808,0.730957,0.542929,2.000000
34,0.056854,0.000000,0.371334,0.908682,1.000000,0.076789,0.209542,1.000000,2.000000,0.630677,0.000000,0.919384,1.000000,0.560808,0.730957,0.542929,2.000000
35,0.056422,0.000000,0.361185,1.000000,1.000000,0.157618,0.000000,0.939131,2.000000,0.682014,0.000000,0.970451,1.000000,0.715430,0.564708,0.705094,2.000000
36,0.056422,0.000000,0.361185,1.000000,1.000000,0.157618,0.000000,0.939131,2.000000,0.682014,0.000000,0.970451,1.000000,0.715430,0.564708,0.705094,2.000000
37,0.056422,0.000000,0.361185,1.000000,1.000000,0.157618,0.000000,0.939131,2.000000,0.682014,0.000000,0.970451,1.000000,0.715430,0.564708,0.705094,2.000000
38,0.056422,0.000000,0.361185,1.000000,1.000000,0.157618,0.000000,0.939131,2.000000,0.682014,0.000000,0.970451,1.000000,0.715430,0.564708,0.705094,2.000000
39,0.056422,0.000000,0.361185,1.000000,1.000000,0.157618,0.000000,0.939131,2.000000,0.682014,0.000000,0.970451,1.000000,0.715430,0.564708,0.705094,2.000000
40,0.056422,0.000000,0.361185,1.000000,1.000000,0.157618,0.000000,0.939131,2.000000,0.682014,0.000000,0.970451,1.000000,0.715430,0.564708,0.705094,2.000000
41,0.056212,0.000000,0.262134,0.898915,1.000000,0.000000,0.157650,1.000000,2.000000,0.642806,0.188506,1.000000,1.000000,0.954444,0.805455,0.745653,2.000000
42,0.056212,0.000000,0.262134,0.898915,1.000000,0.000000,0.157650,1.000000,2.000000,0.642806,0.188506,1.000000,1.000000,0.954444,0.805455,0.745653,2.000000
43,0.056212,0.000000,0.262134,0.898915,1.000000,0.000000,0.157650,1.000000,2.000000,0.642806,0.188506,1.000000,1.000000,0.954444,0.805455,0.745653,2.000000
44,0.056212,0.000000,0.262134,0.898915,1.000000,0.000000,0.157650,1.000000,2.000000,0.642806,0.188506,1.000000,1.000000,0.954444,0.805455,0.745653,2.000000
45,0.055956,0.000000,0.287468,0.954656,1.000000,0.029822,0.237475,1.000000,2.000000,0.627856,0.146758,0.989027,1.000000,0.903573,0.591436,0.836027,2.000000
46,0.055956,0.000000,0.287468,0.954656,1.000000,0.029822,0.237475,1.000000,2.000000,0.627856,0.146758,0.989027,1.000000,0.903573,0.591436,0.836027,2.000000
47,0.055875,0.000000,0.278243,0.929397,1.000000,0.000000,0.148652,0.903552,2.000000,0.524584,0.160609,1.000000,1.000000,0.901202,0.279192,0.805053,2.000000
48,0.055875,0.000000,0.278243,0.929397,1.000000,0.000000,0.148652,0.903552,2.000000,0.524584,0.160609,1.000000,1.000000,0.901202,0.279192,0.805053,2.000000
49,0.055875,0.000000,0.278243,0.929397,1.000000,0.000000,0.148652,0.903552,2.000000,0.524584,0.160609,1.000000,1.000000,0.901202,0.279192,0.805053,2.000000
50,0.055875,0.000000,0.278243,0.929397,1.000000,0.000000,0.148652,0.903552,2.000000,0.524584,0.160609,1.000000,1.000000,0.901202,0.279192,0.805053,2.000000
51,0.055875,0.000000,0.278243,0.929397,1.000000,0.000000,0.148652,0.903552,2.000000,0.524584,0.160609,1.000000,1.000000,0.901202,0.279192,0.805053,2.000000
52,0.055875,0.000000,0.278243,0.929397,1.000000,0.000000,0.148652,0.903552,2.000000,0.524584,0.160609,1.000000,1.000000,0.901202,0.279192,0.805053,2.000000
53,0.055875,0.000000,0.278243,0.929397,1.000000,0.000000,0.148652,0.903552,2.000000,0.524584,0.160609,1.000000,1.000000,0.901202,0.279192,0.805053,2.000000
54,0.055875,0.000000,0.278243,0.929397,1.000000,0.000000,0.148652,0.903552,2.000000,0.524584,0.160609,1.000000,1.000000,0.901202,0.279192,0.805053,2.000000
55,0.055572,0.000000,0.239585,1.000000,1.000000,0.000000,0.074074,1.000000,2.000000,0.617007,0.146758,1.000000,1.000000,0.893742,0.390051,0.909444,2.000000
56,0.055572,0.000000,0.239585,1.000000,1.000000,0.000000,0.074074,1.000000,2.000000,0.617007,0.146758,1.000000,1.000000,0.893742,0.390051,0.909444,2.000000
57,0.055572,0.000000,0.239585,1.000000,1.000000,0.000000,0.074074,1.000000,2.000000,0.617007,0.146758,1.000000,1.000000,0.893742,0.390051,0.909444,2.000000
58,0.055572,0.000000,0.239585,1.000000,1.000000,0.000000,0.074074,1.000000,2.000000,0.617007,0.146758,1.000000,1.000000,0.893742,0.390051,0.909444,2.000000
59,0.055572,0.000000,0.239585,1.000000,1.000000,0.000000,0.074074,1.000000,2.000000,0.617007,0.146758,1.000000,1.000000,0.893742,0.390051,0.909444,2.000000
60,0.055572,0.000000,0.239585,1.000000,1.000000,0.000000,0.074074,1.000000,2.000000,0.617007,0.146758,1.000000,1.000000,0.893742,0.390051,0.909444,2.000000
61,0.055572,0.000000,0.239585,1.000000,1.000000,0.000000,0.074074,1.000000,2.000000,0.617007,0.146758,1.000000,1.000000,0.893742,0.390051,0.909444,2.000000
62,0.055572,0.000000,0.239585,1.000000,1.000000,0.000000,0.074074,1.000000,2.000000,0.617007,0.146758,1.000000,1.000000,0.893742,0.390051,0.909444,2.000000
63,0.055572,0.000000,0.239585,1.000000,1.000000,0.000000,0.074074,1.000000,2.000000,0.617007,0.146758,1.000000,1.000000,0.893742,0.390051,0.909444,2.000000
64,0.055572,0.000000,0.239585,1.000000,1.000000,0.000000,0.074074,1.000000,2.000000,0.617007,0.146758,1.000000,1.000000,0.893742,0.390051,0.909444,2.000000
65,0.055572,0.000000,0.239585,1.000000,1.000000,0.000000,0.074074,1.000000,2.000000,0.617007,0.146758,1.000000,1.000000,0.893742,0.390051,0.909444,2.000000
gen, fitness
0,0.032491,0.000000,1.000000,0.210000,0.800000,0.030000,0.030000,1.000000,0.000000,1.000000,0.000000,0.000000,0.600000,1.000000,1.000000,0.000000,0.000000
1,0.032491,0.000000,1.000000,0.210000,0.800000,0.030000,0.030000,1.000000,0.000000,1.000000,0.000000,0.000000,0.600000,1.000000,1.000000,0.000000,0.000000
2,0.012429,0.000000,0.904680,0.364650,0.838200,0.030000,0.043105,0.861228,2.000000,1.000000,0.000000,0.000000,0.816505,1.000000,1.000000,0.000000,0.000000
3,0.011227,0.131680,1.000000,0.453525,0.827958,0.069247,0.162827,0.861228,1.000000,1.000000,0.000000,0.000000,0.816505,0.842685,0.992503,0.144958,2.000000
4,0.008399,0.000000,0.936248,0.374413,0.891799,0.000000,0.000000,0.887316,2.000000,0.889980,0.032531,0.027111,0.869831,0.956394,0.871928,0.073119,0.000000
5,0.003647,0.047768,0.757684,0.596083,1.000000,0.145391,0.000000,0.999210,1.000000,0.783186,0.040971,0.161498,1.000000,0.969165,1.000000,0.000000,0.000000
6,0.003647,0.047768,0.757684,0.596083,1.000000,0.145391,0.000000,0.999210,1.000000,0.783186,0.040971,0.161498,1.000000,0.969165,1.000000,0.000000,0.000000
7,0.003647,0.047768,0.757684,0.596083,1.000000,0.145391,0.000000,0.999210,1.000000,0.783186,0.040971,0.161498,1.000000,0.969165,1.000000,0.000000,0.000000
8,0.003647,0.047768,0.757684,0.596083,1.000000,0.145391,0.000000,0.999210,1.000000,0.783186,0.040971,0.161498,1.000000,0.969165,1.000000,0.000000,0.000000
9,0.003254,0.000000,0.937064,0.440073,1.000000,0.080618,0.037824,0.901464,1.000000,0.768062,0.000000,0.161498,0.993612,0.971220,1.000000,0.000000,2.000000
10,0.002952,0.000000,1.000000,0.837356,1.000000,0.118790,0.000000,1.000000,0.000000,0.783186,0.040971,0.282710,1.000000,0.906721,0.978472,0.063420,1.000000
11,0.002952,0.000000,1.000000,0.837356,1.000000,0.118790,0.000000,1.000000,0.000000,0.783186,0.040971,0.282710,1.000000,0.906721,0.978472,0.063420,1.000000
12,0.002446,0.000000,0.899618,0.722524,1.000000,0.258941,0.000000,1.000000,2.000000,0.819143,0.079128,0.325324,1.000000,0.901097,1.000000,0.112088,2.000000
13,0.002446,0.000000,0.899618,0.722524,1.000000,0.258941,0.000000,1.000000,2.000000,0.819143,0.079128,0.325324,1.000000,0.901097,1.000000,0.112088,2.000000
14,0.002446,0.000000,0.899618,0.722524,1.000000,0.258941,0.000000,1.000000,2.000000,0.819143,0.079128,0.325324,1.000000,0.901097,1.000000,0.112088,2.000000
15,0.002446,0.000000,0.899618,0.722524,1.000000,0.258941,0.000000,1.000000,2.000000,0.819143,0.079128,0.325324,1.000000,0.901097,1.000000,0.112088,2.000000
16,0.002446,0.000000,0.899618,0.722524,1.000000,0.258941,0.000000,1.000000,2.000000,0.819143,0.079128,0.325324,1.000000,0.901097,1.000000,0.112088,2.000000
17,0.002271,0.018163,0.848156,0.808111,1.000000,0.000000,0.000000,0.992997,2.000000,0.824258,0.000000,0.565898,1.000000,0.854832,0.914656,0.000000,2.000000
18,0.002271,0.018163,0.848156,0.808111,1.000000,0.000000,0.000000,0.992997,2.000000,0.824258,0.000000,0.565898,1.000000,0.854832,0.914656,0.000000,2.000000
19,0.002173,0.000000,0.882004,0.906981,1.000000,0.092407,0.000000,1.000000,2.000000,0.715056,0.000000,0.735782,0.998629,0.748725,0.700518,0.015990,1.000000
20,0.002173,0.000000,0.882004,0.906981,1.000000,0.092407,0.000000,1.000000,2.000000,0.715056,0.000000,0.735782,0.998629,0.748725,0.700518,0.015990,1.000000
21,0.002092,0.114951,0.920476,0.897697,1.000000,0.034536,0.045744,0.972196,1.000000,0.640352,0.000000,0.794125,1.000000,0.861685,0.596315,0.088994,2.000000
22,0.001982,0.000000,0.819163,0.895029,1.000000,0.000000,0.071743,1.000000,2.000000,0.725209,0.000000,0.655506,1.000000,0.762227,1.000000,0.000000,2.000000
23,0.001982,0.000000,0.819163,0.895029,1.000000,0.000000,0.071743,1.000000,2.000000,0.725209,0.000000,0.655506,1.000000,0.762227,1.000000,0.000000,2.000000
24,0.001982,0.000000,0.819163,0.895029,1.000000,0.000000,0.071743,1.000000,2.000000,0.725209,0.000000,0.655506,1.000000,0.762227,1.000000,0.000000,2.000000
25,0.001982,0.000000,0.819163,0.895029,1.000000,0.000000,0.071743,1.000000,2.000000,0.725209,0.000000,0.655506,1.000000,0.762227,1.000000,0.000000,2.000000
26,0.001982,0.000000,0.819163,0.895029,1.000000,0.000000,0.071743,1.000000,2.000000,0.725209,0.000000,0.655506,1.000000,0.762227,1.000000,0.000000,2.000000
27,0.001803,0.000000,0.833892,1.000000,1.000000,0.012389,0.000000,1.000000,1.000000,0.505001,0.000000,0.857207,1.000000,0.759714,0.768742,0.006184,2.000000
28,0.001753,0.000000,0.833892,1.000000,1.000000,0.000000,0.000000,1.000000,1.000000,0.505001,0.000000,0.907794,1.000000,0.759714,0.748864,0.162214,2.000000
29,0.001753,0.000000,0.833892,1.000000,1.000000,0.000000,0.000000,1.000000,1.000000,0.505001,0.000000,0.907794,1.000000,0.759714,0.748864,0.162214,2.000000
30,0.001753,0.000000,0.833892,1.000000,1.000000,0.000000,0.000000,1.000000,1.000000,0.505001,0.000000,0.907794,1.000000,0.759714,0.748864,0.162214,2.000000
31,0.001753,0.000000,0.833892,1.000000,1.000000,0.000000,0.000000,1.000000,1.000000,0.505001,0.000000,0.907794,1.000000,0.759714,0.748864,0.162214,2.000000
32,0.001753,0.000000,0.833892,1.000000,1.000000,0.000000,0.000000,1.000000,1.000000,0.505001,0.000000,0.907794,1.000000,0.759714,0.748864,0.162214,2.000000
33,0.001753,0.000000,0.833892,1.000000,1.000000,0.000000,0.000000,1.000000,1.000000,0.505001,0.000000,0.907794,1.000000,0.759714,0.748864,0.162214,2.000000
34,0.001753,0.000000,0.833892,1.000000,1.000000,0.000000,0.000000,1.000000,1.000000,0.505001,0.000000,0.907794,1.000000,0.759714,0.748864,0.162214,2.000000
35,0.001669,0.000000,0.958600,1.000000,0.978593,0.241403,0.000000,1.000000,2.000000,0.202679,0.000000,0.829513,1.000000,0.749287,0.427969,0.053774,2.000000
36,0.001669,0.000000,0.958600,1.000000,0.978593,0.241403,0.000000,1.000000,2.000000,0.202679,0.000000,0.829513,1.000000,0.749287,0.427969,0.053774,2.000000
37,0.001665,0.013641,0.680446,0.952457,1.000000,0.000000,0.000000,1.000000,2.000000,0.514337,0.000000,0.893673,1.000000,0.731491,0.555134,0.162214,2.000000
38,0.001665,0.013641,0.680446,0.952457,1.000000,0.000000,0.000000,1.000000,2.000000,0.514337,0.000000,0.893673,1.000000,0.731491,0.555134,0.162214,2.000000
39,0.001665,0.013641,0.680446,0.952457,1.000000,0.000000,0.000000,1.000000,2.000000,0.514337,0.000000,0.893673,1.000000,0.731491,0.555134,0.162214,2.000000
40,0.001665,0.013641,0.680446,0.952457,1.000000,0.000000,0.000000,1.000000,2.000000,0.514337,0.000000,0.893673,1.000000,0.731491,0.555134,0.162214,2.000000
41,0.001665,0.013641,0.680446,0.952457,1.000000,0.000000,0.000000,1.000000,2.000000,0.514337,0.000000,0.893673,1.000000,0.731491,0.555134,0.162214,2.000000
42,0.001665,0.013641,0.680446,0.952457,1.000000,0.000000,0.000000,1.000000,2.000000,0.514337,0.000000,0.893673,1.000000,0.731491,0.555134,0.162214,2.000000
43,0.001594,0.000000,0.834875,0.960868,1.000000,0.182282,0.000000,0.947896,2.000000,0.400574,0.000000,1.000000,1.000000,0.708650,0.294596,0.154270,2.000000
44,0.001594,0.000000,0.834875,0.960868,1.000000,0.182282,0.000000,0.947896,2.000000,0.400574,0.000000,1.000000,1.000000,0.708650,0.294596,0.154270,2.000000
45,0.001594,0.000000,0.834875,0.960868,1.000000,0.182282,0.000000,0.947896,2.000000,0.400574,0.000000,1.000000,1.000000,0.708650,0.294596,0.154270,2.000000
46,0.001594,0.000000,0.834875,0.960868,1.000000,0.182282,0.000000,0.947896,2.000000,0.400574,0.000000,1.000000,1.000000,0.708650,0.294596,0.154270,2.000000
47,0.001594,0.000000,0.834875,0.960868,1.000000,0.182282,0.000000,0.947896,2.000000,0.400574,0.000000,1.000000,1.000000,0.708650,0.294596,0.154270,2.000000
48,0.001569,0.000000,0.824971,0.972601,0.978593,0.115917,0.000000,1.000000,2.000000,0.105814,0.000000,1.000000,1.000000,0.809261,0.525725,0.004559,2.000000
49,0.001569,0.000000,0.824971,0.972601,0.978593,0.115917,0.000000,1.000000,2.000000,0.105814,0.000000,1.000000,1.000000,0.809261,0.525725,0.004559,2.000000
50,0.001569,0.000000,0.824971,0.972601,0.978593,0.115917,0.000000,1.000000,2.000000,0.105814,0.000000,1.000000,1.000000,0.809261,0.525725,0.004559,2.000000
51,0.001569,0.000000,0.824971,0.972601,0.978593,0.115917,0.000000,1.000000,2.000000,0.105814,0.000000,1.000000,1.000000,0.809261,0.525725,0.004559,2.000000
52,0.001541,0.014258,0.974904,0.758059,1.000000,0.070216,0.051152,1.000000,2.000000,0.060033,0.000000,0.912337,1.000000,0.844827,0.092562,0.315142,2.000000
53,0.001541,0.014258,0.974904,0.758059,1.000000,0.070216,0.051152,1.000000,2.000000,0.060033,0.000000,0.912337,1.000000,0.844827,0.092562,0.315142,2.000000
54,0.001541,0.014258,0.974904,0.758059,1.000000,0.070216,0.051152,1.000000,2.000000,0.060033,0.000000,0.912337,1.000000,0.844827,0.092562,0.315142,2.000000
55,0.001541,0.014258,0.974904,0.758059,1.000000,0.070216,0.051152,1.000000,2.000000,0.060033,0.000000,0.912337,1.000000,0.844827,0.092562,0.315142,2.000000
56,0.001541,0.014258,0.974904,0.758059,1.000000,0.070216,0.051152,1.000000,2.000000,0.060033,0.000000,0.912337,1.000000,0.844827,0.092562,0.315142,2.000000
57,0.001541,0.014258,0.974904,0.758059,1.000000,0.070216,0.051152,1.000000,2.000000,0.060033,0.000000,0.912337,1.000000,0.844827,0.092562,0.315142,2.000000
58,0.001541,0.014258,0.974904,0.758059,1.000000,0.070216,0.051152,1.000000,2.000000,0.060033,0.000000,0.912337,1.000000,0.844827,0.092562,0.315142,2.000000
59,0.001541,0.014258,0.974904,0.758059,1.000000,0.070216,0.051152,1.000000,2.000000,0.060033,0.000000,0.912337,1.000000,0.844827,0.092562,0.315142,2.000000
60,0.001541,0.014258,0.974904,0.758059,1.000000,0.070216,0.051152,1.000000,2.000000,0.060033,0.000000,0.912337,1.000000,0.844827,0.092562,0.315142,2.000000
61,0.001524,0.000000,0.789726,0.856707,1.000000,0.000000,0.000000,0.924654,2.000000,0.210653,0.000000,1.000000,1.000000,0.874265,0.264230,0.261499,2.000000
62,0.001524,0.000000,0.789726,0.856707,1.000000,0.000000,0.000000,0.924654,2.000000,0.210653,0.000000,1.000000,1.000000,0.874265,0.264230,0.261499,2.000000
63,0.001524,0.000000,0.789726,0.856707,1.000000,0.000000,0.000000,0.924654,2.000000,0.210653,0.000000,1.000000,1.000000,0.874265,0.264230,0.261499,2.000000
64,0.001524,0.000000,0.789726,0.856707,1.000000,0.000000,0.000000,0.924654,2.000000,0.210653,0.000000,1.000000,1.000000,0.874265,0.264230,0.261499,2.000000
65,0.001524,0.000000,0.789726,0.856707,1.000000,0.000000,0.000000,0.924654,2.000000,0.210653,0.000000,1.000000,1.000000,0.874265,0.264230,0.261499,2.000000
66,0.001524,0.000000,0.789726,0.856707,1.000000,0.000000,0.000000,0.924654,2.000000,0.210653,0.000000,1.000000,1.000000,0.874265,0.264230,0.261499,2.000000
67,0.001524,0.000000,0.789726,0.856707,1.000000,0.000000,0.000000,0.924654,2.000000,0.210653,0.000000,1.000000,1.000000,0.874265,0.264230,0.261499,2.000000
68,0.001524,0.000000,0.789726,0.856707,1.000000,0.000000,0.000000,0.924654,2.000000,0.210653,0.000000,1.000000,1.000000,0.874265,0.264230,0.261499,2.000000
69,0.001524,0.000000,0.789726,0.856707,1.000000,0.000000,0.000000,0.924654,2.000000,0.210653,0.000000,1.000000,1.000000,0.874265,0.264230,0.261499,2.000000
70,0.001524,0.000000,0.789726,0.856707,1.000000,0.000000,0.000000,0.924654,2.000000,0.210653,0.000000,1.000000,1.000000,0.874265,0.264230,0.261499,2.000000
71,0.001524,0.000000,0.789726,0.856707,1.000000,0.000000,0.000000,0.924654,2.000000,0.210653,0.000000,1.000000,1.000000,0.874265,0.264230,0.261499,2.000000
gen, fitness
0,0.074963,0.000000,1.000000,0.210000,0.800000,0.030000,0.030000,1.000000,0.000000,1.000000,0.000000,0.000000,0.600000,1.000000,1.000000,0.000000,0.000000
1,0.074963,0.000000,1.000000,0.210000,0.800000,0.030000,0.030000,1.000000,0.000000,1.000000,0.000000,0.000000,0.600000,1.000000,1.000000,0.000000,0.000000
2,0.041636,0.056196,1.000000,0.232428,0.892076,0.000000,0.088189,1.000000,2.000000,0.931062,0.146791,0.000000,0.787914,0.986749,0.792025,0.040002,2.000000
3,0.034545,0.000000,0.871575,0.017375,0.979357,0.239318,0.071986,1.000000,1.000000,1.000000,0.106623,0.067302,0.887800,0.977267,0.756205,0.000000,0.000000
4,0.023766,0.128308,0.884292,0.258073,1.000000,0.084678,0.136603,0.961010,1.000000,1.000000,0.121592,0.000000,1.000000,0.999751,0.891726,0.000000,2.000000
5,0.021488,0.120928,0.884292,0.339385,1.000000,0.000000,0.203582,0.957612,2.000000,0.911577,0.121592,0.000000,1.000000,1.000000,1.000000,0.000000,0.000000
6,0.020434,0.040315,0.851106,0.373210,1.000000,0.210525,0.062457,1.000000,2.000000,0.966825,0.057362,0.067397,1.000000,0.937711,0.788050,0.177790,1.000000
7,0.019734,0.142480,0.749911,0.418311,1.000000,0.208721,0.109947,0.973159,2.000000,1.000000,0.025506,0.118683,1.000000,1.000000,0.925200,0.164127,2.000000
8,0.018877,0.000000,0.752628,0.576344,1.000000,0.000000,0.068451,0.555934,2.000000,1.000000,0.000000,0.176392,1.000000,0.946827,0.900722,0.041276,2.000000
9,0.018310,0.000000,0.942811,0.539147,1.000000,0.154995,0.000000,0.900803,1.000000,0.870421,0.000000,0.308880,1.000000,1.000000,0.947262,0.318998,2.000000
10,0.016753,0.160683,0.696688,0.698967,1.000000,0.026783,0.116866,0.935437,2.000000,1.000000,0.046291,0.322093,1.000000,0.917056,0.739660,0.000000,2.000000
11,0.016653,0.005286,0.821069,0.624201,1.000000,0.122244,0.000000,1.000000,2.000000,0.870421,0.000000,0.337546,1.000000,1.000000,1.000000,0.318998,1.000000
12,0.015800,0.016808,0.872394,0.695295,1.000000,0.091402,0.067993,1.000000,2.000000,0.838774,0.110095,0.415770,1.000000,0.811659,1.000000,0.000000,2.000000
13,0.014995,0.000000,1.000000,0.888599,0.983694,0.037472,0.022753,0.984668,1.000000,0.653065,0.128936,0.276826,1.000000,1.000000,1.000000,0.000000,2.000000
14,0.014269,0.165281,0.921005,1.000000,0.983694,0.000000,0.208491,1.000000,1.000000,0.653065,0.048608,0.357408,1.000000,0.953085,0.947163,0.023045,2.000000
15,0.014081,0.000000,1.000000,1.000000,1.000000,0.168538,0.054526,1.000000,2.000000,0.598017,0.090053,0.451697,1.000000,1.000000,0.868988,0.000000,0.000000
16,0.014081,0.000000,1.000000,1.000000,1.000000,0.168538,0.054526,1.000000,2.000000,0.598017,0.090053,0.451697,1.000000,1.000000,0.868988,0.000000,0.000000
17,0.012654,0.000000,1.000000,0.959367,0.956474,0.028159,0.054526,0.895001,2.000000,0.200553,0.386254,0.536714,1.000000,1.000000,0.715230,0.000000,0.000000
18,0.012654,0.000000,1.000000,0.959367,0.956474,0.028159,0.054526,0.895001,2.000000,0.200553,0.386254,0.536714,1.000000,1.000000,0.715230,0.000000,0.000000
19,0.012654,0.000000,1.000000,0.959367,0.956474,0.028159,0.054526,0.895001,2.000000,0.200553,0.386254,0.536714,1.000000,1.000000,0.715230,0.000000,0.000000
20,0.012654,0.000000,1.000000,0.959367,0.956474,0.028159,0.054526,0.895001,2.000000,0.200553,0.386254,0.536714,1.000000,1.000000,0.715230,0.000000,0.000000
21,0.012307,0.000000,0.956267,0.959367,0.980489,0.000000,0.001079,0.917114,2.000000,0.200553,0.323198,0.633674,1.000000,1.000000,0.642688,0.000000,0.000000
22,0.012134,0.000000,0.956267,0.977026,0.980489,0.054028,0.017433,1.000000,2.000000,0.116027,0.323198,0.633674,1.000000,1.000000,0.738981,0.000000,0.000000
23,0.012134,0.000000,0.956267,0.977026,0.980489,0.054028,0.017433,1.000000,2.000000,0.116027,0.323198,0.633674,1.000000,1.000000,0.738981,0.000000,0.000000
24,0.011891,0.000000,0.956267,0.959367,0.980489,0.066545,0.000000,0.917114,2.000000,0.200553,0.323198,0.726669,1.000000,0.982775,0.637227,0.031859,2.000000
25,0.011566,0.021894,1.000000,1.000000,0.969903,0.090831,0.000000,1.000000,1.000000,0.002585,0.320690,0.786456,1.000000,0.802523,0.568457,0.237689,2.000000
26,0.011566,0.021894,1.000000,1.000000,0.969903,0.090831,0.000000,1.000000,1.000000,0.002585,0.320690,0.786456,1.000000,0.802523,0.568457,0.237689,2.000000
27,0.011566,0.021894,1.000000,1.000000,0.969903,0.090831,0.000000,1.000000,1.000000,0.002585,0.320690,0.786456,1.000000,0.802523,0.568457,0.237689,2.000000
28,0.011566,0.021894,1.000000,1.000000,0.969903,0.090831,0.000000,1.000000,1.000000,0.002585,0.320690,0.786456,1.000000,0.802523,0.568457,0.237689,2.000000
29,0.011566,0.021894,1.000000,1.000000,0.969903,0.090831,0.000000,1.000000,1.000000,0.002585,0.320690,0.786456,1.000000,0.802523,0.568457,0.237689,2.000000
30,0.011566,0.021894,1.000000,1.000000,0.969903,0.090831,0.000000,1.000000,1.000000,0.002585,0.320690,0.786456,1.000000,0.802523,0.568457,0.237689,2.000000
31,0.010881,0.441611,1.000000,1.000000,0.968523,0.594109,0.000000,1.000000,2.000000,0.000000,0.070430,1.000000,1.000000,0.977888,0.026891,0.129130,2.000000
32,0.010881,0.441611,1.000000,1.000000,0.968523,0.594109,0.000000,1.000000,2.000000,0.000000,0.070430,1.000000,1.000000,0.977888,0.026891,0.129130,2.000000
33,0.010881,0.441611,1.000000,1.000000,0.968523,0.594109,0.000000,1.000000,2.000000,0.000000,0.070430,1.000000,1.000000,0.977888,0.026891,0.129130,2.000000
34,0.010881,0.441611,1.000000,1.000000,0.968523,0.594109,0.000000,1.000000,2.000000,0.000000,0.070430,1.000000,1.000000,0.977888,0.026891,0.129130,2.000000
35,0.010881,0.441611,1.000000,1.000000,0.968523,0.594109,0.000000,1.000000,2.000000,0.000000,0.070430,1.000000,1.000000,0.977888,0.026891,0.129130,2.000000
36,0.010881,0.441611,1.000000,1.000000,0.968523,0.594109,0.000000,1.000000,2.000000,0.000000,0.070430,1.000000,1.000000,0.977888,0.026891,0.129130,2.000000
37,0.010828,0.000000,0.930505,1.000000,0.976303,0.037286,0.014088,1.000000,2.000000,0.027267,0.111934,0.801587,1.000000,0.784540,0.132249,0.000000,2.000000
38,0.010828,0.000000,0.930505,1.000000,0.976303,0.037286,0.014088,1.000000,2.000000,0.027267,0.111934,0.801587,1.000000,0.784540,0.132249,0.000000,2.000000
39,0.010828,0.000000,0.930505,1.000000,0.976303,0.037286,0.014088,1.000000,2.000000,0.027267,0.111934,0.801587,1.000000,0.784540,0.132249,0.000000,2.000000
40,0.010828,0.000000,0.930505,1.000000,0.976303,0.037286,0.014088,1.000000,2.000000,0.027267,0.111934,0.801587,1.000000,0.784540,0.132249,0.000000,2.000000
41,0.010828,0.000000,0.930505,1.000000,0.976303,0.037286,0.014088,1.000000,2.000000,0.027267,0.111934,0.801587,1.000000,0.784540,0.132249,0.000000,2.000000
42,0.010828,0.000000,0.930505,1.000000,0.976303,0.037286,0.014088,1.000000,2.000000,0.027267,0.111934,0.801587,1.000000,0.784540,0.132249,0.000000,2.000000
43,0.010828,0.000000,0.930505,1.000000,0.976303,0.037286,0.014088,1.000000,2.000000,0.027267,0.111934,0.801587,1.000000,0.784540,0.132249,0.000000,2.000000
44,0.010828,0.000000,0.930505,1.000000,0.976303,0.037286,0.014088,1.000000,2.000000,0.027267,0.111934,0.801587,1.000000,0.784540,0.132249,0.000000,2.000000
45,0.010828,0.000000,0.930505,1.000000,0.976303,0.037286,0.014088,1.000000,2.000000,0.027267,0.111934,0.801587,1.000000,0.784540,0.132249,0.000000,2.000000
46,0.010828,0.000000,0.930505,1.000000,0.976303,0.037286,0.014088,1.000000,2.000000,0.027267,0.111934,0.801587,1.000000,0.784540,0.132249,0.000000,2.000000
47,0.010828,0.000000,0.930505,1.000000,0.976303,0.037286,0.014088,1.000000,2.000000,0.027267,0.111934,0.801587,1.000000,0.784540,0.132249,0.000000,2.000000
gen, fitness
0,0.169504,0.000000,1.000000,0.210000,0.800000,0.030000,0.030000,1.000000,0.000000,1.000000,0.000000,0.000000,0.600000,1.000000,1.000000,0.000000,0.000000
1,0.169504,0.000000,1.000000,0.210000,0.800000,0.030000,0.030000,1.000000,0.000000,1.000000,0.000000,0.000000,0.600000,1.000000,1.000000,0.000000,0.000000
2,0.130893,0.000000,1.000000,0.251845,0.684409,0.132600,0.108107,1.000000,1.000000,1.000000,0.000000,0.000000,0.756283,1.000000,0.961026,0.000000,2.000000
3,0.111047,0.000000,1.000000,0.276940,0.870704,0.000000,0.000000,0.773844,2.000000,1.000000,0.000000,0.000000,0.836767,1.000000,0.832922,0.019345,2.000000
4,0.098516,0.000000,0.728599,0.246314,0.910765,0.000000,0.027721,1.000000,0.000000,0.995858,0.021004,0.227531,0.876862,0.918675,1.000000,0.000000,0.000000
5,0.093203,0.065453,1.000000,0.118508,0.915104,0.162834,0.131078,0.875771,2.000000,0.859030,0.073427,0.124716,0.966676,1.000000,0.836430,0.106187,2.000000
6,0.074313,0.000000,0.945762,0.231514,1.000000,0.000000,0.047218,0.874554,0.000000,1.000000,0.049366,0.387638,1.000000,0.943275,0.704782,0.333604,1.000000
7,0.066681,0.090639,0.924773,0.000000,1.000000,0.000000,0.121602,0.869897,1.000000,1.000000,0.000000,0.524008,0.997070,0.811143,1.000000,0.003349,2.000000
8,0.065362,0.090639,0.997193,0.015442,1.000000,0.014045,0.112792,0.759276,2.000000,1.000000,0.000000,0.553656,1.000000,0.668280,1.000000,0.003349,2.000000
9,0.065362,0.090639,0.997193,0.015442,1.000000,0.014045,0.112792,0.759276,2.000000,1.000000,0.000000,0.553656,1.000000,0.668280,1.000000,0.003349,2.000000
10,0.064553,0.000000,0.681352,0.041948,1.000000,0.043126,0.127050,0.793624,1.000000,0.985969,0.036843,0.633356,0.993046,0.961670,0.782847,0.513435,2.000000
11,0.064553,0.000000,0.681352,0.041948,1.000000,0.043126,0.127050,0.793624,1.000000,0.985969,0.036843,0.633356,0.993046,0.961670,0.782847,0.513435,2.000000
12,0.063923,0.000000,0.681352,0.000000,1.000000,0.000000,0.312933,0.691632,2.000000,0.893296,0.039332,0.628843,0.993046,0.880970,0.782847,0.434231,2.000000
13,0.063923,0.000000,0.681352,0.000000,1.000000,0.000000,0.312933,0.691632,2.000000,0.893296,0.039332,0.628843,0.993046,0.880970,0.782847,0.434231,2.000000
14,0.063058,0.104290,0.717357,0.000000,1.000000,0.160312,0.184042,1.000000,2.000000,1.000000,0.295446,0.744982,1.000000,0.508671,1.000000,0.408334,2.000000
15,0.062956,0.024882,0.702803,0.000000,1.000000,0.000000,0.000000,0.824618,2.000000,1.000000,0.106778,0.642442,0.958237,0.712684,0.839393,0.225790,2.000000
16,0.062355,0.144068,0.718073,0.000000,1.000000,0.000000,0.079116,0.653611,2.000000,1.000000,0.098086,0.750400,0.960276,0.902616,0.788982,0.182789,2.000000
17,0.060582,0.015705,0.693131,0.013841,1.000000,0.000000,0.000000,0.491353,2.000000,0.933927,0.010196,0.812487,0.949323,0.969773,0.945896,0.550112,2.000000
18,0.060582,0.015705,0.693131,0.013841,1.000000,0.000000,0.000000,0.491353,2.000000,0.933927,0.010196,0.812487,0.949323,0.969773,0.945896,0.550112,2.000000
19,0.060582,0.015705,0.693131,0.013841,1.000000,0.000000,0.000000,0.491353,2.000000,0.933927,0.010196,0.812487,0.949323,0.969773,0.945896,0.550112,2.000000
20,0.059197,0.043896,0.565840,0.000000,1.000000,0.014913,0.140467,0.386956,2.000000,0.999926,0.187123,1.000000,0.963817,0.953998,0.803003,0.419150,2.000000
21,0.059197,0.043896,0.565840,0.000000,1.000000,0.014913,0.140467,0.386956,2.000000,0.999926,0.187123,1.000000,0.963817,0.953998,0.803003,0.419150,2.000000
22,0.059197,0.043896,0.565840,0.000000,1.000000,0.014913,0.140467,0.386956,2.000000,0.999926,0.187123,1.000000,0.963817,0.953998,0.803003,0.419150,2.000000
23,0.059197,0.043896,0.565840,0.000000,1.000000,0.014913,0.140467,0.386956,2.000000,0.999926,0.187123,1.000000,0.963817,0.953998,0.803003,0.419150,2.000000
24,0.058805,0.043896,0.831581,0.005913,1.000000,0.000000,0.015313,0.410932,2.000000,1.000000,0.195381,0.944983,0.951557,0.958149,0.858642,0.530034,2.000000
25,0.058805,0.043896,0.831581,0.005913,1.000000,0.000000,0.015313,0.410932,2.000000,1.000000,0.195381,0.944983,0.951557,0.958149,0.858642,0.530034,2.000000
26,0.058805,0.043896,0.831581,0.005913,1.000000,0.000000,0.015313,0.410932,2.000000,1.000000,0.195381,0.944983,0.951557,0.958149,0.858642,0.530034,2.000000
27,0.058805,0.043896,0.831581,0.005913,1.000000,0.000000,0.015313,0.410932,2.000000,1.000000,0.195381,0.944983,0.951557,0.958149,0.858642,0.530034,2.000000
28,0.058805,0.043896,0.831581,0.005913,1.000000,0.000000,0.015313,0.410932,2.000000,1.000000,0.195381,0.944983,0.951557,0.958149,0.858642,0.530034,2.000000
29,0.058805,0.043896,0.831581,0.005913,1.000000,0.000000,0.015313,0.410932,2.000000,1.000000,0.195381,0.944983,0.951557,0.958149,0.858642,0.530034,2.000000
30,0.058805,0.043896,0.831581,0.005913,1.000000,0.000000,0.015313,0.410932,2.000000,1.000000,0.195381,0.944983,0.951557,0.958149,0.858642,0.530034,2.000000
31,0.058805,0.043896,0.831581,0.005913,1.000000,0.000000,0.015313,0.410932,2.000000,1.000000,0.195381,0.944983,0.951557,0.958149,0.858642,0.530034,2.000000
32,0.058805,0.043896,0.831581,0.005913,1.000000,0.000000,0.015313,0.410932,2.000000,1.000000,0.195381,0.944983,0.951557,0.958149,0.858642,0.530034,2.000000
33,0.058805,0.043896,0.831581,0.005913,1.000000,0.000000,0.015313,0.410932,2.000000,1.000000,0.195381,0.944983,0.951557,0.958149,0.858642,0.530034,2.000000
34,0.058017,0.091291,0.893575,0.000000,1.000000,0.000000,0.000000,0.273912,2.000000,1.000000,0.341709,0.989570,0.959878,0.883854,0.884282,0.681616,2.000000
35,0.058017,0.091291,0.893575,0.000000,1.000000,0.000000,0.000000,0.273912,2.000000,1.000000,0.341709,0.989570,0.959878,0.883854,0.884282,0.681616,2.000000
36,0.058017,0.091291,0.893575,0.000000,1.000000,0.000000,0.000000,0.273912,2.000000,1.000000,0.341709,0.989570,0.959878,0.883854,0.884282,0.681616,2.000000
37,0.058017,0.091291,0.893575,0.000000,1.000000,0.000000,0.000000,0.273912,2.000000,1.000000,0.341709,0.989570,0.959878,0.883854,0.884282,0.681616,2.000000
38,0.058017,0.091291,0.893575,0.000000,1.000000,0.000000,0.000000,0.273912,2.000000,1.000000,0.341709,0.989570,0.959878,0.883854,0.884282,0.681616,2.000000
39,0.058017,0.091291,0.893575,0.000000,1.000000,0.000000,0.000000,0.273912,2.000000,1.000000,0.341709,0.989570,0.959878,0.883854,0.884282,0.681616,2.000000
40,0.058017,0.091291,0.893575,0.000000,1.000000,0.000000,0.000000,0.273912,2.000000,1.000000,0.341709,0.989570,0.959878,0.883854,0.884282,0.681616,2.000000
41,0.058017,0.091291,0.893575,0.000000,1.000000,0.000000,0.000000,0.273912,2.000000,1.000000,0.341709,0.989570,0.959878,0.883854,0.884282,0.681616,2.000000
42,0.058017,0.091291,0.893575,0.000000,1.000000,0.000000,0.000000,0.273912,2.000000,1.000000,0.341709,0.989570,0.959878,0.883854,0.884282,0.681616,2.000000
43,0.058017,0.091291,0.893575,0.000000,1.000000,0.000000,0.000000,0.273912,2.000000,1.000000,0.341709,0.989570,0.959878,0.883854,0.884282,0.681616,2.000000
44,0.058017,0.091291,0.893575,0.000000,1.000000,0.000000,0.000000,0.273912,2.000000,1.000000,0.341709,0.989570,0.959878,0.883854,0.884282,0.681616,2.000000
gen, fitness
0,0.081164,0.000000,1.000000,0.210000,0.800000,0.030000,0.030000,1.000000,0.000000,1.000000,0.000000,0.000000,0.600000,1.000000,1.000000,0.000000,0.000000
1,0.081164,0.000000,1.000000,0.210000,0.800000,0.030000,0.030000,1.000000,0.000000,1.000000,0.000000,0.000000,0.600000,1.000000,1.000000,0.000000,0.000000
2,0.042760,0.000000,1.000000,0.185535,0.895191,0.030000,0.075081,0.906837,2.000000,1.000000,0.000000,0.000000,0.802850,1.000000,1.000000,0.089194,0.000000
3,0.034928,0.000000,0.988557,0.212201,0.927544,0.000000,0.000000,1.000000,1.000000,1.000000,0.000000,0.000000,0.875818,0.949474,0.971745,0.121323,0.000000
4,0.028113,0.000000,0.818619,0.306224,1.000000,0.016019,0.000000,0.920488,2.000000,1.000000,0.227499,0.223017,0.934238,0.917102,0.960432,0.055276,1.000000
5,0.022586,0.151026,0.754380,0.295966,1.000000,0.000000,0.000000,0.842772,1.000000,0.965944,0.260525,0.223017,1.000000,0.700276,0.894756,0.000000,1.000000
6,0.021094,0.000000,0.885363,0.093313,1.000000,0.015112,0.000000,1.000000,2.000000,0.778408,0.191014,0.251430,1.000000,0.942917,0.943098,0.223930,1.000000
7,0.019930,0.073008,0.972964,0.125547,1.000000,0.083525,0.000000,1.000000,2.000000,0.778408,0.293102,0.375105,0.997690,1.000000,1.000000,0.179554,2.000000
8,0.019826,0.000000,0.636606,0.341084,0.999075,0.000000,0.000000,0.724301,2.000000,0.704023,0.176346,0.333654,1.000000,0.912054,0.952833,0.003693,2.000000
9,0.019263,0.116244,0.832510,0.337881,1.000000,0.073202,0.129976,0.807714,2.000000,0.671969,0.052703,0.465036,1.000000,0.956831,0.543624,0.297031,2.000000
10,0.019263,0.116244,0.832510,0.337881,1.000000,0.073202,0.129976,0.807714,2.000000,0.671969,0.052703,0.465036,1.000000,0.956831,0.543624,0.297031,2.000000
11,0.019263,0.116244,0.832510,0.337881,1.000000,0.073202,0.129976,0.807714,2.000000,0.671969,0.052703,0.465036,1.000000,0.956831,0.543624,0.297031,2.000000
12,0.019263,0.116244,0.832510,0.337881,1.000000,0.073202,0.129976,0.807714,2.000000,0.671969,0.052703,0.465036,1.000000,0.956831,0.543624,0.297031,2.000000
13,0.018776,0.000000,0.779196,0.404099,1.000000,0.146768,0.011361,0.935362,2.000000,0.691810,0.000000,0.715420,1.000000,1.000000,1.000000,0.446774,1.000000
14,0.018776,0.000000,0.779196,0.404099,1.000000,0.146768,0.011361,0.935362,2.000000,0.691810,0.000000,0.715420,1.000000,1.000000,1.000000,0.446774,1.000000
15,0.017947,0.000000,0.978923,0.404099,1.000000,0.203247,0.000000,1.000000,2.000000,0.613058,0.141576,0.813278,1.000000,0.948002,0.944085,0.193722,2.000000
16,0.017632,0.071725,0.963903,0.404099,1.000000,0.287799,0.000000,1.000000,2.000000,0.588279,0.141576,0.835386,1.000000,0.948002,0.891619,0.458287,2.000000
17,0.017632,0.071725,0.963903,0.404099,1.000000,0.287799,0.000000,1.000000,2.000000,0.588279,0.141576,0.835386,1.000000,0.948002,0.891619,0.458287,2.000000
18,0.017593,0.132867,0.435812,0.478086,1.000000,0.025548,0.051008,0.955883,2.000000,0.706394,0.214972,0.818400,1.000000,1.000000,1.000000,0.343370,2.000000
19,0.017593,0.132867,0.435812,0.478086,1.000000,0.025548,0.051008,0.955883,2.000000,0.706394,0.214972,0.818400,1.000000,1.000000,1.000000,0.343370,2.000000
20,0.017378,0.000000,0.647338,0.418479,1.000000,0.076381,0.286283,0.953150,2.000000,0.548540,0.333280,1.000000,1.000000,0.752927,0.930017,0.714394,2.000000
21,0.017378,0.000000,0.647338,0.418479,1.000000,0.076381,0.286283,0.953150,2.000000,0.548540,0.333280,1.000000,1.000000,0.752927,0.930017,0.714394,2.000000
22,0.017378,0.000000,0.647338,0.418479,1.000000,0.076381,0.286283,0.953150,2.000000,0.548540,0.333280,1.000000,1.000000,0.752927,0.930017,0.714394,2.000000
23,0.017349,0.000000,0.402365,0.503767,1.000000,0.000000,0.000000,0.863348,2.000000,0.663769,0.057510,0.783297,1.000000,0.991464,0.996551,0.476438,2.000000
24,0.017172,0.182943,0.563269,0.683618,1.000000,0.191427,0.000000,0.883652,2.000000,0.823846,0.235421,1.000000,1.000000,0.924333,0.959992,0.736871,2.000000
25,0.017115,0.084441,0.755523,0.603959,1.000000,0.000000,0.254795,1.000000,2.000000,0.859160,0.000000,0.840466,1.000000,0.909577,1.000000,0.769222,2.000000
26,0.016806,0.000000,0.402365,0.642383,1.000000,0.000000,0.000000,0.796434,2.000000,0.732251,0.263359,1.000000,1.000000,1.000000,0.828642,0.667184,2.000000
27,0.016806,0.000000,0.402365,0.642383,1.000000,0.000000,0.000000,0.796434,2.000000,0.732251,0.263359,1.000000,1.000000,1.000000,0.828642,0.667184,2.000000
28,0.016806,0.000000,0.402365,0.642383,1.000000,0.000000,0.000000,0.796434,2.000000,0.732251,0.263359,1.000000,1.000000,1.000000,0.828642,0.667184,2.000000
29,0.016806,0.000000,0.402365,0.642383,1.000000,0.000000,0.000000,0.796434,2.000000,0.732251,0.263359,1.000000,1.000000,1.000000,0.828642,0.667184,2.000000
30,0.016806,0.000000,0.402365,0.642383,1.000000,0.000000,0.000000,0.796434,2.000000,0.732251,0.263359,1.000000,1.000000,1.000000,0.828642,0.667184,2.000000
31,0.016757,0.122331,0.834164,0.340521,1.000000,0.016620,0.000000,0.834929,2.000000,0.260253,0.331083,0.974191,1.000000,0.682919,1.000000,0.927257,2.000000
32,0.016757,0.122331,0.834164,0.340521,1.000000,0.016620,0.000000,0.834929,2.000000,0.260253,0.331083,0.974191,1.000000,0.682919,1.000000,0.927257,2.000000
33,0.016757,0.122331,0.834164,0.340521,1.000000,0.016620,0.000000,0.834929,2.000000,0.260253,0.331083,0.974191,1.000000,0.682919,1.000000,0.927257,2.000000
34,0.016757,0.122331,0.834164,0.340521,1.000000,0.016620,0.000000,0.834929,2.000000,0.260253,0.331083,0.974191,1.000000,0.682919,1.000000,0.927257,2.000000
35,0.016690,0.001214,0.692106,0.618721,1.000000,0.174908,0.216836,0.990451,2.000000,0.551400,0.084848,1.000000,1.000000,0.955197,1.000000,0.942951,2.000000
36,0.016690,0.001214,0.692106,0.618721,1.000000,0.174908,0.216836,0.990451,2.000000,0.551400,0.084848,1.000000,1.000000,0.955197,1.000000,0.942951,2.000000
37,0.016690,0.001214,0.692106,0.618721,1.000000,0.174908,0.216836,0.990451,2.000000,0.551400,0.084848,1.000000,1.000000,0.955197,1.000000,0.942951,2.000000
38,0.016690,0.001214,0.692106,0.618721,1.000000,0.174908,0.216836,0.990451,2.000000,0.551400,0.084848,1.000000,1.000000,0.955197,1.000000,0.942951,2.000000
39,0.016690,0.001214,0.692106,0.618721,1.000000,0.174908,0.216836,0.990451,2.000000,0.551400,0.084848,1.000000,1.000000,0.955197,1.000000,0.942951,2.000000
40,0.016690,0.001214,0.692106,0.618721,1.000000,0.174908,0.216836,0.990451,2.000000,0.551400,0.084848,1.000000,1.000000,0.955197,1.000000,0.942951,2.000000
41,0.016690,0.001214,0.692106,0.618721,1.000000,0.174908,0.216836,0.990451,2.000000,0.551400,0.084848,1.000000,1.000000,0.955197,1.000000,0.942951,2.000000
42,0.016609,0.001214,0.822148,0.618991,1.000000,0.174908,0.154564,1.000000,2.000000,0.576025,0.089958,1.000000,1.000000,0.955197,0.978740,0.942951,2.000000
43,0.016609,0.001214,0.822148,0.618991,1.000000,0.174908,0.154564,1.000000,2.000000,0.576025,0.089958,1.000000,1.000000,0.955197,0.978740,0.942951,2.000000
44,0.016609,0.001214,0.822148,0.618991,1.000000,0.174908,0.154564,1.000000,2.000000,0.576025,0.089958,1.000000,1.000000,0.955197,0.978740,0.942951,2.000000
45,0.016609,0.001214,0.822148,0.618991,1.000000,0.174908,0.154564,1.000000,2.000000,0.576025,0.089958,1.000000,1.000000,0.955197,0.978740,0.942951,2.000000
46,0.016609,0.001214,0.822148,0.618991,1.000000,0.174908,0.154564,1.000000,2.000000,0.576025,0.089958,1.000000,1.000000,0.955197,0.978740,0.942951,2.000000
47,0.016609,0.001214,0.822148,0.618991,1.000000,0.174908,0.154564,1.000000,2.000000,0.576025,0.089958,1.000000,1.000000,0.955197,0.978740,0.942951,2.000000
48,0.016609,0.001214,0.822148,0.618991,1.000000,0.174908,0.154564,1.000000,2.000000,0.576025,0.089958,1.000000,1.000000,0.955197,0.978740,0.942951,2.000000
49,0.016609,0.001214,0.822148,0.618991,1.000000,0.174908,0.154564,1.000000,2.000000,0.576025,0.089958,1.000000,1.000000,0.955197,0.978740,0.942951,2.000000
50,0.016572,0.001214,0.822148,0.587851,1.000000,0.020530,0.130649,0.812627,2.000000,0.566671,0.063065,0.979905,1.000000,0.983603,0.978740,1.000000,2.000000
51,0.016572,0.001214,0.822148,0.587851,1.000000,0.020530,0.130649,0.812627,2.000000,0.566671,0.063065,0.979905,1.000000,0.983603,0.978740,1.000000,2.000000
52,0.016523,0.048661,0.691418,0.370685,1.000000,0.012974,0.000000,0.947073,2.000000,0.338193,0.151601,1.000000,1.000000,1.000000,0.907171,0.908108,2.000000
53,0.016523,0.048661,0.691418,0.370685,1.000000,0.012974,0.000000,0.947073,2.000000,0.338193,0.151601,1.000000,1.000000,1.000000,0.907171,0.908108,2.000000
54,0.016523,0.048661,0.691418,0.370685,1.000000,0.012974,0.000000,0.947073,2.000000,0.338193,0.151601,1.000000,1.000000,1.000000,0.907171,0.908108,2.000000
55,0.016523,0.048661,0.691418,0.370685,1.000000,0.012974,0.000000,0.947073,2.000000,0.338193,0.151601,1.000000,1.000000,1.000000,0.907171,0.908108,2.000000
56,0.016523,0.048661,0.691418,0.370685,1.000000,0.012974,0.000000,0.947073,2.000000,0.338193,0.151601,1.000000,1.000000,1.000000,0.907171,0.908108,2.000000
57,0.016523,0.048661,0.691418,0.370685,1.000000,0.012974,0.000000,0.947073,2.000000,0.338193,0.151601,1.000000,1.000000,1.000000,0.907171,0.908108,2.000000
58,0.016523,0.048661,0.691418,0.370685,1.000000,0.012974,0.000000,0.947073,2.000000,0.338193,0.151601,1.000000,1.000000,1.000000,0.907171,0.908108,2.000000
59,0.016523,0.048661,0.691418,0.370685,1.000000,0.012974,0.000000,0.947073,2.000000,0.338193,0.151601,1.000000,1.000000,1.000000,0.907171,0.908108,2.000000
60,0.016523,0.048661,0.691418,0.370685,1.000000,0.012974,0.000000,0.947073,2.000000,0.338193,0.151601,1.000000,1.000000,1.000000,0.907171,0.908108,2.000000
61,0.016523,0.048661,0.691418,0.370685,1.000000,0.012974,0.000000,0.947073,2.000000,0.338193,0.151601,1.000000,1.000000,1.000000,0.907171,0.908108,2.000000
62,0.016523,0.048661,0.691418,0.370685,1.000000,0.012974,0.000000,0.947073,2.000000,0.338193,0.151601,1.000000,1.000000,1.000000,0.907171,0.908108,2.000000
gen, fitness
0,0.045024,0.000000,1.000000,0.210000,0.800000,0.030000,0.030000,1.000000,0.000000,1.000000,0.000000,0.000000,0.600000,1.000000,1.000000,0.000000,0.000000
1,0.045024,0.000000,1.000000,0.210000,0.800000,0.030000,0.030000,1.000000,0.000000,1.000000,0.000000,0.000000,0.600000,1.000000,1.000000,0.000000,0.000000
2,0.018442,0.015626,1.000000,0.158452,0.891394,0.023141,0.000000,1.000000,1.000000,0.935345,0.000000,0.149584,0.741125,1.000000,0.903566,0.000000,1.000000
3,0.015239,0.084353,1.000000,0.361437,0.876464,0.083671,0.000000,0.978232,1.000000,0.845996,0.000000,0.065982,0.817136,1.000000,0.917364,0.230079,1.000000
4,0.010804,0.179239,1.000000,0.361437,0.876464,0.000000,0.000000,0.949723,1.000000,0.716963,0.000000,0.000000,0.912419,1.000000,0.917161,0.307876,2.000000
5,0.006149,0.001837,1.000000,0.297514,1.000000,0.000000,0.000000,1.000000,1.000000,1.000000,0.000000,0.000000,1.000000,1.000000,1.000000,0.039610,2.000000
6,0.005424,0.045131,0.913296,0.390413,1.000000,0.000000,0.032873,0.839284,2.000000,0.955522,0.000000,0.173841,1.000000,1.000000,0.692405,0.000000,2.000000
7,0.005203,0.069958,0.927421,0.605426,1.000000,0.000000,0.061436,0.654578,0.000000,0.961769,0.100826,0.117341,1.000000,0.745208,0.568808,0.355570,2.000000
8,0.004704,0.000029,0.821998,0.562523,1.000000,0.233640,0.059836,0.739673,2.000000,0.939304,0.209341,0.183427,1.000000,0.643429,0.935007,0.147876,2.000000
9,0.004704,0.000029,0.821998,0.562523,1.000000,0.233640,0.059836,0.739673,2.000000,0.939304,0.209341,0.183427,1.000000,0.643429,0.935007,0.147876,2.000000
10,0.004704,0.000029,0.821998,0.562523,1.000000,0.233640,0.059836,0.739673,2.000000,0.939304,0.209341,0.183427,1.000000,0.643429,0.935007,0.147876,2.000000
11,0.004704,0.000029,0.821998,0.562523,1.000000,0.233640,0.059836,0.739673,2.000000,0.939304,0.209341,0.183427,1.000000,0.643429,0.935007,0.147876,2.000000
12,0.004704,0.000029,0.821998,0.562523,1.000000,0.233640,0.059836,0.739673,2.000000,0.939304,0.209341,0.183427,1.000000,0.643429,0.935007,0.147876,2.000000
13,0.004405,0.100196,1.000000,0.815565,0.997962,0.000000,0.219029,0.876191,2.000000,0.986983,0.026239,0.439150,0.985461,0.684178,0.343384,0.158983,2.000000
14,0.004275,0.000000,0.859155,0.694207,1.000000,0.000000,0.061436,0.783794,2.000000,0.848266,0.389611,0.390568,0.991498,0.785026,0.651435,0.354243,2.000000
15,0.003760,0.271214,0.630561,1.000000,0.983035,0.091605,0.073351,1.000000,2.000000,0.675346,0.102842,0.654068,1.000000,0.628126,0.774266,0.060852,2.000000
16,0.003760,0.271214,0.630561,1.000000,0.983035,0.091605,0.073351,1.000000,2.000000,0.675346,0.102842,0.654068,1.000000,0.628126,0.774266,0.060852,2.000000
17,0.003756,0.000000,0.635153,0.381800,1.000000,0.258441,0.039953,0.787064,2.000000,0.211472,0.123017,0.639044,1.000000,0.581391,0.856724,0.150544,2.000000
18,0.003171,0.073206,0.970648,0.756975,1.000000,0.298581,0.067705,1.000000,2.000000,0.421297,0.000000,0.982738,1.000000,0.797413,0.614373,0.113229,2.000000
19,0.003171,0.073206,0.970648,0.756975,1.000000,0.298581,0.067705,1.000000,2.000000,0.421297,0.000000,0.982738,1.000000,0.797413,0.614373,0.113229,2.000000
20,0.003171,0.073206,0.970648,0.756975,1.000000,0.298581,0.067705,1.000000,2.000000,0.421297,0.000000,0.982738,1.000000,0.797413,0.614373,0.113229,2.000000
21,0.003171,0.073206,0.970648,0.756975,1.000000,0.298581,0.067705,1.000000,2.000000,0.421297,0.000000,0.982738,1.000000,0.797413,0.614373,0.113229,2.000000
22,0.003171,0.073206,0.970648,0.756975,1.000000,0.298581,0.067705,1.000000,2.000000,0.421297,0.000000,0.982738,1.000000,0.797413,0.614373,0.113229,2.000000
23,0.003171,0.073206,0.970648,0.756975,1.000000,0.298581,0.067705,1.000000,2.000000,0.421297,0.000000,0.982738,1.000000,0.797413,0.614373,0.113229,2.000000
24,0.003133,0.002512,1.000000,0.705303,1.000000,0.011773,0.113939,0.761255,2.000000,0.208502,0.000000,1.000000,1.000000,0.770057,0.512367,0.015941,2.000000
25,0.003133,0.002512,1.000000,0.705303,1.000000,0.011773,0.113939,0.761255,2.000000,0.208502,0.000000,1.000000,1.000000,0.770057,0.512367,0.015941,2.000000
26,0.003133,0.002512,1.000000,0.705303,1.000000,0.011773,0.113939,0.761255,2.000000,0.208502,0.000000,1.000000,1.000000,0.770057,0.512367,0.015941,2.000000
27,0.003133,0.002512,1.000000,0.705303,1.000000,0.011773,0.113939,0.761255,2.000000,0.208502,0.000000,1.000000,1.000000,0.770057,0.512367,0.015941,2.000000
28,0.003133,0.002512,1.000000,0.705303,1.000000,0.011773,0.113939,0.761255,2.000000,0.208502,0.000000,1.000000,1.000000,0.770057,0.512367,0.015941,2.000000
29,0.003133,0.002512,1.000000,0.705303,1.000000,0.011773,0.113939,0.761255,2.000000,0.208502,0.000000,1.000000,1.000000,0.770057,0.512367,0.015941,2.000000
30,0.003133,0.002512,1.000000,0.705303,1.000000,0.011773,0.113939,0.761255,2.000000,0.208502,0.000000,1.000000,1.000000,0.770057,0.512367,0.015941,2.000000
31,0.003133,0.002512,1.000000,0.705303,1.000000,0.011773,0.113939,0.761255,2.000000,0.208502,0.000000,1.000000,1.000000,0.770057,0.512367,0.015941,2.000000
32,0.003133,0.002512,1.000000,0.705303,1.000000,0.011773,0.113939,0.761255,2.000000,0.208502,0.000000,1.000000,1.000000,0.770057,0.512367,0.015941,2.000000
33,0.003133,0.002512,1.000000,0.705303,1.000000,0.011773,0.113939,0.761255,2.000000,0.208502,0.000000,1.000000,1.000000,0.770057,0.512367,0.015941,2.000000
34,0.003133,0.002512,1.000000,0.705303,1.000000,0.011773,0.113939,0.761255,2.000000,0.208502,0.000000,1.000000,1.000000,0.770057,0.512367,0.015941,2.000000
gen, fitness
0,0.032391,0.000000,1.000000,0.210000,0.800000,0.030000,0.030000,1.000000,0.000000,1.000000,0.000000,0.000000,0.600000,1.000000,1.000000,0.000000,0.000000
1,0.032391,0.000000,1.000000,0.210000,0.800000,0.030000,0.030000,1.000000,0.000000,1.000000,0.000000,0.000000,0.600000,1.000000,1.000000,0.000000,0.000000
2,0.011282,0.000000,0.926608,0.275225,0.884122,0.024904,0.119862,1.000000,0.000000,1.000000,0.000000,0.234154,0.756189,1.000000,1.000000,0.000000,1.000000
3,0.011282,0.000000,0.926608,0.275225,0.884122,0.024904,0.119862,1.000000,0.000000,1.000000,0.000000,0.234154,0.756189,1.000000,1.000000,0.000000,1.000000
4,0.005730,0.044335,1.000000,0.000000,1.000000,0.125785,0.000000,0.967605,1.000000,1.000000,0.018977,0.348784,0.899072,0.903552,0.946862,0.115507,2.000000
5,0.005730,0.044335,1.000000,0.000000,1.000000,0.125785,0.000000,0.967605,1.000000,1.000000,0.018977,0.348784,0.899072,0.903552,0.946862,0.115507,2.000000
6,0.004742,0.044335,0.936014,0.000000,0.995100,0.125785,0.000000,0.852410,2.000000,1.000000,0.081534,0.298814,0.921624,0.864811,0.946862,0.191406,2.000000
7,0.004132,0.005227,0.902003,0.000000,1.000000,0.270030,0.000000,0.774645,2.000000,0.821946,0.146213,0.568801,0.899072,0.874377,0.648188,0.318936,2.000000
8,0.002836,0.040847,0.895810,0.343885,1.000000,0.107937,0.000000,0.923759,2.000000,0.802369,0.000000,0.210224,1.000000,1.000000,1.000000,0.453027,0.000000
9,0.002836,0.040847,0.895810,0.343885,1.000000,0.107937,0.000000,0.923759,2.000000,0.802369,0.000000,0.210224,1.000000,1.000000,1.000000,0.453027,0.000000
10,0.002341,0.182355,0.918965,0.314631,1.000000,0.000943,0.000000,0.932282,2.000000,0.906070,0.031034,0.335337,1.000000,1.000000,1.000000,0.417235,2.000000
11,0.002341,0.182355,0.918965,0.314631,1.000000,0.000943,0.000000,0.932282,2.000000,0.906070,0.031034,0.335337,1.000000,1.000000,1.000000,0.417235,2.000000
12,0.002341,0.182355,0.918965,0.314631,1.000000,0.000943,0.000000,0.932282,2.000000,0.906070,0.031034,0.335337,1.000000,1.000000,1.000000,0.417235,2.000000
13,0.002245,0.021708,0.935396,0.386591,1.000000,0.027694,0.044119,0.746049,2.000000,0.556338,0.000303,0.754097,1.000000,0.764895,0.587057,0.253253,2.000000
14,0.002163,0.000000,0.829582,0.483476,1.000000,0.420166,0.000000,0.992001,1.000000,0.446597,0.064016,0.703331,0.987815,0.870699,0.718565,0.322821,0.000000
15,0.001834,0.047546,0.659091,0.642574,0.969167,0.264476,0.125800,1.000000,2.000000,0.525169,0.056704,0.355664,1.000000,0.843993,0.843716,0.417233,2.000000
16,0.001773,0.377997,0.920062,0.473332,1.000000,0.319196,0.139823,0.861316,2.000000,0.468816,0.000000,0.886395,1.000000,0.764895,0.576450,0.390617,2.000000
17,0.001549,0.015195,0.935396,0.612093,1.000000,0.303224,0.198289,1.000000,1.000000,0.388567,0.000000,0.777771,1.000000,0.753209,0.700626,0.268121,2.000000
18,0.001549,0.015195,0.935396,0.612093,1.000000,0.303224,0.198289,1.000000,1.000000,0.388567,0.000000,0.777771,1.000000,0.753209,0.700626,0.268121,2.000000
19,0.001549,0.015195,0.935396,0.612093,1.000000,0.303224,0.198289,1.000000,1.000000,0.388567,0.000000,0.777771,1.000000,0.753209,0.700626,0.268121,2.000000
20,0.001545,0.000000,1.000000,0.610708,1.000000,0.216210,0.361725,0.808294,1.000000,0.352009,0.070550,0.884735,1.000000,0.558173,0.664876,0.150489,2.000000
21,0.001545,0.000000,1.000000,0.610708,1.000000,0.216210,0.361725,0.808294,1.000000,0.352009,0.070550,0.884735,1.000000,0.558173,0.664876,0.150489,2.000000
22,0.001528,0.048375,0.701496,0.565262,1.000000,0.420166,0.119588,1.000000,2.000000,0.379945,0.000000,0.892533,1.000000,1.000000,0.720176,0.560361,1.000000
23,0.001528,0.048375,0.701496,0.565262,1.000000,0.420166,0.119588,1.000000,2.000000,0.379945,0.000000,0.892533,1.000000,1.000000,0.720176,0.560361,1.000000
24,0.001478,0.000000,0.700789,0.683606,1.000000,0.083781,0.347298,0.857715,1.000000,0.478726,0.186447,0.947523,1.000000,0.970399,0.938568,0.438501,2.000000
25,0.001386,0.000000,0.660930,0.677691,1.000000,0.022824,0.372070,0.937803,2.000000,0.478726,0.186447,0.947523,1.000000,0.973086,0.816279,0.303027,2.000000
26,0.001386,0.000000,0.660930,0.677691,1.000000,0.022824,0.372070,0.937803,2.000000,0.478726,0.186447,0.947523,1.000000,0.973086,0.816279,0.303027,2.000000
27,0.001386,0.000000,0.660930,0.677691,1.000000,0.022824,0.372070,0.937803,2.000000,0.478726,0.186447,0.947523,1.000000,0.973086,0.816279,0.303027,2.000000
28,0.001234,0.000000,1.000000,0.554567,1.000000,0.266478,0.000000,1.000000,2.000000,0.397074,0.000000,1.000000,1.000000,1.000000,0.608610,0.518549,2.000000
29,0.001234,0.000000,1.000000,0.554567,1.000000,0.266478,0.000000,1.000000,2.000000,0.397074,0.000000,1.000000,1.000000,1.000000,0.608610,0.518549,2.000000
30,0.001216,0.000000,0.660930,0.658044,1.000000,0.000000,0.000000,0.901798,2.000000,0.512169,0.000000,1.000000,1.000000,0.980818,0.635150,0.518549,2.000000
31,0.001216,0.000000,0.660930,0.658044,1.000000,0.000000,0.000000,0.901798,2.000000,0.512169,0.000000,1.000000,1.000000,0.980818,0.635150,0.518549,2.000000
32,0.001216,0.000000,0.660930,0.658044,1.000000,0.000000,0.000000,0.901798,2.000000,0.512169,0.000000,1.000000,1.000000,0.980818,0.635150,0.518549,2.000000
33,0.001216,0.000000,0.660930,0.658044,1.000000,0.000000,0.000000,0.901798,2.000000,0.512169,0.000000,1.000000,1.000000,0.980818,0.635150,0.518549,2.000000
34,0.001216,0.000000,0.660930,0.658044,1.000000,0.000000,0.000000,0.901798,2.000000,0.512169,0.000000,1.000000,1.000000,0.980818,0.635150,0.518549,2.000000
35,0.001216,0.000000,0.660930,0.658044,1.000000,0.000000,0.000000,0.901798,2.000000,0.512169,0.000000,1.000000,1.000000,0.980818,0.635150,0.518549,2.000000
36,0.001216,0.000000,0.660930,0.658044,1.000000,0.000000,0.000000,0.901798,2.000000,0.512169,0.000000,1.000000,1.000000,0.980818,0.635150,0.518549,2.000000
37,0.001216,0.000000,0.660930,0.658044,1.000000,0.000000,0.000000,0.901798,2.000000,0.512169,0.000000,1.000000,1.000000,0.980818,0.635150,0.518549,2.000000
38,0.001216,0.000000,0.660930,0.658044,1.000000,0.000000,0.000000,0.901798,2.000000,0.512169,0.000000,1.000000,1.000000,0.980818,0.635150,0.518549,2.000000
39,0.001216,0.000000,0.660930,0.658044,1.000000,0.000000,0.000000,0.901798,2.000000,0.512169,0.000000,1.000000,1.000000,0.980818,0.635150,0.518549,2.000000
40,0.001207,0.000000,0.660930,0.717962,1.000000,0.344076,0.132183,1.000000,2.000000,0.530237,0.002984,0.981324,1.000000,1.000000,0.472652,1.000000,2.000000
gen, fitness
0,0.082103,0.000000,1.000000,0.210000,0.800000,0.030000,0.030000,1.000000,0.000000,1.000000,0.000000,0.000000,0.600000,1.000000,1.000000,0.000000,0.000000
1,0.082103,0.000000,1.000000,0.210000,0.800000,0.030000,0.030000,1.000000,0.000000,1.000000,0.000000,0.000000,0.600000,1.000000,1.000000,0.000000,0.000000
2,0.057297,0.000000,1.000000,0.204849,0.837276,0.030000,0.127918,0.936073,1.000000,0.846290,0.000000,0.000000,0.821338,1.000000,1.000000,0.000000,0.000000
3,0.045726,0.185225,0.956563,0.229038,0.927817,0.121492,0.044558,0.984120,1.000000,1.000000,0.058977,0.142812,0.865538,0.747941,0.986596,0.051614,0.000000
4,0.045055,0.000000,0.932665,0.316599,0.946229,0.000000,0.030000,1.000000,1.000000,0.859429,0.043748,0.259639,0.821338,0.840196,0.865780,0.059096,1.000000
5,0.036916,0.083336,0.895443,0.241312,1.000000,0.108050,0.006841,1.000000,2.000000,0.983803,0.155302,0.186581,0.998806,0.809857,1.000000,0.000000,1.000000
6,0.036737,0.083777,0.873475,0.266664,1.000000,0.118557,0.000000,0.974134,2.000000,0.983803,0.000000,0.194961,0.998806,0.809857,0.933978,0.000000,0.000000
7,0.030971,0.262780,1.000000,0.412418,1.000000,0.150595,0.000000,0.937541,2.000000,0.820683,0.074206,0.116119,1.000000,0.736611,1.000000,0.000000,1.000000
8,0.030971,0.262780,1.000000,0.412418,1.000000,0.150595,0.000000,0.937541,2.000000,0.820683,0.074206,0.116119,1.000000,0.736611,1.000000,0.000000,1.000000
9,0.030314,0.020869,0.935964,0.559383,1.000000,0.000000,0.099614,0.928148,2.000000,0.960017,0.000000,0.149455,1.000000,0.422701,0.969733,0.000000,1.000000
10,0.029483,0.204410,0.756796,0.711834,1.000000,0.092930,0.000000,0.987484,2.000000,0.872834,0.000000,0.092782,1.000000,0.810578,1.000000,0.139880,1.000000
11,0.028460,0.204410,0.736560,0.756022,1.000000,0.067905,0.000000,0.987484,2.000000,0.872834,0.000000,0.182748,1.000000,0.810578,1.000000,0.223258,1.000000
12,0.028331,0.102268,0.775781,0.899748,1.000000,0.209514,0.056340,0.929222,2.000000,0.878289,0.000000,0.125195,1.000000,0.784461,1.000000,0.283344,2.000000
13,0.026178,0.000000,1.000000,0.909135,1.000000,0.150263,0.086526,0.932126,2.000000,0.778124,0.000000,0.354203,1.000000,0.937427,0.947208,0.031474,2.000000
14,0.025856,0.000000,1.000000,1.000000,1.000000,0.038789,0.045589,1.000000,1.000000,0.674665,0.000000,0.436320,0.994869,0.797876,0.702829,0.148121,2.000000
15,0.025856,0.000000,1.000000,1.000000,1.000000,0.038789,0.045589,1.000000,1.000000,0.674665,0.000000,0.436320,0.994869,0.797876,0.702829,0.148121,2.000000
16,0.024574,0.279888,1.000000,1.000000,1.000000,0.328398,0.000000,1.000000,2.000000,0.677074,0.193419,0.599141,1.000000,0.797876,0.460591,0.196925,1.000000
17,0.024574,0.279888,1.000000,1.000000,1.000000,0.328398,0.000000,1.000000,2.000000,0.677074,0.193419,0.599141,1.000000,0.797876,0.460591,0.196925,1.000000
18,0.024169,0.000000,1.000000,1.000000,1.000000,0.072372,0.229979,0.929380,2.000000,0.569232,0.010158,0.487969,1.000000,0.782610,0.362076,0.177187,1.000000
19,0.024169,0.000000,1.000000,1.000000,1.000000,0.072372,0.229979,0.929380,2.000000,0.569232,0.010158,0.487969,1.000000,0.782610,0.362076,0.177187,1.000000
20,0.024000,0.000000,1.000000,1.000000,1.000000,0.000000,0.229979,0.904962,2.000000,0.447668,0.000000,0.487969,1.000000,0.705025,0.362076,0.007900,1.000000
21,0.023473,0.034054,1.000000,1.000000,0.968450,0.039380,0.162859,1.000000,1.000000,0.000000,0.015163,0.567930,1.000000,0.984560,0.447153,0.193677,0.000000
22,0.023473,0.034054,1.000000,1.000000,0.968450,0.039380,0.162859,1.000000,1.000000,0.000000,0.015163,0.567930,1.000000,0.984560,0.447153,0.193677,0.000000
23,0.023170,0.034054,1.000000,1.000000,0.982893,0.125379,0.085762,1.000000,2.000000,0.000000,0.096380,0.458929,1.000000,1.000000,0.419421,0.186875,2.000000
24,0.023116,0.034054,1.000000,1.000000,1.000000,0.039380,0.162859,0.998087,2.000000,0.000000,0.073306,0.602694,1.000000,1.000000,0.540912,0.137991,1.000000
25,0.022214,0.000000,1.000000,0.972368,1.000000,0.125382,0.219133,0.940595,2.000000,0.000000,0.145770,0.764216,1.000000,0.952567,0.252859,0.043570,1.000000
26,0.022214,0.000000,1.000000,0.972368,1.000000,0.125382,0.219133,0.940595,2.000000,0.000000,0.145770,0.764216,1.000000,0.952567,0.252859,0.043570,1.000000
27,0.022214,0.000000,1.000000,0.972368,1.000000,0.125382,0.219133,0.940595,2.000000,0.000000,0.145770,0.764216,1.000000,0.952567,0.252859,0.043570,1.000000
28,0.022214,0.000000,1.000000,0.972368,1.000000,0.125382,0.219133,0.940595,2.000000,0.000000,0.145770,0.764216,1.000000,0.952567,0.252859,0.043570,1.000000
29,0.021858,0.000000,1.000000,1.000000,1.000000,0.067804,0.241920,1.000000,2.000000,0.000000,0.145770,0.764216,1.000000,0.946910,0.208885,0.000000,0.000000
30,0.021765,0.000000,0.946246,1.000000,0.996145,0.208569,0.219983,1.000000,2.000000,0.000000,0.145770,0.792552,1.000000,0.946910,0.133833,0.000000,2.000000
31,0.021468,0.000000,0.972431,1.000000,1.000000,0.326716,0.445041,0.976153,2.000000,0.000000,0.324820,0.984105,1.000000,1.000000,0.040153,0.207589,1.000000
32,0.021468,0.000000,0.972431,1.000000,1.000000,0.326716,0.445041,0.976153,2.000000,0.000000,0.324820,0.984105,1.000000,1.000000,0.040153,0.207589,1.000000
33,0.021468,0.000000,0.972431,1.000000,1.000000,0.326716,0.445041,0.976153,2.000000,0.000000,0.324820,0.984105,1.000000,1.000000,0.040153,0.207589,1.000000
34,0.021401,0.000000,0.915734,1.000000,1.000000,0.292618,0.553820,0.957636,2.000000,0.000000,0.324820,0.970515,1.000000,1.000000,0.000000,0.266776,2.000000
35,0.021377,0.244188,0.674604,1.000000,0.995178,0.082800,0.265644,1.000000,2.000000,0.000000,0.028216,1.000000,1.000000,0.638884,0.163432,0.346605,1.000000
36,0.021377,0.244188,0.674604,1.000000,0.995178,0.082800,0.265644,1.000000,2.000000,0.000000,0.028216,1.000000,1.000000,0.638884,0.163432,0.346605,1.000000
37,0.021322,0.174351,0.505610,1.000000,1.000000,0.157932,0.418422,0.978425,2.000000,0.000000,0.000000,0.966212,1.000000,0.656844,0.000000,0.344346,2.000000
38,0.021322,0.174351,0.505610,1.000000,1.000000,0.157932,0.418422,0.978425,2.000000,0.000000,0.000000,0.966212,1.000000,0.656844,0.000000,0.344346,2.000000
39,0.021172,0.086537,1.000000,1.000000,0.996145,0.131247,0.285800,0.989332,2.000000,0.000000,0.000000,0.983126,1.000000,1.000000,0.016813,0.266776,0.000000
40,0.021172,0.086537,1.000000,1.000000,0.996145,0.131247,0.285800,0.989332,2.000000,0.000000,0.000000,0.983126,1.000000,1.000000,0.016813,0.266776,0.000000
41,0.021172,0.086537,1.000000,1.000000,0.996145,0.131247,0.285800,0.989332,2.000000,0.000000,0.000000,0.983126,1.000000,1.000000,0.016813,0.266776,0.000000
42,0.021057,0.263231,0.443925,1.000000,0.992616,0.000000,0.353003,1.000000,2.000000,0.000000,0.000000,1.000000,1.000000,0.916721,0.036200,0.342167,0.000000
43,0.021057,0.263231,0.443925,1.000000,0.992616,0.000000,0.353003,1.000000,2.000000,0.000000,0.000000,1.000000,1.000000,0.916721,0.036200,0.342167,0.000000
44,0.021057,0.263231,0.443925,1.000000,0.992616,0.000000,0.353003,1.000000,2.000000,0.000000,0.000000,1.000000,1.000000,0.916721,0.036200,0.342167,0.000000
45,0.021057,0.263231,0.443925,1.000000,0.992616,0.000000,0.353003,1.000000,2.000000,0.000000,0.000000,1.000000,1.000000,0.916721,0.036200,0.342167,0.000000
46,0.021057,0.263231,0.443925,1.000000,0.992616,0.000000,0.353003,1.000000,2.000000,0.000000,0.000000,1.000000,1.000000,0.916721,0.036200,0.342167,0.000000
47,0.021057,0.263231,0.443925,1.000000,0.992616,0.000000,0.353003,1.000000,2.000000,0.000000,0.000000,1.000000,1.000000,0.916721,0.036200,0.342167,0.000000
48,0.021057,0.263231,0.443925,1.000000,0.992616,0.000000,0.353003,1.000000,2.000000,0.000000,0.000000,1.000000,1.000000,0.916721,0.036200,0.342167,0.000000
49,0.021057,0.263231,0.443925,1.000000,0.992616,0.000000,0.353003,1.000000,2.000000,0.000000,0.000000,1.000000,1.000000,0.916721,0.036200,0.342167,0.000000
50,0.020959,0.196236,0.920839,1.000000,1.000000,0.000000,0.818831,1.000000,2.000000,0.000000,0.086102,0.972086,1.000000,0.824965,0.000000,0.571572,1.000000
51,0.020959,0.196236,0.920839,1.000000,1.000000,0.000000,0.818831,1.000000,2.000000,0.000000,0.086102,0.972086,1.000000,0.824965,0.000000,0.571572,1.000000
52,0.020959,0.196236,0.920839,1.000000,1.000000,0.000000,0.818831,1.000000,2.000000,0.000000,0.086102,0.972086,1.000000,0.824965,0.000000,0.571572,1.000000
53,0.020959,0.196236,0.920839,1.000000,1.000000,0.000000,0.818831,1.000000,2.000000,0.000000,0.086102,0.972086,1.000000,0.824965,0.000000,0.571572,1.000000
54,0.020959,0.196236,0.920839,1.000000,1.000000,0.000000,0.818831,1.000000,2.000000,0.000000,0.086102,0.972086,1.000000,0.824965,0.000000,0.571572,1.000000
55,0.020959,0.196236,0.920839,1.000000,1.000000,0.000000,0.818831,1.000000,2.000000,0.000000,0.086102,0.972086,1.000000,0.824965,0.000000,0.571572,1.000000
56,0.020936,0.142952,0.920839,1.000000,1.000000,0.000000,0.991190,0.914226,2.000000,0.000000,0.056391,0.928900,1.000000,0.918855,0.000000,0.696357,0.000000
57,0.020894,0.196236,0.920839,1.000000,1.000000,0.000000,0.709615,1.000000,2.000000,0.000000,0.141372,0.985138,1.000000,0.780903,0.000000,0.694096,0.000000
58,0.020894,0.196236,0.920839,1.000000,1.000000,0.000000,0.709615,1.000000,2.000000,0.000000,0.141372,0.985138,1.000000,0.780903,0.000000,0.694096,0.000000
59,0.020894,0.196236,0.920839,1.000000,1.000000,0.000000,0.709615,1.000000,2.000000,0.000000,0.141372,0.985138,1.000000,0.780903,0.000000,0.694096,0.000000
60,0.020894,0.196236,0.920839,1.000000,1.000000,0.000000,0.709615,1.000000,2.000000,0.000000,0.141372,0.985138,1.000000,0.780903,0.000000,0.694096,0.000000
61,0.020894,0.196236,0.920839,1.000000,1.000000,0.000000,0.709615,1.000000,2.000000,0.000000,0.141372,0.985138,1.000000,0.780903,0.000000,0.694096,0.000000
62,0.020579,0.126654,0.460082,1.000000,0.985259,0.000000,0.841458,1.000000,2.000000,0.000000,0.141372,1.000000,1.000000,0.964951,0.046288,0.720296,0.000000
63,0.020579,0.126654,0.460082,1.000000,0.985259,0.000000,0.841458,1.000000,2.000000,0.000000,0.141372,1.000000,1.000000,0.964951,0.046288,0.720296,0.000000
64,0.020579,0.126654,0.460082,1.000000,0.985259,0.000000,0.841458,1.000000,2.000000,0.000000,0.141372,1.000000,1.000000,0.964951,0.046288,0.720296,0.000000
65,0.020579,0.126654,0.460082,1.000000,0.985259,0.000000,0.841458,1.000000,2.000000,0.000000,0.141372,1.000000,1.000000,0.964951,0.046288,0.720296,0.000000
66,0.020579,0.126654,0.460082,1.000000,0.985259,0.000000,0.841458,1.000000,2.000000,0.000000,0.141372,1.000000,1.000000,0.964951,0.046288,0.720296,0.000000
67,0.020579,0.126654,0.460082,1.000000,0.985259,0.000000,0.841458,1.000000,2.000000,0.000000,0.141372,1.000000,1.000000,0.964951,0.046288,0.720296,0.000000
68,0.020579,0.126654,0.460082,1.000000,0.985259,0.000000,0.841458,1.000000,2.000000,0.000000,0.141372,1.000000,1.000000,0.964951,0.046288,0.720296,0.000000
69,0.020498,0.000000,0.416280,1.000000,1.000000,0.000000,1.000000,0.995510,2.000000,0.000000,0.175292,1.000000,1.000000,0.961472,0.000000,0.894760,1.000000
70,0.020498,0.000000,0.416280,1.000000,1.000000,0.000000,1.000000,0.995510,2.000000,0.000000,0.175292,1.000000,1.000000,0.961472,0.000000,0.894760,1.000000
71,0.020498,0.000000,0.416280,1.000000,1.000000,0.000000,1.000000,0.995510,2.000000,0.000000,0.175292,1.000000,1.000000,0.961472,0.000000,0.894760,1.000000
72,0.020498,0.000000,0.416280,1.000000,1.000000,0.000000,1.000000,0.995510,2.000000,0.000000,0.175292,1.000000,1.000000,0.961472,0.000000,0.894760,1.000000
73,0.020498,0.000000,0.416280,1.000000,1.000000,0.000000,1.000000,0.995510,2.000000,0.000000,0.175292,1.000000,1.000000,0.961472,0.000000,0.894760,1.000000
74,0.020498,0.000000,0.416280,1.000000,1.000000,0.000000,1.000000,0.995510,2.000000,0.000000,0.175292,1.000000,1.000000,0.961472,0.000000,0.894760,1.000000
75,0.020498,0.000000,0.416280,1.000000,1.000000,0.000000,1.000000,0.995510,2.000000,0.000000,0.175292,1.000000,1.000000,0.961472,0.000000,0.894760,1.000000
76,0.020498,0.000000,0.416280,1.000000,1.000000,0.000000,1.000000,0.995510,2.000000,0.000000,0.175292,1.000000,1.000000,0.961472,0.000000,0.894760,1.000000
77,0.020498,0.000000,0.416280,1.000000,1.000000,0.000000,1.000000,0.995510,2.000000,0.000000,0.175292,1.000000,1.000000,0.961472,0.000000,0.894760,1.000000
78,0.020498,0.000000,0.416280,1.000000,1.000000,0.000000,1.000000,0.995510,2.000000,0.000000,0.175292,1.000000,1.000000,0.961472,0.000000,0.894760,1.000000
79,0.020498,0.000000,0.416280,1.000000,1.000000,0.000000,1.000000,0.995510,2.000000,0.000000,0.175292,1.000000,1.000000,0.961472,0.000000,0.894760,1.000000
