gen, fitness
0,0.094016,0.000000,1.000000,0.210000,0.800000,0.030000,0.030000,1.000000,0.000000,1.000000,0.000000,0.000000,0.600000,1.000000,1.000000,0.000000,0.000000
1,0.094016,0.000000,1.000000,0.210000,0.800000,0.030000,0.030000,1.000000,0.000000,1.000000,0.000000,0.000000,0.600000,1.000000,1.000000,0.000000,0.000000
2,0.036554,0.000000,0.935823,0.000000,0.628002,0.291834,0.018474,1.000000,2.000000,1.000000,0.000000,0.058876,0.289913,0.996998,0.986562,0.000000,0.000000
3,0.035325,0.000000,0.948429,0.000000,0.499354,0.227844,0.179795,1.000000,2.000000,1.000000,0.000000,0.045769,0.320161,0.880048,0.986562,0.000000,2.000000
4,0.025003,0.095180,0.966649,0.000000,0.498985,0.039510,0.029619,0.907080,1.000000,0.937667,0.026610,0.000000,0.264406,0.879772,1.000000,0.015202,1.000000
5,0.025003,0.095180,0.966649,0.000000,0.498985,0.039510,0.029619,0.907080,1.000000,0.937667,0.026610,0.000000,0.264406,0.879772,1.000000,0.015202,1.000000
6,0.021258,0.016248,0.921458,0.053923,0.430579,0.291435,0.000000,0.872408,2.000000,0.945975,0.011093,0.002520,0.116730,0.796465,1.000000,0.047401,1.000000
7,0.013559,0.085113,0.990413,0.000000,0.359839,0.415610,0.194415,0.744457,2.000000,0.834038,0.290459,0.000000,0.052817,0.972971,0.875706,0.000000,1.000000
8,0.007328,0.612034,0.800431,0.000125,0.177814,0.487835,0.342206,0.837838,0.000000,0.854731,0.000000,0.056973,0.152343,0.344318,0.907464,0.238368,0.000000
9,0.003582,0.403876,0.591699,0.000000,0.180770,0.380714,0.169554,0.780828,1.000000,1.000000,0.319869,0.000000,0.026850,0.819543,0.738383,0.123199,0.000000
10,0.002228,0.509205,0.582993,0.000000,0.099897,0.330038,0.296070,0.682474,0.000000,1.000000,0.173613,0.000000,0.000000,0.819543,0.859478,0.263824,1.000000
11,0.001588,0.462754,1.000000,0.000000,0.113713,0.501685,0.228479,0.676435,0.000000,1.000000,0.085236,0.000000,0.000000,0.995605,0.886681,0.000000,2.000000
12,0.000939,0.834319,0.727825,0.000125,0.000000,0.532588,0.290570,0.946193,1.000000,1.000000,0.014006,0.103954,0.000000,0.304842,0.792717,0.000000,1.000000
13,0.000504,0.767249,0.751328,0.000000,0.019846,0.687332,0.357066,0.832112,1.000000,0.908611,0.072191,0.000000,0.000000,1.000000,0.853173,0.038701,2.000000
14,0.000114,1.000000,0.822568,0.000000,0.000000,0.243194,0.344652,0.678828,2.000000,0.932409,0.428005,0.085493,0.000000,0.900825,0.791464,0.062573,2.000000
15,0.000014,1.000000,0.939991,0.000000,0.000000,0.311569,0.016823,0.643559,0.000000,0.966480,0.341454,0.085070,0.000000,1.000000,0.601644,0.180236,1.000000
16,0.000002,1.000000,1.000000,0.000000,0.000000,0.352854,0.074330,0.643559,0.000000,0.973877,0.358685,0.084921,0.000000,0.868941,0.703156,0.100454,1.000000
17,0.000002,1.000000,1.000000,0.000000,0.000000,0.352854,0.074330,0.643559,0.000000,0.973877,0.358685,0.084921,0.000000,0.868941,0.703156,0.100454,1.000000
18,0.000002,1.000000,1.000000,0.000000,0.000000,0.352854,0.074330,0.643559,0.000000,0.973877,0.358685,0.084921,0.000000,0.868941,0.703156,0.100454,1.000000
19,0.000002,1.000000,1.000000,0.000000,0.000000,0.352854,0.074330,0.643559,0.000000,0.973877,0.358685,0.084921,0.000000,0.868941,0.703156,0.100454,1.000000
20,0.000002,1.000000,1.000000,0.000000,0.000000,0.352854,0.074330,0.643559,0.000000,0.973877,0.358685,0.084921,0.000000,0.868941,0.703156,0.100454,1.000000
21,0.000002,1.000000,1.000000,0.000000,0.000000,0.352854,0.074330,0.643559,0.000000,0.973877,0.358685,0.084921,0.000000,0.868941,0.703156,0.100454,1.000000
22,0.000002,0.930758,0.880359,0.000000,0.000000,0.278125,0.000000,0.466414,1.000000,0.943793,0.301283,0.065091,0.000000,0.892634,0.730693,0.032041,0.000000
23,0.000001,0.885093,0.651919,0.000000,0.000000,0.607867,0.070379,0.529720,1.000000,0.962793,0.357745,0.000000,0.000000,0.895986,1.000000,0.297932,1.000000
24,0.000001,0.885093,0.651919,0.000000,0.000000,0.607867,0.070379,0.529720,1.000000,0.962793,0.357745,0.000000,0.000000,0.895986,1.000000,0.297932,1.000000
25,0.000001,0.885093,0.651919,0.000000,0.000000,0.607867,0.070379,0.529720,1.000000,0.962793,0.357745,0.000000,0.000000,0.895986,1.000000,0.297932,1.000000
26,0.000001,0.885093,0.651919,0.000000,0.000000,0.607867,0.070379,0.529720,1.000000,0.962793,0.357745,0.000000,0.000000,0.895986,1.000000,0.297932,1.000000
gen, fitness
0,0.011444,0.000000,1.000000,0.210000,0.800000,0.030000,0.030000,1.000000,0.000000,1.000000,0.000000,0.000000,0.600000,1.000000,1.000000,0.000000,0.000000
1,0.011444,0.000000,1.000000,0.210000,0.800000,0.030000,0.030000,1.000000,0.000000,1.000000,0.000000,0.000000,0.600000,1.000000,1.000000,0.000000,0.000000
2,0.002130,0.005116,0.975330,0.137112,0.572495,0.000000,0.019678,1.000000,2.000000,1.000000,0.070066,0.000000,0.387763,1.000000,1.000000,0.133736,1.000000
3,0.002130,0.005116,0.975330,0.137112,0.572495,0.000000,0.019678,1.000000,2.000000,1.000000,0.070066,0.000000,0.387763,1.000000,1.000000,0.133736,1.000000
4,0.001430,0.000000,1.000000,0.323492,0.428964,0.000000,0.000000,0.954289,0.000000,0.932141,0.150781,0.000000,0.381575,0.709960,1.000000,0.047778,2.000000
5,0.001329,0.000000,1.000000,0.034766,0.579700,0.062766,0.000000,1.000000,1.000000,1.000000,0.189805,0.000000,0.288768,1.000000,0.980539,0.165750,1.000000
6,0.000331,0.000000,0.903041,0.288589,0.332471,0.000000,0.094861,1.000000,0.000000,0.901306,0.140342,0.000000,0.254682,0.516308,1.000000,0.047778,1.000000
7,0.000009,0.368869,0.922635,0.185129,0.352274,0.103195,0.000000,1.000000,2.000000,0.993636,0.000000,0.017446,0.292098,0.525713,0.964085,0.000000,0.000000
8,0.000009,0.368869,0.922635,0.185129,0.352274,0.103195,0.000000,1.000000,2.000000,0.993636,0.000000,0.017446,0.292098,0.525713,0.964085,0.000000,0.000000
9,0.000009,0.368869,0.922635,0.185129,0.352274,0.103195,0.000000,1.000000,2.000000,0.993636,0.000000,0.017446,0.292098,0.525713,0.964085,0.000000,0.000000
10,0.000009,0.368869,0.922635,0.185129,0.352274,0.103195,0.000000,1.000000,2.000000,0.993636,0.000000,0.017446,0.292098,0.525713,0.964085,0.000000,0.000000
11,0.000004,0.258228,0.921271,0.210480,0.361572,0.100959,0.155599,0.954340,1.000000,1.000000,0.000000,0.213573,0.000000,0.462743,0.899975,0.243031,2.000000
12,0.000004,0.258228,0.921271,0.210480,0.361572,0.100959,0.155599,0.954340,1.000000,1.000000,0.000000,0.213573,0.000000,0.462743,0.899975,0.243031,2.000000
13,0.000004,0.258228,0.921271,0.210480,0.361572,0.100959,0.155599,0.954340,1.000000,1.000000,0.000000,0.213573,0.000000,0.462743,0.899975,0.243031,2.000000
14,0.000002,0.330509,0.818071,0.046858,0.543793,0.132064,0.116091,0.706675,0.000000,1.000000,0.445902,0.000000,0.295875,1.000000,0.798833,0.111117,1.000000
15,0.000002,0.224762,0.843255,0.061874,0.496488,0.000000,0.071554,0.880811,0.000000,0.926790,0.629059,0.000000,0.247101,1.000000,1.000000,0.070953,1.000000
16,0.000002,0.224762,0.843255,0.061874,0.496488,0.000000,0.071554,0.880811,0.000000,0.926790,0.629059,0.000000,0.247101,1.000000,1.000000,0.070953,1.000000
17,0.000002,0.224762,0.843255,0.061874,0.496488,0.000000,0.071554,0.880811,0.000000,0.926790,0.629059,0.000000,0.247101,1.000000,1.000000,0.070953,1.000000
gen, fitness
0,0.010533,0.000000,1.000000,0.210000,0.800000,0.030000,0.030000,1.000000,0.000000,1.000000,0.000000,0.000000,0.600000,1.000000,1.000000,0.000000,0.000000
1,0.010533,0.000000,1.000000,0.210000,0.800000,0.030000,0.030000,1.000000,0.000000,1.000000,0.000000,0.000000,0.600000,1.000000,1.000000,0.000000,0.000000
2,0.000946,0.003139,0.967320,0.000000,0.741045,0.015994,0.000000,1.000000,2.000000,1.000000,0.043419,0.012022,0.503462,1.000000,1.000000,0.000000,1.000000
3,0.000757,0.023370,1.000000,0.122017,0.664792,0.119399,0.000000,0.851503,0.000000,1.000000,0.000000,0.012022,0.484884,0.937631,0.874140,0.027473,1.000000
4,0.000193,0.206266,0.881356,0.072150,0.595610,0.287010,0.000000,1.000000,2.000000,1.000000,0.154658,0.039394,0.408003,0.947475,1.000000,0.000000,2.000000
5,0.000018,0.244662,0.818608,0.048216,0.595610,0.339870,0.000000,0.991654,1.000000,1.000000,0.228547,0.004729,0.408003,0.881127,0.926625,0.000000,2.000000
6,0.000018,0.244662,0.818608,0.048216,0.595610,0.339870,0.000000,0.991654,1.000000,1.000000,0.228547,0.004729,0.408003,0.881127,0.926625,0.000000,2.000000
7,0.000018,0.244662,0.818608,0.048216,0.595610,0.339870,0.000000,0.991654,1.000000,1.000000,0.228547,0.004729,0.408003,0.881127,0.926625,0.000000,2.000000
8,0.000018,0.244662,0.818608,0.048216,0.595610,0.339870,0.000000,0.991654,1.000000,1.000000,0.228547,0.004729,0.408003,0.881127,0.926625,0.000000,2.000000
9,0.000008,0.315920,0.874609,0.195037,0.450844,0.432062,0.106902,0.982282,2.000000,0.945353,0.400013,0.091910,0.292004,0.898986,0.724169,0.457401,0.000000
10,0.000008,0.315920,0.874609,0.195037,0.450844,0.432062,0.106902,0.982282,2.000000,0.945353,0.400013,0.091910,0.292004,0.898986,0.724169,0.457401,0.000000
11,0.000008,0.315920,0.874609,0.195037,0.450844,0.432062,0.106902,0.982282,2.000000,0.945353,0.400013,0.091910,0.292004,0.898986,0.724169,0.457401,0.000000
12,0.000006,0.000000,0.835001,0.202294,0.473613,0.157291,0.000000,0.667354,2.000000,1.000000,0.179080,0.245553,0.000000,0.715135,0.851932,0.195962,2.000000
13,0.000003,0.202794,0.990289,0.184343,0.479452,0.154573,0.000000,0.884195,1.000000,0.953358,0.096065,0.000000,0.388249,0.843569,1.000000,0.058820,0.000000
14,0.000003,0.202794,0.990289,0.184343,0.479452,0.154573,0.000000,0.884195,1.000000,0.953358,0.096065,0.000000,0.388249,0.843569,1.000000,0.058820,0.000000
15,0.000003,0.202794,0.990289,0.184343,0.479452,0.154573,0.000000,0.884195,1.000000,0.953358,0.096065,0.000000,0.388249,0.843569,1.000000,0.058820,0.000000
gen, fitness
0,0.067934,0.000000,1.000000,0.210000,0.800000,0.030000,0.030000,1.000000,0.000000,1.000000,0.000000,0.000000,0.600000,1.000000,1.000000,0.000000,0.000000
1,0.067934,0.000000,1.000000,0.210000,0.800000,0.030000,0.030000,1.000000,0.000000,1.000000,0.000000,0.000000,0.600000,1.000000,1.000000,0.000000,0.000000
2,0.033674,0.062267,1.000000,0.082432,0.622331,0.036030,0.199812,0.964941,0.000000,1.000000,0.000000,0.000000,0.501721,0.864965,0.934221,0.000000,2.000000
3,0.028211,0.000000,1.000000,0.010394,0.647612,0.000000,0.104838,1.000000,2.000000,0.976709,0.062638,0.000000,0.430619,1.000000,1.000000,0.000000,0.000000
4,0.024068,0.271819,1.000000,0.000000,0.666122,0.073880,0.000000,1.000000,1.000000,0.995531,0.120572,0.000000,0.448658,0.909531,0.867645,0.132448,0.000000
5,0.017918,0.219619,0.814664,0.000000,0.496966,0.000000,0.034314,1.000000,0.000000,0.773417,0.130130,0.000000,0.400693,0.831885,0.928111,0.092760,0.000000
6,0.012045,0.159762,0.905677,0.070874,0.474177,0.186851,0.032286,0.736294,1.000000,1.000000,0.000000,0.000000,0.274114,0.922908,0.980827,0.160254,0.000000
7,0.007295,0.000000,1.000000,0.010394,0.426203,0.360231,0.183084,0.982322,0.000000,1.000000,0.207071,0.000000,0.099363,0.776772,1.000000,0.100410,2.000000
8,0.004098,0.224283,0.783734,0.000000,0.337984,0.150719,0.000000,0.887696,2.000000,0.941256,0.038308,0.000000,0.079216,0.654549,0.649955,0.311597,2.000000
9,0.002344,0.552101,0.762791,0.000000,0.426031,0.000000,0.073160,0.914005,0.000000,1.000000,0.181669,0.000000,0.137924,0.577758,0.958591,0.100410,1.000000
10,0.001226,0.474617,0.777793,0.032629,0.322738,0.000000,0.245541,0.966897,0.000000,0.962679,0.000000,0.000000,0.000000,0.989611,1.000000,0.094733,2.000000
11,0.000411,0.552101,0.707244,0.037485,0.225832,0.027680,0.058160,0.913000,2.000000,0.813828,0.000000,0.000000,0.120681,1.000000,0.938715,0.000000,1.000000
12,0.000334,0.627408,0.578544,0.000000,0.234133,0.590271,0.132632,1.000000,2.000000,0.974701,0.519155,0.000000,0.000000,0.713396,1.000000,0.000000,2.000000
13,0.000018,0.576265,0.454721,0.000746,0.280723,0.641578,0.015308,0.954042,2.000000,0.992716,0.000000,0.044228,0.022949,0.943995,0.863744,0.000197,1.000000
14,0.000018,0.576265,0.454721,0.000746,0.280723,0.641578,0.015308,0.954042,2.000000,0.992716,0.000000,0.044228,0.022949,0.943995,0.863744,0.000197,1.000000
15,0.000014,0.558980,0.376306,0.000000,0.296037,0.238518,0.308928,0.863802,0.000000,1.000000,0.038263,0.000000,0.055976,0.480203,0.843718,0.031026,1.000000
16,0.000014,0.558980,0.376306,0.000000,0.296037,0.238518,0.308928,0.863802,0.000000,1.000000,0.038263,0.000000,0.055976,0.480203,0.843718,0.031026,1.000000
17,0.000014,0.558980,0.376306,0.000000,0.296037,0.238518,0.308928,0.863802,0.000000,1.000000,0.038263,0.000000,0.055976,0.480203,0.843718,0.031026,1.000000
18,0.000006,0.693555,0.575224,0.190477,0.000000,0.748536,0.600291,1.000000,1.000000,0.887536,0.125743,0.055328,0.000000,0.561774,0.878398,0.251335,0.000000
19,0.000006,0.693555,0.575224,0.190477,0.000000,0.748536,0.600291,1.000000,1.000000,0.887536,0.125743,0.055328,0.000000,0.561774,0.878398,0.251335,0.000000
20,0.000006,0.693555,0.575224,0.190477,0.000000,0.748536,0.600291,1.000000,1.000000,0.887536,0.125743,0.055328,0.000000,0.561774,0.878398,0.251335,0.000000
21,0.000006,0.693555,0.575224,0.190477,0.000000,0.748536,0.600291,1.000000,1.000000,0.887536,0.125743,0.055328,0.000000,0.561774,0.878398,0.251335,0.000000
22,0.000006,0.693555,0.575224,0.190477,0.000000,0.748536,0.600291,1.000000,1.000000,0.887536,0.125743,0.055328,0.000000,0.561774,0.878398,0.251335,0.000000
23,0.000006,0.693555,0.575224,0.190477,0.000000,0.748536,0.600291,1.000000,1.000000,0.887536,0.125743,0.055328,0.000000,0.561774,0.878398,0.251335,0.000000
gen, fitness
0,0.030614,0.000000,1.000000,0.210000,0.800000,0.030000,0.030000,1.000000,0.000000,1.000000,0.000000,0.000000,0.600000,1.000000,1.000000,0.000000,0.000000
1,0.030614,0.000000,1.000000,0.210000,0.800000,0.030000,0.030000,1.000000,0.000000,1.000000,0.000000,0.000000,0.600000,1.000000,1.000000,0.000000,0.000000
2,0.015349,0.000000,1.000000,0.158297,0.683144,0.030000,0.352049,1.000000,2.000000,1.000000,0.068885,0.000000,0.561826,1.000000,1.000000,0.000000,2.000000
3,0.009491,0.205319,1.000000,0.000000,0.666932,0.040459,0.136999,1.000000,1.000000,1.000000,0.065109,0.000000,0.537975,0.781914,0.945445,0.000000,2.000000
4,0.004722,0.166899,1.000000,0.000000,0.652100,0.050331,0.258007,0.834348,0.000000,1.000000,0.074952,0.000000,0.258365,0.781914,1.000000,0.031396,2.000000
5,0.004722,0.166899,1.000000,0.000000,0.652100,0.050331,0.258007,0.834348,0.000000,1.000000,0.074952,0.000000,0.258365,0.781914,1.000000,0.031396,2.000000
6,0.001650,0.274629,0.943498,0.041281,0.453326,0.001143,0.332207,0.713613,1.000000,0.766522,0.080165,0.000000,0.343765,0.887940,0.977760,0.000000,2.000000
7,0.001036,0.213122,0.943498,0.041281,0.418297,0.001143,0.515003,0.921874,1.000000,0.766522,0.080165,0.000000,0.248524,0.766118,0.991731,0.157155,2.000000
8,0.000091,0.507271,0.898321,0.011280,0.410820,0.278961,0.130876,1.000000,1.000000,1.000000,0.228924,0.003315,0.216637,1.000000,1.000000,0.033963,2.000000
9,0.000091,0.507271,0.898321,0.011280,0.410820,0.278961,0.130876,1.000000,1.000000,1.000000,0.228924,0.003315,0.216637,1.000000,1.000000,0.033963,2.000000
10,0.000071,0.367469,0.938293,0.044044,0.390023,0.011425,0.080853,0.552767,0.000000,0.852949,0.031639,0.067273,0.134075,0.984876,1.000000,0.000000,0.000000
11,0.000012,0.507271,0.898321,0.000000,0.417653,0.116395,0.059016,0.926374,1.000000,0.999271,0.333798,0.000000,0.216637,0.927890,1.000000,0.122592,2.000000
12,0.000012,0.507271,0.898321,0.000000,0.417653,0.116395,0.059016,0.926374,1.000000,0.999271,0.333798,0.000000,0.216637,0.927890,1.000000,0.122592,2.000000
13,0.000012,0.507271,0.898321,0.000000,0.417653,0.116395,0.059016,0.926374,1.000000,0.999271,0.333798,0.000000,0.216637,0.927890,1.000000,0.122592,2.000000
14,0.000012,0.507271,0.898321,0.000000,0.417653,0.116395,0.059016,0.926374,1.000000,0.999271,0.333798,0.000000,0.216637,0.927890,1.000000,0.122592,2.000000
15,0.000012,0.507271,0.898321,0.000000,0.417653,0.116395,0.059016,0.926374,1.000000,0.999271,0.333798,0.000000,0.216637,0.927890,1.000000,0.122592,2.000000
16,0.000012,0.507271,0.898321,0.000000,0.417653,0.116395,0.059016,0.926374,1.000000,0.999271,0.333798,0.000000,0.216637,0.927890,1.000000,0.122592,2.000000
17,0.000012,0.507271,0.898321,0.000000,0.417653,0.116395,0.059016,0.926374,1.000000,0.999271,0.333798,0.000000,0.216637,0.927890,1.000000,0.122592,2.000000
18,0.000012,0.507271,0.898321,0.000000,0.417653,0.116395,0.059016,0.926374,1.000000,0.999271,0.333798,0.000000,0.216637,0.927890,1.000000,0.122592,2.000000
19,0.000012,0.507271,0.898321,0.000000,0.417653,0.116395,0.059016,0.926374,1.000000,0.999271,0.333798,0.000000,0.216637,0.927890,1.000000,0.122592,2.000000
20,0.000012,0.507271,0.898321,0.000000,0.417653,0.116395,0.059016,0.926374,1.000000,0.999271,0.333798,0.000000,0.216637,0.927890,1.000000,0.122592,2.000000
21,0.000004,0.435873,0.919133,0.000000,0.454270,0.282957,0.000000,0.677110,0.000000,1.000000,0.266754,0.000000,0.216637,0.927890,0.944511,0.086366,0.000000
gen, fitness
0,0.009712,0.000000,1.000000,0.210000,0.800000,0.030000,0.030000,1.000000,0.000000,1.000000,0.000000,0.000000,0.600000,1.000000,1.000000,0.000000,0.000000
1,0.009712,0.000000,1.000000,0.210000,0.800000,0.030000,0.030000,1.000000,0.000000,1.000000,0.000000,0.000000,0.600000,1.000000,1.000000,0.000000,0.000000
2,0.000433,0.040210,1.000000,0.210000,0.620463,0.030000,0.122701,1.000000,2.000000,1.000000,0.000000,0.000000,0.499268,1.000000,1.000000,0.000000,1.000000
3,0.000027,0.040210,1.000000,0.210000,0.632461,0.000000,0.122701,1.000000,1.000000,1.000000,0.000000,0.000000,0.542590,0.915854,1.000000,0.000000,2.000000
4,0.000027,0.040210,1.000000,0.210000,0.632461,0.000000,0.122701,1.000000,1.000000,1.000000,0.000000,0.000000,0.542590,0.915854,1.000000,0.000000,2.000000
5,0.000027,0.040210,1.000000,0.210000,0.632461,0.000000,0.122701,1.000000,1.000000,1.000000,0.000000,0.000000,0.542590,0.915854,1.000000,0.000000,2.000000
6,0.000027,0.040210,1.000000,0.210000,0.632461,0.000000,0.122701,1.000000,1.000000,1.000000,0.000000,0.000000,0.542590,0.915854,1.000000,0.000000,2.000000
7,0.000027,0.040210,1.000000,0.210000,0.632461,0.000000,0.122701,1.000000,1.000000,1.000000,0.000000,0.000000,0.542590,0.915854,1.000000,0.000000,2.000000
8,0.000012,0.000000,1.000000,0.053035,0.715364,0.000000,0.561786,0.774867,0.000000,0.954329,0.125041,0.096147,0.448782,1.000000,0.847572,0.145365,2.000000
9,0.000012,0.000000,1.000000,0.053035,0.715364,0.000000,0.561786,0.774867,0.000000,0.954329,0.125041,0.096147,0.448782,1.000000,0.847572,0.145365,2.000000
10,0.000007,0.000000,0.840124,0.081057,0.697006,0.000000,0.000000,0.893784,2.000000,1.000000,0.000000,0.028106,0.502158,0.998403,1.000000,0.000000,1.000000
11,0.000007,0.000000,0.840124,0.081057,0.697006,0.000000,0.000000,0.893784,2.000000,1.000000,0.000000,0.028106,0.502158,0.998403,1.000000,0.000000,1.000000
12,0.000007,0.000000,0.840124,0.081057,0.697006,0.000000,0.000000,0.893784,2.000000,1.000000,0.000000,0.028106,0.502158,0.998403,1.000000,0.000000,1.000000
13,0.000003,0.128622,0.903119,0.324880,0.553049,0.000000,0.109187,0.862505,0.000000,1.000000,0.000000,0.289888,0.286911,1.000000,0.820561,0.503114,1.000000
14,0.000002,0.000000,0.895381,0.000000,0.736667,0.000000,0.307805,0.849668,1.000000,1.000000,0.000000,0.065323,0.448666,0.985939,0.812156,0.311630,1.000000
15,0.000002,0.000000,0.895381,0.000000,0.736667,0.000000,0.307805,0.849668,1.000000,1.000000,0.000000,0.065323,0.448666,0.985939,0.812156,0.311630,1.000000
16,0.000002,0.000000,0.895381,0.000000,0.736667,0.000000,0.307805,0.849668,1.000000,1.000000,0.000000,0.065323,0.448666,0.985939,0.812156,0.311630,1.000000
17,0.000002,0.000000,0.895381,0.000000,0.736667,0.000000,0.307805,0.849668,1.000000,1.000000,0.000000,0.065323,0.448666,0.985939,0.812156,0.311630,1.000000
18,0.000002,0.022120,1.000000,0.000000,0.681231,0.139657,0.715108,0.840705,0.000000,0.589388,0.000000,0.287854,0.342779,1.000000,0.895941,0.064381,2.000000
gen, fitness
0,0.026348,0.000000,1.000000,0.210000,0.800000,0.030000,0.030000,1.000000,0.000000,1.000000,0.000000,0.000000,0.600000,1.000000,1.000000,0.000000,0.000000
1,0.026348,0.000000,1.000000,0.210000,0.800000,0.030000,0.030000,1.000000,0.000000,1.000000,0.000000,0.000000,0.600000,1.000000,1.000000,0.000000,0.000000
2,0.009708,0.062787,0.999457,0.167255,0.676967,0.000000,0.114824,1.000000,1.000000,0.904977,0.205036,0.075095,0.479499,0.990828,1.000000,0.000000,1.000000
3,0.006215,0.129460,0.893542,0.076995,0.675448,0.000000,0.127878,1.000000,0.000000,0.869238,0.205036,0.076107,0.405959,1.000000,1.000000,0.000000,1.000000
4,0.002812,0.000000,1.000000,0.112109,0.556655,0.000000,0.000975,0.911219,1.000000,0.850083,0.142811,0.000000,0.240926,1.000000,1.000000,0.154059,1.000000
5,0.000419,0.000000,1.000000,0.116522,0.422510,0.000000,0.000975,0.911219,2.000000,0.850083,0.214730,0.000000,0.214788,1.000000,0.946724,0.154059,0.000000
6,0.000139,0.000000,1.000000,0.116522,0.377697,0.000000,0.000000,0.875593,0.000000,0.854835,0.053334,0.000000,0.082485,0.838276,0.817121,0.152331,0.000000
7,0.000139,0.000000,1.000000,0.116522,0.377697,0.000000,0.000000,0.875593,0.000000,0.854835,0.053334,0.000000,0.082485,0.838276,0.817121,0.152331,0.000000
8,0.000002,0.000000,1.000000,0.145252,0.377697,0.000000,0.000975,0.911219,0.000000,0.850360,0.200095,0.000000,0.134625,0.920858,1.000000,0.199275,2.000000
9,0.000002,0.000000,1.000000,0.145252,0.377697,0.000000,0.000975,0.911219,0.000000,0.850360,0.200095,0.000000,0.134625,0.920858,1.000000,0.199275,2.000000
10,0.000002,0.000000,1.000000,0.145252,0.377697,0.000000,0.000975,0.911219,0.000000,0.850360,0.200095,0.000000,0.134625,0.920858,1.000000,0.199275,2.000000
11,0.000000,0.147660,1.000000,0.106469,0.322523,0.090090,0.265742,0.938526,2.000000,0.731079,0.231295,0.000000,0.184788,1.000000,1.000000,0.172745,0.000000
gen, fitness
0,0.052335,0.000000,1.000000,0.210000,0.800000,0.030000,0.030000,1.000000,0.000000,1.000000,0.000000,0.000000,0.600000,1.000000,1.000000,0.000000,0.000000
1,0.052335,0.000000,1.000000,0.210000,0.800000,0.030000,0.030000,1.000000,0.000000,1.000000,0.000000,0.000000,0.600000,1.000000,1.000000,0.000000,0.000000
2,0.026767,0.000000,1.000000,0.210000,0.657046,0.030000,0.000000,1.000000,1.000000,0.975155,0.000000,0.000000,0.506066,0.845034,0.867911,0.089253,1.000000
3,0.014776,0.000000,1.000000,0.199984,0.497267,0.000000,0.000000,1.000000,0.000000,1.000000,0.000000,0.000000,0.411222,0.774458,0.700032,0.045861,0.000000
4,0.009023,0.086629,0.927249,0.084441,0.575507,0.187549,0.005657,0.921196,0.000000,1.000000,0.145668,0.002092,0.347580,0.851169,0.885669,0.092376,0.000000
5,0.006328,0.112473,1.000000,0.199984,0.390001,0.000000,0.109200,1.000000,2.000000,0.900960,0.017432,0.041659,0.188778,1.000000,0.964757,0.257864,1.000000
6,0.004661,0.000000,1.000000,0.092376,0.511175,0.201606,0.000000,0.820363,1.000000,1.000000,0.008835,0.000000,0.176381,0.562294,0.898953,0.041595,1.000000
7,0.003697,0.184386,0.730978,0.000000,0.528820,0.180955,0.074945,0.802066,0.000000,0.897524,0.302385,0.000000,0.266310,0.815662,1.000000,0.000000,2.000000
8,0.000180,0.398220,1.000000,0.070484,0.299627,0.000000,0.000000,0.893975,1.000000,0.903288,0.000000,0.113282,0.000000,0.917330,0.908468,0.124641,0.000000
9,0.000104,0.270480,0.905895,0.000000,0.436686,0.014820,0.100357,0.408616,1.000000,1.000000,0.376266,0.000000,0.000000,0.871883,0.609280,0.370647,1.000000
10,0.000104,0.270480,0.905895,0.000000,0.436686,0.014820,0.100357,0.408616,1.000000,1.000000,0.376266,0.000000,0.000000,0.871883,0.609280,0.370647,1.000000
11,0.000104,0.270480,0.905895,0.000000,0.436686,0.014820,0.100357,0.408616,1.000000,1.000000,0.376266,0.000000,0.000000,0.871883,0.609280,0.370647,1.000000
12,0.000035,0.593652,1.000000,0.002779,0.347246,0.531304,0.000000,0.704857,0.000000,1.000000,0.000000,0.107827,0.079848,0.365157,0.909577,0.000000,1.000000
13,0.000035,0.593652,1.000000,0.002779,0.347246,0.531304,0.000000,0.704857,0.000000,1.000000,0.000000,0.107827,0.079848,0.365157,0.909577,0.000000,1.000000
14,0.000032,0.299065,1.000000,0.028604,0.350304,0.140279,0.259503,0.365357,2.000000,0.919543,0.242296,0.000000,0.000000,0.871883,0.581941,0.307033,2.000000
15,0.000032,0.299065,1.000000,0.028604,0.350304,0.140279,0.259503,0.365357,2.000000,0.919543,0.242296,0.000000,0.000000,0.871883,0.581941,0.307033,2.000000
16,0.000032,0.299065,1.000000,0.028604,0.350304,0.140279,0.259503,0.365357,2.000000,0.919543,0.242296,0.000000,0.000000,0.871883,0.581941,0.307033,2.000000
17,0.000019,0.356988,0.905895,0.000000,0.368565,0.000000,0.102652,0.571719,2.000000,0.936233,0.437557,0.000000,0.028442,1.000000,0.434092,0.336907,1.000000
18,0.000000,0.618621,0.779512,0.000000,0.195186,0.165229,0.257013,0.867346,0.000000,0.629661,0.000000,0.000000,0.206919,0.733459,0.951693,0.170049,2.000000
gen, fitness
0,0.080636,0.000000,1.000000,0.210000,0.800000,0.030000,0.030000,1.000000,0.000000,1.000000,0.000000,0.000000,0.600000,1.000000,1.000000,0.000000,0.000000
1,0.080636,0.000000,1.000000,0.210000,0.800000,0.030000,0.030000,1.000000,0.000000,1.000000,0.000000,0.000000,0.600000,1.000000,1.000000,0.000000,0.000000
2,0.039986,0.000000,1.000000,0.210000,0.543058,0.030000,0.030000,1.000000,2.000000,0.923746,0.000000,0.000000,0.500576,0.981226,0.965460,0.000000,1.000000
3,0.025130,0.176247,0.880637,0.023451,0.543058,0.007299,0.066401,0.865409,2.000000,0.923746,0.000000,0.000000,0.438415,1.000000,0.965460,0.000000,1.000000
4,0.014875,0.084154,1.000000,0.028863,0.403476,0.000000,0.081821,0.811702,2.000000,0.890016,0.347850,0.000000,0.277923,1.000000,0.962090,0.001002,0.000000
5,0.009362,0.132472,1.000000,0.090057,0.364717,0.000000,0.081821,0.811702,1.000000,0.890016,0.376623,0.000000,0.158079,1.000000,0.783223,0.000000,2.000000
6,0.006617,0.111545,1.000000,0.000000,0.369359,0.065682,0.105597,0.811702,0.000000,1.000000,0.232198,0.066860,0.052026,0.757143,1.000000,0.090946,1.000000
7,0.003847,0.158677,1.000000,0.160695,0.200095,0.000000,0.034531,0.525194,2.000000,0.895663,0.347194,0.000000,0.020173,0.587344,1.000000,0.099102,0.000000
8,0.002415,0.158677,1.000000,0.160695,0.038491,0.000000,0.165010,0.661657,1.000000,0.895663,0.347194,0.000000,0.000000,0.709099,1.000000,0.099102,0.000000
9,0.001464,0.298278,0.976082,0.065001,0.116062,0.133350,0.129137,0.557944,2.000000,0.838169,0.382186,0.000000,0.028282,0.424001,0.780447,0.110492,0.000000
10,0.000470,0.421363,1.000000,0.043372,0.151012,0.000000,0.243220,0.981719,0.000000,0.862846,0.113420,0.029713,0.000000,0.732225,0.787183,0.000000,0.000000
11,0.000358,0.539621,0.686456,0.065957,0.087899,0.000000,0.076811,1.000000,2.000000,0.834336,0.587193,0.054616,0.000000,0.765405,0.772209,0.045499,0.000000
12,0.000061,0.539621,0.572761,0.001521,0.087899,0.000000,0.133180,0.921828,1.000000,0.837646,0.574054,0.000000,0.000000,0.758000,0.706602,0.037917,1.000000
13,0.000027,0.545882,0.993225,0.084820,0.085792,0.000000,0.069281,1.000000,0.000000,1.000000,0.263598,0.000000,0.000000,0.817053,1.000000,0.104970,1.000000
14,0.000027,0.545882,0.993225,0.084820,0.085792,0.000000,0.069281,1.000000,0.000000,1.000000,0.263598,0.000000,0.000000,0.817053,1.000000,0.104970,1.000000
15,0.000027,0.545882,0.993225,0.084820,0.085792,0.000000,0.069281,1.000000,0.000000,1.000000,0.263598,0.000000,0.000000,0.817053,1.000000,0.104970,1.000000
16,0.000027,0.545882,0.993225,0.084820,0.085792,0.000000,0.069281,1.000000,0.000000,1.000000,0.263598,0.000000,0.000000,0.817053,1.000000,0.104970,1.000000
17,0.000018,0.545882,1.000000,0.114428,0.014485,0.000000,0.000000,0.941056,2.000000,0.905403,0.181208,0.000000,0.015287,0.872592,0.855438,0.170689,2.000000
18,0.000011,0.559495,0.315054,0.092439,0.000000,0.000000,0.069126,0.978047,1.000000,0.822630,0.552142,0.000000,0.000000,0.979146,0.745637,0.239886,1.000000
19,0.000011,0.559495,0.315054,0.092439,0.000000,0.000000,0.069126,0.978047,1.000000,0.822630,0.552142,0.000000,0.000000,0.979146,0.745637,0.239886,1.000000
20,0.000011,0.559495,0.315054,0.092439,0.000000,0.000000,0.069126,0.978047,1.000000,0.822630,0.552142,0.000000,0.000000,0.979146,0.745637,0.239886,1.000000
21,0.000011,0.559495,0.315054,0.092439,0.000000,0.000000,0.069126,0.978047,1.000000,0.822630,0.552142,0.000000,0.000000,0.979146,0.745637,0.239886,1.000000
22,0.000011,0.559495,0.315054,0.092439,0.000000,0.000000,0.069126,0.978047,1.000000,0.822630,0.552142,0.000000,0.000000,0.979146,0.745637,0.239886,1.000000
23,0.000001,0.631844,0.993268,0.066862,0.056837,0.000000,0.000000,1.000000,1.000000,0.911499,0.130742,0.000000,0.062024,1.000000,0.844679,0.185370,0.000000
gen, fitness
0,0.025383,0.000000,1.000000,0.210000,0.800000,0.030000,0.030000,1.000000,0.000000,1.000000,0.000000,0.000000,0.600000,1.000000,1.000000,0.000000,0.000000
1,0.025383,0.000000,1.000000,0.210000,0.800000,0.030000,0.030000,1.000000,0.000000,1.000000,0.000000,0.000000,0.600000,1.000000,1.000000,0.000000,0.000000
2,0.008913,0.000000,1.000000,0.253787,0.623461,0.080064,0.000000,1.000000,1.000000,0.962797,0.000000,0.031376,0.504869,1.000000,1.000000,0.000000,0.000000
3,0.002732,0.000000,1.000000,0.129762,0.488008,0.234631,0.172585,1.000000,2.000000,1.000000,0.039144,0.000000,0.326906,0.820360,0.902846,0.000000,0.000000
4,0.001702,0.000000,1.000000,0.146239,0.488008,0.204128,0.293899,0.905663,0.000000,1.000000,0.065103,0.000000,0.281556,0.988516,0.846821,0.000000,2.000000
5,0.001702,0.000000,1.000000,0.146239,0.488008,0.204128,0.293899,0.905663,0.000000,1.000000,0.065103,0.000000,0.281556,0.988516,0.846821,0.000000,2.000000
6,0.000275,0.309421,1.000000,0.105795,0.435262,0.099135,0.060960,0.594511,1.000000,1.000000,0.000000,0.000000,0.292760,0.827489,0.735171,0.062236,0.000000
7,0.000063,0.383719,0.919811,0.217317,0.194647,0.125301,0.132317,0.843028,1.000000,0.944233,0.085676,0.000000,0.207613,0.772013,0.766896,0.193245,0.000000
8,0.000057,0.387036,0.976271,0.140657,0.255765,0.000000,0.000000,1.000000,2.000000,0.921946,0.036770,0.000000,0.235200,1.000000,1.000000,0.000000,2.000000
9,0.000004,0.450424,1.000000,0.000000,0.426981,0.242456,0.000000,0.537977,0.000000,0.794910,0.000000,0.000000,0.292760,0.896031,0.735171,0.062236,1.000000
10,0.000003,0.353983,1.000000,0.105795,0.320121,0.127230,0.096321,1.000000,1.000000,0.909355,0.016840,0.000000,0.207613,0.637421,0.722808,0.201771,2.000000
11,0.000003,0.353983,1.000000,0.105795,0.320121,0.127230,0.096321,1.000000,1.000000,0.909355,0.016840,0.000000,0.207613,0.637421,0.722808,0.201771,2.000000
12,0.000002,0.380535,0.917367,0.000000,0.458478,0.127230,0.214395,1.000000,1.000000,1.000000,0.000000,0.000000,0.220615,0.632172,0.709698,0.201771,1.000000
13,0.000002,0.380535,0.917367,0.000000,0.458478,0.127230,0.214395,1.000000,1.000000,1.000000,0.000000,0.000000,0.220615,0.632172,0.709698,0.201771,1.000000
14,0.000002,0.380535,0.917367,0.000000,0.458478,0.127230,0.214395,1.000000,1.000000,1.000000,0.000000,0.000000,0.220615,0.632172,0.709698,0.201771,1.000000
15,0.000002,0.380535,0.917367,0.000000,0.458478,0.127230,0.214395,1.000000,1.000000,1.000000,0.000000,0.000000,0.220615,0.632172,0.709698,0.201771,1.000000
16,0.000002,0.380535,0.917367,0.000000,0.458478,0.127230,0.214395,1.000000,1.000000,1.000000,0.000000,0.000000,0.220615,0.632172,0.709698,0.201771,1.000000
17,0.000002,0.380535,0.917367,0.000000,0.458478,0.127230,0.214395,1.000000,1.000000,1.000000,0.000000,0.000000,0.220615,0.632172,0.709698,0.201771,1.000000
18,0.000002,0.380535,0.917367,0.000000,0.458478,0.127230,0.214395,1.000000,1.000000,1.000000,0.000000,0.000000,0.220615,0.632172,0.709698,0.201771,1.000000
19,0.000002,0.380535,0.917367,0.000000,0.458478,0.127230,0.214395,1.000000,1.000000,1.000000,0.000000,0.000000,0.220615,0.632172,0.709698,0.201771,1.000000
