gen, fitness
0,0.027983,0.000000,1.000000,0.210000,0.800000,0.030000,0.030000,1.000000,0.000000,1.000000,0.000000,0.000000,0.600000,1.000000,1.000000,0.000000,0.000000
1,0.027983,0.000000,1.000000,0.210000,0.800000,0.030000,0.030000,1.000000,0.000000,1.000000,0.000000,0.000000,0.600000,1.000000,1.000000,0.000000,0.000000
2,0.007611,0.052689,1.000000,0.210000,0.796506,0.000000,0.030000,1.000000,2.000000,1.000000,0.000000,0.072237,0.737587,0.999761,0.879769,0.074151,2.000000
3,0.007611,0.052689,1.000000,0.210000,0.796506,0.000000,0.030000,1.000000,2.000000,1.000000,0.000000,0.072237,0.737587,0.999761,0.879769,0.074151,2.000000
4,0.004094,0.000000,1.000000,0.123857,0.875343,0.000000,0.057481,0.945936,2.000000,0.787521,0.000000,0.273379,0.793160,0.854133,1.000000,0.140594,1.000000
5,0.004094,0.000000,1.000000,0.123857,0.875343,0.000000,0.057481,0.945936,2.000000,0.787521,0.000000,0.273379,0.793160,0.854133,1.000000,0.140594,1.000000
6,0.002114,0.000000,0.982632,0.557140,0.887266,0.248132,0.037241,0.960297,2.000000,0.844799,0.048554,0.539471,0.853685,1.000000,0.941046,0.000000,2.000000
7,0.000831,0.000000,0.964466,0.000000,1.000000,0.209548,0.158070,0.981805,1.000000,0.345071,0.000000,0.221508,1.000000,0.424365,0.996103,0.101392,1.000000
8,0.000831,0.000000,0.964466,0.000000,1.000000,0.209548,0.158070,0.981805,1.000000,0.345071,0.000000,0.221508,1.000000,0.424365,0.996103,0.101392,1.000000
9,0.000703,0.493763,0.988489,0.207395,1.000000,0.000000,0.243629,1.000000,2.000000,0.891157,0.000000,0.569055,1.000000,0.779024,0.964555,0.309759,1.000000
10,0.000655,0.000877,0.964466,0.002836,1.000000,0.209548,0.006514,0.981805,1.000000,0.336120,0.019158,0.221508,1.000000,0.436272,0.862932,0.056165,2.000000
11,0.000515,0.076864,0.912931,0.052512,1.000000,0.462240,0.040245,1.000000,1.000000,0.329004,0.020221,0.460501,1.000000,0.596621,1.000000,0.137871,2.000000
12,0.000437,0.033510,0.577887,0.444014,1.000000,0.070490,0.147970,0.655946,2.000000,0.811172,0.302652,0.749727,1.000000,0.886839,0.708172,0.000000,2.000000
13,0.000437,0.033510,0.577887,0.444014,1.000000,0.070490,0.147970,0.655946,2.000000,0.811172,0.302652,0.749727,1.000000,0.886839,0.708172,0.000000,2.000000
14,0.000437,0.033510,0.577887,0.444014,1.000000,0.070490,0.147970,0.655946,2.000000,0.811172,0.302652,0.749727,1.000000,0.886839,0.708172,0.000000,2.000000
15,0.000437,0.033510,0.577887,0.444014,1.000000,0.070490,0.147970,0.655946,2.000000,0.811172,0.302652,0.749727,1.000000,0.886839,0.708172,0.000000,2.000000
16,0.000437,0.033510,0.577887,0.444014,1.000000,0.070490,0.147970,0.655946,2.000000,0.811172,0.302652,0.749727,1.000000,0.886839,0.708172,0.000000,2.000000
17,0.000437,0.033510,0.577887,0.444014,1.000000,0.070490,0.147970,0.655946,2.000000,0.811172,0.302652,0.749727,1.000000,0.886839,0.708172,0.000000,2.000000
18,0.000390,0.053362,0.455772,0.019597,1.000000,0.247032,0.127067,1.000000,2.000000,0.292216,0.034017,0.503904,1.000000,0.578556,1.000000,0.136170,2.000000
19,0.000390,0.053362,0.455772,0.019597,1.000000,0.247032,0.127067,1.000000,2.000000,0.292216,0.034017,0.503904,1.000000,0.578556,1.000000,0.136170,2.000000
20,0.000390,0.053362,0.455772,0.019597,1.000000,0.247032,0.127067,1.000000,2.000000,0.292216,0.034017,0.503904,1.000000,0.578556,1.000000,0.136170,2.000000
21,0.000390,0.053362,0.455772,0.019597,1.000000,0.247032,0.127067,1.000000,2.000000,0.292216,0.034017,0.503904,1.000000,0.578556,1.000000,0.136170,2.000000
22,0.000390,0.053362,0.455772,0.019597,1.000000,0.247032,0.127067,1.000000,2.000000,0.292216,0.034017,0.503904,1.000000,0.578556,1.000000,0.136170,2.000000
23,0.000291,0.000000,0.767021,0.020434,1.000000,0.259916,0.287205,1.000000,2.000000,0.148589,0.000000,0.522641,1.000000,0.470725,0.669694,0.668049,2.000000
24,0.000291,0.000000,0.767021,0.020434,1.000000,0.259916,0.287205,1.000000,2.000000,0.148589,0.000000,0.522641,1.000000,0.470725,0.669694,0.668049,2.000000
25,0.000291,0.000000,0.767021,0.020434,1.000000,0.259916,0.287205,1.000000,2.000000,0.148589,0.000000,0.522641,1.000000,0.470725,0.669694,0.668049,2.000000
26,0.000291,0.000000,0.767021,0.020434,1.000000,0.259916,0.287205,1.000000,2.000000,0.148589,0.000000,0.522641,1.000000,0.470725,0.669694,0.668049,2.000000
27,0.000291,0.000000,0.767021,0.020434,1.000000,0.259916,0.287205,1.000000,2.000000,0.148589,0.000000,0.522641,1.000000,0.470725,0.669694,0.668049,2.000000
28,0.000291,0.000000,0.767021,0.020434,1.000000,0.259916,0.287205,1.000000,2.000000,0.148589,0.000000,0.522641,1.000000,0.470725,0.669694,0.668049,2.000000
29,0.000291,0.000000,0.767021,0.020434,1.000000,0.259916,0.287205,1.000000,2.000000,0.148589,0.000000,0.522641,1.000000,0.470725,0.669694,0.668049,2.000000
30,0.000291,0.000000,0.767021,0.020434,1.000000,0.259916,0.287205,1.000000,2.000000,0.148589,0.000000,0.522641,1.000000,0.470725,0.669694,0.668049,2.000000
31,0.000271,0.013574,0.601302,0.223561,1.000000,0.168910,0.230503,1.000000,2.000000,0.057502,0.254604,1.000000,1.000000,0.959593,0.973744,0.000000,1.000000
32,0.000217,0.006053,0.756615,0.300771,1.000000,0.415076,0.056112,1.000000,2.000000,0.268523,0.277849,1.000000,1.000000,0.944062,0.981319,0.000000,2.000000
33,0.000217,0.006053,0.756615,0.300771,1.000000,0.415076,0.056112,1.000000,2.000000,0.268523,0.277849,1.000000,1.000000,0.944062,0.981319,0.000000,2.000000
34,0.000217,0.006053,0.756615,0.300771,1.000000,0.415076,0.056112,1.000000,2.000000,0.268523,0.277849,1.000000,1.000000,0.944062,0.981319,0.000000,2.000000
35,0.000217,0.006053,0.756615,0.300771,1.000000,0.415076,0.056112,1.000000,2.000000,0.268523,0.277849,1.000000,1.000000,0.944062,0.981319,0.000000,2.000000
36,0.000189,0.034241,0.601302,0.214882,1.000000,0.168910,0.306212,1.000000,2.000000,0.057502,0.205836,0.986415,1.000000,1.000000,0.545099,0.222992,2.000000
37,0.000189,0.034241,0.601302,0.214882,1.000000,0.168910,0.306212,1.000000,2.000000,0.057502,0.205836,0.986415,1.000000,1.000000,0.545099,0.222992,2.000000
38,0.000189,0.034241,0.601302,0.214882,1.000000,0.168910,0.306212,1.000000,2.000000,0.057502,0.205836,0.986415,1.000000,1.000000,0.545099,0.222992,2.000000
39,0.000189,0.034241,0.601302,0.214882,1.000000,0.168910,0.306212,1.000000,2.000000,0.057502,0.205836,0.986415,1.000000,1.000000,0.545099,0.222992,2.000000
40,0.000176,0.085092,0.601302,0.245001,0.995949,0.168910,0.213894,0.984463,2.000000,0.089062,0.165394,1.000000,1.000000,0.992512,0.777374,0.404127,2.000000
41,0.000176,0.085092,0.601302,0.245001,0.995949,0.168910,0.213894,0.984463,2.000000,0.089062,0.165394,1.000000,1.000000,0.992512,0.777374,0.404127,2.000000
42,0.000176,0.085092,0.601302,0.245001,0.995949,0.168910,0.213894,0.984463,2.000000,0.089062,0.165394,1.000000,1.000000,0.992512,0.777374,0.404127,2.000000
43,0.000176,0.085092,0.601302,0.245001,0.995949,0.168910,0.213894,0.984463,2.000000,0.089062,0.165394,1.000000,1.000000,0.992512,0.777374,0.404127,2.000000
44,0.000176,0.085092,0.601302,0.245001,0.995949,0.168910,0.213894,0.984463,2.000000,0.089062,0.165394,1.000000,1.000000,0.992512,0.777374,0.404127,2.000000
45,0.000176,0.085092,0.601302,0.245001,0.995949,0.168910,0.213894,0.984463,2.000000,0.089062,0.165394,1.000000,1.000000,0.992512,0.777374,0.404127,2.000000
46,0.000176,0.085092,0.601302,0.245001,0.995949,0.168910,0.213894,0.984463,2.000000,0.089062,0.165394,1.000000,1.000000,0.992512,0.777374,0.404127,2.000000
47,0.000176,0.085092,0.601302,0.245001,0.995949,0.168910,0.213894,0.984463,2.000000,0.089062,0.165394,1.000000,1.000000,0.992512,0.777374,0.404127,2.000000
48,0.000176,0.085092,0.601302,0.245001,0.995949,0.168910,0.213894,0.984463,2.000000,0.089062,0.165394,1.000000,1.000000,0.992512,0.777374,0.404127,2.000000
49,0.000163,0.000000,0.763625,0.207717,1.000000,0.000000,0.375570,0.907928,2.000000,0.143124,0.536337,1.000000,1.000000,0.980783,0.753362,0.872626,2.000000
50,0.000163,0.000000,0.763625,0.207717,1.000000,0.000000,0.375570,0.907928,2.000000,0.143124,0.536337,1.000000,1.000000,0.980783,0.753362,0.872626,2.000000
51,0.000163,0.000000,0.763625,0.207717,1.000000,0.000000,0.375570,0.907928,2.000000,0.143124,0.536337,1.000000,1.000000,0.980783,0.753362,0.872626,2.000000
52,0.000163,0.000000,0.763625,0.207717,1.000000,0.000000,0.375570,0.907928,2.000000,0.143124,0.536337,1.000000,1.000000,0.980783,0.753362,0.872626,2.000000
53,0.000163,0.000000,0.763625,0.207717,1.000000,0.000000,0.375570,0.907928,2.000000,0.143124,0.536337,1.000000,1.000000,0.980783,0.753362,0.872626,2.000000
54,0.000163,0.000000,0.763625,0.207717,1.000000,0.000000,0.375570,0.907928,2.000000,0.143124,0.536337,1.000000,1.000000,0.980783,0.753362,0.872626,2.000000
55,0.000163,0.000000,0.763625,0.207717,1.000000,0.000000,0.375570,0.907928,2.000000,0.143124,0.536337,1.000000,1.000000,0.980783,0.753362,0.872626,2.000000
56,0.000163,0.000000,0.763625,0.207717,1.000000,0.000000,0.375570,0.907928,2.000000,0.143124,0.536337,1.000000,1.000000,0.980783,0.753362,0.872626,2.000000
57,0.000163,0.000000,0.763625,0.207717,1.000000,0.000000,0.375570,0.907928,2.000000,0.143124,0.536337,1.000000,1.000000,0.980783,0.753362,0.872626,2.000000
58,0.000163,0.000000,0.763625,0.207717,1.000000,0.000000,0.375570,0.907928,2.000000,0.143124,0.536337,1.000000,1.000000,0.980783,0.753362,0.872626,2.000000
59,0.000150,0.000000,0.689268,0.210772,1.000000,0.019616,0.354286,0.816226,2.000000,0.130305,0.205836,0.944954,1.000000,0.957954,0.559193,1.000000,2.000000
60,0.000150,0.000000,0.689268,0.210772,1.000000,0.019616,0.354286,0.816226,2.000000,0.130305,0.205836,0.944954,1.000000,0.957954,0.559193,1.000000,2.000000
61,0.000150,0.000000,0.689268,0.210772,1.000000,0.019616,0.354286,0.816226,2.000000,0.130305,0.205836,0.944954,1.000000,0.957954,0.559193,1.000000,2.000000
62,0.000150,0.000000,0.689268,0.210772,1.000000,0.019616,0.354286,0.816226,2.000000,0.130305,0.205836,0.944954,1.000000,0.957954,0.559193,1.000000,2.000000
63,0.000150,0.000000,0.689268,0.210772,1.000000,0.019616,0.354286,0.816226,2.000000,0.130305,0.205836,0.944954,1.000000,0.957954,0.559193,1.000000,2.000000
64,0.000150,0.000000,0.689268,0.210772,1.000000,0.019616,0.354286,0.816226,2.000000,0.130305,0.205836,0.944954,1.000000,0.957954,0.559193,1.000000,2.000000
65,0.000150,0.000000,0.689268,0.210772,1.000000,0.019616,0.354286,0.816226,2.000000,0.130305,0.205836,0.944954,1.000000,0.957954,0.559193,1.000000,2.000000
66,0.000150,0.000000,0.689268,0.210772,1.000000,0.019616,0.354286,0.816226,2.000000,0.130305,0.205836,0.944954,1.000000,0.957954,0.559193,1.000000,2.000000
67,0.000139,0.000000,0.188219,0.261314,1.000000,0.058592,0.173318,0.930148,2.000000,0.144699,0.589658,0.982194,1.000000,0.989030,0.566268,1.000000,2.000000
68,0.000139,0.000000,0.188219,0.261314,1.000000,0.058592,0.173318,0.930148,2.000000,0.144699,0.589658,0.982194,1.000000,0.989030,0.566268,1.000000,2.000000
69,0.000139,0.000000,0.188219,0.261314,1.000000,0.058592,0.173318,0.930148,2.000000,0.144699,0.589658,0.982194,1.000000,0.989030,0.566268,1.000000,2.000000
70,0.000139,0.000000,0.188219,0.261314,1.000000,0.058592,0.173318,0.930148,2.000000,0.144699,0.589658,0.982194,1.000000,0.989030,0.566268,1.000000,2.000000
71,0.000139,0.000000,0.188219,0.261314,1.000000,0.058592,0.173318,0.930148,2.000000,0.144699,0.589658,0.982194,1.000000,0.989030,0.566268,1.000000,2.000000
72,0.000139,0.000000,0.188219,0.261314,1.000000,0.058592,0.173318,0.930148,2.000000,0.144699,0.589658,0.982194,1.000000,0.989030,0.566268,1.000000,2.000000
73,0.000139,0.000000,0.188219,0.261314,1.000000,0.058592,0.173318,0.930148,2.000000,0.144699,0.589658,0.982194,1.000000,0.989030,0.566268,1.000000,2.000000
74,0.000139,0.000000,0.188219,0.261314,1.000000,0.058592,0.173318,0.930148,2.000000,0.144699,0.589658,0.982194,1.000000,0.989030,0.566268,1.000000,2.000000
75,0.000139,0.000000,0.188219,0.261314,1.000000,0.058592,0.173318,0.930148,2.000000,0.144699,0.589658,0.982194,1.000000,0.989030,0.566268,1.000000,2.000000
76,0.000139,0.000000,0.188219,0.261314,1.000000,0.058592,0.173318,0.930148,2.000000,0.144699,0.589658,0.982194,1.000000,0.989030,0.566268,1.000000,2.000000
77,0.000139,0.000000,0.188219,0.261314,1.000000,0.058592,0.173318,0.930148,2.000000,0.144699,0.589658,0.982194,1.000000,0.989030,0.566268,1.000000,2.000000
gen, fitness
0,0.112030,0.000000,1.000000,0.210000,0.800000,0.030000,0.030000,1.000000,0.000000,1.000000,0.000000,0.000000,0.600000,1.000000,1.000000,0.000000,0.000000
1,0.112030,0.000000,1.000000,0.210000,0.800000,0.030000,0.030000,1.000000,0.000000,1.000000,0.000000,0.000000,0.600000,1.000000,1.000000,0.000000,0.000000
2,0.076672,0.049192,1.000000,0.200094,0.859181,0.030000,0.030000,0.980477,1.000000,0.866831,0.000000,0.046802,0.798697,0.958155,0.946008,0.000000,0.000000
3,0.062156,0.000000,0.961605,0.329661,0.991187,0.150497,0.000000,0.897650,2.000000,0.884911,0.177648,0.350147,0.859116,0.804887,0.838234,0.046168,0.000000
4,0.056304,0.174805,1.000000,0.416470,0.917204,0.021445,0.124116,1.000000,2.000000,1.000000,0.236738,0.166829,0.899264,0.811986,1.000000,0.000000,1.000000
5,0.047182,0.000000,0.832354,0.234819,1.000000,0.069960,0.315150,1.000000,0.000000,0.758941,0.075203,0.435145,0.926022,1.000000,0.803026,0.008815,0.000000
6,0.042973,0.068128,1.000000,0.353378,1.000000,0.043076,0.025076,0.885628,2.000000,0.917638,0.098772,0.350147,1.000000,0.547889,0.733937,0.146408,0.000000
7,0.039727,0.000000,0.818386,0.112641,1.000000,0.000000,0.000000,0.885628,2.000000,0.924856,0.098772,0.428723,1.000000,0.574258,0.733937,0.103353,2.000000
8,0.039383,0.000000,0.767294,0.368354,1.000000,0.360292,0.362459,0.758964,2.000000,0.866831,0.058283,0.513497,1.000000,1.000000,0.873130,0.110088,1.000000
9,0.039168,0.000000,0.725310,0.322050,0.994770,0.044308,0.000000,0.769840,1.000000,0.845165,0.163118,0.609453,1.000000,0.642221,0.699089,0.147598,2.000000
10,0.037397,0.096884,0.997484,0.272218,1.000000,0.046941,0.111023,0.877230,1.000000,0.872715,0.081306,0.567458,0.974008,1.000000,0.776176,0.367345,2.000000
11,0.037040,0.000000,0.631599,0.304747,1.000000,0.000000,0.061692,1.000000,1.000000,0.845261,0.110510,0.629337,1.000000,1.000000,0.929088,0.187787,2.000000
12,0.035385,0.000000,0.908201,0.484250,1.000000,0.283291,0.148259,0.703715,1.000000,0.866831,0.158923,0.833051,0.974319,0.791407,0.981331,0.155325,2.000000
13,0.034650,0.000000,0.854749,0.407593,1.000000,0.403082,0.222923,0.884489,2.000000,0.895448,0.063897,0.825120,1.000000,0.885432,1.000000,0.167852,2.000000
14,0.033062,0.000000,1.000000,0.546293,1.000000,0.283291,0.081379,0.660081,2.000000,0.678181,0.052472,0.971470,1.000000,0.948708,0.878206,0.144867,2.000000
15,0.033062,0.000000,1.000000,0.546293,1.000000,0.283291,0.081379,0.660081,2.000000,0.678181,0.052472,0.971470,1.000000,0.948708,0.878206,0.144867,2.000000
16,0.033062,0.000000,1.000000,0.546293,1.000000,0.283291,0.081379,0.660081,2.000000,0.678181,0.052472,0.971470,1.000000,0.948708,0.878206,0.144867,2.000000
17,0.032907,0.109221,1.000000,0.554025,1.000000,0.254381,0.054810,0.792969,2.000000,0.725442,0.190905,1.000000,1.000000,0.994266,0.642261,0.245360,2.000000
18,0.032907,0.109221,1.000000,0.554025,1.000000,0.254381,0.054810,0.792969,2.000000,0.725442,0.190905,1.000000,1.000000,0.994266,0.642261,0.245360,2.000000
19,0.032907,0.109221,1.000000,0.554025,1.000000,0.254381,0.054810,0.792969,2.000000,0.725442,0.190905,1.000000,1.000000,0.994266,0.642261,0.245360,2.000000
20,0.032907,0.109221,1.000000,0.554025,1.000000,0.254381,0.054810,0.792969,2.000000,0.725442,0.190905,1.000000,1.000000,0.994266,0.642261,0.245360,2.000000
21,0.032667,0.079556,0.751097,0.501562,1.000000,0.369948,0.122834,1.000000,2.000000,0.849692,0.327262,1.000000,0.988159,1.000000,0.921525,0.286772,2.000000
22,0.032667,0.079556,0.751097,0.501562,1.000000,0.369948,0.122834,1.000000,2.000000,0.849692,0.327262,1.000000,0.988159,1.000000,0.921525,0.286772,2.000000
23,0.032667,0.079556,0.751097,0.501562,1.000000,0.369948,0.122834,1.000000,2.000000,0.849692,0.327262,1.000000,0.988159,1.000000,0.921525,0.286772,2.000000
24,0.032667,0.079556,0.751097,0.501562,1.000000,0.369948,0.122834,1.000000,2.000000,0.849692,0.327262,1.000000,0.988159,1.000000,0.921525,0.286772,2.000000
25,0.032545,0.031621,0.450094,0.724883,1.000000,0.006903,0.151545,0.853242,2.000000,0.926623,0.194051,0.947672,1.000000,1.000000,0.897973,0.386867,2.000000
26,0.032545,0.031621,0.450094,0.724883,1.000000,0.006903,0.151545,0.853242,2.000000,0.926623,0.194051,0.947672,1.000000,1.000000,0.897973,0.386867,2.000000
27,0.032545,0.031621,0.450094,0.724883,1.000000,0.006903,0.151545,0.853242,2.000000,0.926623,0.194051,0.947672,1.000000,1.000000,0.897973,0.386867,2.000000
28,0.032545,0.031621,0.450094,0.724883,1.000000,0.006903,0.151545,0.853242,2.000000,0.926623,0.194051,0.947672,1.000000,1.000000,0.897973,0.386867,2.000000
29,0.032545,0.031621,0.450094,0.724883,1.000000,0.006903,0.151545,0.853242,2.000000,0.926623,0.194051,0.947672,1.000000,1.000000,0.897973,0.386867,2.000000
30,0.032545,0.031621,0.450094,0.724883,1.000000,0.006903,0.151545,0.853242,2.000000,0.926623,0.194051,0.947672,1.000000,1.000000,0.897973,0.386867,2.000000
31,0.032545,0.031621,0.450094,0.724883,1.000000,0.006903,0.151545,0.853242,2.000000,0.926623,0.194051,0.947672,1.000000,1.000000,0.897973,0.386867,2.000000
32,0.032545,0.031621,0.450094,0.724883,1.000000,0.006903,0.151545,0.853242,2.000000,0.926623,0.194051,0.947672,1.000000,1.000000,0.897973,0.386867,2.000000
33,0.032289,0.000000,0.708971,0.799866,1.000000,0.060987,0.000000,0.959368,2.000000,0.799790,0.058168,1.000000,1.000000,1.000000,0.918513,0.280307,2.000000
34,0.032289,0.000000,0.708971,0.799866,1.000000,0.060987,0.000000,0.959368,2.000000,0.799790,0.058168,1.000000,1.000000,1.000000,0.918513,0.280307,2.000000
35,0.031921,0.019416,0.748529,0.561186,1.000000,0.457319,0.270528,1.000000,2.000000,0.807174,0.405058,1.000000,0.984214,1.000000,1.000000,0.655559,2.000000
36,0.031921,0.019416,0.748529,0.561186,1.000000,0.457319,0.270528,1.000000,2.000000,0.807174,0.405058,1.000000,0.984214,1.000000,1.000000,0.655559,2.000000
37,0.031921,0.019416,0.748529,0.561186,1.000000,0.457319,0.270528,1.000000,2.000000,0.807174,0.405058,1.000000,0.984214,1.000000,1.000000,0.655559,2.000000
38,0.031921,0.019416,0.748529,0.561186,1.000000,0.457319,0.270528,1.000000,2.000000,0.807174,0.405058,1.000000,0.984214,1.000000,1.000000,0.655559,2.000000
39,0.031921,0.019416,0.748529,0.561186,1.000000,0.457319,0.270528,1.000000,2.000000,0.807174,0.405058,1.000000,0.984214,1.000000,1.000000,0.655559,2.000000
40,0.031921,0.019416,0.748529,0.561186,1.000000,0.457319,0.270528,1.000000,2.000000,0.807174,0.405058,1.000000,0.984214,1.000000,1.000000,0.655559,2.000000
41,0.031921,0.019416,0.748529,0.561186,1.000000,0.457319,0.270528,1.000000,2.000000,0.807174,0.405058,1.000000,0.984214,1.000000,1.000000,0.655559,2.000000
42,0.031921,0.019416,0.748529,0.561186,1.000000,0.457319,0.270528,1.000000,2.000000,0.807174,0.405058,1.000000,0.984214,1.000000,1.000000,0.655559,2.000000
43,0.031422,0.000000,0.708971,0.799866,1.000000,0.077684,0.205126,0.984424,2.000000,0.802817,0.201659,1.000000,1.000000,1.000000,0.893674,0.822825,2.000000
44,0.031422,0.000000,0.708971,0.799866,1.000000,0.077684,0.205126,0.984424,2.000000,0.802817,0.201659,1.000000,1.000000,1.000000,0.893674,0.822825,2.000000
45,0.031422,0.000000,0.708971,0.799866,1.000000,0.077684,0.205126,0.984424,2.000000,0.802817,0.201659,1.000000,1.000000,1.000000,0.893674,0.822825,2.000000
46,0.031422,0.000000,0.708971,0.799866,1.000000,0.077684,0.205126,0.984424,2.000000,0.802817,0.201659,1.000000,1.000000,1.000000,0.893674,0.822825,2.000000
47,0.031422,0.000000,0.708971,0.799866,1.000000,0.077684,0.205126,0.984424,2.000000,0.802817,0.201659,1.000000,1.000000,1.000000,0.893674,0.822825,2.000000
48,0.031422,0.000000,0.708971,0.799866,1.000000,0.077684,0.205126,0.984424,2.000000,0.802817,0.201659,1.000000,1.000000,1.000000,0.893674,0.822825,2.000000
49,0.031114,0.000000,0.775218,0.566574,1.000000,0.058331,0.167576,0.971983,2.000000,0.835870,0.224835,0.912224,1.000000,0.978877,1.000000,0.979035,2.000000
50,0.031114,0.000000,0.775218,0.566574,1.000000,0.058331,0.167576,0.971983,2.000000,0.835870,0.224835,0.912224,1.000000,0.978877,1.000000,0.979035,2.000000
51,0.031114,0.000000,0.775218,0.566574,1.000000,0.058331,0.167576,0.971983,2.000000,0.835870,0.224835,0.912224,1.000000,0.978877,1.000000,0.979035,2.000000
52,0.031114,0.000000,0.775218,0.566574,1.000000,0.058331,0.167576,0.971983,2.000000,0.835870,0.224835,0.912224,1.000000,0.978877,1.000000,0.979035,2.000000
53,0.031114,0.000000,0.775218,0.566574,1.000000,0.058331,0.167576,0.971983,2.000000,0.835870,0.224835,0.912224,1.000000,0.978877,1.000000,0.979035,2.000000
54,0.031114,0.000000,0.775218,0.566574,1.000000,0.058331,0.167576,0.971983,2.000000,0.835870,0.224835,0.912224,1.000000,0.978877,1.000000,0.979035,2.000000
55,0.031114,0.000000,0.775218,0.566574,1.000000,0.058331,0.167576,0.971983,2.000000,0.835870,0.224835,0.912224,1.000000,0.978877,1.000000,0.979035,2.000000
56,0.031063,0.000000,0.603818,0.687808,1.000000,0.189683,0.226979,0.960956,2.000000,0.908463,0.394324,0.978061,1.000000,0.875741,1.000000,0.968613,2.000000
57,0.031063,0.000000,0.603818,0.687808,1.000000,0.189683,0.226979,0.960956,2.000000,0.908463,0.394324,0.978061,1.000000,0.875741,1.000000,0.968613,2.000000
58,0.031063,0.000000,0.603818,0.687808,1.000000,0.189683,0.226979,0.960956,2.000000,0.908463,0.394324,0.978061,1.000000,0.875741,1.000000,0.968613,2.000000
59,0.031063,0.000000,0.603818,0.687808,1.000000,0.189683,0.226979,0.960956,2.000000,0.908463,0.394324,0.978061,1.000000,0.875741,1.000000,0.968613,2.000000
60,0.031063,0.000000,0.603818,0.687808,1.000000,0.189683,0.226979,0.960956,2.000000,0.908463,0.394324,0.978061,1.000000,0.875741,1.000000,0.968613,2.000000
61,0.031063,0.000000,0.603818,0.687808,1.000000,0.189683,0.226979,0.960956,2.000000,0.908463,0.394324,0.978061,1.000000,0.875741,1.000000,0.968613,2.000000
62,0.031063,0.000000,0.603818,0.687808,1.000000,0.189683,0.226979,0.960956,2.000000,0.908463,0.394324,0.978061,1.000000,0.875741,1.000000,0.968613,2.000000
63,0.031063,0.000000,0.603818,0.687808,1.000000,0.189683,0.226979,0.960956,2.000000,0.908463,0.394324,0.978061,1.000000,0.875741,1.000000,0.968613,2.000000
64,0.031063,0.000000,0.603818,0.687808,1.000000,0.189683,0.226979,0.960956,2.000000,0.908463,0.394324,0.978061,1.000000,0.875741,1.000000,0.968613,2.000000
65,0.031063,0.000000,0.603818,0.687808,1.000000,0.189683,0.226979,0.960956,2.000000,0.908463,0.394324,0.978061,1.000000,0.875741,1.000000,0.968613,2.000000
66,0.031063,0.000000,0.603818,0.687808,1.000000,0.189683,0.226979,0.960956,2.000000,0.908463,0.394324,0.978061,1.000000,0.875741,1.000000,0.968613,2.000000
gen, fitness
0,0.128870,0.000000,1.000000,0.210000,0.800000,0.030000,0.030000,1.000000,0.000000,1.000000,0.000000,0.000000,0.600000,1.000000,1.000000,0.000000,0.000000
1,0.128870,0.000000,1.000000,0.210000,0.800000,0.030000,0.030000,1.000000,0.000000,1.000000,0.000000,0.000000,0.600000,1.000000,1.000000,0.000000,0.000000
2,0.094665,0.000000,0.850870,0.176788,0.936606,0.030000,0.090278,1.000000,2.000000,0.968179,0.033436,0.000000,0.788434,1.000000,0.979523,0.000000,2.000000
3,0.083256,0.044704,0.884477,0.238524,0.896113,0.128738,0.269801,0.925640,2.000000,0.892831,0.079360,0.072876,0.885774,1.000000,0.948795,0.000000,0.000000
4,0.071437,0.000000,0.685311,0.166358,1.000000,0.084743,0.000000,1.000000,1.000000,1.000000,0.053689,0.000000,0.980851,0.996629,1.000000,0.022081,1.000000
5,0.067453,0.000000,0.815215,0.334775,1.000000,0.243525,0.015805,0.970309,1.000000,0.935525,0.000000,0.081692,0.975047,0.894290,0.974890,0.084708,2.000000
6,0.064312,0.088994,0.668774,0.334775,1.000000,0.285824,0.137983,0.970309,2.000000,0.858982,0.074523,0.186262,1.000000,0.773636,0.984155,0.084708,2.000000
7,0.064312,0.088994,0.668774,0.334775,1.000000,0.285824,0.137983,0.970309,2.000000,0.858982,0.074523,0.186262,1.000000,0.773636,0.984155,0.084708,2.000000
8,0.064312,0.088994,0.668774,0.334775,1.000000,0.285824,0.137983,0.970309,2.000000,0.858982,0.074523,0.186262,1.000000,0.773636,0.984155,0.084708,2.000000
9,0.062939,0.000000,0.887920,0.541026,0.979778,0.000000,0.084748,1.000000,1.000000,0.614031,0.000000,0.289539,1.000000,1.000000,0.771229,0.168416,2.000000
10,0.062586,0.000000,0.760575,0.421682,1.000000,0.127721,0.000000,0.932914,1.000000,0.624637,0.000000,0.282779,1.000000,1.000000,0.742776,0.148784,2.000000
11,0.061251,0.000000,1.000000,0.416185,1.000000,0.141934,0.251474,0.938731,2.000000,0.573216,0.000000,0.343391,1.000000,0.959630,0.934754,0.072169,2.000000
12,0.060979,0.000000,0.944279,0.536390,1.000000,0.000000,0.208903,1.000000,2.000000,0.803593,0.095209,0.236211,1.000000,0.781569,0.791233,0.324625,2.000000
13,0.058826,0.000000,0.776553,0.713861,1.000000,0.000000,0.000000,1.000000,2.000000,0.698653,0.142433,0.701512,1.000000,0.833116,0.719617,0.048931,2.000000
14,0.058826,0.000000,0.776553,0.713861,1.000000,0.000000,0.000000,1.000000,2.000000,0.698653,0.142433,0.701512,1.000000,0.833116,0.719617,0.048931,2.000000
15,0.058826,0.000000,0.776553,0.713861,1.000000,0.000000,0.000000,1.000000,2.000000,0.698653,0.142433,0.701512,1.000000,0.833116,0.719617,0.048931,2.000000
16,0.058826,0.000000,0.776553,0.713861,1.000000,0.000000,0.000000,1.000000,2.000000,0.698653,0.142433,0.701512,1.000000,0.833116,0.719617,0.048931,2.000000
17,0.058826,0.014364,0.776553,0.761771,1.000000,0.048163,0.059382,1.000000,2.000000,0.557959,0.143369,1.000000,1.000000,0.951705,0.705126,0.266851,0.000000
18,0.058397,0.245419,0.462918,0.918866,1.000000,0.009549,0.175506,1.000000,2.000000,0.667994,0.000000,0.822472,1.000000,0.803042,0.828909,0.219600,2.000000
19,0.058152,0.000000,0.753285,0.625790,1.000000,0.000000,0.000000,1.000000,2.000000,0.559589,0.162570,1.000000,1.000000,0.904724,0.777662,0.365820,2.000000
20,0.057512,0.000000,0.685093,0.828127,1.000000,0.000000,0.037284,0.810352,2.000000,0.606232,0.512031,1.000000,1.000000,0.846719,0.869491,0.244679,2.000000
21,0.056763,0.050138,0.570112,0.795662,1.000000,0.153627,0.000000,1.000000,2.000000,0.476424,0.279449,1.000000,1.000000,1.000000,0.630071,0.354456,2.000000
22,0.056763,0.050138,0.570112,0.795662,1.000000,0.153627,0.000000,1.000000,2.000000,0.476424,0.279449,1.000000,1.000000,1.000000,0.630071,0.354456,2.000000
23,0.056763,0.050138,0.570112,0.795662,1.000000,0.153627,0.000000,1.000000,2.000000,0.476424,0.279449,1.000000,1.000000,1.000000,0.630071,0.354456,2.000000
24,0.056763,0.050138,0.570112,0.795662,1.000000,0.153627,0.000000,1.000000,2.000000,0.476424,0.279449,1.000000,1.000000,1.000000,0.630071,0.354456,2.000000
25,0.056763,0.050138,0.570112,0.795662,1.000000,0.153627,0.000000,1.000000,2.000000,0.476424,0.279449,1.000000,1.000000,1.000000,0.630071,0.354456,2.000000
26,0.056763,0.050138,0.570112,0.795662,1.000000,0.153627,0.000000,1.000000,2.000000,0.476424,0.279449,1.000000,1.000000,1.000000,0.630071,0.354456,2.000000
27,0.056593,0.025192,0.482316,0.856080,1.000000,0.255005,0.000000,0.997415,2.000000,0.011442,0.311608,1.000000,1.000000,0.956835,0.557578,0.499262,2.000000
28,0.056405,0.000000,0.741398,1.000000,1.000000,0.000000,0.113516,0.993908,2.000000,0.334203,0.173891,0.843085,1.000000,0.409296,0.433510,0.856056,2.000000
29,0.056103,0.062935,0.271330,0.838234,1.000000,0.007627,0.112454,1.000000,2.000000,0.174555,0.278729,1.000000,1.000000,0.861340,0.446026,0.654243,2.000000
30,0.056103,0.062935,0.271330,0.838234,1.000000,0.007627,0.112454,1.000000,2.000000,0.174555,0.278729,1.000000,1.000000,0.861340,0.446026,0.654243,2.000000
31,0.056103,0.062935,0.271330,0.838234,1.000000,0.007627,0.112454,1.000000,2.000000,0.174555,0.278729,1.000000,1.000000,0.861340,0.446026,0.654243,2.000000
32,0.056103,0.062935,0.271330,0.838234,1.000000,0.007627,0.112454,1.000000,2.000000,0.174555,0.278729,1.000000,1.000000,0.861340,0.446026,0.654243,2.000000
33,0.056103,0.062935,0.271330,0.838234,1.000000,0.007627,0.112454,1.000000,2.000000,0.174555,0.278729,1.000000,1.000000,0.861340,0.446026,0.654243,2.000000
34,0.056055,0.000000,0.298778,0.837788,1.000000,0.097171,0.093912,0.996028,2.000000,0.101717,0.445005,1.000000,1.000000,0.798412,0.566168,0.812325,2.000000
35,0.056055,0.000000,0.298778,0.837788,1.000000,0.097171,0.093912,0.996028,2.000000,0.101717,0.445005,1.000000,1.000000,0.798412,0.566168,0.812325,2.000000
36,0.056055,0.000000,0.298778,0.837788,1.000000,0.097171,0.093912,0.996028,2.000000,0.101717,0.445005,1.000000,1.000000,0.798412,0.566168,0.812325,2.000000
37,0.056055,0.000000,0.298778,0.837788,1.000000,0.097171,0.093912,0.996028,2.000000,0.101717,0.445005,1.000000,1.000000,0.798412,0.566168,0.812325,2.000000
38,0.056055,0.000000,0.298778,0.837788,1.000000,0.097171,0.093912,0.996028,2.000000,0.101717,0.445005,1.000000,1.000000,0.798412,0.566168,0.812325,2.000000
39,0.056055,0.000000,0.298778,0.837788,1.000000,0.097171,0.093912,0.996028,2.000000,0.101717,0.445005,1.000000,1.000000,0.798412,0.566168,0.812325,2.000000
40,0.055912,0.000000,0.217562,0.705966,1.000000,0.079414,0.243659,1.000000,2.000000,0.130344,0.225648,0.977964,1.000000,0.776566,0.579680,0.734952,2.000000
41,0.055912,0.000000,0.217562,0.705966,1.000000,0.079414,0.243659,1.000000,2.000000,0.130344,0.225648,0.977964,1.000000,0.776566,0.579680,0.734952,2.000000
42,0.055720,0.000000,0.677014,0.911134,0.983857,0.000000,0.289453,1.000000,2.000000,0.084590,0.629679,0.945167,1.000000,0.754899,0.566168,0.812325,2.000000
43,0.055720,0.000000,0.677014,0.911134,0.983857,0.000000,0.289453,1.000000,2.000000,0.084590,0.629679,0.945167,1.000000,0.754899,0.566168,0.812325,2.000000
44,0.055720,0.000000,0.677014,0.911134,0.983857,0.000000,0.289453,1.000000,2.000000,0.084590,0.629679,0.945167,1.000000,0.754899,0.566168,0.812325,2.000000
45,0.055588,0.001737,0.298778,0.837788,0.982637,0.000000,0.000000,1.000000,2.000000,0.218617,0.394180,0.989212,1.000000,0.789509,0.466624,0.931771,2.000000
46,0.055588,0.001737,0.298778,0.837788,0.982637,0.000000,0.000000,1.000000,2.000000,0.218617,0.394180,0.989212,1.000000,0.789509,0.466624,0.931771,2.000000
47,0.055588,0.001737,0.298778,0.837788,0.982637,0.000000,0.000000,1.000000,2.000000,0.218617,0.394180,0.989212,1.000000,0.789509,0.466624,0.931771,2.000000
48,0.055588,0.001737,0.298778,0.837788,0.982637,0.000000,0.000000,1.000000,2.000000,0.218617,0.394180,0.989212,1.000000,0.789509,0.466624,0.931771,2.000000
49,0.055588,0.001737,0.298778,0.837788,0.982637,0.000000,0.000000,1.000000,2.000000,0.218617,0.394180,0.989212,1.000000,0.789509,0.466624,0.931771,2.000000
50,0.055588,0.001737,0.298778,0.837788,0.982637,0.000000,0.000000,1.000000,2.000000,0.218617,0.394180,0.989212,1.000000,0.789509,0.466624,0.931771,2.000000
51,0.055588,0.001737,0.298778,0.837788,0.982637,0.000000,0.000000,1.000000,2.000000,0.218617,0.394180,0.989212,1.000000,0.789509,0.466624,0.931771,2.000000
52,0.055588,0.001737,0.298778,0.837788,0.982637,0.000000,0.000000,1.000000,2.000000,0.218617,0.394180,0.989212,1.000000,0.789509,0.466624,0.931771,2.000000
53,0.055588,0.001737,0.298778,0.837788,0.982637,0.000000,0.000000,1.000000,2.000000,0.218617,0.394180,0.989212,1.000000,0.789509,0.466624,0.931771,2.000000
54,0.055588,0.001737,0.298778,0.837788,0.982637,0.000000,0.000000,1.000000,2.000000,0.218617,0.394180,0.989212,1.000000,0.789509,0.466624,0.931771,2.000000
55,0.055588,0.001737,0.298778,0.837788,0.982637,0.000000,0.000000,1.000000,2.000000,0.218617,0.394180,0.989212,1.000000,0.789509,0.466624,0.931771,2.000000
gen, fitness
0,0.032491,0.000000,1.000000,0.210000,0.800000,0.030000,0.030000,1.000000,0.000000,1.000000,0.000000,0.000000,0.600000,1.000000,1.000000,0.000000,0.000000
1,0.032491,0.000000,1.000000,0.210000,0.800000,0.030000,0.030000,1.000000,0.000000,1.000000,0.000000,0.000000,0.600000,1.000000,1.000000,0.000000,0.000000
2,0.016768,0.000000,1.000000,0.266223,0.802800,0.000000,0.096190,0.997945,0.000000,0.956847,0.051066,0.000000,0.753602,1.000000,1.000000,0.000000,2.000000
3,0.014905,0.000000,1.000000,0.318013,0.862326,0.003265,0.030000,0.978624,1.000000,0.865294,0.000000,0.091392,0.758109,0.879307,0.959755,0.000000,0.000000
4,0.008449,0.011112,0.919433,0.289404,0.916957,0.000000,0.227189,0.905943,2.000000,1.000000,0.017112,0.001931,0.867326,0.931990,0.930686,0.342557,0.000000
5,0.007676,0.056303,0.975329,0.289404,0.916957,0.134360,0.450096,0.922825,2.000000,1.000000,0.066855,0.103878,0.867326,0.931990,0.893945,0.381390,2.000000
6,0.004816,0.011112,0.855340,0.289404,1.000000,0.118103,0.114213,0.744256,0.000000,1.000000,0.003002,0.188983,0.932969,0.860038,0.816926,0.232466,2.000000
7,0.004816,0.011112,0.855340,0.289404,1.000000,0.118103,0.114213,0.744256,0.000000,1.000000,0.003002,0.188983,0.932969,0.860038,0.816926,0.232466,2.000000
8,0.003367,0.000000,1.000000,0.561373,1.000000,0.000000,0.000000,0.981610,0.000000,0.797222,0.048488,0.107402,0.988761,0.956069,1.000000,0.061510,2.000000
9,0.003310,0.213671,0.833381,0.446562,1.000000,0.089225,0.288379,0.852060,1.000000,0.750659,0.131448,0.168502,1.000000,0.845947,0.633769,0.387874,2.000000
10,0.003204,0.090511,0.936179,0.614736,1.000000,0.083653,0.091076,0.922918,1.000000,0.797222,0.048488,0.143387,1.000000,0.847936,1.000000,0.000000,2.000000
11,0.002828,0.123632,0.931943,0.661615,1.000000,0.014179,0.113041,0.941992,1.000000,0.961436,0.000000,0.223048,1.000000,1.000000,0.817940,0.498043,2.000000
12,0.002828,0.123632,0.931943,0.661615,1.000000,0.014179,0.113041,0.941992,1.000000,0.961436,0.000000,0.223048,1.000000,1.000000,0.817940,0.498043,2.000000
13,0.002828,0.123632,0.931943,0.661615,1.000000,0.014179,0.113041,0.941992,1.000000,0.961436,0.000000,0.223048,1.000000,1.000000,0.817940,0.498043,2.000000
14,0.002491,0.000000,0.826461,0.603838,1.000000,0.044099,0.160529,1.000000,2.000000,0.783880,0.103754,0.270118,1.000000,0.826245,1.000000,0.396968,2.000000
15,0.002384,0.038048,1.000000,0.783642,1.000000,0.380985,0.136993,0.786295,2.000000,0.797230,0.059269,0.480734,1.000000,0.687715,0.790742,0.279495,2.000000
16,0.002384,0.038048,1.000000,0.783642,1.000000,0.380985,0.136993,0.786295,2.000000,0.797230,0.059269,0.480734,1.000000,0.687715,0.790742,0.279495,2.000000
17,0.002384,0.038048,1.000000,0.783642,1.000000,0.380985,0.136993,0.786295,2.000000,0.797230,0.059269,0.480734,1.000000,0.687715,0.790742,0.279495,2.000000
18,0.002384,0.038048,1.000000,0.783642,1.000000,0.380985,0.136993,0.786295,2.000000,0.797230,0.059269,0.480734,1.000000,0.687715,0.790742,0.279495,2.000000
19,0.002384,0.038048,1.000000,0.783642,1.000000,0.380985,0.136993,0.786295,2.000000,0.797230,0.059269,0.480734,1.000000,0.687715,0.790742,0.279495,2.000000
20,0.002355,0.110426,0.798004,0.587988,1.000000,0.000000,0.000000,1.000000,1.000000,0.554145,0.037308,0.365514,1.000000,0.769938,0.694034,0.719230,2.000000
21,0.002256,0.110426,0.860796,0.733775,1.000000,0.000000,0.000000,1.000000,1.000000,0.694481,0.000000,0.426415,1.000000,0.882303,0.419419,0.713318,2.000000
22,0.002160,0.196353,0.692197,0.848020,0.993668,0.021326,0.000000,0.988612,2.000000,0.831088,0.004805,0.574468,1.000000,0.971824,0.993724,0.510435,2.000000
23,0.002160,0.196353,0.692197,0.848020,0.993668,0.021326,0.000000,0.988612,2.000000,0.831088,0.004805,0.574468,1.000000,0.971824,0.993724,0.510435,2.000000
24,0.002082,0.000000,0.590871,0.645079,1.000000,0.210962,0.094553,0.886668,1.000000,0.251548,0.046594,0.564082,1.000000,0.993311,0.703704,0.580157,2.000000
25,0.002082,0.000000,0.590871,0.645079,1.000000,0.210962,0.094553,0.886668,1.000000,0.251548,0.046594,0.564082,1.000000,0.993311,0.703704,0.580157,2.000000
26,0.002025,0.033852,0.635795,0.976479,1.000000,0.000000,0.000000,0.785875,2.000000,0.866652,0.113623,0.591121,1.000000,0.850382,0.563263,0.578389,2.000000
27,0.002025,0.033852,0.635795,0.976479,1.000000,0.000000,0.000000,0.785875,2.000000,0.866652,0.113623,0.591121,1.000000,0.850382,0.563263,0.578389,2.000000
28,0.002011,0.069514,0.896645,0.759904,1.000000,0.053311,0.000000,0.965344,2.000000,0.694516,0.164138,0.590161,1.000000,0.782332,0.928100,0.703012,2.000000
29,0.002011,0.069514,0.896645,0.759904,1.000000,0.053311,0.000000,0.965344,2.000000,0.694516,0.164138,0.590161,1.000000,0.782332,0.928100,0.703012,2.000000
30,0.001975,0.097172,0.862241,0.743042,1.000000,0.170344,0.241203,1.000000,0.000000,0.218804,0.045312,0.731317,1.000000,0.958603,0.592354,0.845734,2.000000
31,0.001817,0.000000,0.961365,0.708104,1.000000,0.170344,0.160608,0.829168,2.000000,0.325699,0.067203,0.711200,1.000000,1.000000,0.592354,0.889794,2.000000
32,0.001817,0.000000,0.961365,0.708104,1.000000,0.170344,0.160608,0.829168,2.000000,0.325699,0.067203,0.711200,1.000000,1.000000,0.592354,0.889794,2.000000
33,0.001817,0.000000,0.961365,0.708104,1.000000,0.170344,0.160608,0.829168,2.000000,0.325699,0.067203,0.711200,1.000000,1.000000,0.592354,0.889794,2.000000
34,0.001817,0.000000,0.961365,0.708104,1.000000,0.170344,0.160608,0.829168,2.000000,0.325699,0.067203,0.711200,1.000000,1.000000,0.592354,0.889794,2.000000
35,0.001791,0.144053,0.862908,0.588691,1.000000,0.104054,0.320822,1.000000,2.000000,0.172209,0.188794,0.754909,1.000000,0.962763,0.403233,0.887358,2.000000
36,0.001726,0.000000,0.993428,0.807374,1.000000,0.118041,0.259365,0.810714,2.000000,0.280481,0.318103,0.967567,1.000000,0.892624,0.777159,0.943408,2.000000
37,0.001685,0.000000,0.954793,0.811255,1.000000,0.061491,0.000000,0.662620,1.000000,0.196300,0.113388,1.000000,1.000000,1.000000,0.452395,1.000000,2.000000
38,0.001685,0.000000,0.954793,0.811255,1.000000,0.061491,0.000000,0.662620,1.000000,0.196300,0.113388,1.000000,1.000000,1.000000,0.452395,1.000000,2.000000
39,0.001557,0.003256,0.937582,0.699021,1.000000,0.000000,0.171828,0.822242,2.000000,0.105521,0.075827,1.000000,1.000000,0.932815,0.556929,0.815304,2.000000
40,0.001557,0.003256,0.937582,0.699021,1.000000,0.000000,0.171828,0.822242,2.000000,0.105521,0.075827,1.000000,1.000000,0.932815,0.556929,0.815304,2.000000
41,0.001557,0.003256,0.937582,0.699021,1.000000,0.000000,0.171828,0.822242,2.000000,0.105521,0.075827,1.000000,1.000000,0.932815,0.556929,0.815304,2.000000
42,0.001557,0.003256,0.937582,0.699021,1.000000,0.000000,0.171828,0.822242,2.000000,0.105521,0.075827,1.000000,1.000000,0.932815,0.556929,0.815304,2.000000
43,0.001539,0.000000,0.937770,0.917344,1.000000,0.236197,0.000000,1.000000,2.000000,0.407543,0.080463,1.000000,1.000000,0.909892,0.510123,0.956074,2.000000
44,0.001539,0.000000,0.937770,0.917344,1.000000,0.236197,0.000000,1.000000,2.000000,0.407543,0.080463,1.000000,1.000000,0.909892,0.510123,0.956074,2.000000
45,0.001539,0.000000,0.937770,0.917344,1.000000,0.236197,0.000000,1.000000,2.000000,0.407543,0.080463,1.000000,1.000000,0.909892,0.510123,0.956074,2.000000
46,0.001539,0.000000,0.937770,0.917344,1.000000,0.236197,0.000000,1.000000,2.000000,0.407543,0.080463,1.000000,1.000000,0.909892,0.510123,0.956074,2.000000
47,0.001539,0.000000,0.937770,0.917344,1.000000,0.236197,0.000000,1.000000,2.000000,0.407543,0.080463,1.000000,1.000000,0.909892,0.510123,0.956074,2.000000
48,0.001539,0.000000,0.937770,0.917344,1.000000,0.236197,0.000000,1.000000,2.000000,0.407543,0.080463,1.000000,1.000000,0.909892,0.510123,0.956074,2.000000
49,0.001539,0.000000,0.937770,0.917344,1.000000,0.236197,0.000000,1.000000,2.000000,0.407543,0.080463,1.000000,1.000000,0.909892,0.510123,0.956074,2.000000
50,0.001539,0.000000,0.937770,0.917344,1.000000,0.236197,0.000000,1.000000,2.000000,0.407543,0.080463,1.000000,1.000000,0.909892,0.510123,0.956074,2.000000
51,0.001488,0.000000,1.000000,0.665252,1.000000,0.000000,0.000000,1.000000,2.000000,0.087567,0.000000,0.922294,1.000000,0.991517,0.442691,0.810202,2.000000
52,0.001488,0.000000,1.000000,0.665252,1.000000,0.000000,0.000000,1.000000,2.000000,0.087567,0.000000,0.922294,1.000000,0.991517,0.442691,0.810202,2.000000
53,0.001488,0.000000,1.000000,0.665252,1.000000,0.000000,0.000000,1.000000,2.000000,0.087567,0.000000,0.922294,1.000000,0.991517,0.442691,0.810202,2.000000
54,0.001488,0.000000,1.000000,0.665252,1.000000,0.000000,0.000000,1.000000,2.000000,0.087567,0.000000,0.922294,1.000000,0.991517,0.442691,0.810202,2.000000
55,0.001488,0.000000,1.000000,0.665252,1.000000,0.000000,0.000000,1.000000,2.000000,0.087567,0.000000,0.922294,1.000000,0.991517,0.442691,0.810202,2.000000
56,0.001488,0.000000,1.000000,0.665252,1.000000,0.000000,0.000000,1.000000,2.000000,0.087567,0.000000,0.922294,1.000000,0.991517,0.442691,0.810202,2.000000
57,0.001488,0.000000,1.000000,0.665252,1.000000,0.000000,0.000000,1.000000,2.000000,0.087567,0.000000,0.922294,1.000000,0.991517,0.442691,0.810202,2.000000
58,0.001480,0.000000,1.000000,0.753485,1.000000,0.000000,0.176915,1.000000,2.000000,0.175898,0.179122,1.000000,1.000000,0.914523,0.548101,1.000000,2.000000
59,0.001480,0.000000,1.000000,0.753485,1.000000,0.000000,0.176915,1.000000,2.000000,0.175898,0.179122,1.000000,1.000000,0.914523,0.548101,1.000000,2.000000
60,0.001480,0.000000,1.000000,0.753485,1.000000,0.000000,0.176915,1.000000,2.000000,0.175898,0.179122,1.000000,1.000000,0.914523,0.548101,1.000000,2.000000
61,0.001480,0.000000,1.000000,0.753485,1.000000,0.000000,0.176915,1.000000,2.000000,0.175898,0.179122,1.000000,1.000000,0.914523,0.548101,1.000000,2.000000
gen, fitness
0,0.074963,0.000000,1.000000,0.210000,0.800000,0.030000,0.030000,1.000000,0.000000,1.000000,0.000000,0.000000,0.600000,1.000000,1.000000,0.000000,0.000000
1,0.074963,0.000000,1.000000,0.210000,0.800000,0.030000,0.030000,1.000000,0.000000,1.000000,0.000000,0.000000,0.600000,1.000000,1.000000,0.000000,0.000000
2,0.051263,0.000000,1.000000,0.383900,0.772773,0.045473,0.000000,0.990575,0.000000,1.000000,0.000000,0.000000,0.771080,0.792031,1.000000,0.000000,2.000000
3,0.045328,0.000000,1.000000,0.383900,0.772773,0.045473,0.071532,0.990575,2.000000,0.875798,0.000000,0.000000,0.807203,0.631395,1.000000,0.000000,1.000000
4,0.034437,0.000000,0.820628,0.145662,0.947736,0.000000,0.000000,0.840556,1.000000,1.000000,0.000000,0.013004,0.918735,0.983459,0.897883,0.083255,1.000000
5,0.027935,0.000000,1.000000,0.430987,1.000000,0.103045,0.116679,1.000000,1.000000,0.664135,0.000000,0.111705,0.943565,0.652846,0.903759,0.061810,2.000000
6,0.019320,0.016484,0.821725,0.502566,1.000000,0.030571,0.000000,1.000000,2.000000,1.000000,0.000000,0.158556,1.000000,1.000000,0.880752,0.080481,0.000000
7,0.018366,0.000000,0.900908,0.500007,1.000000,0.125204,0.193341,0.939286,2.000000,0.703179,0.053862,0.088041,1.000000,0.638184,0.849323,0.082512,1.000000
8,0.017291,0.123217,0.851347,0.433175,1.000000,0.000000,0.001860,0.909884,2.000000,0.671361,0.163490,0.308701,1.000000,0.556336,0.776195,0.107401,2.000000
9,0.016904,0.000000,0.985907,0.678359,1.000000,0.207694,0.007342,0.872957,1.000000,0.448458,0.152818,0.281655,0.994877,0.461940,0.706962,0.000000,1.000000
10,0.015641,0.000000,0.993155,0.660930,1.000000,0.149777,0.003321,0.990113,1.000000,0.448458,0.202510,0.321351,1.000000,0.461940,0.809509,0.044360,2.000000
11,0.015468,0.000000,0.797992,0.660930,1.000000,0.113728,0.024040,0.990113,1.000000,0.465056,0.281216,0.436072,1.000000,0.520152,0.754356,0.018017,1.000000
12,0.014352,0.044222,0.862650,0.963675,0.989641,0.221213,0.106610,1.000000,2.000000,0.836829,0.131089,0.456423,1.000000,0.862958,0.773439,0.000000,0.000000
13,0.014352,0.044222,0.862650,0.963675,0.989641,0.221213,0.106610,1.000000,2.000000,0.836829,0.131089,0.456423,1.000000,0.862958,0.773439,0.000000,0.000000
14,0.014352,0.044222,0.862650,0.963675,0.989641,0.221213,0.106610,1.000000,2.000000,0.836829,0.131089,0.456423,1.000000,0.862958,0.773439,0.000000,0.000000
15,0.014352,0.044222,0.862650,0.963675,0.989641,0.221213,0.106610,1.000000,2.000000,0.836829,0.131089,0.456423,1.000000,0.862958,0.773439,0.000000,0.000000
16,0.013854,0.041304,0.802203,1.000000,1.000000,0.054885,0.065255,0.942077,1.000000,0.727746,0.170622,0.577285,1.000000,1.000000,0.743936,0.130608,2.000000
17,0.013300,0.000000,0.824188,0.753262,1.000000,0.000000,0.090079,0.841340,2.000000,0.195974,0.100311,0.617167,1.000000,0.673302,0.508124,0.024907,2.000000
18,0.013188,0.041178,0.706855,0.969911,1.000000,0.000000,0.062423,0.881274,2.000000,0.642679,0.180968,0.846082,1.000000,0.973550,0.739529,0.153226,1.000000
19,0.013033,0.000000,0.802203,1.000000,1.000000,0.000000,0.027041,1.000000,2.000000,0.727746,0.170622,0.632452,1.000000,1.000000,0.661589,0.136310,2.000000
20,0.012313,0.000000,0.811512,0.816340,1.000000,0.000000,0.019194,0.994056,2.000000,0.000000,0.270951,0.730440,1.000000,0.759352,0.402812,0.000000,2.000000
21,0.012313,0.000000,0.811512,0.816340,1.000000,0.000000,0.019194,0.994056,2.000000,0.000000,0.270951,0.730440,1.000000,0.759352,0.402812,0.000000,2.000000
22,0.012313,0.000000,0.811512,0.816340,1.000000,0.000000,0.019194,0.994056,2.000000,0.000000,0.270951,0.730440,1.000000,0.759352,0.402812,0.000000,2.000000
23,0.012313,0.000000,0.811512,0.816340,1.000000,0.000000,0.019194,0.994056,2.000000,0.000000,0.270951,0.730440,1.000000,0.759352,0.402812,0.000000,2.000000
24,0.011474,0.211300,0.840790,1.000000,0.964089,0.234371,0.335573,1.000000,2.000000,0.123681,0.078288,0.668363,1.000000,0.636855,0.427364,0.321226,1.000000
25,0.011456,0.099026,0.701880,1.000000,0.982303,0.203381,0.403396,1.000000,1.000000,0.000000,0.000000,0.731950,1.000000,0.810044,0.278089,0.253041,2.000000
26,0.011456,0.099026,0.701880,1.000000,0.982303,0.203381,0.403396,1.000000,1.000000,0.000000,0.000000,0.731950,1.000000,0.810044,0.278089,0.253041,2.000000
27,0.011456,0.099026,0.701880,1.000000,0.982303,0.203381,0.403396,1.000000,1.000000,0.000000,0.000000,0.731950,1.000000,0.810044,0.278089,0.253041,2.000000
28,0.011456,0.099026,0.701880,1.000000,0.982303,0.203381,0.403396,1.000000,1.000000,0.000000,0.000000,0.731950,1.000000,0.810044,0.278089,0.253041,2.000000
29,0.010915,0.000000,0.471147,1.000000,0.983388,0.355453,0.320912,1.000000,2.000000,0.000000,0.000000,0.862908,1.000000,0.545153,0.171486,0.223818,0.000000
30,0.010915,0.000000,0.471147,1.000000,0.983388,0.355453,0.320912,1.000000,2.000000,0.000000,0.000000,0.862908,1.000000,0.545153,0.171486,0.223818,0.000000
31,0.010915,0.000000,0.471147,1.000000,0.983388,0.355453,0.320912,1.000000,2.000000,0.000000,0.000000,0.862908,1.000000,0.545153,0.171486,0.223818,0.000000
32,0.010915,0.000000,0.471147,1.000000,0.983388,0.355453,0.320912,1.000000,2.000000,0.000000,0.000000,0.862908,1.000000,0.545153,0.171486,0.223818,0.000000
33,0.010855,0.052547,0.729759,1.000000,0.974030,0.185497,0.300216,1.000000,2.000000,0.000000,0.000000,0.719296,1.000000,0.784009,0.246271,0.205730,2.000000
34,0.010855,0.052547,0.729759,1.000000,0.974030,0.185497,0.300216,1.000000,2.000000,0.000000,0.000000,0.719296,1.000000,0.784009,0.246271,0.205730,2.000000
35,0.010832,0.040735,0.471147,1.000000,0.983388,0.503824,0.320912,0.944657,2.000000,0.000000,0.005663,0.862908,1.000000,0.545153,0.070924,0.229601,2.000000
36,0.010832,0.040735,0.471147,1.000000,0.983388,0.503824,0.320912,0.944657,2.000000,0.000000,0.005663,0.862908,1.000000,0.545153,0.070924,0.229601,2.000000
37,0.010832,0.040735,0.471147,1.000000,0.983388,0.503824,0.320912,0.944657,2.000000,0.000000,0.005663,0.862908,1.000000,0.545153,0.070924,0.229601,2.000000
38,0.010832,0.040735,0.471147,1.000000,0.983388,0.503824,0.320912,0.944657,2.000000,0.000000,0.005663,0.862908,1.000000,0.545153,0.070924,0.229601,2.000000
39,0.010832,0.040735,0.471147,1.000000,0.983388,0.503824,0.320912,0.944657,2.000000,0.000000,0.005663,0.862908,1.000000,0.545153,0.070924,0.229601,2.000000
40,0.010832,0.040735,0.471147,1.000000,0.983388,0.503824,0.320912,0.944657,2.000000,0.000000,0.005663,0.862908,1.000000,0.545153,0.070924,0.229601,2.000000
41,0.010832,0.040735,0.471147,1.000000,0.983388,0.503824,0.320912,0.944657,2.000000,0.000000,0.005663,0.862908,1.000000,0.545153,0.070924,0.229601,2.000000
42,0.010832,0.040735,0.471147,1.000000,0.983388,0.503824,0.320912,0.944657,2.000000,0.000000,0.005663,0.862908,1.000000,0.545153,0.070924,0.229601,2.000000
43,0.010832,0.040735,0.471147,1.000000,0.983388,0.503824,0.320912,0.944657,2.000000,0.000000,0.005663,0.862908,1.000000,0.545153,0.070924,0.229601,2.000000
44,0.010832,0.040735,0.471147,1.000000,0.983388,0.503824,0.320912,0.944657,2.000000,0.000000,0.005663,0.862908,1.000000,0.545153,0.070924,0.229601,2.000000
45,0.010832,0.040735,0.471147,1.000000,0.983388,0.503824,0.320912,0.944657,2.000000,0.000000,0.005663,0.862908,1.000000,0.545153,0.070924,0.229601,2.000000
gen, fitness
0,0.169504,0.000000,1.000000,0.210000,0.800000,0.030000,0.030000,1.000000,0.000000,1.000000,0.000000,0.000000,0.600000,1.000000,1.000000,0.000000,0.000000
1,0.169504,0.000000,1.000000,0.210000,0.800000,0.030000,0.030000,1.000000,0.000000,1.000000,0.000000,0.000000,0.600000,1.000000,1.000000,0.000000,0.000000
2,0.112291,0.066797,0.937384,0.164365,0.832882,0.030000,0.069440,0.918307,2.000000,0.974635,0.000000,0.194633,0.851557,1.000000,0.888768,0.133128,0.000000
3,0.105193,0.066797,0.937384,0.263417,0.832882,0.000000,0.099299,0.951374,1.000000,0.799231,0.111907,0.317014,0.851557,1.000000,1.000000,0.133128,1.000000
4,0.090127,0.004974,0.792603,0.131898,0.959556,0.069402,0.253880,0.833092,0.000000,1.000000,0.000000,0.246000,0.856072,1.000000,0.888768,0.193921,2.000000
5,0.070498,0.010817,0.859729,0.309117,1.000000,0.113521,0.017012,1.000000,1.000000,0.995680,0.111907,0.520800,0.982261,1.000000,0.947571,0.311195,2.000000
6,0.070498,0.010817,0.859729,0.309117,1.000000,0.113521,0.017012,1.000000,1.000000,0.995680,0.111907,0.520800,0.982261,1.000000,0.947571,0.311195,2.000000
7,0.069014,0.046486,0.742639,0.309117,1.000000,0.175687,0.064371,0.945280,0.000000,1.000000,0.135449,0.706189,1.000000,0.983303,1.000000,0.455142,2.000000
8,0.067149,0.000000,0.742639,0.291911,1.000000,0.182787,0.064371,0.945280,2.000000,1.000000,0.221153,0.671245,1.000000,0.917642,0.892279,0.455142,2.000000
9,0.066850,0.048286,0.911148,0.286107,1.000000,0.175687,0.044821,0.878030,2.000000,1.000000,0.031804,0.706189,1.000000,1.000000,0.937057,0.347997,2.000000
10,0.066669,0.064725,0.795870,0.189035,1.000000,0.276054,0.000000,1.000000,2.000000,1.000000,0.147051,0.619952,1.000000,1.000000,0.943802,0.311195,2.000000
11,0.063105,0.091795,0.685768,0.052058,1.000000,0.176188,0.000000,0.820161,2.000000,0.935295,0.191105,0.700105,0.953094,1.000000,1.000000,0.660291,2.000000
12,0.063105,0.091795,0.685768,0.052058,1.000000,0.176188,0.000000,0.820161,2.000000,0.935295,0.191105,0.700105,0.953094,1.000000,1.000000,0.660291,2.000000
13,0.062756,0.207347,0.996446,0.013742,1.000000,0.195165,0.000000,1.000000,2.000000,0.960351,0.151981,0.837522,1.000000,0.940787,0.909156,0.258360,2.000000
14,0.059787,0.000000,0.411829,0.000000,0.996507,0.256803,0.033365,0.894567,2.000000,0.924560,0.153202,0.921005,0.950153,1.000000,1.000000,0.918960,2.000000
15,0.059027,0.013065,0.993736,0.000000,1.000000,0.036754,0.000000,0.930496,2.000000,1.000000,0.112160,0.901035,0.945552,1.000000,1.000000,0.490696,2.000000
16,0.059027,0.013065,0.993736,0.000000,1.000000,0.036754,0.000000,0.930496,2.000000,1.000000,0.112160,0.901035,0.945552,1.000000,1.000000,0.490696,2.000000
17,0.059027,0.013065,0.993736,0.000000,1.000000,0.036754,0.000000,0.930496,2.000000,1.000000,0.112160,0.901035,0.945552,1.000000,1.000000,0.490696,2.000000
18,0.059027,0.013065,0.993736,0.000000,1.000000,0.036754,0.000000,0.930496,2.000000,1.000000,0.112160,0.901035,0.945552,1.000000,1.000000,0.490696,2.000000
19,0.059027,0.013065,0.993736,0.000000,1.000000,0.036754,0.000000,0.930496,2.000000,1.000000,0.112160,0.901035,0.945552,1.000000,1.000000,0.490696,2.000000
20,0.059027,0.013065,0.993736,0.000000,1.000000,0.036754,0.000000,0.930496,2.000000,1.000000,0.112160,0.901035,0.945552,1.000000,1.000000,0.490696,2.000000
21,0.059027,0.013065,0.993736,0.000000,1.000000,0.036754,0.000000,0.930496,2.000000,1.000000,0.112160,0.901035,0.945552,1.000000,1.000000,0.490696,2.000000
22,0.058929,0.000000,0.986774,0.000000,1.000000,0.000000,0.000000,0.821364,2.000000,1.000000,0.234433,0.914187,0.945552,1.000000,1.000000,0.410595,2.000000
23,0.058929,0.000000,0.986774,0.000000,1.000000,0.000000,0.000000,0.821364,2.000000,1.000000,0.234433,0.914187,0.945552,1.000000,1.000000,0.410595,2.000000
24,0.058929,0.000000,0.986774,0.000000,1.000000,0.000000,0.000000,0.821364,2.000000,1.000000,0.234433,0.914187,0.945552,1.000000,1.000000,0.410595,2.000000
25,0.058929,0.000000,0.986774,0.000000,1.000000,0.000000,0.000000,0.821364,2.000000,1.000000,0.234433,0.914187,0.945552,1.000000,1.000000,0.410595,2.000000
26,0.058929,0.000000,0.986774,0.000000,1.000000,0.000000,0.000000,0.821364,2.000000,1.000000,0.234433,0.914187,0.945552,1.000000,1.000000,0.410595,2.000000
27,0.058929,0.000000,0.986774,0.000000,1.000000,0.000000,0.000000,0.821364,2.000000,1.000000,0.234433,0.914187,0.945552,1.000000,1.000000,0.410595,2.000000
28,0.058929,0.000000,0.986774,0.000000,1.000000,0.000000,0.000000,0.821364,2.000000,1.000000,0.234433,0.914187,0.945552,1.000000,1.000000,0.410595,2.000000
29,0.058929,0.000000,0.986774,0.000000,1.000000,0.000000,0.000000,0.821364,2.000000,1.000000,0.234433,0.914187,0.945552,1.000000,1.000000,0.410595,2.000000
30,0.058929,0.000000,0.986774,0.000000,1.000000,0.000000,0.000000,0.821364,2.000000,1.000000,0.234433,0.914187,0.945552,1.000000,1.000000,0.410595,2.000000
31,0.058929,0.000000,0.986774,0.000000,1.000000,0.000000,0.000000,0.821364,2.000000,1.000000,0.234433,0.914187,0.945552,1.000000,1.000000,0.410595,2.000000
32,0.058929,0.000000,0.986774,0.000000,1.000000,0.000000,0.000000,0.821364,2.000000,1.000000,0.234433,0.914187,0.945552,1.000000,1.000000,0.410595,2.000000
gen, fitness
0,0.081164,0.000000,1.000000,0.210000,0.800000,0.030000,0.030000,1.000000,0.000000,1.000000,0.000000,0.000000,0.600000,1.000000,1.000000,0.000000,0.000000
1,0.081164,0.000000,1.000000,0.210000,0.800000,0.030000,0.030000,1.000000,0.000000,1.000000,0.000000,0.000000,0.600000,1.000000,1.000000,0.000000,0.000000
2,0.051565,0.000000,1.000000,0.235191,0.806796,0.000000,0.022309,1.000000,1.000000,1.000000,0.000000,0.028009,0.769997,1.000000,1.000000,0.127838,0.000000
3,0.038521,0.091862,1.000000,0.379455,0.833719,0.295003,0.000000,1.000000,2.000000,0.724715,0.039545,0.062152,0.843517,0.924673,0.920447,0.000000,0.000000
4,0.036482,0.000000,1.000000,0.315004,0.895186,0.000000,0.008495,0.835788,2.000000,0.975303,0.000000,0.019440,0.847062,1.000000,1.000000,0.226815,0.000000
5,0.025284,0.000000,1.000000,0.315004,0.960471,0.000000,0.000000,0.835788,1.000000,0.846044,0.019014,0.019440,0.984085,1.000000,1.000000,0.226815,2.000000
6,0.021063,0.000000,1.000000,0.159023,1.000000,0.000000,0.000000,0.795886,2.000000,0.884306,0.067642,0.213732,0.977591,0.909629,0.478442,0.075722,2.000000
7,0.021063,0.000000,1.000000,0.159023,1.000000,0.000000,0.000000,0.795886,2.000000,0.884306,0.067642,0.213732,0.977591,0.909629,0.478442,0.075722,2.000000
8,0.020927,0.000000,0.933643,0.360382,1.000000,0.094969,0.029290,0.650846,2.000000,0.996330,0.000000,0.226924,1.000000,0.945008,0.253678,0.040563,2.000000
9,0.020927,0.000000,0.933643,0.360382,1.000000,0.094969,0.029290,0.650846,2.000000,0.996330,0.000000,0.226924,1.000000,0.945008,0.253678,0.040563,2.000000
10,0.019970,0.000000,0.955991,0.526049,1.000000,0.450194,0.000000,0.889235,2.000000,0.632210,0.066455,0.421595,1.000000,0.936904,0.494612,0.214551,2.000000
11,0.019870,0.349217,0.655465,0.501066,1.000000,0.000000,0.000000,0.964561,2.000000,0.710480,0.017416,0.585728,1.000000,0.707585,0.000000,0.103960,2.000000
12,0.019644,0.353255,0.509146,0.316478,1.000000,0.000000,0.000000,0.866461,1.000000,0.716395,0.017416,0.585728,1.000000,1.000000,0.688900,0.301189,2.000000
13,0.018767,0.103522,0.554599,0.340489,1.000000,0.000000,0.074738,0.866461,1.000000,0.424562,0.017416,0.692073,1.000000,1.000000,0.722423,0.264914,2.000000
14,0.018767,0.103522,0.554599,0.340489,1.000000,0.000000,0.074738,0.866461,1.000000,0.424562,0.017416,0.692073,1.000000,1.000000,0.722423,0.264914,2.000000
15,0.018644,0.054953,0.424853,0.398875,1.000000,0.084644,0.000000,0.747724,2.000000,0.395352,0.053408,0.775333,1.000000,0.827649,0.830649,0.453385,1.000000
16,0.018531,0.192457,1.000000,0.573924,1.000000,0.000000,0.000000,0.931903,2.000000,0.879232,0.082211,0.611338,1.000000,0.937235,0.598725,0.424142,2.000000
17,0.018097,0.141527,0.371858,0.486342,1.000000,0.000000,0.055270,1.000000,2.000000,0.758701,0.058740,0.812522,1.000000,1.000000,0.593420,0.208297,2.000000
18,0.017948,0.171988,0.366853,0.177989,1.000000,0.200749,0.000000,0.885158,2.000000,0.408222,0.053408,0.990252,1.000000,0.698715,1.000000,0.672726,2.000000
19,0.017583,0.054953,0.450322,0.457915,1.000000,0.084644,0.000000,0.747724,2.000000,0.551663,0.033266,0.796088,1.000000,0.918902,0.929835,0.452221,2.000000
20,0.017583,0.054953,0.450322,0.457915,1.000000,0.084644,0.000000,0.747724,2.000000,0.551663,0.033266,0.796088,1.000000,0.918902,0.929835,0.452221,2.000000
21,0.017422,0.057756,0.558210,0.457915,1.000000,0.093400,0.033608,0.906579,2.000000,0.651521,0.000000,0.939297,1.000000,0.918902,0.929835,0.452221,2.000000
22,0.017422,0.057756,0.558210,0.457915,1.000000,0.093400,0.033608,0.906579,2.000000,0.651521,0.000000,0.939297,1.000000,0.918902,0.929835,0.452221,2.000000
23,0.017252,0.202065,0.253721,0.313118,1.000000,0.220645,0.024477,0.885158,2.000000,0.406439,0.176981,0.974995,1.000000,0.698715,1.000000,0.709728,2.000000
24,0.017187,0.274667,0.504430,0.250264,1.000000,0.092520,0.016713,0.885158,2.000000,0.408222,0.210608,0.990252,1.000000,0.663898,0.979517,0.761724,2.000000
25,0.016894,0.101851,0.203553,0.533822,1.000000,0.042401,0.000000,1.000000,2.000000,0.629905,0.170180,1.000000,1.000000,0.921099,0.847638,0.689261,2.000000
26,0.016894,0.101851,0.203553,0.533822,1.000000,0.042401,0.000000,1.000000,2.000000,0.629905,0.170180,1.000000,1.000000,0.921099,0.847638,0.689261,2.000000
27,0.016894,0.101851,0.203553,0.533822,1.000000,0.042401,0.000000,1.000000,2.000000,0.629905,0.170180,1.000000,1.000000,0.921099,0.847638,0.689261,2.000000
28,0.016894,0.101851,0.203553,0.533822,1.000000,0.042401,0.000000,1.000000,2.000000,0.629905,0.170180,1.000000,1.000000,0.921099,0.847638,0.689261,2.000000
29,0.016894,0.101851,0.203553,0.533822,1.000000,0.042401,0.000000,1.000000,2.000000,0.629905,0.170180,1.000000,1.000000,0.921099,0.847638,0.689261,2.000000
30,0.016894,0.101851,0.203553,0.533822,1.000000,0.042401,0.000000,1.000000,2.000000,0.629905,0.170180,1.000000,1.000000,0.921099,0.847638,0.689261,2.000000
31,0.016894,0.101851,0.203553,0.533822,1.000000,0.042401,0.000000,1.000000,2.000000,0.629905,0.170180,1.000000,1.000000,0.921099,0.847638,0.689261,2.000000
32,0.016894,0.101851,0.203553,0.533822,1.000000,0.042401,0.000000,1.000000,2.000000,0.629905,0.170180,1.000000,1.000000,0.921099,0.847638,0.689261,2.000000
33,0.016894,0.101851,0.203553,0.533822,1.000000,0.042401,0.000000,1.000000,2.000000,0.629905,0.170180,1.000000,1.000000,0.921099,0.847638,0.689261,2.000000
34,0.016894,0.101851,0.203553,0.533822,1.000000,0.042401,0.000000,1.000000,2.000000,0.629905,0.170180,1.000000,1.000000,0.921099,0.847638,0.689261,2.000000
35,0.016894,0.101851,0.203553,0.533822,1.000000,0.042401,0.000000,1.000000,2.000000,0.629905,0.170180,1.000000,1.000000,0.921099,0.847638,0.689261,2.000000
gen, fitness
0,0.045024,0.000000,1.000000,0.210000,0.800000,0.030000,0.030000,1.000000,0.000000,1.000000,0.000000,0.000000,0.600000,1.000000,1.000000,0.000000,0.000000
1,0.045024,0.000000,1.000000,0.210000,0.800000,0.030000,0.030000,1.000000,0.000000,1.000000,0.000000,0.000000,0.600000,1.000000,1.000000,0.000000,0.000000
2,0.015445,0.000000,1.000000,0.210000,0.869548,0.000000,0.000000,0.903630,2.000000,1.000000,0.052069,0.000000,0.813249,1.000000,1.000000,0.000000,2.000000
3,0.015350,0.000000,1.000000,0.290787,0.869548,0.000000,0.000000,0.919574,2.000000,0.914919,0.048134,0.231429,0.830719,0.964138,1.000000,0.000000,1.000000
4,0.014133,0.000000,1.000000,0.297674,0.869548,0.053874,0.000000,0.843053,0.000000,0.693206,0.000000,0.172966,0.830719,1.000000,1.000000,0.000000,0.000000
5,0.008375,0.000000,0.949688,0.209757,1.000000,0.000000,0.142784,0.892647,2.000000,0.980352,0.047500,0.216176,1.000000,0.968758,1.000000,0.034673,2.000000
6,0.006237,0.000000,1.000000,0.272191,1.000000,0.000000,0.000000,0.892647,2.000000,0.980352,0.047500,0.017821,1.000000,0.968758,1.000000,0.070726,1.000000
7,0.005227,0.000000,1.000000,0.272191,1.000000,0.074725,0.000000,0.815984,2.000000,0.448716,0.082652,0.154245,1.000000,1.000000,1.000000,0.084194,1.000000
8,0.005227,0.000000,1.000000,0.272191,1.000000,0.074725,0.000000,0.815984,2.000000,0.448716,0.082652,0.154245,1.000000,1.000000,1.000000,0.084194,1.000000
9,0.004598,0.020288,1.000000,0.432234,1.000000,0.143891,0.148873,0.846938,0.000000,0.422320,0.000000,0.298858,1.000000,0.972077,0.895491,0.002970,2.000000
10,0.004598,0.020288,1.000000,0.432234,1.000000,0.143891,0.148873,0.846938,0.000000,0.422320,0.000000,0.298858,1.000000,0.972077,0.895491,0.002970,2.000000
11,0.004551,0.000000,0.799656,0.676877,1.000000,0.000000,0.064116,0.933238,0.000000,0.947054,0.032915,0.194495,1.000000,0.749212,0.844328,0.544064,2.000000
12,0.003998,0.070941,0.955173,0.509490,1.000000,0.163280,0.000000,1.000000,2.000000,0.521348,0.000000,0.424832,1.000000,0.665864,0.963818,0.068722,2.000000
13,0.003998,0.070941,0.955173,0.509490,1.000000,0.163280,0.000000,1.000000,2.000000,0.521348,0.000000,0.424832,1.000000,0.665864,0.963818,0.068722,2.000000
14,0.003998,0.070941,0.955173,0.509490,1.000000,0.163280,0.000000,1.000000,2.000000,0.521348,0.000000,0.424832,1.000000,0.665864,0.963818,0.068722,2.000000
15,0.003724,0.320367,0.899329,0.530682,1.000000,0.143529,0.204133,0.866537,1.000000,0.320263,0.000000,0.932661,1.000000,0.685708,0.892837,0.287693,2.000000
16,0.003298,0.249456,0.970545,0.530682,1.000000,0.176158,0.321499,0.938395,2.000000,0.241544,0.000000,1.000000,1.000000,0.911628,0.886501,0.287693,2.000000
17,0.003298,0.249456,0.970545,0.530682,1.000000,0.176158,0.321499,0.938395,2.000000,0.241544,0.000000,1.000000,1.000000,0.911628,0.886501,0.287693,2.000000
18,0.003233,0.164179,0.932771,0.569899,1.000000,0.048812,0.177152,0.991131,2.000000,0.347041,0.112402,1.000000,1.000000,0.849478,0.953911,0.316039,2.000000
19,0.003233,0.164179,0.932771,0.569899,1.000000,0.048812,0.177152,0.991131,2.000000,0.347041,0.112402,1.000000,1.000000,0.849478,0.953911,0.316039,2.000000
20,0.003233,0.164179,0.932771,0.569899,1.000000,0.048812,0.177152,0.991131,2.000000,0.347041,0.112402,1.000000,1.000000,0.849478,0.953911,0.316039,2.000000
21,0.003233,0.164179,0.932771,0.569899,1.000000,0.048812,0.177152,0.991131,2.000000,0.347041,0.112402,1.000000,1.000000,0.849478,0.953911,0.316039,2.000000
22,0.003079,0.000000,0.921645,0.762951,1.000000,0.204582,0.046383,0.831831,2.000000,0.401177,0.027828,0.969437,1.000000,0.971304,0.731052,0.563742,2.000000
23,0.003079,0.000000,0.921645,0.762951,1.000000,0.204582,0.046383,0.831831,2.000000,0.401177,0.027828,0.969437,1.000000,0.971304,0.731052,0.563742,2.000000
24,0.003079,0.000000,0.921645,0.762951,1.000000,0.204582,0.046383,0.831831,2.000000,0.401177,0.027828,0.969437,1.000000,0.971304,0.731052,0.563742,2.000000
25,0.003079,0.000000,0.921645,0.762951,1.000000,0.204582,0.046383,0.831831,2.000000,0.401177,0.027828,0.969437,1.000000,0.971304,0.731052,0.563742,2.000000
26,0.003079,0.000000,0.921645,0.762951,1.000000,0.204582,0.046383,0.831831,2.000000,0.401177,0.027828,0.969437,1.000000,0.971304,0.731052,0.563742,2.000000
27,0.003079,0.000000,0.921645,0.762951,1.000000,0.204582,0.046383,0.831831,2.000000,0.401177,0.027828,0.969437,1.000000,0.971304,0.731052,0.563742,2.000000
28,0.003079,0.000000,0.921645,0.762951,1.000000,0.204582,0.046383,0.831831,2.000000,0.401177,0.027828,0.969437,1.000000,0.971304,0.731052,0.563742,2.000000
29,0.003079,0.000000,0.921645,0.762951,1.000000,0.204582,0.046383,0.831831,2.000000,0.401177,0.027828,0.969437,1.000000,0.971304,0.731052,0.563742,2.000000
30,0.003079,0.000000,0.921645,0.762951,1.000000,0.204582,0.046383,0.831831,2.000000,0.401177,0.027828,0.969437,1.000000,0.971304,0.731052,0.563742,2.000000
31,0.003079,0.000000,0.921645,0.762951,1.000000,0.204582,0.046383,0.831831,2.000000,0.401177,0.027828,0.969437,1.000000,0.971304,0.731052,0.563742,2.000000
32,0.003079,0.000000,0.921645,0.762951,1.000000,0.204582,0.046383,0.831831,2.000000,0.401177,0.027828,0.969437,1.000000,0.971304,0.731052,0.563742,2.000000
gen, fitness
0,0.032391,0.000000,1.000000,0.210000,0.800000,0.030000,0.030000,1.000000,0.000000,1.000000,0.000000,0.000000,0.600000,1.000000,1.000000,0.000000,0.000000
1,0.032391,0.000000,1.000000,0.210000,0.800000,0.030000,0.030000,1.000000,0.000000,1.000000,0.000000,0.000000,0.600000,1.000000,1.000000,0.000000,0.000000
2,0.010965,0.035693,0.958338,0.315335,0.828167,0.004492,0.198743,1.000000,2.000000,1.000000,0.000000,0.099035,0.806114,0.925136,0.965575,0.000000,1.000000
3,0.010965,0.035693,0.958338,0.315335,0.828167,0.004492,0.198743,1.000000,2.000000,1.000000,0.000000,0.099035,0.806114,0.925136,0.965575,0.000000,1.000000
4,0.008034,0.000000,1.000000,0.364605,0.870645,0.196895,0.123241,0.915602,2.000000,1.000000,0.000000,0.000000,0.848532,1.000000,0.966759,0.000000,2.000000
5,0.005391,0.000000,1.000000,0.174391,1.000000,0.000000,0.236334,0.926126,0.000000,0.989757,0.452501,0.088535,0.944929,0.687689,1.000000,0.093442,2.000000
6,0.004255,0.063594,1.000000,0.401213,1.000000,0.196895,0.245635,0.835509,1.000000,1.000000,0.000000,0.000000,0.997201,0.803754,0.960095,0.014174,1.000000
7,0.003573,0.000000,0.852583,0.402889,1.000000,0.222582,0.438482,1.000000,2.000000,1.000000,0.053748,0.007473,0.997201,0.803754,0.992090,0.022505,2.000000
8,0.003015,0.000000,0.982527,0.580342,1.000000,0.060988,0.000000,0.748275,2.000000,0.959997,0.638235,0.193082,1.000000,0.618817,0.949475,0.120785,2.000000
9,0.002577,0.182511,0.887233,0.414500,1.000000,0.030426,0.311234,0.621309,2.000000,1.000000,0.100272,0.377644,1.000000,0.878008,1.000000,0.157930,2.000000
10,0.002459,0.000000,1.000000,0.568591,1.000000,0.112423,0.043098,1.000000,0.000000,0.864660,0.647374,0.443072,1.000000,0.773655,0.954287,0.116630,2.000000
11,0.002405,0.135163,1.000000,0.425856,1.000000,0.126880,0.000000,1.000000,2.000000,0.907690,0.668569,0.494818,1.000000,1.000000,0.788952,0.000000,2.000000
12,0.001903,0.000000,0.926734,0.568591,1.000000,0.112423,0.130409,1.000000,2.000000,0.880228,0.778148,0.630812,1.000000,0.869924,0.907129,0.194938,2.000000
13,0.001903,0.000000,0.926734,0.568591,1.000000,0.112423,0.130409,1.000000,2.000000,0.880228,0.778148,0.630812,1.000000,0.869924,0.907129,0.194938,2.000000
14,0.001765,0.059534,0.835317,0.726064,1.000000,0.199044,0.000000,1.000000,2.000000,0.907690,0.663132,0.607213,1.000000,0.970422,0.804501,0.017488,2.000000
15,0.001765,0.059534,0.835317,0.726064,1.000000,0.199044,0.000000,1.000000,2.000000,0.907690,0.663132,0.607213,1.000000,0.970422,0.804501,0.017488,2.000000
16,0.001765,0.059534,0.835317,0.726064,1.000000,0.199044,0.000000,1.000000,2.000000,0.907690,0.663132,0.607213,1.000000,0.970422,0.804501,0.017488,2.000000
17,0.001747,0.056261,0.854413,0.857266,1.000000,0.371126,0.195028,0.972908,1.000000,0.941092,0.774261,0.755793,1.000000,0.924259,0.692346,0.089297,2.000000
18,0.001586,0.026132,1.000000,0.850355,1.000000,0.244100,0.390821,0.650457,2.000000,0.845889,0.062646,0.893222,1.000000,0.796073,0.518931,0.150445,2.000000
19,0.001586,0.026132,1.000000,0.850355,1.000000,0.244100,0.390821,0.650457,2.000000,0.845889,0.062646,0.893222,1.000000,0.796073,0.518931,0.150445,2.000000
20,0.001421,0.151906,1.000000,0.821865,0.978488,0.162481,0.361823,0.789360,2.000000,0.501459,0.100341,0.949405,1.000000,0.592995,0.476795,0.319025,2.000000
21,0.001421,0.151906,1.000000,0.821865,0.978488,0.162481,0.361823,0.789360,2.000000,0.501459,0.100341,0.949405,1.000000,0.592995,0.476795,0.319025,2.000000
22,0.001421,0.151906,1.000000,0.821865,0.978488,0.162481,0.361823,0.789360,2.000000,0.501459,0.100341,0.949405,1.000000,0.592995,0.476795,0.319025,2.000000
23,0.001391,0.000000,0.935708,0.746611,1.000000,0.235864,0.362257,0.827323,2.000000,0.489785,0.055469,1.000000,1.000000,0.647671,0.469257,0.309991,2.000000
24,0.001354,0.064615,0.888342,0.846465,1.000000,0.140528,0.453507,0.991678,1.000000,0.487979,0.000000,1.000000,1.000000,0.817843,0.105620,0.306002,2.000000
25,0.001354,0.064615,0.888342,0.846465,1.000000,0.140528,0.453507,0.991678,1.000000,0.487979,0.000000,1.000000,1.000000,0.817843,0.105620,0.306002,2.000000
26,0.001354,0.064615,0.888342,0.846465,1.000000,0.140528,0.453507,0.991678,1.000000,0.487979,0.000000,1.000000,1.000000,0.817843,0.105620,0.306002,2.000000
27,0.001336,0.000000,0.977829,0.663611,1.000000,0.400227,0.625681,0.945699,2.000000,0.414310,0.083198,1.000000,1.000000,0.740821,0.471626,0.166652,2.000000
28,0.001336,0.000000,0.977829,0.663611,1.000000,0.400227,0.625681,0.945699,2.000000,0.414310,0.083198,1.000000,1.000000,0.740821,0.471626,0.166652,2.000000
29,0.001288,0.036301,0.911665,0.806845,1.000000,0.279891,0.416109,0.924901,2.000000,0.571516,0.091554,1.000000,1.000000,0.858720,0.000000,0.161034,2.000000
30,0.001288,0.036301,0.911665,0.806845,1.000000,0.279891,0.416109,0.924901,2.000000,0.571516,0.091554,1.000000,1.000000,0.858720,0.000000,0.161034,2.000000
31,0.001288,0.036301,0.911665,0.806845,1.000000,0.279891,0.416109,0.924901,2.000000,0.571516,0.091554,1.000000,1.000000,0.858720,0.000000,0.161034,2.000000
32,0.001288,0.036301,0.911665,0.806845,1.000000,0.279891,0.416109,0.924901,2.000000,0.571516,0.091554,1.000000,1.000000,0.858720,0.000000,0.161034,2.000000
33,0.001288,0.036301,0.911665,0.806845,1.000000,0.279891,0.416109,0.924901,2.000000,0.571516,0.091554,1.000000,1.000000,0.858720,0.000000,0.161034,2.000000
34,0.001288,0.036301,0.911665,0.806845,1.000000,0.279891,0.416109,0.924901,2.000000,0.571516,0.091554,1.000000,1.000000,0.858720,0.000000,0.161034,2.000000
35,0.001288,0.036301,0.911665,0.806845,1.000000,0.279891,0.416109,0.924901,2.000000,0.571516,0.091554,1.000000,1.000000,0.858720,0.000000,0.161034,2.000000
36,0.001280,0.037186,0.768678,0.886026,1.000000,0.170824,0.449081,0.924901,2.000000,0.661589,0.000000,1.000000,1.000000,0.868696,0.000000,0.161034,2.000000
37,0.001235,0.000000,0.949871,0.646289,1.000000,0.056445,0.448329,0.950055,2.000000,0.460272,0.234566,1.000000,0.998142,0.711422,0.096984,0.582172,2.000000
38,0.001235,0.000000,0.949871,0.646289,1.000000,0.056445,0.448329,0.950055,2.000000,0.460272,0.234566,1.000000,0.998142,0.711422,0.096984,0.582172,2.000000
39,0.001235,0.000000,0.949871,0.646289,1.000000,0.056445,0.448329,0.950055,2.000000,0.460272,0.234566,1.000000,0.998142,0.711422,0.096984,0.582172,2.000000
40,0.001235,0.000000,0.949871,0.646289,1.000000,0.056445,0.448329,0.950055,2.000000,0.460272,0.234566,1.000000,0.998142,0.711422,0.096984,0.582172,2.000000
41,0.001235,0.000000,0.949871,0.646289,1.000000,0.056445,0.448329,0.950055,2.000000,0.460272,0.234566,1.000000,0.998142,0.711422,0.096984,0.582172,2.000000
42,0.001235,0.000000,0.949871,0.646289,1.000000,0.056445,0.448329,0.950055,2.000000,0.460272,0.234566,1.000000,0.998142,0.711422,0.096984,0.582172,2.000000
43,0.001235,0.000000,0.949871,0.646289,1.000000,0.056445,0.448329,0.950055,2.000000,0.460272,0.234566,1.000000,0.998142,0.711422,0.096984,0.582172,2.000000
44,0.001185,0.084521,0.921606,1.000000,0.977441,0.311955,0.233825,0.968790,2.000000,0.474110,0.000000,1.000000,1.000000,0.797382,0.016702,0.229414,2.000000
45,0.001185,0.084521,0.921606,1.000000,0.977441,0.311955,0.233825,0.968790,2.000000,0.474110,0.000000,1.000000,1.000000,0.797382,0.016702,0.229414,2.000000
46,0.001185,0.084521,0.921606,1.000000,0.977441,0.311955,0.233825,0.968790,2.000000,0.474110,0.000000,1.000000,1.000000,0.797382,0.016702,0.229414,2.000000
47,0.001185,0.084521,0.921606,1.000000,0.977441,0.311955,0.233825,0.968790,2.000000,0.474110,0.000000,1.000000,1.000000,0.797382,0.016702,0.229414,2.000000
48,0.001185,0.084521,0.921606,1.000000,0.977441,0.311955,0.233825,0.968790,2.000000,0.474110,0.000000,1.000000,1.000000,0.797382,0.016702,0.229414,2.000000
49,0.001185,0.084521,0.921606,1.000000,0.977441,0.311955,0.233825,0.968790,2.000000,0.474110,0.000000,1.000000,1.000000,0.797382,0.016702,0.229414,2.000000
50,0.001185,0.084521,0.921606,1.000000,0.977441,0.311955,0.233825,0.968790,2.000000,0.474110,0.000000,1.000000,1.000000,0.797382,0.016702,0.229414,2.000000
51,0.001185,0.084521,0.921606,1.000000,0.977441,0.311955,0.233825,0.968790,2.000000,0.474110,0.000000,1.000000,1.000000,0.797382,0.016702,0.229414,2.000000
52,0.001185,0.084521,0.921606,1.000000,0.977441,0.311955,0.233825,0.968790,2.000000,0.474110,0.000000,1.000000,1.000000,0.797382,0.016702,0.229414,2.000000
53,0.001173,0.083085,0.641880,0.929339,0.977441,0.284330,0.370018,1.000000,2.000000,0.347568,0.082962,1.000000,1.000000,1.000000,0.091959,0.247144,2.000000
54,0.001173,0.083085,0.641880,0.929339,0.977441,0.284330,0.370018,1.000000,2.000000,0.347568,0.082962,1.000000,1.000000,1.000000,0.091959,0.247144,2.000000
55,0.001173,0.083085,0.641880,0.929339,0.977441,0.284330,0.370018,1.000000,2.000000,0.347568,0.082962,1.000000,1.000000,1.000000,0.091959,0.247144,2.000000
56,0.001173,0.083085,0.641880,0.929339,0.977441,0.284330,0.370018,1.000000,2.000000,0.347568,0.082962,1.000000,1.000000,1.000000,0.091959,0.247144,2.000000
57,0.001173,0.083085,0.641880,0.929339,0.977441,0.284330,0.370018,1.000000,2.000000,0.347568,0.082962,1.000000,1.000000,1.000000,0.091959,0.247144,2.000000
58,0.001129,0.000000,0.993749,0.843813,0.970068,0.022014,0.250771,0.997082,2.000000,0.058884,0.115808,0.970611,1.000000,0.346937,0.000000,0.027009,2.000000
59,0.001129,0.000000,0.993749,0.843813,0.970068,0.022014,0.250771,0.997082,2.000000,0.058884,0.115808,0.970611,1.000000,0.346937,0.000000,0.027009,2.000000
60,0.001129,0.000000,0.993749,0.843813,0.970068,0.022014,0.250771,0.997082,2.000000,0.058884,0.115808,0.970611,1.000000,0.346937,0.000000,0.027009,2.000000
61,0.001129,0.000000,0.993749,0.843813,0.970068,0.022014,0.250771,0.997082,2.000000,0.058884,0.115808,0.970611,1.000000,0.346937,0.000000,0.027009,2.000000
62,0.001129,0.000000,0.993749,0.843813,0.970068,0.022014,0.250771,0.997082,2.000000,0.058884,0.115808,0.970611,1.000000,0.346937,0.000000,0.027009,2.000000
63,0.001129,0.000000,0.993749,0.843813,0.970068,0.022014,0.250771,0.997082,2.000000,0.058884,0.115808,0.970611,1.000000,0.346937,0.000000,0.027009,2.000000
64,0.001106,0.000000,0.942723,0.646289,1.000000,0.000000,0.602392,1.000000,2.000000,0.409085,0.105413,1.000000,1.000000,0.863607,0.000000,0.925146,2.000000
65,0.001106,0.000000,0.942723,0.646289,1.000000,0.000000,0.602392,1.000000,2.000000,0.409085,0.105413,1.000000,1.000000,0.863607,0.000000,0.925146,2.000000
66,0.001106,0.000000,0.942723,0.646289,1.000000,0.000000,0.602392,1.000000,2.000000,0.409085,0.105413,1.000000,1.000000,0.863607,0.000000,0.925146,2.000000
67,0.001106,0.000000,0.942723,0.646289,1.000000,0.000000,0.602392,1.000000,2.000000,0.409085,0.105413,1.000000,1.000000,0.863607,0.000000,0.925146,2.000000
68,0.001106,0.000000,0.942723,0.646289,1.000000,0.000000,0.602392,1.000000,2.000000,0.409085,0.105413,1.000000,1.000000,0.863607,0.000000,0.925146,2.000000
69,0.001106,0.000000,0.942723,0.646289,1.000000,0.000000,0.602392,1.000000,2.000000,0.409085,0.105413,1.000000,1.000000,0.863607,0.000000,0.925146,2.000000
70,0.001106,0.000000,0.942723,0.646289,1.000000,0.000000,0.602392,1.000000,2.000000,0.409085,0.105413,1.000000,1.000000,0.863607,0.000000,0.925146,2.000000
71,0.001106,0.000000,0.942723,0.646289,1.000000,0.000000,0.602392,1.000000,2.000000,0.409085,0.105413,1.000000,1.000000,0.863607,0.000000,0.925146,2.000000
72,0.001106,0.000000,0.942723,0.646289,1.000000,0.000000,0.602392,1.000000,2.000000,0.409085,0.105413,1.000000,1.000000,0.863607,0.000000,0.925146,2.000000
73,0.001106,0.000000,0.942723,0.646289,1.000000,0.000000,0.602392,1.000000,2.000000,0.409085,0.105413,1.000000,1.000000,0.863607,0.000000,0.925146,2.000000
74,0.001106,0.000000,0.942723,0.646289,1.000000,0.000000,0.602392,1.000000,2.000000,0.409085,0.105413,1.000000,1.000000,0.863607,0.000000,0.925146,2.000000
gen, fitness
0,0.082103,0.000000,1.000000,0.210000,0.800000,0.030000,0.030000,1.000000,0.000000,1.000000,0.000000,0.000000,0.600000,1.000000,1.000000,0.000000,0.000000
1,0.082103,0.000000,1.000000,0.210000,0.800000,0.030000,0.030000,1.000000,0.000000,1.000000,0.000000,0.000000,0.600000,1.000000,1.000000,0.000000,0.000000
2,0.058702,0.000000,1.000000,0.210000,0.834601,0.030000,0.030000,1.000000,1.000000,1.000000,0.000000,0.129404,0.727772,0.957573,1.000000,0.000000,2.000000
3,0.041685,0.000000,1.000000,0.241472,0.929981,0.000000,0.000000,1.000000,2.000000,0.828151,0.000000,0.360379,0.859348,0.852165,0.978209,0.000000,0.000000
4,0.034672,0.116690,1.000000,0.259002,1.000000,0.000000,0.026606,1.000000,2.000000,0.784907,0.117422,0.369928,1.000000,0.686925,0.951025,0.023938,1.000000
5,0.033694,0.157848,1.000000,0.323330,1.000000,0.059208,0.042055,1.000000,2.000000,0.891568,0.022402,0.000000,0.976284,1.000000,0.935729,0.067389,1.000000
6,0.032297,0.057553,1.000000,0.337095,1.000000,0.000000,0.000000,1.000000,2.000000,0.570204,0.000000,0.366418,0.948725,0.586457,1.000000,0.024874,2.000000
7,0.030120,0.141396,1.000000,0.392513,1.000000,0.000000,0.040424,1.000000,1.000000,0.465313,0.000000,0.366418,1.000000,0.586457,1.000000,0.032919,0.000000
8,0.030120,0.141396,1.000000,0.392513,1.000000,0.000000,0.040424,1.000000,1.000000,0.465313,0.000000,0.366418,1.000000,0.586457,1.000000,0.032919,0.000000
9,0.026289,0.000000,0.852169,0.646518,1.000000,0.000000,0.000000,1.000000,2.000000,0.310772,0.000000,0.366418,1.000000,0.586457,1.000000,0.032919,2.000000
10,0.026289,0.000000,0.852169,0.646518,1.000000,0.000000,0.000000,1.000000,2.000000,0.310772,0.000000,0.366418,1.000000,0.586457,1.000000,0.032919,2.000000
11,0.026005,0.000000,0.852169,0.676117,1.000000,0.014463,0.028438,1.000000,2.000000,0.278286,0.000000,0.378105,1.000000,0.586457,0.924381,0.032919,2.000000
12,0.026005,0.000000,0.852169,0.676117,1.000000,0.014463,0.028438,1.000000,2.000000,0.278286,0.000000,0.378105,1.000000,0.586457,0.924381,0.032919,2.000000
13,0.025050,0.000000,0.797901,0.946722,0.993413,0.037219,0.000000,1.000000,2.000000,0.555988,0.000000,0.469241,1.000000,0.660483,0.922249,0.000000,0.000000
14,0.024766,0.000000,0.797901,0.946722,0.993413,0.124914,0.140666,1.000000,2.000000,0.484018,0.000000,0.469241,1.000000,0.660483,0.904747,0.019798,1.000000
15,0.024462,0.000000,0.619632,0.986827,1.000000,0.068329,0.043689,0.932565,1.000000,0.275601,0.015434,0.696053,1.000000,0.719878,0.918774,0.062188,0.000000
16,0.024462,0.000000,0.619632,0.986827,1.000000,0.068329,0.043689,0.932565,1.000000,0.275601,0.015434,0.696053,1.000000,0.719878,0.918774,0.062188,0.000000
17,0.023662,0.000000,0.577067,1.000000,1.000000,0.074660,0.035085,0.911941,2.000000,0.344303,0.015434,0.672135,1.000000,0.622772,0.936659,0.062188,2.000000
18,0.023315,0.045401,0.757184,1.000000,1.000000,0.197619,0.202585,1.000000,2.000000,0.363582,0.000000,0.779254,1.000000,0.741986,0.868652,0.163101,1.000000
19,0.023315,0.045401,0.757184,1.000000,1.000000,0.197619,0.202585,1.000000,2.000000,0.363582,0.000000,0.779254,1.000000,0.741986,0.868652,0.163101,1.000000
20,0.023008,0.000000,0.587889,0.931669,1.000000,0.000000,0.000000,1.000000,2.000000,0.249542,0.000000,0.993275,1.000000,0.756879,0.862822,0.083892,1.000000
21,0.023008,0.000000,0.587889,0.931669,1.000000,0.000000,0.000000,1.000000,2.000000,0.249542,0.000000,0.993275,1.000000,0.756879,0.862822,0.083892,1.000000
22,0.022617,0.181900,0.396671,0.952092,1.000000,0.000000,0.230420,0.919022,2.000000,0.011001,0.050299,0.812676,1.000000,0.910228,0.579125,0.310967,2.000000
23,0.022617,0.181900,0.396671,0.952092,1.000000,0.000000,0.230420,0.919022,2.000000,0.011001,0.050299,0.812676,1.000000,0.910228,0.579125,0.310967,2.000000
24,0.022503,0.266427,0.396671,0.986230,1.000000,0.000000,0.231269,0.997637,2.000000,0.000000,0.182087,0.883869,1.000000,1.000000,0.775172,0.025649,2.000000
25,0.022068,0.395595,0.415311,1.000000,0.977445,0.072694,0.307234,1.000000,2.000000,0.000000,0.182087,0.883869,1.000000,0.964881,0.678169,0.025649,0.000000
26,0.022068,0.395595,0.415311,1.000000,0.977445,0.072694,0.307234,1.000000,2.000000,0.000000,0.182087,0.883869,1.000000,0.964881,0.678169,0.025649,0.000000
27,0.022068,0.395595,0.415311,1.000000,0.977445,0.072694,0.307234,1.000000,2.000000,0.000000,0.182087,0.883869,1.000000,0.964881,0.678169,0.025649,0.000000
28,0.021746,0.045447,0.585292,1.000000,1.000000,0.000000,0.189076,1.000000,2.000000,0.000000,0.137955,0.950414,1.000000,0.857903,0.590391,0.400550,0.000000
29,0.021619,0.000000,0.714122,1.000000,1.000000,0.062279,0.183958,1.000000,2.000000,0.010057,0.040510,0.950414,1.000000,0.853399,0.446272,0.333108,1.000000
30,0.021619,0.000000,0.714122,1.000000,1.000000,0.062279,0.183958,1.000000,2.000000,0.010057,0.040510,0.950414,1.000000,0.853399,0.446272,0.333108,1.000000
31,0.021619,0.000000,0.714122,1.000000,1.000000,0.062279,0.183958,1.000000,2.000000,0.010057,0.040510,0.950414,1.000000,0.853399,0.446272,0.333108,1.000000
32,0.021619,0.000000,0.714122,1.000000,1.000000,0.062279,0.183958,1.000000,2.000000,0.010057,0.040510,0.950414,1.000000,0.853399,0.446272,0.333108,1.000000
33,0.021619,0.000000,0.714122,1.000000,1.000000,0.062279,0.183958,1.000000,2.000000,0.010057,0.040510,0.950414,1.000000,0.853399,0.446272,0.333108,1.000000
34,0.021619,0.000000,0.714122,1.000000,1.000000,0.062279,0.183958,1.000000,2.000000,0.010057,0.040510,0.950414,1.000000,0.853399,0.446272,0.333108,1.000000
35,0.021619,0.000000,0.714122,1.000000,1.000000,0.062279,0.183958,1.000000,2.000000,0.010057,0.040510,0.950414,1.000000,0.853399,0.446272,0.333108,1.000000
36,0.021594,0.000000,0.882557,0.976412,1.000000,0.000000,0.496646,1.000000,2.000000,0.010586,0.000000,0.809756,1.000000,0.831953,0.331465,0.564801,0.000000
37,0.021448,0.155759,0.652238,1.000000,1.000000,0.025867,0.293789,1.000000,2.000000,0.020814,0.000000,1.000000,1.000000,0.845273,0.249127,0.364763,2.000000
38,0.021448,0.155759,0.652238,1.000000,1.000000,0.025867,0.293789,1.000000,2.000000,0.020814,0.000000,1.000000,1.000000,0.845273,0.249127,0.364763,2.000000
39,0.021448,0.155759,0.652238,1.000000,1.000000,0.025867,0.293789,1.000000,2.000000,0.020814,0.000000,1.000000,1.000000,0.845273,0.249127,0.364763,2.000000
40,0.021448,0.155759,0.652238,1.000000,1.000000,0.025867,0.293789,1.000000,2.000000,0.020814,0.000000,1.000000,1.000000,0.845273,0.249127,0.364763,2.000000
41,0.021447,0.000000,0.584439,1.000000,1.000000,0.000000,0.269774,0.971195,2.000000,0.035698,0.209994,1.000000,1.000000,0.951527,0.337081,0.452186,0.000000
42,0.021240,0.064116,0.864244,1.000000,1.000000,0.000000,0.152675,0.965267,2.000000,0.000000,0.000000,1.000000,1.000000,0.972307,0.169693,0.508778,0.000000
43,0.021240,0.064116,0.864244,1.000000,1.000000,0.000000,0.152675,0.965267,2.000000,0.000000,0.000000,1.000000,1.000000,0.972307,0.169693,0.508778,0.000000
44,0.021201,0.155759,0.691495,1.000000,1.000000,0.115765,0.493337,1.000000,2.000000,0.000000,0.098978,1.000000,1.000000,0.930981,0.162829,0.495584,0.000000
45,0.021201,0.155759,0.691495,1.000000,1.000000,0.115765,0.493337,1.000000,2.000000,0.000000,0.098978,1.000000,1.000000,0.930981,0.162829,0.495584,0.000000
46,0.021201,0.155759,0.691495,1.000000,1.000000,0.115765,0.493337,1.000000,2.000000,0.000000,0.098978,1.000000,1.000000,0.930981,0.162829,0.495584,0.000000
47,0.021201,0.155759,0.691495,1.000000,1.000000,0.115765,0.493337,1.000000,2.000000,0.000000,0.098978,1.000000,1.000000,0.930981,0.162829,0.495584,0.000000
48,0.021201,0.155759,0.691495,1.000000,1.000000,0.115765,0.493337,1.000000,2.000000,0.000000,0.098978,1.000000,1.000000,0.930981,0.162829,0.495584,0.000000
49,0.021201,0.155759,0.691495,1.000000,1.000000,0.115765,0.493337,1.000000,2.000000,0.000000,0.098978,1.000000,1.000000,0.930981,0.162829,0.495584,0.000000
50,0.021201,0.155759,0.691495,1.000000,1.000000,0.115765,0.493337,1.000000,2.000000,0.000000,0.098978,1.000000,1.000000,0.930981,0.162829,0.495584,0.000000
51,0.021127,0.041891,0.794992,1.000000,1.000000,0.003801,0.224082,1.000000,2.000000,0.000000,0.000000,0.988793,1.000000,1.000000,0.159002,0.570350,2.000000
52,0.021127,0.041891,0.794992,1.000000,1.000000,0.003801,0.224082,1.000000,2.000000,0.000000,0.000000,0.988793,1.000000,1.000000,0.159002,0.570350,2.000000
53,0.021127,0.041891,0.794992,1.000000,1.000000,0.003801,0.224082,1.000000,2.000000,0.000000,0.000000,0.988793,1.000000,1.000000,0.159002,0.570350,2.000000
54,0.021127,0.041891,0.794992,1.000000,1.000000,0.003801,0.224082,1.000000,2.000000,0.000000,0.000000,0.988793,1.000000,1.000000,0.159002,0.570350,2.000000
55,0.021127,0.041891,0.794992,1.000000,1.000000,0.003801,0.224082,1.000000,2.000000,0.000000,0.000000,0.988793,1.000000,1.000000,0.159002,0.570350,2.000000
56,0.021127,0.041891,0.794992,1.000000,1.000000,0.003801,0.224082,1.000000,2.000000,0.000000,0.000000,0.988793,1.000000,1.000000,0.159002,0.570350,2.000000
57,0.020982,0.029873,0.776266,0.975724,1.000000,0.115765,0.657135,1.000000,2.000000,0.028710,0.104327,0.939803,1.000000,0.881301,0.043546,0.818433,0.000000
58,0.020711,0.133800,0.856442,1.000000,1.000000,0.118481,0.742204,1.000000,2.000000,0.000000,0.026922,0.985798,1.000000,0.793443,0.000000,1.000000,0.000000
59,0.020711,0.133800,0.856442,1.000000,1.000000,0.118481,0.742204,1.000000,2.000000,0.000000,0.026922,0.985798,1.000000,0.793443,0.000000,1.000000,0.000000
60,0.020711,0.133800,0.856442,1.000000,1.000000,0.118481,0.742204,1.000000,2.000000,0.000000,0.026922,0.985798,1.000000,0.793443,0.000000,1.000000,0.000000
61,0.020711,0.133800,0.856442,1.000000,1.000000,0.118481,0.742204,1.000000,2.000000,0.000000,0.026922,0.985798,1.000000,0.793443,0.000000,1.000000,0.000000
62,0.020711,0.133800,0.856442,1.000000,1.000000,0.118481,0.742204,1.000000,2.000000,0.000000,0.026922,0.985798,1.000000,0.793443,0.000000,1.000000,0.000000
63,0.020711,0.133800,0.856442,1.000000,1.000000,0.118481,0.742204,1.000000,2.000000,0.000000,0.026922,0.985798,1.000000,0.793443,0.000000,1.000000,0.000000
64,0.020711,0.133800,0.856442,1.000000,1.000000,0.118481,0.742204,1.000000,2.000000,0.000000,0.026922,0.985798,1.000000,0.793443,0.000000,1.000000,0.000000
65,0.020711,0.133800,0.856442,1.000000,1.000000,0.118481,0.742204,1.000000,2.000000,0.000000,0.026922,0.985798,1.000000,0.793443,0.000000,1.000000,0.000000
66,0.020711,0.133800,0.856442,1.000000,1.000000,0.118481,0.742204,1.000000,2.000000,0.000000,0.026922,0.985798,1.000000,0.793443,0.000000,1.000000,0.000000
67,0.020711,0.133800,0.856442,1.000000,1.000000,0.118481,0.742204,1.000000,2.000000,0.000000,0.026922,0.985798,1.000000,0.793443,0.000000,1.000000,0.000000
68,0.020711,0.133800,0.856442,1.000000,1.000000,0.118481,0.742204,1.000000,2.000000,0.000000,0.026922,0.985798,1.000000,0.793443,0.000000,1.000000,0.000000
