gen, fitness
0,0.013430,0.000000,1.000000,0.210000,0.800000,0.030000,0.030000,1.000000,0.000000,1.000000,0.000000,0.000000,0.600000,1.000000,1.000000,0.000000,0.000000
1,0.013430,0.000000,1.000000,0.210000,0.800000,0.030000,0.030000,1.000000,0.000000,1.000000,0.000000,0.000000,0.600000,1.000000,1.000000,0.000000,0.000000
2,0.000098,0.000000,1.000000,0.244871,0.640794,0.000000,0.099243,0.888689,1.000000,1.000000,0.000000,0.000000,0.597589,0.928100,1.000000,0.000000,1.000000
3,0.000068,0.000000,0.962719,0.028420,0.746286,0.045453,0.061498,0.704887,2.000000,0.976989,0.000000,0.000000,0.573291,1.000000,0.801054,0.000000,2.000000
4,0.000068,0.000000,0.962719,0.028420,0.746286,0.045453,0.061498,0.704887,2.000000,0.976989,0.000000,0.000000,0.573291,1.000000,0.801054,0.000000,2.000000
5,0.000068,0.000000,0.962719,0.028420,0.746286,0.045453,0.061498,0.704887,2.000000,0.976989,0.000000,0.000000,0.573291,1.000000,0.801054,0.000000,2.000000
6,0.000010,0.023207,0.949421,0.208023,0.666757,0.363341,0.000000,0.952346,0.000000,1.000000,0.000000,0.018650,0.583370,1.000000,0.614279,0.020259,1.000000
7,0.000010,0.023207,0.949421,0.208023,0.666757,0.363341,0.000000,0.952346,0.000000,1.000000,0.000000,0.018650,0.583370,1.000000,0.614279,0.020259,1.000000
8,0.000010,0.023207,0.949421,0.208023,0.666757,0.363341,0.000000,0.952346,0.000000,1.000000,0.000000,0.018650,0.583370,1.000000,0.614279,0.020259,1.000000
9,0.000010,0.023207,0.949421,0.208023,0.666757,0.363341,0.000000,0.952346,0.000000,1.000000,0.000000,0.018650,0.583370,1.000000,0.614279,0.020259,1.000000
10,0.000010,0.023207,0.949421,0.208023,0.666757,0.363341,0.000000,0.952346,0.000000,1.000000,0.000000,0.018650,0.583370,1.000000,0.614279,0.020259,1.000000
11,0.000010,0.023207,0.949421,0.208023,0.666757,0.363341,0.000000,0.952346,0.000000,1.000000,0.000000,0.018650,0.583370,1.000000,0.614279,0.020259,1.000000
12,0.000010,0.023207,0.949421,0.208023,0.666757,0.363341,0.000000,0.952346,0.000000,1.000000,0.000000,0.018650,0.583370,1.000000,0.614279,0.020259,1.000000
13,0.000010,0.023207,0.949421,0.208023,0.666757,0.363341,0.000000,0.952346,0.000000,1.000000,0.000000,0.018650,0.583370,1.000000,0.614279,0.020259,1.000000
14,0.000010,0.023207,0.949421,0.208023,0.666757,0.363341,0.000000,0.952346,0.000000,1.000000,0.000000,0.018650,0.583370,1.000000,0.614279,0.020259,1.000000
15,0.000000,0.031147,0.952410,0.127035,0.686060,0.481708,0.092536,0.998531,2.000000,0.970065,0.127196,0.000000,0.572726,0.908283,0.938741,0.217798,0.000000
gen, fitness
0,0.034276,0.000000,1.000000,0.210000,0.800000,0.030000,0.030000,1.000000,0.000000,1.000000,0.000000,0.000000,0.600000,1.000000,1.000000,0.000000,0.000000
1,0.034276,0.000000,1.000000,0.210000,0.800000,0.030000,0.030000,1.000000,0.000000,1.000000,0.000000,0.000000,0.600000,1.000000,1.000000,0.000000,0.000000
2,0.016145,0.167576,1.000000,0.358864,0.802833,0.017462,0.000000,1.000000,1.000000,1.000000,0.009784,0.000000,0.804092,1.000000,1.000000,0.002250,1.000000
3,0.012293,0.013380,1.000000,0.226548,0.863675,0.169763,0.016742,0.935500,1.000000,0.917907,0.003227,0.053569,0.799864,1.000000,0.912071,0.254272,1.000000
4,0.005158,0.084039,1.000000,0.226729,0.999240,0.138809,0.128772,0.973369,0.000000,0.898027,0.000000,0.000000,0.997533,1.000000,0.970717,0.117280,0.000000
5,0.004158,0.119150,0.986596,0.220407,1.000000,0.088915,0.035341,1.000000,1.000000,0.988860,0.000000,0.000000,1.000000,1.000000,1.000000,0.218094,1.000000
6,0.003091,0.000000,0.974300,0.065207,1.000000,0.261324,0.059278,0.769855,2.000000,0.750973,0.000000,0.126470,1.000000,0.929213,1.000000,0.256867,2.000000
7,0.002224,0.124759,0.897478,0.206421,1.000000,0.000000,0.044044,0.675172,2.000000,1.000000,0.000000,0.369105,0.970712,0.950980,1.000000,0.266424,2.000000
8,0.002224,0.124759,0.897478,0.206421,1.000000,0.000000,0.044044,0.675172,2.000000,1.000000,0.000000,0.369105,0.970712,0.950980,1.000000,0.266424,2.000000
9,0.002203,0.000000,0.887363,0.381023,1.000000,0.000000,0.330816,0.875247,1.000000,1.000000,0.112721,0.366616,0.971430,0.986148,0.998016,0.162716,2.000000
10,0.002093,0.000000,0.803896,0.051966,0.997580,0.127594,0.027436,0.605654,2.000000,0.715417,0.093881,0.467767,0.927992,1.000000,0.895108,0.327959,2.000000
11,0.002093,0.000000,0.803896,0.051966,0.997580,0.127594,0.027436,0.605654,2.000000,0.715417,0.093881,0.467767,0.927992,1.000000,0.895108,0.327959,2.000000
12,0.002071,0.000000,0.975169,0.406707,1.000000,0.044773,0.309142,1.000000,1.000000,0.861534,0.166981,0.128862,1.000000,0.944696,1.000000,0.728814,2.000000
13,0.002071,0.000000,0.975169,0.406707,1.000000,0.044773,0.309142,1.000000,1.000000,0.861534,0.166981,0.128862,1.000000,0.944696,1.000000,0.728814,2.000000
14,0.001801,0.054956,1.000000,0.631642,1.000000,0.244585,0.173211,0.836984,1.000000,0.984578,0.305097,0.362575,1.000000,0.813675,0.998839,0.399636,2.000000
15,0.001801,0.054956,1.000000,0.631642,1.000000,0.244585,0.173211,0.836984,1.000000,0.984578,0.305097,0.362575,1.000000,0.813675,0.998839,0.399636,2.000000
16,0.001722,0.000000,0.871598,0.395504,1.000000,0.019116,0.206481,1.000000,2.000000,0.837117,0.236783,0.261900,1.000000,1.000000,0.894651,0.908828,1.000000
17,0.001026,0.000000,1.000000,0.714778,1.000000,0.227589,0.358096,0.842469,2.000000,0.857893,0.000000,0.640813,1.000000,0.873517,0.856993,0.485362,2.000000
18,0.001026,0.000000,1.000000,0.714778,1.000000,0.227589,0.358096,0.842469,2.000000,0.857893,0.000000,0.640813,1.000000,0.873517,0.856993,0.485362,2.000000
19,0.001026,0.000000,1.000000,0.714778,1.000000,0.227589,0.358096,0.842469,2.000000,0.857893,0.000000,0.640813,1.000000,0.873517,0.856993,0.485362,2.000000
20,0.001026,0.000000,1.000000,0.714778,1.000000,0.227589,0.358096,0.842469,2.000000,0.857893,0.000000,0.640813,1.000000,0.873517,0.856993,0.485362,2.000000
21,0.001026,0.000000,1.000000,0.714778,1.000000,0.227589,0.358096,0.842469,2.000000,0.857893,0.000000,0.640813,1.000000,0.873517,0.856993,0.485362,2.000000
22,0.001026,0.000000,1.000000,0.714778,1.000000,0.227589,0.358096,0.842469,2.000000,0.857893,0.000000,0.640813,1.000000,0.873517,0.856993,0.485362,2.000000
23,0.000962,0.047676,1.000000,0.656768,1.000000,0.079436,0.040357,0.946510,2.000000,0.869889,0.218306,0.726088,1.000000,0.829122,1.000000,0.863815,1.000000
24,0.000962,0.047676,1.000000,0.656768,1.000000,0.079436,0.040357,0.946510,2.000000,0.869889,0.218306,0.726088,1.000000,0.829122,1.000000,0.863815,1.000000
25,0.000937,0.100032,0.810194,0.680309,1.000000,0.000000,0.289849,0.861561,2.000000,0.865045,0.000000,0.759797,1.000000,0.945709,1.000000,1.000000,1.000000
26,0.000917,0.029350,0.853781,0.679709,1.000000,0.059376,0.311286,1.000000,2.000000,1.000000,0.068922,0.708352,1.000000,1.000000,0.882578,1.000000,2.000000
27,0.000882,0.000000,1.000000,0.823810,1.000000,0.449968,0.329724,0.986950,2.000000,0.811406,0.271014,0.831966,0.982529,0.984611,0.181919,0.998669,2.000000
28,0.000882,0.000000,1.000000,0.823810,1.000000,0.449968,0.329724,0.986950,2.000000,0.811406,0.271014,0.831966,0.982529,0.984611,0.181919,0.998669,2.000000
29,0.000656,0.003778,0.979571,0.709363,1.000000,0.377159,0.417312,0.925015,2.000000,0.922848,0.126869,0.898920,0.989696,0.871617,1.000000,0.866430,2.000000
30,0.000656,0.003778,0.979571,0.709363,1.000000,0.377159,0.417312,0.925015,2.000000,0.922848,0.126869,0.898920,0.989696,0.871617,1.000000,0.866430,2.000000
31,0.000656,0.003778,0.979571,0.709363,1.000000,0.377159,0.417312,0.925015,2.000000,0.922848,0.126869,0.898920,0.989696,0.871617,1.000000,0.866430,2.000000
32,0.000656,0.003778,0.979571,0.709363,1.000000,0.377159,0.417312,0.925015,2.000000,0.922848,0.126869,0.898920,0.989696,0.871617,1.000000,0.866430,2.000000
33,0.000528,0.017878,0.948647,0.710199,1.000000,0.013364,0.108978,0.931461,2.000000,0.765124,0.252199,1.000000,1.000000,0.459078,0.996817,1.000000,2.000000
34,0.000528,0.017878,0.948647,0.710199,1.000000,0.013364,0.108978,0.931461,2.000000,0.765124,0.252199,1.000000,1.000000,0.459078,0.996817,1.000000,2.000000
35,0.000528,0.017878,0.948647,0.710199,1.000000,0.013364,0.108978,0.931461,2.000000,0.765124,0.252199,1.000000,1.000000,0.459078,0.996817,1.000000,2.000000
36,0.000528,0.017878,0.948647,0.710199,1.000000,0.013364,0.108978,0.931461,2.000000,0.765124,0.252199,1.000000,1.000000,0.459078,0.996817,1.000000,2.000000
37,0.000528,0.017878,0.948647,0.710199,1.000000,0.013364,0.108978,0.931461,2.000000,0.765124,0.252199,1.000000,1.000000,0.459078,0.996817,1.000000,2.000000
38,0.000528,0.017878,0.948647,0.710199,1.000000,0.013364,0.108978,0.931461,2.000000,0.765124,0.252199,1.000000,1.000000,0.459078,0.996817,1.000000,2.000000
39,0.000528,0.017878,0.948647,0.710199,1.000000,0.013364,0.108978,0.931461,2.000000,0.765124,0.252199,1.000000,1.000000,0.459078,0.996817,1.000000,2.000000
40,0.000528,0.017878,0.948647,0.710199,1.000000,0.013364,0.108978,0.931461,2.000000,0.765124,0.252199,1.000000,1.000000,0.459078,0.996817,1.000000,2.000000
41,0.000528,0.017878,0.948647,0.710199,1.000000,0.013364,0.108978,0.931461,2.000000,0.765124,0.252199,1.000000,1.000000,0.459078,0.996817,1.000000,2.000000
42,0.000528,0.017878,0.948647,0.710199,1.000000,0.013364,0.108978,0.931461,2.000000,0.765124,0.252199,1.000000,1.000000,0.459078,0.996817,1.000000,2.000000
43,0.000528,0.017878,0.948647,0.710199,1.000000,0.013364,0.108978,0.931461,2.000000,0.765124,0.252199,1.000000,1.000000,0.459078,0.996817,1.000000,2.000000
gen, fitness
0,0.044384,0.000000,1.000000,0.210000,0.800000,0.030000,0.030000,1.000000,0.000000,1.000000,0.000000,0.000000,0.600000,1.000000,1.000000,0.000000,0.000000
1,0.044384,0.000000,1.000000,0.210000,0.800000,0.030000,0.030000,1.000000,0.000000,1.000000,0.000000,0.000000,0.600000,1.000000,1.000000,0.000000,0.000000
2,0.021841,0.049137,1.000000,0.067198,0.886983,0.014817,0.000000,0.995931,2.000000,0.941811,0.000000,0.111461,0.767409,1.000000,0.922592,0.000000,1.000000
3,0.021841,0.049137,1.000000,0.067198,0.886983,0.014817,0.000000,0.995931,2.000000,0.941811,0.000000,0.111461,0.767409,1.000000,0.922592,0.000000,1.000000
4,0.016009,0.009445,0.950277,0.294517,0.962634,0.289034,0.119647,0.990602,2.000000,0.937032,0.000000,0.269231,0.867337,1.000000,1.000000,0.136078,2.000000
5,0.013179,0.040472,0.959585,0.228936,1.000000,0.265680,0.088277,1.000000,0.000000,0.743288,0.081673,0.344816,0.983681,0.851962,1.000000,0.146135,1.000000
6,0.010493,0.039855,0.878794,0.333237,1.000000,0.232206,0.050870,0.918299,2.000000,0.829019,0.019810,0.285753,1.000000,0.957140,1.000000,0.000000,1.000000
7,0.010275,0.021110,0.998475,0.068577,1.000000,0.278986,0.000000,0.980212,2.000000,0.481979,0.000000,0.044297,1.000000,1.000000,0.880899,0.000000,1.000000
8,0.009179,0.000000,1.000000,0.758376,1.000000,0.195536,0.311022,1.000000,2.000000,0.907530,0.000000,0.299519,1.000000,0.923612,1.000000,0.000000,0.000000
9,0.008574,0.000000,0.716638,0.618019,1.000000,0.000000,0.251854,0.819976,2.000000,0.743590,0.198199,0.449665,1.000000,0.762142,0.776198,0.135053,1.000000
10,0.008574,0.000000,0.716638,0.618019,1.000000,0.000000,0.251854,0.819976,2.000000,0.743590,0.198199,0.449665,1.000000,0.762142,0.776198,0.135053,1.000000
11,0.008574,0.000000,0.716638,0.618019,1.000000,0.000000,0.251854,0.819976,2.000000,0.743590,0.198199,0.449665,1.000000,0.762142,0.776198,0.135053,1.000000
12,0.008327,0.000000,0.983182,0.942555,0.984259,0.175551,0.386925,0.903845,2.000000,1.000000,0.494095,0.462248,1.000000,1.000000,0.825529,0.000000,2.000000
13,0.008173,0.000000,0.957320,0.585484,1.000000,0.352499,0.314114,0.711072,2.000000,0.544586,0.000000,0.567930,1.000000,0.918274,0.586827,0.011977,2.000000
14,0.007838,0.000000,0.763140,0.754418,1.000000,0.252437,0.151333,0.857148,2.000000,0.762836,0.034466,0.623140,1.000000,0.751814,1.000000,0.229487,2.000000
15,0.007838,0.000000,0.763140,0.754418,1.000000,0.252437,0.151333,0.857148,2.000000,0.762836,0.034466,0.623140,1.000000,0.751814,1.000000,0.229487,2.000000
16,0.007838,0.000000,0.763140,0.754418,1.000000,0.252437,0.151333,0.857148,2.000000,0.762836,0.034466,0.623140,1.000000,0.751814,1.000000,0.229487,2.000000
17,0.007838,0.000000,0.763140,0.754418,1.000000,0.252437,0.151333,0.857148,2.000000,0.762836,0.034466,0.623140,1.000000,0.751814,1.000000,0.229487,2.000000
18,0.007838,0.000000,0.763140,0.754418,1.000000,0.252437,0.151333,0.857148,2.000000,0.762836,0.034466,0.623140,1.000000,0.751814,1.000000,0.229487,2.000000
19,0.007838,0.000000,0.763140,0.754418,1.000000,0.252437,0.151333,0.857148,2.000000,0.762836,0.034466,0.623140,1.000000,0.751814,1.000000,0.229487,2.000000
20,0.007838,0.000000,0.763140,0.754418,1.000000,0.252437,0.151333,0.857148,2.000000,0.762836,0.034466,0.623140,1.000000,0.751814,1.000000,0.229487,2.000000
21,0.007300,0.047618,0.959414,0.788765,0.989832,0.112630,0.451036,0.941400,2.000000,0.416901,0.263487,0.892931,1.000000,0.756404,1.000000,0.100939,2.000000
22,0.007300,0.047618,0.959414,0.788765,0.989832,0.112630,0.451036,0.941400,2.000000,0.416901,0.263487,0.892931,1.000000,0.756404,1.000000,0.100939,2.000000
23,0.007300,0.047618,0.959414,0.788765,0.989832,0.112630,0.451036,0.941400,2.000000,0.416901,0.263487,0.892931,1.000000,0.756404,1.000000,0.100939,2.000000
24,0.007300,0.047618,0.959414,0.788765,0.989832,0.112630,0.451036,0.941400,2.000000,0.416901,0.263487,0.892931,1.000000,0.756404,1.000000,0.100939,2.000000
25,0.007095,0.023550,0.565011,0.857605,1.000000,0.000000,0.131684,1.000000,2.000000,0.468868,0.000000,0.973825,1.000000,0.770880,1.000000,0.181143,2.000000
26,0.007095,0.023550,0.565011,0.857605,1.000000,0.000000,0.131684,1.000000,2.000000,0.468868,0.000000,0.973825,1.000000,0.770880,1.000000,0.181143,2.000000
27,0.007095,0.023550,0.565011,0.857605,1.000000,0.000000,0.131684,1.000000,2.000000,0.468868,0.000000,0.973825,1.000000,0.770880,1.000000,0.181143,2.000000
28,0.006916,0.110024,1.000000,0.789590,0.985923,0.000000,0.105552,1.000000,2.000000,0.263638,0.000000,1.000000,1.000000,0.739801,1.000000,0.279988,2.000000
29,0.006732,0.000000,0.819423,0.676895,1.000000,0.000000,0.114469,1.000000,2.000000,0.117919,0.239188,0.940420,1.000000,0.910499,0.186715,0.179381,2.000000
30,0.006732,0.000000,0.819423,0.676895,1.000000,0.000000,0.114469,1.000000,2.000000,0.117919,0.239188,0.940420,1.000000,0.910499,0.186715,0.179381,2.000000
31,0.006732,0.000000,0.819423,0.676895,1.000000,0.000000,0.114469,1.000000,2.000000,0.117919,0.239188,0.940420,1.000000,0.910499,0.186715,0.179381,2.000000
32,0.006732,0.000000,0.819423,0.676895,1.000000,0.000000,0.114469,1.000000,2.000000,0.117919,0.239188,0.940420,1.000000,0.910499,0.186715,0.179381,2.000000
33,0.006732,0.000000,0.819423,0.676895,1.000000,0.000000,0.114469,1.000000,2.000000,0.117919,0.239188,0.940420,1.000000,0.910499,0.186715,0.179381,2.000000
34,0.006732,0.000000,0.819423,0.676895,1.000000,0.000000,0.114469,1.000000,2.000000,0.117919,0.239188,0.940420,1.000000,0.910499,0.186715,0.179381,2.000000
35,0.006732,0.000000,0.819423,0.676895,1.000000,0.000000,0.114469,1.000000,2.000000,0.117919,0.239188,0.940420,1.000000,0.910499,0.186715,0.179381,2.000000
36,0.006732,0.000000,0.819423,0.676895,1.000000,0.000000,0.114469,1.000000,2.000000,0.117919,0.239188,0.940420,1.000000,0.910499,0.186715,0.179381,2.000000
37,0.006732,0.000000,0.819423,0.676895,1.000000,0.000000,0.114469,1.000000,2.000000,0.117919,0.239188,0.940420,1.000000,0.910499,0.186715,0.179381,2.000000
38,0.006732,0.000000,0.819423,0.676895,1.000000,0.000000,0.114469,1.000000,2.000000,0.117919,0.239188,0.940420,1.000000,0.910499,0.186715,0.179381,2.000000
39,0.006732,0.000000,0.819423,0.676895,1.000000,0.000000,0.114469,1.000000,2.000000,0.117919,0.239188,0.940420,1.000000,0.910499,0.186715,0.179381,2.000000
gen, fitness
0,0.006335,0.000000,1.000000,0.210000,0.800000,0.030000,0.030000,1.000000,0.000000,1.000000,0.000000,0.000000,0.600000,1.000000,1.000000,0.000000,0.000000
1,0.006335,0.000000,1.000000,0.210000,0.800000,0.030000,0.030000,1.000000,0.000000,1.000000,0.000000,0.000000,0.600000,1.000000,1.000000,0.000000,0.000000
2,0.000030,0.039977,1.000000,0.190872,0.740404,0.000000,0.154524,1.000000,2.000000,0.988322,0.000000,0.000000,0.631322,1.000000,1.000000,0.128149,2.000000
3,0.000030,0.039977,1.000000,0.190872,0.740404,0.000000,0.154524,1.000000,2.000000,0.988322,0.000000,0.000000,0.631322,1.000000,1.000000,0.128149,2.000000
4,0.000030,0.039977,1.000000,0.190872,0.740404,0.000000,0.154524,1.000000,2.000000,0.988322,0.000000,0.000000,0.631322,1.000000,1.000000,0.128149,2.000000
5,0.000021,0.000000,0.967799,0.024092,0.798671,0.045420,0.000000,1.000000,2.000000,0.913801,0.178003,0.000000,0.644339,1.000000,1.000000,0.167657,1.000000
6,0.000021,0.000000,0.967799,0.024092,0.798671,0.045420,0.000000,1.000000,2.000000,0.913801,0.178003,0.000000,0.644339,1.000000,1.000000,0.167657,1.000000
7,0.000005,0.000000,1.000000,0.113493,0.808565,0.000000,0.131639,0.992958,0.000000,1.000000,0.133898,0.051748,0.646187,1.000000,1.000000,0.000000,2.000000
8,0.000005,0.000000,1.000000,0.113493,0.808565,0.000000,0.131639,0.992958,0.000000,1.000000,0.133898,0.051748,0.646187,1.000000,1.000000,0.000000,2.000000
9,0.000005,0.000000,1.000000,0.113493,0.808565,0.000000,0.131639,0.992958,0.000000,1.000000,0.133898,0.051748,0.646187,1.000000,1.000000,0.000000,2.000000
10,0.000005,0.000000,1.000000,0.113493,0.808565,0.000000,0.131639,0.992958,0.000000,1.000000,0.133898,0.051748,0.646187,1.000000,1.000000,0.000000,2.000000
11,0.000002,0.000000,0.974859,0.000000,0.796751,0.116448,0.393650,0.650313,2.000000,0.772852,0.360043,0.428502,0.359638,0.777695,0.974793,0.624969,2.000000
12,0.000002,0.000000,0.974859,0.000000,0.796751,0.116448,0.393650,0.650313,2.000000,0.772852,0.360043,0.428502,0.359638,0.777695,0.974793,0.624969,2.000000
13,0.000002,0.000000,0.974859,0.000000,0.796751,0.116448,0.393650,0.650313,2.000000,0.772852,0.360043,0.428502,0.359638,0.777695,0.974793,0.624969,2.000000
14,0.000002,0.000000,0.974859,0.000000,0.796751,0.116448,0.393650,0.650313,2.000000,0.772852,0.360043,0.428502,0.359638,0.777695,0.974793,0.624969,2.000000
15,0.000002,0.000000,0.974859,0.000000,0.796751,0.116448,0.393650,0.650313,2.000000,0.772852,0.360043,0.428502,0.359638,0.777695,0.974793,0.624969,2.000000
16,0.000002,0.000000,0.974859,0.000000,0.796751,0.116448,0.393650,0.650313,2.000000,0.772852,0.360043,0.428502,0.359638,0.777695,0.974793,0.624969,2.000000
17,0.000002,0.000000,0.974859,0.000000,0.796751,0.116448,0.393650,0.650313,2.000000,0.772852,0.360043,0.428502,0.359638,0.777695,0.974793,0.624969,2.000000
gen, fitness
0,0.018541,0.000000,1.000000,0.210000,0.800000,0.030000,0.030000,1.000000,0.000000,1.000000,0.000000,0.000000,0.600000,1.000000,1.000000,0.000000,0.000000
1,0.018541,0.000000,1.000000,0.210000,0.800000,0.030000,0.030000,1.000000,0.000000,1.000000,0.000000,0.000000,0.600000,1.000000,1.000000,0.000000,0.000000
2,0.004564,0.047474,0.883078,0.222169,0.831173,0.000000,0.180164,0.992582,2.000000,1.000000,0.000000,0.000000,0.799056,1.000000,0.913842,0.057847,1.000000
3,0.000829,0.000000,1.000000,0.053518,0.988922,0.000000,0.053909,0.702896,1.000000,0.882972,0.000000,0.117704,0.948315,0.775740,0.809034,0.090537,0.000000
4,0.000282,0.000000,0.788603,0.000000,1.000000,0.048847,0.162559,0.857239,1.000000,0.832406,0.000000,0.000000,0.978760,0.839238,0.967548,0.187026,2.000000
5,0.000107,0.000000,0.923424,0.314314,0.956414,0.354499,0.375718,0.896627,0.000000,0.806720,0.000000,0.428066,0.871503,0.793395,0.861581,0.220788,2.000000
6,0.000012,0.025510,0.861623,0.291115,1.000000,0.000000,0.007663,0.764096,0.000000,0.766364,0.019753,0.000000,1.000000,1.000000,0.788508,0.373438,0.000000
7,0.000012,0.025510,0.861623,0.291115,1.000000,0.000000,0.007663,0.764096,0.000000,0.766364,0.019753,0.000000,1.000000,1.000000,0.788508,0.373438,0.000000
8,0.000012,0.025510,0.861623,0.291115,1.000000,0.000000,0.007663,0.764096,0.000000,0.766364,0.019753,0.000000,1.000000,1.000000,0.788508,0.373438,0.000000
9,0.000005,0.210402,0.851053,0.142880,1.000000,0.000000,0.247857,0.668363,0.000000,0.725320,0.020337,0.000000,1.000000,1.000000,0.935650,0.315246,2.000000
10,0.000005,0.210402,0.851053,0.142880,1.000000,0.000000,0.247857,0.668363,0.000000,0.725320,0.020337,0.000000,1.000000,1.000000,0.935650,0.315246,2.000000
11,0.000005,0.210402,0.851053,0.142880,1.000000,0.000000,0.247857,0.668363,0.000000,0.725320,0.020337,0.000000,1.000000,1.000000,0.935650,0.315246,2.000000
12,0.000005,0.210402,0.851053,0.142880,1.000000,0.000000,0.247857,0.668363,0.000000,0.725320,0.020337,0.000000,1.000000,1.000000,0.935650,0.315246,2.000000
13,0.000005,0.210402,0.851053,0.142880,1.000000,0.000000,0.247857,0.668363,0.000000,0.725320,0.020337,0.000000,1.000000,1.000000,0.935650,0.315246,2.000000
14,0.000005,0.210402,0.851053,0.142880,1.000000,0.000000,0.247857,0.668363,0.000000,0.725320,0.020337,0.000000,1.000000,1.000000,0.935650,0.315246,2.000000
15,0.000005,0.210402,0.851053,0.142880,1.000000,0.000000,0.247857,0.668363,0.000000,0.725320,0.020337,0.000000,1.000000,1.000000,0.935650,0.315246,2.000000
16,0.000005,0.210402,0.851053,0.142880,1.000000,0.000000,0.247857,0.668363,0.000000,0.725320,0.020337,0.000000,1.000000,1.000000,0.935650,0.315246,2.000000
gen, fitness
0,0.069293,0.000000,1.000000,0.210000,0.800000,0.030000,0.030000,1.000000,0.000000,1.000000,0.000000,0.000000,0.600000,1.000000,1.000000,0.000000,0.000000
1,0.069293,0.000000,1.000000,0.210000,0.800000,0.030000,0.030000,1.000000,0.000000,1.000000,0.000000,0.000000,0.600000,1.000000,1.000000,0.000000,0.000000
2,0.039289,0.101797,0.884253,0.215888,0.904373,0.098923,0.072335,1.000000,1.000000,1.000000,0.000000,0.000000,0.820253,1.000000,1.000000,0.000000,2.000000
3,0.034832,0.000000,1.000000,0.371358,0.847372,0.000000,0.199985,0.790572,1.000000,0.982562,0.000000,0.181695,0.879529,0.962896,0.925047,0.101506,0.000000
4,0.024118,0.078701,1.000000,0.000000,0.932417,0.250148,0.243881,1.000000,0.000000,0.778452,0.085287,0.000000,0.911674,1.000000,0.974399,0.000000,2.000000
5,0.017581,0.000000,1.000000,0.000000,1.000000,0.218183,0.224002,0.933380,2.000000,0.665417,0.000000,0.070324,1.000000,0.945164,1.000000,0.099936,0.000000
6,0.014479,0.098154,0.854794,0.000000,1.000000,0.000000,0.000000,0.766691,1.000000,0.967497,0.336247,0.340273,0.909958,1.000000,0.688246,0.362902,2.000000
7,0.013067,0.000000,1.000000,0.079214,1.000000,0.100351,0.039264,0.772159,2.000000,0.966756,0.354368,0.340538,0.958812,1.000000,0.715021,0.381982,1.000000
8,0.012726,0.025734,0.712232,0.051270,1.000000,0.110268,0.000000,0.741549,0.000000,1.000000,0.202216,0.535569,0.924125,1.000000,0.715596,0.357588,1.000000
9,0.012726,0.025734,0.712232,0.051270,1.000000,0.110268,0.000000,0.741549,0.000000,1.000000,0.202216,0.535569,0.924125,1.000000,0.715596,0.357588,1.000000
10,0.012016,0.000000,0.890531,0.092168,1.000000,0.000000,0.204955,0.804445,1.000000,0.854606,0.199062,0.437577,0.970344,0.941507,0.994875,0.531043,2.000000
11,0.011892,0.000000,0.964570,0.013169,1.000000,0.303643,0.000000,1.000000,1.000000,0.993171,0.000000,0.606635,0.878686,0.968922,0.638676,0.310252,2.000000
12,0.010710,0.136550,0.950374,0.049778,1.000000,0.000000,0.000000,0.699896,2.000000,0.892011,0.330634,0.509742,0.959281,0.922540,0.960193,0.665238,2.000000
13,0.010710,0.136550,0.950374,0.049778,1.000000,0.000000,0.000000,0.699896,2.000000,0.892011,0.330634,0.509742,0.959281,0.922540,0.960193,0.665238,2.000000
14,0.010585,0.000000,1.000000,0.000000,1.000000,0.000000,0.000000,0.654134,0.000000,0.770106,0.307247,0.760510,0.896257,0.933208,1.000000,0.714574,2.000000
15,0.010585,0.000000,1.000000,0.000000,1.000000,0.000000,0.000000,0.654134,0.000000,0.770106,0.307247,0.760510,0.896257,0.933208,1.000000,0.714574,2.000000
16,0.010585,0.000000,1.000000,0.000000,1.000000,0.000000,0.000000,0.654134,0.000000,0.770106,0.307247,0.760510,0.896257,0.933208,1.000000,0.714574,2.000000
17,0.010585,0.000000,1.000000,0.000000,1.000000,0.000000,0.000000,0.654134,0.000000,0.770106,0.307247,0.760510,0.896257,0.933208,1.000000,0.714574,2.000000
18,0.010235,0.159913,1.000000,0.013952,1.000000,0.076569,0.000000,0.680945,1.000000,1.000000,0.000000,0.809722,0.943532,1.000000,1.000000,0.283190,2.000000
19,0.010136,0.003162,1.000000,0.000000,1.000000,0.000000,0.197018,0.669548,1.000000,0.913176,0.173343,0.972593,0.909975,1.000000,0.668407,0.221954,2.000000
20,0.009905,0.254951,0.882018,0.023596,1.000000,0.107344,0.000000,0.811055,0.000000,1.000000,0.000000,1.000000,0.876939,1.000000,0.851316,0.738532,2.000000
21,0.009905,0.254951,0.882018,0.023596,1.000000,0.107344,0.000000,0.811055,0.000000,1.000000,0.000000,1.000000,0.876939,1.000000,0.851316,0.738532,2.000000
22,0.008898,0.000000,0.870967,0.000000,1.000000,0.246393,0.120523,1.000000,2.000000,1.000000,0.066746,1.000000,0.868362,0.565002,1.000000,1.000000,2.000000
23,0.008898,0.000000,0.870967,0.000000,1.000000,0.246393,0.120523,1.000000,2.000000,1.000000,0.066746,1.000000,0.868362,0.565002,1.000000,1.000000,2.000000
24,0.008898,0.000000,0.870967,0.000000,1.000000,0.246393,0.120523,1.000000,2.000000,1.000000,0.066746,1.000000,0.868362,0.565002,1.000000,1.000000,2.000000
25,0.008898,0.000000,0.870967,0.000000,1.000000,0.246393,0.120523,1.000000,2.000000,1.000000,0.066746,1.000000,0.868362,0.565002,1.000000,1.000000,2.000000
26,0.008898,0.000000,0.870967,0.000000,1.000000,0.246393,0.120523,1.000000,2.000000,1.000000,0.066746,1.000000,0.868362,0.565002,1.000000,1.000000,2.000000
27,0.008898,0.000000,0.870967,0.000000,1.000000,0.246393,0.120523,1.000000,2.000000,1.000000,0.066746,1.000000,0.868362,0.565002,1.000000,1.000000,2.000000
28,0.008898,0.000000,0.870967,0.000000,1.000000,0.246393,0.120523,1.000000,2.000000,1.000000,0.066746,1.000000,0.868362,0.565002,1.000000,1.000000,2.000000
29,0.008793,0.198896,0.839048,0.021631,1.000000,0.152106,0.053569,0.824308,2.000000,1.000000,0.000000,0.974093,0.912163,0.764344,0.737454,0.910721,2.000000
30,0.008793,0.198896,0.839048,0.021631,1.000000,0.152106,0.053569,0.824308,2.000000,1.000000,0.000000,0.974093,0.912163,0.764344,0.737454,0.910721,2.000000
31,0.008793,0.198896,0.839048,0.021631,1.000000,0.152106,0.053569,0.824308,2.000000,1.000000,0.000000,0.974093,0.912163,0.764344,0.737454,0.910721,2.000000
32,0.008793,0.198896,0.839048,0.021631,1.000000,0.152106,0.053569,0.824308,2.000000,1.000000,0.000000,0.974093,0.912163,0.764344,0.737454,0.910721,2.000000
33,0.008793,0.198896,0.839048,0.021631,1.000000,0.152106,0.053569,0.824308,2.000000,1.000000,0.000000,0.974093,0.912163,0.764344,0.737454,0.910721,2.000000
34,0.008793,0.198896,0.839048,0.021631,1.000000,0.152106,0.053569,0.824308,2.000000,1.000000,0.000000,0.974093,0.912163,0.764344,0.737454,0.910721,2.000000
35,0.008793,0.198896,0.839048,0.021631,1.000000,0.152106,0.053569,0.824308,2.000000,1.000000,0.000000,0.974093,0.912163,0.764344,0.737454,0.910721,2.000000
36,0.008793,0.198896,0.839048,0.021631,1.000000,0.152106,0.053569,0.824308,2.000000,1.000000,0.000000,0.974093,0.912163,0.764344,0.737454,0.910721,2.000000
37,0.008793,0.198896,0.839048,0.021631,1.000000,0.152106,0.053569,0.824308,2.000000,1.000000,0.000000,0.974093,0.912163,0.764344,0.737454,0.910721,2.000000
38,0.008793,0.198896,0.839048,0.021631,1.000000,0.152106,0.053569,0.824308,2.000000,1.000000,0.000000,0.974093,0.912163,0.764344,0.737454,0.910721,2.000000
39,0.008793,0.198896,0.839048,0.021631,1.000000,0.152106,0.053569,0.824308,2.000000,1.000000,0.000000,0.974093,0.912163,0.764344,0.737454,0.910721,2.000000
gen, fitness
0,0.020772,0.000000,1.000000,0.210000,0.800000,0.030000,0.030000,1.000000,0.000000,1.000000,0.000000,0.000000,0.600000,1.000000,1.000000,0.000000,0.000000
1,0.020772,0.000000,1.000000,0.210000,0.800000,0.030000,0.030000,1.000000,0.000000,1.000000,0.000000,0.000000,0.600000,1.000000,1.000000,0.000000,0.000000
2,0.006363,0.000000,0.937368,0.200553,0.825044,0.064090,0.247622,1.000000,2.000000,0.819724,0.000000,0.000000,0.733636,0.885027,0.943434,0.000000,2.000000
3,0.001042,0.058886,1.000000,0.224814,0.907070,0.064129,0.225571,0.998020,0.000000,0.837899,0.038168,0.000000,0.874941,0.970476,0.975558,0.017089,2.000000
4,0.000683,0.011509,1.000000,0.466650,0.907307,0.048860,0.244822,0.952345,2.000000,0.942888,0.127638,0.000000,0.928964,0.908445,0.930548,0.058284,1.000000
5,0.000012,0.166685,1.000000,0.000000,1.000000,0.001694,0.046723,1.000000,0.000000,0.663471,0.056168,0.106606,0.977530,0.813060,0.835988,0.098465,2.000000
6,0.000012,0.166685,1.000000,0.000000,1.000000,0.001694,0.046723,1.000000,0.000000,0.663471,0.056168,0.106606,0.977530,0.813060,0.835988,0.098465,2.000000
7,0.000012,0.166685,1.000000,0.000000,1.000000,0.001694,0.046723,1.000000,0.000000,0.663471,0.056168,0.106606,0.977530,0.813060,0.835988,0.098465,2.000000
8,0.000003,0.032333,1.000000,0.127072,1.000000,0.060429,0.143661,1.000000,1.000000,0.631702,0.100100,0.005566,1.000000,0.648690,0.759201,0.177813,0.000000
9,0.000000,0.000000,0.947069,0.367377,0.970702,0.102175,0.154909,1.000000,2.000000,0.603749,0.000000,0.000000,1.000000,0.008760,1.000000,0.000000,1.000000
gen, fitness
0,0.008197,0.000000,1.000000,0.210000,0.800000,0.030000,0.030000,1.000000,0.000000,1.000000,0.000000,0.000000,0.600000,1.000000,1.000000,0.000000,0.000000
1,0.008197,0.000000,1.000000,0.210000,0.800000,0.030000,0.030000,1.000000,0.000000,1.000000,0.000000,0.000000,0.600000,1.000000,1.000000,0.000000,0.000000
2,0.000099,0.000000,1.000000,0.255399,0.792625,0.106664,0.000000,0.883064,2.000000,0.958585,0.000000,0.068271,0.711336,0.933020,1.000000,0.000000,2.000000
3,0.000022,0.000000,0.768680,0.265566,0.748467,0.079528,0.000000,0.949225,1.000000,0.775445,0.000000,0.191508,0.636747,0.957108,1.000000,0.018050,2.000000
4,0.000019,0.169302,1.000000,0.420027,0.681064,0.000000,0.003340,0.826275,2.000000,0.683482,0.000000,0.124310,0.707556,1.000000,1.000000,0.142363,2.000000
5,0.000011,0.022382,1.000000,0.264633,0.798777,0.206330,0.030201,0.983611,0.000000,0.979915,0.047356,0.158077,0.665101,1.000000,0.864707,0.160213,1.000000
6,0.000011,0.022382,1.000000,0.264633,0.798777,0.206330,0.030201,0.983611,0.000000,0.979915,0.047356,0.158077,0.665101,1.000000,0.864707,0.160213,1.000000
7,0.000011,0.022382,1.000000,0.264633,0.798777,0.206330,0.030201,0.983611,0.000000,0.979915,0.047356,0.158077,0.665101,1.000000,0.864707,0.160213,1.000000
8,0.000011,0.022382,1.000000,0.264633,0.798777,0.206330,0.030201,0.983611,0.000000,0.979915,0.047356,0.158077,0.665101,1.000000,0.864707,0.160213,1.000000
9,0.000011,0.022382,1.000000,0.264633,0.798777,0.206330,0.030201,0.983611,0.000000,0.979915,0.047356,0.158077,0.665101,1.000000,0.864707,0.160213,1.000000
10,0.000011,0.022382,1.000000,0.264633,0.798777,0.206330,0.030201,0.983611,0.000000,0.979915,0.047356,0.158077,0.665101,1.000000,0.864707,0.160213,1.000000
11,0.000011,0.022382,1.000000,0.264633,0.798777,0.206330,0.030201,0.983611,0.000000,0.979915,0.047356,0.158077,0.665101,1.000000,0.864707,0.160213,1.000000
12,0.000011,0.022382,1.000000,0.264633,0.798777,0.206330,0.030201,0.983611,0.000000,0.979915,0.047356,0.158077,0.665101,1.000000,0.864707,0.160213,1.000000
13,0.000011,0.022382,1.000000,0.264633,0.798777,0.206330,0.030201,0.983611,0.000000,0.979915,0.047356,0.158077,0.665101,1.000000,0.864707,0.160213,1.000000
gen, fitness
0,0.011091,0.000000,1.000000,0.210000,0.800000,0.030000,0.030000,1.000000,0.000000,1.000000,0.000000,0.000000,0.600000,1.000000,1.000000,0.000000,0.000000
1,0.011091,0.000000,1.000000,0.210000,0.800000,0.030000,0.030000,1.000000,0.000000,1.000000,0.000000,0.000000,0.600000,1.000000,1.000000,0.000000,0.000000
2,0.000285,0.036098,1.000000,0.131421,0.742936,0.006130,0.114628,0.895496,1.000000,0.956112,0.000000,0.079516,0.627684,1.000000,1.000000,0.059135,2.000000
3,0.000010,0.307892,0.888484,0.052260,0.749183,0.203490,0.117152,0.891029,2.000000,0.825072,0.079645,0.225672,0.609601,0.848617,0.816761,0.046839,0.000000
4,0.000010,0.307892,0.888484,0.052260,0.749183,0.203490,0.117152,0.891029,2.000000,0.825072,0.079645,0.225672,0.609601,0.848617,0.816761,0.046839,0.000000
5,0.000010,0.307892,0.888484,0.052260,0.749183,0.203490,0.117152,0.891029,2.000000,0.825072,0.079645,0.225672,0.609601,0.848617,0.816761,0.046839,0.000000
6,0.000010,0.307892,0.888484,0.052260,0.749183,0.203490,0.117152,0.891029,2.000000,0.825072,0.079645,0.225672,0.609601,0.848617,0.816761,0.046839,0.000000
7,0.000010,0.307892,0.888484,0.052260,0.749183,0.203490,0.117152,0.891029,2.000000,0.825072,0.079645,0.225672,0.609601,0.848617,0.816761,0.046839,0.000000
8,0.000010,0.307892,0.888484,0.052260,0.749183,0.203490,0.117152,0.891029,2.000000,0.825072,0.079645,0.225672,0.609601,0.848617,0.816761,0.046839,0.000000
9,0.000010,0.307892,0.888484,0.052260,0.749183,0.203490,0.117152,0.891029,2.000000,0.825072,0.079645,0.225672,0.609601,0.848617,0.816761,0.046839,0.000000
10,0.000010,0.307892,0.888484,0.052260,0.749183,0.203490,0.117152,0.891029,2.000000,0.825072,0.079645,0.225672,0.609601,0.848617,0.816761,0.046839,0.000000
11,0.000010,0.307892,0.888484,0.052260,0.749183,0.203490,0.117152,0.891029,2.000000,0.825072,0.079645,0.225672,0.609601,0.848617,0.816761,0.046839,0.000000
12,0.000010,0.307892,0.888484,0.052260,0.749183,0.203490,0.117152,0.891029,2.000000,0.825072,0.079645,0.225672,0.609601,0.848617,0.816761,0.046839,0.000000
13,0.000010,0.307892,0.888484,0.052260,0.749183,0.203490,0.117152,0.891029,2.000000,0.825072,0.079645,0.225672,0.609601,0.848617,0.816761,0.046839,0.000000
gen, fitness
0,0.020988,0.000000,1.000000,0.210000,0.800000,0.030000,0.030000,1.000000,0.000000,1.000000,0.000000,0.000000,0.600000,1.000000,1.000000,0.000000,0.000000
1,0.020988,0.000000,1.000000,0.210000,0.800000,0.030000,0.030000,1.000000,0.000000,1.000000,0.000000,0.000000,0.600000,1.000000,1.000000,0.000000,0.000000
2,0.007128,0.000000,1.000000,0.217822,0.820757,0.016218,0.101265,0.959867,2.000000,1.000000,0.000000,0.000000,0.747106,0.865021,0.893124,0.029513,2.000000
3,0.003421,0.000000,0.931022,0.343129,0.983109,0.000000,0.141789,0.854129,1.000000,1.000000,0.005125,0.216924,0.896952,0.964089,0.946791,0.199269,0.000000
4,0.002266,0.024833,0.831866,0.439412,0.967991,0.000000,0.266504,0.949015,0.000000,1.000000,0.000000,0.043852,0.923658,0.895010,0.875230,0.135038,2.000000
5,0.000560,0.000000,0.930031,0.384639,1.000000,0.116733,0.339764,0.867137,2.000000,0.912522,0.028914,0.000000,1.000000,0.878877,0.981634,0.155436,0.000000
6,0.000560,0.000000,0.930031,0.384639,1.000000,0.116733,0.339764,0.867137,2.000000,0.912522,0.028914,0.000000,1.000000,0.878877,0.981634,0.155436,0.000000
7,0.000275,0.087301,0.990543,0.451074,0.977283,0.085135,0.000000,1.000000,2.000000,0.483694,0.159340,0.138614,1.000000,0.909960,1.000000,0.000000,0.000000
8,0.000275,0.087301,0.990543,0.451074,0.977283,0.085135,0.000000,1.000000,2.000000,0.483694,0.159340,0.138614,1.000000,0.909960,1.000000,0.000000,0.000000
9,0.000275,0.087301,0.990543,0.451074,0.977283,0.085135,0.000000,1.000000,2.000000,0.483694,0.159340,0.138614,1.000000,0.909960,1.000000,0.000000,0.000000
10,0.000275,0.087301,0.990543,0.451074,0.977283,0.085135,0.000000,1.000000,2.000000,0.483694,0.159340,0.138614,1.000000,0.909960,1.000000,0.000000,0.000000
11,0.000275,0.087301,0.990543,0.451074,0.977283,0.085135,0.000000,1.000000,2.000000,0.483694,0.159340,0.138614,1.000000,0.909960,1.000000,0.000000,0.000000
12,0.000204,0.115542,1.000000,0.535689,0.981781,0.000000,0.016362,1.000000,2.000000,0.470613,0.055113,0.346625,1.000000,0.944673,0.869110,0.000000,0.000000
13,0.000163,0.007857,0.996275,0.790322,1.000000,0.137258,0.215507,0.850388,1.000000,0.842395,0.547834,0.437603,0.999944,0.964685,0.845450,0.423097,0.000000
14,0.000163,0.007857,0.996275,0.790322,1.000000,0.137258,0.215507,0.850388,1.000000,0.842395,0.547834,0.437603,0.999944,0.964685,0.845450,0.423097,0.000000
15,0.000123,0.000000,0.590003,0.607001,1.000000,0.171451,0.030087,0.966179,2.000000,0.530886,0.420447,0.667766,1.000000,0.777079,1.000000,0.342879,0.000000
16,0.000076,0.000000,1.000000,0.913489,1.000000,0.248081,0.151382,0.960325,0.000000,0.702181,0.440111,0.855750,0.987611,0.749387,0.954364,0.459277,2.000000
17,0.000004,0.000000,1.000000,0.977421,1.000000,0.201431,0.067499,0.981989,2.000000,0.751406,0.393513,0.995268,1.000000,0.789921,0.900272,0.112342,1.000000
18,0.000004,0.000000,1.000000,0.977421,1.000000,0.201431,0.067499,0.981989,2.000000,0.751406,0.393513,0.995268,1.000000,0.789921,0.900272,0.112342,1.000000
19,0.000004,0.000000,1.000000,0.977421,1.000000,0.201431,0.067499,0.981989,2.000000,0.751406,0.393513,0.995268,1.000000,0.789921,0.900272,0.112342,1.000000
20,0.000004,0.000000,1.000000,0.977421,1.000000,0.201431,0.067499,0.981989,2.000000,0.751406,0.393513,0.995268,1.000000,0.789921,0.900272,0.112342,1.000000
21,0.000004,0.000000,1.000000,0.977421,1.000000,0.201431,0.067499,0.981989,2.000000,0.751406,0.393513,0.995268,1.000000,0.789921,0.900272,0.112342,1.000000
22,0.000004,0.000000,1.000000,0.977421,1.000000,0.201431,0.067499,0.981989,2.000000,0.751406,0.393513,0.995268,1.000000,0.789921,0.900272,0.112342,1.000000
23,0.000004,0.000000,1.000000,0.977421,1.000000,0.201431,0.067499,0.981989,2.000000,0.751406,0.393513,0.995268,1.000000,0.789921,0.900272,0.112342,1.000000
24,0.000004,0.000000,1.000000,0.977421,1.000000,0.201431,0.067499,0.981989,2.000000,0.751406,0.393513,0.995268,1.000000,0.789921,0.900272,0.112342,1.000000
25,0.000002,0.080251,0.655046,1.000000,0.978996,0.174546,0.186338,0.862352,2.000000,0.464723,0.421384,0.878773,1.000000,0.671895,1.000000,0.384703,2.000000
26,0.000002,0.080251,0.655046,1.000000,0.978996,0.174546,0.186338,0.862352,2.000000,0.464723,0.421384,0.878773,1.000000,0.671895,1.000000,0.384703,2.000000
27,0.000002,0.080251,0.655046,1.000000,0.978996,0.174546,0.186338,0.862352,2.000000,0.464723,0.421384,0.878773,1.000000,0.671895,1.000000,0.384703,2.000000
