gen, fitness
0,0.027983,0.000000,1.000000,0.210000,0.800000,0.030000,0.030000,1.000000,0.000000,1.000000,0.000000,0.000000,0.600000,1.000000,1.000000,0.000000,0.000000
1,0.027983,0.000000,1.000000,0.210000,0.800000,0.030000,0.030000,1.000000,0.000000,1.000000,0.000000,0.000000,0.600000,1.000000,1.000000,0.000000,0.000000
2,0.008955,0.062682,1.000000,0.210000,0.800000,0.000000,0.020310,1.000000,1.000000,0.823019,0.103557,0.000000,0.832248,1.000000,1.000000,0.165064,2.000000
3,0.006895,0.060722,0.679845,0.210000,0.823637,0.312809,0.000000,0.883022,2.000000,0.936039,0.000000,0.332787,0.676877,1.000000,1.000000,0.141314,1.000000
4,0.002371,0.000000,0.749686,0.210000,1.000000,0.010285,0.000000,1.000000,0.000000,1.000000,0.074668,0.472281,0.918048,1.000000,0.983280,0.054287,2.000000
5,0.000963,0.005526,0.816204,0.213359,1.000000,0.038085,0.000000,1.000000,2.000000,1.000000,0.066139,0.508262,0.980520,1.000000,0.748495,0.053934,2.000000
6,0.000961,0.266593,0.636252,0.208936,1.000000,0.195023,0.081166,1.000000,2.000000,0.920935,0.039417,0.472281,1.000000,1.000000,0.983280,0.000000,0.000000
7,0.000716,0.010862,0.548729,0.249231,0.990295,0.000000,0.000000,0.866337,2.000000,1.000000,0.000000,0.392207,0.970996,1.000000,1.000000,0.140302,2.000000
8,0.000497,0.039244,0.749686,0.236864,1.000000,0.137158,0.050175,1.000000,2.000000,0.879177,0.000000,0.332676,1.000000,0.966867,0.980316,0.110724,2.000000
9,0.000497,0.039244,0.749686,0.236864,1.000000,0.137158,0.050175,1.000000,2.000000,0.879177,0.000000,0.332676,1.000000,0.966867,0.980316,0.110724,2.000000
10,0.000452,0.000000,0.682547,0.426995,1.000000,0.217575,0.134534,0.910369,2.000000,1.000000,0.000000,0.410598,1.000000,1.000000,0.983386,0.517785,2.000000
11,0.000452,0.000000,0.682547,0.426995,1.000000,0.217575,0.134534,0.910369,2.000000,1.000000,0.000000,0.410598,1.000000,1.000000,0.983386,0.517785,2.000000
12,0.000452,0.000000,0.682547,0.426995,1.000000,0.217575,0.134534,0.910369,2.000000,1.000000,0.000000,0.410598,1.000000,1.000000,0.983386,0.517785,2.000000
13,0.000452,0.000000,0.682547,0.426995,1.000000,0.217575,0.134534,0.910369,2.000000,1.000000,0.000000,0.410598,1.000000,1.000000,0.983386,0.517785,2.000000
14,0.000445,0.027383,0.813535,0.469116,1.000000,0.099431,0.000000,0.866337,1.000000,0.815524,0.119139,0.553247,1.000000,0.935215,0.779021,0.000000,2.000000
15,0.000383,0.000000,0.954630,0.456849,1.000000,0.000000,0.000000,0.862189,2.000000,0.735155,0.043047,0.653573,1.000000,0.802486,1.000000,0.022412,2.000000
16,0.000383,0.000000,0.954630,0.456849,1.000000,0.000000,0.000000,0.862189,2.000000,0.735155,0.043047,0.653573,1.000000,0.802486,1.000000,0.022412,2.000000
17,0.000354,0.230885,1.000000,0.385759,1.000000,0.000000,0.027803,1.000000,2.000000,0.804947,0.067350,0.686227,1.000000,1.000000,0.636881,0.038770,2.000000
18,0.000354,0.230885,1.000000,0.385759,1.000000,0.000000,0.027803,1.000000,2.000000,0.804947,0.067350,0.686227,1.000000,1.000000,0.636881,0.038770,2.000000
19,0.000354,0.230885,1.000000,0.385759,1.000000,0.000000,0.027803,1.000000,2.000000,0.804947,0.067350,0.686227,1.000000,1.000000,0.636881,0.038770,2.000000
20,0.000354,0.230885,1.000000,0.385759,1.000000,0.000000,0.027803,1.000000,2.000000,0.804947,0.067350,0.686227,1.000000,1.000000,0.636881,0.038770,2.000000
21,0.000344,0.040393,1.000000,0.514450,1.000000,0.000000,0.056482,0.721541,2.000000,0.929595,0.262938,0.740873,1.000000,0.802059,0.999199,0.070201,2.000000
22,0.000344,0.040393,1.000000,0.514450,1.000000,0.000000,0.056482,0.721541,2.000000,0.929595,0.262938,0.740873,1.000000,0.802059,0.999199,0.070201,2.000000
23,0.000328,0.000000,0.762353,0.406077,1.000000,0.247814,0.258790,0.882589,2.000000,0.654030,0.000000,0.753773,1.000000,0.911812,0.701948,0.257717,2.000000
24,0.000308,0.000000,1.000000,0.577164,1.000000,0.038221,0.050137,1.000000,2.000000,0.899012,0.076610,0.616682,1.000000,0.820380,0.442345,0.309475,2.000000
25,0.000308,0.000000,1.000000,0.577164,1.000000,0.038221,0.050137,1.000000,2.000000,0.899012,0.076610,0.616682,1.000000,0.820380,0.442345,0.309475,2.000000
26,0.000308,0.000000,1.000000,0.577164,1.000000,0.038221,0.050137,1.000000,2.000000,0.899012,0.076610,0.616682,1.000000,0.820380,0.442345,0.309475,2.000000
27,0.000193,0.000000,1.000000,0.560112,1.000000,0.000000,0.111993,0.930303,2.000000,0.743323,0.341011,0.977519,1.000000,1.000000,0.760772,0.417849,2.000000
28,0.000193,0.000000,1.000000,0.560112,1.000000,0.000000,0.111993,0.930303,2.000000,0.743323,0.341011,0.977519,1.000000,1.000000,0.760772,0.417849,2.000000
29,0.000193,0.000000,1.000000,0.560112,1.000000,0.000000,0.111993,0.930303,2.000000,0.743323,0.341011,0.977519,1.000000,1.000000,0.760772,0.417849,2.000000
30,0.000193,0.000000,1.000000,0.560112,1.000000,0.000000,0.111993,0.930303,2.000000,0.743323,0.341011,0.977519,1.000000,1.000000,0.760772,0.417849,2.000000
31,0.000193,0.000000,1.000000,0.560112,1.000000,0.000000,0.111993,0.930303,2.000000,0.743323,0.341011,0.977519,1.000000,1.000000,0.760772,0.417849,2.000000
32,0.000193,0.000000,1.000000,0.560112,1.000000,0.000000,0.111993,0.930303,2.000000,0.743323,0.341011,0.977519,1.000000,1.000000,0.760772,0.417849,2.000000
33,0.000193,0.000000,1.000000,0.560112,1.000000,0.000000,0.111993,0.930303,2.000000,0.743323,0.341011,0.977519,1.000000,1.000000,0.760772,0.417849,2.000000
34,0.000193,0.000000,1.000000,0.560112,1.000000,0.000000,0.111993,0.930303,2.000000,0.743323,0.341011,0.977519,1.000000,1.000000,0.760772,0.417849,2.000000
35,0.000169,0.110298,0.984037,0.339086,1.000000,0.000000,0.000000,1.000000,2.000000,0.427461,0.000000,0.963738,1.000000,0.929466,0.747884,0.488009,2.000000
36,0.000169,0.110298,0.984037,0.339086,1.000000,0.000000,0.000000,1.000000,2.000000,0.427461,0.000000,0.963738,1.000000,0.929466,0.747884,0.488009,2.000000
37,0.000169,0.110298,0.984037,0.339086,1.000000,0.000000,0.000000,1.000000,2.000000,0.427461,0.000000,0.963738,1.000000,0.929466,0.747884,0.488009,2.000000
38,0.000169,0.110298,0.984037,0.339086,1.000000,0.000000,0.000000,1.000000,2.000000,0.427461,0.000000,0.963738,1.000000,0.929466,0.747884,0.488009,2.000000
39,0.000169,0.110298,0.984037,0.339086,1.000000,0.000000,0.000000,1.000000,2.000000,0.427461,0.000000,0.963738,1.000000,0.929466,0.747884,0.488009,2.000000
40,0.000169,0.110298,0.984037,0.339086,1.000000,0.000000,0.000000,1.000000,2.000000,0.427461,0.000000,0.963738,1.000000,0.929466,0.747884,0.488009,2.000000
41,0.000169,0.110298,0.984037,0.339086,1.000000,0.000000,0.000000,1.000000,2.000000,0.427461,0.000000,0.963738,1.000000,0.929466,0.747884,0.488009,2.000000
42,0.000169,0.110298,0.984037,0.339086,1.000000,0.000000,0.000000,1.000000,2.000000,0.427461,0.000000,0.963738,1.000000,0.929466,0.747884,0.488009,2.000000
43,0.000169,0.110298,0.984037,0.339086,1.000000,0.000000,0.000000,1.000000,2.000000,0.427461,0.000000,0.963738,1.000000,0.929466,0.747884,0.488009,2.000000
44,0.000169,0.110298,0.984037,0.339086,1.000000,0.000000,0.000000,1.000000,2.000000,0.427461,0.000000,0.963738,1.000000,0.929466,0.747884,0.488009,2.000000
45,0.000169,0.110298,0.984037,0.339086,1.000000,0.000000,0.000000,1.000000,2.000000,0.427461,0.000000,0.963738,1.000000,0.929466,0.747884,0.488009,2.000000
gen, fitness
0,0.112030,0.000000,1.000000,0.210000,0.800000,0.030000,0.030000,1.000000,0.000000,1.000000,0.000000,0.000000,0.600000,1.000000,1.000000,0.000000,0.000000
1,0.112030,0.000000,1.000000,0.210000,0.800000,0.030000,0.030000,1.000000,0.000000,1.000000,0.000000,0.000000,0.600000,1.000000,1.000000,0.000000,0.000000
2,0.085546,0.171861,1.000000,0.159177,0.822165,0.000000,0.030000,0.988976,1.000000,1.000000,0.000000,0.000000,0.764993,1.000000,1.000000,0.000000,2.000000
3,0.068010,0.027564,1.000000,0.273587,0.873246,0.000000,0.123169,0.982465,2.000000,1.000000,0.000000,0.000000,0.840229,1.000000,0.893914,0.000000,1.000000
4,0.056655,0.045868,0.957663,0.131943,0.950325,0.000000,0.000000,0.825676,0.000000,0.877815,0.052836,0.000000,0.938710,1.000000,0.729941,0.000000,2.000000
5,0.047617,0.199724,0.957663,0.114775,1.000000,0.047323,0.031687,1.000000,0.000000,0.824883,0.000000,0.131090,1.000000,1.000000,0.810164,0.152544,1.000000
6,0.043063,0.056487,1.000000,0.000000,1.000000,0.380015,0.208738,1.000000,2.000000,0.752303,0.036407,0.088237,1.000000,1.000000,1.000000,0.284082,2.000000
7,0.041305,0.000000,1.000000,0.000000,1.000000,0.380015,0.208738,0.860729,2.000000,0.704296,0.036407,0.189817,0.992996,1.000000,0.947126,0.284082,2.000000
8,0.041305,0.000000,1.000000,0.000000,1.000000,0.380015,0.208738,0.860729,2.000000,0.704296,0.036407,0.189817,0.992996,1.000000,0.947126,0.284082,2.000000
9,0.039885,0.156508,0.889217,0.101273,1.000000,0.000000,0.119061,0.983066,2.000000,0.937578,0.226882,0.278473,1.000000,0.959851,0.639117,0.441877,2.000000
10,0.038106,0.000000,0.889738,0.436520,1.000000,0.000000,0.310181,0.558173,1.000000,0.687940,0.097776,0.742969,1.000000,0.952870,0.783156,0.040532,1.000000
11,0.038106,0.000000,0.889738,0.436520,1.000000,0.000000,0.310181,0.558173,1.000000,0.687940,0.097776,0.742969,1.000000,0.952870,0.783156,0.040532,1.000000
12,0.036955,0.000000,0.790543,0.357971,0.982681,0.064367,0.079545,0.994066,2.000000,0.809853,0.097776,0.879751,0.925987,0.831448,0.648541,0.017563,2.000000
13,0.035743,0.000000,0.848473,0.616381,1.000000,0.092058,0.266031,0.665618,1.000000,0.663877,0.206297,0.775180,1.000000,1.000000,0.831538,0.000000,2.000000
14,0.034871,0.063530,0.913426,0.390198,1.000000,0.252624,0.278169,0.891720,2.000000,0.816222,0.194330,0.821688,1.000000,1.000000,0.620478,0.204597,2.000000
15,0.033687,0.000000,0.585554,0.459395,1.000000,0.000000,0.437160,1.000000,2.000000,0.721973,0.102041,1.000000,1.000000,0.641451,0.749259,0.134941,2.000000
16,0.033557,0.000000,0.951702,0.720699,1.000000,0.000000,0.000000,0.983155,2.000000,0.789194,0.139328,1.000000,1.000000,0.949134,0.600065,0.329789,1.000000
17,0.032375,0.000000,1.000000,0.758008,1.000000,0.089266,0.000000,0.844259,2.000000,0.789194,0.139328,1.000000,1.000000,0.960798,0.479942,0.329789,2.000000
18,0.032375,0.000000,1.000000,0.758008,1.000000,0.089266,0.000000,0.844259,2.000000,0.789194,0.139328,1.000000,1.000000,0.960798,0.479942,0.329789,2.000000
19,0.032375,0.000000,1.000000,0.758008,1.000000,0.089266,0.000000,0.844259,2.000000,0.789194,0.139328,1.000000,1.000000,0.960798,0.479942,0.329789,2.000000
20,0.031913,0.000000,0.805837,0.759743,1.000000,0.000000,0.000000,0.891945,2.000000,0.826863,0.092063,1.000000,1.000000,1.000000,0.544533,0.490824,2.000000
21,0.031913,0.000000,0.805837,0.759743,1.000000,0.000000,0.000000,0.891945,2.000000,0.826863,0.092063,1.000000,1.000000,1.000000,0.544533,0.490824,2.000000
22,0.031913,0.000000,0.805837,0.759743,1.000000,0.000000,0.000000,0.891945,2.000000,0.826863,0.092063,1.000000,1.000000,1.000000,0.544533,0.490824,2.000000
23,0.031913,0.000000,0.805837,0.759743,1.000000,0.000000,0.000000,0.891945,2.000000,0.826863,0.092063,1.000000,1.000000,1.000000,0.544533,0.490824,2.000000
24,0.031913,0.000000,0.805837,0.759743,1.000000,0.000000,0.000000,0.891945,2.000000,0.826863,0.092063,1.000000,1.000000,1.000000,0.544533,0.490824,2.000000
25,0.031913,0.000000,0.805837,0.759743,1.000000,0.000000,0.000000,0.891945,2.000000,0.826863,0.092063,1.000000,1.000000,1.000000,0.544533,0.490824,2.000000
26,0.031913,0.000000,0.805837,0.759743,1.000000,0.000000,0.000000,0.891945,2.000000,0.826863,0.092063,1.000000,1.000000,1.000000,0.544533,0.490824,2.000000
27,0.031913,0.000000,0.805837,0.759743,1.000000,0.000000,0.000000,0.891945,2.000000,0.826863,0.092063,1.000000,1.000000,1.000000,0.544533,0.490824,2.000000
28,0.031913,0.000000,0.805837,0.759743,1.000000,0.000000,0.000000,0.891945,2.000000,0.826863,0.092063,1.000000,1.000000,1.000000,0.544533,0.490824,2.000000
29,0.031913,0.000000,0.805837,0.759743,1.000000,0.000000,0.000000,0.891945,2.000000,0.826863,0.092063,1.000000,1.000000,1.000000,0.544533,0.490824,2.000000
30,0.031913,0.000000,0.805837,0.759743,1.000000,0.000000,0.000000,0.891945,2.000000,0.826863,0.092063,1.000000,1.000000,1.000000,0.544533,0.490824,2.000000
gen, fitness
0,0.128870,0.000000,1.000000,0.210000,0.800000,0.030000,0.030000,1.000000,0.000000,1.000000,0.000000,0.000000,0.600000,1.000000,1.000000,0.000000,0.000000
1,0.128870,0.000000,1.000000,0.210000,0.800000,0.030000,0.030000,1.000000,0.000000,1.000000,0.000000,0.000000,0.600000,1.000000,1.000000,0.000000,0.000000
2,0.096291,0.000000,1.000000,0.314104,0.800000,0.007305,0.060970,1.000000,2.000000,1.000000,0.002101,0.000000,0.749588,0.961630,0.896680,0.000000,2.000000
3,0.092869,0.000000,0.970444,0.210000,0.859341,0.059126,0.000000,1.000000,1.000000,0.910971,0.000000,0.193992,0.735950,1.000000,0.914176,0.181824,0.000000
4,0.074032,0.000000,0.992943,0.240414,0.971246,0.000000,0.000000,1.000000,2.000000,0.918915,0.117373,0.000000,0.918015,0.911898,0.935218,0.090049,2.000000
5,0.071878,0.186731,0.920464,0.204170,0.971246,0.000000,0.208350,1.000000,2.000000,0.918915,0.117373,0.200216,0.963645,1.000000,0.900190,0.144926,1.000000
6,0.068218,0.186731,0.934675,0.340394,0.971246,0.068233,0.208350,1.000000,2.000000,0.925434,0.117373,0.217842,0.963645,1.000000,0.849560,0.082048,2.000000
7,0.064935,0.173496,1.000000,0.478982,1.000000,0.000000,0.073766,0.934408,1.000000,1.000000,0.090516,0.165620,1.000000,0.958317,0.916163,0.000000,2.000000
8,0.062228,0.083049,0.925139,0.682043,1.000000,0.135304,0.164182,1.000000,2.000000,1.000000,0.145273,0.304747,1.000000,1.000000,0.875611,0.138463,1.000000
9,0.062228,0.083049,0.925139,0.682043,1.000000,0.135304,0.164182,1.000000,2.000000,1.000000,0.145273,0.304747,1.000000,1.000000,0.875611,0.138463,1.000000
10,0.062228,0.083049,0.925139,0.682043,1.000000,0.135304,0.164182,1.000000,2.000000,1.000000,0.145273,0.304747,1.000000,1.000000,0.875611,0.138463,1.000000
11,0.061000,0.055589,0.715786,0.762527,1.000000,0.116224,0.020667,0.953214,2.000000,1.000000,0.279139,0.278541,1.000000,1.000000,1.000000,0.351740,2.000000
12,0.060658,0.098693,0.822710,1.000000,1.000000,0.159336,0.013658,1.000000,2.000000,0.938252,0.153368,0.393754,1.000000,0.895535,0.889447,0.259508,1.000000
13,0.059923,0.018008,0.746480,0.943399,1.000000,0.214714,0.056399,1.000000,2.000000,0.976657,0.158241,0.435261,0.997983,0.867201,0.798404,0.042702,2.000000
14,0.059923,0.018008,0.746480,0.943399,1.000000,0.214714,0.056399,1.000000,2.000000,0.976657,0.158241,0.435261,0.997983,0.867201,0.798404,0.042702,2.000000
15,0.059022,0.054190,0.997079,0.941682,1.000000,0.172102,0.076115,1.000000,2.000000,0.894244,0.201776,0.614522,1.000000,1.000000,0.858273,0.064249,2.000000
16,0.059022,0.054190,0.997079,0.941682,1.000000,0.172102,0.076115,1.000000,2.000000,0.894244,0.201776,0.614522,1.000000,1.000000,0.858273,0.064249,2.000000
17,0.059022,0.054190,0.997079,0.941682,1.000000,0.172102,0.076115,1.000000,2.000000,0.894244,0.201776,0.614522,1.000000,1.000000,0.858273,0.064249,2.000000
18,0.058904,0.000000,0.906122,0.675215,1.000000,0.011506,0.015023,1.000000,2.000000,0.677427,0.000000,0.629383,1.000000,0.951795,1.000000,0.136586,2.000000
19,0.058904,0.000000,0.906122,0.675215,1.000000,0.011506,0.015023,1.000000,2.000000,0.677427,0.000000,0.629383,1.000000,0.951795,1.000000,0.136586,2.000000
20,0.058904,0.000000,0.906122,0.675215,1.000000,0.011506,0.015023,1.000000,2.000000,0.677427,0.000000,0.629383,1.000000,0.951795,1.000000,0.136586,2.000000
21,0.058904,0.000000,0.906122,0.675215,1.000000,0.011506,0.015023,1.000000,2.000000,0.677427,0.000000,0.629383,1.000000,0.951795,1.000000,0.136586,2.000000
22,0.058718,0.000000,0.857748,0.983172,1.000000,0.000000,0.000000,1.000000,2.000000,0.927037,0.150182,0.760838,1.000000,0.954456,0.392126,0.200220,1.000000
23,0.058718,0.000000,0.857748,0.983172,1.000000,0.000000,0.000000,1.000000,2.000000,0.927037,0.150182,0.760838,1.000000,0.954456,0.392126,0.200220,1.000000
24,0.058718,0.000000,0.857748,0.983172,1.000000,0.000000,0.000000,1.000000,2.000000,0.927037,0.150182,0.760838,1.000000,0.954456,0.392126,0.200220,1.000000
25,0.058565,0.024240,0.812612,0.814392,1.000000,0.167207,0.025698,1.000000,2.000000,0.904650,0.107450,0.921585,1.000000,1.000000,0.827553,0.274238,2.000000
26,0.058266,0.162372,1.000000,0.999596,1.000000,0.000000,0.000000,0.823718,2.000000,0.843734,0.219138,0.893788,1.000000,0.608354,0.700263,0.282555,2.000000
27,0.057615,0.000000,1.000000,0.950306,0.984757,0.027441,0.000000,1.000000,2.000000,0.795291,0.380379,1.000000,1.000000,1.000000,0.777624,0.438309,2.000000
28,0.057378,0.204585,1.000000,0.914134,1.000000,0.000000,0.000000,1.000000,2.000000,0.807203,0.203426,0.930120,1.000000,1.000000,0.786236,0.599210,2.000000
29,0.057378,0.204585,1.000000,0.914134,1.000000,0.000000,0.000000,1.000000,2.000000,0.807203,0.203426,0.930120,1.000000,1.000000,0.786236,0.599210,2.000000
30,0.056683,0.000000,0.978781,1.000000,1.000000,0.172882,0.000000,1.000000,2.000000,0.708570,0.499969,1.000000,1.000000,0.853706,0.929322,0.534263,2.000000
31,0.056683,0.000000,0.978781,1.000000,1.000000,0.172882,0.000000,1.000000,2.000000,0.708570,0.499969,1.000000,1.000000,0.853706,0.929322,0.534263,2.000000
32,0.056683,0.000000,0.978781,1.000000,1.000000,0.172882,0.000000,1.000000,2.000000,0.708570,0.499969,1.000000,1.000000,0.853706,0.929322,0.534263,2.000000
33,0.056683,0.000000,0.978781,1.000000,1.000000,0.172882,0.000000,1.000000,2.000000,0.708570,0.499969,1.000000,1.000000,0.853706,0.929322,0.534263,2.000000
34,0.056588,0.139438,0.987339,0.914134,1.000000,0.017561,0.000000,1.000000,2.000000,0.807203,0.193836,1.000000,1.000000,1.000000,0.786236,0.798012,2.000000
35,0.056588,0.139438,0.987339,0.914134,1.000000,0.017561,0.000000,1.000000,2.000000,0.807203,0.193836,1.000000,1.000000,1.000000,0.786236,0.798012,2.000000
36,0.056588,0.139438,0.987339,0.914134,1.000000,0.017561,0.000000,1.000000,2.000000,0.807203,0.193836,1.000000,1.000000,1.000000,0.786236,0.798012,2.000000
37,0.056332,0.001903,1.000000,0.879314,0.999996,0.063301,0.202326,0.954297,2.000000,0.163967,0.202009,1.000000,1.000000,0.834588,0.792698,0.839855,2.000000
38,0.056332,0.001903,1.000000,0.879314,0.999996,0.063301,0.202326,0.954297,2.000000,0.163967,0.202009,1.000000,1.000000,0.834588,0.792698,0.839855,2.000000
39,0.056332,0.001903,1.000000,0.879314,0.999996,0.063301,0.202326,0.954297,2.000000,0.163967,0.202009,1.000000,1.000000,0.834588,0.792698,0.839855,2.000000
40,0.056332,0.001903,1.000000,0.879314,0.999996,0.063301,0.202326,0.954297,2.000000,0.163967,0.202009,1.000000,1.000000,0.834588,0.792698,0.839855,2.000000
41,0.056332,0.001903,1.000000,0.879314,0.999996,0.063301,0.202326,0.954297,2.000000,0.163967,0.202009,1.000000,1.000000,0.834588,0.792698,0.839855,2.000000
42,0.056332,0.001903,1.000000,0.879314,0.999996,0.063301,0.202326,0.954297,2.000000,0.163967,0.202009,1.000000,1.000000,0.834588,0.792698,0.839855,2.000000
43,0.056332,0.001903,1.000000,0.879314,0.999996,0.063301,0.202326,0.954297,2.000000,0.163967,0.202009,1.000000,1.000000,0.834588,0.792698,0.839855,2.000000
44,0.056332,0.001903,1.000000,0.879314,0.999996,0.063301,0.202326,0.954297,2.000000,0.163967,0.202009,1.000000,1.000000,0.834588,0.792698,0.839855,2.000000
45,0.056332,0.001903,1.000000,0.879314,0.999996,0.063301,0.202326,0.954297,2.000000,0.163967,0.202009,1.000000,1.000000,0.834588,0.792698,0.839855,2.000000
46,0.056332,0.001903,1.000000,0.879314,0.999996,0.063301,0.202326,0.954297,2.000000,0.163967,0.202009,1.000000,1.000000,0.834588,0.792698,0.839855,2.000000
47,0.056197,0.000000,1.000000,0.933434,1.000000,0.012503,0.078895,0.918118,2.000000,0.685481,0.538299,0.999645,1.000000,0.689358,0.889755,1.000000,2.000000
48,0.055647,0.013366,1.000000,1.000000,0.975862,0.067689,0.036077,1.000000,2.000000,0.434162,0.354106,1.000000,1.000000,1.000000,0.949247,1.000000,2.000000
49,0.055647,0.013366,1.000000,1.000000,0.975862,0.067689,0.036077,1.000000,2.000000,0.434162,0.354106,1.000000,1.000000,1.000000,0.949247,1.000000,2.000000
50,0.055647,0.013366,1.000000,1.000000,0.975862,0.067689,0.036077,1.000000,2.000000,0.434162,0.354106,1.000000,1.000000,1.000000,0.949247,1.000000,2.000000
51,0.055647,0.013366,1.000000,1.000000,0.975862,0.067689,0.036077,1.000000,2.000000,0.434162,0.354106,1.000000,1.000000,1.000000,0.949247,1.000000,2.000000
52,0.055647,0.013366,1.000000,1.000000,0.975862,0.067689,0.036077,1.000000,2.000000,0.434162,0.354106,1.000000,1.000000,1.000000,0.949247,1.000000,2.000000
53,0.055647,0.013366,1.000000,1.000000,0.975862,0.067689,0.036077,1.000000,2.000000,0.434162,0.354106,1.000000,1.000000,1.000000,0.949247,1.000000,2.000000
54,0.055647,0.013366,1.000000,1.000000,0.975862,0.067689,0.036077,1.000000,2.000000,0.434162,0.354106,1.000000,1.000000,1.000000,0.949247,1.000000,2.000000
55,0.055647,0.013366,1.000000,1.000000,0.975862,0.067689,0.036077,1.000000,2.000000,0.434162,0.354106,1.000000,1.000000,1.000000,0.949247,1.000000,2.000000
56,0.055647,0.013366,1.000000,1.000000,0.975862,0.067689,0.036077,1.000000,2.000000,0.434162,0.354106,1.000000,1.000000,1.000000,0.949247,1.000000,2.000000
57,0.055647,0.013366,1.000000,1.000000,0.975862,0.067689,0.036077,1.000000,2.000000,0.434162,0.354106,1.000000,1.000000,1.000000,0.949247,1.000000,2.000000
58,0.055647,0.013366,1.000000,1.000000,0.975862,0.067689,0.036077,1.000000,2.000000,0.434162,0.354106,1.000000,1.000000,1.000000,0.949247,1.000000,2.000000
gen, fitness
0,0.032491,0.000000,1.000000,0.210000,0.800000,0.030000,0.030000,1.000000,0.000000,1.000000,0.000000,0.000000,0.600000,1.000000,1.000000,0.000000,0.000000
1,0.032491,0.000000,1.000000,0.210000,0.800000,0.030000,0.030000,1.000000,0.000000,1.000000,0.000000,0.000000,0.600000,1.000000,1.000000,0.000000,0.000000
2,0.017527,0.000000,1.000000,0.210000,0.800000,0.030000,0.000000,0.871342,2.000000,0.882892,0.088398,0.114336,0.666412,0.822574,1.000000,0.048101,1.000000
3,0.009409,0.000000,0.907025,0.056541,0.973134,0.183475,0.000000,1.000000,1.000000,0.919520,0.368500,0.056951,0.864282,1.000000,1.000000,0.129942,1.000000
4,0.009409,0.000000,0.907025,0.056541,0.973134,0.183475,0.000000,1.000000,1.000000,0.919520,0.368500,0.056951,0.864282,1.000000,1.000000,0.129942,1.000000
5,0.007400,0.133323,0.859831,0.307498,0.941569,0.282441,0.175421,1.000000,2.000000,1.000000,0.000000,0.000000,0.918984,0.895332,0.821543,0.055210,0.000000
6,0.006050,0.018885,0.620520,0.151249,0.973134,0.176651,0.110904,1.000000,1.000000,0.905442,0.394383,0.051668,0.919216,0.975317,0.974221,0.122356,2.000000
7,0.005320,0.000000,0.915144,0.455845,1.000000,0.202449,0.035274,1.000000,0.000000,1.000000,0.015189,0.107345,0.992508,0.846088,0.905522,0.000000,0.000000
8,0.003452,0.000000,0.915144,0.594319,1.000000,0.202449,0.245249,0.823564,1.000000,1.000000,0.012469,0.107345,1.000000,0.842007,1.000000,0.000000,2.000000
9,0.003452,0.000000,0.915144,0.594319,1.000000,0.202449,0.245249,0.823564,1.000000,1.000000,0.012469,0.107345,1.000000,0.842007,1.000000,0.000000,2.000000
10,0.003240,0.000672,1.000000,0.710406,1.000000,0.314181,0.045074,0.862396,1.000000,0.888243,0.000000,0.167027,1.000000,0.875321,0.731110,0.178549,1.000000
11,0.002849,0.000000,1.000000,0.715394,1.000000,0.125351,0.113240,0.741806,2.000000,0.887192,0.090188,0.189070,1.000000,0.888846,0.731110,0.239613,2.000000
12,0.002492,0.020335,1.000000,0.694676,1.000000,0.125351,0.113240,0.745545,2.000000,0.713641,0.120518,0.347349,1.000000,0.955738,0.621433,0.194397,2.000000
13,0.002492,0.020335,1.000000,0.694676,1.000000,0.125351,0.113240,0.745545,2.000000,0.713641,0.120518,0.347349,1.000000,0.955738,0.621433,0.194397,2.000000
14,0.002492,0.020335,1.000000,0.694676,1.000000,0.125351,0.113240,0.745545,2.000000,0.713641,0.120518,0.347349,1.000000,0.955738,0.621433,0.194397,2.000000
15,0.002492,0.020335,1.000000,0.694676,1.000000,0.125351,0.113240,0.745545,2.000000,0.713641,0.120518,0.347349,1.000000,0.955738,0.621433,0.194397,2.000000
16,0.002416,0.058590,1.000000,0.816202,1.000000,0.330359,0.122020,0.809499,2.000000,0.867474,0.138808,0.750429,1.000000,0.927284,1.000000,0.180222,2.000000
17,0.002325,0.064315,0.789947,0.981930,1.000000,0.127623,0.096960,0.626142,2.000000,0.867474,0.188265,0.598858,1.000000,0.994840,0.999964,0.257920,2.000000
18,0.002325,0.064315,0.789947,0.981930,1.000000,0.127623,0.096960,0.626142,2.000000,0.867474,0.188265,0.598858,1.000000,0.994840,0.999964,0.257920,2.000000
19,0.002046,0.000000,1.000000,0.995440,1.000000,0.624505,0.074372,0.827479,2.000000,0.759465,0.138808,0.759590,1.000000,0.927528,1.000000,0.391977,2.000000
20,0.002016,0.000000,0.903316,0.927053,1.000000,0.532503,0.197296,1.000000,2.000000,0.628202,0.000000,1.000000,1.000000,0.762254,0.956321,0.328410,1.000000
21,0.001808,0.042202,0.770280,0.954044,1.000000,0.529033,0.405387,0.993487,2.000000,0.492711,0.005493,1.000000,1.000000,0.853096,0.956321,0.555532,2.000000
22,0.001808,0.042202,0.770280,0.954044,1.000000,0.529033,0.405387,0.993487,2.000000,0.492711,0.005493,1.000000,1.000000,0.853096,0.956321,0.555532,2.000000
23,0.001808,0.042202,0.770280,0.954044,1.000000,0.529033,0.405387,0.993487,2.000000,0.492711,0.005493,1.000000,1.000000,0.853096,0.956321,0.555532,2.000000
24,0.001753,0.024844,0.829934,0.887654,1.000000,0.528972,0.119513,0.995491,2.000000,0.475833,0.000000,0.979955,1.000000,0.972666,0.970751,0.371424,2.000000
25,0.001753,0.024844,0.829934,0.887654,1.000000,0.528972,0.119513,0.995491,2.000000,0.475833,0.000000,0.979955,1.000000,0.972666,0.970751,0.371424,2.000000
26,0.001753,0.024844,0.829934,0.887654,1.000000,0.528972,0.119513,0.995491,2.000000,0.475833,0.000000,0.979955,1.000000,0.972666,0.970751,0.371424,2.000000
27,0.001753,0.024844,0.829934,0.887654,1.000000,0.528972,0.119513,0.995491,2.000000,0.475833,0.000000,0.979955,1.000000,0.972666,0.970751,0.371424,2.000000
28,0.001753,0.024844,0.829934,0.887654,1.000000,0.528972,0.119513,0.995491,2.000000,0.475833,0.000000,0.979955,1.000000,0.972666,0.970751,0.371424,2.000000
29,0.001753,0.024844,0.829934,0.887654,1.000000,0.528972,0.119513,0.995491,2.000000,0.475833,0.000000,0.979955,1.000000,0.972666,0.970751,0.371424,2.000000
30,0.001753,0.024844,0.829934,0.887654,1.000000,0.528972,0.119513,0.995491,2.000000,0.475833,0.000000,0.979955,1.000000,0.972666,0.970751,0.371424,2.000000
31,0.001753,0.024844,0.829934,0.887654,1.000000,0.528972,0.119513,0.995491,2.000000,0.475833,0.000000,0.979955,1.000000,0.972666,0.970751,0.371424,2.000000
32,0.001753,0.024844,0.829934,0.887654,1.000000,0.528972,0.119513,0.995491,2.000000,0.475833,0.000000,0.979955,1.000000,0.972666,0.970751,0.371424,2.000000
33,0.001753,0.024844,0.829934,0.887654,1.000000,0.528972,0.119513,0.995491,2.000000,0.475833,0.000000,0.979955,1.000000,0.972666,0.970751,0.371424,2.000000
34,0.001739,0.004502,0.749366,0.700231,1.000000,0.097349,0.368368,0.946921,2.000000,0.286806,0.064492,0.945066,1.000000,0.641438,0.889783,0.687515,2.000000
35,0.001739,0.004502,0.749366,0.700231,1.000000,0.097349,0.368368,0.946921,2.000000,0.286806,0.064492,0.945066,1.000000,0.641438,0.889783,0.687515,2.000000
36,0.001739,0.004502,0.749366,0.700231,1.000000,0.097349,0.368368,0.946921,2.000000,0.286806,0.064492,0.945066,1.000000,0.641438,0.889783,0.687515,2.000000
37,0.001739,0.004502,0.749366,0.700231,1.000000,0.097349,0.368368,0.946921,2.000000,0.286806,0.064492,0.945066,1.000000,0.641438,0.889783,0.687515,2.000000
38,0.001734,0.000000,0.447422,1.000000,0.993007,0.564976,0.261128,0.976197,2.000000,0.415746,0.000000,1.000000,1.000000,0.853096,1.000000,0.446058,2.000000
39,0.001734,0.000000,0.447422,1.000000,0.993007,0.564976,0.261128,0.976197,2.000000,0.415746,0.000000,1.000000,1.000000,0.853096,1.000000,0.446058,2.000000
40,0.001674,0.000000,0.710128,0.691528,1.000000,0.052112,0.320763,1.000000,2.000000,0.221984,0.169762,0.922395,1.000000,0.562795,0.889783,0.652342,2.000000
41,0.001674,0.000000,0.710128,0.691528,1.000000,0.052112,0.320763,1.000000,2.000000,0.221984,0.169762,0.922395,1.000000,0.562795,0.889783,0.652342,2.000000
42,0.001674,0.000000,0.710128,0.691528,1.000000,0.052112,0.320763,1.000000,2.000000,0.221984,0.169762,0.922395,1.000000,0.562795,0.889783,0.652342,2.000000
43,0.001674,0.000000,0.710128,0.691528,1.000000,0.052112,0.320763,1.000000,2.000000,0.221984,0.169762,0.922395,1.000000,0.562795,0.889783,0.652342,2.000000
44,0.001674,0.000000,0.710128,0.691528,1.000000,0.052112,0.320763,1.000000,2.000000,0.221984,0.169762,0.922395,1.000000,0.562795,0.889783,0.652342,2.000000
45,0.001674,0.000000,0.710128,0.691528,1.000000,0.052112,0.320763,1.000000,2.000000,0.221984,0.169762,0.922395,1.000000,0.562795,0.889783,0.652342,2.000000
46,0.001674,0.000000,0.710128,0.691528,1.000000,0.052112,0.320763,1.000000,2.000000,0.221984,0.169762,0.922395,1.000000,0.562795,0.889783,0.652342,2.000000
47,0.001674,0.000000,0.710128,0.691528,1.000000,0.052112,0.320763,1.000000,2.000000,0.221984,0.169762,0.922395,1.000000,0.562795,0.889783,0.652342,2.000000
48,0.001674,0.000000,0.710128,0.691528,1.000000,0.052112,0.320763,1.000000,2.000000,0.221984,0.169762,0.922395,1.000000,0.562795,0.889783,0.652342,2.000000
49,0.001674,0.000000,0.710128,0.691528,1.000000,0.052112,0.320763,1.000000,2.000000,0.221984,0.169762,0.922395,1.000000,0.562795,0.889783,0.652342,2.000000
50,0.001674,0.000000,0.710128,0.691528,1.000000,0.052112,0.320763,1.000000,2.000000,0.221984,0.169762,0.922395,1.000000,0.562795,0.889783,0.652342,2.000000
gen, fitness
0,0.074963,0.000000,1.000000,0.210000,0.800000,0.030000,0.030000,1.000000,0.000000,1.000000,0.000000,0.000000,0.600000,1.000000,1.000000,0.000000,0.000000
1,0.074963,0.000000,1.000000,0.210000,0.800000,0.030000,0.030000,1.000000,0.000000,1.000000,0.000000,0.000000,0.600000,1.000000,1.000000,0.000000,0.000000
2,0.043760,0.081859,1.000000,0.158827,0.912934,0.066372,0.096001,1.000000,0.000000,0.948085,0.131821,0.000000,0.810969,0.732889,0.972216,0.000000,1.000000
3,0.022662,0.000000,1.000000,0.174432,1.000000,0.000000,0.008843,1.000000,2.000000,0.941145,0.019809,0.000000,1.000000,0.974870,0.962583,0.149763,2.000000
4,0.022662,0.000000,1.000000,0.174432,1.000000,0.000000,0.008843,1.000000,2.000000,0.941145,0.019809,0.000000,1.000000,0.974870,0.962583,0.149763,2.000000
5,0.022662,0.000000,1.000000,0.174432,1.000000,0.000000,0.008843,1.000000,2.000000,0.941145,0.019809,0.000000,1.000000,0.974870,0.962583,0.149763,2.000000
6,0.020281,0.000000,0.850524,0.326402,1.000000,0.035743,0.000000,0.932864,2.000000,0.837372,0.047299,0.196558,1.000000,0.416741,0.915490,0.121285,1.000000
7,0.020281,0.000000,0.850524,0.326402,1.000000,0.035743,0.000000,0.932864,2.000000,0.837372,0.047299,0.196558,1.000000,0.416741,0.915490,0.121285,1.000000
8,0.019943,0.000000,0.762021,0.441077,0.990873,0.000000,0.087430,1.000000,2.000000,1.000000,0.111756,0.051536,1.000000,0.577112,1.000000,0.149761,2.000000
9,0.017930,0.000000,1.000000,0.542326,1.000000,0.000000,0.000000,1.000000,2.000000,0.659226,0.102014,0.213482,0.989705,0.797628,0.683349,0.373213,0.000000
10,0.016282,0.000000,0.805275,0.486877,0.990873,0.000000,0.000000,1.000000,2.000000,0.426420,0.196176,0.344673,1.000000,0.881933,1.000000,0.000000,0.000000
11,0.016282,0.000000,0.805275,0.486877,0.990873,0.000000,0.000000,1.000000,2.000000,0.426420,0.196176,0.344673,1.000000,0.881933,1.000000,0.000000,0.000000
12,0.016282,0.000000,0.805275,0.486877,0.990873,0.000000,0.000000,1.000000,2.000000,0.426420,0.196176,0.344673,1.000000,0.881933,1.000000,0.000000,0.000000
13,0.015022,0.000000,0.727907,0.517460,0.988887,0.000000,0.051527,1.000000,2.000000,0.281739,0.000000,0.431559,1.000000,0.931589,0.946401,0.020876,1.000000
14,0.014580,0.071865,0.782149,0.739767,1.000000,0.000000,0.036043,1.000000,2.000000,0.683431,0.476315,0.535517,1.000000,0.560553,0.353442,0.219861,1.000000
15,0.014580,0.071865,0.782149,0.739767,1.000000,0.000000,0.036043,1.000000,2.000000,0.683431,0.476315,0.535517,1.000000,0.560553,0.353442,0.219861,1.000000
16,0.014290,0.000000,0.774615,0.688723,1.000000,0.005226,0.140668,0.992631,2.000000,0.245602,0.121636,0.546739,1.000000,0.865584,0.880568,0.000000,0.000000
17,0.013993,0.095286,0.787309,0.882548,1.000000,0.190849,0.266701,1.000000,0.000000,0.369568,0.539875,0.690262,1.000000,0.560553,0.428648,0.090975,1.000000
18,0.013513,0.119314,0.714923,0.808901,0.997556,0.302625,0.407029,1.000000,2.000000,0.369568,0.539875,0.655422,1.000000,0.497825,0.497766,0.000000,0.000000
19,0.012361,0.046714,0.626075,0.882548,1.000000,0.000000,0.427028,1.000000,2.000000,0.369568,0.381095,0.908092,1.000000,0.471098,0.508318,0.143196,2.000000
20,0.012361,0.046714,0.626075,0.882548,1.000000,0.000000,0.427028,1.000000,2.000000,0.369568,0.381095,0.908092,1.000000,0.471098,0.508318,0.143196,2.000000
21,0.012339,0.161176,1.000000,0.986307,0.996436,0.022657,0.422409,1.000000,2.000000,0.345275,0.548627,0.857607,1.000000,0.405469,0.508304,0.313712,1.000000
22,0.011860,0.064373,0.626075,1.000000,1.000000,0.019249,0.510582,0.973704,2.000000,0.191264,0.349416,0.969438,1.000000,0.797619,0.622789,0.000000,2.000000
23,0.011860,0.064373,0.626075,1.000000,1.000000,0.019249,0.510582,0.973704,2.000000,0.191264,0.349416,0.969438,1.000000,0.797619,0.622789,0.000000,2.000000
24,0.011798,0.064373,0.626075,1.000000,1.000000,0.000000,0.508392,0.973704,2.000000,0.149233,0.363217,0.969618,1.000000,0.788753,0.599661,0.000000,2.000000
25,0.011639,0.000000,0.453312,1.000000,0.975780,0.000000,0.634531,1.000000,2.000000,0.237719,0.516738,1.000000,1.000000,0.374683,0.432290,0.308206,1.000000
26,0.011639,0.000000,0.453312,1.000000,0.975780,0.000000,0.634531,1.000000,2.000000,0.237719,0.516738,1.000000,1.000000,0.374683,0.432290,0.308206,1.000000
27,0.011639,0.000000,0.453312,1.000000,0.975780,0.000000,0.634531,1.000000,2.000000,0.237719,0.516738,1.000000,1.000000,0.374683,0.432290,0.308206,1.000000
28,0.011639,0.000000,0.453312,1.000000,0.975780,0.000000,0.634531,1.000000,2.000000,0.237719,0.516738,1.000000,1.000000,0.374683,0.432290,0.308206,1.000000
29,0.011389,0.000102,0.605208,1.000000,1.000000,0.000000,0.701497,1.000000,2.000000,0.080672,0.306868,1.000000,1.000000,0.708899,0.483435,0.037833,2.000000
30,0.011389,0.000102,0.605208,1.000000,1.000000,0.000000,0.701497,1.000000,2.000000,0.080672,0.306868,1.000000,1.000000,0.708899,0.483435,0.037833,2.000000
31,0.011276,0.000000,0.191684,1.000000,0.996524,0.000000,0.458258,0.996139,2.000000,0.000000,0.317010,0.960536,1.000000,0.762548,0.577820,0.030364,2.000000
32,0.011272,0.000000,0.348403,1.000000,0.987800,0.000000,0.561376,0.978408,2.000000,0.025532,0.493605,1.000000,1.000000,0.786447,0.623153,0.385649,1.000000
33,0.011239,0.126364,0.732499,1.000000,0.983083,0.027914,0.883811,0.896232,2.000000,0.051353,0.679398,1.000000,1.000000,0.666600,0.370117,0.000000,2.000000
34,0.011239,0.126364,0.732499,1.000000,0.983083,0.027914,0.883811,0.896232,2.000000,0.051353,0.679398,1.000000,1.000000,0.666600,0.370117,0.000000,2.000000
35,0.011038,0.000000,0.173497,1.000000,0.992709,0.000000,0.458258,0.996139,2.000000,0.000000,0.317010,1.000000,1.000000,0.905557,0.537579,0.000000,2.000000
36,0.011038,0.000000,0.173497,1.000000,0.992709,0.000000,0.458258,0.996139,2.000000,0.000000,0.317010,1.000000,1.000000,0.905557,0.537579,0.000000,2.000000
37,0.011038,0.000000,0.173497,1.000000,0.992709,0.000000,0.458258,0.996139,2.000000,0.000000,0.317010,1.000000,1.000000,0.905557,0.537579,0.000000,2.000000
38,0.011038,0.000000,0.173497,1.000000,0.992709,0.000000,0.458258,0.996139,2.000000,0.000000,0.317010,1.000000,1.000000,0.905557,0.537579,0.000000,2.000000
39,0.011038,0.000000,0.173497,1.000000,0.992709,0.000000,0.458258,0.996139,2.000000,0.000000,0.317010,1.000000,1.000000,0.905557,0.537579,0.000000,2.000000
40,0.011038,0.000000,0.173497,1.000000,0.992709,0.000000,0.458258,0.996139,2.000000,0.000000,0.317010,1.000000,1.000000,0.905557,0.537579,0.000000,2.000000
41,0.011038,0.000000,0.173497,1.000000,0.992709,0.000000,0.458258,0.996139,2.000000,0.000000,0.317010,1.000000,1.000000,0.905557,0.537579,0.000000,2.000000
42,0.011038,0.000000,0.173497,1.000000,0.992709,0.000000,0.458258,0.996139,2.000000,0.000000,0.317010,1.000000,1.000000,0.905557,0.537579,0.000000,2.000000
43,0.011038,0.000000,0.173497,1.000000,0.992709,0.000000,0.458258,0.996139,2.000000,0.000000,0.317010,1.000000,1.000000,0.905557,0.537579,0.000000,2.000000
44,0.011038,0.000000,0.173497,1.000000,0.992709,0.000000,0.458258,0.996139,2.000000,0.000000,0.317010,1.000000,1.000000,0.905557,0.537579,0.000000,2.000000
45,0.011029,0.205122,0.706477,1.000000,0.978945,0.156405,0.533053,0.901110,2.000000,0.000000,0.230096,0.878467,1.000000,0.556279,0.259982,0.000000,2.000000
gen, fitness
0,0.169504,0.000000,1.000000,0.210000,0.800000,0.030000,0.030000,1.000000,0.000000,1.000000,0.000000,0.000000,0.600000,1.000000,1.000000,0.000000,0.000000
1,0.169504,0.000000,1.000000,0.210000,0.800000,0.030000,0.030000,1.000000,0.000000,1.000000,0.000000,0.000000,0.600000,1.000000,1.000000,0.000000,0.000000
2,0.120054,0.000000,0.934825,0.177208,0.800000,0.000000,0.113964,0.975290,2.000000,1.000000,0.000000,0.111382,0.802273,1.000000,0.826233,0.024703,0.000000
3,0.093803,0.000000,0.967672,0.336568,0.896247,0.109143,0.018588,0.922206,0.000000,0.987840,0.111946,0.186675,0.904119,0.877623,0.890810,0.000000,2.000000
4,0.089806,0.000000,0.799208,0.031550,0.948647,0.000000,0.036048,1.000000,0.000000,1.000000,0.079073,0.189170,0.899670,0.756014,1.000000,0.063492,0.000000
5,0.068867,0.045946,0.776371,0.041218,1.000000,0.000000,0.143228,1.000000,1.000000,1.000000,0.000000,0.402420,0.959156,0.740200,0.890087,0.063492,2.000000
6,0.068867,0.045946,0.776371,0.041218,1.000000,0.000000,0.143228,1.000000,1.000000,1.000000,0.000000,0.402420,0.959156,0.740200,0.890087,0.063492,2.000000
7,0.068247,0.002089,0.787178,0.057907,1.000000,0.000000,0.204797,0.882421,1.000000,1.000000,0.000000,0.426098,0.937785,1.000000,0.917429,0.342938,2.000000
8,0.065205,0.000000,0.924340,0.033863,1.000000,0.272662,0.110892,0.833083,2.000000,0.946447,0.079073,0.638738,0.988414,0.631398,1.000000,0.000000,2.000000
9,0.065025,0.000000,0.839757,0.000000,1.000000,0.272662,0.110892,0.681889,2.000000,0.946447,0.079073,0.648442,1.000000,0.617220,0.926067,0.000000,2.000000
10,0.062979,0.002294,0.859095,0.000000,1.000000,0.127498,0.145188,1.000000,2.000000,1.000000,0.048183,0.650012,0.935864,1.000000,1.000000,0.228215,2.000000
11,0.062979,0.002294,0.859095,0.000000,1.000000,0.127498,0.145188,1.000000,2.000000,1.000000,0.048183,0.650012,0.935864,1.000000,1.000000,0.228215,2.000000
12,0.062979,0.002294,0.859095,0.000000,1.000000,0.127498,0.145188,1.000000,2.000000,1.000000,0.048183,0.650012,0.935864,1.000000,1.000000,0.228215,2.000000
13,0.062979,0.002294,0.859095,0.000000,1.000000,0.127498,0.145188,1.000000,2.000000,1.000000,0.048183,0.650012,0.935864,1.000000,1.000000,0.228215,2.000000
14,0.062979,0.002294,0.859095,0.000000,1.000000,0.127498,0.145188,1.000000,2.000000,1.000000,0.048183,0.650012,0.935864,1.000000,1.000000,0.228215,2.000000
15,0.062161,0.174266,0.963653,0.000000,1.000000,0.289794,0.244579,0.795531,1.000000,0.995109,0.110569,0.949985,0.967653,0.783461,1.000000,0.094577,2.000000
16,0.062159,0.189729,0.467981,0.086161,1.000000,0.185839,0.324759,0.812972,2.000000,1.000000,0.357428,1.000000,0.950683,1.000000,1.000000,0.201460,2.000000
17,0.059675,0.065344,0.838857,0.000000,1.000000,0.000000,0.000000,1.000000,2.000000,1.000000,0.019892,0.998663,0.941745,0.790722,1.000000,0.220660,2.000000
18,0.059675,0.065344,0.838857,0.000000,1.000000,0.000000,0.000000,1.000000,2.000000,1.000000,0.019892,0.998663,0.941745,0.790722,1.000000,0.220660,2.000000
19,0.059675,0.065344,0.838857,0.000000,1.000000,0.000000,0.000000,1.000000,2.000000,1.000000,0.019892,0.998663,0.941745,0.790722,1.000000,0.220660,2.000000
20,0.059675,0.065344,0.838857,0.000000,1.000000,0.000000,0.000000,1.000000,2.000000,1.000000,0.019892,0.998663,0.941745,0.790722,1.000000,0.220660,2.000000
21,0.059675,0.065344,0.838857,0.000000,1.000000,0.000000,0.000000,1.000000,2.000000,1.000000,0.019892,0.998663,0.941745,0.790722,1.000000,0.220660,2.000000
22,0.059675,0.065344,0.838857,0.000000,1.000000,0.000000,0.000000,1.000000,2.000000,1.000000,0.019892,0.998663,0.941745,0.790722,1.000000,0.220660,2.000000
23,0.059675,0.065344,0.838857,0.000000,1.000000,0.000000,0.000000,1.000000,2.000000,1.000000,0.019892,0.998663,0.941745,0.790722,1.000000,0.220660,2.000000
24,0.059563,0.015581,0.809105,0.000000,1.000000,0.126712,0.000000,0.287033,1.000000,1.000000,0.301810,0.867127,0.945283,0.976397,1.000000,0.677632,2.000000
25,0.059563,0.015581,0.809105,0.000000,1.000000,0.126712,0.000000,0.287033,1.000000,1.000000,0.301810,0.867127,0.945283,0.976397,1.000000,0.677632,2.000000
26,0.059526,0.000000,0.807813,0.000000,1.000000,0.000000,0.000000,1.000000,2.000000,1.000000,0.086424,1.000000,0.945619,0.907983,0.940629,0.209495,2.000000
27,0.059526,0.000000,0.807813,0.000000,1.000000,0.000000,0.000000,1.000000,2.000000,1.000000,0.086424,1.000000,0.945619,0.907983,0.940629,0.209495,2.000000
28,0.059526,0.000000,0.807813,0.000000,1.000000,0.000000,0.000000,1.000000,2.000000,1.000000,0.086424,1.000000,0.945619,0.907983,0.940629,0.209495,2.000000
29,0.058990,0.000000,0.853220,0.000000,1.000000,0.367015,0.031135,0.268512,2.000000,1.000000,0.301810,0.903250,0.945283,0.849278,1.000000,0.642447,2.000000
30,0.058990,0.000000,0.853220,0.000000,1.000000,0.367015,0.031135,0.268512,2.000000,1.000000,0.301810,0.903250,0.945283,0.849278,1.000000,0.642447,2.000000
31,0.058220,0.000000,0.809105,0.071936,1.000000,0.012014,0.000000,0.414432,2.000000,1.000000,0.000000,1.000000,0.968198,1.000000,1.000000,0.890370,2.000000
32,0.058220,0.000000,0.809105,0.071936,1.000000,0.012014,0.000000,0.414432,2.000000,1.000000,0.000000,1.000000,0.968198,1.000000,1.000000,0.890370,2.000000
33,0.058220,0.000000,0.809105,0.071936,1.000000,0.012014,0.000000,0.414432,2.000000,1.000000,0.000000,1.000000,0.968198,1.000000,1.000000,0.890370,2.000000
34,0.058035,0.086617,0.894209,0.000000,1.000000,0.000000,0.000000,1.000000,2.000000,1.000000,0.135132,0.944972,0.937467,1.000000,0.961491,1.000000,2.000000
35,0.058035,0.086617,0.894209,0.000000,1.000000,0.000000,0.000000,1.000000,2.000000,1.000000,0.135132,0.944972,0.937467,1.000000,0.961491,1.000000,2.000000
36,0.058035,0.086617,0.894209,0.000000,1.000000,0.000000,0.000000,1.000000,2.000000,1.000000,0.135132,0.944972,0.937467,1.000000,0.961491,1.000000,2.000000
37,0.058035,0.086617,0.894209,0.000000,1.000000,0.000000,0.000000,1.000000,2.000000,1.000000,0.135132,0.944972,0.937467,1.000000,0.961491,1.000000,2.000000
38,0.058035,0.086617,0.894209,0.000000,1.000000,0.000000,0.000000,1.000000,2.000000,1.000000,0.135132,0.944972,0.937467,1.000000,0.961491,1.000000,2.000000
39,0.057413,0.119066,0.829728,0.000000,1.000000,0.127592,0.000000,0.414432,2.000000,1.000000,0.000000,1.000000,0.966303,1.000000,1.000000,0.946967,2.000000
40,0.057413,0.119066,0.829728,0.000000,1.000000,0.127592,0.000000,0.414432,2.000000,1.000000,0.000000,1.000000,0.966303,1.000000,1.000000,0.946967,2.000000
41,0.057413,0.119066,0.829728,0.000000,1.000000,0.127592,0.000000,0.414432,2.000000,1.000000,0.000000,1.000000,0.966303,1.000000,1.000000,0.946967,2.000000
42,0.057413,0.119066,0.829728,0.000000,1.000000,0.127592,0.000000,0.414432,2.000000,1.000000,0.000000,1.000000,0.966303,1.000000,1.000000,0.946967,2.000000
43,0.057413,0.119066,0.829728,0.000000,1.000000,0.127592,0.000000,0.414432,2.000000,1.000000,0.000000,1.000000,0.966303,1.000000,1.000000,0.946967,2.000000
44,0.057413,0.119066,0.829728,0.000000,1.000000,0.127592,0.000000,0.414432,2.000000,1.000000,0.000000,1.000000,0.966303,1.000000,1.000000,0.946967,2.000000
45,0.057413,0.119066,0.829728,0.000000,1.000000,0.127592,0.000000,0.414432,2.000000,1.000000,0.000000,1.000000,0.966303,1.000000,1.000000,0.946967,2.000000
46,0.057413,0.119066,0.829728,0.000000,1.000000,0.127592,0.000000,0.414432,2.000000,1.000000,0.000000,1.000000,0.966303,1.000000,1.000000,0.946967,2.000000
47,0.057413,0.119066,0.829728,0.000000,1.000000,0.127592,0.000000,0.414432,2.000000,1.000000,0.000000,1.000000,0.966303,1.000000,1.000000,0.946967,2.000000
48,0.057413,0.119066,0.829728,0.000000,1.000000,0.127592,0.000000,0.414432,2.000000,1.000000,0.000000,1.000000,0.966303,1.000000,1.000000,0.946967,2.000000
49,0.057413,0.119066,0.829728,0.000000,1.000000,0.127592,0.000000,0.414432,2.000000,1.000000,0.000000,1.000000,0.966303,1.000000,1.000000,0.946967,2.000000
gen, fitness
0,0.081164,0.000000,1.000000,0.210000,0.800000,0.030000,0.030000,1.000000,0.000000,1.000000,0.000000,0.000000,0.600000,1.000000,1.000000,0.000000,0.000000
1,0.081164,0.000000,1.000000,0.210000,0.800000,0.030000,0.030000,1.000000,0.000000,1.000000,0.000000,0.000000,0.600000,1.000000,1.000000,0.000000,0.000000
2,0.042649,0.005837,1.000000,0.210000,0.845199,0.000000,0.028787,0.977260,2.000000,1.000000,0.000000,0.171474,0.813624,1.000000,0.943442,0.000000,2.000000
3,0.025559,0.000000,1.000000,0.210000,0.978821,0.000000,0.000000,0.963236,2.000000,1.000000,0.084380,0.095198,0.965625,0.817647,0.839190,0.000000,0.000000
4,0.021860,0.000000,0.941755,0.159500,1.000000,0.000000,0.000000,1.000000,2.000000,0.964596,0.015026,0.116806,1.000000,1.000000,0.918527,0.093878,1.000000
5,0.021860,0.000000,0.941755,0.159500,1.000000,0.000000,0.000000,1.000000,2.000000,0.964596,0.015026,0.116806,1.000000,1.000000,0.918527,0.093878,1.000000
6,0.021754,0.000000,0.908959,0.000000,1.000000,0.025194,0.000000,0.848614,2.000000,0.988580,0.081584,0.160963,1.000000,0.793872,0.872862,0.154643,2.000000
7,0.020338,0.000000,0.983368,0.157227,1.000000,0.000000,0.000000,0.988210,2.000000,0.962582,0.078329,0.260345,1.000000,0.729644,0.961358,0.179840,2.000000
8,0.020338,0.000000,0.983368,0.157227,1.000000,0.000000,0.000000,0.988210,2.000000,0.962582,0.078329,0.260345,1.000000,0.729644,0.961358,0.179840,2.000000
9,0.020067,0.000000,0.909061,0.252407,1.000000,0.000000,0.000000,0.851037,2.000000,0.734213,0.217527,0.347777,1.000000,0.801782,0.554532,0.000000,2.000000
10,0.019562,0.000000,0.898700,0.259822,1.000000,0.372977,0.144818,1.000000,2.000000,0.688836,0.000000,0.421558,1.000000,0.726163,0.767070,0.280533,2.000000
11,0.019562,0.000000,0.898700,0.259822,1.000000,0.372977,0.144818,1.000000,2.000000,0.688836,0.000000,0.421558,1.000000,0.726163,0.767070,0.280533,2.000000
12,0.019562,0.000000,0.898700,0.259822,1.000000,0.372977,0.144818,1.000000,2.000000,0.688836,0.000000,0.421558,1.000000,0.726163,0.767070,0.280533,2.000000
13,0.019562,0.000000,0.898700,0.259822,1.000000,0.372977,0.144818,1.000000,2.000000,0.688836,0.000000,0.421558,1.000000,0.726163,0.767070,0.280533,2.000000
14,0.019558,0.121649,1.000000,0.095133,1.000000,0.138497,0.099997,0.727683,1.000000,0.814372,0.000000,0.723895,0.944718,0.960911,0.563609,0.690544,2.000000
15,0.019349,0.000000,0.898700,0.487001,1.000000,0.394734,0.267606,0.892332,2.000000,0.643863,0.000000,0.489178,1.000000,0.856968,0.608554,0.211019,2.000000
16,0.019349,0.000000,0.898700,0.487001,1.000000,0.394734,0.267606,0.892332,2.000000,0.643863,0.000000,0.489178,1.000000,0.856968,0.608554,0.211019,2.000000
17,0.019349,0.000000,0.898700,0.487001,1.000000,0.394734,0.267606,0.892332,2.000000,0.643863,0.000000,0.489178,1.000000,0.856968,0.608554,0.211019,2.000000
18,0.018821,0.020236,0.904725,0.356362,1.000000,0.303865,0.024767,1.000000,2.000000,0.656709,0.342269,0.634705,1.000000,0.719921,0.867689,0.103498,2.000000
19,0.018821,0.020236,0.904725,0.356362,1.000000,0.303865,0.024767,1.000000,2.000000,0.656709,0.342269,0.634705,1.000000,0.719921,0.867689,0.103498,2.000000
20,0.018803,0.000000,0.882366,0.345287,1.000000,0.580035,0.448975,0.846863,2.000000,0.513689,0.000000,0.804502,0.983546,0.740274,0.755151,0.102361,2.000000
21,0.018803,0.000000,0.882366,0.345287,1.000000,0.580035,0.448975,0.846863,2.000000,0.513689,0.000000,0.804502,0.983546,0.740274,0.755151,0.102361,2.000000
22,0.018129,0.000000,0.562555,0.470534,1.000000,0.191801,0.088880,0.649666,2.000000,0.796826,0.219788,1.000000,0.952037,0.547842,0.473858,0.615058,2.000000
23,0.018129,0.000000,0.562555,0.470534,1.000000,0.191801,0.088880,0.649666,2.000000,0.796826,0.219788,1.000000,0.952037,0.547842,0.473858,0.615058,2.000000
24,0.017563,0.100385,0.527855,0.600549,1.000000,0.176930,0.018053,0.482631,2.000000,0.662173,0.558807,1.000000,1.000000,0.547842,0.262164,0.689134,2.000000
25,0.017563,0.100385,0.527855,0.600549,1.000000,0.176930,0.018053,0.482631,2.000000,0.662173,0.558807,1.000000,1.000000,0.547842,0.262164,0.689134,2.000000
26,0.017563,0.100385,0.527855,0.600549,1.000000,0.176930,0.018053,0.482631,2.000000,0.662173,0.558807,1.000000,1.000000,0.547842,0.262164,0.689134,2.000000
27,0.017311,0.000000,0.688324,0.500268,1.000000,0.000000,0.072092,0.283938,2.000000,0.350490,0.000000,0.942503,1.000000,0.766067,0.360716,0.848321,2.000000
28,0.017311,0.000000,0.688324,0.500268,1.000000,0.000000,0.072092,0.283938,2.000000,0.350490,0.000000,0.942503,1.000000,0.766067,0.360716,0.848321,2.000000
29,0.017311,0.000000,0.688324,0.500268,1.000000,0.000000,0.072092,0.283938,2.000000,0.350490,0.000000,0.942503,1.000000,0.766067,0.360716,0.848321,2.000000
30,0.017311,0.000000,0.688324,0.500268,1.000000,0.000000,0.072092,0.283938,2.000000,0.350490,0.000000,0.942503,1.000000,0.766067,0.360716,0.848321,2.000000
31,0.017311,0.000000,0.688324,0.500268,1.000000,0.000000,0.072092,0.283938,2.000000,0.350490,0.000000,0.942503,1.000000,0.766067,0.360716,0.848321,2.000000
32,0.017311,0.000000,0.688324,0.500268,1.000000,0.000000,0.072092,0.283938,2.000000,0.350490,0.000000,0.942503,1.000000,0.766067,0.360716,0.848321,2.000000
33,0.017311,0.000000,0.688324,0.500268,1.000000,0.000000,0.072092,0.283938,2.000000,0.350490,0.000000,0.942503,1.000000,0.766067,0.360716,0.848321,2.000000
34,0.017311,0.000000,0.688324,0.500268,1.000000,0.000000,0.072092,0.283938,2.000000,0.350490,0.000000,0.942503,1.000000,0.766067,0.360716,0.848321,2.000000
35,0.017311,0.000000,0.688324,0.500268,1.000000,0.000000,0.072092,0.283938,2.000000,0.350490,0.000000,0.942503,1.000000,0.766067,0.360716,0.848321,2.000000
36,0.017311,0.000000,0.688324,0.500268,1.000000,0.000000,0.072092,0.283938,2.000000,0.350490,0.000000,0.942503,1.000000,0.766067,0.360716,0.848321,2.000000
37,0.017311,0.000000,0.688324,0.500268,1.000000,0.000000,0.072092,0.283938,2.000000,0.350490,0.000000,0.942503,1.000000,0.766067,0.360716,0.848321,2.000000
gen, fitness
0,0.045024,0.000000,1.000000,0.210000,0.800000,0.030000,0.030000,1.000000,0.000000,1.000000,0.000000,0.000000,0.600000,1.000000,1.000000,0.000000,0.000000
1,0.045024,0.000000,1.000000,0.210000,0.800000,0.030000,0.030000,1.000000,0.000000,1.000000,0.000000,0.000000,0.600000,1.000000,1.000000,0.000000,0.000000
2,0.024877,0.000000,0.910044,0.210000,0.808671,0.119414,0.030000,0.863208,1.000000,1.000000,0.092048,0.197923,0.699135,1.000000,1.000000,0.124511,1.000000
3,0.015254,0.000000,1.000000,0.343929,0.911196,0.042663,0.000000,1.000000,1.000000,0.779390,0.000000,0.121799,0.827570,0.948706,0.844587,0.000000,1.000000
4,0.011316,0.040001,0.750076,0.395217,0.936790,0.000000,0.000000,0.790141,0.000000,1.000000,0.043750,0.258562,0.843847,1.000000,0.833504,0.190832,1.000000
5,0.008337,0.000000,1.000000,0.256552,0.944118,0.006131,0.163264,0.903064,2.000000,0.780961,0.000000,0.188764,0.910558,1.000000,0.969692,0.089006,1.000000
6,0.005813,0.000000,1.000000,0.203848,0.994714,0.048451,0.176036,0.965689,2.000000,0.604371,0.000000,0.121799,0.997498,0.814062,0.791156,0.132415,1.000000
7,0.005813,0.000000,1.000000,0.203848,0.994714,0.048451,0.176036,0.965689,2.000000,0.604371,0.000000,0.121799,0.997498,0.814062,0.791156,0.132415,1.000000
8,0.005627,0.059547,0.642803,0.395217,1.000000,0.014834,0.143745,0.804584,1.000000,1.000000,0.394770,0.039068,1.000000,0.711201,0.851845,0.334286,2.000000
9,0.004641,0.000000,0.811055,0.335787,1.000000,0.000000,0.155863,1.000000,2.000000,0.820946,0.000000,0.265371,0.979871,1.000000,1.000000,0.428533,2.000000
10,0.004641,0.000000,0.811055,0.335787,1.000000,0.000000,0.155863,1.000000,2.000000,0.820946,0.000000,0.265371,0.979871,1.000000,1.000000,0.428533,2.000000
11,0.004641,0.000000,0.811055,0.335787,1.000000,0.000000,0.155863,1.000000,2.000000,0.820946,0.000000,0.265371,0.979871,1.000000,1.000000,0.428533,2.000000
12,0.004641,0.000000,0.811055,0.335787,1.000000,0.000000,0.155863,1.000000,2.000000,0.820946,0.000000,0.265371,0.979871,1.000000,1.000000,0.428533,2.000000
13,0.004360,0.000000,1.000000,0.358089,1.000000,0.220607,0.148217,0.858104,2.000000,0.490179,0.000000,0.226181,1.000000,0.635934,0.722181,0.320354,2.000000
14,0.004349,0.119453,0.728144,0.393586,1.000000,0.184147,0.113969,0.837104,2.000000,0.705278,0.000000,0.285621,1.000000,0.775370,1.000000,0.574397,2.000000
15,0.004191,0.170071,0.967178,0.240600,1.000000,0.071230,0.207355,0.774096,2.000000,0.404054,0.359996,0.363231,1.000000,0.665045,0.582692,0.756963,2.000000
16,0.004189,0.442864,0.695908,0.567023,1.000000,0.040463,0.075249,0.974572,2.000000,0.670546,0.000000,0.958902,1.000000,1.000000,0.519339,0.140892,1.000000
17,0.004162,0.002837,0.953349,0.681017,1.000000,0.000000,0.238571,0.836896,1.000000,0.476947,0.091022,0.523700,1.000000,0.665229,0.560228,0.463141,1.000000
18,0.004092,0.000000,0.938290,0.460846,1.000000,0.141712,0.000000,0.807950,0.000000,0.293909,0.000000,0.438828,1.000000,0.412187,0.865714,0.500222,2.000000
19,0.003527,0.504824,0.729299,0.689834,1.000000,0.040463,0.043532,0.994781,2.000000,0.718238,0.204449,1.000000,1.000000,0.968030,0.739436,0.381509,2.000000
20,0.003527,0.504824,0.729299,0.689834,1.000000,0.040463,0.043532,0.994781,2.000000,0.718238,0.204449,1.000000,1.000000,0.968030,0.739436,0.381509,2.000000
21,0.003527,0.504824,0.729299,0.689834,1.000000,0.040463,0.043532,0.994781,2.000000,0.718238,0.204449,1.000000,1.000000,0.968030,0.739436,0.381509,2.000000
22,0.003527,0.504824,0.729299,0.689834,1.000000,0.040463,0.043532,0.994781,2.000000,0.718238,0.204449,1.000000,1.000000,0.968030,0.739436,0.381509,2.000000
23,0.003505,0.346366,0.729299,0.774076,1.000000,0.000000,0.087391,0.835192,2.000000,0.656455,0.093428,0.996314,1.000000,0.906576,0.751240,0.324429,2.000000
24,0.003273,0.222927,1.000000,0.818521,1.000000,0.098245,0.000000,1.000000,1.000000,0.400219,0.000000,1.000000,1.000000,1.000000,0.384785,0.669454,2.000000
25,0.003273,0.222927,1.000000,0.818521,1.000000,0.098245,0.000000,1.000000,1.000000,0.400219,0.000000,1.000000,1.000000,1.000000,0.384785,0.669454,2.000000
26,0.003273,0.222927,1.000000,0.818521,1.000000,0.098245,0.000000,1.000000,1.000000,0.400219,0.000000,1.000000,1.000000,1.000000,0.384785,0.669454,2.000000
27,0.003124,0.222927,1.000000,0.818521,0.980487,0.098245,0.058941,1.000000,2.000000,0.360625,0.000000,1.000000,1.000000,0.907565,0.351650,0.787288,2.000000
28,0.003109,0.166551,1.000000,0.945044,0.980487,0.000000,0.115834,1.000000,2.000000,0.360625,0.000000,1.000000,1.000000,0.907565,0.351650,0.764722,1.000000
29,0.002985,0.169760,0.936013,0.845922,1.000000,0.101648,0.087852,0.946785,2.000000,0.562772,0.012508,1.000000,1.000000,0.846053,0.227834,1.000000,2.000000
30,0.002985,0.169760,0.936013,0.845922,1.000000,0.101648,0.087852,0.946785,2.000000,0.562772,0.012508,1.000000,1.000000,0.846053,0.227834,1.000000,2.000000
31,0.002985,0.169760,0.936013,0.845922,1.000000,0.101648,0.087852,0.946785,2.000000,0.562772,0.012508,1.000000,1.000000,0.846053,0.227834,1.000000,2.000000
32,0.002985,0.169760,0.936013,0.845922,1.000000,0.101648,0.087852,0.946785,2.000000,0.562772,0.012508,1.000000,1.000000,0.846053,0.227834,1.000000,2.000000
33,0.002985,0.169760,0.936013,0.845922,1.000000,0.101648,0.087852,0.946785,2.000000,0.562772,0.012508,1.000000,1.000000,0.846053,0.227834,1.000000,2.000000
34,0.002985,0.169760,0.936013,0.845922,1.000000,0.101648,0.087852,0.946785,2.000000,0.562772,0.012508,1.000000,1.000000,0.846053,0.227834,1.000000,2.000000
35,0.002963,0.121565,0.825317,1.000000,1.000000,0.009341,0.146437,1.000000,2.000000,0.748282,0.142603,1.000000,1.000000,0.930781,0.257341,1.000000,2.000000
36,0.002963,0.121565,0.825317,1.000000,1.000000,0.009341,0.146437,1.000000,2.000000,0.748282,0.142603,1.000000,1.000000,0.930781,0.257341,1.000000,2.000000
37,0.002938,0.000000,0.953256,0.744031,1.000000,0.000000,0.118264,1.000000,1.000000,0.163212,0.080512,1.000000,1.000000,0.379623,0.023289,1.000000,2.000000
38,0.002938,0.000000,0.953256,0.744031,1.000000,0.000000,0.118264,1.000000,1.000000,0.163212,0.080512,1.000000,1.000000,0.379623,0.023289,1.000000,2.000000
39,0.002938,0.000000,0.953256,0.744031,1.000000,0.000000,0.118264,1.000000,1.000000,0.163212,0.080512,1.000000,1.000000,0.379623,0.023289,1.000000,2.000000
40,0.002938,0.000000,0.953256,0.744031,1.000000,0.000000,0.118264,1.000000,1.000000,0.163212,0.080512,1.000000,1.000000,0.379623,0.023289,1.000000,2.000000
41,0.002938,0.000000,0.953256,0.744031,1.000000,0.000000,0.118264,1.000000,1.000000,0.163212,0.080512,1.000000,1.000000,0.379623,0.023289,1.000000,2.000000
42,0.002938,0.000000,0.953256,0.744031,1.000000,0.000000,0.118264,1.000000,1.000000,0.163212,0.080512,1.000000,1.000000,0.379623,0.023289,1.000000,2.000000
43,0.002938,0.000000,0.953256,0.744031,1.000000,0.000000,0.118264,1.000000,1.000000,0.163212,0.080512,1.000000,1.000000,0.379623,0.023289,1.000000,2.000000
44,0.002938,0.000000,0.953256,0.744031,1.000000,0.000000,0.118264,1.000000,1.000000,0.163212,0.080512,1.000000,1.000000,0.379623,0.023289,1.000000,2.000000
45,0.002889,0.000000,0.828386,0.757928,1.000000,0.155430,0.000000,1.000000,2.000000,0.353875,0.047150,0.914708,1.000000,0.239817,0.225151,1.000000,2.000000
46,0.002889,0.000000,0.828386,0.757928,1.000000,0.155430,0.000000,1.000000,2.000000,0.353875,0.047150,0.914708,1.000000,0.239817,0.225151,1.000000,2.000000
47,0.002810,0.000000,0.978041,0.735570,1.000000,0.126296,0.027850,1.000000,2.000000,0.295518,0.094115,1.000000,1.000000,0.368903,0.019158,0.978692,2.000000
48,0.002810,0.000000,0.978041,0.735570,1.000000,0.126296,0.027850,1.000000,2.000000,0.295518,0.094115,1.000000,1.000000,0.368903,0.019158,0.978692,2.000000
49,0.002810,0.000000,0.978041,0.735570,1.000000,0.126296,0.027850,1.000000,2.000000,0.295518,0.094115,1.000000,1.000000,0.368903,0.019158,0.978692,2.000000
50,0.002810,0.000000,0.978041,0.735570,1.000000,0.126296,0.027850,1.000000,2.000000,0.295518,0.094115,1.000000,1.000000,0.368903,0.019158,0.978692,2.000000
51,0.002810,0.000000,0.978041,0.735570,1.000000,0.126296,0.027850,1.000000,2.000000,0.295518,0.094115,1.000000,1.000000,0.368903,0.019158,0.978692,2.000000
52,0.002810,0.000000,0.978041,0.735570,1.000000,0.126296,0.027850,1.000000,2.000000,0.295518,0.094115,1.000000,1.000000,0.368903,0.019158,0.978692,2.000000
53,0.002810,0.000000,0.978041,0.735570,1.000000,0.126296,0.027850,1.000000,2.000000,0.295518,0.094115,1.000000,1.000000,0.368903,0.019158,0.978692,2.000000
54,0.002810,0.000000,0.978041,0.735570,1.000000,0.126296,0.027850,1.000000,2.000000,0.295518,0.094115,1.000000,1.000000,0.368903,0.019158,0.978692,2.000000
55,0.002810,0.000000,0.978041,0.735570,1.000000,0.126296,0.027850,1.000000,2.000000,0.295518,0.094115,1.000000,1.000000,0.368903,0.019158,0.978692,2.000000
56,0.002810,0.000000,0.978041,0.735570,1.000000,0.126296,0.027850,1.000000,2.000000,0.295518,0.094115,1.000000,1.000000,0.368903,0.019158,0.978692,2.000000
57,0.002810,0.000000,0.978041,0.735570,1.000000,0.126296,0.027850,1.000000,2.000000,0.295518,0.094115,1.000000,1.000000,0.368903,0.019158,0.978692,2.000000
gen, fitness
0,0.032391,0.000000,1.000000,0.210000,0.800000,0.030000,0.030000,1.000000,0.000000,1.000000,0.000000,0.000000,0.600000,1.000000,1.000000,0.000000,0.000000
1,0.032391,0.000000,1.000000,0.210000,0.800000,0.030000,0.030000,1.000000,0.000000,1.000000,0.000000,0.000000,0.600000,1.000000,1.000000,0.000000,0.000000
2,0.015229,0.000000,1.000000,0.321131,0.800000,0.030000,0.000000,0.919991,2.000000,1.000000,0.000000,0.115686,0.688745,1.000000,0.885787,0.000000,2.000000
3,0.007884,0.083733,1.000000,0.009425,0.960571,0.032832,0.046449,0.800910,2.000000,1.000000,0.000000,0.000000,0.917058,1.000000,0.678223,0.000000,1.000000
4,0.005977,0.000000,1.000000,0.000000,1.000000,0.000000,0.000000,0.759222,2.000000,0.980752,0.000000,0.000000,0.952432,0.941533,0.751660,0.000000,2.000000
5,0.004701,0.222800,0.938897,0.248232,0.984366,0.000000,0.000000,0.713592,1.000000,1.000000,0.000000,0.047662,1.000000,0.897903,0.781229,0.068396,2.000000
6,0.003875,0.316532,0.956227,0.273361,0.984366,0.000000,0.105097,0.775035,2.000000,1.000000,0.000000,0.120745,0.988324,1.000000,0.713072,0.000000,2.000000
7,0.003875,0.316532,0.956227,0.273361,0.984366,0.000000,0.105097,0.775035,2.000000,1.000000,0.000000,0.120745,0.988324,1.000000,0.713072,0.000000,2.000000
8,0.003875,0.316532,0.956227,0.273361,0.984366,0.000000,0.105097,0.775035,2.000000,1.000000,0.000000,0.120745,0.988324,1.000000,0.713072,0.000000,2.000000
9,0.003351,0.000000,1.000000,0.299148,0.997335,0.000000,0.000000,0.804840,0.000000,0.788897,0.042795,0.000000,1.000000,0.600231,0.661916,0.114192,2.000000
10,0.002789,0.000000,0.868621,0.518799,1.000000,0.010049,1.000000,0.976349,0.000000,0.878869,0.000000,0.185888,0.991556,1.000000,0.721140,0.269264,2.000000
11,0.002452,0.000000,0.715465,0.580152,1.000000,0.005653,0.219960,0.926961,1.000000,0.699899,0.000000,0.305714,1.000000,0.583420,0.851076,0.102692,2.000000
12,0.002415,0.000000,0.868621,0.490986,1.000000,0.000000,1.000000,0.976349,1.000000,0.836797,0.000000,0.193385,1.000000,0.726025,0.655665,0.372240,2.000000
13,0.002131,0.022073,0.566201,0.524255,1.000000,0.066686,0.153361,0.836348,1.000000,0.699899,0.041039,0.428360,1.000000,0.442084,0.452243,0.031114,2.000000
14,0.002020,0.000000,0.934437,0.647617,0.985006,0.206650,0.293355,1.000000,2.000000,0.642438,0.000000,0.401581,1.000000,0.634567,0.640840,0.037017,1.000000
15,0.002020,0.000000,0.934437,0.647617,0.985006,0.206650,0.293355,1.000000,2.000000,0.642438,0.000000,0.401581,1.000000,0.634567,0.640840,0.037017,1.000000
16,0.001998,0.000000,0.884259,0.735351,1.000000,0.046506,0.188092,0.710059,0.000000,0.725632,0.049181,0.572645,1.000000,0.542830,0.787372,0.027855,2.000000
17,0.001989,0.000000,0.856571,0.759022,0.972432,0.206650,0.209513,1.000000,2.000000,0.642438,0.037608,0.490291,1.000000,0.615457,0.572540,0.000000,2.000000
18,0.001649,0.000000,0.507663,0.708816,1.000000,0.115888,0.110442,0.926961,2.000000,0.732671,0.039032,0.661655,1.000000,0.436631,0.782963,0.000000,2.000000
19,0.001649,0.000000,0.507663,0.708816,1.000000,0.115888,0.110442,0.926961,2.000000,0.732671,0.039032,0.661655,1.000000,0.436631,0.782963,0.000000,2.000000
20,0.001649,0.000000,0.507663,0.708816,1.000000,0.115888,0.110442,0.926961,2.000000,0.732671,0.039032,0.661655,1.000000,0.436631,0.782963,0.000000,2.000000
21,0.001598,0.007394,0.969252,0.604990,1.000000,0.564637,0.323732,1.000000,2.000000,0.502787,0.075878,0.783716,1.000000,0.673453,0.969215,0.255014,2.000000
22,0.001598,0.007394,0.969252,0.604990,1.000000,0.564637,0.323732,1.000000,2.000000,0.502787,0.075878,0.783716,1.000000,0.673453,0.969215,0.255014,2.000000
23,0.001598,0.007394,0.969252,0.604990,1.000000,0.564637,0.323732,1.000000,2.000000,0.502787,0.075878,0.783716,1.000000,0.673453,0.969215,0.255014,2.000000
24,0.001449,0.000000,0.992608,0.543304,1.000000,0.397631,0.177424,0.593193,2.000000,0.239811,0.113562,1.000000,1.000000,0.534313,0.524209,0.287451,2.000000
25,0.001415,0.000000,1.000000,0.740559,0.978185,0.564637,0.455331,1.000000,2.000000,0.333987,0.332558,0.908895,1.000000,0.630390,0.890616,0.181089,2.000000
26,0.001395,0.000000,0.802397,0.843279,0.971372,0.179682,0.365354,1.000000,1.000000,0.229237,0.149652,0.908895,1.000000,0.587079,1.000000,0.181089,2.000000
27,0.001395,0.000000,0.802397,0.843279,0.971372,0.179682,0.365354,1.000000,1.000000,0.229237,0.149652,0.908895,1.000000,0.587079,1.000000,0.181089,2.000000
28,0.001205,0.000000,1.000000,1.000000,0.957007,0.182433,0.124858,1.000000,1.000000,0.021761,0.264996,0.927304,1.000000,0.722217,0.716672,0.224816,2.000000
29,0.001205,0.000000,1.000000,1.000000,0.957007,0.182433,0.124858,1.000000,1.000000,0.021761,0.264996,0.927304,1.000000,0.722217,0.716672,0.224816,2.000000
30,0.001205,0.000000,1.000000,1.000000,0.957007,0.182433,0.124858,1.000000,1.000000,0.021761,0.264996,0.927304,1.000000,0.722217,0.716672,0.224816,2.000000
31,0.001205,0.000000,1.000000,1.000000,0.957007,0.182433,0.124858,1.000000,1.000000,0.021761,0.264996,0.927304,1.000000,0.722217,0.716672,0.224816,2.000000
32,0.001205,0.000000,1.000000,1.000000,0.957007,0.182433,0.124858,1.000000,1.000000,0.021761,0.264996,0.927304,1.000000,0.722217,0.716672,0.224816,2.000000
33,0.001205,0.000000,1.000000,1.000000,0.957007,0.182433,0.124858,1.000000,1.000000,0.021761,0.264996,0.927304,1.000000,0.722217,0.716672,0.224816,2.000000
34,0.001205,0.000000,1.000000,1.000000,0.957007,0.182433,0.124858,1.000000,1.000000,0.021761,0.264996,0.927304,1.000000,0.722217,0.716672,0.224816,2.000000
35,0.001205,0.000000,1.000000,1.000000,0.957007,0.182433,0.124858,1.000000,1.000000,0.021761,0.264996,0.927304,1.000000,0.722217,0.716672,0.224816,2.000000
36,0.001135,0.167518,1.000000,0.943697,0.949016,0.000000,0.086724,1.000000,2.000000,0.000000,0.319488,0.885481,1.000000,0.922393,0.385388,0.368484,2.000000
37,0.001135,0.167518,1.000000,0.943697,0.949016,0.000000,0.086724,1.000000,2.000000,0.000000,0.319488,0.885481,1.000000,0.922393,0.385388,0.368484,2.000000
38,0.001135,0.167518,1.000000,0.943697,0.949016,0.000000,0.086724,1.000000,2.000000,0.000000,0.319488,0.885481,1.000000,0.922393,0.385388,0.368484,2.000000
39,0.001135,0.167518,1.000000,0.943697,0.949016,0.000000,0.086724,1.000000,2.000000,0.000000,0.319488,0.885481,1.000000,0.922393,0.385388,0.368484,2.000000
40,0.001135,0.167518,1.000000,0.943697,0.949016,0.000000,0.086724,1.000000,2.000000,0.000000,0.319488,0.885481,1.000000,0.922393,0.385388,0.368484,2.000000
41,0.001135,0.167518,1.000000,0.943697,0.949016,0.000000,0.086724,1.000000,2.000000,0.000000,0.319488,0.885481,1.000000,0.922393,0.385388,0.368484,2.000000
42,0.001135,0.167518,1.000000,0.943697,0.949016,0.000000,0.086724,1.000000,2.000000,0.000000,0.319488,0.885481,1.000000,0.922393,0.385388,0.368484,2.000000
43,0.001135,0.167518,1.000000,0.943697,0.949016,0.000000,0.086724,1.000000,2.000000,0.000000,0.319488,0.885481,1.000000,0.922393,0.385388,0.368484,2.000000
44,0.001135,0.167518,1.000000,0.943697,0.949016,0.000000,0.086724,1.000000,2.000000,0.000000,0.319488,0.885481,1.000000,0.922393,0.385388,0.368484,2.000000
45,0.001135,0.167518,1.000000,0.943697,0.949016,0.000000,0.086724,1.000000,2.000000,0.000000,0.319488,0.885481,1.000000,0.922393,0.385388,0.368484,2.000000
46,0.001135,0.167518,1.000000,0.943697,0.949016,0.000000,0.086724,1.000000,2.000000,0.000000,0.319488,0.885481,1.000000,0.922393,0.385388,0.368484,2.000000
gen, fitness
0,0.082103,0.000000,1.000000,0.210000,0.800000,0.030000,0.030000,1.000000,0.000000,1.000000,0.000000,0.000000,0.600000,1.000000,1.000000,0.000000,0.000000
1,0.082103,0.000000,1.000000,0.210000,0.800000,0.030000,0.030000,1.000000,0.000000,1.000000,0.000000,0.000000,0.600000,1.000000,1.000000,0.000000,0.000000
2,0.050452,0.000000,1.000000,0.159038,0.897103,0.030000,0.030000,0.875889,2.000000,1.000000,0.073919,0.000000,0.844279,1.000000,0.790853,0.000000,0.000000
3,0.050452,0.000000,1.000000,0.159038,0.897103,0.030000,0.030000,0.875889,2.000000,1.000000,0.073919,0.000000,0.844279,1.000000,0.790853,0.000000,0.000000
4,0.042931,0.057245,1.000000,0.194412,0.939890,0.000000,0.226532,0.892478,2.000000,0.918449,0.013314,0.000000,0.874614,0.874531,1.000000,0.151174,1.000000
5,0.032847,0.118521,0.717681,0.335575,0.990571,0.137060,0.199893,0.699561,2.000000,0.749939,0.231293,0.082512,1.000000,0.863642,1.000000,0.000000,1.000000
6,0.032847,0.118521,0.717681,0.335575,0.990571,0.137060,0.199893,0.699561,2.000000,0.749939,0.231293,0.082512,1.000000,0.863642,1.000000,0.000000,1.000000
7,0.027398,0.000000,1.000000,0.719363,1.000000,0.000000,0.104706,1.000000,2.000000,0.855982,0.036311,0.228377,1.000000,0.698403,0.953744,0.358361,2.000000
8,0.027398,0.000000,1.000000,0.719363,1.000000,0.000000,0.104706,1.000000,2.000000,0.855982,0.036311,0.228377,1.000000,0.698403,0.953744,0.358361,2.000000
9,0.026303,0.000000,0.873521,0.944410,1.000000,0.000000,0.066445,1.000000,2.000000,0.647091,0.049280,0.575772,0.977544,0.960326,1.000000,0.193725,2.000000
10,0.025945,0.000000,0.975134,0.973092,0.988145,0.000000,0.066445,1.000000,1.000000,0.647091,0.096455,0.454072,1.000000,0.983842,1.000000,0.179571,2.000000
11,0.024155,0.167417,0.691328,1.000000,1.000000,0.018239,0.411966,1.000000,2.000000,0.580095,0.049280,0.550748,1.000000,0.735067,0.807958,0.373221,2.000000
12,0.024155,0.167417,0.691328,1.000000,1.000000,0.018239,0.411966,1.000000,2.000000,0.580095,0.049280,0.550748,1.000000,0.735067,0.807958,0.373221,2.000000
13,0.024155,0.167417,0.691328,1.000000,1.000000,0.018239,0.411966,1.000000,2.000000,0.580095,0.049280,0.550748,1.000000,0.735067,0.807958,0.373221,2.000000
14,0.024155,0.167417,0.691328,1.000000,1.000000,0.018239,0.411966,1.000000,2.000000,0.580095,0.049280,0.550748,1.000000,0.735067,0.807958,0.373221,2.000000
15,0.023836,0.193022,0.691152,1.000000,1.000000,0.168717,0.462736,1.000000,2.000000,0.433679,0.000000,0.637419,1.000000,0.631010,0.938947,0.467874,1.000000
16,0.023342,0.263522,0.653530,1.000000,1.000000,0.158691,0.503816,0.967696,2.000000,0.290517,0.380110,0.739231,1.000000,0.906408,0.772708,0.388261,2.000000
17,0.023342,0.263522,0.653530,1.000000,1.000000,0.158691,0.503816,0.967696,2.000000,0.290517,0.380110,0.739231,1.000000,0.906408,0.772708,0.388261,2.000000
18,0.023300,0.220409,0.781811,1.000000,1.000000,0.170034,0.414899,1.000000,2.000000,0.277715,0.024662,0.710199,1.000000,0.793113,0.820355,0.261467,0.000000
19,0.023300,0.220409,0.781811,1.000000,1.000000,0.170034,0.414899,1.000000,2.000000,0.277715,0.024662,0.710199,1.000000,0.793113,0.820355,0.261467,0.000000
20,0.023300,0.220409,0.781811,1.000000,1.000000,0.170034,0.414899,1.000000,2.000000,0.277715,0.024662,0.710199,1.000000,0.793113,0.820355,0.261467,0.000000
21,0.023184,0.165480,0.849248,1.000000,1.000000,0.164988,0.727548,1.000000,2.000000,0.182856,0.218972,0.669795,1.000000,0.997839,0.827378,0.195633,0.000000
22,0.022889,0.179167,0.844746,1.000000,1.000000,0.164988,0.664529,0.955816,2.000000,0.208888,0.200849,0.804062,1.000000,1.000000,0.827378,0.306102,0.000000
23,0.022889,0.179167,0.844746,1.000000,1.000000,0.164988,0.664529,0.955816,2.000000,0.208888,0.200849,0.804062,1.000000,1.000000,0.827378,0.306102,0.000000
24,0.022889,0.179167,0.844746,1.000000,1.000000,0.164988,0.664529,0.955816,2.000000,0.208888,0.200849,0.804062,1.000000,1.000000,0.827378,0.306102,0.000000
25,0.022162,0.058332,1.000000,1.000000,1.000000,0.095578,0.122201,1.000000,2.000000,0.000000,0.080216,0.964471,1.000000,0.723472,0.833049,0.196664,0.000000
26,0.022162,0.058332,1.000000,1.000000,1.000000,0.095578,0.122201,1.000000,2.000000,0.000000,0.080216,0.964471,1.000000,0.723472,0.833049,0.196664,0.000000
27,0.022162,0.058332,1.000000,1.000000,1.000000,0.095578,0.122201,1.000000,2.000000,0.000000,0.080216,0.964471,1.000000,0.723472,0.833049,0.196664,0.000000
28,0.022162,0.058332,1.000000,1.000000,1.000000,0.095578,0.122201,1.000000,2.000000,0.000000,0.080216,0.964471,1.000000,0.723472,0.833049,0.196664,0.000000
29,0.022162,0.058332,1.000000,1.000000,1.000000,0.095578,0.122201,1.000000,2.000000,0.000000,0.080216,0.964471,1.000000,0.723472,0.833049,0.196664,0.000000
30,0.022162,0.058332,1.000000,1.000000,1.000000,0.095578,0.122201,1.000000,2.000000,0.000000,0.080216,0.964471,1.000000,0.723472,0.833049,0.196664,0.000000
31,0.022162,0.058332,1.000000,1.000000,1.000000,0.095578,0.122201,1.000000,2.000000,0.000000,0.080216,0.964471,1.000000,0.723472,0.833049,0.196664,0.000000
32,0.022038,0.000000,0.752595,1.000000,1.000000,0.064748,0.000000,0.938182,2.000000,0.021425,0.000000,1.000000,1.000000,0.846782,0.779734,0.568926,1.000000
33,0.022038,0.000000,0.752595,1.000000,1.000000,0.064748,0.000000,0.938182,2.000000,0.021425,0.000000,1.000000,1.000000,0.846782,0.779734,0.568926,1.000000
34,0.022038,0.000000,0.752595,1.000000,1.000000,0.064748,0.000000,0.938182,2.000000,0.021425,0.000000,1.000000,1.000000,0.846782,0.779734,0.568926,1.000000
35,0.022030,0.000000,0.921448,1.000000,0.973819,0.089323,0.000000,0.954164,2.000000,0.069852,0.016604,1.000000,1.000000,0.859529,0.715766,0.498267,1.000000
36,0.022017,0.186091,1.000000,0.992544,0.974930,0.198075,0.188071,1.000000,2.000000,0.165181,0.199576,0.992740,1.000000,0.840989,0.663259,0.814081,1.000000
37,0.022017,0.186091,1.000000,0.992544,0.974930,0.198075,0.188071,1.000000,2.000000,0.165181,0.199576,0.992740,1.000000,0.840989,0.663259,0.814081,1.000000
38,0.021661,0.222512,1.000000,0.992544,0.974930,0.118982,0.183305,1.000000,2.000000,0.042447,0.161763,0.992740,0.999015,0.965514,0.654227,0.743317,1.000000
39,0.021661,0.222512,1.000000,0.992544,0.974930,0.118982,0.183305,1.000000,2.000000,0.042447,0.161763,0.992740,0.999015,0.965514,0.654227,0.743317,1.000000
40,0.021577,0.000000,0.830273,1.000000,0.973819,0.118154,0.043180,1.000000,2.000000,0.000000,0.074195,1.000000,1.000000,0.922801,0.593058,0.498267,0.000000
41,0.021577,0.000000,0.830273,1.000000,0.973819,0.118154,0.043180,1.000000,2.000000,0.000000,0.074195,1.000000,1.000000,0.922801,0.593058,0.498267,0.000000
42,0.021577,0.000000,0.830273,1.000000,0.973819,0.118154,0.043180,1.000000,2.000000,0.000000,0.074195,1.000000,1.000000,0.922801,0.593058,0.498267,0.000000
43,0.021577,0.000000,0.830273,1.000000,0.973819,0.118154,0.043180,1.000000,2.000000,0.000000,0.074195,1.000000,1.000000,0.922801,0.593058,0.498267,0.000000
44,0.021543,0.165341,1.000000,0.992544,0.967849,0.184998,0.166412,1.000000,2.000000,0.000000,0.205934,0.948598,1.000000,0.971861,0.762701,0.828219,0.000000
45,0.021543,0.165341,1.000000,0.992544,0.967849,0.184998,0.166412,1.000000,2.000000,0.000000,0.205934,0.948598,1.000000,0.971861,0.762701,0.828219,0.000000
46,0.021543,0.165341,1.000000,0.992544,0.967849,0.184998,0.166412,1.000000,2.000000,0.000000,0.205934,0.948598,1.000000,0.971861,0.762701,0.828219,0.000000
47,0.021202,0.147429,0.999170,0.994588,0.974930,0.000000,0.132705,1.000000,2.000000,0.000000,0.001442,0.942632,1.000000,0.965514,0.601078,0.868445,0.000000
48,0.021189,0.057230,0.676712,0.972622,0.975379,0.190127,0.279348,1.000000,2.000000,0.000000,0.195912,0.943991,1.000000,1.000000,0.280895,0.995534,1.000000
49,0.021189,0.057230,0.676712,0.972622,0.975379,0.190127,0.279348,1.000000,2.000000,0.000000,0.195912,0.943991,1.000000,1.000000,0.280895,0.995534,1.000000
50,0.021189,0.057230,0.676712,0.972622,0.975379,0.190127,0.279348,1.000000,2.000000,0.000000,0.195912,0.943991,1.000000,1.000000,0.280895,0.995534,1.000000
51,0.021189,0.057230,0.676712,0.972622,0.975379,0.190127,0.279348,1.000000,2.000000,0.000000,0.195912,0.943991,1.000000,1.000000,0.280895,0.995534,1.000000
52,0.021189,0.057230,0.676712,0.972622,0.975379,0.190127,0.279348,1.000000,2.000000,0.000000,0.195912,0.943991,1.000000,1.000000,0.280895,0.995534,1.000000
53,0.020941,0.020518,0.953156,0.995705,0.989524,0.199042,0.610294,0.961787,2.000000,0.000000,0.195912,1.000000,1.000000,1.000000,0.339951,0.995534,1.000000
54,0.020941,0.020518,0.953156,0.995705,0.989524,0.199042,0.610294,0.961787,2.000000,0.000000,0.195912,1.000000,1.000000,1.000000,0.339951,0.995534,1.000000
55,0.020941,0.020518,0.953156,0.995705,0.989524,0.199042,0.610294,0.961787,2.000000,0.000000,0.195912,1.000000,1.000000,1.000000,0.339951,0.995534,1.000000
56,0.020941,0.020518,0.953156,0.995705,0.989524,0.199042,0.610294,0.961787,2.000000,0.000000,0.195912,1.000000,1.000000,1.000000,0.339951,0.995534,1.000000
57,0.020941,0.020518,0.953156,0.995705,0.989524,0.199042,0.610294,0.961787,2.000000,0.000000,0.195912,1.000000,1.000000,1.000000,0.339951,0.995534,1.000000
58,0.020941,0.020518,0.953156,0.995705,0.989524,0.199042,0.610294,0.961787,2.000000,0.000000,0.195912,1.000000,1.000000,1.000000,0.339951,0.995534,1.000000
59,0.020939,0.000000,0.604201,1.000000,1.000000,0.209293,0.300151,1.000000,2.000000,0.000000,0.168576,0.985779,1.000000,0.851451,0.000000,0.894415,1.000000
60,0.020873,0.020518,0.931217,0.981724,0.975837,0.038734,0.697553,1.000000,2.000000,0.023394,0.071724,0.896401,1.000000,0.877386,0.248705,1.000000,0.000000
61,0.020873,0.020518,0.931217,0.981724,0.975837,0.038734,0.697553,1.000000,2.000000,0.023394,0.071724,0.896401,1.000000,0.877386,0.248705,1.000000,0.000000
62,0.020873,0.020518,0.931217,0.981724,0.975837,0.038734,0.697553,1.000000,2.000000,0.023394,0.071724,0.896401,1.000000,0.877386,0.248705,1.000000,0.000000
63,0.020873,0.020518,0.931217,0.981724,0.975837,0.038734,0.697553,1.000000,2.000000,0.023394,0.071724,0.896401,1.000000,0.877386,0.248705,1.000000,0.000000
64,0.020873,0.020518,0.931217,0.981724,0.975837,0.038734,0.697553,1.000000,2.000000,0.023394,0.071724,0.896401,1.000000,0.877386,0.248705,1.000000,0.000000
65,0.020701,0.000000,0.901953,1.000000,0.975837,0.000000,0.579581,1.000000,2.000000,0.000000,0.188682,1.000000,1.000000,1.000000,0.339951,0.945851,0.000000
66,0.020701,0.000000,0.901953,1.000000,0.975837,0.000000,0.579581,1.000000,2.000000,0.000000,0.188682,1.000000,1.000000,1.000000,0.339951,0.945851,0.000000
67,0.020701,0.000000,0.901953,1.000000,0.975837,0.000000,0.579581,1.000000,2.000000,0.000000,0.188682,1.000000,1.000000,1.000000,0.339951,0.945851,0.000000
68,0.020701,0.000000,0.901953,1.000000,0.975837,0.000000,0.579581,1.000000,2.000000,0.000000,0.188682,1.000000,1.000000,1.000000,0.339951,0.945851,0.000000
69,0.020701,0.000000,0.901953,1.000000,0.975837,0.000000,0.579581,1.000000,2.000000,0.000000,0.188682,1.000000,1.000000,1.000000,0.339951,0.945851,0.000000
70,0.020701,0.000000,0.901953,1.000000,0.975837,0.000000,0.579581,1.000000,2.000000,0.000000,0.188682,1.000000,1.000000,1.000000,0.339951,0.945851,0.000000
71,0.020701,0.000000,0.901953,1.000000,0.975837,0.000000,0.579581,1.000000,2.000000,0.000000,0.188682,1.000000,1.000000,1.000000,0.339951,0.945851,0.000000
72,0.020701,0.000000,0.901953,1.000000,0.975837,0.000000,0.579581,1.000000,2.000000,0.000000,0.188682,1.000000,1.000000,1.000000,0.339951,0.945851,0.000000
73,0.020701,0.000000,0.901953,1.000000,0.975837,0.000000,0.579581,1.000000,2.000000,0.000000,0.188682,1.000000,1.000000,1.000000,0.339951,0.945851,0.000000
74,0.020701,0.000000,0.901953,1.000000,0.975837,0.000000,0.579581,1.000000,2.000000,0.000000,0.188682,1.000000,1.000000,1.000000,0.339951,0.945851,0.000000
75,0.020701,0.000000,0.901953,1.000000,0.975837,0.000000,0.579581,1.000000,2.000000,0.000000,0.188682,1.000000,1.000000,1.000000,0.339951,0.945851,0.000000
