gen, fitness
0,0.013430,0.000000,1.000000,0.210000,0.800000,0.030000,0.030000,1.000000,0.000000,1.000000,0.000000,0.000000,0.600000,1.000000,1.000000,0.000000,0.000000
1,0.013430,0.000000,1.000000,0.210000,0.800000,0.030000,0.030000,1.000000,0.000000,1.000000,0.000000,0.000000,0.600000,1.000000,1.000000,0.000000,0.000000
2,0.000023,0.048392,1.000000,0.259864,0.625914,0.270366,0.030000,0.987342,1.000000,1.000000,0.041891,0.000000,0.600000,1.000000,0.895976,0.008991,1.000000
3,0.000023,0.048392,1.000000,0.259864,0.625914,0.270366,0.030000,0.987342,1.000000,1.000000,0.041891,0.000000,0.600000,1.000000,0.895976,0.008991,1.000000
4,0.000023,0.048392,1.000000,0.259864,0.625914,0.270366,0.030000,0.987342,1.000000,1.000000,0.041891,0.000000,0.600000,1.000000,0.895976,0.008991,1.000000
5,0.000023,0.048392,1.000000,0.259864,0.625914,0.270366,0.030000,0.987342,1.000000,1.000000,0.041891,0.000000,0.600000,1.000000,0.895976,0.008991,1.000000
6,0.000003,0.075978,0.853906,0.247565,0.651870,0.000000,0.113195,0.878383,0.000000,1.000000,0.000000,0.132295,0.503299,1.000000,1.000000,0.396370,0.000000
7,0.000003,0.075978,0.853906,0.247565,0.651870,0.000000,0.113195,0.878383,0.000000,1.000000,0.000000,0.132295,0.503299,1.000000,1.000000,0.396370,0.000000
8,0.000003,0.075978,0.853906,0.247565,0.651870,0.000000,0.113195,0.878383,0.000000,1.000000,0.000000,0.132295,0.503299,1.000000,1.000000,0.396370,0.000000
9,0.000003,0.075978,0.853906,0.247565,0.651870,0.000000,0.113195,0.878383,0.000000,1.000000,0.000000,0.132295,0.503299,1.000000,1.000000,0.396370,0.000000
10,0.000003,0.075978,0.853906,0.247565,0.651870,0.000000,0.113195,0.878383,0.000000,1.000000,0.000000,0.132295,0.503299,1.000000,1.000000,0.396370,0.000000
11,0.000003,0.075978,0.853906,0.247565,0.651870,0.000000,0.113195,0.878383,0.000000,1.000000,0.000000,0.132295,0.503299,1.000000,1.000000,0.396370,0.000000
12,0.000003,0.075978,0.853906,0.247565,0.651870,0.000000,0.113195,0.878383,0.000000,1.000000,0.000000,0.132295,0.503299,1.000000,1.000000,0.396370,0.000000
13,0.000000,0.000000,0.858839,0.358226,0.566035,0.239083,0.000000,0.990200,1.000000,1.000000,0.000000,0.242333,0.421989,0.925757,1.000000,0.000000,1.000000
gen, fitness
0,0.034276,0.000000,1.000000,0.210000,0.800000,0.030000,0.030000,1.000000,0.000000,1.000000,0.000000,0.000000,0.600000,1.000000,1.000000,0.000000,0.000000
1,0.034276,0.000000,1.000000,0.210000,0.800000,0.030000,0.030000,1.000000,0.000000,1.000000,0.000000,0.000000,0.600000,1.000000,1.000000,0.000000,0.000000
2,0.016565,0.031364,0.862422,0.282188,0.794052,0.000000,0.046901,1.000000,0.000000,0.844572,0.000000,0.000000,0.793243,0.997749,1.000000,0.000000,2.000000
3,0.009285,0.119287,1.000000,0.264741,0.938142,0.030000,0.058163,1.000000,2.000000,1.000000,0.112798,0.000000,0.961287,1.000000,0.944033,0.000000,0.000000
4,0.003353,0.232466,0.981642,0.192729,1.000000,0.000000,0.000000,0.852067,2.000000,1.000000,0.101096,0.084761,1.000000,1.000000,0.944033,0.221896,2.000000
5,0.003353,0.232466,0.981642,0.192729,1.000000,0.000000,0.000000,0.852067,2.000000,1.000000,0.101096,0.084761,1.000000,1.000000,0.944033,0.221896,2.000000
6,0.002898,0.058204,1.000000,0.302016,1.000000,0.149467,0.124869,0.788448,1.000000,0.732636,0.000000,0.139976,1.000000,0.994460,0.678466,0.193468,2.000000
7,0.002862,0.000000,0.802763,0.374428,1.000000,0.331865,0.086041,0.930994,0.000000,0.960310,0.037827,0.325758,0.969861,0.782182,0.907105,0.000000,2.000000
8,0.002517,0.008024,0.862944,0.274103,1.000000,0.000000,0.000000,0.718741,2.000000,0.781611,0.661443,0.349348,1.000000,0.913163,1.000000,0.017117,2.000000
9,0.002010,0.160059,0.627201,0.484491,1.000000,0.156314,0.117275,1.000000,2.000000,0.993288,0.346978,0.476639,1.000000,1.000000,0.934069,0.000000,2.000000
10,0.002010,0.160059,0.627201,0.484491,1.000000,0.156314,0.117275,1.000000,2.000000,0.993288,0.346978,0.476639,1.000000,1.000000,0.934069,0.000000,2.000000
11,0.002010,0.160059,0.627201,0.484491,1.000000,0.156314,0.117275,1.000000,2.000000,0.993288,0.346978,0.476639,1.000000,1.000000,0.934069,0.000000,2.000000
12,0.001756,0.000000,0.956568,0.595189,1.000000,0.317240,0.359384,0.797880,2.000000,0.941224,0.118165,0.808316,0.998069,0.793872,0.912654,0.027969,2.000000
13,0.001756,0.000000,0.956568,0.595189,1.000000,0.317240,0.359384,0.797880,2.000000,0.941224,0.118165,0.808316,0.998069,0.793872,0.912654,0.027969,2.000000
14,0.001070,0.000000,0.789281,0.950002,1.000000,0.317240,0.402951,0.789070,2.000000,1.000000,0.072883,0.817695,1.000000,0.888520,1.000000,0.000000,2.000000
15,0.001070,0.000000,0.789281,0.950002,1.000000,0.317240,0.402951,0.789070,2.000000,1.000000,0.072883,0.817695,1.000000,0.888520,1.000000,0.000000,2.000000
16,0.001064,0.034080,0.979082,0.733001,1.000000,0.434660,0.401240,0.864883,2.000000,0.879549,0.000000,1.000000,0.967284,0.727896,0.798688,0.020046,2.000000
17,0.001064,0.034080,0.979082,0.733001,1.000000,0.434660,0.401240,0.864883,2.000000,0.879549,0.000000,1.000000,0.967284,0.727896,0.798688,0.020046,2.000000
18,0.001064,0.034080,0.979082,0.733001,1.000000,0.434660,0.401240,0.864883,2.000000,0.879549,0.000000,1.000000,0.967284,0.727896,0.798688,0.020046,2.000000
19,0.000815,0.000000,0.783935,0.805367,1.000000,0.442732,0.363598,0.877552,2.000000,0.849791,0.058676,0.967882,1.000000,0.891207,0.907711,0.245872,2.000000
20,0.000815,0.000000,0.783935,0.805367,1.000000,0.442732,0.363598,0.877552,2.000000,0.849791,0.058676,0.967882,1.000000,0.891207,0.907711,0.245872,2.000000
21,0.000815,0.000000,0.783935,0.805367,1.000000,0.442732,0.363598,0.877552,2.000000,0.849791,0.058676,0.967882,1.000000,0.891207,0.907711,0.245872,2.000000
22,0.000815,0.000000,0.783935,0.805367,1.000000,0.442732,0.363598,0.877552,2.000000,0.849791,0.058676,0.967882,1.000000,0.891207,0.907711,0.245872,2.000000
23,0.000815,0.000000,0.783935,0.805367,1.000000,0.442732,0.363598,0.877552,2.000000,0.849791,0.058676,0.967882,1.000000,0.891207,0.907711,0.245872,2.000000
24,0.000815,0.000000,0.783935,0.805367,1.000000,0.442732,0.363598,0.877552,2.000000,0.849791,0.058676,0.967882,1.000000,0.891207,0.907711,0.245872,2.000000
25,0.000720,0.000000,0.937440,0.805367,1.000000,0.893883,0.305822,1.000000,2.000000,0.633145,0.156796,1.000000,1.000000,0.921330,0.687820,0.425360,2.000000
26,0.000720,0.000000,0.937440,0.805367,1.000000,0.893883,0.305822,1.000000,2.000000,0.633145,0.156796,1.000000,1.000000,0.921330,0.687820,0.425360,2.000000
27,0.000720,0.000000,0.937440,0.805367,1.000000,0.893883,0.305822,1.000000,2.000000,0.633145,0.156796,1.000000,1.000000,0.921330,0.687820,0.425360,2.000000
28,0.000720,0.000000,0.937440,0.805367,1.000000,0.893883,0.305822,1.000000,2.000000,0.633145,0.156796,1.000000,1.000000,0.921330,0.687820,0.425360,2.000000
29,0.000720,0.000000,0.937440,0.805367,1.000000,0.893883,0.305822,1.000000,2.000000,0.633145,0.156796,1.000000,1.000000,0.921330,0.687820,0.425360,2.000000
30,0.000720,0.000000,0.937440,0.805367,1.000000,0.893883,0.305822,1.000000,2.000000,0.633145,0.156796,1.000000,1.000000,0.921330,0.687820,0.425360,2.000000
31,0.000720,0.000000,0.937440,0.805367,1.000000,0.893883,0.305822,1.000000,2.000000,0.633145,0.156796,1.000000,1.000000,0.921330,0.687820,0.425360,2.000000
32,0.000649,0.000000,0.589010,0.988626,1.000000,0.204925,0.083977,0.916976,2.000000,0.965515,0.000000,1.000000,1.000000,1.000000,0.878796,0.452771,2.000000
33,0.000649,0.000000,0.589010,0.988626,1.000000,0.204925,0.083977,0.916976,2.000000,0.965515,0.000000,1.000000,1.000000,1.000000,0.878796,0.452771,2.000000
34,0.000649,0.000000,0.589010,0.988626,1.000000,0.204925,0.083977,0.916976,2.000000,0.965515,0.000000,1.000000,1.000000,1.000000,0.878796,0.452771,2.000000
35,0.000649,0.000000,0.589010,0.988626,1.000000,0.204925,0.083977,0.916976,2.000000,0.965515,0.000000,1.000000,1.000000,1.000000,0.878796,0.452771,2.000000
36,0.000649,0.000000,0.589010,0.988626,1.000000,0.204925,0.083977,0.916976,2.000000,0.965515,0.000000,1.000000,1.000000,1.000000,0.878796,0.452771,2.000000
37,0.000649,0.000000,0.589010,0.988626,1.000000,0.204925,0.083977,0.916976,2.000000,0.965515,0.000000,1.000000,1.000000,1.000000,0.878796,0.452771,2.000000
38,0.000649,0.000000,0.589010,0.988626,1.000000,0.204925,0.083977,0.916976,2.000000,0.965515,0.000000,1.000000,1.000000,1.000000,0.878796,0.452771,2.000000
39,0.000649,0.000000,0.589010,0.988626,1.000000,0.204925,0.083977,0.916976,2.000000,0.965515,0.000000,1.000000,1.000000,1.000000,0.878796,0.452771,2.000000
40,0.000649,0.000000,0.589010,0.988626,1.000000,0.204925,0.083977,0.916976,2.000000,0.965515,0.000000,1.000000,1.000000,1.000000,0.878796,0.452771,2.000000
41,0.000649,0.000000,0.589010,0.988626,1.000000,0.204925,0.083977,0.916976,2.000000,0.965515,0.000000,1.000000,1.000000,1.000000,0.878796,0.452771,2.000000
42,0.000649,0.000000,0.589010,0.988626,1.000000,0.204925,0.083977,0.916976,2.000000,0.965515,0.000000,1.000000,1.000000,1.000000,0.878796,0.452771,2.000000
gen, fitness
0,0.044384,0.000000,1.000000,0.210000,0.800000,0.030000,0.030000,1.000000,0.000000,1.000000,0.000000,0.000000,0.600000,1.000000,1.000000,0.000000,0.000000
1,0.044384,0.000000,1.000000,0.210000,0.800000,0.030000,0.030000,1.000000,0.000000,1.000000,0.000000,0.000000,0.600000,1.000000,1.000000,0.000000,0.000000
2,0.024133,0.000000,1.000000,0.270075,0.859968,0.157280,0.033732,1.000000,2.000000,0.975052,0.083679,0.000000,0.766203,1.000000,1.000000,0.097027,0.000000
3,0.020681,0.000000,0.896801,0.217118,0.892440,0.000000,0.082369,0.862371,0.000000,0.826076,0.000000,0.000000,0.827008,1.000000,1.000000,0.202288,0.000000
4,0.012786,0.000000,1.000000,0.236553,0.986727,0.098884,0.000000,1.000000,1.000000,1.000000,0.057530,0.089934,0.954267,0.974188,0.860937,0.022994,1.000000
5,0.012202,0.000000,1.000000,0.236553,1.000000,0.174455,0.000000,1.000000,2.000000,1.000000,0.000000,0.089934,0.954267,0.841360,0.860937,0.003080,1.000000
6,0.012202,0.000000,1.000000,0.236553,1.000000,0.174455,0.000000,1.000000,2.000000,1.000000,0.000000,0.089934,0.954267,0.841360,0.860937,0.003080,1.000000
7,0.010793,0.085167,0.871969,0.335425,1.000000,0.204608,0.000000,1.000000,2.000000,1.000000,0.246217,0.102265,1.000000,1.000000,1.000000,0.065897,0.000000
8,0.009990,0.000000,0.898035,0.331008,1.000000,0.045281,0.000000,0.998457,2.000000,1.000000,0.072898,0.000000,1.000000,0.925745,1.000000,0.004104,2.000000
9,0.009935,0.134285,0.841083,0.359590,1.000000,0.000000,0.078465,0.977069,1.000000,0.802813,0.176723,0.011748,1.000000,1.000000,0.550557,0.270536,2.000000
10,0.009622,0.000000,0.984195,0.395948,1.000000,0.041769,0.018870,0.972469,2.000000,0.912918,0.000000,0.000000,1.000000,1.000000,0.990996,0.057231,2.000000
11,0.008960,0.000000,1.000000,0.712724,0.984028,0.038776,0.000000,0.906994,2.000000,1.000000,0.000000,0.202486,1.000000,0.924123,1.000000,0.311661,1.000000
12,0.008960,0.000000,1.000000,0.712724,0.984028,0.038776,0.000000,0.906994,2.000000,1.000000,0.000000,0.202486,1.000000,0.924123,1.000000,0.311661,1.000000
13,0.008960,0.000000,1.000000,0.712724,0.984028,0.038776,0.000000,0.906994,2.000000,1.000000,0.000000,0.202486,1.000000,0.924123,1.000000,0.311661,1.000000
14,0.008960,0.000000,1.000000,0.712724,0.984028,0.038776,0.000000,0.906994,2.000000,1.000000,0.000000,0.202486,1.000000,0.924123,1.000000,0.311661,1.000000
15,0.008660,0.273877,1.000000,1.000000,1.000000,0.000000,0.075536,1.000000,2.000000,1.000000,0.104122,0.510144,1.000000,0.804390,1.000000,0.232115,2.000000
16,0.008617,0.041265,1.000000,0.778888,1.000000,0.200081,0.177861,0.748553,2.000000,1.000000,0.000000,0.657646,1.000000,0.832840,0.829403,0.639291,0.000000
17,0.008088,0.105707,0.994453,1.000000,1.000000,0.274943,0.211270,0.748553,2.000000,1.000000,0.029026,0.700946,1.000000,0.769448,1.000000,0.509157,2.000000
18,0.008088,0.105707,0.994453,1.000000,1.000000,0.274943,0.211270,0.748553,2.000000,1.000000,0.029026,0.700946,1.000000,0.769448,1.000000,0.509157,2.000000
19,0.008088,0.105707,0.994453,1.000000,1.000000,0.274943,0.211270,0.748553,2.000000,1.000000,0.029026,0.700946,1.000000,0.769448,1.000000,0.509157,2.000000
20,0.008088,0.105707,0.994453,1.000000,1.000000,0.274943,0.211270,0.748553,2.000000,1.000000,0.029026,0.700946,1.000000,0.769448,1.000000,0.509157,2.000000
21,0.007807,0.000000,0.773802,1.000000,1.000000,0.000000,0.050663,0.913022,0.000000,0.602787,0.297922,0.742543,1.000000,0.221145,0.754017,0.291131,2.000000
22,0.007785,0.065900,1.000000,1.000000,1.000000,0.000000,0.138769,1.000000,0.000000,0.946054,0.026100,0.774150,1.000000,0.916421,0.891417,0.635113,2.000000
23,0.007785,0.065900,1.000000,1.000000,1.000000,0.000000,0.138769,1.000000,0.000000,0.946054,0.026100,0.774150,1.000000,0.916421,0.891417,0.635113,2.000000
24,0.007580,0.000000,0.773802,1.000000,1.000000,0.000000,0.000000,0.862080,2.000000,0.651930,0.324859,0.877736,1.000000,0.280521,0.918746,0.291131,2.000000
25,0.007580,0.000000,0.773802,1.000000,1.000000,0.000000,0.000000,0.862080,2.000000,0.651930,0.324859,0.877736,1.000000,0.280521,0.918746,0.291131,2.000000
26,0.007082,0.010926,0.609795,0.915620,1.000000,0.000000,0.051148,0.878805,2.000000,0.674772,0.356719,1.000000,1.000000,0.941882,0.807733,0.124559,2.000000
27,0.007045,0.006993,1.000000,0.958664,1.000000,0.000000,0.244429,1.000000,2.000000,1.000000,0.058697,0.789131,1.000000,0.842745,0.808049,0.806439,2.000000
28,0.007045,0.006993,1.000000,0.958664,1.000000,0.000000,0.244429,1.000000,2.000000,1.000000,0.058697,0.789131,1.000000,0.842745,0.808049,0.806439,2.000000
29,0.007004,0.000000,0.850825,1.000000,1.000000,0.000000,0.000000,1.000000,2.000000,0.575391,0.345114,0.999406,1.000000,0.951143,0.692505,0.347150,2.000000
30,0.006868,0.000000,0.936304,0.773965,1.000000,0.103368,0.028479,1.000000,2.000000,0.398234,0.411054,1.000000,1.000000,0.905351,0.740328,0.177214,2.000000
31,0.006868,0.000000,0.936304,0.773965,1.000000,0.103368,0.028479,1.000000,2.000000,0.398234,0.411054,1.000000,1.000000,0.905351,0.740328,0.177214,2.000000
32,0.006868,0.000000,0.936304,0.773965,1.000000,0.103368,0.028479,1.000000,2.000000,0.398234,0.411054,1.000000,1.000000,0.905351,0.740328,0.177214,2.000000
33,0.006868,0.000000,0.936304,0.773965,1.000000,0.103368,0.028479,1.000000,2.000000,0.398234,0.411054,1.000000,1.000000,0.905351,0.740328,0.177214,2.000000
34,0.006868,0.000000,0.936304,0.773965,1.000000,0.103368,0.028479,1.000000,2.000000,0.398234,0.411054,1.000000,1.000000,0.905351,0.740328,0.177214,2.000000
35,0.006868,0.000000,0.936304,0.773965,1.000000,0.103368,0.028479,1.000000,2.000000,0.398234,0.411054,1.000000,1.000000,0.905351,0.740328,0.177214,2.000000
36,0.006712,0.000000,1.000000,0.958664,0.995900,0.131911,0.092682,1.000000,2.000000,0.610168,0.135273,1.000000,1.000000,0.184373,0.314941,0.553745,2.000000
37,0.006712,0.000000,1.000000,0.958664,0.995900,0.131911,0.092682,1.000000,2.000000,0.610168,0.135273,1.000000,1.000000,0.184373,0.314941,0.553745,2.000000
38,0.006712,0.000000,1.000000,0.958664,0.995900,0.131911,0.092682,1.000000,2.000000,0.610168,0.135273,1.000000,1.000000,0.184373,0.314941,0.553745,2.000000
39,0.006712,0.000000,1.000000,0.958664,0.995900,0.131911,0.092682,1.000000,2.000000,0.610168,0.135273,1.000000,1.000000,0.184373,0.314941,0.553745,2.000000
40,0.006712,0.000000,1.000000,0.958664,0.995900,0.131911,0.092682,1.000000,2.000000,0.610168,0.135273,1.000000,1.000000,0.184373,0.314941,0.553745,2.000000
41,0.006712,0.000000,1.000000,0.958664,0.995900,0.131911,0.092682,1.000000,2.000000,0.610168,0.135273,1.000000,1.000000,0.184373,0.314941,0.553745,2.000000
42,0.006712,0.000000,1.000000,0.958664,0.995900,0.131911,0.092682,1.000000,2.000000,0.610168,0.135273,1.000000,1.000000,0.184373,0.314941,0.553745,2.000000
43,0.006712,0.000000,1.000000,0.958664,0.995900,0.131911,0.092682,1.000000,2.000000,0.610168,0.135273,1.000000,1.000000,0.184373,0.314941,0.553745,2.000000
44,0.006712,0.000000,1.000000,0.958664,0.995900,0.131911,0.092682,1.000000,2.000000,0.610168,0.135273,1.000000,1.000000,0.184373,0.314941,0.553745,2.000000
45,0.006712,0.000000,1.000000,0.958664,0.995900,0.131911,0.092682,1.000000,2.000000,0.610168,0.135273,1.000000,1.000000,0.184373,0.314941,0.553745,2.000000
46,0.006712,0.000000,1.000000,0.958664,0.995900,0.131911,0.092682,1.000000,2.000000,0.610168,0.135273,1.000000,1.000000,0.184373,0.314941,0.553745,2.000000
gen, fitness
0,0.006335,0.000000,1.000000,0.210000,0.800000,0.030000,0.030000,1.000000,0.000000,1.000000,0.000000,0.000000,0.600000,1.000000,1.000000,0.000000,0.000000
1,0.006335,0.000000,1.000000,0.210000,0.800000,0.030000,0.030000,1.000000,0.000000,1.000000,0.000000,0.000000,0.600000,1.000000,1.000000,0.000000,0.000000
2,0.000006,0.000000,1.000000,0.202512,0.762935,0.044933,0.000000,0.912519,1.000000,1.000000,0.000000,0.000000,0.646766,0.851713,1.000000,0.000000,2.000000
3,0.000006,0.000000,1.000000,0.202512,0.762935,0.044933,0.000000,0.912519,1.000000,1.000000,0.000000,0.000000,0.646766,0.851713,1.000000,0.000000,2.000000
4,0.000006,0.000000,1.000000,0.202512,0.762935,0.044933,0.000000,0.912519,1.000000,1.000000,0.000000,0.000000,0.646766,0.851713,1.000000,0.000000,2.000000
5,0.000006,0.000000,1.000000,0.202512,0.762935,0.044933,0.000000,0.912519,1.000000,1.000000,0.000000,0.000000,0.646766,0.851713,1.000000,0.000000,2.000000
6,0.000006,0.000000,1.000000,0.202512,0.762935,0.044933,0.000000,0.912519,1.000000,1.000000,0.000000,0.000000,0.646766,0.851713,1.000000,0.000000,2.000000
7,0.000006,0.000000,1.000000,0.202512,0.762935,0.044933,0.000000,0.912519,1.000000,1.000000,0.000000,0.000000,0.646766,0.851713,1.000000,0.000000,2.000000
8,0.000006,0.000000,1.000000,0.202512,0.762935,0.044933,0.000000,0.912519,1.000000,1.000000,0.000000,0.000000,0.646766,0.851713,1.000000,0.000000,2.000000
9,0.000006,0.000000,1.000000,0.202512,0.762935,0.044933,0.000000,0.912519,1.000000,1.000000,0.000000,0.000000,0.646766,0.851713,1.000000,0.000000,2.000000
10,0.000006,0.000000,1.000000,0.202512,0.762935,0.044933,0.000000,0.912519,1.000000,1.000000,0.000000,0.000000,0.646766,0.851713,1.000000,0.000000,2.000000
11,0.000006,0.000000,1.000000,0.202512,0.762935,0.044933,0.000000,0.912519,1.000000,1.000000,0.000000,0.000000,0.646766,0.851713,1.000000,0.000000,2.000000
12,0.000006,0.000000,1.000000,0.202512,0.762935,0.044933,0.000000,0.912519,1.000000,1.000000,0.000000,0.000000,0.646766,0.851713,1.000000,0.000000,2.000000
gen, fitness
0,0.018541,0.000000,1.000000,0.210000,0.800000,0.030000,0.030000,1.000000,0.000000,1.000000,0.000000,0.000000,0.600000,1.000000,1.000000,0.000000,0.000000
1,0.018541,0.000000,1.000000,0.210000,0.800000,0.030000,0.030000,1.000000,0.000000,1.000000,0.000000,0.000000,0.600000,1.000000,1.000000,0.000000,0.000000
2,0.003389,0.143569,1.000000,0.128208,0.863828,0.000000,0.030000,1.000000,2.000000,0.981215,0.015568,0.063936,0.764129,0.993721,0.816417,0.000000,2.000000
3,0.003389,0.143569,1.000000,0.128208,0.863828,0.000000,0.030000,1.000000,2.000000,0.981215,0.015568,0.063936,0.764129,0.993721,0.816417,0.000000,2.000000
4,0.001344,0.000000,1.000000,0.136747,0.910353,0.082919,0.000000,1.000000,2.000000,0.966059,0.111816,0.245281,0.802711,0.942726,0.864624,0.100504,1.000000
5,0.001344,0.000000,1.000000,0.136747,0.910353,0.082919,0.000000,1.000000,2.000000,0.966059,0.111816,0.245281,0.802711,0.942726,0.864624,0.100504,1.000000
6,0.000139,0.088539,0.878717,0.358237,1.000000,0.000000,0.235109,0.967707,1.000000,0.965172,0.000000,0.000000,0.990097,1.000000,0.697165,0.000000,1.000000
7,0.000063,0.000000,0.833201,0.136747,1.000000,0.082919,0.000000,0.941495,2.000000,0.659019,0.290550,0.000000,1.000000,0.903272,0.773453,0.144234,0.000000
8,0.000023,0.000000,0.941894,0.215771,1.000000,0.000000,0.000000,0.682252,0.000000,0.574829,0.129036,0.000000,1.000000,0.974276,0.898726,0.000000,1.000000
9,0.000002,0.000000,1.000000,0.222672,0.990714,0.000000,0.000000,0.869770,1.000000,0.800378,0.212211,0.130011,0.965240,0.942980,0.923725,0.238736,1.000000
10,0.000001,0.000000,0.866053,0.213711,1.000000,0.042786,0.128049,0.553257,0.000000,0.574829,0.047701,0.000000,1.000000,0.944100,0.790785,0.000000,0.000000
11,0.000001,0.000000,0.866053,0.213711,1.000000,0.042786,0.128049,0.553257,0.000000,0.574829,0.047701,0.000000,1.000000,0.944100,0.790785,0.000000,0.000000
12,0.000001,0.000000,0.866053,0.213711,1.000000,0.042786,0.128049,0.553257,0.000000,0.574829,0.047701,0.000000,1.000000,0.944100,0.790785,0.000000,0.000000
13,0.000001,0.000000,0.866053,0.213711,1.000000,0.042786,0.128049,0.553257,0.000000,0.574829,0.047701,0.000000,1.000000,0.944100,0.790785,0.000000,0.000000
14,0.000001,0.000000,0.866053,0.213711,1.000000,0.042786,0.128049,0.553257,0.000000,0.574829,0.047701,0.000000,1.000000,0.944100,0.790785,0.000000,0.000000
15,0.000001,0.000000,0.866053,0.213711,1.000000,0.042786,0.128049,0.553257,0.000000,0.574829,0.047701,0.000000,1.000000,0.944100,0.790785,0.000000,0.000000
16,0.000001,0.000000,0.866053,0.213711,1.000000,0.042786,0.128049,0.553257,0.000000,0.574829,0.047701,0.000000,1.000000,0.944100,0.790785,0.000000,0.000000
17,0.000001,0.000000,0.866053,0.213711,1.000000,0.042786,0.128049,0.553257,0.000000,0.574829,0.047701,0.000000,1.000000,0.944100,0.790785,0.000000,0.000000
18,0.000001,0.000000,0.866053,0.213711,1.000000,0.042786,0.128049,0.553257,0.000000,0.574829,0.047701,0.000000,1.000000,0.944100,0.790785,0.000000,0.000000
19,0.000001,0.134562,1.000000,0.205534,1.000000,0.465324,0.209466,0.726017,1.000000,0.744128,0.269889,0.000000,1.000000,0.645811,0.780335,0.000000,0.000000
gen, fitness
0,0.069293,0.000000,1.000000,0.210000,0.800000,0.030000,0.030000,1.000000,0.000000,1.000000,0.000000,0.000000,0.600000,1.000000,1.000000,0.000000,0.000000
1,0.069293,0.000000,1.000000,0.210000,0.800000,0.030000,0.030000,1.000000,0.000000,1.000000,0.000000,0.000000,0.600000,1.000000,1.000000,0.000000,0.000000
2,0.037642,0.029744,1.000000,0.293956,0.800000,0.030000,0.000000,1.000000,1.000000,0.870587,0.000000,0.000000,0.831715,0.980759,1.000000,0.000000,0.000000
3,0.029889,0.005413,0.997443,0.210000,0.974437,0.163305,0.070197,0.812973,0.000000,0.835179,0.211445,0.206101,0.869978,0.989365,1.000000,0.059766,2.000000
4,0.018536,0.000000,1.000000,0.154184,1.000000,0.050504,0.263811,0.962882,0.000000,1.000000,0.046173,0.000000,1.000000,0.899407,0.938694,0.161740,0.000000
5,0.015373,0.000000,1.000000,0.106776,1.000000,0.243606,0.000000,1.000000,1.000000,1.000000,0.012535,0.402664,0.925952,1.000000,0.850637,0.222601,0.000000
6,0.015373,0.000000,1.000000,0.106776,1.000000,0.243606,0.000000,1.000000,1.000000,1.000000,0.012535,0.402664,0.925952,1.000000,0.850637,0.222601,0.000000
7,0.012968,0.009787,0.811700,0.367539,1.000000,0.060944,0.219219,0.908127,2.000000,0.943865,0.286138,0.616080,1.000000,1.000000,1.000000,0.301461,2.000000
8,0.012027,0.000000,1.000000,0.101312,1.000000,0.135066,0.020592,0.840180,2.000000,0.819287,0.165982,0.498038,0.954005,0.959462,0.842007,0.239514,2.000000
9,0.011480,0.048242,0.918780,0.034054,1.000000,0.079948,0.290052,0.962882,2.000000,0.908529,0.328514,0.616080,0.946545,1.000000,1.000000,0.395571,1.000000
10,0.011480,0.048242,0.918780,0.034054,1.000000,0.079948,0.290052,0.962882,2.000000,0.908529,0.328514,0.616080,0.946545,1.000000,1.000000,0.395571,1.000000
11,0.010381,0.000000,0.861482,0.034054,1.000000,0.079948,0.376080,0.962882,1.000000,0.955261,0.333342,0.766003,0.927302,1.000000,1.000000,0.315869,2.000000
12,0.010381,0.000000,0.861482,0.034054,1.000000,0.079948,0.376080,0.962882,1.000000,0.955261,0.333342,0.766003,0.927302,1.000000,1.000000,0.315869,2.000000
13,0.009765,0.000000,0.742156,0.000000,1.000000,0.000664,0.524309,1.000000,1.000000,1.000000,0.417978,0.752048,0.902500,1.000000,1.000000,0.457431,2.000000
14,0.009765,0.000000,0.742156,0.000000,1.000000,0.000664,0.524309,1.000000,1.000000,1.000000,0.417978,0.752048,0.902500,1.000000,1.000000,0.457431,2.000000
15,0.009765,0.000000,0.742156,0.000000,1.000000,0.000664,0.524309,1.000000,1.000000,1.000000,0.417978,0.752048,0.902500,1.000000,1.000000,0.457431,2.000000
16,0.009508,0.143990,1.000000,0.000000,1.000000,0.646038,0.242211,0.872798,1.000000,1.000000,0.091612,1.000000,0.884440,1.000000,0.979103,0.534011,2.000000
17,0.009508,0.143990,1.000000,0.000000,1.000000,0.646038,0.242211,0.872798,1.000000,1.000000,0.091612,1.000000,0.884440,1.000000,0.979103,0.534011,2.000000
18,0.009508,0.143990,1.000000,0.000000,1.000000,0.646038,0.242211,0.872798,1.000000,1.000000,0.091612,1.000000,0.884440,1.000000,0.979103,0.534011,2.000000
19,0.009164,0.105982,0.926369,0.000000,1.000000,0.000000,0.410614,0.948565,2.000000,0.980565,0.224377,0.884565,0.905111,1.000000,0.984363,0.408468,2.000000
20,0.009164,0.105982,0.926369,0.000000,1.000000,0.000000,0.410614,0.948565,2.000000,0.980565,0.224377,0.884565,0.905111,1.000000,0.984363,0.408468,2.000000
21,0.009164,0.105982,0.926369,0.000000,1.000000,0.000000,0.410614,0.948565,2.000000,0.980565,0.224377,0.884565,0.905111,1.000000,0.984363,0.408468,2.000000
22,0.009164,0.105982,0.926369,0.000000,1.000000,0.000000,0.410614,0.948565,2.000000,0.980565,0.224377,0.884565,0.905111,1.000000,0.984363,0.408468,2.000000
23,0.009164,0.105982,0.926369,0.000000,1.000000,0.000000,0.410614,0.948565,2.000000,0.980565,0.224377,0.884565,0.905111,1.000000,0.984363,0.408468,2.000000
24,0.009108,0.143990,0.991522,0.000000,1.000000,0.607994,0.323496,0.948973,2.000000,0.982752,0.000000,0.984146,0.911927,1.000000,1.000000,0.493652,2.000000
25,0.009108,0.143990,0.991522,0.000000,1.000000,0.607994,0.323496,0.948973,2.000000,0.982752,0.000000,0.984146,0.911927,1.000000,1.000000,0.493652,2.000000
26,0.009108,0.143990,0.991522,0.000000,1.000000,0.607994,0.323496,0.948973,2.000000,0.982752,0.000000,0.984146,0.911927,1.000000,1.000000,0.493652,2.000000
27,0.009108,0.143990,0.991522,0.000000,1.000000,0.607994,0.323496,0.948973,2.000000,0.982752,0.000000,0.984146,0.911927,1.000000,1.000000,0.493652,2.000000
28,0.009108,0.143990,0.991522,0.000000,1.000000,0.607994,0.323496,0.948973,2.000000,0.982752,0.000000,0.984146,0.911927,1.000000,1.000000,0.493652,2.000000
29,0.009108,0.143990,0.991522,0.000000,1.000000,0.607994,0.323496,0.948973,2.000000,0.982752,0.000000,0.984146,0.911927,1.000000,1.000000,0.493652,2.000000
30,0.009108,0.143990,0.991522,0.000000,1.000000,0.607994,0.323496,0.948973,2.000000,0.982752,0.000000,0.984146,0.911927,1.000000,1.000000,0.493652,2.000000
31,0.009108,0.143990,0.991522,0.000000,1.000000,0.607994,0.323496,0.948973,2.000000,0.982752,0.000000,0.984146,0.911927,1.000000,1.000000,0.493652,2.000000
32,0.009108,0.143990,0.991522,0.000000,1.000000,0.607994,0.323496,0.948973,2.000000,0.982752,0.000000,0.984146,0.911927,1.000000,1.000000,0.493652,2.000000
33,0.009076,0.000000,0.708333,0.000000,1.000000,0.096111,0.374105,0.985254,2.000000,1.000000,0.329207,0.912621,0.899377,1.000000,0.915705,0.422552,2.000000
34,0.009076,0.000000,0.708333,0.000000,1.000000,0.096111,0.374105,0.985254,2.000000,1.000000,0.329207,0.912621,0.899377,1.000000,0.915705,0.422552,2.000000
35,0.009076,0.000000,0.708333,0.000000,1.000000,0.096111,0.374105,0.985254,2.000000,1.000000,0.329207,0.912621,0.899377,1.000000,0.915705,0.422552,2.000000
36,0.009076,0.000000,0.708333,0.000000,1.000000,0.096111,0.374105,0.985254,2.000000,1.000000,0.329207,0.912621,0.899377,1.000000,0.915705,0.422552,2.000000
37,0.009076,0.000000,0.708333,0.000000,1.000000,0.096111,0.374105,0.985254,2.000000,1.000000,0.329207,0.912621,0.899377,1.000000,0.915705,0.422552,2.000000
38,0.009076,0.000000,0.708333,0.000000,1.000000,0.096111,0.374105,0.985254,2.000000,1.000000,0.329207,0.912621,0.899377,1.000000,0.915705,0.422552,2.000000
39,0.009076,0.000000,0.708333,0.000000,1.000000,0.096111,0.374105,0.985254,2.000000,1.000000,0.329207,0.912621,0.899377,1.000000,0.915705,0.422552,2.000000
40,0.008891,0.046103,0.861458,0.000000,1.000000,0.153584,0.336037,0.982989,2.000000,1.000000,0.446467,1.000000,0.918488,1.000000,0.832564,0.935808,2.000000
41,0.008378,0.000000,0.844013,0.000000,1.000000,0.298312,0.077723,0.952032,2.000000,1.000000,0.671292,1.000000,0.905111,0.980740,1.000000,0.935158,2.000000
42,0.008378,0.000000,0.844013,0.000000,1.000000,0.298312,0.077723,0.952032,2.000000,1.000000,0.671292,1.000000,0.905111,0.980740,1.000000,0.935158,2.000000
43,0.008378,0.000000,0.844013,0.000000,1.000000,0.298312,0.077723,0.952032,2.000000,1.000000,0.671292,1.000000,0.905111,0.980740,1.000000,0.935158,2.000000
44,0.008378,0.000000,0.844013,0.000000,1.000000,0.298312,0.077723,0.952032,2.000000,1.000000,0.671292,1.000000,0.905111,0.980740,1.000000,0.935158,2.000000
45,0.008378,0.000000,0.844013,0.000000,1.000000,0.298312,0.077723,0.952032,2.000000,1.000000,0.671292,1.000000,0.905111,0.980740,1.000000,0.935158,2.000000
46,0.008378,0.000000,0.844013,0.000000,1.000000,0.298312,0.077723,0.952032,2.000000,1.000000,0.671292,1.000000,0.905111,0.980740,1.000000,0.935158,2.000000
47,0.008378,0.000000,0.844013,0.000000,1.000000,0.298312,0.077723,0.952032,2.000000,1.000000,0.671292,1.000000,0.905111,0.980740,1.000000,0.935158,2.000000
48,0.008378,0.000000,0.844013,0.000000,1.000000,0.298312,0.077723,0.952032,2.000000,1.000000,0.671292,1.000000,0.905111,0.980740,1.000000,0.935158,2.000000
49,0.008378,0.000000,0.844013,0.000000,1.000000,0.298312,0.077723,0.952032,2.000000,1.000000,0.671292,1.000000,0.905111,0.980740,1.000000,0.935158,2.000000
50,0.008378,0.000000,0.844013,0.000000,1.000000,0.298312,0.077723,0.952032,2.000000,1.000000,0.671292,1.000000,0.905111,0.980740,1.000000,0.935158,2.000000
51,0.008378,0.000000,0.844013,0.000000,1.000000,0.298312,0.077723,0.952032,2.000000,1.000000,0.671292,1.000000,0.905111,0.980740,1.000000,0.935158,2.000000
gen, fitness
0,0.020772,0.000000,1.000000,0.210000,0.800000,0.030000,0.030000,1.000000,0.000000,1.000000,0.000000,0.000000,0.600000,1.000000,1.000000,0.000000,0.000000
1,0.020772,0.000000,1.000000,0.210000,0.800000,0.030000,0.030000,1.000000,0.000000,1.000000,0.000000,0.000000,0.600000,1.000000,1.000000,0.000000,0.000000
2,0.004929,0.134230,1.000000,0.308207,0.800000,0.017718,0.000000,1.000000,1.000000,0.937680,0.000000,0.158620,0.777392,1.000000,1.000000,0.000000,1.000000
3,0.001837,0.083742,1.000000,0.308207,0.852860,0.000000,0.000000,0.955704,2.000000,0.964973,0.000000,0.215429,0.799968,0.955763,0.903578,0.000000,2.000000
4,0.001528,0.014902,0.946378,0.303565,0.860757,0.054952,0.000000,0.908681,2.000000,0.830746,0.000000,0.101277,0.841390,0.898842,1.000000,0.000000,1.000000
5,0.000859,0.134423,1.000000,0.416363,0.877264,0.000000,0.080860,0.914733,2.000000,0.733511,0.011362,0.316892,0.840851,0.920852,0.988852,0.000000,0.000000
6,0.000305,0.000000,0.819249,0.211602,0.982833,0.044002,0.020140,0.716547,0.000000,0.777894,0.000000,0.118766,0.944230,0.971533,0.842767,0.262173,2.000000
7,0.000050,0.306687,0.814590,0.177973,1.000000,0.321154,0.000000,0.956545,0.000000,0.811746,0.000000,0.026861,1.000000,1.000000,0.951312,0.000000,2.000000
8,0.000023,0.054795,1.000000,0.190287,0.993519,0.277056,0.000000,0.976289,0.000000,1.000000,0.000000,0.180298,0.943637,0.918461,0.996367,0.000000,2.000000
9,0.000023,0.054795,1.000000,0.190287,0.993519,0.277056,0.000000,0.976289,0.000000,1.000000,0.000000,0.180298,0.943637,0.918461,0.996367,0.000000,2.000000
10,0.000016,0.211830,0.726978,0.248992,0.992714,0.285890,0.075318,0.959868,1.000000,0.696481,0.000000,0.117424,1.000000,0.881570,1.000000,0.163056,0.000000
11,0.000001,0.024464,0.891381,0.250122,0.992714,0.244147,0.000000,1.000000,0.000000,0.696481,0.000000,0.000000,0.997275,0.794926,0.954968,0.354139,1.000000
12,0.000001,0.024464,0.891381,0.250122,0.992714,0.244147,0.000000,1.000000,0.000000,0.696481,0.000000,0.000000,0.997275,0.794926,0.954968,0.354139,1.000000
13,0.000000,0.448902,0.675096,0.009167,1.000000,0.348252,0.186508,0.910434,2.000000,0.849867,0.000000,0.115644,1.000000,0.809863,1.000000,0.213113,2.000000
gen, fitness
0,0.008197,0.000000,1.000000,0.210000,0.800000,0.030000,0.030000,1.000000,0.000000,1.000000,0.000000,0.000000,0.600000,1.000000,1.000000,0.000000,0.000000
1,0.008197,0.000000,1.000000,0.210000,0.800000,0.030000,0.030000,1.000000,0.000000,1.000000,0.000000,0.000000,0.600000,1.000000,1.000000,0.000000,0.000000
2,0.000643,0.000000,1.000000,0.410154,0.803603,0.184375,0.000000,0.897588,2.000000,1.000000,0.029669,0.000000,0.781296,0.921942,0.930992,0.000000,2.000000
3,0.000157,0.000000,1.000000,0.227946,0.800000,0.019929,0.023685,0.872373,2.000000,1.000000,0.007810,0.115065,0.659680,0.814679,0.907473,0.000000,1.000000
4,0.000102,0.039565,0.953605,0.211525,0.823498,0.000000,0.030000,0.776126,1.000000,0.913611,0.000000,0.000000,0.761016,0.954438,0.748394,0.115694,1.000000
5,0.000102,0.039565,0.953605,0.211525,0.823498,0.000000,0.030000,0.776126,1.000000,0.913611,0.000000,0.000000,0.761016,0.954438,0.748394,0.115694,1.000000
6,0.000099,0.000000,0.986271,0.163240,0.801713,0.037488,0.138661,0.919080,0.000000,0.872265,0.000000,0.192830,0.628072,0.697558,0.904328,0.103369,2.000000
7,0.000001,0.000000,0.980900,0.185104,0.800000,0.100096,0.000000,0.971470,1.000000,0.891401,0.007810,0.143174,0.659680,0.799815,0.907473,0.126809,2.000000
8,0.000001,0.000000,0.980900,0.185104,0.800000,0.100096,0.000000,0.971470,1.000000,0.891401,0.007810,0.143174,0.659680,0.799815,0.907473,0.126809,2.000000
9,0.000001,0.000000,0.980900,0.185104,0.800000,0.100096,0.000000,0.971470,1.000000,0.891401,0.007810,0.143174,0.659680,0.799815,0.907473,0.126809,2.000000
10,0.000001,0.000000,0.980900,0.185104,0.800000,0.100096,0.000000,0.971470,1.000000,0.891401,0.007810,0.143174,0.659680,0.799815,0.907473,0.126809,2.000000
11,0.000001,0.000000,0.980900,0.185104,0.800000,0.100096,0.000000,0.971470,1.000000,0.891401,0.007810,0.143174,0.659680,0.799815,0.907473,0.126809,2.000000
12,0.000001,0.000000,0.980900,0.185104,0.800000,0.100096,0.000000,0.971470,1.000000,0.891401,0.007810,0.143174,0.659680,0.799815,0.907473,0.126809,2.000000
13,0.000001,0.000000,0.980900,0.185104,0.800000,0.100096,0.000000,0.971470,1.000000,0.891401,0.007810,0.143174,0.659680,0.799815,0.907473,0.126809,2.000000
14,0.000001,0.000000,0.980900,0.185104,0.800000,0.100096,0.000000,0.971470,1.000000,0.891401,0.007810,0.143174,0.659680,0.799815,0.907473,0.126809,2.000000
15,0.000001,0.000000,0.980900,0.185104,0.800000,0.100096,0.000000,0.971470,1.000000,0.891401,0.007810,0.143174,0.659680,0.799815,0.907473,0.126809,2.000000
16,0.000001,0.000000,0.980900,0.185104,0.800000,0.100096,0.000000,0.971470,1.000000,0.891401,0.007810,0.143174,0.659680,0.799815,0.907473,0.126809,2.000000
17,0.000001,0.000000,0.980900,0.185104,0.800000,0.100096,0.000000,0.971470,1.000000,0.891401,0.007810,0.143174,0.659680,0.799815,0.907473,0.126809,2.000000
gen, fitness
0,0.011091,0.000000,1.000000,0.210000,0.800000,0.030000,0.030000,1.000000,0.000000,1.000000,0.000000,0.000000,0.600000,1.000000,1.000000,0.000000,0.000000
1,0.011091,0.000000,1.000000,0.210000,0.800000,0.030000,0.030000,1.000000,0.000000,1.000000,0.000000,0.000000,0.600000,1.000000,1.000000,0.000000,0.000000
2,0.000016,0.125100,0.955745,0.142009,0.772052,0.090842,0.000000,0.964865,0.000000,1.000000,0.087306,0.018119,0.687009,1.000000,1.000000,0.000000,1.000000
3,0.000005,0.000000,0.861410,0.000000,0.805533,0.103419,0.000000,0.993518,0.000000,0.917394,0.130412,0.000000,0.661284,1.000000,0.648976,0.000000,2.000000
4,0.000005,0.000000,0.861410,0.000000,0.805533,0.103419,0.000000,0.993518,0.000000,0.917394,0.130412,0.000000,0.661284,1.000000,0.648976,0.000000,2.000000
5,0.000005,0.000000,0.861410,0.000000,0.805533,0.103419,0.000000,0.993518,0.000000,0.917394,0.130412,0.000000,0.661284,1.000000,0.648976,0.000000,2.000000
6,0.000005,0.000000,0.861410,0.000000,0.805533,0.103419,0.000000,0.993518,0.000000,0.917394,0.130412,0.000000,0.661284,1.000000,0.648976,0.000000,2.000000
7,0.000005,0.000000,0.861410,0.000000,0.805533,0.103419,0.000000,0.993518,0.000000,0.917394,0.130412,0.000000,0.661284,1.000000,0.648976,0.000000,2.000000
8,0.000005,0.000000,0.861410,0.000000,0.805533,0.103419,0.000000,0.993518,0.000000,0.917394,0.130412,0.000000,0.661284,1.000000,0.648976,0.000000,2.000000
9,0.000005,0.000000,0.861410,0.000000,0.805533,0.103419,0.000000,0.993518,0.000000,0.917394,0.130412,0.000000,0.661284,1.000000,0.648976,0.000000,2.000000
10,0.000005,0.000000,0.861410,0.000000,0.805533,0.103419,0.000000,0.993518,0.000000,0.917394,0.130412,0.000000,0.661284,1.000000,0.648976,0.000000,2.000000
11,0.000005,0.000000,0.861410,0.000000,0.805533,0.103419,0.000000,0.993518,0.000000,0.917394,0.130412,0.000000,0.661284,1.000000,0.648976,0.000000,2.000000
12,0.000000,0.000000,1.000000,0.000000,0.793331,0.157379,0.017046,0.825341,1.000000,0.870913,0.195902,0.044266,0.633656,0.938487,0.982111,0.094725,2.000000
gen, fitness
0,0.020988,0.000000,1.000000,0.210000,0.800000,0.030000,0.030000,1.000000,0.000000,1.000000,0.000000,0.000000,0.600000,1.000000,1.000000,0.000000,0.000000
1,0.020988,0.000000,1.000000,0.210000,0.800000,0.030000,0.030000,1.000000,0.000000,1.000000,0.000000,0.000000,0.600000,1.000000,1.000000,0.000000,0.000000
2,0.005609,0.000000,1.000000,0.210000,0.853962,0.030000,0.000000,0.936029,2.000000,1.000000,0.141033,0.000000,0.777192,0.783872,1.000000,0.126730,2.000000
3,0.004075,0.000000,0.900582,0.184619,0.889593,0.030000,0.137155,0.999862,2.000000,0.874503,0.076077,0.349970,0.756212,0.956107,0.965408,0.000000,1.000000
4,0.004075,0.000000,0.900582,0.184619,0.889593,0.030000,0.137155,0.999862,2.000000,0.874503,0.076077,0.349970,0.756212,0.956107,0.965408,0.000000,1.000000
5,0.003586,0.129339,1.000000,0.024244,0.960932,0.092108,0.124215,0.956058,0.000000,0.815303,0.000000,0.121356,0.883033,0.707334,1.000000,0.159400,2.000000
6,0.001656,0.129339,0.865609,0.080900,1.000000,0.205661,0.007126,0.988557,1.000000,0.827167,0.000000,0.017900,0.969974,0.826699,1.000000,0.087722,0.000000
7,0.001534,0.000000,0.995934,0.412002,0.963370,0.004012,0.135788,0.999862,1.000000,0.654297,0.048362,0.485085,0.882405,1.000000,0.747978,0.202644,2.000000
8,0.000671,0.133134,0.995934,0.413360,1.000000,0.004012,0.089728,0.999862,1.000000,0.683936,0.000000,0.062848,1.000000,0.684783,0.867525,0.205547,1.000000
9,0.000411,0.000000,0.956500,0.412002,1.000000,0.093881,0.031656,0.969685,2.000000,0.687131,0.137436,0.097811,1.000000,0.411129,0.989680,0.161486,0.000000
10,0.000411,0.000000,0.956500,0.412002,1.000000,0.093881,0.031656,0.969685,2.000000,0.687131,0.137436,0.097811,1.000000,0.411129,0.989680,0.161486,0.000000
11,0.000203,0.014109,0.952334,0.534715,1.000000,0.000000,0.000000,1.000000,2.000000,0.830886,0.000000,0.209422,1.000000,0.974706,0.942199,0.260045,2.000000
12,0.000203,0.014109,0.952334,0.534715,1.000000,0.000000,0.000000,1.000000,2.000000,0.830886,0.000000,0.209422,1.000000,0.974706,0.942199,0.260045,2.000000
13,0.000203,0.014109,0.952334,0.534715,1.000000,0.000000,0.000000,1.000000,2.000000,0.830886,0.000000,0.209422,1.000000,0.974706,0.942199,0.260045,2.000000
14,0.000086,0.064063,0.802741,0.775288,0.993331,0.211674,0.118312,0.908984,1.000000,0.549508,0.108708,0.624763,1.000000,0.551978,0.892480,0.400198,1.000000
15,0.000086,0.064063,0.802741,0.775288,0.993331,0.211674,0.118312,0.908984,1.000000,0.549508,0.108708,0.624763,1.000000,0.551978,0.892480,0.400198,1.000000
16,0.000086,0.064063,0.802741,0.775288,0.993331,0.211674,0.118312,0.908984,1.000000,0.549508,0.108708,0.624763,1.000000,0.551978,0.892480,0.400198,1.000000
17,0.000063,0.051992,0.912130,0.628843,1.000000,0.000000,0.502942,1.000000,2.000000,0.409733,0.352995,0.633105,1.000000,0.509345,0.984723,0.268114,1.000000
18,0.000030,0.037645,0.980091,0.678636,1.000000,0.037785,0.423366,1.000000,2.000000,0.409733,0.305405,0.633105,1.000000,0.702201,0.692758,0.191847,2.000000
19,0.000030,0.037645,0.980091,0.678636,1.000000,0.037785,0.423366,1.000000,2.000000,0.409733,0.305405,0.633105,1.000000,0.702201,0.692758,0.191847,2.000000
20,0.000030,0.037645,0.980091,0.678636,1.000000,0.037785,0.423366,1.000000,2.000000,0.409733,0.305405,0.633105,1.000000,0.702201,0.692758,0.191847,2.000000
21,0.000002,0.000000,1.000000,0.908460,0.981341,0.068281,0.237957,1.000000,2.000000,0.401871,0.000000,0.764412,0.995682,0.661178,0.919842,0.024369,1.000000
22,0.000002,0.000000,1.000000,0.908460,0.981341,0.068281,0.237957,1.000000,2.000000,0.401871,0.000000,0.764412,0.995682,0.661178,0.919842,0.024369,1.000000
23,0.000002,0.000000,1.000000,0.908460,0.981341,0.068281,0.237957,1.000000,2.000000,0.401871,0.000000,0.764412,0.995682,0.661178,0.919842,0.024369,1.000000
24,0.000002,0.000000,1.000000,0.908460,0.981341,0.068281,0.237957,1.000000,2.000000,0.401871,0.000000,0.764412,0.995682,0.661178,0.919842,0.024369,1.000000
25,0.000002,0.000000,1.000000,0.908460,0.981341,0.068281,0.237957,1.000000,2.000000,0.401871,0.000000,0.764412,0.995682,0.661178,0.919842,0.024369,1.000000
26,0.000002,0.000000,1.000000,0.908460,0.981341,0.068281,0.237957,1.000000,2.000000,0.401871,0.000000,0.764412,0.995682,0.661178,0.919842,0.024369,1.000000
27,0.000002,0.000000,1.000000,0.908460,0.981341,0.068281,0.237957,1.000000,2.000000,0.401871,0.000000,0.764412,0.995682,0.661178,0.919842,0.024369,1.000000
28,0.000002,0.000000,1.000000,0.908460,0.981341,0.068281,0.237957,1.000000,2.000000,0.401871,0.000000,0.764412,0.995682,0.661178,0.919842,0.024369,1.000000
29,0.000002,0.000000,1.000000,0.908460,0.981341,0.068281,0.237957,1.000000,2.000000,0.401871,0.000000,0.764412,0.995682,0.661178,0.919842,0.024369,1.000000
30,0.000000,0.026672,0.959068,0.614890,1.000000,0.000000,0.686168,0.962761,2.000000,0.119257,0.322742,1.000000,1.000000,0.656931,0.767010,0.174912,1.000000
