gen, fitness
0,0.013430,0.000000,1.000000,0.210000,0.800000,0.030000,0.030000,1.000000,0.000000,1.000000,0.000000,0.000000,0.600000,1.000000,1.000000,0.000000,0.000000
1,0.013430,0.000000,1.000000,0.210000,0.800000,0.030000,0.030000,1.000000,0.000000,1.000000,0.000000,0.000000,0.600000,1.000000,1.000000,0.000000,0.000000
2,0.000018,0.067436,1.000000,0.210000,0.678795,0.000000,0.030000,1.000000,0.000000,1.000000,0.000000,0.045117,0.600000,1.000000,0.998686,0.000000,0.000000
3,0.000018,0.067436,1.000000,0.210000,0.678795,0.000000,0.030000,1.000000,0.000000,1.000000,0.000000,0.045117,0.600000,1.000000,0.998686,0.000000,0.000000
4,0.000018,0.067436,1.000000,0.210000,0.678795,0.000000,0.030000,1.000000,0.000000,1.000000,0.000000,0.045117,0.600000,1.000000,0.998686,0.000000,0.000000
5,0.000018,0.067436,1.000000,0.210000,0.678795,0.000000,0.030000,1.000000,0.000000,1.000000,0.000000,0.045117,0.600000,1.000000,0.998686,0.000000,0.000000
6,0.000018,0.067436,1.000000,0.210000,0.678795,0.000000,0.030000,1.000000,0.000000,1.000000,0.000000,0.045117,0.600000,1.000000,0.998686,0.000000,0.000000
7,0.000018,0.067436,1.000000,0.210000,0.678795,0.000000,0.030000,1.000000,0.000000,1.000000,0.000000,0.045117,0.600000,1.000000,0.998686,0.000000,0.000000
8,0.000018,0.067436,1.000000,0.210000,0.678795,0.000000,0.030000,1.000000,0.000000,1.000000,0.000000,0.045117,0.600000,1.000000,0.998686,0.000000,0.000000
9,0.000018,0.067436,1.000000,0.210000,0.678795,0.000000,0.030000,1.000000,0.000000,1.000000,0.000000,0.045117,0.600000,1.000000,0.998686,0.000000,0.000000
10,0.000018,0.067436,1.000000,0.210000,0.678795,0.000000,0.030000,1.000000,0.000000,1.000000,0.000000,0.045117,0.600000,1.000000,0.998686,0.000000,0.000000
11,0.000018,0.067436,1.000000,0.210000,0.678795,0.000000,0.030000,1.000000,0.000000,1.000000,0.000000,0.045117,0.600000,1.000000,0.998686,0.000000,0.000000
12,0.000018,0.067436,1.000000,0.210000,0.678795,0.000000,0.030000,1.000000,0.000000,1.000000,0.000000,0.045117,0.600000,1.000000,0.998686,0.000000,0.000000
gen, fitness
0,0.034276,0.000000,1.000000,0.210000,0.800000,0.030000,0.030000,1.000000,0.000000,1.000000,0.000000,0.000000,0.600000,1.000000,1.000000,0.000000,0.000000
1,0.034276,0.000000,1.000000,0.210000,0.800000,0.030000,0.030000,1.000000,0.000000,1.000000,0.000000,0.000000,0.600000,1.000000,1.000000,0.000000,0.000000
2,0.014648,0.000000,1.000000,0.207365,0.871632,0.030000,0.030000,0.997657,1.000000,1.000000,0.000000,0.000000,0.778410,0.995730,0.791730,0.000000,2.000000
3,0.011958,0.295573,1.000000,0.262153,0.904389,0.000000,0.068846,1.000000,0.000000,1.000000,0.079153,0.000000,0.873619,1.000000,0.993649,0.000000,1.000000
4,0.009637,0.000000,0.934085,0.361967,0.993557,0.100116,0.032493,0.889604,0.000000,0.761453,0.000000,0.000000,0.950779,1.000000,0.998032,0.148036,1.000000
5,0.003893,0.000000,1.000000,0.378319,1.000000,0.024050,0.000000,1.000000,1.000000,1.000000,0.051613,0.000000,1.000000,0.731498,0.953756,0.000000,1.000000
6,0.002759,0.017731,0.783884,0.263641,1.000000,0.063938,0.071122,0.962486,2.000000,0.841994,0.081768,0.230398,0.968851,0.995730,0.885742,0.000000,2.000000
7,0.002759,0.017731,0.783884,0.263641,1.000000,0.063938,0.071122,0.962486,2.000000,0.841994,0.081768,0.230398,0.968851,0.995730,0.885742,0.000000,2.000000
8,0.002265,0.000000,0.590854,0.458802,1.000000,0.000000,0.000000,1.000000,2.000000,1.000000,0.000000,0.171528,1.000000,1.000000,1.000000,0.077668,2.000000
9,0.001992,0.046824,0.878890,0.320028,1.000000,0.000000,0.091333,0.832588,2.000000,0.909716,0.000000,0.360883,0.984101,0.971729,0.859656,0.241677,2.000000
10,0.001992,0.046824,0.878890,0.320028,1.000000,0.000000,0.091333,0.832588,2.000000,0.909716,0.000000,0.360883,0.984101,0.971729,0.859656,0.241677,2.000000
11,0.001618,0.037466,0.834487,0.454654,1.000000,0.000000,0.074604,0.832588,1.000000,0.817234,0.114339,0.618074,0.984101,0.944916,0.948620,0.286924,2.000000
12,0.001618,0.037466,0.834487,0.454654,1.000000,0.000000,0.074604,0.832588,1.000000,0.817234,0.114339,0.618074,0.984101,0.944916,0.948620,0.286924,2.000000
13,0.001618,0.037466,0.834487,0.454654,1.000000,0.000000,0.074604,0.832588,1.000000,0.817234,0.114339,0.618074,0.984101,0.944916,0.948620,0.286924,2.000000
14,0.001618,0.037466,0.834487,0.454654,1.000000,0.000000,0.074604,0.832588,1.000000,0.817234,0.114339,0.618074,0.984101,0.944916,0.948620,0.286924,2.000000
15,0.001589,0.031100,0.782145,0.579723,1.000000,0.000000,0.000000,0.993786,2.000000,0.800133,0.000000,0.402242,1.000000,0.486844,0.962601,0.221225,2.000000
16,0.001291,0.177359,0.831613,0.705617,1.000000,0.000000,0.005748,0.684811,1.000000,0.870934,0.203303,0.866993,0.976782,0.841127,0.696425,0.255525,2.000000
17,0.001059,0.049944,0.839859,0.705617,1.000000,0.108232,0.000000,0.618127,2.000000,0.870934,0.000000,0.836446,1.000000,0.784949,0.604847,0.255525,2.000000
18,0.001059,0.049944,0.839859,0.705617,1.000000,0.108232,0.000000,0.618127,2.000000,0.870934,0.000000,0.836446,1.000000,0.784949,0.604847,0.255525,2.000000
19,0.000898,0.049944,0.876160,0.705617,1.000000,0.261228,0.010744,0.618127,2.000000,0.733991,0.000000,0.843708,1.000000,0.933922,0.965145,0.295665,2.000000
20,0.000898,0.049944,0.876160,0.705617,1.000000,0.261228,0.010744,0.618127,2.000000,0.733991,0.000000,0.843708,1.000000,0.933922,0.965145,0.295665,2.000000
21,0.000898,0.049944,0.876160,0.705617,1.000000,0.261228,0.010744,0.618127,2.000000,0.733991,0.000000,0.843708,1.000000,0.933922,0.965145,0.295665,2.000000
22,0.000852,0.061865,0.837955,0.657441,1.000000,0.000000,0.081207,0.438304,2.000000,0.803921,0.196787,0.840569,1.000000,1.000000,0.989039,0.443436,2.000000
23,0.000808,0.042962,0.770169,0.556561,1.000000,0.008889,0.000000,0.757015,2.000000,0.249183,0.000000,0.938458,1.000000,0.874415,0.807022,0.364386,2.000000
24,0.000808,0.042962,0.770169,0.556561,1.000000,0.008889,0.000000,0.757015,2.000000,0.249183,0.000000,0.938458,1.000000,0.874415,0.807022,0.364386,2.000000
25,0.000808,0.042962,0.770169,0.556561,1.000000,0.008889,0.000000,0.757015,2.000000,0.249183,0.000000,0.938458,1.000000,0.874415,0.807022,0.364386,2.000000
26,0.000808,0.042962,0.770169,0.556561,1.000000,0.008889,0.000000,0.757015,2.000000,0.249183,0.000000,0.938458,1.000000,0.874415,0.807022,0.364386,2.000000
27,0.000768,0.064791,0.936833,0.624118,0.997268,0.251559,0.068662,0.691551,1.000000,0.331120,0.036635,0.981426,1.000000,0.900026,0.953724,0.688868,2.000000
28,0.000768,0.064791,0.936833,0.624118,0.997268,0.251559,0.068662,0.691551,1.000000,0.331120,0.036635,0.981426,1.000000,0.900026,0.953724,0.688868,2.000000
29,0.000768,0.064791,0.936833,0.624118,0.997268,0.251559,0.068662,0.691551,1.000000,0.331120,0.036635,0.981426,1.000000,0.900026,0.953724,0.688868,2.000000
30,0.000768,0.064791,0.936833,0.624118,0.997268,0.251559,0.068662,0.691551,1.000000,0.331120,0.036635,0.981426,1.000000,0.900026,0.953724,0.688868,2.000000
31,0.000662,0.000000,0.844190,0.624118,1.000000,0.122526,0.000000,0.718510,2.000000,0.331120,0.066621,1.000000,1.000000,0.980039,0.953724,0.585237,2.000000
32,0.000662,0.000000,0.844190,0.624118,1.000000,0.122526,0.000000,0.718510,2.000000,0.331120,0.066621,1.000000,1.000000,0.980039,0.953724,0.585237,2.000000
33,0.000662,0.000000,0.844190,0.624118,1.000000,0.122526,0.000000,0.718510,2.000000,0.331120,0.066621,1.000000,1.000000,0.980039,0.953724,0.585237,2.000000
34,0.000619,0.029705,0.267242,0.525396,1.000000,0.070101,0.000000,1.000000,2.000000,0.335307,0.020939,1.000000,1.000000,0.623561,1.000000,0.630211,2.000000
35,0.000619,0.029705,0.267242,0.525396,1.000000,0.070101,0.000000,1.000000,2.000000,0.335307,0.020939,1.000000,1.000000,0.623561,1.000000,0.630211,2.000000
36,0.000619,0.029705,0.267242,0.525396,1.000000,0.070101,0.000000,1.000000,2.000000,0.335307,0.020939,1.000000,1.000000,0.623561,1.000000,0.630211,2.000000
37,0.000619,0.029705,0.267242,0.525396,1.000000,0.070101,0.000000,1.000000,2.000000,0.335307,0.020939,1.000000,1.000000,0.623561,1.000000,0.630211,2.000000
38,0.000619,0.029705,0.267242,0.525396,1.000000,0.070101,0.000000,1.000000,2.000000,0.335307,0.020939,1.000000,1.000000,0.623561,1.000000,0.630211,2.000000
39,0.000478,0.000000,0.772048,0.619773,1.000000,0.132018,0.126010,0.973499,2.000000,0.410538,0.069540,1.000000,1.000000,0.795732,0.896887,0.981495,2.000000
40,0.000469,0.029530,0.631302,0.827292,1.000000,0.124372,0.135014,1.000000,2.000000,0.917833,0.186492,1.000000,1.000000,1.000000,1.000000,1.000000,2.000000
41,0.000469,0.029530,0.631302,0.827292,1.000000,0.124372,0.135014,1.000000,2.000000,0.917833,0.186492,1.000000,1.000000,1.000000,1.000000,1.000000,2.000000
42,0.000469,0.029530,0.631302,0.827292,1.000000,0.124372,0.135014,1.000000,2.000000,0.917833,0.186492,1.000000,1.000000,1.000000,1.000000,1.000000,2.000000
43,0.000469,0.029530,0.631302,0.827292,1.000000,0.124372,0.135014,1.000000,2.000000,0.917833,0.186492,1.000000,1.000000,1.000000,1.000000,1.000000,2.000000
44,0.000469,0.029530,0.631302,0.827292,1.000000,0.124372,0.135014,1.000000,2.000000,0.917833,0.186492,1.000000,1.000000,1.000000,1.000000,1.000000,2.000000
45,0.000469,0.029530,0.631302,0.827292,1.000000,0.124372,0.135014,1.000000,2.000000,0.917833,0.186492,1.000000,1.000000,1.000000,1.000000,1.000000,2.000000
46,0.000469,0.029530,0.631302,0.827292,1.000000,0.124372,0.135014,1.000000,2.000000,0.917833,0.186492,1.000000,1.000000,1.000000,1.000000,1.000000,2.000000
47,0.000469,0.029530,0.631302,0.827292,1.000000,0.124372,0.135014,1.000000,2.000000,0.917833,0.186492,1.000000,1.000000,1.000000,1.000000,1.000000,2.000000
48,0.000469,0.029530,0.631302,0.827292,1.000000,0.124372,0.135014,1.000000,2.000000,0.917833,0.186492,1.000000,1.000000,1.000000,1.000000,1.000000,2.000000
49,0.000469,0.029530,0.631302,0.827292,1.000000,0.124372,0.135014,1.000000,2.000000,0.917833,0.186492,1.000000,1.000000,1.000000,1.000000,1.000000,2.000000
gen, fitness
0,0.044384,0.000000,1.000000,0.210000,0.800000,0.030000,0.030000,1.000000,0.000000,1.000000,0.000000,0.000000,0.600000,1.000000,1.000000,0.000000,0.000000
1,0.044384,0.000000,1.000000,0.210000,0.800000,0.030000,0.030000,1.000000,0.000000,1.000000,0.000000,0.000000,0.600000,1.000000,1.000000,0.000000,0.000000
2,0.026983,0.075555,0.903209,0.210000,0.890539,0.000000,0.000000,0.751729,0.000000,1.000000,0.168421,0.000000,0.777114,1.000000,1.000000,0.135279,1.000000
3,0.021357,0.001779,1.000000,0.114838,0.908098,0.103891,0.025801,1.000000,2.000000,0.960709,0.016231,0.183030,0.752947,1.000000,0.905536,0.000000,0.000000
4,0.012491,0.031492,0.729008,0.207420,0.979207,0.000000,0.000000,1.000000,2.000000,1.000000,0.127354,0.000000,0.969238,0.859667,1.000000,0.150783,1.000000
5,0.012491,0.031492,0.729008,0.207420,0.979207,0.000000,0.000000,1.000000,2.000000,1.000000,0.127354,0.000000,0.969238,0.859667,1.000000,0.150783,1.000000
6,0.012491,0.031492,0.729008,0.207420,0.979207,0.000000,0.000000,1.000000,2.000000,1.000000,0.127354,0.000000,0.969238,0.859667,1.000000,0.150783,1.000000
7,0.009039,0.013881,1.000000,0.525288,1.000000,0.000000,0.231588,1.000000,2.000000,0.960252,0.000000,0.175394,0.993054,1.000000,0.972556,0.208856,2.000000
8,0.009039,0.013881,1.000000,0.525288,1.000000,0.000000,0.231588,1.000000,2.000000,0.960252,0.000000,0.175394,0.993054,1.000000,0.972556,0.208856,2.000000
9,0.009039,0.013881,1.000000,0.525288,1.000000,0.000000,0.231588,1.000000,2.000000,0.960252,0.000000,0.175394,0.993054,1.000000,0.972556,0.208856,2.000000
10,0.008893,0.025843,0.885456,0.903683,0.985432,0.231916,0.402556,1.000000,2.000000,1.000000,0.000000,0.118263,1.000000,0.963347,1.000000,0.154563,2.000000
11,0.008893,0.025843,0.885456,0.903683,0.985432,0.231916,0.402556,1.000000,2.000000,1.000000,0.000000,0.118263,1.000000,0.963347,1.000000,0.154563,2.000000
12,0.008893,0.025843,0.885456,0.903683,0.985432,0.231916,0.402556,1.000000,2.000000,1.000000,0.000000,0.118263,1.000000,0.963347,1.000000,0.154563,2.000000
13,0.008213,0.000000,1.000000,0.746342,1.000000,0.000000,0.551147,1.000000,2.000000,0.993530,0.047015,0.348082,0.998241,0.959489,0.698576,0.218921,2.000000
14,0.008213,0.000000,1.000000,0.746342,1.000000,0.000000,0.551147,1.000000,2.000000,0.993530,0.047015,0.348082,0.998241,0.959489,0.698576,0.218921,2.000000
15,0.008213,0.000000,1.000000,0.746342,1.000000,0.000000,0.551147,1.000000,2.000000,0.993530,0.047015,0.348082,0.998241,0.959489,0.698576,0.218921,2.000000
16,0.008213,0.000000,1.000000,0.746342,1.000000,0.000000,0.551147,1.000000,2.000000,0.993530,0.047015,0.348082,0.998241,0.959489,0.698576,0.218921,2.000000
17,0.008213,0.000000,1.000000,0.746342,1.000000,0.000000,0.551147,1.000000,2.000000,0.993530,0.047015,0.348082,0.998241,0.959489,0.698576,0.218921,2.000000
18,0.008048,0.000000,0.941603,1.000000,1.000000,0.322394,0.534573,0.941857,2.000000,0.993025,0.007325,0.443450,1.000000,0.843758,0.685296,0.157983,2.000000
19,0.007909,0.040396,0.876220,0.931591,1.000000,0.172725,0.376562,0.865041,2.000000,0.790269,0.111177,0.689218,1.000000,0.764631,1.000000,0.247584,2.000000
20,0.007514,0.076260,0.765869,0.855882,1.000000,0.000000,0.411138,0.907808,2.000000,0.810407,0.126560,0.738222,1.000000,0.785862,0.537474,0.267665,2.000000
21,0.007514,0.076260,0.765869,0.855882,1.000000,0.000000,0.411138,0.907808,2.000000,0.810407,0.126560,0.738222,1.000000,0.785862,0.537474,0.267665,2.000000
22,0.007514,0.076260,0.765869,0.855882,1.000000,0.000000,0.411138,0.907808,2.000000,0.810407,0.126560,0.738222,1.000000,0.785862,0.537474,0.267665,2.000000
23,0.007514,0.076260,0.765869,0.855882,1.000000,0.000000,0.411138,0.907808,2.000000,0.810407,0.126560,0.738222,1.000000,0.785862,0.537474,0.267665,2.000000
24,0.007180,0.000000,0.859547,1.000000,1.000000,0.000000,0.382558,1.000000,2.000000,0.837667,0.189840,0.822260,1.000000,0.833985,0.770949,0.351518,2.000000
25,0.007180,0.000000,0.859547,1.000000,1.000000,0.000000,0.382558,1.000000,2.000000,0.837667,0.189840,0.822260,1.000000,0.833985,0.770949,0.351518,2.000000
26,0.007180,0.000000,0.859547,1.000000,1.000000,0.000000,0.382558,1.000000,2.000000,0.837667,0.189840,0.822260,1.000000,0.833985,0.770949,0.351518,2.000000
27,0.007180,0.000000,0.859547,1.000000,1.000000,0.000000,0.382558,1.000000,2.000000,0.837667,0.189840,0.822260,1.000000,0.833985,0.770949,0.351518,2.000000
28,0.007180,0.000000,0.859547,1.000000,1.000000,0.000000,0.382558,1.000000,2.000000,0.837667,0.189840,0.822260,1.000000,0.833985,0.770949,0.351518,2.000000
29,0.007180,0.000000,0.859547,1.000000,1.000000,0.000000,0.382558,1.000000,2.000000,0.837667,0.189840,0.822260,1.000000,0.833985,0.770949,0.351518,2.000000
30,0.007133,0.040982,1.000000,0.923606,1.000000,0.144441,0.200182,0.774557,2.000000,0.841521,0.000000,0.922003,1.000000,1.000000,0.382752,0.562521,2.000000
31,0.006988,0.000000,0.482566,1.000000,1.000000,0.285074,0.463088,0.855792,2.000000,0.868706,0.150296,1.000000,1.000000,1.000000,0.183993,0.672910,2.000000
32,0.006854,0.000000,0.482566,1.000000,1.000000,0.285074,0.302464,0.855792,2.000000,0.728249,0.245105,1.000000,1.000000,1.000000,0.316345,0.672910,2.000000
33,0.006754,0.000000,1.000000,1.000000,1.000000,0.463454,0.279508,1.000000,2.000000,0.668528,0.212271,1.000000,1.000000,1.000000,0.183993,0.515664,2.000000
34,0.006754,0.000000,1.000000,1.000000,1.000000,0.463454,0.279508,1.000000,2.000000,0.668528,0.212271,1.000000,1.000000,1.000000,0.183993,0.515664,2.000000
35,0.006754,0.000000,1.000000,1.000000,1.000000,0.463454,0.279508,1.000000,2.000000,0.668528,0.212271,1.000000,1.000000,1.000000,0.183993,0.515664,2.000000
36,0.006754,0.000000,1.000000,1.000000,1.000000,0.463454,0.279508,1.000000,2.000000,0.668528,0.212271,1.000000,1.000000,1.000000,0.183993,0.515664,2.000000
37,0.006754,0.000000,1.000000,1.000000,1.000000,0.463454,0.279508,1.000000,2.000000,0.668528,0.212271,1.000000,1.000000,1.000000,0.183993,0.515664,2.000000
38,0.006754,0.000000,1.000000,1.000000,1.000000,0.463454,0.279508,1.000000,2.000000,0.668528,0.212271,1.000000,1.000000,1.000000,0.183993,0.515664,2.000000
39,0.006745,0.000000,0.944713,0.940948,1.000000,0.261441,0.000000,0.936165,2.000000,0.474643,0.260424,1.000000,1.000000,0.550094,0.135551,0.663836,2.000000
40,0.006745,0.000000,0.944713,0.940948,1.000000,0.261441,0.000000,0.936165,2.000000,0.474643,0.260424,1.000000,1.000000,0.550094,0.135551,0.663836,2.000000
41,0.006708,0.000000,0.926469,0.951016,1.000000,0.289018,0.000000,0.948171,2.000000,0.744032,0.329554,1.000000,1.000000,1.000000,0.498503,0.769708,2.000000
42,0.006708,0.000000,0.926469,0.951016,1.000000,0.289018,0.000000,0.948171,2.000000,0.744032,0.329554,1.000000,1.000000,1.000000,0.498503,0.769708,2.000000
43,0.006708,0.000000,0.926469,0.951016,1.000000,0.289018,0.000000,0.948171,2.000000,0.744032,0.329554,1.000000,1.000000,1.000000,0.498503,0.769708,2.000000
44,0.006708,0.000000,0.926469,0.951016,1.000000,0.289018,0.000000,0.948171,2.000000,0.744032,0.329554,1.000000,1.000000,1.000000,0.498503,0.769708,2.000000
45,0.006708,0.000000,0.926469,0.951016,1.000000,0.289018,0.000000,0.948171,2.000000,0.744032,0.329554,1.000000,1.000000,1.000000,0.498503,0.769708,2.000000
46,0.006708,0.000000,0.926469,0.951016,1.000000,0.289018,0.000000,0.948171,2.000000,0.744032,0.329554,1.000000,1.000000,1.000000,0.498503,0.769708,2.000000
47,0.006509,0.000000,0.815430,0.978832,1.000000,0.418103,0.000000,1.000000,2.000000,0.703248,0.000000,0.975024,0.999918,0.823910,0.000000,0.973147,2.000000
48,0.006509,0.000000,0.815430,0.978832,1.000000,0.418103,0.000000,1.000000,2.000000,0.703248,0.000000,0.975024,0.999918,0.823910,0.000000,0.973147,2.000000
49,0.006509,0.000000,0.815430,0.978832,1.000000,0.418103,0.000000,1.000000,2.000000,0.703248,0.000000,0.975024,0.999918,0.823910,0.000000,0.973147,2.000000
50,0.006509,0.000000,0.815430,0.978832,1.000000,0.418103,0.000000,1.000000,2.000000,0.703248,0.000000,0.975024,0.999918,0.823910,0.000000,0.973147,2.000000
51,0.006509,0.000000,0.815430,0.978832,1.000000,0.418103,0.000000,1.000000,2.000000,0.703248,0.000000,0.975024,0.999918,0.823910,0.000000,0.973147,2.000000
52,0.006509,0.000000,0.815430,0.978832,1.000000,0.418103,0.000000,1.000000,2.000000,0.703248,0.000000,0.975024,0.999918,0.823910,0.000000,0.973147,2.000000
53,0.006509,0.000000,0.815430,0.978832,1.000000,0.418103,0.000000,1.000000,2.000000,0.703248,0.000000,0.975024,0.999918,0.823910,0.000000,0.973147,2.000000
54,0.006509,0.000000,0.815430,0.978832,1.000000,0.418103,0.000000,1.000000,2.000000,0.703248,0.000000,0.975024,0.999918,0.823910,0.000000,0.973147,2.000000
55,0.006509,0.000000,0.815430,0.978832,1.000000,0.418103,0.000000,1.000000,2.000000,0.703248,0.000000,0.975024,0.999918,0.823910,0.000000,0.973147,2.000000
56,0.006509,0.000000,0.815430,0.978832,1.000000,0.418103,0.000000,1.000000,2.000000,0.703248,0.000000,0.975024,0.999918,0.823910,0.000000,0.973147,2.000000
57,0.006509,0.000000,0.815430,0.978832,1.000000,0.418103,0.000000,1.000000,2.000000,0.703248,0.000000,0.975024,0.999918,0.823910,0.000000,0.973147,2.000000
gen, fitness
0,0.006335,0.000000,1.000000,0.210000,0.800000,0.030000,0.030000,1.000000,0.000000,1.000000,0.000000,0.000000,0.600000,1.000000,1.000000,0.000000,0.000000
1,0.006335,0.000000,1.000000,0.210000,0.800000,0.030000,0.030000,1.000000,0.000000,1.000000,0.000000,0.000000,0.600000,1.000000,1.000000,0.000000,0.000000
2,0.000266,0.008401,0.861832,0.308239,0.738364,0.000000,0.030000,1.000000,2.000000,1.000000,0.000000,0.149040,0.619842,0.992534,0.898968,0.000000,1.000000
3,0.000054,0.113283,0.712173,0.260853,0.697945,0.000000,0.025546,0.904608,1.000000,0.817406,0.033790,0.067970,0.631546,0.989442,1.000000,0.052109,0.000000
4,0.000054,0.113283,0.712173,0.260853,0.697945,0.000000,0.025546,0.904608,1.000000,0.817406,0.033790,0.067970,0.631546,0.989442,1.000000,0.052109,0.000000
5,0.000024,0.000000,0.937943,0.269640,0.728164,0.198280,0.108138,0.847379,2.000000,1.000000,0.463386,0.012274,0.630263,0.987760,0.934199,0.007571,2.000000
6,0.000004,0.000000,0.850820,0.080457,0.800000,0.000000,0.073601,1.000000,2.000000,1.000000,0.132983,0.227684,0.549534,1.000000,1.000000,0.000000,0.000000
7,0.000004,0.000000,0.850820,0.080457,0.800000,0.000000,0.073601,1.000000,2.000000,1.000000,0.132983,0.227684,0.549534,1.000000,1.000000,0.000000,0.000000
8,0.000004,0.000000,0.850820,0.080457,0.800000,0.000000,0.073601,1.000000,2.000000,1.000000,0.132983,0.227684,0.549534,1.000000,1.000000,0.000000,0.000000
9,0.000004,0.000000,0.850820,0.080457,0.800000,0.000000,0.073601,1.000000,2.000000,1.000000,0.132983,0.227684,0.549534,1.000000,1.000000,0.000000,0.000000
10,0.000004,0.000000,0.850820,0.080457,0.800000,0.000000,0.073601,1.000000,2.000000,1.000000,0.132983,0.227684,0.549534,1.000000,1.000000,0.000000,0.000000
11,0.000003,0.042098,1.000000,0.405018,0.642448,0.073541,0.014216,1.000000,2.000000,0.859408,0.205046,0.080426,0.613999,1.000000,0.854205,0.000000,1.000000
12,0.000003,0.042098,1.000000,0.405018,0.642448,0.073541,0.014216,1.000000,2.000000,0.859408,0.205046,0.080426,0.613999,1.000000,0.854205,0.000000,1.000000
13,0.000003,0.042098,1.000000,0.405018,0.642448,0.073541,0.014216,1.000000,2.000000,0.859408,0.205046,0.080426,0.613999,1.000000,0.854205,0.000000,1.000000
14,0.000003,0.042098,1.000000,0.405018,0.642448,0.073541,0.014216,1.000000,2.000000,0.859408,0.205046,0.080426,0.613999,1.000000,0.854205,0.000000,1.000000
15,0.000003,0.042098,1.000000,0.405018,0.642448,0.073541,0.014216,1.000000,2.000000,0.859408,0.205046,0.080426,0.613999,1.000000,0.854205,0.000000,1.000000
16,0.000003,0.042098,1.000000,0.405018,0.642448,0.073541,0.014216,1.000000,2.000000,0.859408,0.205046,0.080426,0.613999,1.000000,0.854205,0.000000,1.000000
gen, fitness
0,0.018541,0.000000,1.000000,0.210000,0.800000,0.030000,0.030000,1.000000,0.000000,1.000000,0.000000,0.000000,0.600000,1.000000,1.000000,0.000000,0.000000
1,0.018541,0.000000,1.000000,0.210000,0.800000,0.030000,0.030000,1.000000,0.000000,1.000000,0.000000,0.000000,0.600000,1.000000,1.000000,0.000000,0.000000
2,0.002907,0.000000,1.000000,0.256344,0.843521,0.178800,0.030000,0.936129,2.000000,1.000000,0.000000,0.000000,0.780712,1.000000,1.000000,0.000000,1.000000
3,0.002907,0.000000,1.000000,0.256344,0.843521,0.178800,0.030000,0.936129,2.000000,1.000000,0.000000,0.000000,0.780712,1.000000,1.000000,0.000000,1.000000
4,0.001203,0.013828,1.000000,0.153872,0.938140,0.076602,0.000000,1.000000,0.000000,0.880503,0.129445,0.169045,0.868545,0.992206,0.815206,0.141497,2.000000
5,0.000583,0.000000,0.978071,0.054568,0.982535,0.242625,0.161224,0.969520,1.000000,0.830135,0.118245,0.185025,0.898076,1.000000,0.858097,0.000000,0.000000
6,0.000241,0.004939,1.000000,0.655209,0.916124,0.091401,0.048628,0.608435,0.000000,1.000000,0.129445,0.306602,0.868545,0.963907,0.678602,0.052047,2.000000
7,0.000104,0.353321,1.000000,0.419480,0.948350,0.096720,0.000000,0.957147,1.000000,0.590858,0.052033,0.127521,0.975490,1.000000,1.000000,0.201342,2.000000
8,0.000018,0.004939,1.000000,0.746374,0.916124,0.178245,0.000000,0.643626,2.000000,1.000000,0.000000,0.325796,0.899083,0.500175,0.488235,0.176135,1.000000
9,0.000007,0.353321,0.935078,0.174303,1.000000,0.000000,0.180963,1.000000,2.000000,0.999149,0.255633,0.305761,0.968445,1.000000,0.972751,0.331500,1.000000
10,0.000005,0.383228,0.927520,0.148721,1.000000,0.000000,0.180963,1.000000,2.000000,0.922439,0.255633,0.305761,0.968445,0.695123,0.823074,0.148737,0.000000
11,0.000005,0.383228,0.927520,0.148721,1.000000,0.000000,0.180963,1.000000,2.000000,0.922439,0.255633,0.305761,0.968445,0.695123,0.823074,0.148737,0.000000
12,0.000005,0.383228,0.927520,0.148721,1.000000,0.000000,0.180963,1.000000,2.000000,0.922439,0.255633,0.305761,0.968445,0.695123,0.823074,0.148737,0.000000
13,0.000005,0.383228,0.927520,0.148721,1.000000,0.000000,0.180963,1.000000,2.000000,0.922439,0.255633,0.305761,0.968445,0.695123,0.823074,0.148737,0.000000
14,0.000005,0.383228,0.927520,0.148721,1.000000,0.000000,0.180963,1.000000,2.000000,0.922439,0.255633,0.305761,0.968445,0.695123,0.823074,0.148737,0.000000
15,0.000005,0.383228,0.927520,0.148721,1.000000,0.000000,0.180963,1.000000,2.000000,0.922439,0.255633,0.305761,0.968445,0.695123,0.823074,0.148737,0.000000
16,0.000005,0.383228,0.927520,0.148721,1.000000,0.000000,0.180963,1.000000,2.000000,0.922439,0.255633,0.305761,0.968445,0.695123,0.823074,0.148737,0.000000
17,0.000005,0.383228,0.927520,0.148721,1.000000,0.000000,0.180963,1.000000,2.000000,0.922439,0.255633,0.305761,0.968445,0.695123,0.823074,0.148737,0.000000
18,0.000005,0.383228,0.927520,0.148721,1.000000,0.000000,0.180963,1.000000,2.000000,0.922439,0.255633,0.305761,0.968445,0.695123,0.823074,0.148737,0.000000
19,0.000003,0.295717,0.557635,0.113652,1.000000,0.034980,0.311884,1.000000,1.000000,0.738855,0.000000,0.000000,1.000000,0.935772,0.629882,0.237657,1.000000
gen, fitness
0,0.069293,0.000000,1.000000,0.210000,0.800000,0.030000,0.030000,1.000000,0.000000,1.000000,0.000000,0.000000,0.600000,1.000000,1.000000,0.000000,0.000000
1,0.069293,0.000000,1.000000,0.210000,0.800000,0.030000,0.030000,1.000000,0.000000,1.000000,0.000000,0.000000,0.600000,1.000000,1.000000,0.000000,0.000000
2,0.038103,0.000000,1.000000,0.205543,0.800000,0.000000,0.029005,1.000000,1.000000,1.000000,0.018810,0.161507,0.713817,1.000000,0.990533,0.000000,2.000000
3,0.030567,0.000000,1.000000,0.187032,0.923280,0.000000,0.022718,0.946917,2.000000,1.000000,0.178094,0.000000,0.872452,1.000000,0.865753,0.091366,0.000000
4,0.027580,0.107818,1.000000,0.211386,0.874757,0.000000,0.000000,0.961211,0.000000,1.000000,0.079723,0.467042,0.785639,0.742533,1.000000,0.222193,1.000000
5,0.020802,0.106544,1.000000,0.211386,0.927217,0.000000,0.000000,0.961211,2.000000,1.000000,0.151285,0.487670,0.913008,0.550889,1.000000,0.222193,2.000000
6,0.012816,0.005105,1.000000,0.123012,1.000000,0.000000,0.000000,0.885041,1.000000,0.980985,0.079723,0.555001,0.942847,1.000000,0.801217,0.108778,1.000000
7,0.012463,0.142585,0.976005,0.144352,1.000000,0.174907,0.000000,0.998943,1.000000,1.000000,0.044181,0.584611,0.937118,0.395739,1.000000,0.037972,2.000000
8,0.011500,0.000000,0.905121,0.030067,1.000000,0.305476,0.000000,1.000000,1.000000,0.791796,0.135548,0.728688,0.909241,0.777082,0.663955,0.211454,2.000000
9,0.011500,0.000000,0.905121,0.030067,1.000000,0.305476,0.000000,1.000000,1.000000,0.791796,0.135548,0.728688,0.909241,0.777082,0.663955,0.211454,2.000000
10,0.011429,0.050802,0.977444,0.019730,1.000000,0.163396,0.056198,0.862295,0.000000,0.997139,0.047119,0.631595,0.911800,0.405015,0.891171,0.152167,2.000000
11,0.011429,0.050802,0.977444,0.019730,1.000000,0.163396,0.056198,0.862295,0.000000,0.997139,0.047119,0.631595,0.911800,0.405015,0.891171,0.152167,2.000000
12,0.011429,0.050802,0.977444,0.019730,1.000000,0.163396,0.056198,0.862295,0.000000,0.997139,0.047119,0.631595,0.911800,0.405015,0.891171,0.152167,2.000000
13,0.011429,0.050802,0.977444,0.019730,1.000000,0.163396,0.056198,0.862295,0.000000,0.997139,0.047119,0.631595,0.911800,0.405015,0.891171,0.152167,2.000000
14,0.010789,0.004349,1.000000,0.035756,1.000000,0.118913,0.188581,0.815487,1.000000,0.651643,0.239232,0.958385,0.917531,0.659131,0.945459,0.320901,2.000000
15,0.010789,0.004349,1.000000,0.035756,1.000000,0.118913,0.188581,0.815487,1.000000,0.651643,0.239232,0.958385,0.917531,0.659131,0.945459,0.320901,2.000000
16,0.010789,0.004349,1.000000,0.035756,1.000000,0.118913,0.188581,0.815487,1.000000,0.651643,0.239232,0.958385,0.917531,0.659131,0.945459,0.320901,2.000000
17,0.010536,0.000000,0.718128,0.012023,1.000000,0.291365,0.000000,1.000000,1.000000,0.838077,0.024463,0.872471,0.909241,0.709032,1.000000,0.083269,2.000000
18,0.010536,0.000000,0.718128,0.012023,1.000000,0.291365,0.000000,1.000000,1.000000,0.838077,0.024463,0.872471,0.909241,0.709032,1.000000,0.083269,2.000000
19,0.009783,0.192526,0.841704,0.000000,1.000000,0.078827,0.097571,0.708976,1.000000,1.000000,0.052542,0.876872,0.909241,0.857026,0.971064,0.168828,2.000000
20,0.009783,0.192526,0.841704,0.000000,1.000000,0.078827,0.097571,0.708976,1.000000,1.000000,0.052542,0.876872,0.909241,0.857026,0.971064,0.168828,2.000000
21,0.009783,0.192526,0.841704,0.000000,1.000000,0.078827,0.097571,0.708976,1.000000,1.000000,0.052542,0.876872,0.909241,0.857026,0.971064,0.168828,2.000000
22,0.009783,0.192526,0.841704,0.000000,1.000000,0.078827,0.097571,0.708976,1.000000,1.000000,0.052542,0.876872,0.909241,0.857026,0.971064,0.168828,2.000000
23,0.008891,0.000000,1.000000,0.000000,1.000000,0.000000,0.264862,0.411282,2.000000,1.000000,0.165109,1.000000,0.880745,0.536009,0.955483,0.624758,2.000000
24,0.008891,0.000000,1.000000,0.000000,1.000000,0.000000,0.264862,0.411282,2.000000,1.000000,0.165109,1.000000,0.880745,0.536009,0.955483,0.624758,2.000000
25,0.008891,0.000000,1.000000,0.000000,1.000000,0.000000,0.264862,0.411282,2.000000,1.000000,0.165109,1.000000,0.880745,0.536009,0.955483,0.624758,2.000000
26,0.008891,0.000000,1.000000,0.000000,1.000000,0.000000,0.264862,0.411282,2.000000,1.000000,0.165109,1.000000,0.880745,0.536009,0.955483,0.624758,2.000000
27,0.008891,0.000000,1.000000,0.000000,1.000000,0.000000,0.264862,0.411282,2.000000,1.000000,0.165109,1.000000,0.880745,0.536009,0.955483,0.624758,2.000000
28,0.008891,0.000000,1.000000,0.000000,1.000000,0.000000,0.264862,0.411282,2.000000,1.000000,0.165109,1.000000,0.880745,0.536009,0.955483,0.624758,2.000000
29,0.008891,0.000000,1.000000,0.000000,1.000000,0.000000,0.264862,0.411282,2.000000,1.000000,0.165109,1.000000,0.880745,0.536009,0.955483,0.624758,2.000000
30,0.008891,0.000000,1.000000,0.000000,1.000000,0.000000,0.264862,0.411282,2.000000,1.000000,0.165109,1.000000,0.880745,0.536009,0.955483,0.624758,2.000000
31,0.008891,0.000000,1.000000,0.000000,1.000000,0.000000,0.264862,0.411282,2.000000,1.000000,0.165109,1.000000,0.880745,0.536009,0.955483,0.624758,2.000000
32,0.008891,0.000000,1.000000,0.000000,1.000000,0.000000,0.264862,0.411282,2.000000,1.000000,0.165109,1.000000,0.880745,0.536009,0.955483,0.624758,2.000000
33,0.008891,0.000000,1.000000,0.000000,1.000000,0.000000,0.264862,0.411282,2.000000,1.000000,0.165109,1.000000,0.880745,0.536009,0.955483,0.624758,2.000000
gen, fitness
0,0.020772,0.000000,1.000000,0.210000,0.800000,0.030000,0.030000,1.000000,0.000000,1.000000,0.000000,0.000000,0.600000,1.000000,1.000000,0.000000,0.000000
1,0.020772,0.000000,1.000000,0.210000,0.800000,0.030000,0.030000,1.000000,0.000000,1.000000,0.000000,0.000000,0.600000,1.000000,1.000000,0.000000,0.000000
2,0.004409,0.000000,1.000000,0.235205,0.853860,0.000000,0.029946,1.000000,2.000000,0.791131,0.014572,0.000000,0.787031,1.000000,1.000000,0.000000,2.000000
3,0.001109,0.007767,1.000000,0.209921,0.890022,0.171337,0.000000,0.960957,2.000000,0.901819,0.000000,0.000579,0.853690,1.000000,0.861431,0.167418,2.000000
4,0.000428,0.007767,1.000000,0.209921,0.950277,0.352859,0.000000,1.000000,0.000000,0.992542,0.000000,0.000000,0.908878,1.000000,0.860561,0.037351,2.000000
5,0.000428,0.007767,1.000000,0.209921,0.950277,0.352859,0.000000,1.000000,0.000000,0.992542,0.000000,0.000000,0.908878,1.000000,0.860561,0.037351,2.000000
6,0.000428,0.007767,1.000000,0.209921,0.950277,0.352859,0.000000,1.000000,0.000000,0.992542,0.000000,0.000000,0.908878,1.000000,0.860561,0.037351,2.000000
7,0.000428,0.007767,1.000000,0.209921,0.950277,0.352859,0.000000,1.000000,0.000000,0.992542,0.000000,0.000000,0.908878,1.000000,0.860561,0.037351,2.000000
8,0.000288,0.001087,0.986947,0.161776,1.000000,0.280240,0.059198,0.996626,2.000000,0.848304,0.166702,0.000000,0.980105,0.988963,0.699203,0.000000,2.000000
9,0.000023,0.000000,0.930615,0.236751,1.000000,0.169363,0.151713,0.779950,2.000000,1.000000,0.010478,0.000000,1.000000,0.877000,0.968391,0.009955,0.000000
10,0.000012,0.000000,1.000000,0.162103,1.000000,0.101765,0.224440,0.828193,0.000000,0.627043,0.238808,0.009722,1.000000,0.937170,1.000000,0.060023,2.000000
11,0.000005,0.127880,0.995548,0.279625,1.000000,0.142746,0.224440,1.000000,0.000000,0.742338,0.000000,0.054498,1.000000,0.789556,0.782127,0.000000,2.000000
12,0.000005,0.127880,0.995548,0.279625,1.000000,0.142746,0.224440,1.000000,0.000000,0.742338,0.000000,0.054498,1.000000,0.789556,0.782127,0.000000,2.000000
13,0.000005,0.127880,0.995548,0.279625,1.000000,0.142746,0.224440,1.000000,0.000000,0.742338,0.000000,0.054498,1.000000,0.789556,0.782127,0.000000,2.000000
14,0.000002,0.122894,1.000000,0.000000,1.000000,0.029343,0.170302,0.782590,1.000000,0.648726,0.296506,0.000000,1.000000,0.998812,1.000000,0.574692,1.000000
15,0.000002,0.122894,1.000000,0.000000,1.000000,0.029343,0.170302,0.782590,1.000000,0.648726,0.296506,0.000000,1.000000,0.998812,1.000000,0.574692,1.000000
16,0.000002,0.122894,1.000000,0.000000,1.000000,0.029343,0.170302,0.782590,1.000000,0.648726,0.296506,0.000000,1.000000,0.998812,1.000000,0.574692,1.000000
17,0.000002,0.122894,1.000000,0.000000,1.000000,0.029343,0.170302,0.782590,1.000000,0.648726,0.296506,0.000000,1.000000,0.998812,1.000000,0.574692,1.000000
18,0.000002,0.122894,1.000000,0.000000,1.000000,0.029343,0.170302,0.782590,1.000000,0.648726,0.296506,0.000000,1.000000,0.998812,1.000000,0.574692,1.000000
19,0.000002,0.122894,1.000000,0.000000,1.000000,0.029343,0.170302,0.782590,1.000000,0.648726,0.296506,0.000000,1.000000,0.998812,1.000000,0.574692,1.000000
20,0.000002,0.122894,1.000000,0.000000,1.000000,0.029343,0.170302,0.782590,1.000000,0.648726,0.296506,0.000000,1.000000,0.998812,1.000000,0.574692,1.000000
gen, fitness
0,0.008197,0.000000,1.000000,0.210000,0.800000,0.030000,0.030000,1.000000,0.000000,1.000000,0.000000,0.000000,0.600000,1.000000,1.000000,0.000000,0.000000
1,0.008197,0.000000,1.000000,0.210000,0.800000,0.030000,0.030000,1.000000,0.000000,1.000000,0.000000,0.000000,0.600000,1.000000,1.000000,0.000000,0.000000
2,0.000069,0.138604,0.914838,0.305059,0.813529,0.103726,0.000000,0.871528,0.000000,1.000000,0.000000,0.000000,0.771051,1.000000,1.000000,0.000000,2.000000
3,0.000069,0.138604,0.914838,0.305059,0.813529,0.103726,0.000000,0.871528,0.000000,1.000000,0.000000,0.000000,0.771051,1.000000,1.000000,0.000000,2.000000
4,0.000010,0.000000,0.819395,0.209790,0.800000,0.148618,0.067110,1.000000,1.000000,0.899227,0.000000,0.000000,0.724794,1.000000,1.000000,0.000000,2.000000
5,0.000010,0.000000,0.819395,0.209790,0.800000,0.148618,0.067110,1.000000,1.000000,0.899227,0.000000,0.000000,0.724794,1.000000,1.000000,0.000000,2.000000
6,0.000010,0.000000,0.819395,0.209790,0.800000,0.148618,0.067110,1.000000,1.000000,0.899227,0.000000,0.000000,0.724794,1.000000,1.000000,0.000000,2.000000
7,0.000010,0.000000,0.819395,0.209790,0.800000,0.148618,0.067110,1.000000,1.000000,0.899227,0.000000,0.000000,0.724794,1.000000,1.000000,0.000000,2.000000
8,0.000010,0.000000,0.819395,0.209790,0.800000,0.148618,0.067110,1.000000,1.000000,0.899227,0.000000,0.000000,0.724794,1.000000,1.000000,0.000000,2.000000
9,0.000010,0.000000,0.819395,0.209790,0.800000,0.148618,0.067110,1.000000,1.000000,0.899227,0.000000,0.000000,0.724794,1.000000,1.000000,0.000000,2.000000
10,0.000010,0.000000,0.819395,0.209790,0.800000,0.148618,0.067110,1.000000,1.000000,0.899227,0.000000,0.000000,0.724794,1.000000,1.000000,0.000000,2.000000
11,0.000000,0.087055,0.767028,0.176870,0.810927,0.192704,0.312702,1.000000,2.000000,1.000000,0.182454,0.269637,0.622897,0.937667,1.000000,0.000000,1.000000
gen, fitness
0,0.011091,0.000000,1.000000,0.210000,0.800000,0.030000,0.030000,1.000000,0.000000,1.000000,0.000000,0.000000,0.600000,1.000000,1.000000,0.000000,0.000000
1,0.011091,0.000000,1.000000,0.210000,0.800000,0.030000,0.030000,1.000000,0.000000,1.000000,0.000000,0.000000,0.600000,1.000000,1.000000,0.000000,0.000000
2,0.000048,0.000000,0.950277,0.113591,0.760246,0.000000,0.000000,0.971649,2.000000,0.989604,0.112699,0.143506,0.579694,1.000000,1.000000,0.000000,2.000000
3,0.000048,0.000000,0.950277,0.113591,0.760246,0.000000,0.000000,0.971649,2.000000,0.989604,0.112699,0.143506,0.579694,1.000000,1.000000,0.000000,2.000000
4,0.000048,0.000000,0.950277,0.113591,0.760246,0.000000,0.000000,0.971649,2.000000,0.989604,0.112699,0.143506,0.579694,1.000000,1.000000,0.000000,2.000000
5,0.000048,0.000000,0.950277,0.113591,0.760246,0.000000,0.000000,0.971649,2.000000,0.989604,0.112699,0.143506,0.579694,1.000000,1.000000,0.000000,2.000000
6,0.000048,0.000000,0.950277,0.113591,0.760246,0.000000,0.000000,0.971649,2.000000,0.989604,0.112699,0.143506,0.579694,1.000000,1.000000,0.000000,2.000000
7,0.000004,0.000000,0.944499,0.208631,0.723241,0.240957,0.053321,0.849673,1.000000,1.000000,0.007164,0.372263,0.429797,1.000000,0.914142,0.000000,2.000000
8,0.000004,0.000000,0.944499,0.208631,0.723241,0.240957,0.053321,0.849673,1.000000,1.000000,0.007164,0.372263,0.429797,1.000000,0.914142,0.000000,2.000000
9,0.000004,0.000000,0.944499,0.208631,0.723241,0.240957,0.053321,0.849673,1.000000,1.000000,0.007164,0.372263,0.429797,1.000000,0.914142,0.000000,2.000000
10,0.000004,0.000000,0.944499,0.208631,0.723241,0.240957,0.053321,0.849673,1.000000,1.000000,0.007164,0.372263,0.429797,1.000000,0.914142,0.000000,2.000000
11,0.000004,0.000000,0.944499,0.208631,0.723241,0.240957,0.053321,0.849673,1.000000,1.000000,0.007164,0.372263,0.429797,1.000000,0.914142,0.000000,2.000000
12,0.000004,0.000000,0.944499,0.208631,0.723241,0.240957,0.053321,0.849673,1.000000,1.000000,0.007164,0.372263,0.429797,1.000000,0.914142,0.000000,2.000000
13,0.000004,0.000000,0.944499,0.208631,0.723241,0.240957,0.053321,0.849673,1.000000,1.000000,0.007164,0.372263,0.429797,1.000000,0.914142,0.000000,2.000000
14,0.000004,0.000000,0.944499,0.208631,0.723241,0.240957,0.053321,0.849673,1.000000,1.000000,0.007164,0.372263,0.429797,1.000000,0.914142,0.000000,2.000000
15,0.000002,0.000000,1.000000,0.130420,0.768872,0.465959,0.000000,0.854993,1.000000,1.000000,0.065135,0.414250,0.430985,1.000000,0.914142,0.019561,0.000000
16,0.000002,0.000000,1.000000,0.130420,0.768872,0.465959,0.000000,0.854993,1.000000,1.000000,0.065135,0.414250,0.430985,1.000000,0.914142,0.019561,0.000000
17,0.000002,0.000000,1.000000,0.130420,0.768872,0.465959,0.000000,0.854993,1.000000,1.000000,0.065135,0.414250,0.430985,1.000000,0.914142,0.019561,0.000000
gen, fitness
0,0.020988,0.000000,1.000000,0.210000,0.800000,0.030000,0.030000,1.000000,0.000000,1.000000,0.000000,0.000000,0.600000,1.000000,1.000000,0.000000,0.000000
1,0.020988,0.000000,1.000000,0.210000,0.800000,0.030000,0.030000,1.000000,0.000000,1.000000,0.000000,0.000000,0.600000,1.000000,1.000000,0.000000,0.000000
2,0.008649,0.103624,0.990624,0.135294,0.839856,0.151661,0.030000,1.000000,1.000000,0.978047,0.020749,0.000000,0.746338,0.806834,0.925762,0.000000,2.000000
3,0.004746,0.100165,0.974909,0.227704,0.881224,0.170884,0.027422,1.000000,1.000000,0.956695,0.000000,0.052731,0.829718,0.993108,0.987934,0.000000,2.000000
4,0.003847,0.123649,0.914427,0.398169,0.888303,0.020850,0.125929,1.000000,0.000000,0.827467,0.105927,0.000000,0.868260,0.866811,0.950944,0.000000,2.000000
5,0.003847,0.123649,0.914427,0.398169,0.888303,0.020850,0.125929,1.000000,0.000000,0.827467,0.105927,0.000000,0.868260,0.866811,0.950944,0.000000,2.000000
6,0.002088,0.083267,0.792133,0.219828,0.997292,0.040390,0.028644,0.943361,1.000000,0.795305,0.041151,0.169854,0.940118,1.000000,0.998603,0.154069,2.000000
7,0.001489,0.012224,0.726449,0.279269,0.997292,0.097586,0.007389,0.912703,1.000000,1.000000,0.000463,0.075347,0.955640,0.905382,0.813479,0.000000,0.000000
8,0.000634,0.150328,0.944605,0.251524,1.000000,0.158937,0.028610,1.000000,2.000000,0.818034,0.237913,0.000000,1.000000,0.788116,0.744153,0.176136,1.000000
9,0.000586,0.012224,0.720303,0.404485,1.000000,0.272667,0.148254,0.894486,1.000000,0.787516,0.155432,0.000000,1.000000,0.671466,0.906547,0.086385,2.000000
10,0.000321,0.281374,0.926913,0.397618,0.999909,0.248572,0.141150,1.000000,1.000000,0.543059,0.121412,0.331106,1.000000,0.763320,0.898667,0.132995,2.000000
11,0.000321,0.281374,0.926913,0.397618,0.999909,0.248572,0.141150,1.000000,1.000000,0.543059,0.121412,0.331106,1.000000,0.763320,0.898667,0.132995,2.000000
12,0.000276,0.257977,0.903026,0.317572,1.000000,0.028054,0.331093,1.000000,2.000000,0.535300,0.138804,0.261979,1.000000,0.797262,1.000000,0.194250,2.000000
13,0.000164,0.340501,0.891850,0.583682,0.998193,0.150227,0.298129,1.000000,1.000000,0.556278,0.046573,0.561630,1.000000,0.671859,1.000000,0.091901,2.000000
14,0.000164,0.340501,0.891850,0.583682,0.998193,0.150227,0.298129,1.000000,1.000000,0.556278,0.046573,0.561630,1.000000,0.671859,1.000000,0.091901,2.000000
15,0.000126,0.330952,0.891850,0.500014,0.998193,0.000000,0.363912,0.984992,2.000000,0.556278,0.000000,0.556602,1.000000,0.911231,0.914184,0.105120,1.000000
16,0.000043,0.000000,1.000000,0.570929,1.000000,0.349775,0.321355,0.903108,2.000000,0.289721,0.220925,0.684492,1.000000,0.896902,0.771290,0.000000,2.000000
17,0.000043,0.000000,1.000000,0.570929,1.000000,0.349775,0.321355,0.903108,2.000000,0.289721,0.220925,0.684492,1.000000,0.896902,0.771290,0.000000,2.000000
18,0.000043,0.000000,1.000000,0.570929,1.000000,0.349775,0.321355,0.903108,2.000000,0.289721,0.220925,0.684492,1.000000,0.896902,0.771290,0.000000,2.000000
19,0.000043,0.000000,1.000000,0.570929,1.000000,0.349775,0.321355,0.903108,2.000000,0.289721,0.220925,0.684492,1.000000,0.896902,0.771290,0.000000,2.000000
20,0.000043,0.000000,1.000000,0.570929,1.000000,0.349775,0.321355,0.903108,2.000000,0.289721,0.220925,0.684492,1.000000,0.896902,0.771290,0.000000,2.000000
21,0.000043,0.000000,1.000000,0.570929,1.000000,0.349775,0.321355,0.903108,2.000000,0.289721,0.220925,0.684492,1.000000,0.896902,0.771290,0.000000,2.000000
22,0.000035,0.037166,0.960160,0.598134,1.000000,0.306639,0.316293,0.887124,2.000000,0.358462,0.049567,0.709628,1.000000,0.925396,0.801072,0.181866,2.000000
23,0.000035,0.037166,0.960160,0.598134,1.000000,0.306639,0.316293,0.887124,2.000000,0.358462,0.049567,0.709628,1.000000,0.925396,0.801072,0.181866,2.000000
24,0.000033,0.074937,1.000000,0.642532,0.996148,0.115693,0.131530,0.860934,2.000000,0.362144,0.073340,0.733838,1.000000,1.000000,0.766595,0.041206,2.000000
25,0.000033,0.074937,1.000000,0.642532,0.996148,0.115693,0.131530,0.860934,2.000000,0.362144,0.073340,0.733838,1.000000,1.000000,0.766595,0.041206,2.000000
26,0.000033,0.074937,1.000000,0.642532,0.996148,0.115693,0.131530,0.860934,2.000000,0.362144,0.073340,0.733838,1.000000,1.000000,0.766595,0.041206,2.000000
