gen, fitness
0,0.013430,0.000000,1.000000,0.210000,0.800000,0.030000,0.030000,1.000000,0.000000,1.000000,0.000000,0.000000,0.600000,1.000000,1.000000,0.000000,0.000000
1,0.013430,0.000000,1.000000,0.210000,0.800000,0.030000,0.030000,1.000000,0.000000,1.000000,0.000000,0.000000,0.600000,1.000000,1.000000,0.000000,0.000000
2,0.000188,0.000000,1.000000,0.210000,0.691058,0.030000,0.030000,1.000000,0.000000,1.000000,0.000000,0.000000,0.600000,1.000000,1.000000,0.000000,0.000000
3,0.000102,0.000000,1.000000,0.210000,0.691058,0.000813,0.030000,1.000000,0.000000,1.000000,0.000000,0.000000,0.624585,1.000000,0.885358,0.000000,0.000000
4,0.000097,0.000000,1.000000,0.210000,0.691058,0.000813,0.030000,0.807899,0.000000,1.000000,0.000000,0.000000,0.624585,1.000000,0.885358,0.000000,0.000000
5,0.000023,0.130915,1.000000,0.210000,0.691058,0.059215,0.030000,0.807899,0.000000,1.000000,0.000000,0.032758,0.624585,1.000000,0.885358,0.000000,0.000000
6,0.000016,0.000000,1.000000,0.183107,0.691058,0.000000,0.000000,1.000000,0.000000,1.000000,0.000000,0.000000,0.600000,1.000000,0.897975,0.000000,1.000000
7,0.000009,0.051353,0.879921,0.210000,0.691058,0.000000,0.030000,0.807899,0.000000,1.000000,0.000000,0.000000,0.624585,1.000000,0.919768,0.000000,0.000000
8,0.000005,0.000000,1.000000,0.183107,0.691058,0.000000,0.030000,0.875237,0.000000,1.000000,0.000000,0.000000,0.598664,1.000000,1.000000,0.000000,1.000000
9,0.000003,0.014405,1.000000,0.183107,0.691058,0.000000,0.030000,0.875237,0.000000,1.000000,0.000000,0.000000,0.598664,0.739850,0.967958,0.000000,1.000000
10,0.000000,0.000000,1.000000,0.183107,0.691058,0.000000,0.000000,0.938285,0.000000,1.000000,0.000000,0.000000,0.600000,1.000000,0.885358,0.000000,0.000000
gen, fitness
0,0.034276,0.000000,1.000000,0.210000,0.800000,0.030000,0.030000,1.000000,0.000000,1.000000,0.000000,0.000000,0.600000,1.000000,1.000000,0.000000,0.000000
1,0.034276,0.000000,1.000000,0.210000,0.800000,0.030000,0.030000,1.000000,0.000000,1.000000,0.000000,0.000000,0.600000,1.000000,1.000000,0.000000,0.000000
2,0.022264,0.000000,1.000000,0.210000,0.800000,0.030000,0.030000,1.000000,0.000000,1.000000,0.000000,0.000000,0.765717,1.000000,1.000000,0.000000,0.000000
3,0.021164,0.000000,1.000000,0.210000,0.800000,0.030000,0.207291,1.000000,2.000000,1.000000,0.000000,0.000000,0.717944,1.000000,1.000000,0.000000,0.000000
4,0.017439,0.000000,1.000000,0.374078,0.800000,0.030000,0.030000,1.000000,1.000000,1.000000,0.000000,0.000000,0.765717,0.915074,1.000000,0.000000,0.000000
5,0.016869,0.000000,1.000000,0.421708,0.800000,0.030000,0.065139,1.000000,0.000000,1.000000,0.000000,0.029801,0.765717,1.000000,1.000000,0.000000,0.000000
6,0.011309,0.003943,1.000000,0.191068,0.906000,0.030000,0.075243,1.000000,0.000000,0.947059,0.000000,0.145631,0.808980,1.000000,1.000000,0.000000,0.000000
7,0.009322,0.003943,1.000000,0.191068,0.906000,0.030000,0.075243,1.000000,0.000000,0.947059,0.000000,0.145631,0.808980,1.000000,1.000000,0.000000,2.000000
8,0.009120,0.003943,1.000000,0.191068,0.906000,0.030000,0.075243,1.000000,2.000000,0.947059,0.000000,0.145631,0.808980,1.000000,1.000000,0.000000,2.000000
9,0.007661,0.003943,1.000000,0.191068,0.906000,0.030000,0.075243,1.000000,2.000000,0.947059,0.000000,0.145631,0.842860,1.000000,1.000000,0.000000,2.000000
10,0.007661,0.003943,1.000000,0.191068,0.906000,0.030000,0.075243,1.000000,2.000000,0.947059,0.000000,0.145631,0.842860,1.000000,1.000000,0.000000,2.000000
11,0.007544,0.003943,1.000000,0.191068,0.906000,0.126935,0.075243,1.000000,2.000000,0.947059,0.000000,0.145631,0.842860,1.000000,1.000000,0.089419,2.000000
12,0.007306,0.003943,1.000000,0.175909,0.906000,0.030000,0.075243,0.895196,2.000000,0.947059,0.000000,0.256609,0.808980,1.000000,1.000000,0.177009,2.000000
13,0.007085,0.003943,1.000000,0.191068,0.906000,0.126935,0.075243,1.000000,2.000000,0.947059,0.000000,0.256609,0.808980,1.000000,1.000000,0.177009,2.000000
14,0.006433,0.003943,1.000000,0.251363,0.906000,0.030000,0.052282,1.000000,2.000000,0.848982,0.000000,0.352899,0.842860,1.000000,1.000000,0.000000,2.000000
15,0.005517,0.000000,1.000000,0.251363,0.920872,0.000000,0.075243,1.000000,2.000000,0.923812,0.000000,0.352899,0.842860,1.000000,1.000000,0.000000,2.000000
16,0.005226,0.003943,1.000000,0.392247,0.906000,0.030000,0.052282,1.000000,2.000000,0.848982,0.000000,0.352899,0.842860,1.000000,1.000000,0.177009,2.000000
17,0.005215,0.003943,1.000000,0.392247,0.906000,0.030000,0.000000,1.000000,2.000000,0.848982,0.000000,0.352899,0.842860,1.000000,1.000000,0.177009,2.000000
18,0.005089,0.000000,1.000000,0.251363,0.920872,0.030000,0.000000,1.000000,2.000000,0.848982,0.000000,0.352899,0.842860,1.000000,1.000000,0.177009,2.000000
19,0.004891,0.000000,1.000000,0.401425,0.920872,0.000000,0.156379,1.000000,2.000000,0.890471,0.131503,0.287490,0.861593,0.931325,1.000000,0.336072,2.000000
20,0.004008,0.003943,1.000000,0.210250,0.959866,0.069190,0.075243,1.000000,0.000000,0.960239,0.000000,0.352899,0.861593,0.931325,1.000000,0.516369,2.000000
21,0.004008,0.003943,1.000000,0.210250,0.959866,0.069190,0.075243,1.000000,0.000000,0.960239,0.000000,0.352899,0.861593,0.931325,1.000000,0.516369,2.000000
22,0.003443,0.003943,0.880797,0.210972,0.959866,0.069190,0.113440,1.000000,2.000000,0.923812,0.000000,0.442608,0.861593,0.931325,1.000000,0.336072,2.000000
23,0.003443,0.003943,0.880797,0.210972,0.959866,0.069190,0.113440,1.000000,2.000000,0.923812,0.000000,0.442608,0.861593,0.931325,1.000000,0.336072,2.000000
24,0.003161,0.000000,0.880797,0.154822,0.959866,0.069190,0.075243,1.000000,2.000000,0.923812,0.000000,0.512741,0.842860,0.960290,0.910668,0.516369,2.000000
25,0.002740,0.000000,0.880797,0.210972,0.959866,0.000000,0.075243,1.000000,2.000000,0.923812,0.000000,0.755993,0.842860,1.000000,0.910668,0.177009,2.000000
26,0.002740,0.000000,0.880797,0.210972,0.959866,0.000000,0.075243,1.000000,2.000000,0.923812,0.000000,0.755993,0.842860,1.000000,0.910668,0.177009,2.000000
27,0.001620,0.000000,1.000000,0.210972,1.000000,0.069190,0.113440,1.000000,2.000000,1.000000,0.000000,0.442608,0.942360,0.931325,0.843303,0.463637,2.000000
28,0.001620,0.000000,1.000000,0.210972,1.000000,0.069190,0.113440,1.000000,2.000000,1.000000,0.000000,0.442608,0.942360,0.931325,0.843303,0.463637,2.000000
29,0.001620,0.000000,1.000000,0.210972,1.000000,0.069190,0.113440,1.000000,2.000000,1.000000,0.000000,0.442608,0.942360,0.931325,0.843303,0.463637,2.000000
30,0.001620,0.000000,1.000000,0.210972,1.000000,0.069190,0.113440,1.000000,2.000000,1.000000,0.000000,0.442608,0.942360,0.931325,0.843303,0.463637,2.000000
31,0.001508,0.069046,0.880797,0.366677,1.000000,0.069190,0.113440,1.000000,2.000000,1.000000,0.000000,0.442608,0.966603,0.931325,0.969517,0.463637,2.000000
32,0.001110,0.000000,0.934362,0.210972,1.000000,0.069190,0.211546,0.898092,2.000000,1.000000,0.078050,0.865886,0.894193,0.874976,0.910668,0.531387,2.000000
33,0.001101,0.000000,0.934362,0.210972,1.000000,0.069190,0.211546,0.835263,2.000000,1.000000,0.078050,0.865886,0.894193,0.874976,0.910668,0.602332,2.000000
34,0.001023,0.069046,0.880797,0.366677,1.000000,0.069190,0.113440,1.000000,2.000000,1.000000,0.000000,0.755993,0.942360,0.874976,0.910668,0.550544,2.000000
35,0.000924,0.069046,0.880797,0.366677,1.000000,0.069190,0.113440,1.000000,2.000000,1.000000,0.000000,0.755993,0.942360,0.874976,0.910668,0.759388,2.000000
36,0.000866,0.000000,1.000000,0.416563,1.000000,0.069190,0.113440,1.000000,2.000000,1.000000,0.000000,0.755993,0.942360,0.874976,0.910668,0.759388,2.000000
37,0.000866,0.000000,1.000000,0.416563,1.000000,0.069190,0.113440,1.000000,2.000000,1.000000,0.000000,0.755993,0.942360,0.874976,0.910668,0.759388,2.000000
38,0.000809,0.000000,1.000000,0.416563,1.000000,0.069190,0.113440,1.000000,2.000000,1.000000,0.000000,0.755993,0.942360,0.874976,0.910668,0.904167,2.000000
39,0.000741,0.069046,0.837167,0.366677,1.000000,0.069190,0.113440,1.000000,2.000000,0.883990,0.000000,0.922173,0.942360,0.874976,1.000000,0.759388,2.000000
40,0.000732,0.078731,1.000000,0.416563,1.000000,0.069190,0.113440,1.000000,2.000000,1.000000,0.000000,0.922173,0.942360,0.874976,1.000000,0.759388,2.000000
41,0.000639,0.090376,0.914981,0.462890,1.000000,0.011190,0.113440,1.000000,2.000000,1.000000,0.000000,1.000000,0.942360,0.954148,0.910668,0.841187,2.000000
42,0.000624,0.000000,1.000000,0.426462,1.000000,0.000000,0.113440,1.000000,2.000000,0.828909,0.000878,1.000000,0.942360,0.874976,0.910668,0.795243,2.000000
43,0.000589,0.000000,1.000000,0.426462,1.000000,0.000000,0.113440,1.000000,2.000000,0.828909,0.000878,1.000000,0.942360,0.874976,0.910668,0.906138,2.000000
44,0.000589,0.000000,1.000000,0.426462,1.000000,0.000000,0.113440,1.000000,2.000000,0.828909,0.000878,1.000000,0.942360,0.874976,0.910668,0.906138,2.000000
45,0.000573,0.000000,1.000000,0.460299,1.000000,0.069190,0.000000,1.000000,2.000000,0.877149,0.000000,1.000000,0.942360,0.954148,0.910668,0.906138,2.000000
46,0.000565,0.000000,1.000000,0.426462,1.000000,0.000000,0.025821,1.000000,2.000000,0.828909,0.115077,1.000000,0.942360,1.000000,0.910668,0.906138,2.000000
47,0.000547,0.000000,1.000000,0.460299,1.000000,0.069190,0.000000,1.000000,2.000000,0.877149,0.000000,1.000000,0.942360,0.954148,0.910668,1.000000,2.000000
48,0.000547,0.000000,1.000000,0.460299,1.000000,0.069190,0.000000,1.000000,2.000000,0.877149,0.000000,1.000000,0.942360,0.954148,0.910668,1.000000,2.000000
49,0.000547,0.000000,1.000000,0.460299,1.000000,0.069190,0.000000,1.000000,2.000000,0.877149,0.089202,1.000000,0.942360,0.954148,0.910668,1.000000,2.000000
50,0.000540,0.000000,1.000000,0.460299,1.000000,0.000000,0.000000,1.000000,2.000000,0.877149,0.000000,1.000000,0.942360,0.954148,0.910668,1.000000,2.000000
51,0.000527,0.000000,1.000000,0.426462,1.000000,0.000000,0.000000,1.000000,2.000000,0.828909,0.115077,1.000000,0.942360,1.000000,1.000000,1.000000,2.000000
52,0.000527,0.000000,1.000000,0.426462,1.000000,0.000000,0.000000,1.000000,2.000000,0.828909,0.115077,1.000000,0.942360,1.000000,1.000000,1.000000,2.000000
53,0.000526,0.000000,1.000000,0.449867,1.000000,0.000000,0.000000,1.000000,2.000000,0.914763,0.115077,1.000000,0.942360,1.000000,1.000000,1.000000,2.000000
54,0.000526,0.000000,1.000000,0.449867,1.000000,0.000000,0.000000,1.000000,2.000000,0.914763,0.115077,1.000000,0.942360,1.000000,1.000000,1.000000,2.000000
55,0.000523,0.000000,1.000000,0.460299,1.000000,0.000000,0.000000,1.000000,2.000000,0.914763,0.115077,1.000000,0.942360,1.000000,1.000000,1.000000,2.000000
56,0.000523,0.000000,1.000000,0.460299,1.000000,0.000000,0.000000,1.000000,2.000000,0.914763,0.115077,1.000000,0.942360,1.000000,1.000000,1.000000,2.000000
57,0.000523,0.000000,1.000000,0.460299,1.000000,0.000000,0.000000,1.000000,2.000000,0.914763,0.115077,1.000000,0.942360,1.000000,1.000000,1.000000,2.000000
58,0.000519,0.000000,1.000000,0.499669,1.000000,0.000000,0.000000,1.000000,2.000000,0.914763,0.115077,1.000000,0.945985,1.000000,0.984920,1.000000,2.000000
59,0.000517,0.000000,1.000000,0.460299,1.000000,0.000000,0.000000,1.000000,2.000000,0.877149,0.000000,1.000000,0.947273,1.000000,1.000000,1.000000,2.000000
60,0.000515,0.000000,1.000000,0.460299,1.000000,0.000000,0.000000,1.000000,2.000000,0.877149,0.120277,1.000000,0.947273,1.000000,1.000000,1.000000,2.000000
61,0.000514,0.000000,1.000000,0.499669,1.000000,0.004851,0.000000,1.000000,2.000000,0.914763,0.115077,1.000000,0.947273,1.000000,0.984920,1.000000,2.000000
gen, fitness
0,0.044384,0.000000,1.000000,0.210000,0.800000,0.030000,0.030000,1.000000,0.000000,1.000000,0.000000,0.000000,0.600000,1.000000,1.000000,0.000000,0.000000
1,0.044384,0.000000,1.000000,0.210000,0.800000,0.030000,0.030000,1.000000,0.000000,1.000000,0.000000,0.000000,0.600000,1.000000,1.000000,0.000000,0.000000
2,0.032662,0.000000,1.000000,0.210000,0.800000,0.030000,0.030000,1.000000,0.000000,1.000000,0.000000,0.000000,0.767953,1.000000,1.000000,0.000000,0.000000
3,0.026322,0.050644,1.000000,0.213051,0.800000,0.030000,0.030000,1.000000,1.000000,0.775645,0.000000,0.000000,0.773263,0.979432,1.000000,0.000000,0.000000
4,0.026322,0.050644,1.000000,0.213051,0.800000,0.030000,0.030000,1.000000,1.000000,0.775645,0.000000,0.000000,0.773263,0.979432,1.000000,0.000000,0.000000
5,0.024082,0.050644,1.000000,0.316338,0.800000,0.030000,0.030000,1.000000,1.000000,0.775645,0.000000,0.000000,0.773263,0.966986,1.000000,0.016819,1.000000
6,0.023179,0.050644,0.925907,0.308656,0.800000,0.030000,0.030000,1.000000,1.000000,0.775645,0.057514,0.000000,0.773263,1.000000,1.000000,0.000000,2.000000
7,0.021124,0.000000,1.000000,0.442732,0.800000,0.030000,0.030000,1.000000,2.000000,1.000000,0.031924,0.145516,0.767953,0.858464,0.974700,0.168635,0.000000
8,0.019640,0.050644,0.830021,0.213051,0.873569,0.030000,0.000000,1.000000,1.000000,0.775645,0.000000,0.000000,0.820941,0.979432,1.000000,0.000000,2.000000
9,0.019148,0.000000,1.000000,0.442732,0.800000,0.030000,0.030000,1.000000,1.000000,0.775645,0.000000,0.000000,0.820941,0.979432,1.000000,0.000000,2.000000
10,0.018365,0.000000,1.000000,0.442732,0.800000,0.030000,0.030000,1.000000,2.000000,0.775645,0.000000,0.000000,0.822365,0.979432,1.000000,0.000000,2.000000
11,0.017025,0.050644,0.830021,0.247827,0.873569,0.030000,0.000000,1.000000,2.000000,0.775645,0.000000,0.157949,0.820941,1.000000,1.000000,0.000000,2.000000
12,0.017025,0.050644,0.830021,0.247827,0.873569,0.030000,0.000000,1.000000,2.000000,0.775645,0.000000,0.157949,0.820941,1.000000,1.000000,0.000000,2.000000
13,0.014496,0.000000,1.000000,0.442732,0.882602,0.030000,0.030000,0.935594,2.000000,0.775645,0.000000,0.000000,0.890048,0.979432,1.000000,0.000000,2.000000
14,0.014236,0.000000,1.000000,0.442732,0.882602,0.030000,0.030000,0.935594,2.000000,0.775645,0.000000,0.000000,0.890048,0.909692,1.000000,0.195475,2.000000
15,0.014236,0.000000,1.000000,0.442732,0.882602,0.030000,0.030000,0.935594,2.000000,0.775645,0.000000,0.000000,0.890048,0.909692,1.000000,0.195475,2.000000
16,0.013983,0.000000,1.000000,0.442732,0.882602,0.030000,0.030000,1.000000,2.000000,0.775645,0.000000,0.000000,0.890048,0.909692,1.000000,0.307357,2.000000
17,0.013940,0.000000,1.000000,0.442732,0.882602,0.093918,0.030000,0.935594,2.000000,0.726866,0.000000,0.000000,0.901604,0.945294,1.000000,0.045149,2.000000
18,0.013854,0.000000,1.000000,0.480058,0.882602,0.030000,0.030000,0.935594,2.000000,0.775645,0.068706,0.058217,0.890048,0.979432,1.000000,0.139293,2.000000
19,0.013666,0.000000,1.000000,0.463559,0.882602,0.030000,0.030000,1.000000,2.000000,0.775645,0.000000,0.058217,0.890048,1.000000,1.000000,0.285025,2.000000
20,0.012585,0.000000,1.000000,0.442732,0.882602,0.030000,0.030000,0.935594,2.000000,0.517242,0.076212,0.058217,0.917231,0.909692,1.000000,0.307357,2.000000
21,0.012585,0.000000,1.000000,0.442732,0.882602,0.030000,0.030000,0.935594,2.000000,0.517242,0.076212,0.058217,0.917231,0.909692,1.000000,0.307357,2.000000
22,0.012286,0.000000,1.000000,0.442732,0.918145,0.030000,0.030000,0.935594,2.000000,0.517242,0.076212,0.058217,0.975858,0.909692,1.000000,0.307357,2.000000
23,0.012280,0.000000,0.791131,0.480058,0.882602,0.030000,0.030000,1.000000,2.000000,0.517242,0.076212,0.058217,0.917231,0.949086,1.000000,0.307357,2.000000
24,0.012169,0.000000,1.000000,0.442732,0.882602,0.030000,0.081645,0.935594,2.000000,0.440456,0.076212,0.058217,0.917231,0.909692,0.968682,0.470244,2.000000
25,0.010867,0.000000,1.000000,0.442732,0.918145,0.000000,0.030000,0.935594,2.000000,0.402299,0.009350,0.058217,0.975858,0.909692,1.000000,0.432492,2.000000
26,0.010777,0.137959,1.000000,0.442732,0.918145,0.030000,0.000000,0.935594,2.000000,0.402299,0.009350,0.058217,0.975858,0.909692,1.000000,0.432492,0.000000
27,0.010467,0.137959,0.929695,0.442732,0.918145,0.030000,0.000000,0.935594,2.000000,0.402299,0.009350,0.058217,0.975858,0.803886,1.000000,0.307357,2.000000
28,0.009651,0.136875,0.801237,0.645893,0.918145,0.030000,0.198142,1.000000,2.000000,0.517242,0.085920,0.058217,0.975858,0.909692,0.913182,0.432489,2.000000
29,0.009511,0.000000,1.000000,0.613568,0.918145,0.000000,0.030000,0.935594,2.000000,0.402299,0.009350,0.026750,0.975858,0.909692,0.913182,0.432492,2.000000
30,0.008997,0.136875,0.801237,0.645893,0.918145,0.030000,0.198142,1.000000,2.000000,0.343064,0.291633,0.058217,0.987725,0.909692,0.968682,0.668910,2.000000
31,0.008997,0.136875,0.801237,0.645893,0.918145,0.030000,0.198142,1.000000,2.000000,0.343064,0.291633,0.058217,0.987725,0.909692,0.968682,0.668910,2.000000
32,0.008765,0.136875,0.801237,0.728434,0.918145,0.030000,0.054594,1.000000,2.000000,0.402299,0.035690,0.000000,1.000000,0.909692,0.925344,0.432492,2.000000
33,0.008765,0.136875,0.801237,0.728434,0.918145,0.030000,0.054594,1.000000,2.000000,0.402299,0.035690,0.000000,1.000000,0.909692,0.925344,0.432492,2.000000
34,0.008649,0.136875,0.737239,0.867537,0.918145,0.030000,0.222384,1.000000,2.000000,0.402299,0.035690,0.000000,1.000000,0.909692,0.968682,0.668910,2.000000
35,0.008483,0.136875,0.801237,0.728434,0.918145,0.011305,0.198142,1.000000,2.000000,0.173876,0.291633,0.058217,1.000000,0.955823,0.968682,0.668910,2.000000
36,0.008473,0.013381,0.737239,0.867537,0.918145,0.030000,0.054594,0.982941,2.000000,0.402299,0.108730,0.000000,1.000000,0.909692,0.925344,0.432492,2.000000
37,0.008244,0.136875,0.737239,0.867537,0.918145,0.030000,0.342420,1.000000,2.000000,0.343064,0.243771,0.148733,1.000000,0.955823,0.968682,0.668910,2.000000
38,0.008125,0.136875,0.737239,0.931532,0.918145,0.030000,0.342420,1.000000,2.000000,0.343064,0.243771,0.148733,1.000000,1.000000,0.968682,0.668910,2.000000
39,0.007997,0.000000,0.801237,0.769096,0.918145,0.030000,0.198142,1.000000,2.000000,0.018826,0.291633,0.156999,1.000000,0.955823,1.000000,0.668910,2.000000
40,0.007997,0.000000,0.801237,0.769096,0.918145,0.030000,0.198142,1.000000,2.000000,0.018826,0.291633,0.156999,1.000000,0.955823,1.000000,0.668910,2.000000
41,0.007950,0.000000,0.801237,0.769096,0.918145,0.030000,0.198142,1.000000,2.000000,0.000000,0.291633,0.170896,1.000000,0.947746,0.968682,0.668910,2.000000
42,0.007879,0.000000,0.801237,0.769096,0.918145,0.000000,0.052516,1.000000,2.000000,0.094153,0.278456,0.187196,1.000000,0.955823,0.968682,0.883067,2.000000
43,0.007798,0.136875,0.801237,0.837625,0.918145,0.000000,0.155064,1.000000,2.000000,0.094153,0.278456,0.252939,1.000000,0.955823,0.968682,0.883067,2.000000
44,0.007798,0.136875,0.801237,0.837625,0.918145,0.000000,0.155064,1.000000,2.000000,0.094153,0.278456,0.252939,1.000000,0.955823,0.968682,0.883067,2.000000
45,0.007730,0.000000,0.801237,0.884137,0.918145,0.030000,0.037894,1.000000,2.000000,0.107346,0.278456,0.187196,1.000000,0.955823,1.000000,1.000000,2.000000
46,0.007687,0.000000,0.801237,1.000000,0.918145,0.030000,0.384620,0.920924,2.000000,0.241200,0.238397,0.256379,1.000000,1.000000,0.968682,0.883067,2.000000
47,0.007568,0.000000,0.801237,0.884137,0.918145,0.030000,0.102229,1.000000,2.000000,0.085605,0.328221,0.256379,1.000000,1.000000,0.968682,0.994060,2.000000
48,0.007523,0.000000,0.801237,0.924040,0.918145,0.030000,0.102229,1.000000,2.000000,0.085605,0.328221,0.256379,1.000000,1.000000,0.968682,0.994060,2.000000
49,0.007308,0.124851,0.784634,0.947669,0.918145,0.103635,0.052516,1.000000,2.000000,0.000000,0.278456,0.424467,1.000000,0.845702,0.908994,0.994060,2.000000
50,0.007178,0.000000,0.801237,1.000000,0.918145,0.103635,0.052516,1.000000,2.000000,0.000000,0.278456,0.424467,1.000000,0.678806,0.908994,0.994060,2.000000
51,0.007178,0.000000,0.801237,1.000000,0.918145,0.103635,0.052516,1.000000,2.000000,0.000000,0.278456,0.424467,1.000000,0.678806,0.908994,0.994060,2.000000
52,0.007145,0.000000,0.801237,0.960223,0.932470,0.065741,0.037970,1.000000,2.000000,0.000000,0.278456,0.424467,1.000000,1.000000,0.968682,0.994060,2.000000
53,0.007145,0.000000,0.801237,0.960223,0.932470,0.065741,0.037970,1.000000,2.000000,0.000000,0.278456,0.424467,1.000000,1.000000,0.968682,0.994060,2.000000
54,0.007064,0.000000,0.801237,0.960223,0.932470,0.065741,0.037970,0.883573,2.000000,0.001346,0.278456,0.588000,1.000000,0.678806,0.908994,0.994060,2.000000
55,0.007047,0.000000,0.801237,0.960223,0.932470,0.065741,0.037970,1.000000,2.000000,0.000000,0.177629,0.424467,1.000000,0.678806,0.718554,0.994060,2.000000
56,0.006974,0.000000,0.801237,0.960223,0.932470,0.065741,0.037970,1.000000,2.000000,0.000000,0.278456,0.588000,1.000000,0.678806,1.000000,0.994060,2.000000
57,0.006974,0.000000,0.801237,0.960223,0.932470,0.065741,0.037970,1.000000,2.000000,0.000000,0.278456,0.588000,1.000000,0.678806,1.000000,0.994060,2.000000
58,0.006965,0.000000,0.775280,1.000000,0.932470,0.065741,0.037970,0.883573,2.000000,0.001346,0.278456,0.588000,1.000000,0.683610,0.824103,0.994060,2.000000
59,0.006880,0.000000,0.801237,1.000000,0.932217,0.065741,0.037970,1.000000,2.000000,0.000000,0.177629,0.618287,1.000000,0.678806,0.908994,0.994060,2.000000
60,0.006854,0.000000,0.801237,1.000000,0.932470,0.000000,0.037970,1.000000,2.000000,0.000000,0.177629,0.618287,1.000000,0.678806,0.908994,0.994060,2.000000
61,0.006852,0.000000,0.775280,1.000000,0.932470,0.000000,0.037970,1.000000,2.000000,0.000000,0.145957,0.618287,1.000000,0.678806,0.908994,1.000000,2.000000
62,0.006848,0.000000,0.801237,1.000000,0.932470,0.000000,0.000000,1.000000,2.000000,0.000000,0.177629,0.618287,1.000000,0.678806,0.908994,0.994060,2.000000
63,0.006832,0.001271,0.895027,1.000000,0.932470,0.065741,0.000000,1.000000,2.000000,0.000000,0.177629,0.612230,1.000000,0.862556,0.908994,0.994060,2.000000
64,0.006821,0.001271,1.000000,1.000000,0.932470,0.065741,0.000000,1.000000,2.000000,0.000000,0.177629,0.612230,1.000000,0.862556,0.908994,0.994060,2.000000
65,0.006814,0.000000,0.895027,1.000000,0.932470,0.000000,0.037970,1.000000,2.000000,0.000000,0.177629,0.618287,1.000000,0.867169,0.908994,1.000000,2.000000
66,0.006803,0.000000,1.000000,1.000000,0.932470,0.000000,0.037970,1.000000,2.000000,0.000000,0.177629,0.618287,1.000000,0.867169,0.908994,1.000000,2.000000
67,0.006801,0.001271,1.000000,1.000000,0.932470,0.000000,0.000000,1.000000,2.000000,0.000000,0.177629,0.618287,1.000000,0.862556,0.908994,0.994060,2.000000
68,0.006752,0.001271,1.000000,1.000000,0.944670,0.000000,0.000000,1.000000,2.000000,0.000000,0.276961,0.618287,1.000000,0.862556,0.906649,1.000000,2.000000
69,0.006735,0.001271,1.000000,1.000000,0.944670,0.000000,0.000000,1.000000,2.000000,0.000000,0.177629,0.618287,1.000000,0.867169,0.908994,1.000000,2.000000
70,0.006534,0.001271,0.881171,1.000000,0.944670,0.000000,0.000000,1.000000,2.000000,0.000000,0.276961,0.785007,1.000000,0.862556,0.906649,1.000000,2.000000
71,0.006524,0.001271,0.881171,1.000000,0.944670,0.123221,0.000000,1.000000,2.000000,0.000000,0.276961,0.948251,1.000000,0.862556,0.906649,1.000000,2.000000
72,0.006524,0.001271,0.881171,1.000000,0.944670,0.123221,0.000000,1.000000,2.000000,0.000000,0.276961,0.948251,1.000000,0.862556,0.906649,1.000000,2.000000
73,0.006500,0.001271,0.881171,1.000000,0.944670,0.000000,0.000000,1.000000,2.000000,0.000000,0.276961,1.000000,1.000000,0.862556,0.906649,1.000000,2.000000
74,0.006459,0.056163,0.993529,1.000000,0.944670,0.000000,0.000000,1.000000,2.000000,0.000000,0.270270,0.948251,1.000000,0.862556,1.000000,1.000000,2.000000
75,0.006367,0.000000,0.881171,1.000000,0.955851,0.123221,0.000000,1.000000,2.000000,0.000000,0.276961,0.948251,1.000000,0.862556,0.906649,1.000000,2.000000
76,0.006305,0.000000,0.881171,1.000000,0.955851,0.123221,0.000000,1.000000,2.000000,0.000000,0.276961,1.000000,1.000000,0.862556,0.906649,1.000000,2.000000
77,0.006299,0.000000,0.881171,1.000000,0.955851,0.123221,0.000000,1.000000,2.000000,0.000000,0.276961,1.000000,1.000000,0.918847,0.906649,1.000000,2.000000
78,0.006294,0.001271,0.968813,1.000000,0.955851,0.123221,0.000000,1.000000,2.000000,0.000000,0.276961,1.000000,1.000000,0.936631,0.906649,1.000000,2.000000
79,0.006250,0.000000,0.968813,1.000000,0.955851,0.000000,0.000000,1.000000,2.000000,0.000000,0.173953,1.000000,1.000000,0.840310,0.906649,1.000000,2.000000
80,0.006247,0.001271,0.993646,1.000000,0.955851,0.000000,0.000000,1.000000,2.000000,0.000000,0.276961,1.000000,1.000000,1.000000,0.906649,1.000000,2.000000
81,0.006235,0.000000,0.881171,1.000000,0.955851,0.000000,0.000000,1.000000,2.000000,0.000000,0.173953,1.000000,1.000000,0.851092,0.807122,1.000000,2.000000
82,0.006234,0.000000,0.968813,1.000000,0.955851,0.000000,0.000000,1.000000,2.000000,0.000000,0.123000,1.000000,1.000000,0.862556,0.870420,1.000000,2.000000
83,0.006194,0.000000,1.000000,1.000000,0.955851,0.000000,0.000000,1.000000,2.000000,0.000000,0.085540,1.000000,1.000000,0.862556,0.584559,1.000000,2.000000
84,0.006194,0.000000,1.000000,1.000000,0.955851,0.000000,0.000000,1.000000,2.000000,0.000000,0.085540,1.000000,1.000000,0.862556,0.584559,1.000000,2.000000
85,0.006182,0.000000,1.000000,1.000000,0.955851,0.000000,0.000000,1.000000,2.000000,0.000000,0.085540,1.000000,1.000000,0.955924,0.584559,1.000000,2.000000
86,0.006182,0.000000,1.000000,1.000000,0.955851,0.000000,0.000000,1.000000,2.000000,0.000000,0.085540,1.000000,1.000000,0.955924,0.584559,1.000000,2.000000
87,0.006177,0.000000,0.993646,1.000000,0.955851,0.000000,0.000000,1.000000,2.000000,0.000000,0.000000,1.000000,1.000000,1.000000,0.584559,0.986277,2.000000
88,0.006177,0.000000,0.993646,1.000000,0.955851,0.000000,0.000000,1.000000,2.000000,0.000000,0.000000,1.000000,1.000000,1.000000,0.584559,0.986277,2.000000
89,0.006170,0.000000,0.993646,1.000000,0.955851,0.000000,0.000000,1.000000,2.000000,0.000000,0.000000,1.000000,1.000000,1.000000,0.584559,1.000000,2.000000
90,0.006169,0.000000,1.000000,1.000000,0.955851,0.000000,0.000000,1.000000,2.000000,0.000000,0.000000,1.000000,1.000000,1.000000,0.584559,1.000000,2.000000
91,0.006149,0.000000,1.000000,1.000000,0.957931,0.000000,0.000000,1.000000,2.000000,0.000000,0.000000,1.000000,1.000000,1.000000,0.584559,0.986277,2.000000
92,0.006149,0.000000,1.000000,1.000000,0.957931,0.000000,0.000000,1.000000,2.000000,0.000000,0.000000,1.000000,1.000000,1.000000,0.584559,0.986277,2.000000
93,0.006149,0.000000,1.000000,1.000000,0.957931,0.000000,0.000000,1.000000,2.000000,0.000000,0.000000,1.000000,1.000000,1.000000,0.584559,0.986277,2.000000
94,0.006143,0.000000,1.000000,1.000000,0.957931,0.000000,0.000000,1.000000,2.000000,0.000000,0.000000,1.000000,1.000000,1.000000,0.584559,1.000000,2.000000
95,0.006139,0.000000,1.000000,1.000000,0.957931,0.000000,0.006488,1.000000,2.000000,0.000000,0.000000,1.000000,1.000000,1.000000,0.548152,1.000000,2.000000
96,0.006138,0.000000,1.000000,1.000000,0.957931,0.000000,0.006488,1.000000,2.000000,0.000000,0.000000,1.000000,1.000000,1.000000,0.537554,1.000000,2.000000
97,0.006128,0.000000,1.000000,1.000000,0.957931,0.000000,0.000000,1.000000,2.000000,0.000000,0.000000,1.000000,1.000000,1.000000,0.276857,1.000000,2.000000
98,0.006127,0.000000,1.000000,1.000000,0.957931,0.000000,0.006488,1.000000,2.000000,0.000000,0.000000,1.000000,1.000000,1.000000,0.342173,1.000000,2.000000
99,0.006108,0.000000,0.980579,1.000000,0.958987,0.000000,0.006488,1.000000,2.000000,0.000000,0.000000,1.000000,1.000000,1.000000,0.276857,1.000000,2.000000
100,0.006108,0.000000,0.980579,1.000000,0.958987,0.000000,0.006488,1.000000,2.000000,0.000000,0.000000,1.000000,1.000000,1.000000,0.276857,1.000000,2.000000
101,0.006108,0.000000,0.980579,1.000000,0.958987,0.000000,0.006488,1.000000,2.000000,0.000000,0.000000,1.000000,1.000000,1.000000,0.276857,1.000000,2.000000
102,0.006108,0.000000,0.980579,1.000000,0.958987,0.000000,0.006488,1.000000,2.000000,0.000000,0.000000,1.000000,1.000000,1.000000,0.276857,1.000000,2.000000
103,0.006106,0.000000,1.000000,1.000000,0.958987,0.000000,0.006488,1.000000,2.000000,0.000000,0.000000,1.000000,1.000000,1.000000,0.276857,1.000000,2.000000
104,0.006066,0.000000,0.980579,1.000000,0.962127,0.000000,0.000000,1.000000,2.000000,0.000000,0.000000,1.000000,1.000000,1.000000,0.276857,1.000000,2.000000
105,0.006066,0.000000,0.980579,1.000000,0.962127,0.000000,0.000000,1.000000,2.000000,0.000000,0.000000,1.000000,1.000000,1.000000,0.276857,1.000000,2.000000
106,0.006064,0.000000,0.980579,1.000000,0.962127,0.000000,0.000000,1.000000,2.000000,0.000000,0.000000,1.000000,1.000000,1.000000,0.266553,1.000000,2.000000
107,0.006049,0.000000,0.980579,1.000000,0.962127,0.000000,0.000000,1.000000,2.000000,0.000000,0.000000,1.000000,1.000000,1.000000,0.127701,1.000000,2.000000
108,0.006048,0.000000,0.980579,1.000000,0.962127,0.000000,0.000000,1.000000,2.000000,0.000000,0.000000,1.000000,1.000000,1.000000,0.117337,1.000000,2.000000
109,0.006047,0.000000,1.000000,1.000000,0.962127,0.000000,0.000000,1.000000,2.000000,0.000000,0.000000,1.000000,1.000000,1.000000,0.127701,1.000000,2.000000
110,0.006046,0.000000,0.980579,1.000000,0.962127,0.000000,0.000000,1.000000,2.000000,0.000000,0.000000,1.000000,1.000000,1.000000,0.000000,0.996873,2.000000
111,0.006043,0.000000,1.000000,1.000000,0.962127,0.000000,0.000000,1.000000,2.000000,0.000000,0.000000,1.000000,1.000000,1.000000,0.042529,1.000000,2.000000
112,0.006042,0.000000,1.000000,1.000000,0.962127,0.000000,0.000000,1.000000,2.000000,0.000000,0.000000,1.000000,1.000000,1.000000,0.000000,1.000000,2.000000
113,0.006042,0.000000,1.000000,1.000000,0.962127,0.000000,0.000000,1.000000,2.000000,0.000000,0.000000,1.000000,1.000000,1.000000,0.000000,1.000000,2.000000
114,0.006039,0.000000,0.980579,1.000000,0.971180,0.000000,0.000000,1.000000,2.000000,0.000000,0.000000,1.000000,1.000000,1.000000,0.067844,1.000000,2.000000
115,0.006010,0.000000,0.980579,1.000000,0.971180,0.000000,0.000000,1.000000,2.000000,0.000000,0.000000,1.000000,1.000000,1.000000,0.000000,1.000000,2.000000
116,0.006010,0.000000,0.980579,1.000000,0.971180,0.000000,0.000000,1.000000,2.000000,0.000000,0.000000,1.000000,1.000000,1.000000,0.000000,1.000000,2.000000
117,0.006010,0.000000,0.980579,1.000000,0.971180,0.000000,0.000000,1.000000,2.000000,0.000000,0.000000,1.000000,1.000000,1.000000,0.000000,1.000000,2.000000
118,0.005992,0.000000,1.000000,1.000000,0.969061,0.000000,0.000000,1.000000,2.000000,0.000000,0.000000,1.000000,1.000000,1.000000,0.000000,1.000000,2.000000
119,0.005992,0.000000,1.000000,1.000000,0.969061,0.000000,0.000000,1.000000,2.000000,0.000000,0.000000,1.000000,1.000000,1.000000,0.000000,1.000000,2.000000
120,0.005992,0.000000,1.000000,1.000000,0.969061,0.000000,0.000000,1.000000,2.000000,0.000000,0.000000,1.000000,1.000000,1.000000,0.000000,1.000000,2.000000
121,0.005992,0.000000,1.000000,1.000000,0.969061,0.000000,0.000000,1.000000,2.000000,0.000000,0.000000,1.000000,1.000000,1.000000,0.000000,1.000000,2.000000
122,0.005992,0.000000,1.000000,1.000000,0.969061,0.000000,0.000000,1.000000,2.000000,0.000000,0.000000,1.000000,1.000000,1.000000,0.000000,1.000000,2.000000
123,0.005992,0.000000,1.000000,1.000000,0.969061,0.000000,0.000000,1.000000,2.000000,0.000000,0.000000,1.000000,1.000000,1.000000,0.000000,1.000000,2.000000
124,0.005992,0.000000,1.000000,1.000000,0.969061,0.000000,0.000000,1.000000,2.000000,0.000000,0.000000,1.000000,1.000000,1.000000,0.000000,1.000000,2.000000
125,0.005992,0.000000,1.000000,1.000000,0.969061,0.000000,0.000000,1.000000,2.000000,0.000000,0.000000,1.000000,1.000000,1.000000,0.000000,1.000000,2.000000
126,0.005992,0.000000,1.000000,1.000000,0.969061,0.000000,0.000000,1.000000,2.000000,0.000000,0.000000,1.000000,1.000000,1.000000,0.000000,1.000000,2.000000
127,0.005992,0.000000,1.000000,1.000000,0.969061,0.000000,0.000000,1.000000,2.000000,0.000000,0.000000,1.000000,1.000000,1.000000,0.000000,1.000000,2.000000
128,0.005992,0.000000,1.000000,1.000000,0.969061,0.000000,0.000000,1.000000,2.000000,0.000000,0.000000,1.000000,1.000000,1.000000,0.000000,1.000000,2.000000
gen, fitness
0,0.006335,0.000000,1.000000,0.210000,0.800000,0.030000,0.030000,1.000000,0.000000,1.000000,0.000000,0.000000,0.600000,1.000000,1.000000,0.000000,0.000000
1,0.006335,0.000000,1.000000,0.210000,0.800000,0.030000,0.030000,1.000000,0.000000,1.000000,0.000000,0.000000,0.600000,1.000000,1.000000,0.000000,0.000000
2,0.000299,0.000000,1.000000,0.210000,0.800000,0.030000,0.030000,1.000000,1.000000,1.000000,0.000000,0.000000,0.693050,1.000000,1.000000,0.000000,2.000000
3,0.000017,0.000000,1.000000,0.113062,0.800000,0.030000,0.030000,1.000000,0.000000,1.000000,0.000000,0.126683,0.600000,1.000000,1.000000,0.000000,2.000000
4,0.000017,0.000000,1.000000,0.113062,0.800000,0.030000,0.030000,1.000000,0.000000,1.000000,0.000000,0.126683,0.600000,1.000000,1.000000,0.000000,2.000000
5,0.000017,0.000000,1.000000,0.113062,0.800000,0.030000,0.030000,1.000000,0.000000,1.000000,0.000000,0.126683,0.600000,1.000000,1.000000,0.000000,2.000000
6,0.000017,0.000000,1.000000,0.113062,0.800000,0.030000,0.030000,1.000000,0.000000,1.000000,0.000000,0.126683,0.600000,1.000000,1.000000,0.000000,2.000000
7,0.000014,0.000000,1.000000,0.210000,0.800000,0.030000,0.030000,0.746709,0.000000,1.000000,0.000000,0.000000,0.693050,0.806746,1.000000,0.000000,0.000000
8,0.000014,0.000000,1.000000,0.210000,0.800000,0.030000,0.030000,0.746709,0.000000,1.000000,0.000000,0.000000,0.693050,0.806746,1.000000,0.000000,0.000000
9,0.000014,0.000000,1.000000,0.210000,0.800000,0.030000,0.030000,0.746709,0.000000,1.000000,0.000000,0.000000,0.693050,0.806746,1.000000,0.000000,0.000000
10,0.000013,0.000000,0.868132,0.210000,0.800000,0.148391,0.030000,0.746709,0.000000,1.000000,0.000000,0.000000,0.693050,0.843292,1.000000,0.000000,0.000000
11,0.000007,0.027164,1.000000,0.210000,0.800000,0.000000,0.030000,0.746709,0.000000,1.000000,0.000000,0.000000,0.693050,0.843292,1.000000,0.000000,0.000000
12,0.000005,0.011079,1.000000,0.210000,0.800000,0.030000,0.000000,0.746709,0.000000,1.000000,0.000000,0.000000,0.693050,0.806746,1.000000,0.000000,0.000000
13,0.000005,0.011079,1.000000,0.210000,0.800000,0.030000,0.000000,0.746709,0.000000,1.000000,0.000000,0.000000,0.693050,0.843292,1.000000,0.000000,0.000000
gen, fitness
0,0.018541,0.000000,1.000000,0.210000,0.800000,0.030000,0.030000,1.000000,0.000000,1.000000,0.000000,0.000000,0.600000,1.000000,1.000000,0.000000,0.000000
1,0.018541,0.000000,1.000000,0.210000,0.800000,0.030000,0.030000,1.000000,0.000000,1.000000,0.000000,0.000000,0.600000,1.000000,1.000000,0.000000,0.000000
2,0.008731,0.000000,1.000000,0.210000,0.800000,0.030000,0.030000,1.000000,0.000000,1.000000,0.000000,0.000000,0.739293,1.000000,1.000000,0.000000,0.000000
3,0.006172,0.151725,1.000000,0.210000,0.800000,0.030000,0.030000,0.954949,2.000000,1.000000,0.000000,0.026579,0.739293,1.000000,1.000000,0.000000,0.000000
4,0.006107,0.151725,1.000000,0.210000,0.800000,0.030000,0.030000,0.954949,2.000000,1.000000,0.000000,0.026579,0.739293,1.000000,1.000000,0.029794,0.000000
5,0.004366,0.000000,1.000000,0.324961,0.800000,0.020006,0.180056,0.954949,2.000000,1.000000,0.000000,0.026579,0.739293,1.000000,1.000000,0.000000,0.000000
6,0.004117,0.000000,1.000000,0.324961,0.800000,0.000000,0.030000,0.954949,2.000000,1.000000,0.000000,0.026579,0.739293,1.000000,1.000000,0.124760,0.000000
7,0.003693,0.000000,1.000000,0.324961,0.800000,0.095551,0.180056,0.954949,2.000000,1.000000,0.000000,0.026579,0.739293,1.000000,1.000000,0.074081,2.000000
8,0.003552,0.000000,1.000000,0.386342,0.800000,0.104923,0.030000,0.832722,2.000000,1.000000,0.000000,0.099323,0.739293,1.000000,1.000000,0.000000,0.000000
9,0.003039,0.000000,1.000000,0.386342,0.800000,0.104923,0.030000,0.832722,2.000000,1.000000,0.000000,0.116279,0.739293,1.000000,1.000000,0.000000,2.000000
10,0.002647,0.000000,1.000000,0.324961,0.849224,0.000000,0.028628,0.827753,2.000000,1.000000,0.000000,0.166193,0.739293,1.000000,1.000000,0.074081,2.000000
11,0.002647,0.000000,1.000000,0.324961,0.849224,0.000000,0.028628,0.827753,2.000000,1.000000,0.000000,0.166193,0.739293,1.000000,1.000000,0.074081,2.000000
12,0.001788,0.000000,1.000000,0.324961,0.849224,0.000000,0.028628,0.827753,2.000000,1.000000,0.000000,0.026579,0.801809,1.000000,1.000000,0.000000,2.000000
13,0.001321,0.000000,1.000000,0.458060,0.849224,0.173658,0.063199,0.826002,2.000000,1.000000,0.000000,0.179080,0.792270,1.000000,1.000000,0.000000,0.000000
14,0.000365,0.000000,1.000000,0.324961,0.953165,0.000000,0.000000,0.827753,0.000000,1.000000,0.120220,0.026579,0.918718,1.000000,1.000000,0.000000,1.000000
15,0.000289,0.000000,1.000000,0.324961,0.953165,0.000000,0.000000,0.827753,0.000000,1.000000,0.120220,0.026579,0.918718,1.000000,1.000000,0.000000,2.000000
16,0.000287,0.000000,1.000000,0.324961,0.953165,0.000000,0.000000,0.827753,0.000000,1.000000,0.161066,0.026579,0.918718,1.000000,0.875125,0.085499,2.000000
17,0.000273,0.000000,1.000000,0.324961,0.953165,0.000000,0.000000,0.827753,1.000000,1.000000,0.120220,0.102206,0.918718,1.000000,1.000000,0.000000,0.000000
18,0.000201,0.000000,1.000000,0.324961,0.953165,0.000000,0.000000,0.827753,1.000000,1.000000,0.120220,0.102206,0.918718,1.000000,1.000000,0.000000,2.000000
19,0.000062,0.000000,1.000000,0.324961,0.953165,0.000000,0.000000,0.827753,2.000000,1.000000,0.120220,0.102206,0.918718,1.000000,1.000000,0.000000,2.000000
20,0.000062,0.000000,1.000000,0.324961,0.953165,0.000000,0.000000,0.827753,2.000000,1.000000,0.120220,0.102206,0.918718,1.000000,1.000000,0.000000,2.000000
21,0.000059,0.000000,1.000000,0.324961,0.953165,0.000000,0.000000,0.844073,2.000000,1.000000,0.120220,0.102206,0.918718,1.000000,1.000000,0.000000,2.000000
22,0.000034,0.000000,1.000000,0.324961,0.953165,0.000000,0.000000,1.000000,2.000000,1.000000,0.120220,0.102206,0.918718,1.000000,1.000000,0.000000,2.000000
23,0.000034,0.000000,1.000000,0.324961,0.953165,0.000000,0.000000,1.000000,2.000000,1.000000,0.120220,0.102206,0.918718,1.000000,1.000000,0.000000,2.000000
24,0.000012,0.000000,1.000000,0.324961,0.962882,0.000000,0.000000,0.962487,2.000000,1.000000,0.000000,0.221822,0.918718,1.000000,1.000000,0.000000,2.000000
25,0.000012,0.000000,1.000000,0.324961,0.962882,0.000000,0.000000,0.962487,2.000000,1.000000,0.000000,0.221822,0.918718,1.000000,1.000000,0.000000,2.000000
26,0.000008,0.000000,1.000000,0.329782,0.962882,0.000000,0.000000,0.962487,2.000000,1.000000,0.000000,0.221822,0.918718,1.000000,1.000000,0.000000,2.000000
27,0.000004,0.000000,1.000000,0.324961,0.962882,0.000000,0.060417,0.962487,2.000000,0.953808,0.000000,0.221822,0.918718,1.000000,0.889303,0.000000,2.000000
28,0.000004,0.000000,1.000000,0.324961,0.962882,0.000000,0.060417,0.962487,2.000000,0.953808,0.000000,0.221822,0.918718,1.000000,0.889303,0.000000,2.000000
29,0.000002,0.000000,1.000000,0.324961,0.962882,0.000000,0.060417,1.000000,2.000000,0.953808,0.000000,0.221822,0.918718,1.000000,0.889303,0.000000,2.000000
30,0.000002,0.000000,1.000000,0.324961,0.962882,0.000000,0.060417,1.000000,2.000000,0.953808,0.000000,0.221822,0.918718,1.000000,0.889303,0.000000,2.000000
31,0.000002,0.000000,1.000000,0.324961,0.962882,0.066025,0.060417,0.982480,2.000000,0.953808,0.000000,0.221822,0.918718,1.000000,0.889303,0.095961,2.000000
32,0.000001,0.000000,1.000000,0.324961,0.962882,0.000000,0.060417,0.962487,2.000000,0.953808,0.000000,0.229804,0.918718,1.000000,0.889303,0.086450,2.000000
33,0.000001,0.000000,1.000000,0.324961,0.962882,0.000000,0.022834,1.000000,2.000000,0.953808,0.000000,0.229804,0.918718,1.000000,0.889303,0.086450,2.000000
gen, fitness
0,0.069293,0.000000,1.000000,0.210000,0.800000,0.030000,0.030000,1.000000,0.000000,1.000000,0.000000,0.000000,0.600000,1.000000,1.000000,0.000000,0.000000
1,0.069293,0.000000,1.000000,0.210000,0.800000,0.030000,0.030000,1.000000,0.000000,1.000000,0.000000,0.000000,0.600000,1.000000,1.000000,0.000000,0.000000
2,0.048503,0.093039,1.000000,0.210000,0.800000,0.030000,0.030000,1.000000,0.000000,1.000000,0.000000,0.000000,0.729890,1.000000,1.000000,0.000000,0.000000
3,0.043663,0.000000,1.000000,0.210000,0.800000,0.030000,0.030000,1.000000,0.000000,1.000000,0.000000,0.000000,0.746753,1.000000,1.000000,0.000000,0.000000
4,0.039184,0.000000,1.000000,0.210000,0.800000,0.030000,0.093851,1.000000,2.000000,1.000000,0.000000,0.139704,0.759342,1.000000,1.000000,0.000000,0.000000
5,0.038329,0.000000,1.000000,0.210000,0.800000,0.030000,0.093851,1.000000,2.000000,1.000000,0.000000,0.234670,0.759342,1.000000,1.000000,0.000000,0.000000
6,0.034786,0.000000,1.000000,0.229697,0.800000,0.100167,0.093851,1.000000,2.000000,1.000000,0.000000,0.234670,0.759342,1.000000,1.000000,0.000000,2.000000
7,0.033705,0.000000,1.000000,0.210000,0.892995,0.030000,0.030000,1.000000,2.000000,1.000000,0.000000,0.234670,0.759342,1.000000,1.000000,0.000000,2.000000
8,0.032069,0.031965,1.000000,0.133968,0.892995,0.030000,0.030000,0.861433,2.000000,1.000000,0.000000,0.234670,0.759342,1.000000,1.000000,0.000000,2.000000
9,0.029174,0.031965,1.000000,0.133968,0.892995,0.037561,0.009953,0.983692,2.000000,1.000000,0.000000,0.092028,0.815071,1.000000,1.000000,0.000000,2.000000
10,0.025514,0.031965,1.000000,0.133968,0.892995,0.037561,0.009953,0.983692,2.000000,1.000000,0.000000,0.092028,0.871136,1.000000,1.000000,0.000000,2.000000
11,0.025032,0.000000,0.951518,0.210000,0.892995,0.062615,0.030000,1.000000,2.000000,1.000000,0.000000,0.139704,0.845106,1.000000,1.000000,0.052180,2.000000
12,0.018452,0.005002,1.000000,0.133968,0.939567,0.030000,0.030000,1.000000,2.000000,1.000000,0.170457,0.234670,0.895887,0.969345,1.000000,0.000000,2.000000
13,0.018449,0.005002,1.000000,0.133968,0.939567,0.030000,0.030000,1.000000,2.000000,1.000000,0.157213,0.234670,0.895887,0.969345,1.000000,0.000000,2.000000
14,0.017885,0.000000,1.000000,0.158286,0.947548,0.030000,0.006007,1.000000,2.000000,1.000000,0.170457,0.234670,0.895887,0.969345,1.000000,0.000000,2.000000
15,0.017885,0.000000,1.000000,0.158286,0.947548,0.030000,0.006007,1.000000,2.000000,1.000000,0.170457,0.234670,0.895887,0.969345,1.000000,0.000000,2.000000
16,0.016839,0.005002,1.000000,0.133968,0.956205,0.030000,0.030000,1.000000,2.000000,1.000000,0.140427,0.282206,0.895887,0.969345,0.845687,0.000000,2.000000
17,0.016578,0.005002,1.000000,0.133968,0.956205,0.117071,0.030000,1.000000,2.000000,1.000000,0.140427,0.282206,0.895887,1.000000,0.978132,0.091756,2.000000
18,0.015405,0.005002,1.000000,0.133968,0.956205,0.030000,0.030000,1.000000,2.000000,1.000000,0.170457,0.384378,0.895887,0.946083,1.000000,0.101152,2.000000
19,0.015387,0.000000,1.000000,0.133968,0.956205,0.030000,0.030000,1.000000,2.000000,1.000000,0.170457,0.384378,0.895887,0.946083,1.000000,0.101152,2.000000
20,0.013103,0.005002,1.000000,0.133968,1.000000,0.117071,0.030000,1.000000,2.000000,1.000000,0.140427,0.282206,0.962256,1.000000,0.978132,0.091756,2.000000
21,0.013103,0.005002,1.000000,0.133968,1.000000,0.117071,0.030000,1.000000,2.000000,1.000000,0.140427,0.282206,0.962256,1.000000,0.978132,0.091756,2.000000
22,0.012569,0.005002,1.000000,0.118028,0.980165,0.030000,0.030000,1.000000,2.000000,1.000000,0.180292,0.575131,0.895887,0.946083,1.000000,0.101152,2.000000
23,0.012374,0.005002,1.000000,0.029403,0.994076,0.030000,0.030000,1.000000,1.000000,1.000000,0.170457,0.490810,0.895887,0.969345,1.000000,0.032955,2.000000
24,0.011324,0.005002,1.000000,0.000000,1.000000,0.117071,0.030000,1.000000,2.000000,1.000000,0.223141,0.575131,0.895887,0.946083,1.000000,0.101152,2.000000
25,0.011122,0.005002,0.879039,0.000000,1.000000,0.030000,0.030000,1.000000,2.000000,1.000000,0.180292,0.575131,0.895887,0.881557,0.837005,0.260075,2.000000
26,0.011022,0.005002,1.000000,0.000000,1.000000,0.117071,0.030000,1.000000,2.000000,1.000000,0.223141,0.599812,0.895887,1.000000,1.000000,0.101152,2.000000
27,0.009296,0.000000,1.000000,0.000000,1.000000,0.068247,0.115021,1.000000,2.000000,1.000000,0.223141,0.852862,0.895887,0.946083,1.000000,0.101152,2.000000
28,0.009296,0.000000,1.000000,0.000000,1.000000,0.068247,0.115021,1.000000,2.000000,1.000000,0.223141,0.852862,0.895887,0.946083,1.000000,0.101152,2.000000
29,0.009257,0.000000,1.000000,0.000000,1.000000,0.068247,0.036705,1.000000,2.000000,1.000000,0.223141,0.852862,0.895887,0.946083,1.000000,0.101152,2.000000
30,0.008957,0.000000,1.000000,0.000000,1.000000,0.068247,0.115021,1.000000,2.000000,1.000000,0.223141,0.938682,0.895887,0.946083,1.000000,0.198371,2.000000
31,0.008931,0.000000,1.000000,0.000000,1.000000,0.068247,0.115021,1.000000,2.000000,1.000000,0.223141,0.938682,0.895887,1.000000,1.000000,0.198371,2.000000
32,0.008849,0.000000,1.000000,0.000000,1.000000,0.068247,0.115021,1.000000,2.000000,1.000000,0.223141,1.000000,0.895887,1.000000,1.000000,0.198371,2.000000
33,0.008711,0.000000,0.904616,0.000000,1.000000,0.068247,0.000000,1.000000,2.000000,1.000000,0.223141,0.867711,0.904644,0.946083,1.000000,0.538449,2.000000
34,0.008646,0.165218,1.000000,0.000000,1.000000,0.000000,0.000000,1.000000,2.000000,1.000000,0.223141,0.989056,0.904644,0.946083,1.000000,0.431556,2.000000
35,0.008522,0.000000,1.000000,0.000000,1.000000,0.064974,0.033218,1.000000,2.000000,1.000000,0.223141,1.000000,0.895887,0.922344,1.000000,0.538449,2.000000
36,0.008506,0.000000,1.000000,0.000000,1.000000,0.071710,0.000000,1.000000,2.000000,1.000000,0.223141,1.000000,0.895887,0.922344,1.000000,0.538449,2.000000
37,0.008435,0.000000,1.000000,0.000000,1.000000,0.064974,0.033218,1.000000,2.000000,1.000000,0.223141,1.000000,0.887990,0.863770,1.000000,0.685262,2.000000
38,0.008376,0.000000,1.000000,0.000000,1.000000,0.064974,0.033218,1.000000,2.000000,1.000000,0.223141,1.000000,0.887990,0.903552,1.000000,0.731436,2.000000
39,0.008362,0.000000,1.000000,0.000000,1.000000,0.071710,0.000000,1.000000,2.000000,1.000000,0.559167,1.000000,0.895887,0.913250,1.000000,0.685262,2.000000
40,0.008351,0.000000,1.000000,0.000000,1.000000,0.064974,0.033218,1.000000,2.000000,1.000000,0.197480,1.000000,0.895887,1.000000,1.000000,0.685262,2.000000
41,0.008315,0.000000,1.000000,0.000000,1.000000,0.000000,0.033218,1.000000,2.000000,1.000000,0.197480,1.000000,0.895887,1.000000,1.000000,0.685262,2.000000
42,0.008303,0.000000,1.000000,0.000000,1.000000,0.109899,0.000000,1.000000,2.000000,1.000000,0.231725,1.000000,0.895887,1.000000,1.000000,0.742805,2.000000
43,0.008280,0.000000,1.000000,0.000000,1.000000,0.000000,0.022977,1.000000,2.000000,1.000000,0.223141,1.000000,0.895887,1.000000,1.000000,0.715908,2.000000
44,0.008271,0.000000,1.000000,0.000000,1.000000,0.000000,0.022977,1.000000,2.000000,1.000000,0.559167,1.000000,0.895887,1.000000,0.995767,0.715908,2.000000
45,0.008120,0.000000,1.000000,0.000000,1.000000,0.000000,0.022977,1.000000,2.000000,1.000000,0.223141,1.000000,0.895887,1.000000,1.000000,0.893653,2.000000
46,0.008107,0.000000,1.000000,0.000000,1.000000,0.000000,0.000000,1.000000,2.000000,1.000000,0.223141,1.000000,0.895887,1.000000,1.000000,0.893653,2.000000
47,0.008099,0.000000,1.000000,0.000000,1.000000,0.000000,0.000000,0.831904,2.000000,1.000000,0.223141,1.000000,0.895887,1.000000,1.000000,0.893653,2.000000
48,0.008099,0.000000,1.000000,0.000000,1.000000,0.000000,0.000000,0.831904,2.000000,1.000000,0.223141,1.000000,0.895887,1.000000,1.000000,0.893653,2.000000
49,0.008035,0.000000,0.934624,0.000000,1.000000,0.000000,0.009748,1.000000,2.000000,1.000000,0.223141,1.000000,0.895887,1.000000,1.000000,1.000000,2.000000
50,0.008008,0.000000,1.000000,0.000000,1.000000,0.000000,0.000000,0.831904,2.000000,1.000000,0.223141,1.000000,0.895887,1.000000,1.000000,1.000000,2.000000
51,0.008008,0.000000,1.000000,0.000000,1.000000,0.000000,0.000000,0.831904,2.000000,1.000000,0.223141,1.000000,0.895887,1.000000,1.000000,1.000000,2.000000
52,0.008007,0.000000,1.000000,0.000000,1.000000,0.000000,0.000000,0.831904,2.000000,1.000000,0.312690,1.000000,0.895887,1.000000,1.000000,1.000000,2.000000
53,0.008007,0.000000,1.000000,0.000000,1.000000,0.000000,0.000000,0.831904,2.000000,1.000000,0.312690,1.000000,0.895887,1.000000,1.000000,1.000000,2.000000
54,0.008007,0.000000,1.000000,0.000000,1.000000,0.000000,0.000000,0.831904,2.000000,1.000000,0.314270,1.000000,0.895887,1.000000,1.000000,1.000000,2.000000
55,0.008007,0.000000,1.000000,0.000000,1.000000,0.000000,0.000000,0.831904,2.000000,1.000000,0.336848,1.000000,0.895887,1.000000,1.000000,1.000000,2.000000
56,0.008007,0.000000,1.000000,0.000000,1.000000,0.000000,0.000000,0.831904,2.000000,1.000000,0.336848,1.000000,0.895887,1.000000,1.000000,1.000000,2.000000
57,0.008007,0.000000,1.000000,0.000000,1.000000,0.000000,0.000000,0.831904,2.000000,1.000000,0.336848,1.000000,0.895887,1.000000,1.000000,1.000000,2.000000
58,0.008006,0.000000,1.000000,0.000000,1.000000,0.000000,0.000000,0.761152,2.000000,1.000000,0.336848,1.000000,0.895887,1.000000,1.000000,1.000000,2.000000
59,0.008006,0.000000,1.000000,0.000000,1.000000,0.000000,0.000000,0.761152,2.000000,1.000000,0.336848,1.000000,0.895887,1.000000,1.000000,1.000000,2.000000
60,0.008005,0.000000,1.000000,0.000000,1.000000,0.000000,0.000000,0.761152,2.000000,1.000000,0.500349,1.000000,0.895887,1.000000,1.000000,1.000000,2.000000
gen, fitness
0,0.020772,0.000000,1.000000,0.210000,0.800000,0.030000,0.030000,1.000000,0.000000,1.000000,0.000000,0.000000,0.600000,1.000000,1.000000,0.000000,0.000000
1,0.020772,0.000000,1.000000,0.210000,0.800000,0.030000,0.030000,1.000000,0.000000,1.000000,0.000000,0.000000,0.600000,1.000000,1.000000,0.000000,0.000000
2,0.009816,0.000000,0.932233,0.210000,0.800000,0.030000,0.030000,1.000000,0.000000,1.000000,0.000000,0.205256,0.600000,1.000000,0.992620,0.000000,0.000000
3,0.009390,0.000000,0.932233,0.210000,0.800000,0.030000,0.030000,1.000000,0.000000,1.000000,0.000000,0.205256,0.600000,1.000000,0.992620,0.095526,0.000000
4,0.005938,0.000000,0.932233,0.298282,0.800000,0.030000,0.030000,1.000000,0.000000,1.000000,0.000000,0.205256,0.720690,1.000000,0.992620,0.000000,0.000000
5,0.003912,0.000000,0.932233,0.298282,0.800000,0.030000,0.030000,1.000000,2.000000,1.000000,0.000000,0.380519,0.609973,1.000000,0.960253,0.000000,2.000000
6,0.003894,0.000000,0.932233,0.298282,0.800000,0.030000,0.143517,1.000000,2.000000,1.000000,0.000000,0.380519,0.609973,0.987425,0.992620,0.000000,1.000000
7,0.002560,0.012139,0.930836,0.340127,0.890800,0.102599,0.030000,1.000000,0.000000,0.994076,0.000000,0.307595,0.760093,0.895399,0.992620,0.000000,0.000000
8,0.002560,0.012139,0.930836,0.340127,0.890800,0.102599,0.030000,1.000000,0.000000,0.994076,0.000000,0.307595,0.760093,0.895399,0.992620,0.000000,0.000000
9,0.001864,0.000000,1.000000,0.335629,0.840459,0.141772,0.030000,1.000000,2.000000,1.000000,0.000000,0.380519,0.711735,1.000000,0.960253,0.000000,1.000000
10,0.001864,0.000000,1.000000,0.335629,0.840459,0.141772,0.030000,1.000000,2.000000,1.000000,0.000000,0.380519,0.711735,1.000000,0.960253,0.000000,1.000000
11,0.001082,0.000000,0.932233,0.298282,0.890800,0.102599,0.028380,1.000000,1.000000,0.994076,0.000000,0.407389,0.760093,0.985229,1.000000,0.000000,1.000000
12,0.000663,0.000000,0.932233,0.298282,0.890800,0.102599,0.201000,1.000000,2.000000,0.994076,0.000000,0.392933,0.778560,0.895399,0.992620,0.000000,2.000000
13,0.000659,0.000000,0.932233,0.298282,0.890800,0.102599,0.000000,1.000000,2.000000,0.994076,0.000000,0.392933,0.778560,0.895399,0.992620,0.000000,2.000000
14,0.000659,0.000000,0.932233,0.298282,0.890800,0.102599,0.000000,1.000000,2.000000,0.994076,0.000000,0.392933,0.778560,0.895399,0.992620,0.000000,2.000000
15,0.000645,0.000000,0.932233,0.298282,0.890800,0.102599,0.251973,1.000000,2.000000,0.994076,0.000000,0.392933,0.778560,0.895399,0.992620,0.051060,2.000000
16,0.000628,0.000000,0.932233,0.298282,0.890800,0.102599,0.030000,1.000000,2.000000,0.994076,0.000000,0.442537,0.778560,0.895399,0.992620,0.000000,2.000000
17,0.000624,0.000000,0.932233,0.298282,0.890800,0.102599,0.201000,1.000000,2.000000,0.994076,0.000000,0.392933,0.778560,0.895399,0.992620,0.102833,2.000000
18,0.000564,0.000000,0.804391,0.298282,0.890800,0.102599,0.201000,1.000000,2.000000,0.994076,0.145850,0.402448,0.778560,0.895399,0.992620,0.310617,2.000000
19,0.000549,0.000000,0.812639,0.298282,0.890800,0.102599,0.088884,1.000000,2.000000,0.994076,0.000000,0.402448,0.778560,0.895399,0.992620,0.310617,2.000000
20,0.000398,0.000000,0.932233,0.298282,0.907074,0.102599,0.201000,1.000000,2.000000,0.994076,0.000000,0.501216,0.778560,0.927635,1.000000,0.083586,2.000000
21,0.000398,0.000000,0.932233,0.298282,0.907074,0.102599,0.201000,1.000000,2.000000,0.994076,0.000000,0.501216,0.778560,0.927635,1.000000,0.083586,2.000000
22,0.000258,0.000000,0.932233,0.298282,0.907074,0.102599,0.201000,1.000000,2.000000,0.904881,0.020691,0.568403,0.778560,0.895399,1.000000,0.310617,2.000000
23,0.000258,0.000000,0.932233,0.298282,0.907074,0.102599,0.201000,1.000000,2.000000,0.904881,0.020691,0.568403,0.778560,0.895399,1.000000,0.310617,2.000000
24,0.000225,0.000000,0.932233,0.298282,0.907074,0.102599,0.201000,1.000000,2.000000,0.904881,0.020691,0.568403,0.778560,0.895399,1.000000,0.451042,2.000000
25,0.000224,0.000000,0.932233,0.298282,0.907074,0.102599,0.201000,1.000000,2.000000,0.904881,0.020691,0.593048,0.778560,0.895399,1.000000,0.310617,2.000000
26,0.000212,0.000000,0.932233,0.298282,0.907074,0.102599,0.201000,1.000000,2.000000,0.904881,0.000000,0.623788,0.778560,0.980145,1.000000,0.310617,2.000000
27,0.000206,0.000000,0.990188,0.298282,0.907074,0.102599,0.201000,1.000000,2.000000,0.844835,0.020691,0.623788,0.778560,0.917214,1.000000,0.310617,2.000000
28,0.000169,0.158397,0.932233,0.298282,0.907074,0.013613,0.201000,1.000000,2.000000,0.904881,0.020691,0.762637,0.778560,0.917214,1.000000,0.310617,2.000000
29,0.000167,0.158397,1.000000,0.298282,0.907074,0.013613,0.201000,1.000000,2.000000,0.904881,0.020691,0.762637,0.778560,0.917214,1.000000,0.310617,2.000000
30,0.000167,0.158397,1.000000,0.298282,0.907074,0.013613,0.201000,1.000000,2.000000,0.904881,0.020691,0.762637,0.778560,0.917214,1.000000,0.310617,2.000000
31,0.000165,0.001783,1.000000,0.298282,0.907074,0.000000,0.206076,1.000000,2.000000,0.904881,0.020691,0.618220,0.777877,0.895399,1.000000,0.592832,2.000000
32,0.000130,0.170969,0.932233,0.298282,0.907074,0.013613,0.209884,1.000000,2.000000,0.863013,0.020691,0.762637,0.778560,0.917214,1.000000,0.491173,2.000000
33,0.000123,0.001783,0.932233,0.379093,0.907074,0.000000,0.205067,1.000000,2.000000,0.904881,0.020691,0.762637,0.778560,0.917214,1.000000,0.310617,2.000000
34,0.000116,0.001783,0.932233,0.363248,0.907074,0.013613,0.201000,1.000000,2.000000,0.904881,0.020691,0.681334,0.778512,0.895399,1.000000,0.592832,2.000000
35,0.000115,0.001783,1.000000,0.363248,0.907074,0.013613,0.201000,1.000000,2.000000,0.904881,0.020691,0.681334,0.778512,0.895399,1.000000,0.592832,2.000000
36,0.000087,0.001783,0.932233,0.379093,0.907074,0.000000,0.205067,1.000000,2.000000,0.828078,0.000000,0.762637,0.778560,0.917214,1.000000,0.570182,2.000000
37,0.000083,0.001783,0.932233,0.379093,0.907074,0.000000,0.205067,1.000000,2.000000,0.828078,0.000000,0.762637,0.778560,1.000000,1.000000,0.592832,2.000000
38,0.000069,0.001205,0.932233,0.305227,0.927613,0.013613,0.350761,0.973971,1.000000,0.904881,0.020691,0.762637,0.778560,0.935352,1.000000,0.748884,2.000000
39,0.000061,0.000000,0.940936,0.363248,0.911512,0.013613,0.201000,1.000000,2.000000,0.904881,0.020691,0.762637,0.778560,0.935352,1.000000,0.748884,2.000000
40,0.000058,0.000000,0.940936,0.363248,0.911512,0.013613,0.097236,1.000000,2.000000,0.904881,0.020691,0.762637,0.778560,0.935352,1.000000,0.748884,2.000000
41,0.000058,0.000000,0.940936,0.363248,0.911512,0.013613,0.097236,1.000000,2.000000,0.904881,0.020691,0.762637,0.778560,0.935352,1.000000,0.748884,2.000000
42,0.000044,0.000000,0.940936,0.363248,0.911512,0.013613,0.201000,1.000000,2.000000,0.775931,0.020691,0.833622,0.778560,1.000000,1.000000,0.695704,2.000000
43,0.000036,0.000000,0.940936,0.363248,0.911512,0.013613,0.201000,1.000000,2.000000,0.775931,0.020691,0.846924,0.778560,1.000000,1.000000,0.750368,2.000000
44,0.000036,0.000000,0.940936,0.363248,0.911512,0.013613,0.201000,1.000000,2.000000,0.775931,0.020691,0.846924,0.778560,1.000000,1.000000,0.750368,2.000000
45,0.000029,0.000000,0.940936,0.363248,0.911512,0.013613,0.183413,1.000000,2.000000,0.775931,0.020691,0.833622,0.778560,0.935352,0.947118,0.923797,2.000000
46,0.000029,0.000000,0.940936,0.363248,0.911512,0.000000,0.183413,0.987477,2.000000,0.775931,0.020691,0.833622,0.778560,0.935352,0.947118,0.923797,2.000000
47,0.000027,0.000000,0.940936,0.363248,0.911512,0.013613,0.201000,1.000000,2.000000,0.775931,0.020691,0.846924,0.778560,1.000000,0.999895,0.917438,2.000000
48,0.000025,0.000000,0.960249,0.363248,0.911512,0.000000,0.183413,0.987477,2.000000,0.775931,0.020691,0.833622,0.778560,0.935352,0.947118,1.000000,2.000000
49,0.000025,0.000000,0.960249,0.363248,0.911512,0.000000,0.183413,0.987477,2.000000,0.765449,0.020691,0.853223,0.778560,0.935352,0.947118,1.000000,2.000000
50,0.000024,0.000000,0.960249,0.363248,0.911512,0.000000,0.183413,0.980867,2.000000,0.775931,0.020691,0.833622,0.778560,0.935352,1.000000,1.000000,2.000000
51,0.000024,0.000000,0.940936,0.363248,0.911512,0.013613,0.153809,1.000000,2.000000,0.775931,0.020691,0.833622,0.778560,1.000000,1.000000,1.000000,2.000000
52,0.000022,0.000000,0.967224,0.363248,0.911512,0.000000,0.199254,1.000000,2.000000,0.765449,0.020691,0.853223,0.778560,0.935352,0.995609,1.000000,2.000000
gen, fitness
0,0.008197,0.000000,1.000000,0.210000,0.800000,0.030000,0.030000,1.000000,0.000000,1.000000,0.000000,0.000000,0.600000,1.000000,1.000000,0.000000,0.000000
1,0.008197,0.000000,1.000000,0.210000,0.800000,0.030000,0.030000,1.000000,0.000000,1.000000,0.000000,0.000000,0.600000,1.000000,1.000000,0.000000,0.000000
2,0.000736,0.000000,1.000000,0.210000,0.800000,0.030000,0.030000,1.000000,0.000000,1.000000,0.000000,0.000000,0.687278,1.000000,1.000000,0.069214,0.000000
3,0.000011,0.000000,1.000000,0.300445,0.800000,0.030000,0.030000,1.000000,0.000000,1.000000,0.000000,0.000000,0.738847,1.000000,1.000000,0.000000,0.000000
4,0.000008,0.000000,1.000000,0.300445,0.800000,0.030000,0.030000,1.000000,0.000000,1.000000,0.000000,0.000000,0.738847,1.000000,0.877614,0.000000,0.000000
5,0.000008,0.000000,1.000000,0.300445,0.800000,0.030000,0.030000,1.000000,0.000000,1.000000,0.000000,0.000000,0.738847,1.000000,0.877614,0.000000,0.000000
6,0.000004,0.000000,0.894638,0.285106,0.800000,0.108727,0.103020,1.000000,1.000000,1.000000,0.000000,0.000000,0.738437,1.000000,1.000000,0.000000,0.000000
7,0.000001,0.000000,0.894638,0.285106,0.800000,0.000000,0.135681,1.000000,1.000000,1.000000,0.000000,0.000000,0.738437,1.000000,0.915024,0.000000,0.000000
8,0.000001,0.000000,0.894638,0.285106,0.800000,0.000000,0.114784,1.000000,1.000000,1.000000,0.000000,0.000000,0.738437,0.978916,0.877614,0.000000,0.000000
9,0.000000,0.000000,0.815285,0.285106,0.800000,0.000000,0.103020,1.000000,1.000000,1.000000,0.000000,0.000000,0.738847,1.000000,0.846636,0.000000,0.000000
gen, fitness
0,0.011091,0.000000,1.000000,0.210000,0.800000,0.030000,0.030000,1.000000,0.000000,1.000000,0.000000,0.000000,0.600000,1.000000,1.000000,0.000000,0.000000
1,0.011091,0.000000,1.000000,0.210000,0.800000,0.030000,0.030000,1.000000,0.000000,1.000000,0.000000,0.000000,0.600000,1.000000,1.000000,0.000000,0.000000
2,0.001122,0.000000,1.000000,0.210000,0.800000,0.030000,0.189745,1.000000,0.000000,1.000000,0.000000,0.000000,0.751380,1.000000,1.000000,0.000000,0.000000
3,0.000081,0.000000,1.000000,0.041334,0.800000,0.030000,0.176993,1.000000,0.000000,1.000000,0.000000,0.114838,0.619252,1.000000,1.000000,0.000000,0.000000
4,0.000078,0.000000,1.000000,0.041334,0.800000,0.030000,0.176993,1.000000,0.000000,1.000000,0.000000,0.114838,0.619252,1.000000,1.000000,0.000000,2.000000
5,0.000024,0.037596,1.000000,0.041334,0.800000,0.030000,0.176993,1.000000,0.000000,1.000000,0.000000,0.114838,0.619252,1.000000,1.000000,0.000000,0.000000
6,0.000015,0.000000,0.933244,0.230912,0.739821,0.030000,0.176993,1.000000,0.000000,1.000000,0.000000,0.114838,0.619252,1.000000,1.000000,0.000000,0.000000
7,0.000003,0.000000,1.000000,0.124136,0.766952,0.030000,0.030000,0.980559,0.000000,1.000000,0.000000,0.102765,0.600000,1.000000,1.000000,0.000000,2.000000
8,0.000001,0.000000,1.000000,0.000000,0.800000,0.173732,0.030000,0.965487,2.000000,1.000000,0.108577,0.114203,0.600000,1.000000,1.000000,0.000000,0.000000
gen, fitness
0,0.020988,0.000000,1.000000,0.210000,0.800000,0.030000,0.030000,1.000000,0.000000,1.000000,0.000000,0.000000,0.600000,1.000000,1.000000,0.000000,0.000000
1,0.020988,0.000000,1.000000,0.210000,0.800000,0.030000,0.030000,1.000000,0.000000,1.000000,0.000000,0.000000,0.600000,1.000000,1.000000,0.000000,0.000000
2,0.013454,0.000000,1.000000,0.210000,0.800000,0.030000,0.030000,1.000000,0.000000,1.000000,0.000000,0.000000,0.681432,1.000000,0.995313,0.000000,0.000000
3,0.011254,0.000000,1.000000,0.210000,0.800000,0.030000,0.030000,1.000000,1.000000,1.000000,0.000000,0.000000,0.690159,0.939503,1.000000,0.093015,0.000000
4,0.010798,0.000000,1.000000,0.210000,0.800000,0.030000,0.030000,1.000000,2.000000,1.000000,0.000000,0.173608,0.600000,1.000000,1.000000,0.000000,0.000000
5,0.008581,0.000000,1.000000,0.210000,0.800000,0.030000,0.030000,1.000000,2.000000,1.000000,0.000000,0.362340,0.600000,1.000000,1.000000,0.000000,2.000000
6,0.008383,0.004528,1.000000,0.325801,0.800000,0.030000,0.030000,1.000000,1.000000,1.000000,0.000000,0.122031,0.681432,1.000000,0.995313,0.000000,2.000000
7,0.006441,0.000000,1.000000,0.167615,0.872884,0.030000,0.030000,0.964261,2.000000,1.000000,0.000000,0.474551,0.610638,1.000000,1.000000,0.024251,0.000000
8,0.005590,0.000000,0.913864,0.167615,0.872884,0.030000,0.030000,1.000000,2.000000,1.000000,0.000000,0.362340,0.711346,1.000000,1.000000,0.000000,2.000000
9,0.005131,0.000000,1.000000,0.537128,0.800000,0.071105,0.030000,1.000000,1.000000,1.000000,0.000000,0.122031,0.763585,1.000000,0.995313,0.000000,2.000000
10,0.004651,0.000000,0.913864,0.167615,0.872884,0.030000,0.030000,1.000000,2.000000,0.822969,0.000000,0.362340,0.711346,1.000000,1.000000,0.153756,0.000000
11,0.004515,0.000000,0.856440,0.377648,0.851344,0.030000,0.030000,0.892673,2.000000,1.000000,0.000000,0.362340,0.711346,1.000000,1.000000,0.198276,0.000000
12,0.003161,0.000000,0.856440,0.476649,0.851344,0.120920,0.030000,0.964261,2.000000,0.863198,0.000000,0.474551,0.746939,0.974913,1.000000,0.024251,0.000000
13,0.003136,0.000000,0.856440,0.476649,0.851344,0.120920,0.030000,0.964261,2.000000,0.863198,0.000000,0.474551,0.746939,0.974913,0.824880,0.024251,0.000000
14,0.003136,0.000000,0.856440,0.476649,0.851344,0.120920,0.030000,0.964261,2.000000,0.863198,0.000000,0.474551,0.746939,0.974913,0.824880,0.024251,0.000000
15,0.002863,0.000000,1.000000,0.537128,0.858591,0.120920,0.030000,0.968046,2.000000,0.863198,0.000000,0.531752,0.746939,0.974913,0.824880,0.024251,0.000000
16,0.002800,0.000000,1.000000,0.537128,0.858591,0.120920,0.030000,0.968046,2.000000,0.885743,0.000000,0.515052,0.746939,0.974913,0.697042,0.024251,2.000000
17,0.002737,0.000000,0.856440,0.476649,0.851344,0.120920,0.030000,0.917454,2.000000,0.704506,0.000000,0.529603,0.746939,0.974913,0.824880,0.149972,0.000000
18,0.002737,0.000000,0.856440,0.476649,0.851344,0.120920,0.030000,0.917454,2.000000,0.704506,0.000000,0.529603,0.746939,0.974913,0.824880,0.149972,0.000000
19,0.002556,0.000000,1.000000,0.537128,0.858591,0.120920,0.030000,0.968046,2.000000,0.863198,0.000000,0.474551,0.777780,0.974913,0.893090,0.024251,1.000000
20,0.002511,0.103145,1.000000,0.537128,0.858591,0.120920,0.030000,0.968046,2.000000,0.819315,0.000000,0.531752,0.772735,1.000000,1.000000,0.153756,0.000000
21,0.002399,0.000000,1.000000,0.537128,0.858591,0.120920,0.030000,0.968046,2.000000,0.819315,0.000000,0.531752,0.772735,1.000000,1.000000,0.153756,0.000000
22,0.002335,0.000000,0.984739,0.537128,0.858591,0.120920,0.030000,1.000000,2.000000,0.753761,0.000000,0.501095,0.777780,0.974913,0.893090,0.024251,1.000000
23,0.002271,0.000000,0.964319,0.537128,0.858591,0.120920,0.030000,1.000000,2.000000,0.775484,0.000000,0.474551,0.772735,1.000000,0.824880,0.312417,2.000000
24,0.002214,0.000000,1.000000,0.550555,0.858591,0.175226,0.030000,0.968046,2.000000,0.819315,0.000000,0.531752,0.772735,1.000000,0.824880,0.312417,2.000000
25,0.002185,0.000000,1.000000,0.537128,0.858591,0.000000,0.030000,0.984403,2.000000,0.746551,0.000000,0.531752,0.772735,1.000000,1.000000,0.153756,2.000000
26,0.001928,0.000000,0.984739,0.628937,0.858591,0.120920,0.148793,1.000000,2.000000,0.819315,0.000000,0.531752,0.800358,1.000000,1.000000,0.153756,2.000000
27,0.001928,0.000000,0.984739,0.628937,0.858591,0.120920,0.148793,1.000000,2.000000,0.819315,0.000000,0.531752,0.800358,1.000000,1.000000,0.153756,2.000000
28,0.001928,0.000000,0.984739,0.628937,0.858591,0.120920,0.148793,1.000000,2.000000,0.819315,0.000000,0.531752,0.800358,1.000000,1.000000,0.153756,2.000000
29,0.001779,0.000000,0.984739,0.628937,0.873928,0.120920,0.148793,1.000000,2.000000,0.819315,0.000000,0.531752,0.800358,1.000000,1.000000,0.153756,2.000000
30,0.001779,0.000000,0.984739,0.628937,0.873928,0.120920,0.148793,1.000000,2.000000,0.819315,0.000000,0.531752,0.800358,1.000000,1.000000,0.153756,2.000000
31,0.001666,0.096615,0.984739,0.628937,0.858591,0.120920,0.148793,0.906589,2.000000,0.703329,0.076160,0.530023,0.819664,1.000000,0.824880,0.196568,1.000000
32,0.001630,0.096615,0.984739,0.628937,0.858591,0.090872,0.148793,0.906589,2.000000,0.703329,0.076160,0.530023,0.819664,1.000000,0.824880,0.312417,0.000000
33,0.001515,0.000000,0.984739,0.628937,0.858591,0.120920,0.148793,0.906589,2.000000,0.595395,0.076160,0.530023,0.819664,1.000000,1.000000,0.153756,1.000000
34,0.001100,0.119084,0.984739,0.671563,0.873928,0.003823,0.148793,0.906589,2.000000,0.595395,0.076160,0.530023,0.856767,1.000000,1.000000,0.153756,1.000000
35,0.001018,0.119084,0.984739,0.671563,0.873928,0.003823,0.148793,0.906589,2.000000,0.595395,0.076160,0.530023,0.856767,1.000000,1.000000,0.312417,2.000000
36,0.000958,0.000000,0.984739,0.852062,0.848876,0.120920,0.000000,0.906589,2.000000,0.595395,0.076160,0.530023,0.856767,1.000000,1.000000,0.306899,2.000000
37,0.000941,0.000000,0.984739,0.852062,0.848876,0.120920,0.000000,0.906589,2.000000,0.595395,0.076160,0.530023,0.856767,1.000000,1.000000,0.375165,2.000000
38,0.000845,0.000000,0.984739,0.671563,0.873928,0.029039,0.148793,1.000000,2.000000,0.472900,0.076160,0.530023,0.856767,1.000000,0.932360,0.312417,2.000000
39,0.000826,0.000000,0.984739,0.852062,0.856647,0.120920,0.000000,0.942971,2.000000,0.595395,0.076160,0.530023,0.856767,1.000000,1.000000,0.312417,2.000000
40,0.000813,0.000000,0.984739,0.852062,0.848876,0.120920,0.148793,0.850898,2.000000,0.472900,0.076160,0.530023,0.856767,1.000000,0.932360,0.312417,2.000000
41,0.000561,0.134321,0.994776,0.852062,0.952380,0.052621,0.025112,0.906589,2.000000,0.609668,0.076160,0.576314,0.985365,0.876176,1.000000,0.375165,2.000000
42,0.000561,0.134321,0.994776,0.852062,0.952380,0.052621,0.025112,0.906589,2.000000,0.609668,0.076160,0.576314,0.985365,0.876176,1.000000,0.375165,2.000000
43,0.000561,0.134321,0.994776,0.852062,0.952380,0.052621,0.025112,0.906589,2.000000,0.609668,0.076160,0.576314,0.985365,0.876176,1.000000,0.375165,2.000000
44,0.000453,0.134321,0.994776,0.852062,0.952380,0.052621,0.025112,0.906589,2.000000,0.609668,0.076160,0.576314,0.985365,0.972474,0.863479,0.312417,0.000000
45,0.000200,0.134321,0.981357,0.852062,0.952380,0.052621,0.030713,0.862123,2.000000,0.609668,0.102868,0.424485,0.985365,0.876176,1.000000,0.375165,2.000000
46,0.000141,0.134321,0.994776,0.852062,0.952380,0.103289,0.025112,0.906589,2.000000,0.609668,0.076160,0.361379,0.985365,1.000000,0.863479,0.312417,2.000000
47,0.000098,0.254003,0.994776,0.852062,0.952380,0.052621,0.025112,0.906589,2.000000,0.609668,0.103284,0.424485,0.985365,0.876176,0.932360,0.474871,2.000000
48,0.000054,0.134321,0.981357,0.976015,0.952380,0.052621,0.265306,0.906589,2.000000,0.609668,0.102868,0.424485,0.985365,0.920711,0.932360,0.318997,1.000000
49,0.000053,0.134321,0.981357,0.976015,0.952380,0.052621,0.265306,0.906589,2.000000,0.609668,0.022623,0.424485,0.985365,0.920711,0.932360,0.318997,1.000000
50,0.000036,0.134321,0.981357,0.976015,0.952380,0.052621,0.265306,0.902716,2.000000,0.609668,0.022623,0.424485,0.985365,0.876176,0.932360,0.613540,2.000000
51,0.000023,0.254003,0.994776,0.852062,0.952380,0.052621,0.120734,0.906589,2.000000,0.336125,0.103284,0.632553,0.985365,0.876176,0.796727,0.569836,2.000000
52,0.000016,0.254003,0.994776,0.895269,0.952380,0.052621,0.120734,0.906589,2.000000,0.336125,0.103284,0.632553,0.985365,0.876176,0.863479,0.598449,2.000000
53,0.000006,0.134321,0.981357,1.000000,0.952380,0.052621,0.120734,0.906589,2.000000,0.336125,0.103284,0.632553,0.985365,0.998804,0.796727,0.474871,2.000000
54,0.000001,0.134321,1.000000,0.976015,0.952380,0.028101,0.025112,0.906589,2.000000,0.336125,0.103284,0.632553,0.985365,0.876176,0.690610,0.598449,2.000000
55,0.000001,0.134321,0.981357,0.976015,0.952380,0.052621,0.120734,1.000000,2.000000,0.336125,0.103284,0.632553,0.985365,0.876176,0.796727,0.569836,2.000000
