gen, fitness
0,0.013430,0.000000,1.000000,0.210000,0.800000,0.030000,0.030000,1.000000,0.000000,1.000000,0.000000,0.000000,0.600000,1.000000,1.000000,0.000000,0.000000
1,0.013430,0.000000,1.000000,0.210000,0.800000,0.030000,0.030000,1.000000,0.000000,1.000000,0.000000,0.000000,0.600000,1.000000,1.000000,0.000000,0.000000
2,0.000060,0.000000,1.000000,0.174103,0.691327,0.058781,0.157173,1.000000,0.000000,0.950758,0.000000,0.000000,0.600000,1.000000,1.000000,0.000000,0.000000
3,0.000004,0.000000,1.000000,0.174103,0.691327,0.058781,0.157173,1.000000,0.000000,1.000000,0.000000,0.000000,0.600000,1.000000,1.000000,0.000000,0.000000
4,0.000004,0.000000,1.000000,0.174103,0.691327,0.058781,0.157173,1.000000,0.000000,1.000000,0.000000,0.000000,0.600000,1.000000,1.000000,0.000000,0.000000
5,0.000004,0.000000,1.000000,0.174103,0.691327,0.058781,0.157173,1.000000,0.000000,1.000000,0.000000,0.000000,0.600000,1.000000,1.000000,0.000000,0.000000
6,0.000004,0.238473,0.867295,0.210000,0.647864,0.030000,0.030000,1.000000,1.000000,1.000000,0.111512,0.035709,0.600000,1.000000,0.907205,0.247251,2.000000
7,0.000001,0.000000,1.000000,0.138217,0.714274,0.043133,0.030000,0.893944,0.000000,1.000000,0.000000,0.000000,0.597305,0.803449,0.963797,0.000000,1.000000
gen, fitness
0,0.034276,0.000000,1.000000,0.210000,0.800000,0.030000,0.030000,1.000000,0.000000,1.000000,0.000000,0.000000,0.600000,1.000000,1.000000,0.000000,0.000000
1,0.034276,0.000000,1.000000,0.210000,0.800000,0.030000,0.030000,1.000000,0.000000,1.000000,0.000000,0.000000,0.600000,1.000000,1.000000,0.000000,0.000000
2,0.020918,0.000000,1.000000,0.210000,0.800000,0.030000,0.030000,1.000000,1.000000,1.000000,0.000000,0.000000,0.741568,1.000000,1.000000,0.000000,0.000000
3,0.019079,0.000000,1.000000,0.210000,0.800000,0.003188,0.007508,1.000000,1.000000,1.000000,0.000000,0.000000,0.741568,1.000000,1.000000,0.000000,2.000000
4,0.016535,0.034092,1.000000,0.210000,0.800000,0.030000,0.030000,1.000000,1.000000,0.783466,0.199829,0.126854,0.720292,1.000000,1.000000,0.000000,2.000000
5,0.014387,0.000000,1.000000,0.498086,0.796558,0.030000,0.215019,0.992696,0.000000,1.000000,0.000000,0.094560,0.775992,1.000000,0.905191,0.156948,0.000000
6,0.011891,0.000000,1.000000,0.208513,0.898291,0.030000,0.169662,1.000000,0.000000,1.000000,0.000000,0.000000,0.815365,1.000000,0.996284,0.000000,2.000000
7,0.010481,0.000000,0.919665,0.179397,0.898291,0.030000,0.054424,0.979344,0.000000,1.000000,0.289886,0.288969,0.741568,0.957937,1.000000,0.011336,2.000000
8,0.008330,0.020191,1.000000,0.179397,0.960122,0.030000,0.054424,0.979344,0.000000,1.000000,0.289886,0.288969,0.815365,0.958570,0.954131,0.000000,2.000000
9,0.007292,0.000000,0.882106,0.208513,0.899274,0.030000,0.037120,0.979344,2.000000,0.873550,0.289886,0.288969,0.815365,0.958570,0.954131,0.000000,2.000000
10,0.005747,0.058791,1.000000,0.179397,0.960122,0.030000,0.054424,0.979344,0.000000,1.000000,0.295721,0.446204,0.815365,0.958570,0.954131,0.000000,2.000000
11,0.005658,0.000000,1.000000,0.000000,0.960122,0.030000,0.054424,1.000000,2.000000,1.000000,0.339454,0.288969,0.877685,1.000000,0.844489,0.000000,2.000000
12,0.005045,0.000000,1.000000,0.097657,0.943714,0.000000,0.146347,1.000000,2.000000,1.000000,0.289886,0.441348,0.815365,0.958570,0.923095,0.000000,2.000000
13,0.003281,0.000000,1.000000,0.000000,0.998359,0.000000,0.110722,1.000000,0.000000,1.000000,0.000000,0.475305,0.855634,1.000000,0.948876,0.161788,2.000000
14,0.003273,0.000000,1.000000,0.000000,0.998359,0.000000,0.040682,1.000000,0.000000,1.000000,0.135440,0.475305,0.855634,1.000000,0.948876,0.161788,2.000000
15,0.002662,0.000000,1.000000,0.000000,1.000000,0.000000,0.112554,1.000000,1.000000,1.000000,0.000000,0.545602,0.855634,1.000000,0.648229,0.300175,2.000000
16,0.002136,0.000000,1.000000,0.000000,1.000000,0.000000,0.112554,1.000000,1.000000,1.000000,0.000000,0.657567,0.875695,1.000000,0.739072,0.300175,2.000000
17,0.001986,0.028168,1.000000,0.103404,0.998359,0.000000,0.112554,1.000000,1.000000,1.000000,0.000000,0.657567,0.875695,1.000000,0.697227,0.300175,2.000000
18,0.001800,0.028168,1.000000,0.103404,0.998359,0.000000,0.112554,1.000000,1.000000,1.000000,0.000000,0.744628,0.875695,1.000000,0.697227,0.300175,2.000000
19,0.001682,0.000000,1.000000,0.065946,1.000000,0.000000,0.054424,0.979344,2.000000,1.000000,0.295721,0.636468,0.902497,1.000000,0.739072,0.300175,2.000000
20,0.001504,0.000000,1.000000,0.065946,1.000000,0.006614,0.054424,0.979344,2.000000,0.929589,0.295721,0.636468,0.902497,0.958570,0.856342,0.356131,2.000000
21,0.001456,0.000000,0.858924,0.144135,1.000000,0.006614,0.054424,0.979344,2.000000,0.929589,0.295721,0.940075,0.861628,0.958570,0.856342,0.356131,2.000000
22,0.001402,0.000000,1.000000,0.103404,1.000000,0.000000,0.112554,0.979344,2.000000,1.000000,0.000000,0.911780,0.875695,0.853883,0.611017,0.300175,2.000000
23,0.001209,0.000000,0.635672,0.103343,1.000000,0.006614,0.054424,0.979344,2.000000,0.929589,0.295721,0.891095,0.880839,0.958570,0.913981,0.356131,2.000000
24,0.001200,0.068403,0.916838,0.109699,1.000000,0.000000,0.000000,0.895809,2.000000,1.000000,0.000000,0.940075,0.875278,0.958570,0.933311,0.366265,2.000000
25,0.001119,0.000000,0.838343,0.220245,1.000000,0.006614,0.012810,1.000000,2.000000,1.000000,0.000000,0.766781,0.904083,1.000000,0.703804,0.592223,2.000000
26,0.001044,0.000000,0.902243,0.153897,1.000000,0.006614,0.000000,0.977696,2.000000,0.882459,0.000000,1.000000,0.875695,0.853883,0.914218,0.503632,2.000000
27,0.001044,0.000000,0.902243,0.153897,1.000000,0.006614,0.000000,0.977696,2.000000,0.882459,0.000000,1.000000,0.875695,0.853883,0.914218,0.503632,2.000000
28,0.001044,0.000000,0.902243,0.153897,1.000000,0.006614,0.000000,0.977696,2.000000,0.882459,0.000000,1.000000,0.875695,0.853883,0.914218,0.503632,2.000000
29,0.001026,0.000000,0.902243,0.153897,1.000000,0.000000,0.000000,0.977696,2.000000,0.883346,0.000000,1.000000,0.875695,1.000000,0.914218,0.503632,2.000000
30,0.001024,0.000000,0.832634,0.153897,1.000000,0.006614,0.051933,0.977696,2.000000,0.895619,0.000000,1.000000,0.875695,0.755357,1.000000,0.578637,2.000000
31,0.000889,0.000000,0.949966,0.173995,1.000000,0.006614,0.000000,0.977696,2.000000,0.789880,0.058952,1.000000,0.898303,0.921791,0.914218,0.503632,2.000000
32,0.000884,0.000000,1.000000,0.173995,1.000000,0.006614,0.000000,0.977696,2.000000,0.789880,0.058952,1.000000,0.898303,0.921791,0.914218,0.503632,2.000000
33,0.000878,0.000000,1.000000,0.173995,1.000000,0.006614,0.000000,1.000000,2.000000,0.789880,0.058952,1.000000,0.898303,0.921791,0.904121,0.503632,2.000000
34,0.000841,0.000000,1.000000,0.153897,1.000000,0.053831,0.000000,0.977696,2.000000,0.634507,0.058952,1.000000,0.919413,0.690570,1.000000,0.578637,2.000000
35,0.000758,0.000000,0.911201,0.173995,1.000000,0.006614,0.000000,1.000000,2.000000,0.819928,0.058952,1.000000,0.898303,0.959673,0.959822,0.806005,2.000000
36,0.000758,0.000000,0.911201,0.173995,1.000000,0.006614,0.000000,1.000000,2.000000,0.819928,0.058952,1.000000,0.898303,0.959673,0.959822,0.806005,2.000000
37,0.000701,0.000000,0.911201,0.173995,1.000000,0.030646,0.000000,1.000000,2.000000,0.819928,0.058952,1.000000,0.898303,0.959673,0.959822,0.975144,2.000000
38,0.000687,0.000000,1.000000,0.164144,1.000000,0.006614,0.000000,1.000000,2.000000,0.819928,0.058952,1.000000,0.898303,0.959673,0.959822,1.000000,2.000000
39,0.000686,0.000000,1.000000,0.173995,1.000000,0.006614,0.000000,1.000000,2.000000,0.819928,0.058952,1.000000,0.898303,0.914824,0.959822,1.000000,2.000000
40,0.000685,0.000000,0.988322,0.173995,1.000000,0.006614,0.002909,1.000000,2.000000,0.819928,0.000000,1.000000,0.898303,0.940753,0.959822,1.000000,2.000000
41,0.000685,0.000000,0.988322,0.173995,1.000000,0.006614,0.002909,1.000000,2.000000,0.819928,0.000000,1.000000,0.898303,0.940753,0.959822,1.000000,2.000000
42,0.000671,0.000000,1.000000,0.173995,1.000000,0.000000,0.000000,1.000000,2.000000,0.819928,0.134921,1.000000,0.898303,0.991185,1.000000,1.000000,2.000000
43,0.000671,0.000000,1.000000,0.173995,1.000000,0.000000,0.000000,1.000000,2.000000,0.819928,0.134921,1.000000,0.898303,0.991185,1.000000,1.000000,2.000000
44,0.000671,0.000000,1.000000,0.173995,1.000000,0.000000,0.000000,1.000000,2.000000,0.819928,0.000000,1.000000,0.898303,1.000000,1.000000,1.000000,2.000000
45,0.000649,0.000000,0.908002,0.171064,1.000000,0.006614,0.002909,1.000000,2.000000,0.611485,0.000000,1.000000,0.914193,0.940753,0.959822,1.000000,2.000000
46,0.000649,0.000000,0.908002,0.171064,1.000000,0.006614,0.002909,1.000000,2.000000,0.611485,0.000000,1.000000,0.914193,0.940753,0.959822,1.000000,2.000000
47,0.000649,0.000000,0.908002,0.171064,1.000000,0.006614,0.002909,1.000000,2.000000,0.611485,0.000000,1.000000,0.914193,0.940753,0.959822,1.000000,2.000000
48,0.000649,0.000000,0.908002,0.171064,1.000000,0.006614,0.002909,1.000000,2.000000,0.611485,0.000000,1.000000,0.914193,0.940753,0.959822,1.000000,2.000000
49,0.000649,0.000000,0.908002,0.171064,1.000000,0.006614,0.002909,1.000000,2.000000,0.611485,0.000000,1.000000,0.914193,0.940753,0.959822,1.000000,2.000000
50,0.000645,0.000000,1.000000,0.174526,1.000000,0.006614,0.002909,1.000000,2.000000,0.611485,0.000000,1.000000,0.914193,0.940753,0.959822,1.000000,2.000000
51,0.000606,0.000000,1.000000,0.174526,1.000000,0.006614,0.000000,1.000000,2.000000,0.594378,0.000000,1.000000,0.922728,1.000000,0.959822,0.996022,2.000000
52,0.000606,0.000000,1.000000,0.174526,1.000000,0.006614,0.000000,1.000000,2.000000,0.594378,0.000000,1.000000,0.922728,1.000000,0.959822,0.996022,2.000000
53,0.000606,0.000000,1.000000,0.174526,1.000000,0.006614,0.000000,1.000000,2.000000,0.594378,0.000000,1.000000,0.922728,1.000000,0.959822,0.996022,2.000000
54,0.000606,0.000000,1.000000,0.174526,1.000000,0.006614,0.000000,1.000000,2.000000,0.594378,0.000000,1.000000,0.922728,1.000000,0.959822,0.996022,2.000000
55,0.000605,0.000000,0.986941,0.174526,1.000000,0.000000,0.000000,1.000000,2.000000,0.594378,0.058754,1.000000,0.922728,1.000000,0.959822,0.996022,2.000000
56,0.000605,0.000000,0.986941,0.174526,1.000000,0.000000,0.000000,1.000000,2.000000,0.594378,0.058754,1.000000,0.922728,1.000000,0.959822,0.996022,2.000000
57,0.000598,0.000000,1.000000,0.174526,1.000000,0.006614,0.000000,1.000000,2.000000,0.594378,0.000000,1.000000,0.922728,1.000000,1.000000,0.996022,2.000000
58,0.000598,0.000000,1.000000,0.174526,1.000000,0.006614,0.000000,1.000000,2.000000,0.594378,0.000000,1.000000,0.922728,1.000000,1.000000,0.996022,2.000000
59,0.000597,0.000000,1.000000,0.174526,1.000000,0.000000,0.002909,1.000000,2.000000,0.571260,0.003885,1.000000,0.922728,1.000000,0.991405,0.996022,2.000000
60,0.000597,0.000000,1.000000,0.174526,1.000000,0.000000,0.002909,1.000000,2.000000,0.571260,0.003885,1.000000,0.922728,1.000000,0.991405,0.996022,2.000000
61,0.000595,0.000000,1.000000,0.186307,1.000000,0.000000,0.000000,1.000000,2.000000,0.594378,0.000000,1.000000,0.922728,1.000000,1.000000,0.996022,2.000000
gen, fitness
0,0.044384,0.000000,1.000000,0.210000,0.800000,0.030000,0.030000,1.000000,0.000000,1.000000,0.000000,0.000000,0.600000,1.000000,1.000000,0.000000,0.000000
1,0.044384,0.000000,1.000000,0.210000,0.800000,0.030000,0.030000,1.000000,0.000000,1.000000,0.000000,0.000000,0.600000,1.000000,1.000000,0.000000,0.000000
2,0.031421,0.000000,1.000000,0.210000,0.800000,0.030000,0.030000,1.000000,0.000000,1.000000,0.000000,0.000000,0.723157,1.000000,1.000000,0.000000,1.000000
3,0.027463,0.118549,1.000000,0.210000,0.800000,0.063190,0.030000,1.000000,2.000000,1.000000,0.000000,0.000000,0.763797,1.000000,0.876642,0.084428,1.000000
4,0.023886,0.000000,1.000000,0.323144,0.800000,0.063190,0.030000,1.000000,2.000000,1.000000,0.185987,0.000000,0.763797,1.000000,0.876642,0.048276,1.000000
5,0.022471,0.000000,1.000000,0.323144,0.835280,0.063190,0.030000,0.921351,2.000000,1.000000,0.185987,0.000000,0.763797,1.000000,0.876642,0.048276,2.000000
6,0.022279,0.000000,1.000000,0.403514,0.800000,0.123052,0.030000,0.950830,2.000000,1.000000,0.185987,0.000000,0.763797,1.000000,0.876642,0.048276,2.000000
7,0.020569,0.000000,0.965548,0.210000,0.844375,0.063190,0.000000,1.000000,2.000000,0.836402,0.000000,0.000000,0.822940,1.000000,1.000000,0.288757,0.000000
8,0.018516,0.000000,0.888058,0.210000,0.872764,0.063190,0.000000,1.000000,2.000000,0.836402,0.000000,0.000000,0.822940,1.000000,1.000000,0.288757,0.000000
9,0.017261,0.077854,0.880338,0.324198,0.847096,0.426661,0.000000,1.000000,2.000000,0.745115,0.000000,0.000000,0.849677,1.000000,1.000000,0.048276,2.000000
10,0.017132,0.000000,0.965548,0.210000,0.875118,0.426661,0.000000,1.000000,2.000000,0.745115,0.000000,0.000000,0.849677,1.000000,1.000000,0.048276,2.000000
11,0.016673,0.109859,1.000000,0.324198,0.858444,0.047960,0.045442,1.000000,2.000000,0.836402,0.000000,0.000000,0.851910,1.000000,0.949978,0.288757,2.000000
12,0.016446,0.109859,1.000000,0.324198,0.858444,0.047960,0.045442,1.000000,2.000000,0.836402,0.000000,0.000000,0.851910,1.000000,0.906779,0.435447,2.000000
13,0.015331,0.000000,0.880338,0.301910,0.847096,0.192239,0.063097,1.000000,2.000000,0.380064,0.000000,0.000000,0.891879,1.000000,0.987257,0.000000,1.000000
14,0.014829,0.000000,0.842572,0.334113,0.872764,0.285771,0.000000,1.000000,2.000000,0.562162,0.000000,0.000000,0.891879,0.930505,0.965024,0.288757,0.000000
15,0.010266,0.169530,1.000000,0.353196,1.000000,0.063190,0.059826,1.000000,1.000000,0.836402,0.000000,0.000000,1.000000,1.000000,0.924627,0.450453,2.000000
16,0.010126,0.169530,1.000000,0.386392,1.000000,0.063190,0.059826,1.000000,0.000000,0.836402,0.000000,0.058985,1.000000,1.000000,0.924627,0.450453,2.000000
17,0.009829,0.000000,0.833545,0.301910,1.000000,0.063190,0.059826,1.000000,1.000000,0.836402,0.000000,0.000000,1.000000,1.000000,0.924627,0.450453,2.000000
18,0.009631,0.164518,0.979128,0.386392,1.000000,0.063190,0.000000,1.000000,2.000000,0.841201,0.000000,0.058985,1.000000,1.000000,0.924627,0.588551,2.000000
19,0.008931,0.000000,0.880338,0.360495,1.000000,0.063190,0.000000,1.000000,2.000000,0.841201,0.000000,0.058985,1.000000,1.000000,0.924627,0.588551,2.000000
20,0.008927,0.000000,0.880338,0.360495,1.000000,0.063190,0.000000,1.000000,2.000000,0.841201,0.000000,0.058985,1.000000,1.000000,0.913992,0.588551,2.000000
21,0.008868,0.000000,0.833545,0.429797,1.000000,0.063190,0.120285,1.000000,2.000000,0.928477,0.000000,0.158423,1.000000,1.000000,1.000000,0.450453,2.000000
22,0.008811,0.000000,0.898287,0.360495,1.000000,0.063190,0.059817,1.000000,2.000000,0.841201,0.000000,0.058985,1.000000,1.000000,0.924627,0.787699,2.000000
23,0.008594,0.000000,0.814210,0.360495,1.000000,0.080128,0.000000,1.000000,2.000000,0.754019,0.000000,0.121880,1.000000,1.000000,0.913992,0.735304,2.000000
24,0.008594,0.000000,0.814210,0.360495,1.000000,0.080128,0.000000,1.000000,2.000000,0.754019,0.000000,0.121880,1.000000,1.000000,0.913992,0.735304,2.000000
25,0.008582,0.000000,0.833545,0.429797,1.000000,0.203111,0.217313,1.000000,2.000000,0.841201,0.000000,0.242593,1.000000,1.000000,1.000000,0.701544,2.000000
26,0.008389,0.000000,0.787576,0.466448,1.000000,0.018192,0.000000,1.000000,2.000000,0.841201,0.000000,0.191379,1.000000,1.000000,0.924627,0.664891,2.000000
27,0.008389,0.000000,0.787576,0.466448,1.000000,0.018192,0.000000,1.000000,2.000000,0.841201,0.000000,0.191379,1.000000,1.000000,0.924627,0.664891,2.000000
28,0.008370,0.000000,0.787576,0.499752,1.000000,0.000000,0.040642,1.000000,2.000000,0.841201,0.000000,0.191379,1.000000,1.000000,0.939916,0.701544,2.000000
29,0.008199,0.000000,0.880338,0.564143,1.000000,0.063190,0.000000,1.000000,2.000000,0.929931,0.000000,0.263172,1.000000,1.000000,1.000000,0.714454,2.000000
30,0.008190,0.000000,0.880338,0.564143,1.000000,0.063190,0.000000,1.000000,2.000000,0.929931,0.000000,0.263172,1.000000,1.000000,1.000000,0.731599,2.000000
31,0.008038,0.000000,0.880338,0.564143,1.000000,0.000000,0.000000,1.000000,2.000000,0.929931,0.018910,0.332846,1.000000,0.844910,0.799412,0.906417,2.000000
32,0.007743,0.000000,0.880338,0.519955,1.000000,0.063190,0.000000,0.997182,2.000000,0.616366,0.214125,0.457627,1.000000,1.000000,0.939916,0.593767,2.000000
33,0.007743,0.000000,0.880338,0.519955,1.000000,0.063190,0.000000,0.997182,2.000000,0.616366,0.214125,0.457627,1.000000,1.000000,0.939916,0.593767,2.000000
34,0.007687,0.000000,1.000000,0.564143,1.000000,0.000000,0.000000,1.000000,2.000000,0.616366,0.214125,0.457627,1.000000,1.000000,0.939916,0.593767,2.000000
35,0.007500,0.000000,0.880338,0.519955,1.000000,0.063190,0.000000,0.997182,2.000000,0.616366,0.214125,0.457627,1.000000,1.000000,0.799412,1.000000,2.000000
36,0.007493,0.000000,0.880338,0.519955,1.000000,0.063190,0.000000,0.997182,2.000000,0.616366,0.214125,0.457627,1.000000,1.000000,0.701666,1.000000,2.000000
37,0.007493,0.000000,0.880338,0.519955,1.000000,0.063190,0.000000,0.997182,2.000000,0.616366,0.214125,0.457627,1.000000,1.000000,0.701666,1.000000,2.000000
38,0.007492,0.000000,0.880338,0.519955,1.000000,0.063190,0.000000,1.000000,2.000000,0.616366,0.214125,0.457627,1.000000,1.000000,0.598510,0.999029,2.000000
39,0.007205,0.000000,0.880338,0.628075,1.000000,0.267184,0.000000,0.997182,2.000000,0.616366,0.214125,0.678911,1.000000,1.000000,0.853606,1.000000,2.000000
40,0.007205,0.000000,0.880338,0.628075,1.000000,0.267184,0.000000,0.997182,2.000000,0.616366,0.214125,0.678911,1.000000,1.000000,0.853606,1.000000,2.000000
41,0.007205,0.000000,0.880338,0.628075,1.000000,0.267184,0.000000,0.997182,2.000000,0.616366,0.214125,0.678911,1.000000,1.000000,0.853606,1.000000,2.000000
42,0.007152,0.000000,0.880338,0.628075,1.000000,0.131966,0.000000,0.997182,2.000000,0.616366,0.214125,0.716851,1.000000,1.000000,0.853606,1.000000,2.000000
43,0.006997,0.000000,1.000000,0.739306,1.000000,0.076651,0.000000,0.997182,2.000000,0.616366,0.106303,0.678911,1.000000,0.926839,0.637854,1.000000,2.000000
44,0.006997,0.000000,1.000000,0.739306,1.000000,0.076651,0.000000,0.997182,2.000000,0.616366,0.106303,0.678911,1.000000,0.926839,0.637854,1.000000,2.000000
45,0.006891,0.000000,1.000000,0.705313,1.000000,0.219279,0.000000,0.997182,2.000000,0.616366,0.199782,0.903799,1.000000,0.994852,0.853606,1.000000,2.000000
46,0.006753,0.000000,1.000000,0.705313,1.000000,0.076651,0.000000,0.997182,2.000000,0.552074,0.454442,0.857713,1.000000,1.000000,0.853606,1.000000,2.000000
47,0.006705,0.000000,1.000000,0.702338,1.000000,0.000000,0.026440,0.997182,2.000000,0.453020,0.283612,0.847024,1.000000,0.997333,0.853606,1.000000,2.000000
48,0.006676,0.000000,1.000000,0.739306,1.000000,0.112657,0.000000,0.997182,2.000000,0.513985,0.232459,1.000000,1.000000,0.772408,0.449767,0.915173,2.000000
49,0.006653,0.000000,1.000000,0.771996,1.000000,0.053708,0.000000,1.000000,2.000000,0.616366,0.281377,0.903799,1.000000,1.000000,0.819522,1.000000,2.000000
50,0.006510,0.000000,0.895920,0.702338,1.000000,0.000000,0.000000,0.988525,2.000000,0.453020,0.283612,0.995874,1.000000,0.953886,0.791923,1.000000,2.000000
51,0.006482,0.000000,1.000000,0.702338,1.000000,0.000000,0.026440,0.997182,2.000000,0.453020,0.283612,1.000000,1.000000,1.000000,0.853606,0.997113,2.000000
52,0.006453,0.000000,1.000000,0.702338,1.000000,0.009191,0.078915,0.997182,2.000000,0.424333,0.232459,1.000000,1.000000,1.000000,0.853606,1.000000,2.000000
53,0.006439,0.000000,0.895920,0.800656,1.000000,0.000000,0.000000,0.988525,2.000000,0.453020,0.191988,1.000000,1.000000,1.000000,0.706012,1.000000,2.000000
54,0.006387,0.000000,0.908973,0.702338,1.000000,0.000000,0.026440,0.948650,2.000000,0.313487,0.188738,1.000000,1.000000,0.772408,0.348738,1.000000,2.000000
55,0.006369,0.037221,0.954143,0.702338,1.000000,0.000000,0.000000,0.997182,2.000000,0.313487,0.188738,1.000000,1.000000,0.772408,0.348738,1.000000,2.000000
56,0.006348,0.000000,0.986297,0.702338,1.000000,0.000000,0.091420,1.000000,2.000000,0.313487,0.219040,1.000000,1.000000,0.772408,0.348738,1.000000,2.000000
57,0.006337,0.000000,0.895920,0.800656,1.000000,0.000000,0.033769,0.975954,2.000000,0.404128,0.188738,1.000000,1.000000,0.772408,0.214000,1.000000,2.000000
58,0.006297,0.000000,0.941539,0.772216,1.000000,0.112657,0.000000,1.000000,2.000000,0.313487,0.183875,1.000000,1.000000,0.772408,0.103338,1.000000,2.000000
59,0.006240,0.000000,1.000000,0.665155,1.000000,0.000000,0.000000,1.000000,2.000000,0.158875,0.183875,1.000000,1.000000,0.795038,0.239069,1.000000,2.000000
60,0.006240,0.000000,1.000000,0.665155,1.000000,0.000000,0.000000,1.000000,2.000000,0.158875,0.183875,1.000000,1.000000,0.795038,0.239069,1.000000,2.000000
61,0.006215,0.000000,1.000000,0.665155,1.000000,0.000000,0.000000,1.000000,2.000000,0.158875,0.183875,1.000000,1.000000,0.987469,0.239069,1.000000,2.000000
62,0.006208,0.000000,1.000000,0.665155,1.000000,0.000000,0.000000,1.000000,2.000000,0.158875,0.183875,1.000000,1.000000,0.795038,0.063414,1.000000,2.000000
63,0.006207,0.000000,1.000000,0.665155,1.000000,0.000000,0.000000,1.000000,2.000000,0.158875,0.183875,1.000000,1.000000,0.766066,0.009394,1.000000,2.000000
64,0.006198,0.000000,0.962405,0.700662,1.000000,0.000000,0.000000,1.000000,2.000000,0.158875,0.183875,1.000000,1.000000,0.766066,0.009394,1.000000,2.000000
65,0.006179,0.000000,1.000000,0.665155,1.000000,0.000000,0.000000,1.000000,2.000000,0.104349,0.183875,1.000000,1.000000,0.766066,0.009394,1.000000,2.000000
66,0.006179,0.000000,1.000000,0.665155,1.000000,0.000000,0.000000,1.000000,2.000000,0.104349,0.183875,1.000000,1.000000,0.766066,0.009394,1.000000,2.000000
67,0.006170,0.000000,1.000000,0.665155,1.000000,0.000000,0.047746,1.000000,2.000000,0.104626,0.076394,1.000000,1.000000,0.766066,0.009394,1.000000,2.000000
68,0.006170,0.000000,1.000000,0.665155,1.000000,0.000000,0.047746,1.000000,2.000000,0.104626,0.076394,1.000000,1.000000,0.766066,0.009394,1.000000,2.000000
69,0.006157,0.000000,1.000000,0.665155,1.000000,0.000000,0.000000,1.000000,2.000000,0.144970,0.127408,1.000000,1.000000,0.987683,0.000000,1.000000,2.000000
70,0.006157,0.000000,1.000000,0.665155,1.000000,0.000000,0.000000,1.000000,2.000000,0.144970,0.127408,1.000000,1.000000,0.987683,0.000000,1.000000,2.000000
71,0.006143,0.000000,1.000000,0.665155,1.000000,0.000000,0.000000,1.000000,2.000000,0.121599,0.127408,1.000000,1.000000,1.000000,0.000000,1.000000,2.000000
72,0.006143,0.000000,1.000000,0.665155,1.000000,0.000000,0.000000,1.000000,2.000000,0.121599,0.127408,1.000000,1.000000,1.000000,0.000000,1.000000,2.000000
73,0.006143,0.000000,1.000000,0.665155,1.000000,0.000000,0.047746,1.000000,2.000000,0.104626,0.037455,1.000000,1.000000,0.936396,0.009394,1.000000,2.000000
74,0.006143,0.000000,1.000000,0.665155,1.000000,0.000000,0.047746,1.000000,2.000000,0.104626,0.037455,1.000000,1.000000,0.936396,0.009394,1.000000,2.000000
75,0.006134,0.000000,1.000000,0.665155,1.000000,0.000000,0.047746,1.000000,2.000000,0.104626,0.037455,1.000000,1.000000,1.000000,0.009394,1.000000,2.000000
76,0.006134,0.000000,1.000000,0.665155,1.000000,0.000000,0.047746,1.000000,2.000000,0.104626,0.037455,1.000000,1.000000,1.000000,0.009394,1.000000,2.000000
77,0.006134,0.000000,1.000000,0.665155,1.000000,0.000000,0.047746,1.000000,2.000000,0.104626,0.037455,1.000000,1.000000,1.000000,0.009394,1.000000,2.000000
78,0.006132,0.000000,0.867715,0.626464,1.000000,0.000000,0.082799,1.000000,2.000000,0.000000,0.053131,1.000000,1.000000,0.967148,0.000000,1.000000,2.000000
79,0.006128,0.000000,0.940616,0.665155,1.000000,0.000000,0.000000,1.000000,2.000000,0.104626,0.000000,1.000000,1.000000,1.000000,0.000000,1.000000,2.000000
80,0.006127,0.000000,1.000000,0.665155,1.000000,0.000000,0.042835,1.000000,2.000000,0.104626,0.000000,1.000000,1.000000,1.000000,0.000000,1.000000,2.000000
81,0.006127,0.000000,1.000000,0.665155,1.000000,0.000000,0.042835,1.000000,2.000000,0.104626,0.000000,1.000000,1.000000,1.000000,0.000000,1.000000,2.000000
gen, fitness
0,0.006335,0.000000,1.000000,0.210000,0.800000,0.030000,0.030000,1.000000,0.000000,1.000000,0.000000,0.000000,0.600000,1.000000,1.000000,0.000000,0.000000
1,0.006335,0.000000,1.000000,0.210000,0.800000,0.030000,0.030000,1.000000,0.000000,1.000000,0.000000,0.000000,0.600000,1.000000,1.000000,0.000000,0.000000
2,0.000220,0.000000,1.000000,0.210000,0.768472,0.000000,0.030000,1.000000,0.000000,1.000000,0.027845,0.000000,0.672630,1.000000,1.000000,0.000000,0.000000
3,0.000016,0.000000,1.000000,0.116847,0.800000,0.107469,0.030000,1.000000,2.000000,1.000000,0.000000,0.000000,0.677472,1.000000,1.000000,0.000000,0.000000
4,0.000000,0.000000,1.000000,0.210000,0.768472,0.000000,0.114132,1.000000,0.000000,0.921056,0.027845,0.000000,0.672630,1.000000,1.000000,0.000000,0.000000
gen, fitness
0,0.018541,0.000000,1.000000,0.210000,0.800000,0.030000,0.030000,1.000000,0.000000,1.000000,0.000000,0.000000,0.600000,1.000000,1.000000,0.000000,0.000000
1,0.018541,0.000000,1.000000,0.210000,0.800000,0.030000,0.030000,1.000000,0.000000,1.000000,0.000000,0.000000,0.600000,1.000000,1.000000,0.000000,0.000000
2,0.008382,0.000000,1.000000,0.215925,0.800000,0.000000,0.030000,1.000000,0.000000,1.000000,0.000000,0.064311,0.690662,1.000000,1.000000,0.000000,0.000000
3,0.005324,0.000000,0.908096,0.210000,0.800000,0.030000,0.000000,1.000000,2.000000,0.970089,0.000000,0.069102,0.723764,0.895516,1.000000,0.195600,2.000000
4,0.005324,0.000000,0.908096,0.210000,0.800000,0.030000,0.000000,1.000000,2.000000,0.970089,0.000000,0.069102,0.723764,0.895516,1.000000,0.195600,2.000000
5,0.003907,0.000000,1.000000,0.361599,0.800000,0.010828,0.030000,0.940342,0.000000,0.931397,0.000000,0.064311,0.755721,1.000000,0.943603,0.000000,2.000000
6,0.003455,0.000000,1.000000,0.349135,0.800000,0.010828,0.030000,0.986370,0.000000,0.818984,0.000000,0.064311,0.755721,1.000000,0.943603,0.000000,2.000000
7,0.002705,0.000000,1.000000,0.349135,0.800000,0.010828,0.030000,0.917357,2.000000,0.818984,0.000000,0.064311,0.755721,1.000000,0.943603,0.022627,2.000000
8,0.001936,0.000000,1.000000,0.474247,0.833396,0.045121,0.030000,1.000000,0.000000,0.869263,0.025790,0.226516,0.755721,0.984439,0.900485,0.195600,2.000000
9,0.000573,0.041885,1.000000,0.342061,0.926734,0.000000,0.151262,0.876146,2.000000,1.000000,0.000000,0.064311,0.882991,1.000000,0.943603,0.000000,2.000000
10,0.000573,0.041885,1.000000,0.342061,0.926734,0.000000,0.151262,0.876146,2.000000,1.000000,0.000000,0.064311,0.882991,1.000000,0.943603,0.000000,2.000000
11,0.000359,0.041885,1.000000,0.342061,0.926734,0.000000,0.151262,0.876146,2.000000,1.000000,0.000000,0.064311,0.905686,1.000000,0.944751,0.000000,2.000000
12,0.000199,0.108105,0.973617,0.342061,0.926734,0.000000,0.151262,0.876146,2.000000,1.000000,0.000000,0.175177,0.882991,1.000000,1.000000,0.067678,2.000000
13,0.000112,0.041885,1.000000,0.342061,0.926734,0.000000,0.151262,0.876146,2.000000,0.908895,0.000000,0.064311,0.905686,1.000000,0.944751,0.000000,2.000000
14,0.000078,0.041885,1.000000,0.342061,0.926734,0.000000,0.151262,0.876146,2.000000,0.869263,0.000000,0.275329,0.875254,0.984439,1.000000,0.389855,1.000000
15,0.000078,0.041885,1.000000,0.342061,0.926734,0.000000,0.151262,0.876146,2.000000,0.869263,0.000000,0.275329,0.875254,0.984439,1.000000,0.389855,1.000000
16,0.000025,0.000000,1.000000,0.377460,0.926734,0.000000,0.151262,1.000000,2.000000,0.908895,0.000000,0.064311,0.905686,0.984439,0.960838,0.389855,2.000000
17,0.000025,0.000000,1.000000,0.377460,0.926734,0.000000,0.151262,1.000000,2.000000,0.908895,0.000000,0.064311,0.905686,0.984439,0.960838,0.389855,2.000000
18,0.000025,0.000000,1.000000,0.377460,0.926734,0.000000,0.151262,1.000000,2.000000,0.908895,0.000000,0.064311,0.905686,0.984439,0.960838,0.389855,2.000000
19,0.000019,0.000000,0.924598,0.377460,0.926734,0.000000,0.151262,1.000000,2.000000,0.908895,0.222025,0.064311,0.905686,0.984439,0.960838,0.519492,2.000000
20,0.000008,0.000000,0.924598,0.377460,0.926734,0.000000,0.151262,1.000000,2.000000,0.824953,0.222025,0.104252,0.905686,0.984439,0.960838,0.519492,2.000000
21,0.000008,0.000000,0.924598,0.377460,0.926734,0.000000,0.151262,1.000000,2.000000,0.824953,0.222025,0.104252,0.905686,0.984439,0.960838,0.519492,2.000000
22,0.000008,0.000000,0.924598,0.377460,0.926734,0.000000,0.151262,1.000000,2.000000,0.824953,0.222025,0.104252,0.905686,0.984439,0.960838,0.519492,2.000000
23,0.000008,0.000000,0.924598,0.377460,0.926734,0.000000,0.151262,1.000000,2.000000,0.824953,0.222025,0.104252,0.905686,0.984439,0.960838,0.519492,2.000000
24,0.000008,0.000000,0.924598,0.377460,0.926734,0.000000,0.151262,1.000000,2.000000,0.824953,0.222025,0.104252,0.905686,0.984439,0.960838,0.519492,2.000000
25,0.000005,0.000000,0.924598,0.377460,0.926734,0.000000,0.151262,0.972375,2.000000,0.824953,0.222025,0.104252,0.905686,1.000000,0.874525,0.485772,2.000000
26,0.000001,0.000000,0.941614,0.377460,0.926734,0.000000,0.085716,1.000000,2.000000,0.725134,0.218501,0.064120,0.923829,1.000000,0.960838,0.519492,1.000000
27,0.000001,0.000000,0.941614,0.377460,0.926734,0.000000,0.085716,1.000000,2.000000,0.725134,0.218501,0.064120,0.923829,1.000000,0.960838,0.519492,1.000000
28,0.000001,0.000000,0.941614,0.377460,0.926734,0.000000,0.085716,1.000000,2.000000,0.725134,0.218501,0.064120,0.923829,1.000000,0.960838,0.519492,1.000000
29,0.000000,0.000000,0.809691,0.385261,0.926734,0.109738,0.217750,1.000000,2.000000,0.754351,0.048331,0.064120,0.923829,1.000000,1.000000,0.583246,0.000000
gen, fitness
0,0.069293,0.000000,1.000000,0.210000,0.800000,0.030000,0.030000,1.000000,0.000000,1.000000,0.000000,0.000000,0.600000,1.000000,1.000000,0.000000,0.000000
1,0.069293,0.000000,1.000000,0.210000,0.800000,0.030000,0.030000,1.000000,0.000000,1.000000,0.000000,0.000000,0.600000,1.000000,1.000000,0.000000,0.000000
2,0.039952,0.000000,1.000000,0.210000,0.800000,0.030000,0.000000,1.000000,0.000000,1.000000,0.000000,0.107759,0.770606,1.000000,1.000000,0.007255,0.000000
3,0.031527,0.000000,1.000000,0.210000,0.891286,0.089422,0.000000,1.000000,0.000000,1.000000,0.000000,0.014162,0.851553,1.000000,1.000000,0.056387,0.000000
4,0.025067,0.000000,1.000000,0.210000,0.888731,0.030000,0.000000,1.000000,2.000000,0.949388,0.000000,0.107759,0.858812,1.000000,1.000000,0.096279,2.000000
5,0.018559,0.008566,1.000000,0.210000,0.976776,0.030000,0.000000,1.000000,0.000000,1.000000,0.000000,0.107759,0.964509,0.955994,1.000000,0.000000,1.000000
6,0.018559,0.008566,1.000000,0.210000,0.976776,0.030000,0.000000,1.000000,0.000000,1.000000,0.000000,0.107759,0.964509,0.955994,1.000000,0.000000,1.000000
7,0.013766,0.000000,0.916405,0.079232,1.000000,0.078668,0.000000,0.982193,2.000000,1.000000,0.000000,0.172359,0.964509,0.955994,1.000000,0.000000,2.000000
8,0.013766,0.000000,0.916405,0.079232,1.000000,0.078668,0.000000,0.982193,2.000000,1.000000,0.000000,0.172359,0.964509,0.955994,1.000000,0.000000,2.000000
9,0.013146,0.000000,0.905213,0.091963,1.000000,0.000000,0.000000,1.000000,0.000000,0.891982,0.000000,0.336838,0.964509,0.946124,1.000000,0.212940,2.000000
10,0.013146,0.000000,0.905213,0.091963,1.000000,0.000000,0.000000,1.000000,0.000000,0.891982,0.000000,0.336838,0.964509,0.946124,1.000000,0.212940,2.000000
11,0.012362,0.069553,0.898250,0.004357,1.000000,0.030000,0.000000,1.000000,2.000000,1.000000,0.000000,0.217730,0.964509,0.946124,1.000000,0.212940,2.000000
12,0.011392,0.000000,0.905213,0.013781,1.000000,0.000000,0.000000,1.000000,2.000000,0.891982,0.000000,0.336838,0.964509,0.902440,1.000000,0.373114,2.000000
13,0.011200,0.000000,0.905213,0.013781,1.000000,0.000000,0.000000,1.000000,2.000000,0.779053,0.000000,0.465030,0.964509,0.902440,1.000000,0.373114,2.000000
14,0.010995,0.000000,0.905213,0.000000,1.000000,0.050231,0.000000,1.000000,1.000000,1.000000,0.000000,0.583581,0.892317,0.946124,1.000000,0.212940,2.000000
15,0.010957,0.020380,0.843000,0.013781,1.000000,0.000000,0.000000,1.000000,2.000000,0.912613,0.000000,0.465030,0.964509,0.902440,1.000000,0.373114,2.000000
16,0.010857,0.000000,0.986525,0.000000,1.000000,0.293436,0.101747,1.000000,2.000000,1.000000,0.000000,0.425405,0.954948,0.977477,1.000000,0.373114,2.000000
17,0.010547,0.000000,0.943749,0.000000,1.000000,0.030000,0.009638,1.000000,2.000000,1.000000,0.041374,0.425405,0.954948,0.977477,1.000000,0.373114,2.000000
18,0.010131,0.000000,0.980080,0.000000,1.000000,0.000000,0.000000,1.000000,1.000000,1.000000,0.043013,0.630865,0.892317,0.921606,1.000000,0.555492,2.000000
19,0.010013,0.000000,0.829504,0.013781,1.000000,0.050231,0.000000,1.000000,2.000000,0.779053,0.000000,0.793464,0.931002,1.000000,1.000000,0.295750,2.000000
20,0.009257,0.000000,0.943749,0.000000,1.000000,0.000000,0.009638,1.000000,2.000000,1.000000,0.000000,0.702414,0.931002,1.000000,1.000000,0.523885,2.000000
21,0.009257,0.000000,0.943749,0.000000,1.000000,0.000000,0.009638,1.000000,2.000000,1.000000,0.000000,0.702414,0.931002,1.000000,1.000000,0.523885,2.000000
22,0.008655,0.020380,0.683897,0.013592,1.000000,0.000000,0.038256,1.000000,2.000000,1.000000,0.195370,0.995114,0.892317,0.921606,1.000000,0.555492,2.000000
23,0.008568,0.020380,0.683897,0.013592,1.000000,0.000000,0.038256,1.000000,2.000000,1.000000,0.195370,0.991875,0.892317,0.921606,1.000000,0.657394,2.000000
24,0.008474,0.000000,0.683897,0.000000,1.000000,0.000000,0.000000,1.000000,2.000000,0.994274,0.195370,0.991875,0.892317,0.921606,1.000000,0.657394,2.000000
25,0.008474,0.000000,0.683897,0.000000,1.000000,0.000000,0.000000,1.000000,2.000000,0.994274,0.195370,0.991875,0.892317,0.921606,1.000000,0.657394,2.000000
26,0.008399,0.000000,1.000000,0.000000,1.000000,0.000000,0.038256,1.000000,2.000000,1.000000,0.260549,0.991875,0.892317,0.921606,0.984966,0.657394,2.000000
27,0.008399,0.000000,1.000000,0.000000,1.000000,0.000000,0.038256,1.000000,2.000000,1.000000,0.260549,0.991875,0.892317,0.921606,0.984966,0.657394,2.000000
28,0.008363,0.020380,0.683897,0.000000,1.000000,0.000000,0.000000,1.000000,2.000000,0.994274,0.148268,0.991875,0.892317,0.921606,1.000000,0.792883,2.000000
29,0.008260,0.000000,1.000000,0.000000,1.000000,0.000000,0.000000,0.870561,2.000000,0.994274,0.148268,0.991875,0.892317,0.921606,1.000000,0.792883,2.000000
30,0.008260,0.000000,1.000000,0.000000,1.000000,0.000000,0.000000,0.870561,2.000000,0.994274,0.148268,0.991875,0.892317,0.921606,1.000000,0.792883,2.000000
31,0.008232,0.000000,1.000000,0.000000,1.000000,0.000000,0.000000,0.918754,2.000000,1.000000,0.260549,1.000000,0.892317,0.921606,1.000000,0.792883,2.000000
32,0.008232,0.000000,1.000000,0.000000,1.000000,0.000000,0.000000,0.918754,2.000000,1.000000,0.260549,1.000000,0.892317,0.921606,1.000000,0.792883,2.000000
33,0.008117,0.000000,1.000000,0.000000,1.000000,0.000000,0.000000,0.870561,2.000000,1.000000,0.148268,0.991875,0.892317,1.000000,1.000000,0.893858,2.000000
34,0.008117,0.000000,1.000000,0.000000,1.000000,0.000000,0.000000,0.870561,2.000000,1.000000,0.148268,0.991875,0.892317,1.000000,1.000000,0.893858,2.000000
35,0.008117,0.000000,1.000000,0.000000,1.000000,0.000000,0.000000,0.870561,2.000000,1.000000,0.148268,0.991875,0.892317,1.000000,1.000000,0.893858,2.000000
36,0.008117,0.000000,1.000000,0.000000,1.000000,0.000000,0.000000,0.870561,2.000000,1.000000,0.148268,0.991875,0.892317,1.000000,1.000000,0.893858,2.000000
37,0.008084,0.000000,1.000000,0.000000,1.000000,0.000000,0.000000,0.870561,2.000000,1.000000,0.148268,0.991875,0.892317,1.000000,1.000000,0.933006,2.000000
38,0.008033,0.000000,0.987332,0.000000,1.000000,0.000000,0.000000,0.870561,2.000000,1.000000,0.063925,1.000000,0.892317,0.974119,1.000000,1.000000,2.000000
39,0.008033,0.000000,0.987332,0.000000,1.000000,0.000000,0.000000,0.870561,2.000000,1.000000,0.063925,1.000000,0.892317,0.974119,1.000000,1.000000,2.000000
40,0.008025,0.000000,1.000000,0.000000,1.000000,0.000000,0.000000,0.967846,2.000000,1.000000,0.018611,0.991875,0.892317,1.000000,1.000000,1.000000,2.000000
41,0.008025,0.000000,1.000000,0.000000,1.000000,0.000000,0.000000,0.967846,2.000000,1.000000,0.018611,0.991875,0.892317,1.000000,1.000000,1.000000,2.000000
42,0.008017,0.000000,1.000000,0.000000,1.000000,0.000000,0.000000,0.966133,2.000000,1.000000,0.127594,1.000000,0.892317,1.000000,1.000000,1.000000,2.000000
43,0.008017,0.000000,1.000000,0.000000,1.000000,0.000000,0.000000,0.966133,2.000000,1.000000,0.127594,1.000000,0.892317,1.000000,1.000000,1.000000,2.000000
44,0.008017,0.000000,1.000000,0.000000,1.000000,0.000000,0.000000,0.966133,2.000000,1.000000,0.127594,1.000000,0.892317,1.000000,1.000000,1.000000,2.000000
45,0.008017,0.000000,1.000000,0.000000,1.000000,0.000000,0.000000,0.966133,2.000000,1.000000,0.127594,1.000000,0.892317,1.000000,1.000000,1.000000,2.000000
46,0.008017,0.000000,1.000000,0.000000,1.000000,0.000000,0.000000,0.966133,2.000000,1.000000,0.127594,1.000000,0.892317,1.000000,1.000000,1.000000,2.000000
47,0.008017,0.000000,1.000000,0.000000,1.000000,0.000000,0.000000,0.966133,2.000000,1.000000,0.127594,1.000000,0.892317,1.000000,1.000000,1.000000,2.000000
48,0.008017,0.000000,1.000000,0.000000,1.000000,0.000000,0.000000,0.966133,2.000000,1.000000,0.127594,1.000000,0.892317,1.000000,1.000000,1.000000,2.000000
gen, fitness
0,0.020772,0.000000,1.000000,0.210000,0.800000,0.030000,0.030000,1.000000,0.000000,1.000000,0.000000,0.000000,0.600000,1.000000,1.000000,0.000000,0.000000
1,0.020772,0.000000,1.000000,0.210000,0.800000,0.030000,0.030000,1.000000,0.000000,1.000000,0.000000,0.000000,0.600000,1.000000,1.000000,0.000000,0.000000
2,0.006562,0.000000,1.000000,0.210000,0.820054,0.000000,0.030000,1.000000,0.000000,0.996048,0.000000,0.000000,0.733928,1.000000,1.000000,0.196059,0.000000
3,0.006343,0.000000,0.919690,0.367698,0.768002,0.030000,0.030000,0.993458,0.000000,1.000000,0.000000,0.124134,0.694693,1.000000,1.000000,0.000000,1.000000
4,0.004907,0.000000,1.000000,0.210000,0.822137,0.100471,0.030000,1.000000,1.000000,1.000000,0.000000,0.000000,0.752634,1.000000,1.000000,0.000000,2.000000
5,0.003597,0.000000,1.000000,0.350694,0.800000,0.030000,0.000693,1.000000,2.000000,1.000000,0.111090,0.110186,0.748731,1.000000,1.000000,0.000000,0.000000
6,0.002988,0.000000,0.973597,0.491713,0.768002,0.000000,0.209646,1.000000,2.000000,1.000000,0.000000,0.151334,0.733928,1.000000,1.000000,0.155975,2.000000
7,0.002843,0.000000,1.000000,0.509918,0.800000,0.031822,0.000693,1.000000,2.000000,1.000000,0.111090,0.173948,0.748731,0.920427,0.811256,0.000000,0.000000
8,0.002541,0.000000,0.914602,0.509918,0.800000,0.031822,0.000693,1.000000,2.000000,1.000000,0.111090,0.173948,0.748731,0.876827,0.811256,0.000000,2.000000
9,0.002221,0.000000,1.000000,0.509918,0.800000,0.071064,0.000693,1.000000,1.000000,0.964186,0.000000,0.032101,0.805534,0.816277,1.000000,0.000000,2.000000
10,0.002018,0.000000,1.000000,0.509918,0.800000,0.031822,0.000693,1.000000,2.000000,1.000000,0.219625,0.173948,0.775671,1.000000,1.000000,0.000000,2.000000
11,0.001471,0.000000,1.000000,0.509918,0.810165,0.031822,0.172722,1.000000,2.000000,0.916848,0.000000,0.423292,0.733928,0.881926,1.000000,0.000000,2.000000
12,0.001471,0.000000,1.000000,0.509918,0.810165,0.031822,0.172722,1.000000,2.000000,0.916848,0.000000,0.423292,0.733928,0.881926,1.000000,0.000000,2.000000
13,0.001352,0.000000,1.000000,0.693859,0.800000,0.020347,0.209646,1.000000,2.000000,1.000000,0.041078,0.161262,0.805886,1.000000,1.000000,0.000000,2.000000
14,0.001351,0.000000,0.829637,0.693859,0.800000,0.020347,0.209646,0.979473,2.000000,1.000000,0.000000,0.161262,0.805886,1.000000,0.973641,0.000000,2.000000
15,0.001241,0.000000,0.998465,0.693859,0.800000,0.029457,0.182293,1.000000,2.000000,0.933622,0.070116,0.286989,0.793494,0.831064,0.918388,0.003154,1.000000
16,0.000587,0.042820,0.829637,0.693859,0.844575,0.020347,0.114970,1.000000,2.000000,1.000000,0.041078,0.467222,0.812142,1.000000,1.000000,0.000000,2.000000
17,0.000587,0.042820,0.829637,0.693859,0.844575,0.020347,0.114970,1.000000,2.000000,1.000000,0.041078,0.467222,0.812142,1.000000,1.000000,0.000000,2.000000
18,0.000587,0.042820,0.829637,0.693859,0.844575,0.020347,0.114970,1.000000,2.000000,1.000000,0.041078,0.467222,0.812142,1.000000,1.000000,0.000000,2.000000
19,0.000460,0.000000,1.000000,0.791044,0.844575,0.020347,0.114970,1.000000,2.000000,1.000000,0.041078,0.467222,0.812142,1.000000,0.892246,0.000000,2.000000
20,0.000457,0.000000,1.000000,0.791044,0.844575,0.000000,0.057044,1.000000,2.000000,1.000000,0.041078,0.467222,0.812142,1.000000,0.913748,0.000000,2.000000
21,0.000444,0.042820,1.000000,0.791044,0.844575,0.000000,0.057044,0.826345,2.000000,1.000000,0.041078,0.515326,0.812142,1.000000,0.913748,0.000000,2.000000
22,0.000412,0.000000,1.000000,0.781599,0.844575,0.020347,0.114970,1.000000,2.000000,1.000000,0.041078,0.467222,0.812142,1.000000,1.000000,0.176358,2.000000
23,0.000254,0.001931,1.000000,0.791044,0.872491,0.000000,0.057044,1.000000,2.000000,1.000000,0.301276,0.467222,0.854525,1.000000,0.894832,0.000000,1.000000
24,0.000204,0.001931,1.000000,0.791044,0.872491,0.000000,0.028181,1.000000,2.000000,1.000000,0.301276,0.467222,0.854525,1.000000,0.894832,0.000000,2.000000
25,0.000191,0.001931,1.000000,0.791044,0.872491,0.000000,0.057044,1.000000,2.000000,1.000000,0.354669,0.467222,0.854525,1.000000,0.894832,0.176358,2.000000
26,0.000191,0.001931,1.000000,0.791044,0.872491,0.000000,0.057044,1.000000,2.000000,1.000000,0.354669,0.467222,0.854525,1.000000,0.894832,0.176358,2.000000
27,0.000191,0.001931,1.000000,0.791044,0.872491,0.000000,0.057044,1.000000,2.000000,1.000000,0.354669,0.467222,0.854525,1.000000,0.894832,0.176358,2.000000
28,0.000159,0.001931,0.949220,0.791044,0.872491,0.000000,0.028181,1.000000,2.000000,0.685706,0.041078,0.467222,0.871894,1.000000,0.913748,0.000000,2.000000
29,0.000156,0.001931,0.955567,0.791044,0.872491,0.000000,0.057044,1.000000,1.000000,0.685706,0.041078,0.467222,0.871894,1.000000,0.894832,0.000000,2.000000
30,0.000125,0.001931,1.000000,0.956288,0.884851,0.132572,0.023869,1.000000,1.000000,1.000000,0.301276,0.756126,0.842936,1.000000,0.920946,0.176358,2.000000
31,0.000035,0.001931,0.955567,0.956288,0.884851,0.132572,0.023869,1.000000,2.000000,1.000000,0.301276,0.756126,0.855696,1.000000,0.860746,0.176358,2.000000
32,0.000035,0.001931,0.955567,0.956288,0.884851,0.132572,0.023869,1.000000,2.000000,1.000000,0.301276,0.756126,0.855696,1.000000,0.860746,0.176358,2.000000
33,0.000034,0.001931,0.955567,0.956288,0.884851,0.132572,0.060396,1.000000,2.000000,1.000000,0.169658,0.756126,0.855696,1.000000,0.860746,0.176358,2.000000
34,0.000033,0.027573,1.000000,0.956288,0.884851,0.132572,0.060396,1.000000,2.000000,1.000000,0.169658,0.816329,0.855696,1.000000,0.860746,0.176358,2.000000
35,0.000031,0.001931,0.955567,0.956288,0.884851,0.132572,0.060396,1.000000,2.000000,1.000000,0.301276,0.770447,0.855696,1.000000,0.860746,0.176358,2.000000
36,0.000012,0.000000,0.972945,1.000000,0.884851,0.158451,0.228859,1.000000,2.000000,0.899240,0.261596,0.927996,0.855696,1.000000,0.866346,0.301849,2.000000
37,0.000012,0.000000,0.972945,1.000000,0.884851,0.158451,0.228859,1.000000,2.000000,0.899240,0.261596,0.927996,0.855696,1.000000,0.866346,0.301849,2.000000
38,0.000012,0.054958,0.955567,0.956288,0.884851,0.036400,0.228859,1.000000,2.000000,0.859701,0.261596,0.927996,0.855696,1.000000,0.866346,0.301849,2.000000
39,0.000009,0.000000,0.955567,1.000000,0.884851,0.096862,0.060396,1.000000,2.000000,0.899240,0.261596,0.927996,0.855696,0.955938,0.919926,0.301849,2.000000
40,0.000009,0.000000,0.955567,1.000000,0.884851,0.096862,0.060396,1.000000,2.000000,0.899240,0.261596,0.927996,0.855696,0.955938,0.919926,0.301849,2.000000
41,0.000009,0.000000,0.955567,1.000000,0.884851,0.096862,0.060396,1.000000,2.000000,0.899240,0.261596,0.927996,0.855696,0.955938,0.919926,0.301849,2.000000
42,0.000008,0.000000,0.955567,1.000000,0.884851,0.096862,0.060396,0.884207,2.000000,0.899240,0.261596,0.927996,0.855696,0.955938,0.919926,0.452820,2.000000
43,0.000008,0.000000,0.955567,1.000000,0.884851,0.096862,0.060396,0.884207,2.000000,0.899240,0.261596,0.927996,0.855696,0.955938,0.919926,0.452820,2.000000
44,0.000005,0.000000,0.972945,1.000000,0.884851,0.000000,0.079291,1.000000,2.000000,0.899240,0.122127,0.908277,0.855696,0.995537,0.805995,0.525363,2.000000
45,0.000005,0.000000,0.972945,1.000000,0.884851,0.000000,0.079291,1.000000,2.000000,0.899240,0.122127,0.908277,0.855696,0.995537,0.805995,0.525363,2.000000
46,0.000005,0.000000,0.972945,1.000000,0.884851,0.000000,0.079291,1.000000,2.000000,0.899240,0.122127,0.908277,0.855696,0.995537,0.805995,0.525363,2.000000
gen, fitness
0,0.008197,0.000000,1.000000,0.210000,0.800000,0.030000,0.030000,1.000000,0.000000,1.000000,0.000000,0.000000,0.600000,1.000000,1.000000,0.000000,0.000000
1,0.008197,0.000000,1.000000,0.210000,0.800000,0.030000,0.030000,1.000000,0.000000,1.000000,0.000000,0.000000,0.600000,1.000000,1.000000,0.000000,0.000000
2,0.000228,0.000000,1.000000,0.210000,0.800000,0.030000,0.030000,1.000000,0.000000,1.000000,0.000000,0.000000,0.709098,1.000000,1.000000,0.000000,1.000000
3,0.000032,0.000000,1.000000,0.240463,0.800000,0.030000,0.030000,1.000000,0.000000,1.000000,0.000000,0.072332,0.690084,0.815355,1.000000,0.000000,2.000000
4,0.000032,0.000000,1.000000,0.240463,0.800000,0.030000,0.030000,1.000000,0.000000,1.000000,0.000000,0.072332,0.690084,0.815355,1.000000,0.000000,2.000000
5,0.000023,0.000000,1.000000,0.196849,0.800000,0.000000,0.000000,0.978131,2.000000,1.000000,0.000000,0.000000,0.706022,1.000000,0.898417,0.000000,2.000000
6,0.000003,0.000000,1.000000,0.234769,0.800000,0.127679,0.000000,0.993872,2.000000,1.000000,0.269156,0.000000,0.723443,0.931972,1.000000,0.000000,1.000000
7,0.000001,0.000000,1.000000,0.234769,0.800000,0.127679,0.000000,0.993872,2.000000,1.000000,0.416317,0.000000,0.723443,0.931972,1.000000,0.000000,1.000000
8,0.000001,0.000000,1.000000,0.234769,0.800000,0.127679,0.000000,0.993872,2.000000,1.000000,0.416317,0.000000,0.723443,0.931972,1.000000,0.000000,1.000000
9,0.000001,0.000000,1.000000,0.234769,0.800000,0.127679,0.000000,0.993872,2.000000,1.000000,0.416317,0.000000,0.723443,0.931972,1.000000,0.000000,1.000000
10,0.000001,0.000000,1.000000,0.234769,0.800000,0.127679,0.000000,0.993872,2.000000,1.000000,0.416317,0.000000,0.723443,0.931972,1.000000,0.000000,1.000000
11,0.000001,0.000000,1.000000,0.234769,0.800000,0.127679,0.000000,0.993872,2.000000,1.000000,0.416317,0.000000,0.723443,0.931972,1.000000,0.000000,1.000000
12,0.000001,0.000000,1.000000,0.234769,0.800000,0.127679,0.000000,0.993872,1.000000,1.000000,0.416317,0.000000,0.709098,1.000000,1.000000,0.202248,2.000000
gen, fitness
0,0.011091,0.000000,1.000000,0.210000,0.800000,0.030000,0.030000,1.000000,0.000000,1.000000,0.000000,0.000000,0.600000,1.000000,1.000000,0.000000,0.000000
1,0.011091,0.000000,1.000000,0.210000,0.800000,0.030000,0.030000,1.000000,0.000000,1.000000,0.000000,0.000000,0.600000,1.000000,1.000000,0.000000,0.000000
2,0.000220,0.000000,1.000000,0.210000,0.676477,0.000000,0.030000,1.000000,2.000000,1.000000,0.000000,0.000000,0.600000,1.000000,1.000000,0.066918,1.000000
3,0.000151,0.000000,1.000000,0.210000,0.705465,0.030000,0.030000,1.000000,0.000000,0.953633,0.000000,0.000000,0.627631,1.000000,0.973865,0.000000,0.000000
4,0.000046,0.000000,1.000000,0.210000,0.705465,0.030000,0.030000,1.000000,0.000000,0.953633,0.000000,0.000000,0.627631,1.000000,1.000000,0.000000,2.000000
5,0.000016,0.000000,1.000000,0.210000,0.705465,0.030000,0.030000,1.000000,1.000000,0.953633,0.031652,0.013379,0.627631,1.000000,1.000000,0.000000,1.000000
6,0.000003,0.000000,1.000000,0.210000,0.698294,0.000000,0.000000,1.000000,2.000000,0.953633,0.000000,0.000000,0.627631,0.972606,1.000000,0.000000,2.000000
7,0.000003,0.000000,1.000000,0.210000,0.698294,0.000000,0.000000,1.000000,2.000000,0.953633,0.000000,0.000000,0.627631,0.972606,1.000000,0.000000,2.000000
8,0.000002,0.028155,1.000000,0.210000,0.705465,0.036523,0.030000,1.000000,2.000000,1.000000,0.000000,0.069257,0.600000,1.000000,0.973865,0.075085,1.000000
9,0.000000,0.000000,1.000000,0.210000,0.698294,0.000000,0.000000,1.000000,2.000000,0.953633,0.000000,0.000000,0.627631,0.972606,1.000000,0.037282,2.000000
gen, fitness
0,0.020988,0.000000,1.000000,0.210000,0.800000,0.030000,0.030000,1.000000,0.000000,1.000000,0.000000,0.000000,0.600000,1.000000,1.000000,0.000000,0.000000
1,0.020988,0.000000,1.000000,0.210000,0.800000,0.030000,0.030000,1.000000,0.000000,1.000000,0.000000,0.000000,0.600000,1.000000,1.000000,0.000000,0.000000
2,0.010141,0.000000,1.000000,0.210000,0.800000,0.067649,0.030000,1.000000,1.000000,1.000000,0.000000,0.000000,0.719571,0.943844,1.000000,0.000000,1.000000
3,0.008895,0.000000,1.000000,0.210000,0.800000,0.030000,0.030000,1.000000,1.000000,0.926526,0.000000,0.161342,0.670993,1.000000,1.000000,0.000000,2.000000
4,0.005909,0.000000,1.000000,0.280076,0.884632,0.000000,0.030000,1.000000,2.000000,0.995055,0.000000,0.000000,0.803275,1.000000,1.000000,0.000000,1.000000
5,0.004919,0.000000,1.000000,0.280076,0.863349,0.000000,0.030000,1.000000,2.000000,0.995055,0.000000,0.000000,0.803275,1.000000,1.000000,0.011647,0.000000
6,0.004699,0.000000,0.980747,0.383847,0.816299,0.000000,0.030000,1.000000,2.000000,0.903255,0.000000,0.000000,0.803275,0.850676,1.000000,0.000000,1.000000
7,0.004695,0.000000,0.980747,0.383847,0.816299,0.000000,0.030000,1.000000,2.000000,0.903255,0.056572,0.000000,0.803275,0.850676,1.000000,0.000000,1.000000
8,0.003926,0.000000,0.911474,0.380738,0.930053,0.000000,0.030000,0.965125,2.000000,1.000000,0.168329,0.000000,0.877568,1.000000,1.000000,0.115119,1.000000
9,0.002084,0.000000,0.906454,0.375410,0.930053,0.049684,0.030000,1.000000,2.000000,1.000000,0.032644,0.000000,0.921491,0.850676,1.000000,0.067490,2.000000
10,0.002084,0.000000,0.906454,0.375410,0.930053,0.049684,0.030000,1.000000,2.000000,1.000000,0.032644,0.000000,0.921491,0.850676,1.000000,0.067490,2.000000
11,0.000805,0.000000,0.906454,0.375410,0.994558,0.049684,0.000000,1.000000,2.000000,0.939683,0.036991,0.000000,1.000000,1.000000,1.000000,0.065399,1.000000
12,0.000560,0.000000,0.991798,0.375410,1.000000,0.049684,0.000000,0.961144,2.000000,0.939683,0.036991,0.000000,1.000000,1.000000,1.000000,0.149706,1.000000
13,0.000510,0.000000,0.906454,0.556666,0.994558,0.049684,0.000000,1.000000,2.000000,0.939683,0.025642,0.000000,1.000000,1.000000,1.000000,0.065399,1.000000
14,0.000463,0.000000,0.906454,0.556666,0.994558,0.049684,0.159454,1.000000,2.000000,0.939683,0.025642,0.005027,1.000000,1.000000,1.000000,0.065399,1.000000
15,0.000304,0.000000,0.906454,0.548351,0.994558,0.049684,0.123113,0.961144,2.000000,0.817505,0.036991,0.092416,1.000000,0.950106,1.000000,0.307294,2.000000
16,0.000284,0.000000,0.918726,0.548351,0.994558,0.049684,0.123113,1.000000,2.000000,0.817505,0.036991,0.092416,1.000000,1.000000,0.980388,0.065399,2.000000
17,0.000268,0.000000,0.906454,0.556666,0.990610,0.049684,0.123113,0.961144,2.000000,0.817505,0.036991,0.092416,1.000000,1.000000,0.980388,0.065399,2.000000
18,0.000262,0.033287,0.936740,0.571940,0.994558,0.000000,0.218850,1.000000,2.000000,0.939683,0.005238,0.092416,1.000000,0.950106,1.000000,0.307294,2.000000
19,0.000197,0.000000,0.918726,0.548351,0.994558,0.049684,0.123113,1.000000,2.000000,0.614125,0.036991,0.213017,1.000000,1.000000,0.980388,0.163562,2.000000
20,0.000172,0.084006,0.906454,0.508220,0.994558,0.098014,0.037946,1.000000,2.000000,0.636679,0.000000,0.226499,1.000000,0.950106,0.821976,0.270874,2.000000
21,0.000170,0.061379,0.906454,0.680305,0.990610,0.049684,0.021966,0.961144,2.000000,0.907346,0.036991,0.207089,1.000000,0.714959,1.000000,0.365084,2.000000
22,0.000140,0.000000,0.906454,0.508220,0.994558,0.000000,0.037946,1.000000,2.000000,0.566523,0.073330,0.226499,1.000000,0.950106,0.821976,0.335085,2.000000
23,0.000115,0.000000,0.710232,0.548351,0.994558,0.049684,0.027292,1.000000,2.000000,0.618296,0.107352,0.213017,1.000000,0.816334,0.540593,0.427963,2.000000
24,0.000111,0.000000,0.918726,0.508220,0.994558,0.000000,0.037946,1.000000,2.000000,0.566523,0.073330,0.262585,1.000000,0.816334,0.722851,0.454346,2.000000
25,0.000101,0.000000,0.918726,0.548351,1.000000,0.049684,0.210574,0.950442,2.000000,0.618296,0.107352,0.278072,1.000000,0.816334,0.540593,0.427963,2.000000
26,0.000089,0.000000,1.000000,0.548351,1.000000,0.091576,0.123113,1.000000,2.000000,0.618296,0.107352,0.287647,1.000000,0.830418,0.540593,0.472826,2.000000
27,0.000079,0.000000,0.791015,0.649337,0.994558,0.308494,0.295944,0.950442,2.000000,0.618296,0.107352,0.337236,1.000000,0.712600,0.540593,0.427963,2.000000
28,0.000066,0.000000,0.791015,0.649337,0.994558,0.308494,0.295944,1.000000,2.000000,0.618296,0.107352,0.337236,1.000000,0.712600,0.540593,0.511767,2.000000
29,0.000066,0.000000,0.838945,0.717357,0.994558,0.308494,0.295944,1.000000,2.000000,0.688462,0.107352,0.368155,1.000000,0.896590,0.540593,0.427963,2.000000
30,0.000040,0.000000,0.838945,0.717357,0.994558,0.308494,0.295944,1.000000,2.000000,0.612197,0.107352,0.368155,1.000000,0.896590,0.405740,0.427963,2.000000
31,0.000037,0.045267,0.791015,0.649337,1.000000,0.174855,0.486906,0.904577,2.000000,0.618296,0.107352,0.457140,1.000000,0.902220,0.540593,0.761799,2.000000
32,0.000024,0.000000,0.702162,0.717357,0.994558,0.259054,0.295944,0.956045,2.000000,0.618296,0.107352,0.457140,1.000000,0.862416,0.540593,0.858138,2.000000
33,0.000024,0.000000,0.702162,0.717357,0.994558,0.259054,0.295944,0.956045,2.000000,0.618296,0.107352,0.457140,1.000000,0.862416,0.540593,0.858138,2.000000
34,0.000024,0.000000,0.702162,0.717357,0.994558,0.259054,0.295944,0.956045,2.000000,0.618296,0.107352,0.457140,1.000000,0.862416,0.540593,0.858138,2.000000
35,0.000023,0.000000,0.763888,0.649337,0.994558,0.308494,0.298243,1.000000,2.000000,0.492292,0.217153,0.459758,1.000000,0.896590,0.540593,0.761799,2.000000
36,0.000019,0.000000,0.702162,0.717357,0.994558,0.202508,0.287501,0.898543,2.000000,0.552672,0.136975,0.457140,1.000000,1.000000,0.392443,0.761799,2.000000
37,0.000019,0.000000,0.702162,0.742820,0.994558,0.259054,0.295944,0.956045,2.000000,0.618296,0.107352,0.457140,1.000000,0.905490,0.540593,0.962782,2.000000
38,0.000018,0.000000,0.712048,0.717357,0.994558,0.259054,0.235974,0.956045,2.000000,0.618296,0.107352,0.457140,1.000000,0.905490,0.540593,0.962782,2.000000
39,0.000007,0.000000,0.903293,0.777542,0.994558,0.111115,0.549783,0.904577,2.000000,0.580307,0.107352,0.565718,1.000000,0.862416,0.624568,0.858138,2.000000
40,0.000007,0.000000,0.903293,0.777542,0.994558,0.111115,0.549783,0.904577,2.000000,0.580307,0.107352,0.565718,1.000000,0.862416,0.624568,0.858138,2.000000
41,0.000007,0.000000,0.903293,0.777542,0.994558,0.111115,0.549783,0.904577,2.000000,0.580307,0.107352,0.565718,1.000000,0.862416,0.624568,0.858138,2.000000
42,0.000007,0.000000,0.903293,0.777542,0.994558,0.074010,0.549783,0.904577,2.000000,0.580307,0.126816,0.565718,1.000000,0.862416,0.624568,0.858138,2.000000
43,0.000004,0.000000,0.968716,0.777542,0.994558,0.185569,0.549783,1.000000,2.000000,0.580307,0.144171,0.565718,1.000000,0.862416,0.624568,0.858138,2.000000
44,0.000002,0.000000,0.984954,0.777542,1.000000,0.000000,0.549783,0.904577,2.000000,0.570037,0.096365,0.651230,1.000000,0.959227,0.404678,0.761799,2.000000
45,0.000002,0.000000,0.984954,0.777542,1.000000,0.000000,0.549783,0.904577,2.000000,0.570037,0.096365,0.651230,1.000000,0.959227,0.404678,0.761799,2.000000
46,0.000000,0.000000,0.925053,0.777542,1.000000,0.000000,0.636100,1.000000,2.000000,0.586354,0.096365,0.651230,1.000000,1.000000,0.460837,0.882056,2.000000
