gen, fitness
0,0.013430,0.000000,1.000000,0.210000,0.800000,0.030000,0.030000,1.000000,0.000000,1.000000,0.000000,0.000000,0.600000,1.000000,1.000000,0.000000,0.000000
1,0.013430,0.000000,1.000000,0.210000,0.800000,0.030000,0.030000,1.000000,0.000000,1.000000,0.000000,0.000000,0.600000,1.000000,1.000000,0.000000,0.000000
2,0.000384,0.000000,1.000000,0.260475,0.673622,0.033085,0.030000,0.951856,0.000000,1.000000,0.050378,0.000000,0.600000,1.000000,1.000000,0.000000,0.000000
3,0.000051,0.000000,1.000000,0.210000,0.667552,0.153111,0.000000,0.987841,0.000000,1.000000,0.000000,0.000000,0.600000,1.000000,1.000000,0.053420,0.000000
4,0.000026,0.092958,1.000000,0.210000,0.667552,0.153111,0.000000,0.987841,0.000000,1.000000,0.000000,0.000000,0.607196,1.000000,1.000000,0.000000,2.000000
5,0.000022,0.021992,0.830997,0.260475,0.660214,0.172370,0.000000,0.891946,0.000000,1.000000,0.068720,0.186784,0.473786,1.000000,1.000000,0.208837,0.000000
6,0.000008,0.000000,1.000000,0.210000,0.667552,0.153111,0.000000,0.987841,0.000000,1.000000,0.000000,0.000000,0.590112,1.000000,1.000000,0.000000,0.000000
7,0.000008,0.000000,1.000000,0.210000,0.667552,0.153111,0.000000,0.987841,0.000000,1.000000,0.000000,0.000000,0.590112,1.000000,1.000000,0.000000,0.000000
8,0.000002,0.092958,1.000000,0.210000,0.667552,0.153111,0.000000,0.987841,0.000000,0.990794,0.000000,0.000000,0.607196,1.000000,1.000000,0.229757,0.000000
9,0.000002,0.092958,1.000000,0.210000,0.667552,0.153111,0.000000,0.987841,0.000000,0.990794,0.000000,0.000000,0.607196,1.000000,1.000000,0.229757,0.000000
10,0.000001,0.000000,1.000000,0.210000,0.673241,0.153111,0.000000,0.987841,0.000000,1.000000,0.187603,0.175661,0.473786,1.000000,1.000000,0.104077,0.000000
11,0.000001,0.000000,1.000000,0.210000,0.673241,0.153111,0.000000,0.987841,0.000000,1.000000,0.187603,0.175661,0.473786,1.000000,1.000000,0.104077,0.000000
12,0.000001,0.000000,1.000000,0.210000,0.673241,0.153111,0.000000,0.987841,0.000000,1.000000,0.187603,0.175661,0.473786,1.000000,1.000000,0.104077,0.000000
13,0.000001,0.000000,1.000000,0.210000,0.673241,0.153111,0.000000,0.987841,0.000000,1.000000,0.187603,0.175661,0.473786,1.000000,1.000000,0.104077,0.000000
14,0.000001,0.000000,0.862636,0.214729,0.667552,0.112698,0.010114,0.987841,0.000000,1.000000,0.022437,0.000000,0.590112,0.783625,0.858927,0.094857,0.000000
gen, fitness
0,0.034276,0.000000,1.000000,0.210000,0.800000,0.030000,0.030000,1.000000,0.000000,1.000000,0.000000,0.000000,0.600000,1.000000,1.000000,0.000000,0.000000
1,0.034276,0.000000,1.000000,0.210000,0.800000,0.030000,0.030000,1.000000,0.000000,1.000000,0.000000,0.000000,0.600000,1.000000,1.000000,0.000000,0.000000
2,0.020502,0.000000,0.918599,0.210000,0.800000,0.030000,0.030000,1.000000,2.000000,1.000000,0.000000,0.000000,0.729960,1.000000,1.000000,0.024753,0.000000
3,0.016274,0.000000,0.927162,0.178192,0.913886,0.030000,0.049158,1.000000,1.000000,1.000000,0.000000,0.000000,0.805901,1.000000,1.000000,0.000000,0.000000
4,0.007233,0.000000,0.966757,0.173552,0.953064,0.062612,0.030000,1.000000,1.000000,0.949706,0.000000,0.000000,0.908039,0.943627,1.000000,0.000000,1.000000
5,0.004312,0.038569,0.971990,0.281445,0.978923,0.000000,0.030000,1.000000,2.000000,1.000000,0.022691,0.125119,0.937050,1.000000,0.730981,0.081378,2.000000
6,0.004312,0.038569,0.971990,0.281445,0.978923,0.000000,0.030000,1.000000,2.000000,1.000000,0.022691,0.125119,0.937050,1.000000,0.730981,0.081378,2.000000
7,0.004042,0.000000,1.000000,0.281445,1.000000,0.070474,0.030000,1.000000,2.000000,1.000000,0.218180,0.125119,0.961902,1.000000,0.822590,0.071094,1.000000
8,0.002913,0.000000,1.000000,0.281445,1.000000,0.140296,0.030000,1.000000,2.000000,1.000000,0.218180,0.125119,1.000000,1.000000,0.907650,0.071094,2.000000
9,0.002717,0.030981,1.000000,0.417369,1.000000,0.000000,0.000000,0.862311,1.000000,0.954060,0.022691,0.117426,1.000000,1.000000,0.733909,0.230135,2.000000
10,0.002246,0.000000,0.972283,0.291065,1.000000,0.070474,0.030000,0.901715,2.000000,0.794542,0.000000,0.208701,1.000000,0.736166,1.000000,0.145995,2.000000
11,0.002113,0.000000,0.972283,0.291065,1.000000,0.070474,0.000000,0.901715,2.000000,0.794542,0.000000,0.208701,1.000000,0.736166,1.000000,0.261756,2.000000
12,0.002070,0.000000,0.972283,0.405824,1.000000,0.119598,0.000000,0.932437,2.000000,0.794542,0.000000,0.208701,1.000000,0.736166,1.000000,0.261756,2.000000
13,0.002070,0.000000,0.972283,0.405824,1.000000,0.119598,0.000000,0.932437,2.000000,0.794542,0.000000,0.208701,1.000000,0.736166,1.000000,0.261756,2.000000
14,0.001662,0.000000,0.972283,0.291065,1.000000,0.070474,0.140907,0.901715,2.000000,0.794542,0.119246,0.398731,0.975347,0.793561,1.000000,0.314760,2.000000
15,0.001521,0.000000,0.940090,0.470989,1.000000,0.070474,0.022566,0.901715,2.000000,0.794542,0.223846,0.422235,1.000000,0.736166,1.000000,0.258293,2.000000
16,0.001274,0.117481,1.000000,0.453240,1.000000,0.083078,0.025604,0.889628,2.000000,0.765058,0.205554,0.574622,1.000000,0.821272,1.000000,0.422121,2.000000
17,0.001274,0.117481,1.000000,0.453240,1.000000,0.083078,0.025604,0.889628,2.000000,0.765058,0.205554,0.574622,1.000000,0.821272,1.000000,0.422121,2.000000
18,0.001155,0.000000,0.972283,0.539451,1.000000,0.083078,0.025604,0.889628,2.000000,0.688809,0.263358,0.574622,1.000000,0.821272,0.989849,0.262411,2.000000
19,0.001142,0.000000,0.972283,0.532749,1.000000,0.000000,0.025604,0.889628,2.000000,0.635173,0.263358,0.574622,1.000000,0.894131,0.897499,0.262411,2.000000
20,0.001062,0.000000,0.955202,0.600928,1.000000,0.083078,0.116628,0.889628,2.000000,0.714086,0.182166,0.574622,1.000000,0.821272,1.000000,0.456789,2.000000
21,0.000949,0.000000,0.972711,0.600928,1.000000,0.083078,0.116628,0.889628,2.000000,0.714086,0.412801,0.643173,1.000000,0.821272,1.000000,0.456789,2.000000
22,0.000884,0.029975,1.000000,0.438401,1.000000,0.010990,0.140907,0.861252,2.000000,0.459486,0.007375,0.818022,1.000000,0.821272,1.000000,0.562267,2.000000
23,0.000790,0.019631,1.000000,0.483587,1.000000,0.000000,0.217000,0.965911,2.000000,0.459486,0.007375,0.798223,1.000000,0.821272,1.000000,0.562267,2.000000
24,0.000790,0.019631,1.000000,0.483587,1.000000,0.000000,0.217000,0.965911,2.000000,0.459486,0.007375,0.798223,1.000000,0.821272,1.000000,0.562267,2.000000
25,0.000725,0.177346,1.000000,0.438401,1.000000,0.051561,0.000000,0.839396,2.000000,0.459486,0.070281,0.858955,1.000000,0.821272,1.000000,0.689938,2.000000
26,0.000711,0.177346,1.000000,0.470724,1.000000,0.051561,0.000000,0.839396,2.000000,0.459486,0.122013,0.858955,1.000000,0.893131,1.000000,0.689938,2.000000
27,0.000642,0.028906,1.000000,0.589813,1.000000,0.000000,0.163160,1.000000,2.000000,0.459486,0.070281,0.858955,1.000000,0.659873,1.000000,0.689938,2.000000
28,0.000547,0.028906,1.000000,0.589813,1.000000,0.000000,0.163160,1.000000,2.000000,0.459486,0.070281,1.000000,1.000000,0.659873,1.000000,0.689938,2.000000
29,0.000541,0.028906,1.000000,0.589813,1.000000,0.000000,0.184124,1.000000,2.000000,0.459486,0.105142,1.000000,1.000000,0.731850,1.000000,0.689938,2.000000
30,0.000541,0.028906,1.000000,0.589813,1.000000,0.000000,0.184124,1.000000,2.000000,0.459486,0.105142,1.000000,1.000000,0.731850,1.000000,0.689938,2.000000
31,0.000537,0.028906,1.000000,0.589813,1.000000,0.000000,0.163160,0.908441,2.000000,0.459486,0.344673,1.000000,1.000000,0.762537,1.000000,0.689938,2.000000
32,0.000509,0.028906,0.918297,0.637740,1.000000,0.000000,0.168486,0.981696,2.000000,0.459486,0.000000,1.000000,1.000000,0.659873,1.000000,0.833504,2.000000
33,0.000509,0.028906,0.918297,0.637740,1.000000,0.000000,0.168486,0.981696,2.000000,0.459486,0.000000,1.000000,1.000000,0.659873,1.000000,0.833504,2.000000
34,0.000487,0.028906,0.964539,0.589813,1.000000,0.051561,0.000000,1.000000,2.000000,0.373559,0.344673,0.982480,1.000000,0.821272,1.000000,0.874132,2.000000
35,0.000487,0.028906,0.964539,0.589813,1.000000,0.051561,0.000000,1.000000,2.000000,0.373559,0.344673,0.982480,1.000000,0.821272,1.000000,0.874132,2.000000
36,0.000458,0.000000,1.000000,0.609165,1.000000,0.152482,0.000000,1.000000,2.000000,0.459486,0.318944,1.000000,1.000000,0.812184,1.000000,0.874132,2.000000
37,0.000435,0.000000,1.000000,0.609165,1.000000,0.152482,0.000000,1.000000,2.000000,0.459486,0.318944,1.000000,1.000000,0.812184,1.000000,0.969576,2.000000
38,0.000435,0.000000,1.000000,0.609165,1.000000,0.152482,0.000000,1.000000,2.000000,0.459486,0.318944,1.000000,1.000000,0.812184,1.000000,0.969576,2.000000
39,0.000435,0.000000,1.000000,0.609165,1.000000,0.152482,0.000000,1.000000,2.000000,0.459486,0.318944,1.000000,1.000000,0.812184,1.000000,0.969576,2.000000
40,0.000435,0.000000,1.000000,0.609165,1.000000,0.152482,0.000000,1.000000,2.000000,0.459486,0.318944,1.000000,1.000000,0.812184,1.000000,0.969576,2.000000
41,0.000435,0.000000,1.000000,0.609165,1.000000,0.152482,0.000000,1.000000,2.000000,0.459486,0.318944,1.000000,1.000000,0.812184,1.000000,0.969576,2.000000
42,0.000429,0.000000,0.922302,0.609165,1.000000,0.000000,0.000000,1.000000,2.000000,0.421915,0.056546,0.997101,1.000000,0.853764,0.955689,0.987205,2.000000
43,0.000429,0.000000,0.922302,0.609165,1.000000,0.000000,0.000000,1.000000,2.000000,0.421915,0.056546,0.997101,1.000000,0.853764,0.955689,0.987205,2.000000
44,0.000427,0.000000,0.922302,0.609165,1.000000,0.000000,0.000000,1.000000,2.000000,0.459486,0.318944,1.000000,1.000000,0.812184,1.000000,0.969576,2.000000
45,0.000420,0.000000,1.000000,0.609165,1.000000,0.057414,0.000000,0.970962,2.000000,0.459486,0.567825,1.000000,1.000000,0.901234,1.000000,0.969576,2.000000
46,0.000420,0.000000,1.000000,0.609165,1.000000,0.057414,0.000000,0.970962,2.000000,0.459486,0.567825,1.000000,1.000000,0.901234,1.000000,0.969576,2.000000
47,0.000406,0.000000,1.000000,0.609165,1.000000,0.057414,0.000000,0.970962,2.000000,0.459486,0.567825,1.000000,1.000000,1.000000,1.000000,1.000000,2.000000
48,0.000406,0.000000,1.000000,0.609165,1.000000,0.057414,0.000000,0.970962,2.000000,0.459486,0.567825,1.000000,1.000000,1.000000,1.000000,1.000000,2.000000
49,0.000406,0.000000,1.000000,0.609165,1.000000,0.057414,0.000000,0.970962,2.000000,0.459486,0.567825,1.000000,1.000000,1.000000,1.000000,1.000000,2.000000
50,0.000399,0.000000,1.000000,0.609165,1.000000,0.000000,0.000000,0.992475,2.000000,0.459486,0.571983,1.000000,1.000000,0.990345,1.000000,1.000000,2.000000
51,0.000399,0.000000,1.000000,0.609165,1.000000,0.000000,0.000000,0.992475,2.000000,0.459486,0.571983,1.000000,1.000000,0.990345,1.000000,1.000000,2.000000
52,0.000399,0.000000,1.000000,0.609165,1.000000,0.000000,0.000000,0.992475,2.000000,0.459486,0.571983,1.000000,1.000000,0.990345,1.000000,1.000000,2.000000
53,0.000399,0.000000,1.000000,0.609165,1.000000,0.000000,0.000000,0.992475,2.000000,0.459486,0.571983,1.000000,1.000000,0.990345,1.000000,1.000000,2.000000
54,0.000399,0.000000,1.000000,0.609165,1.000000,0.000000,0.000000,0.992475,2.000000,0.459486,0.571983,1.000000,1.000000,0.990345,1.000000,1.000000,2.000000
55,0.000399,0.000000,1.000000,0.609165,1.000000,0.000000,0.000000,0.992475,2.000000,0.459486,0.571983,1.000000,1.000000,0.990345,1.000000,1.000000,2.000000
56,0.000399,0.000000,1.000000,0.609165,1.000000,0.000000,0.000000,0.992475,2.000000,0.459486,0.571983,1.000000,1.000000,0.990345,1.000000,1.000000,2.000000
57,0.000399,0.000000,1.000000,0.609165,1.000000,0.000000,0.000000,0.992475,2.000000,0.459486,0.571983,1.000000,1.000000,0.990345,1.000000,1.000000,2.000000
gen, fitness
0,0.044384,0.000000,1.000000,0.210000,0.800000,0.030000,0.030000,1.000000,0.000000,1.000000,0.000000,0.000000,0.600000,1.000000,1.000000,0.000000,0.000000
1,0.044384,0.000000,1.000000,0.210000,0.800000,0.030000,0.030000,1.000000,0.000000,1.000000,0.000000,0.000000,0.600000,1.000000,1.000000,0.000000,0.000000
2,0.025027,0.000000,1.000000,0.333084,0.800000,0.030000,0.030000,1.000000,2.000000,1.000000,0.000000,0.000000,0.756655,1.000000,1.000000,0.013994,0.000000
3,0.025027,0.000000,1.000000,0.333084,0.800000,0.030000,0.030000,1.000000,2.000000,1.000000,0.000000,0.000000,0.756655,1.000000,1.000000,0.013994,0.000000
4,0.018340,0.000000,1.000000,0.613899,0.830030,0.184353,0.097942,0.989894,0.000000,0.850465,0.037162,0.000000,0.899682,1.000000,0.875703,0.000000,1.000000
5,0.018340,0.000000,1.000000,0.613899,0.830030,0.184353,0.097942,0.989894,0.000000,0.850465,0.037162,0.000000,0.899682,1.000000,0.875703,0.000000,1.000000
6,0.013688,0.000000,1.000000,0.783575,0.830030,0.061013,0.097942,0.989894,2.000000,0.861495,0.037162,0.000000,0.899682,1.000000,0.875703,0.101973,2.000000
7,0.013688,0.000000,1.000000,0.783575,0.830030,0.061013,0.097942,0.989894,2.000000,0.861495,0.037162,0.000000,0.899682,1.000000,0.875703,0.101973,2.000000
8,0.013492,0.000000,0.909207,0.783575,0.850318,0.061013,0.010675,0.989894,2.000000,0.861495,0.037162,0.000000,0.899682,1.000000,0.875703,0.101973,2.000000
9,0.012543,0.177349,0.927770,0.783575,0.880523,0.178976,0.248398,1.000000,2.000000,0.660384,0.000000,0.088983,0.976956,0.761176,0.722912,0.000000,2.000000
10,0.011806,0.000000,1.000000,0.783575,0.880523,0.012071,0.097942,1.000000,2.000000,0.754162,0.000000,0.088983,0.949066,1.000000,0.807637,0.219648,2.000000
11,0.009476,0.000000,1.000000,0.740375,0.978411,0.016043,0.000000,1.000000,2.000000,0.861495,0.037162,0.000000,1.000000,1.000000,0.785551,0.173391,1.000000
12,0.009476,0.000000,1.000000,0.740375,0.978411,0.016043,0.000000,1.000000,2.000000,0.861495,0.037162,0.000000,1.000000,1.000000,0.785551,0.173391,1.000000
13,0.008775,0.000000,1.000000,0.883624,1.000000,0.133876,0.289077,1.000000,0.000000,1.000000,0.188671,0.370404,1.000000,1.000000,1.000000,0.051698,2.000000
14,0.008479,0.000000,1.000000,0.883624,1.000000,0.133876,0.289077,1.000000,1.000000,0.944866,0.188671,0.370404,1.000000,1.000000,1.000000,0.021312,2.000000
15,0.008338,0.000000,1.000000,0.883624,1.000000,0.133876,0.289077,1.000000,2.000000,0.944866,0.188671,0.370404,1.000000,1.000000,1.000000,0.000000,2.000000
16,0.008122,0.000000,1.000000,0.883624,1.000000,0.223860,0.109699,1.000000,2.000000,0.868676,0.188671,0.550131,0.995966,0.882121,1.000000,0.021312,2.000000
17,0.007923,0.000582,1.000000,0.883624,1.000000,0.223860,0.109699,0.982391,2.000000,0.868676,0.226328,0.550131,1.000000,0.882121,1.000000,0.057931,2.000000
18,0.007460,0.000000,1.000000,0.970375,1.000000,0.223860,0.109699,0.982391,2.000000,0.868676,0.226328,0.798545,1.000000,0.882121,1.000000,0.057931,2.000000
19,0.007460,0.000000,1.000000,0.970375,1.000000,0.223860,0.109699,0.982391,2.000000,0.868676,0.226328,0.798545,1.000000,0.882121,1.000000,0.057931,2.000000
20,0.007241,0.000582,1.000000,1.000000,1.000000,0.223860,0.109699,0.982391,2.000000,0.926578,0.226328,0.941508,1.000000,0.882121,1.000000,0.057931,2.000000
21,0.007241,0.000582,1.000000,1.000000,1.000000,0.223860,0.109699,0.982391,2.000000,0.926578,0.226328,0.941508,1.000000,0.882121,1.000000,0.057931,2.000000
22,0.007190,0.000582,1.000000,1.000000,1.000000,0.223860,0.060182,0.982391,2.000000,0.926578,0.226328,0.941508,1.000000,0.882121,1.000000,0.155862,2.000000
23,0.007009,0.000000,0.925580,1.000000,1.000000,0.000000,0.007191,1.000000,2.000000,0.973456,0.317149,1.000000,1.000000,0.852810,1.000000,0.291439,2.000000
24,0.007009,0.000000,0.925580,1.000000,1.000000,0.000000,0.007191,1.000000,2.000000,0.973456,0.317149,1.000000,1.000000,0.852810,1.000000,0.291439,2.000000
25,0.007009,0.000000,0.925580,1.000000,1.000000,0.000000,0.007191,1.000000,2.000000,0.973456,0.317149,1.000000,1.000000,0.852810,1.000000,0.291439,2.000000
26,0.006925,0.000000,0.861659,1.000000,1.000000,0.006963,0.138287,1.000000,2.000000,0.809495,0.104100,1.000000,1.000000,0.882121,0.931213,0.250659,2.000000
27,0.006805,0.000000,0.872819,0.938220,1.000000,0.000000,0.000000,1.000000,2.000000,0.758670,0.479758,1.000000,1.000000,0.939135,0.836575,0.487183,2.000000
28,0.006733,0.000000,0.939620,0.938220,1.000000,0.000000,0.000000,1.000000,2.000000,0.746454,0.613761,1.000000,1.000000,0.939135,0.663322,0.575605,2.000000
29,0.006718,0.000000,0.962724,0.938220,1.000000,0.000000,0.000000,1.000000,2.000000,0.746454,0.613761,1.000000,1.000000,0.939135,0.601160,0.575605,2.000000
30,0.006664,0.000000,0.939620,0.938220,1.000000,0.000000,0.000000,1.000000,2.000000,0.746454,0.518129,1.000000,1.000000,0.939135,0.712840,0.722094,2.000000
31,0.006664,0.000000,0.939620,0.938220,1.000000,0.000000,0.000000,1.000000,2.000000,0.746454,0.518129,1.000000,1.000000,0.939135,0.712840,0.722094,2.000000
32,0.006664,0.000000,0.939620,0.938220,1.000000,0.000000,0.000000,1.000000,2.000000,0.746454,0.518129,1.000000,1.000000,0.939135,0.712840,0.722094,2.000000
33,0.006635,0.000000,0.754730,1.000000,1.000000,0.000000,0.000000,1.000000,2.000000,0.907248,0.479758,1.000000,1.000000,0.939135,0.603714,0.877482,2.000000
34,0.006619,0.000000,0.754730,1.000000,1.000000,0.016253,0.000000,1.000000,2.000000,0.879515,0.479758,1.000000,1.000000,0.939135,0.603714,0.877482,2.000000
35,0.006619,0.000000,0.754730,1.000000,1.000000,0.016253,0.000000,1.000000,2.000000,0.879515,0.479758,1.000000,1.000000,0.939135,0.603714,0.877482,2.000000
36,0.006590,0.000000,0.928070,1.000000,1.000000,0.065233,0.000000,1.000000,2.000000,0.811992,0.520249,1.000000,1.000000,0.939135,0.522857,0.877482,2.000000
37,0.006584,0.000000,1.000000,0.959019,1.000000,0.000000,0.000000,1.000000,2.000000,0.836207,0.518326,1.000000,1.000000,0.969425,0.837758,0.969719,2.000000
38,0.006558,0.000000,1.000000,1.000000,0.998579,0.000000,0.000000,1.000000,2.000000,0.892291,0.520249,1.000000,1.000000,0.939135,0.451624,0.974544,2.000000
39,0.006512,0.000000,0.954253,1.000000,0.998579,0.000000,0.026245,1.000000,2.000000,0.836207,0.373995,1.000000,1.000000,1.000000,0.663572,1.000000,2.000000
40,0.006512,0.000000,0.954253,1.000000,0.998579,0.000000,0.026245,1.000000,2.000000,0.836207,0.373995,1.000000,1.000000,1.000000,0.663572,1.000000,2.000000
41,0.006512,0.000000,0.954253,1.000000,0.998579,0.000000,0.026245,1.000000,2.000000,0.836207,0.373995,1.000000,1.000000,1.000000,0.663572,1.000000,2.000000
42,0.006471,0.000000,0.954253,0.997347,0.998579,0.000000,0.026245,1.000000,2.000000,0.771930,0.269870,1.000000,1.000000,0.939135,0.479873,0.957480,2.000000
43,0.006471,0.000000,0.954253,0.997347,0.998579,0.000000,0.026245,1.000000,2.000000,0.771930,0.269870,1.000000,1.000000,0.939135,0.479873,0.957480,2.000000
44,0.006471,0.000000,0.954253,0.997347,0.998579,0.000000,0.026245,1.000000,2.000000,0.771930,0.269870,1.000000,1.000000,0.939135,0.479873,0.957480,2.000000
45,0.006435,0.000000,0.928070,1.000000,1.000000,0.065233,0.071359,1.000000,2.000000,0.735824,0.269870,1.000000,1.000000,0.939135,0.272568,0.990660,2.000000
46,0.006435,0.000000,0.928070,1.000000,1.000000,0.065233,0.071359,1.000000,2.000000,0.735824,0.269870,1.000000,1.000000,0.939135,0.272568,0.990660,2.000000
47,0.006414,0.000000,0.853632,1.000000,1.000000,0.000000,0.000000,0.986274,2.000000,0.771930,0.170532,1.000000,1.000000,0.939135,0.272568,0.990660,2.000000
48,0.006414,0.000000,0.853632,1.000000,1.000000,0.000000,0.000000,0.986274,2.000000,0.771930,0.170532,1.000000,1.000000,0.939135,0.272568,0.990660,2.000000
49,0.006414,0.000000,0.853632,1.000000,1.000000,0.000000,0.000000,0.986274,2.000000,0.771930,0.170532,1.000000,1.000000,0.939135,0.272568,0.990660,2.000000
50,0.006404,0.000000,0.928070,1.000000,1.000000,0.065233,0.071359,1.000000,2.000000,0.609734,0.338743,1.000000,1.000000,0.988947,0.000000,0.946675,2.000000
51,0.006400,0.000000,0.928070,1.000000,1.000000,0.065233,0.005631,1.000000,2.000000,0.609734,0.338743,1.000000,1.000000,0.988947,0.000000,0.946675,2.000000
52,0.006400,0.000000,0.928070,1.000000,1.000000,0.065233,0.005631,1.000000,2.000000,0.609734,0.338743,1.000000,1.000000,0.988947,0.000000,0.946675,2.000000
53,0.006385,0.000000,0.928070,1.000000,1.000000,0.065233,0.049961,1.000000,2.000000,0.609734,0.338743,1.000000,1.000000,0.988947,0.004703,1.000000,2.000000
54,0.006379,0.000000,0.903100,1.000000,1.000000,0.065233,0.000000,1.000000,2.000000,0.737327,0.233111,1.000000,1.000000,1.000000,0.159365,1.000000,2.000000
55,0.006370,0.000000,0.808208,1.000000,1.000000,0.045854,0.071359,1.000000,2.000000,0.735824,0.164143,1.000000,1.000000,1.000000,0.126999,1.000000,2.000000
56,0.006370,0.000000,0.808208,1.000000,1.000000,0.045854,0.071359,1.000000,2.000000,0.735824,0.164143,1.000000,1.000000,1.000000,0.126999,1.000000,2.000000
57,0.006326,0.000000,0.928070,0.975076,1.000000,0.065233,0.062693,1.000000,2.000000,0.668053,0.126620,1.000000,1.000000,1.000000,0.011134,0.982211,2.000000
58,0.006325,0.000000,0.944617,0.975076,1.000000,0.065233,0.062693,1.000000,2.000000,0.668053,0.126620,1.000000,1.000000,1.000000,0.011134,0.982211,2.000000
59,0.006325,0.000000,0.944617,0.975076,1.000000,0.065233,0.062693,1.000000,2.000000,0.668053,0.126620,1.000000,1.000000,1.000000,0.011134,0.982211,2.000000
60,0.006325,0.000000,0.944617,0.975076,1.000000,0.065233,0.062693,1.000000,2.000000,0.668053,0.126620,1.000000,1.000000,1.000000,0.011134,0.982211,2.000000
61,0.006325,0.000000,0.944617,0.975076,1.000000,0.065233,0.062693,1.000000,2.000000,0.668053,0.126620,1.000000,1.000000,1.000000,0.011134,0.982211,2.000000
62,0.006307,0.000000,0.969773,0.887070,1.000000,0.065233,0.171643,1.000000,2.000000,0.413857,0.126620,1.000000,1.000000,0.953378,0.004703,1.000000,2.000000
63,0.006291,0.000000,0.859405,0.887070,1.000000,0.065233,0.003969,1.000000,2.000000,0.529498,0.126620,1.000000,1.000000,0.953378,0.000000,1.000000,2.000000
64,0.006270,0.000000,0.846823,0.853203,1.000000,0.065233,0.171643,1.000000,2.000000,0.413857,0.126620,1.000000,1.000000,1.000000,0.000000,0.998982,2.000000
65,0.006270,0.000000,0.846823,0.853203,1.000000,0.065233,0.171643,1.000000,2.000000,0.413857,0.126620,1.000000,1.000000,1.000000,0.000000,0.998982,2.000000
66,0.006245,0.000000,1.000000,0.853203,1.000000,0.065233,0.217677,1.000000,2.000000,0.413857,0.000000,1.000000,1.000000,1.000000,0.000000,0.998982,2.000000
67,0.006245,0.000000,1.000000,0.853203,1.000000,0.065233,0.217677,1.000000,2.000000,0.413857,0.000000,1.000000,1.000000,1.000000,0.000000,0.998982,2.000000
68,0.006245,0.000000,1.000000,0.853203,1.000000,0.065233,0.217677,1.000000,2.000000,0.413857,0.000000,1.000000,1.000000,1.000000,0.000000,0.998982,2.000000
69,0.006245,0.000000,1.000000,0.853203,1.000000,0.065233,0.217677,1.000000,2.000000,0.413857,0.000000,1.000000,1.000000,1.000000,0.000000,0.998982,2.000000
70,0.006245,0.000000,1.000000,0.853203,1.000000,0.065233,0.217677,1.000000,2.000000,0.413857,0.000000,1.000000,1.000000,1.000000,0.000000,0.998982,2.000000
71,0.006242,0.000000,0.889024,0.853203,1.000000,0.000000,0.141293,1.000000,2.000000,0.413857,0.126620,1.000000,1.000000,1.000000,0.000000,1.000000,2.000000
72,0.006242,0.000000,0.889024,0.853203,1.000000,0.000000,0.141293,1.000000,2.000000,0.413857,0.126620,1.000000,1.000000,1.000000,0.000000,1.000000,2.000000
73,0.006242,0.000000,0.889024,0.853203,1.000000,0.000000,0.141293,1.000000,2.000000,0.413857,0.126620,1.000000,1.000000,1.000000,0.000000,1.000000,2.000000
74,0.006227,0.000000,0.958768,0.864427,1.000000,0.000000,0.141293,1.000000,2.000000,0.413857,0.000000,1.000000,1.000000,1.000000,0.000000,1.000000,2.000000
75,0.006218,0.000000,0.958768,0.986406,0.988700,0.000000,0.141293,1.000000,2.000000,0.367806,0.074101,1.000000,1.000000,0.993221,0.026823,1.000000,2.000000
76,0.006218,0.000000,0.958768,0.986406,0.988700,0.000000,0.141293,1.000000,2.000000,0.367806,0.074101,1.000000,1.000000,0.993221,0.026823,1.000000,2.000000
77,0.006218,0.000000,0.958768,0.986406,0.988700,0.000000,0.141293,1.000000,2.000000,0.367806,0.074101,1.000000,1.000000,0.993221,0.026823,1.000000,2.000000
78,0.006218,0.000000,0.958768,0.986406,0.988700,0.000000,0.141293,1.000000,2.000000,0.367806,0.074101,1.000000,1.000000,0.993221,0.026823,1.000000,2.000000
79,0.006218,0.000000,0.958768,0.986406,0.988700,0.000000,0.141293,1.000000,2.000000,0.367806,0.074101,1.000000,1.000000,0.993221,0.026823,1.000000,2.000000
80,0.006191,0.000000,0.781755,0.919910,0.988700,0.000000,0.063678,1.000000,2.000000,0.225537,0.013042,1.000000,1.000000,0.978835,0.000000,1.000000,2.000000
81,0.006191,0.000000,0.781755,0.919910,0.988700,0.000000,0.063678,1.000000,2.000000,0.225537,0.013042,1.000000,1.000000,0.978835,0.000000,1.000000,2.000000
82,0.006191,0.000000,0.781755,0.919910,0.988700,0.000000,0.063678,1.000000,2.000000,0.225537,0.013042,1.000000,1.000000,0.978835,0.000000,1.000000,2.000000
83,0.006191,0.000000,0.781755,0.919910,0.988700,0.000000,0.063678,1.000000,2.000000,0.225537,0.013042,1.000000,1.000000,0.978835,0.000000,1.000000,2.000000
84,0.006191,0.000000,0.781755,0.919910,0.988700,0.000000,0.063678,1.000000,2.000000,0.225537,0.013042,1.000000,1.000000,0.978835,0.000000,1.000000,2.000000
85,0.006191,0.000000,0.781755,0.919910,0.988700,0.000000,0.063678,1.000000,2.000000,0.225537,0.013042,1.000000,1.000000,0.978835,0.000000,1.000000,2.000000
86,0.006191,0.000000,0.781755,0.919910,0.988700,0.000000,0.063678,1.000000,2.000000,0.225537,0.013042,1.000000,1.000000,0.978835,0.000000,1.000000,2.000000
87,0.006191,0.000000,0.781755,0.919910,0.988700,0.000000,0.063678,1.000000,2.000000,0.225537,0.013042,1.000000,1.000000,0.978835,0.000000,1.000000,2.000000
88,0.006191,0.000000,0.781755,0.919910,0.988700,0.000000,0.063678,1.000000,2.000000,0.225537,0.013042,1.000000,1.000000,0.978835,0.000000,1.000000,2.000000
89,0.006191,0.000000,0.781755,0.919910,0.988700,0.000000,0.063678,1.000000,2.000000,0.225537,0.013042,1.000000,1.000000,0.978835,0.000000,1.000000,2.000000
90,0.006191,0.000000,0.781755,0.919910,0.988700,0.000000,0.063678,1.000000,2.000000,0.225537,0.013042,1.000000,1.000000,0.978835,0.000000,1.000000,2.000000
gen, fitness
0,0.006335,0.000000,1.000000,0.210000,0.800000,0.030000,0.030000,1.000000,0.000000,1.000000,0.000000,0.000000,0.600000,1.000000,1.000000,0.000000,0.000000
1,0.006335,0.000000,1.000000,0.210000,0.800000,0.030000,0.030000,1.000000,0.000000,1.000000,0.000000,0.000000,0.600000,1.000000,1.000000,0.000000,0.000000
2,0.000176,0.000000,1.000000,0.226301,0.800000,0.000000,0.030000,1.000000,0.000000,1.000000,0.000000,0.006605,0.705217,1.000000,0.895120,0.000926,0.000000
3,0.000015,0.000000,0.920832,0.156324,0.800000,0.030000,0.030000,1.000000,0.000000,1.000000,0.000000,0.000000,0.672724,1.000000,1.000000,0.000000,2.000000
4,0.000000,0.000000,1.000000,0.210000,0.783173,0.030000,0.030000,1.000000,0.000000,1.000000,0.000000,0.000000,0.675528,1.000000,1.000000,0.000000,0.000000
gen, fitness
0,0.018541,0.000000,1.000000,0.210000,0.800000,0.030000,0.030000,1.000000,0.000000,1.000000,0.000000,0.000000,0.600000,1.000000,1.000000,0.000000,0.000000
1,0.018541,0.000000,1.000000,0.210000,0.800000,0.030000,0.030000,1.000000,0.000000,1.000000,0.000000,0.000000,0.600000,1.000000,1.000000,0.000000,0.000000
2,0.007008,0.000000,1.000000,0.210000,0.839038,0.030000,0.030000,1.000000,2.000000,1.000000,0.000000,0.041646,0.703427,1.000000,0.946686,0.000000,0.000000
3,0.005456,0.000000,0.954871,0.210000,0.800000,0.030000,0.000000,1.000000,2.000000,0.799205,0.028483,0.000000,0.725122,1.000000,1.000000,0.000000,1.000000
4,0.003610,0.000000,1.000000,0.210000,0.843234,0.030000,0.030000,1.000000,2.000000,1.000000,0.000000,0.041646,0.756007,1.000000,0.946686,0.000000,0.000000
5,0.002030,0.000000,0.897339,0.207389,0.880453,0.000000,0.030000,0.977271,0.000000,0.863230,0.114296,0.144000,0.793826,1.000000,0.898076,0.000000,2.000000
6,0.001172,0.000000,0.940665,0.166206,0.932828,0.030000,0.123817,1.000000,0.000000,1.000000,0.000000,0.000000,0.866079,1.000000,0.946686,0.092983,2.000000
7,0.000965,0.000000,1.000000,0.166206,0.932828,0.030000,0.123817,1.000000,1.000000,1.000000,0.000000,0.000000,0.866079,1.000000,0.946686,0.000000,2.000000
8,0.000965,0.000000,1.000000,0.166206,0.932828,0.030000,0.123817,1.000000,1.000000,1.000000,0.000000,0.000000,0.866079,1.000000,0.946686,0.000000,2.000000
9,0.000831,0.000000,1.000000,0.166206,0.932828,0.000000,0.123817,1.000000,2.000000,1.000000,0.000000,0.019422,0.866079,1.000000,0.946686,0.092983,1.000000
10,0.000660,0.000000,1.000000,0.233509,0.886303,0.111143,0.123817,0.730884,2.000000,0.733855,0.000000,0.000000,0.866079,0.921869,0.989102,0.504530,0.000000
11,0.000615,0.000000,0.932601,0.000000,0.932828,0.030000,0.129355,0.730884,2.000000,0.550401,0.000000,0.081245,0.866079,0.921869,0.989102,0.504530,1.000000
12,0.000060,0.000000,1.000000,0.103086,1.000000,0.102889,0.282452,0.915821,2.000000,0.906153,0.368914,0.000000,0.972134,1.000000,1.000000,0.116245,0.000000
13,0.000060,0.000000,1.000000,0.103086,1.000000,0.102889,0.282452,0.915821,2.000000,0.906153,0.368914,0.000000,0.972134,1.000000,1.000000,0.116245,0.000000
14,0.000018,0.266087,0.969205,0.265139,1.000000,0.000000,0.123817,0.839511,1.000000,1.000000,0.000000,0.028395,1.000000,1.000000,0.989102,0.504530,1.000000
15,0.000013,0.136592,0.969205,0.197062,0.932828,0.030000,0.276671,1.000000,2.000000,0.580078,0.237335,0.000000,0.937986,0.978470,1.000000,0.504530,2.000000
16,0.000001,0.000000,1.000000,0.103086,1.000000,0.118448,0.425099,0.964836,2.000000,0.906153,0.311800,0.055159,0.972134,1.000000,0.989102,0.616599,0.000000
gen, fitness
0,0.069293,0.000000,1.000000,0.210000,0.800000,0.030000,0.030000,1.000000,0.000000,1.000000,0.000000,0.000000,0.600000,1.000000,1.000000,0.000000,0.000000
1,0.069293,0.000000,1.000000,0.210000,0.800000,0.030000,0.030000,1.000000,0.000000,1.000000,0.000000,0.000000,0.600000,1.000000,1.000000,0.000000,0.000000
2,0.038772,0.000000,0.931885,0.210000,0.800000,0.030000,0.030000,1.000000,0.000000,1.000000,0.000000,0.000000,0.757618,1.000000,1.000000,0.000000,2.000000
3,0.036398,0.000000,1.000000,0.210000,0.800000,0.067103,0.075917,1.000000,1.000000,1.000000,0.000000,0.000000,0.783324,0.733374,1.000000,0.259844,2.000000
4,0.033990,0.000000,1.000000,0.210000,0.857038,0.030000,0.000000,1.000000,1.000000,1.000000,0.001123,0.000000,0.855659,1.000000,0.828564,0.000000,0.000000
5,0.032861,0.045522,1.000000,0.210000,0.877035,0.030000,0.059032,0.977846,1.000000,1.000000,0.001123,0.000000,0.855659,0.936091,0.932335,0.000000,0.000000
6,0.028646,0.000000,1.000000,0.210000,0.877035,0.129355,0.059032,0.977846,1.000000,1.000000,0.000000,0.000000,0.855659,0.936091,0.932335,0.000000,2.000000
7,0.020780,0.209761,0.978357,0.210000,0.958457,0.084086,0.140944,1.000000,2.000000,0.937486,0.000000,0.154871,0.984679,0.692160,0.922231,0.259844,1.000000
8,0.020780,0.209761,0.978357,0.210000,0.958457,0.084086,0.140944,1.000000,2.000000,0.937486,0.000000,0.154871,0.984679,0.692160,0.922231,0.259844,1.000000
9,0.018128,0.000000,0.942498,0.210000,0.985719,0.030000,0.000000,0.784401,1.000000,1.000000,0.037567,0.000000,0.984679,0.692160,0.922231,0.259844,1.000000
10,0.016836,0.000000,0.921548,0.210000,0.985719,0.030575,0.000000,0.861694,1.000000,1.000000,0.000000,0.000000,0.984679,0.692160,0.922231,0.262697,2.000000
11,0.015242,0.000000,1.000000,0.027495,1.000000,0.241934,0.096104,1.000000,1.000000,1.000000,0.000000,0.000000,0.969232,0.700270,0.954984,0.262697,2.000000
12,0.013402,0.000000,0.946296,0.122920,1.000000,0.000000,0.071329,0.771330,1.000000,1.000000,0.037567,0.250957,0.984679,0.692160,0.946361,0.259844,2.000000
13,0.012528,0.000000,0.828371,0.122920,1.000000,0.005839,0.000000,0.805872,2.000000,1.000000,0.000000,0.301534,0.984679,0.512129,0.922231,0.317819,2.000000
14,0.012517,0.000000,0.828371,0.122920,1.000000,0.005839,0.000000,0.858296,2.000000,1.000000,0.000000,0.347363,0.984679,0.680897,1.000000,0.183852,2.000000
15,0.011814,0.000100,0.828371,0.000000,1.000000,0.005839,0.000000,0.805872,2.000000,0.910348,0.000000,0.219578,0.984679,0.957939,1.000000,0.455395,2.000000
16,0.011814,0.000100,0.828371,0.000000,1.000000,0.005839,0.000000,0.805872,2.000000,0.910348,0.000000,0.219578,0.984679,0.957939,1.000000,0.455395,2.000000
17,0.011802,0.000100,0.828371,0.000000,1.000000,0.005839,0.000000,0.963602,2.000000,0.910348,0.000000,0.275384,0.984679,1.000000,0.924928,0.455395,2.000000
18,0.011300,0.000000,0.820654,0.000000,1.000000,0.005839,0.000000,0.805872,2.000000,1.000000,0.000000,0.305459,0.981656,0.969778,0.923343,0.550441,2.000000
19,0.011128,0.000000,0.480732,0.000000,1.000000,0.000000,0.000000,1.000000,2.000000,1.000000,0.000000,0.428975,0.964848,1.000000,0.922231,0.353267,2.000000
20,0.011128,0.000000,0.480732,0.000000,1.000000,0.000000,0.000000,1.000000,2.000000,1.000000,0.000000,0.428975,0.964848,1.000000,0.922231,0.353267,2.000000
21,0.010915,0.110585,0.916346,0.027171,1.000000,0.031833,0.139798,0.780240,2.000000,0.949323,0.000000,0.480339,0.964848,1.000000,0.922231,0.455395,2.000000
22,0.010761,0.113389,1.000000,0.000000,1.000000,0.000000,0.018763,1.000000,2.000000,0.906394,0.121151,0.595817,0.964848,1.000000,1.000000,0.353267,2.000000
23,0.010534,0.000000,0.816290,0.000000,1.000000,0.005839,0.000000,1.000000,1.000000,1.000000,0.000000,0.493775,0.918718,1.000000,0.861702,0.455395,2.000000
24,0.010329,0.000000,0.816290,0.000000,1.000000,0.005839,0.000000,1.000000,2.000000,1.000000,0.134542,0.501592,0.918718,1.000000,0.861702,0.455395,2.000000
25,0.010329,0.000000,0.816290,0.000000,1.000000,0.005839,0.000000,1.000000,2.000000,1.000000,0.134542,0.501592,0.918718,1.000000,0.861702,0.455395,2.000000
26,0.009778,0.000000,0.816290,0.000000,1.000000,0.005839,0.016278,0.959915,2.000000,1.000000,0.096721,0.648357,0.944350,1.000000,0.952606,0.550441,2.000000
27,0.009778,0.000000,0.816290,0.000000,1.000000,0.005839,0.016278,0.959915,2.000000,1.000000,0.096721,0.648357,0.944350,1.000000,0.952606,0.550441,2.000000
28,0.009778,0.000000,0.816290,0.000000,1.000000,0.005839,0.016278,0.959915,2.000000,1.000000,0.096721,0.648357,0.944350,1.000000,0.952606,0.550441,2.000000
29,0.009778,0.000000,0.816290,0.000000,1.000000,0.005839,0.016278,0.959915,2.000000,1.000000,0.096721,0.648357,0.944350,1.000000,0.952606,0.550441,2.000000
30,0.009703,0.010913,0.928549,0.130237,1.000000,0.064077,0.016278,0.959915,2.000000,1.000000,0.096721,0.776606,0.944350,1.000000,0.952606,0.630040,2.000000
31,0.009370,0.000000,0.687601,0.000000,1.000000,0.000000,0.000000,1.000000,2.000000,0.918233,0.112650,0.747616,0.909293,0.925982,1.000000,0.603538,2.000000
32,0.009370,0.000000,0.687601,0.000000,1.000000,0.000000,0.000000,1.000000,2.000000,0.918233,0.112650,0.747616,0.909293,0.925982,1.000000,0.603538,2.000000
33,0.008769,0.078489,0.745815,0.000000,1.000000,0.000000,0.000000,0.693578,2.000000,1.000000,0.000000,0.816692,0.918718,1.000000,0.967168,0.628026,2.000000
34,0.008769,0.078489,0.745815,0.000000,1.000000,0.000000,0.000000,0.693578,2.000000,1.000000,0.000000,0.816692,0.918718,1.000000,0.967168,0.628026,2.000000
35,0.008769,0.078489,0.745815,0.000000,1.000000,0.000000,0.000000,0.693578,2.000000,1.000000,0.000000,0.816692,0.918718,1.000000,0.967168,0.628026,2.000000
36,0.008494,0.004429,0.830910,0.000000,1.000000,0.175476,0.000000,0.665636,2.000000,1.000000,0.042595,1.000000,0.882141,1.000000,1.000000,0.765283,2.000000
37,0.008494,0.004429,0.830910,0.000000,1.000000,0.175476,0.000000,0.665636,2.000000,1.000000,0.042595,1.000000,0.882141,1.000000,1.000000,0.765283,2.000000
38,0.008439,0.000000,0.687601,0.000638,1.000000,0.000000,0.056810,1.000000,2.000000,1.000000,0.089602,1.000000,0.882141,1.000000,1.000000,0.765283,2.000000
39,0.008439,0.000000,0.687601,0.000638,1.000000,0.000000,0.056810,1.000000,2.000000,1.000000,0.089602,1.000000,0.882141,1.000000,1.000000,0.765283,2.000000
40,0.008439,0.000000,0.687601,0.000638,1.000000,0.000000,0.056810,1.000000,2.000000,1.000000,0.089602,1.000000,0.882141,1.000000,1.000000,0.765283,2.000000
41,0.008437,0.004429,0.967521,0.000000,1.000000,0.085476,0.066707,0.693578,2.000000,1.000000,0.119609,1.000000,0.882141,1.000000,1.000000,0.765283,2.000000
42,0.008437,0.004429,0.967521,0.000000,1.000000,0.085476,0.066707,0.693578,2.000000,1.000000,0.119609,1.000000,0.882141,1.000000,1.000000,0.765283,2.000000
43,0.008362,0.000000,0.896592,0.000000,1.000000,0.000000,0.000000,0.802265,2.000000,1.000000,0.062927,1.000000,0.882141,1.000000,1.000000,0.765283,2.000000
44,0.008306,0.004429,0.862481,0.000000,1.000000,0.070873,0.066707,1.000000,2.000000,0.991111,0.188667,0.988587,0.902995,1.000000,1.000000,0.868621,2.000000
45,0.008297,0.004429,0.872364,0.000000,1.000000,0.000000,0.000000,0.792506,2.000000,1.000000,0.115900,1.000000,0.902426,1.000000,0.955329,0.794048,2.000000
46,0.008283,0.004429,0.862481,0.000000,1.000000,0.070873,0.066707,1.000000,2.000000,1.000000,0.188667,1.000000,0.898953,1.000000,1.000000,0.839491,2.000000
47,0.008261,0.004429,0.872364,0.000000,1.000000,0.000000,0.000000,0.792506,2.000000,1.000000,0.256625,1.000000,0.902426,1.000000,0.955329,0.825768,2.000000
48,0.008261,0.004429,0.872364,0.000000,1.000000,0.000000,0.000000,0.792506,2.000000,1.000000,0.256625,1.000000,0.902426,1.000000,0.955329,0.825768,2.000000
49,0.008088,0.091697,0.802952,0.000000,1.000000,0.002696,0.066707,0.779716,2.000000,1.000000,0.341459,1.000000,0.904955,1.000000,1.000000,1.000000,2.000000
50,0.008088,0.091697,0.802952,0.000000,1.000000,0.002696,0.066707,0.779716,2.000000,1.000000,0.341459,1.000000,0.904955,1.000000,1.000000,1.000000,2.000000
51,0.008088,0.091697,0.802952,0.000000,1.000000,0.002696,0.066707,0.779716,2.000000,1.000000,0.341459,1.000000,0.904955,1.000000,1.000000,1.000000,2.000000
52,0.008071,0.091697,0.802952,0.000000,1.000000,0.002696,0.045400,0.588870,2.000000,1.000000,0.341459,0.999773,0.904955,1.000000,1.000000,1.000000,2.000000
53,0.008071,0.091697,0.802952,0.000000,1.000000,0.002696,0.045400,0.588870,2.000000,1.000000,0.341459,0.999773,0.904955,1.000000,1.000000,1.000000,2.000000
54,0.008071,0.091697,0.802952,0.000000,1.000000,0.002696,0.045400,0.588870,2.000000,1.000000,0.341459,0.999773,0.904955,1.000000,1.000000,1.000000,2.000000
55,0.008071,0.091697,0.802952,0.000000,1.000000,0.002696,0.045400,0.588870,2.000000,1.000000,0.341459,0.999773,0.904955,1.000000,1.000000,1.000000,2.000000
56,0.008071,0.091697,0.802952,0.000000,1.000000,0.002696,0.045400,0.588870,2.000000,1.000000,0.341459,0.999773,0.904955,1.000000,1.000000,1.000000,2.000000
57,0.008071,0.091697,0.802952,0.000000,1.000000,0.002696,0.045400,0.588870,2.000000,1.000000,0.341459,0.999773,0.904955,1.000000,1.000000,1.000000,2.000000
58,0.008070,0.091697,0.802952,0.000000,1.000000,0.002696,0.045400,0.588870,2.000000,1.000000,0.410438,0.999773,0.904955,1.000000,1.000000,1.000000,2.000000
59,0.008070,0.091697,0.802952,0.000000,1.000000,0.002696,0.045400,0.588870,2.000000,1.000000,0.410438,0.999773,0.904955,1.000000,1.000000,1.000000,2.000000
60,0.008055,0.108266,0.901488,0.000000,1.000000,0.000000,0.048014,0.744495,2.000000,1.000000,0.341459,1.000000,0.904955,1.000000,1.000000,1.000000,2.000000
61,0.008055,0.108266,0.901488,0.000000,1.000000,0.000000,0.048014,0.744495,2.000000,1.000000,0.341459,1.000000,0.904955,1.000000,1.000000,1.000000,2.000000
62,0.008031,0.091697,1.000000,0.000000,1.000000,0.000000,0.066707,0.779716,2.000000,1.000000,0.423649,1.000000,0.904955,1.000000,1.000000,1.000000,2.000000
63,0.008028,0.091697,1.000000,0.000000,1.000000,0.000000,0.000000,0.917098,2.000000,1.000000,0.129971,0.984328,0.904955,1.000000,1.000000,1.000000,2.000000
64,0.008028,0.091697,1.000000,0.000000,1.000000,0.000000,0.000000,0.917098,2.000000,1.000000,0.129971,0.984328,0.904955,1.000000,1.000000,1.000000,2.000000
65,0.008028,0.091697,1.000000,0.000000,1.000000,0.000000,0.000000,0.917098,2.000000,1.000000,0.129971,0.984328,0.904955,1.000000,1.000000,1.000000,2.000000
66,0.008014,0.091697,1.000000,0.000000,1.000000,0.002696,0.041832,0.663933,2.000000,1.000000,0.466053,1.000000,0.904955,1.000000,1.000000,1.000000,2.000000
67,0.007999,0.091697,1.000000,0.000000,1.000000,0.000000,0.008147,0.699067,2.000000,1.000000,0.325820,1.000000,0.904955,1.000000,1.000000,1.000000,2.000000
68,0.007999,0.091697,1.000000,0.000000,1.000000,0.000000,0.008147,0.699067,2.000000,1.000000,0.325820,1.000000,0.904955,1.000000,1.000000,1.000000,2.000000
69,0.007996,0.091697,1.000000,0.000000,1.000000,0.000000,0.000000,0.779716,2.000000,1.000000,0.423649,1.000000,0.904955,1.000000,1.000000,1.000000,2.000000
70,0.007996,0.091697,1.000000,0.000000,1.000000,0.000000,0.000000,0.779716,2.000000,1.000000,0.423649,1.000000,0.904955,1.000000,1.000000,1.000000,2.000000
71,0.007996,0.091697,1.000000,0.000000,1.000000,0.000000,0.000000,0.779716,2.000000,1.000000,0.423649,1.000000,0.904955,1.000000,1.000000,1.000000,2.000000
72,0.007996,0.091697,1.000000,0.000000,1.000000,0.000000,0.000000,0.779716,2.000000,1.000000,0.423649,1.000000,0.904955,1.000000,1.000000,1.000000,2.000000
73,0.007995,0.091697,1.000000,0.000000,1.000000,0.000000,0.000000,0.659439,2.000000,1.000000,0.243049,1.000000,0.904955,1.000000,1.000000,1.000000,2.000000
74,0.007995,0.091697,1.000000,0.000000,1.000000,0.000000,0.000000,0.659439,2.000000,1.000000,0.243049,1.000000,0.904955,1.000000,1.000000,1.000000,2.000000
75,0.007995,0.091697,1.000000,0.000000,1.000000,0.000000,0.000000,0.659439,2.000000,1.000000,0.243049,1.000000,0.904955,1.000000,1.000000,1.000000,2.000000
76,0.007993,0.091697,1.000000,0.000000,1.000000,0.000000,0.000000,0.659439,2.000000,1.000000,0.325820,1.000000,0.904955,1.000000,1.000000,1.000000,2.000000
77,0.007993,0.091697,1.000000,0.000000,1.000000,0.000000,0.000000,0.659439,2.000000,1.000000,0.325820,1.000000,0.904955,1.000000,1.000000,1.000000,2.000000
gen, fitness
0,0.020772,0.000000,1.000000,0.210000,0.800000,0.030000,0.030000,1.000000,0.000000,1.000000,0.000000,0.000000,0.600000,1.000000,1.000000,0.000000,0.000000
1,0.020772,0.000000,1.000000,0.210000,0.800000,0.030000,0.030000,1.000000,0.000000,1.000000,0.000000,0.000000,0.600000,1.000000,1.000000,0.000000,0.000000
2,0.007652,0.000000,1.000000,0.148602,0.800000,0.000000,0.030000,1.000000,2.000000,1.000000,0.000000,0.000000,0.699546,0.859488,1.000000,0.000000,2.000000
3,0.005865,0.000000,0.843189,0.210000,0.800000,0.030000,0.030000,1.000000,2.000000,1.000000,0.000000,0.000000,0.753066,1.000000,1.000000,0.055214,1.000000
4,0.005098,0.000000,1.000000,0.215639,0.872764,0.175915,0.000000,1.000000,0.000000,0.992538,0.020175,0.041098,0.848855,1.000000,1.000000,0.000000,2.000000
5,0.002470,0.000000,1.000000,0.215639,0.872764,0.065190,0.000000,1.000000,0.000000,0.992538,0.141361,0.041098,0.804629,1.000000,1.000000,0.000000,2.000000
6,0.000861,0.000000,0.843189,0.210000,0.938452,0.015477,0.023831,1.000000,1.000000,0.969158,0.000000,0.000000,0.888481,0.760031,0.976952,0.000000,2.000000
7,0.000635,0.000000,0.903308,0.210000,0.938452,0.015477,0.023831,1.000000,0.000000,1.000000,0.000000,0.000000,0.888481,0.760031,0.989343,0.000000,2.000000
8,0.000345,0.000000,0.903308,0.210000,0.938452,0.015477,0.023831,0.967803,2.000000,1.000000,0.087581,0.141283,0.888481,0.760031,0.989343,0.099726,0.000000
9,0.000326,0.000000,1.000000,0.184996,0.938452,0.015477,0.023831,0.933095,2.000000,0.945980,0.269437,0.000000,0.908294,0.785271,1.000000,0.000000,2.000000
10,0.000050,0.000000,0.809489,0.086374,0.984595,0.065190,0.086104,1.000000,2.000000,0.922972,0.084433,0.000000,0.957763,0.760031,0.887317,0.000000,1.000000
11,0.000050,0.000000,0.809489,0.086374,0.984595,0.065190,0.086104,1.000000,2.000000,0.922972,0.084433,0.000000,0.957763,0.760031,0.887317,0.000000,1.000000
12,0.000050,0.000000,0.809489,0.086374,0.984595,0.065190,0.086104,1.000000,2.000000,0.922972,0.084433,0.000000,0.957763,0.760031,0.887317,0.000000,1.000000
13,0.000012,0.000000,0.809489,0.086374,0.984595,0.017728,0.086104,1.000000,2.000000,0.784337,0.242116,0.024483,0.968232,0.772955,1.000000,0.000000,1.000000
14,0.000012,0.000000,0.809489,0.086374,0.984595,0.017728,0.086104,1.000000,2.000000,0.784337,0.242116,0.024483,0.968232,0.772955,1.000000,0.000000,1.000000
15,0.000012,0.000000,0.809489,0.086374,0.984595,0.017728,0.086104,1.000000,2.000000,0.784337,0.242116,0.024483,0.968232,0.772955,1.000000,0.000000,1.000000
16,0.000004,0.000000,0.604916,0.086374,1.000000,0.017728,0.142731,1.000000,2.000000,1.000000,0.084433,0.054223,0.971000,0.964640,0.969644,0.000000,0.000000
17,0.000001,0.135697,0.603301,0.187913,1.000000,0.000000,0.313719,0.999120,1.000000,0.907669,0.182291,0.000000,1.000000,0.941800,0.954188,0.489825,1.000000
18,0.000000,0.000000,0.809489,0.086374,0.984595,0.000000,0.102524,0.804794,2.000000,0.824613,0.479217,0.024483,0.968232,0.670457,1.000000,0.218340,2.000000
gen, fitness
0,0.008197,0.000000,1.000000,0.210000,0.800000,0.030000,0.030000,1.000000,0.000000,1.000000,0.000000,0.000000,0.600000,1.000000,1.000000,0.000000,0.000000
1,0.008197,0.000000,1.000000,0.210000,0.800000,0.030000,0.030000,1.000000,0.000000,1.000000,0.000000,0.000000,0.600000,1.000000,1.000000,0.000000,0.000000
2,0.000037,0.000000,0.991561,0.210000,0.800000,0.030000,0.026839,1.000000,0.000000,0.925598,0.000000,0.077084,0.684376,1.000000,1.000000,0.000000,2.000000
3,0.000036,0.000000,0.942625,0.210000,0.800000,0.000000,0.030000,1.000000,0.000000,0.925598,0.000000,0.077084,0.684376,1.000000,0.935845,0.000000,2.000000
4,0.000013,0.031567,1.000000,0.180922,0.800000,0.030000,0.000000,1.000000,1.000000,0.873860,0.022931,0.190226,0.657047,1.000000,1.000000,0.000000,2.000000
5,0.000007,0.000000,1.000000,0.280349,0.770544,0.000000,0.000000,1.000000,2.000000,1.000000,0.000852,0.000000,0.708654,1.000000,0.965609,0.020743,2.000000
6,0.000007,0.000000,1.000000,0.280349,0.770544,0.000000,0.000000,1.000000,2.000000,1.000000,0.000852,0.000000,0.708654,1.000000,0.965609,0.020743,2.000000
7,0.000006,0.000000,0.796749,0.210000,0.800000,0.095123,0.046494,1.000000,1.000000,0.925598,0.000000,0.099201,0.681426,1.000000,1.000000,0.000000,2.000000
8,0.000006,0.000000,0.796749,0.210000,0.800000,0.095123,0.046494,1.000000,1.000000,0.925598,0.000000,0.099201,0.681426,1.000000,1.000000,0.000000,2.000000
9,0.000004,0.000000,0.900984,0.197578,0.800000,0.095123,0.019819,0.912174,2.000000,0.925598,0.000000,0.115530,0.681426,0.897788,1.000000,0.000000,0.000000
10,0.000004,0.000000,0.900984,0.197578,0.800000,0.095123,0.019819,0.912174,2.000000,0.925598,0.000000,0.115530,0.681426,0.897788,1.000000,0.000000,0.000000
11,0.000004,0.000000,0.900984,0.197578,0.800000,0.095123,0.019819,0.912174,2.000000,0.925598,0.000000,0.115530,0.681426,0.897788,1.000000,0.000000,0.000000
12,0.000001,0.025089,0.719710,0.210000,0.800000,0.025159,0.075901,1.000000,1.000000,0.901510,0.071315,0.001492,0.724390,1.000000,0.778345,0.237803,1.000000
13,0.000001,0.025089,0.719710,0.210000,0.800000,0.025159,0.075901,1.000000,1.000000,0.901510,0.071315,0.001492,0.724390,1.000000,0.778345,0.237803,1.000000
14,0.000001,0.025089,0.719710,0.210000,0.800000,0.025159,0.075901,1.000000,1.000000,0.901510,0.071315,0.001492,0.724390,1.000000,0.778345,0.237803,1.000000
gen, fitness
0,0.011091,0.000000,1.000000,0.210000,0.800000,0.030000,0.030000,1.000000,0.000000,1.000000,0.000000,0.000000,0.600000,1.000000,1.000000,0.000000,0.000000
1,0.011091,0.000000,1.000000,0.210000,0.800000,0.030000,0.030000,1.000000,0.000000,1.000000,0.000000,0.000000,0.600000,1.000000,1.000000,0.000000,0.000000
2,0.000020,0.000000,1.000000,0.210000,0.718482,0.030000,0.093931,0.915043,1.000000,1.000000,0.000000,0.000000,0.637902,1.000000,1.000000,0.000000,1.000000
3,0.000020,0.000000,1.000000,0.210000,0.718482,0.030000,0.093931,0.915043,1.000000,1.000000,0.000000,0.000000,0.637902,1.000000,1.000000,0.000000,1.000000
4,0.000004,0.000000,1.000000,0.210000,0.718482,0.000000,0.030000,1.000000,2.000000,1.000000,0.000000,0.000000,0.644892,1.000000,0.949487,0.000000,0.000000
5,0.000002,0.000000,1.000000,0.210000,0.718482,0.000000,0.030000,1.000000,2.000000,1.000000,0.082048,0.000000,0.644892,1.000000,0.949487,0.000000,0.000000
6,0.000002,0.000000,1.000000,0.210000,0.718482,0.000000,0.030000,1.000000,2.000000,1.000000,0.082048,0.000000,0.644892,1.000000,0.949487,0.000000,0.000000
7,0.000002,0.000000,1.000000,0.210000,0.718482,0.000000,0.030000,1.000000,2.000000,1.000000,0.082048,0.000000,0.644892,1.000000,0.949487,0.000000,0.000000
8,0.000002,0.000000,1.000000,0.210000,0.718482,0.000000,0.030000,1.000000,2.000000,1.000000,0.082048,0.000000,0.644892,1.000000,0.949487,0.000000,0.000000
9,0.000000,0.000000,0.982769,0.175046,0.740607,0.299545,0.078219,0.799883,2.000000,1.000000,0.082048,0.000000,0.644892,1.000000,0.875259,0.085868,0.000000
gen, fitness
0,0.020988,0.000000,1.000000,0.210000,0.800000,0.030000,0.030000,1.000000,0.000000,1.000000,0.000000,0.000000,0.600000,1.000000,1.000000,0.000000,0.000000
1,0.020988,0.000000,1.000000,0.210000,0.800000,0.030000,0.030000,1.000000,0.000000,1.000000,0.000000,0.000000,0.600000,1.000000,1.000000,0.000000,0.000000
2,0.008530,0.000000,0.958407,0.210000,0.800000,0.030000,0.092664,1.000000,2.000000,1.000000,0.000000,0.000000,0.717594,1.000000,0.827399,0.258651,0.000000
3,0.008471,0.000000,0.980977,0.334525,0.800000,0.030000,0.030000,0.962777,2.000000,1.000000,0.006896,0.293006,0.600000,0.940869,1.000000,0.000000,1.000000
4,0.006633,0.000000,0.980977,0.334525,0.800000,0.000000,0.030000,0.873289,2.000000,1.000000,0.000000,0.109617,0.723121,0.967115,1.000000,0.287465,0.000000
5,0.005743,0.019151,1.000000,0.412200,0.800000,0.000000,0.000000,1.000000,2.000000,1.000000,0.000000,0.000000,0.764173,1.000000,0.827399,0.104850,2.000000
6,0.004906,0.146246,0.934748,0.283708,0.837473,0.173717,0.000000,1.000000,2.000000,1.000000,0.277596,0.103099,0.770845,0.918873,0.585267,0.420735,2.000000
7,0.004873,0.191075,0.934748,0.283708,0.837473,0.173717,0.138320,1.000000,2.000000,1.000000,0.277596,0.103099,0.770845,0.698652,0.585267,0.420735,2.000000
8,0.004873,0.191075,0.934748,0.283708,0.837473,0.173717,0.138320,1.000000,2.000000,1.000000,0.277596,0.103099,0.770845,0.698652,0.585267,0.420735,2.000000
9,0.003885,0.000000,1.000000,0.334525,0.863862,0.511236,0.179529,1.000000,2.000000,0.872451,0.000000,0.211609,0.783837,0.782599,1.000000,0.021835,0.000000
10,0.003885,0.000000,1.000000,0.334525,0.863862,0.511236,0.179529,1.000000,2.000000,0.872451,0.000000,0.211609,0.783837,0.782599,1.000000,0.021835,0.000000
11,0.003111,0.000000,1.000000,0.542326,0.800000,0.000000,0.000000,0.883820,2.000000,0.689142,0.000000,0.251031,0.789358,1.000000,0.433488,0.420735,1.000000
12,0.002291,0.136729,1.000000,0.319732,0.927053,0.428894,0.433931,0.883820,0.000000,0.664955,0.000000,0.319229,0.874835,1.000000,0.822058,0.332009,0.000000
13,0.002291,0.136729,1.000000,0.319732,0.927053,0.428894,0.433931,0.883820,0.000000,0.664955,0.000000,0.319229,0.874835,1.000000,0.822058,0.332009,0.000000
14,0.001618,0.136729,1.000000,0.319732,0.927053,0.512058,0.433931,0.883820,2.000000,0.664955,0.000000,0.319229,0.874835,0.815092,0.641233,0.205002,0.000000
15,0.000810,0.026528,1.000000,0.628505,0.965488,0.313407,0.196468,0.897211,0.000000,0.661473,0.154454,0.251031,0.970909,0.828131,0.542932,0.312505,2.000000
16,0.000773,0.026528,1.000000,0.628505,0.965488,0.313407,0.196468,0.868803,0.000000,0.661473,0.154454,0.251031,0.970909,0.828131,0.542932,0.448209,2.000000
17,0.000773,0.026528,1.000000,0.628505,0.965488,0.313407,0.196468,0.868803,0.000000,0.661473,0.154454,0.251031,0.970909,0.828131,0.542932,0.448209,2.000000
18,0.000263,0.000000,1.000000,0.628505,0.986910,0.340549,0.183116,0.971054,1.000000,0.661473,0.199264,0.251031,1.000000,1.000000,0.921671,0.576205,0.000000
19,0.000263,0.000000,1.000000,0.628505,0.986910,0.340549,0.183116,0.971054,1.000000,0.661473,0.199264,0.251031,1.000000,1.000000,0.921671,0.576205,0.000000
20,0.000207,0.000000,1.000000,0.653970,1.000000,0.204640,0.183116,0.971054,1.000000,0.703609,0.199264,0.293794,1.000000,1.000000,0.921671,0.611829,1.000000
21,0.000116,0.000000,1.000000,0.628505,0.986910,0.340549,0.183116,0.971054,2.000000,0.661473,0.199264,0.251031,1.000000,1.000000,0.990749,0.488830,2.000000
22,0.000116,0.000000,1.000000,0.628505,0.986910,0.340549,0.183116,0.971054,2.000000,0.661473,0.199264,0.251031,1.000000,1.000000,0.990749,0.488830,2.000000
23,0.000050,0.000000,0.967775,0.717347,1.000000,0.204640,0.409338,0.971054,2.000000,0.709509,0.199264,0.531348,1.000000,1.000000,0.921671,0.591233,0.000000
24,0.000050,0.000000,0.967775,0.717347,1.000000,0.204640,0.409338,0.971054,2.000000,0.709509,0.199264,0.531348,1.000000,1.000000,0.921671,0.591233,0.000000
25,0.000013,0.076609,1.000000,1.000000,0.965488,0.193547,0.272654,0.869753,2.000000,0.545233,0.154454,0.412908,1.000000,0.820610,0.824269,0.286103,2.000000
26,0.000013,0.076609,1.000000,1.000000,0.965488,0.193547,0.272654,0.869753,2.000000,0.545233,0.154454,0.412908,1.000000,0.820610,0.824269,0.286103,2.000000
27,0.000013,0.076609,1.000000,1.000000,0.965488,0.193547,0.272654,0.869753,2.000000,0.545233,0.154454,0.412908,1.000000,0.820610,0.824269,0.286103,2.000000
28,0.000013,0.076609,1.000000,1.000000,0.965488,0.193547,0.272654,0.869753,2.000000,0.545233,0.154454,0.412908,1.000000,0.820610,0.824269,0.286103,2.000000
29,0.000010,0.076609,0.942299,1.000000,0.975386,0.109313,0.400270,0.971054,2.000000,0.709509,0.199264,0.531348,1.000000,1.000000,0.927580,0.729274,0.000000
30,0.000006,0.000000,1.000000,1.000000,0.975386,0.109313,0.400270,0.971054,2.000000,0.709509,0.199264,0.531348,1.000000,1.000000,0.927580,0.751055,0.000000
31,0.000002,0.000000,0.882118,0.976332,0.986910,0.281984,0.399894,0.875569,2.000000,0.664868,0.296798,0.770900,1.000000,1.000000,0.893862,0.637146,2.000000
32,0.000002,0.000000,0.882118,0.976332,0.986910,0.281984,0.399894,0.875569,2.000000,0.664868,0.296798,0.770900,1.000000,1.000000,0.893862,0.637146,2.000000
33,0.000002,0.000000,0.882118,0.976332,0.986910,0.281984,0.399894,0.875569,2.000000,0.664868,0.296798,0.770900,1.000000,1.000000,0.893862,0.637146,2.000000
34,0.000002,0.000000,0.882118,0.976332,0.986910,0.281984,0.399894,0.875569,2.000000,0.664868,0.296798,0.770900,1.000000,1.000000,0.893862,0.637146,2.000000
35,0.000002,0.000000,0.882118,0.976332,0.986910,0.281984,0.399894,0.875569,2.000000,0.664868,0.296798,0.770900,1.000000,1.000000,0.893862,0.637146,2.000000
