gen, fitness
0,0.013430,0.000000,1.000000,0.210000,0.800000,0.030000,0.030000,1.000000,0.000000,1.000000,0.000000,0.000000,0.600000,1.000000,1.000000,0.000000,0.000000
1,0.013430,0.000000,1.000000,0.210000,0.800000,0.030000,0.030000,1.000000,0.000000,1.000000,0.000000,0.000000,0.600000,1.000000,1.000000,0.000000,0.000000
2,0.000070,0.012549,1.000000,0.051028,0.735192,0.000000,0.231519,1.000000,2.000000,1.000000,0.000000,0.005238,0.600000,0.951092,0.894276,0.000000,1.000000
3,0.000049,0.042981,1.000000,0.025349,0.765778,0.015241,0.000000,1.000000,1.000000,1.000000,0.000000,0.000000,0.617893,1.000000,1.000000,0.115637,0.000000
4,0.000002,0.102978,1.000000,0.131008,0.704045,0.264964,0.016066,1.000000,0.000000,0.991509,0.150999,0.111138,0.546438,0.805330,1.000000,0.081900,1.000000
5,0.000002,0.102978,1.000000,0.131008,0.704045,0.264964,0.016066,1.000000,0.000000,0.991509,0.150999,0.111138,0.546438,0.805330,1.000000,0.081900,1.000000
6,0.000002,0.102978,1.000000,0.131008,0.704045,0.264964,0.016066,1.000000,0.000000,0.991509,0.150999,0.111138,0.546438,0.805330,1.000000,0.081900,1.000000
7,0.000002,0.102978,1.000000,0.131008,0.704045,0.264964,0.016066,1.000000,0.000000,0.991509,0.150999,0.111138,0.546438,0.805330,1.000000,0.081900,1.000000
8,0.000002,0.102978,1.000000,0.131008,0.704045,0.264964,0.016066,1.000000,0.000000,0.991509,0.150999,0.111138,0.546438,0.805330,1.000000,0.081900,1.000000
9,0.000002,0.102978,1.000000,0.131008,0.704045,0.264964,0.016066,1.000000,0.000000,0.991509,0.150999,0.111138,0.546438,0.805330,1.000000,0.081900,1.000000
10,0.000002,0.102978,1.000000,0.131008,0.704045,0.264964,0.016066,1.000000,0.000000,0.991509,0.150999,0.111138,0.546438,0.805330,1.000000,0.081900,1.000000
11,0.000002,0.102978,1.000000,0.131008,0.704045,0.264964,0.016066,1.000000,0.000000,0.991509,0.150999,0.111138,0.546438,0.805330,1.000000,0.081900,1.000000
12,0.000002,0.102978,1.000000,0.131008,0.704045,0.264964,0.016066,1.000000,0.000000,0.991509,0.150999,0.111138,0.546438,0.805330,1.000000,0.081900,1.000000
13,0.000002,0.102978,1.000000,0.131008,0.704045,0.264964,0.016066,1.000000,0.000000,0.991509,0.150999,0.111138,0.546438,0.805330,1.000000,0.081900,1.000000
14,0.000002,0.102978,1.000000,0.131008,0.704045,0.264964,0.016066,1.000000,0.000000,0.991509,0.150999,0.111138,0.546438,0.805330,1.000000,0.081900,1.000000
gen, fitness
0,0.034276,0.000000,1.000000,0.210000,0.800000,0.030000,0.030000,1.000000,0.000000,1.000000,0.000000,0.000000,0.600000,1.000000,1.000000,0.000000,0.000000
1,0.034276,0.000000,1.000000,0.210000,0.800000,0.030000,0.030000,1.000000,0.000000,1.000000,0.000000,0.000000,0.600000,1.000000,1.000000,0.000000,0.000000
2,0.017015,0.000000,1.000000,0.361886,0.800000,0.000000,0.009132,0.883022,2.000000,1.000000,0.000000,0.084432,0.714325,1.000000,1.000000,0.000000,2.000000
3,0.007954,0.052219,1.000000,0.210000,0.949018,0.000000,0.000000,1.000000,2.000000,1.000000,0.220431,0.000000,0.895767,0.995537,0.976568,0.000000,2.000000
4,0.006379,0.000000,1.000000,0.016279,1.000000,0.105731,0.066740,0.783098,2.000000,0.988542,0.000000,0.207525,0.892398,1.000000,1.000000,0.000000,2.000000
5,0.003975,0.044877,0.889664,0.303615,1.000000,0.000000,0.000000,1.000000,2.000000,1.000000,0.278028,0.000000,0.996288,0.995537,0.927169,0.043552,1.000000
6,0.002751,0.000000,0.928554,0.324630,1.000000,0.093135,0.220006,1.000000,1.000000,0.927416,0.000000,0.166251,0.978334,0.869078,0.786464,0.154354,2.000000
7,0.002751,0.000000,0.928554,0.324630,1.000000,0.093135,0.220006,1.000000,1.000000,0.927416,0.000000,0.166251,0.978334,0.869078,0.786464,0.154354,2.000000
8,0.002258,0.000000,0.915109,0.450848,0.996852,0.073291,0.119136,0.858949,1.000000,0.758946,0.081852,0.225036,1.000000,0.791343,0.796727,0.321670,2.000000
9,0.002089,0.067308,0.864189,0.351751,1.000000,0.000000,0.000000,0.979926,1.000000,0.639772,0.043370,0.439207,1.000000,0.859063,0.995205,0.078749,2.000000
10,0.002089,0.067308,0.864189,0.351751,1.000000,0.000000,0.000000,0.979926,1.000000,0.639772,0.043370,0.439207,1.000000,0.859063,0.995205,0.078749,2.000000
11,0.001650,0.075200,0.832116,0.547776,1.000000,0.000000,0.276738,1.000000,2.000000,0.862188,0.695167,0.399149,1.000000,0.682049,1.000000,0.184459,2.000000
12,0.001650,0.075200,0.832116,0.547776,1.000000,0.000000,0.276738,1.000000,2.000000,0.862188,0.695167,0.399149,1.000000,0.682049,1.000000,0.184459,2.000000
13,0.001650,0.075200,0.832116,0.547776,1.000000,0.000000,0.276738,1.000000,2.000000,0.862188,0.695167,0.399149,1.000000,0.682049,1.000000,0.184459,2.000000
14,0.001629,0.385241,0.759323,0.489562,1.000000,0.293727,0.033043,0.979926,1.000000,0.747949,0.068609,0.634859,1.000000,0.952429,0.881017,0.281854,2.000000
15,0.001343,0.095405,0.831619,0.584615,1.000000,0.000000,0.276738,0.897493,2.000000,0.842356,0.562612,0.564897,1.000000,0.680424,1.000000,0.184459,2.000000
16,0.001343,0.095405,0.831619,0.584615,1.000000,0.000000,0.276738,0.897493,2.000000,0.842356,0.562612,0.564897,1.000000,0.680424,1.000000,0.184459,2.000000
17,0.001343,0.095405,0.831619,0.584615,1.000000,0.000000,0.276738,0.897493,2.000000,0.842356,0.562612,0.564897,1.000000,0.680424,1.000000,0.184459,2.000000
18,0.001118,0.000000,1.000000,0.466623,1.000000,0.000000,0.029493,0.956546,2.000000,0.294663,0.115591,0.637998,1.000000,0.843291,0.827394,0.190504,2.000000
19,0.001118,0.000000,1.000000,0.466623,1.000000,0.000000,0.029493,0.956546,2.000000,0.294663,0.115591,0.637998,1.000000,0.843291,0.827394,0.190504,2.000000
20,0.001118,0.000000,1.000000,0.466623,1.000000,0.000000,0.029493,0.956546,2.000000,0.294663,0.115591,0.637998,1.000000,0.843291,0.827394,0.190504,2.000000
21,0.001051,0.048342,0.883030,0.556331,1.000000,0.000000,0.050460,1.000000,1.000000,0.407335,0.000000,0.678031,1.000000,0.724547,0.825203,0.513174,2.000000
22,0.001051,0.048342,0.883030,0.556331,1.000000,0.000000,0.050460,1.000000,1.000000,0.407335,0.000000,0.678031,1.000000,0.724547,0.825203,0.513174,2.000000
23,0.000992,0.070284,0.708440,0.776712,1.000000,0.596211,0.000000,0.892348,2.000000,0.934336,0.000000,0.947610,1.000000,0.585008,1.000000,0.000000,2.000000
24,0.000971,0.205322,0.846337,0.605287,1.000000,0.120466,0.074110,0.855717,2.000000,0.605969,0.650788,0.813134,1.000000,1.000000,1.000000,0.532612,2.000000
25,0.000971,0.205322,0.846337,0.605287,1.000000,0.120466,0.074110,0.855717,2.000000,0.605969,0.650788,0.813134,1.000000,1.000000,1.000000,0.532612,2.000000
26,0.000828,0.000000,0.834102,0.578085,0.988723,0.205734,0.047078,0.855717,2.000000,0.401661,0.718075,0.836818,1.000000,1.000000,0.919902,0.784720,2.000000
27,0.000828,0.000000,0.834102,0.578085,0.988723,0.205734,0.047078,0.855717,2.000000,0.401661,0.718075,0.836818,1.000000,1.000000,0.919902,0.784720,2.000000
28,0.000759,0.009461,1.000000,0.607158,1.000000,0.000000,0.058039,0.953756,2.000000,0.512193,0.778812,0.735422,1.000000,0.947523,0.952970,0.784720,2.000000
29,0.000649,0.000000,0.834102,0.538171,1.000000,0.010184,0.037319,0.968245,2.000000,0.270071,0.807012,0.848494,1.000000,1.000000,0.947755,0.909688,2.000000
30,0.000620,0.000000,0.834102,0.538171,1.000000,0.000000,0.059628,0.968245,2.000000,0.512997,0.807012,0.830299,1.000000,0.985216,0.989041,0.725098,2.000000
31,0.000620,0.000000,0.834102,0.538171,1.000000,0.000000,0.059628,0.968245,2.000000,0.512997,0.807012,0.830299,1.000000,0.985216,0.989041,0.725098,2.000000
32,0.000620,0.000000,0.834102,0.538171,1.000000,0.000000,0.059628,0.968245,2.000000,0.512997,0.807012,0.830299,1.000000,0.985216,0.989041,0.725098,2.000000
33,0.000620,0.000000,0.834102,0.538171,1.000000,0.000000,0.059628,0.968245,2.000000,0.512997,0.807012,0.830299,1.000000,0.985216,0.989041,0.725098,2.000000
34,0.000620,0.000000,0.834102,0.538171,1.000000,0.000000,0.059628,0.968245,2.000000,0.512997,0.807012,0.830299,1.000000,0.985216,0.989041,0.725098,2.000000
35,0.000513,0.000000,1.000000,0.585798,1.000000,0.201646,0.085375,0.910982,2.000000,0.284956,0.902098,1.000000,1.000000,1.000000,0.884023,0.976069,2.000000
36,0.000513,0.000000,1.000000,0.585798,1.000000,0.201646,0.085375,0.910982,2.000000,0.284956,0.902098,1.000000,1.000000,1.000000,0.884023,0.976069,2.000000
37,0.000513,0.000000,1.000000,0.585798,1.000000,0.201646,0.085375,0.910982,2.000000,0.284956,0.902098,1.000000,1.000000,1.000000,0.884023,0.976069,2.000000
38,0.000513,0.000000,1.000000,0.585798,1.000000,0.201646,0.085375,0.910982,2.000000,0.284956,0.902098,1.000000,1.000000,1.000000,0.884023,0.976069,2.000000
39,0.000513,0.000000,1.000000,0.585798,1.000000,0.201646,0.085375,0.910982,2.000000,0.284956,0.902098,1.000000,1.000000,1.000000,0.884023,0.976069,2.000000
40,0.000513,0.000000,1.000000,0.585798,1.000000,0.201646,0.085375,0.910982,2.000000,0.284956,0.902098,1.000000,1.000000,1.000000,0.884023,0.976069,2.000000
41,0.000513,0.000000,1.000000,0.585798,1.000000,0.201646,0.085375,0.910982,2.000000,0.284956,0.902098,1.000000,1.000000,1.000000,0.884023,0.976069,2.000000
42,0.000513,0.000000,1.000000,0.585798,1.000000,0.201646,0.085375,0.910982,2.000000,0.284956,0.902098,1.000000,1.000000,1.000000,0.884023,0.976069,2.000000
43,0.000513,0.000000,1.000000,0.585798,1.000000,0.201646,0.085375,0.910982,2.000000,0.284956,0.902098,1.000000,1.000000,1.000000,0.884023,0.976069,2.000000
44,0.000494,0.000000,1.000000,0.543377,1.000000,0.000000,0.105953,1.000000,2.000000,0.309554,0.991042,1.000000,1.000000,1.000000,1.000000,0.607180,2.000000
45,0.000489,0.087950,0.892301,0.432178,1.000000,0.000000,0.000000,0.739780,2.000000,0.215692,0.746084,1.000000,1.000000,1.000000,1.000000,1.000000,2.000000
46,0.000489,0.087950,0.892301,0.432178,1.000000,0.000000,0.000000,0.739780,2.000000,0.215692,0.746084,1.000000,1.000000,1.000000,1.000000,1.000000,2.000000
47,0.000489,0.087950,0.892301,0.432178,1.000000,0.000000,0.000000,0.739780,2.000000,0.215692,0.746084,1.000000,1.000000,1.000000,1.000000,1.000000,2.000000
48,0.000489,0.087950,0.892301,0.432178,1.000000,0.000000,0.000000,0.739780,2.000000,0.215692,0.746084,1.000000,1.000000,1.000000,1.000000,1.000000,2.000000
49,0.000489,0.087950,0.892301,0.432178,1.000000,0.000000,0.000000,0.739780,2.000000,0.215692,0.746084,1.000000,1.000000,1.000000,1.000000,1.000000,2.000000
50,0.000489,0.087950,0.892301,0.432178,1.000000,0.000000,0.000000,0.739780,2.000000,0.215692,0.746084,1.000000,1.000000,1.000000,1.000000,1.000000,2.000000
51,0.000433,0.012337,0.764210,0.432178,1.000000,0.012264,0.000000,1.000000,2.000000,0.219352,1.000000,1.000000,1.000000,0.936882,1.000000,1.000000,2.000000
52,0.000433,0.012337,0.764210,0.432178,1.000000,0.012264,0.000000,1.000000,2.000000,0.219352,1.000000,1.000000,1.000000,0.936882,1.000000,1.000000,2.000000
53,0.000433,0.012337,0.764210,0.432178,1.000000,0.012264,0.000000,1.000000,2.000000,0.219352,1.000000,1.000000,1.000000,0.936882,1.000000,1.000000,2.000000
54,0.000433,0.012337,0.764210,0.432178,1.000000,0.012264,0.000000,1.000000,2.000000,0.219352,1.000000,1.000000,1.000000,0.936882,1.000000,1.000000,2.000000
55,0.000433,0.012337,0.764210,0.432178,1.000000,0.012264,0.000000,1.000000,2.000000,0.219352,1.000000,1.000000,1.000000,0.936882,1.000000,1.000000,2.000000
56,0.000433,0.012337,0.764210,0.432178,1.000000,0.012264,0.000000,1.000000,2.000000,0.219352,1.000000,1.000000,1.000000,0.936882,1.000000,1.000000,2.000000
57,0.000433,0.012337,0.764210,0.432178,1.000000,0.012264,0.000000,1.000000,2.000000,0.219352,1.000000,1.000000,1.000000,0.936882,1.000000,1.000000,2.000000
58,0.000433,0.012337,0.764210,0.432178,1.000000,0.012264,0.000000,1.000000,2.000000,0.219352,1.000000,1.000000,1.000000,0.936882,1.000000,1.000000,2.000000
59,0.000433,0.012337,0.764210,0.432178,1.000000,0.012264,0.000000,1.000000,2.000000,0.219352,1.000000,1.000000,1.000000,0.936882,1.000000,1.000000,2.000000
60,0.000433,0.012337,0.764210,0.432178,1.000000,0.012264,0.000000,1.000000,2.000000,0.219352,1.000000,1.000000,1.000000,0.936882,1.000000,1.000000,2.000000
61,0.000433,0.012337,0.764210,0.432178,1.000000,0.012264,0.000000,1.000000,2.000000,0.219352,1.000000,1.000000,1.000000,0.936882,1.000000,1.000000,2.000000
gen, fitness
0,0.044384,0.000000,1.000000,0.210000,0.800000,0.030000,0.030000,1.000000,0.000000,1.000000,0.000000,0.000000,0.600000,1.000000,1.000000,0.000000,0.000000
1,0.044384,0.000000,1.000000,0.210000,0.800000,0.030000,0.030000,1.000000,0.000000,1.000000,0.000000,0.000000,0.600000,1.000000,1.000000,0.000000,0.000000
2,0.023082,0.000000,0.992575,0.210000,0.845153,0.087849,0.030000,0.965271,2.000000,0.961299,0.109861,0.000000,0.760498,0.928852,1.000000,0.000000,2.000000
3,0.018704,0.000000,0.974822,0.210000,0.909081,0.180757,0.000000,0.747573,2.000000,0.999180,0.000000,0.000000,0.848850,0.933549,1.000000,0.000000,0.000000
4,0.013614,0.000000,0.669219,0.239438,1.000000,0.143410,0.000000,0.602872,1.000000,0.856448,0.221418,0.000000,0.970224,0.836576,0.956871,0.034602,0.000000
5,0.011561,0.068572,0.774124,0.229314,1.000000,0.186174,0.000000,0.653555,1.000000,0.755906,0.277211,0.000000,1.000000,0.649665,0.851018,0.010108,1.000000
6,0.011561,0.068572,0.774124,0.229314,1.000000,0.186174,0.000000,0.653555,1.000000,0.755906,0.277211,0.000000,1.000000,0.649665,0.851018,0.010108,1.000000
7,0.010113,0.007567,0.644519,0.368491,1.000000,0.278536,0.259525,0.703129,2.000000,0.773848,0.401018,0.000000,1.000000,0.876835,0.712136,0.000000,2.000000
8,0.009800,0.102818,1.000000,0.410669,1.000000,0.134957,0.049284,0.652925,2.000000,0.747413,0.207407,0.158783,1.000000,0.801282,0.498533,0.000000,1.000000
9,0.009800,0.102818,1.000000,0.410669,1.000000,0.134957,0.049284,0.652925,2.000000,0.747413,0.207407,0.158783,1.000000,0.801282,0.498533,0.000000,1.000000
10,0.009632,0.000000,0.778305,0.362358,1.000000,0.065983,0.190889,0.976538,2.000000,0.666865,0.361563,0.000000,1.000000,0.648031,0.381271,0.245339,1.000000
11,0.009609,0.031463,0.795364,0.327208,1.000000,0.095244,0.124106,0.976538,1.000000,0.563754,0.333460,0.085701,1.000000,0.496088,0.381271,0.340464,1.000000
12,0.009177,0.183264,0.623231,0.347357,1.000000,0.095244,0.231070,0.984513,2.000000,0.562435,0.332502,0.173881,1.000000,0.473540,0.367411,0.402755,1.000000
13,0.008711,0.146054,0.995853,0.721269,0.978982,0.021497,0.000000,1.000000,2.000000,0.738892,0.713333,0.278012,1.000000,0.714232,0.534622,0.015055,1.000000
14,0.008711,0.146054,0.995853,0.721269,0.978982,0.021497,0.000000,1.000000,2.000000,0.738892,0.713333,0.278012,1.000000,0.714232,0.534622,0.015055,1.000000
15,0.008573,0.082185,0.882102,0.856637,0.963727,0.109130,0.000000,0.661897,2.000000,0.707310,0.000000,0.258244,1.000000,0.836788,0.450798,0.062685,2.000000
16,0.008176,0.087871,1.000000,0.854098,0.985944,0.000000,0.041495,1.000000,2.000000,0.894043,0.576128,0.316727,1.000000,0.936716,0.669289,0.033441,2.000000
17,0.008176,0.087871,1.000000,0.854098,0.985944,0.000000,0.041495,1.000000,2.000000,0.894043,0.576128,0.316727,1.000000,0.936716,0.669289,0.033441,2.000000
18,0.008132,0.024054,0.943315,0.748920,1.000000,0.000000,0.000000,0.940278,1.000000,0.675684,0.667527,0.510917,1.000000,0.327889,0.358541,0.063347,2.000000
19,0.008132,0.024054,0.943315,0.748920,1.000000,0.000000,0.000000,0.940278,1.000000,0.675684,0.667527,0.510917,1.000000,0.327889,0.358541,0.063347,2.000000
20,0.008013,0.012886,1.000000,0.794472,1.000000,0.000000,0.000000,0.980173,2.000000,0.824852,0.877092,0.597130,1.000000,0.950923,0.637544,0.225714,1.000000
21,0.008013,0.012886,1.000000,0.794472,1.000000,0.000000,0.000000,0.980173,2.000000,0.824852,0.877092,0.597130,1.000000,0.950923,0.637544,0.225714,1.000000
22,0.008013,0.012886,1.000000,0.794472,1.000000,0.000000,0.000000,0.980173,2.000000,0.824852,0.877092,0.597130,1.000000,0.950923,0.637544,0.225714,1.000000
23,0.007857,0.157917,0.909499,0.914276,0.993119,0.000000,0.075988,0.877910,1.000000,0.558817,0.749815,0.663875,1.000000,0.459031,0.145515,0.082162,2.000000
24,0.007618,0.000000,0.779921,0.818334,1.000000,0.000000,0.000000,0.754934,2.000000,0.647673,0.526474,0.720870,1.000000,0.175626,0.294965,0.000000,2.000000
25,0.007393,0.000000,0.614387,0.818334,1.000000,0.000000,0.000000,0.754934,2.000000,0.482379,0.533922,0.838763,1.000000,0.131343,0.290197,0.009928,2.000000
26,0.007393,0.000000,0.614387,0.818334,1.000000,0.000000,0.000000,0.754934,2.000000,0.482379,0.533922,0.838763,1.000000,0.131343,0.290197,0.009928,2.000000
27,0.007362,0.050821,1.000000,0.935058,1.000000,0.044558,0.179078,1.000000,2.000000,0.684734,0.484525,0.894366,1.000000,0.070056,0.063034,0.256612,1.000000
28,0.007362,0.050821,1.000000,0.935058,1.000000,0.044558,0.179078,1.000000,2.000000,0.684734,0.484525,0.894366,1.000000,0.070056,0.063034,0.256612,1.000000
29,0.006989,0.000000,1.000000,0.930848,1.000000,0.024988,0.179078,1.000000,2.000000,0.680292,0.395743,0.849732,1.000000,0.029861,0.005751,0.358860,2.000000
30,0.006989,0.000000,1.000000,0.930848,1.000000,0.024988,0.179078,1.000000,2.000000,0.680292,0.395743,0.849732,1.000000,0.029861,0.005751,0.358860,2.000000
31,0.006989,0.000000,1.000000,0.930848,1.000000,0.024988,0.179078,1.000000,2.000000,0.680292,0.395743,0.849732,1.000000,0.029861,0.005751,0.358860,2.000000
32,0.006989,0.000000,1.000000,0.930848,1.000000,0.024988,0.179078,1.000000,2.000000,0.680292,0.395743,0.849732,1.000000,0.029861,0.005751,0.358860,2.000000
33,0.006989,0.000000,1.000000,0.930848,1.000000,0.024988,0.179078,1.000000,2.000000,0.680292,0.395743,0.849732,1.000000,0.029861,0.005751,0.358860,2.000000
34,0.006966,0.037770,0.912882,0.896372,1.000000,0.036285,0.062946,1.000000,2.000000,0.625011,0.657325,0.932411,1.000000,0.188552,0.190071,0.343900,2.000000
35,0.006949,0.127700,0.900344,0.949420,1.000000,0.102660,0.269293,1.000000,2.000000,0.490587,0.526154,1.000000,1.000000,0.039835,0.000000,0.744181,2.000000
36,0.006949,0.127700,0.900344,0.949420,1.000000,0.102660,0.269293,1.000000,2.000000,0.490587,0.526154,1.000000,1.000000,0.039835,0.000000,0.744181,2.000000
37,0.006949,0.127700,0.900344,0.949420,1.000000,0.102660,0.269293,1.000000,2.000000,0.490587,0.526154,1.000000,1.000000,0.039835,0.000000,0.744181,2.000000
38,0.006928,0.130736,0.954459,0.945100,1.000000,0.130729,0.000000,1.000000,2.000000,0.594524,0.545949,1.000000,1.000000,0.043988,0.000000,0.485990,2.000000
39,0.006816,0.000000,1.000000,1.000000,1.000000,0.035980,0.179078,1.000000,2.000000,0.560370,0.207380,0.882823,0.999458,0.451054,0.000000,0.556188,2.000000
40,0.006615,0.020524,0.913821,1.000000,1.000000,0.000000,0.148062,1.000000,2.000000,0.593040,0.365066,1.000000,1.000000,0.061523,0.000000,0.730791,2.000000
41,0.006615,0.020524,0.913821,1.000000,1.000000,0.000000,0.148062,1.000000,2.000000,0.593040,0.365066,1.000000,1.000000,0.061523,0.000000,0.730791,2.000000
42,0.006615,0.020524,0.913821,1.000000,1.000000,0.000000,0.148062,1.000000,2.000000,0.593040,0.365066,1.000000,1.000000,0.061523,0.000000,0.730791,2.000000
43,0.006615,0.020524,0.913821,1.000000,1.000000,0.000000,0.148062,1.000000,2.000000,0.593040,0.365066,1.000000,1.000000,0.061523,0.000000,0.730791,2.000000
44,0.006615,0.020524,0.913821,1.000000,1.000000,0.000000,0.148062,1.000000,2.000000,0.593040,0.365066,1.000000,1.000000,0.061523,0.000000,0.730791,2.000000
45,0.006615,0.020524,0.913821,1.000000,1.000000,0.000000,0.148062,1.000000,2.000000,0.593040,0.365066,1.000000,1.000000,0.061523,0.000000,0.730791,2.000000
46,0.006537,0.000000,0.950475,0.805717,1.000000,0.000000,0.000000,1.000000,2.000000,0.401761,0.204505,0.953747,1.000000,0.047839,0.006267,0.766009,2.000000
47,0.006537,0.000000,0.950475,0.805717,1.000000,0.000000,0.000000,1.000000,2.000000,0.401761,0.204505,0.953747,1.000000,0.047839,0.006267,0.766009,2.000000
48,0.006537,0.000000,0.950475,0.805717,1.000000,0.000000,0.000000,1.000000,2.000000,0.401761,0.204505,0.953747,1.000000,0.047839,0.006267,0.766009,2.000000
49,0.006537,0.000000,0.950475,0.805717,1.000000,0.000000,0.000000,1.000000,2.000000,0.401761,0.204505,0.953747,1.000000,0.047839,0.006267,0.766009,2.000000
50,0.006537,0.000000,0.950475,0.805717,1.000000,0.000000,0.000000,1.000000,2.000000,0.401761,0.204505,0.953747,1.000000,0.047839,0.006267,0.766009,2.000000
51,0.006537,0.000000,0.950475,0.805717,1.000000,0.000000,0.000000,1.000000,2.000000,0.401761,0.204505,0.953747,1.000000,0.047839,0.006267,0.766009,2.000000
52,0.006537,0.000000,0.950475,0.805717,1.000000,0.000000,0.000000,1.000000,2.000000,0.401761,0.204505,0.953747,1.000000,0.047839,0.006267,0.766009,2.000000
53,0.006537,0.000000,0.950475,0.805717,1.000000,0.000000,0.000000,1.000000,2.000000,0.401761,0.204505,0.953747,1.000000,0.047839,0.006267,0.766009,2.000000
54,0.006537,0.000000,0.950475,0.805717,1.000000,0.000000,0.000000,1.000000,2.000000,0.401761,0.204505,0.953747,1.000000,0.047839,0.006267,0.766009,2.000000
55,0.006537,0.000000,0.950475,0.805717,1.000000,0.000000,0.000000,1.000000,2.000000,0.401761,0.204505,0.953747,1.000000,0.047839,0.006267,0.766009,2.000000
56,0.006537,0.000000,0.950475,0.805717,1.000000,0.000000,0.000000,1.000000,2.000000,0.401761,0.204505,0.953747,1.000000,0.047839,0.006267,0.766009,2.000000
gen, fitness
0,0.006335,0.000000,1.000000,0.210000,0.800000,0.030000,0.030000,1.000000,0.000000,1.000000,0.000000,0.000000,0.600000,1.000000,1.000000,0.000000,0.000000
1,0.006335,0.000000,1.000000,0.210000,0.800000,0.030000,0.030000,1.000000,0.000000,1.000000,0.000000,0.000000,0.600000,1.000000,1.000000,0.000000,0.000000
2,0.000080,0.006403,1.000000,0.327847,0.722193,0.118115,0.030000,0.932408,1.000000,1.000000,0.000000,0.093725,0.600000,1.000000,1.000000,0.000000,2.000000
3,0.000052,0.000000,0.862919,0.161001,0.800000,0.049938,0.014865,0.893128,0.000000,1.000000,0.123629,0.000000,0.661751,0.794240,0.965857,0.000000,2.000000
4,0.000052,0.000000,0.862919,0.161001,0.800000,0.049938,0.014865,0.893128,0.000000,1.000000,0.123629,0.000000,0.661751,0.794240,0.965857,0.000000,2.000000
5,0.000023,0.145318,0.831184,0.255881,0.684223,0.005157,0.000000,0.976623,0.000000,0.706234,0.143632,0.133594,0.614291,1.000000,0.900397,0.000000,1.000000
6,0.000023,0.145318,0.831184,0.255881,0.684223,0.005157,0.000000,0.976623,0.000000,0.706234,0.143632,0.133594,0.614291,1.000000,0.900397,0.000000,1.000000
7,0.000023,0.145318,0.831184,0.255881,0.684223,0.005157,0.000000,0.976623,0.000000,0.706234,0.143632,0.133594,0.614291,1.000000,0.900397,0.000000,1.000000
8,0.000023,0.145318,0.831184,0.255881,0.684223,0.005157,0.000000,0.976623,0.000000,0.706234,0.143632,0.133594,0.614291,1.000000,0.900397,0.000000,1.000000
9,0.000023,0.145318,0.831184,0.255881,0.684223,0.005157,0.000000,0.976623,0.000000,0.706234,0.143632,0.133594,0.614291,1.000000,0.900397,0.000000,1.000000
10,0.000023,0.145318,0.831184,0.255881,0.684223,0.005157,0.000000,0.976623,0.000000,0.706234,0.143632,0.133594,0.614291,1.000000,0.900397,0.000000,1.000000
11,0.000023,0.145318,0.831184,0.255881,0.684223,0.005157,0.000000,0.976623,0.000000,0.706234,0.143632,0.133594,0.614291,1.000000,0.900397,0.000000,1.000000
12,0.000023,0.145318,0.831184,0.255881,0.684223,0.005157,0.000000,0.976623,0.000000,0.706234,0.143632,0.133594,0.614291,1.000000,0.900397,0.000000,1.000000
13,0.000023,0.145318,0.831184,0.255881,0.684223,0.005157,0.000000,0.976623,0.000000,0.706234,0.143632,0.133594,0.614291,1.000000,0.900397,0.000000,1.000000
14,0.000022,0.116864,0.674520,0.180571,0.759323,0.085677,0.164966,0.976893,0.000000,0.801769,0.000000,0.212389,0.600000,0.992640,0.981016,0.000000,1.000000
15,0.000022,0.116864,0.674520,0.180571,0.759323,0.085677,0.164966,0.976893,0.000000,0.801769,0.000000,0.212389,0.600000,0.992640,0.981016,0.000000,1.000000
gen, fitness
0,0.018541,0.000000,1.000000,0.210000,0.800000,0.030000,0.030000,1.000000,0.000000,1.000000,0.000000,0.000000,0.600000,1.000000,1.000000,0.000000,0.000000
1,0.018541,0.000000,1.000000,0.210000,0.800000,0.030000,0.030000,1.000000,0.000000,1.000000,0.000000,0.000000,0.600000,1.000000,1.000000,0.000000,0.000000
2,0.004426,0.000000,1.000000,0.405802,0.800000,0.030000,0.068879,0.854753,2.000000,1.000000,0.117495,0.017293,0.741800,0.941234,1.000000,0.131917,1.000000
3,0.003477,0.000000,0.898495,0.207328,0.846010,0.095435,0.238301,0.915705,1.000000,0.873493,0.044902,0.130845,0.756055,1.000000,0.832703,0.000000,0.000000
4,0.002457,0.122569,1.000000,0.173461,0.867550,0.072617,0.000000,1.000000,1.000000,0.884172,0.000000,0.091382,0.806936,1.000000,1.000000,0.310750,0.000000
5,0.000028,0.000000,1.000000,0.094093,1.000000,0.167899,0.000000,0.974225,1.000000,0.948365,0.000000,0.087796,0.959704,0.954630,1.000000,0.331386,2.000000
6,0.000028,0.000000,1.000000,0.094093,1.000000,0.167899,0.000000,0.974225,1.000000,0.948365,0.000000,0.087796,0.959704,0.954630,1.000000,0.331386,2.000000
7,0.000021,0.164857,0.928082,0.076216,1.000000,0.000000,0.096335,0.926100,2.000000,0.864418,0.120126,0.384627,0.938026,0.890831,1.000000,0.068968,1.000000
8,0.000002,0.102847,1.000000,0.277098,1.000000,0.080120,0.039973,0.808759,0.000000,0.870026,0.134485,0.062652,0.987119,0.899697,1.000000,0.097735,2.000000
9,0.000002,0.102847,1.000000,0.277098,1.000000,0.080120,0.039973,0.808759,0.000000,0.870026,0.134485,0.062652,0.987119,0.899697,1.000000,0.097735,2.000000
10,0.000002,0.102847,1.000000,0.277098,1.000000,0.080120,0.039973,0.808759,0.000000,0.870026,0.134485,0.062652,0.987119,0.899697,1.000000,0.097735,2.000000
11,0.000002,0.102847,1.000000,0.277098,1.000000,0.080120,0.039973,0.808759,0.000000,0.870026,0.134485,0.062652,0.987119,0.899697,1.000000,0.097735,2.000000
12,0.000002,0.102847,1.000000,0.277098,1.000000,0.080120,0.039973,0.808759,0.000000,0.870026,0.134485,0.062652,0.987119,0.899697,1.000000,0.097735,2.000000
13,0.000002,0.102847,1.000000,0.277098,1.000000,0.080120,0.039973,0.808759,0.000000,0.870026,0.134485,0.062652,0.987119,0.899697,1.000000,0.097735,2.000000
14,0.000002,0.102847,1.000000,0.277098,1.000000,0.080120,0.039973,0.808759,0.000000,0.870026,0.134485,0.062652,0.987119,0.899697,1.000000,0.097735,2.000000
15,0.000002,0.102847,1.000000,0.277098,1.000000,0.080120,0.039973,0.808759,0.000000,0.870026,0.134485,0.062652,0.987119,0.899697,1.000000,0.097735,2.000000
16,0.000002,0.102847,1.000000,0.277098,1.000000,0.080120,0.039973,0.808759,0.000000,0.870026,0.134485,0.062652,0.987119,0.899697,1.000000,0.097735,2.000000
17,0.000002,0.102847,1.000000,0.277098,1.000000,0.080120,0.039973,0.808759,0.000000,0.870026,0.134485,0.062652,0.987119,0.899697,1.000000,0.097735,2.000000
18,0.000002,0.102847,1.000000,0.277098,1.000000,0.080120,0.039973,0.808759,0.000000,0.870026,0.134485,0.062652,0.987119,0.899697,1.000000,0.097735,2.000000
gen, fitness
0,0.069293,0.000000,1.000000,0.210000,0.800000,0.030000,0.030000,1.000000,0.000000,1.000000,0.000000,0.000000,0.600000,1.000000,1.000000,0.000000,0.000000
1,0.069293,0.000000,1.000000,0.210000,0.800000,0.030000,0.030000,1.000000,0.000000,1.000000,0.000000,0.000000,0.600000,1.000000,1.000000,0.000000,0.000000
2,0.033931,0.000000,1.000000,0.146081,0.830254,0.030000,0.030000,0.994974,1.000000,0.935660,0.000000,0.000000,0.816209,0.973259,0.923154,0.000000,2.000000
3,0.027809,0.000000,0.886426,0.225254,0.871991,0.000000,0.000000,0.985489,0.000000,1.000000,0.183941,0.117589,0.833920,1.000000,0.893663,0.231540,2.000000
4,0.023995,0.042052,0.780190,0.308598,0.950852,0.000000,0.000000,0.990799,0.000000,1.000000,0.000000,0.000000,0.997456,1.000000,1.000000,0.000000,2.000000
5,0.022758,0.000000,1.000000,0.145233,0.953124,0.092322,0.000000,1.000000,1.000000,1.000000,0.000000,0.266748,0.867853,0.898150,1.000000,0.134901,0.000000
6,0.015803,0.117886,0.953470,0.283226,1.000000,0.041531,0.285518,1.000000,2.000000,1.000000,0.229876,0.288412,1.000000,0.857892,0.961419,0.000000,1.000000
7,0.015505,0.079543,1.000000,0.225736,1.000000,0.175348,0.285518,1.000000,2.000000,1.000000,0.251098,0.275245,1.000000,0.829588,0.863859,0.118617,1.000000
8,0.014229,0.000000,0.901699,0.266401,1.000000,0.246117,0.231050,0.913937,2.000000,0.778051,0.172843,0.446883,1.000000,0.857892,0.913486,0.000000,2.000000
9,0.013209,0.010909,0.968671,0.145233,1.000000,0.000000,0.075800,0.954988,1.000000,0.984874,0.136876,0.264176,0.986492,0.956766,1.000000,0.341862,2.000000
10,0.013209,0.010909,0.968671,0.145233,1.000000,0.000000,0.075800,0.954988,1.000000,0.984874,0.136876,0.264176,0.986492,0.956766,1.000000,0.341862,2.000000
11,0.013209,0.010909,0.968671,0.145233,1.000000,0.000000,0.075800,0.954988,1.000000,0.984874,0.136876,0.264176,0.986492,0.956766,1.000000,0.341862,2.000000
12,0.012997,0.000000,0.798630,0.095814,1.000000,0.000000,0.075800,0.990514,2.000000,0.984874,0.212713,0.264176,1.000000,1.000000,1.000000,0.339178,2.000000
13,0.012250,0.076081,1.000000,0.130854,1.000000,0.000000,0.134829,1.000000,2.000000,0.887992,0.336438,0.475356,0.976941,1.000000,1.000000,0.153889,2.000000
14,0.012067,0.000000,0.980677,0.000000,1.000000,0.000000,0.281654,0.871644,2.000000,0.886657,0.311878,0.642339,0.968553,0.915581,0.983180,0.000000,2.000000
15,0.010854,0.046597,0.901278,0.135703,1.000000,0.213255,0.193022,1.000000,2.000000,1.000000,0.443611,0.714277,0.920378,0.910454,0.930073,0.406572,2.000000
16,0.009996,0.000000,0.946685,0.120361,1.000000,0.009400,0.171042,0.973366,2.000000,0.963498,0.528609,0.743084,0.942033,0.910454,0.965704,0.500058,2.000000
17,0.009996,0.000000,0.946685,0.120361,1.000000,0.009400,0.171042,0.973366,2.000000,0.963498,0.528609,0.743084,0.942033,0.910454,0.965704,0.500058,2.000000
18,0.009144,0.016663,0.839485,0.017535,1.000000,0.050935,0.000000,1.000000,2.000000,1.000000,0.384150,0.955379,0.910151,0.668030,0.815020,0.440484,2.000000
19,0.009144,0.016663,0.839485,0.017535,1.000000,0.050935,0.000000,1.000000,2.000000,1.000000,0.384150,0.955379,0.910151,0.668030,0.815020,0.440484,2.000000
20,0.009144,0.016663,0.839485,0.017535,1.000000,0.050935,0.000000,1.000000,2.000000,1.000000,0.384150,0.955379,0.910151,0.668030,0.815020,0.440484,2.000000
21,0.008885,0.079465,0.867614,0.017535,1.000000,0.040712,0.000000,0.868425,2.000000,0.986068,0.392039,1.000000,0.900295,0.668030,0.815020,0.594185,2.000000
22,0.008885,0.079465,0.867614,0.017535,1.000000,0.040712,0.000000,0.868425,2.000000,0.986068,0.392039,1.000000,0.900295,0.668030,0.815020,0.594185,2.000000
23,0.008885,0.079465,0.867614,0.017535,1.000000,0.040712,0.000000,0.868425,2.000000,0.986068,0.392039,1.000000,0.900295,0.668030,0.815020,0.594185,2.000000
24,0.008885,0.079465,0.867614,0.017535,1.000000,0.040712,0.000000,0.868425,2.000000,0.986068,0.392039,1.000000,0.900295,0.668030,0.815020,0.594185,2.000000
25,0.008885,0.079465,0.867614,0.017535,1.000000,0.040712,0.000000,0.868425,2.000000,0.986068,0.392039,1.000000,0.900295,0.668030,0.815020,0.594185,2.000000
26,0.008885,0.079465,0.867614,0.017535,1.000000,0.040712,0.000000,0.868425,2.000000,0.986068,0.392039,1.000000,0.900295,0.668030,0.815020,0.594185,2.000000
27,0.008885,0.079465,0.867614,0.017535,1.000000,0.040712,0.000000,0.868425,2.000000,0.986068,0.392039,1.000000,0.900295,0.668030,0.815020,0.594185,2.000000
28,0.008846,0.006249,0.864192,0.000000,1.000000,0.023950,0.346618,0.630916,2.000000,1.000000,0.080965,0.879589,0.891495,1.000000,0.829810,0.764508,2.000000
29,0.008846,0.006249,0.864192,0.000000,1.000000,0.023950,0.346618,0.630916,2.000000,1.000000,0.080965,0.879589,0.891495,1.000000,0.829810,0.764508,2.000000
30,0.008846,0.006249,0.864192,0.000000,1.000000,0.023950,0.346618,0.630916,2.000000,1.000000,0.080965,0.879589,0.891495,1.000000,0.829810,0.764508,2.000000
31,0.008846,0.006249,0.864192,0.000000,1.000000,0.023950,0.346618,0.630916,2.000000,1.000000,0.080965,0.879589,0.891495,1.000000,0.829810,0.764508,2.000000
32,0.008846,0.006249,0.864192,0.000000,1.000000,0.023950,0.346618,0.630916,2.000000,1.000000,0.080965,0.879589,0.891495,1.000000,0.829810,0.764508,2.000000
33,0.008846,0.006249,0.864192,0.000000,1.000000,0.023950,0.346618,0.630916,2.000000,1.000000,0.080965,0.879589,0.891495,1.000000,0.829810,0.764508,2.000000
34,0.008846,0.006249,0.864192,0.000000,1.000000,0.023950,0.346618,0.630916,2.000000,1.000000,0.080965,0.879589,0.891495,1.000000,0.829810,0.764508,2.000000
35,0.008846,0.006249,0.864192,0.000000,1.000000,0.023950,0.346618,0.630916,2.000000,1.000000,0.080965,0.879589,0.891495,1.000000,0.829810,0.764508,2.000000
36,0.008845,0.000000,0.347184,0.037880,1.000000,0.032990,0.242631,0.514190,2.000000,1.000000,0.045202,1.000000,0.884838,0.994943,0.992301,0.885564,2.000000
37,0.008586,0.000000,0.536683,0.000000,1.000000,0.000000,0.020392,0.795492,2.000000,1.000000,0.225141,1.000000,0.900295,0.619741,0.879238,0.871515,2.000000
38,0.008586,0.000000,0.536683,0.000000,1.000000,0.000000,0.020392,0.795492,2.000000,1.000000,0.225141,1.000000,0.900295,0.619741,0.879238,0.871515,2.000000
39,0.008586,0.000000,0.536683,0.000000,1.000000,0.000000,0.020392,0.795492,2.000000,1.000000,0.225141,1.000000,0.900295,0.619741,0.879238,0.871515,2.000000
40,0.008586,0.000000,0.536683,0.000000,1.000000,0.000000,0.020392,0.795492,2.000000,1.000000,0.225141,1.000000,0.900295,0.619741,0.879238,0.871515,2.000000
41,0.008586,0.000000,0.536683,0.000000,1.000000,0.000000,0.020392,0.795492,2.000000,1.000000,0.225141,1.000000,0.900295,0.619741,0.879238,0.871515,2.000000
42,0.008586,0.000000,0.536683,0.000000,1.000000,0.000000,0.020392,0.795492,2.000000,1.000000,0.225141,1.000000,0.900295,0.619741,0.879238,0.871515,2.000000
43,0.008505,0.000000,0.972882,0.000000,1.000000,0.026601,0.372256,0.562929,2.000000,1.000000,0.080965,1.000000,0.891495,1.000000,0.776690,0.931220,2.000000
44,0.008505,0.000000,0.972882,0.000000,1.000000,0.026601,0.372256,0.562929,2.000000,1.000000,0.080965,1.000000,0.891495,1.000000,0.776690,0.931220,2.000000
45,0.008505,0.000000,0.972882,0.000000,1.000000,0.026601,0.372256,0.562929,2.000000,1.000000,0.080965,1.000000,0.891495,1.000000,0.776690,0.931220,2.000000
46,0.008505,0.000000,0.972882,0.000000,1.000000,0.026601,0.372256,0.562929,2.000000,1.000000,0.080965,1.000000,0.891495,1.000000,0.776690,0.931220,2.000000
47,0.008505,0.000000,0.972882,0.000000,1.000000,0.026601,0.372256,0.562929,2.000000,1.000000,0.080965,1.000000,0.891495,1.000000,0.776690,0.931220,2.000000
48,0.008505,0.000000,0.972882,0.000000,1.000000,0.026601,0.372256,0.562929,2.000000,1.000000,0.080965,1.000000,0.891495,1.000000,0.776690,0.931220,2.000000
49,0.008505,0.000000,0.972882,0.000000,1.000000,0.026601,0.372256,0.562929,2.000000,1.000000,0.080965,1.000000,0.891495,1.000000,0.776690,0.931220,2.000000
50,0.008505,0.000000,0.972882,0.000000,1.000000,0.026601,0.372256,0.562929,2.000000,1.000000,0.080965,1.000000,0.891495,1.000000,0.776690,0.931220,2.000000
51,0.008505,0.000000,0.972882,0.000000,1.000000,0.026601,0.372256,0.562929,2.000000,1.000000,0.080965,1.000000,0.891495,1.000000,0.776690,0.931220,2.000000
52,0.008406,0.000000,0.318546,0.000000,1.000000,0.000000,0.130364,0.536910,2.000000,1.000000,0.000000,0.970660,0.903902,0.994943,1.000000,0.882756,2.000000
53,0.008406,0.000000,0.318546,0.000000,1.000000,0.000000,0.130364,0.536910,2.000000,1.000000,0.000000,0.970660,0.903902,0.994943,1.000000,0.882756,2.000000
54,0.008406,0.000000,0.318546,0.000000,1.000000,0.000000,0.130364,0.536910,2.000000,1.000000,0.000000,0.970660,0.903902,0.994943,1.000000,0.882756,2.000000
55,0.008406,0.000000,0.318546,0.000000,1.000000,0.000000,0.130364,0.536910,2.000000,1.000000,0.000000,0.970660,0.903902,0.994943,1.000000,0.882756,2.000000
56,0.008406,0.000000,0.318546,0.000000,1.000000,0.000000,0.130364,0.536910,2.000000,1.000000,0.000000,0.970660,0.903902,0.994943,1.000000,0.882756,2.000000
57,0.008406,0.000000,0.318546,0.000000,1.000000,0.000000,0.130364,0.536910,2.000000,1.000000,0.000000,0.970660,0.903902,0.994943,1.000000,0.882756,2.000000
58,0.008406,0.000000,0.318546,0.000000,1.000000,0.000000,0.130364,0.536910,2.000000,1.000000,0.000000,0.970660,0.903902,0.994943,1.000000,0.882756,2.000000
59,0.008406,0.000000,0.318546,0.000000,1.000000,0.000000,0.130364,0.536910,2.000000,1.000000,0.000000,0.970660,0.903902,0.994943,1.000000,0.882756,2.000000
60,0.008406,0.000000,0.318546,0.000000,1.000000,0.000000,0.130364,0.536910,2.000000,1.000000,0.000000,0.970660,0.903902,0.994943,1.000000,0.882756,2.000000
61,0.008406,0.000000,0.318546,0.000000,1.000000,0.000000,0.130364,0.536910,2.000000,1.000000,0.000000,0.970660,0.903902,0.994943,1.000000,0.882756,2.000000
62,0.008349,0.000000,0.851630,0.022379,1.000000,0.000000,0.000000,0.735867,2.000000,1.000000,0.249661,0.901692,0.913198,0.844309,1.000000,0.962543,2.000000
63,0.008349,0.000000,0.851630,0.022379,1.000000,0.000000,0.000000,0.735867,2.000000,1.000000,0.249661,0.901692,0.913198,0.844309,1.000000,0.962543,2.000000
64,0.008349,0.000000,0.851630,0.022379,1.000000,0.000000,0.000000,0.735867,2.000000,1.000000,0.249661,0.901692,0.913198,0.844309,1.000000,0.962543,2.000000
65,0.008349,0.000000,0.851630,0.022379,1.000000,0.000000,0.000000,0.735867,2.000000,1.000000,0.249661,0.901692,0.913198,0.844309,1.000000,0.962543,2.000000
66,0.008349,0.000000,0.851630,0.022379,1.000000,0.000000,0.000000,0.735867,2.000000,1.000000,0.249661,0.901692,0.913198,0.844309,1.000000,0.962543,2.000000
67,0.008349,0.000000,0.851630,0.022379,1.000000,0.000000,0.000000,0.735867,2.000000,1.000000,0.249661,0.901692,0.913198,0.844309,1.000000,0.962543,2.000000
68,0.008349,0.000000,0.851630,0.022379,1.000000,0.000000,0.000000,0.735867,2.000000,1.000000,0.249661,0.901692,0.913198,0.844309,1.000000,0.962543,2.000000
69,0.008349,0.000000,0.851630,0.022379,1.000000,0.000000,0.000000,0.735867,2.000000,1.000000,0.249661,0.901692,0.913198,0.844309,1.000000,0.962543,2.000000
70,0.008349,0.000000,0.851630,0.022379,1.000000,0.000000,0.000000,0.735867,2.000000,1.000000,0.249661,0.901692,0.913198,0.844309,1.000000,0.962543,2.000000
71,0.008349,0.000000,0.851630,0.022379,1.000000,0.000000,0.000000,0.735867,2.000000,1.000000,0.249661,0.901692,0.913198,0.844309,1.000000,0.962543,2.000000
72,0.008349,0.000000,0.851630,0.022379,1.000000,0.000000,0.000000,0.735867,2.000000,1.000000,0.249661,0.901692,0.913198,0.844309,1.000000,0.962543,2.000000
gen, fitness
0,0.020772,0.000000,1.000000,0.210000,0.800000,0.030000,0.030000,1.000000,0.000000,1.000000,0.000000,0.000000,0.600000,1.000000,1.000000,0.000000,0.000000
1,0.020772,0.000000,1.000000,0.210000,0.800000,0.030000,0.030000,1.000000,0.000000,1.000000,0.000000,0.000000,0.600000,1.000000,1.000000,0.000000,0.000000
2,0.008644,0.025898,1.000000,0.083416,0.823888,0.030000,0.157801,0.975990,1.000000,1.000000,0.000000,0.000000,0.750656,1.000000,1.000000,0.000000,0.000000
3,0.003976,0.000000,0.818035,0.297845,0.811626,0.000000,0.000000,1.000000,1.000000,0.903344,0.093185,0.043938,0.768182,0.947964,0.767949,0.000000,0.000000
4,0.001888,0.000000,0.888840,0.257199,0.831178,0.104820,0.069286,0.787559,2.000000,0.674513,0.000000,0.171008,0.772800,0.871070,0.881676,0.200944,2.000000
5,0.000728,0.092084,1.000000,0.454141,0.888164,0.133517,0.230672,1.000000,1.000000,1.000000,0.000000,0.147247,0.855877,1.000000,1.000000,0.114969,2.000000
6,0.000631,0.170118,0.873182,0.394462,0.912006,0.035830,0.076605,0.981493,1.000000,0.893811,0.051467,0.000000,0.913430,0.898305,0.869931,0.000000,2.000000
7,0.000203,0.000000,0.818035,0.339688,0.971832,0.000000,0.061086,1.000000,1.000000,0.878468,0.192109,0.000000,0.960215,0.864270,0.758643,0.000000,1.000000
8,0.000203,0.000000,0.818035,0.339688,0.971832,0.000000,0.061086,1.000000,1.000000,0.878468,0.192109,0.000000,0.960215,0.864270,0.758643,0.000000,1.000000
9,0.000022,0.109107,0.928484,0.543452,0.971912,0.007990,0.000000,0.768039,2.000000,1.000000,0.133083,0.028594,1.000000,1.000000,0.941688,0.062191,2.000000
10,0.000005,0.200139,0.921492,0.309797,0.986779,0.000000,0.000000,0.848949,2.000000,1.000000,0.094358,0.170463,0.978105,0.743882,0.766997,0.071662,0.000000
11,0.000005,0.200139,0.921492,0.309797,0.986779,0.000000,0.000000,0.848949,2.000000,1.000000,0.094358,0.170463,0.978105,0.743882,0.766997,0.071662,0.000000
12,0.000005,0.200139,0.921492,0.309797,0.986779,0.000000,0.000000,0.848949,2.000000,1.000000,0.094358,0.170463,0.978105,0.743882,0.766997,0.071662,0.000000
13,0.000005,0.200139,0.921492,0.309797,0.986779,0.000000,0.000000,0.848949,2.000000,1.000000,0.094358,0.170463,0.978105,0.743882,0.766997,0.071662,0.000000
14,0.000005,0.200139,0.921492,0.309797,0.986779,0.000000,0.000000,0.848949,2.000000,1.000000,0.094358,0.170463,0.978105,0.743882,0.766997,0.071662,0.000000
15,0.000005,0.200139,0.921492,0.309797,0.986779,0.000000,0.000000,0.848949,2.000000,1.000000,0.094358,0.170463,0.978105,0.743882,0.766997,0.071662,0.000000
16,0.000000,0.000000,0.899341,0.672162,0.971912,0.000000,0.000000,1.000000,1.000000,0.960898,0.157615,0.000000,1.000000,0.679821,0.936702,0.038518,1.000000
gen, fitness
0,0.008197,0.000000,1.000000,0.210000,0.800000,0.030000,0.030000,1.000000,0.000000,1.000000,0.000000,0.000000,0.600000,1.000000,1.000000,0.000000,0.000000
1,0.008197,0.000000,1.000000,0.210000,0.800000,0.030000,0.030000,1.000000,0.000000,1.000000,0.000000,0.000000,0.600000,1.000000,1.000000,0.000000,0.000000
2,0.000060,0.000000,0.988273,0.210000,0.803911,0.122822,0.030000,1.000000,2.000000,1.000000,0.000000,0.000000,0.712308,1.000000,1.000000,0.000000,2.000000
3,0.000055,0.000000,1.000000,0.139790,0.836808,0.063807,0.000000,0.914701,2.000000,0.924106,0.068848,0.108942,0.715356,0.885659,0.924443,0.000000,0.000000
4,0.000030,0.120457,0.925980,0.210000,0.803911,0.134201,0.000000,0.873897,2.000000,1.000000,0.000000,0.053181,0.712308,1.000000,1.000000,0.160841,1.000000
5,0.000030,0.120457,0.925980,0.210000,0.803911,0.134201,0.000000,0.873897,2.000000,1.000000,0.000000,0.053181,0.712308,1.000000,1.000000,0.160841,1.000000
6,0.000029,0.023727,1.000000,0.376898,0.726259,0.079057,0.139656,1.000000,2.000000,0.907120,0.000000,0.037796,0.713514,0.613229,1.000000,0.014908,1.000000
7,0.000025,0.235417,1.000000,0.641815,0.664442,0.129011,0.528199,0.903110,0.000000,0.911772,0.000000,0.224742,0.696877,0.781704,0.836398,0.180484,1.000000
8,0.000025,0.235417,1.000000,0.641815,0.664442,0.129011,0.528199,0.903110,0.000000,0.911772,0.000000,0.224742,0.696877,0.781704,0.836398,0.180484,1.000000
9,0.000006,0.306837,0.785170,0.171505,0.773992,0.247047,0.000000,1.000000,2.000000,0.817849,0.012527,0.115406,0.712308,0.763316,0.742910,0.262660,1.000000
10,0.000003,0.104328,0.706188,0.253708,0.778010,0.000000,0.010850,0.913122,2.000000,1.000000,0.044970,0.000000,0.712308,1.000000,0.922792,0.320859,2.000000
11,0.000003,0.104328,0.706188,0.253708,0.778010,0.000000,0.010850,0.913122,2.000000,1.000000,0.044970,0.000000,0.712308,1.000000,0.922792,0.320859,2.000000
12,0.000003,0.104328,0.706188,0.253708,0.778010,0.000000,0.010850,0.913122,2.000000,1.000000,0.044970,0.000000,0.712308,1.000000,0.922792,0.320859,2.000000
13,0.000003,0.104328,0.706188,0.253708,0.778010,0.000000,0.010850,0.913122,2.000000,1.000000,0.044970,0.000000,0.712308,1.000000,0.922792,0.320859,2.000000
14,0.000003,0.104328,0.706188,0.253708,0.778010,0.000000,0.010850,0.913122,2.000000,1.000000,0.044970,0.000000,0.712308,1.000000,0.922792,0.320859,2.000000
15,0.000003,0.193331,1.000000,0.529495,0.724578,0.185041,0.000000,0.986657,0.000000,1.000000,0.014734,0.411849,0.610700,0.972041,0.833622,0.149160,0.000000
16,0.000002,0.023727,1.000000,0.359339,0.726259,0.079057,0.112194,1.000000,1.000000,0.766181,0.000000,0.070467,0.713514,0.399316,0.924877,0.055951,0.000000
17,0.000002,0.023727,1.000000,0.359339,0.726259,0.079057,0.112194,1.000000,1.000000,0.766181,0.000000,0.070467,0.713514,0.399316,0.924877,0.055951,0.000000
18,0.000002,0.023727,1.000000,0.359339,0.726259,0.079057,0.112194,1.000000,1.000000,0.766181,0.000000,0.070467,0.713514,0.399316,0.924877,0.055951,0.000000
19,0.000002,0.023727,1.000000,0.359339,0.726259,0.079057,0.112194,1.000000,1.000000,0.766181,0.000000,0.070467,0.713514,0.399316,0.924877,0.055951,0.000000
gen, fitness
0,0.011091,0.000000,1.000000,0.210000,0.800000,0.030000,0.030000,1.000000,0.000000,1.000000,0.000000,0.000000,0.600000,1.000000,1.000000,0.000000,0.000000
1,0.011091,0.000000,1.000000,0.210000,0.800000,0.030000,0.030000,1.000000,0.000000,1.000000,0.000000,0.000000,0.600000,1.000000,1.000000,0.000000,0.000000
2,0.000015,0.000000,1.000000,0.109737,0.778711,0.000000,0.030000,0.984992,0.000000,1.000000,0.076144,0.000000,0.656780,1.000000,0.985105,0.039043,0.000000
3,0.000015,0.000000,1.000000,0.109737,0.778711,0.000000,0.030000,0.984992,0.000000,1.000000,0.076144,0.000000,0.656780,1.000000,0.985105,0.039043,0.000000
4,0.000015,0.000000,1.000000,0.109737,0.778711,0.000000,0.030000,0.984992,0.000000,1.000000,0.076144,0.000000,0.656780,1.000000,0.985105,0.039043,0.000000
5,0.000015,0.000000,1.000000,0.109737,0.778711,0.000000,0.030000,0.984992,0.000000,1.000000,0.076144,0.000000,0.656780,1.000000,0.985105,0.039043,0.000000
6,0.000015,0.000000,1.000000,0.109737,0.778711,0.000000,0.030000,0.984992,0.000000,1.000000,0.076144,0.000000,0.656780,1.000000,0.985105,0.039043,0.000000
7,0.000015,0.000000,1.000000,0.109737,0.778711,0.000000,0.030000,0.984992,0.000000,1.000000,0.076144,0.000000,0.656780,1.000000,0.985105,0.039043,0.000000
8,0.000015,0.000000,1.000000,0.109737,0.778711,0.000000,0.030000,0.984992,0.000000,1.000000,0.076144,0.000000,0.656780,1.000000,0.985105,0.039043,0.000000
9,0.000015,0.000000,1.000000,0.109737,0.778711,0.000000,0.030000,0.984992,0.000000,1.000000,0.076144,0.000000,0.656780,1.000000,0.985105,0.039043,0.000000
10,0.000015,0.000000,1.000000,0.109737,0.778711,0.000000,0.030000,0.984992,0.000000,1.000000,0.076144,0.000000,0.656780,1.000000,0.985105,0.039043,0.000000
11,0.000008,0.000000,0.927800,0.000000,0.732266,0.285378,0.313451,0.981465,2.000000,0.665524,0.151303,0.051288,0.607167,0.784460,0.904441,0.000000,1.000000
12,0.000008,0.000000,0.927800,0.000000,0.732266,0.285378,0.313451,0.981465,2.000000,0.665524,0.151303,0.051288,0.607167,0.784460,0.904441,0.000000,1.000000
gen, fitness
0,0.020988,0.000000,1.000000,0.210000,0.800000,0.030000,0.030000,1.000000,0.000000,1.000000,0.000000,0.000000,0.600000,1.000000,1.000000,0.000000,0.000000
1,0.020988,0.000000,1.000000,0.210000,0.800000,0.030000,0.030000,1.000000,0.000000,1.000000,0.000000,0.000000,0.600000,1.000000,1.000000,0.000000,0.000000
2,0.002298,0.000000,0.992867,0.200466,1.000000,0.000000,0.197736,1.000000,1.000000,0.999744,0.031541,0.000000,0.941032,1.000000,1.000000,0.133213,2.000000
3,0.002162,0.000000,0.900388,0.200466,1.000000,0.000000,0.221259,0.831153,1.000000,1.000000,0.000000,0.000000,0.982789,1.000000,1.000000,0.021570,1.000000
4,0.002162,0.000000,0.900388,0.200466,1.000000,0.000000,0.221259,0.831153,1.000000,1.000000,0.000000,0.000000,0.982789,1.000000,1.000000,0.021570,1.000000
5,0.001546,0.043431,0.956265,0.197275,1.000000,0.072926,0.258066,0.902449,1.000000,0.892934,0.000000,0.171755,0.970394,0.772153,0.865926,0.496505,2.000000
6,0.000947,0.184106,0.893716,0.200466,1.000000,0.032265,0.078122,0.831153,2.000000,0.893496,0.000000,0.000000,1.000000,1.000000,1.000000,0.173857,2.000000
7,0.000522,0.098188,0.889822,0.479765,1.000000,0.000000,0.127076,1.000000,1.000000,0.917430,0.000000,0.031561,1.000000,0.856987,0.998512,0.237092,2.000000
8,0.000459,0.151085,0.889822,0.596822,1.000000,0.224736,0.373070,0.901199,1.000000,0.711451,0.146106,0.245468,1.000000,0.991424,0.940581,0.000000,0.000000
9,0.000459,0.151085,0.889822,0.596822,1.000000,0.224736,0.373070,0.901199,1.000000,0.711451,0.146106,0.245468,1.000000,0.991424,0.940581,0.000000,0.000000
10,0.000362,0.003927,1.000000,0.683399,1.000000,0.245073,0.371095,0.759405,1.000000,0.763221,0.242734,0.465039,1.000000,1.000000,1.000000,0.112720,2.000000
11,0.000143,0.000000,1.000000,0.683399,1.000000,0.238617,0.297152,0.703009,2.000000,0.730577,0.242734,0.406220,1.000000,1.000000,1.000000,0.112720,2.000000
12,0.000143,0.000000,1.000000,0.683399,1.000000,0.238617,0.297152,0.703009,2.000000,0.730577,0.242734,0.406220,1.000000,1.000000,1.000000,0.112720,2.000000
13,0.000078,0.063935,0.734577,0.614837,0.998044,0.430805,0.355449,1.000000,2.000000,0.509396,0.158948,0.578374,1.000000,0.711172,1.000000,0.156732,0.000000
14,0.000078,0.063935,0.734577,0.614837,0.998044,0.430805,0.355449,1.000000,2.000000,0.509396,0.158948,0.578374,1.000000,0.711172,1.000000,0.156732,0.000000
15,0.000078,0.063935,0.734577,0.614837,0.998044,0.430805,0.355449,1.000000,2.000000,0.509396,0.158948,0.578374,1.000000,0.711172,1.000000,0.156732,0.000000
16,0.000022,0.027909,0.750384,0.728893,1.000000,0.353276,0.221646,1.000000,2.000000,0.445971,0.324691,0.972759,1.000000,0.729813,0.958769,0.105155,0.000000
17,0.000022,0.027909,0.750384,0.728893,1.000000,0.353276,0.221646,1.000000,2.000000,0.445971,0.324691,0.972759,1.000000,0.729813,0.958769,0.105155,0.000000
18,0.000022,0.027909,0.750384,0.728893,1.000000,0.353276,0.221646,1.000000,2.000000,0.445971,0.324691,0.972759,1.000000,0.729813,0.958769,0.105155,0.000000
19,0.000022,0.027909,0.750384,0.728893,1.000000,0.353276,0.221646,1.000000,2.000000,0.445971,0.324691,0.972759,1.000000,0.729813,0.958769,0.105155,0.000000
20,0.000014,0.011118,0.606199,0.856099,1.000000,0.381785,0.221646,1.000000,0.000000,0.217693,0.143673,0.972759,1.000000,0.719384,0.876526,0.105155,2.000000
21,0.000014,0.011118,0.606199,0.856099,1.000000,0.381785,0.221646,1.000000,0.000000,0.217693,0.143673,0.972759,1.000000,0.719384,0.876526,0.105155,2.000000
22,0.000012,0.022433,0.601804,0.852023,1.000000,0.295736,0.206106,1.000000,1.000000,0.428949,0.391266,0.918155,1.000000,0.708563,0.852501,0.151914,2.000000
23,0.000012,0.022433,0.601804,0.852023,1.000000,0.295736,0.206106,1.000000,1.000000,0.428949,0.391266,0.918155,1.000000,0.708563,0.852501,0.151914,2.000000
24,0.000005,0.000000,0.772563,0.803470,1.000000,0.295736,0.000000,1.000000,2.000000,0.428949,0.490513,1.000000,1.000000,0.698528,0.905553,0.254910,2.000000
25,0.000005,0.000000,0.772563,0.803470,1.000000,0.295736,0.000000,1.000000,2.000000,0.428949,0.490513,1.000000,1.000000,0.698528,0.905553,0.254910,2.000000
26,0.000005,0.000000,0.772563,0.803470,1.000000,0.295736,0.000000,1.000000,2.000000,0.428949,0.490513,1.000000,1.000000,0.698528,0.905553,0.254910,2.000000
