gen, fitness
0,0.094016,0.000000,1.000000,0.210000,0.800000,0.030000,0.030000,1.000000,0.000000,1.000000,0.000000,0.000000,0.600000,1.000000,1.000000,0.000000,0.000000
1,0.094016,0.000000,1.000000,0.210000,0.800000,0.030000,0.030000,1.000000,0.000000,1.000000,0.000000,0.000000,0.600000,1.000000,1.000000,0.000000,0.000000
2,0.079460,0.000000,0.815044,0.106975,0.800000,0.030000,0.030000,1.000000,0.000000,1.000000,0.000000,0.000000,0.600000,1.000000,0.825492,0.000000,0.000000
3,0.071541,0.000000,1.000000,0.261293,0.667030,0.110420,0.030000,1.000000,0.000000,1.000000,0.000000,0.065239,0.600000,1.000000,1.000000,0.000000,0.000000
4,0.061827,0.000000,1.000000,0.095246,0.690011,0.030000,0.000000,1.000000,0.000000,0.943020,0.202134,0.000000,0.600000,1.000000,0.927513,0.000000,0.000000
5,0.058250,0.000000,1.000000,0.210000,0.631862,0.000000,0.030000,0.967922,0.000000,1.000000,0.000000,0.012925,0.550267,1.000000,1.000000,0.068308,0.000000
6,0.046828,0.000000,1.000000,0.148694,0.612009,0.043247,0.059838,0.918885,0.000000,1.000000,0.037773,0.000000,0.441700,0.970144,0.942721,0.280933,1.000000
7,0.038385,0.000000,1.000000,0.148694,0.553358,0.043247,0.059838,0.882120,0.000000,1.000000,0.070775,0.102350,0.248978,1.000000,1.000000,0.056738,1.000000
8,0.033515,0.000000,1.000000,0.000000,0.553358,0.043247,0.059838,0.882120,2.000000,1.000000,0.070775,0.102350,0.248978,0.888730,1.000000,0.056738,1.000000
9,0.026676,0.243518,1.000000,0.000000,0.553358,0.043247,0.059838,0.882120,2.000000,1.000000,0.070775,0.047083,0.248978,0.888730,1.000000,0.056738,1.000000
10,0.024992,0.000000,1.000000,0.000000,0.529096,0.043247,0.059838,0.848300,1.000000,1.000000,0.070775,0.102350,0.125733,1.000000,0.979475,0.000000,0.000000
11,0.019532,0.062793,1.000000,0.000000,0.483611,0.141822,0.059838,0.876373,2.000000,1.000000,0.070775,0.047083,0.079267,0.967262,0.929040,0.056738,1.000000
12,0.018850,0.062793,1.000000,0.000000,0.483611,0.043247,0.046541,0.690988,2.000000,1.000000,0.070775,0.008929,0.125733,0.973659,0.942721,0.096046,2.000000
13,0.014750,0.243518,0.999546,0.000000,0.442211,0.043247,0.000000,0.879769,0.000000,1.000000,0.070775,0.000000,0.125733,1.000000,1.000000,0.000000,1.000000
14,0.014345,0.243518,0.999546,0.000000,0.442211,0.043247,0.000000,0.720982,1.000000,1.000000,0.070775,0.000000,0.125733,1.000000,1.000000,0.000000,2.000000
15,0.008578,0.243518,0.955726,0.000000,0.220239,0.000000,0.059838,0.848300,1.000000,1.000000,0.119846,0.000000,0.096756,0.967262,1.000000,0.056888,0.000000
16,0.008578,0.243518,0.955726,0.000000,0.220239,0.000000,0.059838,0.848300,1.000000,1.000000,0.119846,0.000000,0.096756,0.967262,1.000000,0.056888,0.000000
17,0.003285,0.532201,0.955726,0.000000,0.098898,0.068135,0.050187,0.884372,1.000000,0.941524,0.256194,0.000000,0.101965,0.967262,1.000000,0.056888,2.000000
18,0.001851,0.532201,0.955726,0.000000,0.098898,0.068135,0.094789,0.884372,1.000000,0.941524,0.256194,0.000000,0.044970,0.977943,1.000000,0.056888,2.000000
19,0.000927,0.532201,1.000000,0.000000,0.098898,0.068135,0.050187,0.884372,1.000000,1.000000,0.256194,0.000000,0.000000,1.000000,0.776558,0.000000,0.000000
20,0.000927,0.532201,1.000000,0.000000,0.098898,0.068135,0.050187,0.884372,1.000000,1.000000,0.256194,0.000000,0.000000,1.000000,0.776558,0.000000,0.000000
21,0.000831,0.592954,0.955726,0.000000,0.098898,0.068135,0.070983,0.884372,1.000000,0.968279,0.305671,0.000000,0.000000,0.977943,1.000000,0.056888,0.000000
22,0.000141,0.729344,0.940741,0.000000,0.030379,0.068135,0.084408,0.884372,1.000000,0.968279,0.305671,0.000000,0.000000,0.978979,1.000000,0.056888,1.000000
23,0.000038,0.729344,0.940741,0.000000,0.000000,0.068135,0.084408,0.884372,0.000000,1.000000,0.167628,0.000000,0.000000,1.000000,0.776558,0.000000,0.000000
24,0.000010,0.748179,0.940741,0.000000,0.000000,0.068135,0.136180,0.884372,0.000000,1.000000,0.104421,0.000000,0.000000,1.000000,1.000000,0.000000,1.000000
25,0.000010,0.748179,0.940741,0.000000,0.000000,0.068135,0.136180,0.884372,0.000000,1.000000,0.104421,0.000000,0.000000,1.000000,1.000000,0.000000,1.000000
26,0.000010,0.748179,0.940741,0.000000,0.000000,0.068135,0.136180,0.884372,0.000000,1.000000,0.038881,0.000000,0.000000,1.000000,0.677851,0.000000,2.000000
27,0.000000,0.781302,0.940741,0.000000,0.000000,0.068135,0.307728,0.789189,0.000000,1.000000,0.038881,0.000000,0.000000,1.000000,0.635745,0.030747,0.000000
gen, fitness
0,0.011444,0.000000,1.000000,0.210000,0.800000,0.030000,0.030000,1.000000,0.000000,1.000000,0.000000,0.000000,0.600000,1.000000,1.000000,0.000000,0.000000
1,0.011444,0.000000,1.000000,0.210000,0.800000,0.030000,0.030000,1.000000,0.000000,1.000000,0.000000,0.000000,0.600000,1.000000,1.000000,0.000000,0.000000
2,0.003868,0.000000,1.000000,0.210000,0.652765,0.032561,0.093045,1.000000,0.000000,1.000000,0.000000,0.000000,0.517927,1.000000,1.000000,0.000000,2.000000
3,0.003129,0.000000,1.000000,0.210000,0.652765,0.037106,0.093045,1.000000,0.000000,1.000000,0.000000,0.000000,0.471939,1.000000,1.000000,0.000000,0.000000
4,0.001833,0.000000,1.000000,0.093822,0.652765,0.032561,0.210735,1.000000,2.000000,1.000000,0.000000,0.000000,0.361977,0.810301,1.000000,0.000000,0.000000
5,0.001449,0.000000,1.000000,0.093822,0.583784,0.032561,0.173158,1.000000,2.000000,1.000000,0.000000,0.000000,0.361977,0.771527,1.000000,0.000000,0.000000
6,0.001252,0.201705,1.000000,0.093822,0.620099,0.060704,0.093045,1.000000,2.000000,1.000000,0.000000,0.063510,0.335601,1.000000,0.912439,0.215173,2.000000
7,0.000943,0.038902,0.840483,0.090278,0.601029,0.000000,0.093045,1.000000,0.000000,1.000000,0.000000,0.000000,0.265692,0.771527,1.000000,0.000000,0.000000
8,0.000248,0.077688,1.000000,0.093822,0.500588,0.032561,0.150625,1.000000,2.000000,0.899627,0.000000,0.000000,0.273684,0.771527,1.000000,0.000000,0.000000
9,0.000136,0.060698,0.669872,0.070198,0.553017,0.256898,0.108370,1.000000,0.000000,1.000000,0.025284,0.029133,0.198312,1.000000,0.932470,0.211190,1.000000
10,0.000046,0.226368,1.000000,0.000000,0.538715,0.032561,0.278079,1.000000,1.000000,0.899627,0.000000,0.000000,0.273684,0.771527,0.922877,0.000000,1.000000
11,0.000020,0.250604,0.927725,0.093822,0.426215,0.032561,0.354744,1.000000,0.000000,0.899627,0.079551,0.000000,0.273684,0.771527,1.000000,0.000000,0.000000
12,0.000000,0.216964,1.000000,0.000000,0.545063,0.000000,0.059460,0.955699,2.000000,1.000000,0.000000,0.000000,0.245883,0.771527,0.984610,0.000000,0.000000
gen, fitness
0,0.010533,0.000000,1.000000,0.210000,0.800000,0.030000,0.030000,1.000000,0.000000,1.000000,0.000000,0.000000,0.600000,1.000000,1.000000,0.000000,0.000000
1,0.010533,0.000000,1.000000,0.210000,0.800000,0.030000,0.030000,1.000000,0.000000,1.000000,0.000000,0.000000,0.600000,1.000000,1.000000,0.000000,0.000000
2,0.002189,0.000000,1.000000,0.200652,0.690429,0.030000,0.030000,1.000000,0.000000,1.000000,0.000000,0.000018,0.600000,1.000000,1.000000,0.000000,0.000000
3,0.001872,0.000000,1.000000,0.000000,0.800000,0.000000,0.030000,0.980512,0.000000,1.000000,0.000000,0.000000,0.571650,1.000000,1.000000,0.000000,1.000000
4,0.001126,0.000000,1.000000,0.210000,0.671075,0.165517,0.030000,0.836625,0.000000,1.000000,0.000000,0.000000,0.539000,1.000000,1.000000,0.000000,0.000000
5,0.000275,0.000000,1.000000,0.200652,0.558205,0.000000,0.030000,1.000000,1.000000,1.000000,0.000000,0.000018,0.413856,0.954088,1.000000,0.000000,0.000000
6,0.000198,0.074365,1.000000,0.200652,0.558205,0.000000,0.030000,1.000000,0.000000,1.000000,0.000000,0.000018,0.413856,0.954088,1.000000,0.000000,1.000000
7,0.000182,0.074365,1.000000,0.200652,0.558205,0.000000,0.030000,1.000000,0.000000,1.000000,0.216603,0.000018,0.413856,0.954088,1.000000,0.000000,0.000000
8,0.000037,0.208180,1.000000,0.170450,0.532107,0.000000,0.030000,1.000000,0.000000,1.000000,0.000000,0.000000,0.413856,0.954088,1.000000,0.000000,1.000000
9,0.000037,0.208180,1.000000,0.170450,0.532107,0.000000,0.030000,1.000000,0.000000,1.000000,0.000000,0.000000,0.413856,0.954088,1.000000,0.000000,1.000000
10,0.000020,0.207891,0.825199,0.126395,0.564369,0.076861,0.031367,0.836625,1.000000,1.000000,0.017774,0.000000,0.412989,0.713400,0.876113,0.000000,0.000000
11,0.000007,0.207891,0.809974,0.126395,0.564369,0.076861,0.000000,0.693163,1.000000,1.000000,0.017774,0.000000,0.412989,0.713400,0.876113,0.000000,0.000000
12,0.000007,0.207891,0.809974,0.126395,0.564369,0.076861,0.000000,0.693163,1.000000,1.000000,0.017774,0.000000,0.412989,0.713400,0.876113,0.000000,0.000000
13,0.000004,0.280991,0.809974,0.126395,0.564369,0.047152,0.000000,0.436593,1.000000,1.000000,0.000000,0.000000,0.412989,0.713400,0.861947,0.050178,1.000000
14,0.000002,0.207891,0.809974,0.126395,0.564369,0.291663,0.031367,0.697043,0.000000,0.982703,0.017774,0.000000,0.412989,0.713400,0.876113,0.000000,0.000000
15,0.000002,0.207891,0.809974,0.126395,0.564369,0.291663,0.031367,0.697043,0.000000,0.982703,0.017774,0.000000,0.412989,0.713400,0.876113,0.000000,0.000000
16,0.000002,0.251823,0.641975,0.126395,0.564369,0.129640,0.031367,0.587213,0.000000,1.000000,0.017774,0.000000,0.413856,0.764457,0.876113,0.000000,0.000000
17,0.000001,0.207891,0.825199,0.126395,0.564369,0.129640,0.031367,0.612678,0.000000,0.982703,0.017774,0.000000,0.407891,0.713400,0.853356,0.000000,0.000000
18,0.000001,0.207891,0.825199,0.126395,0.564369,0.129640,0.031367,0.612678,0.000000,0.982703,0.017774,0.000000,0.407891,0.713400,0.853356,0.000000,0.000000
19,0.000001,0.207891,0.825199,0.126395,0.564369,0.129640,0.031367,0.612678,0.000000,0.982703,0.017774,0.000000,0.407891,0.713400,0.853356,0.000000,0.000000
20,0.000000,0.207891,0.730695,0.126395,0.564369,0.415400,0.000000,0.735497,0.000000,1.000000,0.021130,0.000000,0.405954,0.958428,0.998660,0.000000,0.000000
gen, fitness
0,0.067934,0.000000,1.000000,0.210000,0.800000,0.030000,0.030000,1.000000,0.000000,1.000000,0.000000,0.000000,0.600000,1.000000,1.000000,0.000000,0.000000
1,0.067934,0.000000,1.000000,0.210000,0.800000,0.030000,0.030000,1.000000,0.000000,1.000000,0.000000,0.000000,0.600000,1.000000,1.000000,0.000000,0.000000
2,0.048956,0.000000,1.000000,0.028131,0.800000,0.166425,0.076266,0.956813,0.000000,1.000000,0.000000,0.000000,0.600000,0.976013,1.000000,0.000000,0.000000
3,0.040845,0.000000,1.000000,0.210000,0.665375,0.030000,0.030000,1.000000,0.000000,1.000000,0.000000,0.000000,0.512736,1.000000,1.000000,0.000000,0.000000
4,0.032490,0.000000,1.000000,0.010514,0.685878,0.030000,0.030000,1.000000,0.000000,0.809314,0.000000,0.000000,0.435387,1.000000,1.000000,0.000000,1.000000
5,0.031372,0.000000,1.000000,0.010514,0.685878,0.030000,0.030000,1.000000,0.000000,0.924215,0.000000,0.038501,0.435387,0.966829,1.000000,0.000000,1.000000
6,0.026048,0.000000,1.000000,0.210000,0.552008,0.030000,0.030000,1.000000,1.000000,1.000000,0.000000,0.000000,0.338077,1.000000,1.000000,0.000000,0.000000
7,0.019718,0.000000,1.000000,0.032493,0.638851,0.030000,0.078560,1.000000,0.000000,1.000000,0.000000,0.000000,0.301269,1.000000,1.000000,0.000000,0.000000
8,0.017949,0.139089,1.000000,0.000000,0.523257,0.166425,0.071451,0.956813,1.000000,1.000000,0.000000,0.027154,0.338077,1.000000,1.000000,0.000000,2.000000
9,0.012283,0.073815,1.000000,0.028131,0.562018,0.117884,0.050873,1.000000,1.000000,1.000000,0.000000,0.000000,0.224469,1.000000,1.000000,0.000000,0.000000
10,0.009664,0.087714,1.000000,0.000000,0.523257,0.229548,0.071451,0.956813,0.000000,0.959776,0.000000,0.000000,0.224469,1.000000,1.000000,0.000000,0.000000
11,0.009184,0.000000,1.000000,0.010514,0.400670,0.012273,0.070470,0.932334,1.000000,0.971062,0.038300,0.000000,0.149444,0.907589,1.000000,0.000000,0.000000
12,0.006385,0.108568,1.000000,0.010514,0.494334,0.012273,0.070470,0.932334,1.000000,1.000000,0.038300,0.000000,0.149444,0.875977,1.000000,0.000000,0.000000
13,0.001599,0.152842,1.000000,0.010514,0.400670,0.012273,0.000000,0.932203,1.000000,0.971062,0.038300,0.000000,0.002592,0.907589,1.000000,0.012468,1.000000
14,0.001279,0.190481,1.000000,0.000000,0.330312,0.166425,0.071451,0.956813,0.000000,0.936799,0.169993,0.021471,0.000000,0.961241,1.000000,0.000000,0.000000
15,0.000944,0.204324,1.000000,0.000000,0.400670,0.012273,0.070470,0.712852,0.000000,0.969518,0.038300,0.000000,0.014166,0.875977,0.945296,0.066873,0.000000
16,0.000693,0.238786,1.000000,0.000000,0.339215,0.012273,0.000000,0.780540,0.000000,0.971062,0.157221,0.000000,0.002592,0.942222,0.983919,0.016631,2.000000
17,0.000120,0.318738,1.000000,0.000000,0.339215,0.012273,0.000000,0.804956,0.000000,0.971062,0.157221,0.000000,0.002592,0.949425,0.945296,0.000000,0.000000
18,0.000101,0.426607,1.000000,0.000000,0.339215,0.139271,0.054832,0.749213,0.000000,0.969518,0.121735,0.000000,0.014166,0.919498,0.945296,0.066873,1.000000
19,0.000048,0.426607,1.000000,0.000000,0.339215,0.139271,0.070470,0.541024,0.000000,0.969518,0.038300,0.000000,0.002592,0.952458,1.000000,0.016631,0.000000
20,0.000048,0.426607,1.000000,0.000000,0.339215,0.139271,0.070470,0.541024,0.000000,0.969518,0.038300,0.000000,0.002592,0.952458,1.000000,0.016631,0.000000
21,0.000003,0.393702,1.000000,0.000000,0.339215,0.000000,0.000000,0.541024,0.000000,0.969518,0.116914,0.000000,0.000000,0.976413,0.978802,0.016631,0.000000
22,0.000000,0.426607,0.990888,0.000000,0.315854,0.139271,0.070470,0.651206,1.000000,0.977294,0.172865,0.000000,0.002592,0.942222,0.983919,0.016631,0.000000
gen, fitness
0,0.030614,0.000000,1.000000,0.210000,0.800000,0.030000,0.030000,1.000000,0.000000,1.000000,0.000000,0.000000,0.600000,1.000000,1.000000,0.000000,0.000000
1,0.030614,0.000000,1.000000,0.210000,0.800000,0.030000,0.030000,1.000000,0.000000,1.000000,0.000000,0.000000,0.600000,1.000000,1.000000,0.000000,0.000000
2,0.011752,0.000000,1.000000,0.210000,0.647114,0.030000,0.030000,1.000000,0.000000,1.000000,0.000000,0.000000,0.544704,1.000000,1.000000,0.000000,0.000000
3,0.010442,0.000000,1.000000,0.210000,0.638285,0.030000,0.030000,1.000000,0.000000,1.000000,0.000000,0.000000,0.429111,1.000000,1.000000,0.000000,0.000000
4,0.010442,0.000000,1.000000,0.210000,0.638285,0.030000,0.030000,1.000000,0.000000,1.000000,0.000000,0.000000,0.429111,1.000000,1.000000,0.000000,0.000000
5,0.005883,0.154770,1.000000,0.210000,0.517982,0.043367,0.030000,1.000000,1.000000,0.952637,0.000000,0.000000,0.429111,1.000000,1.000000,0.060965,0.000000
6,0.003559,0.000000,1.000000,0.210000,0.384787,0.060034,0.030000,1.000000,1.000000,0.949594,0.000000,0.000000,0.304277,1.000000,1.000000,0.000000,0.000000
7,0.003349,0.163406,1.000000,0.000000,0.638285,0.000000,0.000000,1.000000,0.000000,1.000000,0.039923,0.000000,0.367555,1.000000,1.000000,0.140435,0.000000
8,0.002260,0.323701,1.000000,0.078594,0.489763,0.000000,0.000000,0.709427,0.000000,0.904760,0.000000,0.000000,0.255067,1.000000,1.000000,0.000000,1.000000
9,0.000281,0.323701,1.000000,0.000000,0.489763,0.000000,0.000000,0.709427,0.000000,0.904760,0.000000,0.000000,0.255067,1.000000,1.000000,0.000000,1.000000
10,0.000281,0.323701,1.000000,0.000000,0.489763,0.000000,0.000000,0.709427,0.000000,0.904760,0.000000,0.000000,0.255067,1.000000,1.000000,0.000000,1.000000
11,0.000261,0.323701,1.000000,0.000000,0.489763,0.000000,0.000000,0.683811,0.000000,0.904760,0.000000,0.000000,0.255067,1.000000,1.000000,0.000000,1.000000
12,0.000066,0.488071,1.000000,0.136286,0.288153,0.092392,0.183930,0.709427,0.000000,0.904760,0.000000,0.000000,0.255067,0.851034,1.000000,0.000000,2.000000
13,0.000058,0.443442,1.000000,0.136286,0.288153,0.086348,0.183930,0.709427,0.000000,0.889801,0.164082,0.000000,0.255067,0.851034,1.000000,0.000000,2.000000
14,0.000036,0.488071,1.000000,0.051255,0.288153,0.006676,0.000000,0.683811,1.000000,0.783668,0.000000,0.000000,0.255067,1.000000,1.000000,0.000000,1.000000
15,0.000010,0.488071,1.000000,0.051255,0.288153,0.000000,0.000000,0.683811,1.000000,0.766631,0.000000,0.000000,0.255067,1.000000,1.000000,0.000000,0.000000
16,0.000010,0.488071,1.000000,0.051255,0.288153,0.000000,0.000000,0.683811,1.000000,0.766631,0.000000,0.000000,0.255067,1.000000,1.000000,0.000000,0.000000
17,0.000003,0.488071,0.981822,0.136286,0.288153,0.101774,0.210923,0.470231,0.000000,0.904760,0.000000,0.000000,0.255067,0.868249,1.000000,0.000000,1.000000
18,0.000001,0.323701,0.910792,0.141818,0.232604,0.000000,0.063674,0.951139,1.000000,0.891682,0.094007,0.000000,0.164026,1.000000,0.936612,0.000000,0.000000
19,0.000001,0.323701,0.910792,0.141818,0.232604,0.000000,0.063674,0.951139,1.000000,0.891682,0.094007,0.000000,0.164026,1.000000,0.936612,0.000000,0.000000
20,0.000001,0.323701,0.910792,0.141818,0.232604,0.000000,0.063674,0.951139,1.000000,0.891682,0.094007,0.000000,0.164026,1.000000,0.936612,0.000000,0.000000
21,0.000001,0.323701,0.910792,0.141818,0.232604,0.000000,0.063674,0.951139,1.000000,0.891682,0.094007,0.000000,0.164026,1.000000,0.936612,0.000000,0.000000
22,0.000000,0.469660,1.000000,0.136286,0.288153,0.000000,0.034156,0.659637,0.000000,0.944270,0.000000,0.000000,0.243953,1.000000,0.988520,0.000000,0.000000
gen, fitness
0,0.009712,0.000000,1.000000,0.210000,0.800000,0.030000,0.030000,1.000000,0.000000,1.000000,0.000000,0.000000,0.600000,1.000000,1.000000,0.000000,0.000000
1,0.009712,0.000000,1.000000,0.210000,0.800000,0.030000,0.030000,1.000000,0.000000,1.000000,0.000000,0.000000,0.600000,1.000000,1.000000,0.000000,0.000000
2,0.000432,0.000000,1.000000,0.210000,0.665659,0.030000,0.021455,1.000000,2.000000,1.000000,0.000000,0.000000,0.600000,1.000000,1.000000,0.000000,1.000000
3,0.000164,0.000000,1.000000,0.181311,0.594514,0.030000,0.000000,1.000000,0.000000,0.946438,0.000000,0.000000,0.506547,1.000000,1.000000,0.000000,1.000000
4,0.000058,0.000000,0.999760,0.210000,0.651049,0.030000,0.030000,1.000000,1.000000,1.000000,0.153336,0.000000,0.548856,1.000000,1.000000,0.000000,1.000000
5,0.000049,0.000000,0.999760,0.210000,0.646800,0.030000,0.030000,1.000000,1.000000,1.000000,0.153336,0.000000,0.548856,1.000000,1.000000,0.000000,1.000000
6,0.000039,0.033781,1.000000,0.210000,0.546912,0.030000,0.134796,1.000000,0.000000,0.849948,0.000000,0.000000,0.506547,1.000000,0.809650,0.000000,2.000000
7,0.000001,0.000000,1.000000,0.204461,0.594514,0.195627,0.000000,1.000000,2.000000,0.946438,0.000000,0.009569,0.506547,1.000000,1.000000,0.000000,0.000000
8,0.000001,0.000000,1.000000,0.204461,0.594514,0.195627,0.000000,1.000000,2.000000,0.946438,0.000000,0.009569,0.506547,1.000000,1.000000,0.000000,0.000000
9,0.000001,0.000000,1.000000,0.204461,0.594514,0.195627,0.000000,1.000000,1.000000,0.946438,0.111831,0.000000,0.506547,1.000000,1.000000,0.000000,0.000000
10,0.000000,0.000000,1.000000,0.210000,0.590173,0.030000,0.030000,1.000000,2.000000,0.946438,0.110376,0.000000,0.506547,1.000000,1.000000,0.000000,1.000000
gen, fitness
0,0.026348,0.000000,1.000000,0.210000,0.800000,0.030000,0.030000,1.000000,0.000000,1.000000,0.000000,0.000000,0.600000,1.000000,1.000000,0.000000,0.000000
1,0.026348,0.000000,1.000000,0.210000,0.800000,0.030000,0.030000,1.000000,0.000000,1.000000,0.000000,0.000000,0.600000,1.000000,1.000000,0.000000,0.000000
2,0.013266,0.000000,1.000000,0.210000,0.684422,0.030000,0.030000,1.000000,0.000000,1.000000,0.000000,0.000000,0.600000,1.000000,1.000000,0.000000,2.000000
3,0.013254,0.000000,1.000000,0.210000,0.684422,0.030000,0.000000,1.000000,0.000000,1.000000,0.000000,0.000000,0.600000,1.000000,1.000000,0.000000,2.000000
4,0.002210,0.000000,1.000000,0.210000,0.464960,0.100687,0.227753,1.000000,0.000000,0.866578,0.000000,0.000000,0.361966,1.000000,1.000000,0.000000,0.000000
5,0.001870,0.000000,1.000000,0.210000,0.464960,0.100687,0.185453,1.000000,1.000000,0.866578,0.000000,0.000000,0.304124,1.000000,1.000000,0.000000,2.000000
6,0.001698,0.049125,1.000000,0.210000,0.457121,0.100687,0.300138,1.000000,0.000000,0.866578,0.000000,0.000000,0.304124,1.000000,0.966423,0.000000,2.000000
7,0.001297,0.240861,1.000000,0.090026,0.501877,0.000000,0.000000,1.000000,0.000000,0.866578,0.000000,0.000000,0.304124,1.000000,1.000000,0.000000,2.000000
8,0.000120,0.240861,1.000000,0.000000,0.501877,0.000000,0.000000,1.000000,0.000000,0.866578,0.000000,0.000000,0.304124,1.000000,0.987688,0.000000,2.000000
9,0.000120,0.240861,1.000000,0.000000,0.501877,0.000000,0.000000,1.000000,0.000000,0.866578,0.000000,0.000000,0.304124,1.000000,0.987688,0.000000,2.000000
10,0.000040,0.240861,1.000000,0.000000,0.501877,0.000000,0.000000,1.000000,0.000000,0.866578,0.000000,0.000000,0.276463,1.000000,0.987688,0.000000,2.000000
11,0.000040,0.240861,1.000000,0.000000,0.501877,0.000000,0.000000,1.000000,0.000000,0.866578,0.000000,0.000000,0.276463,1.000000,0.987688,0.000000,2.000000
12,0.000018,0.322902,0.944584,0.082594,0.406842,0.000000,0.000000,1.000000,1.000000,0.866578,0.108683,0.000000,0.304124,1.000000,0.854180,0.000000,2.000000
13,0.000012,0.322902,0.944584,0.082594,0.406842,0.000000,0.000000,1.000000,0.000000,0.866578,0.108683,0.000000,0.304124,1.000000,0.854180,0.000000,2.000000
14,0.000011,0.322902,1.000000,0.082594,0.406842,0.000000,0.000000,1.000000,0.000000,0.866578,0.108683,0.000000,0.304124,1.000000,0.854180,0.000000,2.000000
15,0.000008,0.342795,1.000000,0.082594,0.406842,0.000000,0.000000,1.000000,0.000000,0.866578,0.108683,0.000000,0.304124,1.000000,0.945048,0.000000,2.000000
16,0.000000,0.179449,1.000000,0.082594,0.439819,0.000000,0.000000,1.000000,0.000000,0.956674,0.000000,0.000000,0.225880,0.800266,0.987688,0.000000,2.000000
gen, fitness
0,0.052335,0.000000,1.000000,0.210000,0.800000,0.030000,0.030000,1.000000,0.000000,1.000000,0.000000,0.000000,0.600000,1.000000,1.000000,0.000000,0.000000
1,0.052335,0.000000,1.000000,0.210000,0.800000,0.030000,0.030000,1.000000,0.000000,1.000000,0.000000,0.000000,0.600000,1.000000,1.000000,0.000000,0.000000
2,0.018236,0.000000,1.000000,0.210000,0.592785,0.163407,0.214896,1.000000,0.000000,1.000000,0.000000,0.000000,0.449459,1.000000,1.000000,0.000000,0.000000
3,0.017107,0.000000,1.000000,0.210000,0.509380,0.163407,0.214896,0.918549,0.000000,0.973988,0.000000,0.000000,0.449459,1.000000,1.000000,0.000000,0.000000
4,0.017107,0.000000,1.000000,0.210000,0.509380,0.163407,0.214896,0.918549,0.000000,0.973988,0.000000,0.000000,0.449459,1.000000,1.000000,0.000000,0.000000
5,0.015626,0.089850,1.000000,0.210000,0.533410,0.000000,0.030000,0.979400,0.000000,0.909031,0.000000,0.000000,0.449459,1.000000,1.000000,0.025964,0.000000
6,0.012195,0.000000,1.000000,0.200440,0.509380,0.163407,0.214896,0.918549,1.000000,0.973988,0.000000,0.000000,0.364972,1.000000,0.980126,0.000000,0.000000
7,0.010768,0.000000,1.000000,0.200440,0.514221,0.030000,0.105312,1.000000,0.000000,0.973988,0.000000,0.000000,0.200017,0.987562,1.000000,0.117465,0.000000
8,0.005770,0.089850,1.000000,0.120335,0.499653,0.158677,0.122355,1.000000,0.000000,0.973988,0.000000,0.028011,0.200017,0.987562,0.967973,0.000000,0.000000
9,0.003858,0.089850,1.000000,0.120335,0.412732,0.158677,0.122355,1.000000,0.000000,0.973988,0.000000,0.028011,0.200017,1.000000,0.967973,0.000000,0.000000
10,0.003215,0.095317,1.000000,0.046081,0.481015,0.011149,0.179209,1.000000,0.000000,1.000000,0.000000,0.008880,0.200017,0.987562,0.766170,0.000000,2.000000
11,0.000267,0.095317,1.000000,0.046081,0.341985,0.101589,0.459207,0.859775,2.000000,0.973988,0.072116,0.000000,0.017170,0.991602,1.000000,0.000000,1.000000
12,0.000267,0.095317,1.000000,0.046081,0.341985,0.101589,0.459207,0.859775,2.000000,0.973988,0.072116,0.000000,0.017170,0.991602,1.000000,0.000000,1.000000
13,0.000061,0.231357,1.000000,0.046081,0.343017,0.101589,0.459207,0.781332,2.000000,1.000000,0.059474,0.000000,0.045795,0.991602,0.971455,0.000000,2.000000
14,0.000061,0.231357,1.000000,0.046081,0.343017,0.101589,0.459207,0.781332,2.000000,1.000000,0.059474,0.000000,0.045795,0.991602,0.971455,0.000000,2.000000
15,0.000044,0.221541,1.000000,0.046081,0.306096,0.101589,0.459207,0.781332,2.000000,1.000000,0.059474,0.000000,0.000000,1.000000,0.971455,0.000000,1.000000
16,0.000009,0.221541,0.928531,0.000000,0.360435,0.000000,0.548412,0.859775,1.000000,0.953005,0.072116,0.000000,0.011327,0.985944,0.971455,0.000000,2.000000
17,0.000005,0.221541,0.904478,0.000000,0.360435,0.000000,0.548412,0.859775,1.000000,0.953005,0.186327,0.000000,0.011327,0.985944,1.000000,0.000000,2.000000
18,0.000002,0.292744,0.882073,0.000069,0.362358,0.158677,0.076177,0.690885,0.000000,0.926753,0.072116,0.000000,0.058630,1.000000,1.000000,0.000000,2.000000
19,0.000002,0.292744,0.882073,0.000069,0.362358,0.158677,0.076177,0.690885,0.000000,0.926753,0.072116,0.000000,0.058630,1.000000,1.000000,0.000000,2.000000
20,0.000002,0.292744,0.882073,0.000069,0.362358,0.158677,0.076177,0.690885,0.000000,0.926753,0.072116,0.000000,0.058630,1.000000,1.000000,0.000000,2.000000
21,0.000001,0.221541,0.947431,0.000000,0.360435,0.000000,0.548412,0.859775,0.000000,0.953005,0.072116,0.000000,0.011327,0.985944,1.000000,0.027254,2.000000
gen, fitness
0,0.080636,0.000000,1.000000,0.210000,0.800000,0.030000,0.030000,1.000000,0.000000,1.000000,0.000000,0.000000,0.600000,1.000000,1.000000,0.000000,0.000000
1,0.080636,0.000000,1.000000,0.210000,0.800000,0.030000,0.030000,1.000000,0.000000,1.000000,0.000000,0.000000,0.600000,1.000000,1.000000,0.000000,0.000000
2,0.050849,0.000000,1.000000,0.210000,0.575065,0.030000,0.030000,1.000000,0.000000,1.000000,0.000000,0.000000,0.600000,1.000000,1.000000,0.000000,0.000000
3,0.049981,0.000000,1.000000,0.112163,0.666294,0.122223,0.000000,1.000000,1.000000,1.000000,0.000000,0.000000,0.600000,1.000000,1.000000,0.000000,0.000000
4,0.043446,0.000000,1.000000,0.112163,0.666294,0.122223,0.000000,1.000000,1.000000,1.000000,0.000000,0.000000,0.538496,1.000000,1.000000,0.000000,0.000000
5,0.036843,0.000000,1.000000,0.210000,0.575065,0.030000,0.151065,0.967854,0.000000,1.000000,0.000000,0.000000,0.478595,0.978824,0.976577,0.000000,0.000000
6,0.031336,0.000000,1.000000,0.000786,0.666294,0.109327,0.000000,1.000000,1.000000,1.000000,0.000000,0.000000,0.415000,1.000000,1.000000,0.000000,2.000000
7,0.030284,0.000000,1.000000,0.000786,0.666294,0.109327,0.000000,0.914205,1.000000,1.000000,0.000000,0.000000,0.405673,1.000000,1.000000,0.000000,2.000000
8,0.024900,0.000000,1.000000,0.000000,0.656181,0.073136,0.000000,0.917217,0.000000,1.000000,0.196706,0.000000,0.314841,1.000000,1.000000,0.000000,1.000000
9,0.015391,0.000000,0.992308,0.000000,0.478920,0.001749,0.000000,1.000000,1.000000,0.965387,0.091641,0.000000,0.244998,0.942317,1.000000,0.000000,2.000000
10,0.011689,0.000187,0.992308,0.000000,0.478920,0.001749,0.000000,1.000000,2.000000,0.965387,0.091641,0.000000,0.154920,0.941528,0.987933,0.008565,2.000000
11,0.010786,0.059662,1.000000,0.000786,0.354112,0.109327,0.000000,0.987734,0.000000,0.965387,0.091641,0.000000,0.164935,1.000000,1.000000,0.150469,2.000000
12,0.005790,0.055898,0.969769,0.000786,0.343477,0.001749,0.000000,1.000000,1.000000,0.921771,0.091641,0.085450,0.000000,0.942317,0.964649,0.000000,0.000000
13,0.004267,0.059662,0.994665,0.000786,0.410761,0.109327,0.000000,0.791412,0.000000,0.965387,0.091641,0.000000,0.000000,1.000000,0.923043,0.209875,0.000000
14,0.003903,0.017070,0.969769,0.000786,0.343477,0.012017,0.000000,1.000000,2.000000,0.921771,0.091641,0.000000,0.000000,0.942317,0.964649,0.000000,0.000000
15,0.003333,0.059662,0.994665,0.000000,0.318319,0.109327,0.000000,0.791412,0.000000,0.965387,0.091641,0.000000,0.000000,1.000000,0.923043,0.203485,0.000000
16,0.001829,0.216310,0.994665,0.000786,0.285905,0.109327,0.000000,0.791412,0.000000,0.965387,0.091641,0.000000,0.044505,1.000000,0.987933,0.000000,1.000000
17,0.000986,0.216310,0.994665,0.000786,0.285905,0.109327,0.000000,0.619574,0.000000,0.965387,0.361514,0.000000,0.000000,1.000000,1.000000,0.000000,1.000000
18,0.000986,0.216310,0.994665,0.000786,0.285905,0.109327,0.000000,0.619574,0.000000,0.965387,0.361514,0.000000,0.000000,1.000000,1.000000,0.000000,1.000000
19,0.000462,0.290074,0.994665,0.000786,0.253236,0.109327,0.000000,0.791412,0.000000,0.965387,0.091641,0.000000,0.000000,1.000000,0.826675,0.008565,0.000000
20,0.000066,0.405585,0.994665,0.000786,0.220460,0.109327,0.000000,0.791412,0.000000,0.965387,0.318823,0.000000,0.000000,1.000000,0.972549,0.000000,1.000000
21,0.000066,0.405585,0.994665,0.000786,0.220460,0.109327,0.000000,0.791412,0.000000,0.965387,0.318823,0.000000,0.000000,1.000000,0.972549,0.000000,1.000000
22,0.000050,0.441087,1.000000,0.000786,0.220460,0.109327,0.050191,0.791412,0.000000,0.965387,0.318823,0.000000,0.000000,0.951909,0.752660,0.008565,2.000000
23,0.000028,0.441087,1.000000,0.000786,0.220460,0.109327,0.000000,0.697860,2.000000,1.000000,0.296173,0.000000,0.000000,0.942317,1.000000,0.000000,0.000000
24,0.000026,0.478515,0.816986,0.000000,0.220460,0.142220,0.099609,0.697860,2.000000,1.000000,0.254349,0.000000,0.000000,1.000000,0.648731,0.000000,1.000000
25,0.000011,0.478515,0.863167,0.000786,0.220460,0.154221,0.141644,0.484608,0.000000,0.965387,0.318823,0.000000,0.011135,1.000000,0.909222,0.013951,0.000000
26,0.000001,0.478515,0.816986,0.000000,0.220460,0.140414,0.099609,0.697860,0.000000,1.000000,0.254349,0.000000,0.000000,1.000000,0.648731,0.000000,1.000000
gen, fitness
0,0.025383,0.000000,1.000000,0.210000,0.800000,0.030000,0.030000,1.000000,0.000000,1.000000,0.000000,0.000000,0.600000,1.000000,1.000000,0.000000,0.000000
1,0.025383,0.000000,1.000000,0.210000,0.800000,0.030000,0.030000,1.000000,0.000000,1.000000,0.000000,0.000000,0.600000,1.000000,1.000000,0.000000,0.000000
2,0.011795,0.022673,1.000000,0.188981,0.654894,0.030000,0.057881,1.000000,2.000000,1.000000,0.000000,0.000000,0.600000,1.000000,1.000000,0.000000,0.000000
3,0.011747,0.000000,1.000000,0.082857,0.747948,0.000000,0.108796,1.000000,1.000000,1.000000,0.000000,0.000000,0.600000,1.000000,1.000000,0.000000,0.000000
4,0.007369,0.000000,1.000000,0.210000,0.601498,0.000000,0.030000,1.000000,0.000000,1.000000,0.000000,0.017405,0.495786,1.000000,1.000000,0.082913,1.000000
5,0.007031,0.000000,1.000000,0.210000,0.601498,0.000000,0.030000,1.000000,0.000000,1.000000,0.000000,0.017405,0.495786,1.000000,1.000000,0.082913,0.000000
6,0.006359,0.194049,1.000000,0.233297,0.601498,0.000000,0.030000,0.992112,0.000000,1.000000,0.115060,0.000000,0.532852,1.000000,1.000000,0.000000,0.000000
7,0.005917,0.000000,1.000000,0.210000,0.601498,0.000000,0.006744,0.836961,0.000000,0.933283,0.000000,0.000000,0.476810,1.000000,0.854509,0.000000,0.000000
8,0.004828,0.089045,0.997565,0.169454,0.601498,0.043013,0.000000,1.000000,0.000000,1.000000,0.000000,0.000000,0.427726,1.000000,0.925188,0.073163,1.000000
9,0.004259,0.194049,1.000000,0.252332,0.476522,0.048258,0.000000,0.901290,0.000000,0.982842,0.000000,0.000000,0.481651,1.000000,0.865926,0.046979,1.000000
10,0.002014,0.194049,1.000000,0.032644,0.560225,0.000000,0.000000,0.942481,1.000000,1.000000,0.000000,0.000000,0.218625,0.869109,1.000000,0.000000,2.000000
11,0.000674,0.194049,1.000000,0.032644,0.424252,0.000000,0.000000,0.949649,1.000000,1.000000,0.000000,0.000000,0.218625,0.869109,1.000000,0.000000,2.000000
12,0.000674,0.194049,1.000000,0.032644,0.424252,0.000000,0.000000,0.949649,1.000000,1.000000,0.000000,0.000000,0.218625,0.869109,1.000000,0.000000,2.000000
13,0.000120,0.396694,1.000000,0.021885,0.424252,0.000000,0.000000,0.942481,2.000000,0.953199,0.144583,0.000000,0.218625,0.869109,1.000000,0.048206,2.000000
14,0.000004,0.296228,1.000000,0.053868,0.424252,0.047689,0.000000,0.949649,1.000000,1.000000,0.000000,0.000000,0.218625,0.869109,1.000000,0.000000,1.000000
15,0.000000,0.296228,0.847378,0.000000,0.469939,0.047689,0.000000,0.949649,1.000000,1.000000,0.000000,0.000000,0.218625,0.922583,1.000000,0.000000,0.000000
