gen, fitness
0,0.094016,0.000000,1.000000,0.210000,0.800000,0.030000,0.030000,1.000000,0.000000,1.000000,0.000000,0.000000,0.600000,1.000000,1.000000,0.000000,0.000000
1,0.094016,0.000000,1.000000,0.210000,0.800000,0.030000,0.030000,1.000000,0.000000,1.000000,0.000000,0.000000,0.600000,1.000000,1.000000,0.000000,0.000000
2,0.052864,0.036716,1.000000,0.000000,0.698172,0.000000,0.000000,0.974143,2.000000,0.955160,0.058660,0.023386,0.503596,1.000000,1.000000,0.024879,2.000000
3,0.038815,0.206355,0.921244,0.000000,0.568764,0.000000,0.000000,1.000000,0.000000,0.914953,0.057848,0.135258,0.366031,0.908654,0.964363,0.186721,0.000000
4,0.026897,0.504413,1.000000,0.140331,0.397375,0.093941,0.000000,1.000000,1.000000,1.000000,0.000000,0.075540,0.190724,0.700866,0.895963,0.000000,1.000000
5,0.020352,0.515547,1.000000,0.123440,0.330106,0.083148,0.104507,0.952407,2.000000,1.000000,0.111278,0.052652,0.082045,0.650834,0.995030,0.114438,0.000000
6,0.015161,0.480773,1.000000,0.150333,0.248735,0.048473,0.093557,1.000000,0.000000,1.000000,0.000000,0.145501,0.059181,0.701254,1.000000,0.000000,2.000000
7,0.007677,0.431612,1.000000,0.103929,0.053889,0.107637,0.094036,0.985007,2.000000,1.000000,0.024307,0.144666,0.000000,0.756121,0.957117,0.000000,1.000000
8,0.005909,0.492804,0.907675,0.150510,0.000000,0.110566,0.155902,0.911350,1.000000,1.000000,0.137615,0.062756,0.085723,0.775975,1.000000,0.000000,1.000000
9,0.002602,0.530986,0.759875,0.017160,0.133596,0.127005,0.218797,1.000000,2.000000,1.000000,0.000000,0.000000,0.013353,0.407558,1.000000,0.235837,0.000000
10,0.000204,0.756037,1.000000,0.000000,0.023220,0.162694,0.117253,1.000000,0.000000,0.983901,0.000000,0.000000,0.000000,0.516160,0.711434,0.269666,1.000000
11,0.000147,0.904006,1.000000,0.000000,0.000000,0.010458,0.083999,0.852453,1.000000,0.985506,0.000000,0.000000,0.000000,0.469122,0.905746,0.355492,2.000000
12,0.000087,0.794322,0.972354,0.000000,0.000000,0.150492,0.045130,0.901876,2.000000,1.000000,0.000000,0.000000,0.000000,0.352927,0.994979,0.262575,1.000000
13,0.000044,0.757859,1.000000,0.000000,0.000000,0.104607,0.030979,1.000000,0.000000,1.000000,0.000000,0.000000,0.000000,0.730718,0.536552,0.154110,0.000000
14,0.000044,0.757859,1.000000,0.000000,0.000000,0.104607,0.030979,1.000000,0.000000,1.000000,0.000000,0.000000,0.000000,0.730718,0.536552,0.154110,0.000000
15,0.000044,0.757859,1.000000,0.000000,0.000000,0.104607,0.030979,1.000000,0.000000,1.000000,0.000000,0.000000,0.000000,0.730718,0.536552,0.154110,0.000000
16,0.000044,0.757859,1.000000,0.000000,0.000000,0.104607,0.030979,1.000000,0.000000,1.000000,0.000000,0.000000,0.000000,0.730718,0.536552,0.154110,0.000000
17,0.000044,0.757859,1.000000,0.000000,0.000000,0.104607,0.030979,1.000000,0.000000,1.000000,0.000000,0.000000,0.000000,0.730718,0.536552,0.154110,0.000000
18,0.000044,0.757859,1.000000,0.000000,0.000000,0.104607,0.030979,1.000000,0.000000,1.000000,0.000000,0.000000,0.000000,0.730718,0.536552,0.154110,0.000000
19,0.000044,0.757859,1.000000,0.000000,0.000000,0.104607,0.030979,1.000000,0.000000,1.000000,0.000000,0.000000,0.000000,0.730718,0.536552,0.154110,0.000000
20,0.000044,0.757859,1.000000,0.000000,0.000000,0.104607,0.030979,1.000000,0.000000,1.000000,0.000000,0.000000,0.000000,0.730718,0.536552,0.154110,0.000000
21,0.000035,0.920304,0.767845,0.000000,0.000000,0.000000,0.006556,0.876634,0.000000,1.000000,0.365196,0.000000,0.033249,1.000000,0.771511,0.208954,1.000000
22,0.000003,0.924007,0.437358,0.000000,0.000000,0.328800,0.066052,0.534152,2.000000,1.000000,0.275606,0.000000,0.035512,0.383383,0.720284,0.162679,0.000000
23,0.000003,0.924007,0.437358,0.000000,0.000000,0.328800,0.066052,0.534152,2.000000,1.000000,0.275606,0.000000,0.035512,0.383383,0.720284,0.162679,0.000000
24,0.000003,0.924007,0.437358,0.000000,0.000000,0.328800,0.066052,0.534152,2.000000,1.000000,0.275606,0.000000,0.035512,0.383383,0.720284,0.162679,0.000000
25,0.000003,0.924007,0.437358,0.000000,0.000000,0.328800,0.066052,0.534152,2.000000,1.000000,0.275606,0.000000,0.035512,0.383383,0.720284,0.162679,0.000000
26,0.000003,0.924007,0.437358,0.000000,0.000000,0.328800,0.066052,0.534152,2.000000,1.000000,0.275606,0.000000,0.035512,0.383383,0.720284,0.162679,0.000000
27,0.000003,0.924007,0.437358,0.000000,0.000000,0.328800,0.066052,0.534152,2.000000,1.000000,0.275606,0.000000,0.035512,0.383383,0.720284,0.162679,0.000000
28,0.000003,0.924007,0.437358,0.000000,0.000000,0.328800,0.066052,0.534152,2.000000,1.000000,0.275606,0.000000,0.035512,0.383383,0.720284,0.162679,0.000000
29,0.000003,0.924007,0.437358,0.000000,0.000000,0.328800,0.066052,0.534152,2.000000,1.000000,0.275606,0.000000,0.035512,0.383383,0.720284,0.162679,0.000000
30,0.000003,0.924007,0.437358,0.000000,0.000000,0.328800,0.066052,0.534152,2.000000,1.000000,0.275606,0.000000,0.035512,0.383383,0.720284,0.162679,0.000000
31,0.000001,0.948534,0.530347,0.000000,0.000000,0.363238,0.000000,0.513527,0.000000,1.000000,0.342466,0.037501,0.000000,0.204017,0.762821,0.145437,0.000000
32,0.000001,0.948534,0.530347,0.000000,0.000000,0.363238,0.000000,0.513527,0.000000,1.000000,0.342466,0.037501,0.000000,0.204017,0.762821,0.145437,0.000000
