gen, fitness
0,0.094016,0.000000,1.000000,0.210000,0.800000,0.030000,0.030000,1.000000,0.000000,1.000000,0.000000,0.000000,0.600000,1.000000,1.000000,0.000000,0.000000
1,0.094016,0.000000,1.000000,0.210000,0.800000,0.030000,0.030000,1.000000,0.000000,1.000000,0.000000,0.000000,0.600000,1.000000,1.000000,0.000000,0.000000
2,0.045663,0.000000,0.877264,0.018947,0.648785,0.044849,0.093847,0.971989,2.000000,0.982975,0.000000,0.012133,0.454909,0.931459,0.875359,0.000000,2.000000
3,0.035772,0.390654,0.939368,0.035635,0.590674,0.000000,0.120853,1.000000,0.000000,1.000000,0.000000,0.000000,0.511723,0.898920,0.900648,0.000000,0.000000
4,0.028648,0.489156,0.945085,0.000000,0.553473,0.019180,0.000000,0.984696,1.000000,1.000000,0.000000,0.000000,0.436441,0.831547,0.767645,0.156113,2.000000
5,0.023497,0.377629,0.945698,0.000000,0.383469,0.008251,0.000000,0.865572,2.000000,1.000000,0.000000,0.000000,0.352576,0.862855,0.787345,0.255384,0.000000
6,0.019747,0.000000,0.709613,0.000000,0.450392,0.000000,0.174117,1.000000,0.000000,0.868079,0.000000,0.000000,0.064234,0.926369,0.840762,0.178311,2.000000
7,0.016436,0.610264,1.000000,0.147829,0.133792,0.033705,0.265011,0.723489,0.000000,0.697467,0.140536,0.000000,0.315331,0.908234,0.660149,0.421046,0.000000
8,0.007998,0.548493,0.655851,0.000000,0.278887,0.000000,0.000000,1.000000,1.000000,0.990889,0.000000,0.000000,0.200902,0.830855,0.844958,0.050269,1.000000
9,0.005557,0.587530,0.789359,0.000000,0.221379,0.000000,0.000000,0.336892,2.000000,0.873038,0.000000,0.000000,0.205926,0.766846,0.528389,0.000000,0.000000
10,0.000832,0.633915,0.733187,0.019233,0.117067,0.028406,0.000000,0.471091,0.000000,0.968228,0.000000,0.000000,0.000000,1.000000,0.761292,0.107175,0.000000
11,0.000562,0.876677,0.776083,0.006009,0.003665,0.000000,0.409163,0.928777,2.000000,0.949958,0.006556,0.000000,0.095570,1.000000,0.793080,0.367854,2.000000
12,0.000510,0.677560,0.643639,0.000000,0.000000,0.136157,0.229032,1.000000,2.000000,0.877058,0.000000,0.000000,0.000000,0.901404,0.935447,0.000000,0.000000
13,0.000433,0.655661,0.731674,0.000000,0.000000,0.104214,0.393179,0.971136,0.000000,0.901964,0.000000,0.000000,0.000000,0.883127,1.000000,0.178662,2.000000
14,0.000159,0.697012,0.809671,0.000000,0.040554,0.092615,0.000000,0.170830,0.000000,0.828840,0.086331,0.000000,0.000000,0.985916,0.606066,0.021127,2.000000
15,0.000033,1.000000,0.542182,0.000000,0.000000,0.007638,0.018436,0.789188,0.000000,0.983095,0.141609,0.109342,0.000000,0.890928,0.756904,0.000000,2.000000
16,0.000013,0.891779,0.650915,0.042424,0.000000,0.000000,0.065378,0.294761,0.000000,1.000000,0.133928,0.030104,0.011375,1.000000,0.611723,0.045428,1.000000
17,0.000013,0.891779,0.650915,0.042424,0.000000,0.000000,0.065378,0.294761,0.000000,1.000000,0.133928,0.030104,0.011375,1.000000,0.611723,0.045428,1.000000
18,0.000010,0.789542,1.000000,0.000000,0.038364,0.127769,0.183348,0.361089,1.000000,0.996458,0.163274,0.000000,0.017843,1.000000,0.675657,0.000000,0.000000
19,0.000010,0.789542,1.000000,0.000000,0.038364,0.127769,0.183348,0.361089,1.000000,0.996458,0.163274,0.000000,0.017843,1.000000,0.675657,0.000000,0.000000
20,0.000008,1.000000,0.657235,0.002544,0.040552,0.009415,0.091655,0.351848,1.000000,1.000000,0.308939,0.055393,0.020723,1.000000,0.863842,0.142225,2.000000
21,0.000008,1.000000,0.657235,0.002544,0.040552,0.009415,0.091655,0.351848,1.000000,1.000000,0.308939,0.055393,0.020723,1.000000,0.863842,0.142225,2.000000
22,0.000004,0.761383,0.837238,0.008715,0.005570,0.145218,0.070615,0.524014,0.000000,0.970159,0.255011,0.000000,0.000000,0.918918,0.757511,0.002225,0.000000
23,0.000004,0.761383,0.837238,0.008715,0.005570,0.145218,0.070615,0.524014,0.000000,0.970159,0.255011,0.000000,0.000000,0.918918,0.757511,0.002225,0.000000
24,0.000004,0.761383,0.837238,0.008715,0.005570,0.145218,0.070615,0.524014,0.000000,0.970159,0.255011,0.000000,0.000000,0.918918,0.757511,0.002225,0.000000
25,0.000004,0.761383,0.837238,0.008715,0.005570,0.145218,0.070615,0.524014,0.000000,0.970159,0.255011,0.000000,0.000000,0.918918,0.757511,0.002225,0.000000
26,0.000004,0.761383,0.837238,0.008715,0.005570,0.145218,0.070615,0.524014,0.000000,0.970159,0.255011,0.000000,0.000000,0.918918,0.757511,0.002225,0.000000
gen, fitness
0,0.011444,0.000000,1.000000,0.210000,0.800000,0.030000,0.030000,1.000000,0.000000,1.000000,0.000000,0.000000,0.600000,1.000000,1.000000,0.000000,0.000000
1,0.011444,0.000000,1.000000,0.210000,0.800000,0.030000,0.030000,1.000000,0.000000,1.000000,0.000000,0.000000,0.600000,1.000000,1.000000,0.000000,0.000000
2,0.003387,0.000000,0.874602,0.099614,0.666116,0.000000,0.000000,1.000000,1.000000,0.987205,0.000000,0.000000,0.481212,0.676075,0.850512,0.090088,2.000000
3,0.001879,0.000000,0.799593,0.052539,0.657695,0.000000,0.170298,0.853310,0.000000,0.968526,0.000000,0.000000,0.420981,0.823363,0.809675,0.000000,1.000000
4,0.000200,0.100386,0.937320,0.160977,0.462261,0.053638,0.317233,0.906564,0.000000,1.000000,0.000000,0.080121,0.090496,0.884970,0.979089,0.212347,0.000000
5,0.000077,0.090799,1.000000,0.162518,0.435531,0.194265,0.331740,0.944346,2.000000,1.000000,0.000000,0.090422,0.134820,0.877629,0.976622,0.000000,1.000000
6,0.000077,0.090799,1.000000,0.162518,0.435531,0.194265,0.331740,0.944346,2.000000,1.000000,0.000000,0.090422,0.134820,0.877629,0.976622,0.000000,1.000000
7,0.000077,0.090799,1.000000,0.162518,0.435531,0.194265,0.331740,0.944346,2.000000,1.000000,0.000000,0.090422,0.134820,0.877629,0.976622,0.000000,1.000000
8,0.000031,0.283867,0.816554,0.000000,0.554837,0.000000,0.134748,0.337936,0.000000,0.807176,0.000000,0.131177,0.212113,1.000000,0.993463,0.000000,1.000000
9,0.000031,0.283867,0.816554,0.000000,0.554837,0.000000,0.134748,0.337936,0.000000,0.807176,0.000000,0.131177,0.212113,1.000000,0.993463,0.000000,1.000000
10,0.000002,0.000000,0.914710,0.097446,0.472328,0.350897,0.198166,0.696498,2.000000,0.952999,0.308118,0.000000,0.140328,0.647221,0.647845,0.000000,0.000000
11,0.000002,0.000000,0.914710,0.097446,0.472328,0.350897,0.198166,0.696498,2.000000,0.952999,0.308118,0.000000,0.140328,0.647221,0.647845,0.000000,0.000000
12,0.000002,0.000000,0.914710,0.097446,0.472328,0.350897,0.198166,0.696498,2.000000,0.952999,0.308118,0.000000,0.140328,0.647221,0.647845,0.000000,0.000000
13,0.000002,0.000000,0.914710,0.097446,0.472328,0.350897,0.198166,0.696498,2.000000,0.952999,0.308118,0.000000,0.140328,0.647221,0.647845,0.000000,0.000000
14,0.000002,0.000000,0.914710,0.097446,0.472328,0.350897,0.198166,0.696498,2.000000,0.952999,0.308118,0.000000,0.140328,0.647221,0.647845,0.000000,0.000000
15,0.000002,0.000000,0.914710,0.097446,0.472328,0.350897,0.198166,0.696498,2.000000,0.952999,0.308118,0.000000,0.140328,0.647221,0.647845,0.000000,0.000000
16,0.000002,0.000000,0.914710,0.097446,0.472328,0.350897,0.198166,0.696498,2.000000,0.952999,0.308118,0.000000,0.140328,0.647221,0.647845,0.000000,0.000000
17,0.000002,0.000000,0.914710,0.097446,0.472328,0.350897,0.198166,0.696498,2.000000,0.952999,0.308118,0.000000,0.140328,0.647221,0.647845,0.000000,0.000000
18,0.000002,0.000000,0.914710,0.097446,0.472328,0.350897,0.198166,0.696498,2.000000,0.952999,0.308118,0.000000,0.140328,0.647221,0.647845,0.000000,0.000000
19,0.000002,0.000000,0.914710,0.097446,0.472328,0.350897,0.198166,0.696498,2.000000,0.952999,0.308118,0.000000,0.140328,0.647221,0.647845,0.000000,0.000000
20,0.000002,0.000000,0.914710,0.097446,0.472328,0.350897,0.198166,0.696498,2.000000,0.952999,0.308118,0.000000,0.140328,0.647221,0.647845,0.000000,0.000000
gen, fitness
0,0.010533,0.000000,1.000000,0.210000,0.800000,0.030000,0.030000,1.000000,0.000000,1.000000,0.000000,0.000000,0.600000,1.000000,1.000000,0.000000,0.000000
1,0.010533,0.000000,1.000000,0.210000,0.800000,0.030000,0.030000,1.000000,0.000000,1.000000,0.000000,0.000000,0.600000,1.000000,1.000000,0.000000,0.000000
2,0.002638,0.000000,1.000000,0.188813,0.685829,0.117236,0.000000,1.000000,1.000000,0.896248,0.121274,0.000000,0.533279,0.929975,1.000000,0.081852,2.000000
3,0.000891,0.032166,1.000000,0.126020,0.669592,0.000000,0.120222,0.818890,1.000000,1.000000,0.000000,0.032308,0.486611,1.000000,1.000000,0.000000,1.000000
4,0.000143,0.043289,0.586491,0.161226,0.556359,0.090504,0.106167,0.770045,1.000000,1.000000,0.328302,0.000000,0.307911,1.000000,0.973457,0.104845,2.000000
5,0.000143,0.043289,0.586491,0.161226,0.556359,0.090504,0.106167,0.770045,1.000000,1.000000,0.328302,0.000000,0.307911,1.000000,0.973457,0.104845,2.000000
6,0.000067,0.000000,0.944359,0.044400,0.547936,0.099984,0.184776,0.784528,2.000000,0.901673,0.340587,0.000000,0.251075,0.818979,0.986918,0.003317,0.000000
7,0.000010,0.000000,0.908614,0.017546,0.578707,0.137279,0.134605,0.874104,1.000000,0.782244,0.167194,0.000000,0.332651,0.677364,0.945726,0.000000,1.000000
8,0.000010,0.000000,0.908614,0.017546,0.578707,0.137279,0.134605,0.874104,1.000000,0.782244,0.167194,0.000000,0.332651,0.677364,0.945726,0.000000,1.000000
9,0.000010,0.000000,0.908614,0.017546,0.578707,0.137279,0.134605,0.874104,1.000000,0.782244,0.167194,0.000000,0.332651,0.677364,0.945726,0.000000,1.000000
10,0.000010,0.000000,0.908614,0.017546,0.578707,0.137279,0.134605,0.874104,1.000000,0.782244,0.167194,0.000000,0.332651,0.677364,0.945726,0.000000,1.000000
11,0.000010,0.000000,0.908614,0.017546,0.578707,0.137279,0.134605,0.874104,1.000000,0.782244,0.167194,0.000000,0.332651,0.677364,0.945726,0.000000,1.000000
12,0.000010,0.000000,0.908614,0.017546,0.578707,0.137279,0.134605,0.874104,1.000000,0.782244,0.167194,0.000000,0.332651,0.677364,0.945726,0.000000,1.000000
13,0.000010,0.000000,0.908614,0.017546,0.578707,0.137279,0.134605,0.874104,1.000000,0.782244,0.167194,0.000000,0.332651,0.677364,0.945726,0.000000,1.000000
14,0.000010,0.000000,0.908614,0.017546,0.578707,0.137279,0.134605,0.874104,1.000000,0.782244,0.167194,0.000000,0.332651,0.677364,0.945726,0.000000,1.000000
15,0.000010,0.000000,0.908614,0.017546,0.578707,0.137279,0.134605,0.874104,1.000000,0.782244,0.167194,0.000000,0.332651,0.677364,0.945726,0.000000,1.000000
16,0.000003,0.141757,0.820140,0.448093,0.155634,0.040645,0.078862,0.799042,2.000000,0.781201,0.000000,0.000000,0.352552,0.942308,0.984717,0.078453,2.000000
17,0.000003,0.141757,0.820140,0.448093,0.155634,0.040645,0.078862,0.799042,2.000000,0.781201,0.000000,0.000000,0.352552,0.942308,0.984717,0.078453,2.000000
gen, fitness
0,0.067934,0.000000,1.000000,0.210000,0.800000,0.030000,0.030000,1.000000,0.000000,1.000000,0.000000,0.000000,0.600000,1.000000,1.000000,0.000000,0.000000
1,0.067934,0.000000,1.000000,0.210000,0.800000,0.030000,0.030000,1.000000,0.000000,1.000000,0.000000,0.000000,0.600000,1.000000,1.000000,0.000000,0.000000
2,0.039020,0.000000,1.000000,0.004231,0.700559,0.067451,0.214901,1.000000,2.000000,0.866202,0.000000,0.047482,0.466910,0.881581,0.926189,0.000000,1.000000
3,0.021616,0.043176,1.000000,0.109907,0.494141,0.000000,0.132506,1.000000,2.000000,0.975883,0.005484,0.000000,0.352511,1.000000,1.000000,0.097585,1.000000
4,0.009903,0.271556,0.828493,0.000000,0.496617,0.021299,0.300245,0.983792,0.000000,0.795345,0.052536,0.000000,0.244775,1.000000,0.870339,0.124619,1.000000
5,0.007252,0.275398,0.637077,0.000000,0.404491,0.000000,0.295760,1.000000,2.000000,0.736869,0.117021,0.000000,0.202244,0.888784,0.876870,0.240832,0.000000
6,0.007010,0.172568,0.545153,0.101769,0.212039,0.000000,0.345901,1.000000,0.000000,0.769412,0.125724,0.000000,0.168367,1.000000,1.000000,0.195140,0.000000
7,0.002947,0.256082,0.789034,0.000000,0.372097,0.144862,0.000000,0.857069,0.000000,0.730273,0.028238,0.000000,0.043040,0.871940,0.798624,0.251716,1.000000
8,0.001107,0.265182,0.771299,0.000000,0.295972,0.096300,0.000000,0.897167,0.000000,0.692362,0.333267,0.000000,0.000000,0.969730,0.927363,0.000000,1.000000
9,0.000541,0.345715,0.675592,0.000000,0.231350,0.000000,0.000000,0.774858,2.000000,0.626177,0.381280,0.000000,0.004656,0.818869,0.818536,0.319815,0.000000
10,0.000511,0.397904,0.603559,0.000000,0.257993,0.173203,0.461156,1.000000,1.000000,0.829050,0.000000,0.000000,0.058902,0.759624,1.000000,0.105815,0.000000
11,0.000037,0.500203,0.970693,0.031346,0.186066,0.000000,0.337043,0.796612,1.000000,0.749460,0.300005,0.035241,0.000000,0.896144,1.000000,0.006376,0.000000
12,0.000037,0.500203,0.970693,0.031346,0.186066,0.000000,0.337043,0.796612,1.000000,0.749460,0.300005,0.035241,0.000000,0.896144,1.000000,0.006376,0.000000
13,0.000037,0.500203,0.970693,0.031346,0.186066,0.000000,0.337043,0.796612,1.000000,0.749460,0.300005,0.035241,0.000000,0.896144,1.000000,0.006376,0.000000
14,0.000033,0.449101,0.677444,0.137162,0.127294,0.000000,0.443531,1.000000,0.000000,0.931045,0.157993,0.000000,0.000000,1.000000,1.000000,0.039984,1.000000
15,0.000001,0.605871,1.000000,0.000000,0.141464,0.034235,0.209985,0.756127,2.000000,0.641866,0.365606,0.001376,0.022915,0.461252,0.811430,0.498368,1.000000
gen, fitness
0,0.030614,0.000000,1.000000,0.210000,0.800000,0.030000,0.030000,1.000000,0.000000,1.000000,0.000000,0.000000,0.600000,1.000000,1.000000,0.000000,0.000000
1,0.030614,0.000000,1.000000,0.210000,0.800000,0.030000,0.030000,1.000000,0.000000,1.000000,0.000000,0.000000,0.600000,1.000000,1.000000,0.000000,0.000000
2,0.013192,0.119328,0.944903,0.194550,0.652873,0.002884,0.087391,1.000000,2.000000,1.000000,0.000000,0.007394,0.489837,0.983359,0.949548,0.000000,1.000000
3,0.006201,0.000000,0.993378,0.115053,0.569367,0.060162,0.082514,1.000000,0.000000,0.959176,0.045789,0.000000,0.405330,0.891296,0.942786,0.056562,0.000000
4,0.004186,0.144217,0.952111,0.115003,0.416924,0.070247,0.061737,0.881821,1.000000,0.857459,0.000000,0.000000,0.353633,0.935520,1.000000,0.117055,2.000000
5,0.001103,0.000000,1.000000,0.000000,0.571872,0.101396,0.353621,0.968731,0.000000,1.000000,0.247258,0.000000,0.139419,0.763771,0.891019,0.121798,2.000000
6,0.000337,0.227666,0.941178,0.088377,0.412786,0.000000,0.029635,0.775626,2.000000,0.951918,0.058345,0.167495,0.000000,1.000000,0.896757,0.107784,0.000000
7,0.000259,0.400192,0.851152,0.171492,0.225352,0.166338,0.236296,0.767935,1.000000,0.746302,0.000000,0.180882,0.062744,0.814909,0.903192,0.126129,1.000000
8,0.000109,0.413065,0.765432,0.180224,0.201599,0.216928,0.212282,0.729620,0.000000,0.912496,0.108242,0.039356,0.047294,0.718741,0.822684,0.456084,1.000000
9,0.000073,0.000000,0.729337,0.182734,0.219017,0.032887,0.105071,0.789040,1.000000,0.760371,0.349413,0.000000,0.000000,0.924263,0.904848,0.327332,2.000000
10,0.000001,0.331348,1.000000,0.033622,0.329055,0.473059,0.424325,0.947880,0.000000,0.851564,0.000000,0.000000,0.132885,0.391132,0.913623,0.201468,2.000000
gen, fitness
0,0.009712,0.000000,1.000000,0.210000,0.800000,0.030000,0.030000,1.000000,0.000000,1.000000,0.000000,0.000000,0.600000,1.000000,1.000000,0.000000,0.000000
1,0.009712,0.000000,1.000000,0.210000,0.800000,0.030000,0.030000,1.000000,0.000000,1.000000,0.000000,0.000000,0.600000,1.000000,1.000000,0.000000,0.000000
2,0.000235,0.149672,1.000000,0.253303,0.616564,0.189003,0.000000,0.857542,2.000000,0.855878,0.000000,0.000000,0.613100,1.000000,0.722638,0.000000,2.000000
3,0.000235,0.149672,1.000000,0.253303,0.616564,0.189003,0.000000,0.857542,2.000000,0.855878,0.000000,0.000000,0.613100,1.000000,0.722638,0.000000,2.000000
4,0.000083,0.232965,1.000000,0.216065,0.648963,0.115340,0.000000,1.000000,0.000000,0.973736,0.088745,0.172532,0.507597,1.000000,1.000000,0.060915,1.000000
5,0.000067,0.185809,1.000000,0.158069,0.642944,0.031506,0.209945,0.922325,2.000000,0.983350,0.193946,0.132591,0.446682,0.848707,1.000000,0.236941,0.000000
6,0.000010,0.177710,0.776669,0.337794,0.506034,0.114040,0.000000,1.000000,1.000000,1.000000,0.092090,0.139606,0.454078,0.928089,0.814777,0.000000,2.000000
7,0.000005,0.000000,0.900750,0.071340,0.717887,0.010147,0.132572,0.799345,1.000000,1.000000,0.499991,0.117039,0.447214,0.690132,0.550101,0.079921,2.000000
8,0.000005,0.000000,0.900750,0.071340,0.717887,0.010147,0.132572,0.799345,1.000000,1.000000,0.499991,0.117039,0.447214,0.690132,0.550101,0.079921,2.000000
9,0.000005,0.000000,0.900750,0.071340,0.717887,0.010147,0.132572,0.799345,1.000000,1.000000,0.499991,0.117039,0.447214,0.690132,0.550101,0.079921,2.000000
10,0.000005,0.000000,0.900750,0.071340,0.717887,0.010147,0.132572,0.799345,1.000000,1.000000,0.499991,0.117039,0.447214,0.690132,0.550101,0.079921,2.000000
11,0.000005,0.000000,0.900750,0.071340,0.717887,0.010147,0.132572,0.799345,1.000000,1.000000,0.499991,0.117039,0.447214,0.690132,0.550101,0.079921,2.000000
12,0.000005,0.000000,0.900750,0.071340,0.717887,0.010147,0.132572,0.799345,1.000000,1.000000,0.499991,0.117039,0.447214,0.690132,0.550101,0.079921,2.000000
13,0.000004,0.233351,0.966778,0.194163,0.505063,0.000000,0.222240,1.000000,2.000000,0.654386,0.000000,0.182575,0.403134,0.665496,0.870681,0.467861,2.000000
14,0.000004,0.233351,0.966778,0.194163,0.505063,0.000000,0.222240,1.000000,2.000000,0.654386,0.000000,0.182575,0.403134,0.665496,0.870681,0.467861,2.000000
15,0.000004,0.233351,0.966778,0.194163,0.505063,0.000000,0.222240,1.000000,2.000000,0.654386,0.000000,0.182575,0.403134,0.665496,0.870681,0.467861,2.000000
16,0.000004,0.233351,0.966778,0.194163,0.505063,0.000000,0.222240,1.000000,2.000000,0.654386,0.000000,0.182575,0.403134,0.665496,0.870681,0.467861,2.000000
gen, fitness
0,0.026348,0.000000,1.000000,0.210000,0.800000,0.030000,0.030000,1.000000,0.000000,1.000000,0.000000,0.000000,0.600000,1.000000,1.000000,0.000000,0.000000
1,0.026348,0.000000,1.000000,0.210000,0.800000,0.030000,0.030000,1.000000,0.000000,1.000000,0.000000,0.000000,0.600000,1.000000,1.000000,0.000000,0.000000
2,0.006829,0.240456,0.878693,0.190746,0.633489,0.054341,0.067735,1.000000,1.000000,1.000000,0.000000,0.001453,0.527884,0.970887,1.000000,0.000000,2.000000
3,0.001978,0.086850,0.962598,0.026877,0.647661,0.000000,0.000000,1.000000,0.000000,1.000000,0.000000,0.000000,0.367873,0.964890,0.878044,0.000000,1.000000
4,0.001978,0.086850,0.962598,0.026877,0.647661,0.000000,0.000000,1.000000,0.000000,1.000000,0.000000,0.000000,0.367873,0.964890,0.878044,0.000000,1.000000
5,0.000474,0.286796,0.859064,0.157319,0.429795,0.066176,0.122757,0.926358,0.000000,0.919603,0.000000,0.000000,0.320450,0.924656,0.813201,0.158107,0.000000
6,0.000240,0.238509,0.902377,0.143173,0.454230,0.078201,0.000000,0.883778,0.000000,1.000000,0.141561,0.000000,0.310150,0.880065,1.000000,0.018221,1.000000
7,0.000132,0.000000,1.000000,0.000000,0.499617,0.000000,0.298881,1.000000,1.000000,0.997474,0.024427,0.000000,0.072818,0.837671,0.760777,0.361846,0.000000
8,0.000076,0.404019,0.727649,0.193950,0.373295,0.145181,0.242676,0.839405,0.000000,1.000000,0.239379,0.033942,0.274965,0.585203,0.667636,0.289371,1.000000
9,0.000027,0.552423,0.748574,0.232852,0.188013,0.112997,0.404805,0.790461,2.000000,0.819300,0.027105,0.000000,0.325019,0.885579,0.845149,0.259669,2.000000
10,0.000027,0.552423,0.748574,0.232852,0.188013,0.112997,0.404805,0.790461,2.000000,0.819300,0.027105,0.000000,0.325019,0.885579,0.845149,0.259669,2.000000
11,0.000010,0.000000,0.966441,0.022839,0.511401,0.000000,0.004931,0.782390,2.000000,0.947382,0.113788,0.027297,0.086732,0.934704,0.572805,0.271477,2.000000
12,0.000001,0.012618,1.000000,0.224733,0.324192,0.000000,0.339825,0.911292,2.000000,1.000000,0.162233,0.076795,0.000000,0.821357,0.831615,0.363377,0.000000
13,0.000001,0.012618,1.000000,0.224733,0.324192,0.000000,0.339825,0.911292,2.000000,1.000000,0.162233,0.076795,0.000000,0.821357,0.831615,0.363377,0.000000
14,0.000001,0.012618,1.000000,0.224733,0.324192,0.000000,0.339825,0.911292,2.000000,1.000000,0.162233,0.076795,0.000000,0.821357,0.831615,0.363377,0.000000
15,0.000001,0.012618,1.000000,0.224733,0.324192,0.000000,0.339825,0.911292,2.000000,1.000000,0.162233,0.076795,0.000000,0.821357,0.831615,0.363377,0.000000
16,0.000001,0.012618,1.000000,0.224733,0.324192,0.000000,0.339825,0.911292,2.000000,1.000000,0.162233,0.076795,0.000000,0.821357,0.831615,0.363377,0.000000
17,0.000001,0.012618,1.000000,0.224733,0.324192,0.000000,0.339825,0.911292,2.000000,1.000000,0.162233,0.076795,0.000000,0.821357,0.831615,0.363377,0.000000
18,0.000001,0.012618,1.000000,0.224733,0.324192,0.000000,0.339825,0.911292,2.000000,1.000000,0.162233,0.076795,0.000000,0.821357,0.831615,0.363377,0.000000
19,0.000001,0.012618,1.000000,0.224733,0.324192,0.000000,0.339825,0.911292,2.000000,1.000000,0.162233,0.076795,0.000000,0.821357,0.831615,0.363377,0.000000
20,0.000001,0.012618,1.000000,0.224733,0.324192,0.000000,0.339825,0.911292,2.000000,1.000000,0.162233,0.076795,0.000000,0.821357,0.831615,0.363377,0.000000
21,0.000001,0.012618,1.000000,0.224733,0.324192,0.000000,0.339825,0.911292,2.000000,1.000000,0.162233,0.076795,0.000000,0.821357,0.831615,0.363377,0.000000
gen, fitness
0,0.052335,0.000000,1.000000,0.210000,0.800000,0.030000,0.030000,1.000000,0.000000,1.000000,0.000000,0.000000,0.600000,1.000000,1.000000,0.000000,0.000000
1,0.052335,0.000000,1.000000,0.210000,0.800000,0.030000,0.030000,1.000000,0.000000,1.000000,0.000000,0.000000,0.600000,1.000000,1.000000,0.000000,0.000000
2,0.028629,0.073501,1.000000,0.028841,0.717344,0.130807,0.073627,1.000000,2.000000,1.000000,0.192326,0.051260,0.558176,0.987289,0.983100,0.000000,1.000000
3,0.012315,0.000000,0.763423,0.015171,0.687608,0.000000,0.091891,0.850319,0.000000,1.000000,0.000000,0.000000,0.393739,0.893794,0.800703,0.000000,0.000000
4,0.004654,0.273656,0.918488,0.086078,0.502128,0.000000,0.000000,1.000000,1.000000,1.000000,0.008857,0.000000,0.279011,1.000000,0.940471,0.000000,1.000000
5,0.003312,0.149284,1.000000,0.000000,0.427411,0.052730,0.083371,0.995942,1.000000,0.998520,0.000000,0.000000,0.187600,1.000000,0.787664,0.089882,1.000000
6,0.000906,0.239125,0.637837,0.000000,0.347645,0.455150,0.130554,0.618167,0.000000,0.799123,0.162808,0.000000,0.146667,0.890218,1.000000,0.012632,1.000000
7,0.000906,0.239125,0.637837,0.000000,0.347645,0.455150,0.130554,0.618167,0.000000,0.799123,0.162808,0.000000,0.146667,0.890218,1.000000,0.012632,1.000000
8,0.000003,0.333045,0.664928,0.181017,0.157714,0.000000,0.022074,1.000000,2.000000,1.000000,0.000000,0.040801,0.008936,1.000000,0.783476,0.018329,1.000000
9,0.000003,0.333045,0.664928,0.181017,0.157714,0.000000,0.022074,1.000000,2.000000,1.000000,0.000000,0.040801,0.008936,1.000000,0.783476,0.018329,1.000000
10,0.000003,0.333045,0.664928,0.181017,0.157714,0.000000,0.022074,1.000000,2.000000,1.000000,0.000000,0.040801,0.008936,1.000000,0.783476,0.018329,1.000000
11,0.000003,0.333045,0.664928,0.181017,0.157714,0.000000,0.022074,1.000000,2.000000,1.000000,0.000000,0.040801,0.008936,1.000000,0.783476,0.018329,1.000000
12,0.000003,0.333045,0.664928,0.181017,0.157714,0.000000,0.022074,1.000000,2.000000,1.000000,0.000000,0.040801,0.008936,1.000000,0.783476,0.018329,1.000000
13,0.000003,0.333045,0.664928,0.181017,0.157714,0.000000,0.022074,1.000000,2.000000,1.000000,0.000000,0.040801,0.008936,1.000000,0.783476,0.018329,1.000000
14,0.000001,0.353666,1.000000,0.154735,0.178641,0.408280,0.656788,1.000000,0.000000,1.000000,0.000000,0.029099,0.000000,0.755202,1.000000,0.157877,1.000000
15,0.000001,0.353666,1.000000,0.154735,0.178641,0.408280,0.656788,1.000000,0.000000,1.000000,0.000000,0.029099,0.000000,0.755202,1.000000,0.157877,1.000000
16,0.000001,0.353666,1.000000,0.154735,0.178641,0.408280,0.656788,1.000000,0.000000,1.000000,0.000000,0.029099,0.000000,0.755202,1.000000,0.157877,1.000000
17,0.000001,0.353666,1.000000,0.154735,0.178641,0.408280,0.656788,1.000000,0.000000,1.000000,0.000000,0.029099,0.000000,0.755202,1.000000,0.157877,1.000000
18,0.000001,0.353666,1.000000,0.154735,0.178641,0.408280,0.656788,1.000000,0.000000,1.000000,0.000000,0.029099,0.000000,0.755202,1.000000,0.157877,1.000000
gen, fitness
0,0.080636,0.000000,1.000000,0.210000,0.800000,0.030000,0.030000,1.000000,0.000000,1.000000,0.000000,0.000000,0.600000,1.000000,1.000000,0.000000,0.000000
1,0.080636,0.000000,1.000000,0.210000,0.800000,0.030000,0.030000,1.000000,0.000000,1.000000,0.000000,0.000000,0.600000,1.000000,1.000000,0.000000,0.000000
2,0.033244,0.000000,0.956425,0.159601,0.512586,0.000000,0.000000,1.000000,1.000000,0.976656,0.036547,0.033880,0.421356,1.000000,1.000000,0.063794,1.000000
3,0.020615,0.070120,1.000000,0.076223,0.509659,0.000000,0.033239,1.000000,0.000000,0.912767,0.137413,0.043057,0.266642,0.883736,1.000000,0.000000,2.000000
4,0.017430,0.000000,0.818521,0.065993,0.467817,0.018718,0.121987,1.000000,1.000000,1.000000,0.263510,0.081919,0.172858,1.000000,1.000000,0.080968,0.000000
5,0.007293,0.000000,0.809203,0.000000,0.418406,0.016795,0.076527,1.000000,2.000000,0.961991,0.248941,0.000000,0.048859,1.000000,1.000000,0.144152,2.000000
6,0.007293,0.000000,0.809203,0.000000,0.418406,0.016795,0.076527,1.000000,2.000000,0.961991,0.248941,0.000000,0.048859,1.000000,1.000000,0.144152,2.000000
7,0.001741,0.252176,0.735674,0.094069,0.210564,0.154150,0.037925,0.806168,0.000000,0.935852,0.044150,0.000000,0.000000,0.897742,1.000000,0.217012,0.000000
8,0.001741,0.252176,0.735674,0.094069,0.210564,0.154150,0.037925,0.806168,0.000000,0.935852,0.044150,0.000000,0.000000,0.897742,1.000000,0.217012,0.000000
9,0.000885,0.381855,0.705443,0.073334,0.204897,0.115004,0.000000,0.996688,0.000000,1.000000,0.270951,0.000000,0.026612,1.000000,1.000000,0.169750,0.000000
10,0.000866,0.486305,0.440998,0.010192,0.164000,0.062474,0.131890,1.000000,2.000000,0.983352,0.000000,0.000000,0.022930,0.846750,1.000000,0.389428,2.000000
11,0.000316,0.324291,1.000000,0.020238,0.074650,0.128577,0.000000,0.862259,0.000000,0.716994,0.219237,0.000000,0.000000,1.000000,0.895007,0.000000,2.000000
12,0.000166,0.659218,1.000000,0.124061,0.069455,0.351221,0.524116,0.962668,0.000000,1.000000,0.000000,0.000000,0.108900,0.954998,0.962923,0.059386,0.000000
13,0.000015,0.627817,1.000000,0.148382,0.018228,0.049569,0.000000,1.000000,0.000000,1.000000,0.299794,0.004919,0.000000,0.865658,1.000000,0.471377,2.000000
14,0.000015,0.627817,1.000000,0.148382,0.018228,0.049569,0.000000,1.000000,0.000000,1.000000,0.299794,0.004919,0.000000,0.865658,1.000000,0.471377,2.000000
15,0.000015,0.627817,1.000000,0.148382,0.018228,0.049569,0.000000,1.000000,0.000000,1.000000,0.299794,0.004919,0.000000,0.865658,1.000000,0.471377,2.000000
16,0.000015,0.627817,1.000000,0.148382,0.018228,0.049569,0.000000,1.000000,0.000000,1.000000,0.299794,0.004919,0.000000,0.865658,1.000000,0.471377,2.000000
17,0.000015,0.627817,1.000000,0.148382,0.018228,0.049569,0.000000,1.000000,0.000000,1.000000,0.299794,0.004919,0.000000,0.865658,1.000000,0.471377,2.000000
18,0.000015,0.627817,1.000000,0.148382,0.018228,0.049569,0.000000,1.000000,0.000000,1.000000,0.299794,0.004919,0.000000,0.865658,1.000000,0.471377,2.000000
19,0.000015,0.627817,1.000000,0.148382,0.018228,0.049569,0.000000,1.000000,0.000000,1.000000,0.299794,0.004919,0.000000,0.865658,1.000000,0.471377,2.000000
20,0.000015,0.627817,1.000000,0.148382,0.018228,0.049569,0.000000,1.000000,0.000000,1.000000,0.299794,0.004919,0.000000,0.865658,1.000000,0.471377,2.000000
21,0.000015,0.627817,1.000000,0.148382,0.018228,0.049569,0.000000,1.000000,0.000000,1.000000,0.299794,0.004919,0.000000,0.865658,1.000000,0.471377,2.000000
22,0.000015,0.627817,1.000000,0.148382,0.018228,0.049569,0.000000,1.000000,0.000000,1.000000,0.299794,0.004919,0.000000,0.865658,1.000000,0.471377,2.000000
23,0.000015,0.627817,1.000000,0.148382,0.018228,0.049569,0.000000,1.000000,0.000000,1.000000,0.299794,0.004919,0.000000,0.865658,1.000000,0.471377,2.000000
gen, fitness
0,0.025383,0.000000,1.000000,0.210000,0.800000,0.030000,0.030000,1.000000,0.000000,1.000000,0.000000,0.000000,0.600000,1.000000,1.000000,0.000000,0.000000
1,0.025383,0.000000,1.000000,0.210000,0.800000,0.030000,0.030000,1.000000,0.000000,1.000000,0.000000,0.000000,0.600000,1.000000,1.000000,0.000000,0.000000
2,0.009297,0.000000,0.945648,0.074036,0.658475,0.090971,0.086654,0.809616,1.000000,0.931788,0.012968,0.000000,0.543441,1.000000,1.000000,0.000000,2.000000
3,0.005464,0.048730,1.000000,0.145770,0.615937,0.028779,0.076495,0.873131,0.000000,1.000000,0.000000,0.000000,0.318296,1.000000,0.902883,0.056265,0.000000
4,0.001168,0.317242,0.990221,0.000000,0.547395,0.000000,0.052406,0.928292,0.000000,0.860255,0.356781,0.002491,0.394147,0.986763,1.000000,0.053637,0.000000
5,0.000893,0.169071,1.000000,0.000000,0.556366,0.066419,0.094827,0.925081,0.000000,0.959992,0.000000,0.019787,0.282553,1.000000,0.898728,0.065632,2.000000
6,0.000252,0.185292,0.886670,0.147724,0.376245,0.008793,0.084528,0.955956,1.000000,0.962064,0.000000,0.073334,0.135824,0.930894,1.000000,0.025525,0.000000
7,0.000194,0.155061,1.000000,0.000000,0.430254,0.305618,0.000000,0.821881,2.000000,0.728710,0.000000,0.000000,0.212003,0.886899,1.000000,0.000000,0.000000
8,0.000194,0.155061,1.000000,0.000000,0.430254,0.305618,0.000000,0.821881,2.000000,0.728710,0.000000,0.000000,0.212003,0.886899,1.000000,0.000000,0.000000
9,0.000083,0.000000,0.808924,0.153321,0.315863,0.069933,0.201844,0.870702,0.000000,0.877790,0.323140,0.000000,0.042468,0.933339,0.706105,0.056369,2.000000
10,0.000036,0.213278,0.543870,0.218471,0.201232,0.465856,0.367061,0.687082,2.000000,0.818793,0.244219,0.075519,0.094990,0.874337,0.577920,0.000000,0.000000
11,0.000033,0.337120,1.000000,0.000000,0.290037,0.466932,0.234423,0.752554,0.000000,0.528429,0.015679,0.186231,0.000000,0.884839,0.909066,0.169861,0.000000
12,0.000033,0.337120,1.000000,0.000000,0.290037,0.466932,0.234423,0.752554,0.000000,0.528429,0.015679,0.186231,0.000000,0.884839,0.909066,0.169861,0.000000
13,0.000033,0.337120,1.000000,0.000000,0.290037,0.466932,0.234423,0.752554,0.000000,0.528429,0.015679,0.186231,0.000000,0.884839,0.909066,0.169861,0.000000
14,0.000033,0.337120,1.000000,0.000000,0.290037,0.466932,0.234423,0.752554,0.000000,0.528429,0.015679,0.186231,0.000000,0.884839,0.909066,0.169861,0.000000
15,0.000013,0.369666,1.000000,0.113009,0.184365,0.436754,0.342365,0.830071,1.000000,0.550852,0.383154,0.005078,0.150841,0.783625,1.000000,0.882410,0.000000
16,0.000008,0.402410,0.837810,0.000000,0.430423,0.221570,0.000000,1.000000,1.000000,0.885162,0.208069,0.030461,0.242951,0.983025,0.744341,0.000000,0.000000
17,0.000008,0.402410,0.837810,0.000000,0.430423,0.221570,0.000000,1.000000,1.000000,0.885162,0.208069,0.030461,0.242951,0.983025,0.744341,0.000000,0.000000
18,0.000008,0.402410,0.837810,0.000000,0.430423,0.221570,0.000000,1.000000,1.000000,0.885162,0.208069,0.030461,0.242951,0.983025,0.744341,0.000000,0.000000
19,0.000008,0.402410,0.837810,0.000000,0.430423,0.221570,0.000000,1.000000,1.000000,0.885162,0.208069,0.030461,0.242951,0.983025,0.744341,0.000000,0.000000
20,0.000008,0.402410,0.837810,0.000000,0.430423,0.221570,0.000000,1.000000,1.000000,0.885162,0.208069,0.030461,0.242951,0.983025,0.744341,0.000000,0.000000
21,0.000008,0.402410,0.837810,0.000000,0.430423,0.221570,0.000000,1.000000,1.000000,0.885162,0.208069,0.030461,0.242951,0.983025,0.744341,0.000000,0.000000
22,0.000008,0.402410,0.837810,0.000000,0.430423,0.221570,0.000000,1.000000,1.000000,0.885162,0.208069,0.030461,0.242951,0.983025,0.744341,0.000000,0.000000
23,0.000008,0.402410,0.837810,0.000000,0.430423,0.221570,0.000000,1.000000,1.000000,0.885162,0.208069,0.030461,0.242951,0.983025,0.744341,0.000000,0.000000
24,0.000008,0.402410,0.837810,0.000000,0.430423,0.221570,0.000000,1.000000,1.000000,0.885162,0.208069,0.030461,0.242951,0.983025,0.744341,0.000000,0.000000
25,0.000008,0.402410,0.837810,0.000000,0.430423,0.221570,0.000000,1.000000,1.000000,0.885162,0.208069,0.030461,0.242951,0.983025,0.744341,0.000000,0.000000
