gen, fitness
0,0.094016,0.000000,1.000000,0.210000,0.800000,0.030000,0.030000,1.000000,0.000000,1.000000,0.000000,0.000000,0.600000,1.000000,1.000000,0.000000,0.000000
1,0.094016,0.000000,1.000000,0.210000,0.800000,0.030000,0.030000,1.000000,0.000000,1.000000,0.000000,0.000000,0.600000,1.000000,1.000000,0.000000,0.000000
2,0.059318,0.000000,0.919888,0.108538,0.692897,0.000000,0.030000,0.937294,0.000000,0.960407,0.194513,0.000000,0.547164,1.000000,0.964035,0.106993,2.000000
3,0.053947,0.004148,0.897855,0.111118,0.558862,0.000000,0.000000,0.991412,2.000000,1.000000,0.191778,0.004437,0.536327,1.000000,1.000000,0.000000,1.000000
4,0.044474,0.028503,0.927383,0.000000,0.513404,0.000000,0.093461,0.752333,2.000000,0.852176,0.149825,0.000000,0.483196,0.953043,1.000000,0.000000,0.000000
5,0.034562,0.000000,0.888336,0.052578,0.543841,0.105688,0.000000,0.951880,1.000000,1.000000,0.247439,0.000000,0.353980,0.917032,0.967694,0.009432,2.000000
6,0.025276,0.000000,0.634193,0.149655,0.396323,0.050854,0.000000,0.924180,2.000000,0.977314,0.019372,0.000000,0.137541,1.000000,0.873562,0.026886,1.000000
7,0.019612,0.128245,1.000000,0.000633,0.372455,0.093837,0.105621,0.850516,1.000000,0.915057,0.091204,0.070301,0.141796,0.741787,0.910324,0.040885,2.000000
8,0.013616,0.000000,1.000000,0.000633,0.296093,0.000000,0.024810,0.646517,2.000000,0.767717,0.280781,0.070301,0.000000,0.793257,0.910324,0.000000,1.000000
9,0.009023,0.000000,1.000000,0.032178,0.160371,0.000000,0.071256,0.658122,0.000000,0.729469,0.344965,0.000000,0.000000,0.793257,0.972548,0.061066,1.000000
10,0.006537,0.281072,0.800978,0.035650,0.173735,0.061596,0.099091,0.758969,0.000000,0.735649,0.099678,0.000000,0.000000,0.986789,1.000000,0.199667,1.000000
11,0.004214,0.261749,0.735772,0.000000,0.201434,0.209771,0.000000,0.821011,0.000000,0.930298,0.229079,0.000000,0.000000,0.993111,1.000000,0.022396,1.000000
12,0.001965,0.470133,0.742686,0.000000,0.072447,0.142248,0.011157,0.856864,0.000000,0.766495,0.000000,0.000000,0.000000,0.858212,1.000000,0.048726,2.000000
13,0.001965,0.470133,0.742686,0.000000,0.072447,0.142248,0.011157,0.856864,0.000000,0.766495,0.000000,0.000000,0.000000,0.858212,1.000000,0.048726,2.000000
14,0.000993,0.552978,1.000000,0.033460,0.058302,0.000000,0.157380,0.569097,0.000000,1.000000,0.318682,0.000000,0.000000,1.000000,0.985762,0.093443,2.000000
15,0.000547,0.599538,0.687976,0.000000,0.000000,0.084530,0.081749,0.841500,1.000000,0.877709,0.000000,0.000000,0.000000,0.988176,1.000000,0.101270,0.000000
16,0.000284,0.736506,0.884643,0.000000,0.000000,0.017657,0.030528,0.741924,0.000000,0.834016,0.000000,0.000000,0.000000,0.799688,0.986437,0.239798,2.000000
17,0.000063,0.773615,0.972924,0.000000,0.044399,0.112608,0.157380,0.619845,2.000000,1.000000,0.149384,0.000000,0.000000,1.000000,0.992559,0.061644,1.000000
18,0.000063,0.773615,0.972924,0.000000,0.044399,0.112608,0.157380,0.619845,2.000000,1.000000,0.149384,0.000000,0.000000,1.000000,0.992559,0.061644,1.000000
19,0.000063,0.773615,0.972924,0.000000,0.044399,0.112608,0.157380,0.619845,2.000000,1.000000,0.149384,0.000000,0.000000,1.000000,0.992559,0.061644,1.000000
20,0.000023,0.824921,0.449584,0.000000,0.039631,0.141389,0.437674,0.496646,0.000000,1.000000,0.171986,0.000000,0.000000,0.745316,0.861467,0.174567,1.000000
21,0.000014,0.776080,0.980695,0.000000,0.000000,0.085976,0.111656,0.619845,1.000000,0.987990,0.149384,0.000000,0.000000,1.000000,0.950347,0.000000,0.000000
22,0.000014,0.776080,0.980695,0.000000,0.000000,0.085976,0.111656,0.619845,1.000000,0.987990,0.149384,0.000000,0.000000,1.000000,0.950347,0.000000,0.000000
23,0.000014,0.776080,0.980695,0.000000,0.000000,0.085976,0.111656,0.619845,1.000000,0.987990,0.149384,0.000000,0.000000,1.000000,0.950347,0.000000,0.000000
24,0.000008,0.897115,0.797238,0.000000,0.000000,0.000000,0.000000,0.609054,2.000000,0.969347,0.409607,0.000000,0.049722,0.794136,1.000000,0.134104,1.000000
25,0.000008,0.897115,0.797238,0.000000,0.000000,0.000000,0.000000,0.609054,2.000000,0.969347,0.409607,0.000000,0.049722,0.794136,1.000000,0.134104,1.000000
26,0.000000,0.940382,0.520329,0.000000,0.000000,0.157137,0.531565,0.441046,1.000000,0.982121,0.000000,0.014693,0.017424,0.682705,0.564612,0.259997,0.000000
gen, fitness
0,0.011444,0.000000,1.000000,0.210000,0.800000,0.030000,0.030000,1.000000,0.000000,1.000000,0.000000,0.000000,0.600000,1.000000,1.000000,0.000000,0.000000
1,0.011444,0.000000,1.000000,0.210000,0.800000,0.030000,0.030000,1.000000,0.000000,1.000000,0.000000,0.000000,0.600000,1.000000,1.000000,0.000000,0.000000
2,0.004974,0.190632,0.851050,0.210000,0.624745,0.068349,0.030000,1.000000,0.000000,1.000000,0.000000,0.067149,0.553646,1.000000,0.998352,0.000000,0.000000
3,0.003674,0.078642,0.967418,0.064579,0.714943,0.000000,0.057743,0.950231,2.000000,1.000000,0.125824,0.069977,0.486744,0.947199,1.000000,0.000000,2.000000
4,0.002178,0.178082,1.000000,0.000000,0.714943,0.000000,0.057743,1.000000,2.000000,1.000000,0.263047,0.145489,0.382206,0.935523,0.951902,0.000000,1.000000
5,0.001072,0.078642,0.947076,0.038095,0.622788,0.000000,0.015471,0.976838,1.000000,0.882348,0.064765,0.000000,0.399016,1.000000,0.968485,0.000000,0.000000
6,0.000350,0.163073,0.831968,0.160149,0.441174,0.056328,0.000000,0.903920,2.000000,0.865481,0.000000,0.000000,0.335657,0.996153,0.880527,0.000000,1.000000
7,0.000332,0.218338,0.905308,0.024763,0.592119,0.311917,0.213741,0.718163,1.000000,0.945807,0.000000,0.051092,0.294770,0.946188,1.000000,0.200083,2.000000
8,0.000013,0.193460,1.000000,0.160149,0.398725,0.000000,0.018734,0.853800,2.000000,0.919536,0.000000,0.000000,0.247203,0.998448,0.911633,0.000000,2.000000
9,0.000003,0.210652,0.981273,0.177979,0.335771,0.091901,0.018734,0.877866,1.000000,0.864604,0.000000,0.000000,0.247203,0.985754,1.000000,0.011218,0.000000
10,0.000003,0.210652,0.981273,0.177979,0.335771,0.091901,0.018734,0.877866,1.000000,0.864604,0.000000,0.000000,0.247203,0.985754,1.000000,0.011218,0.000000
11,0.000003,0.210652,0.981273,0.177979,0.335771,0.091901,0.018734,0.877866,1.000000,0.864604,0.000000,0.000000,0.247203,0.985754,1.000000,0.011218,0.000000
12,0.000003,0.210652,0.981273,0.177979,0.335771,0.091901,0.018734,0.877866,1.000000,0.864604,0.000000,0.000000,0.247203,0.985754,1.000000,0.011218,0.000000
13,0.000002,0.000000,0.544254,0.000000,0.467717,0.093655,0.190606,0.885214,0.000000,0.654455,0.003774,0.017742,0.156136,0.971582,0.614895,0.000000,1.000000
14,0.000002,0.000000,0.544254,0.000000,0.467717,0.093655,0.190606,0.885214,0.000000,0.654455,0.003774,0.017742,0.156136,0.971582,0.614895,0.000000,1.000000
15,0.000002,0.000000,0.544254,0.000000,0.467717,0.093655,0.190606,0.885214,0.000000,0.654455,0.003774,0.017742,0.156136,0.971582,0.614895,0.000000,1.000000
16,0.000002,0.000000,0.544254,0.000000,0.467717,0.093655,0.190606,0.885214,0.000000,0.654455,0.003774,0.017742,0.156136,0.971582,0.614895,0.000000,1.000000
17,0.000002,0.000000,0.544254,0.000000,0.467717,0.093655,0.190606,0.885214,0.000000,0.654455,0.003774,0.017742,0.156136,0.971582,0.614895,0.000000,1.000000
18,0.000002,0.000000,0.544254,0.000000,0.467717,0.093655,0.190606,0.885214,0.000000,0.654455,0.003774,0.017742,0.156136,0.971582,0.614895,0.000000,1.000000
19,0.000002,0.297073,0.764414,0.044133,0.420807,0.108163,0.039087,0.739615,1.000000,0.703480,0.237545,0.187582,0.065187,0.910882,0.508418,0.230686,0.000000
gen, fitness
0,0.010533,0.000000,1.000000,0.210000,0.800000,0.030000,0.030000,1.000000,0.000000,1.000000,0.000000,0.000000,0.600000,1.000000,1.000000,0.000000,0.000000
1,0.010533,0.000000,1.000000,0.210000,0.800000,0.030000,0.030000,1.000000,0.000000,1.000000,0.000000,0.000000,0.600000,1.000000,1.000000,0.000000,0.000000
2,0.002670,0.000000,0.702507,0.210000,0.734973,0.005847,0.111764,1.000000,0.000000,1.000000,0.124754,0.000000,0.629642,1.000000,0.947809,0.000000,0.000000
3,0.000682,0.182828,1.000000,0.000000,0.737563,0.085899,0.030000,0.986698,1.000000,1.000000,0.096391,0.000000,0.557954,1.000000,1.000000,0.033665,0.000000
4,0.000682,0.182828,1.000000,0.000000,0.737563,0.085899,0.030000,0.986698,1.000000,1.000000,0.096391,0.000000,0.557954,1.000000,1.000000,0.033665,0.000000
5,0.000087,0.226559,1.000000,0.000000,0.648034,0.014722,0.092261,1.000000,1.000000,1.000000,0.091900,0.000000,0.434556,0.964319,0.900044,0.143372,0.000000
6,0.000087,0.226559,1.000000,0.000000,0.648034,0.014722,0.092261,1.000000,1.000000,1.000000,0.091900,0.000000,0.434556,0.964319,0.900044,0.143372,0.000000
7,0.000030,0.417943,1.000000,0.000000,0.629767,0.014722,0.092261,1.000000,0.000000,0.894264,0.000000,0.000000,0.503427,0.881708,0.900044,0.179168,1.000000
8,0.000030,0.417943,1.000000,0.000000,0.629767,0.014722,0.092261,1.000000,0.000000,0.894264,0.000000,0.000000,0.503427,0.881708,0.900044,0.179168,1.000000
9,0.000015,0.182828,1.000000,0.217210,0.433936,0.077952,0.083309,0.883593,2.000000,1.000000,0.157478,0.000000,0.332640,1.000000,0.783372,0.049949,1.000000
10,0.000011,0.218998,0.923499,0.048201,0.567660,0.083097,0.033644,1.000000,2.000000,0.933500,0.209749,0.000000,0.380319,0.991361,1.000000,0.044684,0.000000
11,0.000003,0.218998,0.799168,0.048201,0.549662,0.083097,0.000000,0.944515,2.000000,0.881482,0.124141,0.000000,0.380319,0.991361,1.000000,0.044684,1.000000
12,0.000003,0.205477,0.824129,0.000000,0.644854,0.000000,0.256960,1.000000,0.000000,1.000000,0.068906,0.055731,0.332352,0.896161,0.802086,0.250367,1.000000
13,0.000003,0.205477,0.824129,0.000000,0.644854,0.000000,0.256960,1.000000,0.000000,1.000000,0.068906,0.055731,0.332352,0.896161,0.802086,0.250367,1.000000
14,0.000003,0.205477,0.824129,0.000000,0.644854,0.000000,0.256960,1.000000,0.000000,1.000000,0.068906,0.055731,0.332352,0.896161,0.802086,0.250367,1.000000
15,0.000003,0.205477,0.824129,0.000000,0.644854,0.000000,0.256960,1.000000,0.000000,1.000000,0.068906,0.055731,0.332352,0.896161,0.802086,0.250367,1.000000
16,0.000003,0.205477,0.824129,0.000000,0.644854,0.000000,0.256960,1.000000,0.000000,1.000000,0.068906,0.055731,0.332352,0.896161,0.802086,0.250367,1.000000
17,0.000001,0.113594,0.968647,0.206988,0.430290,0.154680,0.144972,0.963899,2.000000,0.913138,0.143364,0.000000,0.332640,1.000000,0.750063,0.062478,1.000000
gen, fitness
0,0.067934,0.000000,1.000000,0.210000,0.800000,0.030000,0.030000,1.000000,0.000000,1.000000,0.000000,0.000000,0.600000,1.000000,1.000000,0.000000,0.000000
1,0.067934,0.000000,1.000000,0.210000,0.800000,0.030000,0.030000,1.000000,0.000000,1.000000,0.000000,0.000000,0.600000,1.000000,1.000000,0.000000,0.000000
2,0.036322,0.134957,1.000000,0.195703,0.588651,0.030794,0.089420,1.000000,1.000000,1.000000,0.000000,0.000000,0.528463,1.000000,0.917863,0.000000,2.000000
3,0.030804,0.035038,1.000000,0.169966,0.613282,0.000000,0.211678,1.000000,1.000000,1.000000,0.067681,0.015643,0.365889,0.994172,1.000000,0.024493,2.000000
4,0.022774,0.035038,0.943486,0.103756,0.562616,0.010749,0.346905,0.922851,0.000000,0.947745,0.043935,0.037282,0.331904,1.000000,1.000000,0.075499,1.000000
5,0.015644,0.129638,0.945057,0.078284,0.548794,0.082448,0.165536,1.000000,1.000000,1.000000,0.000000,0.021078,0.255474,1.000000,0.797030,0.075499,2.000000
6,0.007789,0.233769,1.000000,0.028279,0.506468,0.100464,0.303022,1.000000,0.000000,0.980757,0.192012,0.004956,0.192576,0.828543,0.939602,0.000000,1.000000
7,0.004696,0.495779,1.000000,0.000000,0.454461,0.218999,0.243804,0.954720,1.000000,0.980757,0.244377,0.068841,0.192576,0.828543,0.850730,0.035383,2.000000
8,0.001397,0.314073,1.000000,0.000000,0.352574,0.272910,0.037742,1.000000,0.000000,1.000000,0.231696,0.004956,0.086513,0.828543,0.894940,0.000000,0.000000
9,0.000415,0.437912,1.000000,0.000000,0.322868,0.272910,0.037742,1.000000,0.000000,0.960677,0.369991,0.004956,0.086513,0.884832,0.925213,0.000000,0.000000
10,0.000068,0.504027,1.000000,0.018582,0.256290,0.089196,0.043471,0.991591,0.000000,1.000000,0.000000,0.006388,0.000000,0.905350,0.804606,0.254253,0.000000
11,0.000012,0.432217,0.836770,0.000000,0.210737,0.158312,0.051574,0.918770,0.000000,0.781992,0.291074,0.007021,0.009247,0.829675,1.000000,0.000000,0.000000
12,0.000012,0.432217,0.836770,0.000000,0.210737,0.158312,0.051574,0.918770,0.000000,0.781992,0.291074,0.007021,0.009247,0.829675,1.000000,0.000000,0.000000
13,0.000012,0.432217,0.836770,0.000000,0.210737,0.158312,0.051574,0.918770,0.000000,0.781992,0.291074,0.007021,0.009247,0.829675,1.000000,0.000000,0.000000
14,0.000012,0.432217,0.836770,0.000000,0.210737,0.158312,0.051574,0.918770,0.000000,0.781992,0.291074,0.007021,0.009247,0.829675,1.000000,0.000000,0.000000
15,0.000002,0.564566,0.820832,0.000000,0.210737,0.158312,0.051574,0.918770,1.000000,0.816912,0.300099,0.031292,0.031658,0.829675,1.000000,0.000000,0.000000
16,0.000002,0.564566,0.820832,0.000000,0.210737,0.158312,0.051574,0.918770,1.000000,0.816912,0.300099,0.031292,0.031658,0.829675,1.000000,0.000000,0.000000
17,0.000002,0.564566,0.820832,0.000000,0.210737,0.158312,0.051574,0.918770,1.000000,0.816912,0.300099,0.031292,0.031658,0.829675,1.000000,0.000000,0.000000
18,0.000002,0.564566,0.820832,0.000000,0.210737,0.158312,0.051574,0.918770,1.000000,0.816912,0.300099,0.031292,0.031658,0.829675,1.000000,0.000000,0.000000
19,0.000002,0.564566,0.820832,0.000000,0.210737,0.158312,0.051574,0.918770,1.000000,0.816912,0.300099,0.031292,0.031658,0.829675,1.000000,0.000000,0.000000
20,0.000002,0.564566,0.820832,0.000000,0.210737,0.158312,0.051574,0.918770,1.000000,0.816912,0.300099,0.031292,0.031658,0.829675,1.000000,0.000000,0.000000
21,0.000002,0.564566,0.820832,0.000000,0.210737,0.158312,0.051574,0.918770,1.000000,0.816912,0.300099,0.031292,0.031658,0.829675,1.000000,0.000000,0.000000
gen, fitness
0,0.030614,0.000000,1.000000,0.210000,0.800000,0.030000,0.030000,1.000000,0.000000,1.000000,0.000000,0.000000,0.600000,1.000000,1.000000,0.000000,0.000000
1,0.030614,0.000000,1.000000,0.210000,0.800000,0.030000,0.030000,1.000000,0.000000,1.000000,0.000000,0.000000,0.600000,1.000000,1.000000,0.000000,0.000000
2,0.009034,0.030103,1.000000,0.000000,0.734131,0.056382,0.030000,0.964482,1.000000,1.000000,0.000000,0.000000,0.451570,1.000000,1.000000,0.068978,0.000000
3,0.003370,0.062964,1.000000,0.000000,0.551998,0.000000,0.069350,0.964482,0.000000,1.000000,0.000000,0.000000,0.293033,1.000000,0.939523,0.068978,2.000000
4,0.002666,0.230594,1.000000,0.064369,0.551998,0.102452,0.202527,0.988123,1.000000,1.000000,0.000000,0.224478,0.141064,1.000000,0.986786,0.000000,1.000000
5,0.000970,0.243556,1.000000,0.046508,0.470200,0.004151,0.213411,1.000000,1.000000,1.000000,0.000000,0.186393,0.092092,0.975069,1.000000,0.000000,0.000000
6,0.000115,0.215462,1.000000,0.000000,0.433176,0.089332,0.134361,0.959361,2.000000,0.896359,0.000000,0.000000,0.160546,1.000000,0.939523,0.037251,0.000000
7,0.000044,0.375639,0.986255,0.000000,0.426725,0.101597,0.184706,1.000000,2.000000,1.000000,0.000000,0.118104,0.092092,1.000000,0.787499,0.000000,0.000000
8,0.000044,0.375639,0.986255,0.000000,0.426725,0.101597,0.184706,1.000000,2.000000,1.000000,0.000000,0.118104,0.092092,1.000000,0.787499,0.000000,0.000000
9,0.000009,0.455332,0.889592,0.113214,0.307332,0.276772,0.304407,0.969152,2.000000,1.000000,0.094942,0.121098,0.064837,0.866586,0.736686,0.114356,2.000000
10,0.000009,0.455332,0.889592,0.113214,0.307332,0.276772,0.304407,0.969152,2.000000,1.000000,0.094942,0.121098,0.064837,0.866586,0.736686,0.114356,2.000000
11,0.000004,0.351419,0.928544,0.000000,0.426725,0.101597,0.124252,1.000000,1.000000,1.000000,0.000000,0.080613,0.092092,1.000000,0.857418,0.032027,2.000000
12,0.000004,0.351419,0.928544,0.000000,0.426725,0.101597,0.124252,1.000000,1.000000,1.000000,0.000000,0.080613,0.092092,1.000000,0.857418,0.032027,2.000000
13,0.000004,0.351419,0.928544,0.000000,0.426725,0.101597,0.124252,1.000000,1.000000,1.000000,0.000000,0.080613,0.092092,1.000000,0.857418,0.032027,2.000000
14,0.000004,0.351419,0.928544,0.000000,0.426725,0.101597,0.124252,1.000000,1.000000,1.000000,0.000000,0.080613,0.092092,1.000000,0.857418,0.032027,2.000000
15,0.000004,0.351419,0.928544,0.000000,0.426725,0.101597,0.124252,1.000000,1.000000,1.000000,0.000000,0.080613,0.092092,1.000000,0.857418,0.032027,2.000000
16,0.000004,0.351419,0.928544,0.000000,0.426725,0.101597,0.124252,1.000000,1.000000,1.000000,0.000000,0.080613,0.092092,1.000000,0.857418,0.032027,2.000000
17,0.000004,0.351419,0.928544,0.000000,0.426725,0.101597,0.124252,1.000000,1.000000,1.000000,0.000000,0.080613,0.092092,1.000000,0.857418,0.032027,2.000000
18,0.000004,0.351419,0.928544,0.000000,0.426725,0.101597,0.124252,1.000000,1.000000,1.000000,0.000000,0.080613,0.092092,1.000000,0.857418,0.032027,2.000000
19,0.000004,0.351419,0.928544,0.000000,0.426725,0.101597,0.124252,1.000000,1.000000,1.000000,0.000000,0.080613,0.092092,1.000000,0.857418,0.032027,2.000000
gen, fitness
0,0.009712,0.000000,1.000000,0.210000,0.800000,0.030000,0.030000,1.000000,0.000000,1.000000,0.000000,0.000000,0.600000,1.000000,1.000000,0.000000,0.000000
1,0.009712,0.000000,1.000000,0.210000,0.800000,0.030000,0.030000,1.000000,0.000000,1.000000,0.000000,0.000000,0.600000,1.000000,1.000000,0.000000,0.000000
2,0.000226,0.069401,1.000000,0.017760,0.763498,0.021140,0.084650,0.908318,1.000000,0.969209,0.127541,0.000000,0.600000,1.000000,0.965666,0.000000,2.000000
3,0.000190,0.000000,0.834193,0.177642,0.707152,0.000000,0.000000,0.988225,0.000000,1.000000,0.000000,0.076445,0.539349,0.779395,1.000000,0.049593,1.000000
4,0.000020,0.026603,1.000000,0.028771,0.706742,0.000000,0.084650,0.909009,0.000000,0.905640,0.158240,0.072534,0.469418,1.000000,0.997304,0.000000,0.000000
5,0.000020,0.026603,1.000000,0.028771,0.706742,0.000000,0.084650,0.909009,0.000000,0.905640,0.158240,0.072534,0.469418,1.000000,0.997304,0.000000,0.000000
6,0.000020,0.026603,1.000000,0.028771,0.706742,0.000000,0.084650,0.909009,0.000000,0.905640,0.158240,0.072534,0.469418,1.000000,0.997304,0.000000,0.000000
7,0.000001,0.080019,0.764028,0.166954,0.610421,0.165379,0.000000,0.834274,2.000000,0.802908,0.000000,0.312902,0.323861,0.984100,0.893439,0.048738,0.000000
8,0.000001,0.080019,0.764028,0.166954,0.610421,0.165379,0.000000,0.834274,2.000000,0.802908,0.000000,0.312902,0.323861,0.984100,0.893439,0.048738,0.000000
9,0.000001,0.080019,0.764028,0.166954,0.610421,0.165379,0.000000,0.834274,2.000000,0.802908,0.000000,0.312902,0.323861,0.984100,0.893439,0.048738,0.000000
10,0.000001,0.080019,0.764028,0.166954,0.610421,0.165379,0.000000,0.834274,2.000000,0.802908,0.000000,0.312902,0.323861,0.984100,0.893439,0.048738,0.000000
11,0.000001,0.080019,0.764028,0.166954,0.610421,0.165379,0.000000,0.834274,2.000000,0.802908,0.000000,0.312902,0.323861,0.984100,0.893439,0.048738,0.000000
12,0.000001,0.080019,0.764028,0.166954,0.610421,0.165379,0.000000,0.834274,2.000000,0.802908,0.000000,0.312902,0.323861,0.984100,0.893439,0.048738,0.000000
13,0.000001,0.080019,0.764028,0.166954,0.610421,0.165379,0.000000,0.834274,2.000000,0.802908,0.000000,0.312902,0.323861,0.984100,0.893439,0.048738,0.000000
14,0.000001,0.080019,0.764028,0.166954,0.610421,0.165379,0.000000,0.834274,2.000000,0.802908,0.000000,0.312902,0.323861,0.984100,0.893439,0.048738,0.000000
15,0.000001,0.080019,0.764028,0.166954,0.610421,0.165379,0.000000,0.834274,2.000000,0.802908,0.000000,0.312902,0.323861,0.984100,0.893439,0.048738,0.000000
16,0.000000,0.054495,0.541588,0.048470,0.693165,0.149773,0.000000,0.786327,2.000000,0.760441,0.238556,0.410396,0.239139,0.984100,0.902624,0.393429,0.000000
gen, fitness
0,0.026348,0.000000,1.000000,0.210000,0.800000,0.030000,0.030000,1.000000,0.000000,1.000000,0.000000,0.000000,0.600000,1.000000,1.000000,0.000000,0.000000
1,0.026348,0.000000,1.000000,0.210000,0.800000,0.030000,0.030000,1.000000,0.000000,1.000000,0.000000,0.000000,0.600000,1.000000,1.000000,0.000000,0.000000
2,0.007718,0.000000,1.000000,0.193494,0.638536,0.032024,0.000000,1.000000,1.000000,0.961293,0.000000,0.000000,0.403911,1.000000,1.000000,0.093401,0.000000
3,0.002787,0.058682,0.713870,0.023281,0.654252,0.079298,0.070390,0.846584,2.000000,0.983498,0.000000,0.036875,0.358433,0.907380,1.000000,0.000000,1.000000
4,0.001791,0.023298,0.937980,0.189299,0.465230,0.115273,0.000000,1.000000,2.000000,0.917368,0.000000,0.000000,0.335014,1.000000,1.000000,0.093401,1.000000
5,0.000788,0.023298,0.937980,0.113272,0.385252,0.142178,0.000000,1.000000,1.000000,1.000000,0.000000,0.000000,0.165376,1.000000,1.000000,0.046032,2.000000
6,0.000515,0.280864,0.883481,0.063349,0.542997,0.044731,0.583661,0.813257,0.000000,1.000000,0.009940,0.116594,0.176186,0.804367,0.960948,0.029179,2.000000
7,0.000100,0.023298,0.937980,0.106518,0.448120,0.122328,0.000000,0.944606,0.000000,0.899185,0.061779,0.000000,0.165376,1.000000,1.000000,0.084855,2.000000
8,0.000083,0.184634,0.956161,0.000000,0.482360,0.358263,0.052661,0.911036,2.000000,0.942564,0.000000,0.000000,0.116364,1.000000,0.949361,0.477461,1.000000
9,0.000026,0.000000,0.932547,0.041963,0.529727,0.174565,0.301742,0.785223,0.000000,1.000000,0.000000,0.000000,0.135543,0.947272,0.877990,0.262442,1.000000
10,0.000022,0.063193,1.000000,0.144165,0.362125,0.206597,0.000000,0.824770,1.000000,0.911603,0.000000,0.047032,0.093259,0.877221,1.000000,0.006386,0.000000
11,0.000022,0.063193,1.000000,0.144165,0.362125,0.206597,0.000000,0.824770,1.000000,0.911603,0.000000,0.047032,0.093259,0.877221,1.000000,0.006386,0.000000
12,0.000012,0.174487,0.985056,0.000000,0.476931,0.365244,0.000000,0.911036,1.000000,0.861631,0.043046,0.000000,0.157262,1.000000,0.695985,0.525643,0.000000
13,0.000012,0.174487,0.985056,0.000000,0.476931,0.365244,0.000000,0.911036,1.000000,0.861631,0.043046,0.000000,0.157262,1.000000,0.695985,0.525643,0.000000
14,0.000012,0.174487,0.985056,0.000000,0.476931,0.365244,0.000000,0.911036,1.000000,0.861631,0.043046,0.000000,0.157262,1.000000,0.695985,0.525643,0.000000
15,0.000012,0.174487,0.985056,0.000000,0.476931,0.365244,0.000000,0.911036,1.000000,0.861631,0.043046,0.000000,0.157262,1.000000,0.695985,0.525643,0.000000
16,0.000012,0.174487,0.985056,0.000000,0.476931,0.365244,0.000000,0.911036,1.000000,0.861631,0.043046,0.000000,0.157262,1.000000,0.695985,0.525643,0.000000
17,0.000003,0.196612,0.720818,0.198876,0.304603,0.075713,0.210999,1.000000,2.000000,0.944736,0.000000,0.045979,0.165376,0.931156,1.000000,0.000000,0.000000
18,0.000003,0.196612,0.720818,0.198876,0.304603,0.075713,0.210999,1.000000,2.000000,0.944736,0.000000,0.045979,0.165376,0.931156,1.000000,0.000000,0.000000
19,0.000003,0.196612,0.720818,0.198876,0.304603,0.075713,0.210999,1.000000,2.000000,0.944736,0.000000,0.045979,0.165376,0.931156,1.000000,0.000000,0.000000
gen, fitness
0,0.052335,0.000000,1.000000,0.210000,0.800000,0.030000,0.030000,1.000000,0.000000,1.000000,0.000000,0.000000,0.600000,1.000000,1.000000,0.000000,0.000000
1,0.052335,0.000000,1.000000,0.210000,0.800000,0.030000,0.030000,1.000000,0.000000,1.000000,0.000000,0.000000,0.600000,1.000000,1.000000,0.000000,0.000000
2,0.030609,0.000000,1.000000,0.210000,0.683472,0.030000,0.036793,0.928819,2.000000,1.000000,0.000000,0.000000,0.460641,0.989604,1.000000,0.116504,1.000000
3,0.022074,0.009933,1.000000,0.210000,0.621832,0.030000,0.090054,0.928819,1.000000,1.000000,0.000000,0.007686,0.460641,0.924912,1.000000,0.159840,2.000000
4,0.009880,0.000000,0.995554,0.054450,0.642040,0.116596,0.000000,0.928819,0.000000,1.000000,0.000000,0.000000,0.277932,1.000000,1.000000,0.148585,0.000000
5,0.005808,0.149456,0.612421,0.000000,0.445776,0.000000,0.000000,0.951499,2.000000,0.834338,0.032033,0.048857,0.247636,1.000000,0.989275,0.000000,2.000000
6,0.003723,0.000000,0.934782,0.012577,0.543926,0.275610,0.000000,1.000000,2.000000,1.000000,0.000000,0.000000,0.149582,1.000000,0.982977,0.086868,1.000000
7,0.001459,0.156807,0.436338,0.023092,0.445776,0.000000,0.168480,0.858135,1.000000,0.987436,0.000000,0.056350,0.089327,1.000000,0.996704,0.021818,2.000000
8,0.000700,0.011616,0.901927,0.000000,0.400587,0.486428,0.000000,0.956068,1.000000,1.000000,0.000000,0.000000,0.000000,0.789784,0.825419,0.131482,1.000000
9,0.000700,0.011616,0.901927,0.000000,0.400587,0.486428,0.000000,0.956068,1.000000,1.000000,0.000000,0.000000,0.000000,0.789784,0.825419,0.131482,1.000000
10,0.000428,0.031156,1.000000,0.009129,0.437059,0.315115,0.000000,0.745255,1.000000,1.000000,0.068266,0.000000,0.000000,0.896906,0.747947,0.183347,2.000000
11,0.000018,0.180159,0.508220,0.000000,0.377000,0.024049,0.115077,0.989006,1.000000,0.989482,0.000000,0.000000,0.012538,1.000000,1.000000,0.000000,1.000000
12,0.000018,0.180159,0.508220,0.000000,0.377000,0.024049,0.115077,0.989006,1.000000,0.989482,0.000000,0.000000,0.012538,1.000000,1.000000,0.000000,1.000000
13,0.000018,0.180159,0.508220,0.000000,0.377000,0.024049,0.115077,0.989006,1.000000,0.989482,0.000000,0.000000,0.012538,1.000000,1.000000,0.000000,1.000000
14,0.000007,0.227335,0.388705,0.128230,0.223578,0.126016,0.000000,1.000000,1.000000,1.000000,0.000000,0.000000,0.000000,0.929558,0.996083,0.000000,0.000000
15,0.000007,0.227335,0.388705,0.128230,0.223578,0.126016,0.000000,1.000000,1.000000,1.000000,0.000000,0.000000,0.000000,0.929558,0.996083,0.000000,0.000000
16,0.000007,0.227335,0.388705,0.128230,0.223578,0.126016,0.000000,1.000000,1.000000,1.000000,0.000000,0.000000,0.000000,0.929558,0.996083,0.000000,0.000000
17,0.000007,0.158218,0.650208,0.000000,0.377000,0.000000,0.000000,1.000000,0.000000,0.989482,0.054376,0.000000,0.000000,1.000000,1.000000,0.000000,2.000000
18,0.000007,0.158218,0.650208,0.000000,0.377000,0.000000,0.000000,1.000000,0.000000,0.989482,0.054376,0.000000,0.000000,1.000000,1.000000,0.000000,2.000000
19,0.000007,0.158218,0.650208,0.000000,0.377000,0.000000,0.000000,1.000000,0.000000,0.989482,0.054376,0.000000,0.000000,1.000000,1.000000,0.000000,2.000000
20,0.000002,0.217698,0.791618,0.000000,0.376594,0.157855,0.102258,0.950722,0.000000,1.000000,0.054376,0.000000,0.000000,0.989469,0.985391,0.157749,0.000000
21,0.000002,0.217698,0.791618,0.000000,0.376594,0.157855,0.102258,0.950722,0.000000,1.000000,0.054376,0.000000,0.000000,0.989469,0.985391,0.157749,0.000000
22,0.000002,0.217698,0.791618,0.000000,0.376594,0.157855,0.102258,0.950722,0.000000,1.000000,0.054376,0.000000,0.000000,0.989469,0.985391,0.157749,0.000000
23,0.000002,0.217698,0.791618,0.000000,0.376594,0.157855,0.102258,0.950722,0.000000,1.000000,0.054376,0.000000,0.000000,0.989469,0.985391,0.157749,0.000000
24,0.000002,0.217698,0.791618,0.000000,0.376594,0.157855,0.102258,0.950722,0.000000,1.000000,0.054376,0.000000,0.000000,0.989469,0.985391,0.157749,0.000000
gen, fitness
0,0.080636,0.000000,1.000000,0.210000,0.800000,0.030000,0.030000,1.000000,0.000000,1.000000,0.000000,0.000000,0.600000,1.000000,1.000000,0.000000,0.000000
1,0.080636,0.000000,1.000000,0.210000,0.800000,0.030000,0.030000,1.000000,0.000000,1.000000,0.000000,0.000000,0.600000,1.000000,1.000000,0.000000,0.000000
2,0.049934,0.000000,0.965724,0.051651,0.765517,0.030000,0.030000,0.781162,0.000000,1.000000,0.000000,0.000000,0.565371,1.000000,1.000000,0.000000,1.000000
3,0.027235,0.000000,0.923289,0.151770,0.528983,0.000000,0.158591,0.976968,1.000000,1.000000,0.289749,0.000000,0.349461,1.000000,1.000000,0.057352,2.000000
4,0.020385,0.152395,1.000000,0.113139,0.537464,0.171087,0.030000,0.680146,0.000000,0.994524,0.000000,0.000000,0.286060,0.845664,0.794968,0.032939,2.000000
5,0.011816,0.086781,1.000000,0.068905,0.490336,0.067885,0.000000,0.652008,0.000000,0.998813,0.027321,0.000000,0.093741,0.845664,0.792074,0.034466,2.000000
6,0.011816,0.086781,1.000000,0.068905,0.490336,0.067885,0.000000,0.652008,0.000000,0.998813,0.027321,0.000000,0.093741,0.845664,0.792074,0.034466,2.000000
7,0.006093,0.287667,1.000000,0.000000,0.448131,0.356433,0.035199,0.434690,2.000000,0.975947,0.104710,0.060006,0.055977,0.975408,0.886824,0.312795,2.000000
8,0.002080,0.464170,0.929788,0.000000,0.311483,0.303425,0.191406,0.988152,2.000000,1.000000,0.193609,0.112862,0.010967,0.969300,1.000000,0.000000,0.000000
9,0.000150,0.464242,0.886932,0.000000,0.248437,0.263476,0.101012,0.697398,0.000000,0.994524,0.000000,0.000000,0.022970,0.783954,0.908526,0.015813,1.000000
10,0.000150,0.464242,0.886932,0.000000,0.248437,0.263476,0.101012,0.697398,0.000000,0.994524,0.000000,0.000000,0.022970,0.783954,0.908526,0.015813,1.000000
11,0.000150,0.464242,0.886932,0.000000,0.248437,0.263476,0.101012,0.697398,0.000000,0.994524,0.000000,0.000000,0.022970,0.783954,0.908526,0.015813,1.000000
12,0.000066,0.482960,1.000000,0.000000,0.203358,0.244501,0.000000,0.261034,1.000000,0.920429,0.021720,0.018661,0.000000,0.941345,1.000000,0.000000,1.000000
13,0.000015,0.479336,0.937894,0.000000,0.228976,0.367310,0.194054,0.590002,0.000000,1.000000,0.053077,0.000000,0.000000,0.714986,0.859418,0.000000,1.000000
14,0.000015,0.479336,0.937894,0.000000,0.228976,0.367310,0.194054,0.590002,0.000000,1.000000,0.053077,0.000000,0.000000,0.714986,0.859418,0.000000,1.000000
15,0.000015,0.479336,0.937894,0.000000,0.228976,0.367310,0.194054,0.590002,0.000000,1.000000,0.053077,0.000000,0.000000,0.714986,0.859418,0.000000,1.000000
16,0.000015,0.479336,0.937894,0.000000,0.228976,0.367310,0.194054,0.590002,0.000000,1.000000,0.053077,0.000000,0.000000,0.714986,0.859418,0.000000,1.000000
17,0.000001,0.482960,0.925571,0.000000,0.246785,0.327172,0.000000,0.042592,1.000000,0.958634,0.000000,0.001728,0.000000,0.846582,1.000000,0.000000,2.000000
gen, fitness
0,0.025383,0.000000,1.000000,0.210000,0.800000,0.030000,0.030000,1.000000,0.000000,1.000000,0.000000,0.000000,0.600000,1.000000,1.000000,0.000000,0.000000
1,0.025383,0.000000,1.000000,0.210000,0.800000,0.030000,0.030000,1.000000,0.000000,1.000000,0.000000,0.000000,0.600000,1.000000,1.000000,0.000000,0.000000
2,0.008586,0.009857,1.000000,0.035311,0.717138,0.085065,0.030000,0.978168,2.000000,1.000000,0.000000,0.000000,0.518911,1.000000,1.000000,0.000000,1.000000
3,0.006403,0.000000,1.000000,0.162215,0.648315,0.000000,0.091338,1.000000,0.000000,1.000000,0.418138,0.000000,0.470811,1.000000,1.000000,0.080076,0.000000
4,0.004471,0.000000,1.000000,0.035311,0.621816,0.085065,0.107483,0.957167,0.000000,0.971429,0.000000,0.093760,0.339150,0.907746,0.983792,0.000000,2.000000
5,0.003789,0.058637,1.000000,0.000000,0.588485,0.000000,0.148143,0.849597,0.000000,0.748585,0.057322,0.031732,0.354804,0.940453,0.898336,0.393073,2.000000
6,0.001630,0.265719,0.823185,0.091922,0.528237,0.141055,0.212028,1.000000,1.000000,1.000000,0.000000,0.000000,0.372618,0.995441,0.964490,0.108616,0.000000
7,0.000960,0.000000,0.844450,0.233968,0.352319,0.175978,0.113679,0.803732,0.000000,1.000000,0.107884,0.000000,0.069750,0.955466,0.811820,0.000734,0.000000
8,0.000105,0.000000,0.796670,0.128011,0.350052,0.130531,0.169387,0.774533,1.000000,1.000000,0.121801,0.000000,0.000000,1.000000,0.923833,0.013946,2.000000
9,0.000027,0.000000,0.869035,0.095059,0.422355,0.000733,0.000000,0.887217,0.000000,1.000000,0.004333,0.000000,0.097244,1.000000,0.819822,0.000000,1.000000
10,0.000024,0.408164,1.000000,0.076838,0.410363,0.060639,0.166239,1.000000,0.000000,1.000000,0.333085,0.167853,0.097938,0.920331,0.951139,0.000000,1.000000
11,0.000004,0.193038,0.961208,0.013933,0.457625,0.124948,0.046674,0.943086,1.000000,1.000000,0.123655,0.048129,0.069006,1.000000,0.681026,0.270921,0.000000
12,0.000004,0.193038,0.961208,0.013933,0.457625,0.124948,0.046674,0.943086,1.000000,1.000000,0.123655,0.048129,0.069006,1.000000,0.681026,0.270921,0.000000
13,0.000004,0.193038,0.961208,0.013933,0.457625,0.124948,0.046674,0.943086,1.000000,1.000000,0.123655,0.048129,0.069006,1.000000,0.681026,0.270921,0.000000
14,0.000004,0.193038,0.961208,0.013933,0.457625,0.124948,0.046674,0.943086,1.000000,1.000000,0.123655,0.048129,0.069006,1.000000,0.681026,0.270921,0.000000
15,0.000004,0.193038,0.961208,0.013933,0.457625,0.124948,0.046674,0.943086,1.000000,1.000000,0.123655,0.048129,0.069006,1.000000,0.681026,0.270921,0.000000
16,0.000004,0.193038,0.961208,0.013933,0.457625,0.124948,0.046674,0.943086,1.000000,1.000000,0.123655,0.048129,0.069006,1.000000,0.681026,0.270921,0.000000
17,0.000004,0.193038,0.961208,0.013933,0.457625,0.124948,0.046674,0.943086,1.000000,1.000000,0.123655,0.048129,0.069006,1.000000,0.681026,0.270921,0.000000
18,0.000004,0.193038,0.961208,0.013933,0.457625,0.124948,0.046674,0.943086,1.000000,1.000000,0.123655,0.048129,0.069006,1.000000,0.681026,0.270921,0.000000
19,0.000004,0.193038,0.961208,0.013933,0.457625,0.124948,0.046674,0.943086,1.000000,1.000000,0.123655,0.048129,0.069006,1.000000,0.681026,0.270921,0.000000
20,0.000002,0.000000,0.953487,0.346457,0.125126,0.335448,0.210420,0.860667,0.000000,0.985958,0.000000,0.000000,0.000000,0.490218,0.729092,0.413963,0.000000
21,0.000002,0.000000,0.953487,0.346457,0.125126,0.335448,0.210420,0.860667,0.000000,0.985958,0.000000,0.000000,0.000000,0.490218,0.729092,0.413963,0.000000
