gen, fitness
0,0.013430,0.000000,1.000000,0.210000,0.800000,0.030000,0.030000,1.000000,0.000000,1.000000,0.000000,0.000000,0.600000,1.000000,1.000000,0.000000,0.000000
1,0.013430,0.000000,1.000000,0.210000,0.800000,0.030000,0.030000,1.000000,0.000000,1.000000,0.000000,0.000000,0.600000,1.000000,1.000000,0.000000,0.000000
2,0.000274,0.101340,0.892336,0.196647,0.653427,0.000000,0.113644,1.000000,2.000000,0.928706,0.000000,0.000000,0.600000,1.000000,1.000000,0.000000,1.000000
3,0.000097,0.000000,0.788002,0.000000,0.754148,0.000000,0.034492,0.977483,2.000000,0.997034,0.000000,0.143154,0.515784,1.000000,0.816582,0.000000,1.000000
4,0.000002,0.101340,0.818656,0.158685,0.674457,0.000000,0.076791,0.847683,1.000000,0.925696,0.000000,0.072418,0.570088,1.000000,1.000000,0.000000,1.000000
5,0.000002,0.101340,0.818656,0.158685,0.674457,0.000000,0.076791,0.847683,1.000000,0.925696,0.000000,0.072418,0.570088,1.000000,1.000000,0.000000,1.000000
6,0.000002,0.101340,0.818656,0.158685,0.674457,0.000000,0.076791,0.847683,1.000000,0.925696,0.000000,0.072418,0.570088,1.000000,1.000000,0.000000,1.000000
7,0.000002,0.101340,0.818656,0.158685,0.674457,0.000000,0.076791,0.847683,1.000000,0.925696,0.000000,0.072418,0.570088,1.000000,1.000000,0.000000,1.000000
8,0.000002,0.101340,0.818656,0.158685,0.674457,0.000000,0.076791,0.847683,1.000000,0.925696,0.000000,0.072418,0.570088,1.000000,1.000000,0.000000,1.000000
9,0.000002,0.101340,0.818656,0.158685,0.674457,0.000000,0.076791,0.847683,1.000000,0.925696,0.000000,0.072418,0.570088,1.000000,1.000000,0.000000,1.000000
10,0.000002,0.101340,0.818656,0.158685,0.674457,0.000000,0.076791,0.847683,1.000000,0.925696,0.000000,0.072418,0.570088,1.000000,1.000000,0.000000,1.000000
11,0.000002,0.101340,0.818656,0.158685,0.674457,0.000000,0.076791,0.847683,1.000000,0.925696,0.000000,0.072418,0.570088,1.000000,1.000000,0.000000,1.000000
12,0.000002,0.101340,0.818656,0.158685,0.674457,0.000000,0.076791,0.847683,1.000000,0.925696,0.000000,0.072418,0.570088,1.000000,1.000000,0.000000,1.000000
13,0.000002,0.101340,0.818656,0.158685,0.674457,0.000000,0.076791,0.847683,1.000000,0.925696,0.000000,0.072418,0.570088,1.000000,1.000000,0.000000,1.000000
14,0.000002,0.101340,0.818656,0.158685,0.674457,0.000000,0.076791,0.847683,1.000000,0.925696,0.000000,0.072418,0.570088,1.000000,1.000000,0.000000,1.000000
gen, fitness
0,0.034276,0.000000,1.000000,0.210000,0.800000,0.030000,0.030000,1.000000,0.000000,1.000000,0.000000,0.000000,0.600000,1.000000,1.000000,0.000000,0.000000
1,0.034276,0.000000,1.000000,0.210000,0.800000,0.030000,0.030000,1.000000,0.000000,1.000000,0.000000,0.000000,0.600000,1.000000,1.000000,0.000000,0.000000
2,0.017103,0.043363,1.000000,0.210000,0.846758,0.000000,0.094943,0.894454,0.000000,1.000000,0.044093,0.000000,0.762204,0.854568,1.000000,0.000000,2.000000
3,0.007441,0.066574,1.000000,0.269670,0.911485,0.002033,0.000000,0.810842,2.000000,0.932205,0.000000,0.191394,0.871223,1.000000,0.948858,0.107234,1.000000
4,0.006410,0.000000,0.878493,0.357275,0.922610,0.023330,0.000000,1.000000,1.000000,1.000000,0.000000,0.221509,0.848888,1.000000,0.874191,0.000000,2.000000
5,0.005963,0.061758,1.000000,0.259530,0.981767,0.002033,0.171023,0.685151,1.000000,1.000000,0.101249,0.211013,0.921930,0.903209,0.984255,0.000000,0.000000
6,0.003631,0.000000,0.888572,0.478414,0.961640,0.000000,0.000000,1.000000,2.000000,0.807201,0.000000,0.156892,0.978847,0.651695,0.775922,0.047277,2.000000
7,0.003424,0.126414,0.785682,0.427163,1.000000,0.000000,0.058562,0.723393,1.000000,0.949118,0.014069,0.198764,1.000000,0.872066,0.650968,0.111446,1.000000
8,0.002955,0.114345,0.959614,0.194104,1.000000,0.000000,0.068940,0.986518,2.000000,0.834485,0.126437,0.123802,1.000000,1.000000,1.000000,0.000000,2.000000
9,0.002096,0.000000,0.939655,0.470392,1.000000,0.117852,0.030015,0.986670,2.000000,0.930289,0.063473,0.395862,1.000000,0.635458,0.607022,0.283496,2.000000
10,0.002096,0.000000,0.939655,0.470392,1.000000,0.117852,0.030015,0.986670,2.000000,0.930289,0.063473,0.395862,1.000000,0.635458,0.607022,0.283496,2.000000
11,0.001970,0.045038,0.794444,0.567778,0.992755,0.221624,0.206024,1.000000,2.000000,0.974025,0.000000,0.542886,0.971298,1.000000,0.908224,0.135299,1.000000
12,0.001762,0.000000,0.930085,0.587933,1.000000,0.000000,0.134154,0.931936,2.000000,0.857643,0.000000,0.494298,0.992294,0.570147,0.696312,0.271366,1.000000
13,0.001753,0.031794,1.000000,0.547419,1.000000,0.117346,0.314177,0.986670,1.000000,0.799363,0.369107,0.454944,1.000000,0.941743,0.850803,0.226843,2.000000
14,0.001500,0.066307,0.926057,0.587933,1.000000,0.000000,0.036122,0.794412,2.000000,0.938830,0.000000,0.479752,0.992294,0.503461,0.600309,0.406017,2.000000
15,0.001500,0.066307,0.926057,0.587933,1.000000,0.000000,0.036122,0.794412,2.000000,0.938830,0.000000,0.479752,0.992294,0.503461,0.600309,0.406017,2.000000
16,0.001156,0.000000,0.886461,0.810501,1.000000,0.437168,0.000000,1.000000,1.000000,0.823007,0.057209,0.835297,1.000000,0.855718,0.589474,0.705206,1.000000
17,0.000744,0.000000,0.832817,0.810501,1.000000,0.327913,0.000000,1.000000,2.000000,0.807105,0.098255,0.880103,1.000000,0.855718,0.543400,0.506116,2.000000
18,0.000744,0.000000,0.832817,0.810501,1.000000,0.327913,0.000000,1.000000,2.000000,0.807105,0.098255,0.880103,1.000000,0.855718,0.543400,0.506116,2.000000
19,0.000744,0.000000,0.832817,0.810501,1.000000,0.327913,0.000000,1.000000,2.000000,0.807105,0.098255,0.880103,1.000000,0.855718,0.543400,0.506116,2.000000
20,0.000744,0.000000,0.832817,0.810501,1.000000,0.327913,0.000000,1.000000,2.000000,0.807105,0.098255,0.880103,1.000000,0.855718,0.543400,0.506116,2.000000
21,0.000744,0.000000,0.832817,0.810501,1.000000,0.327913,0.000000,1.000000,2.000000,0.807105,0.098255,0.880103,1.000000,0.855718,0.543400,0.506116,2.000000
22,0.000744,0.000000,0.832817,0.810501,1.000000,0.327913,0.000000,1.000000,2.000000,0.807105,0.098255,0.880103,1.000000,0.855718,0.543400,0.506116,2.000000
23,0.000643,0.073767,0.990826,0.796459,1.000000,0.455449,0.155789,0.697215,2.000000,0.898632,0.114026,1.000000,1.000000,0.851765,0.743032,0.791638,2.000000
24,0.000643,0.073767,0.990826,0.796459,1.000000,0.455449,0.155789,0.697215,2.000000,0.898632,0.114026,1.000000,1.000000,0.851765,0.743032,0.791638,2.000000
25,0.000643,0.073767,0.990826,0.796459,1.000000,0.455449,0.155789,0.697215,2.000000,0.898632,0.114026,1.000000,1.000000,0.851765,0.743032,0.791638,2.000000
26,0.000643,0.073767,0.990826,0.796459,1.000000,0.455449,0.155789,0.697215,2.000000,0.898632,0.114026,1.000000,1.000000,0.851765,0.743032,0.791638,2.000000
27,0.000643,0.073767,0.990826,0.796459,1.000000,0.455449,0.155789,0.697215,2.000000,0.898632,0.114026,1.000000,1.000000,0.851765,0.743032,0.791638,2.000000
28,0.000643,0.073767,0.990826,0.796459,1.000000,0.455449,0.155789,0.697215,2.000000,0.898632,0.114026,1.000000,1.000000,0.851765,0.743032,0.791638,2.000000
29,0.000643,0.073767,0.990826,0.796459,1.000000,0.455449,0.155789,0.697215,2.000000,0.898632,0.114026,1.000000,1.000000,0.851765,0.743032,0.791638,2.000000
30,0.000643,0.073767,0.990826,0.796459,1.000000,0.455449,0.155789,0.697215,2.000000,0.898632,0.114026,1.000000,1.000000,0.851765,0.743032,0.791638,2.000000
31,0.000643,0.073767,0.990826,0.796459,1.000000,0.455449,0.155789,0.697215,2.000000,0.898632,0.114026,1.000000,1.000000,0.851765,0.743032,0.791638,2.000000
32,0.000643,0.073767,0.990826,0.796459,1.000000,0.455449,0.155789,0.697215,2.000000,0.898632,0.114026,1.000000,1.000000,0.851765,0.743032,0.791638,2.000000
33,0.000643,0.073767,0.990826,0.796459,1.000000,0.455449,0.155789,0.697215,2.000000,0.898632,0.114026,1.000000,1.000000,0.851765,0.743032,0.791638,2.000000
gen, fitness
0,0.044384,0.000000,1.000000,0.210000,0.800000,0.030000,0.030000,1.000000,0.000000,1.000000,0.000000,0.000000,0.600000,1.000000,1.000000,0.000000,0.000000
1,0.044384,0.000000,1.000000,0.210000,0.800000,0.030000,0.030000,1.000000,0.000000,1.000000,0.000000,0.000000,0.600000,1.000000,1.000000,0.000000,0.000000
2,0.020445,0.000000,1.000000,0.291362,0.908776,0.030000,0.030000,0.962185,0.000000,0.993891,0.242807,0.076799,0.808008,1.000000,0.867826,0.000000,2.000000
3,0.013034,0.000000,0.983909,0.196948,1.000000,0.175751,0.090018,0.889214,0.000000,1.000000,0.000000,0.000000,0.959454,0.938360,0.920429,0.086114,2.000000
4,0.011976,0.000000,0.753588,0.292996,1.000000,0.142799,0.548023,0.860766,0.000000,0.931199,0.032285,0.000000,0.993248,1.000000,1.000000,0.000000,2.000000
5,0.010144,0.107959,1.000000,0.384627,0.999622,0.000000,0.068281,0.896656,2.000000,0.918842,0.033341,0.105221,1.000000,1.000000,1.000000,0.171789,0.000000
6,0.009678,0.125444,1.000000,0.348975,1.000000,0.000000,0.064254,1.000000,2.000000,0.992046,0.089220,0.066295,1.000000,0.982391,0.900964,0.180701,2.000000
7,0.009437,0.107959,0.928082,0.384627,1.000000,0.047960,0.346031,0.956419,2.000000,0.918842,0.125421,0.114513,1.000000,1.000000,0.943751,0.171789,2.000000
8,0.009132,0.192504,0.862181,0.466259,1.000000,0.004468,0.169357,0.779726,2.000000,0.851515,0.140427,0.305903,1.000000,0.890164,0.462693,0.066022,2.000000
9,0.009132,0.192504,0.862181,0.466259,1.000000,0.004468,0.169357,0.779726,2.000000,0.851515,0.140427,0.305903,1.000000,0.890164,0.462693,0.066022,2.000000
10,0.008815,0.017252,0.888608,0.554212,1.000000,0.089136,0.000000,1.000000,2.000000,1.000000,0.000000,0.171399,1.000000,0.478900,0.961587,0.195002,2.000000
11,0.008626,0.000000,0.858605,0.550194,1.000000,0.000000,0.133367,1.000000,2.000000,1.000000,0.075650,0.190529,1.000000,0.527040,0.936852,0.450143,2.000000
12,0.008115,0.000000,0.980196,0.785155,1.000000,0.000000,0.000000,0.906787,2.000000,0.757276,0.049210,0.323138,1.000000,1.000000,0.277376,0.002322,2.000000
13,0.008115,0.000000,0.980196,0.785155,1.000000,0.000000,0.000000,0.906787,2.000000,0.757276,0.049210,0.323138,1.000000,1.000000,0.277376,0.002322,2.000000
14,0.008000,0.000000,0.995834,0.789090,1.000000,0.000000,0.048196,0.959846,2.000000,0.816842,0.046680,0.335468,1.000000,0.831194,0.310985,0.002322,2.000000
15,0.008000,0.000000,0.995834,0.789090,1.000000,0.000000,0.048196,0.959846,2.000000,0.816842,0.046680,0.335468,1.000000,0.831194,0.310985,0.002322,2.000000
16,0.007914,0.000000,0.913830,0.966746,1.000000,0.116575,0.031362,0.792689,1.000000,0.923408,0.503125,0.624005,0.998375,0.773307,0.677618,0.851420,2.000000
17,0.007532,0.000000,1.000000,1.000000,1.000000,0.000000,0.323677,0.959846,2.000000,0.956646,0.057658,0.533502,1.000000,0.790257,0.260678,0.160629,2.000000
18,0.007532,0.000000,1.000000,1.000000,1.000000,0.000000,0.323677,0.959846,2.000000,0.956646,0.057658,0.533502,1.000000,0.790257,0.260678,0.160629,2.000000
19,0.007532,0.000000,1.000000,1.000000,1.000000,0.000000,0.323677,0.959846,2.000000,0.956646,0.057658,0.533502,1.000000,0.790257,0.260678,0.160629,2.000000
20,0.007499,0.071905,0.913830,0.905385,1.000000,0.224421,0.000000,0.773331,2.000000,0.946681,0.583846,0.766007,1.000000,0.681948,0.673215,0.851420,2.000000
21,0.007273,0.123348,0.852460,0.908136,1.000000,0.000000,0.176971,1.000000,2.000000,1.000000,0.489649,0.742807,1.000000,0.613739,0.236437,0.857801,2.000000
22,0.007273,0.123348,0.852460,0.908136,1.000000,0.000000,0.176971,1.000000,2.000000,1.000000,0.489649,0.742807,1.000000,0.613739,0.236437,0.857801,2.000000
23,0.007273,0.123348,0.852460,0.908136,1.000000,0.000000,0.176971,1.000000,2.000000,1.000000,0.489649,0.742807,1.000000,0.613739,0.236437,0.857801,2.000000
24,0.007037,0.000000,0.951880,0.991077,1.000000,0.000000,0.000000,1.000000,2.000000,1.000000,0.452907,0.807861,1.000000,0.992031,0.303137,0.593975,2.000000
25,0.007037,0.000000,0.951880,0.991077,1.000000,0.000000,0.000000,1.000000,2.000000,1.000000,0.452907,0.807861,1.000000,0.992031,0.303137,0.593975,2.000000
26,0.006961,0.045305,0.796724,0.988615,1.000000,0.092835,0.269135,0.936077,2.000000,0.820610,0.381703,1.000000,1.000000,0.622913,0.016400,0.934943,1.000000
27,0.006713,0.049884,0.796724,1.000000,1.000000,0.194352,0.130024,0.936077,2.000000,0.831831,0.403413,1.000000,1.000000,0.622913,0.130082,0.934943,2.000000
28,0.006713,0.049884,0.796724,1.000000,1.000000,0.194352,0.130024,0.936077,2.000000,0.831831,0.403413,1.000000,1.000000,0.622913,0.130082,0.934943,2.000000
29,0.006713,0.049884,0.796724,1.000000,1.000000,0.194352,0.130024,0.936077,2.000000,0.831831,0.403413,1.000000,1.000000,0.622913,0.130082,0.934943,2.000000
30,0.006713,0.049884,0.796724,1.000000,1.000000,0.194352,0.130024,0.936077,2.000000,0.831831,0.403413,1.000000,1.000000,0.622913,0.130082,0.934943,2.000000
31,0.006705,0.000000,1.000000,0.941383,1.000000,0.154167,0.000000,1.000000,2.000000,0.521371,0.000000,1.000000,0.997602,0.433939,0.265306,0.707220,2.000000
32,0.006705,0.000000,1.000000,0.941383,1.000000,0.154167,0.000000,1.000000,2.000000,0.521371,0.000000,1.000000,0.997602,0.433939,0.265306,0.707220,2.000000
33,0.006619,0.011233,1.000000,0.930951,1.000000,0.154167,0.026654,1.000000,2.000000,0.599472,0.000000,1.000000,1.000000,0.433939,0.266275,0.647072,2.000000
34,0.006619,0.011233,1.000000,0.930951,1.000000,0.154167,0.026654,1.000000,2.000000,0.599472,0.000000,1.000000,1.000000,0.433939,0.266275,0.647072,2.000000
35,0.006619,0.011233,1.000000,0.930951,1.000000,0.154167,0.026654,1.000000,2.000000,0.599472,0.000000,1.000000,1.000000,0.433939,0.266275,0.647072,2.000000
36,0.006545,0.000000,0.825521,0.921266,1.000000,0.039039,0.331276,1.000000,2.000000,0.463850,0.179894,0.930933,1.000000,0.705334,0.020908,0.946893,2.000000
37,0.006545,0.000000,0.825521,0.921266,1.000000,0.039039,0.331276,1.000000,2.000000,0.463850,0.179894,0.930933,1.000000,0.705334,0.020908,0.946893,2.000000
38,0.006545,0.000000,0.825521,0.921266,1.000000,0.039039,0.331276,1.000000,2.000000,0.463850,0.179894,0.930933,1.000000,0.705334,0.020908,0.946893,2.000000
39,0.006545,0.000000,0.825521,0.921266,1.000000,0.039039,0.331276,1.000000,2.000000,0.463850,0.179894,0.930933,1.000000,0.705334,0.020908,0.946893,2.000000
40,0.006545,0.000000,0.825521,0.921266,1.000000,0.039039,0.331276,1.000000,2.000000,0.463850,0.179894,0.930933,1.000000,0.705334,0.020908,0.946893,2.000000
41,0.006545,0.000000,0.825521,0.921266,1.000000,0.039039,0.331276,1.000000,2.000000,0.463850,0.179894,0.930933,1.000000,0.705334,0.020908,0.946893,2.000000
42,0.006545,0.000000,0.825521,0.921266,1.000000,0.039039,0.331276,1.000000,2.000000,0.463850,0.179894,0.930933,1.000000,0.705334,0.020908,0.946893,2.000000
43,0.006531,0.000000,0.785640,0.960929,1.000000,0.000000,0.000000,1.000000,2.000000,0.548672,0.448570,0.956146,1.000000,0.409730,0.001500,0.958575,2.000000
44,0.006531,0.000000,0.785640,0.960929,1.000000,0.000000,0.000000,1.000000,2.000000,0.548672,0.448570,0.956146,1.000000,0.409730,0.001500,0.958575,2.000000
45,0.006531,0.000000,0.785640,0.960929,1.000000,0.000000,0.000000,1.000000,2.000000,0.548672,0.448570,0.956146,1.000000,0.409730,0.001500,0.958575,2.000000
46,0.006531,0.000000,0.785640,0.960929,1.000000,0.000000,0.000000,1.000000,2.000000,0.548672,0.448570,0.956146,1.000000,0.409730,0.001500,0.958575,2.000000
47,0.006531,0.000000,0.785640,0.960929,1.000000,0.000000,0.000000,1.000000,2.000000,0.548672,0.448570,0.956146,1.000000,0.409730,0.001500,0.958575,2.000000
48,0.006531,0.000000,0.785640,0.960929,1.000000,0.000000,0.000000,1.000000,2.000000,0.548672,0.448570,0.956146,1.000000,0.409730,0.001500,0.958575,2.000000
49,0.006477,0.000000,0.766232,0.945852,1.000000,0.000000,0.006130,1.000000,2.000000,0.578681,0.448570,0.956146,1.000000,0.423311,0.001500,1.000000,2.000000
50,0.006477,0.000000,0.766232,0.945852,1.000000,0.000000,0.006130,1.000000,2.000000,0.578681,0.448570,0.956146,1.000000,0.423311,0.001500,1.000000,2.000000
51,0.006442,0.000000,0.851818,1.000000,1.000000,0.003944,0.024663,1.000000,2.000000,0.637663,0.126219,1.000000,1.000000,0.589746,0.050357,0.827612,2.000000
52,0.006442,0.000000,0.851818,1.000000,1.000000,0.003944,0.024663,1.000000,2.000000,0.637663,0.126219,1.000000,1.000000,0.589746,0.050357,0.827612,2.000000
53,0.006442,0.000000,0.851818,1.000000,1.000000,0.003944,0.024663,1.000000,2.000000,0.637663,0.126219,1.000000,1.000000,0.589746,0.050357,0.827612,2.000000
54,0.006442,0.000000,0.851818,1.000000,1.000000,0.003944,0.024663,1.000000,2.000000,0.637663,0.126219,1.000000,1.000000,0.589746,0.050357,0.827612,2.000000
55,0.006442,0.000000,0.851818,1.000000,1.000000,0.003944,0.024663,1.000000,2.000000,0.637663,0.126219,1.000000,1.000000,0.589746,0.050357,0.827612,2.000000
56,0.006442,0.000000,0.851818,1.000000,1.000000,0.003944,0.024663,1.000000,2.000000,0.637663,0.126219,1.000000,1.000000,0.589746,0.050357,0.827612,2.000000
57,0.006442,0.000000,0.851818,1.000000,1.000000,0.003944,0.024663,1.000000,2.000000,0.637663,0.126219,1.000000,1.000000,0.589746,0.050357,0.827612,2.000000
58,0.006442,0.000000,0.851818,1.000000,1.000000,0.003944,0.024663,1.000000,2.000000,0.637663,0.126219,1.000000,1.000000,0.589746,0.050357,0.827612,2.000000
59,0.006442,0.000000,0.851818,1.000000,1.000000,0.003944,0.024663,1.000000,2.000000,0.637663,0.126219,1.000000,1.000000,0.589746,0.050357,0.827612,2.000000
60,0.006442,0.000000,0.851818,1.000000,1.000000,0.003944,0.024663,1.000000,2.000000,0.637663,0.126219,1.000000,1.000000,0.589746,0.050357,0.827612,2.000000
61,0.006442,0.000000,0.851818,1.000000,1.000000,0.003944,0.024663,1.000000,2.000000,0.637663,0.126219,1.000000,1.000000,0.589746,0.050357,0.827612,2.000000
gen, fitness
0,0.006335,0.000000,1.000000,0.210000,0.800000,0.030000,0.030000,1.000000,0.000000,1.000000,0.000000,0.000000,0.600000,1.000000,1.000000,0.000000,0.000000
1,0.006335,0.000000,1.000000,0.210000,0.800000,0.030000,0.030000,1.000000,0.000000,1.000000,0.000000,0.000000,0.600000,1.000000,1.000000,0.000000,0.000000
2,0.000055,0.038702,0.885297,0.157396,0.800000,0.205500,0.052487,0.743841,2.000000,1.000000,0.000000,0.000000,0.680038,0.968238,0.811259,0.116631,1.000000
3,0.000055,0.038702,0.885297,0.157396,0.800000,0.205500,0.052487,0.743841,2.000000,1.000000,0.000000,0.000000,0.680038,0.968238,0.811259,0.116631,1.000000
4,0.000003,0.084603,0.801632,0.185261,0.758486,0.003477,0.000000,0.919411,2.000000,0.977873,0.000000,0.127932,0.610424,1.000000,1.000000,0.000000,1.000000
5,0.000003,0.084603,0.801632,0.185261,0.758486,0.003477,0.000000,0.919411,2.000000,0.977873,0.000000,0.127932,0.610424,1.000000,1.000000,0.000000,1.000000
6,0.000003,0.084603,0.801632,0.185261,0.758486,0.003477,0.000000,0.919411,2.000000,0.977873,0.000000,0.127932,0.610424,1.000000,1.000000,0.000000,1.000000
7,0.000003,0.084603,0.801632,0.185261,0.758486,0.003477,0.000000,0.919411,2.000000,0.977873,0.000000,0.127932,0.610424,1.000000,1.000000,0.000000,1.000000
8,0.000003,0.084603,0.801632,0.185261,0.758486,0.003477,0.000000,0.919411,2.000000,0.977873,0.000000,0.127932,0.610424,1.000000,1.000000,0.000000,1.000000
9,0.000003,0.084603,0.801632,0.185261,0.758486,0.003477,0.000000,0.919411,2.000000,0.977873,0.000000,0.127932,0.610424,1.000000,1.000000,0.000000,1.000000
10,0.000003,0.084603,0.801632,0.185261,0.758486,0.003477,0.000000,0.919411,2.000000,0.977873,0.000000,0.127932,0.610424,1.000000,1.000000,0.000000,1.000000
11,0.000001,0.000000,0.792628,0.093104,0.800000,0.130028,0.000000,0.748146,0.000000,0.807241,0.170112,0.061538,0.649492,0.990630,0.811259,0.116631,1.000000
gen, fitness
0,0.018541,0.000000,1.000000,0.210000,0.800000,0.030000,0.030000,1.000000,0.000000,1.000000,0.000000,0.000000,0.600000,1.000000,1.000000,0.000000,0.000000
1,0.018541,0.000000,1.000000,0.210000,0.800000,0.030000,0.030000,1.000000,0.000000,1.000000,0.000000,0.000000,0.600000,1.000000,1.000000,0.000000,0.000000
2,0.006363,0.000000,1.000000,0.240432,0.800000,0.000000,0.000000,1.000000,1.000000,0.970995,0.000000,0.063945,0.701652,1.000000,1.000000,0.035170,0.000000
3,0.005364,0.062508,1.000000,0.425913,0.726869,0.077739,0.156035,0.973736,2.000000,0.899777,0.000000,0.000000,0.770456,1.000000,0.967767,0.000000,0.000000
4,0.003022,0.000000,0.925725,0.324331,0.833223,0.000000,0.292485,0.889189,1.000000,0.874063,0.000000,0.000000,0.827916,1.000000,0.916867,0.000000,0.000000
5,0.002405,0.055144,1.000000,0.290964,0.864899,0.143165,0.051754,0.935564,1.000000,0.970995,0.000000,0.028091,0.837119,1.000000,1.000000,0.035170,0.000000
6,0.001688,0.017287,1.000000,0.171140,0.935227,0.322210,0.023266,1.000000,0.000000,0.959876,0.162287,0.000000,0.894442,0.805780,1.000000,0.193970,0.000000
7,0.000966,0.292492,0.692179,0.455628,0.844167,0.410054,0.270888,0.766913,1.000000,0.763106,0.000000,0.148877,0.849443,0.791459,0.974283,0.018170,1.000000
8,0.000079,0.008645,1.000000,0.243255,1.000000,0.409488,0.000000,1.000000,2.000000,0.885402,0.162287,0.000000,1.000000,0.849337,1.000000,0.122734,1.000000
9,0.000075,0.000000,1.000000,0.294732,1.000000,0.492866,0.000000,1.000000,0.000000,0.965076,0.047228,0.136589,0.966400,0.877878,0.791323,0.000000,2.000000
10,0.000014,0.107778,0.677103,0.277751,1.000000,0.192625,0.000000,0.913157,0.000000,1.000000,0.199763,0.023348,0.981331,1.000000,0.896478,0.000000,2.000000
11,0.000014,0.107778,0.677103,0.277751,1.000000,0.192625,0.000000,0.913157,0.000000,1.000000,0.199763,0.023348,0.981331,1.000000,0.896478,0.000000,2.000000
12,0.000012,0.238569,1.000000,0.318163,1.000000,0.610332,0.164669,1.000000,0.000000,1.000000,0.615170,0.000000,0.997420,0.754068,1.000000,0.185015,2.000000
13,0.000000,0.315076,0.940432,0.320481,1.000000,0.666520,0.110674,0.930456,0.000000,1.000000,0.571643,0.010006,1.000000,0.683182,1.000000,0.182809,2.000000
gen, fitness
0,0.069293,0.000000,1.000000,0.210000,0.800000,0.030000,0.030000,1.000000,0.000000,1.000000,0.000000,0.000000,0.600000,1.000000,1.000000,0.000000,0.000000
1,0.069293,0.000000,1.000000,0.210000,0.800000,0.030000,0.030000,1.000000,0.000000,1.000000,0.000000,0.000000,0.600000,1.000000,1.000000,0.000000,0.000000
2,0.037781,0.000000,1.000000,0.345151,0.831091,0.030000,0.000000,1.000000,2.000000,0.958776,0.072987,0.000000,0.917431,0.943793,0.999645,0.000000,1.000000
3,0.016484,0.000000,1.000000,0.275941,1.000000,0.000000,0.000000,1.000000,1.000000,1.000000,0.072987,0.031739,1.000000,0.783515,0.999645,0.029874,2.000000
4,0.016403,0.213469,1.000000,0.158896,1.000000,0.037074,0.156862,0.836809,2.000000,0.932408,0.000000,0.214914,0.990203,1.000000,1.000000,0.088337,1.000000
5,0.015270,0.161058,0.818480,0.158896,1.000000,0.037074,0.000000,0.818063,0.000000,0.932408,0.000000,0.182512,0.990203,1.000000,0.974297,0.088337,2.000000
6,0.014606,0.250515,1.000000,0.007715,1.000000,0.097894,0.156862,0.836809,1.000000,1.000000,0.202462,0.209676,1.000000,1.000000,0.911995,0.169935,2.000000
7,0.013529,0.219051,1.000000,0.278909,1.000000,0.000000,0.000000,0.954394,2.000000,1.000000,0.000000,0.510538,1.000000,1.000000,0.859391,0.000000,2.000000
8,0.013049,0.118330,1.000000,0.000000,1.000000,0.000000,0.008048,0.693871,2.000000,1.000000,0.000000,0.330459,1.000000,1.000000,0.876852,0.246981,2.000000
9,0.012911,0.098419,1.000000,0.000000,1.000000,0.000000,0.181946,1.000000,2.000000,1.000000,0.177846,0.306393,0.971794,1.000000,0.878420,0.336975,1.000000
10,0.012911,0.098419,1.000000,0.000000,1.000000,0.000000,0.181946,1.000000,2.000000,1.000000,0.177846,0.306393,0.971794,1.000000,0.878420,0.336975,1.000000
11,0.011445,0.016752,1.000000,0.000000,1.000000,0.063736,0.181946,1.000000,2.000000,0.985815,0.007522,0.306393,0.958752,1.000000,0.828236,0.394228,2.000000
12,0.011445,0.016752,1.000000,0.000000,1.000000,0.063736,0.181946,1.000000,2.000000,0.985815,0.007522,0.306393,0.958752,1.000000,0.828236,0.394228,2.000000
13,0.010520,0.000000,1.000000,0.000000,1.000000,0.000000,0.214587,0.900652,2.000000,0.838616,0.000000,0.835503,0.937193,0.817381,0.869331,0.000000,2.000000
14,0.010520,0.000000,1.000000,0.000000,1.000000,0.000000,0.214587,0.900652,2.000000,0.838616,0.000000,0.835503,0.937193,0.817381,0.869331,0.000000,2.000000
15,0.010520,0.000000,1.000000,0.000000,1.000000,0.000000,0.214587,0.900652,2.000000,0.838616,0.000000,0.835503,0.937193,0.817381,0.869331,0.000000,2.000000
16,0.009311,0.146071,1.000000,0.000000,1.000000,0.000000,0.051610,0.895410,2.000000,0.847614,0.364992,0.899449,0.924603,0.874600,1.000000,0.483726,2.000000
17,0.009311,0.146071,1.000000,0.000000,1.000000,0.000000,0.051610,0.895410,2.000000,0.847614,0.364992,0.899449,0.924603,0.874600,1.000000,0.483726,2.000000
18,0.009311,0.146071,1.000000,0.000000,1.000000,0.000000,0.051610,0.895410,2.000000,0.847614,0.364992,0.899449,0.924603,0.874600,1.000000,0.483726,2.000000
19,0.009311,0.146071,1.000000,0.000000,1.000000,0.000000,0.051610,0.895410,2.000000,0.847614,0.364992,0.899449,0.924603,0.874600,1.000000,0.483726,2.000000
20,0.009311,0.146071,1.000000,0.000000,1.000000,0.000000,0.051610,0.895410,2.000000,0.847614,0.364992,0.899449,0.924603,0.874600,1.000000,0.483726,2.000000
21,0.009311,0.146071,1.000000,0.000000,1.000000,0.000000,0.051610,0.895410,2.000000,0.847614,0.364992,0.899449,0.924603,0.874600,1.000000,0.483726,2.000000
22,0.009311,0.146071,1.000000,0.000000,1.000000,0.000000,0.051610,0.895410,2.000000,0.847614,0.364992,0.899449,0.924603,0.874600,1.000000,0.483726,2.000000
23,0.009311,0.146071,1.000000,0.000000,1.000000,0.000000,0.051610,0.895410,2.000000,0.847614,0.364992,0.899449,0.924603,0.874600,1.000000,0.483726,2.000000
24,0.009311,0.146071,1.000000,0.000000,1.000000,0.000000,0.051610,0.895410,2.000000,0.847614,0.364992,0.899449,0.924603,0.874600,1.000000,0.483726,2.000000
25,0.009276,0.093387,0.651686,0.000000,1.000000,0.025293,0.000000,0.942364,2.000000,0.728902,0.207203,1.000000,0.918219,1.000000,0.980749,0.765614,2.000000
26,0.009276,0.093387,0.651686,0.000000,1.000000,0.025293,0.000000,0.942364,2.000000,0.728902,0.207203,1.000000,0.918219,1.000000,0.980749,0.765614,2.000000
27,0.009015,0.357264,0.811096,0.000000,1.000000,0.277441,0.021902,0.380155,2.000000,1.000000,0.000000,0.945686,0.929200,0.993853,0.798711,0.592174,2.000000
28,0.009015,0.357264,0.811096,0.000000,1.000000,0.277441,0.021902,0.380155,2.000000,1.000000,0.000000,0.945686,0.929200,0.993853,0.798711,0.592174,2.000000
29,0.009015,0.357264,0.811096,0.000000,1.000000,0.277441,0.021902,0.380155,2.000000,1.000000,0.000000,0.945686,0.929200,0.993853,0.798711,0.592174,2.000000
30,0.009015,0.357264,0.811096,0.000000,1.000000,0.277441,0.021902,0.380155,2.000000,1.000000,0.000000,0.945686,0.929200,0.993853,0.798711,0.592174,2.000000
31,0.009015,0.357264,0.811096,0.000000,1.000000,0.277441,0.021902,0.380155,2.000000,1.000000,0.000000,0.945686,0.929200,0.993853,0.798711,0.592174,2.000000
32,0.009015,0.357264,0.811096,0.000000,1.000000,0.277441,0.021902,0.380155,2.000000,1.000000,0.000000,0.945686,0.929200,0.993853,0.798711,0.592174,2.000000
33,0.009015,0.357264,0.811096,0.000000,1.000000,0.277441,0.021902,0.380155,2.000000,1.000000,0.000000,0.945686,0.929200,0.993853,0.798711,0.592174,2.000000
34,0.009015,0.357264,0.811096,0.000000,1.000000,0.277441,0.021902,0.380155,2.000000,1.000000,0.000000,0.945686,0.929200,0.993853,0.798711,0.592174,2.000000
35,0.009015,0.357264,0.811096,0.000000,1.000000,0.277441,0.021902,0.380155,2.000000,1.000000,0.000000,0.945686,0.929200,0.993853,0.798711,0.592174,2.000000
36,0.009015,0.357264,0.811096,0.000000,1.000000,0.277441,0.021902,0.380155,2.000000,1.000000,0.000000,0.945686,0.929200,0.993853,0.798711,0.592174,2.000000
37,0.009015,0.357264,0.811096,0.000000,1.000000,0.277441,0.021902,0.380155,2.000000,1.000000,0.000000,0.945686,0.929200,0.993853,0.798711,0.592174,2.000000
gen, fitness
0,0.020772,0.000000,1.000000,0.210000,0.800000,0.030000,0.030000,1.000000,0.000000,1.000000,0.000000,0.000000,0.600000,1.000000,1.000000,0.000000,0.000000
1,0.020772,0.000000,1.000000,0.210000,0.800000,0.030000,0.030000,1.000000,0.000000,1.000000,0.000000,0.000000,0.600000,1.000000,1.000000,0.000000,0.000000
2,0.003802,0.242239,0.957198,0.228200,0.848881,0.083637,0.076506,0.685409,1.000000,1.000000,0.003834,0.188787,0.771973,1.000000,1.000000,0.030159,0.000000
3,0.002658,0.015592,1.000000,0.234211,0.860369,0.030000,0.000000,1.000000,2.000000,0.878757,0.000000,0.149675,0.825883,0.725686,1.000000,0.013886,2.000000
4,0.002658,0.015592,1.000000,0.234211,0.860369,0.030000,0.000000,1.000000,2.000000,0.878757,0.000000,0.149675,0.825883,0.725686,1.000000,0.013886,2.000000
5,0.001462,0.000000,0.724943,0.635269,0.825081,0.000000,0.068256,0.803333,1.000000,0.739968,0.000000,0.252941,0.848864,0.944990,0.800592,0.000000,1.000000
6,0.000153,0.000000,0.724943,0.635269,0.915163,0.000000,0.118506,0.776748,1.000000,0.738627,0.000000,0.343312,0.912263,0.944990,0.574849,0.024687,1.000000
7,0.000153,0.000000,0.724943,0.635269,0.915163,0.000000,0.118506,0.776748,1.000000,0.738627,0.000000,0.343312,0.912263,0.944990,0.574849,0.024687,1.000000
8,0.000153,0.000000,0.724943,0.635269,0.915163,0.000000,0.118506,0.776748,1.000000,0.738627,0.000000,0.343312,0.912263,0.944990,0.574849,0.024687,1.000000
9,0.000113,0.000000,0.758458,0.405902,1.000000,0.173218,0.167792,1.000000,2.000000,1.000000,0.275583,0.175189,1.000000,1.000000,0.998295,0.481310,1.000000
10,0.000019,0.000000,1.000000,0.234211,1.000000,0.000000,0.000000,1.000000,2.000000,0.897466,0.017613,0.083123,0.996552,1.000000,1.000000,0.126853,0.000000
11,0.000019,0.000000,1.000000,0.234211,1.000000,0.000000,0.000000,1.000000,2.000000,0.897466,0.017613,0.083123,0.996552,1.000000,1.000000,0.126853,0.000000
12,0.000019,0.000000,1.000000,0.234211,1.000000,0.000000,0.000000,1.000000,2.000000,0.897466,0.017613,0.083123,0.996552,1.000000,1.000000,0.126853,0.000000
13,0.000007,0.266702,0.729765,0.433925,1.000000,0.293731,0.137277,1.000000,0.000000,1.000000,0.487123,0.175189,1.000000,1.000000,0.781112,0.215010,1.000000
14,0.000007,0.266702,0.729765,0.433925,1.000000,0.293731,0.137277,1.000000,0.000000,1.000000,0.487123,0.175189,1.000000,1.000000,0.781112,0.215010,1.000000
15,0.000002,0.209928,0.532242,0.502126,0.961289,0.197738,0.122738,0.936096,1.000000,0.362328,0.276938,0.265292,1.000000,0.879637,1.000000,0.000000,0.000000
16,0.000002,0.209928,0.532242,0.502126,0.961289,0.197738,0.122738,0.936096,1.000000,0.362328,0.276938,0.265292,1.000000,0.879637,1.000000,0.000000,0.000000
17,0.000002,0.209928,0.532242,0.502126,0.961289,0.197738,0.122738,0.936096,1.000000,0.362328,0.276938,0.265292,1.000000,0.879637,1.000000,0.000000,0.000000
18,0.000002,0.209928,0.532242,0.502126,0.961289,0.197738,0.122738,0.936096,1.000000,0.362328,0.276938,0.265292,1.000000,0.879637,1.000000,0.000000,0.000000
19,0.000002,0.209928,0.532242,0.502126,0.961289,0.197738,0.122738,0.936096,1.000000,0.362328,0.276938,0.265292,1.000000,0.879637,1.000000,0.000000,0.000000
20,0.000002,0.209928,0.532242,0.502126,0.961289,0.197738,0.122738,0.936096,1.000000,0.362328,0.276938,0.265292,1.000000,0.879637,1.000000,0.000000,0.000000
21,0.000002,0.209928,0.532242,0.502126,0.961289,0.197738,0.122738,0.936096,1.000000,0.362328,0.276938,0.265292,1.000000,0.879637,1.000000,0.000000,0.000000
22,0.000000,0.038323,0.583245,0.874697,0.938384,0.168560,0.043697,0.944041,0.000000,0.454852,0.000000,0.159233,0.991000,0.555084,0.938511,0.000000,2.000000
gen, fitness
0,0.008197,0.000000,1.000000,0.210000,0.800000,0.030000,0.030000,1.000000,0.000000,1.000000,0.000000,0.000000,0.600000,1.000000,1.000000,0.000000,0.000000
1,0.008197,0.000000,1.000000,0.210000,0.800000,0.030000,0.030000,1.000000,0.000000,1.000000,0.000000,0.000000,0.600000,1.000000,1.000000,0.000000,0.000000
2,0.000260,0.002158,0.877665,0.210000,0.800000,0.121692,0.025493,1.000000,2.000000,0.914803,0.000000,0.140357,0.657119,1.000000,1.000000,0.054052,1.000000
3,0.000065,0.255587,1.000000,0.514078,0.743532,0.103306,0.098384,0.745605,0.000000,1.000000,0.038304,0.200163,0.709466,1.000000,0.911080,0.118251,0.000000
4,0.000028,0.000000,0.598017,0.312968,0.787370,0.088660,0.032348,0.545802,1.000000,0.910694,0.000000,0.180513,0.662151,0.956935,1.000000,0.000000,2.000000
5,0.000028,0.000000,0.598017,0.312968,0.787370,0.088660,0.032348,0.545802,1.000000,0.910694,0.000000,0.180513,0.662151,0.956935,1.000000,0.000000,2.000000
6,0.000028,0.000000,0.598017,0.312968,0.787370,0.088660,0.032348,0.545802,1.000000,0.910694,0.000000,0.180513,0.662151,0.956935,1.000000,0.000000,2.000000
7,0.000024,0.085145,0.701928,0.240310,0.789937,0.000000,0.010050,0.900358,2.000000,1.000000,0.114399,0.144543,0.664003,1.000000,0.877928,0.000000,2.000000
8,0.000024,0.085145,0.701928,0.240310,0.789937,0.000000,0.010050,0.900358,2.000000,1.000000,0.114399,0.144543,0.664003,1.000000,0.877928,0.000000,2.000000
9,0.000014,0.280996,0.769152,0.598738,0.660478,0.623641,0.146824,1.000000,1.000000,0.950622,0.000000,0.163252,0.714158,1.000000,1.000000,0.014858,1.000000
10,0.000014,0.280996,0.769152,0.598738,0.660478,0.623641,0.146824,1.000000,1.000000,0.950622,0.000000,0.163252,0.714158,1.000000,1.000000,0.014858,1.000000
11,0.000014,0.280996,0.769152,0.598738,0.660478,0.623641,0.146824,1.000000,1.000000,0.950622,0.000000,0.163252,0.714158,1.000000,1.000000,0.014858,1.000000
12,0.000014,0.280996,0.769152,0.598738,0.660478,0.623641,0.146824,1.000000,1.000000,0.950622,0.000000,0.163252,0.714158,1.000000,1.000000,0.014858,1.000000
13,0.000014,0.280996,0.769152,0.598738,0.660478,0.623641,0.146824,1.000000,1.000000,0.950622,0.000000,0.163252,0.714158,1.000000,1.000000,0.014858,1.000000
14,0.000014,0.280996,0.769152,0.598738,0.660478,0.623641,0.146824,1.000000,1.000000,0.950622,0.000000,0.163252,0.714158,1.000000,1.000000,0.014858,1.000000
gen, fitness
0,0.011091,0.000000,1.000000,0.210000,0.800000,0.030000,0.030000,1.000000,0.000000,1.000000,0.000000,0.000000,0.600000,1.000000,1.000000,0.000000,0.000000
1,0.011091,0.000000,1.000000,0.210000,0.800000,0.030000,0.030000,1.000000,0.000000,1.000000,0.000000,0.000000,0.600000,1.000000,1.000000,0.000000,0.000000
2,0.000015,0.040893,1.000000,0.131115,0.778483,0.030000,0.000000,0.951105,0.000000,0.979765,0.000000,0.000000,0.681927,1.000000,1.000000,0.000000,1.000000
3,0.000015,0.040893,1.000000,0.131115,0.778483,0.030000,0.000000,0.951105,0.000000,0.979765,0.000000,0.000000,0.681927,1.000000,1.000000,0.000000,1.000000
4,0.000015,0.040893,1.000000,0.131115,0.778483,0.030000,0.000000,0.951105,0.000000,0.979765,0.000000,0.000000,0.681927,1.000000,1.000000,0.000000,1.000000
5,0.000015,0.040893,1.000000,0.131115,0.778483,0.030000,0.000000,0.951105,0.000000,0.979765,0.000000,0.000000,0.681927,1.000000,1.000000,0.000000,1.000000
6,0.000015,0.040893,1.000000,0.131115,0.778483,0.030000,0.000000,0.951105,0.000000,0.979765,0.000000,0.000000,0.681927,1.000000,1.000000,0.000000,1.000000
7,0.000015,0.040893,1.000000,0.131115,0.778483,0.030000,0.000000,0.951105,0.000000,0.979765,0.000000,0.000000,0.681927,1.000000,1.000000,0.000000,1.000000
8,0.000015,0.040893,1.000000,0.131115,0.778483,0.030000,0.000000,0.951105,0.000000,0.979765,0.000000,0.000000,0.681927,1.000000,1.000000,0.000000,1.000000
9,0.000015,0.040893,1.000000,0.131115,0.778483,0.030000,0.000000,0.951105,0.000000,0.979765,0.000000,0.000000,0.681927,1.000000,1.000000,0.000000,1.000000
10,0.000009,0.000000,0.856130,0.223032,0.693106,0.005808,0.111679,1.000000,2.000000,1.000000,0.041624,0.201730,0.494482,0.739393,0.994305,0.140425,1.000000
11,0.000008,0.124880,0.824465,0.234737,0.687051,0.000000,0.138363,0.930423,2.000000,0.963725,0.000000,0.135063,0.572569,0.977560,1.000000,0.224890,2.000000
12,0.000008,0.124880,0.824465,0.234737,0.687051,0.000000,0.138363,0.930423,2.000000,0.963725,0.000000,0.135063,0.572569,0.977560,1.000000,0.224890,2.000000
gen, fitness
0,0.020988,0.000000,1.000000,0.210000,0.800000,0.030000,0.030000,1.000000,0.000000,1.000000,0.000000,0.000000,0.600000,1.000000,1.000000,0.000000,0.000000
1,0.020988,0.000000,1.000000,0.210000,0.800000,0.030000,0.030000,1.000000,0.000000,1.000000,0.000000,0.000000,0.600000,1.000000,1.000000,0.000000,0.000000
2,0.007337,0.000000,0.989218,0.210000,0.829695,0.000000,0.000000,0.928873,2.000000,1.000000,0.000000,0.086427,0.738558,0.943941,1.000000,0.000000,0.000000
3,0.005088,0.000000,0.966675,0.270612,0.856489,0.197154,0.231479,1.000000,2.000000,1.000000,0.000000,0.049342,0.782466,1.000000,0.976782,0.000000,1.000000
4,0.002628,0.026869,1.000000,0.361099,0.924751,0.078729,0.000000,0.831394,1.000000,0.943831,0.066691,0.014351,0.896355,0.797910,1.000000,0.000000,1.000000
5,0.002628,0.026869,1.000000,0.361099,0.924751,0.078729,0.000000,0.831394,1.000000,0.943831,0.066691,0.014351,0.896355,0.797910,1.000000,0.000000,1.000000
6,0.000913,0.000000,0.998913,0.444898,1.000000,0.078729,0.107632,0.805785,0.000000,0.876047,0.279580,0.009403,1.000000,0.719322,0.987602,0.008937,2.000000
7,0.000251,0.000000,0.846605,0.649089,1.000000,0.063377,0.151357,1.000000,2.000000,0.821430,0.000000,0.411099,1.000000,0.855929,1.000000,0.000000,0.000000
8,0.000251,0.000000,0.846605,0.649089,1.000000,0.063377,0.151357,1.000000,2.000000,0.821430,0.000000,0.411099,1.000000,0.855929,1.000000,0.000000,0.000000
9,0.000166,0.000000,1.000000,0.647651,1.000000,0.000000,0.090054,0.923789,2.000000,0.648538,0.095685,0.349501,1.000000,1.000000,1.000000,0.000000,2.000000
10,0.000105,0.000000,0.986019,0.951832,1.000000,0.119352,0.081585,0.834846,1.000000,0.960389,0.000000,0.419557,1.000000,0.857981,0.885154,0.216172,2.000000
11,0.000105,0.000000,0.986019,0.951832,1.000000,0.119352,0.081585,0.834846,1.000000,0.960389,0.000000,0.419557,1.000000,0.857981,0.885154,0.216172,2.000000
12,0.000084,0.006664,0.884577,0.726208,1.000000,0.000000,0.267908,0.890956,2.000000,0.720916,0.085156,0.437106,1.000000,1.000000,0.778716,0.084028,1.000000
13,0.000084,0.006664,0.884577,0.726208,1.000000,0.000000,0.267908,0.890956,2.000000,0.720916,0.085156,0.437106,1.000000,1.000000,0.778716,0.084028,1.000000
14,0.000065,0.055843,1.000000,0.951832,1.000000,0.119352,0.081585,0.855086,2.000000,0.970337,0.064866,0.538161,1.000000,0.832940,0.659435,0.112802,0.000000
15,0.000060,0.000000,1.000000,1.000000,1.000000,0.146682,0.390773,1.000000,1.000000,0.694791,0.000000,0.619090,1.000000,0.880893,0.758744,0.000000,0.000000
16,0.000020,0.008784,1.000000,1.000000,0.974111,0.103385,0.120016,1.000000,1.000000,0.448676,0.143008,0.429887,1.000000,0.716793,0.846624,0.112319,2.000000
17,0.000020,0.008784,1.000000,1.000000,0.974111,0.103385,0.120016,1.000000,1.000000,0.448676,0.143008,0.429887,1.000000,0.716793,0.846624,0.112319,2.000000
18,0.000020,0.008784,1.000000,1.000000,0.974111,0.103385,0.120016,1.000000,1.000000,0.448676,0.143008,0.429887,1.000000,0.716793,0.846624,0.112319,2.000000
19,0.000012,0.011651,1.000000,0.971960,1.000000,0.163096,0.088306,1.000000,2.000000,0.769532,0.017536,0.845842,1.000000,0.691514,0.642419,0.138185,2.000000
20,0.000012,0.011651,1.000000,0.971960,1.000000,0.163096,0.088306,1.000000,2.000000,0.769532,0.017536,0.845842,1.000000,0.691514,0.642419,0.138185,2.000000
21,0.000005,0.039397,1.000000,0.899996,1.000000,0.190321,0.070810,1.000000,2.000000,0.631119,0.061682,0.898603,1.000000,0.743400,0.734444,0.111739,1.000000
22,0.000005,0.039397,1.000000,0.899996,1.000000,0.190321,0.070810,1.000000,2.000000,0.631119,0.061682,0.898603,1.000000,0.743400,0.734444,0.111739,1.000000
23,0.000005,0.039397,1.000000,0.899996,1.000000,0.190321,0.070810,1.000000,2.000000,0.631119,0.061682,0.898603,1.000000,0.743400,0.734444,0.111739,1.000000
24,0.000005,0.039397,1.000000,0.899996,1.000000,0.190321,0.070810,1.000000,2.000000,0.631119,0.061682,0.898603,1.000000,0.743400,0.734444,0.111739,1.000000
25,0.000005,0.039397,1.000000,0.899996,1.000000,0.190321,0.070810,1.000000,2.000000,0.631119,0.061682,0.898603,1.000000,0.743400,0.734444,0.111739,1.000000
26,0.000005,0.039397,1.000000,0.899996,1.000000,0.190321,0.070810,1.000000,2.000000,0.631119,0.061682,0.898603,1.000000,0.743400,0.734444,0.111739,1.000000
