gen, fitness
0,0.094016,0.000000,1.000000,0.210000,0.800000,0.030000,0.030000,1.000000,0.000000,1.000000,0.000000,0.000000,0.600000,1.000000,1.000000,0.000000,0.000000
1,0.094016,0.000000,1.000000,0.210000,0.800000,0.030000,0.030000,1.000000,0.000000,1.000000,0.000000,0.000000,0.600000,1.000000,1.000000,0.000000,0.000000
2,0.067062,0.000000,0.981654,0.000000,0.800000,0.134787,0.030000,1.000000,0.000000,1.000000,0.000000,0.000000,0.600000,1.000000,1.000000,0.000000,0.000000
3,0.063924,0.000000,1.000000,0.210000,0.690232,0.030000,0.030000,1.000000,0.000000,1.000000,0.084725,0.000000,0.483273,1.000000,1.000000,0.000000,0.000000
4,0.061076,0.157231,1.000000,0.210000,0.649243,0.030000,0.030000,1.000000,1.000000,1.000000,0.000000,0.000000,0.600000,1.000000,1.000000,0.000000,0.000000
5,0.053609,0.157231,1.000000,0.057223,0.649243,0.030000,0.030000,1.000000,1.000000,1.000000,0.000000,0.000000,0.600000,1.000000,1.000000,0.000000,0.000000
6,0.044047,0.157231,1.000000,0.057223,0.649243,0.030000,0.030000,1.000000,0.000000,0.999610,0.000000,0.000000,0.514713,1.000000,1.000000,0.000000,0.000000
7,0.040767,0.000000,0.981654,0.000000,0.608413,0.030000,0.030000,1.000000,0.000000,0.999610,0.000000,0.000000,0.452914,1.000000,1.000000,0.000000,0.000000
8,0.035525,0.360118,0.981654,0.000000,0.608413,0.030000,0.030000,1.000000,0.000000,0.999610,0.000000,0.000000,0.514713,1.000000,1.000000,0.000000,0.000000
9,0.031625,0.360118,1.000000,0.057223,0.507335,0.030000,0.000000,0.867489,0.000000,0.999610,0.000000,0.000000,0.471462,1.000000,1.000000,0.000000,1.000000
10,0.031625,0.360118,1.000000,0.057223,0.507335,0.030000,0.000000,0.867489,0.000000,0.999610,0.000000,0.000000,0.471462,1.000000,1.000000,0.000000,1.000000
11,0.020610,0.372254,1.000000,0.026963,0.139639,0.030000,0.000000,0.867489,2.000000,0.999610,0.000000,0.000000,0.315050,1.000000,1.000000,0.000000,0.000000
12,0.020610,0.372254,1.000000,0.026963,0.139639,0.030000,0.000000,0.867489,2.000000,0.999610,0.000000,0.000000,0.315050,1.000000,1.000000,0.000000,0.000000
13,0.005943,0.366506,1.000000,0.026963,0.139639,0.030000,0.000000,0.867489,0.000000,0.999610,0.000000,0.000000,0.111913,1.000000,1.000000,0.000000,0.000000
14,0.002357,0.613383,1.000000,0.026963,0.139639,0.030000,0.000000,0.867489,0.000000,0.999610,0.000000,0.000000,0.111913,1.000000,1.000000,0.000000,0.000000
15,0.002357,0.613383,1.000000,0.026963,0.139639,0.030000,0.000000,0.867489,0.000000,0.999610,0.000000,0.000000,0.111913,1.000000,1.000000,0.000000,0.000000
16,0.002116,0.696100,1.000000,0.026963,0.139639,0.030000,0.000000,0.867489,0.000000,0.999610,0.000000,0.000000,0.111913,1.000000,0.934597,0.000000,0.000000
17,0.001492,0.696100,1.000000,0.000000,0.139639,0.030000,0.000000,0.867489,0.000000,0.999610,0.000000,0.000000,0.111913,1.000000,1.000000,0.000000,0.000000
18,0.001336,0.696100,1.000000,0.000000,0.139639,0.030000,0.000000,0.867489,0.000000,1.000000,0.000000,0.000000,0.055178,1.000000,1.000000,0.000000,0.000000
19,0.000942,0.738572,1.000000,0.026963,0.037149,0.110543,0.000000,0.867489,2.000000,0.999610,0.000000,0.000000,0.111913,1.000000,1.000000,0.000000,0.000000
20,0.000442,0.738572,1.000000,0.026963,0.037149,0.030000,0.052895,0.833559,0.000000,0.999610,0.000000,0.000000,0.000000,1.000000,1.000000,0.008392,0.000000
21,0.000170,0.756732,0.961105,0.000000,0.032881,0.030000,0.000000,0.867489,0.000000,1.000000,0.000000,0.000000,0.055178,1.000000,1.000000,0.000000,1.000000
22,0.000010,0.738572,1.000000,0.000000,0.000000,0.019950,0.000000,0.867489,0.000000,0.999610,0.000000,0.000000,0.000000,0.901050,1.000000,0.000000,0.000000
23,0.000010,0.738572,1.000000,0.000000,0.000000,0.019950,0.000000,0.867489,0.000000,0.999610,0.000000,0.000000,0.000000,0.901050,1.000000,0.000000,0.000000
24,0.000004,0.738572,1.000000,0.000000,0.000000,0.000000,0.000000,0.867489,0.000000,0.985615,0.000000,0.000000,0.000000,0.975067,1.000000,0.000000,0.000000
25,0.000001,0.756732,1.000000,0.000000,0.000000,0.019950,0.000000,0.867489,0.000000,0.999610,0.000000,0.000000,0.000000,0.901050,0.868078,0.000000,0.000000
26,0.000000,0.756732,0.961105,0.000000,0.000000,0.000000,0.000000,0.867489,0.000000,0.999610,0.000000,0.000000,0.000000,1.000000,1.000000,0.000000,1.000000
gen, fitness
0,0.011444,0.000000,1.000000,0.210000,0.800000,0.030000,0.030000,1.000000,0.000000,1.000000,0.000000,0.000000,0.600000,1.000000,1.000000,0.000000,0.000000
1,0.011444,0.000000,1.000000,0.210000,0.800000,0.030000,0.030000,1.000000,0.000000,1.000000,0.000000,0.000000,0.600000,1.000000,1.000000,0.000000,0.000000
2,0.005309,0.000000,0.872398,0.018531,0.800000,0.030000,0.030000,1.000000,0.000000,1.000000,0.070145,0.000000,0.600000,1.000000,0.792015,0.000000,0.000000
3,0.004740,0.000000,1.000000,0.000000,0.800000,0.030000,0.030000,1.000000,0.000000,1.000000,0.000000,0.000000,0.524932,1.000000,1.000000,0.000000,0.000000
4,0.004483,0.067465,1.000000,0.000000,0.800000,0.030000,0.030000,0.847564,0.000000,1.000000,0.095551,0.000000,0.600000,1.000000,1.000000,0.000000,0.000000
5,0.003985,0.000000,1.000000,0.006386,0.719423,0.030000,0.030000,0.906703,0.000000,1.000000,0.000000,0.128021,0.423780,1.000000,0.969258,0.000000,0.000000
6,0.002890,0.067465,1.000000,0.000000,0.737632,0.030000,0.030000,1.000000,0.000000,1.000000,0.000000,0.000000,0.524932,1.000000,1.000000,0.000000,0.000000
7,0.001551,0.000000,0.995121,0.006386,0.719423,0.030000,0.030000,0.906703,0.000000,1.000000,0.000000,0.000000,0.423780,1.000000,1.000000,0.000000,1.000000
8,0.001433,0.000000,0.995121,0.006386,0.719423,0.030000,0.030000,0.906703,0.000000,1.000000,0.000000,0.036936,0.371723,1.000000,1.000000,0.000000,0.000000
9,0.001319,0.000000,0.811159,0.006386,0.666368,0.030000,0.030000,0.906703,0.000000,1.000000,0.000000,0.000000,0.380120,1.000000,1.000000,0.000000,1.000000
10,0.001121,0.000000,0.951663,0.034450,0.666368,0.030000,0.030000,0.906703,0.000000,1.000000,0.000000,0.000000,0.380120,1.000000,1.000000,0.000000,1.000000
11,0.001111,0.000000,0.951663,0.039806,0.666368,0.030000,0.030000,0.906703,0.000000,1.000000,0.000000,0.000000,0.380120,1.000000,1.000000,0.000000,1.000000
12,0.001023,0.000000,0.811159,0.000000,0.700062,0.030000,0.030000,0.906703,0.000000,1.000000,0.000000,0.000000,0.380120,1.000000,0.844608,0.000000,0.000000
13,0.000767,0.205476,0.951663,0.006386,0.667644,0.030000,0.030000,0.906703,0.000000,1.000000,0.000000,0.036936,0.340729,1.000000,0.844608,0.000000,0.000000
14,0.000598,0.024608,0.965773,0.006386,0.666368,0.111458,0.035257,0.906703,0.000000,1.000000,0.000000,0.000000,0.340729,1.000000,0.607500,0.000000,1.000000
15,0.000515,0.000000,0.991201,0.007797,0.666368,0.030000,0.030000,0.906703,0.000000,1.000000,0.000000,0.000000,0.299496,0.962460,0.858643,0.000000,0.000000
16,0.000413,0.096526,0.965773,0.006386,0.666368,0.030000,0.030000,0.764371,0.000000,1.000000,0.000000,0.000000,0.340729,1.000000,0.769695,0.000000,2.000000
17,0.000405,0.205476,0.951663,0.006386,0.629113,0.030000,0.019590,0.925154,0.000000,1.000000,0.000000,0.000000,0.380120,0.958616,1.000000,0.000000,1.000000
18,0.000266,0.205476,0.951663,0.006386,0.629113,0.030000,0.019590,0.925154,0.000000,0.987338,0.000000,0.000000,0.340729,1.000000,0.607500,0.042778,1.000000
19,0.000223,0.205476,0.951663,0.006386,0.629113,0.030000,0.019590,0.925154,0.000000,1.000000,0.000000,0.000000,0.340729,1.000000,0.607500,0.000000,2.000000
20,0.000125,0.205476,0.951663,0.006386,0.629113,0.133422,0.000000,0.657434,0.000000,1.000000,0.000000,0.000000,0.340729,1.000000,0.769695,0.000000,1.000000
21,0.000062,0.328090,0.951663,0.006386,0.580766,0.013948,0.019590,0.925154,0.000000,0.973396,0.000000,0.000000,0.340729,1.000000,0.769695,0.000000,2.000000
22,0.000039,0.328090,0.951663,0.006386,0.580766,0.013948,0.019590,0.925154,0.000000,1.000000,0.000000,0.000000,0.340729,1.000000,0.769695,0.000000,0.000000
23,0.000025,0.328090,0.951663,0.006386,0.580766,0.013948,0.019590,0.925154,0.000000,1.000000,0.000000,0.000000,0.340729,1.000000,0.769695,0.000000,2.000000
24,0.000019,0.328090,0.951663,0.006386,0.580766,0.013948,0.019590,0.830420,0.000000,0.987338,0.000000,0.000000,0.340729,1.000000,0.556629,0.014534,2.000000
25,0.000018,0.328090,0.951663,0.006386,0.580766,0.083672,0.019590,0.835717,0.000000,1.000000,0.000000,0.000000,0.340729,1.000000,0.769695,0.000000,2.000000
26,0.000013,0.361377,0.951663,0.006386,0.569473,0.013948,0.019590,0.925154,0.000000,1.000000,0.000000,0.000000,0.340729,1.000000,0.607500,0.000000,1.000000
27,0.000008,0.361377,0.951663,0.006386,0.569473,0.013948,0.019590,0.925154,0.000000,1.000000,0.000000,0.000000,0.340729,1.000000,0.769695,0.000000,2.000000
28,0.000007,0.361377,0.951663,0.000000,0.569473,0.013948,0.019590,0.925154,0.000000,1.000000,0.000000,0.000000,0.340729,1.000000,0.607500,0.000000,1.000000
29,0.000006,0.361377,0.833456,0.006386,0.569473,0.013948,0.019590,0.816094,0.000000,1.000000,0.000000,0.000000,0.340729,1.000000,0.607500,0.000000,1.000000
30,0.000006,0.361377,0.833456,0.006386,0.569473,0.013948,0.019590,0.816094,0.000000,1.000000,0.000000,0.000000,0.340729,1.000000,0.607500,0.000000,1.000000
31,0.000000,0.384741,0.951663,0.000000,0.569473,0.074370,0.053516,0.850978,0.000000,1.000000,0.042168,0.000000,0.340729,1.000000,0.639984,0.000000,2.000000
gen, fitness
0,0.010533,0.000000,1.000000,0.210000,0.800000,0.030000,0.030000,1.000000,0.000000,1.000000,0.000000,0.000000,0.600000,1.000000,1.000000,0.000000,0.000000
1,0.010533,0.000000,1.000000,0.210000,0.800000,0.030000,0.030000,1.000000,0.000000,1.000000,0.000000,0.000000,0.600000,1.000000,1.000000,0.000000,0.000000
2,0.002104,0.000000,1.000000,0.210000,0.690963,0.030000,0.030000,1.000000,0.000000,1.000000,0.000000,0.000000,0.600000,1.000000,1.000000,0.000000,0.000000
3,0.002104,0.000000,1.000000,0.210000,0.690963,0.030000,0.030000,1.000000,0.000000,1.000000,0.000000,0.000000,0.600000,1.000000,1.000000,0.000000,0.000000
4,0.001104,0.000000,0.908850,0.102084,0.690963,0.030000,0.030000,1.000000,0.000000,1.000000,0.000000,0.000000,0.525682,1.000000,1.000000,0.000000,0.000000
5,0.001049,0.000000,0.908850,0.102084,0.690963,0.030000,0.030000,1.000000,0.000000,0.874727,0.000000,0.000000,0.525682,1.000000,1.000000,0.000000,0.000000
6,0.000727,0.097107,0.908850,0.102084,0.690963,0.030000,0.030000,1.000000,0.000000,1.000000,0.000000,0.000000,0.525682,1.000000,1.000000,0.000000,1.000000
7,0.000677,0.097107,0.908850,0.102084,0.690963,0.030000,0.030000,1.000000,0.000000,1.000000,0.049487,0.000000,0.525682,1.000000,1.000000,0.000000,0.000000
8,0.000677,0.097107,0.908850,0.102084,0.690963,0.030000,0.030000,1.000000,0.000000,1.000000,0.049487,0.000000,0.525682,1.000000,1.000000,0.000000,0.000000
9,0.000463,0.177922,0.908850,0.065101,0.690963,0.030000,0.030000,1.000000,0.000000,1.000000,0.000000,0.000000,0.510388,0.977831,1.000000,0.000000,0.000000
10,0.000462,0.177922,0.847429,0.065101,0.690963,0.030000,0.030000,1.000000,0.000000,1.000000,0.000000,0.000000,0.510388,0.977831,1.000000,0.000000,0.000000
11,0.000224,0.177922,0.908850,0.037713,0.690963,0.030000,0.030000,0.801263,0.000000,1.000000,0.107053,0.000000,0.501183,1.000000,0.961747,0.000000,0.000000
12,0.000022,0.000000,0.799637,0.102084,0.598600,0.039805,0.030000,0.840634,0.000000,1.000000,0.000000,0.000000,0.344718,0.902251,0.961747,0.000000,1.000000
13,0.000022,0.000000,0.799637,0.102084,0.598600,0.039805,0.030000,0.840634,0.000000,1.000000,0.000000,0.000000,0.344718,0.902251,0.961747,0.000000,1.000000
14,0.000022,0.000000,0.799637,0.102084,0.598600,0.039805,0.030000,0.840634,0.000000,1.000000,0.000000,0.000000,0.344718,0.902251,0.961747,0.000000,1.000000
15,0.000015,0.000000,0.799637,0.102084,0.598600,0.039805,0.030000,0.840634,0.000000,1.000000,0.000000,0.000000,0.344718,0.902251,0.967855,0.000000,0.000000
16,0.000015,0.000000,0.799637,0.102084,0.575626,0.000037,0.030000,0.840634,0.000000,1.000000,0.000000,0.000000,0.318361,0.902251,0.961747,0.000000,0.000000
17,0.000004,0.000000,0.727000,0.102084,0.575626,0.000037,0.030000,0.903667,0.000000,1.000000,0.000000,0.000000,0.318361,0.902251,0.961747,0.000000,0.000000
18,0.000000,0.000000,0.828856,0.080140,0.598600,0.146064,0.030000,0.827507,0.000000,1.000000,0.000000,0.000000,0.318361,0.902251,0.961747,0.000000,0.000000
gen, fitness
0,0.067934,0.000000,1.000000,0.210000,0.800000,0.030000,0.030000,1.000000,0.000000,1.000000,0.000000,0.000000,0.600000,1.000000,1.000000,0.000000,0.000000
1,0.067934,0.000000,1.000000,0.210000,0.800000,0.030000,0.030000,1.000000,0.000000,1.000000,0.000000,0.000000,0.600000,1.000000,1.000000,0.000000,0.000000
2,0.050606,0.000000,1.000000,0.210000,0.630975,0.030000,0.030000,0.914830,2.000000,1.000000,0.000000,0.000000,0.600000,1.000000,1.000000,0.000000,0.000000
3,0.046005,0.000000,1.000000,0.210000,0.630975,0.000000,0.030000,0.914830,0.000000,1.000000,0.000000,0.000000,0.583044,1.000000,1.000000,0.000000,0.000000
4,0.041575,0.000000,1.000000,0.210000,0.630975,0.030000,0.030000,0.852854,2.000000,1.000000,0.000000,0.000000,0.534802,1.000000,0.996936,0.000000,0.000000
5,0.036520,0.100923,1.000000,0.114478,0.647405,0.030000,0.030000,0.852854,2.000000,1.000000,0.000000,0.000000,0.534802,1.000000,0.996936,0.000000,0.000000
6,0.033250,0.000000,1.000000,0.210000,0.630975,0.000000,0.189626,0.875506,0.000000,1.000000,0.000000,0.000000,0.375534,1.000000,1.000000,0.000000,0.000000
7,0.033250,0.000000,1.000000,0.210000,0.630975,0.000000,0.189626,0.875506,0.000000,1.000000,0.000000,0.000000,0.375534,1.000000,1.000000,0.000000,0.000000
8,0.024946,0.000000,1.000000,0.210000,0.518791,0.000000,0.030000,1.000000,0.000000,1.000000,0.000000,0.000000,0.375534,1.000000,1.000000,0.000000,1.000000
9,0.020054,0.223662,1.000000,0.189201,0.518791,0.045977,0.189626,0.875506,0.000000,1.000000,0.000000,0.000000,0.375534,1.000000,1.000000,0.000000,0.000000
10,0.017422,0.000000,1.000000,0.000000,0.630975,0.000000,0.189626,0.875506,0.000000,1.000000,0.000000,0.000000,0.311254,1.000000,1.000000,0.000000,0.000000
11,0.016681,0.223662,1.000000,0.130588,0.487479,0.181694,0.030000,1.000000,0.000000,1.000000,0.000000,0.000000,0.375534,1.000000,1.000000,0.000000,0.000000
12,0.012746,0.223662,1.000000,0.075367,0.518791,0.045977,0.189626,0.875506,0.000000,0.932432,0.000000,0.038813,0.238873,0.893287,1.000000,0.000000,2.000000
13,0.012274,0.223662,0.944540,0.130588,0.487479,0.181694,0.030000,1.000000,0.000000,0.990764,0.281661,0.000000,0.213396,1.000000,1.000000,0.000000,0.000000
14,0.008634,0.223662,0.988268,0.075367,0.432689,0.000000,0.189626,0.846178,2.000000,1.000000,0.111693,0.000000,0.243839,0.945357,1.000000,0.038215,0.000000
15,0.007182,0.243950,1.000000,0.189201,0.347388,0.045977,0.030000,0.807492,0.000000,1.000000,0.000000,0.000000,0.214305,1.000000,1.000000,0.000000,1.000000
16,0.004858,0.223662,0.988268,0.075367,0.432689,0.000000,0.293739,0.846178,0.000000,1.000000,0.111693,0.000000,0.140797,1.000000,1.000000,0.000000,1.000000
17,0.004473,0.223662,0.988268,0.075367,0.432689,0.000000,0.151830,0.706083,2.000000,1.000000,0.281661,0.000000,0.089585,1.000000,1.000000,0.000000,2.000000
18,0.002186,0.223662,0.988268,0.075367,0.347388,0.045977,0.030000,0.741131,0.000000,0.990764,0.281661,0.000000,0.089585,1.000000,1.000000,0.000000,0.000000
19,0.000920,0.252760,0.988268,0.075367,0.298531,0.000000,0.056294,0.725936,2.000000,0.990764,0.281661,0.000000,0.027824,1.000000,1.000000,0.000000,0.000000
20,0.000471,0.365860,1.000000,0.075367,0.298531,0.000000,0.056294,0.725936,2.000000,0.990764,0.281661,0.000000,0.027824,1.000000,1.000000,0.000000,0.000000
21,0.000081,0.350424,0.835548,0.000000,0.336594,0.000000,0.056294,0.892171,0.000000,1.000000,0.111693,0.000000,0.000000,0.931926,1.000000,0.000000,1.000000
22,0.000066,0.350424,0.835548,0.000000,0.336594,0.000000,0.129879,0.892171,0.000000,1.000000,0.111693,0.000000,0.000000,1.000000,1.000000,0.000000,0.000000
23,0.000062,0.350424,0.835548,0.000000,0.336594,0.000000,0.056294,0.725936,0.000000,1.000000,0.111693,0.000000,0.000000,1.000000,1.000000,0.000000,0.000000
24,0.000045,0.443826,0.835548,0.000000,0.336594,0.000000,0.056294,0.684998,2.000000,1.000000,0.281661,0.000000,0.027824,1.000000,1.000000,0.000000,0.000000
25,0.000030,0.443826,0.835548,0.000000,0.336594,0.000000,0.056294,0.725936,1.000000,1.000000,0.281661,0.000000,0.027824,1.000000,1.000000,0.000000,0.000000
26,0.000024,0.443826,0.835548,0.000000,0.336594,0.000000,0.056294,0.725936,0.000000,1.000000,0.111693,0.000000,0.000000,1.000000,1.000000,0.119987,0.000000
27,0.000008,0.443826,0.835548,0.000000,0.317787,0.000000,0.056294,0.725936,1.000000,1.000000,0.281661,0.000000,0.000000,1.000000,1.000000,0.004441,0.000000
28,0.000002,0.443826,0.835548,0.000000,0.317787,0.000000,0.056294,0.725936,1.000000,1.000000,0.310737,0.000000,0.000000,1.000000,1.000000,0.004441,1.000000
29,0.000002,0.443826,0.835548,0.000000,0.317787,0.000000,0.056294,0.725936,1.000000,1.000000,0.310737,0.000000,0.000000,1.000000,1.000000,0.004441,1.000000
30,0.000001,0.443826,0.825948,0.000000,0.317787,0.000000,0.000000,0.725936,1.000000,1.000000,0.281661,0.000000,0.000000,1.000000,0.724277,0.058964,1.000000
31,0.000001,0.443826,0.835548,0.000000,0.317787,0.118343,0.056294,0.794049,0.000000,1.000000,0.111693,0.000000,0.000000,1.000000,1.000000,0.119987,0.000000
gen, fitness
0,0.030614,0.000000,1.000000,0.210000,0.800000,0.030000,0.030000,1.000000,0.000000,1.000000,0.000000,0.000000,0.600000,1.000000,1.000000,0.000000,0.000000
1,0.030614,0.000000,1.000000,0.210000,0.800000,0.030000,0.030000,1.000000,0.000000,1.000000,0.000000,0.000000,0.600000,1.000000,1.000000,0.000000,0.000000
2,0.015150,0.000000,1.000000,0.210000,0.692229,0.030000,0.030000,1.000000,0.000000,1.000000,0.000000,0.000000,0.600000,1.000000,1.000000,0.000000,0.000000
3,0.009844,0.000000,1.000000,0.210000,0.625685,0.120038,0.030000,0.942416,1.000000,1.000000,0.000000,0.000000,0.434656,1.000000,0.830566,0.000000,0.000000
4,0.007661,0.000000,1.000000,0.148577,0.625685,0.120038,0.030000,0.942416,1.000000,1.000000,0.000000,0.000000,0.434656,1.000000,0.830566,0.000000,0.000000
5,0.007661,0.000000,1.000000,0.148577,0.625685,0.120038,0.030000,0.942416,1.000000,1.000000,0.000000,0.000000,0.434656,1.000000,0.830566,0.000000,0.000000
6,0.007166,0.000000,1.000000,0.210000,0.555513,0.120038,0.030000,0.942416,1.000000,1.000000,0.000000,0.000000,0.434656,1.000000,0.830566,0.000000,0.000000
7,0.006797,0.000000,1.000000,0.000000,0.733361,0.030000,0.047684,0.722776,0.000000,1.000000,0.000000,0.000000,0.434656,1.000000,0.736146,0.000000,0.000000
8,0.006221,0.000000,1.000000,0.210000,0.555513,0.070003,0.030000,0.942416,1.000000,1.000000,0.000000,0.000000,0.373307,1.000000,0.830566,0.000000,0.000000
9,0.003435,0.041242,1.000000,0.027893,0.625685,0.120038,0.030000,0.942416,1.000000,1.000000,0.000000,0.000000,0.292380,1.000000,0.894394,0.000000,0.000000
10,0.002673,0.083577,1.000000,0.000000,0.625685,0.120038,0.030000,0.923563,1.000000,1.000000,0.000000,0.000000,0.292380,1.000000,0.894394,0.000000,0.000000
11,0.002673,0.083577,1.000000,0.000000,0.625685,0.120038,0.030000,0.923563,1.000000,1.000000,0.000000,0.000000,0.292380,1.000000,0.894394,0.000000,0.000000
12,0.002203,0.041242,1.000000,0.210000,0.419081,0.105829,0.000000,0.942416,1.000000,1.000000,0.000000,0.000000,0.257563,1.000000,0.844241,0.000000,0.000000
13,0.001500,0.163270,1.000000,0.027893,0.553471,0.091400,0.030000,0.863308,1.000000,1.000000,0.000000,0.000000,0.292380,1.000000,0.894394,0.000000,0.000000
14,0.001368,0.163270,1.000000,0.027893,0.553471,0.091400,0.030000,0.863308,1.000000,1.000000,0.000000,0.162388,0.077776,1.000000,0.894394,0.000000,1.000000
15,0.000961,0.163270,1.000000,0.000000,0.553471,0.091400,0.030000,0.863308,1.000000,1.000000,0.000000,0.000000,0.257563,1.000000,0.879051,0.000000,0.000000
16,0.000639,0.163270,0.954376,0.000000,0.553471,0.106784,0.000000,0.535631,1.000000,1.000000,0.000000,0.162388,0.077776,1.000000,0.894394,0.000000,0.000000
17,0.000545,0.208589,0.954376,0.000000,0.553471,0.106784,0.000000,0.535631,1.000000,1.000000,0.000000,0.162388,0.077776,1.000000,0.894394,0.000000,0.000000
18,0.000400,0.232803,1.000000,0.015998,0.515638,0.091400,0.000000,0.752774,0.000000,1.000000,0.000000,0.162388,0.068273,0.796151,0.844241,0.000000,0.000000
19,0.000168,0.265134,1.000000,0.000000,0.505148,0.106784,0.000000,0.535631,1.000000,1.000000,0.000000,0.162388,0.000000,1.000000,0.894394,0.000000,1.000000
20,0.000108,0.265134,1.000000,0.000000,0.505148,0.106784,0.000000,0.535631,0.000000,1.000000,0.000000,0.162388,0.000000,1.000000,0.894394,0.000000,1.000000
21,0.000086,0.208589,0.954376,0.000000,0.507045,0.106784,0.000000,0.535631,1.000000,1.000000,0.000000,0.096253,0.077776,1.000000,0.894394,0.000000,0.000000
22,0.000008,0.265134,1.000000,0.000000,0.477727,0.106784,0.000000,0.535631,1.000000,1.000000,0.000000,0.162388,0.000000,1.000000,0.894394,0.000000,1.000000
23,0.000002,0.307047,1.000000,0.000000,0.468487,0.106784,0.000000,0.535631,1.000000,1.000000,0.000000,0.162388,0.000000,1.000000,0.777923,0.000000,1.000000
24,0.000002,0.307047,1.000000,0.000000,0.468487,0.106784,0.000000,0.535631,1.000000,1.000000,0.000000,0.162388,0.000000,1.000000,0.777923,0.000000,1.000000
25,0.000002,0.307047,1.000000,0.000000,0.468487,0.106784,0.000000,0.535631,1.000000,1.000000,0.000000,0.162388,0.000000,1.000000,0.777923,0.000000,1.000000
26,0.000001,0.307047,1.000000,0.000000,0.468487,0.106784,0.000000,0.535631,1.000000,1.000000,0.000000,0.162388,0.000000,1.000000,0.777923,0.007416,1.000000
27,0.000001,0.307047,0.890363,0.000000,0.468487,0.106784,0.000000,0.488034,1.000000,1.000000,0.000000,0.162388,0.000000,1.000000,0.777923,0.007416,1.000000
gen, fitness
0,0.009712,0.000000,1.000000,0.210000,0.800000,0.030000,0.030000,1.000000,0.000000,1.000000,0.000000,0.000000,0.600000,1.000000,1.000000,0.000000,0.000000
1,0.009712,0.000000,1.000000,0.210000,0.800000,0.030000,0.030000,1.000000,0.000000,1.000000,0.000000,0.000000,0.600000,1.000000,1.000000,0.000000,0.000000
2,0.001465,0.000000,1.000000,0.210000,0.663802,0.030000,0.030000,1.000000,0.000000,1.000000,0.000000,0.039968,0.600000,1.000000,1.000000,0.000000,0.000000
3,0.000271,0.000000,1.000000,0.210000,0.680792,0.030000,0.082741,1.000000,0.000000,1.000000,0.000000,0.000000,0.600000,1.000000,1.000000,0.000000,0.000000
4,0.000260,0.000000,1.000000,0.210000,0.680792,0.030000,0.000000,1.000000,0.000000,1.000000,0.000000,0.000000,0.600000,1.000000,1.000000,0.000000,0.000000
5,0.000172,0.118050,1.000000,0.210000,0.625046,0.030000,0.082741,1.000000,2.000000,1.000000,0.000000,0.000000,0.549863,1.000000,0.920413,0.000000,0.000000
6,0.000107,0.000000,1.000000,0.210000,0.663802,0.143076,0.030000,1.000000,0.000000,0.980315,0.000000,0.000000,0.566548,1.000000,1.000000,0.000000,0.000000
7,0.000034,0.118050,1.000000,0.210000,0.625046,0.030000,0.082741,1.000000,2.000000,1.000000,0.000000,0.000000,0.571159,1.000000,1.000000,0.000000,0.000000
8,0.000030,0.000000,1.000000,0.210000,0.625046,0.030000,0.082741,1.000000,2.000000,1.000000,0.000000,0.000000,0.522376,1.000000,0.920413,0.010614,0.000000
9,0.000003,0.000000,1.000000,0.210000,0.625046,0.000000,0.082741,1.000000,0.000000,1.000000,0.000000,0.000000,0.522376,1.000000,0.920413,0.000000,0.000000
10,0.000003,0.000000,1.000000,0.210000,0.625046,0.000000,0.082741,1.000000,0.000000,1.000000,0.000000,0.000000,0.522376,1.000000,0.920413,0.000000,0.000000
11,0.000002,0.000000,1.000000,0.210000,0.625046,0.030000,0.082741,0.806930,2.000000,1.000000,0.000000,0.000000,0.522376,1.000000,0.920413,0.010614,0.000000
12,0.000001,0.000000,1.000000,0.210000,0.625046,0.030000,0.082741,0.806930,2.000000,1.000000,0.000000,0.000000,0.522376,1.000000,0.850555,0.000000,0.000000
13,0.000001,0.000000,1.000000,0.210000,0.625046,0.030000,0.082741,0.806930,2.000000,1.000000,0.000000,0.000000,0.522376,1.000000,0.850555,0.000000,0.000000
14,0.000001,0.000000,1.000000,0.210000,0.625046,0.000000,0.082741,0.806930,2.000000,1.000000,0.000000,0.000000,0.522376,0.902364,0.920413,0.000000,0.000000
15,0.000001,0.000000,1.000000,0.210000,0.625046,0.000000,0.082741,0.806930,2.000000,1.000000,0.000000,0.000000,0.522376,0.902364,0.920413,0.000000,0.000000
16,0.000001,0.000000,0.957469,0.210000,0.633749,0.036068,0.082741,0.620780,2.000000,1.000000,0.000000,0.000000,0.522376,1.000000,0.850555,0.000000,0.000000
gen, fitness
0,0.026348,0.000000,1.000000,0.210000,0.800000,0.030000,0.030000,1.000000,0.000000,1.000000,0.000000,0.000000,0.600000,1.000000,1.000000,0.000000,0.000000
1,0.026348,0.000000,1.000000,0.210000,0.800000,0.030000,0.030000,1.000000,0.000000,1.000000,0.000000,0.000000,0.600000,1.000000,1.000000,0.000000,0.000000
2,0.014589,0.000000,0.902188,0.210000,0.724720,0.030000,0.030000,1.000000,0.000000,1.000000,0.000000,0.000000,0.600000,1.000000,1.000000,0.000000,2.000000
3,0.014011,0.000000,1.000000,0.177959,0.741995,0.030000,0.086306,1.000000,0.000000,1.000000,0.000000,0.000000,0.600000,1.000000,1.000000,0.000000,0.000000
4,0.011263,0.000000,1.000000,0.113403,0.742143,0.030000,0.030000,1.000000,0.000000,1.000000,0.000000,0.000000,0.573613,1.000000,1.000000,0.020125,0.000000
5,0.010806,0.000000,1.000000,0.113403,0.742143,0.030000,0.030000,1.000000,0.000000,1.000000,0.000000,0.000000,0.487094,1.000000,1.000000,0.020125,0.000000
6,0.006727,0.000000,1.000000,0.177959,0.637337,0.030000,0.030000,1.000000,0.000000,1.000000,0.000000,0.000000,0.506688,1.000000,1.000000,0.000000,0.000000
7,0.005498,0.000000,1.000000,0.031751,0.742143,0.030000,0.086306,0.478503,0.000000,1.000000,0.000000,0.000000,0.489591,1.000000,0.719682,0.000000,0.000000
8,0.005498,0.000000,1.000000,0.031751,0.742143,0.030000,0.086306,0.478503,0.000000,1.000000,0.000000,0.000000,0.489591,1.000000,0.719682,0.000000,0.000000
9,0.004263,0.132527,0.985729,0.210000,0.604838,0.030000,0.086306,0.478503,0.000000,1.000000,0.000000,0.000000,0.489591,1.000000,0.719682,0.000000,0.000000
10,0.002393,0.000000,1.000000,0.031751,0.655201,0.030000,0.111189,0.478503,0.000000,0.855703,0.000000,0.000000,0.365690,1.000000,1.000000,0.000000,0.000000
11,0.002393,0.000000,1.000000,0.031751,0.655201,0.030000,0.111189,0.478503,0.000000,0.855703,0.000000,0.000000,0.365690,1.000000,1.000000,0.000000,0.000000
12,0.001634,0.083284,1.000000,0.031751,0.650992,0.000000,0.104903,0.442546,1.000000,1.000000,0.000000,0.000000,0.371845,0.993891,1.000000,0.000000,1.000000
13,0.001214,0.000000,1.000000,0.031751,0.550560,0.000000,0.111189,0.478503,0.000000,0.898438,0.000000,0.000000,0.291206,0.993891,1.000000,0.000000,0.000000
14,0.000830,0.083284,1.000000,0.031751,0.595701,0.000000,0.104903,0.442546,1.000000,0.898438,0.000000,0.000000,0.291206,0.993891,1.000000,0.000000,0.000000
15,0.000297,0.212461,1.000000,0.031751,0.550560,0.000000,0.111189,0.412643,0.000000,0.873528,0.000000,0.000000,0.324211,1.000000,1.000000,0.000000,0.000000
16,0.000276,0.212461,1.000000,0.036989,0.550560,0.000000,0.111189,0.412643,0.000000,0.898438,0.000000,0.000000,0.291206,0.993891,1.000000,0.000000,0.000000
17,0.000022,0.212461,1.000000,0.031751,0.550560,0.000000,0.111189,0.412643,0.000000,1.000000,0.000000,0.000000,0.269334,0.889182,1.000000,0.000000,2.000000
18,0.000022,0.212461,1.000000,0.031751,0.550560,0.000000,0.111189,0.412643,0.000000,1.000000,0.000000,0.000000,0.269334,0.889182,1.000000,0.000000,2.000000
19,0.000022,0.212461,1.000000,0.031751,0.550560,0.000000,0.111189,0.412643,0.000000,1.000000,0.000000,0.000000,0.269334,0.889182,1.000000,0.000000,2.000000
20,0.000015,0.212461,0.976457,0.000000,0.550560,0.000000,0.111189,0.366351,0.000000,0.898438,0.000000,0.000000,0.269334,0.889182,1.000000,0.000000,2.000000
21,0.000002,0.212461,0.914388,0.000000,0.550560,0.000000,0.111189,0.366351,2.000000,1.000000,0.026889,0.000000,0.234414,0.925836,1.000000,0.000000,2.000000
22,0.000002,0.212461,0.902381,0.000000,0.550560,0.000000,0.111189,0.366351,2.000000,1.000000,0.026889,0.000000,0.234414,0.925836,1.000000,0.000000,2.000000
23,0.000000,0.212461,0.902381,0.000000,0.550560,0.000000,0.111189,0.366351,2.000000,1.000000,0.026889,0.000000,0.234414,0.925836,0.852305,0.000000,1.000000
gen, fitness
0,0.052335,0.000000,1.000000,0.210000,0.800000,0.030000,0.030000,1.000000,0.000000,1.000000,0.000000,0.000000,0.600000,1.000000,1.000000,0.000000,0.000000
1,0.052335,0.000000,1.000000,0.210000,0.800000,0.030000,0.030000,1.000000,0.000000,1.000000,0.000000,0.000000,0.600000,1.000000,1.000000,0.000000,0.000000
2,0.032038,0.000000,1.000000,0.210000,0.645633,0.030000,0.030000,1.000000,0.000000,1.000000,0.000000,0.000000,0.600000,1.000000,1.000000,0.000000,0.000000
3,0.031654,0.009480,1.000000,0.210000,0.645633,0.030000,0.030000,1.000000,0.000000,1.000000,0.000000,0.000000,0.600000,1.000000,1.000000,0.000000,0.000000
4,0.022167,0.000000,1.000000,0.210000,0.645633,0.030000,0.030000,1.000000,0.000000,1.000000,0.000000,0.000000,0.428875,1.000000,1.000000,0.196429,1.000000
5,0.015793,0.000000,1.000000,0.091089,0.645633,0.030000,0.030000,1.000000,0.000000,1.000000,0.000000,0.000000,0.442539,1.000000,1.000000,0.000000,0.000000
6,0.012123,0.160567,0.923230,0.069205,0.634222,0.030000,0.030000,0.715092,0.000000,1.000000,0.008493,0.000000,0.460243,1.000000,1.000000,0.000000,0.000000
7,0.009548,0.160567,0.923230,0.069205,0.634222,0.030000,0.030000,0.715092,0.000000,1.000000,0.008493,0.000000,0.325965,0.959596,1.000000,0.019117,0.000000
8,0.009548,0.160567,0.923230,0.069205,0.634222,0.030000,0.030000,0.715092,0.000000,1.000000,0.008493,0.000000,0.325965,0.959596,1.000000,0.019117,0.000000
9,0.005546,0.216880,0.923230,0.034050,0.576630,0.099307,0.000000,1.000000,0.000000,1.000000,0.000000,0.000000,0.248353,1.000000,1.000000,0.196429,1.000000
10,0.002932,0.160567,0.923230,0.069205,0.496495,0.030000,0.030000,0.715092,0.000000,1.000000,0.000000,0.000000,0.228685,0.959596,1.000000,0.019117,0.000000
11,0.002606,0.278889,0.923230,0.034050,0.489385,0.099307,0.000000,1.000000,0.000000,1.000000,0.000000,0.000000,0.248353,1.000000,1.000000,0.200832,0.000000
12,0.002121,0.278889,0.923230,0.034050,0.432979,0.099307,0.000000,1.000000,0.000000,1.000000,0.000000,0.000000,0.248353,1.000000,1.000000,0.019117,0.000000
13,0.001376,0.278889,1.000000,0.000000,0.496495,0.030000,0.030000,0.715092,0.000000,1.000000,0.000000,0.000000,0.228685,0.959596,1.000000,0.000000,0.000000
14,0.001240,0.329362,0.903284,0.034050,0.432979,0.099307,0.000000,1.000000,0.000000,1.000000,0.000000,0.000000,0.228685,0.959596,0.927688,0.019117,0.000000
15,0.000801,0.329362,0.903284,0.034050,0.432979,0.099307,0.000000,0.942207,0.000000,1.000000,0.000000,0.000000,0.156070,1.000000,1.000000,0.200832,2.000000
16,0.000622,0.329362,0.884688,0.034050,0.419646,0.099307,0.000000,0.942207,0.000000,1.000000,0.000000,0.000000,0.156070,1.000000,1.000000,0.200832,0.000000
17,0.000326,0.325993,0.923230,0.069205,0.352162,0.030000,0.106895,0.666546,0.000000,0.935502,0.202412,0.000000,0.153587,0.959596,1.000000,0.022337,0.000000
18,0.000257,0.317718,0.923230,0.069205,0.352162,0.030000,0.106895,0.666546,0.000000,0.935502,0.000000,0.000000,0.136327,1.000000,1.000000,0.019117,0.000000
19,0.000184,0.400759,0.923230,0.034050,0.373438,0.099307,0.000000,1.000000,0.000000,1.000000,0.000000,0.000000,0.156070,1.000000,1.000000,0.000000,0.000000
20,0.000123,0.391621,0.923230,0.000000,0.352162,0.045555,0.019488,0.666546,1.000000,0.935502,0.000000,0.000000,0.136327,1.000000,1.000000,0.019117,0.000000
21,0.000123,0.391621,0.923230,0.000000,0.352162,0.045555,0.019488,0.666546,1.000000,0.935502,0.000000,0.000000,0.136327,1.000000,1.000000,0.019117,0.000000
22,0.000058,0.383259,0.999046,0.000000,0.373438,0.099307,0.000000,0.942207,0.000000,1.000000,0.000000,0.000000,0.136327,1.000000,1.000000,0.000000,0.000000
23,0.000045,0.329362,1.000000,0.000000,0.352162,0.093454,0.099566,0.666546,1.000000,0.935502,0.000000,0.000000,0.091675,1.000000,1.000000,0.003480,0.000000
24,0.000003,0.445080,0.923230,0.000000,0.352162,0.093454,0.019488,0.666546,1.000000,0.935502,0.000000,0.000000,0.136327,1.000000,1.000000,0.000000,0.000000
25,0.000000,0.435883,0.917707,0.000000,0.373438,0.099307,0.000000,0.850524,0.000000,1.000000,0.000000,0.000000,0.136327,1.000000,1.000000,0.000000,0.000000
gen, fitness
0,0.080636,0.000000,1.000000,0.210000,0.800000,0.030000,0.030000,1.000000,0.000000,1.000000,0.000000,0.000000,0.600000,1.000000,1.000000,0.000000,0.000000
1,0.080636,0.000000,1.000000,0.210000,0.800000,0.030000,0.030000,1.000000,0.000000,1.000000,0.000000,0.000000,0.600000,1.000000,1.000000,0.000000,0.000000
2,0.041430,0.000000,1.000000,0.210000,0.589107,0.030000,0.030000,1.000000,0.000000,1.000000,0.000000,0.000000,0.532085,0.843527,1.000000,0.000000,0.000000
3,0.041430,0.000000,1.000000,0.210000,0.589107,0.030000,0.030000,1.000000,0.000000,1.000000,0.000000,0.000000,0.532085,0.843527,1.000000,0.000000,0.000000
4,0.036381,0.000000,1.000000,0.210000,0.589107,0.030000,0.030000,1.000000,0.000000,1.000000,0.000000,0.000000,0.431575,1.000000,1.000000,0.000000,0.000000
5,0.032498,0.000000,1.000000,0.210000,0.487860,0.103437,0.030000,1.000000,0.000000,1.000000,0.000000,0.000000,0.444968,1.000000,1.000000,0.075376,0.000000
6,0.029968,0.000000,1.000000,0.050399,0.552280,0.030000,0.007338,1.000000,1.000000,0.794083,0.000000,0.000000,0.416607,0.833874,1.000000,0.036132,0.000000
7,0.024228,0.288856,1.000000,0.037984,0.589107,0.030000,0.030000,1.000000,0.000000,1.000000,0.000000,0.000000,0.456136,1.000000,1.000000,0.036132,0.000000
8,0.022866,0.288856,1.000000,0.037984,0.520210,0.030000,0.030000,0.959462,0.000000,1.000000,0.000000,0.000000,0.456136,1.000000,1.000000,0.036132,2.000000
9,0.018690,0.288856,1.000000,0.098275,0.393965,0.030000,0.030000,1.000000,2.000000,0.978014,0.000000,0.007180,0.380929,0.990886,1.000000,0.183550,0.000000
10,0.011780,0.288856,1.000000,0.037984,0.464396,0.000000,0.030000,1.000000,0.000000,1.000000,0.000000,0.000000,0.292642,1.000000,1.000000,0.036132,0.000000
11,0.010777,0.288856,1.000000,0.037984,0.464396,0.000000,0.030000,1.000000,0.000000,1.000000,0.000000,0.000000,0.252246,1.000000,1.000000,0.036132,0.000000
12,0.008250,0.288856,1.000000,0.000000,0.410499,0.000000,0.030000,1.000000,1.000000,1.000000,0.000000,0.000000,0.252246,1.000000,1.000000,0.036132,0.000000
13,0.008250,0.288856,1.000000,0.000000,0.410499,0.000000,0.030000,1.000000,1.000000,1.000000,0.000000,0.000000,0.252246,1.000000,1.000000,0.036132,0.000000
14,0.006852,0.255154,1.000000,0.037984,0.393386,0.000000,0.030000,1.000000,0.000000,1.000000,0.000000,0.000000,0.186387,1.000000,1.000000,0.000000,2.000000
15,0.005095,0.318168,1.000000,0.000000,0.410499,0.000000,0.030000,0.859215,0.000000,1.000000,0.000000,0.000000,0.178539,0.860306,1.000000,0.008962,1.000000
16,0.004926,0.196330,1.000000,0.000000,0.410499,0.000000,0.076990,0.994028,0.000000,1.000000,0.000000,0.000000,0.111197,1.000000,1.000000,0.000000,0.000000
17,0.003936,0.288856,0.856873,0.000000,0.393386,0.000000,0.069408,0.989971,0.000000,1.000000,0.000000,0.000000,0.077771,1.000000,1.000000,0.036132,0.000000
18,0.000993,0.334281,1.000000,0.000000,0.291384,0.181048,0.035364,1.000000,1.000000,1.000000,0.000000,0.000000,0.000000,1.000000,1.000000,0.037196,0.000000
19,0.000452,0.334281,1.000000,0.098275,0.138767,0.112014,0.000000,1.000000,1.000000,1.000000,0.000000,0.000000,0.000000,1.000000,1.000000,0.037196,0.000000
20,0.000452,0.334281,1.000000,0.098275,0.138767,0.112014,0.000000,1.000000,1.000000,1.000000,0.000000,0.000000,0.000000,1.000000,1.000000,0.037196,0.000000
21,0.000398,0.334281,1.000000,0.000000,0.248074,0.181048,0.035364,1.000000,1.000000,1.000000,0.000000,0.000000,0.000000,1.000000,1.000000,0.037196,0.000000
22,0.000039,0.449420,1.000000,0.000000,0.206796,0.181048,0.000000,1.000000,0.000000,1.000000,0.000000,0.000000,0.013667,1.000000,1.000000,0.036132,0.000000
23,0.000024,0.458052,1.000000,0.000000,0.206796,0.181048,0.000000,0.938778,1.000000,1.000000,0.000000,0.000000,0.000000,1.000000,1.000000,0.000000,0.000000
24,0.000005,0.465286,1.000000,0.000000,0.206796,0.181048,0.035364,0.815894,1.000000,1.000000,0.000000,0.000000,0.000000,0.865112,0.948849,0.016270,0.000000
25,0.000003,0.465286,1.000000,0.000000,0.206796,0.181048,0.035364,0.815894,0.000000,1.000000,0.000000,0.000000,0.000000,0.865112,0.854153,0.037196,0.000000
26,0.000001,0.458052,1.000000,0.000000,0.206796,0.181048,0.035364,0.815894,0.000000,1.000000,0.000000,0.000000,0.000000,0.865112,0.854153,0.000000,0.000000
27,0.000000,0.465286,1.000000,0.000000,0.206796,0.181048,0.035364,0.815894,0.000000,1.000000,0.000000,0.000000,0.000000,0.865112,0.854153,0.000000,0.000000
gen, fitness
0,0.025383,0.000000,1.000000,0.210000,0.800000,0.030000,0.030000,1.000000,0.000000,1.000000,0.000000,0.000000,0.600000,1.000000,1.000000,0.000000,0.000000
1,0.025383,0.000000,1.000000,0.210000,0.800000,0.030000,0.030000,1.000000,0.000000,1.000000,0.000000,0.000000,0.600000,1.000000,1.000000,0.000000,0.000000
2,0.012811,0.000000,1.000000,0.034257,0.800000,0.030000,0.030000,1.000000,0.000000,1.000000,0.000000,0.000000,0.600000,1.000000,1.000000,0.000000,0.000000
3,0.010669,0.000000,1.000000,0.210000,0.662106,0.030000,0.030000,0.790680,0.000000,1.000000,0.000000,0.000000,0.600000,1.000000,1.000000,0.000000,0.000000
4,0.008689,0.000000,1.000000,0.190390,0.649169,0.196402,0.030000,1.000000,0.000000,1.000000,0.000000,0.000000,0.546830,1.000000,0.912545,0.115452,0.000000
5,0.008689,0.000000,1.000000,0.190390,0.649169,0.196402,0.030000,1.000000,0.000000,1.000000,0.000000,0.000000,0.546830,1.000000,0.912545,0.115452,0.000000
6,0.004069,0.141536,1.000000,0.095076,0.649169,0.000000,0.030000,0.790680,0.000000,1.000000,0.047387,0.000000,0.443683,1.000000,1.000000,0.000000,0.000000
7,0.004069,0.141536,1.000000,0.095076,0.649169,0.000000,0.030000,0.790680,0.000000,1.000000,0.047387,0.000000,0.443683,1.000000,1.000000,0.000000,0.000000
8,0.002815,0.141536,1.000000,0.095076,0.559148,0.000000,0.030000,0.790680,0.000000,0.910627,0.000000,0.000000,0.407238,1.000000,1.000000,0.129741,1.000000
9,0.002587,0.141536,1.000000,0.095076,0.559148,0.000000,0.108069,0.923949,0.000000,0.910627,0.000000,0.000000,0.407238,1.000000,1.000000,0.000000,0.000000
10,0.002378,0.156760,1.000000,0.095076,0.553927,0.030000,0.107549,0.885974,0.000000,0.953630,0.000000,0.000000,0.407238,1.000000,0.999696,0.000000,0.000000
11,0.002175,0.141536,1.000000,0.095076,0.559148,0.000000,0.030000,0.790680,0.000000,0.910627,0.000000,0.000000,0.353673,1.000000,1.000000,0.000000,0.000000
12,0.001337,0.342738,1.000000,0.028992,0.560828,0.000000,0.115419,0.711040,2.000000,1.000000,0.000000,0.000000,0.387334,1.000000,0.998100,0.210211,0.000000
13,0.001094,0.342738,1.000000,0.028992,0.553927,0.030000,0.107549,0.838999,0.000000,0.991113,0.000000,0.000000,0.407238,1.000000,0.999696,0.000000,0.000000
14,0.000972,0.342738,1.000000,0.123855,0.457736,0.000000,0.030000,0.749784,0.000000,0.882676,0.047387,0.000000,0.387334,1.000000,0.999696,0.000000,0.000000
15,0.000856,0.342738,1.000000,0.028992,0.533153,0.078674,0.059941,0.656812,1.000000,0.890797,0.000000,0.000000,0.335083,1.000000,0.998100,0.210211,0.000000
16,0.000654,0.342738,1.000000,0.123855,0.457736,0.000000,0.030000,0.710221,2.000000,1.000000,0.000000,0.000000,0.338117,1.000000,1.000000,0.000000,2.000000
17,0.000292,0.342738,1.000000,0.018333,0.511774,0.000000,0.115419,0.711040,2.000000,1.000000,0.000000,0.000000,0.293885,1.000000,0.998100,0.210211,0.000000
18,0.000141,0.342738,1.000000,0.018333,0.499427,0.143618,0.115419,0.711040,1.000000,1.000000,0.000000,0.049846,0.172151,1.000000,1.000000,0.210211,0.000000
19,0.000060,0.342738,1.000000,0.018333,0.499427,0.143618,0.115419,0.710221,0.000000,1.000000,0.159198,0.000000,0.278983,1.000000,0.950681,0.000000,2.000000
20,0.000060,0.342738,1.000000,0.018333,0.499427,0.143618,0.115419,0.710221,0.000000,1.000000,0.159198,0.000000,0.278983,1.000000,0.950681,0.000000,2.000000
21,0.000012,0.342738,1.000000,0.018333,0.499427,0.143618,0.115419,0.556340,0.000000,1.000000,0.000000,0.049846,0.172151,1.000000,1.000000,0.210211,2.000000
22,0.000012,0.413272,1.000000,0.018333,0.486231,0.143618,0.200032,0.710221,0.000000,1.000000,0.206094,0.000000,0.278983,0.973200,0.950681,0.000000,2.000000
23,0.000001,0.342738,1.000000,0.018333,0.499427,0.143618,0.000000,0.445370,0.000000,1.000000,0.000000,0.049846,0.202268,1.000000,1.000000,0.000000,2.000000
