gen, fitness
0,0.027983,0.000000,1.000000,0.210000,0.800000,0.030000,0.030000,1.000000,0.000000,1.000000,0.000000,0.000000,0.600000,1.000000,1.000000,0.000000,0.000000
1,0.027983,0.000000,1.000000,0.210000,0.800000,0.030000,0.030000,1.000000,0.000000,1.000000,0.000000,0.000000,0.600000,1.000000,1.000000,0.000000,0.000000
2,0.007274,0.063933,1.000000,0.339743,0.800000,0.030000,0.000000,0.854602,1.000000,1.000000,0.110046,0.091940,0.756719,1.000000,0.968204,0.105273,1.000000
3,0.004408,0.000000,1.000000,0.150731,0.916564,0.181878,0.030242,0.903220,1.000000,0.857313,0.060489,0.221068,0.889533,0.946550,1.000000,0.180824,1.000000
4,0.004408,0.000000,1.000000,0.150731,0.916564,0.181878,0.030242,0.903220,1.000000,0.857313,0.060489,0.221068,0.889533,0.946550,1.000000,0.180824,1.000000
5,0.001362,0.158189,1.000000,0.050380,1.000000,0.000000,0.001716,0.814420,0.000000,0.699133,0.060489,0.221068,1.000000,1.000000,0.765942,0.000000,1.000000
6,0.001362,0.158189,1.000000,0.050380,1.000000,0.000000,0.001716,0.814420,0.000000,0.699133,0.060489,0.221068,1.000000,1.000000,0.765942,0.000000,1.000000
7,0.000883,0.000000,1.000000,0.091436,1.000000,0.000000,0.001716,0.719469,2.000000,0.684039,0.110611,0.308120,1.000000,1.000000,0.672790,0.000000,1.000000
8,0.000850,0.001393,0.967457,0.178897,1.000000,0.000000,0.118217,0.566376,2.000000,0.684039,0.277461,0.308120,1.000000,1.000000,0.729240,0.352504,0.000000
9,0.000709,0.000000,0.875889,0.080882,1.000000,0.000000,0.043630,0.763627,0.000000,0.474827,0.114789,0.212053,1.000000,1.000000,1.000000,0.149292,2.000000
10,0.000495,0.000000,0.887195,0.219401,1.000000,0.079279,0.000000,1.000000,2.000000,0.760814,0.099993,0.289750,1.000000,0.909242,0.672790,0.026577,2.000000
11,0.000495,0.000000,0.887195,0.219401,1.000000,0.079279,0.000000,1.000000,2.000000,0.760814,0.099993,0.289750,1.000000,0.909242,0.672790,0.026577,2.000000
12,0.000410,0.000000,0.955843,0.204457,1.000000,0.000000,0.001716,0.868546,2.000000,0.579699,0.168516,0.479314,1.000000,1.000000,0.659039,0.031869,2.000000
13,0.000410,0.000000,0.955843,0.204457,1.000000,0.000000,0.001716,0.868546,2.000000,0.579699,0.168516,0.479314,1.000000,1.000000,0.659039,0.031869,2.000000
14,0.000410,0.000000,0.955843,0.204457,1.000000,0.000000,0.001716,0.868546,2.000000,0.579699,0.168516,0.479314,1.000000,1.000000,0.659039,0.031869,2.000000
15,0.000410,0.000000,0.955843,0.204457,1.000000,0.000000,0.001716,0.868546,2.000000,0.579699,0.168516,0.479314,1.000000,1.000000,0.659039,0.031869,2.000000
16,0.000356,0.026352,0.696715,0.380080,1.000000,0.000000,0.137515,1.000000,2.000000,0.664258,0.000000,0.742456,1.000000,1.000000,1.000000,0.320671,1.000000
17,0.000207,0.000000,0.835845,0.380936,1.000000,0.000000,0.185973,0.953486,2.000000,0.555612,0.000000,0.905477,1.000000,1.000000,1.000000,0.550972,2.000000
18,0.000207,0.000000,0.835845,0.380936,1.000000,0.000000,0.185973,0.953486,2.000000,0.555612,0.000000,0.905477,1.000000,1.000000,1.000000,0.550972,2.000000
19,0.000176,0.000000,1.000000,0.377795,1.000000,0.022037,0.000000,0.908017,2.000000,0.489234,0.339528,0.983470,1.000000,0.785188,0.981034,0.609824,2.000000
20,0.000176,0.000000,1.000000,0.377795,1.000000,0.022037,0.000000,0.908017,2.000000,0.489234,0.339528,0.983470,1.000000,0.785188,0.981034,0.609824,2.000000
21,0.000176,0.000000,1.000000,0.377795,1.000000,0.022037,0.000000,0.908017,2.000000,0.489234,0.339528,0.983470,1.000000,0.785188,0.981034,0.609824,2.000000
22,0.000176,0.000000,1.000000,0.377795,1.000000,0.022037,0.000000,0.908017,2.000000,0.489234,0.339528,0.983470,1.000000,0.785188,0.981034,0.609824,2.000000
23,0.000176,0.000000,1.000000,0.377795,1.000000,0.022037,0.000000,0.908017,2.000000,0.489234,0.339528,0.983470,1.000000,0.785188,0.981034,0.609824,2.000000
24,0.000176,0.000000,1.000000,0.377795,1.000000,0.022037,0.000000,0.908017,2.000000,0.489234,0.339528,0.983470,1.000000,0.785188,0.981034,0.609824,2.000000
25,0.000158,0.000000,0.994066,0.380936,1.000000,0.060930,0.229068,0.958035,2.000000,0.434318,0.000000,1.000000,1.000000,1.000000,1.000000,0.593892,2.000000
26,0.000158,0.000000,0.994066,0.380936,1.000000,0.060930,0.229068,0.958035,2.000000,0.434318,0.000000,1.000000,1.000000,1.000000,1.000000,0.593892,2.000000
27,0.000158,0.000000,0.994066,0.380936,1.000000,0.060930,0.229068,0.958035,2.000000,0.434318,0.000000,1.000000,1.000000,1.000000,1.000000,0.593892,2.000000
28,0.000158,0.000000,0.994066,0.380936,1.000000,0.060930,0.229068,0.958035,2.000000,0.434318,0.000000,1.000000,1.000000,1.000000,1.000000,0.593892,2.000000
29,0.000158,0.000000,0.994066,0.380936,1.000000,0.060930,0.229068,0.958035,2.000000,0.434318,0.000000,1.000000,1.000000,1.000000,1.000000,0.593892,2.000000
30,0.000158,0.000000,0.994066,0.380936,1.000000,0.060930,0.229068,0.958035,2.000000,0.434318,0.000000,1.000000,1.000000,1.000000,1.000000,0.593892,2.000000
31,0.000158,0.000000,0.994066,0.380936,1.000000,0.060930,0.229068,0.958035,2.000000,0.434318,0.000000,1.000000,1.000000,1.000000,1.000000,0.593892,2.000000
32,0.000158,0.000000,0.994066,0.380936,1.000000,0.060930,0.229068,0.958035,2.000000,0.434318,0.000000,1.000000,1.000000,1.000000,1.000000,0.593892,2.000000
33,0.000158,0.000000,0.994066,0.380936,1.000000,0.060930,0.229068,0.958035,2.000000,0.434318,0.000000,1.000000,1.000000,1.000000,1.000000,0.593892,2.000000
34,0.000145,0.000000,1.000000,0.354803,1.000000,0.066135,0.260047,1.000000,2.000000,0.350151,0.000000,1.000000,1.000000,0.947705,0.942886,0.643230,2.000000
35,0.000145,0.000000,1.000000,0.354803,1.000000,0.066135,0.260047,1.000000,2.000000,0.350151,0.000000,1.000000,1.000000,0.947705,0.942886,0.643230,2.000000
36,0.000145,0.000000,1.000000,0.354803,1.000000,0.066135,0.260047,1.000000,2.000000,0.350151,0.000000,1.000000,1.000000,0.947705,0.942886,0.643230,2.000000
37,0.000145,0.000000,1.000000,0.354803,1.000000,0.066135,0.260047,1.000000,2.000000,0.350151,0.000000,1.000000,1.000000,0.947705,0.942886,0.643230,2.000000
38,0.000145,0.000000,1.000000,0.354803,1.000000,0.066135,0.260047,1.000000,2.000000,0.350151,0.000000,1.000000,1.000000,0.947705,0.942886,0.643230,2.000000
39,0.000145,0.000000,1.000000,0.354803,1.000000,0.066135,0.260047,1.000000,2.000000,0.350151,0.000000,1.000000,1.000000,0.947705,0.942886,0.643230,2.000000
40,0.000145,0.000000,1.000000,0.354803,1.000000,0.066135,0.260047,1.000000,2.000000,0.350151,0.000000,1.000000,1.000000,0.947705,0.942886,0.643230,2.000000
41,0.000145,0.000000,1.000000,0.354803,1.000000,0.066135,0.260047,1.000000,2.000000,0.350151,0.000000,1.000000,1.000000,0.947705,0.942886,0.643230,2.000000
42,0.000145,0.000000,1.000000,0.354803,1.000000,0.066135,0.260047,1.000000,2.000000,0.350151,0.000000,1.000000,1.000000,0.947705,0.942886,0.643230,2.000000
43,0.000145,0.000000,1.000000,0.354803,1.000000,0.066135,0.260047,1.000000,2.000000,0.350151,0.000000,1.000000,1.000000,0.947705,0.942886,0.643230,2.000000
44,0.000145,0.000000,1.000000,0.354803,1.000000,0.066135,0.260047,1.000000,2.000000,0.350151,0.000000,1.000000,1.000000,0.947705,0.942886,0.643230,2.000000
gen, fitness
0,0.112030,0.000000,1.000000,0.210000,0.800000,0.030000,0.030000,1.000000,0.000000,1.000000,0.000000,0.000000,0.600000,1.000000,1.000000,0.000000,0.000000
1,0.112030,0.000000,1.000000,0.210000,0.800000,0.030000,0.030000,1.000000,0.000000,1.000000,0.000000,0.000000,0.600000,1.000000,1.000000,0.000000,0.000000
2,0.083359,0.000000,0.911431,0.250438,0.800000,0.030000,0.030000,1.000000,0.000000,0.873777,0.022448,0.182562,0.805462,0.890015,1.000000,0.000000,0.000000
3,0.058938,0.000000,1.000000,0.312557,0.891199,0.004515,0.000000,1.000000,2.000000,0.804140,0.000000,0.100510,0.849556,1.000000,1.000000,0.131142,2.000000
4,0.058938,0.000000,1.000000,0.312557,0.891199,0.004515,0.000000,1.000000,2.000000,0.804140,0.000000,0.100510,0.849556,1.000000,1.000000,0.131142,2.000000
5,0.048082,0.047258,0.999820,0.312557,0.968857,0.049478,0.138446,1.000000,1.000000,0.705926,0.000000,0.158385,0.998174,0.827806,0.906299,0.023045,1.000000
6,0.039460,0.132031,0.908796,0.341769,1.000000,0.119870,0.031002,0.846029,2.000000,1.000000,0.000000,0.382433,1.000000,0.933029,0.974915,0.009889,2.000000
7,0.039460,0.132031,0.908796,0.341769,1.000000,0.119870,0.031002,0.846029,2.000000,1.000000,0.000000,0.382433,1.000000,0.933029,0.974915,0.009889,2.000000
8,0.037590,0.000000,1.000000,0.311174,0.993310,0.024844,0.228497,0.946648,2.000000,0.984595,0.132728,0.915446,0.879176,0.964534,0.973544,0.238621,2.000000
9,0.035613,0.059562,1.000000,0.295402,1.000000,0.349097,0.175836,1.000000,1.000000,0.969500,0.000000,0.954106,0.923686,1.000000,0.795436,0.170887,2.000000
10,0.034508,0.085598,0.912040,0.236097,1.000000,0.052928,0.000000,0.904349,2.000000,1.000000,0.200215,0.921332,0.952394,0.976109,0.880378,0.082793,2.000000
11,0.034479,0.041863,0.885131,0.305296,1.000000,0.300097,0.104340,0.957569,2.000000,0.790659,0.203871,0.910507,1.000000,0.923616,0.978213,0.141058,2.000000
12,0.032930,0.000000,1.000000,0.444332,1.000000,0.085583,0.228497,0.872178,2.000000,0.787498,0.162624,0.994758,1.000000,1.000000,0.907722,0.231853,2.000000
13,0.032930,0.000000,1.000000,0.444332,1.000000,0.085583,0.228497,0.872178,2.000000,0.787498,0.162624,0.994758,1.000000,1.000000,0.907722,0.231853,2.000000
14,0.032930,0.000000,1.000000,0.444332,1.000000,0.085583,0.228497,0.872178,2.000000,0.787498,0.162624,0.994758,1.000000,1.000000,0.907722,0.231853,2.000000
15,0.032827,0.303555,0.981897,0.488912,1.000000,0.011997,0.037226,1.000000,2.000000,0.969854,0.000000,1.000000,0.984719,1.000000,0.832526,0.370515,2.000000
16,0.032628,0.128992,0.732100,0.621444,0.997563,0.255656,0.073032,0.878253,2.000000,0.730572,0.065430,0.976198,1.000000,1.000000,1.000000,0.471687,2.000000
17,0.032298,0.000000,0.959016,0.488912,1.000000,0.030987,0.037226,1.000000,2.000000,0.969854,0.000000,1.000000,0.984719,1.000000,0.853822,0.375446,2.000000
18,0.032298,0.000000,0.959016,0.488912,1.000000,0.030987,0.037226,1.000000,2.000000,0.969854,0.000000,1.000000,0.984719,1.000000,0.853822,0.375446,2.000000
19,0.032298,0.000000,0.959016,0.488912,1.000000,0.030987,0.037226,1.000000,2.000000,0.969854,0.000000,1.000000,0.984719,1.000000,0.853822,0.375446,2.000000
20,0.032298,0.000000,0.959016,0.488912,1.000000,0.030987,0.037226,1.000000,2.000000,0.969854,0.000000,1.000000,0.984719,1.000000,0.853822,0.375446,2.000000
21,0.032298,0.000000,0.959016,0.488912,1.000000,0.030987,0.037226,1.000000,2.000000,0.969854,0.000000,1.000000,0.984719,1.000000,0.853822,0.375446,2.000000
22,0.032081,0.072499,0.929358,0.598458,0.996110,0.129012,0.000000,1.000000,2.000000,1.000000,0.000000,1.000000,0.984345,1.000000,0.845627,0.584110,2.000000
23,0.032000,0.000000,1.000000,0.722574,1.000000,0.165663,0.000000,0.938635,2.000000,0.808622,0.059437,1.000000,1.000000,0.936402,1.000000,0.271567,2.000000
24,0.031188,0.000000,1.000000,0.671425,1.000000,0.106587,0.085168,1.000000,2.000000,0.783135,0.086579,1.000000,1.000000,1.000000,0.953258,0.614620,2.000000
25,0.031188,0.000000,1.000000,0.671425,1.000000,0.106587,0.085168,1.000000,2.000000,0.783135,0.086579,1.000000,1.000000,1.000000,0.953258,0.614620,2.000000
26,0.031188,0.000000,1.000000,0.671425,1.000000,0.106587,0.085168,1.000000,2.000000,0.783135,0.086579,1.000000,1.000000,1.000000,0.953258,0.614620,2.000000
27,0.031188,0.000000,1.000000,0.671425,1.000000,0.106587,0.085168,1.000000,2.000000,0.783135,0.086579,1.000000,1.000000,1.000000,0.953258,0.614620,2.000000
28,0.031188,0.000000,1.000000,0.671425,1.000000,0.106587,0.085168,1.000000,2.000000,0.783135,0.086579,1.000000,1.000000,1.000000,0.953258,0.614620,2.000000
29,0.031188,0.000000,1.000000,0.671425,1.000000,0.106587,0.085168,1.000000,2.000000,0.783135,0.086579,1.000000,1.000000,1.000000,0.953258,0.614620,2.000000
30,0.031188,0.000000,1.000000,0.671425,1.000000,0.106587,0.085168,1.000000,2.000000,0.783135,0.086579,1.000000,1.000000,1.000000,0.953258,0.614620,2.000000
31,0.031188,0.000000,1.000000,0.671425,1.000000,0.106587,0.085168,1.000000,2.000000,0.783135,0.086579,1.000000,1.000000,1.000000,0.953258,0.614620,2.000000
32,0.031188,0.000000,1.000000,0.671425,1.000000,0.106587,0.085168,1.000000,2.000000,0.783135,0.086579,1.000000,1.000000,1.000000,0.953258,0.614620,2.000000
33,0.031188,0.000000,1.000000,0.671425,1.000000,0.106587,0.085168,1.000000,2.000000,0.783135,0.086579,1.000000,1.000000,1.000000,0.953258,0.614620,2.000000
34,0.031188,0.000000,1.000000,0.671425,1.000000,0.106587,0.085168,1.000000,2.000000,0.783135,0.086579,1.000000,1.000000,1.000000,0.953258,0.614620,2.000000
gen, fitness
0,0.128870,0.000000,1.000000,0.210000,0.800000,0.030000,0.030000,1.000000,0.000000,1.000000,0.000000,0.000000,0.600000,1.000000,1.000000,0.000000,0.000000
1,0.128870,0.000000,1.000000,0.210000,0.800000,0.030000,0.030000,1.000000,0.000000,1.000000,0.000000,0.000000,0.600000,1.000000,1.000000,0.000000,0.000000
2,0.096458,0.000000,0.989087,0.134239,0.863140,0.000000,0.068007,1.000000,1.000000,0.898233,0.000000,0.041275,0.775740,1.000000,0.955309,0.000000,0.000000
3,0.084949,0.000000,0.980056,0.199908,0.881785,0.122156,0.105476,0.672419,2.000000,0.850087,0.000000,0.158042,0.817219,0.935114,1.000000,0.000000,2.000000
4,0.082363,0.088787,1.000000,0.117975,0.960925,0.000000,0.000000,1.000000,0.000000,0.929480,0.029434,0.041275,0.879979,1.000000,1.000000,0.110075,1.000000
5,0.070720,0.000000,0.890926,0.158992,1.000000,0.000000,0.077774,1.000000,2.000000,0.943181,0.000000,0.111270,0.955039,0.866095,0.982941,0.002205,0.000000
6,0.063473,0.117664,0.884995,0.661203,1.000000,0.036045,0.037696,0.862212,1.000000,1.000000,0.414615,0.184434,1.000000,1.000000,1.000000,0.103379,2.000000
7,0.063441,0.000000,1.000000,0.532330,1.000000,0.060415,0.043588,1.000000,0.000000,0.744287,0.153425,0.297080,1.000000,0.931407,1.000000,0.021577,2.000000
8,0.063300,0.000000,0.794233,0.713983,1.000000,0.000000,0.015367,0.924005,1.000000,1.000000,0.153455,0.092618,0.999181,0.824349,1.000000,0.000000,2.000000
9,0.061335,0.000000,0.668331,0.797866,1.000000,0.099055,0.023703,0.858159,2.000000,0.887789,0.258067,0.242465,1.000000,0.905371,0.995866,0.155325,2.000000
10,0.061300,0.000000,0.854504,0.856646,0.997918,0.001766,0.000000,0.876278,1.000000,0.953590,0.000000,0.333108,1.000000,1.000000,0.879552,0.000000,2.000000
11,0.061300,0.000000,0.854504,0.856646,0.997918,0.001766,0.000000,0.876278,1.000000,0.953590,0.000000,0.333108,1.000000,1.000000,0.879552,0.000000,2.000000
12,0.059726,0.052064,0.932396,1.000000,1.000000,0.004573,0.281629,0.974518,2.000000,0.439633,0.350709,0.664629,0.999230,0.543732,1.000000,0.084558,0.000000
13,0.059286,0.067032,0.978873,1.000000,0.940222,0.004573,0.473264,0.954272,2.000000,0.260906,0.346020,0.702487,0.984941,0.501364,1.000000,0.217921,2.000000
14,0.059068,0.000000,0.990961,1.000000,0.968873,0.004573,0.565779,1.000000,1.000000,0.260906,0.124868,0.745234,1.000000,0.385056,1.000000,0.219507,1.000000
15,0.057386,0.000000,1.000000,1.000000,0.980567,0.002875,0.631322,0.955343,2.000000,0.272205,0.164867,0.693161,1.000000,0.493987,1.000000,0.372928,2.000000
16,0.057386,0.000000,1.000000,1.000000,0.980567,0.002875,0.631322,0.955343,2.000000,0.272205,0.164867,0.693161,1.000000,0.493987,1.000000,0.372928,2.000000
17,0.057386,0.000000,1.000000,1.000000,0.980567,0.002875,0.631322,0.955343,2.000000,0.272205,0.164867,0.693161,1.000000,0.493987,1.000000,0.372928,2.000000
18,0.057386,0.000000,1.000000,1.000000,0.980567,0.002875,0.631322,0.955343,2.000000,0.272205,0.164867,0.693161,1.000000,0.493987,1.000000,0.372928,2.000000
19,0.057386,0.000000,1.000000,1.000000,0.980567,0.002875,0.631322,0.955343,2.000000,0.272205,0.164867,0.693161,1.000000,0.493987,1.000000,0.372928,2.000000
20,0.057386,0.000000,1.000000,1.000000,0.980567,0.002875,0.631322,0.955343,2.000000,0.272205,0.164867,0.693161,1.000000,0.493987,1.000000,0.372928,2.000000
21,0.057386,0.000000,1.000000,1.000000,0.980567,0.002875,0.631322,0.955343,2.000000,0.272205,0.164867,0.693161,1.000000,0.493987,1.000000,0.372928,2.000000
22,0.056864,0.000000,0.859007,1.000000,0.986145,0.000000,0.679510,0.955343,2.000000,0.109837,0.000000,0.693161,1.000000,0.537073,0.651681,0.244589,2.000000
23,0.056864,0.000000,0.859007,1.000000,0.986145,0.000000,0.679510,0.955343,2.000000,0.109837,0.000000,0.693161,1.000000,0.537073,0.651681,0.244589,2.000000
24,0.056864,0.000000,0.859007,1.000000,0.986145,0.000000,0.679510,0.955343,2.000000,0.109837,0.000000,0.693161,1.000000,0.537073,0.651681,0.244589,2.000000
25,0.056864,0.000000,0.859007,1.000000,0.986145,0.000000,0.679510,0.955343,2.000000,0.109837,0.000000,0.693161,1.000000,0.537073,0.651681,0.244589,2.000000
26,0.056864,0.000000,0.859007,1.000000,0.986145,0.000000,0.679510,0.955343,2.000000,0.109837,0.000000,0.693161,1.000000,0.537073,0.651681,0.244589,2.000000
27,0.056864,0.000000,0.859007,1.000000,0.986145,0.000000,0.679510,0.955343,2.000000,0.109837,0.000000,0.693161,1.000000,0.537073,0.651681,0.244589,2.000000
28,0.056559,0.000000,0.916230,0.977741,1.000000,0.199530,0.160925,0.911369,2.000000,0.190744,0.066841,0.924525,1.000000,0.608477,0.405689,0.632985,2.000000
29,0.056559,0.000000,0.916230,0.977741,1.000000,0.199530,0.160925,0.911369,2.000000,0.190744,0.066841,0.924525,1.000000,0.608477,0.405689,0.632985,2.000000
30,0.056559,0.000000,0.916230,0.977741,1.000000,0.199530,0.160925,0.911369,2.000000,0.190744,0.066841,0.924525,1.000000,0.608477,0.405689,0.632985,2.000000
31,0.056559,0.000000,0.916230,0.977741,1.000000,0.199530,0.160925,0.911369,2.000000,0.190744,0.066841,0.924525,1.000000,0.608477,0.405689,0.632985,2.000000
32,0.056331,0.000000,0.904201,0.887748,0.999275,0.001440,0.734963,0.978056,2.000000,0.228472,0.000000,0.911185,1.000000,0.357147,0.310254,0.425832,2.000000
33,0.055871,0.000000,0.851374,0.987378,1.000000,0.147327,0.604816,1.000000,2.000000,0.335962,0.122039,1.000000,1.000000,0.586075,0.160106,0.494180,2.000000
34,0.055871,0.000000,0.851374,0.987378,1.000000,0.147327,0.604816,1.000000,2.000000,0.335962,0.122039,1.000000,1.000000,0.586075,0.160106,0.494180,2.000000
35,0.055758,0.000000,0.663230,1.000000,1.000000,0.013231,0.648472,0.958106,2.000000,0.239973,0.165717,1.000000,1.000000,0.581239,0.244735,0.640378,2.000000
36,0.055758,0.000000,0.663230,1.000000,1.000000,0.013231,0.648472,0.958106,2.000000,0.239973,0.165717,1.000000,1.000000,0.581239,0.244735,0.640378,2.000000
37,0.055758,0.000000,0.663230,1.000000,1.000000,0.013231,0.648472,0.958106,2.000000,0.239973,0.165717,1.000000,1.000000,0.581239,0.244735,0.640378,2.000000
38,0.055543,0.000000,1.000000,0.972980,0.972953,0.179274,0.593232,0.984355,2.000000,0.045366,0.003840,1.000000,1.000000,0.562039,0.275379,0.518470,2.000000
39,0.055543,0.000000,1.000000,0.972980,0.972953,0.179274,0.593232,0.984355,2.000000,0.045366,0.003840,1.000000,1.000000,0.562039,0.275379,0.518470,2.000000
40,0.055543,0.000000,1.000000,0.972980,0.972953,0.179274,0.593232,0.984355,2.000000,0.045366,0.003840,1.000000,1.000000,0.562039,0.275379,0.518470,2.000000
41,0.055543,0.000000,1.000000,0.972980,0.972953,0.179274,0.593232,0.984355,2.000000,0.045366,0.003840,1.000000,1.000000,0.562039,0.275379,0.518470,2.000000
42,0.055543,0.000000,1.000000,0.972980,0.972953,0.179274,0.593232,0.984355,2.000000,0.045366,0.003840,1.000000,1.000000,0.562039,0.275379,0.518470,2.000000
43,0.055472,0.000000,0.706125,1.000000,1.000000,0.000000,0.452631,1.000000,2.000000,0.068230,0.156971,1.000000,1.000000,0.502835,0.002434,0.798512,1.000000
44,0.055472,0.000000,0.706125,1.000000,1.000000,0.000000,0.452631,1.000000,2.000000,0.068230,0.156971,1.000000,1.000000,0.502835,0.002434,0.798512,1.000000
45,0.055472,0.000000,0.706125,1.000000,1.000000,0.000000,0.452631,1.000000,2.000000,0.068230,0.156971,1.000000,1.000000,0.502835,0.002434,0.798512,1.000000
46,0.055472,0.000000,0.706125,1.000000,1.000000,0.000000,0.452631,1.000000,2.000000,0.068230,0.156971,1.000000,1.000000,0.502835,0.002434,0.798512,1.000000
47,0.055472,0.000000,0.706125,1.000000,1.000000,0.000000,0.452631,1.000000,2.000000,0.068230,0.156971,1.000000,1.000000,0.502835,0.002434,0.798512,1.000000
48,0.055423,0.000000,0.947434,1.000000,1.000000,0.120298,0.558925,0.959335,2.000000,0.202510,0.000000,0.995461,1.000000,0.374432,0.000000,0.710916,2.000000
49,0.055393,0.017891,0.947556,1.000000,1.000000,0.000000,0.409156,0.940012,2.000000,0.159355,0.000000,0.964665,1.000000,0.506831,0.015122,0.856359,2.000000
50,0.055393,0.017891,0.947556,1.000000,1.000000,0.000000,0.409156,0.940012,2.000000,0.159355,0.000000,0.964665,1.000000,0.506831,0.015122,0.856359,2.000000
51,0.055393,0.017891,0.947556,1.000000,1.000000,0.000000,0.409156,0.940012,2.000000,0.159355,0.000000,0.964665,1.000000,0.506831,0.015122,0.856359,2.000000
52,0.055393,0.017891,0.947556,1.000000,1.000000,0.000000,0.409156,0.940012,2.000000,0.159355,0.000000,0.964665,1.000000,0.506831,0.015122,0.856359,2.000000
53,0.055258,0.000000,0.780646,0.969477,1.000000,0.055057,0.513396,1.000000,2.000000,0.407582,0.156532,1.000000,1.000000,0.304998,0.000000,0.968893,2.000000
54,0.055258,0.000000,0.780646,0.969477,1.000000,0.055057,0.513396,1.000000,2.000000,0.407582,0.156532,1.000000,1.000000,0.304998,0.000000,0.968893,2.000000
55,0.055242,0.000000,0.412111,0.901751,1.000000,0.149215,0.309133,1.000000,2.000000,0.171264,0.204857,1.000000,1.000000,0.605404,0.011777,0.930385,2.000000
56,0.055135,0.000000,0.870197,1.000000,0.977442,0.135117,0.751867,1.000000,2.000000,0.098971,0.000000,1.000000,1.000000,0.439222,0.043595,0.934917,1.000000
57,0.055135,0.000000,0.870197,1.000000,0.977442,0.135117,0.751867,1.000000,2.000000,0.098971,0.000000,1.000000,1.000000,0.439222,0.043595,0.934917,1.000000
58,0.055085,0.052413,0.973630,1.000000,0.984734,0.033699,0.725579,1.000000,2.000000,0.000000,0.005699,0.997859,1.000000,0.365672,0.000000,0.689374,1.000000
59,0.055085,0.052413,0.973630,1.000000,0.984734,0.033699,0.725579,1.000000,2.000000,0.000000,0.005699,0.997859,1.000000,0.365672,0.000000,0.689374,1.000000
60,0.054895,0.007765,0.610241,0.933067,0.972048,0.109261,0.000000,0.957376,2.000000,0.000000,0.384525,1.000000,1.000000,0.672188,0.032835,1.000000,2.000000
61,0.054851,0.015131,0.938863,0.988719,1.000000,0.000000,0.962940,1.000000,2.000000,0.018212,0.078545,1.000000,1.000000,0.806160,0.000000,0.875308,2.000000
62,0.054851,0.015131,0.938863,0.988719,1.000000,0.000000,0.962940,1.000000,2.000000,0.018212,0.078545,1.000000,1.000000,0.806160,0.000000,0.875308,2.000000
63,0.054851,0.015131,0.938863,0.988719,1.000000,0.000000,0.962940,1.000000,2.000000,0.018212,0.078545,1.000000,1.000000,0.806160,0.000000,0.875308,2.000000
64,0.054851,0.015131,0.938863,0.988719,1.000000,0.000000,0.962940,1.000000,2.000000,0.018212,0.078545,1.000000,1.000000,0.806160,0.000000,0.875308,2.000000
65,0.054851,0.015131,0.938863,0.988719,1.000000,0.000000,0.962940,1.000000,2.000000,0.018212,0.078545,1.000000,1.000000,0.806160,0.000000,0.875308,2.000000
66,0.054851,0.015131,0.938863,0.988719,1.000000,0.000000,0.962940,1.000000,2.000000,0.018212,0.078545,1.000000,1.000000,0.806160,0.000000,0.875308,2.000000
67,0.054851,0.015131,0.938863,0.988719,1.000000,0.000000,0.962940,1.000000,2.000000,0.018212,0.078545,1.000000,1.000000,0.806160,0.000000,0.875308,2.000000
68,0.054851,0.015131,0.938863,0.988719,1.000000,0.000000,0.962940,1.000000,2.000000,0.018212,0.078545,1.000000,1.000000,0.806160,0.000000,0.875308,2.000000
69,0.054851,0.015131,0.938863,0.988719,1.000000,0.000000,0.962940,1.000000,2.000000,0.018212,0.078545,1.000000,1.000000,0.806160,0.000000,0.875308,2.000000
70,0.054851,0.015131,0.938863,0.988719,1.000000,0.000000,0.962940,1.000000,2.000000,0.018212,0.078545,1.000000,1.000000,0.806160,0.000000,0.875308,2.000000
71,0.054851,0.015131,0.938863,0.988719,1.000000,0.000000,0.962940,1.000000,2.000000,0.018212,0.078545,1.000000,1.000000,0.806160,0.000000,0.875308,2.000000
gen, fitness
0,0.032491,0.000000,1.000000,0.210000,0.800000,0.030000,0.030000,1.000000,0.000000,1.000000,0.000000,0.000000,0.600000,1.000000,1.000000,0.000000,0.000000
1,0.032491,0.000000,1.000000,0.210000,0.800000,0.030000,0.030000,1.000000,0.000000,1.000000,0.000000,0.000000,0.600000,1.000000,1.000000,0.000000,0.000000
2,0.014535,0.000000,1.000000,0.210000,0.865471,0.030000,0.000000,1.000000,1.000000,1.000000,0.000000,0.090869,0.736005,0.872968,1.000000,0.000000,1.000000
3,0.011998,0.000000,1.000000,0.294063,0.859902,0.043713,0.000000,1.000000,2.000000,0.983418,0.000000,0.000000,0.792067,0.985822,1.000000,0.000000,1.000000
4,0.006727,0.000000,0.920510,0.320094,0.936728,0.000000,0.067297,0.977839,1.000000,0.916648,0.000000,0.000000,0.918303,0.872102,0.818514,0.186207,2.000000
5,0.006727,0.000000,0.920510,0.320094,0.936728,0.000000,0.067297,0.977839,1.000000,0.916648,0.000000,0.000000,0.918303,0.872102,0.818514,0.186207,2.000000
6,0.006062,0.000000,0.980468,0.320094,1.000000,0.000000,0.000000,1.000000,1.000000,0.892036,0.105943,0.255781,0.918303,0.887719,0.818514,0.144452,1.000000
7,0.004169,0.076570,1.000000,0.394620,0.972826,0.000000,0.192570,0.701821,2.000000,0.715615,0.096057,0.000000,0.989178,0.765354,1.000000,0.068892,2.000000
8,0.003765,0.015833,0.999541,0.725734,1.000000,0.491660,0.135846,0.928508,0.000000,0.879149,0.000000,0.244003,1.000000,0.623337,1.000000,0.021523,0.000000
9,0.002317,0.127427,0.980468,0.774316,1.000000,0.000738,0.000000,1.000000,2.000000,0.897405,0.000000,0.474059,1.000000,0.971570,1.000000,0.164638,2.000000
10,0.002317,0.127427,0.980468,0.774316,1.000000,0.000738,0.000000,1.000000,2.000000,0.897405,0.000000,0.474059,1.000000,0.971570,1.000000,0.164638,2.000000
11,0.002317,0.127427,0.980468,0.774316,1.000000,0.000738,0.000000,1.000000,2.000000,0.897405,0.000000,0.474059,1.000000,0.971570,1.000000,0.164638,2.000000
12,0.002317,0.127427,0.980468,0.774316,1.000000,0.000738,0.000000,1.000000,2.000000,0.897405,0.000000,0.474059,1.000000,0.971570,1.000000,0.164638,2.000000
13,0.002317,0.127427,0.980468,0.774316,1.000000,0.000738,0.000000,1.000000,2.000000,0.897405,0.000000,0.474059,1.000000,0.971570,1.000000,0.164638,2.000000
14,0.002117,0.137193,0.897806,0.911345,1.000000,0.000000,0.136187,0.980378,2.000000,0.700169,0.000000,0.594379,1.000000,0.810982,0.715452,0.117611,2.000000
15,0.001897,0.000000,0.945674,1.000000,1.000000,0.000000,0.000000,0.980378,2.000000,0.704521,0.081877,0.613709,1.000000,0.858805,0.572387,0.252396,2.000000
16,0.001897,0.000000,0.945674,1.000000,1.000000,0.000000,0.000000,0.980378,2.000000,0.704521,0.081877,0.613709,1.000000,0.858805,0.572387,0.252396,2.000000
17,0.001897,0.000000,0.945674,1.000000,1.000000,0.000000,0.000000,0.980378,2.000000,0.704521,0.081877,0.613709,1.000000,0.858805,0.572387,0.252396,2.000000
18,0.001897,0.000000,0.945674,1.000000,1.000000,0.000000,0.000000,0.980378,2.000000,0.704521,0.081877,0.613709,1.000000,0.858805,0.572387,0.252396,2.000000
19,0.001813,0.007144,0.981015,1.000000,1.000000,0.049356,0.033917,1.000000,2.000000,0.646995,0.090609,0.661425,1.000000,0.758021,0.376042,0.432905,2.000000
20,0.001813,0.007144,0.981015,1.000000,1.000000,0.049356,0.033917,1.000000,2.000000,0.646995,0.090609,0.661425,1.000000,0.758021,0.376042,0.432905,2.000000
21,0.001792,0.031209,0.885743,0.887968,0.997989,0.092218,0.060011,1.000000,2.000000,0.569982,0.222567,0.829849,1.000000,0.593549,0.758988,0.407450,2.000000
22,0.001781,0.076905,0.754100,1.000000,1.000000,0.049216,0.187144,0.927237,2.000000,0.567944,0.200433,0.952852,1.000000,1.000000,0.754486,0.293817,2.000000
23,0.001781,0.076905,0.754100,1.000000,1.000000,0.049216,0.187144,0.927237,2.000000,0.567944,0.200433,0.952852,1.000000,1.000000,0.754486,0.293817,2.000000
24,0.001781,0.076905,0.754100,1.000000,1.000000,0.049216,0.187144,0.927237,2.000000,0.567944,0.200433,0.952852,1.000000,1.000000,0.754486,0.293817,2.000000
25,0.001781,0.076905,0.754100,1.000000,1.000000,0.049216,0.187144,0.927237,2.000000,0.567944,0.200433,0.952852,1.000000,1.000000,0.754486,0.293817,2.000000
26,0.001781,0.076905,0.754100,1.000000,1.000000,0.049216,0.187144,0.927237,2.000000,0.567944,0.200433,0.952852,1.000000,1.000000,0.754486,0.293817,2.000000
27,0.001710,0.000000,0.776332,1.000000,0.998459,0.102579,0.055006,0.938487,2.000000,0.534578,0.200433,0.887047,1.000000,0.915504,0.653337,0.370778,2.000000
28,0.001678,0.000000,1.000000,1.000000,1.000000,0.117462,0.000000,0.968626,2.000000,0.522096,0.077554,0.834486,1.000000,0.826313,0.350732,0.432905,2.000000
29,0.001678,0.000000,1.000000,1.000000,1.000000,0.117462,0.000000,0.968626,2.000000,0.522096,0.077554,0.834486,1.000000,0.826313,0.350732,0.432905,2.000000
30,0.001678,0.000000,1.000000,1.000000,1.000000,0.117462,0.000000,0.968626,2.000000,0.522096,0.077554,0.834486,1.000000,0.826313,0.350732,0.432905,2.000000
31,0.001669,0.037489,0.754100,1.000000,1.000000,0.007389,0.202622,0.911775,2.000000,0.567944,0.132358,0.952852,1.000000,0.864907,0.367341,0.368818,2.000000
32,0.001669,0.037489,0.754100,1.000000,1.000000,0.007389,0.202622,0.911775,2.000000,0.567944,0.132358,0.952852,1.000000,0.864907,0.367341,0.368818,2.000000
33,0.001669,0.037489,0.754100,1.000000,1.000000,0.007389,0.202622,0.911775,2.000000,0.567944,0.132358,0.952852,1.000000,0.864907,0.367341,0.368818,2.000000
34,0.001669,0.037489,0.754100,1.000000,1.000000,0.007389,0.202622,0.911775,2.000000,0.567944,0.132358,0.952852,1.000000,0.864907,0.367341,0.368818,2.000000
35,0.001669,0.037489,0.754100,1.000000,1.000000,0.007389,0.202622,0.911775,2.000000,0.567944,0.132358,0.952852,1.000000,0.864907,0.367341,0.368818,2.000000
36,0.001669,0.037489,0.754100,1.000000,1.000000,0.007389,0.202622,0.911775,2.000000,0.567944,0.132358,0.952852,1.000000,0.864907,0.367341,0.368818,2.000000
37,0.001669,0.037489,0.754100,1.000000,1.000000,0.007389,0.202622,0.911775,2.000000,0.567944,0.132358,0.952852,1.000000,0.864907,0.367341,0.368818,2.000000
38,0.001647,0.000000,0.460835,1.000000,1.000000,0.196483,0.430441,0.941728,2.000000,0.572927,0.435346,1.000000,1.000000,0.875833,0.289715,0.830963,2.000000
39,0.001647,0.000000,0.460835,1.000000,1.000000,0.196483,0.430441,0.941728,2.000000,0.572927,0.435346,1.000000,1.000000,0.875833,0.289715,0.830963,2.000000
40,0.001647,0.000000,0.460835,1.000000,1.000000,0.196483,0.430441,0.941728,2.000000,0.572927,0.435346,1.000000,1.000000,0.875833,0.289715,0.830963,2.000000
41,0.001647,0.000000,0.460835,1.000000,1.000000,0.196483,0.430441,0.941728,2.000000,0.572927,0.435346,1.000000,1.000000,0.875833,0.289715,0.830963,2.000000
42,0.001647,0.000000,0.460835,1.000000,1.000000,0.196483,0.430441,0.941728,2.000000,0.572927,0.435346,1.000000,1.000000,0.875833,0.289715,0.830963,2.000000
43,0.001647,0.000000,0.460835,1.000000,1.000000,0.196483,0.430441,0.941728,2.000000,0.572927,0.435346,1.000000,1.000000,0.875833,0.289715,0.830963,2.000000
44,0.001644,0.000000,0.545737,1.000000,1.000000,0.316321,0.000000,1.000000,2.000000,0.549911,0.045424,1.000000,0.998988,1.000000,0.664443,0.427539,2.000000
45,0.001644,0.000000,0.545737,1.000000,1.000000,0.316321,0.000000,1.000000,2.000000,0.549911,0.045424,1.000000,0.998988,1.000000,0.664443,0.427539,2.000000
46,0.001644,0.000000,0.545737,1.000000,1.000000,0.316321,0.000000,1.000000,2.000000,0.549911,0.045424,1.000000,0.998988,1.000000,0.664443,0.427539,2.000000
47,0.001640,0.000000,0.858471,1.000000,1.000000,0.076565,0.161741,0.923349,2.000000,0.406682,0.060545,0.977282,1.000000,0.957235,0.412527,0.037742,2.000000
48,0.001640,0.000000,0.858471,1.000000,1.000000,0.076565,0.161741,0.923349,2.000000,0.406682,0.060545,0.977282,1.000000,0.957235,0.412527,0.037742,2.000000
gen, fitness
0,0.074963,0.000000,1.000000,0.210000,0.800000,0.030000,0.030000,1.000000,0.000000,1.000000,0.000000,0.000000,0.600000,1.000000,1.000000,0.000000,0.000000
1,0.074963,0.000000,1.000000,0.210000,0.800000,0.030000,0.030000,1.000000,0.000000,1.000000,0.000000,0.000000,0.600000,1.000000,1.000000,0.000000,0.000000
2,0.053546,0.000000,0.995077,0.260024,0.800000,0.030000,0.000000,1.000000,1.000000,1.000000,0.000000,0.045470,0.722312,0.996366,1.000000,0.000000,1.000000
3,0.037421,0.052563,1.000000,0.283689,0.910071,0.061385,0.000000,1.000000,0.000000,1.000000,0.000000,0.034133,0.833578,0.993465,0.940273,0.000000,2.000000
4,0.032049,0.000000,0.835146,0.226307,0.948315,0.144972,0.032959,0.949323,1.000000,0.960868,0.086754,0.035050,0.881870,0.880220,0.979316,0.098849,1.000000
5,0.026540,0.161999,0.673836,0.127627,1.000000,0.110023,0.009342,0.810577,2.000000,1.000000,0.049821,0.000000,0.985155,0.790818,0.862165,0.057523,0.000000
6,0.023161,0.000000,0.900078,0.207866,0.994866,0.019868,0.000000,1.000000,0.000000,0.628457,0.000000,0.062493,1.000000,1.000000,0.920145,0.137248,1.000000
7,0.019243,0.082518,0.658798,0.586424,1.000000,0.028918,0.075868,0.761841,2.000000,1.000000,0.000000,0.110599,0.998850,0.665296,0.862165,0.095857,1.000000
8,0.018490,0.000000,0.712712,0.551592,1.000000,0.028918,0.014587,0.639506,2.000000,0.580632,0.000000,0.117207,1.000000,1.000000,0.692425,0.026122,1.000000
9,0.018228,0.000000,0.795242,0.543009,0.980173,0.117697,0.060739,0.946753,1.000000,0.504805,0.074645,0.000000,1.000000,1.000000,0.925432,0.141195,2.000000
10,0.017327,0.000000,0.445398,0.563273,0.980173,0.073107,0.046496,0.995931,2.000000,0.661040,0.049046,0.029930,1.000000,1.000000,0.780142,0.067780,2.000000
11,0.016163,0.105450,0.676911,0.652951,0.958888,0.185088,0.045591,0.435469,2.000000,0.298081,0.168297,0.194852,1.000000,0.884114,0.808942,0.036952,2.000000
12,0.015989,0.054359,0.516225,0.756191,1.000000,0.000000,0.002934,1.000000,1.000000,0.683136,0.000000,0.357763,1.000000,0.861241,1.000000,0.000000,1.000000
13,0.015539,0.000000,0.837655,0.634553,0.957602,0.000000,0.196890,0.863043,2.000000,0.307872,0.165913,0.221120,1.000000,0.988232,0.786847,0.237395,0.000000
14,0.013010,0.209961,0.653988,0.959552,0.944693,0.000000,0.000000,0.939889,2.000000,0.250149,0.100162,0.391376,1.000000,1.000000,0.947744,0.135983,1.000000
15,0.013010,0.209961,0.653988,0.959552,0.944693,0.000000,0.000000,0.939889,2.000000,0.250149,0.100162,0.391376,1.000000,1.000000,0.947744,0.135983,1.000000
16,0.013010,0.209961,0.653988,0.959552,0.944693,0.000000,0.000000,0.939889,2.000000,0.250149,0.100162,0.391376,1.000000,1.000000,0.947744,0.135983,1.000000
17,0.013010,0.209961,0.653988,0.959552,0.944693,0.000000,0.000000,0.939889,2.000000,0.250149,0.100162,0.391376,1.000000,1.000000,0.947744,0.135983,1.000000
18,0.012785,0.177249,0.571511,1.000000,0.961704,0.000000,0.025694,0.917530,2.000000,0.383655,0.197409,0.375588,1.000000,0.691996,0.244131,0.016359,1.000000
19,0.012560,0.314682,0.762920,1.000000,0.944693,0.000000,0.000000,0.988495,2.000000,0.250149,0.000000,0.492090,1.000000,1.000000,0.950522,0.251466,0.000000
20,0.012393,0.065897,0.739409,1.000000,0.965691,0.000000,0.000000,0.953026,2.000000,0.149351,0.388464,0.490169,1.000000,0.863719,0.764566,0.185723,0.000000
21,0.012393,0.065897,0.739409,1.000000,0.965691,0.000000,0.000000,0.953026,2.000000,0.149351,0.388464,0.490169,1.000000,0.863719,0.764566,0.185723,0.000000
22,0.012303,0.087437,0.818737,0.961185,0.944693,0.032144,0.053501,0.701853,2.000000,0.000000,0.000000,0.612178,1.000000,0.913922,0.772611,0.048044,1.000000
23,0.012107,0.248061,0.815384,0.985435,0.968539,0.074971,0.053501,0.567386,2.000000,0.080015,0.000000,0.756704,1.000000,0.913922,0.708125,0.000000,2.000000
24,0.012107,0.248061,0.815384,0.985435,0.968539,0.074971,0.053501,0.567386,2.000000,0.080015,0.000000,0.756704,1.000000,0.913922,0.708125,0.000000,2.000000
25,0.012107,0.248061,0.815384,0.985435,0.968539,0.074971,0.053501,0.567386,2.000000,0.080015,0.000000,0.756704,1.000000,0.913922,0.708125,0.000000,2.000000
26,0.011677,0.023982,0.771654,1.000000,0.972466,0.000000,0.231317,1.000000,2.000000,0.169479,0.090796,0.726916,1.000000,0.983959,0.713024,0.000000,0.000000
27,0.011677,0.023982,0.771654,1.000000,0.972466,0.000000,0.231317,1.000000,2.000000,0.169479,0.090796,0.726916,1.000000,0.983959,0.713024,0.000000,0.000000
28,0.011677,0.023982,0.771654,1.000000,0.972466,0.000000,0.231317,1.000000,2.000000,0.169479,0.090796,0.726916,1.000000,0.983959,0.713024,0.000000,0.000000
29,0.011677,0.023982,0.771654,1.000000,0.972466,0.000000,0.231317,1.000000,2.000000,0.169479,0.090796,0.726916,1.000000,0.983959,0.713024,0.000000,0.000000
30,0.011677,0.023982,0.771654,1.000000,0.972466,0.000000,0.231317,1.000000,2.000000,0.169479,0.090796,0.726916,1.000000,0.983959,0.713024,0.000000,0.000000
31,0.011677,0.023982,0.771654,1.000000,0.972466,0.000000,0.231317,1.000000,2.000000,0.169479,0.090796,0.726916,1.000000,0.983959,0.713024,0.000000,0.000000
32,0.011391,0.000000,0.694755,1.000000,0.970527,0.372670,0.203635,0.918703,2.000000,0.133199,0.000000,0.760640,1.000000,0.992368,0.380893,0.490185,1.000000
33,0.011391,0.000000,0.694755,1.000000,0.970527,0.372670,0.203635,0.918703,2.000000,0.133199,0.000000,0.760640,1.000000,0.992368,0.380893,0.490185,1.000000
34,0.011391,0.000000,0.694755,1.000000,0.970527,0.372670,0.203635,0.918703,2.000000,0.133199,0.000000,0.760640,1.000000,0.992368,0.380893,0.490185,1.000000
35,0.011391,0.000000,0.694755,1.000000,0.970527,0.372670,0.203635,0.918703,2.000000,0.133199,0.000000,0.760640,1.000000,0.992368,0.380893,0.490185,1.000000
36,0.011391,0.000000,0.694755,1.000000,0.970527,0.372670,0.203635,0.918703,2.000000,0.133199,0.000000,0.760640,1.000000,0.992368,0.380893,0.490185,1.000000
37,0.011089,0.054707,0.460344,1.000000,0.967887,0.112772,0.372307,1.000000,2.000000,0.000000,0.291616,0.809782,1.000000,0.858521,0.531958,0.087440,1.000000
38,0.011089,0.054707,0.460344,1.000000,0.967887,0.112772,0.372307,1.000000,2.000000,0.000000,0.291616,0.809782,1.000000,0.858521,0.531958,0.087440,1.000000
39,0.010910,0.110826,0.750200,1.000000,0.967887,0.000000,0.433987,1.000000,2.000000,0.000000,0.000000,0.760640,1.000000,0.990650,0.380893,0.477417,0.000000
40,0.010910,0.110826,0.750200,1.000000,0.967887,0.000000,0.433987,1.000000,2.000000,0.000000,0.000000,0.760640,1.000000,0.990650,0.380893,0.477417,0.000000
41,0.010816,0.110826,0.770276,1.000000,0.967887,0.000000,0.431914,0.944290,2.000000,0.000000,0.125113,0.823983,1.000000,1.000000,0.334568,0.342400,2.000000
42,0.010816,0.110826,0.770276,1.000000,0.967887,0.000000,0.431914,0.944290,2.000000,0.000000,0.125113,0.823983,1.000000,1.000000,0.334568,0.342400,2.000000
43,0.010816,0.110826,0.770276,1.000000,0.967887,0.000000,0.431914,0.944290,2.000000,0.000000,0.125113,0.823983,1.000000,1.000000,0.334568,0.342400,2.000000
44,0.010816,0.110826,0.770276,1.000000,0.967887,0.000000,0.431914,0.944290,2.000000,0.000000,0.125113,0.823983,1.000000,1.000000,0.334568,0.342400,2.000000
45,0.010803,0.128105,0.758120,1.000000,0.983702,0.000000,0.579569,1.000000,2.000000,0.000000,0.173667,0.926350,1.000000,1.000000,0.329130,0.402876,2.000000
46,0.010803,0.128105,0.758120,1.000000,0.983702,0.000000,0.579569,1.000000,2.000000,0.000000,0.173667,0.926350,1.000000,1.000000,0.329130,0.402876,2.000000
47,0.010803,0.128105,0.758120,1.000000,0.983702,0.000000,0.579569,1.000000,2.000000,0.000000,0.173667,0.926350,1.000000,1.000000,0.329130,0.402876,2.000000
48,0.010803,0.128105,0.758120,1.000000,0.983702,0.000000,0.579569,1.000000,2.000000,0.000000,0.173667,0.926350,1.000000,1.000000,0.329130,0.402876,2.000000
49,0.010803,0.128105,0.758120,1.000000,0.983702,0.000000,0.579569,1.000000,2.000000,0.000000,0.173667,0.926350,1.000000,1.000000,0.329130,0.402876,2.000000
50,0.010803,0.128105,0.758120,1.000000,0.983702,0.000000,0.579569,1.000000,2.000000,0.000000,0.173667,0.926350,1.000000,1.000000,0.329130,0.402876,2.000000
51,0.010766,0.000000,0.926396,1.000000,0.970880,0.025912,0.428395,0.942452,2.000000,0.000000,0.000000,0.796654,1.000000,0.595699,0.075670,0.255457,2.000000
52,0.010766,0.000000,0.926396,1.000000,0.970880,0.025912,0.428395,0.942452,2.000000,0.000000,0.000000,0.796654,1.000000,0.595699,0.075670,0.255457,2.000000
53,0.010668,0.000000,0.926396,1.000000,0.967887,0.000000,0.433987,1.000000,2.000000,0.000000,0.038212,0.919722,1.000000,1.000000,0.380893,0.476963,2.000000
54,0.010668,0.000000,0.926396,1.000000,0.967887,0.000000,0.433987,1.000000,2.000000,0.000000,0.038212,0.919722,1.000000,1.000000,0.380893,0.476963,2.000000
55,0.010668,0.000000,0.926396,1.000000,0.967887,0.000000,0.433987,1.000000,2.000000,0.000000,0.038212,0.919722,1.000000,1.000000,0.380893,0.476963,2.000000
56,0.010668,0.000000,0.926396,1.000000,0.967887,0.000000,0.433987,1.000000,2.000000,0.000000,0.038212,0.919722,1.000000,1.000000,0.380893,0.476963,2.000000
57,0.010668,0.000000,0.926396,1.000000,0.967887,0.000000,0.433987,1.000000,2.000000,0.000000,0.038212,0.919722,1.000000,1.000000,0.380893,0.476963,2.000000
58,0.010668,0.000000,0.926396,1.000000,0.967887,0.000000,0.433987,1.000000,2.000000,0.000000,0.038212,0.919722,1.000000,1.000000,0.380893,0.476963,2.000000
59,0.010668,0.000000,0.926396,1.000000,0.967887,0.000000,0.433987,1.000000,2.000000,0.000000,0.038212,0.919722,1.000000,1.000000,0.380893,0.476963,2.000000
60,0.010668,0.000000,0.926396,1.000000,0.967887,0.000000,0.433987,1.000000,2.000000,0.000000,0.038212,0.919722,1.000000,1.000000,0.380893,0.476963,2.000000
61,0.010668,0.000000,0.926396,1.000000,0.967887,0.000000,0.433987,1.000000,2.000000,0.000000,0.038212,0.919722,1.000000,1.000000,0.380893,0.476963,2.000000
62,0.010668,0.000000,0.926396,1.000000,0.967887,0.000000,0.433987,1.000000,2.000000,0.000000,0.038212,0.919722,1.000000,1.000000,0.380893,0.476963,2.000000
63,0.010668,0.000000,0.926396,1.000000,0.967887,0.000000,0.433987,1.000000,2.000000,0.000000,0.038212,0.919722,1.000000,1.000000,0.380893,0.476963,2.000000
gen, fitness
0,0.169504,0.000000,1.000000,0.210000,0.800000,0.030000,0.030000,1.000000,0.000000,1.000000,0.000000,0.000000,0.600000,1.000000,1.000000,0.000000,0.000000
1,0.169504,0.000000,1.000000,0.210000,0.800000,0.030000,0.030000,1.000000,0.000000,1.000000,0.000000,0.000000,0.600000,1.000000,1.000000,0.000000,0.000000
2,0.122252,0.000000,1.000000,0.232800,0.862856,0.000000,0.000000,1.000000,1.000000,0.779404,0.032400,0.000000,0.826742,0.974360,0.981215,0.131433,0.000000
3,0.097958,0.000000,0.891688,0.193097,0.920460,0.103375,0.000000,0.992935,1.000000,0.779404,0.032400,0.059157,0.943552,0.672496,1.000000,0.000000,0.000000
4,0.089288,0.054211,0.909779,0.201809,0.935389,0.113562,0.000000,0.948413,2.000000,0.747042,0.289903,0.059157,0.984399,0.602382,0.904669,0.062210,2.000000
5,0.078364,0.000000,0.851080,0.000000,1.000000,0.278626,0.000000,0.992935,0.000000,1.000000,0.088147,0.000000,1.000000,1.000000,0.890777,0.000000,1.000000
6,0.076658,0.007840,0.845480,0.021432,1.000000,0.385393,0.000000,0.846632,0.000000,0.822606,0.042548,0.070995,1.000000,0.699426,0.983200,0.000000,2.000000
7,0.075479,0.000000,1.000000,0.045729,1.000000,0.230435,0.117070,1.000000,2.000000,0.949696,0.082785,0.021949,1.000000,1.000000,0.979250,0.065793,2.000000
8,0.073883,0.051394,0.835606,0.000000,1.000000,0.269505,0.067048,1.000000,0.000000,1.000000,0.266629,0.200147,0.985615,1.000000,0.921064,0.242375,1.000000
9,0.069405,0.000000,0.820221,0.000000,1.000000,0.090372,0.078821,0.918077,2.000000,0.990338,0.084053,0.416506,1.000000,0.514354,1.000000,0.023200,1.000000
10,0.069405,0.000000,0.820221,0.000000,1.000000,0.090372,0.078821,0.918077,2.000000,0.990338,0.084053,0.416506,1.000000,0.514354,1.000000,0.023200,1.000000
11,0.068550,0.000000,0.761172,0.000000,1.000000,0.384588,0.067048,0.951875,2.000000,0.962172,0.084053,0.348595,0.993146,0.507408,1.000000,0.000000,2.000000
12,0.062474,0.062626,1.000000,0.008497,1.000000,0.000000,0.357016,0.967981,2.000000,0.986956,0.084053,0.780613,0.944391,0.766373,1.000000,0.090718,2.000000
13,0.062474,0.062626,1.000000,0.008497,1.000000,0.000000,0.357016,0.967981,2.000000,0.986956,0.084053,0.780613,0.944391,0.766373,1.000000,0.090718,2.000000
14,0.062080,0.043320,1.000000,0.020319,1.000000,0.000000,0.291483,1.000000,2.000000,0.986956,0.182400,0.837819,0.942443,0.843048,1.000000,0.000000,2.000000
15,0.062080,0.043320,1.000000,0.020319,1.000000,0.000000,0.291483,1.000000,2.000000,0.986956,0.182400,0.837819,0.942443,0.843048,1.000000,0.000000,2.000000
16,0.062062,0.109390,1.000000,0.008497,1.000000,0.000000,0.415945,1.000000,2.000000,0.986837,0.247978,0.937377,0.917577,1.000000,0.797506,0.170735,2.000000
17,0.061838,0.062626,0.978774,0.075974,1.000000,0.015694,0.344929,0.941340,2.000000,0.981841,0.201241,1.000000,0.982842,0.949931,1.000000,0.000000,2.000000
18,0.061352,0.149396,1.000000,0.000000,1.000000,0.000000,0.303992,0.794931,1.000000,0.981841,0.183943,1.000000,0.974014,1.000000,1.000000,0.111212,2.000000
19,0.061203,0.000000,1.000000,0.010069,1.000000,0.197922,0.000000,0.918711,0.000000,1.000000,0.105542,1.000000,0.935149,1.000000,1.000000,0.401011,2.000000
20,0.061122,0.161167,0.699743,0.000000,1.000000,0.104362,0.218880,0.787647,2.000000,1.000000,0.000000,0.960165,0.979280,0.915648,0.737773,0.307664,2.000000
21,0.061122,0.161167,0.699743,0.000000,1.000000,0.104362,0.218880,0.787647,2.000000,1.000000,0.000000,0.960165,0.979280,0.915648,0.737773,0.307664,2.000000
22,0.061122,0.161167,0.699743,0.000000,1.000000,0.104362,0.218880,0.787647,2.000000,1.000000,0.000000,0.960165,0.979280,0.915648,0.737773,0.307664,2.000000
23,0.060052,0.000000,0.973909,0.000000,1.000000,0.000000,0.000000,0.875957,1.000000,0.942915,0.201679,1.000000,0.931138,0.926577,0.971963,0.520149,2.000000
24,0.060052,0.000000,0.973909,0.000000,1.000000,0.000000,0.000000,0.875957,1.000000,0.942915,0.201679,1.000000,0.931138,0.926577,0.971963,0.520149,2.000000
25,0.059509,0.000000,0.974376,0.000000,1.000000,0.069540,0.486634,1.000000,2.000000,1.000000,0.000000,1.000000,0.908556,0.926577,1.000000,0.771646,2.000000
26,0.059509,0.000000,0.974376,0.000000,1.000000,0.069540,0.486634,1.000000,2.000000,1.000000,0.000000,1.000000,0.908556,0.926577,1.000000,0.771646,2.000000
27,0.059509,0.000000,0.974376,0.000000,1.000000,0.069540,0.486634,1.000000,2.000000,1.000000,0.000000,1.000000,0.908556,0.926577,1.000000,0.771646,2.000000
28,0.059509,0.000000,0.974376,0.000000,1.000000,0.069540,0.486634,1.000000,2.000000,1.000000,0.000000,1.000000,0.908556,0.926577,1.000000,0.771646,2.000000
29,0.059509,0.000000,0.974376,0.000000,1.000000,0.069540,0.486634,1.000000,2.000000,1.000000,0.000000,1.000000,0.908556,0.926577,1.000000,0.771646,2.000000
30,0.059049,0.275075,0.930902,0.000000,1.000000,0.130990,0.044089,1.000000,2.000000,1.000000,0.192940,1.000000,0.959412,1.000000,0.741255,0.863493,2.000000
31,0.059049,0.275075,0.930902,0.000000,1.000000,0.130990,0.044089,1.000000,2.000000,1.000000,0.192940,1.000000,0.959412,1.000000,0.741255,0.863493,2.000000
32,0.059049,0.275075,0.930902,0.000000,1.000000,0.130990,0.044089,1.000000,2.000000,1.000000,0.192940,1.000000,0.959412,1.000000,0.741255,0.863493,2.000000
33,0.059049,0.275075,0.930902,0.000000,1.000000,0.130990,0.044089,1.000000,2.000000,1.000000,0.192940,1.000000,0.959412,1.000000,0.741255,0.863493,2.000000
34,0.059049,0.275075,0.930902,0.000000,1.000000,0.130990,0.044089,1.000000,2.000000,1.000000,0.192940,1.000000,0.959412,1.000000,0.741255,0.863493,2.000000
35,0.059049,0.275075,0.930902,0.000000,1.000000,0.130990,0.044089,1.000000,2.000000,1.000000,0.192940,1.000000,0.959412,1.000000,0.741255,0.863493,2.000000
36,0.059049,0.275075,0.930902,0.000000,1.000000,0.130990,0.044089,1.000000,2.000000,1.000000,0.192940,1.000000,0.959412,1.000000,0.741255,0.863493,2.000000
37,0.059049,0.275075,0.930902,0.000000,1.000000,0.130990,0.044089,1.000000,2.000000,1.000000,0.192940,1.000000,0.959412,1.000000,0.741255,0.863493,2.000000
38,0.058681,0.000000,0.973909,0.000000,1.000000,0.094895,0.000000,0.889960,2.000000,0.969420,0.092283,1.000000,0.955056,0.926577,1.000000,0.582100,2.000000
39,0.058135,0.000000,0.997238,0.000000,1.000000,0.000000,0.237065,0.883182,2.000000,0.997480,0.046173,1.000000,0.952984,0.949269,0.782546,1.000000,2.000000
40,0.058135,0.000000,0.997238,0.000000,1.000000,0.000000,0.237065,0.883182,2.000000,0.997480,0.046173,1.000000,0.952984,0.949269,0.782546,1.000000,2.000000
41,0.058135,0.000000,0.997238,0.000000,1.000000,0.000000,0.237065,0.883182,2.000000,0.997480,0.046173,1.000000,0.952984,0.949269,0.782546,1.000000,2.000000
42,0.058135,0.000000,0.997238,0.000000,1.000000,0.000000,0.237065,0.883182,2.000000,0.997480,0.046173,1.000000,0.952984,0.949269,0.782546,1.000000,2.000000
43,0.058135,0.000000,0.997238,0.000000,1.000000,0.000000,0.237065,0.883182,2.000000,0.997480,0.046173,1.000000,0.952984,0.949269,0.782546,1.000000,2.000000
44,0.058135,0.000000,0.997238,0.000000,1.000000,0.000000,0.237065,0.883182,2.000000,0.997480,0.046173,1.000000,0.952984,0.949269,0.782546,1.000000,2.000000
45,0.058135,0.000000,0.997238,0.000000,1.000000,0.000000,0.237065,0.883182,2.000000,0.997480,0.046173,1.000000,0.952984,0.949269,0.782546,1.000000,2.000000
46,0.058135,0.000000,0.997238,0.000000,1.000000,0.000000,0.237065,0.883182,2.000000,0.997480,0.046173,1.000000,0.952984,0.949269,0.782546,1.000000,2.000000
47,0.058135,0.000000,0.997238,0.000000,1.000000,0.000000,0.237065,0.883182,2.000000,0.997480,0.046173,1.000000,0.952984,0.949269,0.782546,1.000000,2.000000
48,0.058135,0.000000,0.997238,0.000000,1.000000,0.000000,0.237065,0.883182,2.000000,0.997480,0.046173,1.000000,0.952984,0.949269,0.782546,1.000000,2.000000
49,0.058135,0.000000,0.997238,0.000000,1.000000,0.000000,0.237065,0.883182,2.000000,0.997480,0.046173,1.000000,0.952984,0.949269,0.782546,1.000000,2.000000
gen, fitness
0,0.081164,0.000000,1.000000,0.210000,0.800000,0.030000,0.030000,1.000000,0.000000,1.000000,0.000000,0.000000,0.600000,1.000000,1.000000,0.000000,0.000000
1,0.081164,0.000000,1.000000,0.210000,0.800000,0.030000,0.030000,1.000000,0.000000,1.000000,0.000000,0.000000,0.600000,1.000000,1.000000,0.000000,0.000000
2,0.047887,0.022723,1.000000,0.347066,0.783962,0.000000,0.057804,1.000000,0.000000,0.890713,0.000000,0.161378,0.732215,0.954270,0.975052,0.000000,2.000000
3,0.041982,0.047606,1.000000,0.295540,0.834922,0.118831,0.134421,0.819984,2.000000,1.000000,0.022493,0.091268,0.785468,0.836295,1.000000,0.159508,2.000000
4,0.033093,0.113328,1.000000,0.524982,0.873111,0.000000,0.057293,1.000000,1.000000,0.863158,0.000000,0.000000,0.931743,0.921329,0.834489,0.158742,1.000000
5,0.023670,0.100369,1.000000,0.263573,1.000000,0.000000,0.045716,1.000000,2.000000,0.971241,0.000000,0.135960,0.976876,0.832126,0.977669,0.204694,1.000000
6,0.021806,0.040988,0.983417,0.334551,1.000000,0.037615,0.045716,1.000000,1.000000,0.971241,0.000000,0.224671,1.000000,0.937295,0.845828,0.142601,1.000000
7,0.021241,0.070023,0.915445,0.230026,1.000000,0.000000,0.147470,1.000000,0.000000,0.903415,0.000000,0.301129,0.976876,0.911533,0.977669,0.258226,2.000000
8,0.020939,0.000000,0.983417,0.307477,1.000000,0.037615,0.176214,0.876166,1.000000,0.891136,0.076178,0.167672,1.000000,0.956158,0.977669,0.219784,2.000000
9,0.020800,0.259965,0.828909,0.180507,1.000000,0.259387,0.038282,0.908589,1.000000,0.695088,0.000000,0.701631,0.975759,0.765995,0.749847,0.279098,1.000000
10,0.018109,0.286455,0.828909,0.122035,1.000000,0.008230,0.030661,0.926617,2.000000,0.658274,0.000000,0.928974,0.963029,0.764506,0.891220,0.279489,2.000000
11,0.018109,0.286455,0.828909,0.122035,1.000000,0.008230,0.030661,0.926617,2.000000,0.658274,0.000000,0.928974,0.963029,0.764506,0.891220,0.279489,2.000000
12,0.018109,0.286455,0.828909,0.122035,1.000000,0.008230,0.030661,0.926617,2.000000,0.658274,0.000000,0.928974,0.963029,0.764506,0.891220,0.279489,2.000000
13,0.018109,0.286455,0.828909,0.122035,1.000000,0.008230,0.030661,0.926617,2.000000,0.658274,0.000000,0.928974,0.963029,0.764506,0.891220,0.279489,2.000000
14,0.018032,0.450168,0.852529,0.164518,1.000000,0.121482,0.000000,1.000000,2.000000,0.741759,0.061930,0.973104,0.983301,0.867874,0.937478,0.409425,2.000000
15,0.018032,0.450168,0.852529,0.164518,1.000000,0.121482,0.000000,1.000000,2.000000,0.741759,0.061930,0.973104,0.983301,0.867874,0.937478,0.409425,2.000000
16,0.018032,0.450168,0.852529,0.164518,1.000000,0.121482,0.000000,1.000000,2.000000,0.741759,0.061930,0.973104,0.983301,0.867874,0.937478,0.409425,2.000000
17,0.018032,0.450168,0.852529,0.164518,1.000000,0.121482,0.000000,1.000000,2.000000,0.741759,0.061930,0.973104,0.983301,0.867874,0.937478,0.409425,2.000000
18,0.017832,0.211779,0.750404,0.302527,1.000000,0.167393,0.000000,0.801688,2.000000,0.637931,0.000000,0.841627,1.000000,0.850826,0.746665,0.774663,2.000000
19,0.017832,0.211779,0.750404,0.302527,1.000000,0.167393,0.000000,0.801688,2.000000,0.637931,0.000000,0.841627,1.000000,0.850826,0.746665,0.774663,2.000000
20,0.017832,0.211779,0.750404,0.302527,1.000000,0.167393,0.000000,0.801688,2.000000,0.637931,0.000000,0.841627,1.000000,0.850826,0.746665,0.774663,2.000000
21,0.017832,0.211779,0.750404,0.302527,1.000000,0.167393,0.000000,0.801688,2.000000,0.637931,0.000000,0.841627,1.000000,0.850826,0.746665,0.774663,2.000000
22,0.017832,0.211779,0.750404,0.302527,1.000000,0.167393,0.000000,0.801688,2.000000,0.637931,0.000000,0.841627,1.000000,0.850826,0.746665,0.774663,2.000000
23,0.017446,0.059686,0.633145,0.295606,1.000000,0.200875,0.287261,0.766160,2.000000,0.750667,0.058120,0.933205,0.967426,0.887163,1.000000,0.896717,2.000000
24,0.017446,0.059686,0.633145,0.295606,1.000000,0.200875,0.287261,0.766160,2.000000,0.750667,0.058120,0.933205,0.967426,0.887163,1.000000,0.896717,2.000000
25,0.017400,0.000000,0.679854,0.354471,1.000000,0.200875,0.337787,0.683437,2.000000,0.750667,0.103710,0.964914,0.973608,0.911547,0.956717,0.896717,2.000000
26,0.017328,0.000000,0.835974,0.610398,1.000000,0.111291,0.000000,0.844829,2.000000,0.533015,0.183136,0.904721,1.000000,0.946981,1.000000,0.504015,2.000000
27,0.017328,0.000000,0.835974,0.610398,1.000000,0.111291,0.000000,0.844829,2.000000,0.533015,0.183136,0.904721,1.000000,0.946981,1.000000,0.504015,2.000000
28,0.017328,0.000000,0.835974,0.610398,1.000000,0.111291,0.000000,0.844829,2.000000,0.533015,0.183136,0.904721,1.000000,0.946981,1.000000,0.504015,2.000000
29,0.017057,0.000000,0.732413,0.366632,1.000000,0.000000,0.436284,0.879352,2.000000,0.750667,0.157751,1.000000,0.967426,0.887163,1.000000,0.979198,2.000000
30,0.017057,0.000000,0.732413,0.366632,1.000000,0.000000,0.436284,0.879352,2.000000,0.750667,0.157751,1.000000,0.967426,0.887163,1.000000,0.979198,2.000000
31,0.017057,0.000000,0.732413,0.366632,1.000000,0.000000,0.436284,0.879352,2.000000,0.750667,0.157751,1.000000,0.967426,0.887163,1.000000,0.979198,2.000000
32,0.017057,0.000000,0.732413,0.366632,1.000000,0.000000,0.436284,0.879352,2.000000,0.750667,0.157751,1.000000,0.967426,0.887163,1.000000,0.979198,2.000000
33,0.017057,0.000000,0.732413,0.366632,1.000000,0.000000,0.436284,0.879352,2.000000,0.750667,0.157751,1.000000,0.967426,0.887163,1.000000,0.979198,2.000000
34,0.017057,0.000000,0.732413,0.366632,1.000000,0.000000,0.436284,0.879352,2.000000,0.750667,0.157751,1.000000,0.967426,0.887163,1.000000,0.979198,2.000000
35,0.017057,0.000000,0.732413,0.366632,1.000000,0.000000,0.436284,0.879352,2.000000,0.750667,0.157751,1.000000,0.967426,0.887163,1.000000,0.979198,2.000000
36,0.017057,0.000000,0.732413,0.366632,1.000000,0.000000,0.436284,0.879352,2.000000,0.750667,0.157751,1.000000,0.967426,0.887163,1.000000,0.979198,2.000000
37,0.017057,0.000000,0.732413,0.366632,1.000000,0.000000,0.436284,0.879352,2.000000,0.750667,0.157751,1.000000,0.967426,0.887163,1.000000,0.979198,2.000000
38,0.017057,0.000000,0.732413,0.366632,1.000000,0.000000,0.436284,0.879352,2.000000,0.750667,0.157751,1.000000,0.967426,0.887163,1.000000,0.979198,2.000000
39,0.017057,0.000000,0.732413,0.366632,1.000000,0.000000,0.436284,0.879352,2.000000,0.750667,0.157751,1.000000,0.967426,0.887163,1.000000,0.979198,2.000000
gen, fitness
0,0.045024,0.000000,1.000000,0.210000,0.800000,0.030000,0.030000,1.000000,0.000000,1.000000,0.000000,0.000000,0.600000,1.000000,1.000000,0.000000,0.000000
1,0.045024,0.000000,1.000000,0.210000,0.800000,0.030000,0.030000,1.000000,0.000000,1.000000,0.000000,0.000000,0.600000,1.000000,1.000000,0.000000,0.000000
2,0.019644,0.000000,0.996545,0.387425,0.800000,0.107455,0.151997,1.000000,2.000000,1.000000,0.000000,0.000000,0.744614,0.916704,1.000000,0.000000,2.000000
3,0.016632,0.000000,0.948058,0.229010,0.847744,0.000000,0.000000,1.000000,2.000000,1.000000,0.000000,0.131288,0.754050,0.869533,0.875664,0.000000,2.000000
4,0.005775,0.057265,0.976804,0.341684,0.998380,0.000000,0.012350,0.711397,0.000000,0.689702,0.246056,0.158127,1.000000,0.768304,0.852183,0.000000,2.000000
5,0.005269,0.000000,1.000000,0.374440,1.000000,0.000000,0.070298,1.000000,1.000000,0.718407,0.389726,0.089224,1.000000,0.916115,0.926999,0.257345,1.000000
6,0.004618,0.000000,0.928891,0.536516,1.000000,0.000000,0.159020,0.853433,2.000000,0.815639,0.322384,0.184341,0.999877,1.000000,0.867868,0.000000,2.000000
7,0.004618,0.000000,0.928891,0.536516,1.000000,0.000000,0.159020,0.853433,2.000000,0.815639,0.322384,0.184341,0.999877,1.000000,0.867868,0.000000,2.000000
8,0.004618,0.000000,0.928891,0.536516,1.000000,0.000000,0.159020,0.853433,2.000000,0.815639,0.322384,0.184341,0.999877,1.000000,0.867868,0.000000,2.000000
9,0.004618,0.000000,0.928891,0.536516,1.000000,0.000000,0.159020,0.853433,2.000000,0.815639,0.322384,0.184341,0.999877,1.000000,0.867868,0.000000,2.000000
10,0.004618,0.000000,0.928891,0.536516,1.000000,0.000000,0.159020,0.853433,2.000000,0.815639,0.322384,0.184341,0.999877,1.000000,0.867868,0.000000,2.000000
11,0.004288,0.000000,0.717829,0.490668,1.000000,0.000000,0.000000,0.636200,2.000000,0.626092,0.290971,0.347771,1.000000,0.706940,0.932062,0.000000,2.000000
12,0.003994,0.006754,0.787283,0.637205,1.000000,0.023433,0.008268,0.840208,2.000000,1.000000,0.265827,0.358273,1.000000,0.830336,0.937373,0.724213,2.000000
13,0.003994,0.006754,0.787283,0.637205,1.000000,0.023433,0.008268,0.840208,2.000000,1.000000,0.265827,0.358273,1.000000,0.830336,0.937373,0.724213,2.000000
14,0.003946,0.006754,0.862102,0.516479,1.000000,0.000000,0.048384,0.756687,2.000000,0.577199,0.157112,0.369097,1.000000,0.970592,0.686435,0.477848,2.000000
15,0.003824,0.043752,1.000000,0.526516,1.000000,0.000000,0.186170,0.728032,2.000000,0.538206,0.417029,0.554915,1.000000,1.000000,0.955708,0.182525,2.000000
16,0.003824,0.043752,1.000000,0.526516,1.000000,0.000000,0.186170,0.728032,2.000000,0.538206,0.417029,0.554915,1.000000,1.000000,0.955708,0.182525,2.000000
17,0.003824,0.043752,1.000000,0.526516,1.000000,0.000000,0.186170,0.728032,2.000000,0.538206,0.417029,0.554915,1.000000,1.000000,0.955708,0.182525,2.000000
18,0.003824,0.043752,1.000000,0.526516,1.000000,0.000000,0.186170,0.728032,2.000000,0.538206,0.417029,0.554915,1.000000,1.000000,0.955708,0.182525,2.000000
19,0.003572,0.000000,0.980282,0.652264,1.000000,0.242480,0.153691,0.925021,2.000000,0.627296,0.378416,0.577298,1.000000,1.000000,0.880166,0.481541,2.000000
20,0.003572,0.000000,0.980282,0.652264,1.000000,0.242480,0.153691,0.925021,2.000000,0.627296,0.378416,0.577298,1.000000,1.000000,0.880166,0.481541,2.000000
21,0.003572,0.000000,0.980282,0.652264,1.000000,0.242480,0.153691,0.925021,2.000000,0.627296,0.378416,0.577298,1.000000,1.000000,0.880166,0.481541,2.000000
22,0.003572,0.000000,0.980282,0.652264,1.000000,0.242480,0.153691,0.925021,2.000000,0.627296,0.378416,0.577298,1.000000,1.000000,0.880166,0.481541,2.000000
23,0.003433,0.106932,0.879050,0.776522,0.974546,0.000000,0.170068,1.000000,2.000000,0.414453,0.257612,0.653730,1.000000,1.000000,0.953651,0.653182,2.000000
24,0.003433,0.106932,0.879050,0.776522,0.974546,0.000000,0.170068,1.000000,2.000000,0.414453,0.257612,0.653730,1.000000,1.000000,0.953651,0.653182,2.000000
25,0.003433,0.106932,0.879050,0.776522,0.974546,0.000000,0.170068,1.000000,2.000000,0.414453,0.257612,0.653730,1.000000,1.000000,0.953651,0.653182,2.000000
26,0.003433,0.106932,0.879050,0.776522,0.974546,0.000000,0.170068,1.000000,2.000000,0.414453,0.257612,0.653730,1.000000,1.000000,0.953651,0.653182,2.000000
27,0.003309,0.000000,0.835820,0.676137,1.000000,0.225341,0.017162,0.948145,2.000000,0.622453,0.310005,0.717623,1.000000,1.000000,0.771343,0.807532,2.000000
28,0.003286,0.000000,0.869749,0.967611,1.000000,0.203115,0.195974,1.000000,1.000000,0.636157,0.579331,0.999470,1.000000,0.993195,0.893318,0.667272,2.000000
29,0.003170,0.000000,1.000000,0.894874,1.000000,0.397950,0.000000,0.945744,2.000000,0.687099,0.579331,0.942969,1.000000,1.000000,0.790415,0.683075,2.000000
30,0.003170,0.000000,1.000000,0.894874,1.000000,0.397950,0.000000,0.945744,2.000000,0.687099,0.579331,0.942969,1.000000,1.000000,0.790415,0.683075,2.000000
31,0.003170,0.000000,1.000000,0.894874,1.000000,0.397950,0.000000,0.945744,2.000000,0.687099,0.579331,0.942969,1.000000,1.000000,0.790415,0.683075,2.000000
32,0.002835,0.000000,0.869749,0.618811,1.000000,0.000000,0.000000,1.000000,2.000000,0.232495,0.434873,1.000000,1.000000,0.809330,0.900461,0.918350,2.000000
33,0.002835,0.000000,0.869749,0.618811,1.000000,0.000000,0.000000,1.000000,2.000000,0.232495,0.434873,1.000000,1.000000,0.809330,0.900461,0.918350,2.000000
34,0.002835,0.000000,0.869749,0.618811,1.000000,0.000000,0.000000,1.000000,2.000000,0.232495,0.434873,1.000000,1.000000,0.809330,0.900461,0.918350,2.000000
35,0.002835,0.000000,0.869749,0.618811,1.000000,0.000000,0.000000,1.000000,2.000000,0.232495,0.434873,1.000000,1.000000,0.809330,0.900461,0.918350,2.000000
36,0.002835,0.000000,0.869749,0.618811,1.000000,0.000000,0.000000,1.000000,2.000000,0.232495,0.434873,1.000000,1.000000,0.809330,0.900461,0.918350,2.000000
37,0.002835,0.000000,0.869749,0.618811,1.000000,0.000000,0.000000,1.000000,2.000000,0.232495,0.434873,1.000000,1.000000,0.809330,0.900461,0.918350,2.000000
38,0.002835,0.000000,0.869749,0.618811,1.000000,0.000000,0.000000,1.000000,2.000000,0.232495,0.434873,1.000000,1.000000,0.809330,0.900461,0.918350,2.000000
39,0.002835,0.000000,0.869749,0.618811,1.000000,0.000000,0.000000,1.000000,2.000000,0.232495,0.434873,1.000000,1.000000,0.809330,0.900461,0.918350,2.000000
40,0.002835,0.000000,0.869749,0.618811,1.000000,0.000000,0.000000,1.000000,2.000000,0.232495,0.434873,1.000000,1.000000,0.809330,0.900461,0.918350,2.000000
41,0.002835,0.000000,0.869749,0.618811,1.000000,0.000000,0.000000,1.000000,2.000000,0.232495,0.434873,1.000000,1.000000,0.809330,0.900461,0.918350,2.000000
42,0.002835,0.000000,0.869749,0.618811,1.000000,0.000000,0.000000,1.000000,2.000000,0.232495,0.434873,1.000000,1.000000,0.809330,0.900461,0.918350,2.000000
gen, fitness
0,0.032391,0.000000,1.000000,0.210000,0.800000,0.030000,0.030000,1.000000,0.000000,1.000000,0.000000,0.000000,0.600000,1.000000,1.000000,0.000000,0.000000
1,0.032391,0.000000,1.000000,0.210000,0.800000,0.030000,0.030000,1.000000,0.000000,1.000000,0.000000,0.000000,0.600000,1.000000,1.000000,0.000000,0.000000
2,0.016801,0.000000,1.000000,0.181310,0.824971,0.142594,0.030000,1.000000,2.000000,1.000000,0.021332,0.000000,0.712696,1.000000,1.000000,0.000000,2.000000
3,0.009773,0.000000,1.000000,0.255641,0.881761,0.070859,0.122099,0.968304,1.000000,0.852874,0.031025,0.189495,0.789777,0.990509,0.942360,0.000000,1.000000
4,0.008110,0.000000,1.000000,0.123924,0.961190,0.142594,0.030000,0.903716,0.000000,1.000000,0.021332,0.088138,0.887202,1.000000,1.000000,0.048615,0.000000
5,0.007344,0.017348,0.931845,0.131365,0.915932,0.000000,0.000000,0.903716,2.000000,0.920456,0.254638,0.088138,0.871682,1.000000,1.000000,0.125156,2.000000
6,0.004966,0.163051,0.944018,0.419607,1.000000,0.000000,0.000000,0.877000,0.000000,0.805764,0.080568,0.000000,1.000000,0.959791,0.941745,0.000000,2.000000
7,0.003011,0.294030,0.771473,0.580679,0.975464,0.147409,0.087626,1.000000,2.000000,0.838429,0.068607,0.226295,1.000000,0.695211,0.822833,0.000000,0.000000
8,0.003011,0.294030,0.771473,0.580679,0.975464,0.147409,0.087626,1.000000,2.000000,0.838429,0.068607,0.226295,1.000000,0.695211,0.822833,0.000000,0.000000
9,0.002534,0.167838,0.932067,0.579803,0.978392,0.147409,0.087626,0.886594,1.000000,0.744933,0.104136,0.243034,1.000000,0.608103,0.822833,0.012567,2.000000
10,0.002534,0.167838,0.932067,0.579803,0.978392,0.147409,0.087626,0.886594,1.000000,0.744933,0.104136,0.243034,1.000000,0.608103,0.822833,0.012567,2.000000
11,0.002328,0.000000,0.910236,0.495764,1.000000,0.000000,0.025561,0.670248,2.000000,0.684146,0.068607,0.471562,1.000000,0.690055,0.689131,0.051689,0.000000
12,0.002328,0.000000,0.910236,0.495764,1.000000,0.000000,0.025561,0.670248,2.000000,0.684146,0.068607,0.471562,1.000000,0.690055,0.689131,0.051689,0.000000
13,0.002005,0.110713,0.932067,0.699896,0.995889,0.000000,0.000000,0.810840,0.000000,0.627123,0.130321,0.555482,1.000000,0.728725,0.772602,0.191227,2.000000
14,0.002005,0.110713,0.932067,0.699896,0.995889,0.000000,0.000000,0.810840,0.000000,0.627123,0.130321,0.555482,1.000000,0.728725,0.772602,0.191227,2.000000
15,0.002005,0.110713,0.932067,0.699896,0.995889,0.000000,0.000000,0.810840,0.000000,0.627123,0.130321,0.555482,1.000000,0.728725,0.772602,0.191227,2.000000
16,0.001928,0.023859,0.920137,0.493294,1.000000,0.267240,0.035913,1.000000,2.000000,0.741324,0.162996,0.584844,1.000000,0.971496,0.888459,0.383296,1.000000
17,0.001717,0.000000,0.592130,0.557591,1.000000,0.064208,0.084978,1.000000,2.000000,0.608786,0.127341,0.583558,1.000000,0.757262,0.990079,0.147709,2.000000
18,0.001717,0.000000,0.592130,0.557591,1.000000,0.064208,0.084978,1.000000,2.000000,0.608786,0.127341,0.583558,1.000000,0.757262,0.990079,0.147709,2.000000
19,0.001717,0.000000,0.592130,0.557591,1.000000,0.064208,0.084978,1.000000,2.000000,0.608786,0.127341,0.583558,1.000000,0.757262,0.990079,0.147709,2.000000
20,0.001717,0.000000,0.592130,0.557591,1.000000,0.064208,0.084978,1.000000,2.000000,0.608786,0.127341,0.583558,1.000000,0.757262,0.990079,0.147709,2.000000
21,0.001717,0.000000,0.592130,0.557591,1.000000,0.064208,0.084978,1.000000,2.000000,0.608786,0.127341,0.583558,1.000000,0.757262,0.990079,0.147709,2.000000
22,0.001585,0.000000,0.781650,0.546797,1.000000,0.084590,0.099098,1.000000,1.000000,0.158381,0.000000,0.769184,1.000000,0.517421,0.634822,0.040139,2.000000
23,0.001585,0.000000,0.781650,0.546797,1.000000,0.084590,0.099098,1.000000,1.000000,0.158381,0.000000,0.769184,1.000000,0.517421,0.634822,0.040139,2.000000
24,0.001406,0.000000,0.573354,0.551995,1.000000,0.000000,0.084978,1.000000,1.000000,0.185877,0.009599,0.876099,1.000000,0.799223,0.755338,0.193762,2.000000
25,0.001406,0.000000,0.573354,0.551995,1.000000,0.000000,0.084978,1.000000,1.000000,0.185877,0.009599,0.876099,1.000000,0.799223,0.755338,0.193762,2.000000
26,0.001406,0.000000,0.573354,0.551995,1.000000,0.000000,0.084978,1.000000,1.000000,0.185877,0.009599,0.876099,1.000000,0.799223,0.755338,0.193762,2.000000
27,0.001406,0.000000,0.573354,0.551995,1.000000,0.000000,0.084978,1.000000,1.000000,0.185877,0.009599,0.876099,1.000000,0.799223,0.755338,0.193762,2.000000
28,0.001245,0.019921,0.481365,0.496818,1.000000,0.127047,0.116047,0.998832,2.000000,0.081256,0.000000,1.000000,1.000000,0.972379,0.577939,0.264883,2.000000
29,0.001245,0.019921,0.481365,0.496818,1.000000,0.127047,0.116047,0.998832,2.000000,0.081256,0.000000,1.000000,1.000000,0.972379,0.577939,0.264883,2.000000
30,0.001245,0.019921,0.481365,0.496818,1.000000,0.127047,0.116047,0.998832,2.000000,0.081256,0.000000,1.000000,1.000000,0.972379,0.577939,0.264883,2.000000
31,0.001245,0.019921,0.481365,0.496818,1.000000,0.127047,0.116047,0.998832,2.000000,0.081256,0.000000,1.000000,1.000000,0.972379,0.577939,0.264883,2.000000
32,0.001245,0.019921,0.481365,0.496818,1.000000,0.127047,0.116047,0.998832,2.000000,0.081256,0.000000,1.000000,1.000000,0.972379,0.577939,0.264883,2.000000
33,0.001094,0.000000,0.576115,0.645816,0.986291,0.069324,0.030346,0.967229,2.000000,0.038638,0.028324,0.999700,1.000000,0.641282,0.197680,0.331443,2.000000
34,0.001094,0.000000,0.576115,0.645816,0.986291,0.069324,0.030346,0.967229,2.000000,0.038638,0.028324,0.999700,1.000000,0.641282,0.197680,0.331443,2.000000
35,0.001094,0.000000,0.576115,0.645816,0.986291,0.069324,0.030346,0.967229,2.000000,0.038638,0.028324,0.999700,1.000000,0.641282,0.197680,0.331443,2.000000
36,0.001094,0.000000,0.576115,0.645816,0.986291,0.069324,0.030346,0.967229,2.000000,0.038638,0.028324,0.999700,1.000000,0.641282,0.197680,0.331443,2.000000
37,0.001094,0.000000,0.576115,0.645816,0.986291,0.069324,0.030346,0.967229,2.000000,0.038638,0.028324,0.999700,1.000000,0.641282,0.197680,0.331443,2.000000
38,0.001094,0.000000,0.576115,0.645816,0.986291,0.069324,0.030346,0.967229,2.000000,0.038638,0.028324,0.999700,1.000000,0.641282,0.197680,0.331443,2.000000
39,0.001094,0.000000,0.576115,0.645816,0.986291,0.069324,0.030346,0.967229,2.000000,0.038638,0.028324,0.999700,1.000000,0.641282,0.197680,0.331443,2.000000
40,0.001094,0.000000,0.576115,0.645816,0.986291,0.069324,0.030346,0.967229,2.000000,0.038638,0.028324,0.999700,1.000000,0.641282,0.197680,0.331443,2.000000
41,0.001094,0.000000,0.576115,0.645816,0.986291,0.069324,0.030346,0.967229,2.000000,0.038638,0.028324,0.999700,1.000000,0.641282,0.197680,0.331443,2.000000
42,0.001094,0.000000,0.576115,0.645816,0.986291,0.069324,0.030346,0.967229,2.000000,0.038638,0.028324,0.999700,1.000000,0.641282,0.197680,0.331443,2.000000
43,0.001094,0.000000,0.576115,0.645816,0.986291,0.069324,0.030346,0.967229,2.000000,0.038638,0.028324,0.999700,1.000000,0.641282,0.197680,0.331443,2.000000
gen, fitness
0,0.082103,0.000000,1.000000,0.210000,0.800000,0.030000,0.030000,1.000000,0.000000,1.000000,0.000000,0.000000,0.600000,1.000000,1.000000,0.000000,0.000000
1,0.082103,0.000000,1.000000,0.210000,0.800000,0.030000,0.030000,1.000000,0.000000,1.000000,0.000000,0.000000,0.600000,1.000000,1.000000,0.000000,0.000000
2,0.059155,0.000000,1.000000,0.275369,0.800000,0.140387,0.000000,1.000000,2.000000,0.977343,0.000000,0.000000,0.727111,0.821333,0.975604,0.072288,0.000000
3,0.046069,0.022697,1.000000,0.212555,0.901445,0.203868,0.144490,0.943723,2.000000,0.847064,0.000000,0.118797,0.812357,0.925248,1.000000,0.033896,2.000000
4,0.044659,0.048865,1.000000,0.237396,0.915917,0.211851,0.178030,0.841996,2.000000,0.913886,0.157539,0.240429,0.844543,1.000000,1.000000,0.000000,1.000000
5,0.035969,0.000000,1.000000,0.493119,1.000000,0.000000,0.061274,0.969406,0.000000,1.000000,0.005015,0.127270,0.958020,1.000000,0.956390,0.000000,0.000000
6,0.032361,0.161232,1.000000,0.396488,1.000000,0.042501,0.020054,0.888595,2.000000,0.978844,0.105884,0.180528,1.000000,0.936786,0.993542,0.038267,2.000000
7,0.030743,0.522456,1.000000,0.668467,1.000000,0.040685,0.003832,0.644703,1.000000,0.944340,0.301632,0.285523,1.000000,0.987220,0.923501,0.128924,2.000000
8,0.028645,0.000000,0.885801,0.691477,1.000000,0.140671,0.032827,0.835496,2.000000,0.987064,0.000000,0.097202,1.000000,0.980562,0.899579,0.666005,2.000000
9,0.028435,0.000000,0.834672,0.937240,1.000000,0.000000,0.261351,0.612279,1.000000,1.000000,0.172409,0.433769,1.000000,0.987220,1.000000,0.230328,1.000000
10,0.026542,0.000000,0.683155,0.937240,1.000000,0.000000,0.234214,0.569041,2.000000,0.882747,0.367589,0.483412,1.000000,0.915091,0.918620,0.337765,2.000000
11,0.026542,0.000000,0.683155,0.937240,1.000000,0.000000,0.234214,0.569041,2.000000,0.882747,0.367589,0.483412,1.000000,0.915091,0.918620,0.337765,2.000000
12,0.026510,0.198589,0.724435,0.918371,1.000000,0.000000,0.249442,0.462242,2.000000,0.579046,0.125272,0.527075,1.000000,1.000000,0.978009,0.140963,0.000000
13,0.025238,0.168519,0.852242,1.000000,0.983264,0.000000,0.589819,0.558731,2.000000,0.681915,0.125064,0.614293,1.000000,0.796376,0.873729,0.604919,1.000000
14,0.025000,0.208460,0.852242,1.000000,1.000000,0.027568,0.589819,0.405047,2.000000,0.516574,0.125064,0.755778,1.000000,0.835104,0.863371,0.378213,2.000000
15,0.024712,0.063195,0.686242,1.000000,1.000000,0.000000,0.336305,1.000000,1.000000,0.464403,0.154653,0.562050,1.000000,1.000000,0.871951,0.202569,2.000000
16,0.024712,0.063195,0.686242,1.000000,1.000000,0.000000,0.336305,1.000000,1.000000,0.464403,0.154653,0.562050,1.000000,1.000000,0.871951,0.202569,2.000000
17,0.024028,0.127575,0.745042,1.000000,1.000000,0.000000,0.336305,0.996912,2.000000,0.464403,0.154653,0.588756,1.000000,1.000000,0.985924,0.219430,2.000000
18,0.024028,0.127575,0.745042,1.000000,1.000000,0.000000,0.336305,0.996912,2.000000,0.464403,0.154653,0.588756,1.000000,1.000000,0.985924,0.219430,2.000000
19,0.023472,0.084112,0.974646,1.000000,1.000000,0.110528,0.336305,1.000000,2.000000,0.457730,0.284365,0.838877,1.000000,0.499082,0.950141,0.358514,0.000000
20,0.023471,0.028944,0.602026,0.994545,0.963728,0.000000,0.376995,1.000000,2.000000,0.164344,0.070542,0.482961,1.000000,0.981204,0.904854,0.214938,1.000000
21,0.023151,0.118214,0.680204,1.000000,1.000000,0.151217,0.515954,0.907692,2.000000,0.226601,0.267119,0.797122,0.998408,0.544289,0.809673,0.404932,2.000000
22,0.023151,0.118214,0.680204,1.000000,1.000000,0.151217,0.515954,0.907692,2.000000,0.226601,0.267119,0.797122,0.998408,0.544289,0.809673,0.404932,2.000000
23,0.022201,0.000000,0.694345,0.942218,0.983082,0.170448,0.639409,0.961515,2.000000,0.066481,0.000000,0.936891,1.000000,0.833055,0.861903,0.395727,0.000000
24,0.022201,0.000000,0.694345,0.942218,0.983082,0.170448,0.639409,0.961515,2.000000,0.066481,0.000000,0.936891,1.000000,0.833055,0.861903,0.395727,0.000000
25,0.022112,0.040908,0.755516,1.000000,0.990595,0.000000,0.233311,0.858201,2.000000,0.102624,0.006151,0.998329,1.000000,0.717139,0.861903,0.559443,2.000000
26,0.022112,0.040908,0.755516,1.000000,0.990595,0.000000,0.233311,0.858201,2.000000,0.102624,0.006151,0.998329,1.000000,0.717139,0.861903,0.559443,2.000000
27,0.022037,0.047839,0.928561,0.970199,0.971663,0.077458,0.396850,0.943056,2.000000,0.000000,0.433612,1.000000,1.000000,0.770814,0.924654,0.547211,2.000000
28,0.022037,0.047839,0.928561,0.970199,0.971663,0.077458,0.396850,0.943056,2.000000,0.000000,0.433612,1.000000,1.000000,0.770814,0.924654,0.547211,2.000000
29,0.021660,0.248319,0.724134,1.000000,0.987918,0.376492,0.497071,1.000000,2.000000,0.000000,0.000000,1.000000,1.000000,0.990659,0.408230,0.083434,0.000000
30,0.021660,0.248319,0.724134,1.000000,0.987918,0.376492,0.497071,1.000000,2.000000,0.000000,0.000000,1.000000,1.000000,0.990659,0.408230,0.083434,0.000000
31,0.021627,0.000000,1.000000,1.000000,0.971663,0.026186,0.603039,1.000000,2.000000,0.000000,0.000000,0.943265,1.000000,0.942347,0.771421,0.469702,1.000000
32,0.021627,0.000000,1.000000,1.000000,0.971663,0.026186,0.603039,1.000000,2.000000,0.000000,0.000000,0.943265,1.000000,0.942347,0.771421,0.469702,1.000000
33,0.021627,0.000000,1.000000,1.000000,0.971663,0.026186,0.603039,1.000000,2.000000,0.000000,0.000000,0.943265,1.000000,0.942347,0.771421,0.469702,1.000000
34,0.021627,0.000000,1.000000,1.000000,0.971663,0.026186,0.603039,1.000000,2.000000,0.000000,0.000000,0.943265,1.000000,0.942347,0.771421,0.469702,1.000000
35,0.021437,0.259258,0.651113,1.000000,0.974618,0.096209,0.893929,1.000000,2.000000,0.000000,0.192592,0.945351,1.000000,0.662368,0.572515,0.408554,0.000000
36,0.021372,0.000000,0.534299,1.000000,1.000000,0.000000,0.936755,1.000000,2.000000,0.000000,0.475732,1.000000,1.000000,0.828670,0.520713,0.544683,2.000000
37,0.021372,0.000000,0.534299,1.000000,1.000000,0.000000,0.936755,1.000000,2.000000,0.000000,0.475732,1.000000,1.000000,0.828670,0.520713,0.544683,2.000000
38,0.021372,0.000000,0.534299,1.000000,1.000000,0.000000,0.936755,1.000000,2.000000,0.000000,0.475732,1.000000,1.000000,0.828670,0.520713,0.544683,2.000000
39,0.021372,0.000000,0.534299,1.000000,1.000000,0.000000,0.936755,1.000000,2.000000,0.000000,0.475732,1.000000,1.000000,0.828670,0.520713,0.544683,2.000000
40,0.021372,0.000000,0.534299,1.000000,1.000000,0.000000,0.936755,1.000000,2.000000,0.000000,0.475732,1.000000,1.000000,0.828670,0.520713,0.544683,2.000000
41,0.021372,0.000000,0.534299,1.000000,1.000000,0.000000,0.936755,1.000000,2.000000,0.000000,0.475732,1.000000,1.000000,0.828670,0.520713,0.544683,2.000000
42,0.021372,0.000000,0.534299,1.000000,1.000000,0.000000,0.936755,1.000000,2.000000,0.000000,0.475732,1.000000,1.000000,0.828670,0.520713,0.544683,2.000000
43,0.021372,0.000000,0.534299,1.000000,1.000000,0.000000,0.936755,1.000000,2.000000,0.000000,0.475732,1.000000,1.000000,0.828670,0.520713,0.544683,2.000000
44,0.021372,0.000000,0.534299,1.000000,1.000000,0.000000,0.936755,1.000000,2.000000,0.000000,0.475732,1.000000,1.000000,0.828670,0.520713,0.544683,2.000000
45,0.021372,0.000000,0.534299,1.000000,1.000000,0.000000,0.936755,1.000000,2.000000,0.000000,0.475732,1.000000,1.000000,0.828670,0.520713,0.544683,2.000000
46,0.020957,0.021313,0.979915,1.000000,1.000000,0.000000,1.000000,1.000000,2.000000,0.000000,0.042695,1.000000,1.000000,0.985961,0.005568,0.137645,1.000000
47,0.020957,0.021313,0.979915,1.000000,1.000000,0.000000,1.000000,1.000000,2.000000,0.000000,0.042695,1.000000,1.000000,0.985961,0.005568,0.137645,1.000000
48,0.020957,0.021313,0.979915,1.000000,1.000000,0.000000,1.000000,1.000000,2.000000,0.000000,0.042695,1.000000,1.000000,0.985961,0.005568,0.137645,1.000000
49,0.020957,0.021313,0.979915,1.000000,1.000000,0.000000,1.000000,1.000000,2.000000,0.000000,0.042695,1.000000,1.000000,0.985961,0.005568,0.137645,1.000000
50,0.020957,0.021313,0.979915,1.000000,1.000000,0.000000,1.000000,1.000000,2.000000,0.000000,0.042695,1.000000,1.000000,0.985961,0.005568,0.137645,1.000000
51,0.020957,0.021313,0.979915,1.000000,1.000000,0.000000,1.000000,1.000000,2.000000,0.000000,0.042695,1.000000,1.000000,0.985961,0.005568,0.137645,1.000000
52,0.020957,0.021313,0.979915,1.000000,1.000000,0.000000,1.000000,1.000000,2.000000,0.000000,0.042695,1.000000,1.000000,0.985961,0.005568,0.137645,1.000000
53,0.020957,0.021313,0.979915,1.000000,1.000000,0.000000,1.000000,1.000000,2.000000,0.000000,0.042695,1.000000,1.000000,0.985961,0.005568,0.137645,1.000000
54,0.020897,0.021313,0.979915,1.000000,1.000000,0.000000,1.000000,0.991368,2.000000,0.000000,0.091902,1.000000,1.000000,1.000000,0.034146,0.155346,0.000000
55,0.020897,0.021313,0.979915,1.000000,1.000000,0.000000,1.000000,0.991368,2.000000,0.000000,0.091902,1.000000,1.000000,1.000000,0.034146,0.155346,0.000000
56,0.020897,0.021313,0.979915,1.000000,1.000000,0.000000,1.000000,0.991368,2.000000,0.000000,0.091902,1.000000,1.000000,1.000000,0.034146,0.155346,0.000000
57,0.020897,0.021313,0.979915,1.000000,1.000000,0.000000,1.000000,0.991368,2.000000,0.000000,0.091902,1.000000,1.000000,1.000000,0.034146,0.155346,0.000000
58,0.020897,0.021313,0.979915,1.000000,1.000000,0.000000,1.000000,0.991368,2.000000,0.000000,0.091902,1.000000,1.000000,1.000000,0.034146,0.155346,0.000000
59,0.020396,0.000000,0.884687,1.000000,1.000000,0.026433,1.000000,1.000000,2.000000,0.000000,0.000000,1.000000,1.000000,0.863525,0.000000,1.000000,1.000000
60,0.020396,0.000000,0.884687,1.000000,1.000000,0.026433,1.000000,1.000000,2.000000,0.000000,0.000000,1.000000,1.000000,0.863525,0.000000,1.000000,1.000000
61,0.020396,0.000000,0.884687,1.000000,1.000000,0.026433,1.000000,1.000000,2.000000,0.000000,0.000000,1.000000,1.000000,0.863525,0.000000,1.000000,1.000000
62,0.020396,0.000000,0.884687,1.000000,1.000000,0.026433,1.000000,1.000000,2.000000,0.000000,0.000000,1.000000,1.000000,0.863525,0.000000,1.000000,1.000000
63,0.020396,0.000000,0.884687,1.000000,1.000000,0.026433,1.000000,1.000000,2.000000,0.000000,0.000000,1.000000,1.000000,0.863525,0.000000,1.000000,1.000000
64,0.020396,0.000000,0.884687,1.000000,1.000000,0.026433,1.000000,1.000000,2.000000,0.000000,0.000000,1.000000,1.000000,0.863525,0.000000,1.000000,1.000000
65,0.020396,0.000000,0.884687,1.000000,1.000000,0.026433,1.000000,1.000000,2.000000,0.000000,0.000000,1.000000,1.000000,0.863525,0.000000,1.000000,1.000000
66,0.020396,0.000000,0.884687,1.000000,1.000000,0.026433,1.000000,1.000000,2.000000,0.000000,0.000000,1.000000,1.000000,0.863525,0.000000,1.000000,1.000000
67,0.020396,0.000000,0.884687,1.000000,1.000000,0.026433,1.000000,1.000000,2.000000,0.000000,0.000000,1.000000,1.000000,0.863525,0.000000,1.000000,1.000000
68,0.020396,0.000000,0.884687,1.000000,1.000000,0.026433,1.000000,1.000000,2.000000,0.000000,0.000000,1.000000,1.000000,0.863525,0.000000,1.000000,1.000000
69,0.020396,0.000000,0.884687,1.000000,1.000000,0.026433,1.000000,1.000000,2.000000,0.000000,0.000000,1.000000,1.000000,0.863525,0.000000,1.000000,1.000000
