num,type,obj 0,obj 1,predicted team0ratio,predicted time, sqrt of sum of fitnesses
0,pareto,0.000000,0.083586,0.499967,0.430887,0.2891125412044554
1,pareto,0.000000,0.043292,0.500042,0.511933,0.20806685632403132
2,pareto,0.000000,0.001034,0.499953,0.687843,0.03215695062181796
3,pareto,0.000000,0.001027,0.499926,0.687954,0.032046493883485
4,pareto,0.000000,0.000739,0.500130,0.692809,0.027191087766701674
5,pareto_best,0.000000,0.000008,0.499538,0.722836,0.002873690791181665
6,pareto,0.000019,0.000002,0.504415,0.721279,0.004596413270865111
7,pareto,0.000097,0.000001,0.490150,0.721045,0.009905414946196563
8,pareto,0.000342,0.000001,0.481519,0.721012,0.01850820385248196
9,pareto,0.000473,0.000001,0.521747,0.720788,0.021761381976015792
10,pareto,0.000482,0.000000,0.478043,0.719800,0.021958247108346898
11,pareto,0.002081,0.000000,0.454379,0.719845,0.04562106218375048
12,pareto,0.002364,0.000000,0.451375,0.719913,0.048625547453986395
13,pareto,0.008658,0.000000,0.406951,0.719959,0.09304887937853258
14,pareto,0.034465,0.000000,0.314352,0.720035,0.18564817631793698
15,pareto,0.035223,0.000000,0.312323,0.720009,0.18767669817810462
16,dominated,0.035223,0.000000,0.499932,0.514254
17,dominated,0.035223,0.000000,0.499932,0.514254
18,dominated,0.035223,0.000000,0.499930,0.601212
19,dominated,0.035223,0.000000,0.499930,0.601212
20,dominated,0.035223,0.000000,0.484837,0.721278
21,dominated,0.035223,0.000000,0.437226,0.719856
22,dominated,0.035223,0.000000,0.474027,0.719457
23,dominated,0.035223,0.000000,0.526007,0.720401
24,dominated,0.035223,0.000000,0.475043,0.719414
25,dominated,0.035223,0.000000,0.399806,0.719946
26,dominated,0.035223,0.000000,0.405490,0.719861
27,dominated,0.035223,0.000000,0.405490,0.719861
28,dominated,0.035223,0.000000,0.399992,0.719926
29,dominated,0.035223,0.000000,0.499661,0.690737
30,dominated,0.035223,0.000000,0.475572,0.721175
31,dominated,0.035223,0.000000,0.499779,0.683919
32,dominated,0.035223,0.000000,0.499811,0.586857
33,dominated,0.035223,0.000000,0.499811,0.586857
34,dominated,0.035223,0.000000,0.499871,0.514698
35,dominated,0.035223,0.000000,0.435999,0.720154
36,dominated,0.035223,0.000000,0.473425,0.720406
37,dominated,0.035223,0.000000,0.499011,0.705638
38,dominated,0.035223,0.000000,0.500577,0.701007
39,dominated,0.035223,0.000000,0.392847,0.720061
40,dominated,0.035223,0.000000,0.261762,0.720054
41,dominated,0.035223,0.000000,0.452907,0.719670
42,dominated,0.035223,0.000000,0.485854,0.721998
43,dominated,0.035223,0.000000,0.485740,0.721757
44,dominated,0.035223,0.000000,0.500228,0.677519
45,dominated,0.035223,0.000000,0.499705,0.683265
46,dominated,0.035223,0.000000,0.499860,0.514410
47,dominated,0.035223,0.000000,0.499860,0.514410
48,dominated,0.035223,0.000000,0.432888,0.719798
49,dominated,0.035223,0.000000,0.405224,0.719814
50,dominated,0.035223,0.000000,0.473377,0.720443
51,dominated,0.035223,0.000000,0.494739,0.709252
52,dominated,0.035223,0.000000,0.503886,0.705222
53,dominated,0.035223,0.000000,0.499161,0.696836
54,dominated,0.035223,0.000000,0.499421,0.695624
55,dominated,0.035223,0.000000,0.501983,0.741794
56,dominated,0.035223,0.000000,0.503338,0.739475
57,dominated,0.035223,0.000000,0.304601,0.720073
58,dominated,0.035223,0.000000,0.304601,0.720073
59,dominated,0.035223,0.000000,0.313005,0.719903
60,dominated,0.035223,0.000000,0.339397,0.719848
61,dominated,0.035223,0.000000,0.306279,0.719905
62,dominated,0.035223,0.000000,0.499744,0.669478
63,dominated,0.035223,0.000000,0.499756,0.600701
64,dominated,0.035223,0.000000,0.499436,0.682053
65,dominated,0.035223,0.000000,0.301313,0.720096
66,dominated,0.035223,0.000000,0.499680,0.586673
67,dominated,0.035223,0.000000,0.499840,0.514161
68,dominated,0.035223,0.000000,0.411146,0.720205
69,dominated,0.035223,0.000000,0.339542,0.720195
70,dominated,0.035223,0.000000,0.499634,0.647641
71,dominated,0.035223,0.000000,0.334225,0.720179
72,dominated,0.035223,0.000000,0.307892,0.720168
73,dominated,0.035223,0.000000,0.431781,0.719567
74,dominated,0.035223,0.000000,0.471323,0.720498
75,dominated,0.035223,0.000000,0.499431,0.672257
76,dominated,0.035223,0.000000,0.425096,0.719743
77,dominated,0.035223,0.000000,0.500814,0.685556
num,type,obj 0,obj 1,predicted team0ratio,predicted time, sqrt of sum of fitnesses
0,pareto,0.000000,0.046408,0.499926,0.504574,0.21542595240278545
1,pareto,0.000000,0.012740,0.500103,0.607128,0.1128718444046048
2,pareto,0.000000,0.000266,0.500120,0.703691,0.01630943652223909
3,pareto,0.000000,0.000144,0.500180,0.732002,0.012002891992225938
4,pareto_best,0.000001,0.000000,0.499213,0.720063,0.0007894542871722331
5,pareto,0.000094,0.000000,0.490323,0.719945,0.009677060725837442
6,pareto,0.004736,0.000000,0.431183,0.720039,0.06881697064603867
7,pareto,0.009630,0.000000,0.401866,0.719985,0.09813377368506597
8,pareto,0.010188,0.000000,0.399063,0.720013,0.10093712884666886
9,pareto,0.010602,0.000000,0.397036,0.719994,0.10296368616718708
10,dominated,0.010602,0.000000,0.342247,0.719990
11,dominated,0.010602,0.000000,0.499877,0.622584
12,dominated,0.010602,0.000000,0.500139,0.688784
13,dominated,0.010602,0.000000,0.500139,0.688784
14,dominated,0.010602,0.000000,0.466821,0.720102
15,dominated,0.010602,0.000000,0.484193,0.719862
16,dominated,0.010602,0.000000,0.485558,0.720213
17,dominated,0.010602,0.000000,0.465537,0.720079
18,dominated,0.010602,0.000000,0.500213,0.693999
19,dominated,0.010602,0.000000,0.500104,0.383064
20,dominated,0.010602,0.000000,0.500104,0.383064
21,dominated,0.010602,0.000000,0.428558,0.719927
22,dominated,0.010602,0.000000,0.339621,0.719936
23,dominated,0.010602,0.000000,0.339621,0.719936
24,dominated,0.010602,0.000000,0.336066,0.719942
25,dominated,0.010602,0.000000,0.499858,0.621495
26,dominated,0.010602,0.000000,0.523809,0.719798
27,dominated,0.010602,0.000000,0.466803,0.720142
28,dominated,0.010602,0.000000,0.467592,0.719827
29,dominated,0.010602,0.000000,0.467048,0.720143
30,dominated,0.010602,0.000000,0.483544,0.720355
31,dominated,0.010602,0.000000,0.478728,0.720297
32,dominated,0.010602,0.000000,0.454921,0.719902
33,dominated,0.010602,0.000000,0.500216,0.662027
34,dominated,0.010602,0.000000,0.331822,0.719930
35,dominated,0.010602,0.000000,0.500164,0.393927
36,dominated,0.010602,0.000000,0.499785,0.411442
37,dominated,0.010602,0.000000,0.466938,0.719835
38,dominated,0.010602,0.000000,0.466938,0.719835
39,dominated,0.010602,0.000000,0.520249,0.719634
40,dominated,0.010602,0.000000,0.522216,0.720324
41,dominated,0.010602,0.000000,0.359736,0.719884
42,dominated,0.010602,0.000000,0.359736,0.719884
43,dominated,0.010602,0.000000,0.336174,0.719901
44,dominated,0.010602,0.000000,0.484912,0.720810
45,dominated,0.010602,0.000000,0.518370,0.720771
46,dominated,0.010602,0.000000,0.500345,0.692775
47,dominated,0.010602,0.000000,0.499768,0.622034
48,dominated,0.010602,0.000000,0.331012,0.720087
49,dominated,0.010602,0.000000,0.331012,0.720087
50,dominated,0.010602,0.000000,0.500224,0.387734
51,dominated,0.010602,0.000000,0.500240,0.606336
52,dominated,0.010602,0.000000,0.355702,0.720167
53,dominated,0.010602,0.000000,0.427869,0.719832
54,dominated,0.010602,0.000000,0.338914,0.720160
55,dominated,0.010602,0.000000,0.464960,0.720297
56,dominated,0.010602,0.000000,0.432139,0.719782
57,dominated,0.010602,0.000000,0.500551,0.626845
58,dominated,0.010602,0.000000,0.499286,0.690781
59,dominated,0.010602,0.000000,0.523142,0.719609
60,dominated,0.010602,0.000000,0.479196,0.719513
61,dominated,0.010602,0.000000,0.482643,0.720886
62,dominated,0.010602,0.000000,0.484721,0.718880
num,type,obj 0,obj 1,predicted team0ratio,predicted time, sqrt of sum of fitnesses
0,pareto,0.000000,0.099770,0.499997,0.404137,0.3158634317064655
1,pareto,0.000000,0.025221,0.500034,0.561190,0.15881029252749412
2,pareto,0.000000,0.000163,0.500036,0.707227,0.012773296662972156
3,pareto,0.000000,0.000015,0.500076,0.723873,0.003873762401333922
4,pareto,0.000000,0.000006,0.499862,0.722487,0.002491267277795316
5,pareto,0.000000,0.000004,0.500147,0.717939,0.0020658970396351967
6,pareto_best,0.000002,0.000002,0.498600,0.721432,0.0020027085211078367
7,pareto,0.000005,0.000001,0.497681,0.719145,0.002471287156419477
8,pareto,0.000022,0.000001,0.504738,0.719291,0.004791035366912251
9,pareto,0.000054,0.000000,0.507382,0.720097,0.007382551824396985
10,pareto,0.000085,0.000000,0.490758,0.719989,0.009242183553573147
11,pareto,0.000150,0.000000,0.512261,0.720005,0.012260974639592007
12,dominated,0.000150,0.000000,0.500049,0.671274
13,dominated,0.000150,0.000000,0.455103,0.720006
14,dominated,0.000150,0.000000,0.434039,0.720006
15,dominated,0.000150,0.000000,0.463613,0.720008
16,dominated,0.000150,0.000000,0.461773,0.720007
17,dominated,0.000150,0.000000,0.474128,0.719937
18,dominated,0.000150,0.000000,0.500175,0.700064
19,dominated,0.000150,0.000000,0.500110,0.699293
20,dominated,0.000150,0.000000,0.499951,0.522941
21,dominated,0.000150,0.000000,0.500100,0.671209
22,dominated,0.000150,0.000000,0.440534,0.719969
23,dominated,0.000150,0.000000,0.427131,0.720031
24,dominated,0.000150,0.000000,0.455070,0.719952
25,dominated,0.000150,0.000000,0.521546,0.719899
26,dominated,0.000150,0.000000,0.499887,0.685560
27,dominated,0.000150,0.000000,0.499852,0.697508
28,dominated,0.000150,0.000000,0.499797,0.698299
29,dominated,0.000150,0.000000,0.375612,0.720050
30,dominated,0.000150,0.000000,0.376643,0.719945
31,dominated,0.000150,0.000000,0.482466,0.719606
32,dominated,0.000150,0.000000,0.476727,0.719861
33,dominated,0.000150,0.000000,0.454056,0.720116
34,dominated,0.000150,0.000000,0.500490,0.700090
35,dominated,0.000150,0.000000,0.500114,0.477840
36,dominated,0.000150,0.000000,0.500133,0.670101
37,dominated,0.000150,0.000000,0.500165,0.671368
38,dominated,0.000150,0.000000,0.499786,0.696424
39,dominated,0.000150,0.000000,0.375653,0.719939
40,dominated,0.000150,0.000000,0.518915,0.720500
41,dominated,0.000150,0.000000,0.457601,0.719771
42,dominated,0.000150,0.000000,0.456064,0.720146
43,dominated,0.000150,0.000000,0.524824,0.720232
44,dominated,0.000150,0.000000,0.437173,0.719881
45,dominated,0.000150,0.000000,0.499481,0.700062
46,dominated,0.000150,0.000000,0.499821,0.394291
47,dominated,0.000150,0.000000,0.500202,0.424009
48,dominated,0.000150,0.000000,0.500276,0.523273
49,dominated,0.000150,0.000000,0.500258,0.424021
50,dominated,0.000150,0.000000,0.500456,0.618972
51,dominated,0.000150,0.000000,0.500454,0.523605
52,dominated,0.000150,0.000000,0.500506,0.683087
53,dominated,0.000150,0.000000,0.427239,0.720132
54,dominated,0.000150,0.000000,0.499282,0.672792
num,type,obj 0,obj 1,predicted team0ratio,predicted time, sqrt of sum of fitnesses
0,pareto,0.000000,0.064071,0.499959,0.466878,0.25312248329563236
1,pareto,0.000000,0.000023,0.500042,0.724830,0.004830571798386344
2,pareto,0.000000,0.000021,0.499808,0.724554,0.004558217224085066
3,pareto,0.000000,0.000003,0.499756,0.721730,0.0017468149514845883
4,pareto,0.000000,0.000001,0.500535,0.719224,0.0009429198584981685
5,pareto_best,0.000000,0.000000,0.500568,0.720012,0.000567862504172407
6,pareto,0.019095,0.000000,0.361814,0.719998,0.13818636538505585
7,pareto,0.024624,0.000000,0.343081,0.720001,0.1569188237198387
8,dominated,0.024624,0.000000,0.500042,0.419329
9,dominated,0.024624,0.000000,0.499939,0.754371
10,dominated,0.024624,0.000000,0.500056,0.754614
11,dominated,0.024624,0.000000,0.488508,0.719964
12,dominated,0.024624,0.000000,0.488508,0.719964
13,dominated,0.024624,0.000000,0.439068,0.720033
14,dominated,0.024624,0.000000,0.328868,0.720028
15,dominated,0.024624,0.000000,0.328182,0.719981
16,dominated,0.024624,0.000000,0.500169,0.750550
17,dominated,0.024624,0.000000,0.499746,0.697822
18,dominated,0.024624,0.000000,0.500368,0.731255
19,dominated,0.024624,0.000000,0.500069,0.516252
20,dominated,0.024624,0.000000,0.500069,0.469548
21,dominated,0.024624,0.000000,0.500082,0.651554
22,dominated,0.024624,0.000000,0.467573,0.719953
23,dominated,0.024624,0.000000,0.500171,0.753006
24,dominated,0.024624,0.000000,0.499552,0.751562
25,dominated,0.024624,0.000000,0.499552,0.751562
26,dominated,0.024624,0.000000,0.499400,0.732194
27,dominated,0.024624,0.000000,0.499921,0.467519
28,dominated,0.024624,0.000000,0.499909,0.516007
29,dominated,0.024624,0.000000,0.500137,0.630748
30,dominated,0.024624,0.000000,0.348376,0.720061
31,dominated,0.024624,0.000000,0.342763,0.719945
32,dominated,0.024624,0.000000,0.440323,0.720165
33,dominated,0.024624,0.000000,0.463153,0.720195
34,dominated,0.024624,0.000000,0.472841,0.719672
35,dominated,0.024624,0.000000,0.523332,0.719605
36,dominated,0.024624,0.000000,0.511250,0.719443
37,dominated,0.024624,0.000000,0.480823,0.720446
38,dominated,0.024624,0.000000,0.499786,0.644982
39,dominated,0.024624,0.000000,0.500215,0.754574
40,dominated,0.024624,0.000000,0.500502,0.752052
41,dominated,0.024624,0.000000,0.501283,0.732321
42,dominated,0.024624,0.000000,0.500723,0.743285
43,dominated,0.024624,0.000000,0.500691,0.750634
44,dominated,0.024624,0.000000,0.499909,0.475817
45,dominated,0.024624,0.000000,0.346704,0.720100
46,dominated,0.024624,0.000000,0.364462,0.720177
47,dominated,0.024624,0.000000,0.437518,0.720179
48,dominated,0.024624,0.000000,0.443013,0.719699
49,dominated,0.024624,0.000000,0.529159,0.720377
50,dominated,0.024624,0.000000,0.453194,0.719637
51,dominated,0.024624,0.000000,0.474394,0.720413
52,dominated,0.024624,0.000000,0.485873,0.720648
53,dominated,0.024624,0.000000,0.511451,0.719235
54,dominated,0.024624,0.000000,0.500094,0.415636
55,dominated,0.024624,0.000000,0.500094,0.415636
56,dominated,0.024624,0.000000,0.345190,0.719900
57,dominated,0.024624,0.000000,0.369046,0.720187
58,dominated,0.024624,0.000000,0.427949,0.719799
59,dominated,0.024624,0.000000,0.499828,0.467434
60,dominated,0.024624,0.000000,0.500280,0.516350
61,dominated,0.024624,0.000000,0.500300,0.622996
62,dominated,0.024624,0.000000,0.500140,0.422663
63,dominated,0.024624,0.000000,0.499745,0.514988
64,dominated,0.024624,0.000000,0.463290,0.719616
65,dominated,0.024624,0.000000,0.439963,0.719681
66,dominated,0.024624,0.000000,0.500441,0.676827
67,dominated,0.024624,0.000000,0.500300,0.622996
68,dominated,0.024624,0.000000,0.436352,0.720237
69,dominated,0.024624,0.000000,0.471273,0.719428
num,type,obj 0,obj 1,predicted team0ratio,predicted time, sqrt of sum of fitnesses
0,pareto,0.000000,0.085445,0.499997,0.427691,0.29230940462501154
1,pareto,0.000000,0.026371,0.499947,0.557607,0.16239265588228619
2,pareto,0.000000,0.000578,0.500070,0.744039,0.024038802040214927
3,pareto,0.000000,0.000135,0.500100,0.731638,0.01163814248739677
4,pareto,0.000000,0.000011,0.499899,0.716704,0.003297777208739567
5,pareto_best,0.000000,0.000001,0.500399,0.720905,0.0009889421924892438
6,pareto,0.000137,0.000000,0.488313,0.720696,0.011707916254263068
7,pareto,0.000288,0.000000,0.516965,0.720028,0.016965352139144154
8,pareto,0.012947,0.000000,0.386217,0.720008,0.1137828531579886
9,pareto,0.013840,0.000000,0.382355,0.719994,0.11764457838027063
10,dominated,0.013840,0.000000,0.500004,0.426571
11,dominated,0.013840,0.000000,0.499939,0.550556
12,dominated,0.013840,0.000000,0.520961,0.719956
13,dominated,0.013840,0.000000,0.479726,0.719907
14,dominated,0.013840,0.000000,0.480068,0.719510
15,dominated,0.013840,0.000000,0.499806,0.645303
16,dominated,0.013840,0.000000,0.500103,0.622577
17,dominated,0.013840,0.000000,0.500223,0.648162
18,dominated,0.013840,0.000000,0.500238,0.649448
19,dominated,0.013840,0.000000,0.499604,0.658280
20,dominated,0.013840,0.000000,0.356000,0.719975
21,dominated,0.013840,0.000000,0.500609,0.680604
22,dominated,0.013840,0.000000,0.500038,0.398722
23,dominated,0.013840,0.000000,0.453771,0.720077
24,dominated,0.013840,0.000000,0.356039,0.720059
25,dominated,0.013840,0.000000,0.476359,0.719548
26,dominated,0.013840,0.000000,0.466355,0.719853
27,dominated,0.013840,0.000000,0.479097,0.719285
28,dominated,0.013840,0.000000,0.499794,0.643527
29,dominated,0.013840,0.000000,0.500175,0.551759
30,dominated,0.013840,0.000000,0.500140,0.427880
31,dominated,0.013840,0.000000,0.500174,0.428613
32,dominated,0.013840,0.000000,0.499501,0.657644
33,dominated,0.013840,0.000000,0.500686,0.686247
34,dominated,0.013840,0.000000,0.499244,0.690778
35,dominated,0.013840,0.000000,0.500048,0.398487
36,dominated,0.013840,0.000000,0.500048,0.398487
37,dominated,0.013840,0.000000,0.244228,0.720080
38,dominated,0.013840,0.000000,0.471327,0.720581
39,dominated,0.013840,0.000000,0.456778,0.719723
40,dominated,0.013840,0.000000,0.460870,0.720286
41,dominated,0.013840,0.000000,0.455220,0.720179
42,dominated,0.013840,0.000000,0.521828,0.721422
43,dominated,0.013840,0.000000,0.499599,0.639426
44,dominated,0.013840,0.000000,0.499770,0.550990
45,dominated,0.013840,0.000000,0.500741,0.657796
46,dominated,0.013840,0.000000,0.501027,0.689771
47,dominated,0.013840,0.000000,0.499843,0.398467
48,dominated,0.013840,0.000000,0.499843,0.398467
49,dominated,0.013840,0.000000,0.245887,0.719909
50,dominated,0.013840,0.000000,0.468891,0.720603
51,dominated,0.013840,0.000000,0.388785,0.719725
52,dominated,0.013840,0.000000,0.389032,0.720283
53,dominated,0.013840,0.000000,0.450010,0.719630
54,dominated,0.013840,0.000000,0.437754,0.719643
55,dominated,0.013840,0.000000,0.433102,0.719680
56,dominated,0.013840,0.000000,0.453437,0.719421
57,dominated,0.013840,0.000000,0.522928,0.717691
58,dominated,0.013840,0.000000,0.472473,0.721501
59,dominated,0.013840,0.000000,0.472781,0.718098
60,dominated,0.013840,0.000000,0.500408,0.552111
61,dominated,0.013840,0.000000,0.500729,0.560637
62,dominated,0.013840,0.000000,0.500230,0.426478
63,dominated,0.013840,0.000000,0.499246,0.651469
64,dominated,0.013840,0.000000,0.501838,0.659103
65,dominated,0.013840,0.000000,0.501672,0.658314
66,dominated,0.013840,0.000000,0.446737,0.720375
67,dominated,0.013840,0.000000,0.497822,0.650700
68,dominated,0.013840,0.000000,0.502221,0.657848
num,type,obj 0,obj 1,predicted team0ratio,predicted time, sqrt of sum of fitnesses
0,pareto,0.000000,0.033670,0.499981,0.536506,0.18349382501510933
1,pareto,0.000000,0.018218,0.499933,0.585026,0.13497422912581455
2,pareto,0.000000,0.005435,0.500099,0.646281,0.07371930126673917
3,pareto,0.000000,0.000141,0.499894,0.708133,0.011867670550134178
4,pareto,0.000000,0.000137,0.499638,0.708283,0.011722929342209467
5,pareto,0.000000,0.000020,0.500463,0.724452,0.004476179798332209
6,pareto_best,0.000001,0.000007,0.500850,0.717403,0.0027322561210288824
7,pareto,0.000004,0.000006,0.501881,0.717645,0.003013422266698738
8,pareto,0.000007,0.000003,0.502593,0.721772,0.0031404404917809736
9,pareto,0.000014,0.000000,0.503749,0.720305,0.0037612581857173785
10,pareto,0.000016,0.000000,0.504002,0.720271,0.004010893646886888
11,pareto,0.000044,0.000000,0.506599,0.720121,0.006600359319871574
12,pareto,0.000184,0.000000,0.486436,0.719997,0.0135635141034223
13,dominated,0.000184,0.000000,0.500064,0.417480
14,dominated,0.000184,0.000000,0.500093,0.583218
15,dominated,0.000184,0.000000,0.500073,0.576657
16,dominated,0.000184,0.000000,0.472607,0.720043
17,dominated,0.000184,0.000000,0.429065,0.719988
18,dominated,0.000184,0.000000,0.429851,0.720038
19,dominated,0.000184,0.000000,0.478803,0.720065
20,dominated,0.000184,0.000000,0.500109,0.652128
21,dominated,0.000184,0.000000,0.499903,0.575389
22,dominated,0.000184,0.000000,0.499903,0.575389
23,dominated,0.000184,0.000000,0.499903,0.575389
24,dominated,0.000184,0.000000,0.499903,0.575389
25,dominated,0.000184,0.000000,0.429064,0.719986
26,dominated,0.000184,0.000000,0.450077,0.720080
27,dominated,0.000184,0.000000,0.478784,0.720140
28,dominated,0.000184,0.000000,0.479348,0.719765
29,dominated,0.000184,0.000000,0.500198,0.651671
30,dominated,0.000184,0.000000,0.499828,0.632693
31,dominated,0.000184,0.000000,0.499751,0.652045
32,dominated,0.000184,0.000000,0.500142,0.607882
33,dominated,0.000184,0.000000,0.500160,0.611609
34,dominated,0.000184,0.000000,0.499661,0.699973
35,dominated,0.000184,0.000000,0.428201,0.720032
36,dominated,0.000184,0.000000,0.433609,0.720128
37,dominated,0.000184,0.000000,0.429084,0.719883
38,dominated,0.000184,0.000000,0.428980,0.720083
39,dominated,0.000184,0.000000,0.428980,0.720085
40,dominated,0.000184,0.000000,0.473145,0.720168
41,dominated,0.000184,0.000000,0.435515,0.720156
42,dominated,0.000184,0.000000,0.435515,0.720156
43,dominated,0.000184,0.000000,0.482331,0.720368
44,dominated,0.000184,0.000000,0.482405,0.719471
45,dominated,0.000184,0.000000,0.478534,0.719641
46,dominated,0.000184,0.000000,0.474839,0.719717
47,dominated,0.000184,0.000000,0.500237,0.639692
48,dominated,0.000184,0.000000,0.500229,0.580455
49,dominated,0.000184,0.000000,0.500162,0.417530
50,dominated,0.000184,0.000000,0.500193,0.538309
51,dominated,0.000184,0.000000,0.500356,0.640369
52,dominated,0.000184,0.000000,0.500356,0.640369
53,dominated,0.000184,0.000000,0.499511,0.680527
54,dominated,0.000184,0.000000,0.499510,0.680529
55,dominated,0.000184,0.000000,0.499573,0.669773
56,dominated,0.000184,0.000000,0.427192,0.719913
57,dominated,0.000184,0.000000,0.499626,0.580973
58,dominated,0.000184,0.000000,0.499626,0.580973
59,dominated,0.000184,0.000000,0.431269,0.720157
60,dominated,0.000184,0.000000,0.481060,0.720402
61,dominated,0.000184,0.000000,0.499565,0.598916
62,dominated,0.000184,0.000000,0.499540,0.663900
num,type,obj 0,obj 1,predicted team0ratio,predicted time, sqrt of sum of fitnesses
0,pareto,0.000000,0.006274,0.499986,0.640793,0.07920727376285122
1,pareto,0.000000,0.000211,0.499960,0.705481,0.014518825029152695
2,pareto,0.000000,0.000025,0.499916,0.724961,0.004961393108611475
3,pareto_best,0.000003,0.000001,0.498132,0.718886,0.002175024814043211
4,pareto,0.000023,0.000000,0.504836,0.719525,0.004859699976143708
5,pareto,0.000038,0.000000,0.493874,0.720033,0.006126103609343953
6,pareto,0.000127,0.000000,0.511263,0.720030,0.011263350570905903
7,pareto,0.001080,0.000000,0.467140,0.719977,0.032859869555236704
8,dominated,0.001080,0.000000,0.499946,0.657858
9,dominated,0.001080,0.000000,0.499887,0.700049
10,dominated,0.001080,0.000000,0.500155,0.700611
11,dominated,0.001080,0.000000,0.499916,0.662309
12,dominated,0.001080,0.000000,0.478364,0.720152
13,dominated,0.001080,0.000000,0.433871,0.720121
14,dominated,0.001080,0.000000,0.337279,0.720051
15,dominated,0.001080,0.000000,0.397273,0.719947
16,dominated,0.001080,0.000000,0.429730,0.720084
17,dominated,0.001080,0.000000,0.500060,0.569360
18,dominated,0.001080,0.000000,0.500060,0.569360
19,dominated,0.001080,0.000000,0.500054,0.356031
20,dominated,0.001080,0.000000,0.500182,0.665984
21,dominated,0.001080,0.000000,0.500284,0.738499
22,dominated,0.001080,0.000000,0.446982,0.719769
23,dominated,0.001080,0.000000,0.379368,0.719942
24,dominated,0.001080,0.000000,0.414025,0.720115
25,dominated,0.001080,0.000000,0.410184,0.720090
26,dominated,0.001080,0.000000,0.406358,0.720086
27,dominated,0.001080,0.000000,0.415653,0.719869
28,dominated,0.001080,0.000000,0.499904,0.342753
29,dominated,0.001080,0.000000,0.499855,0.346059
30,dominated,0.001080,0.000000,0.499855,0.346059
31,dominated,0.001080,0.000000,0.499819,0.346134
32,dominated,0.001080,0.000000,0.499819,0.346134
33,dominated,0.001080,0.000000,0.499741,0.662346
34,dominated,0.001080,0.000000,0.500300,0.681549
35,dominated,0.001080,0.000000,0.500440,0.699754
36,dominated,0.001080,0.000000,0.501477,0.701180
37,dominated,0.001080,0.000000,0.478754,0.720392
38,dominated,0.001080,0.000000,0.480046,0.721051
39,dominated,0.001080,0.000000,0.479926,0.720865
40,dominated,0.001080,0.000000,0.527851,0.719669
41,dominated,0.001080,0.000000,0.284441,0.720064
42,dominated,0.001080,0.000000,0.286761,0.719934
43,dominated,0.001080,0.000000,0.410046,0.719876
44,dominated,0.001080,0.000000,0.400317,0.720105
45,dominated,0.001080,0.000000,0.410261,0.719788
46,dominated,0.001080,0.000000,0.410103,0.719853
47,dominated,0.001080,0.000000,0.499889,0.325892
48,dominated,0.001080,0.000000,0.285370,0.719899
49,dominated,0.001080,0.000000,0.500275,0.347246
50,dominated,0.001080,0.000000,0.500301,0.660647
51,dominated,0.001080,0.000000,0.406149,0.720166
52,dominated,0.001080,0.000000,0.306549,0.720165
53,dominated,0.001080,0.000000,0.306139,0.720126
54,dominated,0.001080,0.000000,0.410039,0.719700
55,dominated,0.001080,0.000000,0.499739,0.328275
56,dominated,0.001080,0.000000,0.435022,0.719615
57,dominated,0.001080,0.000000,0.443499,0.719398
58,dominated,0.001080,0.000000,0.526416,0.720632
59,dominated,0.001080,0.000000,0.437319,0.720494
60,dominated,0.001080,0.000000,0.500572,0.676745
61,dominated,0.001080,0.000000,0.500174,0.327996
62,dominated,0.001080,0.000000,0.522133,0.721064
63,dominated,0.001080,0.000000,0.499361,0.691028
64,dominated,0.001080,0.000000,0.474891,0.719302
65,dominated,0.001080,0.000000,0.499032,0.694231
66,dominated,0.001080,0.000000,0.523139,0.719100
67,dominated,0.001080,0.000000,0.498417,0.738260
num,type,obj 0,obj 1,predicted team0ratio,predicted time, sqrt of sum of fitnesses
0,pareto,0.000000,0.074592,0.500020,0.446885,0.27311548780269873
1,pareto,0.000000,0.005671,0.500037,0.644693,0.07530740920631432
2,pareto,0.000000,0.003891,0.499963,0.657625,0.062374812530069115
3,pareto,0.000000,0.000396,0.499927,0.700104,0.019895898802920725
4,pareto,0.000000,0.000060,0.499673,0.712284,0.007723027516459487
5,pareto_best,0.000000,0.000001,0.499465,0.718837,0.001279992254835433
6,pareto,0.000007,0.000000,0.497326,0.719958,0.00267437288063063
7,pareto,0.000135,0.000000,0.488360,0.719979,0.011640090725969299
8,pareto,0.036415,0.000000,0.309174,0.719985,0.1908259397767644
9,dominated,0.036415,0.000000,0.499482,0.735530
10,dominated,0.036415,0.000000,0.500457,0.703545
11,dominated,0.036415,0.000000,0.499614,0.675469
12,dominated,0.036415,0.000000,0.499614,0.675469
13,dominated,0.036415,0.000000,0.500392,0.682105
14,dominated,0.036415,0.000000,0.500104,0.497120
15,dominated,0.036415,0.000000,0.500044,0.355538
16,dominated,0.036415,0.000000,0.500082,0.442060
17,dominated,0.036415,0.000000,0.452334,0.719957
18,dominated,0.036415,0.000000,0.536482,0.720056
19,dominated,0.036415,0.000000,0.536482,0.720056
20,dominated,0.036415,0.000000,0.516313,0.720145
21,dominated,0.036415,0.000000,0.469640,0.719906
22,dominated,0.036415,0.000000,0.500544,0.703699
23,dominated,0.036415,0.000000,0.499883,0.498049
24,dominated,0.036415,0.000000,0.500113,0.442454
25,dominated,0.036415,0.000000,0.500113,0.442454
26,dominated,0.036415,0.000000,0.312333,0.719940
27,dominated,0.036415,0.000000,0.473261,0.720168
28,dominated,0.036415,0.000000,0.449248,0.720102
29,dominated,0.036415,0.000000,0.498798,0.703285
30,dominated,0.036415,0.000000,0.500554,0.680464
31,dominated,0.036415,0.000000,0.500257,0.444235
32,dominated,0.036415,0.000000,0.500257,0.444235
33,dominated,0.036415,0.000000,0.499740,0.496970
34,dominated,0.036415,0.000000,0.500254,0.444234
35,dominated,0.036415,0.000000,0.499730,0.649790
36,dominated,0.036415,0.000000,0.499797,0.355769
37,dominated,0.036415,0.000000,0.472358,0.719453
38,dominated,0.036415,0.000000,0.470545,0.720241
39,dominated,0.036415,0.000000,0.471629,0.719645
40,dominated,0.036415,0.000000,0.470009,0.720182
41,dominated,0.036415,0.000000,0.448891,0.719896
42,dominated,0.036415,0.000000,0.499280,0.696055
43,dominated,0.036415,0.000000,0.500612,0.675107
44,dominated,0.036415,0.000000,0.500274,0.563629
45,dominated,0.036415,0.000000,0.499567,0.620492
46,dominated,0.036415,0.000000,0.500510,0.645663
47,dominated,0.036415,0.000000,0.499551,0.620625
48,dominated,0.036415,0.000000,0.501819,0.704817
49,dominated,0.036415,0.000000,0.472213,0.720870
50,dominated,0.036415,0.000000,0.470855,0.719643
51,dominated,0.036415,0.000000,0.471325,0.719552
52,dominated,0.036415,0.000000,0.457832,0.719804
53,dominated,0.036415,0.000000,0.457135,0.720193
54,dominated,0.036415,0.000000,0.539044,0.719675
55,dominated,0.036415,0.000000,0.358176,0.719857
56,dominated,0.036415,0.000000,0.396202,0.720159
57,dominated,0.036415,0.000000,0.499421,0.355663
58,dominated,0.036415,0.000000,0.406403,0.719801
59,dominated,0.036415,0.000000,0.500859,0.620864
60,dominated,0.036415,0.000000,0.449767,0.720218
61,dominated,0.036415,0.000000,0.539191,0.720440
62,dominated,0.036415,0.000000,0.470766,0.719435
63,dominated,0.036415,0.000000,0.454375,0.720259
64,dominated,0.036415,0.000000,0.521032,0.721087
num,type,obj 0,obj 1,predicted team0ratio,predicted time, sqrt of sum of fitnesses
0,pareto,0.000000,0.081798,0.500005,0.433997,0.2860030246284033
1,pareto,0.000000,0.000492,0.499978,0.697811,0.02218852674181968
2,pareto,0.000000,0.000471,0.500056,0.698297,0.02170352646473207
3,pareto,0.000000,0.000260,0.499698,0.703872,0.0161304438808156
4,pareto,0.000000,0.000187,0.499525,0.706312,0.013696308017691066
5,pareto,0.000002,0.000129,0.498609,0.708623,0.011461396791033005
6,pareto,0.000003,0.000027,0.501804,0.725235,0.005536916384865912
7,pareto_best,0.000007,0.000014,0.497363,0.723755,0.004588283029055973
8,pareto,0.000019,0.000003,0.504376,0.721756,0.0047155763816263034
9,pareto,0.000095,0.000000,0.490232,0.720654,0.009789760195421137
10,pareto,0.000396,0.000000,0.480104,0.720440,0.01990084147195504
11,pareto,0.000501,0.000000,0.477610,0.719677,0.022392368734296838
12,pareto,0.000747,0.000000,0.472660,0.719868,0.02734034305297813
13,pareto,0.001585,0.000000,0.460184,0.719981,0.03981608596535222
14,pareto,0.020976,0.000000,0.355170,0.720018,0.14482995978468785
15,pareto,0.021014,0.000000,0.355037,0.720010,0.1449634435948493
16,dominated,0.021014,0.000000,0.499992,0.357204
17,dominated,0.021014,0.000000,0.499992,0.357204
18,dominated,0.021014,0.000000,0.462257,0.719763
19,dominated,0.021014,0.000000,0.470691,0.720249
20,dominated,0.021014,0.000000,0.500023,0.512475
21,dominated,0.021014,0.000000,0.500023,0.512475
22,dominated,0.021014,0.000000,0.500050,0.512506
23,dominated,0.021014,0.000000,0.499775,0.646931
24,dominated,0.021014,0.000000,0.500132,0.591702
25,dominated,0.021014,0.000000,0.500276,0.653232
26,dominated,0.021014,0.000000,0.500276,0.653232
27,dominated,0.021014,0.000000,0.500169,0.594712
28,dominated,0.021014,0.000000,0.500326,0.667070
29,dominated,0.021014,0.000000,0.499634,0.695395
30,dominated,0.021014,0.000000,0.393326,0.719912
31,dominated,0.021014,0.000000,0.458020,0.720092
32,dominated,0.021014,0.000000,0.352227,0.720057
33,dominated,0.021014,0.000000,0.325432,0.720029
34,dominated,0.021014,0.000000,0.458820,0.719859
35,dominated,0.021014,0.000000,0.458493,0.720122
36,dominated,0.021014,0.000000,0.483707,0.720871
37,dominated,0.021014,0.000000,0.470685,0.720263
38,dominated,0.021014,0.000000,0.500045,0.512245
39,dominated,0.021014,0.000000,0.499866,0.512291
40,dominated,0.021014,0.000000,0.499847,0.588880
41,dominated,0.021014,0.000000,0.499804,0.592744
42,dominated,0.021014,0.000000,0.499673,0.646756
43,dominated,0.021014,0.000000,0.499502,0.677682
44,dominated,0.021014,0.000000,0.499607,0.649271
45,dominated,0.021014,0.000000,0.323964,0.720095
46,dominated,0.021014,0.000000,0.323964,0.720095
47,dominated,0.021014,0.000000,0.322990,0.720075
48,dominated,0.021014,0.000000,0.434866,0.719853
49,dominated,0.021014,0.000000,0.457567,0.719782
50,dominated,0.021014,0.000000,0.435438,0.719797
51,dominated,0.021014,0.000000,0.482859,0.717576
52,dominated,0.021014,0.000000,0.469367,0.719716
53,dominated,0.021014,0.000000,0.470040,0.720665
54,dominated,0.021014,0.000000,0.499968,0.394305
55,dominated,0.021014,0.000000,0.500144,0.512266
56,dominated,0.021014,0.000000,0.499781,0.591982
57,dominated,0.021014,0.000000,0.499650,0.595614
58,dominated,0.021014,0.000000,0.498841,0.653292
59,dominated,0.021014,0.000000,0.500562,0.637809
60,dominated,0.021014,0.000000,0.263338,0.720137
61,dominated,0.021014,0.000000,0.400706,0.719784
62,dominated,0.021014,0.000000,0.499953,0.383430
num,type,obj 0,obj 1,predicted team0ratio,predicted time, sqrt of sum of fitnesses
0,pareto,0.000000,0.065105,0.500001,0.464843,0.2551573526889985
1,pareto,0.000000,0.005131,0.500004,0.648369,0.07163080703758215
2,pareto,0.000000,0.003769,0.499720,0.658606,0.0613942304808814
3,pareto_best,0.000000,0.000012,0.500409,0.716471,0.0035522262345759332
4,pareto,0.000042,0.000000,0.493502,0.719625,0.00650884713302347
5,pareto,0.000426,0.000000,0.479370,0.720065,0.02062968568631609
6,pareto,0.003982,0.000000,0.436898,0.719939,0.06310245409767902
7,pareto,0.011765,0.000000,0.391532,0.719947,0.10846836656107449
8,pareto,0.012722,0.000000,0.387208,0.720049,0.11279217481889298
9,pareto,0.016543,0.000000,0.371380,0.720040,0.12862015387668188
10,pareto,0.037599,0.000000,0.306097,0.720030,0.19390335908520256
11,pareto,0.043351,0.000000,0.291791,0.720019,0.20820930685618397
12,pareto,0.043639,0.000000,0.291099,0.720016,0.2089006012576135
13,dominated,0.043639,0.000000,0.499863,0.555862
14,dominated,0.043639,0.000000,0.500026,0.407256
15,dominated,0.043639,0.000000,0.500050,0.409952
16,dominated,0.043639,0.000000,0.500008,0.399310
17,dominated,0.043639,0.000000,0.500487,0.682855
18,dominated,0.043639,0.000000,0.498821,0.696372
19,dominated,0.043639,0.000000,0.498878,0.693290
20,dominated,0.043639,0.000000,0.497112,0.700948
21,dominated,0.043639,0.000000,0.486893,0.721975
22,dominated,0.043639,0.000000,0.416047,0.720313
23,dominated,0.043639,0.000000,0.415538,0.719754
24,dominated,0.043639,0.000000,0.431342,0.720366
25,dominated,0.043639,0.000000,0.431342,0.720366
26,dominated,0.043639,0.000000,0.304267,0.720115
27,dominated,0.043639,0.000000,0.382531,0.719882
28,dominated,0.043639,0.000000,0.461649,0.720595
29,dominated,0.043639,0.000000,0.468466,0.719168
30,dominated,0.043639,0.000000,0.500209,0.555827
31,dominated,0.043639,0.000000,0.500144,0.533746
32,dominated,0.043639,0.000000,0.500070,0.409656
33,dominated,0.043639,0.000000,0.500070,0.409656
34,dominated,0.043639,0.000000,0.500070,0.409656
35,dominated,0.043639,0.000000,0.499947,0.386588
36,dominated,0.043639,0.000000,0.500682,0.661776
37,dominated,0.043639,0.000000,0.496291,0.703140
38,dominated,0.043639,0.000000,0.497648,0.695145
39,dominated,0.043639,0.000000,0.498509,0.688833
40,dominated,0.043639,0.000000,0.497054,0.739492
41,dominated,0.043639,0.000000,0.500424,0.657481
42,dominated,0.043639,0.000000,0.486121,0.723260
43,dominated,0.043639,0.000000,0.397019,0.720276
44,dominated,0.043639,0.000000,0.397092,0.719708
45,dominated,0.043639,0.000000,0.417475,0.719575
46,dominated,0.043639,0.000000,0.415339,0.719626
47,dominated,0.043639,0.000000,0.326647,0.720130
48,dominated,0.043639,0.000000,0.330310,0.719860
49,dominated,0.043639,0.000000,0.459631,0.720788
50,dominated,0.043639,0.000000,0.420148,0.719283
51,dominated,0.043639,0.000000,0.418046,0.720714
52,dominated,0.043639,0.000000,0.499718,0.555613
53,dominated,0.043639,0.000000,0.500234,0.411672
54,dominated,0.043639,0.000000,0.500217,0.411032
55,dominated,0.043639,0.000000,0.495105,0.701755
56,dominated,0.043639,0.000000,0.492126,0.703515
57,dominated,0.043639,0.000000,0.487783,0.708852
58,dominated,0.043639,0.000000,0.486667,0.725395
59,dominated,0.043639,0.000000,0.489980,0.708763
60,dominated,0.043639,0.000000,0.491416,0.704667
61,dominated,0.043639,0.000000,0.501563,0.688349
62,dominated,0.043639,0.000000,0.497031,0.696947
63,dominated,0.043639,0.000000,0.495901,0.698563
64,dominated,0.043639,0.000000,0.500456,0.654893
65,dominated,0.043639,0.000000,0.500456,0.654893
66,dominated,0.043639,0.000000,0.499211,0.657196
67,dominated,0.043639,0.000000,0.399736,0.720439
68,dominated,0.043639,0.000000,0.414755,0.719486
69,dominated,0.043639,0.000000,0.285831,0.720139
70,dominated,0.043639,0.000000,0.329289,0.720249
71,dominated,0.043639,0.000000,0.322205,0.719846
72,dominated,0.043639,0.000000,0.322205,0.719846
73,dominated,0.043639,0.000000,0.440738,0.721303
74,dominated,0.043639,0.000000,0.449935,0.718628
75,dominated,0.043639,0.000000,0.438321,0.718834
76,dominated,0.043639,0.000000,0.418987,0.720885
77,dominated,0.043639,0.000000,0.415017,0.719123
78,dominated,0.043639,0.000000,0.470733,0.721988
79,dominated,0.043639,0.000000,0.470954,0.717365
80,dominated,0.043639,0.000000,0.499781,0.399274
81,dominated,0.043639,0.000000,0.301566,0.720221
82,dominated,0.043639,0.000000,0.377315,0.719635
83,dominated,0.043639,0.000000,0.499662,0.464421
84,dominated,0.043639,0.000000,0.499702,0.399292
85,dominated,0.043639,0.000000,0.501354,0.618863
86,dominated,0.043639,0.000000,0.499379,0.505987
87,dominated,0.043639,0.000000,0.499193,0.542097
88,dominated,0.043639,0.000000,0.409678,0.717601
89,dominated,0.043639,0.000000,0.468470,0.717573
