,,Pred. Time,UCB,LCB,Pred.Score ,UCB,LCB
Level_3_Run_0_Map.npy,1,0.132368,0.2247922569,0.1752077431,0.482673,0.7509903211,0.6890096789
Level_3_Run_0_Map.npy,2,0.146546,0.1985941926,0.1614058074,0.488513,0.6071883853,0.5328116147
Level_3_Run_0_Map.npy,3,0.149863,0.1723961284,0.1476038716,0.491794,0.6071883853,0.5328116147
Level_3_Run_0_Map.npy,4,0.121926,0.1623961284,0.1376038716,0.444712,0.5833864495,0.4966135505
Level_3_Run_0_Map.npy,5,0.153597,0.1761980642,0.1638019358,0.483311,0.5233864495,0.4366135505
Level_3_Run_0_Map.npy,6,0.152019,0.1723961284,0.1476038716,0.46767,0.5347922569,0.4852077431
Level_3_Run_0_Map.npy,7,0.153189,0.2023961284,0.1776038716,0.532359,0.5833864495,0.4966135505
Level_3_Run_0_Map.npy,8,0.161715,0.1847922569,0.1352077431,0.498526,0.3271883853,0.2528116147
Level_3_Run_0_Map.npy,9,0.161147,0.1623961284,0.1376038716,0.513534,0.4847922569,0.4352077431
Level_3_Run_0_Map.npy,10,0.157249,0.1885941926,0.1514058074,0.530945,0.6057825779,0.4942174221
Level_3_Run_0_Map.npy,11,0.157885,0.2085941926,0.1714058074,0.529955,0.6085941926,0.5714058074
Level_3_Run_0_Map.npy,12,0.165381,0.1885941926,0.1514058074,0.497074,0.5009903211,0.4390096789
Level_3_Run_0_Map.npy,13,0.162629,0.1885941926,0.1514058074,0.537106,0.6309903211,0.5690096789
Level_3_Run_0_Map.npy,14,0.151016,0.1723961284,0.1476038716,0.431122,0.4323961284,0.4076038716
Level_3_Run_0_Map.npy,15,0.147122,0.1785941926,0.1414058074,0.426599,0.4857825779,0.3742174221
Level_3_Run_0_Map.npy,16,0.179395,0.1861980642,0.1738019358,0.520956,0.5809903211,0.5190096789
Level_3_Run_0_Map.npy,17,0.160095,0.1723961284,0.1476038716,0.428922,0.4609903211,0.3990096789
Level_3_Run_0_Map.npy,18,0.189672,0.1723961284,0.1476038716,0.50657,0.6595845137,0.5604154863
Level_3_Run_0_Map.npy,19,0.172541,0.2409903211,0.1790096789,0.437587,0.3271883853,0.2528116147
Level_3_Run_0_Map.npy,20,0.222441,0.2647922569,0.2152077431,0.505194,0.5009903211,0.4390096789
Level_3_Run_0_Map.npy,23,0.326294,0.3271883853,0.2528116147,0.506405,0.5533864495,0.4666135505
Level_3_Run_0_Map.npy,24,0.299841,0.3085941926,0.2714058074,0.497161,0.5947922569,0.5452077431
Level_3_Run_0_Map.npy,25,0.302001,0.3733864495,0.2866135505,0.490024,0.6033864495,0.5166135505
Level_3_Run_0_Map.npy,26,0.318318,0.3085941926,0.2714058074,0.474809,0.4809903211,0.4190096789
Level_3_Run_0_Map.npy,27,0.327634,0.3385941926,0.3014058074,0.522675,0.5933864495,0.5066135505
Level_3_Run_0_Map.npy,28,0.34128,0.3509903211,0.2890096789,0.499667,0.5995845137,0.5004154863
Level_3_Run_0_Map.npy,29,0.319273,0.3123961284,0.2876038716,0.527293,0.5933864495,0.5066135505
Level_3_Run_0_Map.npy,30,0.343007,0.4219806421,0.2980193579,0.49494,0.5433864495,0.4566135505
Level_3_Run_0_Map.npy,31,0.310134,0.2909903211,0.2290096789,0.471402,0.4785941926,0.4414058074
Level_3_Run_0_Map.npy,32,0.29903,0.3047922569,0.2552077431,0.526178,0.5657825779,0.4542174221
Level_3_Run_0_Map.npy,33,0.289551,0.2847922569,0.2352077431,0.482001,0.5547922569,0.5052077431
Level_3_Run_0_Map.npy,34,0.347986,0.3123961284,0.2876038716,0.502179,0.5485941926,0.5114058074
Level_3_Run_0_Map.npy,35,0.30653,0.2685941926,0.2314058074,0.467593,0.4471883853,0.3728116147
Level_3_Run_0_Map.npy,36,0.308352,0.2961980642,0.2838019358,0.533667,0.6385941926,0.6014058074
Level_3_Run_0_Map.npy,37,0.332315,0.3647922569,0.3152077431,0.470129,0.5357825779,0.4242174221
Level_3_Run_0_Map.npy,38,0.279699,0.3271883853,0.2528116147,0.508358,0.5871883853,0.5128116147
Level_3_Run_0_Map.npy,39,0.279723,0.2623961284,0.2376038716,0.520603,0.5209903211,0.4590096789
Level_3_Run_0_Map.npy,40,0.358492,0.3971883853,0.3228116147,0.473603,0.5971883853,0.5228116147
Level_3_Run_0_Map.npy,41,0.333025,0.3209903211,0.2590096789,0.548087,0.5547922569,0.5052077431
Level_3_Run_0_Map.npy,42,0.350298,0.3409903211,0.2790096789,0.542783,0.6171883853,0.5428116147
Level_3_Run_0_Map.npy,45,0.721448,0.886772899,0.713227101,0.537597,0.5947922569,0.5452077431
Level_3_Run_0_Map.npy,46,0.715243,0.8381787064,0.7018212936,0.552649,0.5923961284,0.5676038716
Level_3_Run_0_Map.npy,47,0.702656,0.8333864495,0.7466135505,0.465415,0.5485941926,0.5114058074
Level_3_Run_0_Map.npy,48,0.693275,0.8033864495,0.7166135505,0.513843,0.6247922569,0.5752077431
Level_3_Run_0_Map.npy,49,0.686858,0.8619806421,0.7380193579,0.51063,0.6509903211,0.5890096789
Level_3_Run_0_Map.npy,50,0.679893,0.7695845137,0.6704154863,0.528618,0.6833864495,0.5966135505
Level_3_Run_0_Map.npy,51,0.674449,0.9119806421,0.7880193579,0.498825,0.5833864495,0.4966135505
Level_3_Run_0_Map.npy,52,0.694328,0.7757825779,0.6642174221,0.375925,0.3647922569,0.3152077431
Level_3_Run_0_Map.npy,53,0.668425,0.6771883853,0.6028116147,0.506584,0.4685941926,0.4314058074
Level_3_Run_0_Map.npy,54,0.648917,0.7095845137,0.6104154863,0.508867,0.5785941926,0.5414058074
Level_3_Run_0_Map.npy,55,0.647532,0.6433864495,0.5566135505,0.469865,0.3885941926,0.3514058074
Level_3_Run_0_Map.npy,56,0.649225,0.7719806421,0.6480193579,0.577766,0.7533864495,0.6666135505
Level_3_Run_0_Map.npy,57,0.635897,0.7157825779,0.6042174221,0.480956,0.6895845137,0.5904154863
Level_3_Run_0_Map.npy,58,0.670043,0.6971883853,0.6228116147,0.694452,0.7685941926,0.7314058074
Level_3_Run_0_Map.npy,59,0.614352,0.6395845137,0.5404154863,0.514374,0.6009903211,0.5390096789
Level_3_Run_0_Map.npy,60,0.608568,0.6057825779,0.4942174221,0.525605,0.5485941926,0.5114058074
Level_3_Run_0_Map.npy,61,0.612544,0.5971883853,0.5228116147,0.425483,0.5285941926,0.4914058074
Level_3_Run_0_Map.npy,62,0.606602,0.5171883853,0.4428116147,0.44327,0.4909903211,0.4290096789
Level_3_Run_0_Map.npy,63,0.592335,0.5771883853,0.5028116147,0.531528,0.5647922569,0.5152077431
Level_3_Run_0_Map.npy,64,0.592177,0.5457825779,0.4342174221,0.53,0.6209903211,0.5590096789
