,class,weapon,numbers,ratios,TEAM 1,TEAM 1,numbers,ratios,TEAM 2,TEAM 2,numbers,ratios
,,,,,,,,,,,,
short,Pyro,Flamethrower,7,0.175,Pyro,Flamethrower,2,0.1,Pyro,Flamethrower,5,0.25
short,Engineer,Shotgun  ,5,0.125,Heavy,Shotgun  ,4,0.2,Heavy,Shotgun  ,1,0.05
short,Scout,Scattergun,3,0.075,Scout,Scattergun,1,0.05,Scout,Scattergun,2,0.1
short,Heavy,Minigun,3,0.075,Demoman,Minigun,2,0.1,Demoman,Minigun,1,0.05
short,Medic,Syringe Gun,6,0.15,Engineer,Syringe,5,0.25,Engineer,Syringe,1,0.05
short,Spy,Revolver,2,0.05,Sniper,Revolver,0,0,Sniper,Revolver,2,0.1
short,Sniper,Sniper Rifle,2,0.05,Medic,Sniper Rifle,0,0,Medic,Sniper Rifle,2,0.1
short,Soldier,Rocket,2,0.05,Spy,Rocket,1,0.05,Spy,Rocket,1,0.05
short,Demoman,Grenade,0,0,Soldier,Grenade,0,0,Soldier,Grenade,0,0
short,Other,Other,10,0.25,Other,Other,5,0.25,Other,Other,5,0.25
,,,,,,,,,,,,
,,,40,,,,20,,,,20,
,class,weapon,numbers,ratios,TEAM 1,TEAM 1,numbers,ratios,TEAM 2,TEAM 2,numbers,ratios
,,,,,,,,,,,,
med,Pyro,Flamethrower,8,0.2,Pyro,Flamethrower,2,0.1,Pyro,Flamethrower,6,0.3
med,Engineer,Shotgun  ,1,0.025,Heavy,Shotgun  ,0,0,Heavy,Shotgun  ,1,0.05
med,Scout,Scattergun,5,0.125,Scout,Scattergun,3,0.15,Scout,Scattergun,2,0.1
med,Heavy,Minigun,1,0.025,Demoman,Minigun,1,0.05,Demoman,Minigun,0,0
med,Medic,Syringe,1,0.025,Engineer,Syringe,0,0,Engineer,Syringe,1,0.05
med,Spy,Revolver,0,0,Sniper,Revolver,0,0,Sniper,Revolver,0,0
med,Sniper,Sniper Rifle,3,0.075,Medic,Sniper Rifle,1,0.05,Medic,Sniper Rifle,2,0.1
med,Soldier,Rocket,5,0.125,Spy,Rocket,1,0.05,Spy,Rocket,4,0.2
med,Demoman,Grenade,0,0,Soldier,Grenade,0,0,Soldier,Grenade,0,0
med,Other,Other,16,0.4,Other,Other,12,0.6,,Other,4,0.2
,,,,,,,,,,,,
,,,40,,,,20,,,,20,
,class,weapon,numbers,ratios,TEAM 1,TEAM 1,numbers,ratios,TEAM 2,TEAM 2,numbers,ratios
,,,,,,,,,,,,
long,Pyro,Flamethrower,7,0.175,Pyro,Flamethrower,4,0.2,Pyro,Flamethrower,3,0.15
long,Engineer,Shotgun  ,0,0,Heavy,Shotgun  ,0,0,Heavy,Shotgun  ,0,0
long,Scout,Scattergun,0,0,Scout,Scattergun,0,0,Scout,Scattergun,0,0
long,Heavy,Minigun,9,0.225,Demoman,Minigun,6,0.3,Demoman,Minigun,3,0.15
long,Medic,Syringe,8,0.2,Engineer,Syringe,2,0.1,Engineer,Syringe,6,0.3
long,Spy,Revolver,0,0,Sniper,Revolver,0,0,Sniper,Revolver,0,0
long,Sniper,Sniper Rifle,0,0,Medic,Sniper Rifle,0,0,Medic,Sniper Rifle,0,0
long,Soldier,Rocket,0,0,Spy,Rocket,0,0,Spy,Rocket,0,0
long,Demoman,Grenade,0,0,Soldier,Grenade,0,0,Soldier,Grenade,0,0
long,Other,Other,16,0.4,Other,Other,8,0.4,Other,Other,8,0.4
,,,,,,,,,,,,
,,,40,,,,20,,,,20,
