HP,Speed,Damage,Acc,ClipSize,RateOfFire,NrBullets,Range,HP,Speed,Damage,Acc,ClipSize,RateOfFire,NrBullets,Range,fitness,
0.000000,1.000000,0.215017,0.740213,0.030000,0.030000,0.997015,0.000000,1.000000,0.000000,0.000000,0.655790,1.000000,1.000000,0.000000,2.000000,0.000023
0.000000,1.000000,0.215017,0.740213,0.030000,0.188483,1.000000,0.000000,1.000000,0.000000,0.000000,0.549518,1.000000,1.000000,0.000000,2.000000,0.006019
0.000000,0.783290,0.050104,0.800000,0.030000,0.072643,0.934226,0.000000,1.000000,0.000000,0.056123,0.629084,1.000000,0.878738,0.000000,2.000000,0.000015
0.023762,0.922285,0.050104,0.800000,0.084335,0.000000,0.911913,0.000000,1.000000,0.295516,0.000000,0.675004,1.000000,0.904820,0.000000,0.000000,0.000121
0.000000,0.922285,0.050104,0.698686,0.030000,0.169265,0.934226,0.000000,0.851005,0.000000,0.000000,0.675004,0.913726,1.000000,0.000000,0.000000,0.008176
0.000000,0.971851,0.215017,0.740213,0.081675,0.059942,1.000000,1.000000,1.000000,0.000000,0.000000,0.655790,1.000000,1.000000,0.000000,2.000000,0.000113
0.000000,0.922285,0.050104,0.800000,0.030000,0.420945,0.934226,2.000000,1.000000,0.000000,0.000000,0.675004,1.000000,1.000000,0.000000,0.000000,0.000047
0.101838,0.922285,0.050104,0.800000,0.030000,0.000000,1.000000,2.000000,0.954802,0.158908,0.000000,0.642771,1.000000,1.000000,0.000000,2.000000,0.002631
0.000000,1.000000,0.215017,0.740213,0.030000,0.030000,0.968895,2.000000,1.000000,0.205279,0.000000,0.655790,1.000000,0.943907,0.000000,2.000000,0.000228
0.000000,1.000000,0.215017,0.740213,0.030000,0.021042,1.000000,1.000000,1.000000,0.000000,0.122814,0.600000,1.000000,1.000000,0.086135,0.000000,0.000081
0.000000,0.922285,0.096248,0.800000,0.000000,0.130021,0.934226,2.000000,1.000000,0.000000,0.000000,0.675004,0.888589,1.000000,0.000000,0.000000,0.000469
0.000000,0.922285,0.050104,0.900116,0.030000,0.054785,0.934226,0.000000,1.000000,0.000000,0.000000,0.675004,1.000000,1.000000,0.000000,1.000000,0.014569
0.000000,0.922285,0.050104,0.800000,0.030000,0.000000,0.934226,0.000000,1.000000,0.000000,0.000000,0.675004,0.788051,1.000000,0.000000,0.000000,0.000120
0.000000,1.000000,0.215017,0.740213,0.030000,0.030000,1.000000,0.000000,1.000000,0.000000,0.000000,0.655790,1.000000,1.000000,0.000000,2.000000,0.000023
0.126587,1.000000,0.190609,0.737730,0.000000,0.000000,1.000000,0.000000,1.000000,0.000000,0.000000,0.862839,1.000000,1.000000,0.000000,0.000000,0.034934
0.043935,1.000000,0.188911,0.740213,0.030000,0.030000,0.856473,0.000000,0.861444,0.000000,0.000000,0.655790,0.856874,1.000000,0.000000,1.000000,0.000701
0.000000,1.000000,0.215017,0.740213,0.087747,0.030000,0.856473,0.000000,1.000000,0.000000,0.000000,0.655790,1.000000,0.984130,0.000000,2.000000,0.000002
0.000000,1.000000,0.136826,0.740213,0.030000,0.030000,0.856473,0.000000,1.000000,0.000000,0.133271,0.655790,1.000000,1.000000,0.000000,2.000000,0.005202
0.000000,0.947141,0.098696,0.760938,0.000000,0.169103,0.775621,0.000000,1.000000,0.145177,0.080051,0.600000,0.907707,1.000000,0.000000,0.000000,0.000407
0.000000,1.000000,0.208718,0.740213,0.030000,0.021042,1.000000,0.000000,1.000000,0.108759,0.122814,0.600000,1.000000,0.940824,0.086135,0.000000,0.000004
0.073874,0.922285,0.050104,0.800000,0.030000,0.054785,0.843021,1.000000,1.000000,0.000000,0.000000,0.655790,1.000000,0.988526,0.000000,0.000000,0.000470
0.043935,1.000000,0.215017,0.740213,0.030000,0.030000,0.856473,0.000000,1.000000,0.000000,0.000000,0.675004,0.810296,0.991229,0.000000,0.000000,0.000021
0.000000,1.000000,0.215017,0.740213,0.185093,0.021042,1.000000,0.000000,1.000000,0.000000,0.165064,0.600000,1.000000,1.000000,0.086135,2.000000,0.000256
0.102076,0.922285,0.025802,0.908648,0.048141,0.000000,0.907644,1.000000,1.000000,0.158908,0.000000,0.675004,1.000000,1.000000,0.000000,0.000000,0.020696
0.000000,1.000000,0.215017,0.740213,0.030000,0.045553,1.000000,0.000000,1.000000,0.000000,0.122814,0.600000,1.000000,1.000000,0.086135,0.000000,0.000005
0.000000,1.000000,0.350543,0.740213,0.030000,0.000000,1.000000,0.000000,1.000000,0.000000,0.146567,0.655790,1.000000,1.000000,0.030759,1.000000,0.000534
0.000000,0.956376,0.050104,0.800000,0.030000,0.054785,0.934226,0.000000,1.000000,0.000000,0.000000,0.671430,0.888589,1.000000,0.000000,2.000000,0.000097
0.051697,1.000000,0.279574,0.740213,0.030000,0.000000,0.856473,1.000000,1.000000,0.000000,0.000000,0.655790,1.000000,1.000000,0.000000,2.000000,0.001661
0.000000,1.000000,0.127741,0.740213,0.030000,0.030000,1.000000,1.000000,0.998240,0.061758,0.000000,0.655790,1.000000,1.000000,0.000000,2.000000,0.000723
0.000000,1.000000,0.215017,0.740213,0.030000,0.021042,0.946447,0.000000,1.000000,0.000000,0.122814,0.600000,1.000000,1.000000,0.086135,0.000000,0.000001
0.126587,0.910332,0.190609,0.737730,0.000000,0.080192,1.000000,0.000000,0.982005,0.000000,0.000000,0.675004,1.000000,1.000000,0.000000,0.000000,0.000044
0.126587,1.000000,0.190609,0.737730,0.000000,0.080192,1.000000,0.000000,1.000000,0.000000,0.000000,0.675004,0.819420,1.000000,0.000000,0.000000,0.000030
0.000000,0.880438,0.050104,0.800000,0.030000,0.000000,0.934226,0.000000,1.000000,0.000000,0.056123,0.629084,1.000000,0.904820,0.000000,2.000000,0.000019
0.057203,0.922285,0.000000,0.800000,0.030000,0.033802,0.880990,0.000000,1.000000,0.000000,0.000000,0.703227,0.888589,1.000000,0.000000,0.000000,0.001990
0.000000,0.967757,0.215017,0.740213,0.000000,0.030000,1.000000,0.000000,1.000000,0.000000,0.189984,0.693140,1.000000,1.000000,0.000000,1.000000,0.008101
0.000000,0.917674,0.050104,0.843790,0.000000,0.000000,0.934226,0.000000,0.983978,0.000000,0.000000,0.675004,1.000000,1.000000,0.000000,2.000000,0.002188
0.000000,0.824438,0.050104,0.850666,0.030000,0.030000,0.856473,0.000000,1.000000,0.000000,0.000000,0.655790,1.000000,1.000000,0.000000,0.000000,0.004100
0.000000,0.839044,0.182601,0.800000,0.000000,0.000000,0.934226,0.000000,1.000000,0.158908,0.212246,0.675004,1.000000,1.000000,0.000000,1.000000,0.001357
0.000000,0.806729,0.098696,0.760938,0.000000,0.372099,0.775621,1.000000,1.000000,0.000000,0.080051,0.600000,0.977270,0.886241,0.000000,2.000000,0.000117
0.000000,1.000000,0.215017,0.740213,0.000000,0.029619,1.000000,0.000000,1.000000,0.000000,0.000000,0.655790,0.875440,1.000000,0.000000,0.000000,0.000051
0.095522,1.000000,0.215017,0.740213,0.030000,0.030000,1.000000,1.000000,1.000000,0.000000,0.000000,0.675004,0.927749,1.000000,0.000000,2.000000,0.000137
0.000000,0.922285,0.000000,0.800000,0.030000,0.000000,0.934226,0.000000,0.956322,0.158908,0.000000,0.655790,1.000000,0.910998,0.000000,2.000000,0.000139
0.126587,1.000000,0.190609,0.737730,0.000000,0.080192,0.997715,0.000000,1.000000,0.000000,0.000000,0.675004,1.000000,1.000000,0.000000,0.000000,0.000030
0.084618,1.000000,0.050104,0.800000,0.030000,0.000000,0.935207,0.000000,1.000000,0.080146,0.000000,0.675004,1.000000,1.000000,0.000000,0.000000,0.000065
0.102076,0.922285,0.050104,0.800000,0.030000,0.000000,0.934226,0.000000,1.000000,0.158908,0.000000,0.675004,1.000000,1.000000,0.000000,0.000000,0.000099
0.000000,1.000000,0.215017,0.740213,0.030000,0.030000,1.000000,0.000000,1.000000,0.000000,0.000000,0.655790,1.000000,1.000000,0.000000,0.000000,0.000046
0.000000,1.000000,0.050104,0.800000,0.030000,0.000000,0.820366,0.000000,1.000000,0.079042,0.000000,0.675004,1.000000,1.000000,0.000000,0.000000,0.000217
0.199697,1.000000,0.280284,0.692791,0.023710,0.115927,0.963202,0.000000,1.000000,0.000000,0.123570,0.655790,1.000000,1.000000,0.000000,0.000000,0.000382
0.102076,0.953024,0.050104,0.800000,0.030000,0.014830,0.930549,0.000000,1.000000,0.097456,0.000000,0.655790,1.000000,1.000000,0.000000,1.000000,0.000500
0.000000,1.000000,0.375771,0.740213,0.000000,0.030000,0.856473,0.000000,1.000000,0.177276,0.000000,0.786552,1.000000,1.000000,0.000000,0.000000,0.005605
0.036559,0.922285,0.050104,0.800000,0.000000,0.030000,0.934226,0.000000,1.000000,0.000000,0.000000,0.675004,1.000000,1.000000,0.000000,0.000000,0.000051
0.126587,1.000000,0.190609,0.821538,0.000000,0.030601,1.000000,0.000000,1.000000,0.000000,0.000000,0.675004,1.000000,1.000000,0.000000,0.000000,0.008264
0.000000,1.000000,0.215017,0.740213,0.030000,0.030000,0.794012,1.000000,0.967909,0.000000,0.000000,0.655790,1.000000,1.000000,0.000000,1.000000,0.000127
0.000000,0.804102,0.215017,0.740213,0.030000,0.180254,1.000000,0.000000,1.000000,0.000000,0.122814,0.658225,1.000000,1.000000,0.082696,0.000000,0.001716
0.000000,0.913526,0.215017,0.740213,0.030000,0.030000,0.950042,0.000000,1.000000,0.000000,0.000000,0.767081,1.000000,1.000000,0.000000,0.000000,0.010538
0.000000,0.916115,0.215017,0.740213,0.030000,0.027171,1.000000,0.000000,1.000000,0.000000,0.000000,0.577311,1.000000,1.000000,0.000000,0.000000,0.003991
0.000000,1.000000,0.215017,0.821768,0.030000,0.030000,0.856473,0.000000,1.000000,0.000000,0.000000,0.655790,1.000000,1.000000,0.000000,2.000000,0.007893
0.126587,1.000000,0.190609,0.737730,0.000000,0.000000,1.000000,0.000000,1.000000,0.000000,0.000000,0.675004,0.963120,1.000000,0.000000,2.000000,0.000008
0.036559,0.922285,0.050104,0.800000,0.000000,0.030000,0.934226,0.000000,1.000000,0.132462,0.000000,0.800479,1.000000,0.923486,0.000000,0.000000,0.015535
0.095334,0.964067,0.215017,0.740213,0.116658,0.030000,1.000000,0.000000,0.889919,0.000000,0.000000,0.762401,1.000000,0.965202,0.000000,2.000000,0.004992
0.000000,0.922285,0.000000,0.800000,0.109136,0.054785,0.972400,1.000000,1.000000,0.211426,0.000000,0.675004,0.888589,0.974878,0.102215,0.000000,0.000710
0.000000,1.000000,0.215017,0.740213,0.000000,0.021042,1.000000,0.000000,0.940001,0.000000,0.122814,0.585620,1.000000,1.000000,0.000000,1.000000,0.000546
0.000000,1.000000,0.215017,0.740213,0.087747,0.030000,0.856473,1.000000,1.000000,0.000000,0.000000,0.655790,1.000000,0.984130,0.000000,1.000000,0.000045
0.000000,0.922285,0.050104,0.800000,0.030000,0.054785,0.934226,1.000000,1.000000,0.000000,0.000000,0.675004,0.888589,1.000000,0.000000,0.000000,0.000023
0.073874,0.922285,0.050104,0.800000,0.030000,0.022098,1.000000,1.000000,1.000000,0.000000,0.000000,0.675004,0.810296,0.991229,0.000000,0.000000,0.000094
0.139289,0.931892,0.215017,0.740213,0.030000,0.030000,0.856473,0.000000,1.000000,0.000000,0.000000,0.655790,0.967504,0.975750,0.000000,1.000000,0.000794
0.000000,0.922285,0.050104,0.800000,0.030000,0.000000,1.000000,1.000000,1.000000,0.158908,0.165980,0.675004,1.000000,1.000000,0.000000,2.000000,0.003071
0.000000,0.922285,0.050104,0.800000,0.030000,0.130021,0.973159,2.000000,1.000000,0.000000,0.000000,0.703761,1.000000,1.000000,0.000000,0.000000,0.000631
0.000000,1.000000,0.029530,0.800000,0.030000,0.000000,1.000000,0.000000,1.000000,0.158908,0.000000,0.675004,1.000000,0.979335,0.000000,2.000000,0.000408
0.023762,0.922285,0.050104,0.800000,0.134618,0.000000,0.943195,1.000000,1.000000,0.026530,0.006696,0.675004,0.805728,0.991229,0.000000,1.000000,0.000021
0.000000,1.000000,0.215017,0.740213,0.026516,0.030000,1.000000,0.000000,1.000000,0.000000,0.000000,0.637552,0.888589,1.000000,0.000000,0.000000,0.000474
0.000000,0.922285,0.050104,0.800000,0.030000,0.000000,0.934226,0.000000,0.898554,0.223596,0.000000,0.675004,1.000000,1.000000,0.000000,2.000000,0.000048
0.000000,1.000000,0.215017,0.740213,0.030000,0.030000,0.856473,0.000000,1.000000,0.000000,0.000000,0.655790,1.000000,1.000000,0.000000,1.000000,0.000004
0.000000,1.000000,0.280284,0.660416,0.023710,0.115927,0.963202,2.000000,1.000000,0.000000,0.000000,0.655790,0.956876,1.000000,0.000000,0.000000,0.001007
0.000000,0.922285,0.050104,0.800000,0.058258,0.130021,0.934226,2.000000,1.000000,0.032691,0.000000,0.850406,1.000000,1.000000,0.091630,1.000000,0.029648
0.036559,0.882143,0.050104,0.800000,0.000000,0.030000,0.934226,0.000000,0.939749,0.000000,0.000000,0.675004,1.000000,1.000000,0.000000,0.000000,0.000042
0.000000,1.000000,0.215017,0.740213,0.030000,0.000000,0.950447,0.000000,1.000000,0.033825,0.000000,0.655790,1.000000,1.000000,0.000000,0.000000,0.000033
0.126587,1.000000,0.190609,0.737730,0.000000,0.161850,1.000000,0.000000,1.000000,0.000000,0.000000,0.627496,1.000000,1.000000,0.000000,2.000000,0.001439
0.073874,0.922285,0.050104,0.800000,0.030000,0.261719,0.934226,1.000000,0.989845,0.000000,0.000008,0.629084,1.000000,0.904820,0.000000,2.000000,0.001702
0.000000,0.880438,0.050104,0.672076,0.065370,0.030000,0.934226,1.000000,1.000000,0.000000,0.000000,0.675004,0.888589,0.991229,0.000000,1.000000,0.018016
0.023762,0.922285,0.050104,0.878029,0.030000,0.060075,0.934226,2.000000,0.983978,0.000000,0.000000,0.654932,1.000000,1.000000,0.000000,2.000000,0.016048
0.000000,0.922285,0.050104,0.800000,0.000000,0.000000,1.000000,0.000000,1.000000,0.158908,0.000000,0.675004,1.000000,1.000000,0.074234,0.000000,0.000162
0.000000,0.880438,0.027538,0.800000,0.030000,0.130021,0.934226,1.000000,1.000000,0.000000,0.000000,0.666277,1.000000,1.000000,0.000000,0.000000,0.000060
0.000000,0.922285,0.050104,0.800000,0.030000,0.030000,0.934226,0.000000,1.000000,0.000000,0.056123,0.598025,0.969674,0.904820,0.000000,2.000000,0.000611
0.000000,1.000000,0.215017,0.740213,0.087747,0.030000,0.856473,1.000000,1.000000,0.034758,0.000000,0.655790,1.000000,0.984130,0.000000,1.000000,0.000042
0.000000,0.974441,0.215017,0.740213,0.030000,0.000000,0.856473,0.000000,0.786069,0.000000,0.059114,0.655790,1.000000,1.000000,0.000000,0.000000,0.000584
0.157711,1.000000,0.215017,0.740213,0.030000,0.030000,1.000000,0.000000,1.000000,0.000000,0.000000,0.655790,0.923381,0.977366,0.000000,1.000000,0.001230
0.000000,1.000000,0.120133,0.684740,0.030000,0.030000,1.000000,2.000000,1.000000,0.000000,0.000000,0.655790,1.000000,1.000000,0.000000,0.000000,0.005907
0.023762,0.922285,0.050104,0.800000,0.030000,0.000000,1.000000,0.000000,1.000000,0.137108,0.000000,0.675004,1.000000,1.000000,0.000000,2.000000,0.000074
0.000000,1.000000,0.280284,0.730195,0.097946,0.166580,0.963202,2.000000,1.000000,0.000000,0.000000,0.655790,1.000000,1.000000,0.000000,0.000000,0.001100
0.000000,1.000000,0.215017,0.740213,0.030000,0.030000,0.856473,0.000000,1.000000,0.000000,0.000000,0.655790,1.000000,1.000000,0.000000,1.000000,0.000004
0.000000,1.000000,0.215017,0.740213,0.087747,0.030000,0.856473,0.000000,1.000000,0.000000,0.000000,0.655790,1.000000,0.984130,0.000000,1.000000,0.000004
0.084618,1.000000,0.050104,0.800000,0.030000,0.000000,1.000000,0.000000,1.000000,0.158908,0.000000,0.675004,1.000000,1.000000,0.000000,2.000000,0.000005
0.000000,1.000000,0.215017,0.740213,0.030000,0.021042,1.000000,0.000000,1.000000,0.000000,0.122814,0.600000,1.000000,1.000000,0.086135,0.000000,0.000005
0.000000,0.880438,0.050104,0.800000,0.030000,0.030000,0.934226,0.000000,1.000000,0.000000,0.056123,0.629084,1.000000,0.904820,0.000000,2.000000,0.000018
0.000000,1.000000,0.215017,0.740213,0.030000,0.030000,1.000000,0.000000,1.000000,0.000000,0.000000,0.655790,1.000000,0.866091,0.000000,2.000000,0.000019
0.000000,1.000000,0.215017,0.740213,0.030000,0.030000,1.000000,0.000000,1.000000,0.000000,0.000000,0.655790,1.000000,1.000000,0.000000,2.000000,0.000023
0.000000,0.922285,0.050104,0.800000,0.030000,0.054785,0.934226,1.000000,1.000000,0.000000,0.000000,0.675004,0.888589,1.000000,0.000000,0.000000,0.000023
0.000000,1.000000,0.215017,0.740213,0.074521,0.030000,1.000000,0.000000,1.000000,0.000000,0.000000,0.655790,1.000000,1.000000,0.000000,1.000000,0.000024
0.000000,1.000000,0.280284,0.692791,0.023710,0.115927,0.963202,2.000000,1.000000,0.000000,0.000000,0.655790,1.000000,1.000000,0.000000,0.000000,0.000024
HP,Speed,Damage,Acc,ClipSize,RateOfFire,NrBullets,Range,HP,Speed,Damage,Acc,ClipSize,RateOfFire,NrBullets,Range,fitness,
0.000000,0.930639,1.000000,0.998755,0.452644,0.005611,0.983008,2.000000,0.896569,0.002449,0.652099,1.000000,0.659338,0.520669,0.434419,2.000000,0.000015
0.000000,0.946633,1.000000,1.000000,0.423444,0.005611,0.979727,2.000000,0.896569,0.002449,0.512081,1.000000,0.663856,0.520669,0.434419,2.000000,0.000035
0.000000,0.819574,0.758311,1.000000,0.175939,0.000000,1.000000,1.000000,0.530145,0.000000,0.819577,1.000000,0.641284,0.816583,0.170414,2.000000,0.000225
0.000000,0.819574,0.918284,1.000000,0.029402,0.000000,0.926932,0.000000,0.600080,0.000000,0.638947,1.000000,0.577534,0.675846,0.443836,2.000000,0.000054
0.000000,0.819574,0.795708,1.000000,0.175939,0.000000,0.980877,2.000000,0.530145,0.000000,0.819577,1.000000,0.536111,0.824729,0.298605,2.000000,0.000005
0.006342,0.819574,0.803179,1.000000,0.147301,0.038205,1.000000,2.000000,0.530145,0.034222,0.819577,1.000000,0.536111,0.967188,0.000000,2.000000,0.000010
0.000000,0.819574,0.795708,1.000000,0.175939,0.000000,1.000000,2.000000,0.533429,0.000000,0.819577,1.000000,0.582769,0.816583,0.298605,2.000000,0.000006
0.018110,0.989810,0.793621,0.999800,0.248738,0.000000,0.994415,2.000000,0.482018,0.000000,0.575541,0.974115,0.891196,0.133178,0.159974,2.000000,0.000985
0.000000,0.819574,0.803179,1.000000,0.086255,0.000000,1.000000,2.000000,0.530145,0.000000,0.819577,1.000000,0.536111,0.645282,0.000000,2.000000,0.000035
0.029854,0.804144,0.784656,1.000000,0.175939,0.000000,0.926283,2.000000,0.595682,0.000000,0.704957,1.000000,0.520302,0.675846,0.351113,2.000000,0.000014
0.000000,0.819574,0.788022,1.000000,0.175939,0.000000,0.926283,2.000000,0.507853,0.000000,0.638947,0.865247,0.577534,0.675846,0.298605,2.000000,0.018574
0.018110,0.955267,0.889255,1.000000,0.110512,0.000000,1.000000,2.000000,0.644515,0.033071,0.696414,1.000000,0.805230,0.709465,0.434419,2.000000,0.000049
0.018110,0.955267,0.889255,1.000000,0.110512,0.000000,1.000000,1.000000,0.720393,0.000000,0.819577,1.000000,0.566938,0.816583,0.298605,2.000000,0.000138
0.018110,0.989810,0.793621,0.943513,0.248738,0.000000,0.994415,2.000000,0.370406,0.000000,0.696414,1.000000,0.805230,0.709465,0.434419,2.000000,0.003275
0.000000,0.818554,0.825455,1.000000,0.231331,0.000000,1.000000,0.000000,0.676750,0.000000,0.565553,1.000000,0.799960,0.506666,0.393563,1.000000,0.000297
0.105865,0.915693,0.821940,1.000000,0.175939,0.000000,1.000000,2.000000,0.530145,0.000000,0.819577,1.000000,0.536111,0.816583,0.298605,1.000000,0.000079
0.000000,0.819574,0.795708,1.000000,0.132300,0.000000,0.926283,2.000000,0.595682,0.000000,0.638947,1.000000,0.577534,0.675846,0.088734,2.000000,0.000021
0.000000,0.830641,0.788022,1.000000,0.175939,0.000000,1.000000,2.000000,0.550108,0.000000,0.575541,1.000000,0.891196,0.280432,0.159974,0.000000,0.000025
0.000000,0.780323,0.788022,1.000000,0.197733,0.000000,0.926283,2.000000,0.600080,0.000000,0.638947,0.941973,0.581108,0.817420,0.298605,1.000000,0.004201
0.000000,0.819574,0.765124,1.000000,0.135431,0.000000,1.000000,1.000000,0.595682,0.000000,0.509760,1.000000,0.577534,0.675846,0.298605,1.000000,0.000073
0.000000,0.819574,0.784656,1.000000,0.175939,0.111940,0.926283,2.000000,0.595682,0.000000,0.638947,1.000000,0.577534,0.675846,0.351113,2.000000,0.000016
0.018110,0.659156,0.956162,1.000000,0.361110,0.108237,1.000000,2.000000,0.941035,0.000000,0.488602,1.000000,0.638257,0.671262,0.637902,2.000000,0.000042
0.018110,0.989810,0.793621,1.000000,0.248738,0.000000,0.994415,0.000000,0.533429,0.000000,0.819577,1.000000,0.536111,0.816583,0.193400,2.000000,0.000339
0.000000,0.819574,0.842918,1.000000,0.175939,0.000000,1.000000,2.000000,0.509630,0.000000,0.819577,1.000000,0.566938,0.816583,0.298605,2.000000,0.000020
0.000000,0.906036,0.805553,0.992818,0.175939,0.198765,0.941382,0.000000,0.595682,0.080501,0.467693,0.940381,0.687991,0.639774,0.414740,2.000000,0.003511
0.000000,0.819574,0.795708,1.000000,0.175939,0.000000,0.994415,1.000000,0.530145,0.000000,0.819577,1.000000,0.536111,0.816583,0.393250,0.000000,0.000067
0.115287,1.000000,0.793621,1.000000,0.247977,0.000000,1.000000,2.000000,0.700746,0.000000,0.819577,1.000000,0.589591,0.816583,0.298605,1.000000,0.000037
0.000000,0.955267,0.973432,1.000000,0.462665,0.005611,0.983008,0.000000,0.896569,0.002449,0.556083,1.000000,0.659338,0.520669,0.434419,2.000000,0.000306
0.103967,0.819574,0.795708,1.000000,0.175939,0.000000,0.838488,1.000000,0.493698,0.000000,0.850031,1.000000,0.536111,0.709465,0.434419,0.000000,0.000041
0.134884,0.955267,0.889255,1.000000,0.110512,0.000000,0.983008,2.000000,0.833683,0.000000,0.696414,1.000000,0.805230,0.816583,0.170414,2.000000,0.000025
0.000000,0.819574,0.803179,1.000000,0.086255,0.000000,1.000000,2.000000,0.595682,0.052635,0.575609,1.000000,0.687991,0.724693,0.407661,1.000000,0.000087
0.000000,0.870285,0.770405,0.840212,0.066546,0.000000,1.000000,2.000000,0.530145,0.000000,0.819577,1.000000,0.336252,0.816583,0.000000,2.000000,0.033757
0.000000,0.955267,0.973432,0.964127,0.370821,0.005611,0.868362,1.000000,0.896569,0.100441,0.556083,1.000000,0.663856,0.520669,0.434419,0.000000,0.002185
0.000000,0.880252,0.788022,1.000000,0.258249,0.210649,0.923961,2.000000,0.600080,0.039736,0.590696,1.000000,0.828881,0.521012,0.352912,2.000000,0.000018
0.000000,0.841390,0.795708,1.000000,0.175939,0.000000,0.731739,2.000000,0.517398,0.000000,0.819577,1.000000,0.536111,0.980459,0.298605,2.000000,0.000040
0.000000,0.819574,0.815833,1.000000,0.175939,0.000000,1.000000,1.000000,0.530145,0.000000,0.761323,1.000000,0.548850,0.816583,0.298605,1.000000,0.000042
0.000000,0.819574,0.973432,1.000000,0.405633,0.047326,0.914052,2.000000,0.896569,0.002449,0.556083,1.000000,0.659338,0.520669,0.434419,0.000000,0.000048
0.129454,1.000000,0.793621,1.000000,0.266232,0.133154,1.000000,2.000000,0.850325,0.000000,0.629082,1.000000,0.793136,0.373403,0.414740,1.000000,0.000135
0.000000,0.913197,0.940777,1.000000,0.258249,0.210649,0.926283,2.000000,0.600080,0.000000,0.638947,1.000000,0.608994,0.587405,0.352912,0.000000,0.000236
0.000000,0.968457,0.788022,1.000000,0.175939,0.000000,0.926283,1.000000,0.552412,0.000000,0.638947,1.000000,0.577534,0.675846,0.298605,2.000000,0.000060
0.107433,0.819574,1.000000,0.982076,0.615238,0.005611,0.983008,0.000000,0.863690,0.000000,0.556083,0.834015,0.659338,0.520669,0.434419,2.000000,0.018510
0.000000,0.819574,0.795708,1.000000,0.175939,0.000000,0.994415,2.000000,0.672521,0.000000,0.819577,1.000000,0.536111,0.853486,0.298605,2.000000,0.000105
0.014662,0.819574,0.784656,1.000000,0.175939,0.000000,0.926283,2.000000,0.595682,0.111023,0.638947,1.000000,0.577534,0.675846,0.351113,2.000000,0.000021
0.000000,0.841107,0.871973,1.000000,0.234795,0.000000,0.926283,0.000000,0.595682,0.000000,0.456347,1.000000,0.577534,0.675846,0.298605,1.000000,0.000130
0.018110,0.955267,0.889255,0.939829,0.110512,0.000000,0.983008,2.000000,0.720393,0.000000,0.696414,1.000000,0.555523,0.816583,0.430325,1.000000,0.005238
0.062575,1.000000,0.818584,1.000000,0.247977,0.000000,1.000000,2.000000,0.700746,0.000000,0.819577,1.000000,0.777105,0.638306,0.283062,2.000000,0.000073
0.195539,0.955267,0.889255,1.000000,0.110512,0.000000,0.983008,2.000000,0.629678,0.038679,0.696414,1.000000,0.805230,0.709465,0.434419,2.000000,0.000262
0.000000,0.984997,0.843762,1.000000,0.175939,0.000000,0.994415,2.000000,0.530145,0.000000,0.819577,1.000000,0.536003,0.816583,0.298605,2.000000,0.000015
0.000000,0.877260,0.788161,1.000000,0.144051,0.000000,0.926283,2.000000,0.600080,0.000000,0.638947,0.990200,0.577534,0.675846,0.298605,2.000000,0.000149
0.000000,0.757888,0.795708,1.000000,0.175939,0.000000,0.968885,2.000000,0.756246,0.000000,0.507603,1.000000,0.638257,0.671262,0.687783,1.000000,0.000040
0.129454,1.000000,1.000000,1.000000,0.240616,0.133154,1.000000,2.000000,0.624471,0.000000,0.629082,1.000000,0.793136,0.373403,0.414740,2.000000,0.000293
0.006342,0.819574,0.803179,1.000000,0.147301,0.038205,1.000000,2.000000,0.530145,0.034222,0.762272,1.000000,0.536111,0.816583,0.052889,2.000000,0.000009
0.000000,0.906036,0.835943,0.992818,0.066546,0.041135,1.000000,2.000000,0.595682,0.080501,0.575609,0.980636,0.687991,0.609424,0.407661,0.000000,0.000570
0.115287,0.875666,0.775450,1.000000,0.350417,0.000000,0.916918,2.000000,0.555567,0.000000,0.575541,1.000000,0.793136,0.214951,0.464402,2.000000,0.000060
0.073892,0.955267,0.824514,1.000000,0.162628,0.064044,1.000000,2.000000,0.759134,0.000000,0.565167,1.000000,0.638257,0.653893,0.637902,2.000000,0.000035
0.000000,0.819574,0.795708,1.000000,0.175939,0.000000,1.000000,2.000000,0.530145,0.000000,0.819577,1.000000,0.536111,0.816583,0.298605,2.000000,0.000006
0.065105,0.877260,0.788022,1.000000,0.175939,0.000000,1.000000,2.000000,0.530145,0.000000,0.819577,1.000000,0.536111,0.816583,0.170414,2.000000,0.000008
0.055269,0.819574,0.795708,1.000000,0.175939,0.000000,0.926283,2.000000,0.600080,0.125216,0.625277,0.855085,0.577534,0.675846,0.298605,1.000000,0.020361
0.000000,0.819574,0.795708,1.000000,0.175939,0.000000,1.000000,0.000000,0.530145,0.000000,0.819577,1.000000,0.793136,0.302981,0.469366,2.000000,0.000594
0.115287,0.937871,0.775450,0.801999,0.350417,0.000000,0.916918,2.000000,0.619898,0.000000,0.575541,1.000000,0.536111,0.816583,0.298605,2.000000,0.038924
0.018110,0.989810,0.793621,1.000000,0.248738,0.000000,0.994415,2.000000,0.533429,0.000000,0.819577,1.000000,0.566938,0.816583,0.298605,2.000000,0.000005
0.000000,0.906036,0.805553,0.992818,0.175939,0.144780,0.939584,0.000000,0.595682,0.080501,0.575609,1.000000,0.811447,0.796563,0.472842,0.000000,0.000278
0.264098,1.000000,0.793621,1.000000,0.240616,0.133154,1.000000,2.000000,0.691117,0.000000,0.629082,1.000000,0.793136,0.390812,0.414740,2.000000,0.000057
0.204202,0.819574,0.795708,1.000000,0.175939,0.000000,1.000000,0.000000,0.530145,0.000000,0.819577,1.000000,0.536111,0.816583,0.170414,2.000000,0.000122
0.000000,0.752930,0.820822,1.000000,0.231331,0.000000,1.000000,2.000000,0.896569,0.112871,0.556083,1.000000,0.659338,0.520669,0.434419,2.000000,0.000208
0.000000,0.819574,0.973432,1.000000,0.475958,0.000000,0.983008,0.000000,0.676750,0.000000,0.565553,1.000000,0.799960,0.373403,0.486300,2.000000,0.000061
0.180190,0.898211,0.699766,1.000000,0.248738,0.133154,1.000000,2.000000,0.763580,0.000000,0.673874,1.000000,0.786510,0.373403,0.414740,2.000000,0.000265
0.129454,1.000000,0.649315,1.000000,0.240616,0.000000,0.902719,0.000000,0.595682,0.000000,0.734479,1.000000,0.577534,0.659220,0.298605,0.000000,0.000785
0.000029,0.955267,0.793621,1.000000,0.240491,0.064044,1.000000,2.000000,0.759134,0.000000,0.556083,1.000000,0.566938,0.816583,0.298605,0.000000,0.000050
0.226659,0.989810,0.793621,1.000000,0.248738,0.000000,0.994415,2.000000,0.533429,0.000000,0.935255,1.000000,0.638257,0.671262,0.578746,2.000000,0.000048
0.000000,0.819574,0.706611,1.000000,0.135431,0.057304,1.000000,2.000000,0.595682,0.000000,0.638947,1.000000,0.577534,0.547041,0.298605,0.000000,0.000089
0.030956,0.989810,0.793621,1.000000,0.248738,0.000000,0.994415,2.000000,0.533429,0.000000,0.819577,0.983815,0.566938,0.816583,0.298605,2.000000,0.000286
0.000000,0.995093,0.795708,1.000000,0.322839,0.000000,0.977077,2.000000,0.530145,0.000000,0.819577,1.000000,0.536111,0.816583,0.298605,2.000000,0.000006
0.000000,0.955267,0.973432,1.000000,0.423444,0.006462,0.983008,2.000000,0.896569,0.002449,0.556083,1.000000,0.659338,0.520669,0.434419,2.000000,0.000014
0.000000,0.932440,0.795708,1.000000,0.175939,0.000000,0.994415,2.000000,0.314606,0.089234,0.739533,1.000000,0.536111,0.816583,0.170414,2.000000,0.000207
0.000000,0.819574,0.678072,1.000000,0.175939,0.055307,1.000000,2.000000,0.530145,0.000000,0.819577,1.000000,0.536111,0.816583,0.298605,2.000000,0.000220
0.000000,0.955267,0.973432,1.000000,0.423444,0.000000,0.983008,2.000000,0.834718,0.000000,0.819577,1.000000,0.536111,0.816583,0.298605,2.000000,0.000013
0.000000,0.819574,0.748909,1.000000,0.175939,0.000000,0.994415,0.000000,0.759596,0.000000,0.556083,1.000000,0.659338,0.520669,0.434419,2.000000,0.000936
0.000000,0.955267,0.973432,1.000000,0.432530,0.005611,0.983008,2.000000,0.896569,0.002449,0.555957,1.000000,0.663856,0.520669,0.434419,2.000000,0.000015
0.000000,0.819574,0.721805,1.000000,0.175939,0.000000,1.000000,2.000000,0.530145,0.000000,0.819577,1.000000,0.536111,0.816583,0.170414,2.000000,0.000109
0.000000,0.819574,0.788022,1.000000,0.175939,0.086428,0.926283,2.000000,0.714268,0.000000,0.638947,1.000000,0.567400,0.675846,0.298605,2.000000,0.000078
0.000000,0.819574,0.656712,1.000000,0.086255,0.000000,1.000000,2.000000,0.530145,0.000000,0.819577,1.000000,0.536111,0.816583,0.000000,2.000000,0.000351
0.048882,0.819574,0.784656,0.954940,0.175939,0.000000,0.868849,0.000000,0.595682,0.000000,0.638947,1.000000,0.577534,0.675846,0.330491,2.000000,0.005003
0.018110,0.955267,0.889255,0.886768,0.110512,0.000000,0.983008,2.000000,0.720393,0.000000,0.696414,1.000000,0.777105,0.709465,0.434419,2.000000,0.018564
0.129454,1.000000,0.715663,1.000000,0.240616,0.133154,1.000000,2.000000,0.691117,0.000000,0.589230,1.000000,0.786510,0.373403,0.414740,2.000000,0.000073
0.000000,0.819574,0.973432,1.000000,0.475958,0.047326,0.983008,2.000000,0.896569,0.126340,0.556083,1.000000,0.730329,0.520669,0.434419,2.000000,0.000016
0.000000,0.840464,0.973432,1.000000,0.475958,0.005611,1.000000,2.000000,0.860371,0.002449,0.556083,1.000000,0.659338,0.709465,0.434419,2.000000,0.000041
0.018110,0.955267,0.889255,1.000000,0.136863,0.000000,0.983008,2.000000,0.814960,0.023385,0.696414,1.000000,0.777105,0.520669,0.434419,2.000000,0.000047
0.000000,0.819574,0.748830,1.000000,0.175939,0.000000,1.000000,2.000000,0.676750,0.000000,0.595913,1.000000,0.799960,0.373403,0.393563,2.000000,0.000130
0.000000,0.805692,0.820822,1.000000,0.231331,0.009082,1.000000,2.000000,0.550108,0.000000,0.575541,1.000000,0.891196,0.133178,0.159974,1.000000,0.000010
0.018110,0.989810,0.793621,1.000000,0.248738,0.000000,0.994415,2.000000,0.533429,0.000000,0.819577,1.000000,0.566938,0.816583,0.298605,2.000000,0.000005
0.000000,0.819574,0.795708,1.000000,0.175939,0.000000,0.994415,2.000000,0.530145,0.000000,0.819577,1.000000,0.536111,0.816583,0.298605,2.000000,0.000006
0.000000,0.819574,0.795708,1.000000,0.175939,0.000000,1.000000,2.000000,0.530145,0.000000,0.819577,1.000000,0.536111,0.816583,0.298605,2.000000,0.000006
0.000000,0.819574,0.795708,1.000000,0.175939,0.000000,1.000000,2.000000,0.530145,0.000000,0.819577,1.000000,0.536111,0.816583,0.170414,2.000000,0.000011
0.018110,0.955267,0.889255,1.000000,0.110512,0.000000,0.983008,2.000000,0.720393,0.000000,0.696414,1.000000,0.777105,0.709465,0.434419,2.000000,0.000011
0.018110,0.955267,0.889255,1.000000,0.110512,0.000000,0.983008,2.000000,0.720393,0.000000,0.696414,1.000000,0.805230,0.709465,0.434419,2.000000,0.000011
0.006342,0.819574,0.803179,1.000000,0.147301,0.038205,1.000000,2.000000,0.530145,0.034222,0.819577,1.000000,0.536111,0.816583,0.052889,2.000000,0.000011
0.000000,0.819574,0.803179,1.000000,0.147301,0.000000,1.000000,2.000000,0.530145,0.000000,0.819577,1.000000,0.536111,0.816583,0.052889,2.000000,0.000013
0.000000,0.955267,0.973432,1.000000,0.423444,0.005611,0.983008,2.000000,0.896569,0.002449,0.556083,1.000000,0.659338,0.520669,0.434419,2.000000,0.000014
0.000000,0.955267,0.973432,1.000000,0.432530,0.005611,0.983008,2.000000,0.896569,0.002449,0.556083,1.000000,0.663856,0.520669,0.434419,2.000000,0.000015
