HP,Speed,Damage,Acc,ClipSize,RateOfFire,NrBullets,Range,HP,Speed,Damage,Acc,ClipSize,RateOfFire,NrBullets,Range,fitness,
0.508365,0.425802,0.000000,0.190167,0.088520,0.000000,0.821593,1.000000,1.000000,0.000000,0.000000,0.000000,1.000000,0.689746,0.236786,0.000000,0.000103
0.464795,0.425802,0.258520,0.207167,0.000000,0.228016,0.790194,1.000000,1.000000,0.000000,0.000000,0.000000,0.910190,1.000000,0.000000,0.000000,0.013799
0.543187,0.376001,0.195965,0.312532,0.088520,0.042512,0.841820,2.000000,1.000000,0.071608,0.000000,0.013140,0.914347,0.906633,0.000000,2.000000,0.021629
0.523516,0.296959,0.000000,0.190167,0.088520,0.000000,0.890813,0.000000,1.000000,0.000000,0.000000,0.020767,0.978121,0.802977,0.000000,0.000000,0.000001
0.552397,0.425802,0.000000,0.190167,0.088520,0.000000,0.890813,1.000000,0.992745,0.000000,0.049189,0.000000,0.978121,0.689746,0.106378,0.000000,0.000150
0.464936,0.776160,0.170340,0.000000,0.000000,0.068015,0.953151,0.000000,1.000000,0.195831,0.000000,0.000000,0.961022,0.795892,0.000000,1.000000,0.000012
0.464795,0.425802,0.000000,0.003268,0.170796,0.042512,0.790194,1.000000,1.000000,0.071608,0.000000,0.000000,0.923210,0.906633,0.000000,0.000000,0.005676
0.508365,0.432979,0.000000,0.190167,0.016290,0.042512,0.905820,2.000000,1.000000,0.071608,0.000000,0.000000,0.877580,1.000000,0.000000,1.000000,0.000018
0.554676,0.786408,0.170340,0.000000,0.000000,0.151557,0.765836,1.000000,0.973769,0.398195,0.000000,0.000000,0.983964,0.956076,0.000000,0.000000,0.000150
0.508365,0.432979,0.000000,0.190167,0.088520,0.042512,0.790194,0.000000,0.894992,0.071608,0.000000,0.000000,0.982640,0.906633,0.000000,2.000000,0.000259
0.508365,0.425802,0.000000,0.190167,0.088520,0.000000,0.890813,1.000000,0.921898,0.000000,0.000000,0.000000,0.978121,0.689746,0.106378,0.000000,0.000198
0.464795,0.425802,0.000000,0.207167,0.000000,0.084114,0.790194,1.000000,0.877840,0.000000,0.000000,0.000000,0.997417,1.000000,0.058415,2.000000,0.000424
0.508365,0.432979,0.000000,0.190167,0.088520,0.042512,0.790194,2.000000,1.000000,0.019928,0.000000,0.000000,0.914347,0.803265,0.000000,2.000000,0.000001
0.543187,0.432979,0.000000,0.190167,0.088520,0.042512,0.790194,2.000000,1.000000,0.071608,0.000000,0.000000,0.923210,0.906633,0.000000,2.000000,0.000031
0.489704,0.800320,0.149439,0.000000,0.000000,0.078349,1.000000,2.000000,0.941890,0.206272,0.020039,0.000000,0.952507,0.783145,0.080439,0.000000,0.000090
0.529266,0.550141,0.000000,0.207167,0.000000,0.235820,0.683405,1.000000,1.000000,0.071192,0.002247,0.000000,0.884677,0.958556,0.000000,2.000000,0.000018
0.510204,0.680292,0.248674,0.000000,0.000000,0.000000,1.000000,1.000000,1.000000,0.055615,0.000000,0.000000,0.923201,0.783145,0.000000,0.000000,0.002199
0.508365,0.319116,0.000000,0.190167,0.218196,0.131151,0.887626,2.000000,0.947894,0.091330,0.000000,0.000000,0.978121,0.706976,0.000000,2.000000,0.000173
0.439550,0.374192,0.059666,0.190167,0.152896,0.082665,1.000000,2.000000,1.000000,0.066704,0.000000,0.000000,0.923201,1.000000,0.207756,2.000000,0.000697
0.465276,0.786408,0.000000,0.190167,0.088520,0.000000,0.890813,0.000000,1.000000,0.000000,0.000000,0.000000,0.978121,0.753048,0.080379,2.000000,0.000096
0.464936,0.719760,0.000000,0.190167,0.088520,0.000000,0.890813,1.000000,1.000000,0.000000,0.000000,0.000000,0.978121,0.689746,0.192788,2.000000,0.000233
0.508365,0.425802,0.170340,0.071667,0.000000,0.120178,0.980072,0.000000,1.000000,0.155695,0.000000,0.000000,0.923201,0.862056,0.000000,1.000000,0.001245
0.508365,0.432979,0.000000,0.190167,0.088520,0.042512,0.790194,2.000000,1.000000,0.071608,0.000000,0.000000,0.923210,0.906633,0.000000,2.000000,0.000001
0.508365,0.425802,0.000000,0.190167,0.081572,0.000000,0.890813,2.000000,1.000000,0.203454,0.000000,0.000000,0.861990,1.000000,0.000000,2.000000,0.000008
0.508365,0.425802,0.000000,0.190167,0.088520,0.000000,0.890813,1.000000,1.000000,0.168752,0.036112,0.000000,0.978121,0.802977,0.020007,2.000000,0.000224
0.508365,0.403530,0.025464,0.190167,0.088520,0.077211,0.914914,1.000000,1.000000,0.000000,0.000000,0.000000,0.783446,0.721299,0.000000,1.000000,0.000273
0.543187,0.432979,0.000000,0.210745,0.088520,0.042512,0.790194,2.000000,1.000000,0.071608,0.000000,0.013140,0.914347,0.906633,0.000000,1.000000,0.000119
0.508365,0.425802,0.000000,0.190167,0.088520,0.000000,1.000000,0.000000,1.000000,0.217307,0.000000,0.000000,0.861990,1.000000,0.000000,2.000000,0.000008
0.508365,0.250267,0.000000,0.190167,0.088520,0.000000,0.890813,2.000000,1.000000,0.203454,0.048021,0.000000,0.861990,1.000000,0.000000,2.000000,0.000382
0.600896,0.564761,0.000000,0.132202,0.354848,0.077870,0.879176,1.000000,0.977286,0.000000,0.000000,0.021530,1.000000,1.000000,0.017509,0.000000,0.000158
0.413078,0.512877,0.000000,0.190167,0.026979,0.184268,0.890813,0.000000,1.000000,0.000000,0.000000,0.000000,0.978121,0.753048,0.000000,1.000000,0.000238
0.465276,0.786408,0.011243,0.190167,0.088520,0.000000,1.000000,2.000000,1.000000,0.171663,0.000000,0.000000,0.923201,0.916927,0.000000,1.000000,0.000062
0.772295,0.425802,0.000000,0.190167,0.152896,0.000000,1.000000,0.000000,1.000000,0.178538,0.000000,0.094982,0.923201,1.000000,0.000000,2.000000,0.000556
0.508365,0.425802,0.000000,0.190167,0.183160,0.000000,0.890813,1.000000,1.000000,0.000000,0.000000,0.000000,0.978121,0.794155,0.000000,1.000000,0.000008
0.465276,0.786408,0.211528,0.207167,0.106752,0.042512,0.952833,0.000000,0.959177,0.155695,0.000000,0.024586,1.000000,0.970405,0.000000,2.000000,0.010566
0.407273,0.786408,0.170340,0.000000,0.000000,0.073934,0.765117,1.000000,1.000000,0.071608,0.000000,0.000000,0.923210,1.000000,0.000000,1.000000,0.000209
0.464795,0.425802,0.000000,0.152681,0.007341,0.150100,0.945316,0.000000,0.950050,0.071608,0.084585,0.000000,0.923201,0.795892,0.000000,1.000000,0.001760
0.464936,0.786408,0.170340,0.000000,0.000000,0.068015,0.938673,0.000000,1.000000,0.195831,0.000000,0.000000,0.652039,1.000000,0.000000,0.000000,0.000020
0.464795,0.245504,0.000000,0.207167,0.000000,0.042512,0.790194,0.000000,0.891905,0.000000,0.000000,0.000000,0.923210,1.000000,0.000000,2.000000,0.000333
0.489704,0.852701,0.149439,0.000000,0.204154,0.078349,1.000000,2.000000,1.000000,0.206272,0.000000,0.000000,0.789419,0.783145,0.000000,1.000000,0.000009
0.543187,0.311282,0.000000,0.190167,0.088520,0.042512,0.790194,2.000000,1.000000,0.071608,0.000000,0.024870,0.914347,0.906633,0.000000,2.000000,0.000009
0.465276,0.835814,0.170340,0.000000,0.000000,0.120178,1.000000,1.000000,1.000000,0.073519,0.000000,0.000000,1.000000,0.862056,0.000000,0.000000,0.000044
0.508365,0.425802,0.000000,0.190167,0.088520,0.173285,0.928420,0.000000,1.000000,0.000000,0.000000,0.000000,1.000000,0.802977,0.000000,2.000000,0.000004
0.464795,0.578289,0.000000,0.237423,0.053031,0.000000,0.790194,1.000000,1.000000,0.000000,0.000000,0.000000,0.889930,1.000000,0.044056,2.000000,0.000148
0.494539,0.811928,0.212954,0.000000,0.000000,0.073934,0.765117,0.000000,0.959177,0.155695,0.000000,0.024586,1.000000,0.862056,0.000000,2.000000,0.000407
0.508365,0.425802,0.000000,0.199425,0.088520,0.000000,0.883792,1.000000,1.000000,0.000000,0.123003,0.000000,0.978121,0.753048,0.000000,0.000000,0.001769
0.464936,0.786408,0.170340,0.000000,0.000000,0.000000,0.953151,0.000000,1.000000,0.155695,0.000000,0.000000,0.923201,0.862056,0.000000,1.000000,0.000012
0.508365,0.562788,0.000000,0.190167,0.088520,0.042512,0.790194,2.000000,1.000000,0.071608,0.000000,0.000000,0.992269,0.906633,0.000000,2.000000,0.000001
0.508365,0.376175,0.000000,0.122135,0.088520,0.000000,0.890813,1.000000,1.000000,0.061514,0.000000,0.000000,0.978121,0.753048,0.000000,2.000000,0.000643
0.442225,0.800320,0.149439,0.000000,0.000000,0.130448,1.000000,2.000000,1.000000,0.070930,0.000000,0.000000,0.923201,0.783145,0.000000,2.000000,0.000092
0.489704,0.800320,0.149439,0.000000,0.070820,0.078349,1.000000,2.000000,1.000000,0.206272,0.000000,0.000000,0.784052,0.783145,0.000000,1.000000,0.000008
0.818476,0.425802,0.000000,0.190167,0.088520,0.171031,0.890813,1.000000,1.000000,0.260170,0.000000,0.000000,0.822518,1.000000,0.000000,1.000000,0.003544
0.543187,0.432979,0.000000,0.190167,0.088520,0.042512,0.790194,2.000000,0.922503,0.071608,0.000000,0.000000,0.914347,0.906633,0.000000,2.000000,0.000388
0.465276,0.786408,0.011243,0.190167,0.088520,0.000000,0.890813,0.000000,1.000000,0.000000,0.000000,0.000000,0.978121,0.707427,0.000000,2.000000,0.000006
0.464795,0.425802,0.000000,0.242781,0.000000,0.042512,0.905820,0.000000,1.000000,0.060788,0.000000,0.000000,0.877580,1.000000,0.074916,2.000000,0.000237
0.464936,0.768608,0.143908,0.013580,0.000000,0.270074,1.000000,2.000000,0.991086,0.039307,0.000000,0.000000,0.923201,0.927694,0.000000,2.000000,0.000041
0.548770,0.425802,0.000000,0.042402,0.088520,0.000000,0.890813,1.000000,1.000000,0.000000,0.000000,0.000000,0.978121,0.689746,0.106378,1.000000,0.002673
0.489704,0.646604,0.149439,0.000000,0.000000,0.000000,1.000000,2.000000,1.000000,0.224965,0.000000,0.000000,0.923210,1.000000,0.150277,2.000000,0.000087
0.508365,0.425802,0.087495,0.190167,0.152896,0.080069,1.000000,0.000000,1.000000,0.155695,0.000000,0.047821,0.923201,1.000000,0.000000,2.000000,0.001374
0.608015,0.425802,0.147765,0.425017,0.088520,0.000000,0.890813,1.000000,1.000000,0.000000,0.000000,0.000000,0.978121,0.753048,0.000000,2.000000,0.034906
0.508365,0.432979,0.000000,0.190167,0.088520,0.042512,0.790194,2.000000,1.000000,0.071608,0.000000,0.000000,0.923210,0.906633,0.000000,1.000000,0.000000
0.348279,0.786408,0.000000,0.207167,0.000000,0.042512,0.952833,1.000000,1.000000,0.071608,0.000000,0.000000,0.923210,0.961865,0.083541,1.000000,0.000628
0.508365,0.432276,0.000000,0.161785,0.088520,0.000000,0.890813,2.000000,1.000000,0.000000,0.000000,0.000000,0.978121,0.746539,0.000000,2.000000,0.000065
0.508365,0.425802,0.000000,0.203606,0.000000,0.000000,1.000000,1.000000,1.000000,0.071608,0.000000,0.000000,0.790586,0.910129,0.000000,1.000000,0.000147
0.464936,0.786408,0.170340,0.000000,0.000000,0.068015,0.953151,0.000000,1.000000,0.155359,0.000000,0.000000,0.923201,0.862056,0.000000,1.000000,0.000014
0.617252,0.425802,0.170340,0.000000,0.021211,0.120178,0.985789,0.000000,1.000000,0.073519,0.131896,0.000000,1.000000,0.949890,0.000000,0.000000,0.000711
0.508365,0.425802,0.000000,0.189925,0.152896,0.000000,1.000000,0.000000,1.000000,0.155695,0.000000,0.000000,0.923201,1.000000,0.000000,2.000000,0.000010
0.574368,0.432979,0.000000,0.190167,0.088520,0.042512,0.790194,2.000000,1.000000,0.071608,0.064371,0.000000,0.923210,0.906633,0.000000,2.000000,0.000204
0.508365,0.564761,0.000000,0.190167,0.354848,0.134695,0.879176,1.000000,0.977286,0.000000,0.000000,0.021530,0.899241,1.000000,0.017509,1.000000,0.000024
0.465276,0.786408,0.000000,0.207167,0.106190,0.042512,0.952833,1.000000,1.000000,0.071608,0.000000,0.000000,0.923210,0.883191,0.011055,1.000000,0.000039
0.543187,0.432979,0.000000,0.000000,0.088520,0.085451,0.790194,2.000000,1.000000,0.071608,0.000000,0.013140,0.914347,0.906633,0.000000,0.000000,0.004649
0.465276,0.835814,0.170340,0.000000,0.091378,0.120178,1.000000,2.000000,1.000000,0.073519,0.000000,0.000000,1.000000,0.876910,0.000000,0.000000,0.000072
0.640797,0.800320,0.149439,0.000000,0.000000,0.078349,1.000000,0.000000,1.000000,0.206272,0.000000,0.000000,0.923201,0.783145,0.000000,2.000000,0.000609
0.466880,0.425802,0.000000,0.190167,0.088520,0.000000,0.890813,0.000000,1.000000,0.000000,0.000000,0.000000,0.978121,0.802977,0.000000,2.000000,0.000041
0.543187,0.488935,0.000000,0.190167,0.088520,0.042512,0.790194,1.000000,1.000000,0.071608,0.000000,0.000000,0.762550,0.906633,0.000000,1.000000,0.000044
0.508365,0.280914,0.000000,0.190167,0.088520,0.000000,0.890813,2.000000,1.000000,0.071608,0.000000,0.013140,0.914347,1.000000,0.000000,2.000000,0.000022
0.543187,0.432979,0.157706,0.190167,0.088520,0.042512,0.790194,0.000000,1.000000,0.071608,0.000000,0.115723,0.815502,0.902342,0.000000,0.000000,0.003290
0.508365,0.425802,0.029049,0.167913,0.000000,0.000000,0.890813,1.000000,1.000000,0.071608,0.000000,0.000000,0.955765,0.869743,0.000000,1.000000,0.000041
0.489704,0.800320,0.199772,0.207167,0.053031,0.000000,0.732344,1.000000,1.000000,0.000000,0.000000,0.000000,0.923210,1.000000,0.000000,0.000000,0.008709
0.464795,0.453756,0.357641,0.000000,0.000000,0.078349,0.979118,1.000000,1.000000,0.206272,0.000000,0.098704,1.000000,0.783145,0.000000,2.000000,0.005367
0.464795,0.438165,0.000000,0.207167,0.000000,0.230716,0.683405,1.000000,1.000000,0.071192,0.000000,0.000000,0.845614,0.958556,0.000000,0.000000,0.000026
0.519873,0.728670,0.000000,0.207167,0.000000,0.108809,0.905820,1.000000,1.000000,0.017842,0.000000,0.000000,0.989787,1.000000,0.000000,1.000000,0.000141
0.508365,0.432979,0.000000,0.190167,0.088520,0.042512,0.790194,2.000000,1.000000,0.071608,0.000000,0.000000,0.923210,0.906633,0.000000,2.000000,0.000001
0.444964,0.786408,0.170340,0.000000,0.000000,0.068015,0.953151,2.000000,1.000000,0.192920,0.000000,0.000000,0.923201,0.795892,0.000000,0.000000,0.000057
0.464795,0.425802,0.000000,0.207167,0.000000,0.042512,0.905820,1.000000,1.000000,0.047643,0.000000,0.000000,0.989787,1.000000,0.000000,1.000000,0.000026
0.489704,0.756953,0.149439,0.000000,0.000000,0.078349,1.000000,2.000000,0.869872,0.206272,0.000000,0.000000,0.923201,0.783145,0.000000,2.000000,0.000581
0.508365,0.425802,0.000000,0.190167,0.000000,0.000000,0.890813,0.000000,1.000000,0.000000,0.000000,0.000000,0.987335,0.802977,0.000000,2.000000,0.000005
0.508365,0.432323,0.000000,0.088871,0.088520,0.000000,0.890813,1.000000,1.000000,0.000000,0.000000,0.000000,0.978121,0.753048,0.000000,0.000000,0.001336
0.508365,0.425802,0.000000,0.000000,0.070820,0.078349,1.000000,0.000000,1.000000,0.206272,0.000000,0.085124,0.784052,0.832316,0.000000,2.000000,0.006984
0.489704,0.800320,0.149439,0.190167,0.088520,0.000000,0.890813,1.000000,1.000000,0.071608,0.000000,0.000000,0.790586,0.905107,0.000000,1.000000,0.004946
0.508365,0.432979,0.000000,0.190167,0.088520,0.042512,0.790194,2.000000,1.000000,0.071608,0.000000,0.000000,0.923210,0.906633,0.000000,2.000000,0.000001
0.508365,0.432979,0.000000,0.190167,0.088520,0.042512,0.790194,2.000000,1.000000,0.071608,0.000000,0.000000,0.923210,0.906633,0.000000,2.000000,0.000001
0.508365,0.425802,0.000000,0.190167,0.088520,0.000000,0.890813,1.000000,1.000000,0.089689,0.000000,0.000000,0.978121,0.753048,0.000000,2.000000,0.000001
0.508365,0.425802,0.000000,0.190167,0.088520,0.000000,0.890813,1.000000,1.000000,0.000000,0.000000,0.000000,0.978121,0.689746,0.106378,0.000000,0.000003
0.543187,0.432979,0.000000,0.190167,0.088520,0.042512,0.790194,2.000000,1.000000,0.071608,0.000000,0.013140,0.914347,0.906633,0.000000,2.000000,0.000003
0.508365,0.425802,0.000000,0.190167,0.088520,0.000000,0.890813,0.000000,1.000000,0.203454,0.000000,0.000000,0.861990,1.000000,0.000000,1.000000,0.000004
0.508365,0.425802,0.000000,0.190167,0.088520,0.000000,0.890813,0.000000,1.000000,0.000000,0.000000,0.000000,0.978121,0.802977,0.000000,2.000000,0.000004
0.508365,0.425802,0.000000,0.190167,0.088520,0.000000,0.890813,1.000000,1.000000,0.000000,0.000000,0.000000,0.978121,0.753048,0.036484,0.000000,0.000004
0.508365,0.425802,0.000000,0.190167,0.088520,0.000000,0.890813,1.000000,1.000000,0.000000,0.000000,0.000000,0.978121,0.753048,0.000000,2.000000,0.000004
0.508365,0.425802,0.000000,0.190167,0.088520,0.000000,0.890813,1.000000,1.000000,0.000000,0.000000,0.000000,0.978121,0.753048,0.000000,2.000000,0.000004
HP,Speed,Damage,Acc,ClipSize,RateOfFire,NrBullets,Range,HP,Speed,Damage,Acc,ClipSize,RateOfFire,NrBullets,Range,fitness,
0.106719,0.736335,0.100835,0.370285,0.000000,0.000000,0.972723,2.000000,1.000000,0.140355,0.159016,0.070231,0.764337,1.000000,0.208734,1.000000,0.002699
0.188483,0.801149,0.000000,0.444640,0.241751,0.000000,0.903413,2.000000,0.929937,0.240837,0.000000,0.144420,0.971877,1.000000,0.016977,2.000000,0.000002
0.048004,0.737322,0.000000,0.481554,0.170997,0.177047,0.857740,1.000000,1.000000,0.140355,0.000000,0.113496,1.000000,0.804093,0.024311,2.000000,0.000127
0.165364,0.888482,0.005541,0.462696,0.063305,0.278199,1.000000,0.000000,0.995366,0.000000,0.000000,0.144420,0.971877,1.000000,0.266076,1.000000,0.000165
0.188483,0.763457,0.210120,0.444640,0.241751,0.000000,0.903413,2.000000,0.929937,0.240837,0.000000,0.344650,0.971877,1.000000,0.016977,2.000000,0.002383
0.188483,0.801149,0.000000,0.444640,0.112198,0.124605,1.000000,1.000000,1.000000,0.140355,0.000000,0.144420,0.971877,0.875324,0.000000,2.000000,0.000086
0.188483,0.801149,0.005541,0.454047,0.000000,0.278199,1.000000,0.000000,1.000000,0.140355,0.000000,0.144420,1.000000,0.905972,0.000000,0.000000,0.000033
0.165364,0.888482,0.000000,0.444640,0.120785,0.019588,0.903413,2.000000,0.929937,0.240837,0.000000,0.144420,1.000000,1.000000,0.016977,2.000000,0.000007
0.188483,0.801149,0.000000,0.444640,0.184990,0.124605,1.000000,0.000000,0.816754,0.140355,0.000000,0.144420,0.971877,0.984992,0.000000,2.000000,0.000480
0.188483,0.801149,0.101975,0.557977,0.204970,0.127063,1.000000,1.000000,0.938491,0.140355,0.018412,0.144420,0.971877,1.000000,0.000000,0.000000,0.009737
0.188483,0.809143,0.000000,0.444640,0.241751,0.000000,0.903413,1.000000,0.977749,0.240837,0.000000,0.144420,0.942828,1.000000,0.016977,2.000000,0.000090
0.188483,0.703542,0.000000,0.444640,0.120785,0.019588,0.903413,2.000000,0.929937,0.240837,0.000000,0.043653,0.971877,1.000000,0.016977,2.000000,0.001084
0.188483,0.801149,0.166180,0.444640,0.043261,0.000000,1.000000,1.000000,0.938491,0.140355,0.000000,0.144420,0.959004,0.947719,0.007907,0.000000,0.005281
0.067917,0.990773,0.000000,0.519851,0.361723,0.124605,0.784284,0.000000,0.973255,0.117424,0.000000,0.097487,0.971877,1.000000,0.000000,0.000000,0.000366
0.106719,0.736335,0.100835,0.370285,0.273339,0.124605,0.865885,2.000000,0.920648,0.140355,0.000000,0.144420,0.971877,0.776087,0.000000,2.000000,0.000063
0.188483,0.832890,0.000000,0.444640,0.000000,0.000000,0.972723,1.000000,1.000000,0.140355,0.123757,0.077770,0.764337,1.000000,0.175676,1.000000,0.001210
0.165364,0.881870,0.005541,0.462696,0.063305,0.278199,1.000000,0.000000,1.000000,0.000000,0.000000,0.144420,0.855826,0.983204,0.000000,0.000000,0.000007
0.165364,0.888482,0.005541,0.462696,0.063305,0.278199,1.000000,1.000000,1.000000,0.186449,0.000000,0.144420,0.971877,1.000000,0.000000,2.000000,0.000005
0.188483,0.801149,0.000000,0.617908,0.204970,0.346649,1.000000,0.000000,0.938491,0.140355,0.000000,0.144420,0.971877,1.000000,0.000000,2.000000,0.008620
0.188483,0.801149,0.000000,0.441192,0.093061,0.124605,1.000000,1.000000,0.938491,0.140355,0.000000,0.166496,0.971877,1.000000,0.000000,2.000000,0.000036
0.188483,0.716145,0.000000,0.335940,0.204970,0.124605,1.000000,1.000000,0.938491,0.156902,0.000000,0.144420,0.971877,0.804843,0.000000,2.000000,0.001974
0.188483,0.801149,0.000000,0.444640,0.204970,0.124605,0.779833,0.000000,1.000000,0.140355,0.000000,0.144420,0.971877,0.984992,0.000000,2.000000,0.000329
0.188483,0.801149,0.000000,0.444640,0.112198,0.124605,0.973696,2.000000,0.938491,0.140355,0.000000,0.144420,1.000000,1.000000,0.009087,2.000000,0.000007
0.276132,0.801149,0.000000,0.444640,0.120785,0.019588,0.903413,2.000000,1.000000,0.240837,0.000000,0.099877,0.971877,0.875324,0.000000,2.000000,0.000520
0.188483,0.914354,0.000000,0.494081,0.256617,0.072651,0.994542,0.000000,0.999749,0.140355,0.098617,0.144420,1.000000,0.870576,0.000000,1.000000,0.000474
0.116326,0.801149,0.000000,0.444640,0.112444,0.009295,0.902746,0.000000,0.922473,0.056645,0.000000,0.144420,0.959004,0.795828,0.000000,2.000000,0.000113
0.048004,0.843168,0.025629,0.481554,0.103667,0.124605,0.980216,1.000000,1.000000,0.096897,0.017172,0.113496,1.000000,1.000000,0.000000,2.000000,0.000086
0.188483,0.801149,0.000000,0.444640,0.204970,0.124605,1.000000,0.000000,0.938491,0.140355,0.000000,0.144420,0.971877,1.000000,0.000000,2.000000,0.000014
0.165364,0.888482,0.005541,0.462696,0.000000,0.278199,1.000000,0.000000,1.000000,0.128253,0.000000,0.144420,0.971877,1.000000,0.000000,2.000000,0.000016
0.177963,0.941970,0.000000,0.444640,0.204970,0.000000,1.000000,0.000000,1.000000,0.197313,0.000000,0.118199,0.971877,1.000000,0.007907,0.000000,0.000122
0.188483,0.896233,0.005541,0.462696,0.063305,0.278199,0.980566,0.000000,1.000000,0.000000,0.000000,0.144420,0.971877,1.000000,0.000000,2.000000,0.000013
0.165364,0.801149,0.000000,0.444640,0.204970,0.124605,1.000000,0.000000,0.938491,0.140355,0.000000,0.027294,0.971877,0.984992,0.000000,2.000000,0.001217
0.112822,0.801149,0.000000,0.444640,0.400624,0.000000,0.903413,2.000000,0.992790,0.176490,0.000000,0.144420,0.971877,0.776087,0.000000,2.000000,0.000421
0.188483,0.934029,0.000000,0.444640,0.273339,0.124605,0.903413,2.000000,0.920648,0.140355,0.000000,0.144420,0.971877,1.000000,0.123555,2.000000,0.000003
0.188483,0.832890,0.000000,0.444640,0.273339,0.124605,0.903413,2.000000,0.792646,0.140355,0.000000,0.144420,0.971877,0.776087,0.000000,2.000000,0.000739
0.165364,1.000000,0.005541,0.462696,0.063305,0.278199,1.000000,2.000000,1.000000,0.000000,0.082010,0.144420,0.971877,1.000000,0.000000,2.000000,0.000795
0.188483,0.801149,0.000000,0.486947,0.204970,0.118532,1.000000,1.000000,0.938491,0.184040,0.000000,0.045885,0.971877,0.988451,0.000000,2.000000,0.002583
0.243041,0.801149,0.000000,0.511324,0.283038,0.124605,1.000000,0.000000,0.938491,0.140355,0.000000,0.144420,0.971877,0.984992,0.000000,2.000000,0.001705
0.188483,0.801149,0.000000,0.740552,0.204970,0.124605,0.863733,0.000000,0.938491,0.140355,0.000000,0.144420,1.000000,1.000000,0.049628,2.000000,0.032688
0.268097,0.801149,0.076174,0.611421,0.120785,0.019588,0.903413,2.000000,0.929937,0.240837,0.000000,0.144420,0.971877,1.000000,0.000000,0.000000,0.019624
0.104420,0.801149,0.093972,0.444640,0.204970,0.124605,0.903413,2.000000,0.999749,0.140355,0.010073,0.285470,0.813732,0.870576,0.000000,1.000000,0.002009
0.188483,0.801149,0.000000,0.444640,0.241751,0.000000,0.903413,2.000000,0.929937,0.193373,0.000000,0.324896,0.971877,1.000000,0.016977,2.000000,0.003618
0.188483,0.942531,0.000000,0.444640,0.273339,0.124605,0.903413,2.000000,0.872274,0.140355,0.000000,0.144420,1.000000,0.776087,0.000000,2.000000,0.000167
0.188483,0.922173,0.000000,0.444640,0.238391,0.124605,1.000000,0.000000,0.938491,0.122961,0.000000,0.144420,0.771964,1.000000,0.021119,0.000000,0.000023
0.188483,0.763457,0.000000,0.444640,0.241751,0.000000,0.903413,2.000000,0.929937,0.125547,0.000000,0.141451,0.971877,1.000000,0.000000,0.000000,0.000036
0.102857,0.673275,0.000000,0.444640,0.112198,0.124605,1.000000,1.000000,0.938491,0.032765,0.000000,0.144420,0.971877,0.764697,0.016977,2.000000,0.000161
0.193639,0.801149,0.000000,0.494081,0.143849,0.072651,0.961389,0.000000,1.000000,0.140355,0.000000,0.144420,1.000000,0.870576,0.000000,1.000000,0.000173
0.116326,0.768730,0.000000,0.444640,0.120785,0.019588,0.976833,2.000000,0.929937,0.391708,0.192963,0.144420,1.000000,1.000000,0.016977,2.000000,0.005359
0.188483,0.763457,0.000000,0.444640,0.241751,0.000000,0.903413,2.000000,0.919573,0.240837,0.000000,0.340697,1.000000,0.872786,0.026264,2.000000,0.004283
0.188483,0.801149,0.000000,0.444640,0.241751,0.000000,0.903413,2.000000,0.929937,0.240837,0.000000,0.144420,0.971877,0.862775,0.016977,2.000000,0.000002
0.188483,0.801149,0.000000,0.444640,0.204970,0.124605,1.000000,1.000000,0.938491,0.140355,0.000000,0.124458,0.971877,1.000000,0.000000,2.000000,0.000089
0.188483,0.801149,0.000000,0.464914,0.241751,0.000000,0.903413,2.000000,0.929937,0.406467,0.000000,0.233962,0.971877,1.000000,0.080181,2.000000,0.000657
0.188483,0.763457,0.000000,0.434219,0.191141,0.084792,0.903413,2.000000,0.929937,0.240837,0.000000,0.027706,0.971877,1.000000,0.016977,2.000000,0.001170
0.188483,0.918958,0.000000,0.444640,0.241751,0.000000,0.903413,0.000000,0.817751,0.298531,0.000000,0.144420,0.971877,1.000000,0.060336,2.000000,0.000232
0.188483,0.801149,0.000000,0.444640,0.204970,0.124605,1.000000,0.000000,0.938491,0.140355,0.000000,0.144420,0.928408,0.984992,0.000000,2.000000,0.000013
0.344306,0.801149,0.000000,0.444640,0.241751,0.000000,0.903413,2.000000,0.929937,0.176490,0.000000,0.144420,0.858159,1.000000,0.195925,2.000000,0.000473
0.188483,0.801149,0.000000,0.444640,0.204970,0.127063,1.000000,0.000000,0.938491,0.155395,0.018412,0.144420,1.000000,1.000000,0.000000,2.000000,0.000031
0.176840,0.801149,0.000000,0.444640,0.120785,0.166007,0.903413,2.000000,0.929937,0.240837,0.000000,0.144420,1.000000,1.000000,0.000000,2.000000,0.000000
0.105790,0.914354,0.000000,0.494081,0.434522,0.014738,0.961389,2.000000,0.999749,0.000000,0.000000,0.144420,1.000000,0.870576,0.000000,1.000000,0.000064
0.188483,0.673275,0.000000,0.444640,0.073633,0.124605,1.000000,1.000000,0.938491,0.108684,0.000000,0.144420,0.971877,0.875324,0.000000,0.000000,0.000024
0.188739,0.801149,0.000000,0.444640,0.241751,0.000000,0.903413,2.000000,0.929937,0.240837,0.000000,0.262141,0.971877,1.000000,0.016977,2.000000,0.001460
0.134549,0.758282,0.000000,0.444640,0.241751,0.000000,0.903413,2.000000,0.929937,0.240837,0.000000,0.144420,0.971877,1.000000,0.016977,2.000000,0.000066
0.188483,0.801149,0.014927,0.396262,0.204970,0.124605,1.000000,1.000000,0.938491,0.140355,0.000000,0.144420,0.902073,1.000000,0.068085,2.000000,0.000246
0.201882,0.801149,0.000000,0.444640,0.241751,0.000000,0.903413,2.000000,0.929937,0.339211,0.000000,0.144420,1.000000,1.000000,0.016977,2.000000,0.000010
0.188483,0.801149,0.000000,0.444640,0.204970,0.127063,1.000000,1.000000,0.938491,0.140355,0.018412,0.144420,0.971877,1.000000,0.000000,2.000000,0.000014
0.188483,0.801149,0.000000,0.386250,0.033783,0.019588,0.903413,1.000000,0.929937,0.240837,0.000000,0.144420,0.885787,1.000000,0.016977,2.000000,0.000716
0.188483,0.829988,0.000000,0.444640,0.241751,0.000000,0.910513,0.000000,0.929937,0.240837,0.083951,0.187821,0.835714,1.000000,0.016977,2.000000,0.001842
0.088842,0.914354,0.005541,0.554464,0.031038,0.278199,1.000000,0.000000,1.000000,0.009266,0.136664,0.098987,1.000000,1.000000,0.000000,2.000000,0.000659
0.197605,0.801149,0.004748,0.444640,0.271158,0.093647,1.000000,0.000000,0.929937,0.241659,0.000000,0.144420,0.838078,1.000000,0.123555,2.000000,0.000000
0.188483,0.801149,0.000000,0.444356,0.241751,0.000000,0.903413,2.000000,0.938491,0.140355,0.000000,0.000000,0.728135,0.885026,0.000000,0.000000,0.002379
0.288079,0.801149,0.000000,0.444640,0.045534,0.124605,1.000000,1.000000,0.938491,0.140355,0.000000,0.287347,0.971877,1.000000,0.000000,2.000000,0.000821
0.188483,1.000000,0.005541,0.441307,0.031038,0.278199,1.000000,0.000000,1.000000,0.009266,0.136664,0.073387,0.971877,1.000000,0.000000,0.000000,0.000799
0.165364,0.802936,0.005541,0.462696,0.043284,0.278199,1.000000,0.000000,1.000000,0.131316,0.000000,0.214296,0.971877,1.000000,0.000000,1.000000,0.000624
0.188483,0.832890,0.000000,0.444640,0.273339,0.124605,0.908888,0.000000,0.929937,0.140355,0.000000,0.144420,0.961189,0.903768,0.266601,2.000000,0.000144
0.188483,0.801149,0.000000,0.444640,0.204970,0.124605,1.000000,0.000000,0.938491,0.042756,0.000000,0.144420,1.000000,0.984992,0.000000,2.000000,0.000016
0.188483,0.852038,0.092271,0.501540,0.241751,0.000000,0.903413,2.000000,0.929937,0.231390,0.038678,0.144420,0.971877,1.000000,0.016977,2.000000,0.003306
0.188483,0.801149,0.000000,0.444640,0.239066,0.124605,1.000000,2.000000,0.938491,0.136628,0.000000,0.144420,1.000000,1.000000,0.021119,1.000000,0.000015
0.188483,0.801149,0.000000,0.444640,0.271158,0.124605,1.000000,0.000000,0.938491,0.236440,0.000000,0.144420,0.971877,1.000000,0.021119,2.000000,0.000010
0.165364,0.790449,0.005541,0.462696,0.204970,0.233258,1.000000,1.000000,0.938491,0.140355,0.000000,0.144420,0.902073,1.000000,0.000000,2.000000,0.000091
0.188483,0.748886,0.000000,0.444640,0.063305,0.278199,1.000000,0.000000,1.000000,0.000000,0.000000,0.144420,0.971877,0.891086,0.000000,2.000000,0.000112
0.188483,0.801149,0.000000,0.444640,0.241751,0.000000,0.903413,2.000000,0.929937,0.219755,0.000000,0.144420,0.971877,1.000000,0.016977,2.000000,0.000003
0.188483,0.763457,0.000000,0.444640,0.241751,0.028339,0.827029,2.000000,0.994870,0.240837,0.000000,0.141451,0.847661,1.000000,0.134255,1.000000,0.000235
0.288079,0.978203,0.005541,0.462696,0.298901,0.278199,1.000000,0.000000,1.000000,0.009266,0.136664,0.073387,0.971877,0.911952,0.000000,0.000000,0.000009
0.288079,0.973140,0.005541,0.462696,0.031038,0.278199,1.000000,2.000000,1.000000,0.009266,0.136664,0.073387,0.971877,0.911952,0.000000,0.000000,0.000020
0.106719,0.715385,0.051452,0.343966,0.000000,0.029580,1.000000,2.000000,1.000000,0.140355,0.002444,0.070231,0.767507,0.972287,0.016977,2.000000,0.000570
0.188483,0.801149,0.061690,0.444640,0.000000,0.019588,0.903413,1.000000,0.929937,0.240837,0.000000,0.144420,1.000000,1.000000,0.075791,2.000000,0.000500
0.106719,0.762014,0.135159,0.227716,0.171519,0.018947,0.864128,1.000000,1.000000,0.066669,0.000000,0.070231,0.764337,0.814093,0.083385,0.000000,0.001539
0.188483,0.801149,0.002301,0.359634,0.204970,0.124605,0.693342,0.000000,0.863211,0.140355,0.000000,0.144420,0.971877,1.000000,0.000000,2.000000,0.001057
0.188483,0.801149,0.000000,0.444640,0.120785,0.019588,0.903413,2.000000,0.896691,0.240837,0.000000,0.144420,1.000000,1.000000,0.016977,2.000000,0.000046
0.188483,0.763457,0.000000,0.479826,0.245608,0.000000,0.903413,2.000000,0.929937,0.240837,0.000000,0.141451,0.971877,1.000000,0.016977,2.000000,0.000354
0.188483,0.801149,0.000000,0.444640,0.120785,0.019588,0.903413,2.000000,0.929937,0.240837,0.000000,0.144420,1.000000,1.000000,0.016977,2.000000,0.000002
0.188483,0.801149,0.000000,0.444640,0.241751,0.000000,0.903413,2.000000,0.929937,0.240837,0.000000,0.144420,0.971877,1.000000,0.016977,2.000000,0.000002
0.188483,0.801149,0.000000,0.444640,0.241751,0.000000,0.903413,2.000000,0.929937,0.240837,0.000000,0.144420,0.971877,1.000000,0.016977,2.000000,0.000002
0.188483,0.763457,0.000000,0.444640,0.241751,0.000000,0.903413,2.000000,0.929937,0.240837,0.000000,0.141451,0.971877,1.000000,0.016977,2.000000,0.000006
0.116326,0.914354,0.000000,0.494081,0.256617,0.072651,0.961389,0.000000,0.999749,0.140355,0.000000,0.144420,1.000000,0.870576,0.000000,1.000000,0.000006
0.116326,0.914354,0.000000,0.494081,0.358357,0.030000,0.961389,0.000000,0.999749,0.140355,0.000000,0.144420,1.000000,0.870576,0.000000,1.000000,0.000006
0.188483,0.801149,0.000000,0.444640,0.112198,0.124605,1.000000,1.000000,0.938491,0.140355,0.000000,0.144420,0.971877,0.875324,0.000000,2.000000,0.000009
0.188483,0.801149,0.000000,0.444640,0.204970,0.124605,1.000000,1.000000,0.938491,0.140355,0.000000,0.144420,0.971877,1.000000,0.000000,2.000000,0.000009
0.165364,0.888482,0.005541,0.462696,0.063305,0.278199,1.000000,0.000000,1.000000,0.000000,0.000000,0.144420,0.971877,0.891086,0.000000,2.000000,0.000009
0.188483,0.801149,0.000000,0.444640,0.204970,0.124605,1.000000,1.000000,0.938491,0.140355,0.000000,0.144420,0.902073,1.000000,0.000000,2.000000,0.000009
