HP,Speed,Damage,Acc,ClipSize,RateOfFire,NrBullets,Range,HP,Speed,Damage,Acc,ClipSize,RateOfFire,NrBullets,Range,fitness,
0.466954,0.925550,0.006587,0.214179,0.000000,0.127857,0.748647,2.000000,1.000000,0.310404,0.000000,0.179077,0.879505,1.000000,0.000000,2.000000,0.003719
0.466954,1.000000,0.000000,0.122380,0.056092,0.146544,0.848523,1.000000,0.798153,0.471827,0.000000,0.000000,0.904712,1.000000,0.000000,2.000000,0.000005
0.466954,0.925550,0.006234,0.214179,0.000000,0.127857,0.674981,0.000000,1.000000,0.310404,0.000000,0.000000,0.904712,1.000000,0.000000,0.000000,0.000002
0.466954,1.000000,0.000000,0.122380,0.030000,0.346668,0.848523,1.000000,0.798153,0.183866,0.000000,0.000000,0.885889,1.000000,0.000000,1.000000,0.000024
0.466954,1.000000,0.000000,0.214179,0.043672,0.053594,0.902779,0.000000,1.000000,0.249702,0.121714,0.000000,0.843195,1.000000,0.000000,2.000000,0.002172
0.351273,1.000000,0.000000,0.239271,0.000000,0.088279,0.665104,1.000000,1.000000,0.231098,0.000000,0.000000,0.877225,1.000000,0.013279,1.000000,0.000346
0.466954,1.000000,0.000000,0.149346,0.030000,0.127099,1.000000,0.000000,0.863575,0.254793,0.000000,0.005509,1.000000,1.000000,0.007691,2.000000,0.000020
0.466954,0.738797,0.000000,0.214179,0.000000,0.229357,1.000000,1.000000,1.000000,0.175668,0.000000,0.000000,0.879505,0.935558,0.000000,2.000000,0.000113
0.466954,1.000000,0.000000,0.122380,0.011622,0.105360,0.848523,1.000000,0.798153,0.330480,0.000000,0.000000,0.904712,1.000000,0.000000,0.000000,0.000017
0.466954,0.628340,0.006587,0.214179,0.000000,0.127857,0.663137,0.000000,1.000000,0.303752,0.000000,0.000000,0.904712,0.779192,0.000000,1.000000,0.000012
0.422347,1.000000,0.000000,0.000000,0.000000,0.147686,0.557885,2.000000,1.000000,0.092849,0.000000,0.000000,0.904712,1.000000,0.000000,1.000000,0.007836
0.466954,0.925550,0.006587,0.214179,0.000000,0.044391,0.557885,1.000000,1.000000,0.231098,0.000000,0.000000,0.980808,1.000000,0.000000,0.000000,0.000012
0.488693,0.925550,0.006587,0.202403,0.000000,0.127857,0.663137,2.000000,1.000000,0.232084,0.000000,0.000000,0.893345,1.000000,0.000000,1.000000,0.000001
0.466954,0.849194,0.000000,0.128908,0.000000,0.333846,0.863929,1.000000,1.000000,0.175668,0.000000,0.000000,0.879505,0.924958,0.000000,1.000000,0.000874
0.466549,1.000000,0.000000,0.231507,0.000000,0.147686,0.613000,0.000000,1.000000,0.214856,0.000000,0.000000,0.879505,1.000000,0.000000,1.000000,0.000002
0.466954,0.925550,0.006587,0.214179,0.071332,0.200294,0.730201,0.000000,0.870220,0.310404,0.000000,0.057287,0.879505,0.969163,0.000000,2.000000,0.000399
0.439844,0.893187,0.000000,0.214179,0.094394,0.147686,0.488392,1.000000,1.000000,0.252786,0.000000,0.000000,0.951328,1.000000,0.000000,0.000000,0.000166
0.422347,1.000000,0.000000,0.239271,0.000000,0.127857,0.854143,0.000000,1.000000,0.310404,0.000000,0.000000,0.879505,1.000000,0.000000,2.000000,0.000101
0.466954,0.994185,0.000000,0.214179,0.000000,0.127857,0.867181,0.000000,1.000000,0.194868,0.239134,0.000000,0.879505,1.000000,0.000000,0.000000,0.007092
0.466954,0.925550,0.006587,0.214179,0.000000,0.016803,0.710415,1.000000,1.000000,0.231098,0.000000,0.000000,0.893345,1.000000,0.000000,1.000000,0.000008
0.466954,0.806290,0.006587,0.214179,0.000000,0.127857,0.663137,0.000000,1.000000,0.310404,0.017860,0.000000,0.879505,1.000000,0.000000,0.000000,0.000077
0.439844,0.885885,0.000000,0.214179,0.000000,0.127857,0.949425,0.000000,0.839650,0.454696,0.000000,0.000000,0.854883,0.819005,0.000000,1.000000,0.000993
0.527386,0.925550,0.006587,0.214179,0.075302,0.101274,0.663137,0.000000,0.913243,0.310404,0.000000,0.000000,0.828994,1.000000,0.000000,0.000000,0.000607
0.466954,0.925550,0.000000,0.214179,0.000000,0.127857,0.799805,1.000000,1.000000,0.310622,0.000000,0.000000,0.827395,1.000000,0.118470,2.000000,0.000076
0.422347,1.000000,0.000000,0.239271,0.000000,0.147686,0.557885,2.000000,1.000000,0.231098,0.000000,0.000000,1.000000,1.000000,0.000000,0.000000,0.000051
0.466954,0.692998,0.013513,0.000000,0.069609,0.079487,0.801898,1.000000,0.846484,0.254793,0.020444,0.214356,0.980549,1.000000,0.000000,1.000000,0.012153
0.466954,1.000000,0.000000,0.122380,0.030000,0.127099,1.000000,0.000000,0.863575,0.254793,0.000000,0.000000,0.750374,1.000000,0.030906,2.000000,0.000026
0.425455,1.000000,0.000000,0.214179,0.054131,0.127857,0.867181,0.000000,1.000000,0.175668,0.000000,0.005509,1.000000,0.820446,0.007691,2.000000,0.000101
0.466954,1.000000,0.002810,0.122380,0.014092,0.105360,0.848523,1.000000,0.798153,0.287348,0.000000,0.000000,0.904712,1.000000,0.000000,0.000000,0.000033
0.466954,0.925550,0.000000,0.214179,0.000000,0.209348,0.854143,0.000000,1.000000,0.310404,0.000000,0.000000,0.879505,1.000000,0.000000,0.000000,0.000007
0.307031,0.827536,0.006587,0.214179,0.000000,0.000000,0.663137,2.000000,1.000000,0.303752,0.000000,0.040792,0.904712,1.000000,0.009999,0.000000,0.001926
0.466954,1.000000,0.000000,0.239271,0.000000,0.147686,0.557885,2.000000,1.000000,0.231098,0.000000,0.000000,0.904712,0.896577,0.000000,1.000000,0.000047
0.466954,0.925550,0.006587,0.214179,0.000000,0.127857,0.737541,0.000000,1.000000,0.310404,0.000000,0.000000,0.935938,1.000000,0.000000,2.000000,0.000006
0.466954,0.925550,0.006587,0.214179,0.000000,0.132523,0.663137,0.000000,1.000000,0.310404,0.000000,0.000000,0.828994,1.000000,0.000000,0.000000,0.000002
0.466954,0.925550,0.006587,0.214179,0.000000,0.127857,0.699910,1.000000,1.000000,0.227977,0.000000,0.000000,0.827395,1.000000,0.000000,0.000000,0.000010
0.466954,1.000000,0.000000,0.214179,0.000000,0.217178,0.867181,0.000000,1.000000,0.238298,0.000000,0.000000,0.918301,1.000000,0.000000,0.000000,0.000010
0.466954,1.000000,0.000000,0.210143,0.100438,0.106011,0.848523,1.000000,1.000000,0.231098,0.000000,0.000000,0.904712,0.933850,0.000000,0.000000,0.000011
0.422347,1.000000,0.000000,0.239271,0.000000,0.147686,0.557885,1.000000,0.952305,0.330480,0.000000,0.000000,0.904712,0.914905,0.000000,1.000000,0.000092
0.466954,0.925550,0.006587,0.214179,0.000000,0.101274,0.663137,0.000000,1.000000,0.310404,0.000000,0.000000,0.894031,1.000000,0.000000,0.000000,0.000003
0.466954,0.925550,0.000000,0.283690,0.000000,0.112509,0.770386,1.000000,1.000000,0.296836,0.000000,0.000000,0.827395,1.000000,0.000000,1.000000,0.000977
0.466954,0.925550,0.006587,0.214179,0.095236,0.127857,0.699910,1.000000,1.000000,0.310404,0.000000,0.130703,0.827395,1.000000,0.000000,0.000000,0.001885
0.466954,1.000000,0.126998,0.066148,0.056092,0.105360,0.840788,1.000000,0.798153,0.471827,0.000000,0.000000,0.904712,1.000000,0.000000,2.000000,0.001482
0.466954,0.994185,0.000000,0.214179,0.000000,0.127857,0.867181,0.000000,1.000000,0.175668,0.000000,0.000000,0.879505,1.000000,0.000000,2.000000,0.000012
0.466954,1.000000,0.000000,0.214179,0.120392,0.127857,0.867181,0.000000,1.000000,0.244088,0.000000,0.000000,0.710607,1.000000,0.000000,2.000000,0.000021
0.478795,0.984134,0.000000,0.214179,0.000000,0.127857,0.821760,0.000000,1.000000,0.238298,0.000000,0.000000,0.834817,0.894768,0.000000,2.000000,0.000007
0.466954,1.000000,0.029889,0.192931,0.482559,0.267396,0.931934,0.000000,1.000000,0.288485,0.000000,0.000000,1.000000,1.000000,0.000000,0.000000,0.000120
0.466954,0.994185,0.000000,0.214179,0.000000,0.245831,0.867181,0.000000,1.000000,0.175668,0.000000,0.000000,0.929233,1.000000,0.000000,2.000000,0.000012
0.466954,0.925550,0.006587,0.309890,0.000000,0.035376,0.699910,1.000000,1.000000,0.310404,0.000000,0.000000,0.859682,1.000000,0.000000,1.000000,0.001866
0.452570,1.000000,0.000000,0.239271,0.000000,0.147686,0.828986,0.000000,1.000000,0.175668,0.000000,0.000000,0.879505,1.000000,0.000000,2.000000,0.000115
0.457066,1.000000,0.000000,0.214179,0.082374,0.127857,0.557885,1.000000,1.000000,0.231098,0.000000,0.000000,0.904712,1.000000,0.000000,1.000000,0.000068
0.466954,0.925550,0.000000,0.214179,0.000000,0.127857,0.699910,1.000000,1.000000,0.379701,0.000000,0.000000,0.827395,1.000000,0.000000,1.000000,0.000015
0.466954,0.925550,0.006587,0.214179,0.000000,0.127857,0.699910,2.000000,1.000000,0.300542,0.000000,0.000000,0.827395,1.000000,0.000000,2.000000,0.000034
0.346196,1.000000,0.000000,0.214179,0.000000,0.034513,0.902779,0.000000,1.000000,0.408623,0.000000,0.000000,0.843195,1.000000,0.000000,2.000000,0.000524
0.466954,0.830921,0.000000,0.214179,0.012483,0.127857,0.863929,1.000000,0.992790,0.175668,0.000000,0.000000,0.879505,0.924958,0.000000,0.000000,0.000051
0.507410,0.925550,0.071077,0.214179,0.000000,0.053858,0.663137,1.000000,1.000000,0.310404,0.000000,0.000000,0.827395,1.000000,0.000000,1.000000,0.001243
0.466954,1.000000,0.000000,0.122380,0.030000,0.105360,0.848523,1.000000,0.794566,0.330480,0.000000,0.000000,0.904712,1.000000,0.000000,0.000000,0.000023
0.466954,0.928175,0.000000,0.214179,0.000000,0.127857,0.867181,0.000000,1.000000,0.175668,0.000000,0.000000,0.879505,1.000000,0.000000,2.000000,0.000013
0.466954,1.000000,0.000000,0.362525,0.056092,0.105360,0.616067,2.000000,0.821647,0.471827,0.000000,0.000000,0.773275,1.000000,0.000000,0.000000,0.009712
0.466954,1.000000,0.000000,0.122380,0.030000,0.311589,0.848523,0.000000,0.798153,0.183866,0.000000,0.000000,0.936636,1.000000,0.000000,0.000000,0.000018
0.466954,0.958950,0.006587,0.214179,0.237822,0.101274,0.663137,0.000000,1.000000,0.310404,0.000000,0.000000,0.828994,1.000000,0.000000,0.000000,0.000002
0.466954,0.925550,0.006587,0.214179,0.000000,0.214413,0.663137,2.000000,1.000000,0.310404,0.000000,0.000000,0.827395,0.845088,0.015013,1.000000,0.000029
0.466954,1.000000,0.029889,0.178021,0.214842,0.267396,0.910281,0.000000,1.000000,0.267709,0.000000,0.000000,1.000000,1.000000,0.000000,0.000000,0.000014
0.575124,1.000000,0.094229,0.214179,0.147052,0.127857,0.867181,0.000000,1.000000,0.238298,0.000000,0.000000,0.879505,1.000000,0.000000,0.000000,0.004015
0.466954,1.000000,0.000000,0.210143,0.030000,0.106011,0.848523,2.000000,0.952305,0.647520,0.000000,0.000000,0.904712,0.914905,0.000000,1.000000,0.000116
0.466954,0.683825,0.006587,0.214179,0.000000,0.127857,0.737541,2.000000,0.977065,0.310404,0.000000,0.000000,0.827395,1.000000,0.000000,1.000000,0.000102
0.466954,0.925550,0.006587,0.214179,0.000000,0.127857,0.803641,0.000000,1.000000,0.310404,0.060372,0.000000,0.879505,1.000000,0.000000,2.000000,0.000592
0.422347,1.000000,0.000000,0.239271,0.290019,0.147686,0.573257,1.000000,0.873660,0.267709,0.000000,0.000000,0.817487,1.000000,0.075547,0.000000,0.000517
0.466954,0.628340,0.076130,0.214179,0.000000,0.127857,0.663137,0.000000,0.824003,0.303752,0.000000,0.000000,0.904712,0.779192,0.000000,0.000000,0.004103
0.579457,0.925550,0.155056,0.214179,0.000000,0.127857,0.663137,0.000000,1.000000,0.257514,0.000000,0.000000,0.709335,1.000000,0.000000,2.000000,0.006554
0.466954,1.000000,0.074611,0.214179,0.000000,0.209044,0.898526,0.000000,1.000000,0.175668,0.000000,0.000000,0.879505,0.892884,0.000000,0.000000,0.001613
0.466954,1.000000,0.000000,0.189931,0.000000,0.127857,0.867181,0.000000,1.000000,0.238298,0.000000,0.000000,0.879505,1.000000,0.000000,0.000000,0.000047
0.439844,0.893187,0.000000,0.214179,0.000000,0.127857,0.854143,0.000000,1.000000,0.310404,0.000000,0.000000,0.879505,1.000000,0.000000,0.000000,0.000023
0.466954,1.000000,0.055097,0.214179,0.000000,0.090912,0.867181,0.000000,1.000000,0.175668,0.000000,0.000000,1.000000,1.000000,0.000000,2.000000,0.000773
0.466954,1.000000,0.000000,0.030900,0.000000,0.030037,0.867181,2.000000,1.000000,0.276291,0.000000,0.000000,0.854495,1.000000,0.000000,2.000000,0.004186
0.447326,1.000000,0.000000,0.122380,0.030000,0.228754,0.848523,1.000000,0.798153,0.310404,0.118498,0.000000,0.774782,1.000000,0.101540,2.000000,0.002930
0.466954,0.925550,0.006587,0.214179,0.000000,0.127857,0.737541,0.000000,1.000000,0.330480,0.000000,0.000000,0.904712,1.000000,0.000000,0.000000,0.000001
0.466954,1.000000,0.000000,0.214179,0.000000,0.258650,0.867181,0.000000,1.000000,0.148655,0.000000,0.000000,0.879505,1.000000,0.000000,0.000000,0.000017
0.466954,0.925550,0.006587,0.214179,0.000000,0.127857,0.699910,1.000000,0.968042,0.310404,0.000000,0.000000,0.827395,1.000000,0.000000,0.000000,0.000065
0.466954,0.925550,0.006587,0.261683,0.025646,0.000000,0.557885,2.000000,1.000000,0.231098,0.000000,0.000000,0.980808,1.000000,0.000000,2.000000,0.000328
0.466954,1.000000,0.000000,0.214179,0.101063,0.127857,0.867181,1.000000,1.000000,0.238298,0.000000,0.000000,0.879505,1.000000,0.000000,0.000000,0.000031
0.466954,0.925550,0.006587,0.214179,0.000000,0.000000,0.663137,2.000000,0.919503,0.231098,0.000000,0.000000,0.893345,1.000000,0.000000,1.000000,0.000296
0.466954,0.925550,0.006587,0.214179,0.000000,0.086099,0.664990,2.000000,0.825024,0.170380,0.000000,0.000000,0.785793,1.000000,0.000000,0.000000,0.001374
0.466954,0.925550,0.006587,0.214179,0.000000,0.044391,0.557885,2.000000,1.000000,0.231098,0.000000,0.000000,0.980808,1.000000,0.000000,0.000000,0.000006
0.422347,0.985846,0.000000,0.239271,0.054809,0.147686,0.557885,2.000000,1.000000,0.231098,0.000000,0.000000,0.904712,1.000000,0.000000,1.000000,0.000075
0.466954,1.000000,0.000000,0.214179,0.000000,0.127857,0.867181,0.000000,0.896764,0.175668,0.000000,0.000000,0.879505,0.892884,0.000000,2.000000,0.000497
0.486899,0.852692,0.006587,0.214179,0.000000,0.127857,0.737541,0.000000,1.000000,0.297396,0.000000,0.041756,0.879505,1.000000,0.000000,2.000000,0.000146
0.416071,1.000000,0.000000,0.144290,0.043672,0.053594,0.866697,1.000000,1.000000,0.249702,0.000000,0.000000,0.843195,1.000000,0.000000,2.000000,0.001065
0.466954,1.000000,0.006148,0.122380,0.030000,0.118727,0.944415,2.000000,0.798153,0.241117,0.000000,0.000000,0.921038,1.000000,0.010305,2.000000,0.000133
0.466954,0.925550,0.006587,0.214179,0.000000,0.127857,0.623590,2.000000,0.985500,0.267709,0.000000,0.000000,1.000000,1.000000,0.000000,1.000000,0.000016
0.466954,0.908712,0.000000,0.178021,0.214842,0.267396,0.910281,0.000000,1.000000,0.231098,0.000000,0.000000,0.997261,1.000000,0.000000,1.000000,0.000122
0.466549,1.000000,0.000000,0.231507,0.000000,0.147686,0.613000,0.000000,1.000000,0.214856,0.000000,0.000000,0.879505,1.000000,0.000000,1.000000,0.000002
0.466954,0.925550,0.006587,0.214179,0.000000,0.101274,0.663137,0.000000,1.000000,0.310404,0.000000,0.000000,0.828994,1.000000,0.000000,0.000000,0.000002
0.466954,0.827536,0.006587,0.214179,0.000000,0.127857,0.663137,0.000000,1.000000,0.303752,0.000000,0.000000,0.904712,1.000000,0.000000,0.000000,0.000003
0.466954,0.925550,0.000000,0.214179,0.000000,0.127857,0.854143,0.000000,1.000000,0.310404,0.000000,0.000000,0.879505,1.000000,0.000000,0.000000,0.000006
0.466954,0.925550,0.006587,0.214179,0.000000,0.127857,0.663137,0.000000,1.000000,0.310404,0.000000,0.000000,0.827395,1.000000,0.000000,1.000000,0.000006
0.466954,0.925550,0.006587,0.214179,0.000000,0.127857,0.737541,0.000000,1.000000,0.310404,0.000000,0.000000,0.879505,1.000000,0.000000,2.000000,0.000007
0.466954,0.925550,0.006587,0.214179,0.000000,0.127857,0.699910,1.000000,1.000000,0.310404,0.000000,0.000000,0.827395,1.000000,0.000000,0.000000,0.000008
0.466954,1.000000,0.000000,0.122380,0.056092,0.105360,0.848523,1.000000,0.798153,0.471827,0.000000,0.000000,0.904712,1.000000,0.000000,0.000000,0.000008
0.466954,1.000000,0.000000,0.214179,0.000000,0.127857,0.867181,0.000000,1.000000,0.238298,0.000000,0.000000,0.879505,1.000000,0.000000,2.000000,0.000010
0.466954,1.000000,0.000000,0.214179,0.000000,0.127857,0.867181,0.000000,1.000000,0.238298,0.000000,0.000000,0.879505,1.000000,0.000000,0.000000,0.000011
HP,Speed,Damage,Acc,ClipSize,RateOfFire,NrBullets,Range,HP,Speed,Damage,Acc,ClipSize,RateOfFire,NrBullets,Range,fitness,
0.121461,0.987141,0.021809,0.304956,0.057402,0.000000,0.930428,1.000000,1.000000,0.000000,0.000000,0.100209,1.000000,0.651182,0.168214,0.000000,0.003886
0.545615,0.813489,0.000000,0.509650,0.210520,0.064273,0.394153,0.000000,0.995935,0.000000,0.000000,0.348197,0.909185,1.000000,0.206878,0.000000,0.000088
0.545615,0.920236,0.019901,0.509650,0.060597,0.278161,0.445957,0.000000,0.995935,0.026493,0.016063,0.294330,0.978024,1.000000,0.053585,2.000000,0.000314
0.545615,0.920236,0.000000,0.509650,0.074066,0.278161,0.445957,2.000000,0.995935,0.000000,0.000000,0.348197,0.985865,0.828229,0.053585,0.000000,0.000032
0.518623,0.970436,0.024999,0.509650,0.060597,0.278161,0.406683,0.000000,0.995935,0.000000,0.000000,0.351722,0.955205,1.000000,0.053585,0.000000,0.000035
0.545615,0.920236,0.000000,0.509650,0.060597,0.223251,0.579150,2.000000,0.995935,0.034775,0.000000,0.333852,0.985865,1.000000,0.053585,0.000000,0.000154
0.545615,0.906128,0.000000,0.509650,0.061815,0.278161,0.488844,0.000000,0.995935,0.153370,0.000000,0.348197,1.000000,1.000000,0.053585,0.000000,0.000005
0.545615,0.970436,0.000000,0.509650,0.060597,0.122654,0.449016,0.000000,0.995935,0.000000,0.000000,0.348197,1.000000,1.000000,0.053585,0.000000,0.000002
0.557737,0.920236,0.000000,0.509650,0.060597,0.278161,0.445957,0.000000,0.995935,0.000000,0.003178,0.196551,0.985865,1.000000,0.053585,2.000000,0.002595
0.545615,0.691834,0.000000,0.509650,0.210520,0.253690,0.445957,2.000000,0.995935,0.000000,0.000000,0.412869,0.994786,1.000000,0.053585,0.000000,0.000734
0.545615,0.920236,0.000000,0.509650,0.060597,0.278161,0.445957,0.000000,0.995935,0.139744,0.000000,0.348197,0.985865,1.000000,0.053585,0.000000,0.000008
0.252260,0.967851,0.000000,0.501988,0.000000,0.198538,0.770507,0.000000,1.000000,0.000000,0.000000,0.214187,1.000000,0.911538,0.169555,2.000000,0.000087
0.545615,0.970436,0.000000,0.509650,0.153500,0.278161,0.358216,0.000000,0.995935,0.000000,0.000000,0.290181,0.955205,0.951549,0.053585,1.000000,0.000281
0.456070,0.905297,0.000000,0.509650,0.000000,0.089228,0.491200,1.000000,0.995935,0.244991,0.057884,0.316272,0.957955,1.000000,0.024983,0.000000,0.000589
0.545615,0.863613,0.000000,0.509650,0.060597,0.278161,0.445957,0.000000,0.995935,0.000000,0.000000,0.348197,0.985865,1.000000,0.053585,0.000000,0.000004
0.545615,1.000000,0.000000,0.509650,0.060597,0.278161,0.445957,2.000000,1.000000,0.000000,0.000000,0.348197,0.985865,1.000000,0.053585,1.000000,0.000030
0.284222,0.899702,0.285740,0.229841,0.206724,0.134870,0.364272,0.000000,0.995935,0.177052,0.000000,0.277206,0.866299,0.814696,0.085332,0.000000,0.000884
0.448162,0.752060,0.000000,0.509650,0.099758,0.031429,0.536797,1.000000,1.000000,0.150684,0.001152,0.199208,0.857570,0.803005,0.000000,1.000000,0.001381
0.545615,0.920236,0.078011,0.509650,0.108297,0.000000,0.503073,1.000000,0.962982,0.062367,0.000000,0.316272,0.985865,0.974909,0.040708,1.000000,0.002665
0.448162,1.000000,0.000000,0.577164,0.000000,0.292308,0.445957,0.000000,0.995935,0.034775,0.000000,0.348197,0.985865,1.000000,0.208162,0.000000,0.000378
0.161378,1.000000,0.000000,0.459098,0.009375,0.107203,0.916912,1.000000,0.954106,0.112554,0.025368,0.110299,0.876090,0.735103,0.120853,2.000000,0.000013
0.545615,0.920236,0.000000,0.509650,0.210520,0.253690,0.445957,0.000000,0.995935,0.000000,0.000000,0.348197,0.907953,1.000000,0.098578,0.000000,0.000014
0.545615,0.970436,0.000000,0.509650,0.000000,0.199198,0.449016,0.000000,0.973080,0.000000,0.000000,0.353612,0.760454,0.819890,0.053585,0.000000,0.000012
0.252260,0.981679,0.000000,0.501988,0.000000,0.198538,0.770507,0.000000,1.000000,0.000000,0.058630,0.231940,0.961449,0.911538,0.104561,2.000000,0.001052
0.545615,0.970436,0.000000,0.509650,0.060597,0.278161,0.449016,0.000000,1.000000,0.000000,0.000000,0.353612,1.000000,1.000000,0.042240,1.000000,0.000026
0.120993,0.850699,0.021809,0.448465,0.030794,0.025764,0.897975,2.000000,1.000000,0.059456,0.000000,0.100209,0.678044,0.707070,0.089682,1.000000,0.000002
0.545615,0.920236,0.000000,0.509650,0.254501,0.253690,0.557335,0.000000,0.995935,0.000000,0.000000,0.348197,0.907953,1.000000,0.053585,0.000000,0.000014
0.482969,0.970436,0.000000,0.552905,0.060597,0.278161,0.381021,0.000000,0.995935,0.000000,0.000000,0.348197,0.985865,1.000000,0.053585,0.000000,0.000135
0.545615,0.920236,0.000000,0.509650,0.104405,0.278161,0.445957,0.000000,0.995935,0.000000,0.000000,0.141532,0.933782,1.000000,0.053585,0.000000,0.004849
0.448162,0.792596,0.134064,0.509650,0.110262,0.290440,0.314395,1.000000,0.995935,0.260079,0.000000,0.277206,0.866299,0.911787,0.085332,0.000000,0.003102
0.252260,0.967851,0.105618,0.501988,0.115515,0.273795,0.807307,0.000000,1.000000,0.097938,0.000000,0.214187,0.961449,0.783632,0.037540,2.000000,0.001957
0.545615,0.970436,0.000000,0.509650,0.060597,0.278161,0.449016,0.000000,0.995935,0.000000,0.000000,0.348197,0.985865,1.000000,0.053585,0.000000,0.000003
0.448162,0.792596,0.000000,0.586712,0.110262,0.290440,0.247799,2.000000,0.995935,0.260079,0.000000,0.277206,0.985865,1.000000,0.053585,2.000000,0.001906
0.722439,0.970436,0.000000,0.509650,0.060597,0.278161,0.505739,0.000000,1.000000,0.000000,0.000000,0.348197,0.866299,0.911787,0.085332,0.000000,0.000926
0.545615,0.920236,0.000000,0.509650,0.060597,0.278161,0.445957,0.000000,0.995935,0.000000,0.000000,0.348197,0.985865,1.000000,0.053585,1.000000,0.000009
0.545615,0.920236,0.000000,0.509650,0.060597,0.278161,0.465913,0.000000,0.995935,0.000000,0.000000,0.348197,0.985865,1.000000,0.053585,0.000000,0.000002
0.161378,0.990736,0.000000,0.459098,0.009375,0.107203,0.916912,1.000000,0.974127,0.177052,0.000000,0.276721,0.866299,0.911787,0.083298,0.000000,0.002449
0.448162,0.752060,0.000000,0.509650,0.142781,0.256772,0.314395,0.000000,0.995935,0.031863,0.025368,0.214421,0.876090,1.000000,0.085332,1.000000,0.000197
0.287023,0.899702,0.285740,0.229841,0.206724,0.031429,0.536797,0.000000,1.000000,0.017044,0.001152,0.199208,0.857570,0.727626,0.147143,2.000000,0.000026
0.545615,0.970436,0.000000,0.509650,0.060597,0.278161,0.449016,0.000000,0.995935,0.000000,0.000000,0.493455,0.985865,1.000000,0.053585,2.000000,0.004530
0.711218,0.973455,0.000000,0.509650,0.142781,0.290440,0.311825,0.000000,0.995935,0.177052,0.097435,0.277206,0.866299,0.911787,0.085332,1.000000,0.000134
0.448162,0.752060,0.000000,0.509650,0.146350,0.278161,0.449016,2.000000,1.000000,0.000000,0.000000,0.348197,0.985865,1.000000,0.157331,0.000000,0.000530
0.545615,0.915091,0.000000,0.527312,0.060597,0.278161,0.445957,0.000000,1.000000,0.000000,0.000000,0.348197,0.937104,1.000000,0.053585,2.000000,0.000045
0.448162,0.975995,0.000000,0.616932,0.154087,0.074840,0.344181,0.000000,0.962982,0.062367,0.000000,0.316272,0.980672,1.000000,0.040708,0.000000,0.003167
0.545615,0.970436,0.000000,0.509650,0.060597,0.278161,0.342262,1.000000,0.922809,0.000000,0.000000,0.348197,0.955205,0.951549,0.020245,0.000000,0.000152
0.533884,1.000000,0.000000,0.509650,0.060597,0.278161,0.449016,2.000000,0.995935,0.000000,0.000000,0.363737,0.985865,1.000000,0.053585,1.000000,0.000109
0.448162,0.885701,0.000000,0.509650,0.142781,0.290440,0.314395,0.000000,0.995935,0.177052,0.000000,0.256146,0.866299,0.965247,0.209620,2.000000,0.000008
0.121461,1.000000,0.021809,0.448465,0.057402,0.025764,0.930428,1.000000,1.000000,0.000000,0.000000,0.100209,0.889756,0.651182,0.085332,0.000000,0.000018
0.448162,0.792596,0.000000,0.509650,0.110262,0.290440,0.314395,2.000000,0.952410,0.260079,0.000000,0.277206,0.866299,0.911787,0.085332,0.000000,0.000125
0.545615,0.970436,0.000000,0.509650,0.060597,0.272454,0.449016,1.000000,0.995935,0.083706,0.000000,0.348197,0.955205,0.937036,0.050398,2.000000,0.000024
0.448162,0.792596,0.000000,0.509650,0.110262,0.290440,0.314395,2.000000,0.995935,0.260079,0.000000,0.277206,0.866299,0.911787,0.085332,0.000000,0.000012
0.121461,0.831515,0.021809,0.160113,0.000000,0.025764,0.932242,1.000000,1.000000,0.000000,0.000000,0.100209,1.000000,0.779985,0.056907,2.000000,0.011260
0.252260,0.967851,0.000000,0.501988,0.223329,0.198538,0.907501,0.000000,1.000000,0.000000,0.065801,0.214187,0.961449,1.000000,0.088769,2.000000,0.000675
0.139538,0.939220,0.021809,0.448465,0.057402,0.000000,0.930428,1.000000,1.000000,0.000000,0.000000,0.013190,1.000000,0.651182,0.168214,0.000000,0.000843
0.545615,0.970436,0.000000,0.477732,0.060597,0.122654,0.449016,0.000000,1.000000,0.000000,0.000000,0.348197,0.985865,1.000000,0.053585,0.000000,0.000303
0.545615,0.928916,0.000000,0.509650,0.060597,0.278161,0.445957,0.000000,0.995935,0.034775,0.000000,0.348197,0.985865,1.000000,0.078884,0.000000,0.000010
0.287445,0.948583,0.000000,0.507586,0.213667,0.198538,0.729985,0.000000,1.000000,0.000000,0.000000,0.214187,0.869254,0.913595,0.025273,0.000000,0.000070
0.545615,0.970436,0.000000,0.509650,0.060597,0.278161,0.449016,0.000000,0.995935,0.106788,0.042988,0.348197,0.955205,1.000000,0.053585,0.000000,0.000323
0.284222,0.899702,0.285740,0.186906,0.223097,0.061127,0.536797,2.000000,1.000000,0.000000,0.001152,0.199208,0.857570,0.687396,0.007192,2.000000,0.000089
0.448162,0.792596,0.000000,0.509650,0.142781,0.290440,0.314395,1.000000,0.995935,0.177052,0.000000,0.352926,0.866299,0.965247,0.229305,0.000000,0.001014
0.161378,1.000000,0.000000,0.459098,0.102786,0.107203,0.916912,1.000000,0.954106,0.031863,0.000000,0.110299,0.876090,0.733229,0.085332,1.000000,0.000074
0.545615,0.970436,0.000000,0.509650,0.060597,0.278161,0.358216,0.000000,0.995935,0.000000,0.000000,0.152884,0.955205,0.951549,0.053585,0.000000,0.004065
0.168071,0.804448,0.000000,0.501988,0.115515,0.198538,0.807307,0.000000,1.000000,0.000000,0.000000,0.214187,1.000000,1.000000,0.127938,2.000000,0.000461
0.545615,0.970436,0.000000,0.509650,0.050165,0.278161,0.360869,1.000000,0.995935,0.000000,0.000000,0.348197,0.985865,0.913595,0.037540,2.000000,0.000021
0.448162,0.752060,0.000000,0.392698,0.156631,0.278161,0.449016,0.000000,0.973080,0.000000,0.000000,0.230405,1.000000,0.819890,0.053585,0.000000,0.001147
0.545615,0.970436,0.000000,0.509650,0.213867,0.290440,0.093154,2.000000,1.000000,0.184957,0.000000,0.277206,0.866299,1.000000,0.116268,0.000000,0.000198
0.121461,0.939220,0.046217,0.448465,0.057402,0.025764,0.930428,1.000000,1.000000,0.000000,0.000000,0.100209,1.000000,0.651182,0.089682,1.000000,0.000100
0.121461,0.964282,0.021809,0.448465,0.064896,0.025764,0.752764,1.000000,0.948143,0.000000,0.000000,0.100209,0.889756,0.651182,0.000000,1.000000,0.000087
0.121461,0.939220,0.000000,0.448465,0.057402,0.025764,0.939177,1.000000,1.000000,0.000000,0.000000,0.113328,0.905683,0.651182,0.089682,2.000000,0.000174
0.486067,0.970436,0.000000,0.509650,0.060597,0.278161,0.449016,0.000000,0.995935,0.000000,0.000000,0.424260,0.993322,1.000000,0.053585,0.000000,0.001874
0.545615,0.970436,0.000000,0.509650,0.060597,0.278161,0.449016,0.000000,0.995935,0.000000,0.000000,0.348197,0.955205,0.973259,0.058251,0.000000,0.000004
0.448162,0.752060,0.000000,0.509650,0.142781,0.290440,0.314395,0.000000,0.995935,0.177052,0.000000,0.277206,0.866299,0.911787,0.000000,0.000000,0.000033
0.545615,0.970436,0.000000,0.550923,0.135866,0.226889,0.358216,0.000000,0.995935,0.000000,0.065649,0.348197,0.846347,0.953585,0.053585,0.000000,0.000221
0.721416,0.924875,0.000000,0.509650,0.000000,0.288860,0.299419,0.000000,1.000000,0.051230,0.000000,0.335170,0.955205,1.000000,0.053585,0.000000,0.000912
0.545615,0.920236,0.000000,0.509650,0.060597,0.278161,0.445957,2.000000,0.995935,0.034775,0.000000,0.348197,1.000000,1.000000,0.053585,0.000000,0.000029
0.545615,0.970436,0.000000,0.509650,0.060597,0.170379,0.449016,0.000000,0.995935,0.000000,0.000000,0.348197,0.985865,1.000000,0.053585,0.000000,0.000002
0.545615,0.904936,0.000000,0.509650,0.060597,0.256545,0.449016,1.000000,0.995935,0.000000,0.000000,0.306859,0.846007,1.000000,0.053585,0.000000,0.000248
0.545615,0.936917,0.000000,0.509650,0.060597,0.278161,0.445957,0.000000,0.995935,0.045139,0.000000,0.348197,0.986714,1.000000,0.000000,0.000000,0.000000
0.545615,0.970436,0.000000,0.509650,0.060597,0.122654,0.449016,0.000000,0.809928,0.000000,0.000000,0.348197,0.985865,1.000000,0.053585,0.000000,0.001102
0.545615,0.970436,0.000000,0.509650,0.060597,0.278161,0.449016,0.000000,0.973080,0.000000,0.000000,0.353612,0.963892,1.000000,0.053585,0.000000,0.000008
0.545615,0.920236,0.000000,0.509650,0.060597,0.278161,0.449016,1.000000,0.995935,0.132050,0.000000,0.424395,0.985865,1.000000,0.014716,1.000000,0.001083
0.545615,0.970436,0.000000,0.509650,0.210520,0.282386,0.445957,0.000000,0.995935,0.000000,0.000000,0.348197,0.907953,1.000000,0.053585,2.000000,0.000018
0.545615,0.920236,0.000000,0.509591,0.210520,0.149133,0.445957,2.000000,1.000000,0.064947,0.000000,0.303866,1.000000,1.000000,0.053585,0.000000,0.000291
0.448162,0.905297,0.000000,0.509650,0.000000,0.089228,0.503073,1.000000,0.995935,0.244991,0.000000,0.316272,0.957955,1.000000,0.024983,2.000000,0.000057
0.545615,0.970436,0.000000,0.509650,0.000000,0.442014,0.449016,0.000000,0.973080,0.000000,0.000000,0.353612,1.000000,0.856655,0.053585,0.000000,0.000009
0.701927,0.976136,0.181986,0.509650,0.060597,0.278161,0.378337,0.000000,0.995935,0.000000,0.000000,0.254044,0.985865,1.000000,0.031731,1.000000,0.013402
0.545615,0.970436,0.000000,0.509650,0.060597,0.278161,0.449016,0.000000,0.995935,0.102662,0.000000,0.348197,0.985865,1.000000,0.053585,0.000000,0.000006
0.545615,0.970436,0.000000,0.467019,0.060597,0.207864,0.358216,0.000000,0.995935,0.051230,0.000000,0.348197,0.955205,1.000000,0.053585,0.000000,0.000615
0.121461,0.939220,0.021809,0.559206,0.057402,0.005526,0.930428,1.000000,1.000000,0.000000,0.000000,0.100209,1.000000,0.651182,0.089682,2.000000,0.002975
0.541307,0.970436,0.000000,0.509650,0.022376,0.278161,0.552629,0.000000,1.000000,0.000000,0.000000,0.348197,0.871268,1.000000,0.053585,0.000000,0.000008
0.545615,0.970436,0.000000,0.509650,0.060597,0.122654,0.449016,0.000000,0.995935,0.000000,0.000000,0.348197,0.985865,1.000000,0.053585,0.000000,0.000002
0.545615,0.970436,0.000000,0.509650,0.060597,0.278161,0.449016,0.000000,0.995935,0.000000,0.000000,0.348197,0.955205,1.000000,0.053585,0.000000,0.000003
0.545615,0.970436,0.000000,0.509650,0.060597,0.278161,0.449016,0.000000,0.995935,0.000000,0.000000,0.348197,0.985865,1.000000,0.053585,0.000000,0.000003
0.545615,0.920236,0.000000,0.509650,0.210520,0.253690,0.445957,0.000000,0.995935,0.000000,0.000000,0.348197,0.907953,1.000000,0.053585,0.000000,0.000003
0.545615,0.920236,0.000000,0.509650,0.060597,0.278161,0.445957,0.000000,0.995935,0.000000,0.000000,0.348197,0.985865,1.000000,0.053585,0.000000,0.000003
0.545615,0.920236,0.000000,0.509650,0.060597,0.278161,0.445957,0.000000,0.995935,0.000000,0.000000,0.348197,0.985865,1.000000,0.053585,0.000000,0.000003
0.252260,1.000000,0.000000,0.501988,0.115515,0.198538,0.729985,0.000000,1.000000,0.000000,0.000000,0.214187,0.869254,0.913595,0.025273,0.000000,0.000004
0.161378,1.000000,0.000000,0.459098,0.009375,0.107203,0.916912,2.000000,0.954106,0.031863,0.025368,0.110299,0.876090,0.881697,0.085332,1.000000,0.000004
0.545615,0.970436,0.000000,0.509650,0.060597,0.122654,0.449016,0.000000,1.000000,0.000000,0.000000,0.348197,0.985865,1.000000,0.053585,0.000000,0.000004
0.545615,0.970436,0.000000,0.509650,0.060597,0.278161,0.449016,0.000000,1.000000,0.000000,0.000000,0.348197,0.871268,1.000000,0.053585,0.000000,0.000004
