/home/daniel/Projects/ppsevolution/data/maps/custom_maps/Custom_1_Run_0_Map.csv,0.784634,0.490460,0.000000,0.000000,0.001607,0.136045,0.805160,0.000000,1.000000,0.101846,0.000000,0.000000,0.994203,0.959693,0.000000,1.000000
/home/daniel/Projects/ppsevolution/data/maps/custom_maps/Custom_1_Run_0_Map.csv,0.753199,0.988639,0.000000,0.000000,0.000000,0.000000,0.611510,0.000000,0.947403,0.000000,0.000000,0.000000,1.000000,0.797032,0.000000,1.000000
/home/daniel/Projects/ppsevolution/data/maps/custom_maps/Custom_1_Run_0_Map.csv,0.783814,1.000000,0.000000,0.000000,0.228844,0.099072,0.823686,0.000000,1.000000,0.213607,0.000000,0.000000,0.938322,0.889298,0.034763,0.000000
/home/daniel/Projects/ppsevolution/data/maps/custom_maps/Custom_1_Run_0_Map.csv,0.808649,1.000000,0.000000,0.000000,0.000000,0.000000,0.878156,0.000000,1.000000,0.000000,0.000000,0.004357,1.000000,0.761358,0.173968,1.000000
/home/daniel/Projects/ppsevolution/data/maps/custom_maps/Custom_1_Run_0_Map.csv,0.759076,0.943512,0.000000,0.000000,0.124246,0.000000,0.363158,0.000000,0.891069,0.289215,0.000000,0.000000,0.971808,1.000000,0.000000,2.000000
/home/daniel/Projects/ppsevolution/data/maps/custom_maps/Custom_1_Run_0_Map.csv,0.750779,1.000000,0.000000,0.000000,0.034842,0.000000,0.899788,0.000000,1.000000,0.000000,0.000000,0.000000,1.000000,0.995512,0.000000,0.000000
/home/daniel/Projects/ppsevolution/data/maps/custom_maps/Custom_1_Run_0_Map.csv,0.760197,1.000000,0.000000,0.000000,0.096412,0.079765,0.760063,0.000000,0.970004,0.137434,0.000000,0.000000,1.000000,1.000000,0.000000,2.000000
/home/daniel/Projects/ppsevolution/data/maps/custom_maps/Custom_1_Run_0_Map.csv,0.771742,1.000000,0.000000,0.000000,0.009947,0.128419,0.827289,1.000000,1.000000,0.000000,0.000000,0.000000,1.000000,0.934949,0.000000,2.000000
/home/daniel/Projects/ppsevolution/data/maps/custom_maps/Custom_1_Run_0_Map.csv,0.817353,1.000000,0.000000,0.000000,0.074728,0.071318,0.724954,2.000000,1.000000,0.212850,0.000000,0.000000,0.892727,1.000000,0.077599,2.000000
/home/daniel/Projects/ppsevolution/data/maps/custom_maps/Custom_1_Run_0_Map.csv,0.778540,1.000000,0.000000,0.000000,0.022931,0.286784,0.724573,2.000000,1.000000,0.026693,0.000000,0.000000,0.960319,0.845402,0.000000,0.000000
/home/daniel/Projects/ppsevolution/data/maps/custom_maps/Custom_2_Run_0_Map.csv,0.154526,0.831519,0.000000,0.558018,0.000000,0.193556,1.000000,1.000000,1.000000,0.000000,0.158663,0.064428,0.996113,1.000000,0.000000,2.000000
/home/daniel/Projects/ppsevolution/data/maps/custom_maps/Custom_2_Run_0_Map.csv,0.022276,0.987795,0.000000,0.622067,0.084752,0.045609,0.334198,1.000000,1.000000,0.046790,0.000000,0.208035,1.000000,0.889198,0.000000,2.000000
/home/daniel/Projects/ppsevolution/data/maps/custom_maps/Custom_2_Run_0_Map.csv,0.335201,0.911992,0.000000,0.552165,0.000000,0.108184,0.749252,2.000000,1.000000,0.012785,0.035489,0.252450,0.856700,1.000000,0.102926,0.000000
/home/daniel/Projects/ppsevolution/data/maps/custom_maps/Custom_2_Run_0_Map.csv,0.150003,0.881962,0.098073,0.471011,0.049607,0.054870,0.856827,2.000000,1.000000,0.000000,0.026903,0.176208,0.766639,1.000000,0.063052,2.000000
/home/daniel/Projects/ppsevolution/data/maps/custom_maps/Custom_2_Run_0_Map.csv,0.363154,0.901868,0.000000,0.583367,0.082331,0.010788,0.698826,0.000000,1.000000,0.172234,0.000000,0.334632,0.995879,0.872465,0.037582,1.000000
/home/daniel/Projects/ppsevolution/data/maps/custom_maps/Custom_2_Run_0_Map.csv,0.355228,1.000000,0.151218,0.442918,0.153545,0.000000,0.704108,0.000000,0.999990,0.199940,0.000000,0.312976,0.961877,1.000000,0.018008,1.000000
/home/daniel/Projects/ppsevolution/data/maps/custom_maps/Custom_2_Run_0_Map.csv,0.416438,0.856893,0.000000,0.565047,0.000000,0.525151,0.733778,0.000000,1.000000,0.000000,0.000000,0.326783,0.966116,0.651406,0.137065,1.000000
/home/daniel/Projects/ppsevolution/data/maps/custom_maps/Custom_2_Run_0_Map.csv,0.493470,1.000000,0.069530,0.468114,0.060476,0.137267,1.000000,1.000000,1.000000,0.014484,0.005304,0.355364,0.779683,0.879063,0.015354,0.000000
/home/daniel/Projects/ppsevolution/data/maps/custom_maps/Custom_2_Run_0_Map.csv,0.619675,0.690629,0.008083,0.539749,0.090103,0.088816,0.820577,0.000000,0.975967,0.000000,0.000000,0.430141,1.000000,1.000000,0.000000,0.000000
/home/daniel/Projects/ppsevolution/data/maps/custom_maps/Custom_2_Run_0_Map.csv,0.345848,0.683643,0.058360,0.458551,0.000000,0.107315,0.940529,1.000000,0.903010,0.190797,0.019980,0.270695,0.819183,1.000000,0.084952,0.000000
/home/daniel/Projects/ppsevolution/data/maps/custom_maps/Custom_3_Run_0_Map.csv,0.000000,0.323281,0.117456,0.525080,0.030000,0.162371,1.000000,2.000000,0.970593,0.034572,0.000000,0.271701,0.933513,0.887924,0.130981,0.000000
/home/daniel/Projects/ppsevolution/data/maps/custom_maps/Custom_3_Run_0_Map.csv,0.218612,0.836688,0.034335,0.626219,0.171789,0.081439,0.774301,0.000000,0.984748,0.000000,0.047106,0.366331,1.000000,0.583086,0.000000,2.000000
/home/daniel/Projects/ppsevolution/data/maps/custom_maps/Custom_3_Run_0_Map.csv,0.170800,0.730230,0.000000,0.678644,0.183940,0.094752,0.559543,0.000000,1.000000,0.000000,0.000000,0.414538,1.000000,0.733181,0.000000,1.000000
/home/daniel/Projects/ppsevolution/data/maps/custom_maps/Custom_3_Run_0_Map.csv,0.177181,0.997653,0.171427,0.515654,0.288937,0.162797,0.743037,0.000000,1.000000,0.042724,0.000000,0.359863,0.718288,1.000000,0.126419,1.000000
/home/daniel/Projects/ppsevolution/data/maps/custom_maps/Custom_3_Run_0_Map.csv,0.000000,0.941405,0.000000,0.680644,0.052921,0.383337,0.491966,0.000000,1.000000,0.100941,0.000000,0.333413,0.769113,0.712140,0.000000,2.000000
/home/daniel/Projects/ppsevolution/data/maps/custom_maps/Custom_3_Run_0_Map.csv,0.062811,0.975000,0.210000,0.463588,0.030000,0.053027,0.870307,1.000000,0.963257,0.000000,0.000000,0.328986,0.963174,1.000000,0.000000,0.000000
/home/daniel/Projects/ppsevolution/data/maps/custom_maps/Custom_3_Run_0_Map.csv,0.485840,1.000000,0.000000,0.637917,0.000000,0.100220,1.000000,0.000000,1.000000,0.000000,0.039333,0.481620,0.968360,1.000000,0.013219,2.000000
/home/daniel/Projects/ppsevolution/data/maps/custom_maps/Custom_3_Run_0_Map.csv,0.217282,0.990112,0.092137,0.578934,0.000000,0.285388,0.835957,0.000000,0.973519,0.031689,0.000000,0.412316,1.000000,1.000000,0.000000,0.000000
/home/daniel/Projects/ppsevolution/data/maps/custom_maps/Custom_3_Run_0_Map.csv,0.002565,0.960335,0.000000,0.628839,0.222719,0.012485,0.814235,2.000000,0.964761,0.000000,0.080348,0.237271,0.680299,0.656180,0.000000,0.000000
/home/daniel/Projects/ppsevolution/data/maps/custom_maps/Custom_3_Run_0_Map.csv,0.303597,1.000000,0.124718,0.539268,0.065973,0.156622,1.000000,0.000000,1.000000,0.082246,0.000000,0.425940,0.901090,1.000000,0.000000,1.000000
/home/daniel/Projects/ppsevolution/data/maps/custom_maps/Custom_4_Run_0_Map.csv,0.493464,1.000000,0.049738,0.296978,0.011348,0.041785,0.446205,0.000000,1.000000,0.253800,0.002138,0.040578,1.000000,0.905616,0.000000,0.000000
/home/daniel/Projects/ppsevolution/data/maps/custom_maps/Custom_4_Run_0_Map.csv,0.593187,0.583101,0.000000,0.194483,0.245298,0.000000,0.916501,2.000000,0.791743,0.099664,0.061456,0.000000,1.000000,0.814406,0.007811,2.000000
/home/daniel/Projects/ppsevolution/data/maps/custom_maps/Custom_4_Run_0_Map.csv,0.680022,1.000000,0.051194,0.213580,0.124673,0.391489,1.000000,0.000000,1.000000,0.192422,0.000000,0.099679,0.760898,0.740015,0.065764,2.000000
/home/daniel/Projects/ppsevolution/data/maps/custom_maps/Custom_4_Run_0_Map.csv,0.507027,0.992160,0.000000,0.199385,0.065518,0.006768,0.890177,0.000000,0.748250,0.028549,0.000000,0.047857,0.912528,0.748975,0.095194,1.000000
/home/daniel/Projects/ppsevolution/data/maps/custom_maps/Custom_4_Run_0_Map.csv,0.606323,1.000000,0.084341,0.203150,0.000000,0.000000,0.853821,0.000000,1.000000,0.084498,0.000000,0.086435,1.000000,1.000000,0.000000,1.000000
/home/daniel/Projects/ppsevolution/data/maps/custom_maps/Custom_4_Run_0_Map.csv,0.542317,0.835006,0.000000,0.278578,0.000000,0.000000,0.850473,0.000000,0.938461,0.056108,0.000000,0.035093,0.897020,0.628904,0.230929,0.000000
/home/daniel/Projects/ppsevolution/data/maps/custom_maps/Custom_4_Run_0_Map.csv,0.410132,1.000000,0.000000,0.272048,0.000000,0.030000,0.793371,1.000000,0.894106,0.060662,0.000000,0.000000,1.000000,0.946134,0.005025,0.000000
/home/daniel/Projects/ppsevolution/data/maps/custom_maps/Custom_4_Run_0_Map.csv,0.396132,1.000000,0.000000,0.311480,0.072347,0.111628,0.580963,0.000000,0.921560,0.000000,0.003979,0.000000,1.000000,1.000000,0.000000,0.000000
/home/daniel/Projects/ppsevolution/data/maps/custom_maps/Custom_4_Run_0_Map.csv,0.461989,0.952880,0.000000,0.285033,0.048919,0.098472,1.000000,0.000000,0.976245,0.000000,0.000000,0.000000,0.920152,1.000000,0.141279,1.000000
/home/daniel/Projects/ppsevolution/data/maps/custom_maps/Custom_4_Run_0_Map.csv,0.544366,1.000000,0.071938,0.222598,0.000000,0.045733,0.746589,2.000000,1.000000,0.006540,0.000000,0.032976,0.940662,0.939755,0.147601,1.000000
/home/daniel/Projects/ppsevolution/data/maps/custom_maps/Custom_5_Run_0_Map.csv,0.167113,0.919280,0.000000,0.430584,0.180573,0.171367,0.873489,0.000000,0.926684,0.045686,0.000000,0.041406,0.732393,1.000000,0.417700,2.000000
/home/daniel/Projects/ppsevolution/data/maps/custom_maps/Custom_5_Run_0_Map.csv,0.341397,0.966648,0.006803,0.420921,0.259115,0.030000,1.000000,1.000000,1.000000,0.175620,0.000000,0.165133,1.000000,0.950967,0.083927,1.000000
/home/daniel/Projects/ppsevolution/data/maps/custom_maps/Custom_5_Run_0_Map.csv,0.386109,0.921450,0.000000,0.428600,0.152413,0.083152,0.877698,1.000000,0.969624,0.294001,0.000000,0.201157,1.000000,0.954322,0.014588,1.000000
/home/daniel/Projects/ppsevolution/data/maps/custom_maps/Custom_5_Run_0_Map.csv,0.000000,0.914617,0.016370,0.488518,0.085913,0.062791,0.203974,2.000000,0.996786,0.107504,0.000000,0.028584,0.964738,0.894113,0.000000,2.000000
/home/daniel/Projects/ppsevolution/data/maps/custom_maps/Custom_5_Run_0_Map.csv,0.000065,1.000000,0.000000,0.468102,0.146381,0.000000,0.837240,0.000000,1.000000,0.040608,0.021810,0.000000,0.792985,0.971534,0.000000,1.000000
/home/daniel/Projects/ppsevolution/data/maps/custom_maps/Custom_5_Run_0_Map.csv,0.000000,0.915048,0.000000,0.466076,0.286779,0.266162,0.951559,0.000000,1.000000,0.428411,0.000000,0.000000,1.000000,1.000000,0.165435,0.000000
/home/daniel/Projects/ppsevolution/data/maps/custom_maps/Custom_5_Run_0_Map.csv,0.433998,0.857419,0.000000,0.371528,0.335151,0.000000,1.000000,2.000000,0.899430,0.000000,0.000000,0.211512,0.798669,0.910278,0.027842,2.000000
/home/daniel/Projects/ppsevolution/data/maps/custom_maps/Custom_5_Run_0_Map.csv,0.053219,0.932329,0.010256,0.463284,0.000000,0.000000,0.785637,0.000000,1.000000,0.000000,0.054248,0.000000,0.889695,1.000000,0.000000,0.000000
/home/daniel/Projects/ppsevolution/data/maps/custom_maps/Custom_5_Run_0_Map.csv,0.118813,0.976222,0.118370,0.323960,0.080348,0.004164,0.871905,2.000000,0.997587,0.179649,0.000000,0.032516,1.000000,1.000000,0.133775,2.000000
/home/daniel/Projects/ppsevolution/data/maps/custom_maps/Custom_5_Run_0_Map.csv,0.144506,0.839436,0.123599,0.306330,0.064460,0.120183,0.839276,2.000000,0.974203,0.000000,0.000000,0.060978,0.816231,0.872138,0.049201,2.000000
/home/daniel/Projects/ppsevolution/data/maps/custom_maps/Custom_6_Run_0_Map.csv,0.271106,0.933760,0.000000,0.697655,0.080220,0.000000,0.760901,0.000000,0.758844,0.025612,0.034241,0.584698,1.000000,0.874870,0.209088,0.000000
/home/daniel/Projects/ppsevolution/data/maps/custom_maps/Custom_6_Run_0_Map.csv,0.266311,0.940676,0.091461,0.678448,0.000000,0.085235,0.884466,2.000000,1.000000,0.180403,0.062212,0.555992,0.971096,1.000000,0.000000,0.000000
/home/daniel/Projects/ppsevolution/data/maps/custom_maps/Custom_6_Run_0_Map.csv,0.058907,1.000000,0.210000,0.617025,0.030000,0.275465,0.821633,1.000000,1.000000,0.000000,0.000000,0.523991,1.000000,0.907884,0.000000,2.000000
/home/daniel/Projects/ppsevolution/data/maps/custom_maps/Custom_6_Run_0_Map.csv,0.496883,0.942738,0.038465,0.700872,0.000000,0.025338,1.000000,1.000000,1.000000,0.146372,0.000000,0.652066,1.000000,0.735737,0.028653,0.000000
/home/daniel/Projects/ppsevolution/data/maps/custom_maps/Custom_6_Run_0_Map.csv,0.096064,1.000000,0.160379,0.652213,0.000000,0.000000,0.913157,1.000000,0.998622,0.217985,0.022380,0.532721,0.817132,0.922848,0.000000,1.000000
/home/daniel/Projects/ppsevolution/data/maps/custom_maps/Custom_6_Run_0_Map.csv,0.123651,0.874675,0.132118,0.615032,0.165354,0.098781,0.970804,2.000000,0.848124,0.000000,0.000000,0.547913,0.984806,0.943397,0.016262,2.000000
/home/daniel/Projects/ppsevolution/data/maps/custom_maps/Custom_6_Run_0_Map.csv,0.000000,0.754595,0.210000,0.653160,0.000000,0.013127,0.587334,1.000000,1.000000,0.000000,0.000000,0.537645,1.000000,0.765961,0.000000,0.000000
/home/daniel/Projects/ppsevolution/data/maps/custom_maps/Custom_6_Run_0_Map.csv,0.152772,0.936075,0.157495,0.635487,0.000000,0.002614,1.000000,0.000000,0.908576,0.000000,0.184897,0.444692,0.895995,1.000000,0.000000,0.000000
/home/daniel/Projects/ppsevolution/data/maps/custom_maps/Custom_6_Run_0_Map.csv,0.068591,1.000000,0.200441,0.624549,0.000000,0.000000,1.000000,0.000000,1.000000,0.000000,0.000000,0.510536,0.746652,0.940294,0.311607,2.000000
/home/daniel/Projects/ppsevolution/data/maps/custom_maps/Custom_6_Run_0_Map.csv,0.000000,0.883297,0.000000,0.750263,0.000000,0.000000,0.857922,0.000000,1.000000,0.041943,0.083072,0.477974,0.578017,1.000000,0.059637,0.000000
/home/daniel/Projects/ppsevolution/data/maps/custom_maps/Custom_7_Run_0_Map.csv,0.082921,0.999049,0.014026,0.502055,0.062343,0.134522,1.000000,1.000000,0.977938,0.000000,0.005702,0.169062,0.960790,1.000000,0.000000,0.000000
/home/daniel/Projects/ppsevolution/data/maps/custom_maps/Custom_7_Run_0_Map.csv,0.043701,0.823082,0.017183,0.542941,0.000000,0.139228,0.537351,1.000000,1.000000,0.000000,0.007652,0.138094,0.650303,0.786830,0.109358,2.000000
/home/daniel/Projects/ppsevolution/data/maps/custom_maps/Custom_7_Run_0_Map.csv,0.000000,1.000000,0.035189,0.490347,0.283529,0.000000,0.625745,0.000000,0.846175,0.182944,0.000000,0.147622,1.000000,0.871797,0.104326,1.000000
/home/daniel/Projects/ppsevolution/data/maps/custom_maps/Custom_7_Run_0_Map.csv,0.153846,0.835949,0.000000,0.538100,0.083096,0.252157,0.785812,0.000000,1.000000,0.000000,0.000000,0.176110,0.734229,0.974108,0.280994,0.000000
/home/daniel/Projects/ppsevolution/data/maps/custom_maps/Custom_7_Run_0_Map.csv,0.227293,0.903957,0.000000,0.516127,0.000000,0.002958,0.582583,1.000000,0.918681,0.063034,0.067180,0.176005,0.669252,1.000000,0.006301,0.000000
/home/daniel/Projects/ppsevolution/data/maps/custom_maps/Custom_7_Run_0_Map.csv,0.026105,0.967909,0.057705,0.444788,0.162713,0.000000,0.787505,0.000000,0.807519,0.183476,0.032720,0.115404,0.953294,0.884629,0.174757,1.000000
/home/daniel/Projects/ppsevolution/data/maps/custom_maps/Custom_7_Run_0_Map.csv,0.227688,0.851811,0.068651,0.478447,0.211246,0.026851,0.866569,0.000000,1.000000,0.015165,0.000000,0.228438,0.983869,0.757920,0.159510,2.000000
/home/daniel/Projects/ppsevolution/data/maps/custom_maps/Custom_7_Run_0_Map.csv,0.203898,0.648273,0.113848,0.405154,0.139798,0.121837,0.984246,0.000000,0.974523,0.000000,0.000000,0.221410,0.955825,1.000000,0.000000,0.000000
/home/daniel/Projects/ppsevolution/data/maps/custom_maps/Custom_7_Run_0_Map.csv,0.360891,0.895207,0.020998,0.485960,0.268630,0.245688,1.000000,0.000000,0.959301,0.254815,0.015814,0.271562,1.000000,0.948870,0.096913,2.000000
/home/daniel/Projects/ppsevolution/data/maps/custom_maps/Custom_7_Run_0_Map.csv,0.312541,1.000000,0.107954,0.432142,0.154591,0.000000,0.788284,1.000000,1.000000,0.043552,0.039027,0.232498,0.750991,0.813627,0.023472,2.000000
/home/daniel/Projects/ppsevolution/data/maps/custom_maps/Custom_8_Run_0_Map.csv,0.545935,1.000000,0.000000,0.329715,0.000000,0.059815,0.864759,2.000000,0.928667,0.184733,0.045428,0.113113,0.941215,0.695102,0.150295,0.000000
/home/daniel/Projects/ppsevolution/data/maps/custom_maps/Custom_8_Run_0_Map.csv,0.345437,1.000000,0.169168,0.181428,0.225117,0.173644,0.894456,1.000000,1.000000,0.335968,0.000000,0.063682,1.000000,0.905466,0.000000,0.000000
/home/daniel/Projects/ppsevolution/data/maps/custom_maps/Custom_8_Run_0_Map.csv,0.226872,0.785034,0.210000,0.132761,0.134235,0.000000,0.765359,2.000000,0.976737,0.008480,0.000000,0.000000,0.909479,1.000000,0.000000,0.000000
/home/daniel/Projects/ppsevolution/data/maps/custom_maps/Custom_8_Run_0_Map.csv,0.358235,1.000000,0.130041,0.197999,0.003554,0.089578,1.000000,2.000000,0.970177,0.053742,0.023934,0.042044,1.000000,1.000000,0.022388,2.000000
/home/daniel/Projects/ppsevolution/data/maps/custom_maps/Custom_8_Run_0_Map.csv,0.183806,1.000000,0.000000,0.381000,0.058626,0.000000,0.945169,0.000000,1.000000,0.000000,0.000000,0.000000,1.000000,0.938633,0.036009,2.000000
/home/daniel/Projects/ppsevolution/data/maps/custom_maps/Custom_8_Run_0_Map.csv,0.559966,1.000000,0.000000,0.354277,0.000000,0.009054,1.000000,0.000000,1.000000,0.132503,0.000000,0.167174,0.969866,0.939142,0.163752,1.000000
/home/daniel/Projects/ppsevolution/data/maps/custom_maps/Custom_8_Run_0_Map.csv,0.407321,0.961367,0.000000,0.334427,0.115964,0.011427,0.859509,0.000000,0.896900,0.060458,0.009993,0.113762,0.993320,1.000000,0.000000,1.000000
/home/daniel/Projects/ppsevolution/data/maps/custom_maps/Custom_8_Run_0_Map.csv,0.549142,0.764213,0.000000,0.358543,0.000000,0.016949,0.792126,2.000000,1.000000,0.042905,0.000000,0.159016,0.890039,1.000000,0.134929,0.000000
/home/daniel/Projects/ppsevolution/data/maps/custom_maps/Custom_8_Run_0_Map.csv,0.363707,1.000000,0.000000,0.318276,0.048091,0.159851,0.831052,1.000000,0.873225,0.000000,0.000000,0.068700,0.688890,0.967726,0.193065,0.000000
/home/daniel/Projects/ppsevolution/data/maps/custom_maps/Custom_8_Run_0_Map.csv,0.624425,0.881464,0.000000,0.361094,0.000000,0.000000,0.831414,1.000000,1.000000,0.133794,0.023489,0.177314,1.000000,0.861204,0.100624,1.000000
/home/daniel/Projects/ppsevolution/data/maps/custom_maps/Custom_9_Run_0_Map.csv,0.710033,0.578041,0.135020,0.025580,0.050597,0.001059,0.738594,2.000000,1.000000,0.000000,0.033798,0.068044,1.000000,0.778791,0.000000,1.000000
/home/daniel/Projects/ppsevolution/data/maps/custom_maps/Custom_9_Run_0_Map.csv,0.497353,0.991650,0.000000,0.211924,0.072859,0.048328,0.811668,0.000000,1.000000,0.000000,0.000000,0.000000,1.000000,1.000000,0.152538,0.000000
/home/daniel/Projects/ppsevolution/data/maps/custom_maps/Custom_9_Run_0_Map.csv,0.502839,1.000000,0.024269,0.167719,0.028648,0.049309,0.875318,1.000000,1.000000,0.019617,0.000000,0.000000,0.906396,0.874903,0.090754,0.000000
/home/daniel/Projects/ppsevolution/data/maps/custom_maps/Custom_9_Run_0_Map.csv,0.477762,0.713129,0.000000,0.188031,0.042798,0.000000,1.000000,0.000000,1.000000,0.056038,0.000000,0.000000,0.961180,0.868772,0.015118,0.000000
/home/daniel/Projects/ppsevolution/data/maps/custom_maps/Custom_9_Run_0_Map.csv,0.560125,0.942669,0.000000,0.179734,0.167757,0.192587,1.000000,0.000000,1.000000,0.000000,0.007577,0.000000,0.743046,0.971910,0.162203,2.000000
/home/daniel/Projects/ppsevolution/data/maps/custom_maps/Custom_9_Run_0_Map.csv,0.512063,1.000000,0.000000,0.205770,0.000000,0.000000,0.815313,0.000000,1.000000,0.000000,0.000000,0.018523,1.000000,1.000000,0.000000,2.000000
/home/daniel/Projects/ppsevolution/data/maps/custom_maps/Custom_9_Run_0_Map.csv,0.710189,1.000000,0.070745,0.084738,0.094924,0.000000,1.000000,0.000000,1.000000,0.056690,0.006268,0.102261,0.787882,0.743802,0.078015,2.000000
/home/daniel/Projects/ppsevolution/data/maps/custom_maps/Custom_9_Run_0_Map.csv,0.480037,1.000000,0.000000,0.201293,0.254209,0.261334,0.858655,0.000000,1.000000,0.212411,0.000000,0.000000,0.965159,0.792617,0.000000,0.000000
/home/daniel/Projects/ppsevolution/data/maps/custom_maps/Custom_9_Run_0_Map.csv,0.473463,0.976012,0.000000,0.190323,0.102560,0.000000,0.860134,0.000000,0.972888,0.038577,0.000000,0.000000,0.827060,1.000000,0.000000,2.000000
/home/daniel/Projects/ppsevolution/data/maps/custom_maps/Custom_9_Run_0_Map.csv,0.543199,0.902063,0.029862,0.155899,0.079179,0.017514,0.845335,0.000000,1.000000,0.000000,0.013000,0.000000,0.651794,0.507532,0.076816,1.000000
/home/daniel/Projects/ppsevolution/data/maps/custom_maps/Custom_10_Run_0_Map.csv,0.465937,0.922287,0.000000,0.467392,0.045763,0.000000,1.000000,0.000000,1.000000,0.049846,0.000000,0.302997,0.928907,1.000000,0.000000,0.000000
/home/daniel/Projects/ppsevolution/data/maps/custom_maps/Custom_10_Run_0_Map.csv,0.314499,0.990633,0.072304,0.336363,0.080666,0.070140,1.000000,0.000000,0.831350,0.101702,0.012656,0.200668,1.000000,0.938656,0.136921,1.000000
/home/daniel/Projects/ppsevolution/data/maps/custom_maps/Custom_10_Run_0_Map.csv,0.000000,0.994863,0.000000,0.479456,0.129243,0.132576,1.000000,1.000000,1.000000,0.000000,0.000000,0.067949,1.000000,1.000000,0.000000,1.000000
/home/daniel/Projects/ppsevolution/data/maps/custom_maps/Custom_10_Run_0_Map.csv,0.602195,1.000000,0.004886,0.464032,0.317130,0.156722,0.720481,1.000000,0.968973,0.000000,0.002534,0.346479,1.000000,0.981659,0.109929,1.000000
/home/daniel/Projects/ppsevolution/data/maps/custom_maps/Custom_10_Run_0_Map.csv,0.241196,0.785030,0.000000,0.480370,0.103650,0.055220,0.931210,0.000000,1.000000,0.158711,0.000000,0.164360,0.729859,0.906961,0.194201,0.000000
/home/daniel/Projects/ppsevolution/data/maps/custom_maps/Custom_10_Run_0_Map.csv,0.434760,1.000000,0.055003,0.410174,0.082085,0.099113,1.000000,0.000000,1.000000,0.000000,0.005163,0.270864,0.864866,1.000000,0.000000,2.000000
/home/daniel/Projects/ppsevolution/data/maps/custom_maps/Custom_10_Run_0_Map.csv,0.402579,1.000000,0.150478,0.289253,0.224142,0.079076,0.902447,1.000000,0.935387,0.182097,0.000000,0.247059,0.854937,0.975873,0.000000,2.000000
/home/daniel/Projects/ppsevolution/data/maps/custom_maps/Custom_10_Run_0_Map.csv,0.166295,0.917502,0.058001,0.431513,0.085809,0.030000,0.967833,0.000000,1.000000,0.000000,0.000000,0.133245,1.000000,1.000000,0.189491,1.000000
/home/daniel/Projects/ppsevolution/data/maps/custom_maps/Custom_10_Run_0_Map.csv,0.052298,1.000000,0.000000,0.440409,0.002259,0.000000,0.922603,0.000000,0.841039,0.440565,0.000000,0.108790,1.000000,0.902973,0.000000,1.000000
/home/daniel/Projects/ppsevolution/data/maps/custom_maps/Custom_10_Run_0_Map.csv,0.406605,0.923601,0.027262,0.429926,0.086645,0.000000,1.000000,2.000000,1.000000,0.332383,0.000000,0.204900,0.890568,0.891816,0.375857,1.000000
