/home/daniel/Projects/ppsEvolution/data/maps/custom_maps/Custom_1_Run_0_Map.csv,0.772684,0.958178,0.000000,0.000000,0.121665,0.034102,0.832000,0.000000,1.000000,0.000000,0.000000,0.000000,1.000000,1.000000,0.012698,1.000000
/home/daniel/Projects/ppsEvolution/data/maps/custom_maps/Custom_1_Run_0_Map.csv,0.767491,0.891221,0.000000,0.000000,0.000000,0.000000,0.854771,0.000000,1.000000,0.191242,0.000000,0.000000,0.790319,0.979358,0.000000,1.000000
/home/daniel/Projects/ppsEvolution/data/maps/custom_maps/Custom_1_Run_0_Map.csv,0.763309,0.983279,0.000000,0.000000,0.000000,0.114824,0.742296,0.000000,0.966099,0.174421,0.003605,0.000000,1.000000,0.987335,0.000000,1.000000
/home/daniel/Projects/ppsEvolution/data/maps/custom_maps/Custom_1_Run_0_Map.csv,0.793984,0.918150,0.000000,0.000000,0.129881,0.053494,0.729981,2.000000,1.000000,0.191355,0.000000,0.000000,1.000000,1.000000,0.017397,0.000000
/home/daniel/Projects/ppsEvolution/data/maps/custom_maps/Custom_1_Run_0_Map.csv,0.804488,1.000000,0.000000,0.000000,0.012986,0.080591,0.778498,2.000000,1.000000,0.046186,0.000000,0.000000,0.934065,0.895154,0.099189,2.000000
/home/daniel/Projects/ppsEvolution/data/maps/custom_maps/Custom_1_Run_0_Map.csv,0.793855,0.655840,0.000000,0.000000,0.000000,0.211336,0.784779,0.000000,1.000000,0.046772,0.000000,0.000000,0.945006,0.692087,0.058045,0.000000
/home/daniel/Projects/ppsEvolution/data/maps/custom_maps/Custom_1_Run_0_Map.csv,0.825372,1.000000,0.000000,0.000000,0.285651,0.042202,0.631455,1.000000,0.979547,0.119739,0.000000,0.000000,0.544132,0.945923,0.143666,2.000000
/home/daniel/Projects/ppsEvolution/data/maps/custom_maps/Custom_1_Run_0_Map.csv,0.785875,0.844809,0.000000,0.000000,0.099349,0.000000,0.784331,0.000000,1.000000,0.047323,0.000000,0.000000,0.808414,1.000000,0.041933,2.000000
/home/daniel/Projects/ppsEvolution/data/maps/custom_maps/Custom_1_Run_0_Map.csv,0.770040,0.977906,0.000000,0.000000,0.527040,0.000000,0.621875,0.000000,0.948265,0.227564,0.000000,0.000000,0.970178,1.000000,0.000000,1.000000
/home/daniel/Projects/ppsEvolution/data/maps/custom_maps/Custom_1_Run_0_Map.csv,0.763049,0.989499,0.000000,0.000000,0.044250,0.130114,0.890148,0.000000,1.000000,0.094249,0.000000,0.000000,1.000000,0.892052,0.000000,1.000000
/home/daniel/Projects/ppsEvolution/data/maps/custom_maps/Custom_2_Run_0_Map.csv,0.404060,0.909374,0.000000,0.579722,0.420961,0.205504,0.636400,0.000000,1.000000,0.000000,0.000000,0.344567,0.741234,0.906522,0.060404,2.000000
/home/daniel/Projects/ppsEvolution/data/maps/custom_maps/Custom_2_Run_0_Map.csv,0.294593,0.921379,0.000000,0.582033,0.000000,0.000000,0.771600,0.000000,1.000000,0.102383,0.028998,0.279641,0.957413,0.997505,0.000000,2.000000
/home/daniel/Projects/ppsEvolution/data/maps/custom_maps/Custom_2_Run_0_Map.csv,0.000000,1.000000,0.000000,0.573920,0.180103,0.000000,0.906893,0.000000,0.965385,0.000000,0.000000,0.174489,0.963776,1.000000,0.000000,1.000000
/home/daniel/Projects/ppsEvolution/data/maps/custom_maps/Custom_2_Run_0_Map.csv,0.288697,0.933239,0.000000,0.562549,0.110076,0.000000,0.838778,1.000000,1.000000,0.000000,0.000000,0.262018,0.817679,0.772133,0.212349,2.000000
/home/daniel/Projects/ppsEvolution/data/maps/custom_maps/Custom_2_Run_0_Map.csv,0.217097,1.000000,0.000000,0.579639,0.115800,0.000000,0.799164,0.000000,1.000000,0.027817,0.036959,0.215073,1.000000,0.799381,0.126366,1.000000
/home/daniel/Projects/ppsEvolution/data/maps/custom_maps/Custom_2_Run_0_Map.csv,0.000000,0.979199,0.038115,0.535477,0.000000,0.195961,0.976006,1.000000,1.000000,0.000000,0.028272,0.121415,0.881995,1.000000,0.000000,2.000000
/home/daniel/Projects/ppsEvolution/data/maps/custom_maps/Custom_2_Run_0_Map.csv,0.404831,0.850591,0.039095,0.519600,0.000000,0.045701,0.815052,1.000000,1.000000,0.076174,0.002509,0.291315,1.000000,0.999750,0.315006,0.000000
/home/daniel/Projects/ppsEvolution/data/maps/custom_maps/Custom_2_Run_0_Map.csv,0.160735,1.000000,0.000000,0.570677,0.041283,0.025136,1.000000,0.000000,1.000000,0.007670,0.000000,0.235421,0.948849,0.810009,0.048562,2.000000
/home/daniel/Projects/ppsEvolution/data/maps/custom_maps/Custom_2_Run_0_Map.csv,0.045631,1.000000,0.261255,0.300691,0.233047,0.248963,1.000000,1.000000,0.985177,0.269745,0.004142,0.144295,1.000000,0.974972,0.000000,1.000000
/home/daniel/Projects/ppsEvolution/data/maps/custom_maps/Custom_2_Run_0_Map.csv,0.246108,1.000000,0.173583,0.414178,0.000000,0.085846,0.694551,2.000000,1.000000,0.078443,0.021531,0.228729,1.000000,0.981321,0.072157,2.000000
/home/daniel/Projects/ppsEvolution/data/maps/custom_maps/Custom_3_Run_0_Map.csv,0.035498,0.993520,0.166712,0.514750,0.321879,0.343174,0.673575,1.000000,0.967234,0.030775,0.000000,0.316366,0.999779,0.888049,0.000000,1.000000
/home/daniel/Projects/ppsEvolution/data/maps/custom_maps/Custom_3_Run_0_Map.csv,0.294374,0.911356,0.135684,0.570506,0.139740,0.000000,0.726431,0.000000,1.000000,0.025202,0.000000,0.443707,1.000000,1.000000,0.118777,0.000000
/home/daniel/Projects/ppsEvolution/data/maps/custom_maps/Custom_3_Run_0_Map.csv,0.137068,0.811787,0.091771,0.566475,0.218547,0.000000,0.707631,0.000000,0.916848,0.063839,0.027006,0.314717,1.000000,1.000000,0.251703,2.000000
/home/daniel/Projects/ppsEvolution/data/maps/custom_maps/Custom_3_Run_0_Map.csv,0.205856,1.000000,0.034237,0.602627,0.032175,0.005132,0.750331,1.000000,0.935398,0.175898,0.104331,0.302118,0.819316,0.893879,0.010009,1.000000
/home/daniel/Projects/ppsEvolution/data/maps/custom_maps/Custom_3_Run_0_Map.csv,0.034111,1.000000,0.000000,0.621130,0.145163,0.080392,0.800563,0.000000,0.856805,0.024480,0.000000,0.340381,1.000000,0.955559,0.040349,0.000000
/home/daniel/Projects/ppsEvolution/data/maps/custom_maps/Custom_3_Run_0_Map.csv,0.294784,0.988995,0.177904,0.479507,0.043717,0.000000,0.897266,0.000000,0.939375,0.079818,0.000000,0.422007,1.000000,0.847396,0.028994,0.000000
/home/daniel/Projects/ppsEvolution/data/maps/custom_maps/Custom_3_Run_0_Map.csv,0.063075,1.000000,0.004718,0.669420,0.000000,0.000000,0.674054,0.000000,1.000000,0.022256,0.000000,0.353064,1.000000,0.960660,0.128867,1.000000
/home/daniel/Projects/ppsEvolution/data/maps/custom_maps/Custom_3_Run_0_Map.csv,0.127810,0.879838,0.118497,0.563935,0.227111,0.053506,0.875572,0.000000,1.000000,0.038875,0.000000,0.373925,0.849514,0.974990,0.000000,0.000000
/home/daniel/Projects/ppsEvolution/data/maps/custom_maps/Custom_3_Run_0_Map.csv,0.156282,1.000000,0.000000,0.658677,0.220033,0.091631,0.835143,0.000000,1.000000,0.052681,0.000000,0.385968,1.000000,0.908232,0.103578,2.000000
/home/daniel/Projects/ppsEvolution/data/maps/custom_maps/Custom_3_Run_0_Map.csv,0.159570,1.000000,0.000000,0.615890,0.153320,0.226824,0.879212,0.000000,0.874073,0.090812,0.010455,0.382906,0.865344,0.977021,0.000000,1.000000
/home/daniel/Projects/ppsEvolution/data/maps/custom_maps/Custom_4_Run_0_Map.csv,0.403542,0.963751,0.000000,0.242510,0.095419,0.110001,1.000000,0.000000,0.861514,0.045624,0.000000,0.000000,0.962746,0.939710,0.000000,0.000000
/home/daniel/Projects/ppsEvolution/data/maps/custom_maps/Custom_4_Run_0_Map.csv,0.673760,0.916009,0.000000,0.311520,0.161480,0.030000,0.659872,0.000000,1.000000,0.030758,0.000000,0.133443,0.910222,0.979751,0.000000,1.000000
/home/daniel/Projects/ppsEvolution/data/maps/custom_maps/Custom_4_Run_0_Map.csv,0.452009,1.000000,0.000000,0.305470,0.166927,0.182419,0.617496,0.000000,0.940593,0.009057,0.000000,0.000000,0.918431,0.463189,0.144303,1.000000
/home/daniel/Projects/ppsEvolution/data/maps/custom_maps/Custom_4_Run_0_Map.csv,0.530675,0.772966,0.000000,0.283537,0.089441,0.005380,1.000000,2.000000,1.000000,0.274129,0.021056,0.000000,0.905475,1.000000,0.147474,0.000000
/home/daniel/Projects/ppsEvolution/data/maps/custom_maps/Custom_4_Run_0_Map.csv,0.508366,0.803540,0.049509,0.221408,0.036149,0.000000,1.000000,2.000000,0.991687,0.036138,0.000000,0.028761,0.983464,1.000000,0.000000,1.000000
/home/daniel/Projects/ppsEvolution/data/maps/custom_maps/Custom_4_Run_0_Map.csv,0.472640,0.722804,0.006706,0.317195,0.010515,0.000000,0.685550,1.000000,1.000000,0.254262,0.010304,0.014679,1.000000,1.000000,0.000000,0.000000
/home/daniel/Projects/ppsEvolution/data/maps/custom_maps/Custom_4_Run_0_Map.csv,0.411799,1.000000,0.000000,0.310331,0.000000,0.130900,0.915994,0.000000,1.000000,0.000000,0.000000,0.000000,1.000000,1.000000,0.000000,1.000000
/home/daniel/Projects/ppsEvolution/data/maps/custom_maps/Custom_4_Run_0_Map.csv,0.436898,0.904286,0.015356,0.309648,0.000000,0.000000,0.664240,1.000000,1.000000,0.000000,0.000000,0.000000,1.000000,0.899257,0.086946,0.000000
/home/daniel/Projects/ppsEvolution/data/maps/custom_maps/Custom_4_Run_0_Map.csv,0.427538,1.000000,0.000000,0.303726,0.170722,0.000000,0.926470,0.000000,1.000000,0.073908,0.000000,0.000000,0.964188,0.789663,0.000000,1.000000
/home/daniel/Projects/ppsEvolution/data/maps/custom_maps/Custom_4_Run_0_Map.csv,0.453322,0.829205,0.000000,0.320686,0.276704,0.216646,0.645201,0.000000,0.996373,0.000000,0.000000,0.000000,0.852168,0.555893,0.098830,1.000000
/home/daniel/Projects/ppsEvolution/data/maps/custom_maps/Custom_5_Run_0_Map.csv,0.335421,0.873455,0.086676,0.316209,0.000397,0.000000,1.000000,2.000000,0.968025,0.208475,0.000000,0.139858,0.825118,0.661965,0.160065,0.000000
/home/daniel/Projects/ppsEvolution/data/maps/custom_maps/Custom_5_Run_0_Map.csv,0.236387,0.778575,0.068743,0.398804,0.000000,0.063740,0.681615,0.000000,1.000000,0.200951,0.000000,0.117037,0.803537,0.970541,0.078841,2.000000
/home/daniel/Projects/ppsEvolution/data/maps/custom_maps/Custom_5_Run_0_Map.csv,0.309996,0.899406,0.000000,0.406901,0.150527,0.010183,0.999431,1.000000,0.944149,0.000000,0.000000,0.162278,1.000000,0.635234,0.000000,1.000000
/home/daniel/Projects/ppsEvolution/data/maps/custom_maps/Custom_5_Run_0_Map.csv,0.627071,0.855713,0.225931,0.127335,0.000000,0.214589,0.651519,1.000000,0.864677,0.000000,0.000000,0.278669,0.937049,0.973324,0.251569,0.000000
/home/daniel/Projects/ppsEvolution/data/maps/custom_maps/Custom_5_Run_0_Map.csv,0.127131,0.924722,0.170970,0.265282,0.418869,0.028511,0.887347,0.000000,0.969735,0.223226,0.000000,0.039811,1.000000,1.000000,0.194218,0.000000
/home/daniel/Projects/ppsEvolution/data/maps/custom_maps/Custom_5_Run_0_Map.csv,0.145164,0.964880,0.000000,0.430340,0.000000,0.125855,1.000000,1.000000,0.963728,0.000000,0.000000,0.057790,1.000000,1.000000,0.222912,1.000000
/home/daniel/Projects/ppsEvolution/data/maps/custom_maps/Custom_5_Run_0_Map.csv,0.196093,0.715912,0.000000,0.444385,0.163585,0.123670,0.925805,0.000000,1.000000,0.000000,0.000000,0.097677,0.900223,0.889810,0.079418,1.000000
/home/daniel/Projects/ppsEvolution/data/maps/custom_maps/Custom_5_Run_0_Map.csv,0.108252,0.882435,0.000000,0.452489,0.141933,0.000000,1.000000,0.000000,1.000000,0.375616,0.000000,0.061293,0.814347,1.000000,0.044276,2.000000
/home/daniel/Projects/ppsEvolution/data/maps/custom_maps/Custom_5_Run_0_Map.csv,0.303898,0.918407,0.033854,0.394796,0.133886,0.230201,1.000000,0.000000,0.976836,0.000000,0.000000,0.137879,0.951058,0.935728,0.185499,1.000000
/home/daniel/Projects/ppsEvolution/data/maps/custom_maps/Custom_5_Run_0_Map.csv,0.315179,0.980172,0.000000,0.425198,0.030000,0.000000,1.000000,2.000000,1.000000,0.000000,0.020652,0.112584,1.000000,0.794399,0.168862,2.000000
/home/daniel/Projects/ppsEvolution/data/maps/custom_maps/Custom_6_Run_0_Map.csv,0.268980,0.800880,0.218350,0.597987,0.019813,0.010501,0.852484,0.000000,0.953827,0.000000,0.003040,0.584445,0.978340,0.787707,0.132465,0.000000
/home/daniel/Projects/ppsEvolution/data/maps/custom_maps/Custom_6_Run_0_Map.csv,0.000000,1.000000,0.140278,0.659133,0.062108,0.000000,0.966706,0.000000,0.953492,0.000000,0.000000,0.521615,0.921843,0.934853,0.009619,2.000000
/home/daniel/Projects/ppsEvolution/data/maps/custom_maps/Custom_6_Run_0_Map.csv,0.000000,0.898404,0.202866,0.618787,0.000000,0.066702,1.000000,0.000000,1.000000,0.018446,0.000000,0.505115,1.000000,1.000000,0.000000,2.000000
/home/daniel/Projects/ppsEvolution/data/maps/custom_maps/Custom_6_Run_0_Map.csv,0.000000,1.000000,0.244410,0.601780,0.030000,0.000000,0.830866,1.000000,1.000000,0.000000,0.000000,0.513301,1.000000,1.000000,0.000000,2.000000
/home/daniel/Projects/ppsEvolution/data/maps/custom_maps/Custom_6_Run_0_Map.csv,0.094881,1.000000,0.210000,0.609212,0.030000,0.030000,1.000000,1.000000,1.000000,0.098668,0.113309,0.442238,0.972685,1.000000,0.167152,0.000000
/home/daniel/Projects/ppsEvolution/data/maps/custom_maps/Custom_6_Run_0_Map.csv,0.207740,1.000000,0.000000,0.692045,0.000000,0.129744,0.962185,0.000000,0.840011,0.151730,0.000000,0.571680,0.723822,0.928944,0.000000,2.000000
/home/daniel/Projects/ppsEvolution/data/maps/custom_maps/Custom_6_Run_0_Map.csv,0.267826,0.754782,0.210000,0.639560,0.285208,0.030000,0.680783,0.000000,1.000000,0.176288,0.000000,0.600000,1.000000,0.828577,0.000000,2.000000
/home/daniel/Projects/ppsEvolution/data/maps/custom_maps/Custom_6_Run_0_Map.csv,0.000000,1.000000,0.072031,0.712313,0.069904,0.034680,0.959616,0.000000,1.000000,0.000000,0.072713,0.481515,0.923039,0.974530,0.000000,0.000000
/home/daniel/Projects/ppsEvolution/data/maps/custom_maps/Custom_6_Run_0_Map.csv,0.094158,0.951330,0.227490,0.616989,0.001659,0.000000,0.759239,1.000000,1.000000,0.000000,0.018483,0.537687,0.991925,1.000000,0.000000,0.000000
/home/daniel/Projects/ppsEvolution/data/maps/custom_maps/Custom_6_Run_0_Map.csv,0.004896,0.900790,0.245726,0.564770,0.027718,0.030000,1.000000,2.000000,0.971092,0.000000,0.002142,0.498693,0.904690,1.000000,0.000000,1.000000
/home/daniel/Projects/ppsEvolution/data/maps/custom_maps/Custom_7_Run_0_Map.csv,0.000000,0.786282,0.060996,0.470902,0.000000,0.000000,0.958494,2.000000,1.000000,0.031201,0.000000,0.127056,1.000000,0.915249,0.000000,1.000000
/home/daniel/Projects/ppsEvolution/data/maps/custom_maps/Custom_7_Run_0_Map.csv,0.157132,0.887791,0.272700,0.168283,0.000000,0.192887,0.945156,2.000000,0.755935,0.415726,0.038972,0.157867,0.800927,1.000000,0.049117,2.000000
/home/daniel/Projects/ppsEvolution/data/maps/custom_maps/Custom_7_Run_0_Map.csv,0.008623,0.916088,0.102229,0.471380,0.030000,0.042551,0.593141,1.000000,1.000000,0.000000,0.000000,0.141515,0.847410,1.000000,0.042159,1.000000
/home/daniel/Projects/ppsEvolution/data/maps/custom_maps/Custom_7_Run_0_Map.csv,0.000000,0.925144,0.106734,0.448503,0.133600,0.007232,0.987240,1.000000,1.000000,0.102552,0.024929,0.093641,1.000000,0.841896,0.166089,2.000000
/home/daniel/Projects/ppsEvolution/data/maps/custom_maps/Custom_7_Run_0_Map.csv,0.092823,1.000000,0.195544,0.343136,0.157553,0.110191,1.000000,1.000000,1.000000,0.009456,0.001940,0.172918,1.000000,1.000000,0.000000,1.000000
/home/daniel/Projects/ppsEvolution/data/maps/custom_maps/Custom_7_Run_0_Map.csv,0.245378,0.840643,0.127367,0.434050,0.016324,0.000000,0.686650,0.000000,1.000000,0.000000,0.000000,0.247532,0.945064,0.995925,0.031537,2.000000
/home/daniel/Projects/ppsEvolution/data/maps/custom_maps/Custom_7_Run_0_Map.csv,0.276191,1.000000,0.094632,0.424440,0.000000,0.241894,1.000000,2.000000,1.000000,0.118463,0.000000,0.252817,0.970216,0.944338,0.000000,2.000000
/home/daniel/Projects/ppsEvolution/data/maps/custom_maps/Custom_7_Run_0_Map.csv,0.230904,0.911265,0.209394,0.325820,0.012570,0.000000,1.000000,2.000000,1.000000,0.000000,0.015621,0.198582,0.929749,1.000000,0.224027,2.000000
/home/daniel/Projects/ppsEvolution/data/maps/custom_maps/Custom_7_Run_0_Map.csv,0.000000,0.939958,0.040064,0.430337,0.022498,0.098676,1.000000,2.000000,0.851722,0.000000,0.000000,0.134597,0.920083,1.000000,0.000000,0.000000
/home/daniel/Projects/ppsEvolution/data/maps/custom_maps/Custom_7_Run_0_Map.csv,0.239508,0.979370,0.005967,0.521348,0.111051,0.088519,0.944541,0.000000,1.000000,0.000000,0.000000,0.245038,1.000000,1.000000,0.063284,1.000000
/home/daniel/Projects/ppsEvolution/data/maps/custom_maps/Custom_8_Run_0_Map.csv,0.545862,0.707670,0.000000,0.354977,0.244982,0.000000,1.000000,0.000000,1.000000,0.000000,0.163780,0.000000,1.000000,1.000000,0.000000,1.000000
/home/daniel/Projects/ppsEvolution/data/maps/custom_maps/Custom_8_Run_0_Map.csv,0.224878,1.000000,0.000000,0.314739,0.012520,0.030593,0.838127,0.000000,0.808554,0.000000,0.000000,0.028204,0.947833,1.000000,0.100418,1.000000
/home/daniel/Projects/ppsEvolution/data/maps/custom_maps/Custom_8_Run_0_Map.csv,0.230992,0.869571,0.000000,0.334996,0.001747,0.030000,0.911899,2.000000,0.901758,0.213971,0.003766,0.000000,1.000000,0.745077,0.140731,2.000000
/home/daniel/Projects/ppsEvolution/data/maps/custom_maps/Custom_8_Run_0_Map.csv,0.129298,1.000000,0.000000,0.397881,0.097572,0.000000,0.651365,0.000000,0.964684,0.044235,0.000000,0.000000,1.000000,1.000000,0.000000,0.000000
/home/daniel/Projects/ppsEvolution/data/maps/custom_maps/Custom_8_Run_0_Map.csv,0.429806,0.909646,0.000000,0.350161,0.049745,0.000000,0.872119,1.000000,0.962645,0.032086,0.000000,0.113055,1.000000,0.690356,0.089043,1.000000
/home/daniel/Projects/ppsEvolution/data/maps/custom_maps/Custom_8_Run_0_Map.csv,0.455057,0.970243,0.134913,0.201763,0.048441,0.169592,1.000000,0.000000,1.000000,0.014028,0.000000,0.114933,0.766851,1.000000,0.046671,1.000000
/home/daniel/Projects/ppsEvolution/data/maps/custom_maps/Custom_8_Run_0_Map.csv,0.246675,1.000000,0.000000,0.364891,0.000000,0.211556,1.000000,1.000000,1.000000,0.163006,0.000000,0.006462,0.809821,0.810433,0.176090,1.000000
/home/daniel/Projects/ppsEvolution/data/maps/custom_maps/Custom_8_Run_0_Map.csv,0.248214,0.738583,0.146409,0.211825,0.188816,0.299323,0.938967,0.000000,1.000000,0.000000,0.000000,0.020238,0.977482,0.746614,0.000000,0.000000
/home/daniel/Projects/ppsEvolution/data/maps/custom_maps/Custom_8_Run_0_Map.csv,0.612945,1.000000,0.000000,0.299161,0.000000,0.012767,1.000000,2.000000,0.904879,0.000000,0.000000,0.209390,1.000000,0.955436,0.016910,1.000000
/home/daniel/Projects/ppsEvolution/data/maps/custom_maps/Custom_8_Run_0_Map.csv,0.234860,0.876025,0.079499,0.281620,0.000000,0.206004,0.943966,2.000000,1.000000,0.198874,0.000000,0.000000,1.000000,0.871083,0.084627,1.000000
/home/daniel/Projects/ppsEvolution/data/maps/custom_maps/Custom_9_Run_0_Map.csv,0.473449,1.000000,0.000000,0.206454,0.055396,0.009218,0.816490,0.000000,1.000000,0.079510,0.000000,0.000000,0.795260,0.467485,0.000000,1.000000
/home/daniel/Projects/ppsEvolution/data/maps/custom_maps/Custom_9_Run_0_Map.csv,0.473483,0.974659,0.000000,0.222103,0.132916,0.000000,0.630749,1.000000,1.000000,0.081146,0.000000,0.000000,1.000000,1.000000,0.030230,0.000000
/home/daniel/Projects/ppsEvolution/data/maps/custom_maps/Custom_9_Run_0_Map.csv,0.727777,1.000000,0.000000,0.154297,0.353800,0.008896,0.822853,1.000000,0.932720,0.141014,0.040999,0.077788,0.827498,0.954708,0.015121,0.000000
/home/daniel/Projects/ppsEvolution/data/maps/custom_maps/Custom_9_Run_0_Map.csv,0.494405,0.872860,0.000000,0.202391,0.152835,0.168023,0.668809,2.000000,1.000000,0.000000,0.000000,0.000000,1.000000,0.826184,0.005938,0.000000
/home/daniel/Projects/ppsEvolution/data/maps/custom_maps/Custom_9_Run_0_Map.csv,0.512000,0.735624,0.068932,0.099021,0.142734,0.168508,1.000000,1.000000,1.000000,0.000000,0.000000,0.000000,1.000000,1.000000,0.086969,1.000000
/home/daniel/Projects/ppsEvolution/data/maps/custom_maps/Custom_9_Run_0_Map.csv,0.502668,0.885793,0.154862,0.000000,0.000000,0.188391,0.988292,1.000000,1.000000,0.285938,0.000000,0.000000,0.986106,0.805901,0.065377,0.000000
/home/daniel/Projects/ppsEvolution/data/maps/custom_maps/Custom_9_Run_0_Map.csv,0.491619,0.993540,0.041211,0.135788,0.053107,0.103557,1.000000,1.000000,1.000000,0.004289,0.000000,0.000000,1.000000,1.000000,0.000000,2.000000
/home/daniel/Projects/ppsEvolution/data/maps/custom_maps/Custom_9_Run_0_Map.csv,0.487054,1.000000,0.000000,0.195242,0.255613,0.296886,0.897060,0.000000,1.000000,0.072711,0.000000,0.000000,0.951937,1.000000,0.000000,2.000000
/home/daniel/Projects/ppsEvolution/data/maps/custom_maps/Custom_9_Run_0_Map.csv,0.476978,0.667041,0.000000,0.200714,0.150229,0.089116,0.803570,0.000000,1.000000,0.026765,0.000000,0.000000,0.637284,0.978618,0.000000,0.000000
/home/daniel/Projects/ppsEvolution/data/maps/custom_maps/Custom_9_Run_0_Map.csv,0.560945,0.879531,0.039903,0.130348,0.010515,0.176116,0.775667,1.000000,0.954230,0.000000,0.000000,0.026875,1.000000,0.771166,0.097230,1.000000
/home/daniel/Projects/ppsEvolution/data/maps/custom_maps/Custom_10_Run_0_Map.csv,0.170408,0.715585,0.003156,0.496988,0.105195,0.053657,0.710058,0.000000,0.991678,0.022983,0.000000,0.170546,1.000000,1.000000,0.000000,0.000000
/home/daniel/Projects/ppsEvolution/data/maps/custom_maps/Custom_10_Run_0_Map.csv,0.268463,0.948054,0.064779,0.401882,0.000000,0.021259,1.000000,1.000000,1.000000,0.060114,0.000000,0.163281,0.786505,1.000000,0.231411,1.000000
/home/daniel/Projects/ppsEvolution/data/maps/custom_maps/Custom_10_Run_0_Map.csv,0.479063,0.893775,0.039271,0.408056,0.000000,0.111408,0.989406,2.000000,1.000000,0.184717,0.003884,0.274751,0.757904,0.933922,0.024921,1.000000
/home/daniel/Projects/ppsEvolution/data/maps/custom_maps/Custom_10_Run_0_Map.csv,0.940749,0.744951,0.000000,0.398038,0.000000,0.046542,0.962773,2.000000,0.876977,0.000000,0.000000,0.459271,1.000000,0.908505,0.290841,1.000000
/home/daniel/Projects/ppsEvolution/data/maps/custom_maps/Custom_10_Run_0_Map.csv,0.294640,0.843984,0.000000,0.468977,0.000000,0.395935,0.823979,1.000000,0.987669,0.103663,0.088315,0.108413,0.865695,0.661403,0.020708,1.000000
/home/daniel/Projects/ppsEvolution/data/maps/custom_maps/Custom_10_Run_0_Map.csv,0.573749,0.984513,0.064013,0.394773,0.097613,0.000000,1.000000,1.000000,1.000000,0.035231,0.020895,0.297156,1.000000,0.458484,0.138950,2.000000
/home/daniel/Projects/ppsEvolution/data/maps/custom_maps/Custom_10_Run_0_Map.csv,0.336889,1.000000,0.251545,0.209494,0.046303,0.057081,1.000000,0.000000,1.000000,0.000000,0.012053,0.189598,0.892428,1.000000,0.214976,0.000000
/home/daniel/Projects/ppsEvolution/data/maps/custom_maps/Custom_10_Run_0_Map.csv,0.023535,0.853367,0.000000,0.475775,0.110496,0.102828,1.000000,1.000000,1.000000,0.000000,0.000000,0.079676,0.889600,0.866597,0.000000,0.000000
/home/daniel/Projects/ppsEvolution/data/maps/custom_maps/Custom_10_Run_0_Map.csv,0.425676,1.000000,0.091542,0.385877,0.000000,0.000000,0.962121,0.000000,1.000000,0.009532,0.000000,0.264335,0.985594,1.000000,0.138604,0.000000
/home/daniel/Projects/ppsEvolution/data/maps/custom_maps/Custom_10_Run_0_Map.csv,0.255975,0.886924,0.141128,0.360015,0.095037,0.000000,0.700831,0.000000,0.999656,0.000000,0.000000,0.178079,0.867305,0.731927,0.129543,1.000000
