/home/daniel/Projects/ppsevolution/data/maps/custom_maps/Custom_1_Run_0_Map.csv,0.779321,0.877121,0.000000,0.000000,0.189141,0.175704,0.812789,0.000000,1.000000,0.255669,0.000000,0.000000,1.000000,0.454691,0.000000,1.000000
/home/daniel/Projects/ppsevolution/data/maps/custom_maps/Custom_1_Run_0_Map.csv,1.000000,0.989329,0.000000,0.000000,0.417705,0.020206,0.853099,0.000000,1.000000,0.733553,0.080516,0.000000,1.000000,0.754855,0.080676,1.000000
/home/daniel/Projects/ppsevolution/data/maps/custom_maps/Custom_1_Run_0_Map.csv,0.801540,0.875586,0.000000,0.000000,0.000000,0.155202,0.776339,1.000000,1.000000,0.033418,0.000000,0.000000,0.957067,0.640803,0.067120,2.000000
/home/daniel/Projects/ppsevolution/data/maps/custom_maps/Custom_1_Run_0_Map.csv,0.789506,0.511749,0.000000,0.000000,0.175820,0.000000,0.668519,2.000000,1.000000,0.000000,0.000000,0.000000,1.000000,0.886575,0.013139,0.000000
/home/daniel/Projects/ppsevolution/data/maps/custom_maps/Custom_1_Run_0_Map.csv,0.853568,0.854521,0.000000,0.000000,0.801478,0.323686,0.595600,2.000000,1.000000,0.038287,0.000000,0.000000,0.939493,0.484984,0.187985,0.000000
/home/daniel/Projects/ppsevolution/data/maps/custom_maps/Custom_1_Run_0_Map.csv,0.814171,0.977793,0.000000,0.000000,0.000000,0.169590,0.719053,1.000000,1.000000,0.018425,0.000000,0.000000,0.710789,0.959218,0.115066,0.000000
/home/daniel/Projects/ppsevolution/data/maps/custom_maps/Custom_1_Run_0_Map.csv,0.781963,0.627295,0.000000,0.000000,0.123219,0.016819,0.851207,0.000000,1.000000,0.282293,0.000000,0.000000,1.000000,1.000000,0.000000,0.000000
/home/daniel/Projects/ppsevolution/data/maps/custom_maps/Custom_1_Run_0_Map.csv,0.797975,0.811848,0.000000,0.000000,0.285219,0.114738,0.599066,2.000000,1.000000,0.148141,0.000000,0.000000,0.521782,1.000000,0.000000,0.000000
/home/daniel/Projects/ppsevolution/data/maps/custom_maps/Custom_1_Run_0_Map.csv,0.784317,0.672729,0.000000,0.000000,0.129206,0.064366,0.800104,0.000000,0.986252,0.267595,0.000000,0.000000,1.000000,1.000000,0.036735,1.000000
/home/daniel/Projects/ppsevolution/data/maps/custom_maps/Custom_1_Run_0_Map.csv,0.918817,1.000000,0.000000,0.000000,0.014980,0.189187,0.788846,1.000000,1.000000,0.548691,0.002650,0.028625,0.949789,0.753151,0.233456,2.000000
/home/daniel/Projects/ppsevolution/data/maps/custom_maps/Custom_2_Run_0_Map.csv,0.216891,0.925883,0.085658,0.429856,0.053559,0.436393,0.839431,0.000000,0.838463,0.115897,0.000000,0.250327,0.984462,0.948893,0.005535,1.000000
/home/daniel/Projects/ppsevolution/data/maps/custom_maps/Custom_2_Run_0_Map.csv,0.189432,0.994505,0.000000,0.540705,0.063430,0.334802,0.587142,0.000000,0.842208,0.000000,0.000000,0.263891,0.800748,0.976577,0.000000,2.000000
/home/daniel/Projects/ppsevolution/data/maps/custom_maps/Custom_2_Run_0_Map.csv,0.000000,0.922189,0.074912,0.491055,0.099664,0.044765,1.000000,1.000000,1.000000,0.000000,0.000000,0.146280,1.000000,1.000000,0.000000,0.000000
/home/daniel/Projects/ppsevolution/data/maps/custom_maps/Custom_2_Run_0_Map.csv,0.047105,0.864627,0.000000,0.572586,0.000000,0.065161,0.907167,1.000000,1.000000,0.268753,0.000000,0.158395,0.798382,0.924664,0.127556,1.000000
/home/daniel/Projects/ppsevolution/data/maps/custom_maps/Custom_2_Run_0_Map.csv,0.124418,0.572961,0.001707,0.475006,0.371750,0.074737,0.947921,2.000000,0.782795,0.000000,0.000000,0.205184,1.000000,0.915473,0.000000,1.000000
/home/daniel/Projects/ppsevolution/data/maps/custom_maps/Custom_2_Run_0_Map.csv,0.176554,0.990783,0.088974,0.468274,0.000000,0.000000,1.000000,1.000000,0.969383,0.064803,0.000000,0.220465,1.000000,0.718768,0.115307,1.000000
/home/daniel/Projects/ppsevolution/data/maps/custom_maps/Custom_2_Run_0_Map.csv,0.282027,0.938303,0.000000,0.437451,0.125140,0.099588,1.000000,2.000000,0.705481,0.349636,0.000000,0.260261,0.816427,0.814978,0.111001,2.000000
/home/daniel/Projects/ppsevolution/data/maps/custom_maps/Custom_2_Run_0_Map.csv,0.458514,0.925982,0.000000,0.561731,0.000000,0.108517,0.724083,0.000000,1.000000,0.000000,0.148610,0.216156,1.000000,0.704404,0.000000,1.000000
/home/daniel/Projects/ppsevolution/data/maps/custom_maps/Custom_2_Run_0_Map.csv,0.218601,1.000000,0.000000,0.552837,0.000000,0.299689,1.000000,1.000000,1.000000,0.127986,0.000000,0.247475,0.792301,0.716649,0.000000,2.000000
/home/daniel/Projects/ppsevolution/data/maps/custom_maps/Custom_2_Run_0_Map.csv,0.153343,0.981368,0.000000,0.561288,0.252368,0.000000,1.000000,1.000000,1.000000,0.268443,0.000000,0.216955,0.983294,0.872050,0.066045,2.000000
/home/daniel/Projects/ppsevolution/data/maps/custom_maps/Custom_3_Run_0_Map.csv,0.028621,1.000000,0.030169,0.593491,0.000000,0.000000,1.000000,2.000000,0.948003,0.164618,0.046133,0.271101,0.952586,1.000000,0.030088,1.000000
/home/daniel/Projects/ppsevolution/data/maps/custom_maps/Custom_3_Run_0_Map.csv,0.084261,0.906180,0.019253,0.618132,0.213542,0.096352,1.000000,1.000000,1.000000,0.000000,0.000000,0.333038,0.908614,0.682169,0.042700,0.000000
/home/daniel/Projects/ppsevolution/data/maps/custom_maps/Custom_3_Run_0_Map.csv,0.000000,0.885744,0.046324,0.495552,0.065739,0.071423,1.000000,2.000000,0.689773,0.000000,0.045600,0.261232,0.942237,0.529091,0.000000,0.000000
/home/daniel/Projects/ppsevolution/data/maps/custom_maps/Custom_3_Run_0_Map.csv,0.237160,0.630706,0.205301,0.448755,0.225262,0.206111,0.835331,2.000000,0.965593,0.085678,0.013997,0.363763,0.906330,0.918088,0.024373,1.000000
/home/daniel/Projects/ppsevolution/data/maps/custom_maps/Custom_3_Run_0_Map.csv,0.000000,0.636455,0.039288,0.608090,0.629165,0.080787,1.000000,0.000000,0.957176,0.167722,0.000000,0.273068,0.985480,0.902972,0.370449,0.000000
/home/daniel/Projects/ppsevolution/data/maps/custom_maps/Custom_3_Run_0_Map.csv,0.000000,0.828909,0.092527,0.535635,0.111759,0.036224,0.771468,0.000000,0.808592,0.360053,0.018249,0.254140,0.812621,0.785067,0.359393,0.000000
/home/daniel/Projects/ppsevolution/data/maps/custom_maps/Custom_3_Run_0_Map.csv,0.021452,0.871641,0.178753,0.463746,0.453884,0.009914,0.971313,1.000000,0.907312,0.161310,0.000000,0.306536,0.968724,1.000000,0.000000,1.000000
/home/daniel/Projects/ppsevolution/data/maps/custom_maps/Custom_3_Run_0_Map.csv,0.024671,1.000000,0.020139,0.662154,0.000000,0.268237,0.586831,0.000000,0.993457,0.000000,0.000000,0.339473,0.977157,0.900783,0.115183,0.000000
/home/daniel/Projects/ppsevolution/data/maps/custom_maps/Custom_3_Run_0_Map.csv,0.173427,1.000000,0.000000,0.638447,0.000000,0.000000,0.988713,0.000000,1.000000,0.000000,0.059083,0.333463,0.599362,0.931275,0.000000,2.000000
/home/daniel/Projects/ppsevolution/data/maps/custom_maps/Custom_3_Run_0_Map.csv,0.214015,0.799450,0.148509,0.476089,0.000000,0.194951,0.900917,0.000000,0.862345,0.141201,0.173726,0.196351,0.844548,0.882177,0.169701,1.000000
/home/daniel/Projects/ppsevolution/data/maps/custom_maps/Custom_4_Run_0_Map.csv,0.550208,0.786376,0.051508,0.256466,0.306509,0.040561,0.532882,2.000000,0.985900,0.253669,0.020014,0.019621,0.994154,0.810085,0.021915,1.000000
/home/daniel/Projects/ppsevolution/data/maps/custom_maps/Custom_4_Run_0_Map.csv,0.438889,0.939839,0.000000,0.280433,0.142546,0.221068,1.000000,2.000000,0.994502,0.000000,0.000000,0.000000,0.833467,0.777554,0.000000,0.000000
/home/daniel/Projects/ppsevolution/data/maps/custom_maps/Custom_4_Run_0_Map.csv,0.547745,0.939309,0.034690,0.256777,0.000000,0.099913,0.908691,2.000000,1.000000,0.270888,0.012469,0.000000,1.000000,1.000000,0.260781,1.000000
/home/daniel/Projects/ppsevolution/data/maps/custom_maps/Custom_4_Run_0_Map.csv,0.542578,0.693615,0.000000,0.341928,0.019308,0.175309,0.167831,2.000000,0.984195,0.126007,0.000000,0.000000,0.678268,0.504067,0.442506,0.000000
/home/daniel/Projects/ppsevolution/data/maps/custom_maps/Custom_4_Run_0_Map.csv,0.519723,0.690107,0.105851,0.146913,0.054039,0.063677,0.674851,1.000000,0.888664,0.301282,0.002542,0.000000,0.691911,1.000000,0.221401,0.000000
/home/daniel/Projects/ppsevolution/data/maps/custom_maps/Custom_4_Run_0_Map.csv,0.563245,0.804982,0.000000,0.307562,0.078669,0.227460,0.680104,1.000000,1.000000,0.002922,0.000000,0.041289,0.951754,0.898661,0.148548,2.000000
/home/daniel/Projects/ppsevolution/data/maps/custom_maps/Custom_4_Run_0_Map.csv,0.965290,1.000000,0.000000,0.263975,0.260337,0.199806,0.902867,0.000000,0.997052,0.200716,0.000000,0.251653,0.812100,0.951639,0.062544,1.000000
/home/daniel/Projects/ppsevolution/data/maps/custom_maps/Custom_4_Run_0_Map.csv,0.416447,0.994294,0.000000,0.308075,0.015214,0.057845,0.644675,1.000000,0.958713,0.077964,0.000000,0.000000,0.940926,0.949165,0.000000,1.000000
/home/daniel/Projects/ppsevolution/data/maps/custom_maps/Custom_4_Run_0_Map.csv,0.489225,0.834852,0.000000,0.311280,0.062999,0.000000,0.673225,1.000000,1.000000,0.000000,0.000000,0.012007,0.550594,0.724870,0.093014,2.000000
/home/daniel/Projects/ppsevolution/data/maps/custom_maps/Custom_4_Run_0_Map.csv,0.633000,0.932460,0.000000,0.321572,0.000000,0.005323,0.570062,0.000000,0.987094,0.062087,0.000000,0.107470,1.000000,0.755670,0.045624,2.000000
/home/daniel/Projects/ppsevolution/data/maps/custom_maps/Custom_5_Run_0_Map.csv,0.204327,0.817931,0.000000,0.354741,0.441006,0.285800,0.941022,2.000000,0.787155,0.127861,0.050522,0.035087,0.948648,0.943751,0.137531,1.000000
/home/daniel/Projects/ppsevolution/data/maps/custom_maps/Custom_5_Run_0_Map.csv,0.147056,0.940708,0.058786,0.319641,0.738692,0.000000,0.704390,2.000000,0.801086,0.034358,0.063187,0.000000,0.762111,0.850674,0.146300,0.000000
/home/daniel/Projects/ppsevolution/data/maps/custom_maps/Custom_5_Run_0_Map.csv,0.349195,0.700670,0.000000,0.472049,0.000000,0.200934,0.609139,0.000000,1.000000,0.091020,0.000000,0.186172,1.000000,0.683260,0.112924,0.000000
/home/daniel/Projects/ppsevolution/data/maps/custom_maps/Custom_5_Run_0_Map.csv,0.000000,0.875916,0.098383,0.341195,0.190233,0.000000,0.996946,1.000000,0.991363,0.061748,0.000000,0.000000,1.000000,0.862954,0.001883,1.000000
/home/daniel/Projects/ppsevolution/data/maps/custom_maps/Custom_5_Run_0_Map.csv,0.395025,0.738527,0.000000,0.408259,0.162277,0.277408,1.000000,2.000000,1.000000,0.013587,0.159626,0.000000,0.656645,1.000000,0.115698,1.000000
/home/daniel/Projects/ppsevolution/data/maps/custom_maps/Custom_5_Run_0_Map.csv,0.086446,1.000000,0.029366,0.391216,0.285294,0.259171,1.000000,2.000000,0.972103,0.353813,0.027493,0.000000,0.901062,0.465553,0.017192,2.000000
/home/daniel/Projects/ppsevolution/data/maps/custom_maps/Custom_5_Run_0_Map.csv,0.057956,0.870648,0.000000,0.222842,0.299285,0.114902,0.897809,0.000000,0.421482,0.000000,0.000000,0.062991,0.879725,1.000000,0.032900,2.000000
/home/daniel/Projects/ppsevolution/data/maps/custom_maps/Custom_5_Run_0_Map.csv,0.414365,1.000000,0.131418,0.278965,0.497350,0.113813,0.928545,1.000000,1.000000,0.002912,0.000000,0.191039,0.832934,0.926768,0.000000,2.000000
/home/daniel/Projects/ppsevolution/data/maps/custom_maps/Custom_5_Run_0_Map.csv,0.440270,0.870828,0.020600,0.409690,0.000000,0.131991,0.836452,1.000000,0.988179,0.095080,0.000000,0.219170,0.997467,0.756027,0.009646,2.000000
/home/daniel/Projects/ppsevolution/data/maps/custom_maps/Custom_5_Run_0_Map.csv,0.212559,0.465014,0.073223,0.356678,0.053323,0.000000,0.928095,2.000000,1.000000,0.000000,0.000000,0.104217,1.000000,0.974260,0.002757,0.000000
/home/daniel/Projects/ppsevolution/data/maps/custom_maps/Custom_6_Run_0_Map.csv,0.000000,1.000000,0.191649,0.632155,0.102999,0.455741,0.936218,0.000000,0.965010,0.187167,0.034141,0.487452,1.000000,0.849781,0.066925,0.000000
/home/daniel/Projects/ppsevolution/data/maps/custom_maps/Custom_6_Run_0_Map.csv,0.000000,0.803419,0.000000,0.700715,0.276888,0.000000,1.000000,0.000000,0.782914,0.011508,0.099952,0.464231,0.903288,1.000000,0.002646,2.000000
/home/daniel/Projects/ppsevolution/data/maps/custom_maps/Custom_6_Run_0_Map.csv,0.124143,0.953431,0.152817,0.595479,0.000000,0.000000,0.990152,0.000000,0.825630,0.000000,0.000000,0.545340,0.965414,1.000000,0.000000,2.000000
/home/daniel/Projects/ppsevolution/data/maps/custom_maps/Custom_6_Run_0_Map.csv,0.163482,0.762454,0.303564,0.489588,0.112075,0.280018,1.000000,1.000000,0.897875,0.000000,0.015195,0.520814,0.794945,0.740472,0.192076,1.000000
/home/daniel/Projects/ppsevolution/data/maps/custom_maps/Custom_6_Run_0_Map.csv,0.282660,0.959510,0.200899,0.459017,0.000000,0.000000,1.000000,1.000000,0.453585,0.035263,0.266768,0.423580,0.925347,0.841323,0.140213,0.000000
/home/daniel/Projects/ppsevolution/data/maps/custom_maps/Custom_6_Run_0_Map.csv,0.081086,1.000000,0.101912,0.685749,0.033855,0.000000,0.756737,2.000000,1.000000,0.000000,0.000000,0.547696,0.689484,1.000000,0.000000,2.000000
/home/daniel/Projects/ppsevolution/data/maps/custom_maps/Custom_6_Run_0_Map.csv,0.000000,0.997941,0.212210,0.617570,0.000000,0.309298,0.803779,2.000000,0.983574,0.000000,0.071535,0.467193,0.675122,0.746247,0.000000,0.000000
/home/daniel/Projects/ppsevolution/data/maps/custom_maps/Custom_6_Run_0_Map.csv,0.115178,1.000000,0.000000,0.731931,0.522323,0.037706,1.000000,1.000000,1.000000,0.000000,0.114263,0.485083,0.804098,0.784623,0.000000,0.000000
/home/daniel/Projects/ppsevolution/data/maps/custom_maps/Custom_6_Run_0_Map.csv,0.093539,0.484199,0.260677,0.556365,0.011556,0.371526,0.849205,1.000000,0.924420,0.000000,0.053867,0.496740,0.964746,0.951077,0.000000,1.000000
/home/daniel/Projects/ppsevolution/data/maps/custom_maps/Custom_6_Run_0_Map.csv,0.159362,1.000000,0.318030,0.523215,0.078270,0.084753,1.000000,1.000000,1.000000,0.409908,0.000000,0.548008,0.822752,1.000000,0.000000,0.000000
/home/daniel/Projects/ppsevolution/data/maps/custom_maps/Custom_7_Run_0_Map.csv,0.301239,0.707399,0.046636,0.439640,0.012122,0.081526,0.976715,1.000000,0.917276,0.651037,0.000000,0.257246,0.521576,0.991281,0.011865,1.000000
/home/daniel/Projects/ppsevolution/data/maps/custom_maps/Custom_7_Run_0_Map.csv,0.333151,0.697268,0.214367,0.344154,0.250583,0.179408,0.787364,0.000000,1.000000,0.113551,0.146962,0.083065,0.818877,0.886389,0.356150,1.000000
/home/daniel/Projects/ppsevolution/data/maps/custom_maps/Custom_7_Run_0_Map.csv,0.000000,1.000000,0.073599,0.370364,0.303192,0.448232,1.000000,2.000000,0.761412,0.096864,0.000000,0.100901,0.985865,1.000000,0.259526,0.000000
/home/daniel/Projects/ppsevolution/data/maps/custom_maps/Custom_7_Run_0_Map.csv,0.000000,0.924461,0.000000,0.512643,0.000000,0.309565,0.955937,0.000000,0.926193,0.060226,0.080397,0.050217,0.850091,0.934250,0.030640,1.000000
/home/daniel/Projects/ppsevolution/data/maps/custom_maps/Custom_7_Run_0_Map.csv,0.183804,1.000000,0.000000,0.439779,0.304219,0.447928,1.000000,1.000000,0.774927,0.000000,0.203614,0.000000,0.649830,0.808615,0.054285,1.000000
/home/daniel/Projects/ppsevolution/data/maps/custom_maps/Custom_7_Run_0_Map.csv,0.099948,1.000000,0.000000,0.535360,0.111775,0.107443,1.000000,0.000000,1.000000,0.056379,0.052737,0.135804,0.994413,0.769701,0.000000,1.000000
/home/daniel/Projects/ppsevolution/data/maps/custom_maps/Custom_7_Run_0_Map.csv,0.000000,1.000000,0.135945,0.381193,0.000000,0.088482,0.754221,2.000000,0.870096,0.004370,0.098902,0.030869,0.848215,0.997880,0.050655,1.000000
/home/daniel/Projects/ppsevolution/data/maps/custom_maps/Custom_7_Run_0_Map.csv,0.306163,0.977697,0.241830,0.306462,0.098944,0.212657,0.723748,0.000000,0.984901,0.156645,0.122003,0.128828,0.865170,0.957373,0.000000,1.000000
/home/daniel/Projects/ppsevolution/data/maps/custom_maps/Custom_7_Run_0_Map.csv,0.060137,0.917748,0.091512,0.385987,0.164483,0.124869,0.804289,1.000000,0.817217,0.000000,0.000303,0.165264,0.942895,0.970262,0.000000,0.000000
/home/daniel/Projects/ppsevolution/data/maps/custom_maps/Custom_7_Run_0_Map.csv,0.359359,1.000000,0.000000,0.468617,0.660469,0.110611,0.732939,1.000000,0.817559,0.113981,0.067626,0.228439,0.904008,0.978861,0.082163,2.000000
/home/daniel/Projects/ppsevolution/data/maps/custom_maps/Custom_8_Run_0_Map.csv,0.357423,0.917558,0.000000,0.367229,0.120790,0.305709,0.950480,0.000000,1.000000,0.204780,0.000000,0.086770,0.976611,0.918017,0.000000,1.000000
/home/daniel/Projects/ppsevolution/data/maps/custom_maps/Custom_8_Run_0_Map.csv,0.414602,0.975455,0.008834,0.356025,0.521443,0.595768,0.777569,1.000000,1.000000,0.152561,0.000000,0.090820,1.000000,0.914083,0.115758,0.000000
/home/daniel/Projects/ppsevolution/data/maps/custom_maps/Custom_8_Run_0_Map.csv,0.517299,0.473388,0.018392,0.340504,0.088877,0.000000,0.905095,0.000000,1.000000,0.128687,0.142895,0.000000,0.906345,0.812540,0.025959,1.000000
/home/daniel/Projects/ppsevolution/data/maps/custom_maps/Custom_8_Run_0_Map.csv,0.228350,0.848719,0.000000,0.374478,0.057116,0.000000,1.000000,0.000000,1.000000,0.273066,0.000000,0.032138,0.898512,0.794886,0.000000,0.000000
/home/daniel/Projects/ppsevolution/data/maps/custom_maps/Custom_8_Run_0_Map.csv,0.353842,0.995630,0.013060,0.343147,0.198551,0.283481,0.746894,2.000000,0.976319,0.080633,0.051127,0.000000,0.616143,0.841831,0.153874,1.000000
/home/daniel/Projects/ppsevolution/data/maps/custom_maps/Custom_8_Run_0_Map.csv,0.382863,0.627073,0.000000,0.370663,0.033381,0.000000,0.903861,0.000000,1.000000,0.034291,0.000000,0.103068,0.992941,0.523115,0.000000,0.000000
/home/daniel/Projects/ppsevolution/data/maps/custom_maps/Custom_8_Run_0_Map.csv,0.259413,0.667435,0.241992,0.000000,0.070332,0.000000,1.000000,1.000000,0.787177,0.449600,0.000000,0.000000,0.891517,1.000000,0.185872,0.000000
/home/daniel/Projects/ppsevolution/data/maps/custom_maps/Custom_8_Run_0_Map.csv,0.362284,1.000000,0.025072,0.288233,0.000000,0.228350,0.962403,2.000000,0.887016,0.629741,0.000000,0.040977,0.980151,0.909453,0.296598,0.000000
/home/daniel/Projects/ppsevolution/data/maps/custom_maps/Custom_8_Run_0_Map.csv,0.204224,0.824804,0.000000,0.369490,0.277906,0.000000,0.698829,2.000000,0.969167,0.066543,0.000000,0.000000,0.625522,0.862942,0.099330,0.000000
/home/daniel/Projects/ppsevolution/data/maps/custom_maps/Custom_8_Run_0_Map.csv,0.468649,1.000000,0.193279,0.159753,0.000000,0.253002,0.735092,1.000000,0.989031,0.133741,0.000000,0.113244,1.000000,0.909276,0.114225,1.000000
/home/daniel/Projects/ppsevolution/data/maps/custom_maps/Custom_9_Run_0_Map.csv,0.477963,0.840567,0.053445,0.078878,0.000000,0.058073,0.898059,0.000000,0.869668,0.270322,0.000000,0.000000,1.000000,0.930181,0.000000,2.000000
/home/daniel/Projects/ppsevolution/data/maps/custom_maps/Custom_9_Run_0_Map.csv,0.655056,0.619136,0.060716,0.000000,0.000000,0.178908,0.681084,0.000000,0.687560,0.118020,0.072416,0.000000,0.852436,1.000000,0.152343,1.000000
/home/daniel/Projects/ppsevolution/data/maps/custom_maps/Custom_9_Run_0_Map.csv,0.441380,0.984715,0.000000,0.045215,0.184473,0.006755,0.938664,1.000000,0.665011,0.162895,0.000000,0.000000,1.000000,0.725825,0.000000,1.000000
/home/daniel/Projects/ppsevolution/data/maps/custom_maps/Custom_9_Run_0_Map.csv,0.618450,0.906572,0.000000,0.185810,0.200165,0.036839,0.908471,0.000000,1.000000,0.000000,0.000000,0.069984,0.841233,0.573378,0.000000,2.000000
/home/daniel/Projects/ppsevolution/data/maps/custom_maps/Custom_9_Run_0_Map.csv,0.612002,0.863079,0.000000,0.184888,0.590570,0.354275,0.845843,1.000000,1.000000,0.283494,0.000000,0.032169,0.735791,1.000000,0.180358,0.000000
/home/daniel/Projects/ppsevolution/data/maps/custom_maps/Custom_9_Run_0_Map.csv,0.573251,0.859027,0.045418,0.115717,0.000000,0.261432,1.000000,2.000000,1.000000,0.000000,0.022138,0.000000,0.946220,1.000000,0.041774,2.000000
/home/daniel/Projects/ppsevolution/data/maps/custom_maps/Custom_9_Run_0_Map.csv,0.770490,1.000000,0.015029,0.166253,0.000000,0.181040,0.653659,1.000000,0.979254,0.000000,0.017097,0.133316,0.771102,0.954227,0.000000,0.000000
/home/daniel/Projects/ppsevolution/data/maps/custom_maps/Custom_9_Run_0_Map.csv,0.487448,0.994017,0.000000,0.148134,0.000000,0.138295,0.393404,2.000000,0.802896,0.030580,0.000000,0.000537,1.000000,0.639732,0.088260,0.000000
/home/daniel/Projects/ppsevolution/data/maps/custom_maps/Custom_9_Run_0_Map.csv,0.536576,0.452679,0.000000,0.092988,0.292037,0.141208,1.000000,1.000000,0.805656,0.449870,0.000000,0.000000,0.634529,0.978988,0.178034,0.000000
/home/daniel/Projects/ppsevolution/data/maps/custom_maps/Custom_9_Run_0_Map.csv,0.464363,0.981148,0.000000,0.035894,0.223868,0.000000,0.711210,0.000000,0.579724,0.023173,0.000000,0.000000,0.896658,1.000000,0.219383,2.000000
/home/daniel/Projects/ppsevolution/data/maps/custom_maps/Custom_10_Run_0_Map.csv,0.284764,0.907042,0.088626,0.289241,0.032600,0.002910,0.981635,0.000000,0.745587,0.088266,0.000000,0.204888,0.872480,0.969833,0.140903,2.000000
/home/daniel/Projects/ppsevolution/data/maps/custom_maps/Custom_10_Run_0_Map.csv,0.086359,0.756382,0.053515,0.415453,0.003606,0.121316,1.000000,1.000000,0.985644,0.316542,0.000000,0.093690,0.877681,0.744043,0.026597,1.000000
/home/daniel/Projects/ppsevolution/data/maps/custom_maps/Custom_10_Run_0_Map.csv,0.445768,0.749194,0.007929,0.460365,0.223550,0.060085,0.411176,2.000000,0.914591,0.121328,0.000000,0.277999,1.000000,1.000000,0.105192,0.000000
/home/daniel/Projects/ppsevolution/data/maps/custom_maps/Custom_10_Run_0_Map.csv,0.229394,0.616280,0.000000,0.431723,0.152770,0.175509,0.773165,2.000000,0.886578,0.279874,0.000000,0.173375,0.680317,0.666131,0.000000,0.000000
/home/daniel/Projects/ppsevolution/data/maps/custom_maps/Custom_10_Run_0_Map.csv,0.345532,1.000000,0.058262,0.336235,0.013680,0.204265,0.922868,1.000000,0.777773,0.306644,0.000000,0.214374,1.000000,1.000000,0.205035,2.000000
/home/daniel/Projects/ppsevolution/data/maps/custom_maps/Custom_10_Run_0_Map.csv,0.341934,0.661505,0.029431,0.370127,0.196379,0.036636,0.753626,1.000000,0.779621,0.201490,0.000000,0.213185,1.000000,0.881479,0.172962,1.000000
/home/daniel/Projects/ppsevolution/data/maps/custom_maps/Custom_10_Run_0_Map.csv,0.000000,0.941057,0.000000,0.487738,0.026905,0.014931,0.673471,0.000000,0.937641,0.000000,0.000000,0.063831,0.783170,0.159157,0.159018,0.000000
/home/daniel/Projects/ppsevolution/data/maps/custom_maps/Custom_10_Run_0_Map.csv,0.454790,1.000000,0.000000,0.445206,0.455871,0.000000,0.778997,0.000000,0.894067,0.510574,0.255775,0.000000,1.000000,0.676057,0.127571,2.000000
/home/daniel/Projects/ppsevolution/data/maps/custom_maps/Custom_10_Run_0_Map.csv,0.141105,0.748350,0.090593,0.249336,0.205073,0.098205,1.000000,2.000000,0.688964,0.382952,0.000000,0.135731,0.687851,0.498350,0.000000,1.000000
/home/daniel/Projects/ppsevolution/data/maps/custom_maps/Custom_10_Run_0_Map.csv,0.000000,0.598655,0.000000,0.495935,0.066842,0.108108,0.744061,1.000000,1.000000,0.000000,0.061869,0.000000,0.984865,1.000000,0.000000,2.000000
