/home/daniel/Projects/ppsevolution/data/maps/custom_maps/Custom_1_Run_0_Map.csv,0.052479,0.731181,0.318940,0.590544,0.089761,0.218321,0.933060,0.000000,0.920958,0.288176,0.454102,0.281112,1.000000,0.988063,0.132614,0.000000
/home/daniel/Projects/ppsevolution/data/maps/custom_maps/Custom_1_Run_0_Map.csv,0.141471,0.835881,0.492894,0.360419,0.148281,0.009374,0.946115,0.000000,0.689898,0.026030,0.159941,0.526020,0.458205,0.777167,0.117421,1.000000
/home/daniel/Projects/ppsevolution/data/maps/custom_maps/Custom_1_Run_0_Map.csv,0.056080,0.979114,1.000000,0.080829,0.344979,0.223877,0.840463,0.000000,0.961299,0.725889,0.000000,0.554131,0.727406,0.728045,0.236788,2.000000
/home/daniel/Projects/ppsevolution/data/maps/custom_maps/Custom_1_Run_0_Map.csv,0.000000,0.589397,0.627219,0.379390,0.000000,0.140857,1.000000,1.000000,0.990284,0.000000,0.649380,0.108167,0.723590,0.615529,0.179372,1.000000
/home/daniel/Projects/ppsevolution/data/maps/custom_maps/Custom_1_Run_0_Map.csv,0.000000,1.000000,0.108693,0.728500,0.114054,0.000000,0.887995,0.000000,1.000000,0.000000,0.000000,0.600004,0.920605,0.901404,0.000000,0.000000
/home/daniel/Projects/ppsevolution/data/maps/custom_maps/Custom_1_Run_0_Map.csv,0.292165,0.878513,0.432100,0.512984,0.000000,0.171820,0.846184,1.000000,1.000000,0.336586,0.189688,0.530723,1.000000,0.875685,0.075612,2.000000
/home/daniel/Projects/ppsevolution/data/maps/custom_maps/Custom_1_Run_0_Map.csv,0.072028,0.984801,0.135004,0.658626,0.145317,0.000000,0.732821,2.000000,0.851341,0.163776,0.205854,0.443106,0.739888,0.887276,0.113804,2.000000
/home/daniel/Projects/ppsevolution/data/maps/custom_maps/Custom_1_Run_0_Map.csv,0.258481,1.000000,0.452236,0.527536,0.163100,0.217191,0.677435,0.000000,1.000000,0.116848,0.353256,0.437970,0.754312,0.991956,0.098178,0.000000
/home/daniel/Projects/ppsevolution/data/maps/custom_maps/Custom_1_Run_0_Map.csv,0.000000,1.000000,0.140881,0.684416,0.040933,0.037888,0.936723,2.000000,1.000000,0.000000,0.014577,0.540423,0.914060,0.761029,0.297759,2.000000
/home/daniel/Projects/ppsevolution/data/maps/custom_maps/Custom_1_Run_0_Map.csv,0.076064,0.769255,0.233616,0.618223,0.000000,0.115591,0.969926,1.000000,0.922881,0.580672,0.125024,0.485248,0.852879,0.543825,0.268843,2.000000
/home/daniel/Projects/ppsevolution/data/maps/custom_maps/Custom_2_Run_0_Map.csv,0.000000,0.719285,0.736817,1.000000,0.103742,0.376813,0.845262,2.000000,0.804931,0.917389,1.000000,1.000000,0.981152,1.000000,0.552275,2.000000
/home/daniel/Projects/ppsevolution/data/maps/custom_maps/Custom_2_Run_0_Map.csv,0.155926,1.000000,0.966687,1.000000,0.392088,0.000000,0.983258,2.000000,1.000000,0.777766,1.000000,1.000000,1.000000,0.379632,0.640582,2.000000
/home/daniel/Projects/ppsevolution/data/maps/custom_maps/Custom_2_Run_0_Map.csv,0.146241,0.935752,0.723577,1.000000,0.064528,0.267090,0.898859,2.000000,0.756964,0.404000,0.864217,1.000000,0.961207,0.778104,0.770067,2.000000
/home/daniel/Projects/ppsevolution/data/maps/custom_maps/Custom_2_Run_0_Map.csv,0.000000,0.598447,0.797525,1.000000,0.180464,0.271119,0.842271,2.000000,0.693105,0.163425,0.945150,1.000000,0.747465,0.758079,0.898530,2.000000
/home/daniel/Projects/ppsevolution/data/maps/custom_maps/Custom_2_Run_0_Map.csv,0.049144,0.773525,0.805467,1.000000,0.293837,0.000000,0.889835,2.000000,0.809759,0.284689,1.000000,1.000000,1.000000,0.644925,0.686553,2.000000
/home/daniel/Projects/ppsevolution/data/maps/custom_maps/Custom_2_Run_0_Map.csv,0.016135,0.931603,0.905717,1.000000,0.000000,0.327751,1.000000,2.000000,0.899256,0.186712,0.933776,1.000000,1.000000,0.900203,0.763437,2.000000
/home/daniel/Projects/ppsevolution/data/maps/custom_maps/Custom_2_Run_0_Map.csv,0.000000,0.809570,0.863984,1.000000,0.275292,0.120000,0.769724,2.000000,0.799313,0.271723,0.998276,1.000000,0.991348,1.000000,0.242827,2.000000
/home/daniel/Projects/ppsevolution/data/maps/custom_maps/Custom_2_Run_0_Map.csv,0.059586,0.723397,0.732214,1.000000,0.064725,0.310970,1.000000,2.000000,0.709658,0.036561,1.000000,1.000000,0.699863,0.955173,0.801419,2.000000
/home/daniel/Projects/ppsevolution/data/maps/custom_maps/Custom_2_Run_0_Map.csv,0.000000,1.000000,0.675217,1.000000,0.115598,0.948324,0.832745,2.000000,0.610569,0.000000,0.921541,1.000000,0.737890,1.000000,0.983450,2.000000
/home/daniel/Projects/ppsevolution/data/maps/custom_maps/Custom_2_Run_0_Map.csv,0.104158,0.893235,0.867375,1.000000,0.059254,0.000000,0.605592,1.000000,0.845986,0.771545,0.967251,1.000000,0.487131,0.719925,0.703777,2.000000
/home/daniel/Projects/ppsevolution/data/maps/custom_maps/Custom_3_Run_0_Map.csv,0.000000,0.590417,0.941352,0.986793,0.023835,0.028803,0.920529,2.000000,0.250800,0.875476,1.000000,1.000000,1.000000,0.065852,0.182585,2.000000
/home/daniel/Projects/ppsevolution/data/maps/custom_maps/Custom_3_Run_0_Map.csv,0.000000,1.000000,0.687329,1.000000,0.187937,0.236400,0.941758,2.000000,0.320504,0.442682,1.000000,1.000000,0.795706,0.744363,1.000000,2.000000
/home/daniel/Projects/ppsevolution/data/maps/custom_maps/Custom_3_Run_0_Map.csv,0.038046,0.734465,0.807515,1.000000,0.103177,0.078200,1.000000,2.000000,0.523894,0.217410,1.000000,1.000000,1.000000,0.294197,0.605730,2.000000
/home/daniel/Projects/ppsevolution/data/maps/custom_maps/Custom_3_Run_0_Map.csv,0.000000,0.914446,1.000000,1.000000,0.066540,0.756021,0.886876,2.000000,0.947129,0.062650,0.987032,1.000000,0.984353,0.666995,1.000000,2.000000
/home/daniel/Projects/ppsevolution/data/maps/custom_maps/Custom_3_Run_0_Map.csv,0.000000,0.901124,0.967666,0.957311,0.000000,0.229396,0.817539,2.000000,0.000000,0.335539,1.000000,1.000000,0.953304,0.107115,0.946025,2.000000
/home/daniel/Projects/ppsevolution/data/maps/custom_maps/Custom_3_Run_0_Map.csv,0.000000,0.781010,0.708145,1.000000,0.052967,0.097493,1.000000,2.000000,0.036335,0.074238,0.995993,1.000000,0.690079,0.000000,1.000000,2.000000
/home/daniel/Projects/ppsevolution/data/maps/custom_maps/Custom_3_Run_0_Map.csv,0.000000,0.912611,0.735396,1.000000,0.000000,0.017529,1.000000,2.000000,0.364391,0.804352,0.984131,1.000000,0.863151,0.684273,0.852243,1.000000
/home/daniel/Projects/ppsevolution/data/maps/custom_maps/Custom_3_Run_0_Map.csv,0.000000,0.426003,1.000000,0.971309,0.018358,0.000000,0.891899,2.000000,0.254664,0.295569,1.000000,1.000000,0.715268,0.691943,0.660099,2.000000
/home/daniel/Projects/ppsevolution/data/maps/custom_maps/Custom_3_Run_0_Map.csv,0.000000,0.690634,0.826279,1.000000,0.026901,0.000000,0.986336,2.000000,0.555807,0.089434,1.000000,1.000000,0.868078,0.704850,0.939301,2.000000
/home/daniel/Projects/ppsevolution/data/maps/custom_maps/Custom_3_Run_0_Map.csv,0.063038,0.671720,1.000000,0.971601,0.004703,0.204870,1.000000,2.000000,0.081468,0.707816,0.967428,1.000000,0.916790,0.000000,0.799208,2.000000
/home/daniel/Projects/ppsevolution/data/maps/custom_maps/Custom_4_Run_0_Map.csv,0.003258,0.885668,0.593318,0.523371,0.000000,0.048071,0.734213,2.000000,0.679750,0.000000,0.008048,0.647226,0.829238,1.000000,0.000000,1.000000
/home/daniel/Projects/ppsevolution/data/maps/custom_maps/Custom_4_Run_0_Map.csv,0.000000,1.000000,0.245399,0.755661,0.001585,0.027620,1.000000,1.000000,1.000000,0.000000,0.104548,0.615831,0.966853,1.000000,0.000000,1.000000
/home/daniel/Projects/ppsevolution/data/maps/custom_maps/Custom_4_Run_0_Map.csv,0.000000,0.851624,0.084213,0.803410,0.035649,0.075011,1.000000,0.000000,0.907763,0.085422,0.000000,0.661874,0.949050,0.961076,0.000000,2.000000
/home/daniel/Projects/ppsevolution/data/maps/custom_maps/Custom_4_Run_0_Map.csv,0.139788,1.000000,0.154327,0.731066,0.034003,0.105465,0.865169,2.000000,0.738171,0.169987,0.085586,0.643027,0.792692,0.966590,0.076623,0.000000
/home/daniel/Projects/ppsevolution/data/maps/custom_maps/Custom_4_Run_0_Map.csv,0.000000,0.932422,0.175043,0.794319,0.229473,0.138305,1.000000,0.000000,1.000000,0.000000,0.064342,0.650339,0.872934,0.976909,0.000000,0.000000
/home/daniel/Projects/ppsevolution/data/maps/custom_maps/Custom_4_Run_0_Map.csv,0.000000,0.663026,0.059420,0.834783,0.565379,0.306485,0.336174,2.000000,0.870846,0.289572,0.071969,0.674958,1.000000,0.525042,0.013607,0.000000
/home/daniel/Projects/ppsevolution/data/maps/custom_maps/Custom_4_Run_0_Map.csv,0.236735,0.870666,0.315317,0.699716,0.004273,0.000000,1.000000,2.000000,0.920925,0.091027,0.000000,0.686866,1.000000,0.880237,0.000000,2.000000
/home/daniel/Projects/ppsevolution/data/maps/custom_maps/Custom_4_Run_0_Map.csv,0.030364,0.916107,0.044436,0.808074,0.000000,0.147551,0.880220,2.000000,0.940438,0.036698,0.000000,0.664061,0.987504,1.000000,0.284846,0.000000
/home/daniel/Projects/ppsevolution/data/maps/custom_maps/Custom_4_Run_0_Map.csv,0.000000,0.807968,0.588261,0.586774,0.076461,0.000000,1.000000,1.000000,1.000000,0.000000,0.255869,0.497945,1.000000,0.879605,0.072204,1.000000
/home/daniel/Projects/ppsevolution/data/maps/custom_maps/Custom_4_Run_0_Map.csv,0.395915,0.943192,0.384424,0.637958,0.000000,0.000000,0.813874,2.000000,0.837775,0.061407,0.090711,0.659548,0.959792,0.811348,0.220214,2.000000
/home/daniel/Projects/ppsevolution/data/maps/custom_maps/Custom_5_Run_0_Map.csv,0.000000,1.000000,0.452861,0.908460,0.166439,0.000000,1.000000,2.000000,0.765812,0.016771,0.000000,0.924500,0.934605,0.981490,0.000000,2.000000
/home/daniel/Projects/ppsevolution/data/maps/custom_maps/Custom_5_Run_0_Map.csv,0.111669,0.644430,0.402509,1.000000,0.083719,0.309564,0.862341,0.000000,1.000000,0.249199,0.090094,0.985370,0.354796,0.867326,0.007235,0.000000
/home/daniel/Projects/ppsevolution/data/maps/custom_maps/Custom_5_Run_0_Map.csv,0.068739,0.631464,0.389259,1.000000,0.303127,0.000000,0.808126,0.000000,0.957525,0.000000,0.300601,0.962496,0.896609,1.000000,0.000000,1.000000
/home/daniel/Projects/ppsevolution/data/maps/custom_maps/Custom_5_Run_0_Map.csv,0.020579,1.000000,0.345498,0.965470,0.177113,0.293539,0.871253,2.000000,0.866204,0.021969,0.117590,0.950801,0.969756,0.977327,0.206917,0.000000
/home/daniel/Projects/ppsevolution/data/maps/custom_maps/Custom_5_Run_0_Map.csv,0.238099,0.700632,0.149729,1.000000,0.000000,0.243075,0.784979,1.000000,0.807148,0.076612,0.000000,1.000000,0.544584,0.916726,0.277173,1.000000
/home/daniel/Projects/ppsevolution/data/maps/custom_maps/Custom_5_Run_0_Map.csv,0.141496,0.542464,0.318234,1.000000,0.060339,0.000000,0.773466,0.000000,0.993960,0.342748,0.034359,0.986947,0.650700,0.783106,0.302389,2.000000
/home/daniel/Projects/ppsevolution/data/maps/custom_maps/Custom_5_Run_0_Map.csv,0.170443,0.753912,0.271132,0.978454,0.000000,0.388731,0.574018,2.000000,0.852512,0.000000,0.047434,0.980453,1.000000,1.000000,0.109729,0.000000
/home/daniel/Projects/ppsevolution/data/maps/custom_maps/Custom_5_Run_0_Map.csv,0.614051,1.000000,0.086680,1.000000,0.250018,0.010762,0.733899,2.000000,0.861710,0.310915,0.220933,1.000000,0.660294,1.000000,0.131275,2.000000
/home/daniel/Projects/ppsevolution/data/maps/custom_maps/Custom_5_Run_0_Map.csv,0.271123,0.989289,0.302559,0.994832,0.044526,0.124175,0.718390,0.000000,0.739573,0.106117,0.278281,0.973664,0.995700,0.577982,0.154933,0.000000
/home/daniel/Projects/ppsevolution/data/maps/custom_maps/Custom_5_Run_0_Map.csv,0.234914,1.000000,0.284019,1.000000,0.230254,0.146864,0.925800,1.000000,1.000000,0.146294,0.000000,1.000000,0.696720,0.909632,0.167345,0.000000
/home/daniel/Projects/ppsevolution/data/maps/custom_maps/Custom_6_Run_0_Map.csv,0.138418,0.076994,0.034049,1.000000,0.000000,0.000000,1.000000,2.000000,1.000000,0.489528,1.000000,0.922852,0.425130,1.000000,0.961528,2.000000
/home/daniel/Projects/ppsevolution/data/maps/custom_maps/Custom_6_Run_0_Map.csv,0.005485,0.392181,0.156299,1.000000,0.698804,0.000000,0.512962,2.000000,0.951906,0.948199,0.982164,0.930877,0.926016,0.939606,0.734104,2.000000
/home/daniel/Projects/ppsevolution/data/maps/custom_maps/Custom_6_Run_0_Map.csv,0.168884,0.731465,0.000000,1.000000,0.000000,0.000000,1.000000,2.000000,1.000000,0.010451,0.832697,0.924736,0.558226,0.939222,1.000000,2.000000
/home/daniel/Projects/ppsevolution/data/maps/custom_maps/Custom_6_Run_0_Map.csv,0.000000,1.000000,0.000000,1.000000,0.296456,0.301281,0.198871,2.000000,1.000000,1.000000,0.946723,0.913642,0.635097,0.931572,1.000000,2.000000
/home/daniel/Projects/ppsevolution/data/maps/custom_maps/Custom_6_Run_0_Map.csv,0.000255,0.891799,0.000000,1.000000,0.356763,0.030762,0.876423,2.000000,0.819431,0.158139,1.000000,0.911647,1.000000,0.974799,0.533376,2.000000
/home/daniel/Projects/ppsevolution/data/maps/custom_maps/Custom_6_Run_0_Map.csv,0.115078,1.000000,0.000000,1.000000,0.474615,0.413379,0.540956,2.000000,0.951017,0.204532,0.858169,0.897632,0.663795,1.000000,0.984893,2.000000
/home/daniel/Projects/ppsevolution/data/maps/custom_maps/Custom_6_Run_0_Map.csv,0.124977,0.684280,0.000000,0.997142,0.354811,0.000000,0.412618,2.000000,1.000000,0.425163,1.000000,0.883762,0.869674,0.886555,0.965132,2.000000
/home/daniel/Projects/ppsevolution/data/maps/custom_maps/Custom_6_Run_0_Map.csv,0.144397,0.975983,0.000000,1.000000,0.000000,0.082290,0.065951,1.000000,1.000000,0.000000,1.000000,0.880870,0.793744,1.000000,0.589612,2.000000
/home/daniel/Projects/ppsevolution/data/maps/custom_maps/Custom_6_Run_0_Map.csv,0.003971,1.000000,0.020981,1.000000,0.130472,0.049633,0.982823,2.000000,0.980062,0.077526,0.914767,0.912930,0.968058,1.000000,0.802374,2.000000
/home/daniel/Projects/ppsevolution/data/maps/custom_maps/Custom_6_Run_0_Map.csv,0.231144,0.927264,0.000000,1.000000,0.126167,0.254014,0.453030,2.000000,0.933969,0.145715,1.000000,0.924458,0.739289,1.000000,0.675633,2.000000
/home/daniel/Projects/ppsevolution/data/maps/custom_maps/Custom_7_Run_0_Map.csv,0.070671,0.668417,0.143166,1.000000,0.041215,0.378668,0.885533,0.000000,0.857199,0.000000,0.000000,0.985798,0.550509,1.000000,0.204595,2.000000
/home/daniel/Projects/ppsevolution/data/maps/custom_maps/Custom_7_Run_0_Map.csv,0.299369,0.846027,0.066964,0.998590,0.226683,0.000000,0.728745,2.000000,0.852167,0.119787,0.082145,1.000000,0.926878,0.821411,0.438788,1.000000
/home/daniel/Projects/ppsevolution/data/maps/custom_maps/Custom_7_Run_0_Map.csv,0.195207,1.000000,0.151971,1.000000,0.044835,0.309328,0.997717,2.000000,0.846311,0.097140,0.066654,1.000000,0.829607,0.929412,0.000000,0.000000
/home/daniel/Projects/ppsevolution/data/maps/custom_maps/Custom_7_Run_0_Map.csv,0.101580,0.799893,0.005567,1.000000,0.162481,0.263218,1.000000,2.000000,0.582199,0.115199,0.000000,1.000000,0.681598,0.559377,0.375463,0.000000
/home/daniel/Projects/ppsevolution/data/maps/custom_maps/Custom_7_Run_0_Map.csv,0.127804,0.728417,0.362036,0.993641,0.014737,0.543255,1.000000,2.000000,1.000000,0.047378,0.001145,1.000000,0.741479,0.472597,0.000000,1.000000
/home/daniel/Projects/ppsevolution/data/maps/custom_maps/Custom_7_Run_0_Map.csv,0.490018,0.805996,0.553812,0.987852,0.165771,0.699115,0.840986,1.000000,1.000000,0.501864,0.362768,1.000000,0.689138,0.840839,0.377383,1.000000
/home/daniel/Projects/ppsevolution/data/maps/custom_maps/Custom_7_Run_0_Map.csv,0.000000,0.771126,0.305255,1.000000,0.090691,0.027879,0.764221,0.000000,0.625987,0.102224,0.223441,0.989556,0.654071,0.834527,0.000000,0.000000
/home/daniel/Projects/ppsevolution/data/maps/custom_maps/Custom_7_Run_0_Map.csv,0.029139,1.000000,0.203465,1.000000,0.130332,0.000000,1.000000,1.000000,0.809096,0.234451,0.000000,1.000000,0.876794,0.926672,0.092424,1.000000
/home/daniel/Projects/ppsevolution/data/maps/custom_maps/Custom_7_Run_0_Map.csv,0.012406,0.645458,0.397239,1.000000,0.567197,0.519267,0.727424,1.000000,0.862758,0.000000,0.101680,1.000000,0.932770,0.663210,0.163759,0.000000
/home/daniel/Projects/ppsevolution/data/maps/custom_maps/Custom_7_Run_0_Map.csv,0.116582,0.871555,0.188042,1.000000,0.082977,0.436504,0.992465,1.000000,0.842948,0.163566,0.000000,1.000000,1.000000,0.817939,0.470954,1.000000
/home/daniel/Projects/ppsevolution/data/maps/custom_maps/Custom_8_Run_0_Map.csv,0.065373,0.998585,0.140489,0.822664,0.040861,0.004106,0.985567,2.000000,1.000000,0.012517,0.229397,0.641175,1.000000,0.996683,0.046572,1.000000
/home/daniel/Projects/ppsevolution/data/maps/custom_maps/Custom_8_Run_0_Map.csv,0.000000,1.000000,0.303586,0.771737,0.006622,0.000000,1.000000,0.000000,0.862267,0.118136,0.050450,0.701363,1.000000,0.799296,0.316453,1.000000
/home/daniel/Projects/ppsevolution/data/maps/custom_maps/Custom_8_Run_0_Map.csv,0.203155,0.910108,0.299809,0.773272,0.363268,0.066217,1.000000,0.000000,0.921194,0.009150,0.300806,0.626436,0.944839,0.671994,0.368413,0.000000
/home/daniel/Projects/ppsevolution/data/maps/custom_maps/Custom_8_Run_0_Map.csv,0.045824,0.651099,0.000000,0.889830,0.097217,0.139006,1.000000,0.000000,0.991978,0.011255,0.181071,0.705038,0.840251,0.982608,0.097302,1.000000
/home/daniel/Projects/ppsevolution/data/maps/custom_maps/Custom_8_Run_0_Map.csv,0.126622,1.000000,0.117257,0.839512,0.187660,0.115548,0.879936,1.000000,1.000000,0.000000,0.288104,0.641493,1.000000,0.915104,0.000000,2.000000
/home/daniel/Projects/ppsevolution/data/maps/custom_maps/Custom_8_Run_0_Map.csv,0.530210,0.966666,0.171635,0.774856,0.391884,0.000000,0.891978,2.000000,0.667060,0.621030,0.070361,0.790267,1.000000,0.731633,0.000000,1.000000
/home/daniel/Projects/ppsevolution/data/maps/custom_maps/Custom_8_Run_0_Map.csv,0.015453,0.956135,0.399302,0.747291,0.000000,0.189850,0.913931,1.000000,1.000000,0.000000,0.175094,0.651970,0.930924,0.874582,0.014113,1.000000
/home/daniel/Projects/ppsevolution/data/maps/custom_maps/Custom_8_Run_0_Map.csv,0.312094,0.850744,0.506591,0.678701,0.072738,0.003991,0.956619,1.000000,0.874397,0.046267,0.311890,0.650159,0.936276,1.000000,0.253260,1.000000
/home/daniel/Projects/ppsevolution/data/maps/custom_maps/Custom_8_Run_0_Map.csv,0.078463,0.835479,0.192139,0.750818,0.080207,0.092491,0.605306,1.000000,0.510276,0.182190,0.095228,0.706732,0.854828,0.789686,0.077553,2.000000
/home/daniel/Projects/ppsevolution/data/maps/custom_maps/Custom_8_Run_0_Map.csv,0.535750,1.000000,0.011618,0.836268,0.000000,0.000000,0.919937,2.000000,0.784337,0.074237,0.170311,0.759748,0.834955,0.909654,0.205216,1.000000
/home/daniel/Projects/ppsevolution/data/maps/custom_maps/Custom_9_Run_0_Map.csv,0.009875,0.766411,0.016085,0.793971,0.000000,0.000000,0.818797,1.000000,0.928368,0.000000,0.476100,0.380878,0.756092,0.493690,0.000000,1.000000
/home/daniel/Projects/ppsevolution/data/maps/custom_maps/Custom_9_Run_0_Map.csv,0.123969,1.000000,0.211004,0.664849,0.198683,0.000000,0.916468,2.000000,0.784448,0.114585,0.000000,0.666444,0.395126,0.902229,0.046814,0.000000
/home/daniel/Projects/ppsevolution/data/maps/custom_maps/Custom_9_Run_0_Map.csv,0.123704,0.687280,0.227454,0.704669,0.135126,0.033109,0.970669,0.000000,0.892676,0.315893,0.191133,0.586691,0.724979,0.872742,0.006290,0.000000
/home/daniel/Projects/ppsevolution/data/maps/custom_maps/Custom_9_Run_0_Map.csv,0.000000,1.000000,0.270228,0.695862,0.000000,0.006305,0.878244,0.000000,0.939754,0.000000,0.258790,0.475901,0.856052,0.706401,0.359245,1.000000
/home/daniel/Projects/ppsevolution/data/maps/custom_maps/Custom_9_Run_0_Map.csv,0.002899,0.958865,0.292183,0.660494,0.118693,0.144796,1.000000,2.000000,1.000000,0.000000,0.138432,0.529997,0.645028,0.962605,0.288222,0.000000
/home/daniel/Projects/ppsevolution/data/maps/custom_maps/Custom_9_Run_0_Map.csv,0.000000,0.765371,0.148825,0.746219,0.000000,0.000000,0.962422,1.000000,0.989060,0.056524,0.036102,0.625213,1.000000,0.855083,0.020479,2.000000
/home/daniel/Projects/ppsevolution/data/maps/custom_maps/Custom_9_Run_0_Map.csv,0.000000,0.755264,0.000000,0.823913,0.000000,0.000000,0.806250,1.000000,1.000000,0.000000,0.063417,0.654888,0.825911,1.000000,0.029878,1.000000
/home/daniel/Projects/ppsevolution/data/maps/custom_maps/Custom_9_Run_0_Map.csv,0.036768,0.939407,0.340225,0.622404,0.682614,0.000000,1.000000,2.000000,0.861144,0.237468,0.027739,0.634906,1.000000,0.749641,0.000000,1.000000
/home/daniel/Projects/ppsevolution/data/maps/custom_maps/Custom_9_Run_0_Map.csv,0.000000,0.846169,0.000000,0.820360,0.018398,0.009113,0.630135,1.000000,1.000000,0.000000,0.226590,0.566275,0.844498,0.884933,0.000000,2.000000
/home/daniel/Projects/ppsevolution/data/maps/custom_maps/Custom_9_Run_0_Map.csv,0.181718,0.908263,0.776737,0.438005,0.000000,0.045497,0.796757,1.000000,0.956203,0.050676,0.000000,0.682938,0.968509,0.778188,0.000000,1.000000
/home/daniel/Projects/ppsevolution/data/maps/custom_maps/Custom_10_Run_0_Map.csv,0.020582,0.714734,0.806465,1.000000,0.000000,0.571276,1.000000,0.000000,0.056310,0.000000,0.984182,1.000000,0.747089,0.369294,0.321058,2.000000
/home/daniel/Projects/ppsevolution/data/maps/custom_maps/Custom_10_Run_0_Map.csv,0.000000,1.000000,0.935145,0.940302,0.110985,0.000000,0.997401,2.000000,0.000000,0.353527,0.430177,1.000000,0.891464,0.407708,0.196464,0.000000
/home/daniel/Projects/ppsevolution/data/maps/custom_maps/Custom_10_Run_0_Map.csv,0.112269,0.904298,0.492188,1.000000,0.040880,0.026058,0.866891,2.000000,0.000000,0.387506,0.922388,1.000000,0.479618,0.483499,0.342619,2.000000
/home/daniel/Projects/ppsevolution/data/maps/custom_maps/Custom_10_Run_0_Map.csv,0.084392,0.898577,1.000000,1.000000,0.508762,0.260789,1.000000,2.000000,0.975211,0.697894,1.000000,1.000000,1.000000,0.855632,0.710224,1.000000
/home/daniel/Projects/ppsevolution/data/maps/custom_maps/Custom_10_Run_0_Map.csv,0.195001,0.788767,1.000000,0.977701,0.481459,0.233383,0.982553,2.000000,0.588362,0.033574,0.636030,1.000000,0.213879,0.952518,0.340570,2.000000
/home/daniel/Projects/ppsevolution/data/maps/custom_maps/Custom_10_Run_0_Map.csv,0.012698,0.814761,1.000000,1.000000,0.000000,0.299273,1.000000,2.000000,0.924076,0.403776,0.635157,1.000000,0.692481,0.127392,0.694546,1.000000
/home/daniel/Projects/ppsevolution/data/maps/custom_maps/Custom_10_Run_0_Map.csv,0.000000,0.570479,1.000000,0.982730,0.104738,0.000000,0.720877,2.000000,0.431332,0.166039,1.000000,1.000000,0.614884,0.967236,0.120171,2.000000
/home/daniel/Projects/ppsevolution/data/maps/custom_maps/Custom_10_Run_0_Map.csv,0.000000,0.737333,1.000000,1.000000,0.069131,0.107689,0.870246,1.000000,0.617384,1.000000,1.000000,1.000000,0.996978,0.467717,0.281597,2.000000
/home/daniel/Projects/ppsevolution/data/maps/custom_maps/Custom_10_Run_0_Map.csv,0.393949,0.958875,0.921856,0.956232,0.052252,0.390312,0.932506,2.000000,0.326096,0.224045,0.556916,1.000000,0.956536,0.635788,0.177087,1.000000
/home/daniel/Projects/ppsevolution/data/maps/custom_maps/Custom_10_Run_0_Map.csv,0.165172,0.370650,1.000000,0.970250,0.241932,0.227652,0.587275,2.000000,0.372394,0.365372,0.845961,1.000000,0.778287,0.662042,0.575181,2.000000
