/home/daniel/Projects/ppsevolution/data/maps/custom_maps/Custom_1_Run_0_Map.csv,0.000000,1.000000,0.676211,1.000000,0.152386,0.025351,1.000000,2.000000,1.000000,0.711288,1.000000,1.000000,0.798718,0.930949,0.294976,2.000000
/home/daniel/Projects/ppsevolution/data/maps/custom_maps/Custom_1_Run_0_Map.csv,0.000000,1.000000,0.666930,0.977438,0.156319,0.143899,0.988233,2.000000,0.609946,0.000000,0.724492,1.000000,1.000000,0.849434,0.449634,2.000000
/home/daniel/Projects/ppsevolution/data/maps/custom_maps/Custom_1_Run_0_Map.csv,0.000000,0.925023,0.535575,1.000000,0.110079,0.104963,0.541609,2.000000,0.941474,0.445770,0.636810,1.000000,0.941705,0.866619,0.300253,2.000000
/home/daniel/Projects/ppsevolution/data/maps/custom_maps/Custom_1_Run_0_Map.csv,0.000000,0.594135,0.410547,1.000000,0.072101,0.000000,1.000000,2.000000,0.261363,0.272761,0.964702,1.000000,0.863586,0.006977,0.514424,1.000000
/home/daniel/Projects/ppsevolution/data/maps/custom_maps/Custom_1_Run_0_Map.csv,0.000000,0.881100,0.333819,1.000000,0.012427,0.746064,1.000000,2.000000,0.139736,0.541240,1.000000,1.000000,0.907261,0.359383,0.581692,2.000000
/home/daniel/Projects/ppsevolution/data/maps/custom_maps/Custom_1_Run_0_Map.csv,0.127371,0.864929,0.271131,0.997849,0.194988,0.154651,1.000000,2.000000,0.208991,0.003765,1.000000,1.000000,0.652960,0.746583,0.245205,2.000000
/home/daniel/Projects/ppsevolution/data/maps/custom_maps/Custom_1_Run_0_Map.csv,0.000000,0.982194,0.425303,1.000000,0.000000,0.195547,0.980659,1.000000,0.274024,0.129931,0.965798,1.000000,0.964106,0.653915,0.472760,2.000000
/home/daniel/Projects/ppsevolution/data/maps/custom_maps/Custom_1_Run_0_Map.csv,0.000000,0.744664,0.277361,1.000000,0.000000,0.143327,0.915774,1.000000,0.229018,0.000000,0.727767,1.000000,0.881705,0.918834,0.226289,2.000000
/home/daniel/Projects/ppsevolution/data/maps/custom_maps/Custom_1_Run_0_Map.csv,0.000000,0.580220,0.023339,1.000000,0.000000,0.327000,0.911891,2.000000,0.000000,0.485530,0.664041,1.000000,0.636041,0.679264,0.005923,2.000000
/home/daniel/Projects/ppsevolution/data/maps/custom_maps/Custom_1_Run_0_Map.csv,0.000000,0.834816,0.347723,1.000000,0.277196,0.409435,0.982466,2.000000,0.483027,0.334487,0.765378,1.000000,1.000000,0.823869,0.216545,2.000000
/home/daniel/Projects/ppsevolution/data/maps/custom_maps/Custom_2_Run_0_Map.csv,0.010066,0.402484,0.621851,1.000000,0.035820,0.000000,1.000000,2.000000,1.000000,0.320325,1.000000,1.000000,0.997533,1.000000,0.611451,2.000000
/home/daniel/Projects/ppsevolution/data/maps/custom_maps/Custom_2_Run_0_Map.csv,0.000000,0.877141,0.715657,1.000000,0.065474,0.000000,1.000000,2.000000,0.933972,0.421652,1.000000,1.000000,0.777113,0.857675,0.764154,2.000000
/home/daniel/Projects/ppsevolution/data/maps/custom_maps/Custom_2_Run_0_Map.csv,0.157169,1.000000,0.542972,1.000000,0.226112,0.000000,1.000000,2.000000,0.827509,0.000000,1.000000,1.000000,0.654088,0.889242,0.957245,2.000000
/home/daniel/Projects/ppsevolution/data/maps/custom_maps/Custom_2_Run_0_Map.csv,0.000000,0.726875,0.577374,1.000000,0.000000,0.095327,0.883210,2.000000,0.716756,0.056623,1.000000,0.997137,1.000000,1.000000,0.934454,2.000000
/home/daniel/Projects/ppsevolution/data/maps/custom_maps/Custom_2_Run_0_Map.csv,0.072558,0.718779,0.334890,1.000000,0.000000,0.034640,1.000000,2.000000,0.543142,0.185340,1.000000,1.000000,1.000000,0.898206,1.000000,2.000000
/home/daniel/Projects/ppsevolution/data/maps/custom_maps/Custom_2_Run_0_Map.csv,0.000000,0.933162,0.506455,1.000000,0.075332,0.000000,0.834291,2.000000,0.635301,0.764730,1.000000,0.995403,0.673251,0.915432,1.000000,2.000000
/home/daniel/Projects/ppsevolution/data/maps/custom_maps/Custom_2_Run_0_Map.csv,0.008760,1.000000,0.664859,1.000000,0.177543,0.053370,1.000000,2.000000,1.000000,0.252306,1.000000,1.000000,1.000000,1.000000,0.294456,2.000000
/home/daniel/Projects/ppsevolution/data/maps/custom_maps/Custom_2_Run_0_Map.csv,0.000000,0.922684,0.647883,1.000000,0.086398,0.000000,1.000000,2.000000,0.773390,0.393716,1.000000,0.993029,0.626388,0.828838,0.838121,2.000000
/home/daniel/Projects/ppsevolution/data/maps/custom_maps/Custom_2_Run_0_Map.csv,0.000000,0.610279,0.692853,1.000000,0.000000,0.000000,1.000000,2.000000,0.844112,0.717093,0.994231,1.000000,0.954440,0.410997,1.000000,2.000000
/home/daniel/Projects/ppsevolution/data/maps/custom_maps/Custom_2_Run_0_Map.csv,0.063109,1.000000,0.522385,1.000000,0.000287,0.274100,0.879074,2.000000,0.835821,0.000000,0.964577,1.000000,0.892805,0.961866,1.000000,2.000000
/home/daniel/Projects/ppsevolution/data/maps/custom_maps/Custom_3_Run_0_Map.csv,0.000000,0.803693,0.946831,0.960149,0.109664,0.055439,0.907664,2.000000,0.004845,0.000000,1.000000,1.000000,0.799844,0.657114,0.869761,2.000000
/home/daniel/Projects/ppsevolution/data/maps/custom_maps/Custom_3_Run_0_Map.csv,0.000000,0.131107,0.960465,0.998039,0.107968,0.382546,1.000000,2.000000,0.000000,0.000000,0.940588,1.000000,1.000000,0.140912,0.973686,2.000000
/home/daniel/Projects/ppsevolution/data/maps/custom_maps/Custom_3_Run_0_Map.csv,0.018960,0.706408,0.988277,1.000000,0.088516,0.000000,1.000000,2.000000,0.255127,0.242443,1.000000,1.000000,0.877100,0.143326,0.998414,2.000000
/home/daniel/Projects/ppsevolution/data/maps/custom_maps/Custom_3_Run_0_Map.csv,0.000000,0.772484,1.000000,0.986489,0.188202,0.099124,1.000000,2.000000,0.556246,0.030976,1.000000,1.000000,0.988439,0.937930,0.648481,2.000000
/home/daniel/Projects/ppsevolution/data/maps/custom_maps/Custom_3_Run_0_Map.csv,0.041754,0.468732,1.000000,0.990409,0.017037,0.339219,1.000000,2.000000,0.000000,0.000000,0.921976,1.000000,0.734268,0.000000,1.000000,1.000000
/home/daniel/Projects/ppsevolution/data/maps/custom_maps/Custom_3_Run_0_Map.csv,0.000000,1.000000,0.980396,0.977571,0.033175,0.004010,0.929648,2.000000,0.418312,0.510031,1.000000,1.000000,0.970247,0.887772,0.710878,2.000000
/home/daniel/Projects/ppsevolution/data/maps/custom_maps/Custom_3_Run_0_Map.csv,0.000000,0.900256,1.000000,0.986191,0.247896,0.342442,1.000000,2.000000,0.000000,0.227091,1.000000,1.000000,0.753315,0.068410,1.000000,2.000000
/home/daniel/Projects/ppsevolution/data/maps/custom_maps/Custom_3_Run_0_Map.csv,0.115453,1.000000,1.000000,0.995615,0.000000,0.027916,1.000000,2.000000,0.129668,0.200101,0.998802,1.000000,0.735507,0.185200,0.331250,2.000000
/home/daniel/Projects/ppsevolution/data/maps/custom_maps/Custom_3_Run_0_Map.csv,0.000000,0.261491,1.000000,1.000000,0.569012,0.603289,1.000000,2.000000,0.000000,0.052820,1.000000,1.000000,0.447050,0.296417,0.347880,2.000000
/home/daniel/Projects/ppsevolution/data/maps/custom_maps/Custom_3_Run_0_Map.csv,0.000000,0.951947,1.000000,0.983443,0.070212,0.613975,1.000000,2.000000,0.110127,0.182093,0.936670,1.000000,0.422902,0.591114,0.599788,2.000000
/home/daniel/Projects/ppsevolution/data/maps/custom_maps/Custom_4_Run_0_Map.csv,0.000000,1.000000,0.951716,1.000000,0.000000,0.184205,0.959488,2.000000,0.511104,0.034113,1.000000,1.000000,0.696344,0.761081,0.364418,2.000000
/home/daniel/Projects/ppsevolution/data/maps/custom_maps/Custom_4_Run_0_Map.csv,0.017569,0.404501,1.000000,1.000000,0.061735,0.000000,1.000000,2.000000,0.610623,0.325789,0.967697,1.000000,0.733117,0.937407,0.000000,2.000000
/home/daniel/Projects/ppsevolution/data/maps/custom_maps/Custom_4_Run_0_Map.csv,0.068907,0.535595,0.757272,1.000000,0.000000,0.000000,0.873572,2.000000,0.062294,0.339237,1.000000,1.000000,0.896763,0.245987,0.016433,2.000000
/home/daniel/Projects/ppsevolution/data/maps/custom_maps/Custom_4_Run_0_Map.csv,0.000000,0.693384,0.758400,1.000000,0.000000,0.018190,1.000000,1.000000,0.000000,0.168717,1.000000,1.000000,0.000000,0.676599,0.657383,2.000000
/home/daniel/Projects/ppsevolution/data/maps/custom_maps/Custom_4_Run_0_Map.csv,0.000000,0.833580,1.000000,1.000000,0.476626,0.189737,0.985652,2.000000,0.563339,0.571724,0.994236,1.000000,0.720115,1.000000,0.586455,2.000000
/home/daniel/Projects/ppsevolution/data/maps/custom_maps/Custom_4_Run_0_Map.csv,0.002341,0.456172,1.000000,1.000000,0.177522,0.000000,1.000000,2.000000,0.440279,0.632418,1.000000,1.000000,0.233143,0.286036,0.808211,2.000000
/home/daniel/Projects/ppsevolution/data/maps/custom_maps/Custom_4_Run_0_Map.csv,0.021421,0.780991,0.867880,0.989332,0.355226,0.003759,0.995502,2.000000,0.144518,0.028190,1.000000,1.000000,0.953902,0.694902,0.056105,2.000000
/home/daniel/Projects/ppsevolution/data/maps/custom_maps/Custom_4_Run_0_Map.csv,0.000000,0.842784,1.000000,1.000000,0.000000,0.001432,0.933505,2.000000,0.520542,0.095094,1.000000,1.000000,0.942677,0.554867,0.258536,2.000000
/home/daniel/Projects/ppsevolution/data/maps/custom_maps/Custom_4_Run_0_Map.csv,0.000000,1.000000,0.876279,1.000000,0.004614,0.164120,0.929271,2.000000,0.263804,0.000000,1.000000,1.000000,1.000000,0.248038,0.275127,2.000000
/home/daniel/Projects/ppsevolution/data/maps/custom_maps/Custom_4_Run_0_Map.csv,0.039831,1.000000,1.000000,1.000000,0.000000,0.109754,0.870978,2.000000,0.491045,0.071461,1.000000,1.000000,0.947596,0.397196,0.263611,2.000000
/home/daniel/Projects/ppsevolution/data/maps/custom_maps/Custom_5_Run_0_Map.csv,0.346849,0.545460,1.000000,0.980313,0.000000,0.953855,1.000000,2.000000,0.000000,0.299825,0.999009,1.000000,0.401981,0.053679,0.148312,2.000000
/home/daniel/Projects/ppsevolution/data/maps/custom_maps/Custom_5_Run_0_Map.csv,0.237548,0.453100,1.000000,0.980604,0.000000,1.000000,1.000000,2.000000,0.055598,0.316735,0.992326,1.000000,0.556677,0.000000,0.841973,2.000000
/home/daniel/Projects/ppsevolution/data/maps/custom_maps/Custom_5_Run_0_Map.csv,0.000000,0.704407,1.000000,0.974073,0.030401,0.070992,0.938723,2.000000,0.000000,0.041504,0.974855,1.000000,0.522222,0.248659,0.652208,1.000000
/home/daniel/Projects/ppsevolution/data/maps/custom_maps/Custom_5_Run_0_Map.csv,0.060550,0.450182,1.000000,0.963186,0.116201,0.383918,0.952825,2.000000,0.000000,0.489297,0.944794,1.000000,0.709881,0.318789,0.304585,1.000000
/home/daniel/Projects/ppsevolution/data/maps/custom_maps/Custom_5_Run_0_Map.csv,0.000000,0.109783,1.000000,0.960403,0.640559,0.380988,1.000000,2.000000,0.000000,0.003848,0.685338,1.000000,0.878497,0.112709,0.804544,0.000000
/home/daniel/Projects/ppsevolution/data/maps/custom_maps/Custom_5_Run_0_Map.csv,0.113031,0.761425,1.000000,0.974968,0.000000,0.806941,0.967174,2.000000,0.066343,0.185178,0.840083,1.000000,0.177787,0.048662,0.255854,1.000000
/home/daniel/Projects/ppsevolution/data/maps/custom_maps/Custom_5_Run_0_Map.csv,0.000000,0.267329,0.993741,0.960162,0.007159,0.297164,1.000000,2.000000,0.005118,0.000000,0.922793,1.000000,0.895590,0.759589,0.376335,0.000000
/home/daniel/Projects/ppsevolution/data/maps/custom_maps/Custom_5_Run_0_Map.csv,0.170678,0.868161,1.000000,0.957181,0.217418,0.165744,1.000000,2.000000,0.019454,0.160026,0.941683,1.000000,0.812708,0.716449,0.206510,2.000000
/home/daniel/Projects/ppsevolution/data/maps/custom_maps/Custom_5_Run_0_Map.csv,0.191574,0.954285,1.000000,0.974947,0.305586,0.055650,0.959560,2.000000,0.000000,0.193064,0.946098,1.000000,0.812136,0.000000,0.171258,2.000000
/home/daniel/Projects/ppsevolution/data/maps/custom_maps/Custom_5_Run_0_Map.csv,0.400559,0.250042,1.000000,0.962092,0.000000,0.000000,1.000000,2.000000,0.000000,0.187456,0.793870,1.000000,0.378880,0.270659,0.790512,2.000000
/home/daniel/Projects/ppsevolution/data/maps/custom_maps/Custom_6_Run_0_Map.csv,0.108993,1.000000,0.000000,1.000000,0.081734,0.087920,0.207350,2.000000,1.000000,0.118269,0.874283,0.947415,0.681260,0.955439,0.929979,2.000000
/home/daniel/Projects/ppsevolution/data/maps/custom_maps/Custom_6_Run_0_Map.csv,0.000000,0.489341,0.007462,1.000000,0.180856,0.093644,0.882679,2.000000,0.973617,0.443133,0.974798,0.949267,0.998424,1.000000,1.000000,2.000000
/home/daniel/Projects/ppsevolution/data/maps/custom_maps/Custom_6_Run_0_Map.csv,0.000000,0.750777,0.022709,1.000000,0.032813,0.037834,0.800472,2.000000,1.000000,0.431027,1.000000,0.936654,0.640131,1.000000,0.586551,2.000000
/home/daniel/Projects/ppsevolution/data/maps/custom_maps/Custom_6_Run_0_Map.csv,0.087553,0.715322,0.000000,1.000000,0.000000,0.000000,1.000000,2.000000,1.000000,0.041476,0.977358,0.965275,0.975278,0.936848,0.665926,2.000000
/home/daniel/Projects/ppsevolution/data/maps/custom_maps/Custom_6_Run_0_Map.csv,0.000000,0.623389,0.000000,1.000000,0.249709,0.278469,0.492019,2.000000,1.000000,0.009547,0.953243,0.973278,0.991213,0.953817,0.982303,2.000000
/home/daniel/Projects/ppsevolution/data/maps/custom_maps/Custom_6_Run_0_Map.csv,0.053033,1.000000,0.000000,1.000000,0.000000,0.542446,0.785669,2.000000,1.000000,0.000000,1.000000,0.974520,0.934796,0.921596,0.961315,2.000000
/home/daniel/Projects/ppsevolution/data/maps/custom_maps/Custom_6_Run_0_Map.csv,0.000000,0.936067,0.000000,1.000000,0.171484,0.144704,0.246674,2.000000,1.000000,0.348609,1.000000,1.000000,0.936399,0.925769,0.999345,2.000000
/home/daniel/Projects/ppsevolution/data/maps/custom_maps/Custom_6_Run_0_Map.csv,0.133500,0.753342,0.000000,0.999937,0.177155,0.133635,0.589885,2.000000,0.967812,0.491864,0.993719,1.000000,1.000000,0.972847,0.584198,2.000000
/home/daniel/Projects/ppsevolution/data/maps/custom_maps/Custom_6_Run_0_Map.csv,0.000000,0.950390,0.000000,1.000000,0.031644,0.000000,0.507887,2.000000,1.000000,0.347703,0.965925,1.000000,0.853963,0.991882,0.794405,2.000000
/home/daniel/Projects/ppsevolution/data/maps/custom_maps/Custom_6_Run_0_Map.csv,0.000000,0.948627,0.000000,1.000000,0.000000,0.000000,0.666845,2.000000,1.000000,0.630031,1.000000,0.940243,0.893500,0.897388,0.552966,2.000000
/home/daniel/Projects/ppsevolution/data/maps/custom_maps/Custom_7_Run_0_Map.csv,0.138975,0.490568,0.511681,1.000000,0.000000,0.330008,0.883999,2.000000,0.620053,0.170742,1.000000,1.000000,0.695923,0.960050,0.592694,2.000000
/home/daniel/Projects/ppsevolution/data/maps/custom_maps/Custom_7_Run_0_Map.csv,0.015270,0.937404,0.499111,0.996900,0.187979,0.404125,0.811524,2.000000,0.219645,0.000000,0.971837,1.000000,0.909455,1.000000,0.677752,2.000000
/home/daniel/Projects/ppsevolution/data/maps/custom_maps/Custom_7_Run_0_Map.csv,0.023485,0.877297,0.692307,1.000000,0.023249,0.073165,0.988432,2.000000,0.922431,0.152873,1.000000,1.000000,0.671781,0.781710,1.000000,2.000000
/home/daniel/Projects/ppsevolution/data/maps/custom_maps/Custom_7_Run_0_Map.csv,0.000000,0.224101,0.449938,1.000000,0.000000,0.121429,1.000000,2.000000,0.384467,0.268201,0.869877,1.000000,0.719758,0.816515,0.441303,2.000000
/home/daniel/Projects/ppsevolution/data/maps/custom_maps/Custom_7_Run_0_Map.csv,0.000000,0.604886,0.650903,1.000000,0.000000,0.203348,1.000000,2.000000,0.825674,0.123429,0.895246,1.000000,1.000000,1.000000,1.000000,2.000000
/home/daniel/Projects/ppsevolution/data/maps/custom_maps/Custom_7_Run_0_Map.csv,0.000000,0.434511,0.510458,1.000000,0.045064,0.035921,0.972505,2.000000,0.594065,0.802209,0.933377,1.000000,0.958011,1.000000,0.632230,2.000000
/home/daniel/Projects/ppsevolution/data/maps/custom_maps/Custom_7_Run_0_Map.csv,0.000000,1.000000,0.579543,1.000000,0.000000,0.359242,0.935960,2.000000,0.669357,0.399410,0.956119,1.000000,0.944362,1.000000,0.674550,2.000000
/home/daniel/Projects/ppsevolution/data/maps/custom_maps/Custom_7_Run_0_Map.csv,0.000000,0.252778,0.405277,0.999315,0.125147,0.000000,0.818620,2.000000,0.375968,0.387757,1.000000,1.000000,0.558904,0.912824,0.978926,2.000000
/home/daniel/Projects/ppsevolution/data/maps/custom_maps/Custom_7_Run_0_Map.csv,0.000000,0.955156,0.267232,1.000000,0.032661,0.000000,0.908354,2.000000,0.163673,0.030157,0.885564,0.999533,0.902156,0.973872,0.848538,2.000000
/home/daniel/Projects/ppsevolution/data/maps/custom_maps/Custom_7_Run_0_Map.csv,0.000000,0.736869,0.563137,1.000000,0.033398,0.095202,1.000000,2.000000,0.383863,0.226784,1.000000,1.000000,0.123120,1.000000,0.522733,2.000000
/home/daniel/Projects/ppsevolution/data/maps/custom_maps/Custom_8_Run_0_Map.csv,0.000000,0.616132,0.962542,1.000000,0.122154,0.219020,0.805729,2.000000,0.701864,0.144303,1.000000,1.000000,0.906084,0.089499,0.755270,2.000000
/home/daniel/Projects/ppsevolution/data/maps/custom_maps/Custom_8_Run_0_Map.csv,0.007274,0.804909,0.953208,1.000000,0.000000,0.475337,1.000000,2.000000,0.534502,0.000000,0.997788,1.000000,0.599283,0.363733,0.024838,2.000000
/home/daniel/Projects/ppsevolution/data/maps/custom_maps/Custom_8_Run_0_Map.csv,0.000000,0.811629,1.000000,1.000000,0.010365,0.060303,0.864128,2.000000,0.891483,0.493027,1.000000,1.000000,0.639151,0.692285,1.000000,2.000000
/home/daniel/Projects/ppsevolution/data/maps/custom_maps/Custom_8_Run_0_Map.csv,0.000000,0.753973,1.000000,1.000000,0.000000,0.335993,1.000000,2.000000,0.696604,0.000000,1.000000,1.000000,0.365940,0.473385,0.289717,2.000000
/home/daniel/Projects/ppsevolution/data/maps/custom_maps/Custom_8_Run_0_Map.csv,0.000000,0.696104,0.686826,1.000000,0.079262,0.143104,1.000000,2.000000,0.273929,0.524175,0.946542,1.000000,0.895382,0.291435,0.817123,2.000000
/home/daniel/Projects/ppsevolution/data/maps/custom_maps/Custom_8_Run_0_Map.csv,0.000000,0.701895,0.867942,1.000000,0.000000,0.012488,1.000000,2.000000,0.638228,0.063177,0.870580,1.000000,0.345499,0.655181,0.636444,2.000000
/home/daniel/Projects/ppsevolution/data/maps/custom_maps/Custom_8_Run_0_Map.csv,0.000000,0.669332,0.619906,1.000000,0.359994,0.000000,1.000000,2.000000,0.222949,0.000000,1.000000,1.000000,0.962559,0.832718,0.426959,2.000000
/home/daniel/Projects/ppsevolution/data/maps/custom_maps/Custom_8_Run_0_Map.csv,0.023817,0.536200,0.854557,1.000000,0.119481,0.000000,0.697054,2.000000,0.610713,0.151498,1.000000,1.000000,0.944926,1.000000,0.679241,2.000000
/home/daniel/Projects/ppsevolution/data/maps/custom_maps/Custom_8_Run_0_Map.csv,0.000000,0.906561,0.474951,1.000000,0.239262,0.046946,0.953893,2.000000,0.000000,0.745319,1.000000,1.000000,0.771449,1.000000,0.449459,2.000000
/home/daniel/Projects/ppsevolution/data/maps/custom_maps/Custom_8_Run_0_Map.csv,0.000000,0.949365,0.842627,1.000000,0.000000,0.339056,0.937879,2.000000,0.418046,0.000000,1.000000,1.000000,0.762960,0.694490,0.430691,2.000000
/home/daniel/Projects/ppsevolution/data/maps/custom_maps/Custom_9_Run_0_Map.csv,0.082879,0.890082,0.445126,0.999636,0.215588,0.153530,0.763966,2.000000,0.367863,0.254226,1.000000,1.000000,1.000000,0.717006,0.938015,1.000000
/home/daniel/Projects/ppsevolution/data/maps/custom_maps/Custom_9_Run_0_Map.csv,0.000000,0.739715,0.591579,1.000000,0.143527,0.207662,1.000000,2.000000,0.148598,0.446750,1.000000,1.000000,0.989922,0.076691,0.101412,2.000000
/home/daniel/Projects/ppsevolution/data/maps/custom_maps/Custom_9_Run_0_Map.csv,0.068851,1.000000,0.419147,1.000000,0.000000,0.070785,1.000000,2.000000,0.190277,0.576399,0.955136,1.000000,0.735182,0.613660,0.363321,2.000000
/home/daniel/Projects/ppsevolution/data/maps/custom_maps/Custom_9_Run_0_Map.csv,0.000000,0.332725,0.936527,1.000000,0.073955,0.000000,0.805400,2.000000,1.000000,0.176445,0.962744,1.000000,0.537921,0.521889,0.257695,2.000000
/home/daniel/Projects/ppsevolution/data/maps/custom_maps/Custom_9_Run_0_Map.csv,0.031331,0.715332,0.668850,0.997567,0.075063,0.168932,0.904166,2.000000,0.518424,0.534056,0.948280,1.000000,0.993428,0.647974,0.194319,2.000000
/home/daniel/Projects/ppsevolution/data/maps/custom_maps/Custom_9_Run_0_Map.csv,0.000000,0.743882,0.357631,1.000000,0.070214,0.007001,0.973897,2.000000,0.135558,0.203885,1.000000,1.000000,0.637811,1.000000,0.949949,2.000000
/home/daniel/Projects/ppsevolution/data/maps/custom_maps/Custom_9_Run_0_Map.csv,0.000000,0.873004,0.708386,1.000000,0.108034,0.070459,0.882246,2.000000,0.549735,0.308042,1.000000,1.000000,0.796246,0.309026,0.240643,2.000000
/home/daniel/Projects/ppsevolution/data/maps/custom_maps/Custom_9_Run_0_Map.csv,0.000000,0.745878,0.591282,1.000000,0.000000,0.190764,0.971349,2.000000,0.339508,0.000000,1.000000,1.000000,0.858930,0.440152,0.164208,2.000000
/home/daniel/Projects/ppsevolution/data/maps/custom_maps/Custom_9_Run_0_Map.csv,0.000000,0.588792,0.657221,1.000000,0.000000,0.018363,0.973531,2.000000,0.530023,0.020432,0.991892,1.000000,0.599115,0.754170,0.563819,2.000000
/home/daniel/Projects/ppsevolution/data/maps/custom_maps/Custom_9_Run_0_Map.csv,0.073983,0.540801,0.796920,0.965353,0.147915,0.000000,0.833715,2.000000,0.087649,0.000000,1.000000,1.000000,0.988428,1.000000,0.394032,2.000000
/home/daniel/Projects/ppsevolution/data/maps/custom_maps/Custom_10_Run_0_Map.csv,0.000000,0.767189,1.000000,1.000000,0.000000,0.418063,1.000000,2.000000,0.000000,0.190859,0.987669,1.000000,0.208285,0.000000,0.812088,1.000000
/home/daniel/Projects/ppsevolution/data/maps/custom_maps/Custom_10_Run_0_Map.csv,0.003126,0.496339,0.972860,1.000000,0.005020,0.891065,1.000000,2.000000,0.092590,0.164855,1.000000,1.000000,0.801268,0.000000,0.987944,0.000000
/home/daniel/Projects/ppsevolution/data/maps/custom_maps/Custom_10_Run_0_Map.csv,0.079681,0.226775,1.000000,0.993257,0.000000,0.660733,0.873958,2.000000,0.019466,0.155744,0.978055,1.000000,0.789626,0.000000,0.979598,0.000000
/home/daniel/Projects/ppsevolution/data/maps/custom_maps/Custom_10_Run_0_Map.csv,0.000000,0.792486,1.000000,0.986251,0.050855,0.297946,1.000000,2.000000,0.048307,0.053833,1.000000,1.000000,0.750430,0.766376,0.859036,0.000000
/home/daniel/Projects/ppsevolution/data/maps/custom_maps/Custom_10_Run_0_Map.csv,0.223017,0.975614,1.000000,0.966035,0.000000,0.696654,1.000000,2.000000,0.000000,0.487914,0.951664,1.000000,1.000000,0.203923,0.606019,0.000000
/home/daniel/Projects/ppsevolution/data/maps/custom_maps/Custom_10_Run_0_Map.csv,0.000000,1.000000,1.000000,1.000000,0.077636,0.014359,0.897467,2.000000,0.033024,0.000000,1.000000,1.000000,0.876256,0.000000,0.285738,2.000000
/home/daniel/Projects/ppsevolution/data/maps/custom_maps/Custom_10_Run_0_Map.csv,0.000000,0.842764,1.000000,1.000000,0.058884,0.138956,0.981916,2.000000,0.000000,0.000000,1.000000,1.000000,0.778583,0.198855,0.461193,0.000000
/home/daniel/Projects/ppsevolution/data/maps/custom_maps/Custom_10_Run_0_Map.csv,0.072415,0.906958,1.000000,1.000000,0.000000,0.571252,1.000000,2.000000,0.000000,0.000000,1.000000,1.000000,0.870185,0.440536,0.670351,2.000000
/home/daniel/Projects/ppsevolution/data/maps/custom_maps/Custom_10_Run_0_Map.csv,0.053390,0.701997,1.000000,1.000000,0.220016,0.939988,1.000000,2.000000,0.000000,0.219890,1.000000,1.000000,0.821061,0.000000,1.000000,2.000000
/home/daniel/Projects/ppsevolution/data/maps/custom_maps/Custom_10_Run_0_Map.csv,0.029575,1.000000,1.000000,1.000000,0.000000,1.000000,1.000000,2.000000,0.000000,0.000000,1.000000,1.000000,0.673198,0.053653,0.995387,0.000000
