/home/daniel/Projects/ppsevolution/data/maps/custom_maps/Custom_1_Run_0_Map.csv,0.847274,0.770620,0.000000,0.000000,0.002343,0.185044,0.676187,2.000000,0.995859,0.392814,0.000000,0.000000,0.831868,0.715169,0.149550,0.000000
/home/daniel/Projects/ppsevolution/data/maps/custom_maps/Custom_1_Run_0_Map.csv,0.775335,0.927387,0.000000,0.000000,0.029536,0.220587,0.379798,1.000000,0.923052,0.108141,0.000000,0.000000,0.908977,0.782151,0.024955,0.000000
/home/daniel/Projects/ppsevolution/data/maps/custom_maps/Custom_1_Run_0_Map.csv,0.784382,0.831299,0.000000,0.000000,0.000000,0.132952,0.795802,0.000000,1.000000,0.270931,0.000000,0.000000,0.850851,0.974589,0.000000,1.000000
/home/daniel/Projects/ppsevolution/data/maps/custom_maps/Custom_1_Run_0_Map.csv,0.812993,0.841306,0.000000,0.000000,0.005705,0.035791,0.878170,0.000000,1.000000,0.169926,0.000000,0.000000,1.000000,0.768288,0.162337,0.000000
/home/daniel/Projects/ppsevolution/data/maps/custom_maps/Custom_1_Run_0_Map.csv,0.816675,1.000000,0.017256,0.010960,0.143606,0.039203,0.526742,0.000000,1.000000,0.173713,0.000000,0.000000,0.926458,0.854126,0.169869,2.000000
/home/daniel/Projects/ppsevolution/data/maps/custom_maps/Custom_1_Run_0_Map.csv,0.798673,0.907233,0.000000,0.000000,0.337348,0.144515,0.867772,0.000000,1.000000,0.601557,0.000000,0.000000,0.944023,1.000000,0.000248,1.000000
/home/daniel/Projects/ppsevolution/data/maps/custom_maps/Custom_1_Run_0_Map.csv,0.955968,1.000000,0.000000,0.000000,0.041249,0.117188,0.733586,1.000000,1.000000,0.538960,0.065732,0.000000,0.907267,0.871088,0.000000,1.000000
/home/daniel/Projects/ppsevolution/data/maps/custom_maps/Custom_1_Run_0_Map.csv,0.789101,0.671829,0.000000,0.000000,0.289422,0.010829,0.796907,0.000000,1.000000,0.189985,0.001748,0.000000,0.999855,1.000000,0.000000,0.000000
/home/daniel/Projects/ppsevolution/data/maps/custom_maps/Custom_1_Run_0_Map.csv,0.807171,0.916412,0.000000,0.000000,0.132060,0.155613,0.726419,2.000000,1.000000,0.336344,0.000000,0.000000,0.833204,0.930245,0.000266,2.000000
/home/daniel/Projects/ppsevolution/data/maps/custom_maps/Custom_1_Run_0_Map.csv,0.807588,0.557719,0.000000,0.000000,0.150023,0.505355,0.621998,2.000000,1.000000,0.008832,0.000000,0.000000,0.947475,0.906196,0.000000,1.000000
/home/daniel/Projects/ppsevolution/data/maps/custom_maps/Custom_2_Run_0_Map.csv,0.201243,0.761989,0.056236,0.527749,0.000000,0.016935,0.711219,1.000000,1.000000,0.111927,0.000000,0.250899,0.812588,0.915626,0.000000,1.000000
/home/daniel/Projects/ppsevolution/data/maps/custom_maps/Custom_2_Run_0_Map.csv,0.064674,0.879418,0.099674,0.480403,0.178406,0.156544,0.916832,1.000000,1.000000,0.039943,0.148361,0.000000,1.000000,0.800706,0.151397,2.000000
/home/daniel/Projects/ppsevolution/data/maps/custom_maps/Custom_2_Run_0_Map.csv,0.113169,0.643236,0.007598,0.494004,0.000000,0.000000,0.921644,2.000000,0.842716,0.090654,0.106093,0.087222,0.751007,0.816207,0.000000,0.000000
/home/daniel/Projects/ppsevolution/data/maps/custom_maps/Custom_2_Run_0_Map.csv,0.252779,0.707131,0.000000,0.599223,0.203957,0.217633,0.347181,1.000000,1.000000,0.348603,0.065339,0.182214,1.000000,0.590509,0.306465,0.000000
/home/daniel/Projects/ppsevolution/data/maps/custom_maps/Custom_2_Run_0_Map.csv,0.166375,0.621617,0.209866,0.350900,0.028353,0.016544,0.658183,0.000000,0.867135,0.034898,0.000000,0.238530,1.000000,0.913920,0.000000,2.000000
/home/daniel/Projects/ppsevolution/data/maps/custom_maps/Custom_2_Run_0_Map.csv,0.000000,0.967727,0.000000,0.574141,0.025530,0.252869,0.913392,1.000000,1.000000,0.021118,0.037498,0.120045,1.000000,1.000000,0.000000,1.000000
/home/daniel/Projects/ppsevolution/data/maps/custom_maps/Custom_2_Run_0_Map.csv,0.347117,0.743035,0.000359,0.501300,0.019256,0.000000,1.000000,2.000000,0.884032,0.352096,0.000000,0.301011,0.826855,0.679253,0.000000,2.000000
/home/daniel/Projects/ppsevolution/data/maps/custom_maps/Custom_2_Run_0_Map.csv,0.493471,1.000000,0.000000,0.485397,0.096421,0.094313,0.757750,0.000000,0.774202,0.093494,0.130795,0.227151,0.926400,0.958003,0.208978,2.000000
/home/daniel/Projects/ppsevolution/data/maps/custom_maps/Custom_2_Run_0_Map.csv,0.471942,0.949410,0.118776,0.422120,0.116190,0.000000,0.898744,1.000000,0.976959,0.142829,0.074090,0.262513,0.961262,1.000000,0.131622,0.000000
/home/daniel/Projects/ppsevolution/data/maps/custom_maps/Custom_2_Run_0_Map.csv,0.320058,0.829637,0.132373,0.304169,0.217259,0.178775,0.962329,2.000000,0.724407,0.000000,0.000000,0.280015,0.689000,1.000000,0.127043,0.000000
/home/daniel/Projects/ppsevolution/data/maps/custom_maps/Custom_3_Run_0_Map.csv,0.109584,0.938038,0.000000,0.630606,0.000000,0.074419,0.951527,2.000000,1.000000,0.012639,0.000000,0.345367,0.708607,0.997557,0.082395,1.000000
/home/daniel/Projects/ppsevolution/data/maps/custom_maps/Custom_3_Run_0_Map.csv,0.000000,1.000000,0.029958,0.626894,0.067174,0.009734,0.786435,2.000000,1.000000,0.187432,0.000000,0.317619,0.837698,0.904531,0.000000,0.000000
/home/daniel/Projects/ppsevolution/data/maps/custom_maps/Custom_3_Run_0_Map.csv,0.067191,0.704395,0.109474,0.572397,0.196813,0.191504,0.787289,0.000000,1.000000,0.000000,0.000000,0.327084,0.993407,1.000000,0.068111,1.000000
/home/daniel/Projects/ppsevolution/data/maps/custom_maps/Custom_3_Run_0_Map.csv,0.274365,0.979004,0.088063,0.563082,0.000000,0.230400,0.951350,1.000000,1.000000,0.000000,0.000000,0.386517,0.732590,0.940331,0.227643,2.000000
/home/daniel/Projects/ppsevolution/data/maps/custom_maps/Custom_3_Run_0_Map.csv,0.195665,0.658148,0.000000,0.631367,0.154591,0.101127,1.000000,1.000000,1.000000,0.185268,0.040577,0.352944,0.888339,0.949251,0.000000,1.000000
/home/daniel/Projects/ppsevolution/data/maps/custom_maps/Custom_3_Run_0_Map.csv,0.224286,0.702467,0.042052,0.570590,0.171886,0.010557,1.000000,2.000000,0.943841,0.187413,0.081150,0.308298,0.866802,1.000000,0.045456,0.000000
/home/daniel/Projects/ppsevolution/data/maps/custom_maps/Custom_3_Run_0_Map.csv,0.358932,0.622827,0.262985,0.411413,0.371944,0.034443,0.833538,2.000000,1.000000,0.151910,0.000000,0.429250,1.000000,0.827667,0.028942,1.000000
/home/daniel/Projects/ppsevolution/data/maps/custom_maps/Custom_3_Run_0_Map.csv,0.072036,0.745401,0.000000,0.653363,0.088951,0.056736,0.820045,1.000000,0.994849,0.276050,0.000000,0.354167,0.977835,0.777249,0.000000,0.000000
/home/daniel/Projects/ppsevolution/data/maps/custom_maps/Custom_3_Run_0_Map.csv,0.251677,0.962490,0.000000,0.652639,0.000000,0.196015,0.834776,0.000000,1.000000,0.000000,0.095480,0.342920,0.937451,0.877963,0.016378,2.000000
/home/daniel/Projects/ppsevolution/data/maps/custom_maps/Custom_3_Run_0_Map.csv,0.297953,0.857511,0.000000,0.620534,0.000000,0.009325,0.673581,0.000000,0.847802,0.241282,0.000000,0.422132,1.000000,0.993463,0.294606,0.000000
/home/daniel/Projects/ppsevolution/data/maps/custom_maps/Custom_4_Run_0_Map.csv,0.481067,0.864226,0.143049,0.140549,0.194288,0.000000,0.816846,1.000000,1.000000,0.099810,0.003470,0.000000,1.000000,1.000000,0.000000,2.000000
/home/daniel/Projects/ppsevolution/data/maps/custom_maps/Custom_4_Run_0_Map.csv,0.448714,1.000000,0.086051,0.197512,0.009463,0.032650,0.948601,1.000000,1.000000,0.000000,0.000000,0.000000,1.000000,0.282979,0.000000,1.000000
/home/daniel/Projects/ppsevolution/data/maps/custom_maps/Custom_4_Run_0_Map.csv,0.553755,1.000000,0.000000,0.315740,0.000000,0.027497,0.624760,1.000000,1.000000,0.000000,0.000000,0.000000,0.566412,0.825076,0.507331,0.000000
/home/daniel/Projects/ppsevolution/data/maps/custom_maps/Custom_4_Run_0_Map.csv,0.590676,0.849384,0.195884,0.079956,0.000000,0.000000,0.790293,0.000000,1.000000,0.000000,0.027664,0.028680,0.883143,0.746036,0.017350,2.000000
/home/daniel/Projects/ppsevolution/data/maps/custom_maps/Custom_4_Run_0_Map.csv,0.558691,0.867417,0.000000,0.259270,0.141247,0.018676,1.000000,0.000000,0.917979,0.022609,0.047182,0.004720,0.907197,0.783945,0.061437,1.000000
/home/daniel/Projects/ppsevolution/data/maps/custom_maps/Custom_4_Run_0_Map.csv,0.494042,0.974504,0.000000,0.302453,0.392976,0.452931,0.844794,0.000000,1.000000,0.000000,0.000000,0.000000,1.000000,1.000000,0.189899,2.000000
/home/daniel/Projects/ppsevolution/data/maps/custom_maps/Custom_4_Run_0_Map.csv,0.437105,0.770843,0.000000,0.284782,0.000000,0.245024,1.000000,0.000000,0.962429,0.266652,0.000000,0.000000,0.980996,0.840182,0.000000,1.000000
/home/daniel/Projects/ppsevolution/data/maps/custom_maps/Custom_4_Run_0_Map.csv,0.437280,0.998909,0.112714,0.156458,0.021973,0.000000,1.000000,0.000000,0.969765,0.044541,0.000000,0.000000,1.000000,0.815999,0.000000,0.000000
/home/daniel/Projects/ppsevolution/data/maps/custom_maps/Custom_4_Run_0_Map.csv,0.631116,0.677119,0.245940,0.000000,0.414577,0.393389,0.833662,1.000000,1.000000,0.038687,0.000000,0.057241,0.718930,0.867703,0.070917,0.000000
/home/daniel/Projects/ppsevolution/data/maps/custom_maps/Custom_4_Run_0_Map.csv,0.523109,1.000000,0.007867,0.272975,0.081907,0.268005,0.836324,1.000000,0.940454,0.103981,0.000000,0.000000,0.924104,0.938331,0.327705,2.000000
/home/daniel/Projects/ppsevolution/data/maps/custom_maps/Custom_5_Run_0_Map.csv,0.174300,1.000000,0.023423,0.347492,0.094254,0.090043,0.881734,1.000000,0.791313,0.035636,0.000000,0.106888,0.804991,0.724593,0.000000,2.000000
/home/daniel/Projects/ppsevolution/data/maps/custom_maps/Custom_5_Run_0_Map.csv,0.554034,0.903237,0.004462,0.404416,0.352214,0.121760,1.000000,2.000000,1.000000,0.115377,0.000000,0.251133,0.825317,1.000000,0.121728,1.000000
/home/daniel/Projects/ppsevolution/data/maps/custom_maps/Custom_5_Run_0_Map.csv,0.000000,1.000000,0.000000,0.484501,0.212955,0.146372,0.559793,1.000000,1.000000,0.205139,0.000000,0.000000,1.000000,0.937688,0.150022,2.000000
/home/daniel/Projects/ppsevolution/data/maps/custom_maps/Custom_5_Run_0_Map.csv,0.316984,1.000000,0.000000,0.440000,0.000000,0.033995,0.988634,0.000000,1.000000,0.107352,0.000000,0.168310,1.000000,0.990899,0.010660,2.000000
/home/daniel/Projects/ppsevolution/data/maps/custom_maps/Custom_5_Run_0_Map.csv,0.178536,0.948770,0.058554,0.388992,0.046789,0.240269,0.440104,0.000000,0.882430,0.000000,0.000000,0.100690,1.000000,0.993553,0.131577,0.000000
/home/daniel/Projects/ppsevolution/data/maps/custom_maps/Custom_5_Run_0_Map.csv,0.380780,0.967014,0.000000,0.437052,0.068407,0.138998,0.943162,0.000000,1.000000,0.211561,0.075822,0.099663,0.955639,0.961038,0.105621,1.000000
/home/daniel/Projects/ppsevolution/data/maps/custom_maps/Custom_5_Run_0_Map.csv,0.156626,0.923189,0.043299,0.415592,0.096780,0.092510,0.909583,0.000000,1.000000,0.244641,0.000000,0.090715,1.000000,1.000000,0.034786,1.000000
/home/daniel/Projects/ppsevolution/data/maps/custom_maps/Custom_5_Run_0_Map.csv,0.039612,0.843076,0.056574,0.392472,0.000000,0.000000,0.848263,2.000000,1.000000,0.000000,0.000000,0.013644,1.000000,0.996974,0.025562,2.000000
/home/daniel/Projects/ppsevolution/data/maps/custom_maps/Custom_5_Run_0_Map.csv,0.227027,0.954950,0.000000,0.387617,0.000000,0.224930,1.000000,0.000000,0.842800,0.158918,0.069078,0.049167,0.855363,1.000000,0.073511,1.000000
/home/daniel/Projects/ppsevolution/data/maps/custom_maps/Custom_5_Run_0_Map.csv,0.103351,0.952130,0.000000,0.417455,0.084882,0.254010,0.952258,0.000000,0.903362,0.000751,0.000000,0.049492,1.000000,1.000000,0.153900,1.000000
/home/daniel/Projects/ppsevolution/data/maps/custom_maps/Custom_6_Run_0_Map.csv,0.301724,0.915088,0.256235,0.555980,0.271004,0.243089,0.830812,2.000000,0.982760,0.000000,0.000000,0.585702,0.820362,0.998176,0.030107,0.000000
/home/daniel/Projects/ppsevolution/data/maps/custom_maps/Custom_6_Run_0_Map.csv,0.177025,1.000000,0.292238,0.543978,0.000000,0.000000,1.000000,1.000000,1.000000,0.100168,0.030066,0.536309,1.000000,0.766309,0.026644,0.000000
/home/daniel/Projects/ppsevolution/data/maps/custom_maps/Custom_6_Run_0_Map.csv,0.066063,1.000000,0.299683,0.502322,0.067716,0.167611,0.927362,1.000000,0.904185,0.000000,0.000000,0.517379,0.658219,0.933026,0.000000,1.000000
/home/daniel/Projects/ppsevolution/data/maps/custom_maps/Custom_6_Run_0_Map.csv,0.000000,1.000000,0.000000,0.743971,0.357292,0.030000,0.885915,0.000000,1.000000,0.000000,0.000000,0.518077,0.805834,1.000000,0.196785,0.000000
/home/daniel/Projects/ppsevolution/data/maps/custom_maps/Custom_6_Run_0_Map.csv,0.273116,0.991991,0.009331,0.697038,0.137281,0.074451,1.000000,2.000000,0.931565,0.036666,0.074279,0.545601,0.958085,1.000000,0.027602,1.000000
/home/daniel/Projects/ppsevolution/data/maps/custom_maps/Custom_6_Run_0_Map.csv,0.213457,0.983324,0.151397,0.657883,0.000000,0.000000,0.767683,1.000000,0.992748,0.031152,0.031939,0.556424,1.000000,0.887549,0.078768,1.000000
/home/daniel/Projects/ppsevolution/data/maps/custom_maps/Custom_6_Run_0_Map.csv,0.000000,1.000000,0.155022,0.596790,0.124760,0.000000,0.842199,0.000000,0.674501,0.000000,0.197677,0.395075,0.824789,0.848764,0.029221,1.000000
/home/daniel/Projects/ppsevolution/data/maps/custom_maps/Custom_6_Run_0_Map.csv,0.000000,0.884759,0.210000,0.609980,0.000000,0.000000,0.982364,2.000000,1.000000,0.208423,0.034216,0.485009,0.626039,0.839603,0.000000,1.000000
/home/daniel/Projects/ppsevolution/data/maps/custom_maps/Custom_6_Run_0_Map.csv,0.123829,0.854955,0.048248,0.705511,0.107908,0.000000,0.987615,1.000000,1.000000,0.063005,0.000000,0.556333,1.000000,0.984878,0.000000,1.000000
/home/daniel/Projects/ppsevolution/data/maps/custom_maps/Custom_6_Run_0_Map.csv,0.047261,1.000000,0.389223,0.528932,0.000000,0.000000,0.662253,0.000000,1.000000,0.122817,0.136710,0.443607,0.938035,0.800450,0.000000,1.000000
/home/daniel/Projects/ppsevolution/data/maps/custom_maps/Custom_7_Run_0_Map.csv,0.408941,0.883693,0.000000,0.459492,0.000000,0.436742,1.000000,0.000000,0.848518,0.000000,0.023154,0.295726,0.931965,0.895887,0.023213,2.000000
/home/daniel/Projects/ppsevolution/data/maps/custom_maps/Custom_7_Run_0_Map.csv,0.182093,0.934159,0.063698,0.383090,0.091852,0.044889,0.883448,0.000000,0.694222,0.046080,0.139266,0.096265,0.985436,0.941620,0.000000,2.000000
/home/daniel/Projects/ppsevolution/data/maps/custom_maps/Custom_7_Run_0_Map.csv,0.094724,1.000000,0.114523,0.425658,0.000000,0.202613,0.918327,1.000000,1.000000,0.000000,0.000000,0.174020,0.763192,0.443204,0.002655,2.000000
/home/daniel/Projects/ppsevolution/data/maps/custom_maps/Custom_7_Run_0_Map.csv,0.159541,0.984085,0.009140,0.530420,0.222039,0.000000,0.652031,2.000000,1.000000,0.118395,0.023910,0.172766,0.805038,0.767795,0.100967,2.000000
/home/daniel/Projects/ppsevolution/data/maps/custom_maps/Custom_7_Run_0_Map.csv,0.254304,0.851080,0.021613,0.496346,0.309879,0.127215,0.856395,2.000000,1.000000,0.279975,0.000000,0.241879,0.722941,0.924955,0.000000,1.000000
/home/daniel/Projects/ppsevolution/data/maps/custom_maps/Custom_7_Run_0_Map.csv,0.459617,0.822068,0.121147,0.394215,0.030000,0.226713,0.689144,2.000000,0.967261,0.000000,0.039630,0.286602,0.859180,1.000000,0.021348,1.000000
/home/daniel/Projects/ppsevolution/data/maps/custom_maps/Custom_7_Run_0_Map.csv,0.069949,1.000000,0.037371,0.499023,0.000000,0.000000,0.971905,0.000000,0.962101,0.000000,0.000000,0.151274,1.000000,0.830232,0.228214,2.000000
/home/daniel/Projects/ppsevolution/data/maps/custom_maps/Custom_7_Run_0_Map.csv,0.074002,0.911628,0.047278,0.438763,0.168799,0.378424,0.823031,2.000000,0.863884,0.185495,0.000000,0.167382,0.957532,1.000000,0.000000,0.000000
/home/daniel/Projects/ppsevolution/data/maps/custom_maps/Custom_7_Run_0_Map.csv,0.406886,0.934323,0.000000,0.452648,0.296463,0.256593,0.970077,2.000000,0.851814,0.253760,0.157053,0.142507,0.871548,0.808035,0.045780,2.000000
/home/daniel/Projects/ppsevolution/data/maps/custom_maps/Custom_7_Run_0_Map.csv,0.049687,1.000000,0.277731,0.259543,0.091597,0.000000,0.471009,0.000000,0.863794,0.000000,0.000000,0.164293,0.841183,0.590751,0.000000,1.000000
/home/daniel/Projects/ppsevolution/data/maps/custom_maps/Custom_8_Run_0_Map.csv,0.209081,0.846027,0.018682,0.307804,0.000000,0.295079,0.804952,2.000000,0.899096,0.193131,0.000000,0.000000,0.635619,1.000000,0.007586,1.000000
/home/daniel/Projects/ppsevolution/data/maps/custom_maps/Custom_8_Run_0_Map.csv,0.596489,0.963630,0.000000,0.357453,0.250666,0.000000,0.431825,1.000000,0.906782,0.065315,0.184325,0.005155,0.946645,0.648365,0.062367,1.000000
/home/daniel/Projects/ppsevolution/data/maps/custom_maps/Custom_8_Run_0_Map.csv,0.503727,0.936397,0.000000,0.362639,0.000000,0.000000,0.705186,1.000000,0.946421,0.210444,0.000000,0.159964,1.000000,1.000000,0.049369,1.000000
/home/daniel/Projects/ppsevolution/data/maps/custom_maps/Custom_8_Run_0_Map.csv,0.282367,0.670261,0.000000,0.380326,0.275821,0.372399,0.709646,0.000000,0.993120,0.260239,0.000000,0.000000,0.528983,0.771008,0.301593,1.000000
/home/daniel/Projects/ppsevolution/data/maps/custom_maps/Custom_8_Run_0_Map.csv,0.298327,0.974706,0.016022,0.340838,0.000000,0.080816,0.937020,1.000000,0.976572,0.283623,0.000000,0.052774,0.998986,0.848888,0.024710,0.000000
/home/daniel/Projects/ppsevolution/data/maps/custom_maps/Custom_8_Run_0_Map.csv,0.566413,0.928740,0.000000,0.334413,0.092216,0.184555,0.888077,0.000000,0.925292,0.000000,0.000000,0.204796,0.944375,0.952728,0.000000,0.000000
/home/daniel/Projects/ppsevolution/data/maps/custom_maps/Custom_8_Run_0_Map.csv,0.231617,0.770593,0.121825,0.237502,0.000635,0.153021,0.880965,2.000000,1.000000,0.263209,0.000000,0.000000,0.981963,0.924746,0.000000,2.000000
/home/daniel/Projects/ppsevolution/data/maps/custom_maps/Custom_8_Run_0_Map.csv,0.211389,0.741502,0.107288,0.255527,0.115662,0.221052,1.000000,0.000000,1.000000,0.349600,0.000000,0.000000,0.951568,0.944177,0.000000,0.000000
/home/daniel/Projects/ppsevolution/data/maps/custom_maps/Custom_8_Run_0_Map.csv,0.218384,1.000000,0.000000,0.353790,0.084965,0.192158,1.000000,2.000000,0.974883,0.153822,0.000000,0.001771,1.000000,0.683523,0.112385,1.000000
/home/daniel/Projects/ppsevolution/data/maps/custom_maps/Custom_8_Run_0_Map.csv,0.308360,0.814028,0.000000,0.367757,0.226910,0.129519,0.851421,2.000000,1.000000,0.000000,0.003225,0.053224,0.852882,1.000000,0.056061,1.000000
/home/daniel/Projects/ppsevolution/data/maps/custom_maps/Custom_9_Run_0_Map.csv,0.537428,0.753335,0.000000,0.216658,0.306915,0.372077,0.507142,2.000000,1.000000,0.890400,0.000000,0.000000,0.820413,0.746835,0.000000,2.000000
/home/daniel/Projects/ppsevolution/data/maps/custom_maps/Custom_9_Run_0_Map.csv,0.711148,0.961778,0.000000,0.174400,0.088286,0.350043,0.887477,0.000000,1.000000,0.011479,0.090951,0.000000,0.405858,0.891393,0.004490,0.000000
/home/daniel/Projects/ppsevolution/data/maps/custom_maps/Custom_9_Run_0_Map.csv,0.492621,0.704528,0.134676,0.000000,0.000000,0.000000,1.000000,2.000000,0.978418,0.000000,0.000000,0.000000,0.901415,0.936694,0.000000,0.000000
/home/daniel/Projects/ppsevolution/data/maps/custom_maps/Custom_9_Run_0_Map.csv,0.611876,0.921482,0.128539,0.000000,0.068005,0.393255,0.803475,1.000000,0.920423,0.055750,0.048054,0.000000,0.875165,0.908079,0.000000,2.000000
/home/daniel/Projects/ppsevolution/data/maps/custom_maps/Custom_9_Run_0_Map.csv,0.605484,0.902825,0.000000,0.177977,0.498281,0.329352,0.903584,1.000000,1.000000,0.259062,0.033282,0.006858,0.944607,0.475508,0.000000,2.000000
/home/daniel/Projects/ppsevolution/data/maps/custom_maps/Custom_9_Run_0_Map.csv,0.454764,0.834298,0.065988,0.000000,0.054587,0.000000,0.679943,0.000000,0.684391,0.114685,0.000000,0.000000,1.000000,0.827641,0.075722,2.000000
/home/daniel/Projects/ppsevolution/data/maps/custom_maps/Custom_9_Run_0_Map.csv,0.497544,1.000000,0.007597,0.194245,0.374985,0.087722,0.673212,2.000000,1.000000,0.098240,0.003920,0.000000,0.822334,0.834856,0.000000,0.000000
/home/daniel/Projects/ppsevolution/data/maps/custom_maps/Custom_9_Run_0_Map.csv,0.509567,0.993028,0.041523,0.125054,0.155035,0.165698,0.968350,1.000000,1.000000,0.045567,0.000000,0.000000,0.520283,0.817329,0.011330,1.000000
/home/daniel/Projects/ppsevolution/data/maps/custom_maps/Custom_9_Run_0_Map.csv,0.785928,0.875141,0.000000,0.099289,0.272844,0.000000,1.000000,2.000000,0.870424,0.121774,0.000000,0.164109,1.000000,0.897090,0.000000,0.000000
/home/daniel/Projects/ppsevolution/data/maps/custom_maps/Custom_9_Run_0_Map.csv,0.533854,0.970836,0.037947,0.192249,0.028411,0.000000,0.382044,0.000000,0.980936,0.187116,0.027341,0.000000,0.886452,0.842580,0.000000,0.000000
/home/daniel/Projects/ppsevolution/data/maps/custom_maps/Custom_10_Run_0_Map.csv,0.142669,1.000000,0.000000,0.382875,0.108758,0.146912,1.000000,2.000000,0.790422,0.000000,0.022462,0.089344,0.796008,1.000000,0.123809,2.000000
/home/daniel/Projects/ppsevolution/data/maps/custom_maps/Custom_10_Run_0_Map.csv,0.070837,0.864620,0.052770,0.393299,0.155525,0.000000,0.840157,1.000000,0.866485,0.245638,0.000000,0.057067,1.000000,0.574752,0.338100,2.000000
/home/daniel/Projects/ppsevolution/data/maps/custom_maps/Custom_10_Run_0_Map.csv,0.000000,0.705792,0.140634,0.337481,0.069648,0.349641,0.910701,0.000000,0.965721,0.168441,0.049304,0.000000,1.000000,0.903978,0.000000,0.000000
/home/daniel/Projects/ppsevolution/data/maps/custom_maps/Custom_10_Run_0_Map.csv,0.294082,0.923631,0.114513,0.330494,0.017100,0.206667,0.740813,1.000000,0.901261,0.150928,0.063430,0.118379,0.640632,0.736517,0.073567,2.000000
/home/daniel/Projects/ppsevolution/data/maps/custom_maps/Custom_10_Run_0_Map.csv,0.289625,0.889960,0.209832,0.229711,0.000000,0.194266,0.903030,0.000000,0.921597,0.053739,0.000000,0.195828,0.810594,0.672505,0.096528,0.000000
/home/daniel/Projects/ppsevolution/data/maps/custom_maps/Custom_10_Run_0_Map.csv,0.333996,1.000000,0.004328,0.472703,0.085821,0.003653,1.000000,0.000000,1.000000,0.296633,0.000000,0.235540,1.000000,0.742007,0.000000,1.000000
/home/daniel/Projects/ppsevolution/data/maps/custom_maps/Custom_10_Run_0_Map.csv,0.157486,0.935479,0.000000,0.474518,0.000000,0.071326,0.966365,1.000000,1.000000,0.107355,0.000000,0.142894,1.000000,0.717528,0.000000,2.000000
/home/daniel/Projects/ppsevolution/data/maps/custom_maps/Custom_10_Run_0_Map.csv,0.031006,0.955732,0.000000,0.490232,0.176606,0.069387,0.930365,0.000000,1.000000,0.345716,0.000000,0.075040,0.828405,0.935917,0.094187,0.000000
/home/daniel/Projects/ppsevolution/data/maps/custom_maps/Custom_10_Run_0_Map.csv,0.297510,0.941047,0.000000,0.463588,0.140033,0.197952,0.973452,1.000000,0.988375,0.070266,0.000000,0.195093,0.845650,0.955555,0.155432,0.000000
/home/daniel/Projects/ppsevolution/data/maps/custom_maps/Custom_10_Run_0_Map.csv,0.263980,1.000000,0.096491,0.383950,0.314833,0.070284,0.677832,2.000000,1.000000,0.496419,0.126323,0.036994,0.929286,0.663753,0.000000,0.000000
