/home/daniel/Projects/ppsEvolution/data/maps/custom_maps/Custom_1_Run_0_Map.csv,0.000000,1.000000,0.413768,1.000000,0.001996,0.039573,1.000000,2.000000,0.400366,0.000000,1.000000,1.000000,0.814002,0.753537,0.453090,2.000000
/home/daniel/Projects/ppsEvolution/data/maps/custom_maps/Custom_1_Run_0_Map.csv,0.000000,0.812188,0.579168,1.000000,0.000000,0.027628,1.000000,2.000000,0.745814,0.456829,1.000000,1.000000,0.995393,0.592757,1.000000,2.000000
/home/daniel/Projects/ppsEvolution/data/maps/custom_maps/Custom_1_Run_0_Map.csv,0.045403,0.539230,0.327991,1.000000,0.000000,0.000000,0.939358,2.000000,0.423854,0.007398,0.954406,1.000000,0.743513,0.861719,0.976092,2.000000
/home/daniel/Projects/ppsEvolution/data/maps/custom_maps/Custom_1_Run_0_Map.csv,0.000000,0.981119,0.332547,1.000000,0.000000,0.000000,1.000000,2.000000,0.218418,0.048244,1.000000,1.000000,1.000000,0.367017,0.951938,2.000000
/home/daniel/Projects/ppsEvolution/data/maps/custom_maps/Custom_1_Run_0_Map.csv,0.000000,0.973996,0.391971,1.000000,0.000000,0.217441,1.000000,2.000000,0.350108,0.003601,0.984875,1.000000,1.000000,0.760023,0.215787,2.000000
/home/daniel/Projects/ppsEvolution/data/maps/custom_maps/Custom_1_Run_0_Map.csv,0.000000,0.951435,0.992429,0.958591,0.000000,0.000000,1.000000,2.000000,0.530762,0.143971,1.000000,1.000000,0.933361,0.696375,0.680001,2.000000
/home/daniel/Projects/ppsEvolution/data/maps/custom_maps/Custom_1_Run_0_Map.csv,0.000000,0.947212,0.213494,1.000000,0.000000,0.000000,1.000000,2.000000,0.142627,0.034389,1.000000,1.000000,0.906110,0.824549,1.000000,2.000000
/home/daniel/Projects/ppsEvolution/data/maps/custom_maps/Custom_1_Run_0_Map.csv,0.000000,1.000000,0.464208,1.000000,0.000000,0.000000,1.000000,2.000000,0.503657,0.033631,1.000000,1.000000,1.000000,0.417337,1.000000,2.000000
/home/daniel/Projects/ppsEvolution/data/maps/custom_maps/Custom_1_Run_0_Map.csv,0.000000,1.000000,0.597546,1.000000,0.078727,0.000000,1.000000,2.000000,0.734459,0.337899,1.000000,1.000000,0.991150,0.610458,0.738215,2.000000
/home/daniel/Projects/ppsEvolution/data/maps/custom_maps/Custom_1_Run_0_Map.csv,0.000000,0.966065,0.488919,1.000000,0.000000,0.073675,1.000000,2.000000,0.567426,0.000000,0.988299,1.000000,0.911322,0.839592,0.487458,2.000000
/home/daniel/Projects/ppsEvolution/data/maps/custom_maps/Custom_2_Run_0_Map.csv,0.000000,1.000000,0.623696,1.000000,0.000000,0.000000,1.000000,2.000000,0.821376,0.614582,1.000000,1.000000,1.000000,1.000000,1.000000,2.000000
/home/daniel/Projects/ppsEvolution/data/maps/custom_maps/Custom_2_Run_0_Map.csv,0.000000,1.000000,0.699070,1.000000,0.000000,0.000000,1.000000,2.000000,0.968528,0.610518,1.000000,1.000000,1.000000,1.000000,1.000000,2.000000
/home/daniel/Projects/ppsEvolution/data/maps/custom_maps/Custom_2_Run_0_Map.csv,0.000000,0.999774,0.598287,1.000000,0.003966,0.000000,1.000000,2.000000,0.781957,0.872344,1.000000,1.000000,1.000000,1.000000,1.000000,2.000000
/home/daniel/Projects/ppsEvolution/data/maps/custom_maps/Custom_2_Run_0_Map.csv,0.000000,1.000000,0.415931,1.000000,0.019127,0.000000,1.000000,2.000000,0.431541,0.544906,1.000000,1.000000,1.000000,1.000000,1.000000,2.000000
/home/daniel/Projects/ppsEvolution/data/maps/custom_maps/Custom_2_Run_0_Map.csv,0.000000,1.000000,0.680285,1.000000,0.000000,0.000000,1.000000,2.000000,0.975288,1.000000,1.000000,1.000000,1.000000,1.000000,1.000000,2.000000
/home/daniel/Projects/ppsEvolution/data/maps/custom_maps/Custom_2_Run_0_Map.csv,0.000000,1.000000,0.696401,1.000000,0.000000,0.000000,1.000000,2.000000,1.000000,1.000000,1.000000,1.000000,1.000000,1.000000,1.000000,2.000000
/home/daniel/Projects/ppsEvolution/data/maps/custom_maps/Custom_2_Run_0_Map.csv,0.000000,1.000000,0.540561,1.000000,0.000000,0.000000,1.000000,2.000000,0.706566,1.000000,1.000000,1.000000,1.000000,1.000000,1.000000,2.000000
/home/daniel/Projects/ppsEvolution/data/maps/custom_maps/Custom_2_Run_0_Map.csv,0.000000,1.000000,0.699672,1.000000,0.000000,0.000000,1.000000,2.000000,0.999325,1.000000,1.000000,1.000000,1.000000,1.000000,1.000000,2.000000
/home/daniel/Projects/ppsEvolution/data/maps/custom_maps/Custom_2_Run_0_Map.csv,0.000000,1.000000,0.708526,1.000000,0.000000,0.000000,1.000000,2.000000,1.000000,1.000000,1.000000,1.000000,1.000000,1.000000,1.000000,2.000000
/home/daniel/Projects/ppsEvolution/data/maps/custom_maps/Custom_2_Run_0_Map.csv,0.000000,1.000000,0.712580,1.000000,0.000000,0.000000,1.000000,2.000000,1.000000,1.000000,1.000000,1.000000,1.000000,1.000000,1.000000,2.000000
/home/daniel/Projects/ppsEvolution/data/maps/custom_maps/Custom_3_Run_0_Map.csv,0.000000,0.984569,1.000000,0.975888,0.000000,0.000000,1.000000,2.000000,0.000000,0.038821,1.000000,1.000000,1.000000,0.000000,1.000000,2.000000
/home/daniel/Projects/ppsEvolution/data/maps/custom_maps/Custom_3_Run_0_Map.csv,0.000000,1.000000,1.000000,0.980670,0.000000,0.000000,1.000000,2.000000,0.000000,0.000000,1.000000,1.000000,1.000000,0.000000,1.000000,2.000000
/home/daniel/Projects/ppsEvolution/data/maps/custom_maps/Custom_3_Run_0_Map.csv,0.000000,0.932522,1.000000,0.978416,0.000000,0.089122,1.000000,2.000000,0.000000,0.000000,1.000000,1.000000,1.000000,0.000000,1.000000,2.000000
/home/daniel/Projects/ppsEvolution/data/maps/custom_maps/Custom_3_Run_0_Map.csv,0.000000,1.000000,1.000000,0.976441,0.000000,0.000000,1.000000,2.000000,0.000000,0.000000,1.000000,1.000000,1.000000,0.000000,1.000000,2.000000
/home/daniel/Projects/ppsEvolution/data/maps/custom_maps/Custom_3_Run_0_Map.csv,0.000000,1.000000,1.000000,0.979697,0.000000,0.000000,1.000000,2.000000,0.000000,0.000000,1.000000,1.000000,1.000000,0.000000,1.000000,2.000000
/home/daniel/Projects/ppsEvolution/data/maps/custom_maps/Custom_3_Run_0_Map.csv,0.000000,0.982571,1.000000,0.979199,0.000000,0.658477,1.000000,2.000000,0.000000,0.000000,1.000000,1.000000,1.000000,0.000000,1.000000,2.000000
/home/daniel/Projects/ppsEvolution/data/maps/custom_maps/Custom_3_Run_0_Map.csv,0.000000,1.000000,1.000000,0.976040,0.000000,0.000000,1.000000,2.000000,0.000000,0.000000,1.000000,1.000000,1.000000,0.000000,1.000000,2.000000
/home/daniel/Projects/ppsEvolution/data/maps/custom_maps/Custom_3_Run_0_Map.csv,0.000000,1.000000,1.000000,0.972965,0.000000,0.000000,1.000000,2.000000,0.000000,0.000000,1.000000,1.000000,1.000000,0.000000,1.000000,2.000000
/home/daniel/Projects/ppsEvolution/data/maps/custom_maps/Custom_3_Run_0_Map.csv,0.000000,1.000000,1.000000,0.976274,0.000000,0.000000,1.000000,2.000000,0.000000,0.000000,1.000000,1.000000,1.000000,0.000000,1.000000,2.000000
/home/daniel/Projects/ppsEvolution/data/maps/custom_maps/Custom_3_Run_0_Map.csv,0.000000,1.000000,0.688013,1.000000,0.000000,0.000000,1.000000,2.000000,0.020656,0.000000,1.000000,1.000000,1.000000,0.000000,1.000000,2.000000
/home/daniel/Projects/ppsEvolution/data/maps/custom_maps/Custom_4_Run_0_Map.csv,0.000000,0.832113,0.929068,1.000000,0.000000,0.017665,1.000000,2.000000,0.303201,0.000000,1.000000,1.000000,0.924244,0.000000,0.828197,2.000000
/home/daniel/Projects/ppsEvolution/data/maps/custom_maps/Custom_4_Run_0_Map.csv,0.000000,0.781750,0.939808,0.979642,0.000000,0.000000,1.000000,2.000000,0.000000,0.000000,1.000000,1.000000,1.000000,0.000000,1.000000,2.000000
/home/daniel/Projects/ppsEvolution/data/maps/custom_maps/Custom_4_Run_0_Map.csv,0.000000,1.000000,0.716641,1.000000,0.000000,0.011409,1.000000,2.000000,0.000000,0.000000,1.000000,1.000000,1.000000,0.000000,1.000000,2.000000
/home/daniel/Projects/ppsEvolution/data/maps/custom_maps/Custom_4_Run_0_Map.csv,0.000000,0.876576,0.734409,1.000000,0.026827,0.000000,1.000000,2.000000,0.007427,0.000000,1.000000,1.000000,0.980639,0.000000,0.969905,2.000000
/home/daniel/Projects/ppsEvolution/data/maps/custom_maps/Custom_4_Run_0_Map.csv,0.000000,0.782145,0.820037,1.000000,0.000000,0.000000,1.000000,2.000000,0.148469,0.000000,1.000000,1.000000,1.000000,0.002276,1.000000,2.000000
/home/daniel/Projects/ppsEvolution/data/maps/custom_maps/Custom_4_Run_0_Map.csv,0.000000,1.000000,0.688864,1.000000,0.000000,0.000000,0.998975,2.000000,0.000000,0.000000,1.000000,1.000000,1.000000,0.046197,1.000000,2.000000
/home/daniel/Projects/ppsEvolution/data/maps/custom_maps/Custom_4_Run_0_Map.csv,0.000000,0.840075,0.905066,0.989928,0.000000,0.000000,1.000000,2.000000,0.072187,0.000000,1.000000,1.000000,1.000000,0.000000,1.000000,2.000000
/home/daniel/Projects/ppsEvolution/data/maps/custom_maps/Custom_4_Run_0_Map.csv,0.000000,0.831280,1.000000,0.969320,0.000000,0.097467,1.000000,2.000000,0.000000,0.052369,1.000000,1.000000,1.000000,0.675881,1.000000,2.000000
/home/daniel/Projects/ppsEvolution/data/maps/custom_maps/Custom_4_Run_0_Map.csv,0.000000,0.734706,1.000000,0.999120,0.000000,0.032131,1.000000,2.000000,0.409471,0.000000,1.000000,1.000000,1.000000,0.000000,0.996784,2.000000
/home/daniel/Projects/ppsEvolution/data/maps/custom_maps/Custom_4_Run_0_Map.csv,0.000000,1.000000,0.728764,0.997284,0.000000,0.000000,1.000000,2.000000,0.000000,0.000000,1.000000,1.000000,1.000000,0.000000,1.000000,2.000000
/home/daniel/Projects/ppsEvolution/data/maps/custom_maps/Custom_5_Run_0_Map.csv,0.019742,0.379383,1.000000,0.973878,0.000000,0.310632,1.000000,2.000000,0.000000,0.000000,1.000000,1.000000,1.000000,0.000000,1.000000,2.000000
/home/daniel/Projects/ppsEvolution/data/maps/custom_maps/Custom_5_Run_0_Map.csv,0.000000,0.843913,1.000000,0.977520,0.000000,0.874830,1.000000,2.000000,0.000000,0.000000,0.995712,1.000000,1.000000,0.000000,1.000000,2.000000
/home/daniel/Projects/ppsEvolution/data/maps/custom_maps/Custom_5_Run_0_Map.csv,0.000000,1.000000,1.000000,0.971443,0.000000,0.034489,1.000000,2.000000,0.000000,0.000000,1.000000,1.000000,1.000000,0.000000,1.000000,2.000000
/home/daniel/Projects/ppsEvolution/data/maps/custom_maps/Custom_5_Run_0_Map.csv,0.000000,0.018395,1.000000,0.980040,0.000000,0.169652,1.000000,2.000000,0.000000,0.000000,1.000000,1.000000,1.000000,0.000000,0.963327,2.000000
/home/daniel/Projects/ppsEvolution/data/maps/custom_maps/Custom_5_Run_0_Map.csv,0.000000,0.519159,1.000000,0.975452,0.000000,0.630375,1.000000,2.000000,0.000000,0.011755,1.000000,1.000000,1.000000,0.000000,1.000000,2.000000
/home/daniel/Projects/ppsEvolution/data/maps/custom_maps/Custom_5_Run_0_Map.csv,0.000000,0.746478,1.000000,0.972980,0.000000,0.404800,1.000000,2.000000,0.000000,0.000000,1.000000,1.000000,0.965393,0.000000,1.000000,2.000000
/home/daniel/Projects/ppsEvolution/data/maps/custom_maps/Custom_5_Run_0_Map.csv,0.030178,0.725382,1.000000,0.975544,0.000000,1.000000,1.000000,2.000000,0.000000,0.000000,1.000000,1.000000,1.000000,0.000000,0.998627,2.000000
/home/daniel/Projects/ppsEvolution/data/maps/custom_maps/Custom_5_Run_0_Map.csv,0.000000,0.332719,1.000000,0.977405,0.000000,0.160513,1.000000,2.000000,0.000000,0.000000,1.000000,1.000000,1.000000,0.000000,1.000000,2.000000
/home/daniel/Projects/ppsEvolution/data/maps/custom_maps/Custom_5_Run_0_Map.csv,0.000000,0.886505,1.000000,0.973896,0.000000,0.390867,1.000000,2.000000,0.000000,0.000000,1.000000,1.000000,1.000000,0.000000,1.000000,2.000000
/home/daniel/Projects/ppsEvolution/data/maps/custom_maps/Custom_5_Run_0_Map.csv,0.284335,0.286884,1.000000,0.966032,0.000000,0.918579,1.000000,2.000000,0.000000,0.000000,1.000000,1.000000,1.000000,0.000000,1.000000,2.000000
/home/daniel/Projects/ppsEvolution/data/maps/custom_maps/Custom_6_Run_0_Map.csv,0.000000,1.000000,0.000000,1.000000,0.000000,0.000000,0.000000,2.000000,1.000000,0.938752,1.000000,0.969670,1.000000,1.000000,1.000000,2.000000
/home/daniel/Projects/ppsEvolution/data/maps/custom_maps/Custom_6_Run_0_Map.csv,0.017984,1.000000,0.000000,1.000000,0.000000,0.000000,0.000000,2.000000,1.000000,1.000000,1.000000,0.973482,1.000000,1.000000,1.000000,2.000000
/home/daniel/Projects/ppsEvolution/data/maps/custom_maps/Custom_6_Run_0_Map.csv,0.000000,1.000000,0.000000,1.000000,0.000000,0.000000,0.000000,2.000000,1.000000,0.969556,1.000000,0.970992,1.000000,1.000000,1.000000,2.000000
/home/daniel/Projects/ppsEvolution/data/maps/custom_maps/Custom_6_Run_0_Map.csv,0.000000,1.000000,0.000000,1.000000,0.000000,0.000000,0.000000,2.000000,1.000000,1.000000,1.000000,0.969235,1.000000,1.000000,1.000000,2.000000
/home/daniel/Projects/ppsEvolution/data/maps/custom_maps/Custom_6_Run_0_Map.csv,0.000000,1.000000,0.000000,1.000000,0.000000,0.000000,0.000000,2.000000,1.000000,1.000000,1.000000,0.971526,1.000000,1.000000,1.000000,2.000000
/home/daniel/Projects/ppsEvolution/data/maps/custom_maps/Custom_6_Run_0_Map.csv,0.023177,1.000000,0.000000,1.000000,0.000000,0.000000,0.000000,2.000000,1.000000,1.000000,1.000000,0.973897,1.000000,1.000000,1.000000,2.000000
/home/daniel/Projects/ppsEvolution/data/maps/custom_maps/Custom_6_Run_0_Map.csv,0.000000,1.000000,0.000000,1.000000,0.000000,0.000000,0.000000,2.000000,1.000000,1.000000,1.000000,0.961960,1.000000,1.000000,1.000000,2.000000
/home/daniel/Projects/ppsEvolution/data/maps/custom_maps/Custom_6_Run_0_Map.csv,0.000000,1.000000,0.000000,1.000000,0.000000,0.000000,0.000000,2.000000,1.000000,1.000000,1.000000,0.971476,1.000000,1.000000,1.000000,2.000000
/home/daniel/Projects/ppsEvolution/data/maps/custom_maps/Custom_6_Run_0_Map.csv,0.000000,1.000000,0.000000,1.000000,0.000000,0.000000,0.000000,2.000000,1.000000,1.000000,1.000000,0.969421,1.000000,1.000000,1.000000,2.000000
/home/daniel/Projects/ppsEvolution/data/maps/custom_maps/Custom_6_Run_0_Map.csv,0.000000,0.999677,0.000000,1.000000,0.000000,0.000000,0.000000,2.000000,1.000000,1.000000,1.000000,0.969880,1.000000,1.000000,1.000000,2.000000
/home/daniel/Projects/ppsEvolution/data/maps/custom_maps/Custom_7_Run_0_Map.csv,0.000000,0.961302,0.604662,1.000000,0.000000,0.000000,1.000000,2.000000,0.648090,0.000000,1.000000,1.000000,0.992825,1.000000,1.000000,2.000000
/home/daniel/Projects/ppsEvolution/data/maps/custom_maps/Custom_7_Run_0_Map.csv,0.000000,1.000000,0.590180,1.000000,0.000000,0.000000,1.000000,2.000000,0.628544,0.044993,1.000000,1.000000,1.000000,1.000000,1.000000,2.000000
/home/daniel/Projects/ppsEvolution/data/maps/custom_maps/Custom_7_Run_0_Map.csv,0.000000,1.000000,0.626644,1.000000,0.000000,0.000000,1.000000,2.000000,0.690753,0.078340,1.000000,1.000000,1.000000,1.000000,1.000000,2.000000
/home/daniel/Projects/ppsEvolution/data/maps/custom_maps/Custom_7_Run_0_Map.csv,0.000000,1.000000,0.391816,1.000000,0.000000,0.000000,1.000000,2.000000,0.244710,0.000000,1.000000,1.000000,1.000000,1.000000,1.000000,2.000000
/home/daniel/Projects/ppsEvolution/data/maps/custom_maps/Custom_7_Run_0_Map.csv,0.000000,1.000000,0.622589,1.000000,0.000088,0.000000,1.000000,2.000000,0.692597,0.181829,1.000000,1.000000,1.000000,1.000000,1.000000,2.000000
/home/daniel/Projects/ppsEvolution/data/maps/custom_maps/Custom_7_Run_0_Map.csv,0.000000,1.000000,0.654151,1.000000,0.000000,0.000000,1.000000,2.000000,0.722999,0.003269,1.000000,1.000000,1.000000,1.000000,1.000000,2.000000
/home/daniel/Projects/ppsEvolution/data/maps/custom_maps/Custom_7_Run_0_Map.csv,0.000000,1.000000,0.795943,1.000000,0.000640,0.000000,1.000000,2.000000,1.000000,0.000000,1.000000,1.000000,1.000000,1.000000,1.000000,2.000000
/home/daniel/Projects/ppsEvolution/data/maps/custom_maps/Custom_7_Run_0_Map.csv,0.000000,1.000000,0.402728,1.000000,0.000000,0.000000,1.000000,2.000000,0.276610,0.153777,1.000000,1.000000,1.000000,1.000000,1.000000,2.000000
/home/daniel/Projects/ppsEvolution/data/maps/custom_maps/Custom_7_Run_0_Map.csv,0.000000,1.000000,0.776849,1.000000,0.000000,0.000000,1.000000,2.000000,0.972841,0.000000,1.000000,1.000000,1.000000,1.000000,1.000000,2.000000
/home/daniel/Projects/ppsEvolution/data/maps/custom_maps/Custom_7_Run_0_Map.csv,0.000000,1.000000,0.528699,1.000000,0.000000,0.000000,1.000000,2.000000,0.529770,0.000000,1.000000,1.000000,1.000000,1.000000,1.000000,2.000000
/home/daniel/Projects/ppsEvolution/data/maps/custom_maps/Custom_8_Run_0_Map.csv,0.000000,1.000000,0.877920,1.000000,0.000000,0.000000,1.000000,2.000000,0.456543,0.000000,1.000000,1.000000,1.000000,0.000000,1.000000,2.000000
/home/daniel/Projects/ppsEvolution/data/maps/custom_maps/Custom_8_Run_0_Map.csv,0.000000,1.000000,0.718903,1.000000,0.000000,0.000000,1.000000,2.000000,0.197428,0.000000,1.000000,1.000000,1.000000,0.055700,1.000000,2.000000
/home/daniel/Projects/ppsEvolution/data/maps/custom_maps/Custom_8_Run_0_Map.csv,0.000000,0.920879,0.941308,0.995953,0.000000,0.100528,1.000000,2.000000,0.436738,0.000000,1.000000,1.000000,1.000000,0.008048,1.000000,2.000000
/home/daniel/Projects/ppsEvolution/data/maps/custom_maps/Custom_8_Run_0_Map.csv,0.000000,0.933774,0.725945,1.000000,0.000000,0.000000,1.000000,2.000000,0.313262,0.100293,1.000000,1.000000,1.000000,0.467503,1.000000,2.000000
/home/daniel/Projects/ppsEvolution/data/maps/custom_maps/Custom_8_Run_0_Map.csv,0.000000,1.000000,0.609212,1.000000,0.000000,0.020905,1.000000,2.000000,0.000000,0.022630,1.000000,1.000000,1.000000,0.000000,1.000000,2.000000
/home/daniel/Projects/ppsEvolution/data/maps/custom_maps/Custom_8_Run_0_Map.csv,0.000000,1.000000,0.602089,1.000000,0.015235,0.013884,1.000000,2.000000,0.000000,0.000000,1.000000,1.000000,0.965248,0.000000,1.000000,2.000000
/home/daniel/Projects/ppsEvolution/data/maps/custom_maps/Custom_8_Run_0_Map.csv,0.000000,1.000000,0.832635,1.000000,0.000000,0.006948,1.000000,2.000000,0.380890,0.000000,1.000000,1.000000,1.000000,0.000280,0.955011,2.000000
/home/daniel/Projects/ppsEvolution/data/maps/custom_maps/Custom_8_Run_0_Map.csv,0.000000,0.928917,0.585026,1.000000,0.000000,0.000000,1.000000,2.000000,0.000000,0.000000,1.000000,1.000000,1.000000,0.069501,1.000000,2.000000
/home/daniel/Projects/ppsEvolution/data/maps/custom_maps/Custom_8_Run_0_Map.csv,0.000000,1.000000,0.571203,1.000000,0.000000,0.000000,1.000000,2.000000,0.000000,0.000000,0.992524,1.000000,1.000000,0.221854,1.000000,2.000000
/home/daniel/Projects/ppsEvolution/data/maps/custom_maps/Custom_8_Run_0_Map.csv,0.000000,1.000000,0.818007,1.000000,0.000000,0.000000,1.000000,2.000000,0.339063,0.007791,1.000000,1.000000,1.000000,0.022487,1.000000,2.000000
/home/daniel/Projects/ppsEvolution/data/maps/custom_maps/Custom_9_Run_0_Map.csv,0.000000,1.000000,0.623049,0.984619,0.000000,0.004453,1.000000,2.000000,0.000000,0.000000,1.000000,1.000000,1.000000,0.000000,1.000000,2.000000
/home/daniel/Projects/ppsEvolution/data/maps/custom_maps/Custom_9_Run_0_Map.csv,0.000000,0.874496,1.000000,0.960708,0.000000,0.000000,1.000000,2.000000,0.000000,0.023130,1.000000,1.000000,0.976264,0.000000,0.676098,2.000000
/home/daniel/Projects/ppsEvolution/data/maps/custom_maps/Custom_9_Run_0_Map.csv,0.019189,1.000000,0.431664,1.000000,0.000000,0.000000,1.000000,2.000000,0.000000,0.000000,1.000000,1.000000,1.000000,0.000000,1.000000,2.000000
/home/daniel/Projects/ppsEvolution/data/maps/custom_maps/Custom_9_Run_0_Map.csv,0.000000,0.341700,0.961578,0.979213,0.000000,0.000000,1.000000,2.000000,0.408614,0.000000,1.000000,1.000000,1.000000,0.000000,1.000000,2.000000
/home/daniel/Projects/ppsEvolution/data/maps/custom_maps/Custom_9_Run_0_Map.csv,0.000000,1.000000,0.699558,1.000000,0.000000,0.000000,1.000000,2.000000,0.465253,0.000000,1.000000,1.000000,1.000000,0.000000,1.000000,2.000000
/home/daniel/Projects/ppsEvolution/data/maps/custom_maps/Custom_9_Run_0_Map.csv,0.078068,0.590151,0.917636,0.979340,0.000000,0.057543,1.000000,2.000000,0.506360,0.041610,1.000000,1.000000,1.000000,0.060594,1.000000,2.000000
/home/daniel/Projects/ppsEvolution/data/maps/custom_maps/Custom_9_Run_0_Map.csv,0.000000,1.000000,0.513454,0.991816,0.011753,0.000000,1.000000,2.000000,0.000000,0.000000,1.000000,1.000000,1.000000,0.024248,1.000000,2.000000
/home/daniel/Projects/ppsEvolution/data/maps/custom_maps/Custom_9_Run_0_Map.csv,0.000000,0.322012,0.673798,0.983623,0.000000,0.000000,1.000000,2.000000,0.014153,0.000000,1.000000,1.000000,0.983272,0.000000,1.000000,2.000000
/home/daniel/Projects/ppsEvolution/data/maps/custom_maps/Custom_9_Run_0_Map.csv,0.000000,1.000000,0.901398,1.000000,0.000000,0.002780,1.000000,2.000000,0.804083,0.012428,1.000000,1.000000,1.000000,0.000000,1.000000,2.000000
/home/daniel/Projects/ppsEvolution/data/maps/custom_maps/Custom_9_Run_0_Map.csv,0.000000,0.814847,0.555650,1.000000,0.000000,0.119786,1.000000,2.000000,0.430281,0.042770,1.000000,1.000000,1.000000,0.720608,1.000000,2.000000
/home/daniel/Projects/ppsEvolution/data/maps/custom_maps/Custom_10_Run_0_Map.csv,0.000000,1.000000,1.000000,0.991592,0.000000,1.000000,1.000000,2.000000,0.000000,0.000000,1.000000,1.000000,1.000000,0.000000,1.000000,0.000000
/home/daniel/Projects/ppsEvolution/data/maps/custom_maps/Custom_10_Run_0_Map.csv,0.000000,1.000000,1.000000,0.988302,0.000000,1.000000,1.000000,2.000000,0.000000,0.000000,1.000000,1.000000,1.000000,0.000000,1.000000,0.000000
/home/daniel/Projects/ppsEvolution/data/maps/custom_maps/Custom_10_Run_0_Map.csv,0.000000,1.000000,1.000000,0.989446,0.000000,1.000000,1.000000,2.000000,0.000000,0.000000,1.000000,1.000000,1.000000,0.000000,1.000000,0.000000
/home/daniel/Projects/ppsEvolution/data/maps/custom_maps/Custom_10_Run_0_Map.csv,0.000000,0.851620,1.000000,0.988415,0.000000,1.000000,1.000000,2.000000,0.000000,0.000000,1.000000,1.000000,1.000000,0.000000,1.000000,0.000000
/home/daniel/Projects/ppsEvolution/data/maps/custom_maps/Custom_10_Run_0_Map.csv,0.000000,1.000000,1.000000,0.984847,0.000000,1.000000,1.000000,2.000000,0.000000,0.000000,1.000000,1.000000,1.000000,0.000000,1.000000,0.000000
/home/daniel/Projects/ppsEvolution/data/maps/custom_maps/Custom_10_Run_0_Map.csv,0.000000,1.000000,1.000000,0.988590,0.000000,1.000000,1.000000,2.000000,0.000000,0.000000,1.000000,1.000000,1.000000,0.000000,1.000000,0.000000
/home/daniel/Projects/ppsEvolution/data/maps/custom_maps/Custom_10_Run_0_Map.csv,0.000000,0.762359,1.000000,0.991230,0.000000,1.000000,1.000000,2.000000,0.000000,0.000000,1.000000,1.000000,0.996610,0.000000,1.000000,0.000000
/home/daniel/Projects/ppsEvolution/data/maps/custom_maps/Custom_10_Run_0_Map.csv,0.000000,0.961011,1.000000,0.989073,0.000000,1.000000,1.000000,2.000000,0.000000,0.000000,1.000000,1.000000,1.000000,0.000000,1.000000,0.000000
/home/daniel/Projects/ppsEvolution/data/maps/custom_maps/Custom_10_Run_0_Map.csv,0.000000,0.964409,1.000000,0.984673,0.000000,1.000000,1.000000,2.000000,0.000000,0.000000,1.000000,1.000000,1.000000,0.000000,1.000000,0.000000
/home/daniel/Projects/ppsEvolution/data/maps/custom_maps/Custom_10_Run_0_Map.csv,0.000000,0.378499,1.000000,0.992930,0.000000,1.000000,1.000000,2.000000,0.000000,0.000000,1.000000,1.000000,1.000000,0.000000,1.000000,0.000000
