/home/daniel/Projects/ppsevolution/data/maps/custom_maps/Custom_1_Run_0_Map.csv,0.190216,1.000000,0.221696,0.644236,0.175996,0.032484,0.998418,1.000000,1.000000,0.158472,0.037478,0.600000,1.000000,1.000000,0.120348,1.000000
/home/daniel/Projects/ppsevolution/data/maps/custom_maps/Custom_1_Run_0_Map.csv,0.000000,0.849892,0.179924,0.665709,0.183013,0.000000,1.000000,1.000000,0.952447,0.092273,0.000000,0.585937,1.000000,0.712802,0.000000,0.000000
/home/daniel/Projects/ppsevolution/data/maps/custom_maps/Custom_1_Run_0_Map.csv,0.194548,1.000000,0.210000,0.639722,0.079652,0.004766,1.000000,2.000000,0.967654,0.000000,0.000000,0.633691,1.000000,0.980156,0.018516,0.000000
/home/daniel/Projects/ppsevolution/data/maps/custom_maps/Custom_1_Run_0_Map.csv,0.134887,0.952405,0.144903,0.705019,0.000000,0.000000,0.849665,0.000000,0.959936,0.000000,0.069976,0.587692,0.780720,1.000000,0.207936,0.000000
/home/daniel/Projects/ppsevolution/data/maps/custom_maps/Custom_1_Run_0_Map.csv,0.056180,0.744148,0.169776,0.642330,0.202843,0.000000,0.943235,1.000000,0.845151,0.010395,0.000000,0.600000,0.695637,0.881988,0.000000,1.000000
/home/daniel/Projects/ppsevolution/data/maps/custom_maps/Custom_1_Run_0_Map.csv,0.000000,0.860738,0.311807,0.609775,0.000000,0.089525,0.951785,0.000000,0.991522,0.054730,0.000000,0.596863,1.000000,1.000000,0.000000,0.000000
/home/daniel/Projects/ppsevolution/data/maps/custom_maps/Custom_1_Run_0_Map.csv,0.000000,0.964834,0.356122,0.539518,0.179377,0.160091,0.914941,2.000000,0.923368,0.129253,0.041894,0.545986,0.850706,0.893375,0.096697,1.000000
/home/daniel/Projects/ppsevolution/data/maps/custom_maps/Custom_1_Run_0_Map.csv,0.156764,1.000000,0.253275,0.615183,0.026225,0.101000,0.690258,1.000000,0.849884,0.000000,0.070826,0.600000,1.000000,1.000000,0.025661,0.000000
/home/daniel/Projects/ppsevolution/data/maps/custom_maps/Custom_1_Run_0_Map.csv,0.113576,0.547405,0.044543,0.728540,0.058553,0.041727,1.000000,1.000000,0.950020,0.000000,0.113787,0.541171,1.000000,0.844213,0.088275,2.000000
/home/daniel/Projects/ppsevolution/data/maps/custom_maps/Custom_1_Run_0_Map.csv,0.085234,0.995126,0.571697,0.428771,0.022897,0.000000,0.809674,0.000000,1.000000,0.069596,0.000000,0.607362,0.839234,1.000000,0.050878,0.000000
/home/daniel/Projects/ppsevolution/data/maps/custom_maps/Custom_2_Run_0_Map.csv,0.000000,0.265535,0.661747,1.000000,0.187923,0.138709,1.000000,2.000000,0.469780,0.007391,1.000000,1.000000,0.923410,0.978315,1.000000,2.000000
/home/daniel/Projects/ppsevolution/data/maps/custom_maps/Custom_2_Run_0_Map.csv,0.000000,1.000000,0.371194,1.000000,0.098549,0.024493,0.989323,2.000000,0.002813,0.473026,1.000000,1.000000,0.782523,1.000000,1.000000,2.000000
/home/daniel/Projects/ppsevolution/data/maps/custom_maps/Custom_2_Run_0_Map.csv,0.000000,1.000000,0.725617,1.000000,0.335774,0.121319,1.000000,2.000000,0.658759,0.680758,1.000000,1.000000,0.782665,0.933339,0.996054,2.000000
/home/daniel/Projects/ppsevolution/data/maps/custom_maps/Custom_2_Run_0_Map.csv,0.000000,1.000000,0.524114,1.000000,0.000000,0.000000,0.967485,2.000000,0.345710,0.770432,1.000000,1.000000,0.775617,1.000000,1.000000,2.000000
/home/daniel/Projects/ppsevolution/data/maps/custom_maps/Custom_2_Run_0_Map.csv,0.000000,0.972508,0.797931,1.000000,0.000000,0.000000,1.000000,2.000000,0.794700,0.600574,1.000000,1.000000,0.336469,1.000000,1.000000,2.000000
/home/daniel/Projects/ppsevolution/data/maps/custom_maps/Custom_2_Run_0_Map.csv,0.000000,1.000000,0.762823,1.000000,0.177753,0.094971,1.000000,2.000000,0.736957,0.071225,1.000000,1.000000,0.927236,0.982450,0.990681,2.000000
/home/daniel/Projects/ppsevolution/data/maps/custom_maps/Custom_2_Run_0_Map.csv,0.000000,0.764445,0.678850,1.000000,0.408982,0.087987,1.000000,2.000000,0.525792,0.510572,0.997520,1.000000,1.000000,0.918977,0.990226,2.000000
/home/daniel/Projects/ppsevolution/data/maps/custom_maps/Custom_2_Run_0_Map.csv,0.019147,1.000000,0.796876,1.000000,0.000000,0.000000,1.000000,2.000000,0.792592,0.082798,1.000000,1.000000,0.828746,0.928600,0.992699,2.000000
/home/daniel/Projects/ppsevolution/data/maps/custom_maps/Custom_2_Run_0_Map.csv,0.000000,0.861424,0.793645,1.000000,0.105189,0.000000,0.862973,2.000000,0.797175,0.000000,0.985756,1.000000,0.920027,1.000000,1.000000,2.000000
/home/daniel/Projects/ppsevolution/data/maps/custom_maps/Custom_2_Run_0_Map.csv,0.006321,0.754941,0.964964,1.000000,0.003096,0.104628,1.000000,2.000000,1.000000,0.054941,1.000000,1.000000,1.000000,0.779780,0.755755,2.000000
/home/daniel/Projects/ppsevolution/data/maps/custom_maps/Custom_3_Run_0_Map.csv,0.000000,0.866671,0.693641,1.000000,0.000000,0.563863,1.000000,2.000000,0.299484,0.235959,1.000000,1.000000,0.970832,0.370499,0.937757,2.000000
/home/daniel/Projects/ppsevolution/data/maps/custom_maps/Custom_3_Run_0_Map.csv,0.082136,0.944208,0.962894,0.970754,0.018591,0.152612,1.000000,2.000000,0.163460,0.099138,1.000000,1.000000,0.598793,0.000000,1.000000,2.000000
/home/daniel/Projects/ppsevolution/data/maps/custom_maps/Custom_3_Run_0_Map.csv,0.000000,0.892891,0.585575,1.000000,0.000000,0.024956,1.000000,2.000000,0.000000,0.162365,1.000000,1.000000,1.000000,0.000000,1.000000,2.000000
/home/daniel/Projects/ppsevolution/data/maps/custom_maps/Custom_3_Run_0_Map.csv,0.000000,0.801698,1.000000,0.959941,0.165232,0.270770,1.000000,2.000000,0.000000,0.000000,1.000000,1.000000,0.919314,0.285764,1.000000,2.000000
/home/daniel/Projects/ppsevolution/data/maps/custom_maps/Custom_3_Run_0_Map.csv,0.018859,0.916853,0.959729,0.987431,0.000000,0.000000,1.000000,2.000000,0.478631,0.312762,0.949076,1.000000,0.957486,0.128083,1.000000,2.000000
/home/daniel/Projects/ppsevolution/data/maps/custom_maps/Custom_3_Run_0_Map.csv,0.000000,0.951984,0.987282,1.000000,0.008117,0.142592,1.000000,2.000000,0.744441,0.548538,1.000000,1.000000,0.904535,0.173181,1.000000,2.000000
/home/daniel/Projects/ppsevolution/data/maps/custom_maps/Custom_3_Run_0_Map.csv,0.000000,0.774521,0.613341,1.000000,0.000000,0.011160,1.000000,2.000000,0.069604,0.151463,1.000000,1.000000,1.000000,0.000000,1.000000,2.000000
/home/daniel/Projects/ppsevolution/data/maps/custom_maps/Custom_3_Run_0_Map.csv,0.000000,1.000000,0.776598,1.000000,0.000000,0.253935,1.000000,2.000000,0.443718,0.443934,1.000000,1.000000,0.950656,0.583886,1.000000,2.000000
/home/daniel/Projects/ppsevolution/data/maps/custom_maps/Custom_3_Run_0_Map.csv,0.000000,0.499337,0.856038,0.995125,0.000000,0.122310,1.000000,2.000000,0.385901,0.267874,0.987307,1.000000,0.961542,0.212753,0.917782,2.000000
/home/daniel/Projects/ppsevolution/data/maps/custom_maps/Custom_3_Run_0_Map.csv,0.000000,0.560878,0.702646,1.000000,0.000000,0.081004,1.000000,2.000000,0.134338,0.000000,1.000000,1.000000,0.847677,0.000000,1.000000,2.000000
/home/daniel/Projects/ppsevolution/data/maps/custom_maps/Custom_4_Run_0_Map.csv,0.000000,0.912681,0.105918,0.788418,0.153062,0.154715,0.730353,2.000000,0.919783,0.196391,0.034960,0.635102,0.970799,0.737736,0.147987,2.000000
/home/daniel/Projects/ppsevolution/data/maps/custom_maps/Custom_4_Run_0_Map.csv,0.000000,0.868021,0.124111,0.777855,0.848742,0.495582,1.000000,2.000000,0.930713,0.000000,0.110376,0.608912,0.767463,1.000000,0.000000,0.000000
/home/daniel/Projects/ppsevolution/data/maps/custom_maps/Custom_4_Run_0_Map.csv,0.024947,1.000000,0.145071,0.786914,0.000000,0.062410,0.954351,1.000000,0.969975,0.000000,0.000000,0.667841,0.891435,1.000000,0.000000,2.000000
/home/daniel/Projects/ppsevolution/data/maps/custom_maps/Custom_4_Run_0_Map.csv,0.000000,1.000000,0.154051,0.789301,0.121102,0.024637,1.000000,0.000000,1.000000,0.000000,0.061660,0.626929,0.965436,1.000000,0.146826,2.000000
/home/daniel/Projects/ppsevolution/data/maps/custom_maps/Custom_4_Run_0_Map.csv,0.016622,0.939397,0.233673,0.760643,0.177305,0.000000,0.901957,1.000000,1.000000,0.065707,0.000000,0.660325,0.842006,0.907023,0.000000,1.000000
/home/daniel/Projects/ppsevolution/data/maps/custom_maps/Custom_4_Run_0_Map.csv,0.030026,0.868694,0.210752,0.742489,0.000000,0.000000,1.000000,1.000000,0.906986,0.000000,0.056290,0.627897,1.000000,0.838499,0.000000,2.000000
/home/daniel/Projects/ppsevolution/data/maps/custom_maps/Custom_4_Run_0_Map.csv,0.014116,0.933917,0.162351,0.794631,0.054368,0.183860,0.901377,1.000000,1.000000,0.140479,0.000000,0.672404,1.000000,1.000000,0.035908,1.000000
/home/daniel/Projects/ppsevolution/data/maps/custom_maps/Custom_4_Run_0_Map.csv,0.000000,0.925649,0.258834,0.731292,0.054555,0.115916,1.000000,2.000000,1.000000,0.185581,0.032820,0.624158,0.632999,1.000000,0.121780,1.000000
/home/daniel/Projects/ppsevolution/data/maps/custom_maps/Custom_4_Run_0_Map.csv,0.027647,1.000000,0.324131,0.702145,0.241084,0.000800,0.976359,2.000000,1.000000,0.065681,0.005973,0.639261,0.951019,1.000000,0.000000,2.000000
/home/daniel/Projects/ppsevolution/data/maps/custom_maps/Custom_4_Run_0_Map.csv,0.177599,0.870670,0.109712,0.785157,0.000000,0.072923,1.000000,1.000000,0.890027,0.000000,0.081404,0.667930,1.000000,0.767846,0.000000,0.000000
/home/daniel/Projects/ppsevolution/data/maps/custom_maps/Custom_5_Run_0_Map.csv,0.041565,0.961223,0.179056,1.000000,0.000000,0.233984,1.000000,2.000000,1.000000,0.198274,0.088222,0.970398,0.764130,0.937905,0.082906,1.000000
/home/daniel/Projects/ppsevolution/data/maps/custom_maps/Custom_5_Run_0_Map.csv,0.000000,1.000000,0.244757,1.000000,0.227518,0.113572,1.000000,1.000000,0.943428,0.123302,0.655026,0.898031,1.000000,0.897710,0.438854,0.000000
/home/daniel/Projects/ppsevolution/data/maps/custom_maps/Custom_5_Run_0_Map.csv,0.023033,0.995156,0.420175,0.950469,0.033306,0.000000,0.915954,2.000000,1.000000,0.271587,0.052592,0.936872,0.957335,0.778356,0.224773,2.000000
/home/daniel/Projects/ppsevolution/data/maps/custom_maps/Custom_5_Run_0_Map.csv,0.000000,0.945580,0.138027,1.000000,0.180606,0.348926,1.000000,2.000000,0.914858,0.411772,0.000000,0.978903,0.849461,1.000000,0.000000,2.000000
/home/daniel/Projects/ppsevolution/data/maps/custom_maps/Custom_5_Run_0_Map.csv,0.320843,0.982325,0.242557,0.994944,0.000000,0.000000,0.774379,1.000000,0.819099,0.495423,0.090812,1.000000,0.993347,0.953350,0.140639,0.000000
/home/daniel/Projects/ppsevolution/data/maps/custom_maps/Custom_5_Run_0_Map.csv,0.227162,0.724654,0.192910,1.000000,0.273444,0.166583,0.844275,2.000000,0.928934,0.000000,0.000000,1.000000,0.839513,0.883080,0.000000,0.000000
/home/daniel/Projects/ppsevolution/data/maps/custom_maps/Custom_5_Run_0_Map.csv,0.004703,0.985957,0.353778,0.993636,0.068649,0.000000,0.946945,0.000000,0.989580,0.313772,0.114780,0.961776,0.887161,0.752195,0.261142,1.000000
/home/daniel/Projects/ppsevolution/data/maps/custom_maps/Custom_5_Run_0_Map.csv,0.099591,0.922664,0.242117,1.000000,0.156417,0.000000,0.849459,1.000000,0.834557,0.012228,0.000000,1.000000,1.000000,1.000000,0.000000,0.000000
/home/daniel/Projects/ppsevolution/data/maps/custom_maps/Custom_5_Run_0_Map.csv,0.000000,0.778859,0.123645,1.000000,0.212719,0.000000,0.935210,2.000000,0.903847,0.036271,0.232471,0.949708,0.935514,0.840197,0.011598,2.000000
/home/daniel/Projects/ppsevolution/data/maps/custom_maps/Custom_5_Run_0_Map.csv,0.013775,1.000000,0.374695,1.000000,0.181329,0.115311,0.522511,1.000000,1.000000,0.000000,0.000000,1.000000,0.690188,1.000000,0.000000,0.000000
/home/daniel/Projects/ppsevolution/data/maps/custom_maps/Custom_6_Run_0_Map.csv,0.000000,0.698742,0.000000,1.000000,0.000000,0.000000,0.886310,2.000000,0.976061,0.676381,1.000000,0.901508,0.889401,1.000000,1.000000,2.000000
/home/daniel/Projects/ppsevolution/data/maps/custom_maps/Custom_6_Run_0_Map.csv,0.235897,0.916764,0.000000,1.000000,0.000000,0.000000,0.630383,2.000000,1.000000,0.000000,1.000000,0.929685,0.994370,1.000000,0.988170,2.000000
/home/daniel/Projects/ppsevolution/data/maps/custom_maps/Custom_6_Run_0_Map.csv,0.000000,1.000000,0.000000,1.000000,0.002213,0.000000,0.841661,2.000000,1.000000,0.762209,1.000000,0.893413,1.000000,0.997294,1.000000,2.000000
/home/daniel/Projects/ppsevolution/data/maps/custom_maps/Custom_6_Run_0_Map.csv,0.147073,1.000000,0.000000,1.000000,0.025370,0.025041,0.861572,2.000000,1.000000,0.526089,1.000000,0.911940,0.984646,1.000000,0.962652,2.000000
/home/daniel/Projects/ppsevolution/data/maps/custom_maps/Custom_6_Run_0_Map.csv,0.029290,1.000000,0.000000,1.000000,0.000000,0.000000,0.618887,2.000000,1.000000,0.186745,1.000000,0.903714,1.000000,0.998135,0.973593,2.000000
/home/daniel/Projects/ppsevolution/data/maps/custom_maps/Custom_6_Run_0_Map.csv,0.000000,0.958464,0.000000,1.000000,0.000000,0.000000,1.000000,2.000000,1.000000,0.095250,0.984182,0.888019,0.477504,0.827897,1.000000,2.000000
/home/daniel/Projects/ppsevolution/data/maps/custom_maps/Custom_6_Run_0_Map.csv,0.344531,0.584040,0.000000,1.000000,0.000000,0.000000,0.569337,2.000000,1.000000,0.000000,0.973255,0.932035,1.000000,0.983855,1.000000,2.000000
/home/daniel/Projects/ppsevolution/data/maps/custom_maps/Custom_6_Run_0_Map.csv,0.166696,1.000000,0.000000,1.000000,0.000000,0.000000,0.719446,2.000000,1.000000,0.006546,1.000000,0.909028,0.444701,0.972818,0.948703,2.000000
/home/daniel/Projects/ppsevolution/data/maps/custom_maps/Custom_6_Run_0_Map.csv,0.144220,0.976349,0.000000,1.000000,0.028997,0.000000,0.909714,2.000000,1.000000,0.000000,1.000000,0.911536,1.000000,1.000000,1.000000,2.000000
/home/daniel/Projects/ppsevolution/data/maps/custom_maps/Custom_6_Run_0_Map.csv,0.183349,1.000000,0.000000,1.000000,0.156498,0.026089,0.735881,2.000000,1.000000,0.382372,1.000000,0.912565,0.975991,0.944481,0.353721,2.000000
/home/daniel/Projects/ppsevolution/data/maps/custom_maps/Custom_7_Run_0_Map.csv,0.026381,0.727877,0.180282,0.958899,0.000000,0.340562,1.000000,2.000000,0.623033,0.000000,0.653736,0.873795,0.915419,0.928939,0.181830,1.000000
/home/daniel/Projects/ppsevolution/data/maps/custom_maps/Custom_7_Run_0_Map.csv,0.056754,0.831520,0.170893,1.000000,0.036537,0.105525,0.926536,2.000000,0.923221,0.000000,0.000000,1.000000,0.767516,1.000000,0.183588,0.000000
/home/daniel/Projects/ppsevolution/data/maps/custom_maps/Custom_7_Run_0_Map.csv,0.000000,0.779121,0.294139,1.000000,0.495681,0.368861,0.878053,1.000000,0.708044,0.036324,0.116034,1.000000,0.844826,0.979420,0.051004,0.000000
/home/daniel/Projects/ppsevolution/data/maps/custom_maps/Custom_7_Run_0_Map.csv,0.135662,1.000000,0.287739,0.987015,0.024592,0.072073,1.000000,0.000000,0.786070,0.211789,0.463854,0.941672,0.754401,1.000000,0.206994,0.000000
/home/daniel/Projects/ppsevolution/data/maps/custom_maps/Custom_7_Run_0_Map.csv,0.000000,1.000000,0.000000,1.000000,0.010039,0.005381,0.702343,1.000000,0.733905,0.173071,0.031024,0.978509,0.900845,0.911082,0.000000,2.000000
/home/daniel/Projects/ppsevolution/data/maps/custom_maps/Custom_7_Run_0_Map.csv,0.188677,0.689790,0.239171,1.000000,0.204786,0.129386,0.939800,1.000000,0.970831,0.000000,0.000000,1.000000,0.718145,0.763998,0.134275,2.000000
/home/daniel/Projects/ppsevolution/data/maps/custom_maps/Custom_7_Run_0_Map.csv,0.101138,0.728624,0.000000,0.985137,0.032089,0.000000,1.000000,2.000000,1.000000,0.024622,0.181297,0.927179,0.855045,0.805470,0.215566,2.000000
/home/daniel/Projects/ppsevolution/data/maps/custom_maps/Custom_7_Run_0_Map.csv,0.408441,1.000000,0.166657,1.000000,0.125401,0.000000,1.000000,1.000000,0.634300,0.000000,0.310989,1.000000,0.330154,1.000000,0.000000,0.000000
/home/daniel/Projects/ppsevolution/data/maps/custom_maps/Custom_7_Run_0_Map.csv,0.207019,0.847175,0.000000,1.000000,0.355411,0.135151,0.758581,0.000000,0.767454,0.012236,0.522431,0.910713,0.564890,0.595351,0.321262,1.000000
/home/daniel/Projects/ppsevolution/data/maps/custom_maps/Custom_7_Run_0_Map.csv,0.147399,0.908207,0.107518,1.000000,0.000000,0.166766,0.692792,2.000000,0.919484,0.200570,0.000000,0.995288,1.000000,0.527057,0.201959,2.000000
/home/daniel/Projects/ppsevolution/data/maps/custom_maps/Custom_8_Run_0_Map.csv,0.008000,1.000000,0.062400,0.831938,0.138343,0.163964,0.866592,1.000000,0.727466,0.087112,0.205334,0.665139,0.974146,0.962608,0.000961,0.000000
/home/daniel/Projects/ppsevolution/data/maps/custom_maps/Custom_8_Run_0_Map.csv,0.000000,0.937878,0.179186,0.805080,0.172684,0.151561,0.949233,1.000000,0.845913,0.344288,0.107314,0.685641,0.523601,0.750416,0.000000,2.000000
/home/daniel/Projects/ppsevolution/data/maps/custom_maps/Custom_8_Run_0_Map.csv,0.000000,0.837890,0.232487,0.791523,0.011970,0.023542,0.962363,2.000000,0.963067,0.000000,0.007530,0.718058,0.838036,0.910181,0.010890,1.000000
/home/daniel/Projects/ppsevolution/data/maps/custom_maps/Custom_8_Run_0_Map.csv,0.000000,0.966441,0.343706,0.782249,0.325181,0.000000,1.000000,0.000000,1.000000,0.000000,0.000000,0.728643,1.000000,0.786786,0.307670,0.000000
/home/daniel/Projects/ppsevolution/data/maps/custom_maps/Custom_8_Run_0_Map.csv,0.000000,1.000000,0.049299,0.825566,0.030000,0.001059,1.000000,1.000000,0.724027,0.069795,0.133968,0.675677,0.969894,0.796973,0.086165,1.000000
/home/daniel/Projects/ppsevolution/data/maps/custom_maps/Custom_8_Run_0_Map.csv,0.000000,1.000000,0.171630,0.817991,0.000000,0.187185,0.977205,2.000000,1.000000,0.036452,0.362845,0.553502,1.000000,1.000000,0.141127,0.000000
/home/daniel/Projects/ppsevolution/data/maps/custom_maps/Custom_8_Run_0_Map.csv,0.000000,1.000000,0.186527,0.800000,0.049253,0.030000,1.000000,2.000000,0.915946,0.089389,0.100143,0.685450,0.991734,0.995084,0.000000,0.000000
/home/daniel/Projects/ppsevolution/data/maps/custom_maps/Custom_8_Run_0_Map.csv,0.000000,1.000000,0.000000,0.881407,0.290489,0.030000,0.894703,2.000000,1.000000,0.290990,0.000000,0.755088,0.984875,1.000000,0.000000,0.000000
/home/daniel/Projects/ppsevolution/data/maps/custom_maps/Custom_8_Run_0_Map.csv,0.013534,1.000000,0.143364,0.800000,0.000000,0.026539,0.860924,2.000000,0.823531,0.070459,0.289903,0.600000,0.857463,1.000000,0.006977,2.000000
/home/daniel/Projects/ppsevolution/data/maps/custom_maps/Custom_8_Run_0_Map.csv,0.047023,0.768199,0.168198,0.806763,0.000000,0.196177,1.000000,1.000000,0.880173,0.197616,0.173564,0.665177,0.630994,0.984110,0.000957,2.000000
/home/daniel/Projects/ppsevolution/data/maps/custom_maps/Custom_9_Run_0_Map.csv,0.000000,1.000000,0.259512,0.688699,0.087170,0.447173,1.000000,2.000000,1.000000,0.064405,0.000000,0.636245,0.984907,0.996213,0.000000,0.000000
/home/daniel/Projects/ppsevolution/data/maps/custom_maps/Custom_9_Run_0_Map.csv,0.000000,0.939842,0.210000,0.730072,0.041445,0.029111,1.000000,0.000000,1.000000,0.000000,0.124003,0.586643,0.914448,1.000000,0.000000,2.000000
/home/daniel/Projects/ppsevolution/data/maps/custom_maps/Custom_9_Run_0_Map.csv,0.216411,1.000000,0.090335,0.800000,0.197785,0.108556,0.767371,0.000000,1.000000,0.094127,0.081204,0.686249,0.653166,1.000000,0.000000,1.000000
/home/daniel/Projects/ppsevolution/data/maps/custom_maps/Custom_9_Run_0_Map.csv,0.257550,0.931104,0.382068,0.621450,0.194178,0.000000,1.000000,1.000000,0.970441,0.120586,0.044757,0.662733,0.985585,1.000000,0.000000,2.000000
/home/daniel/Projects/ppsevolution/data/maps/custom_maps/Custom_9_Run_0_Map.csv,0.000000,1.000000,0.210000,0.730490,0.030000,0.000000,1.000000,0.000000,1.000000,0.087321,0.099854,0.600000,0.881984,0.965989,0.000000,2.000000
/home/daniel/Projects/ppsevolution/data/maps/custom_maps/Custom_9_Run_0_Map.csv,0.000000,1.000000,0.125297,0.777288,0.000000,0.097344,0.644895,0.000000,0.917751,0.292556,0.059785,0.642978,0.555311,0.822607,0.164829,0.000000
/home/daniel/Projects/ppsevolution/data/maps/custom_maps/Custom_9_Run_0_Map.csv,0.000000,1.000000,0.127631,0.695805,0.000000,0.000000,1.000000,1.000000,0.697788,0.060601,0.078924,0.603703,1.000000,0.879277,0.000000,2.000000
/home/daniel/Projects/ppsevolution/data/maps/custom_maps/Custom_9_Run_0_Map.csv,0.036491,1.000000,0.210000,0.716859,0.035398,0.013061,0.850984,2.000000,1.000000,0.000000,0.093582,0.600129,1.000000,0.877428,0.000000,1.000000
/home/daniel/Projects/ppsevolution/data/maps/custom_maps/Custom_9_Run_0_Map.csv,0.000000,1.000000,0.000000,0.800000,0.113104,0.068507,1.000000,2.000000,1.000000,0.000000,0.000000,0.651915,0.895800,0.795594,0.008016,1.000000
/home/daniel/Projects/ppsevolution/data/maps/custom_maps/Custom_9_Run_0_Map.csv,0.028533,0.924232,0.139655,0.749474,0.435039,0.000000,0.997581,1.000000,1.000000,0.149302,0.000000,0.640688,1.000000,0.964672,0.121809,2.000000
/home/daniel/Projects/ppsevolution/data/maps/custom_maps/Custom_10_Run_0_Map.csv,0.012348,0.820646,1.000000,1.000000,0.000000,0.240589,1.000000,2.000000,0.883364,0.143368,0.759641,1.000000,0.999741,0.476208,0.784495,1.000000
/home/daniel/Projects/ppsevolution/data/maps/custom_maps/Custom_10_Run_0_Map.csv,0.000000,0.874413,1.000000,1.000000,0.000000,0.187705,1.000000,2.000000,0.787573,0.086119,0.857161,1.000000,0.999635,0.685217,0.083201,0.000000
/home/daniel/Projects/ppsevolution/data/maps/custom_maps/Custom_10_Run_0_Map.csv,0.107935,0.742362,0.829213,1.000000,0.010371,0.133675,0.952940,2.000000,0.418643,0.043996,0.821743,1.000000,0.948006,0.000000,0.000000,2.000000
/home/daniel/Projects/ppsevolution/data/maps/custom_maps/Custom_10_Run_0_Map.csv,0.498776,0.722981,1.000000,0.952322,0.263445,0.802233,0.989998,2.000000,0.358180,0.013530,0.591033,1.000000,0.909514,1.000000,0.218311,2.000000
/home/daniel/Projects/ppsevolution/data/maps/custom_maps/Custom_10_Run_0_Map.csv,0.000000,0.622435,1.000000,1.000000,0.185115,0.502870,0.900911,2.000000,0.739329,0.000000,0.928555,1.000000,0.872591,0.702089,0.342622,2.000000
/home/daniel/Projects/ppsevolution/data/maps/custom_maps/Custom_10_Run_0_Map.csv,0.066116,0.820036,0.711010,1.000000,0.000000,0.346607,0.840641,2.000000,0.355985,0.484293,1.000000,1.000000,0.828187,0.649074,0.504870,2.000000
/home/daniel/Projects/ppsevolution/data/maps/custom_maps/Custom_10_Run_0_Map.csv,0.000000,0.390351,0.872368,1.000000,0.126155,0.275826,0.964347,2.000000,0.477348,0.074409,0.930817,1.000000,0.978767,0.658089,0.033986,2.000000
/home/daniel/Projects/ppsevolution/data/maps/custom_maps/Custom_10_Run_0_Map.csv,0.000000,0.488302,1.000000,1.000000,0.378026,0.039247,1.000000,2.000000,0.688162,0.023573,1.000000,1.000000,0.989026,0.603743,0.071973,0.000000
/home/daniel/Projects/ppsevolution/data/maps/custom_maps/Custom_10_Run_0_Map.csv,0.011456,0.881033,0.998192,1.000000,0.028024,0.096324,1.000000,2.000000,0.796888,0.020095,0.807522,1.000000,0.825145,0.625815,0.348096,2.000000
/home/daniel/Projects/ppsevolution/data/maps/custom_maps/Custom_10_Run_0_Map.csv,0.000000,0.893490,1.000000,0.975537,0.270251,0.000000,1.000000,2.000000,0.606464,0.000000,0.395099,1.000000,0.889145,0.978395,0.048218,2.000000
