/home/daniel/Projects/ppsevolution/data/maps/custom_maps/Custom_1_Run_0_Map.csv,0.765149,1.000000,0.000000,0.000000,0.000000,0.052748,0.820602,0.000000,0.979801,0.370911,0.000000,0.000000,0.998968,1.000000,0.000000,0.000000
/home/daniel/Projects/ppsevolution/data/maps/custom_maps/Custom_1_Run_0_Map.csv,0.877803,0.900327,0.000000,0.004914,0.277292,0.474741,0.604367,1.000000,1.000000,0.000000,0.000000,0.001731,0.837094,0.897344,0.278552,2.000000
/home/daniel/Projects/ppsevolution/data/maps/custom_maps/Custom_1_Run_0_Map.csv,0.824421,0.958714,0.000000,0.000000,0.504833,0.351850,0.552954,1.000000,0.979603,0.324556,0.000000,0.006926,0.691251,0.996334,0.017817,1.000000
/home/daniel/Projects/ppsevolution/data/maps/custom_maps/Custom_1_Run_0_Map.csv,0.833815,1.000000,0.000000,0.000000,0.652426,0.728509,0.668072,1.000000,1.000000,0.575349,0.000000,0.000000,0.890231,0.974847,0.039929,0.000000
/home/daniel/Projects/ppsevolution/data/maps/custom_maps/Custom_1_Run_0_Map.csv,0.917597,0.931170,0.000000,0.000000,0.490959,0.000000,0.782260,1.000000,1.000000,0.535900,0.000000,0.004910,0.657919,0.734614,0.436016,1.000000
/home/daniel/Projects/ppsevolution/data/maps/custom_maps/Custom_1_Run_0_Map.csv,1.000000,0.878952,0.000000,0.008125,0.650929,0.269747,0.515660,1.000000,1.000000,0.065622,0.000000,0.097054,0.947570,0.818787,0.077502,1.000000
/home/daniel/Projects/ppsevolution/data/maps/custom_maps/Custom_1_Run_0_Map.csv,1.000000,0.713615,0.000000,0.000000,0.017857,0.000000,0.774985,2.000000,1.000000,0.000000,0.000000,0.000000,1.000000,0.627583,0.805703,2.000000
/home/daniel/Projects/ppsevolution/data/maps/custom_maps/Custom_1_Run_0_Map.csv,1.000000,0.854188,0.000000,0.002072,0.160908,0.000000,0.664975,0.000000,1.000000,0.230522,0.059833,0.002994,0.826110,1.000000,0.252619,1.000000
/home/daniel/Projects/ppsevolution/data/maps/custom_maps/Custom_1_Run_0_Map.csv,1.000000,0.441294,0.000000,0.000000,0.000000,0.130433,0.542023,0.000000,0.972429,0.431478,0.009035,0.075650,0.979927,0.391359,0.146129,0.000000
/home/daniel/Projects/ppsevolution/data/maps/custom_maps/Custom_1_Run_0_Map.csv,1.000000,0.876488,0.000000,0.000000,0.206540,0.240898,0.662051,0.000000,0.990648,0.430859,0.000000,0.000000,0.446263,0.849741,0.717420,2.000000
/home/daniel/Projects/ppsevolution/data/maps/custom_maps/Custom_2_Run_0_Map.csv,0.471590,0.903045,0.101392,0.414091,0.108363,0.281601,0.873337,2.000000,0.930165,0.235860,0.121797,0.210343,0.868505,0.838364,0.060119,0.000000
/home/daniel/Projects/ppsevolution/data/maps/custom_maps/Custom_2_Run_0_Map.csv,0.513653,1.000000,0.106078,0.364656,0.136998,0.448445,0.733294,1.000000,0.789783,0.233049,0.022915,0.331247,0.665517,0.947301,0.105773,1.000000
/home/daniel/Projects/ppsevolution/data/maps/custom_maps/Custom_2_Run_0_Map.csv,0.088119,0.557523,0.377260,0.030393,0.404638,0.000000,0.930255,1.000000,0.615080,0.192672,0.058641,0.124838,0.857613,1.000000,0.083526,0.000000
/home/daniel/Projects/ppsevolution/data/maps/custom_maps/Custom_2_Run_0_Map.csv,0.004222,0.776825,0.000000,0.497198,0.081459,0.102368,0.716012,2.000000,0.737841,0.094075,0.000000,0.141847,0.839907,0.946216,0.204552,0.000000
/home/daniel/Projects/ppsevolution/data/maps/custom_maps/Custom_2_Run_0_Map.csv,0.072720,0.517165,0.074018,0.530873,0.015806,0.320723,0.705962,0.000000,1.000000,0.407532,0.000000,0.196881,1.000000,1.000000,0.000000,0.000000
/home/daniel/Projects/ppsevolution/data/maps/custom_maps/Custom_2_Run_0_Map.csv,0.255929,1.000000,0.000000,0.559781,0.092328,0.212637,0.936137,1.000000,1.000000,0.189951,0.000000,0.219470,0.843404,1.000000,0.402648,0.000000
/home/daniel/Projects/ppsevolution/data/maps/custom_maps/Custom_2_Run_0_Map.csv,0.446555,0.557144,0.000000,0.491973,0.000000,0.039746,0.908454,1.000000,0.847730,0.000000,0.344062,0.000000,1.000000,0.768709,0.056882,2.000000
/home/daniel/Projects/ppsevolution/data/maps/custom_maps/Custom_2_Run_0_Map.csv,0.127776,1.000000,0.000000,0.545637,0.058593,0.000000,0.957002,1.000000,0.942294,0.032154,0.052036,0.116179,0.917714,0.786850,0.304610,0.000000
/home/daniel/Projects/ppsevolution/data/maps/custom_maps/Custom_2_Run_0_Map.csv,0.150835,0.744805,0.154047,0.422845,0.049903,0.227716,0.859220,2.000000,1.000000,0.000000,0.139947,0.013211,1.000000,0.994889,0.350075,1.000000
/home/daniel/Projects/ppsevolution/data/maps/custom_maps/Custom_2_Run_0_Map.csv,0.362605,1.000000,0.000000,0.509993,0.162918,0.070714,0.686164,2.000000,0.841502,0.273607,0.000000,0.321595,0.383132,0.688441,0.025962,2.000000
/home/daniel/Projects/ppsevolution/data/maps/custom_maps/Custom_3_Run_0_Map.csv,0.000000,1.000000,0.035908,0.569922,0.000000,0.173594,0.631469,0.000000,0.722974,0.064543,0.227801,0.100475,0.994887,0.864053,0.151950,0.000000
/home/daniel/Projects/ppsevolution/data/maps/custom_maps/Custom_3_Run_0_Map.csv,0.000000,0.964382,0.269600,0.438271,0.443992,0.141844,0.690427,1.000000,1.000000,0.107340,0.000000,0.294609,0.660789,0.738993,0.000000,1.000000
/home/daniel/Projects/ppsevolution/data/maps/custom_maps/Custom_3_Run_0_Map.csv,0.330695,0.781789,0.103921,0.546788,0.078179,0.374566,0.920704,0.000000,1.000000,0.151843,0.189822,0.220126,0.957484,0.576190,0.249941,1.000000
/home/daniel/Projects/ppsevolution/data/maps/custom_maps/Custom_3_Run_0_Map.csv,0.000000,0.854140,0.059686,0.494251,0.057219,0.385309,0.454828,2.000000,0.585276,0.392181,0.252774,0.070168,1.000000,0.366134,0.000000,0.000000
/home/daniel/Projects/ppsevolution/data/maps/custom_maps/Custom_3_Run_0_Map.csv,0.066805,1.000000,0.147267,0.537664,0.000000,0.309154,0.725616,1.000000,1.000000,0.000000,0.000000,0.309742,0.856492,0.981622,0.208243,0.000000
/home/daniel/Projects/ppsevolution/data/maps/custom_maps/Custom_3_Run_0_Map.csv,0.005234,0.702126,0.000000,0.622664,0.285535,0.075993,0.963371,2.000000,0.991006,0.479284,0.324495,0.000000,0.806146,0.865040,0.000000,0.000000
/home/daniel/Projects/ppsevolution/data/maps/custom_maps/Custom_3_Run_0_Map.csv,0.159892,0.936302,0.000000,0.631361,0.142920,0.190899,0.897528,0.000000,0.914061,0.411703,0.045082,0.353556,0.877282,0.852164,0.000331,1.000000
/home/daniel/Projects/ppsevolution/data/maps/custom_maps/Custom_3_Run_0_Map.csv,0.080993,0.988717,0.320952,0.303685,0.178823,0.000000,0.958440,1.000000,0.856617,0.063822,0.000000,0.274510,1.000000,1.000000,0.452896,0.000000
/home/daniel/Projects/ppsevolution/data/maps/custom_maps/Custom_3_Run_0_Map.csv,0.016452,1.000000,0.310953,0.329628,0.061008,0.072882,0.607638,2.000000,0.831470,0.152876,0.245818,0.025658,0.808003,0.932219,0.048322,2.000000
/home/daniel/Projects/ppsevolution/data/maps/custom_maps/Custom_3_Run_0_Map.csv,0.524644,0.580842,0.311328,0.356356,0.000000,0.057390,1.000000,1.000000,1.000000,0.139309,0.188203,0.305760,1.000000,0.668938,0.120949,0.000000
/home/daniel/Projects/ppsevolution/data/maps/custom_maps/Custom_4_Run_0_Map.csv,0.867915,0.802378,0.254941,0.000000,0.152679,0.121604,0.680005,2.000000,1.000000,0.108904,0.068569,0.092142,0.909338,1.000000,0.000000,1.000000
/home/daniel/Projects/ppsevolution/data/maps/custom_maps/Custom_4_Run_0_Map.csv,0.491069,0.751633,0.032939,0.242468,0.133798,0.065100,0.525282,0.000000,0.852397,0.143013,0.010015,0.000000,1.000000,0.866610,0.204474,2.000000
/home/daniel/Projects/ppsevolution/data/maps/custom_maps/Custom_4_Run_0_Map.csv,0.613385,0.674771,0.103311,0.067063,0.000000,0.261294,1.000000,2.000000,0.809173,0.309828,0.006024,0.060409,0.803216,0.899080,0.000000,2.000000
/home/daniel/Projects/ppsevolution/data/maps/custom_maps/Custom_4_Run_0_Map.csv,0.597896,1.000000,0.095007,0.000000,0.079122,0.180845,0.863760,0.000000,0.587947,0.061267,0.000000,0.071370,1.000000,0.554281,0.262843,1.000000
/home/daniel/Projects/ppsevolution/data/maps/custom_maps/Custom_4_Run_0_Map.csv,0.555729,1.000000,0.087006,0.047195,0.000000,0.364388,0.940102,2.000000,0.687016,0.000000,0.025588,0.000000,0.731481,0.906738,0.337613,0.000000
/home/daniel/Projects/ppsevolution/data/maps/custom_maps/Custom_4_Run_0_Map.csv,0.428572,0.690665,0.000000,0.272683,0.134748,0.242098,0.716961,0.000000,0.865766,0.470406,0.000000,0.000000,1.000000,0.881930,0.041993,0.000000
/home/daniel/Projects/ppsevolution/data/maps/custom_maps/Custom_4_Run_0_Map.csv,0.654083,1.000000,0.093382,0.000000,0.000000,0.170871,0.790629,1.000000,0.548340,0.187680,0.075107,0.000000,0.811711,0.437313,0.262118,0.000000
/home/daniel/Projects/ppsevolution/data/maps/custom_maps/Custom_4_Run_0_Map.csv,0.563877,0.961835,0.000000,0.189839,0.137091,0.000000,0.929099,0.000000,0.726291,0.114273,0.015489,0.037828,1.000000,0.789833,0.287554,1.000000
/home/daniel/Projects/ppsevolution/data/maps/custom_maps/Custom_4_Run_0_Map.csv,0.582096,1.000000,0.033760,0.102407,0.004045,0.527239,0.523612,0.000000,0.555412,0.348851,0.000000,0.064575,0.633244,1.000000,0.203219,0.000000
/home/daniel/Projects/ppsevolution/data/maps/custom_maps/Custom_4_Run_0_Map.csv,0.504162,0.444151,0.000000,0.299917,0.000000,0.000000,0.667647,2.000000,1.000000,0.035208,0.000000,0.000000,0.700433,0.719994,0.186700,1.000000
/home/daniel/Projects/ppsevolution/data/maps/custom_maps/Custom_5_Run_0_Map.csv,0.000000,0.574811,0.188166,0.168568,0.284642,0.084559,0.718606,1.000000,0.738875,0.079681,0.000000,0.000000,0.872425,0.631483,0.181009,0.000000
/home/daniel/Projects/ppsevolution/data/maps/custom_maps/Custom_5_Run_0_Map.csv,0.209455,0.985615,0.123938,0.305657,0.083541,0.119877,1.000000,2.000000,1.000000,0.171779,0.000000,0.085990,0.899006,0.453460,0.162305,0.000000
/home/daniel/Projects/ppsevolution/data/maps/custom_maps/Custom_5_Run_0_Map.csv,0.089244,1.000000,0.000000,0.363555,0.005138,0.001312,0.911837,2.000000,0.764266,0.060119,0.000000,0.044289,1.000000,0.914955,0.160558,2.000000
/home/daniel/Projects/ppsevolution/data/maps/custom_maps/Custom_5_Run_0_Map.csv,0.291395,0.765390,0.003073,0.415210,0.244418,0.000000,0.982649,0.000000,0.959280,0.097274,0.108895,0.022220,0.797717,1.000000,0.093020,0.000000
/home/daniel/Projects/ppsevolution/data/maps/custom_maps/Custom_5_Run_0_Map.csv,0.569041,0.814825,0.074686,0.347118,0.384224,0.417387,0.872130,1.000000,1.000000,0.141640,0.000000,0.246227,0.932925,0.909515,0.205502,1.000000
/home/daniel/Projects/ppsevolution/data/maps/custom_maps/Custom_5_Run_0_Map.csv,0.366630,1.000000,0.141969,0.249859,0.453036,0.242240,0.899071,0.000000,0.949518,0.094825,0.000000,0.138955,0.283705,0.838233,0.179675,1.000000
/home/daniel/Projects/ppsevolution/data/maps/custom_maps/Custom_5_Run_0_Map.csv,0.139841,0.859363,0.000000,0.428253,0.312071,0.213452,0.582940,2.000000,0.904135,0.208646,0.046651,0.015252,1.000000,0.876111,0.088000,2.000000
/home/daniel/Projects/ppsevolution/data/maps/custom_maps/Custom_5_Run_0_Map.csv,0.108484,1.000000,0.000000,0.403470,0.114325,0.204170,0.931348,1.000000,0.892433,0.000000,0.000000,0.067632,0.540436,0.956479,0.000000,0.000000
/home/daniel/Projects/ppsevolution/data/maps/custom_maps/Custom_5_Run_0_Map.csv,0.000000,1.000000,0.063815,0.292290,0.090227,0.000000,1.000000,1.000000,0.771665,0.106732,0.000000,0.000000,0.569069,0.775800,0.098774,0.000000
/home/daniel/Projects/ppsevolution/data/maps/custom_maps/Custom_5_Run_0_Map.csv,0.300275,1.000000,0.000000,0.439627,0.151987,0.498777,0.961362,0.000000,1.000000,0.227036,0.021435,0.102690,0.984904,0.697227,0.254235,1.000000
/home/daniel/Projects/ppsevolution/data/maps/custom_maps/Custom_6_Run_0_Map.csv,0.000000,0.973995,0.314112,0.540230,0.085830,0.010495,1.000000,0.000000,1.000000,0.000000,0.000000,0.498727,0.937650,0.703161,0.063738,2.000000
/home/daniel/Projects/ppsevolution/data/maps/custom_maps/Custom_6_Run_0_Map.csv,0.135387,1.000000,0.217147,0.591069,0.000000,0.000000,1.000000,2.000000,1.000000,0.017058,0.004208,0.533360,0.842868,0.873117,0.078146,2.000000
/home/daniel/Projects/ppsevolution/data/maps/custom_maps/Custom_6_Run_0_Map.csv,0.409952,0.986126,0.011367,0.643946,0.125097,0.000000,0.910258,2.000000,0.668710,0.000000,0.000000,0.642151,1.000000,1.000000,0.078117,0.000000
/home/daniel/Projects/ppsevolution/data/maps/custom_maps/Custom_6_Run_0_Map.csv,0.123517,1.000000,0.000000,0.734735,0.114719,0.079666,0.897916,0.000000,0.971923,0.120007,0.116845,0.483508,0.597613,0.912738,0.000000,2.000000
/home/daniel/Projects/ppsevolution/data/maps/custom_maps/Custom_6_Run_0_Map.csv,0.000000,0.762876,0.286018,0.556572,0.000000,0.000000,1.000000,0.000000,1.000000,0.120567,0.076706,0.437872,0.833826,0.826642,0.000000,2.000000
/home/daniel/Projects/ppsevolution/data/maps/custom_maps/Custom_6_Run_0_Map.csv,0.044155,0.743273,0.063403,0.701900,0.203873,0.033417,0.906424,2.000000,1.000000,0.033149,0.000000,0.514978,0.990057,0.919179,0.286042,2.000000
/home/daniel/Projects/ppsevolution/data/maps/custom_maps/Custom_6_Run_0_Map.csv,0.044474,0.834758,0.192055,0.626329,0.003894,0.223599,0.843115,1.000000,0.928055,0.013739,0.096843,0.436974,1.000000,0.912672,0.319088,1.000000
/home/daniel/Projects/ppsevolution/data/maps/custom_maps/Custom_6_Run_0_Map.csv,0.160621,0.894519,0.371036,0.440864,0.029064,0.016668,0.750239,0.000000,0.801867,0.000000,0.117435,0.475817,0.951867,0.833155,0.049298,0.000000
/home/daniel/Projects/ppsevolution/data/maps/custom_maps/Custom_6_Run_0_Map.csv,0.086214,1.000000,0.132713,0.593858,0.064022,0.202458,1.000000,1.000000,0.710070,0.214433,0.214085,0.376446,0.755258,0.807463,0.156150,0.000000
/home/daniel/Projects/ppsevolution/data/maps/custom_maps/Custom_6_Run_0_Map.csv,0.000000,0.929682,0.088626,0.675196,0.000000,0.321687,0.693963,1.000000,0.816421,0.343647,0.050296,0.484450,1.000000,0.699165,0.202400,2.000000
/home/daniel/Projects/ppsevolution/data/maps/custom_maps/Custom_7_Run_0_Map.csv,0.091571,0.776478,0.000000,0.483297,0.371848,0.104810,0.979813,2.000000,0.876988,0.056927,0.082854,0.035156,0.717562,0.993490,0.416791,1.000000
/home/daniel/Projects/ppsevolution/data/maps/custom_maps/Custom_7_Run_0_Map.csv,0.215202,0.787596,0.000000,0.489423,0.321176,0.530247,0.945403,0.000000,0.886143,0.157216,0.000000,0.237303,0.570055,0.976150,0.000000,2.000000
/home/daniel/Projects/ppsevolution/data/maps/custom_maps/Custom_7_Run_0_Map.csv,0.064229,0.997839,0.000000,0.522044,0.388713,0.160774,1.000000,1.000000,1.000000,0.025814,0.091532,0.074495,0.952037,0.830691,0.000000,0.000000
/home/daniel/Projects/ppsevolution/data/maps/custom_maps/Custom_7_Run_0_Map.csv,0.000000,0.645820,0.348783,0.073426,0.184255,0.139982,1.000000,2.000000,0.753110,0.000000,0.000000,0.075181,1.000000,0.413609,0.445437,0.000000
/home/daniel/Projects/ppsevolution/data/maps/custom_maps/Custom_7_Run_0_Map.csv,0.000000,1.000000,0.000000,0.439933,0.000000,0.290711,1.000000,2.000000,0.771734,0.080456,0.000000,0.131825,0.627098,0.626953,0.000000,2.000000
/home/daniel/Projects/ppsevolution/data/maps/custom_maps/Custom_7_Run_0_Map.csv,0.177831,0.547567,0.354131,0.125233,0.249091,0.127583,0.626695,0.000000,0.806268,0.020819,0.049776,0.116294,0.452935,0.567147,0.271610,2.000000
/home/daniel/Projects/ppsevolution/data/maps/custom_maps/Custom_7_Run_0_Map.csv,0.000000,0.648249,0.000000,0.479076,0.658946,0.766696,0.971820,2.000000,0.867994,0.160570,0.010942,0.115335,0.848015,0.896606,0.007929,2.000000
/home/daniel/Projects/ppsevolution/data/maps/custom_maps/Custom_7_Run_0_Map.csv,0.137430,0.677402,0.305506,0.285033,0.328957,0.019676,0.527206,2.000000,1.000000,0.549038,0.112944,0.062308,0.833632,0.934630,0.030359,2.000000
/home/daniel/Projects/ppsevolution/data/maps/custom_maps/Custom_7_Run_0_Map.csv,0.389115,1.000000,0.000000,0.441991,0.000000,0.082692,0.847329,2.000000,0.783316,0.270331,0.002046,0.312036,0.579345,1.000000,0.044001,2.000000
/home/daniel/Projects/ppsevolution/data/maps/custom_maps/Custom_7_Run_0_Map.csv,0.489609,0.991647,0.050656,0.502746,0.258994,0.082795,0.518079,0.000000,0.977327,0.103171,0.140451,0.224058,0.909221,0.653161,0.025730,1.000000
/home/daniel/Projects/ppsevolution/data/maps/custom_maps/Custom_8_Run_0_Map.csv,0.235939,0.810707,0.000000,0.346276,0.072852,0.131065,0.969911,0.000000,0.928656,0.139769,0.000000,0.000000,0.874801,1.000000,0.246280,1.000000
/home/daniel/Projects/ppsevolution/data/maps/custom_maps/Custom_8_Run_0_Map.csv,0.170711,0.952727,0.032381,0.403747,0.000000,0.384747,0.207796,0.000000,1.000000,0.556800,0.000000,0.000000,0.370213,0.857960,0.000000,1.000000
/home/daniel/Projects/ppsevolution/data/maps/custom_maps/Custom_8_Run_0_Map.csv,0.375107,0.688528,0.283482,0.016595,0.006855,0.012917,0.864395,2.000000,0.956191,0.000000,0.017075,0.020898,0.789398,0.717462,0.266041,0.000000
/home/daniel/Projects/ppsevolution/data/maps/custom_maps/Custom_8_Run_0_Map.csv,0.237381,0.620890,0.000000,0.364606,0.222076,0.242998,0.952674,0.000000,1.000000,0.138064,0.000000,0.012756,0.834418,0.317760,0.039819,0.000000
/home/daniel/Projects/ppsevolution/data/maps/custom_maps/Custom_8_Run_0_Map.csv,0.553593,0.785185,0.003124,0.250541,0.136592,0.029170,0.995577,1.000000,0.775957,0.000000,0.025364,0.130918,1.000000,0.771116,0.218650,1.000000
/home/daniel/Projects/ppsevolution/data/maps/custom_maps/Custom_8_Run_0_Map.csv,0.669063,0.804842,0.031091,0.335205,0.065478,0.259929,0.783988,0.000000,1.000000,0.099087,0.215241,0.000000,1.000000,0.879312,0.000000,0.000000
/home/daniel/Projects/ppsevolution/data/maps/custom_maps/Custom_8_Run_0_Map.csv,0.399437,0.758989,0.031383,0.231852,0.082364,0.172940,0.705982,0.000000,0.702658,0.008604,0.091846,0.000000,0.819721,0.674776,0.042426,1.000000
/home/daniel/Projects/ppsevolution/data/maps/custom_maps/Custom_8_Run_0_Map.csv,0.616733,0.749113,0.000000,0.383846,0.187214,0.525195,0.489844,1.000000,1.000000,0.352015,0.000000,0.150440,1.000000,0.691343,0.397218,1.000000
/home/daniel/Projects/ppsevolution/data/maps/custom_maps/Custom_8_Run_0_Map.csv,0.271494,0.670765,0.137191,0.167016,0.148277,0.180819,0.868377,2.000000,0.900540,0.023967,0.000000,0.000000,0.905644,0.516478,0.141102,1.000000
/home/daniel/Projects/ppsevolution/data/maps/custom_maps/Custom_8_Run_0_Map.csv,0.588540,0.880583,0.000000,0.309856,0.096387,0.853914,0.959002,1.000000,0.903630,0.230942,0.000000,0.155424,1.000000,0.901454,0.262114,1.000000
/home/daniel/Projects/ppsevolution/data/maps/custom_maps/Custom_9_Run_0_Map.csv,0.820334,1.000000,0.006887,0.038493,0.144840,0.033599,1.000000,1.000000,0.726523,0.332634,0.000000,0.184640,1.000000,0.701910,0.030472,2.000000
/home/daniel/Projects/ppsevolution/data/maps/custom_maps/Custom_9_Run_0_Map.csv,0.907698,1.000000,0.000000,0.169042,0.356925,0.359475,0.679696,0.000000,0.938831,0.217905,0.118920,0.074531,1.000000,1.000000,0.041242,0.000000
/home/daniel/Projects/ppsevolution/data/maps/custom_maps/Custom_9_Run_0_Map.csv,1.000000,0.844587,0.097494,0.000000,0.718062,0.230682,1.000000,0.000000,0.965758,0.000000,0.000000,0.227113,0.453164,0.558837,0.031641,2.000000
/home/daniel/Projects/ppsevolution/data/maps/custom_maps/Custom_9_Run_0_Map.csv,0.523111,0.922367,0.123180,0.004137,0.112087,0.264519,0.761480,1.000000,0.894957,0.283820,0.000000,0.000000,0.922868,0.574181,0.079064,1.000000
/home/daniel/Projects/ppsevolution/data/maps/custom_maps/Custom_9_Run_0_Map.csv,0.666043,0.462505,0.136456,0.000000,0.013606,0.052357,0.742078,1.000000,0.926957,0.551976,0.000000,0.076307,0.901240,0.854818,0.061310,0.000000
/home/daniel/Projects/ppsevolution/data/maps/custom_maps/Custom_9_Run_0_Map.csv,0.717859,0.854313,0.000000,0.000000,0.274706,0.313174,0.917766,1.000000,0.615653,0.209978,0.000000,0.079995,0.717763,0.973654,0.495667,1.000000
/home/daniel/Projects/ppsevolution/data/maps/custom_maps/Custom_9_Run_0_Map.csv,0.728014,0.654570,0.000000,0.179465,0.479092,0.161673,0.821984,2.000000,1.000000,0.125172,0.059263,0.000000,0.872462,0.519533,0.298985,1.000000
/home/daniel/Projects/ppsevolution/data/maps/custom_maps/Custom_9_Run_0_Map.csv,0.555384,0.565384,0.054417,0.073101,0.604616,0.042729,0.851968,2.000000,0.914987,0.000000,0.000000,0.000000,0.970878,0.817183,0.162984,0.000000
/home/daniel/Projects/ppsevolution/data/maps/custom_maps/Custom_9_Run_0_Map.csv,0.748891,0.675830,0.029084,0.080261,0.201423,0.000000,0.884883,1.000000,0.877233,0.052329,0.000000,0.125565,0.573566,1.000000,0.073740,2.000000
/home/daniel/Projects/ppsevolution/data/maps/custom_maps/Custom_9_Run_0_Map.csv,0.431413,0.814067,0.032691,0.000000,0.252990,0.223598,1.000000,0.000000,0.675477,0.000000,0.000000,0.000000,0.738790,1.000000,0.030063,0.000000
/home/daniel/Projects/ppsevolution/data/maps/custom_maps/Custom_10_Run_0_Map.csv,0.723224,1.000000,0.000000,0.347207,0.321229,0.342646,0.866418,2.000000,0.724005,0.000000,0.206526,0.157951,1.000000,0.939518,0.296443,1.000000
/home/daniel/Projects/ppsevolution/data/maps/custom_maps/Custom_10_Run_0_Map.csv,0.255761,0.632378,0.000000,0.439800,0.138305,0.147379,0.930317,2.000000,0.944258,0.006854,0.000000,0.166254,0.880829,0.723329,0.110128,1.000000
/home/daniel/Projects/ppsevolution/data/maps/custom_maps/Custom_10_Run_0_Map.csv,0.000000,1.000000,0.415906,0.000000,0.220610,0.110861,0.938805,0.000000,0.905146,0.260756,0.000000,0.000000,1.000000,0.842756,0.248624,2.000000
/home/daniel/Projects/ppsevolution/data/maps/custom_maps/Custom_10_Run_0_Map.csv,0.313811,0.776361,0.071512,0.274739,0.161225,0.122185,0.627486,2.000000,0.630972,0.069669,0.104090,0.115426,0.853128,0.796867,0.004601,0.000000
/home/daniel/Projects/ppsevolution/data/maps/custom_maps/Custom_10_Run_0_Map.csv,0.063914,0.965435,0.241357,0.238353,0.163238,0.511769,0.906606,1.000000,1.000000,0.000000,0.039830,0.000000,0.896176,0.990679,0.212998,2.000000
/home/daniel/Projects/ppsevolution/data/maps/custom_maps/Custom_10_Run_0_Map.csv,0.000000,0.800959,0.000000,0.479794,0.123020,0.000000,1.000000,1.000000,1.000000,0.226416,0.000000,0.047657,0.750547,1.000000,0.152316,0.000000
/home/daniel/Projects/ppsevolution/data/maps/custom_maps/Custom_10_Run_0_Map.csv,0.077802,0.984142,0.082118,0.410760,0.093660,0.047438,0.671721,0.000000,0.945882,0.078965,0.049724,0.000000,0.684460,1.000000,0.494540,0.000000
/home/daniel/Projects/ppsevolution/data/maps/custom_maps/Custom_10_Run_0_Map.csv,0.022424,1.000000,0.000000,0.441298,0.000000,0.575213,0.749735,0.000000,0.835780,0.003200,0.000000,0.047149,1.000000,0.495143,0.284820,2.000000
/home/daniel/Projects/ppsevolution/data/maps/custom_maps/Custom_10_Run_0_Map.csv,0.080345,0.494033,0.226526,0.271342,0.195323,0.000000,0.420596,2.000000,0.969676,0.176039,0.000000,0.066051,0.891855,0.804384,0.121899,0.000000
/home/daniel/Projects/ppsevolution/data/maps/custom_maps/Custom_10_Run_0_Map.csv,0.000000,0.642885,0.079215,0.342493,0.369333,0.035132,0.657131,2.000000,0.770508,0.168892,0.000000,0.070028,1.000000,0.981146,0.040454,0.000000
