/home/daniel/Projects/ppsEvolution/data/maps/custom_maps/Custom_1_Run_0_Map.csv,0.017021,1.000000,0.210000,0.671090,0.000000,0.209474,0.997629,0.000000,1.000000,0.000000,0.000000,0.600000,1.000000,1.000000,0.000000,0.000000
/home/daniel/Projects/ppsEvolution/data/maps/custom_maps/Custom_1_Run_0_Map.csv,0.031368,1.000000,0.165772,0.691367,0.030000,0.201330,0.892471,1.000000,1.000000,0.115189,0.000000,0.600000,0.928129,1.000000,0.000000,0.000000
/home/daniel/Projects/ppsEvolution/data/maps/custom_maps/Custom_1_Run_0_Map.csv,0.064439,0.794303,0.205228,0.662859,0.233948,0.039225,0.986057,0.000000,0.981547,0.000000,0.000000,0.600000,0.872676,1.000000,0.073483,1.000000
/home/daniel/Projects/ppsEvolution/data/maps/custom_maps/Custom_1_Run_0_Map.csv,0.045505,1.000000,0.210000,0.663564,0.030000,0.030000,1.000000,0.000000,1.000000,0.000000,0.000000,0.600000,1.000000,1.000000,0.000000,1.000000
/home/daniel/Projects/ppsEvolution/data/maps/custom_maps/Custom_1_Run_0_Map.csv,0.053163,1.000000,0.210000,0.670898,0.026163,0.030000,1.000000,0.000000,1.000000,0.105314,0.000000,0.610374,1.000000,1.000000,0.000000,0.000000
/home/daniel/Projects/ppsEvolution/data/maps/custom_maps/Custom_1_Run_0_Map.csv,0.000000,1.000000,0.210000,0.646466,0.237327,0.030000,1.000000,0.000000,0.893860,0.023881,0.000000,0.600000,1.000000,1.000000,0.000000,0.000000
/home/daniel/Projects/ppsEvolution/data/maps/custom_maps/Custom_1_Run_0_Map.csv,0.000000,1.000000,0.210000,0.678411,0.030000,0.030000,0.882635,0.000000,1.000000,0.000000,0.000000,0.600000,1.000000,1.000000,0.000000,0.000000
/home/daniel/Projects/ppsEvolution/data/maps/custom_maps/Custom_1_Run_0_Map.csv,0.000000,1.000000,0.159033,0.701139,0.030000,0.030000,1.000000,0.000000,1.000000,0.013276,0.000000,0.600000,1.000000,1.000000,0.000000,0.000000
/home/daniel/Projects/ppsEvolution/data/maps/custom_maps/Custom_1_Run_0_Map.csv,0.000000,1.000000,0.194151,0.684304,0.030000,0.175468,0.942793,0.000000,1.000000,0.000000,0.000000,0.600000,1.000000,1.000000,0.000000,0.000000
/home/daniel/Projects/ppsEvolution/data/maps/custom_maps/Custom_1_Run_0_Map.csv,0.000000,0.960157,0.000000,0.767454,0.030000,0.000000,1.000000,1.000000,1.000000,0.000000,0.000000,0.600000,1.000000,1.000000,0.056864,0.000000
/home/daniel/Projects/ppsEvolution/data/maps/custom_maps/Custom_2_Run_0_Map.csv,0.000000,1.000000,0.794805,1.000000,0.000000,0.000000,1.000000,2.000000,0.772480,0.269226,1.000000,1.000000,1.000000,0.998651,1.000000,2.000000
/home/daniel/Projects/ppsEvolution/data/maps/custom_maps/Custom_2_Run_0_Map.csv,0.000000,1.000000,0.382833,1.000000,0.000000,0.003542,1.000000,2.000000,0.932631,0.373881,1.000000,0.928103,1.000000,1.000000,1.000000,2.000000
/home/daniel/Projects/ppsEvolution/data/maps/custom_maps/Custom_2_Run_0_Map.csv,0.000000,1.000000,0.296489,1.000000,0.000000,0.000000,1.000000,2.000000,0.747332,0.000000,1.000000,0.931723,0.998053,1.000000,1.000000,2.000000
/home/daniel/Projects/ppsEvolution/data/maps/custom_maps/Custom_2_Run_0_Map.csv,0.000000,1.000000,0.326493,1.000000,0.000000,0.000000,1.000000,2.000000,0.893163,0.383599,1.000000,0.920849,1.000000,1.000000,0.997994,2.000000
/home/daniel/Projects/ppsEvolution/data/maps/custom_maps/Custom_2_Run_0_Map.csv,0.000000,1.000000,0.491762,1.000000,0.000000,0.000000,1.000000,2.000000,0.668076,0.445104,1.000000,0.967159,1.000000,1.000000,1.000000,2.000000
/home/daniel/Projects/ppsEvolution/data/maps/custom_maps/Custom_2_Run_0_Map.csv,0.003515,1.000000,0.730509,1.000000,0.000000,0.000000,1.000000,2.000000,0.692042,0.614036,1.000000,1.000000,1.000000,1.000000,1.000000,2.000000
/home/daniel/Projects/ppsEvolution/data/maps/custom_maps/Custom_2_Run_0_Map.csv,0.000000,1.000000,0.549444,1.000000,0.000000,0.000000,1.000000,2.000000,0.902163,0.146960,1.000000,0.955424,1.000000,1.000000,1.000000,2.000000
/home/daniel/Projects/ppsEvolution/data/maps/custom_maps/Custom_2_Run_0_Map.csv,0.000000,1.000000,0.619508,1.000000,0.000000,0.000000,1.000000,2.000000,0.881914,0.347652,1.000000,0.970314,1.000000,1.000000,1.000000,2.000000
/home/daniel/Projects/ppsEvolution/data/maps/custom_maps/Custom_2_Run_0_Map.csv,0.000000,1.000000,0.764890,1.000000,0.000000,0.000000,1.000000,2.000000,0.710402,0.168082,1.000000,1.000000,1.000000,1.000000,1.000000,2.000000
/home/daniel/Projects/ppsEvolution/data/maps/custom_maps/Custom_2_Run_0_Map.csv,0.000000,1.000000,0.594848,1.000000,0.000000,0.000000,1.000000,2.000000,0.439474,0.596003,1.000000,1.000000,1.000000,1.000000,1.000000,2.000000
/home/daniel/Projects/ppsEvolution/data/maps/custom_maps/Custom_3_Run_0_Map.csv,0.000000,1.000000,0.865324,0.999836,0.000000,0.000000,1.000000,2.000000,0.480010,0.011673,1.000000,1.000000,1.000000,0.000000,1.000000,2.000000
/home/daniel/Projects/ppsEvolution/data/maps/custom_maps/Custom_3_Run_0_Map.csv,0.000000,1.000000,0.796191,1.000000,0.000000,0.000000,1.000000,2.000000,0.334639,0.000000,1.000000,1.000000,1.000000,0.000000,1.000000,2.000000
/home/daniel/Projects/ppsEvolution/data/maps/custom_maps/Custom_3_Run_0_Map.csv,0.000000,1.000000,0.717435,1.000000,0.000000,0.000000,1.000000,2.000000,0.204271,0.000000,1.000000,1.000000,1.000000,0.000000,1.000000,2.000000
/home/daniel/Projects/ppsEvolution/data/maps/custom_maps/Custom_3_Run_0_Map.csv,0.000000,1.000000,0.705951,0.995417,0.000000,0.000000,1.000000,2.000000,0.090502,0.000000,1.000000,1.000000,1.000000,0.000000,1.000000,2.000000
/home/daniel/Projects/ppsEvolution/data/maps/custom_maps/Custom_3_Run_0_Map.csv,0.000000,1.000000,0.691970,1.000000,0.000000,0.000000,1.000000,2.000000,0.151393,0.000000,1.000000,1.000000,1.000000,0.000000,1.000000,2.000000
/home/daniel/Projects/ppsEvolution/data/maps/custom_maps/Custom_3_Run_0_Map.csv,0.000000,0.773963,1.000000,0.969553,0.000000,0.000000,1.000000,2.000000,0.000000,0.000000,1.000000,1.000000,1.000000,0.000000,1.000000,2.000000
/home/daniel/Projects/ppsEvolution/data/maps/custom_maps/Custom_3_Run_0_Map.csv,0.000000,1.000000,0.796901,1.000000,0.000000,0.000000,1.000000,2.000000,0.305777,0.000000,1.000000,1.000000,1.000000,0.000000,1.000000,2.000000
/home/daniel/Projects/ppsEvolution/data/maps/custom_maps/Custom_3_Run_0_Map.csv,0.000000,0.998875,0.958938,1.000000,0.000000,0.000000,1.000000,2.000000,0.622090,0.000000,1.000000,1.000000,1.000000,0.000000,1.000000,2.000000
/home/daniel/Projects/ppsEvolution/data/maps/custom_maps/Custom_3_Run_0_Map.csv,0.000000,1.000000,1.000000,0.970310,0.000000,0.000000,1.000000,2.000000,0.000000,0.000000,1.000000,1.000000,1.000000,0.000000,1.000000,2.000000
/home/daniel/Projects/ppsEvolution/data/maps/custom_maps/Custom_3_Run_0_Map.csv,0.000000,0.995120,0.728084,1.000000,0.000000,0.000000,1.000000,2.000000,0.224771,0.000000,1.000000,1.000000,1.000000,0.000000,1.000000,2.000000
/home/daniel/Projects/ppsEvolution/data/maps/custom_maps/Custom_4_Run_0_Map.csv,0.000000,1.000000,0.289311,0.743463,0.030000,0.030000,1.000000,0.000000,1.000000,0.000000,0.133495,0.600000,0.872936,1.000000,0.000000,0.000000
/home/daniel/Projects/ppsEvolution/data/maps/custom_maps/Custom_4_Run_0_Map.csv,0.115951,0.883604,0.210000,0.773892,0.030000,0.030000,0.861603,1.000000,1.000000,0.109527,0.156580,0.620967,0.987176,1.000000,0.000000,0.000000
/home/daniel/Projects/ppsEvolution/data/maps/custom_maps/Custom_4_Run_0_Map.csv,0.000000,0.930557,0.133438,0.789404,0.271728,0.030000,1.000000,1.000000,1.000000,0.000000,0.123404,0.600000,0.892130,1.000000,0.000000,2.000000
/home/daniel/Projects/ppsEvolution/data/maps/custom_maps/Custom_4_Run_0_Map.csv,0.000000,1.000000,0.210000,0.762348,0.204947,0.000000,1.000000,1.000000,1.000000,0.000000,0.034785,0.636078,1.000000,1.000000,0.011295,2.000000
/home/daniel/Projects/ppsEvolution/data/maps/custom_maps/Custom_4_Run_0_Map.csv,0.018731,0.900465,0.210000,0.800000,0.030000,0.027314,0.615237,0.000000,1.000000,0.000000,0.218315,0.592147,0.889939,0.890217,0.000000,0.000000
/home/daniel/Projects/ppsEvolution/data/maps/custom_maps/Custom_4_Run_0_Map.csv,0.056464,1.000000,0.082608,0.800000,0.056751,0.000000,1.000000,2.000000,1.000000,0.072928,0.089386,0.632546,0.920023,0.939659,0.000000,1.000000
/home/daniel/Projects/ppsEvolution/data/maps/custom_maps/Custom_4_Run_0_Map.csv,0.063225,1.000000,0.210000,0.800000,0.126476,0.211929,0.711976,0.000000,1.000000,0.000000,0.000000,0.700558,1.000000,0.972298,0.000000,0.000000
/home/daniel/Projects/ppsEvolution/data/maps/custom_maps/Custom_4_Run_0_Map.csv,0.000000,1.000000,0.168546,0.800000,0.198137,0.030000,1.000000,0.000000,1.000000,0.000000,0.000000,0.677385,0.938857,0.835838,0.036350,0.000000
/home/daniel/Projects/ppsEvolution/data/maps/custom_maps/Custom_4_Run_0_Map.csv,0.000000,1.000000,0.139913,0.800000,0.164484,0.030000,1.000000,0.000000,1.000000,0.000000,0.000000,0.666373,1.000000,1.000000,0.000000,2.000000
/home/daniel/Projects/ppsEvolution/data/maps/custom_maps/Custom_4_Run_0_Map.csv,0.000000,0.835352,0.167851,0.800000,0.015540,0.030000,1.000000,0.000000,1.000000,0.000000,0.000000,0.680652,1.000000,1.000000,0.000000,0.000000
/home/daniel/Projects/ppsEvolution/data/maps/custom_maps/Custom_5_Run_0_Map.csv,0.000000,1.000000,0.480807,0.910254,0.000000,0.000000,1.000000,2.000000,0.789706,0.000000,0.748840,0.798911,1.000000,1.000000,1.000000,2.000000
/home/daniel/Projects/ppsEvolution/data/maps/custom_maps/Custom_5_Run_0_Map.csv,0.027964,1.000000,0.905715,0.815378,0.000000,0.384876,1.000000,2.000000,0.837052,0.142401,0.363237,0.829789,0.984379,0.561061,0.463149,2.000000
/home/daniel/Projects/ppsEvolution/data/maps/custom_maps/Custom_5_Run_0_Map.csv,0.076833,0.988151,0.423013,0.849687,0.000000,0.166615,1.000000,2.000000,0.354004,0.000000,0.117598,0.880955,0.732188,0.844932,1.000000,2.000000
/home/daniel/Projects/ppsEvolution/data/maps/custom_maps/Custom_5_Run_0_Map.csv,0.000000,0.979207,0.412031,0.880251,0.000000,0.072847,1.000000,2.000000,0.430376,0.438118,0.571640,0.798965,0.827066,0.344463,0.933067,1.000000
/home/daniel/Projects/ppsEvolution/data/maps/custom_maps/Custom_5_Run_0_Map.csv,0.000000,0.872948,0.511264,0.861882,0.000000,0.000000,0.995422,2.000000,0.465676,0.000000,0.304770,0.858816,0.963699,0.905703,0.546140,2.000000
/home/daniel/Projects/ppsEvolution/data/maps/custom_maps/Custom_5_Run_0_Map.csv,0.011552,0.829064,0.721786,0.808412,0.000000,0.096998,1.000000,2.000000,0.203939,0.078870,0.791596,0.792958,0.999340,0.756867,0.137642,1.000000
/home/daniel/Projects/ppsEvolution/data/maps/custom_maps/Custom_5_Run_0_Map.csv,0.000000,0.924685,0.694883,0.877528,0.000000,0.030000,1.000000,2.000000,0.980341,0.000000,0.226848,0.867970,0.937306,0.842431,0.369742,2.000000
/home/daniel/Projects/ppsEvolution/data/maps/custom_maps/Custom_5_Run_0_Map.csv,0.000000,1.000000,0.617906,0.837268,0.035170,0.000000,1.000000,2.000000,0.673907,0.000000,0.305172,0.826281,0.931087,1.000000,1.000000,2.000000
/home/daniel/Projects/ppsEvolution/data/maps/custom_maps/Custom_5_Run_0_Map.csv,0.000000,0.919735,0.581924,0.900058,0.000000,0.279976,0.948845,2.000000,0.792537,0.000000,0.295599,0.881036,1.000000,0.728589,0.032369,2.000000
/home/daniel/Projects/ppsEvolution/data/maps/custom_maps/Custom_5_Run_0_Map.csv,0.000000,1.000000,0.000000,1.000000,0.000000,0.137240,1.000000,2.000000,0.734425,0.000000,0.316480,0.938799,1.000000,1.000000,0.251282,2.000000
/home/daniel/Projects/ppsEvolution/data/maps/custom_maps/Custom_6_Run_0_Map.csv,0.000000,1.000000,0.000000,1.000000,0.000000,0.000000,0.773474,2.000000,1.000000,0.438878,1.000000,0.894729,1.000000,1.000000,1.000000,2.000000
/home/daniel/Projects/ppsEvolution/data/maps/custom_maps/Custom_6_Run_0_Map.csv,0.065839,1.000000,0.000000,1.000000,0.000000,0.000000,0.672993,2.000000,1.000000,0.323756,1.000000,0.902818,1.000000,1.000000,1.000000,2.000000
/home/daniel/Projects/ppsEvolution/data/maps/custom_maps/Custom_6_Run_0_Map.csv,0.049871,1.000000,0.000000,1.000000,0.000000,0.000000,0.503351,2.000000,1.000000,0.317909,1.000000,0.902671,1.000000,1.000000,1.000000,2.000000
/home/daniel/Projects/ppsEvolution/data/maps/custom_maps/Custom_6_Run_0_Map.csv,0.058541,1.000000,0.000000,1.000000,0.000000,0.000000,0.267828,2.000000,1.000000,0.548571,1.000000,0.907469,1.000000,1.000000,1.000000,2.000000
/home/daniel/Projects/ppsEvolution/data/maps/custom_maps/Custom_6_Run_0_Map.csv,0.152859,1.000000,0.000000,1.000000,0.000000,0.000000,0.000000,2.000000,1.000000,0.076787,1.000000,0.918766,1.000000,1.000000,1.000000,2.000000
/home/daniel/Projects/ppsEvolution/data/maps/custom_maps/Custom_6_Run_0_Map.csv,0.000000,1.000000,0.000000,1.000000,0.000000,0.000000,0.952775,2.000000,1.000000,0.128123,1.000000,0.898098,1.000000,1.000000,1.000000,2.000000
/home/daniel/Projects/ppsEvolution/data/maps/custom_maps/Custom_6_Run_0_Map.csv,0.111043,1.000000,0.000000,1.000000,0.000000,0.000000,0.222266,2.000000,1.000000,0.218515,1.000000,0.911159,1.000000,1.000000,1.000000,2.000000
/home/daniel/Projects/ppsEvolution/data/maps/custom_maps/Custom_6_Run_0_Map.csv,0.067260,1.000000,0.000000,1.000000,0.000000,0.000000,0.717300,2.000000,1.000000,0.272087,1.000000,0.902140,1.000000,1.000000,1.000000,2.000000
/home/daniel/Projects/ppsEvolution/data/maps/custom_maps/Custom_6_Run_0_Map.csv,0.112933,1.000000,0.000000,1.000000,0.000000,0.000000,0.277365,2.000000,1.000000,0.822561,1.000000,0.912792,1.000000,1.000000,1.000000,2.000000
/home/daniel/Projects/ppsEvolution/data/maps/custom_maps/Custom_6_Run_0_Map.csv,0.000000,1.000000,0.000000,1.000000,0.000000,0.000000,0.721216,2.000000,1.000000,0.358992,1.000000,0.898305,1.000000,1.000000,1.000000,2.000000
/home/daniel/Projects/ppsEvolution/data/maps/custom_maps/Custom_7_Run_0_Map.csv,0.000000,0.943402,0.307524,0.887871,0.000000,0.000000,1.000000,2.000000,0.725209,0.000000,0.368660,0.807861,1.000000,1.000000,1.000000,2.000000
/home/daniel/Projects/ppsEvolution/data/maps/custom_maps/Custom_7_Run_0_Map.csv,0.000000,1.000000,0.357510,0.892068,0.000000,0.588338,1.000000,2.000000,0.738940,0.017447,1.000000,0.701207,1.000000,1.000000,1.000000,2.000000
/home/daniel/Projects/ppsEvolution/data/maps/custom_maps/Custom_7_Run_0_Map.csv,0.000000,1.000000,0.270189,1.000000,0.041282,0.030000,0.890442,0.000000,1.000000,0.131809,0.029022,0.980329,0.653756,0.864421,0.000000,2.000000
/home/daniel/Projects/ppsEvolution/data/maps/custom_maps/Custom_7_Run_0_Map.csv,0.000000,1.000000,0.864435,0.850875,0.000000,0.544070,1.000000,2.000000,0.716874,0.000000,1.000000,0.780313,1.000000,1.000000,0.995547,2.000000
/home/daniel/Projects/ppsEvolution/data/maps/custom_maps/Custom_7_Run_0_Map.csv,0.003146,0.836620,0.718710,0.883180,0.000000,0.000000,1.000000,2.000000,0.589241,0.000000,0.446543,0.892346,0.826645,1.000000,1.000000,2.000000
/home/daniel/Projects/ppsEvolution/data/maps/custom_maps/Custom_7_Run_0_Map.csv,0.000000,1.000000,0.404603,0.938847,0.081499,0.170658,1.000000,2.000000,0.820253,0.000000,0.504410,0.877143,0.514922,0.716632,0.497074,2.000000
/home/daniel/Projects/ppsEvolution/data/maps/custom_maps/Custom_7_Run_0_Map.csv,0.000000,1.000000,0.259119,0.969872,0.030000,0.030000,1.000000,2.000000,1.000000,0.031095,0.066400,0.950185,0.830584,0.994681,0.246984,2.000000
/home/daniel/Projects/ppsEvolution/data/maps/custom_maps/Custom_7_Run_0_Map.csv,0.125726,0.894526,0.330216,0.969682,0.000000,0.109756,1.000000,1.000000,0.847519,0.118668,0.484329,0.920420,1.000000,0.929521,0.455533,0.000000
/home/daniel/Projects/ppsEvolution/data/maps/custom_maps/Custom_7_Run_0_Map.csv,0.117032,1.000000,0.354988,0.962521,0.048066,0.030000,0.855927,2.000000,0.898495,0.000000,0.132675,0.961243,1.000000,0.981994,0.355182,2.000000
/home/daniel/Projects/ppsEvolution/data/maps/custom_maps/Custom_7_Run_0_Map.csv,0.000000,0.865203,0.708707,0.851664,0.000000,0.031687,1.000000,2.000000,0.000000,0.113396,0.732682,0.870346,1.000000,0.962737,0.982460,2.000000
/home/daniel/Projects/ppsEvolution/data/maps/custom_maps/Custom_8_Run_0_Map.csv,0.000000,1.000000,0.210000,0.800000,0.030000,0.267804,1.000000,2.000000,1.000000,0.000000,0.163625,0.646113,1.000000,1.000000,0.085187,1.000000
/home/daniel/Projects/ppsEvolution/data/maps/custom_maps/Custom_8_Run_0_Map.csv,0.000000,0.970315,0.223497,0.800000,0.030000,0.030000,0.836722,2.000000,0.944832,0.000000,0.268786,0.615462,0.988255,1.000000,0.000000,0.000000
/home/daniel/Projects/ppsEvolution/data/maps/custom_maps/Custom_8_Run_0_Map.csv,0.000000,0.991479,0.280696,0.771461,0.084885,0.000000,1.000000,2.000000,1.000000,0.000000,0.063462,0.683883,0.834328,1.000000,0.000000,2.000000
/home/daniel/Projects/ppsEvolution/data/maps/custom_maps/Custom_8_Run_0_Map.csv,0.004567,0.903962,0.205482,0.800000,0.000000,0.030000,1.000000,2.000000,1.000000,0.000000,0.000000,0.713190,1.000000,1.000000,0.072307,2.000000
/home/daniel/Projects/ppsEvolution/data/maps/custom_maps/Custom_8_Run_0_Map.csv,0.000000,1.000000,0.348539,0.745071,0.032800,0.076125,1.000000,2.000000,1.000000,0.000000,0.000000,0.701841,1.000000,1.000000,0.096139,2.000000
/home/daniel/Projects/ppsEvolution/data/maps/custom_maps/Custom_8_Run_0_Map.csv,0.000000,0.999402,0.210000,0.800000,0.030000,0.078205,1.000000,2.000000,1.000000,0.000000,0.270762,0.600000,1.000000,1.000000,0.000000,1.000000
/home/daniel/Projects/ppsEvolution/data/maps/custom_maps/Custom_8_Run_0_Map.csv,0.000000,0.846590,0.210000,0.800000,0.030000,0.030000,1.000000,2.000000,1.000000,0.054222,0.000000,0.714445,1.000000,1.000000,0.000000,2.000000
/home/daniel/Projects/ppsEvolution/data/maps/custom_maps/Custom_8_Run_0_Map.csv,0.000000,1.000000,0.210000,0.800000,0.010043,0.000000,1.000000,2.000000,1.000000,0.000000,0.031748,0.701080,1.000000,0.810994,0.000000,2.000000
/home/daniel/Projects/ppsEvolution/data/maps/custom_maps/Custom_8_Run_0_Map.csv,0.008032,0.957220,0.348398,0.800000,0.030000,0.088324,0.831293,0.000000,1.000000,0.000000,0.000000,0.756338,0.822666,1.000000,0.000000,0.000000
/home/daniel/Projects/ppsEvolution/data/maps/custom_maps/Custom_8_Run_0_Map.csv,0.000000,1.000000,0.210000,0.800000,0.030000,0.030000,1.000000,2.000000,1.000000,0.000000,0.209465,0.626411,1.000000,0.958834,0.062978,1.000000
/home/daniel/Projects/ppsEvolution/data/maps/custom_maps/Custom_9_Run_0_Map.csv,0.000000,1.000000,0.086027,0.783069,0.030000,0.034480,1.000000,0.000000,1.000000,0.000000,0.120579,0.600000,1.000000,1.000000,0.000000,2.000000
/home/daniel/Projects/ppsEvolution/data/maps/custom_maps/Custom_9_Run_0_Map.csv,0.031654,1.000000,0.251468,0.678069,0.146609,0.000000,0.917211,2.000000,0.934647,0.000000,0.079393,0.600000,1.000000,0.910168,0.000000,2.000000
/home/daniel/Projects/ppsEvolution/data/maps/custom_maps/Custom_9_Run_0_Map.csv,0.000000,0.864219,0.171919,0.730415,0.030000,0.030000,1.000000,2.000000,1.000000,0.000000,0.000000,0.641021,1.000000,0.931165,0.000000,0.000000
/home/daniel/Projects/ppsEvolution/data/maps/custom_maps/Custom_9_Run_0_Map.csv,0.000000,1.000000,0.265271,0.671991,0.111530,0.030000,1.000000,2.000000,0.975973,0.000000,0.018688,0.600000,0.985213,1.000000,0.267225,2.000000
/home/daniel/Projects/ppsEvolution/data/maps/custom_maps/Custom_9_Run_0_Map.csv,0.000000,1.000000,0.210000,0.711098,0.030000,0.279575,0.813883,0.000000,0.841717,0.062360,0.107147,0.600000,0.981277,0.781348,0.000000,2.000000
/home/daniel/Projects/ppsEvolution/data/maps/custom_maps/Custom_9_Run_0_Map.csv,0.041914,1.000000,0.257508,0.715989,0.102504,0.030000,0.853959,1.000000,1.000000,0.010665,0.048227,0.645545,0.912301,0.807758,0.000000,0.000000
/home/daniel/Projects/ppsEvolution/data/maps/custom_maps/Custom_9_Run_0_Map.csv,0.027998,1.000000,0.264152,0.718118,0.099411,0.000000,0.957189,0.000000,1.000000,0.000000,0.142777,0.600000,1.000000,1.000000,0.000000,0.000000
/home/daniel/Projects/ppsEvolution/data/maps/custom_maps/Custom_9_Run_0_Map.csv,0.000000,0.980476,0.210000,0.737372,0.000000,0.042951,0.988096,0.000000,1.000000,0.181004,0.000000,0.653620,0.910644,0.956242,0.000000,1.000000
/home/daniel/Projects/ppsEvolution/data/maps/custom_maps/Custom_9_Run_0_Map.csv,0.000000,1.000000,0.082429,0.796605,0.000000,0.030000,1.000000,0.000000,1.000000,0.118615,0.026417,0.662624,1.000000,1.000000,0.000000,0.000000
/home/daniel/Projects/ppsEvolution/data/maps/custom_maps/Custom_9_Run_0_Map.csv,0.000000,0.790119,0.298048,0.682488,0.030000,0.018872,1.000000,0.000000,0.915042,0.000000,0.156174,0.585211,1.000000,1.000000,0.000000,0.000000
/home/daniel/Projects/ppsEvolution/data/maps/custom_maps/Custom_10_Run_0_Map.csv,0.000000,1.000000,0.609654,1.000000,0.000000,0.008197,1.000000,2.000000,0.375512,0.139111,0.565456,1.000000,0.943088,0.575514,0.280990,2.000000
/home/daniel/Projects/ppsEvolution/data/maps/custom_maps/Custom_10_Run_0_Map.csv,0.063886,1.000000,1.000000,0.968006,0.000000,0.049281,1.000000,2.000000,0.509265,0.145375,0.678375,0.985856,1.000000,0.520919,0.625752,2.000000
/home/daniel/Projects/ppsEvolution/data/maps/custom_maps/Custom_10_Run_0_Map.csv,0.088874,0.976276,0.748709,0.976206,0.000000,0.158255,1.000000,2.000000,0.293274,0.027979,0.662518,1.000000,0.849597,1.000000,0.845475,1.000000
/home/daniel/Projects/ppsEvolution/data/maps/custom_maps/Custom_10_Run_0_Map.csv,0.000000,1.000000,1.000000,0.978523,0.000000,0.291431,1.000000,2.000000,0.974319,0.016668,0.242402,1.000000,1.000000,0.707092,0.674735,2.000000
/home/daniel/Projects/ppsEvolution/data/maps/custom_maps/Custom_10_Run_0_Map.csv,0.000000,0.960012,0.935249,1.000000,0.000000,0.348387,1.000000,2.000000,0.699939,0.105315,1.000000,1.000000,0.896434,0.951162,0.366401,1.000000
/home/daniel/Projects/ppsEvolution/data/maps/custom_maps/Custom_10_Run_0_Map.csv,0.038460,0.909972,0.927832,0.959074,0.092652,0.125630,1.000000,2.000000,0.297285,0.000000,0.539144,1.000000,0.917492,1.000000,0.449561,0.000000
/home/daniel/Projects/ppsEvolution/data/maps/custom_maps/Custom_10_Run_0_Map.csv,0.005402,0.458298,0.703021,1.000000,0.030861,0.000000,1.000000,2.000000,0.617024,0.140543,0.550514,1.000000,1.000000,0.545148,1.000000,2.000000
/home/daniel/Projects/ppsEvolution/data/maps/custom_maps/Custom_10_Run_0_Map.csv,0.003223,1.000000,0.453026,0.983901,0.000000,0.524086,1.000000,2.000000,0.148725,0.052224,0.370048,1.000000,1.000000,0.893154,0.694853,2.000000
/home/daniel/Projects/ppsEvolution/data/maps/custom_maps/Custom_10_Run_0_Map.csv,0.016176,0.740133,0.813740,0.989269,0.002310,0.152650,1.000000,2.000000,0.536582,0.000000,0.505384,1.000000,0.965768,0.877732,0.079164,2.000000
/home/daniel/Projects/ppsEvolution/data/maps/custom_maps/Custom_10_Run_0_Map.csv,0.142589,1.000000,0.829111,1.000000,0.148534,0.000000,0.968544,2.000000,0.661566,0.208772,1.000000,1.000000,1.000000,0.814807,0.733442,2.000000
