/home/daniel/Projects/ppsevolution/data/maps/custom_maps/Custom_1_Run_0_Map.csv,0.000000,1.000000,0.215561,0.672001,0.030000,0.000000,0.800522,1.000000,1.000000,0.224462,0.000000,0.594714,1.000000,0.858002,0.002867,0.000000
/home/daniel/Projects/ppsevolution/data/maps/custom_maps/Custom_1_Run_0_Map.csv,0.000000,0.861886,0.230107,0.668147,0.030000,0.000000,0.880168,0.000000,1.000000,0.066020,0.000000,0.600000,1.000000,0.946080,0.000000,0.000000
/home/daniel/Projects/ppsevolution/data/maps/custom_maps/Custom_1_Run_0_Map.csv,0.037688,1.000000,0.210000,0.659526,0.217679,0.000000,1.000000,0.000000,1.000000,0.068189,0.000000,0.578882,0.825868,0.938193,0.154290,2.000000
/home/daniel/Projects/ppsevolution/data/maps/custom_maps/Custom_1_Run_0_Map.csv,0.000000,1.000000,0.239850,0.629356,0.227409,0.000000,0.981404,0.000000,0.891714,0.206291,0.000000,0.600000,0.973457,0.818587,0.000000,0.000000
/home/daniel/Projects/ppsevolution/data/maps/custom_maps/Custom_1_Run_0_Map.csv,0.047831,0.771682,0.135812,0.698736,0.000000,0.057071,1.000000,0.000000,0.945986,0.115316,0.000000,0.611294,0.936548,0.940503,0.000000,0.000000
/home/daniel/Projects/ppsevolution/data/maps/custom_maps/Custom_1_Run_0_Map.csv,0.000000,0.926468,0.222420,0.670307,0.000000,0.116216,0.746230,1.000000,1.000000,0.000000,0.000172,0.597388,1.000000,1.000000,0.000000,0.000000
/home/daniel/Projects/ppsevolution/data/maps/custom_maps/Custom_1_Run_0_Map.csv,0.013984,1.000000,0.259634,0.639903,0.132702,0.000000,0.812807,0.000000,0.963099,0.274304,0.066203,0.555157,0.996041,1.000000,0.000000,1.000000
/home/daniel/Projects/ppsevolution/data/maps/custom_maps/Custom_1_Run_0_Map.csv,0.000000,0.592859,0.210000,0.679829,0.000000,0.000000,0.891246,0.000000,1.000000,0.188323,0.000000,0.596598,1.000000,0.685384,0.031193,0.000000
/home/daniel/Projects/ppsevolution/data/maps/custom_maps/Custom_1_Run_0_Map.csv,0.000000,1.000000,0.210000,0.625519,0.030000,0.030000,0.882268,2.000000,0.882637,0.000000,0.090230,0.517756,1.000000,1.000000,0.074244,1.000000
/home/daniel/Projects/ppsevolution/data/maps/custom_maps/Custom_1_Run_0_Map.csv,0.064363,0.893079,0.161293,0.684421,0.030000,0.030000,1.000000,1.000000,1.000000,0.163577,0.000000,0.600000,1.000000,1.000000,0.000000,1.000000
/home/daniel/Projects/ppsevolution/data/maps/custom_maps/Custom_2_Run_0_Map.csv,0.000000,1.000000,0.564376,1.000000,0.000000,0.002547,0.952596,2.000000,0.369393,0.069770,1.000000,1.000000,1.000000,1.000000,0.982800,2.000000
/home/daniel/Projects/ppsevolution/data/maps/custom_maps/Custom_2_Run_0_Map.csv,0.000000,1.000000,0.451278,1.000000,0.000000,0.000000,1.000000,2.000000,0.850844,0.000000,1.000000,0.947722,1.000000,1.000000,0.984558,2.000000
/home/daniel/Projects/ppsevolution/data/maps/custom_maps/Custom_2_Run_0_Map.csv,0.000000,0.919371,0.612819,1.000000,0.000000,0.000000,1.000000,2.000000,0.467845,0.000000,1.000000,1.000000,1.000000,0.991774,0.978360,2.000000
/home/daniel/Projects/ppsevolution/data/maps/custom_maps/Custom_2_Run_0_Map.csv,0.000000,0.962066,0.367262,1.000000,0.000000,0.005157,1.000000,2.000000,0.741439,0.372477,1.000000,0.941794,1.000000,1.000000,1.000000,2.000000
/home/daniel/Projects/ppsevolution/data/maps/custom_maps/Custom_2_Run_0_Map.csv,0.000000,1.000000,0.864515,1.000000,0.000000,0.000000,1.000000,2.000000,0.888912,0.338991,1.000000,1.000000,0.931746,1.000000,1.000000,2.000000
/home/daniel/Projects/ppsevolution/data/maps/custom_maps/Custom_2_Run_0_Map.csv,0.004726,0.984337,0.638937,1.000000,0.012112,0.000000,1.000000,2.000000,0.500647,0.388064,1.000000,1.000000,1.000000,1.000000,0.992650,2.000000
/home/daniel/Projects/ppsevolution/data/maps/custom_maps/Custom_2_Run_0_Map.csv,0.000000,0.866112,0.587629,1.000000,0.000000,0.023482,1.000000,2.000000,0.410072,0.231544,1.000000,1.000000,1.000000,0.947051,1.000000,2.000000
/home/daniel/Projects/ppsevolution/data/maps/custom_maps/Custom_2_Run_0_Map.csv,0.000000,0.951983,0.338814,1.000000,0.000000,0.000000,0.975113,2.000000,0.767457,0.168016,1.000000,0.934803,0.934626,0.871339,1.000000,2.000000
/home/daniel/Projects/ppsevolution/data/maps/custom_maps/Custom_2_Run_0_Map.csv,0.000000,1.000000,0.764623,1.000000,0.000000,0.000000,1.000000,2.000000,0.716328,0.000000,1.000000,1.000000,1.000000,0.985696,1.000000,2.000000
/home/daniel/Projects/ppsevolution/data/maps/custom_maps/Custom_2_Run_0_Map.csv,0.000000,0.971955,0.747733,1.000000,0.002670,0.000000,1.000000,2.000000,0.716798,0.485432,1.000000,1.000000,1.000000,0.991254,1.000000,2.000000
/home/daniel/Projects/ppsevolution/data/maps/custom_maps/Custom_3_Run_0_Map.csv,0.000000,0.908336,0.665736,0.995333,0.000000,0.031142,1.000000,2.000000,0.000000,0.010576,1.000000,1.000000,0.986892,0.000000,1.000000,2.000000
/home/daniel/Projects/ppsevolution/data/maps/custom_maps/Custom_3_Run_0_Map.csv,0.000000,1.000000,0.926410,0.996434,0.000000,0.090050,0.990337,2.000000,0.491470,0.000000,1.000000,1.000000,1.000000,0.000000,1.000000,2.000000
/home/daniel/Projects/ppsevolution/data/maps/custom_maps/Custom_3_Run_0_Map.csv,0.000000,0.992580,0.583641,1.000000,0.000000,0.000000,1.000000,2.000000,0.000000,0.000000,1.000000,1.000000,1.000000,0.000000,1.000000,2.000000
/home/daniel/Projects/ppsevolution/data/maps/custom_maps/Custom_3_Run_0_Map.csv,0.000000,1.000000,0.620729,1.000000,0.000000,0.000000,1.000000,2.000000,0.033710,0.000000,1.000000,1.000000,0.994677,0.000000,1.000000,2.000000
/home/daniel/Projects/ppsevolution/data/maps/custom_maps/Custom_3_Run_0_Map.csv,0.000000,0.962005,0.735010,1.000000,0.024749,0.000000,1.000000,2.000000,0.293797,0.383829,1.000000,1.000000,1.000000,0.333900,0.955681,2.000000
/home/daniel/Projects/ppsevolution/data/maps/custom_maps/Custom_3_Run_0_Map.csv,0.000000,1.000000,0.831601,0.989248,0.000000,0.000000,1.000000,2.000000,0.213607,0.000000,1.000000,1.000000,0.966908,0.000000,1.000000,2.000000
/home/daniel/Projects/ppsevolution/data/maps/custom_maps/Custom_3_Run_0_Map.csv,0.000000,0.860651,0.903846,0.980393,0.000000,0.000000,1.000000,2.000000,0.037948,0.066400,1.000000,1.000000,0.744874,0.000000,1.000000,2.000000
/home/daniel/Projects/ppsevolution/data/maps/custom_maps/Custom_3_Run_0_Map.csv,0.000000,0.991786,0.620272,1.000000,0.000000,0.094593,1.000000,2.000000,0.000000,0.000000,1.000000,1.000000,1.000000,0.000000,1.000000,2.000000
/home/daniel/Projects/ppsevolution/data/maps/custom_maps/Custom_3_Run_0_Map.csv,0.000000,1.000000,0.591186,1.000000,0.000000,0.017079,1.000000,2.000000,0.000000,0.000000,1.000000,1.000000,0.892420,0.000000,1.000000,2.000000
/home/daniel/Projects/ppsevolution/data/maps/custom_maps/Custom_3_Run_0_Map.csv,0.000000,0.957026,0.833281,0.999272,0.003176,0.000000,1.000000,2.000000,0.393699,0.071761,1.000000,1.000000,0.984288,0.000000,1.000000,2.000000
/home/daniel/Projects/ppsevolution/data/maps/custom_maps/Custom_4_Run_0_Map.csv,0.000000,1.000000,0.154826,0.800000,0.138743,0.050366,1.000000,0.000000,0.984726,0.002809,0.000000,0.677330,1.000000,0.972125,0.023633,0.000000
/home/daniel/Projects/ppsevolution/data/maps/custom_maps/Custom_4_Run_0_Map.csv,0.000000,0.988205,0.059163,0.800000,0.102471,0.147778,1.000000,1.000000,0.895064,0.000000,0.023060,0.651819,0.970450,0.934971,0.000000,2.000000
/home/daniel/Projects/ppsevolution/data/maps/custom_maps/Custom_4_Run_0_Map.csv,0.107532,1.000000,0.210000,0.762103,0.003561,0.183443,1.000000,0.000000,0.910177,0.015053,0.124547,0.637593,0.832319,1.000000,0.000000,0.000000
/home/daniel/Projects/ppsevolution/data/maps/custom_maps/Custom_4_Run_0_Map.csv,0.000000,1.000000,0.119020,0.809507,0.030000,0.030000,0.876778,1.000000,1.000000,0.000000,0.000000,0.673886,1.000000,0.988842,0.160346,0.000000
/home/daniel/Projects/ppsevolution/data/maps/custom_maps/Custom_4_Run_0_Map.csv,0.000000,1.000000,0.309567,0.735503,0.071750,0.065603,1.000000,0.000000,1.000000,0.248177,0.034660,0.637736,0.870474,1.000000,0.074703,1.000000
/home/daniel/Projects/ppsevolution/data/maps/custom_maps/Custom_4_Run_0_Map.csv,0.000000,1.000000,0.170137,0.793066,0.191024,0.031104,0.867053,0.000000,1.000000,0.000000,0.137058,0.600000,1.000000,1.000000,0.159679,1.000000
/home/daniel/Projects/ppsevolution/data/maps/custom_maps/Custom_4_Run_0_Map.csv,0.000000,1.000000,0.210000,0.745127,0.077648,0.030000,1.000000,0.000000,0.838243,0.045920,0.132223,0.600000,1.000000,1.000000,0.000000,1.000000
/home/daniel/Projects/ppsevolution/data/maps/custom_maps/Custom_4_Run_0_Map.csv,0.000000,1.000000,0.320244,0.709288,0.000000,0.000000,1.000000,1.000000,1.000000,0.000000,0.000000,0.629802,1.000000,1.000000,0.213970,2.000000
/home/daniel/Projects/ppsevolution/data/maps/custom_maps/Custom_4_Run_0_Map.csv,0.000000,0.952611,0.105075,0.800186,0.091164,0.030000,0.836153,2.000000,1.000000,0.000000,0.141449,0.600000,1.000000,0.945790,0.000000,1.000000
/home/daniel/Projects/ppsevolution/data/maps/custom_maps/Custom_4_Run_0_Map.csv,0.007908,0.853635,0.113471,0.800000,0.018938,0.030000,1.000000,1.000000,1.000000,0.197062,0.139195,0.601210,0.801366,0.795728,0.000000,1.000000
/home/daniel/Projects/ppsevolution/data/maps/custom_maps/Custom_5_Run_0_Map.csv,0.338532,1.000000,0.615404,0.959060,0.053710,0.094221,0.774436,0.000000,1.000000,0.121273,0.537585,0.929623,0.802891,0.893300,0.082977,0.000000
/home/daniel/Projects/ppsevolution/data/maps/custom_maps/Custom_5_Run_0_Map.csv,0.063684,0.864901,0.555886,0.910125,0.064839,0.079718,1.000000,2.000000,0.864417,0.000000,0.000000,0.935984,0.775290,0.837833,0.056224,1.000000
/home/daniel/Projects/ppsevolution/data/maps/custom_maps/Custom_5_Run_0_Map.csv,0.074237,1.000000,0.287590,1.000000,0.000000,0.097103,0.873716,0.000000,0.913223,0.331039,0.135700,0.974553,0.859655,0.931216,0.428497,1.000000
/home/daniel/Projects/ppsevolution/data/maps/custom_maps/Custom_5_Run_0_Map.csv,0.000000,1.000000,0.424530,0.991613,0.000000,0.287726,0.546916,0.000000,0.881997,0.207870,0.199386,0.969487,0.821963,0.933878,0.260540,0.000000
/home/daniel/Projects/ppsevolution/data/maps/custom_maps/Custom_5_Run_0_Map.csv,0.339375,1.000000,0.176451,1.000000,0.126513,0.127363,0.963834,0.000000,0.771899,0.035818,0.035838,1.000000,0.989935,1.000000,0.000000,2.000000
/home/daniel/Projects/ppsevolution/data/maps/custom_maps/Custom_5_Run_0_Map.csv,0.000000,0.764349,0.210000,1.000000,0.267271,0.000000,0.978118,0.000000,0.737540,0.022453,0.116731,0.973410,0.976125,1.000000,0.057985,1.000000
/home/daniel/Projects/ppsevolution/data/maps/custom_maps/Custom_5_Run_0_Map.csv,0.000000,0.911357,0.231174,1.000000,0.000000,0.105019,1.000000,0.000000,0.781177,0.036503,0.000481,0.985591,0.918891,0.876493,0.000000,1.000000
/home/daniel/Projects/ppsevolution/data/maps/custom_maps/Custom_5_Run_0_Map.csv,0.235121,0.964292,0.147116,1.000000,0.069652,0.020522,1.000000,2.000000,0.945505,0.088459,0.238343,0.965960,0.832476,0.791999,0.000000,1.000000
/home/daniel/Projects/ppsevolution/data/maps/custom_maps/Custom_5_Run_0_Map.csv,0.000000,1.000000,0.286102,1.000000,0.000000,0.029940,0.861835,0.000000,0.888581,0.166268,0.168041,0.964504,1.000000,0.844245,0.000000,2.000000
/home/daniel/Projects/ppsevolution/data/maps/custom_maps/Custom_5_Run_0_Map.csv,0.000000,0.999414,0.356786,1.000000,0.072244,0.260188,1.000000,0.000000,1.000000,0.000000,0.186506,0.962789,0.252952,1.000000,0.263023,0.000000
/home/daniel/Projects/ppsevolution/data/maps/custom_maps/Custom_6_Run_0_Map.csv,0.047690,1.000000,0.000000,1.000000,0.000000,0.000000,1.000000,2.000000,1.000000,0.000000,1.000000,0.898444,1.000000,1.000000,1.000000,2.000000
/home/daniel/Projects/ppsevolution/data/maps/custom_maps/Custom_6_Run_0_Map.csv,0.229348,0.987029,0.000000,1.000000,0.000000,0.000000,0.000000,2.000000,1.000000,0.899965,1.000000,0.932152,1.000000,1.000000,1.000000,2.000000
/home/daniel/Projects/ppsevolution/data/maps/custom_maps/Custom_6_Run_0_Map.csv,0.000000,1.000000,0.000000,1.000000,0.000000,0.000000,0.821878,2.000000,1.000000,0.213158,1.000000,0.894874,1.000000,1.000000,1.000000,2.000000
/home/daniel/Projects/ppsevolution/data/maps/custom_maps/Custom_6_Run_0_Map.csv,0.084510,1.000000,0.000000,1.000000,0.000000,0.000000,0.897038,2.000000,1.000000,0.043423,1.000000,0.910020,1.000000,1.000000,1.000000,2.000000
/home/daniel/Projects/ppsevolution/data/maps/custom_maps/Custom_6_Run_0_Map.csv,0.312221,0.962735,0.000000,1.000000,0.000000,0.000000,0.657459,2.000000,1.000000,0.242346,1.000000,0.932103,1.000000,1.000000,1.000000,2.000000
/home/daniel/Projects/ppsevolution/data/maps/custom_maps/Custom_6_Run_0_Map.csv,0.150994,0.956563,0.000000,1.000000,0.000000,0.000000,0.614662,2.000000,1.000000,0.367005,0.985495,0.913854,1.000000,1.000000,1.000000,2.000000
/home/daniel/Projects/ppsevolution/data/maps/custom_maps/Custom_6_Run_0_Map.csv,0.027948,1.000000,0.000000,1.000000,0.000000,0.015946,0.730499,2.000000,1.000000,0.100166,1.000000,0.899835,1.000000,1.000000,1.000000,2.000000
/home/daniel/Projects/ppsevolution/data/maps/custom_maps/Custom_6_Run_0_Map.csv,0.207484,1.000000,0.000000,1.000000,0.000000,0.000000,0.338190,2.000000,1.000000,0.656105,1.000000,0.920750,1.000000,1.000000,1.000000,2.000000
/home/daniel/Projects/ppsevolution/data/maps/custom_maps/Custom_6_Run_0_Map.csv,0.128124,1.000000,0.000000,1.000000,0.000000,0.000000,0.168387,2.000000,1.000000,0.306366,1.000000,0.913592,1.000000,1.000000,1.000000,2.000000
/home/daniel/Projects/ppsevolution/data/maps/custom_maps/Custom_6_Run_0_Map.csv,0.071147,1.000000,0.000000,1.000000,0.000000,0.000000,0.699163,2.000000,1.000000,0.439294,1.000000,0.902981,1.000000,1.000000,1.000000,2.000000
/home/daniel/Projects/ppsevolution/data/maps/custom_maps/Custom_7_Run_0_Map.csv,0.000000,0.881021,0.200158,1.000000,0.216822,0.158859,0.650974,0.000000,0.899537,0.037108,0.074448,0.976344,1.000000,0.943693,0.031722,2.000000
/home/daniel/Projects/ppsevolution/data/maps/custom_maps/Custom_7_Run_0_Map.csv,0.056187,1.000000,0.361014,1.000000,0.664174,0.000000,0.839058,0.000000,0.974671,0.000000,0.000000,1.000000,0.923473,1.000000,0.079273,2.000000
/home/daniel/Projects/ppsevolution/data/maps/custom_maps/Custom_7_Run_0_Map.csv,0.204017,0.785963,0.210000,0.998457,0.000000,0.108802,0.984553,0.000000,0.800057,0.014542,0.025655,1.000000,1.000000,0.824556,0.284187,2.000000
/home/daniel/Projects/ppsevolution/data/maps/custom_maps/Custom_7_Run_0_Map.csv,0.017580,0.966863,0.321340,0.959923,0.080522,0.000000,0.840408,1.000000,0.914149,0.000000,0.586787,0.869358,0.776176,0.626795,0.263125,2.000000
/home/daniel/Projects/ppsevolution/data/maps/custom_maps/Custom_7_Run_0_Map.csv,0.056825,0.931801,0.330825,0.942896,0.131573,0.242781,0.877216,2.000000,1.000000,0.259964,0.690787,0.839127,0.793405,1.000000,0.306775,2.000000
/home/daniel/Projects/ppsevolution/data/maps/custom_maps/Custom_7_Run_0_Map.csv,0.000000,0.892741,0.486493,0.972019,0.092373,0.023562,0.838977,1.000000,0.724636,0.095512,0.000000,1.000000,0.988356,1.000000,0.000000,2.000000
/home/daniel/Projects/ppsevolution/data/maps/custom_maps/Custom_7_Run_0_Map.csv,0.000000,0.909879,0.465225,0.970122,0.015144,0.163485,0.914251,1.000000,0.891705,0.000000,0.107461,0.970093,1.000000,1.000000,0.000000,2.000000
/home/daniel/Projects/ppsevolution/data/maps/custom_maps/Custom_7_Run_0_Map.csv,0.000000,1.000000,0.240670,1.000000,0.000000,0.000000,0.964979,0.000000,0.657684,0.077258,0.212025,0.980241,0.915425,0.828494,0.000000,0.000000
/home/daniel/Projects/ppsevolution/data/maps/custom_maps/Custom_7_Run_0_Map.csv,0.279555,0.707798,0.108850,1.000000,0.116233,0.230093,0.899385,0.000000,0.847841,0.463786,0.655518,0.915767,0.899993,0.770886,0.059775,0.000000
/home/daniel/Projects/ppsevolution/data/maps/custom_maps/Custom_7_Run_0_Map.csv,0.000000,1.000000,0.761153,0.938534,0.069356,0.364178,0.907203,1.000000,0.590106,0.178153,0.319496,0.961338,1.000000,0.783305,0.014022,2.000000
/home/daniel/Projects/ppsevolution/data/maps/custom_maps/Custom_8_Run_0_Map.csv,0.000000,0.859576,0.187460,0.822914,0.317793,0.107763,1.000000,1.000000,1.000000,0.000000,0.252022,0.626123,0.811172,0.903733,0.091796,1.000000
/home/daniel/Projects/ppsevolution/data/maps/custom_maps/Custom_8_Run_0_Map.csv,0.000000,0.950614,0.210000,0.800000,0.276430,0.022054,0.944406,2.000000,0.950034,0.000000,0.042108,0.706426,0.998611,0.912107,0.063483,1.000000
/home/daniel/Projects/ppsevolution/data/maps/custom_maps/Custom_8_Run_0_Map.csv,0.005372,1.000000,0.210000,0.800000,0.030000,0.001698,0.932447,1.000000,0.896912,0.055665,0.000000,0.727125,1.000000,0.915151,0.000000,2.000000
/home/daniel/Projects/ppsevolution/data/maps/custom_maps/Custom_8_Run_0_Map.csv,0.041823,1.000000,0.240717,0.800000,0.218770,0.011374,0.869970,1.000000,0.897962,0.106942,0.351950,0.600000,1.000000,1.000000,0.019183,0.000000
/home/daniel/Projects/ppsevolution/data/maps/custom_maps/Custom_8_Run_0_Map.csv,0.000000,1.000000,0.211048,0.800000,0.165587,0.030000,1.000000,2.000000,0.989066,0.222150,0.247444,0.610256,1.000000,0.829892,0.000000,1.000000
/home/daniel/Projects/ppsevolution/data/maps/custom_maps/Custom_8_Run_0_Map.csv,0.000000,0.986424,0.171287,0.817459,0.047413,0.000000,0.963144,2.000000,0.994051,0.301451,0.077935,0.691228,1.000000,0.790390,0.018869,1.000000
/home/daniel/Projects/ppsevolution/data/maps/custom_maps/Custom_8_Run_0_Map.csv,0.045277,0.842713,0.226401,0.800000,0.000000,0.022429,0.939315,2.000000,0.989495,0.284688,0.006367,0.727050,0.972877,1.000000,0.000000,1.000000
/home/daniel/Projects/ppsevolution/data/maps/custom_maps/Custom_8_Run_0_Map.csv,0.000000,1.000000,0.210000,0.800000,0.030000,0.030000,1.000000,2.000000,1.000000,0.000000,0.205526,0.632366,1.000000,1.000000,0.000000,1.000000
/home/daniel/Projects/ppsevolution/data/maps/custom_maps/Custom_8_Run_0_Map.csv,0.174079,1.000000,0.221097,0.800000,0.000000,0.000000,1.000000,2.000000,1.000000,0.075749,0.000000,0.749210,0.920279,0.945446,0.089204,1.000000
/home/daniel/Projects/ppsevolution/data/maps/custom_maps/Custom_8_Run_0_Map.csv,0.066179,1.000000,0.272866,0.800000,0.043759,0.437335,1.000000,0.000000,1.000000,0.125671,0.131381,0.684703,0.864813,0.808924,0.000000,2.000000
/home/daniel/Projects/ppsevolution/data/maps/custom_maps/Custom_9_Run_0_Map.csv,0.166970,1.000000,0.013169,0.800000,0.050069,0.030000,0.975375,1.000000,1.000000,0.262469,0.000000,0.678389,1.000000,0.987514,0.154157,2.000000
/home/daniel/Projects/ppsevolution/data/maps/custom_maps/Custom_9_Run_0_Map.csv,0.094922,0.918436,0.210000,0.674101,0.000000,0.030000,0.960455,1.000000,0.782388,0.000000,0.081751,0.622815,0.783522,1.000000,0.000000,2.000000
/home/daniel/Projects/ppsevolution/data/maps/custom_maps/Custom_9_Run_0_Map.csv,0.021364,1.000000,0.214122,0.727893,0.000000,0.000000,0.988302,0.000000,1.000000,0.015204,0.000000,0.647867,0.946712,0.968882,0.000000,2.000000
/home/daniel/Projects/ppsevolution/data/maps/custom_maps/Custom_9_Run_0_Map.csv,0.000000,1.000000,0.210000,0.722763,0.000000,0.210285,0.999438,0.000000,0.981140,0.000000,0.046101,0.613549,1.000000,0.998701,0.095222,2.000000
/home/daniel/Projects/ppsevolution/data/maps/custom_maps/Custom_9_Run_0_Map.csv,0.000000,0.938330,0.176051,0.742517,0.000000,0.000000,0.668745,1.000000,0.952027,0.000000,0.192278,0.554874,0.950675,1.000000,0.057690,1.000000
/home/daniel/Projects/ppsevolution/data/maps/custom_maps/Custom_9_Run_0_Map.csv,0.023414,1.000000,0.210000,0.714131,0.030000,0.262833,0.886843,2.000000,0.966826,0.079476,0.000000,0.649016,1.000000,0.972048,0.000000,0.000000
/home/daniel/Projects/ppsevolution/data/maps/custom_maps/Custom_9_Run_0_Map.csv,0.123192,0.927102,0.308202,0.694839,0.152398,0.131670,0.773142,0.000000,1.000000,0.000000,0.158786,0.600000,1.000000,1.000000,0.000000,2.000000
/home/daniel/Projects/ppsevolution/data/maps/custom_maps/Custom_9_Run_0_Map.csv,0.000000,1.000000,0.210000,0.722202,0.103583,0.030000,1.000000,0.000000,0.930163,0.000000,0.116591,0.600000,0.966322,1.000000,0.000000,1.000000
/home/daniel/Projects/ppsevolution/data/maps/custom_maps/Custom_9_Run_0_Map.csv,0.029315,0.946741,0.000000,0.800000,0.000000,0.000000,0.967417,2.000000,1.000000,0.013836,0.000000,0.655633,0.712527,0.666280,0.025614,1.000000
/home/daniel/Projects/ppsevolution/data/maps/custom_maps/Custom_9_Run_0_Map.csv,0.000000,0.897417,0.012276,0.791689,0.125791,0.000000,0.870971,0.000000,0.806768,0.084712,0.132261,0.600000,0.765293,1.000000,0.221116,0.000000
/home/daniel/Projects/ppsevolution/data/maps/custom_maps/Custom_10_Run_0_Map.csv,0.000000,1.000000,1.000000,1.000000,0.123294,0.000000,0.964755,2.000000,0.727856,0.131057,0.945462,1.000000,1.000000,0.764068,0.004695,2.000000
/home/daniel/Projects/ppsevolution/data/maps/custom_maps/Custom_10_Run_0_Map.csv,0.100861,1.000000,0.873420,1.000000,0.000000,0.122051,1.000000,2.000000,0.647631,0.015711,0.952263,1.000000,0.846904,0.771625,0.213672,1.000000
/home/daniel/Projects/ppsevolution/data/maps/custom_maps/Custom_10_Run_0_Map.csv,0.005818,1.000000,1.000000,0.979694,0.041404,0.000000,0.949893,2.000000,0.536371,0.525704,0.677860,1.000000,0.694280,0.750391,0.433478,1.000000
/home/daniel/Projects/ppsevolution/data/maps/custom_maps/Custom_10_Run_0_Map.csv,0.005885,1.000000,0.525141,1.000000,0.000000,0.359010,1.000000,2.000000,0.097930,0.272748,0.846082,1.000000,0.835969,0.907808,0.419439,2.000000
/home/daniel/Projects/ppsevolution/data/maps/custom_maps/Custom_10_Run_0_Map.csv,0.000000,0.663111,1.000000,1.000000,0.000000,0.335571,1.000000,2.000000,0.722326,0.160344,0.991721,1.000000,0.977297,1.000000,0.098269,2.000000
/home/daniel/Projects/ppsevolution/data/maps/custom_maps/Custom_10_Run_0_Map.csv,0.072850,0.876251,0.841105,1.000000,0.000000,0.127403,1.000000,2.000000,0.625849,0.501685,0.985910,1.000000,1.000000,0.906569,0.391953,2.000000
/home/daniel/Projects/ppsevolution/data/maps/custom_maps/Custom_10_Run_0_Map.csv,0.000000,0.769149,1.000000,1.000000,0.000000,0.479338,0.999416,2.000000,0.630239,0.012741,0.953329,1.000000,0.768227,0.386602,0.000000,0.000000
/home/daniel/Projects/ppsevolution/data/maps/custom_maps/Custom_10_Run_0_Map.csv,0.000000,0.952300,1.000000,0.964003,0.034203,0.419903,0.954095,2.000000,0.343136,0.121035,0.422630,1.000000,1.000000,0.692138,0.194856,2.000000
/home/daniel/Projects/ppsevolution/data/maps/custom_maps/Custom_10_Run_0_Map.csv,0.000000,0.748056,0.968060,1.000000,0.000000,0.831065,1.000000,2.000000,0.770083,0.115914,0.872888,1.000000,1.000000,0.921750,0.128995,1.000000
/home/daniel/Projects/ppsevolution/data/maps/custom_maps/Custom_10_Run_0_Map.csv,0.338437,1.000000,1.000000,0.966619,0.158526,0.361522,0.977549,2.000000,0.439386,0.396372,0.848331,1.000000,0.963371,0.877353,0.073222,0.000000
