/home/daniel/Projects/ppsevolution/data/maps/custom_maps/Custom_1_Run_0_Map.csv,1.000000,1.000000,0.000000,0.000000,0.033543,0.376765,0.289175,0.000000,0.915683,0.488235,0.010859,0.091871,0.777210,0.919091,0.031029,0.000000
/home/daniel/Projects/ppsevolution/data/maps/custom_maps/Custom_1_Run_0_Map.csv,0.881983,0.665852,0.000000,0.000000,0.182701,0.000000,0.627803,2.000000,1.000000,0.000000,0.000000,0.000000,0.792171,1.000000,0.316052,2.000000
/home/daniel/Projects/ppsevolution/data/maps/custom_maps/Custom_1_Run_0_Map.csv,0.941488,0.740555,0.000000,0.000000,0.185102,0.448266,0.442561,2.000000,1.000000,0.412533,0.030106,0.000000,0.365417,0.529068,0.098834,1.000000
/home/daniel/Projects/ppsevolution/data/maps/custom_maps/Custom_1_Run_0_Map.csv,0.853014,0.469017,0.000000,0.000000,0.106738,0.000000,0.674874,2.000000,1.000000,0.000000,0.000000,0.000000,0.924601,0.736284,0.262508,1.000000
/home/daniel/Projects/ppsevolution/data/maps/custom_maps/Custom_1_Run_0_Map.csv,1.000000,0.440895,0.000000,0.000000,0.107103,0.114704,0.606320,2.000000,1.000000,0.007965,0.000000,0.034038,0.983465,0.643669,0.496992,2.000000
/home/daniel/Projects/ppsevolution/data/maps/custom_maps/Custom_1_Run_0_Map.csv,0.993044,0.910259,0.000000,0.000000,0.422501,0.564181,0.421902,2.000000,1.000000,0.787705,0.000000,0.057518,0.719313,0.000000,0.104169,2.000000
/home/daniel/Projects/ppsevolution/data/maps/custom_maps/Custom_1_Run_0_Map.csv,0.983571,0.665209,0.000000,0.000000,0.073548,0.407883,0.754901,0.000000,1.000000,0.666152,0.042787,0.000000,0.847146,0.945228,0.293753,0.000000
/home/daniel/Projects/ppsevolution/data/maps/custom_maps/Custom_1_Run_0_Map.csv,0.837970,0.752683,0.000000,0.000000,0.187304,0.096209,0.634978,1.000000,0.975815,0.179860,0.000000,0.021911,0.928056,0.687269,0.074966,1.000000
/home/daniel/Projects/ppsevolution/data/maps/custom_maps/Custom_1_Run_0_Map.csv,1.000000,0.396432,0.000000,0.000000,0.046610,0.630780,0.195711,0.000000,0.912972,0.478192,0.000000,0.069872,0.902008,0.486988,0.206856,1.000000
/home/daniel/Projects/ppsevolution/data/maps/custom_maps/Custom_1_Run_0_Map.csv,0.812624,1.000000,0.000000,0.000000,0.000000,0.095242,0.663624,2.000000,0.998820,0.000000,0.000000,0.000000,0.515904,0.944364,0.122745,2.000000
/home/daniel/Projects/ppsevolution/data/maps/custom_maps/Custom_2_Run_0_Map.csv,0.404256,0.621150,0.142723,0.394254,0.445933,0.190654,0.527793,0.000000,0.831189,0.183445,0.000000,0.303272,0.358153,1.000000,0.267951,1.000000
/home/daniel/Projects/ppsevolution/data/maps/custom_maps/Custom_2_Run_0_Map.csv,0.033703,0.841273,0.479828,0.000000,0.644176,0.386990,1.000000,2.000000,0.786195,0.343537,0.114091,0.026638,1.000000,0.297919,0.012083,1.000000
/home/daniel/Projects/ppsevolution/data/maps/custom_maps/Custom_2_Run_0_Map.csv,0.000000,0.831245,0.003056,0.492032,0.631662,0.064216,0.941632,2.000000,0.803502,0.400087,0.034657,0.106111,0.912594,0.720743,0.000000,0.000000
/home/daniel/Projects/ppsevolution/data/maps/custom_maps/Custom_2_Run_0_Map.csv,0.136872,0.722687,0.161414,0.361862,0.035219,0.310237,0.522415,1.000000,0.759897,0.248022,0.000000,0.126505,0.777527,0.780487,0.705886,1.000000
/home/daniel/Projects/ppsevolution/data/maps/custom_maps/Custom_2_Run_0_Map.csv,0.745490,0.650280,0.054140,0.373503,0.103385,0.224240,0.368217,0.000000,0.544103,0.459163,0.329497,0.165307,0.896409,0.974355,0.017905,1.000000
/home/daniel/Projects/ppsevolution/data/maps/custom_maps/Custom_2_Run_0_Map.csv,0.606538,0.553384,0.049699,0.460596,0.231127,0.000000,0.667678,1.000000,0.853680,0.000000,0.246095,0.117040,1.000000,0.877611,0.439675,1.000000
/home/daniel/Projects/ppsevolution/data/maps/custom_maps/Custom_2_Run_0_Map.csv,0.058575,0.821364,0.000000,0.552671,0.340936,0.085356,0.853974,0.000000,0.907636,0.080745,0.163572,0.000000,1.000000,0.546307,0.219268,2.000000
/home/daniel/Projects/ppsevolution/data/maps/custom_maps/Custom_2_Run_0_Map.csv,0.114306,0.945344,0.000000,0.486496,0.000000,0.303941,1.000000,0.000000,0.755056,0.155803,0.216927,0.000000,1.000000,0.891508,0.000000,0.000000
/home/daniel/Projects/ppsevolution/data/maps/custom_maps/Custom_2_Run_0_Map.csv,0.051758,0.728898,0.102641,0.459356,0.301453,0.318760,1.000000,0.000000,0.908800,0.259641,0.098690,0.033113,0.936120,1.000000,0.386423,1.000000
/home/daniel/Projects/ppsevolution/data/maps/custom_maps/Custom_2_Run_0_Map.csv,0.381429,1.000000,0.105680,0.443502,0.494808,0.239307,0.971540,2.000000,1.000000,0.191222,0.083790,0.210364,1.000000,0.882355,0.093499,1.000000
/home/daniel/Projects/ppsevolution/data/maps/custom_maps/Custom_3_Run_0_Map.csv,0.117370,0.513448,0.023306,0.584362,0.044698,0.000000,1.000000,1.000000,0.885320,0.111455,0.239845,0.119807,0.921937,0.905660,0.053486,2.000000
/home/daniel/Projects/ppsevolution/data/maps/custom_maps/Custom_3_Run_0_Map.csv,0.276101,0.766802,0.000000,0.517404,0.254323,0.128271,0.972379,2.000000,0.653162,0.191352,0.080150,0.351207,0.502189,1.000000,0.000000,1.000000
/home/daniel/Projects/ppsevolution/data/maps/custom_maps/Custom_3_Run_0_Map.csv,0.221913,0.860733,0.000000,0.557904,0.520726,0.000000,0.814486,2.000000,0.771222,0.318214,0.000000,0.370814,0.915511,0.931821,0.213933,0.000000
/home/daniel/Projects/ppsevolution/data/maps/custom_maps/Custom_3_Run_0_Map.csv,0.181520,0.784651,0.164773,0.401506,0.560951,0.386272,0.724013,2.000000,0.685372,0.000000,0.069373,0.311291,0.826023,0.877160,0.000000,2.000000
/home/daniel/Projects/ppsevolution/data/maps/custom_maps/Custom_3_Run_0_Map.csv,0.324583,0.847688,0.000000,0.645463,0.367919,0.247021,0.692711,0.000000,0.971961,0.371256,0.010986,0.437683,0.365193,0.572815,0.000000,2.000000
/home/daniel/Projects/ppsevolution/data/maps/custom_maps/Custom_3_Run_0_Map.csv,0.324781,0.696190,0.083080,0.547836,0.000000,0.000000,1.000000,1.000000,0.949758,0.000000,0.000000,0.425116,0.701608,1.000000,0.076247,2.000000
/home/daniel/Projects/ppsevolution/data/maps/custom_maps/Custom_3_Run_0_Map.csv,0.142466,0.840991,0.156587,0.508253,0.016137,0.311405,1.000000,0.000000,1.000000,0.000000,0.004185,0.307112,0.890521,0.667358,0.349995,2.000000
/home/daniel/Projects/ppsevolution/data/maps/custom_maps/Custom_3_Run_0_Map.csv,0.044321,0.613955,0.115836,0.559450,0.022830,0.072883,0.924080,1.000000,1.000000,0.055832,0.045933,0.285355,0.784000,0.791279,0.000000,0.000000
/home/daniel/Projects/ppsevolution/data/maps/custom_maps/Custom_3_Run_0_Map.csv,0.388294,0.870865,0.274921,0.391266,0.000000,0.041306,0.862858,0.000000,0.898346,0.366577,0.098668,0.373538,0.840926,0.987399,0.079169,1.000000
/home/daniel/Projects/ppsevolution/data/maps/custom_maps/Custom_3_Run_0_Map.csv,0.126128,0.814459,0.128805,0.543108,0.003198,0.030758,1.000000,0.000000,1.000000,0.158110,0.000000,0.343534,0.899810,0.820482,0.090032,2.000000
/home/daniel/Projects/ppsevolution/data/maps/custom_maps/Custom_4_Run_0_Map.csv,0.572407,1.000000,0.000000,0.327408,0.274156,0.122720,0.616647,1.000000,1.000000,0.447545,0.000000,0.000000,1.000000,0.899660,0.582943,1.000000
/home/daniel/Projects/ppsevolution/data/maps/custom_maps/Custom_4_Run_0_Map.csv,0.652825,0.451703,0.040138,0.000000,0.000000,0.516605,0.459132,0.000000,0.361736,0.315850,0.000000,0.110949,0.731132,0.686022,0.084890,1.000000
/home/daniel/Projects/ppsevolution/data/maps/custom_maps/Custom_4_Run_0_Map.csv,0.837528,0.737542,0.000000,0.184560,0.214521,0.066466,0.961417,0.000000,0.821599,0.017477,0.000000,0.192473,0.758780,0.870675,0.137451,2.000000
/home/daniel/Projects/ppsevolution/data/maps/custom_maps/Custom_4_Run_0_Map.csv,0.715830,1.000000,0.231912,0.042673,0.290378,0.341288,0.606229,2.000000,1.000000,0.293690,0.000000,0.061866,0.805465,0.687712,0.346363,1.000000
/home/daniel/Projects/ppsevolution/data/maps/custom_maps/Custom_4_Run_0_Map.csv,0.508635,0.517250,0.158818,0.037891,0.682485,0.000000,0.476034,0.000000,0.771724,0.348239,0.000000,0.018793,0.066512,0.550443,0.000000,0.000000
/home/daniel/Projects/ppsevolution/data/maps/custom_maps/Custom_4_Run_0_Map.csv,0.420179,0.922822,0.119472,0.086926,0.335424,0.000000,0.954057,0.000000,0.809919,0.000000,0.000000,0.000000,1.000000,1.000000,0.000000,2.000000
/home/daniel/Projects/ppsevolution/data/maps/custom_maps/Custom_4_Run_0_Map.csv,0.640716,0.900241,0.248213,0.024262,0.000000,0.000000,0.710618,0.000000,1.000000,0.494572,0.000000,0.042967,0.659667,0.619351,0.261731,1.000000
/home/daniel/Projects/ppsevolution/data/maps/custom_maps/Custom_4_Run_0_Map.csv,0.524764,0.982253,0.038480,0.243009,0.000000,0.188820,0.789692,2.000000,1.000000,0.000000,0.004943,0.000000,0.687582,0.837328,0.121812,1.000000
/home/daniel/Projects/ppsevolution/data/maps/custom_maps/Custom_4_Run_0_Map.csv,0.589026,1.000000,0.000000,0.196430,0.405716,0.351635,0.607596,0.000000,0.679664,0.494190,0.000000,0.063373,0.923310,1.000000,0.221463,1.000000
/home/daniel/Projects/ppsevolution/data/maps/custom_maps/Custom_4_Run_0_Map.csv,0.643774,0.983343,0.073620,0.000000,0.000000,0.106297,0.796026,2.000000,0.490990,0.061716,0.051143,0.019987,1.000000,0.586142,0.409926,2.000000
/home/daniel/Projects/ppsevolution/data/maps/custom_maps/Custom_5_Run_0_Map.csv,0.195457,0.753417,0.005289,0.399047,0.121547,0.274997,0.846698,2.000000,0.865411,0.000000,0.024226,0.075574,1.000000,0.782513,0.141430,0.000000
/home/daniel/Projects/ppsevolution/data/maps/custom_maps/Custom_5_Run_0_Map.csv,0.463276,0.549353,0.278319,0.100763,0.138035,0.169451,0.648903,0.000000,0.878810,0.196764,0.177075,0.000000,0.749609,0.890500,0.000000,2.000000
/home/daniel/Projects/ppsevolution/data/maps/custom_maps/Custom_5_Run_0_Map.csv,0.613073,0.781437,0.000000,0.441392,0.296517,0.201976,0.575371,2.000000,1.000000,0.000000,0.082363,0.200341,0.672408,0.804190,0.193943,1.000000
/home/daniel/Projects/ppsevolution/data/maps/custom_maps/Custom_5_Run_0_Map.csv,0.000000,1.000000,0.175682,0.253433,0.010682,0.382805,0.550809,1.000000,0.863972,0.607830,0.000000,0.000000,0.760495,0.833022,0.000000,1.000000
/home/daniel/Projects/ppsevolution/data/maps/custom_maps/Custom_5_Run_0_Map.csv,0.178619,0.871974,0.000000,0.476628,0.089910,0.206600,0.432218,2.000000,1.000000,0.053579,0.071287,0.000000,1.000000,0.419588,0.261083,0.000000
/home/daniel/Projects/ppsevolution/data/maps/custom_maps/Custom_5_Run_0_Map.csv,0.304387,0.664598,0.000000,0.407071,0.393701,0.000000,0.771644,2.000000,0.925218,0.250342,0.000000,0.143107,0.937438,0.952403,0.054685,0.000000
/home/daniel/Projects/ppsevolution/data/maps/custom_maps/Custom_5_Run_0_Map.csv,0.029028,0.901105,0.000000,0.440227,0.139763,0.126080,1.000000,0.000000,0.976126,0.121117,0.026877,0.000000,0.558390,1.000000,0.000000,1.000000
/home/daniel/Projects/ppsevolution/data/maps/custom_maps/Custom_5_Run_0_Map.csv,0.339913,0.648724,0.043204,0.298044,0.061617,0.631805,0.922661,1.000000,0.769740,0.652395,0.133892,0.000000,1.000000,0.860648,0.080444,0.000000
/home/daniel/Projects/ppsevolution/data/maps/custom_maps/Custom_5_Run_0_Map.csv,0.049530,0.651810,0.286050,0.151395,0.000000,0.023694,0.526795,0.000000,0.918211,0.000000,0.020496,0.000000,0.689635,0.750876,0.000000,2.000000
/home/daniel/Projects/ppsevolution/data/maps/custom_maps/Custom_5_Run_0_Map.csv,0.380019,0.316731,0.207569,0.189161,0.136146,0.487089,0.984541,0.000000,1.000000,0.357811,0.000000,0.136402,0.804875,0.939665,0.150454,1.000000
/home/daniel/Projects/ppsevolution/data/maps/custom_maps/Custom_6_Run_0_Map.csv,0.000000,1.000000,0.036669,0.711269,0.170485,0.000000,0.592476,1.000000,0.871222,0.354744,0.021323,0.521974,0.718312,0.885131,0.000000,1.000000
/home/daniel/Projects/ppsevolution/data/maps/custom_maps/Custom_6_Run_0_Map.csv,0.158917,0.983111,0.401388,0.489774,0.000000,0.105420,0.810906,0.000000,1.000000,0.000000,0.028392,0.511445,0.946331,1.000000,0.413136,1.000000
/home/daniel/Projects/ppsevolution/data/maps/custom_maps/Custom_6_Run_0_Map.csv,0.000000,1.000000,0.100604,0.666414,0.066172,0.116121,0.953842,1.000000,0.968896,0.063053,0.000000,0.496334,0.946423,1.000000,0.070081,1.000000
/home/daniel/Projects/ppsevolution/data/maps/custom_maps/Custom_6_Run_0_Map.csv,0.014795,0.564749,0.075696,0.707694,0.011181,0.000000,1.000000,0.000000,1.000000,0.000000,0.000000,0.528312,0.939504,0.880696,0.093045,0.000000
/home/daniel/Projects/ppsevolution/data/maps/custom_maps/Custom_6_Run_0_Map.csv,0.076393,0.707810,0.008435,0.661334,0.040565,0.178119,0.956765,1.000000,0.659722,0.182123,0.106623,0.476775,1.000000,1.000000,0.017252,1.000000
/home/daniel/Projects/ppsevolution/data/maps/custom_maps/Custom_6_Run_0_Map.csv,0.116861,0.852748,0.129271,0.599608,0.244489,0.351535,1.000000,2.000000,0.812149,0.000000,0.000000,0.533588,1.000000,1.000000,0.126395,0.000000
/home/daniel/Projects/ppsevolution/data/maps/custom_maps/Custom_6_Run_0_Map.csv,0.104162,0.683241,0.199978,0.592493,0.262459,0.031722,1.000000,1.000000,0.892007,0.057521,0.158838,0.423866,1.000000,0.941948,0.098277,0.000000
/home/daniel/Projects/ppsevolution/data/maps/custom_maps/Custom_6_Run_0_Map.csv,0.143464,1.000000,0.299834,0.420437,0.000000,0.329505,0.977633,1.000000,0.679248,0.255701,0.057300,0.492776,1.000000,0.996676,0.059524,1.000000
/home/daniel/Projects/ppsevolution/data/maps/custom_maps/Custom_6_Run_0_Map.csv,0.000000,0.973666,0.274263,0.531617,0.000000,0.115864,1.000000,0.000000,0.925364,0.230285,0.000000,0.482401,0.799885,1.000000,0.157661,0.000000
/home/daniel/Projects/ppsevolution/data/maps/custom_maps/Custom_6_Run_0_Map.csv,0.000000,0.958408,0.000000,0.703915,0.175918,0.134330,0.855477,2.000000,0.860354,0.000000,0.046828,0.484144,1.000000,0.941479,0.000000,2.000000
/home/daniel/Projects/ppsevolution/data/maps/custom_maps/Custom_7_Run_0_Map.csv,0.488719,1.000000,0.000000,0.504706,0.047605,0.551473,0.485623,0.000000,0.917507,0.108008,0.070145,0.250652,0.930675,0.767055,0.254336,0.000000
/home/daniel/Projects/ppsevolution/data/maps/custom_maps/Custom_7_Run_0_Map.csv,0.092646,0.087813,0.006715,0.554609,0.000000,0.639094,0.326980,0.000000,0.971038,0.000000,0.137525,0.000000,0.667252,0.963770,0.337782,0.000000
/home/daniel/Projects/ppsevolution/data/maps/custom_maps/Custom_7_Run_0_Map.csv,0.158122,1.000000,0.048983,0.484072,0.540591,0.495604,0.809001,0.000000,1.000000,0.154502,0.000000,0.197908,0.941065,0.836820,0.003540,0.000000
/home/daniel/Projects/ppsevolution/data/maps/custom_maps/Custom_7_Run_0_Map.csv,0.013668,1.000000,0.239746,0.368972,0.000000,0.199929,0.176528,2.000000,0.954471,0.239721,0.005190,0.089260,1.000000,0.730743,0.436762,2.000000
/home/daniel/Projects/ppsevolution/data/maps/custom_maps/Custom_7_Run_0_Map.csv,0.039566,0.910311,0.415472,0.012219,0.032463,0.015549,0.781171,1.000000,0.761218,0.000000,0.000000,0.147780,0.943212,0.844577,0.000000,1.000000
/home/daniel/Projects/ppsevolution/data/maps/custom_maps/Custom_7_Run_0_Map.csv,0.225429,0.474804,0.179364,0.167492,0.539831,0.000000,0.846191,0.000000,0.527877,0.364697,0.000000,0.252723,0.833995,0.965911,0.000000,2.000000
/home/daniel/Projects/ppsevolution/data/maps/custom_maps/Custom_7_Run_0_Map.csv,0.071497,1.000000,0.000000,0.476783,0.125384,0.280501,1.000000,0.000000,0.803166,0.107596,0.015140,0.133386,0.995972,0.864825,0.284694,2.000000
/home/daniel/Projects/ppsevolution/data/maps/custom_maps/Custom_7_Run_0_Map.csv,0.086971,0.619283,0.000000,0.532077,0.075903,0.198075,0.454769,0.000000,0.860269,0.013897,0.090787,0.072737,0.818563,0.744072,0.221464,1.000000
/home/daniel/Projects/ppsevolution/data/maps/custom_maps/Custom_7_Run_0_Map.csv,0.310119,0.720017,0.017563,0.480000,0.015881,0.140331,0.788725,1.000000,0.908868,0.000000,0.035235,0.246975,1.000000,0.888295,0.000000,1.000000
/home/daniel/Projects/ppsevolution/data/maps/custom_maps/Custom_7_Run_0_Map.csv,0.034018,1.000000,0.088346,0.396307,0.000000,0.000000,0.677939,0.000000,0.753506,0.116504,0.139371,0.000000,0.910878,0.811211,0.125546,0.000000
/home/daniel/Projects/ppsevolution/data/maps/custom_maps/Custom_8_Run_0_Map.csv,0.278981,1.000000,0.000000,0.360000,0.096347,0.129405,0.782668,2.000000,1.000000,0.176399,0.000000,0.000661,0.432490,0.933014,0.255794,0.000000
/home/daniel/Projects/ppsevolution/data/maps/custom_maps/Custom_8_Run_0_Map.csv,0.239751,0.275328,0.145013,0.205678,0.174215,0.000000,0.131052,0.000000,0.791634,0.249914,0.000000,0.000000,0.829720,0.333502,0.217006,0.000000
/home/daniel/Projects/ppsevolution/data/maps/custom_maps/Custom_8_Run_0_Map.csv,0.291788,0.797968,0.125135,0.246977,0.058098,0.348270,0.270141,2.000000,0.926264,0.046016,0.021222,0.000000,1.000000,1.000000,0.162989,0.000000
/home/daniel/Projects/ppsevolution/data/maps/custom_maps/Custom_8_Run_0_Map.csv,0.734977,0.301048,0.000000,0.380568,0.306067,0.279458,0.045589,2.000000,0.922917,0.000000,0.220252,0.000000,0.953425,0.903477,0.297499,2.000000
/home/daniel/Projects/ppsevolution/data/maps/custom_maps/Custom_8_Run_0_Map.csv,0.608674,1.000000,0.001224,0.204892,0.000000,0.129556,1.000000,0.000000,0.651299,0.150624,0.023536,0.195643,0.986551,0.841763,0.131489,1.000000
/home/daniel/Projects/ppsevolution/data/maps/custom_maps/Custom_8_Run_0_Map.csv,0.527327,0.958140,0.000000,0.314075,0.299007,0.643504,0.673814,0.000000,0.834317,0.180371,0.031308,0.097672,0.978481,1.000000,0.223356,2.000000
/home/daniel/Projects/ppsevolution/data/maps/custom_maps/Custom_8_Run_0_Map.csv,0.575615,0.926037,0.000000,0.243154,0.049258,0.019397,0.806077,1.000000,0.687432,0.533102,0.063835,0.064429,0.635575,0.990816,0.395003,2.000000
/home/daniel/Projects/ppsevolution/data/maps/custom_maps/Custom_8_Run_0_Map.csv,0.720477,0.804171,0.130188,0.133868,0.000000,0.401190,0.912397,2.000000,0.834134,0.658234,0.022015,0.186729,0.955495,0.946587,0.306645,0.000000
/home/daniel/Projects/ppsevolution/data/maps/custom_maps/Custom_8_Run_0_Map.csv,0.399829,0.886308,0.000000,0.312203,0.111683,0.414323,0.906242,2.000000,0.908368,0.000000,0.089395,0.000000,0.763660,0.955097,0.000000,1.000000
/home/daniel/Projects/ppsevolution/data/maps/custom_maps/Custom_8_Run_0_Map.csv,0.499099,0.836751,0.114374,0.100492,0.033203,0.146186,0.535568,1.000000,0.623091,0.051300,0.127102,0.000000,0.447466,0.532837,0.088926,0.000000
/home/daniel/Projects/ppsevolution/data/maps/custom_maps/Custom_9_Run_0_Map.csv,0.788183,0.993566,0.000000,0.000000,0.237880,0.147580,0.635678,1.000000,0.573737,0.235997,0.000000,0.173145,0.382749,0.671279,0.010960,2.000000
/home/daniel/Projects/ppsevolution/data/maps/custom_maps/Custom_9_Run_0_Map.csv,0.658507,1.000000,0.052021,0.158987,0.136146,0.060692,0.400528,1.000000,0.988494,0.138319,0.000000,0.056431,0.665900,1.000000,0.178668,2.000000
/home/daniel/Projects/ppsevolution/data/maps/custom_maps/Custom_9_Run_0_Map.csv,0.615147,0.829411,0.000000,0.213519,0.156825,0.099430,0.700715,0.000000,1.000000,0.114675,0.053796,0.000000,0.822134,0.853809,0.000000,2.000000
/home/daniel/Projects/ppsevolution/data/maps/custom_maps/Custom_9_Run_0_Map.csv,0.774710,1.000000,0.080781,0.000000,0.234963,0.121223,0.982560,1.000000,0.852874,0.000000,0.118489,0.000000,0.801337,0.945415,0.000000,2.000000
/home/daniel/Projects/ppsevolution/data/maps/custom_maps/Custom_9_Run_0_Map.csv,0.753118,0.759360,0.095555,0.000000,0.251769,0.000000,0.889243,1.000000,0.841816,0.050709,0.121435,0.000000,1.000000,0.773250,0.000000,1.000000
/home/daniel/Projects/ppsevolution/data/maps/custom_maps/Custom_9_Run_0_Map.csv,0.819836,0.946320,0.111617,0.000000,0.000000,0.031812,0.644389,1.000000,0.858854,0.176908,0.141364,0.000000,0.533182,0.464602,0.046894,0.000000
/home/daniel/Projects/ppsevolution/data/maps/custom_maps/Custom_9_Run_0_Map.csv,0.740868,0.837740,0.082211,0.039304,0.086021,0.233412,0.850086,0.000000,0.937622,0.000000,0.000000,0.121849,0.547686,0.628947,0.053701,1.000000
/home/daniel/Projects/ppsevolution/data/maps/custom_maps/Custom_9_Run_0_Map.csv,0.781887,0.984400,0.049667,0.050305,0.029198,0.000000,0.953239,1.000000,0.876350,0.195703,0.083983,0.051195,0.394923,0.770170,0.000000,2.000000
/home/daniel/Projects/ppsevolution/data/maps/custom_maps/Custom_9_Run_0_Map.csv,0.789844,1.000000,0.146299,0.000000,0.160106,0.035999,0.905468,0.000000,1.000000,0.000000,0.072497,0.056766,0.902559,1.000000,0.121666,0.000000
/home/daniel/Projects/ppsevolution/data/maps/custom_maps/Custom_9_Run_0_Map.csv,0.957953,0.520477,0.171884,0.000000,0.000000,0.000000,0.427163,1.000000,1.000000,0.210485,0.113164,0.058014,0.596937,0.529654,0.227132,1.000000
/home/daniel/Projects/ppsevolution/data/maps/custom_maps/Custom_10_Run_0_Map.csv,0.355686,0.664053,0.000000,0.457032,0.000000,0.053534,0.812351,0.000000,0.944763,0.000000,0.000000,0.211703,0.486378,0.679387,0.220371,1.000000
/home/daniel/Projects/ppsevolution/data/maps/custom_maps/Custom_10_Run_0_Map.csv,0.395294,0.977535,0.000000,0.484474,0.310188,0.106801,0.809538,0.000000,1.000000,0.152900,0.000000,0.227641,1.000000,0.799914,0.292265,1.000000
/home/daniel/Projects/ppsevolution/data/maps/custom_maps/Custom_10_Run_0_Map.csv,0.444259,0.830837,0.428109,0.038406,0.091415,0.103495,0.569428,1.000000,0.988346,0.473055,0.153769,0.056893,0.788797,0.977685,0.095325,0.000000
/home/daniel/Projects/ppsevolution/data/maps/custom_maps/Custom_10_Run_0_Map.csv,0.288313,0.889922,0.000000,0.461802,0.184588,0.061116,0.533711,2.000000,0.907150,0.000000,0.000000,0.209759,0.961456,1.000000,0.000000,2.000000
/home/daniel/Projects/ppsevolution/data/maps/custom_maps/Custom_10_Run_0_Map.csv,0.194869,0.946770,0.116437,0.290280,0.426240,0.212119,1.000000,1.000000,0.821986,0.366804,0.035935,0.083358,1.000000,0.767123,0.240937,2.000000
/home/daniel/Projects/ppsevolution/data/maps/custom_maps/Custom_10_Run_0_Map.csv,0.044282,0.742505,0.000000,0.479602,0.448679,0.144803,1.000000,0.000000,0.992424,0.405755,0.000000,0.080274,0.910942,0.599997,0.088233,0.000000
/home/daniel/Projects/ppsevolution/data/maps/custom_maps/Custom_10_Run_0_Map.csv,0.101842,0.752952,0.021606,0.458360,0.322868,0.111765,0.844132,1.000000,0.989033,0.006110,0.000000,0.094961,0.850279,0.899551,0.115301,2.000000
/home/daniel/Projects/ppsevolution/data/maps/custom_maps/Custom_10_Run_0_Map.csv,0.261863,0.451747,0.000000,0.472335,0.250109,0.050800,0.847665,1.000000,0.975346,0.307744,0.000000,0.181226,1.000000,1.000000,0.016764,2.000000
/home/daniel/Projects/ppsevolution/data/maps/custom_maps/Custom_10_Run_0_Map.csv,0.305641,0.849699,0.308759,0.101415,0.015202,0.000000,0.726573,1.000000,0.837849,0.011373,0.114666,0.072885,0.853767,0.898269,0.051747,1.000000
/home/daniel/Projects/ppsevolution/data/maps/custom_maps/Custom_10_Run_0_Map.csv,0.000000,1.000000,0.000000,0.407270,0.306390,0.329141,1.000000,1.000000,0.814207,0.214237,0.054606,0.000000,0.809837,0.849286,0.000000,2.000000
