/home/daniel/Projects/ppsevolution/data/maps/custom_maps/Custom_1_Run_0_Map.csv,0.028051,1.000000,0.157209,0.692887,0.030000,0.029922,0.983437,1.000000,1.000000,0.000000,0.000000,0.600000,1.000000,0.800781,0.000000,0.000000
/home/daniel/Projects/ppsevolution/data/maps/custom_maps/Custom_1_Run_0_Map.csv,0.013245,1.000000,0.304616,0.612672,0.030000,0.000000,1.000000,0.000000,0.992127,0.077272,0.000000,0.600000,1.000000,0.967172,0.000000,0.000000
/home/daniel/Projects/ppsevolution/data/maps/custom_maps/Custom_1_Run_0_Map.csv,0.038208,1.000000,0.210000,0.661200,0.005632,0.000000,1.000000,1.000000,1.000000,0.000000,0.000000,0.600000,1.000000,0.636100,0.000000,0.000000
/home/daniel/Projects/ppsevolution/data/maps/custom_maps/Custom_1_Run_0_Map.csv,0.006178,1.000000,0.210000,0.673708,0.030000,0.030000,1.000000,0.000000,1.000000,0.000000,0.000000,0.600000,1.000000,0.853506,0.000000,0.000000
/home/daniel/Projects/ppsevolution/data/maps/custom_maps/Custom_1_Run_0_Map.csv,0.000000,1.000000,0.193944,0.684689,0.030000,0.030000,0.966812,0.000000,1.000000,0.000000,0.000000,0.600000,1.000000,1.000000,0.000000,0.000000
/home/daniel/Projects/ppsevolution/data/maps/custom_maps/Custom_1_Run_0_Map.csv,0.092408,1.000000,0.210000,0.643511,0.030000,0.030000,1.000000,2.000000,1.000000,0.002238,0.000000,0.600000,1.000000,1.000000,0.000000,1.000000
/home/daniel/Projects/ppsevolution/data/maps/custom_maps/Custom_1_Run_0_Map.csv,0.000000,1.000000,0.193942,0.680447,0.002032,0.030000,0.979470,0.000000,0.995671,0.000000,0.000000,0.600000,0.803879,1.000000,0.000000,0.000000
/home/daniel/Projects/ppsevolution/data/maps/custom_maps/Custom_1_Run_0_Map.csv,0.000000,1.000000,0.210000,0.664451,0.002617,0.000000,0.830283,1.000000,0.955105,0.000000,0.000000,0.600000,1.000000,1.000000,0.000000,0.000000
/home/daniel/Projects/ppsevolution/data/maps/custom_maps/Custom_1_Run_0_Map.csv,0.000000,0.941970,0.068636,0.739569,0.001417,0.000000,0.969843,1.000000,1.000000,0.000000,0.000000,0.600000,1.000000,1.000000,0.000000,0.000000
/home/daniel/Projects/ppsevolution/data/maps/custom_maps/Custom_1_Run_0_Map.csv,0.009648,1.000000,0.210000,0.672851,0.030000,0.030000,1.000000,0.000000,1.000000,0.000000,0.000000,0.600000,1.000000,0.825230,0.000000,0.000000
/home/daniel/Projects/ppsevolution/data/maps/custom_maps/Custom_2_Run_0_Map.csv,0.000000,1.000000,0.806527,1.000000,0.000000,0.012887,1.000000,2.000000,0.828187,0.429317,1.000000,1.000000,1.000000,0.998240,1.000000,2.000000
/home/daniel/Projects/ppsevolution/data/maps/custom_maps/Custom_2_Run_0_Map.csv,0.000000,1.000000,0.838640,1.000000,0.000000,0.000000,1.000000,2.000000,0.863253,0.275574,1.000000,1.000000,1.000000,1.000000,1.000000,2.000000
/home/daniel/Projects/ppsevolution/data/maps/custom_maps/Custom_2_Run_0_Map.csv,0.000000,1.000000,0.626619,1.000000,0.023666,0.000000,1.000000,2.000000,0.482752,0.556412,1.000000,1.000000,1.000000,1.000000,1.000000,2.000000
/home/daniel/Projects/ppsevolution/data/maps/custom_maps/Custom_2_Run_0_Map.csv,0.000000,0.987331,0.423649,1.000000,0.000000,0.000000,1.000000,2.000000,0.607429,0.404004,1.000000,0.963530,0.984655,1.000000,1.000000,2.000000
/home/daniel/Projects/ppsevolution/data/maps/custom_maps/Custom_2_Run_0_Map.csv,0.000000,1.000000,0.342406,1.000000,0.000000,0.000000,1.000000,2.000000,0.880648,0.501859,1.000000,0.926079,1.000000,1.000000,1.000000,2.000000
/home/daniel/Projects/ppsevolution/data/maps/custom_maps/Custom_2_Run_0_Map.csv,0.000000,0.979896,0.345394,1.000000,0.000000,0.000000,1.000000,2.000000,0.806771,0.320294,1.000000,0.933313,0.989664,1.000000,1.000000,2.000000
/home/daniel/Projects/ppsevolution/data/maps/custom_maps/Custom_2_Run_0_Map.csv,0.000000,1.000000,0.590376,1.000000,0.000000,0.146873,1.000000,2.000000,0.464269,0.603246,1.000000,1.000000,1.000000,1.000000,1.000000,2.000000
/home/daniel/Projects/ppsevolution/data/maps/custom_maps/Custom_2_Run_0_Map.csv,0.000000,1.000000,0.740034,1.000000,0.000000,0.000000,1.000000,2.000000,0.678497,0.097309,1.000000,1.000000,1.000000,1.000000,1.000000,2.000000
/home/daniel/Projects/ppsevolution/data/maps/custom_maps/Custom_2_Run_0_Map.csv,0.000000,1.000000,0.713571,1.000000,0.000000,0.000000,1.000000,2.000000,0.659187,0.704859,1.000000,1.000000,1.000000,1.000000,1.000000,2.000000
/home/daniel/Projects/ppsevolution/data/maps/custom_maps/Custom_2_Run_0_Map.csv,0.000000,1.000000,0.722704,1.000000,0.000000,0.004046,0.984576,2.000000,0.670565,0.441622,1.000000,1.000000,1.000000,1.000000,1.000000,2.000000
/home/daniel/Projects/ppsevolution/data/maps/custom_maps/Custom_3_Run_0_Map.csv,0.000000,0.973199,0.760269,1.000000,0.014925,0.000000,1.000000,2.000000,0.293011,0.000000,1.000000,1.000000,0.970119,0.016836,1.000000,2.000000
/home/daniel/Projects/ppsevolution/data/maps/custom_maps/Custom_3_Run_0_Map.csv,0.000000,1.000000,1.000000,0.968606,0.000000,0.000000,1.000000,2.000000,0.000000,0.000000,1.000000,1.000000,1.000000,0.000000,1.000000,2.000000
/home/daniel/Projects/ppsevolution/data/maps/custom_maps/Custom_3_Run_0_Map.csv,0.000000,1.000000,1.000000,0.991187,0.000000,0.000000,1.000000,2.000000,0.468920,0.000000,1.000000,1.000000,1.000000,0.000000,1.000000,2.000000
/home/daniel/Projects/ppsevolution/data/maps/custom_maps/Custom_3_Run_0_Map.csv,0.000000,1.000000,0.963789,0.978078,0.003154,0.008737,1.000000,2.000000,0.149282,0.000000,1.000000,1.000000,1.000000,0.000000,1.000000,2.000000
/home/daniel/Projects/ppsevolution/data/maps/custom_maps/Custom_3_Run_0_Map.csv,0.000000,1.000000,0.902598,0.978388,0.000000,0.003600,1.000000,2.000000,0.038409,0.000000,1.000000,1.000000,1.000000,0.000000,1.000000,2.000000
/home/daniel/Projects/ppsevolution/data/maps/custom_maps/Custom_3_Run_0_Map.csv,0.000000,1.000000,0.600525,1.000000,0.000000,0.000000,1.000000,2.000000,0.000000,0.000000,1.000000,1.000000,1.000000,0.000000,1.000000,2.000000
/home/daniel/Projects/ppsevolution/data/maps/custom_maps/Custom_3_Run_0_Map.csv,0.000000,0.956172,0.956564,0.974363,0.000000,0.000000,1.000000,2.000000,0.000000,0.000000,1.000000,1.000000,1.000000,0.000000,1.000000,2.000000
/home/daniel/Projects/ppsevolution/data/maps/custom_maps/Custom_3_Run_0_Map.csv,0.000000,1.000000,0.602583,1.000000,0.000000,0.000000,1.000000,2.000000,0.000000,0.000000,1.000000,1.000000,1.000000,0.000000,1.000000,2.000000
/home/daniel/Projects/ppsevolution/data/maps/custom_maps/Custom_3_Run_0_Map.csv,0.000000,1.000000,1.000000,0.968024,0.000000,0.000000,1.000000,2.000000,0.000000,0.000000,1.000000,1.000000,1.000000,0.000000,1.000000,2.000000
/home/daniel/Projects/ppsevolution/data/maps/custom_maps/Custom_3_Run_0_Map.csv,0.000000,1.000000,1.000000,0.968356,0.000000,0.000000,1.000000,2.000000,0.000000,0.000000,1.000000,1.000000,1.000000,0.000000,1.000000,2.000000
/home/daniel/Projects/ppsevolution/data/maps/custom_maps/Custom_4_Run_0_Map.csv,0.000000,1.000000,0.151503,0.800000,0.238399,0.030000,1.000000,0.000000,1.000000,0.000000,0.167552,0.600000,0.873316,1.000000,0.000000,0.000000
/home/daniel/Projects/ppsevolution/data/maps/custom_maps/Custom_4_Run_0_Map.csv,0.000000,0.914249,0.210000,0.751099,0.000000,0.030000,0.944825,1.000000,0.923889,0.000000,0.000000,0.652156,1.000000,0.995418,0.000000,2.000000
/home/daniel/Projects/ppsevolution/data/maps/custom_maps/Custom_4_Run_0_Map.csv,0.000000,0.955763,0.210000,0.745730,0.030000,0.030000,1.000000,2.000000,1.000000,0.000000,0.077098,0.600000,1.000000,1.000000,0.051004,2.000000
/home/daniel/Projects/ppsevolution/data/maps/custom_maps/Custom_4_Run_0_Map.csv,0.000000,1.000000,0.181032,0.796796,0.039168,0.030000,0.853382,0.000000,0.981489,0.000000,0.000000,0.680708,1.000000,1.000000,0.000000,0.000000
/home/daniel/Projects/ppsevolution/data/maps/custom_maps/Custom_4_Run_0_Map.csv,0.000000,1.000000,0.126865,0.800000,0.229267,0.000000,0.939816,0.000000,0.956147,0.000000,0.000000,0.665430,0.948542,0.790729,0.000000,2.000000
/home/daniel/Projects/ppsevolution/data/maps/custom_maps/Custom_4_Run_0_Map.csv,0.000000,0.914377,0.220993,0.756815,0.030000,0.000000,1.000000,0.000000,0.909202,0.029796,0.149501,0.600000,0.819260,1.000000,0.000000,0.000000
/home/daniel/Projects/ppsevolution/data/maps/custom_maps/Custom_4_Run_0_Map.csv,0.000000,1.000000,0.210000,0.800000,0.253348,0.000000,0.730477,0.000000,0.996339,0.138825,0.000000,0.688451,1.000000,0.983757,0.000000,0.000000
/home/daniel/Projects/ppsevolution/data/maps/custom_maps/Custom_4_Run_0_Map.csv,0.000000,1.000000,0.095010,0.800000,0.030000,0.030000,1.000000,2.000000,1.000000,0.000000,0.144193,0.600000,0.949030,1.000000,0.000000,0.000000
/home/daniel/Projects/ppsevolution/data/maps/custom_maps/Custom_4_Run_0_Map.csv,0.039053,0.899530,0.210000,0.771164,0.009141,0.030000,1.000000,0.000000,0.951298,0.000000,0.176053,0.600000,1.000000,1.000000,0.000000,0.000000
/home/daniel/Projects/ppsevolution/data/maps/custom_maps/Custom_4_Run_0_Map.csv,0.121607,1.000000,0.129204,0.800000,0.030000,0.030000,1.000000,1.000000,1.000000,0.000000,0.010402,0.689515,1.000000,0.907003,0.101776,0.000000
/home/daniel/Projects/ppsevolution/data/maps/custom_maps/Custom_5_Run_0_Map.csv,0.058405,1.000000,0.348521,0.906303,0.063541,0.000000,1.000000,2.000000,0.765441,0.000000,0.291417,0.850776,0.862512,0.686620,1.000000,2.000000
/home/daniel/Projects/ppsevolution/data/maps/custom_maps/Custom_5_Run_0_Map.csv,0.117638,0.790264,0.772522,0.865749,0.078594,0.085579,1.000000,2.000000,0.857130,0.000000,0.313479,0.882436,1.000000,0.946834,0.349725,0.000000
/home/daniel/Projects/ppsevolution/data/maps/custom_maps/Custom_5_Run_0_Map.csv,0.000000,1.000000,0.377044,0.927703,0.110984,0.000000,0.908155,0.000000,0.348889,0.000000,0.114278,0.945825,0.769293,1.000000,0.054881,0.000000
/home/daniel/Projects/ppsevolution/data/maps/custom_maps/Custom_5_Run_0_Map.csv,0.000000,0.843534,0.599285,0.822630,0.000000,0.321403,1.000000,2.000000,0.363999,0.000000,0.345120,0.835670,1.000000,0.725906,0.608774,2.000000
/home/daniel/Projects/ppsevolution/data/maps/custom_maps/Custom_5_Run_0_Map.csv,0.000000,1.000000,0.634540,0.883423,0.125006,0.037090,0.831468,2.000000,0.651295,0.083367,0.697635,0.820419,1.000000,1.000000,0.512126,2.000000
/home/daniel/Projects/ppsevolution/data/maps/custom_maps/Custom_5_Run_0_Map.csv,0.000000,0.693512,0.542271,0.891636,0.000000,0.312194,1.000000,2.000000,0.783657,0.050459,0.000000,0.914205,1.000000,0.787026,0.420989,2.000000
/home/daniel/Projects/ppsevolution/data/maps/custom_maps/Custom_5_Run_0_Map.csv,0.263990,0.919429,0.381752,0.896532,0.030000,0.229633,1.000000,2.000000,0.564929,0.046261,0.000000,0.939650,0.792730,1.000000,0.404089,2.000000
/home/daniel/Projects/ppsevolution/data/maps/custom_maps/Custom_5_Run_0_Map.csv,0.000000,0.982648,0.334120,1.000000,0.368594,0.000000,0.845540,1.000000,1.000000,0.000000,0.044581,0.985529,1.000000,1.000000,0.000000,0.000000
/home/daniel/Projects/ppsevolution/data/maps/custom_maps/Custom_5_Run_0_Map.csv,0.079352,1.000000,0.296886,1.000000,0.030000,0.000000,0.844968,0.000000,0.813662,0.111912,0.000000,1.000000,0.779202,0.983284,0.008389,0.000000
/home/daniel/Projects/ppsevolution/data/maps/custom_maps/Custom_5_Run_0_Map.csv,0.000000,0.817717,0.526136,0.900773,0.138752,0.000000,1.000000,2.000000,0.824428,0.102195,0.251984,0.876440,1.000000,0.801833,0.436544,2.000000
/home/daniel/Projects/ppsevolution/data/maps/custom_maps/Custom_6_Run_0_Map.csv,0.162950,1.000000,0.000000,1.000000,0.000000,0.000000,0.081152,2.000000,1.000000,0.794525,1.000000,0.920608,1.000000,1.000000,1.000000,2.000000
/home/daniel/Projects/ppsevolution/data/maps/custom_maps/Custom_6_Run_0_Map.csv,0.000000,1.000000,0.000000,1.000000,0.000000,0.000000,0.850300,2.000000,1.000000,0.485888,1.000000,0.895793,1.000000,1.000000,1.000000,2.000000
/home/daniel/Projects/ppsevolution/data/maps/custom_maps/Custom_6_Run_0_Map.csv,0.301291,1.000000,0.000000,1.000000,0.000000,0.000000,0.000000,2.000000,1.000000,0.536629,1.000000,0.934286,1.000000,1.000000,1.000000,2.000000
/home/daniel/Projects/ppsevolution/data/maps/custom_maps/Custom_6_Run_0_Map.csv,0.019274,1.000000,0.000000,1.000000,0.000000,0.000000,0.854964,2.000000,1.000000,0.483766,1.000000,0.897155,1.000000,1.000000,1.000000,2.000000
/home/daniel/Projects/ppsevolution/data/maps/custom_maps/Custom_6_Run_0_Map.csv,0.042604,1.000000,0.000000,1.000000,0.000000,0.000000,0.642328,2.000000,1.000000,0.726273,1.000000,0.900711,1.000000,1.000000,1.000000,2.000000
/home/daniel/Projects/ppsevolution/data/maps/custom_maps/Custom_6_Run_0_Map.csv,0.057226,1.000000,0.000000,1.000000,0.000000,0.000000,0.538674,2.000000,1.000000,0.007541,1.000000,0.905046,1.000000,1.000000,1.000000,2.000000
/home/daniel/Projects/ppsevolution/data/maps/custom_maps/Custom_6_Run_0_Map.csv,0.000000,1.000000,0.000000,1.000000,0.000000,0.000000,0.939431,2.000000,1.000000,0.246199,1.000000,0.892609,1.000000,1.000000,1.000000,2.000000
/home/daniel/Projects/ppsevolution/data/maps/custom_maps/Custom_6_Run_0_Map.csv,0.212319,1.000000,0.000000,1.000000,0.000000,0.000000,0.581589,2.000000,1.000000,0.089152,1.000000,0.918219,1.000000,1.000000,1.000000,2.000000
/home/daniel/Projects/ppsevolution/data/maps/custom_maps/Custom_6_Run_0_Map.csv,0.000000,1.000000,0.000000,1.000000,0.000000,0.000000,1.000000,2.000000,1.000000,0.036753,1.000000,0.889672,1.000000,1.000000,1.000000,2.000000
/home/daniel/Projects/ppsevolution/data/maps/custom_maps/Custom_6_Run_0_Map.csv,0.000000,1.000000,0.000000,1.000000,0.000000,0.000000,0.634883,2.000000,1.000000,0.222047,1.000000,0.896405,1.000000,1.000000,1.000000,2.000000
/home/daniel/Projects/ppsevolution/data/maps/custom_maps/Custom_7_Run_0_Map.csv,0.000000,0.950292,0.437906,0.917308,0.004080,0.049104,1.000000,2.000000,0.901941,0.000000,0.440866,0.855507,1.000000,1.000000,0.868476,2.000000
/home/daniel/Projects/ppsevolution/data/maps/custom_maps/Custom_7_Run_0_Map.csv,0.000000,1.000000,0.213282,0.938221,0.000000,0.030511,1.000000,2.000000,1.000000,0.000000,0.595961,0.806271,0.684023,1.000000,0.706879,2.000000
/home/daniel/Projects/ppsevolution/data/maps/custom_maps/Custom_7_Run_0_Map.csv,0.000000,0.981012,0.578128,0.983063,0.030000,0.020993,1.000000,0.000000,0.828647,0.025001,0.046984,1.000000,1.000000,0.755285,0.103692,1.000000
/home/daniel/Projects/ppsevolution/data/maps/custom_maps/Custom_7_Run_0_Map.csv,0.000000,0.859098,0.292694,0.920122,0.000000,0.000411,1.000000,2.000000,0.702843,0.000000,0.442814,0.850490,1.000000,1.000000,1.000000,2.000000
/home/daniel/Projects/ppsevolution/data/maps/custom_maps/Custom_7_Run_0_Map.csv,0.006235,1.000000,0.388468,0.900720,0.000000,0.000000,1.000000,2.000000,0.734557,0.000000,0.515270,0.820807,0.668239,1.000000,1.000000,2.000000
/home/daniel/Projects/ppsevolution/data/maps/custom_maps/Custom_7_Run_0_Map.csv,0.085987,1.000000,0.470145,0.942099,0.024315,0.000000,0.954953,2.000000,0.736605,0.000000,0.055780,0.970936,0.760742,1.000000,0.677528,2.000000
/home/daniel/Projects/ppsevolution/data/maps/custom_maps/Custom_7_Run_0_Map.csv,0.076449,0.939404,0.317115,1.000000,0.338367,0.018790,0.886543,1.000000,0.793911,0.005942,0.155846,1.000000,0.997383,0.959155,0.000000,0.000000
/home/daniel/Projects/ppsevolution/data/maps/custom_maps/Custom_7_Run_0_Map.csv,0.000000,1.000000,0.626820,0.928875,0.000000,0.277267,0.996149,2.000000,0.923721,0.054238,0.216145,0.933070,0.955735,1.000000,0.721314,2.000000
/home/daniel/Projects/ppsevolution/data/maps/custom_maps/Custom_7_Run_0_Map.csv,0.000000,1.000000,0.333970,0.938578,0.000000,0.034723,1.000000,2.000000,0.874954,0.000000,0.297221,0.894750,1.000000,1.000000,0.192950,2.000000
/home/daniel/Projects/ppsevolution/data/maps/custom_maps/Custom_7_Run_0_Map.csv,0.137403,0.815196,0.249251,0.906578,0.000000,0.240938,0.999496,2.000000,0.582530,0.009174,0.644505,0.809983,0.835079,1.000000,0.992154,2.000000
/home/daniel/Projects/ppsevolution/data/maps/custom_maps/Custom_8_Run_0_Map.csv,0.000000,1.000000,0.210000,0.800000,0.030000,0.030000,1.000000,2.000000,1.000000,0.000000,0.258484,0.600000,1.000000,0.909207,0.085499,1.000000
/home/daniel/Projects/ppsevolution/data/maps/custom_maps/Custom_8_Run_0_Map.csv,0.000000,0.952087,0.210000,0.800000,0.030574,0.000000,1.000000,2.000000,1.000000,0.021922,0.267633,0.600000,0.881440,1.000000,0.035953,1.000000
/home/daniel/Projects/ppsevolution/data/maps/custom_maps/Custom_8_Run_0_Map.csv,0.000000,1.000000,0.210000,0.800000,0.030000,0.030000,1.000000,1.000000,0.938851,0.000000,0.067045,0.690490,1.000000,0.822125,0.096223,2.000000
/home/daniel/Projects/ppsevolution/data/maps/custom_maps/Custom_8_Run_0_Map.csv,0.000000,1.000000,0.210000,0.800000,0.000000,0.030000,1.000000,2.000000,1.000000,0.131717,0.008912,0.705417,0.944165,0.871778,0.223270,1.000000
/home/daniel/Projects/ppsevolution/data/maps/custom_maps/Custom_8_Run_0_Map.csv,0.135137,1.000000,0.210000,0.800000,0.076538,0.000000,0.901448,2.000000,1.000000,0.143697,0.197105,0.660800,1.000000,1.000000,0.000000,2.000000
/home/daniel/Projects/ppsevolution/data/maps/custom_maps/Custom_8_Run_0_Map.csv,0.111203,1.000000,0.210000,0.800000,0.129302,0.030000,1.000000,2.000000,0.994160,0.000000,0.118408,0.693670,1.000000,1.000000,0.000000,1.000000
/home/daniel/Projects/ppsevolution/data/maps/custom_maps/Custom_8_Run_0_Map.csv,0.000000,1.000000,0.210000,0.800000,0.032068,0.000000,1.000000,1.000000,0.925705,0.000000,0.000000,0.723751,0.990886,1.000000,0.000000,2.000000
/home/daniel/Projects/ppsevolution/data/maps/custom_maps/Custom_8_Run_0_Map.csv,0.000000,0.991628,0.210000,0.800000,0.030000,0.029725,1.000000,2.000000,1.000000,0.000000,0.097115,0.673963,1.000000,0.854443,0.118539,1.000000
/home/daniel/Projects/ppsevolution/data/maps/custom_maps/Custom_8_Run_0_Map.csv,0.000000,0.893411,0.264961,0.800000,0.000000,0.000000,0.822577,2.000000,1.000000,0.000000,0.000000,0.735696,1.000000,1.000000,0.000000,0.000000
/home/daniel/Projects/ppsevolution/data/maps/custom_maps/Custom_8_Run_0_Map.csv,0.000000,1.000000,0.210000,0.800000,0.030000,0.030000,0.921448,1.000000,0.954595,0.000000,0.243682,0.600000,1.000000,1.000000,0.316447,2.000000
/home/daniel/Projects/ppsevolution/data/maps/custom_maps/Custom_9_Run_0_Map.csv,0.000000,1.000000,0.210000,0.715948,0.000000,0.000000,1.000000,1.000000,1.000000,0.000000,0.085848,0.593352,0.722870,1.000000,0.006671,2.000000
/home/daniel/Projects/ppsevolution/data/maps/custom_maps/Custom_9_Run_0_Map.csv,0.000000,1.000000,0.000000,0.800000,0.000000,0.069292,0.970761,2.000000,1.000000,0.111854,0.117820,0.600000,1.000000,1.000000,0.000000,0.000000
/home/daniel/Projects/ppsevolution/data/maps/custom_maps/Custom_9_Run_0_Map.csv,0.000000,1.000000,0.210000,0.733775,0.008232,0.030000,0.897024,1.000000,1.000000,0.000000,0.000000,0.656424,1.000000,1.000000,0.000000,0.000000
/home/daniel/Projects/ppsevolution/data/maps/custom_maps/Custom_9_Run_0_Map.csv,0.000000,0.784416,0.048689,0.784453,0.030000,0.030000,1.000000,1.000000,1.000000,0.000000,0.063697,0.600000,1.000000,0.712352,0.252281,2.000000
/home/daniel/Projects/ppsevolution/data/maps/custom_maps/Custom_9_Run_0_Map.csv,0.000000,0.993279,0.210000,0.712634,0.030000,0.024147,1.000000,2.000000,1.000000,0.000000,0.074825,0.605031,1.000000,1.000000,0.000000,0.000000
/home/daniel/Projects/ppsevolution/data/maps/custom_maps/Custom_9_Run_0_Map.csv,0.000000,0.838929,0.241525,0.710788,0.000000,0.030000,1.000000,0.000000,0.966713,0.000000,0.039242,0.627550,1.000000,1.000000,0.000000,2.000000
/home/daniel/Projects/ppsevolution/data/maps/custom_maps/Custom_9_Run_0_Map.csv,0.000000,1.000000,0.195287,0.743725,0.029599,0.000000,0.991217,0.000000,1.000000,0.138125,0.135390,0.590813,1.000000,1.000000,0.000000,1.000000
/home/daniel/Projects/ppsevolution/data/maps/custom_maps/Custom_9_Run_0_Map.csv,0.025330,1.000000,0.127912,0.769055,0.030000,0.030000,0.955558,0.000000,0.987666,0.000000,0.138539,0.600000,0.952970,1.000000,0.000000,1.000000
/home/daniel/Projects/ppsevolution/data/maps/custom_maps/Custom_9_Run_0_Map.csv,0.000000,1.000000,0.241696,0.697978,0.031941,0.030000,1.000000,1.000000,0.961858,0.000000,0.023628,0.625629,0.908335,0.954028,0.000000,2.000000
/home/daniel/Projects/ppsevolution/data/maps/custom_maps/Custom_9_Run_0_Map.csv,0.000000,1.000000,0.220915,0.726984,0.099666,0.000000,0.842637,1.000000,1.000000,0.000000,0.092342,0.605558,1.000000,0.898332,0.000000,1.000000
/home/daniel/Projects/ppsevolution/data/maps/custom_maps/Custom_10_Run_0_Map.csv,0.148733,0.755292,1.000000,0.842788,0.000000,0.091272,1.000000,2.000000,0.000000,0.186099,0.736205,0.898287,1.000000,0.646570,1.000000,2.000000
/home/daniel/Projects/ppsevolution/data/maps/custom_maps/Custom_10_Run_0_Map.csv,0.000000,0.661499,0.765998,0.985226,0.090092,0.292438,1.000000,2.000000,0.357319,0.008456,1.000000,0.978848,0.612298,0.806670,0.651461,2.000000
/home/daniel/Projects/ppsevolution/data/maps/custom_maps/Custom_10_Run_0_Map.csv,0.000000,0.794062,0.567412,0.981755,0.049426,0.167795,0.988731,2.000000,0.020419,0.000000,0.582159,1.000000,0.847346,0.819199,0.667665,2.000000
/home/daniel/Projects/ppsevolution/data/maps/custom_maps/Custom_10_Run_0_Map.csv,0.062560,0.969358,0.990368,0.983457,0.122227,0.254730,0.872451,2.000000,0.520563,0.080494,0.803125,1.000000,1.000000,0.598379,0.213391,1.000000
/home/daniel/Projects/ppsevolution/data/maps/custom_maps/Custom_10_Run_0_Map.csv,0.000000,1.000000,0.963437,0.887105,0.000000,0.171731,0.992478,2.000000,0.314974,0.054935,1.000000,0.875552,1.000000,0.730986,1.000000,2.000000
/home/daniel/Projects/ppsevolution/data/maps/custom_maps/Custom_10_Run_0_Map.csv,0.000000,1.000000,0.533883,1.000000,0.279292,0.127452,0.991975,2.000000,0.214084,0.076279,0.652166,1.000000,0.975621,0.605608,0.896422,2.000000
/home/daniel/Projects/ppsevolution/data/maps/custom_maps/Custom_10_Run_0_Map.csv,0.000000,0.957918,0.888604,1.000000,0.000000,0.142717,1.000000,2.000000,0.702727,0.000000,0.902487,1.000000,0.842897,1.000000,0.476553,1.000000
/home/daniel/Projects/ppsevolution/data/maps/custom_maps/Custom_10_Run_0_Map.csv,0.000000,0.929917,0.637814,1.000000,0.000296,0.520502,1.000000,2.000000,0.541811,0.002125,0.563879,1.000000,0.962857,0.921118,0.827335,2.000000
/home/daniel/Projects/ppsevolution/data/maps/custom_maps/Custom_10_Run_0_Map.csv,0.016378,0.833955,0.913809,1.000000,0.000000,0.419465,1.000000,2.000000,0.951727,0.047782,0.589060,1.000000,1.000000,0.695979,1.000000,2.000000
/home/daniel/Projects/ppsevolution/data/maps/custom_maps/Custom_10_Run_0_Map.csv,0.000000,0.990481,0.826868,0.977184,0.000000,0.000000,1.000000,2.000000,0.446708,0.000000,0.393411,1.000000,0.820940,0.456475,0.508224,2.000000
