/home/daniel/Projects/ppsevolution/data/maps/custom_maps/Custom_1_Run_0_Map.csv,0.049398,0.954322,0.531113,1.000000,0.232855,0.000000,0.812733,2.000000,0.908015,0.047278,0.707202,1.000000,0.690900,0.831836,0.051597,2.000000
/home/daniel/Projects/ppsevolution/data/maps/custom_maps/Custom_1_Run_0_Map.csv,0.000000,1.000000,0.440237,1.000000,0.000000,0.066327,1.000000,2.000000,0.409941,0.214484,1.000000,1.000000,0.640181,0.632406,0.642179,2.000000
/home/daniel/Projects/ppsevolution/data/maps/custom_maps/Custom_1_Run_0_Map.csv,0.000000,1.000000,0.621404,0.995237,0.000000,0.136536,1.000000,1.000000,0.641407,0.183365,0.920185,1.000000,0.919286,0.713413,0.632903,2.000000
/home/daniel/Projects/ppsevolution/data/maps/custom_maps/Custom_1_Run_0_Map.csv,0.000000,0.728599,0.343630,0.989927,0.000000,0.125584,0.781056,2.000000,0.000000,0.164596,0.975355,1.000000,0.910851,0.503290,0.592579,2.000000
/home/daniel/Projects/ppsevolution/data/maps/custom_maps/Custom_1_Run_0_Map.csv,0.000000,1.000000,0.602497,1.000000,0.052957,0.075253,1.000000,2.000000,0.885245,0.311386,0.830278,1.000000,0.870985,0.773025,0.658155,2.000000
/home/daniel/Projects/ppsevolution/data/maps/custom_maps/Custom_1_Run_0_Map.csv,0.004407,1.000000,0.453278,1.000000,0.033927,0.440034,1.000000,2.000000,0.568712,0.000000,0.860933,1.000000,0.957202,0.440693,0.982048,2.000000
/home/daniel/Projects/ppsevolution/data/maps/custom_maps/Custom_1_Run_0_Map.csv,0.116088,0.900727,0.390907,1.000000,0.000000,0.001605,1.000000,2.000000,0.545349,0.222297,1.000000,1.000000,1.000000,1.000000,0.430008,2.000000
/home/daniel/Projects/ppsevolution/data/maps/custom_maps/Custom_1_Run_0_Map.csv,0.000000,0.859308,0.406807,1.000000,0.154023,0.219382,1.000000,2.000000,0.580312,0.020454,0.912661,1.000000,0.644909,0.987767,0.482267,2.000000
/home/daniel/Projects/ppsevolution/data/maps/custom_maps/Custom_1_Run_0_Map.csv,0.008311,0.844023,0.374223,1.000000,0.000000,0.615575,1.000000,2.000000,0.619553,0.011587,0.815392,1.000000,0.790675,0.947819,0.571770,2.000000
/home/daniel/Projects/ppsevolution/data/maps/custom_maps/Custom_1_Run_0_Map.csv,0.000000,0.818945,0.273077,1.000000,0.084633,0.125691,0.910866,1.000000,0.722987,0.062508,0.362047,1.000000,1.000000,0.681837,0.159235,2.000000
/home/daniel/Projects/ppsevolution/data/maps/custom_maps/Custom_2_Run_0_Map.csv,0.063392,0.997100,0.459829,1.000000,0.000000,0.327645,1.000000,2.000000,0.457545,0.126617,0.957114,1.000000,0.596275,1.000000,0.879692,2.000000
/home/daniel/Projects/ppsevolution/data/maps/custom_maps/Custom_2_Run_0_Map.csv,0.095094,0.868564,0.574940,1.000000,0.028496,0.168130,1.000000,2.000000,0.570930,0.551934,1.000000,1.000000,1.000000,0.741478,0.891178,2.000000
/home/daniel/Projects/ppsevolution/data/maps/custom_maps/Custom_2_Run_0_Map.csv,0.000000,0.884531,0.517839,1.000000,0.000000,0.013027,0.911606,2.000000,0.714805,0.551660,1.000000,1.000000,0.937739,0.828445,0.764216,2.000000
/home/daniel/Projects/ppsevolution/data/maps/custom_maps/Custom_2_Run_0_Map.csv,0.010972,0.890474,0.314155,1.000000,0.110229,0.121629,0.907937,2.000000,0.459091,0.320148,1.000000,1.000000,1.000000,0.951173,0.916110,2.000000
/home/daniel/Projects/ppsevolution/data/maps/custom_maps/Custom_2_Run_0_Map.csv,0.053956,0.906964,0.324518,1.000000,0.292761,0.103239,0.882028,2.000000,0.447072,0.714268,0.963091,0.990708,0.777179,0.911315,1.000000,2.000000
/home/daniel/Projects/ppsevolution/data/maps/custom_maps/Custom_2_Run_0_Map.csv,0.000000,0.823218,0.440387,1.000000,0.000000,0.058931,1.000000,2.000000,0.493051,0.251217,0.988073,1.000000,0.882146,0.911640,1.000000,2.000000
/home/daniel/Projects/ppsevolution/data/maps/custom_maps/Custom_2_Run_0_Map.csv,0.000000,0.831157,0.362654,1.000000,0.000000,0.143964,0.977272,2.000000,0.251129,0.391615,1.000000,1.000000,0.895348,0.568410,0.876436,2.000000
/home/daniel/Projects/ppsevolution/data/maps/custom_maps/Custom_2_Run_0_Map.csv,0.000000,0.826796,0.714425,1.000000,0.000000,0.222755,0.935040,2.000000,0.883530,0.817960,1.000000,1.000000,1.000000,1.000000,0.992542,2.000000
/home/daniel/Projects/ppsevolution/data/maps/custom_maps/Custom_2_Run_0_Map.csv,0.000000,0.954211,0.578031,1.000000,0.195315,0.000000,0.947198,2.000000,0.463324,0.143017,1.000000,1.000000,0.857881,0.938240,0.781046,2.000000
/home/daniel/Projects/ppsevolution/data/maps/custom_maps/Custom_2_Run_0_Map.csv,0.035078,0.973588,0.622969,1.000000,0.000000,0.143210,0.955506,2.000000,0.853418,0.076311,1.000000,1.000000,0.924182,0.791276,0.988860,2.000000
/home/daniel/Projects/ppsevolution/data/maps/custom_maps/Custom_3_Run_0_Map.csv,0.017349,0.877075,0.933677,0.967028,0.061793,0.000000,0.981445,2.000000,0.000000,0.027854,1.000000,1.000000,0.655618,0.301513,0.866349,2.000000
/home/daniel/Projects/ppsevolution/data/maps/custom_maps/Custom_3_Run_0_Map.csv,0.000000,0.618768,1.000000,1.000000,0.250211,0.245118,0.963331,2.000000,0.078582,0.022627,1.000000,1.000000,0.879273,0.095126,0.845415,2.000000
/home/daniel/Projects/ppsevolution/data/maps/custom_maps/Custom_3_Run_0_Map.csv,0.000000,0.895841,0.945034,0.966917,0.000000,0.315790,1.000000,2.000000,0.014577,0.000000,1.000000,1.000000,0.771536,0.518087,0.967837,2.000000
/home/daniel/Projects/ppsevolution/data/maps/custom_maps/Custom_3_Run_0_Map.csv,0.000000,1.000000,0.965478,1.000000,0.000000,0.257400,0.953024,2.000000,0.076761,0.100720,1.000000,1.000000,0.833634,0.000000,0.018694,2.000000
/home/daniel/Projects/ppsevolution/data/maps/custom_maps/Custom_3_Run_0_Map.csv,0.000000,0.960356,0.929012,0.974283,0.000000,0.159776,0.960402,2.000000,0.208365,0.000000,1.000000,1.000000,0.588426,0.000000,0.988311,2.000000
/home/daniel/Projects/ppsevolution/data/maps/custom_maps/Custom_3_Run_0_Map.csv,0.000000,0.684250,1.000000,0.979012,0.144607,0.924753,0.956875,2.000000,0.022007,0.056510,0.901048,1.000000,0.667432,0.161995,1.000000,1.000000
/home/daniel/Projects/ppsevolution/data/maps/custom_maps/Custom_3_Run_0_Map.csv,0.049546,1.000000,1.000000,0.976481,0.000000,0.393688,1.000000,2.000000,0.269350,0.194247,0.965516,1.000000,0.630099,0.236361,1.000000,2.000000
/home/daniel/Projects/ppsevolution/data/maps/custom_maps/Custom_3_Run_0_Map.csv,0.000000,0.213913,1.000000,0.983474,0.000847,0.422437,0.988496,2.000000,0.030750,0.243001,0.984023,1.000000,0.554545,0.200145,0.995522,2.000000
/home/daniel/Projects/ppsevolution/data/maps/custom_maps/Custom_3_Run_0_Map.csv,0.000000,0.785187,0.936700,0.974053,0.074020,0.000000,0.797759,2.000000,0.004682,0.170192,0.989577,1.000000,0.703193,0.290279,0.881394,2.000000
/home/daniel/Projects/ppsevolution/data/maps/custom_maps/Custom_3_Run_0_Map.csv,0.000000,0.862888,0.909177,1.000000,0.099583,0.542625,1.000000,2.000000,0.190524,0.105865,1.000000,1.000000,0.969817,0.183191,0.921963,2.000000
/home/daniel/Projects/ppsevolution/data/maps/custom_maps/Custom_4_Run_0_Map.csv,0.000000,0.870625,0.974676,1.000000,0.000000,0.161277,0.955182,2.000000,0.337582,0.181702,1.000000,1.000000,0.981059,0.216296,0.248238,2.000000
/home/daniel/Projects/ppsevolution/data/maps/custom_maps/Custom_4_Run_0_Map.csv,0.056796,1.000000,0.832753,0.978745,0.303701,0.000000,1.000000,1.000000,0.000000,0.435958,0.828259,1.000000,0.558766,1.000000,0.803403,2.000000
/home/daniel/Projects/ppsevolution/data/maps/custom_maps/Custom_4_Run_0_Map.csv,0.000000,0.186785,0.824601,1.000000,0.000000,0.000000,1.000000,2.000000,0.342619,0.299790,0.970793,1.000000,0.769169,1.000000,0.977112,2.000000
/home/daniel/Projects/ppsevolution/data/maps/custom_maps/Custom_4_Run_0_Map.csv,0.094269,0.716411,1.000000,0.985081,0.000000,0.102066,0.985439,2.000000,0.249758,0.000000,1.000000,1.000000,0.872362,0.594045,0.264123,2.000000
/home/daniel/Projects/ppsevolution/data/maps/custom_maps/Custom_4_Run_0_Map.csv,0.046991,0.177072,1.000000,0.987757,0.330391,0.000000,0.991763,2.000000,0.221643,0.193020,1.000000,1.000000,0.996902,0.332638,0.267589,2.000000
/home/daniel/Projects/ppsevolution/data/maps/custom_maps/Custom_4_Run_0_Map.csv,0.040529,0.559486,0.864047,1.000000,0.000000,0.302921,1.000000,2.000000,0.157197,0.026788,1.000000,1.000000,0.560748,0.525421,0.252900,2.000000
/home/daniel/Projects/ppsevolution/data/maps/custom_maps/Custom_4_Run_0_Map.csv,0.000000,0.841898,0.892616,0.989081,0.000000,0.000000,0.985249,2.000000,0.134962,0.043859,1.000000,1.000000,0.162638,0.643852,0.490140,2.000000
/home/daniel/Projects/ppsevolution/data/maps/custom_maps/Custom_4_Run_0_Map.csv,0.000000,0.878180,1.000000,1.000000,0.060669,0.178797,1.000000,1.000000,0.348203,0.115213,1.000000,1.000000,0.754179,0.619913,0.000000,2.000000
/home/daniel/Projects/ppsevolution/data/maps/custom_maps/Custom_4_Run_0_Map.csv,0.069582,0.822170,1.000000,1.000000,0.038596,0.051917,1.000000,2.000000,0.520030,0.026587,0.979421,1.000000,0.889645,0.484653,0.391194,2.000000
/home/daniel/Projects/ppsevolution/data/maps/custom_maps/Custom_4_Run_0_Map.csv,0.000000,0.898209,0.644814,0.997477,0.004302,0.063440,1.000000,2.000000,0.000000,0.819136,1.000000,1.000000,0.331732,0.344741,0.591462,2.000000
/home/daniel/Projects/ppsevolution/data/maps/custom_maps/Custom_5_Run_0_Map.csv,0.153913,0.471601,1.000000,0.959852,0.154090,0.921667,0.971373,2.000000,0.000000,0.216670,0.826737,1.000000,0.942385,0.000000,0.602679,1.000000
/home/daniel/Projects/ppsevolution/data/maps/custom_maps/Custom_5_Run_0_Map.csv,0.120994,0.558394,1.000000,0.972557,0.057628,0.533464,0.977164,2.000000,0.000000,0.235600,0.851648,1.000000,0.799183,0.054965,0.123686,1.000000
/home/daniel/Projects/ppsevolution/data/maps/custom_maps/Custom_5_Run_0_Map.csv,0.074699,0.917102,1.000000,0.982407,0.303875,0.112557,1.000000,2.000000,0.000000,0.000000,1.000000,1.000000,0.676941,0.123768,0.331543,1.000000
/home/daniel/Projects/ppsevolution/data/maps/custom_maps/Custom_5_Run_0_Map.csv,0.098335,0.286983,0.993626,0.989473,0.388536,0.623825,1.000000,2.000000,0.000000,0.144211,1.000000,1.000000,0.773025,0.096393,0.100523,2.000000
/home/daniel/Projects/ppsevolution/data/maps/custom_maps/Custom_5_Run_0_Map.csv,0.029239,0.833614,1.000000,0.978169,0.015453,0.370528,0.970019,2.000000,0.000000,0.261522,0.948246,1.000000,1.000000,0.000000,1.000000,1.000000
/home/daniel/Projects/ppsevolution/data/maps/custom_maps/Custom_5_Run_0_Map.csv,0.145161,0.923116,1.000000,0.977293,0.145986,0.877590,1.000000,2.000000,0.000000,0.000000,1.000000,0.999552,0.781140,0.118929,0.280862,1.000000
/home/daniel/Projects/ppsevolution/data/maps/custom_maps/Custom_5_Run_0_Map.csv,0.000000,0.759939,1.000000,0.980911,0.000000,0.425350,0.920503,2.000000,0.000000,0.129355,1.000000,1.000000,0.262659,0.000000,0.211602,2.000000
/home/daniel/Projects/ppsevolution/data/maps/custom_maps/Custom_5_Run_0_Map.csv,0.137234,0.914632,1.000000,0.985816,0.037815,0.523247,1.000000,2.000000,0.000000,0.024037,1.000000,1.000000,0.883426,0.000000,0.079354,2.000000
/home/daniel/Projects/ppsevolution/data/maps/custom_maps/Custom_5_Run_0_Map.csv,0.000000,0.923998,1.000000,0.972802,0.000000,0.000000,1.000000,2.000000,0.022146,0.063081,0.741464,1.000000,0.997390,0.441296,0.510022,2.000000
/home/daniel/Projects/ppsevolution/data/maps/custom_maps/Custom_5_Run_0_Map.csv,0.148565,0.957031,1.000000,0.973558,0.171452,0.977486,1.000000,2.000000,0.022181,0.080922,0.980317,1.000000,0.947956,0.000000,0.228489,1.000000
/home/daniel/Projects/ppsevolution/data/maps/custom_maps/Custom_6_Run_0_Map.csv,0.249183,0.933472,0.013951,1.000000,0.036859,0.000000,0.091371,2.000000,0.976485,0.180723,0.993714,1.000000,0.996496,0.984618,0.567490,2.000000
/home/daniel/Projects/ppsevolution/data/maps/custom_maps/Custom_6_Run_0_Map.csv,0.000000,1.000000,0.000000,1.000000,0.147011,0.000000,0.935280,2.000000,1.000000,0.128243,1.000000,0.926047,0.935824,0.894299,0.101874,2.000000
/home/daniel/Projects/ppsevolution/data/maps/custom_maps/Custom_6_Run_0_Map.csv,0.000000,0.877787,0.032887,0.996040,0.000000,0.266310,0.591342,2.000000,1.000000,0.594999,0.985912,0.969329,0.963898,1.000000,0.691235,2.000000
/home/daniel/Projects/ppsevolution/data/maps/custom_maps/Custom_6_Run_0_Map.csv,0.040622,1.000000,0.000000,1.000000,0.091011,0.000000,0.219348,2.000000,1.000000,0.329045,1.000000,0.948681,0.756506,0.939209,0.397167,2.000000
/home/daniel/Projects/ppsevolution/data/maps/custom_maps/Custom_6_Run_0_Map.csv,0.162411,0.830908,0.022421,1.000000,0.050199,0.178474,0.197467,2.000000,0.923784,0.794400,1.000000,1.000000,0.980336,0.891060,0.915797,2.000000
/home/daniel/Projects/ppsevolution/data/maps/custom_maps/Custom_6_Run_0_Map.csv,0.151759,1.000000,0.000000,1.000000,0.000000,0.092762,0.278286,2.000000,1.000000,0.722314,0.984631,1.000000,0.967301,0.962068,0.636283,2.000000
/home/daniel/Projects/ppsevolution/data/maps/custom_maps/Custom_6_Run_0_Map.csv,0.192904,0.932862,0.000000,1.000000,0.000000,0.208674,0.955366,2.000000,0.999306,0.261602,1.000000,0.951704,1.000000,0.967022,0.000000,2.000000
/home/daniel/Projects/ppsevolution/data/maps/custom_maps/Custom_6_Run_0_Map.csv,0.000000,0.465037,0.000000,1.000000,0.034506,0.000000,0.832346,2.000000,1.000000,0.333544,0.959169,0.946596,0.990574,0.906365,0.492878,2.000000
/home/daniel/Projects/ppsevolution/data/maps/custom_maps/Custom_6_Run_0_Map.csv,0.048845,0.247680,0.025043,1.000000,0.235702,0.001528,0.527679,2.000000,1.000000,0.411145,1.000000,0.956773,0.775982,0.735090,0.667185,2.000000
/home/daniel/Projects/ppsevolution/data/maps/custom_maps/Custom_6_Run_0_Map.csv,0.083190,0.983156,0.000000,1.000000,0.424596,0.000000,0.148381,2.000000,1.000000,0.386089,1.000000,0.964051,0.811632,0.898865,1.000000,2.000000
/home/daniel/Projects/ppsevolution/data/maps/custom_maps/Custom_7_Run_0_Map.csv,0.000000,0.817454,0.700895,1.000000,0.000000,0.000000,0.985867,2.000000,0.748000,0.000000,0.948283,1.000000,0.368996,0.952950,1.000000,2.000000
/home/daniel/Projects/ppsevolution/data/maps/custom_maps/Custom_7_Run_0_Map.csv,0.000000,0.837305,0.259132,1.000000,0.080904,0.000460,0.983235,2.000000,0.049896,0.258432,1.000000,1.000000,0.917867,0.785942,0.863134,2.000000
/home/daniel/Projects/ppsevolution/data/maps/custom_maps/Custom_7_Run_0_Map.csv,0.169462,0.692932,0.580620,1.000000,0.125242,0.000000,0.805256,2.000000,0.802189,0.211296,1.000000,1.000000,0.375139,1.000000,0.832479,2.000000
/home/daniel/Projects/ppsevolution/data/maps/custom_maps/Custom_7_Run_0_Map.csv,0.000000,1.000000,0.833842,1.000000,0.069308,0.000000,0.969302,2.000000,1.000000,0.115693,1.000000,1.000000,0.986512,1.000000,0.942547,2.000000
/home/daniel/Projects/ppsevolution/data/maps/custom_maps/Custom_7_Run_0_Map.csv,0.046809,1.000000,0.695740,1.000000,0.102421,0.209944,1.000000,2.000000,0.782641,0.177782,1.000000,1.000000,0.757953,0.753586,0.283172,2.000000
/home/daniel/Projects/ppsevolution/data/maps/custom_maps/Custom_7_Run_0_Map.csv,0.055381,0.998413,0.232198,1.000000,0.124934,0.150615,0.834350,2.000000,0.175628,0.175658,1.000000,1.000000,0.756660,0.955877,1.000000,2.000000
/home/daniel/Projects/ppsevolution/data/maps/custom_maps/Custom_7_Run_0_Map.csv,0.000000,0.675358,0.750445,1.000000,0.000000,0.021260,0.828894,2.000000,0.979232,0.545676,1.000000,1.000000,1.000000,0.914546,0.948089,2.000000
/home/daniel/Projects/ppsevolution/data/maps/custom_maps/Custom_7_Run_0_Map.csv,0.000000,0.995973,0.601502,1.000000,0.052448,0.000000,0.846674,2.000000,0.639712,0.000000,1.000000,1.000000,0.718416,1.000000,0.859302,2.000000
/home/daniel/Projects/ppsevolution/data/maps/custom_maps/Custom_7_Run_0_Map.csv,0.000000,0.166707,0.701572,1.000000,0.000000,0.000000,1.000000,2.000000,1.000000,0.088796,0.936822,0.996810,0.505201,0.988888,1.000000,2.000000
/home/daniel/Projects/ppsevolution/data/maps/custom_maps/Custom_7_Run_0_Map.csv,0.088694,0.470040,0.549540,1.000000,0.000000,0.000000,1.000000,2.000000,0.766651,0.183538,1.000000,1.000000,1.000000,0.797915,0.854862,2.000000
/home/daniel/Projects/ppsevolution/data/maps/custom_maps/Custom_8_Run_0_Map.csv,0.000000,0.832550,0.594898,1.000000,0.069340,0.196785,0.895563,1.000000,0.000000,0.002011,0.978284,1.000000,0.863078,0.811835,0.935026,2.000000
/home/daniel/Projects/ppsevolution/data/maps/custom_maps/Custom_8_Run_0_Map.csv,0.000000,0.771568,1.000000,1.000000,0.033279,0.000000,0.952598,2.000000,0.740288,0.000000,1.000000,1.000000,0.655245,0.496897,0.494169,2.000000
/home/daniel/Projects/ppsevolution/data/maps/custom_maps/Custom_8_Run_0_Map.csv,0.000000,0.747802,0.918033,1.000000,0.054073,0.038046,1.000000,2.000000,0.460447,0.132648,1.000000,1.000000,0.559824,0.111115,0.002535,2.000000
/home/daniel/Projects/ppsevolution/data/maps/custom_maps/Custom_8_Run_0_Map.csv,0.039909,0.903361,0.939758,1.000000,0.036511,0.000000,1.000000,1.000000,0.484216,0.000000,1.000000,1.000000,0.948713,0.564097,0.475513,2.000000
/home/daniel/Projects/ppsevolution/data/maps/custom_maps/Custom_8_Run_0_Map.csv,0.000000,0.856263,0.863567,1.000000,0.313863,0.608645,0.908340,2.000000,0.532044,0.048233,0.838745,1.000000,0.656736,0.479903,0.736178,2.000000
/home/daniel/Projects/ppsevolution/data/maps/custom_maps/Custom_8_Run_0_Map.csv,0.000000,1.000000,0.748276,1.000000,0.000000,0.274373,1.000000,2.000000,0.241339,0.080149,1.000000,1.000000,0.539514,0.530746,0.936103,2.000000
/home/daniel/Projects/ppsevolution/data/maps/custom_maps/Custom_8_Run_0_Map.csv,0.043099,0.846386,0.847695,1.000000,0.150731,0.000000,1.000000,2.000000,0.705691,0.215583,1.000000,1.000000,0.384753,0.960206,0.665582,2.000000
/home/daniel/Projects/ppsevolution/data/maps/custom_maps/Custom_8_Run_0_Map.csv,0.000000,0.629182,0.943036,1.000000,0.111491,0.000000,1.000000,2.000000,0.606568,0.169010,1.000000,1.000000,0.859545,0.690684,0.657595,2.000000
/home/daniel/Projects/ppsevolution/data/maps/custom_maps/Custom_8_Run_0_Map.csv,0.029338,0.747038,0.458696,1.000000,0.000000,0.000000,1.000000,2.000000,0.000000,0.257214,1.000000,1.000000,0.874110,0.623208,0.924092,2.000000
/home/daniel/Projects/ppsevolution/data/maps/custom_maps/Custom_8_Run_0_Map.csv,0.000000,0.907156,0.945044,1.000000,0.128582,0.000000,0.747505,2.000000,0.600457,0.357966,1.000000,1.000000,0.613680,0.514175,0.370616,2.000000
/home/daniel/Projects/ppsevolution/data/maps/custom_maps/Custom_9_Run_0_Map.csv,0.003621,0.997409,0.690511,1.000000,0.070805,0.000000,1.000000,2.000000,0.560315,0.202467,1.000000,1.000000,0.885217,0.768386,0.784144,2.000000
/home/daniel/Projects/ppsevolution/data/maps/custom_maps/Custom_9_Run_0_Map.csv,0.091224,0.942419,0.463813,1.000000,0.000000,0.134336,1.000000,2.000000,0.366907,0.000000,0.945521,1.000000,0.908411,0.812071,0.595068,2.000000
/home/daniel/Projects/ppsevolution/data/maps/custom_maps/Custom_9_Run_0_Map.csv,0.000000,0.634270,0.609672,0.999379,0.104910,0.330075,0.973354,2.000000,0.344307,0.317822,1.000000,1.000000,0.843419,0.375898,0.744780,2.000000
/home/daniel/Projects/ppsevolution/data/maps/custom_maps/Custom_9_Run_0_Map.csv,0.042248,0.682185,1.000000,0.965286,0.101000,0.000000,1.000000,2.000000,0.306729,0.081884,1.000000,1.000000,0.602380,0.575239,0.656710,2.000000
/home/daniel/Projects/ppsevolution/data/maps/custom_maps/Custom_9_Run_0_Map.csv,0.107895,0.923510,0.532269,1.000000,0.000000,0.000000,1.000000,2.000000,0.248359,0.435291,1.000000,1.000000,1.000000,0.590922,0.414679,2.000000
/home/daniel/Projects/ppsevolution/data/maps/custom_maps/Custom_9_Run_0_Map.csv,0.000000,0.737137,0.388036,1.000000,0.156562,0.171722,1.000000,2.000000,0.086365,0.014779,1.000000,1.000000,0.464228,0.968536,0.663260,2.000000
/home/daniel/Projects/ppsevolution/data/maps/custom_maps/Custom_9_Run_0_Map.csv,0.029983,0.639498,0.686476,0.992427,0.162952,0.118461,1.000000,2.000000,0.242183,0.112711,1.000000,1.000000,0.823375,0.413106,0.329314,2.000000
/home/daniel/Projects/ppsevolution/data/maps/custom_maps/Custom_9_Run_0_Map.csv,0.000000,0.847006,0.427752,1.000000,0.000000,0.512934,0.962998,2.000000,0.053370,0.482513,0.913102,1.000000,0.802491,0.655128,0.555320,2.000000
/home/daniel/Projects/ppsevolution/data/maps/custom_maps/Custom_9_Run_0_Map.csv,0.000000,0.580798,0.752768,1.000000,0.046829,0.108528,0.889062,2.000000,0.596663,0.231508,1.000000,1.000000,0.724110,1.000000,0.296254,2.000000
/home/daniel/Projects/ppsevolution/data/maps/custom_maps/Custom_9_Run_0_Map.csv,0.136384,0.662312,0.988513,0.966850,0.000000,0.176412,1.000000,1.000000,0.282024,0.277574,0.933897,1.000000,0.432345,0.760147,0.566771,2.000000
/home/daniel/Projects/ppsevolution/data/maps/custom_maps/Custom_10_Run_0_Map.csv,0.000000,0.039956,1.000000,1.000000,0.000000,0.363910,0.952501,2.000000,0.000000,0.000000,1.000000,1.000000,0.642201,0.000000,0.983058,0.000000
/home/daniel/Projects/ppsevolution/data/maps/custom_maps/Custom_10_Run_0_Map.csv,0.000000,1.000000,1.000000,1.000000,0.073246,0.709994,1.000000,2.000000,0.060376,0.202724,0.987928,1.000000,1.000000,0.105135,0.853886,0.000000
/home/daniel/Projects/ppsevolution/data/maps/custom_maps/Custom_10_Run_0_Map.csv,0.000000,0.562138,0.996403,1.000000,0.046761,0.932443,1.000000,2.000000,0.000000,0.121122,1.000000,1.000000,1.000000,0.000000,1.000000,2.000000
/home/daniel/Projects/ppsevolution/data/maps/custom_maps/Custom_10_Run_0_Map.csv,0.002181,0.999570,1.000000,1.000000,0.117929,0.298902,1.000000,2.000000,0.000000,0.173255,1.000000,1.000000,1.000000,0.024304,1.000000,0.000000
/home/daniel/Projects/ppsevolution/data/maps/custom_maps/Custom_10_Run_0_Map.csv,0.000000,0.933434,1.000000,1.000000,0.000000,0.718059,1.000000,2.000000,0.000000,0.000000,1.000000,1.000000,0.962943,0.012130,0.965900,0.000000
/home/daniel/Projects/ppsevolution/data/maps/custom_maps/Custom_10_Run_0_Map.csv,0.000000,0.711259,1.000000,1.000000,0.187181,0.974793,1.000000,2.000000,0.000000,0.276162,1.000000,1.000000,0.020328,0.352657,1.000000,0.000000
/home/daniel/Projects/ppsevolution/data/maps/custom_maps/Custom_10_Run_0_Map.csv,0.000000,0.443273,0.964726,1.000000,0.064504,0.136928,1.000000,2.000000,0.000000,0.595333,1.000000,1.000000,0.467197,0.000197,0.619868,0.000000
/home/daniel/Projects/ppsevolution/data/maps/custom_maps/Custom_10_Run_0_Map.csv,0.000000,0.939980,1.000000,1.000000,0.237845,0.000000,0.986092,2.000000,0.000000,0.301807,0.995113,1.000000,0.956460,0.227636,0.983002,0.000000
/home/daniel/Projects/ppsevolution/data/maps/custom_maps/Custom_10_Run_0_Map.csv,0.051168,0.934923,1.000000,1.000000,0.000000,1.000000,1.000000,2.000000,0.000000,0.000000,1.000000,1.000000,0.728138,0.079229,0.512229,0.000000
/home/daniel/Projects/ppsevolution/data/maps/custom_maps/Custom_10_Run_0_Map.csv,0.000000,0.068809,1.000000,1.000000,0.000000,0.602888,1.000000,2.000000,0.000000,0.000000,0.970770,1.000000,1.000000,0.133405,0.788226,1.000000
