mut, time, 0.00,0.10,0.20,0.30,0.40,0.50,0.60,0.70,0.80,0.90,1.00, <= crs
0.10,Short,4.793146,4.808805,4.788118,4.801338,4.809846,4.795182,4.806619,4.807015,4.799149,4.818259,4.813617
0.10,Medium,3.045076,3.238625,3.330828,3.284201,3.324385,3.301728,3.374529,3.410025,3.205840,3.348525,3.272262
0.10,Long,2.117819,1.917877,1.982135,1.984885,1.879852,1.953231,1.924342,1.968342,2.019471,1.831543,1.872610

0.20,Short,4.793586,4.797049,4.795857,4.805866,4.797831,4.787997,4.799877,4.798270,4.802156,4.810631,4.815946
0.20,Medium,3.104523,3.175376,3.068780,3.117821,2.992137,3.128010,3.100508,3.232761,3.138380,3.203604,3.143852
0.20,Long,2.324111,2.073434,2.301374,2.250145,2.346115,2.294701,2.435442,2.329889,2.369665,2.305916,2.298233

0.30,Short,4.762173,4.784794,4.774035,4.773562,4.762391,4.789963,4.769536,4.775074,4.787081,4.789127,4.793886
0.30,Medium,3.040935,3.144659,3.055625,3.057304,3.112837,3.221651,3.173258,3.059932,3.190540,3.026758,3.304480
0.30,Long,2.396466,2.551720,2.445988,2.487445,2.438622,2.421389,2.441714,2.532561,2.308366,2.432947,2.533424

0.40,Short,4.720184,4.727632,4.712418,4.743649,4.739261,4.753873,4.747760,4.740257,4.735553,4.748760,4.745004
0.40,Medium,3.138640,3.167735,3.096871,3.251540,3.077849,3.046535,3.076939,3.145735,3.159117,3.102526,3.038215
0.40,Long,2.682594,2.578432,2.576059,2.417312,2.625586,2.609806,2.611427,2.535982,2.570462,2.563125,2.462966

0.50,Short,4.670481,4.687914,4.685835,4.691724,4.714291,4.696171,4.691365,4.684168,4.688250,4.693182,4.689699
0.50,Medium,3.106900,3.243473,3.095381,3.284617,3.209815,3.197251,2.979037,3.022525,3.017337,3.290943,3.198495
0.50,Long,2.723116,2.532792,2.491915,2.617787,2.720790,2.551854,2.549707,2.624288,2.568712,2.534781,2.729273

0.60,Short,4.628535,4.656150,4.649628,4.628473,4.648354,4.641391,4.663077,4.655150,4.674023,4.655826,4.658337
0.60,Medium,3.240605,3.247863,3.199019,3.083700,3.236234,3.354212,3.079581,3.173196,3.105123,3.160103,3.089612
0.60,Long,2.726109,2.804462,2.649916,2.539123,2.722090,2.741300,2.625922,2.773530,2.667513,2.584979,2.476515

0.70,Short,4.581944,4.625932,4.632101,4.657083,4.651280,4.630572,4.610030,4.600001,4.637727,4.617048,4.653830
0.70,Medium,3.311488,3.237163,3.152834,3.105430,3.167020,3.285702,3.173666,3.137848,3.130667,3.161356,3.283672
0.70,Long,2.582543,2.596070,2.631684,2.580208,2.694999,2.596509,2.647297,2.658940,2.592770,2.781686,2.736571

0.80,Short,4.591746,4.606990,4.605748,4.565573,4.592117,4.605049,4.609990,4.628632,4.619012,4.564127,4.621010
0.80,Medium,3.232099,3.219471,3.274646,3.155595,3.119097,3.268138,3.264814,3.131463,3.255427,3.149287,3.134457
0.80,Long,2.654910,2.797578,2.676861,2.851433,2.751551,2.791096,2.765169,2.705293,2.673366,2.768565,2.711545

0.90,Short,4.587051,4.552827,4.599418,4.603641,4.614837,4.582926,4.568131,4.567647,4.533702,4.604977,4.579473
0.90,Medium,3.184260,3.035301,3.065651,3.049387,3.295889,3.192481,3.215500,3.172747,3.138635,3.070288,3.187354
0.90,Long,2.845206,2.793445,2.747170,2.804654,2.698244,2.751777,2.858095,2.924837,2.780253,2.872648,2.863888

1.00,Short,4.549638,4.546907,4.531780,4.494678,4.515551,4.545000,4.514739,4.583824,4.543505,4.571274,4.593823
1.00,Medium,3.199570,3.130640,3.204473,3.216044,3.289327,3.310650,3.110783,3.197889,3.274713,3.207792,3.255419
1.00,Long,2.721417,2.769989,2.740901,2.807007,2.700904,2.923300,2.892353,2.878338,2.607418,2.737462,2.770364

