map,fitness,fitness value,team0ratio,time,HP,Speed,Damage,Acc,ClipSize,RateOfFire,NrBullets,Range,HP,Speed,Damage,Acc,ClipSize,RateOfFire,NrBullets,Range,HP,Speed,Damage,Acc,ClipSize,RateOfFire,NrBullets,Range,HP,Speed,Damage,Acc,ClipSize,RateOfFire,NrBullets,Range,Run,target team0ratio: 0.5,target time: 0.36
/home/daniel/Projects/ppsEvolution/data/maps/custom_maps/Custom_1_Run_0_Map.csv,squared_error,3.2932267826097764e-07,0.5008,0.3599,0.076716,0.641154,0.210000,0.651022,0.000000,0.000000,0.999423,1.000000,1.000000,0.000000,0.000000,0.593643,1.000000,0.940956,0.004333,2.000000,138.425276,1.129046,38.610000,0.651022,1.000000,0.500000,9.994803,1.000000,300.000000,0.770000,9.000000,0.593643,200.000000,9.439086,1.038997,2.000000,0
/home/daniel/Projects/ppsEvolution/data/maps/custom_maps/Custom_1_Run_0_Map.csv,squared_error,4.699355774557962e-06,0.4991,0.3571,0.000000,0.911479,0.210000,0.638597,0.091824,0.083729,1.000000,0.000000,0.854633,0.000000,0.000000,0.600956,1.000000,1.000000,0.053784,0.000000,125.000000,1.280428,38.610000,0.638597,19.273048,1.295427,10.000000,0.000000,274.560834,0.770000,9.000000,0.600956,200.000000,10.000000,1.484060,0.000000,1
/home/daniel/Projects/ppsEvolution/data/maps/custom_maps/Custom_1_Run_0_Map.csv,squared_error,1.9274488313449497e-06,0.5020,0.3602,0.034679,0.993211,0.139695,0.638519,0.261043,0.000000,0.727559,2.000000,0.741364,0.010603,0.039509,0.568129,0.824228,0.977938,0.000000,2.000000,131.068766,1.326198,28.697042,0.638519,52.947630,0.500000,7.548033,2.000000,254.738655,0.775938,14.570767,0.568129,165.021456,9.790412,1.000000,2.000000,2
/home/daniel/Projects/ppsEvolution/data/maps/custom_maps/Custom_1_Run_0_Map.csv,squared_error,2.3102705479799668e-07,0.4998,0.3593,0.020933,1.000000,0.167493,0.657820,0.000000,0.000000,0.947695,2.000000,0.949792,0.013524,0.029631,0.559425,0.800193,1.000000,0.000000,2.000000,128.663243,1.330000,32.616549,0.657820,1.000000,0.500000,9.529256,2.000000,291.213592,0.777573,13.177918,0.559425,160.238399,10.000000,1.000000,2.000000,3
/home/daniel/Projects/ppsEvolution/data/maps/custom_maps/Custom_1_Run_0_Map.csv,squared_error,9.377446479731994e-07,0.4987,0.3596,0.122172,1.000000,0.000000,0.707431,0.193920,0.108948,0.892514,0.000000,0.691552,0.000000,0.029719,0.585780,0.847108,0.912560,0.328245,2.000000,146.380155,1.330000,9.000000,0.707431,39.590116,1.535002,9.032625,0.000000,246.021686,0.770000,13.190364,0.585780,169.574492,9.169321,3.954203,2.000000,4
/home/daniel/Projects/ppsEvolution/data/maps/custom_maps/Custom_1_Run_0_Map.csv,squared_error,2.1547204367557337e-06,0.5015,0.3586,0.000000,0.918209,0.210000,0.652378,0.000000,0.107605,0.666757,2.000000,0.894508,0.000000,0.000000,0.600000,1.000000,1.000000,0.000000,0.000000,125.000000,1.284197,38.610000,0.652378,1.000000,1.522251,7.000815,2.000000,281.538838,0.770000,9.000000,0.600000,200.000000,10.000000,1.000000,0.000000,5
/home/daniel/Projects/ppsEvolution/data/maps/custom_maps/Custom_1_Run_0_Map.csv,squared_error,1.2778222366939818e-06,0.5014,0.3592,0.103482,1.000000,0.214522,0.655170,0.082777,0.481678,0.869922,2.000000,1.000000,0.098587,0.029001,0.592193,0.931338,0.972762,0.035639,0.000000,143.109349,1.330000,39.247593,0.655170,17.472661,5.075941,8.829298,2.000000,300.000000,0.825209,13.089090,0.592193,186.336342,9.741240,1.320747,0.000000,6
/home/daniel/Projects/ppsEvolution/data/maps/custom_maps/Custom_1_Run_0_Map.csv,squared_error,1.4542911332916969e-06,0.4995,0.3584,0.037361,0.886472,0.227964,0.645330,0.061360,0.311678,0.624712,2.000000,0.944893,0.058291,0.000000,0.587052,0.979969,0.796067,0.082199,2.000000,131.538219,1.266425,41.142960,0.645330,13.210679,3.460941,6.622410,2.000000,290.356255,0.802643,9.000000,0.587052,196.013856,8.062638,1.739791,2.000000,7
/home/daniel/Projects/ppsEvolution/data/maps/custom_maps/Custom_1_Run_0_Map.csv,squared_error,9.674776077652174e-07,0.5008,0.3589,0.000000,1.000000,0.167227,0.715948,0.092584,0.144155,0.584415,0.000000,1.000000,0.205802,0.000000,0.600000,1.000000,0.901936,0.000000,2.000000,125.000000,1.330000,32.578975,0.715948,19.424244,1.869469,6.259736,0.000000,300.000000,0.885249,9.000000,0.600000,200.000000,9.068389,1.000000,2.000000,8
/home/daniel/Projects/ppsEvolution/data/maps/custom_maps/Custom_1_Run_0_Map.csv,squared_error,6.155773665518812e-07,0.4991,0.3594,0.000000,0.735749,0.324984,0.537301,0.000000,0.042383,1.000000,0.000000,0.840772,0.184815,0.000000,0.579024,0.674374,1.000000,0.000000,2.000000,125.000000,1.182020,54.822704,0.537301,1.000000,0.902641,10.000000,0.000000,272.135085,0.873496,9.000000,0.579024,135.200418,10.000000,1.000000,2.000000,9
map,fitness,fitness value,team0ratio,time,HP,Speed,Damage,Acc,ClipSize,RateOfFire,NrBullets,Range,HP,Speed,Damage,Acc,ClipSize,RateOfFire,NrBullets,Range,HP,Speed,Damage,Acc,ClipSize,RateOfFire,NrBullets,Range,HP,Speed,Damage,Acc,ClipSize,RateOfFire,NrBullets,Range,Run,target team0ratio: 0.5,target time: 0.36
/home/daniel/Projects/ppsEvolution/data/maps/custom_maps/Custom_2_Run_0_Map.csv,squared_error,0.0004669329128283867,0.4947,0.3901,0.000000,1.000000,0.899876,1.000000,0.200933,0.233498,0.882755,2.000000,1.000000,0.249152,1.000000,1.000000,1.000000,1.000000,0.966754,2.000000,125.000000,1.330000,135.882584,1.000000,40.985582,2.718233,8.944796,2.000000,300.000000,0.909525,150.000000,1.000000,200.000000,10.000000,9.700787,2.000000,0
/home/daniel/Projects/ppsEvolution/data/maps/custom_maps/Custom_2_Run_0_Map.csv,squared_error,0.00045375085829956033,0.4932,0.3894,0.000000,1.000000,0.570717,1.000000,0.236943,0.000000,1.000000,2.000000,0.399099,0.422467,1.000000,1.000000,0.916779,1.000000,0.888502,2.000000,125.000000,1.330000,89.471140,1.000000,48.151574,0.500000,10.000000,2.000000,194.842306,1.006581,150.000000,1.000000,183.439019,10.000000,8.996518,2.000000,1
/home/daniel/Projects/ppsEvolution/data/maps/custom_maps/Custom_2_Run_0_Map.csv,squared_error,0.00047134570469322735,0.4863,0.3875,0.000000,1.000000,0.598622,1.000000,0.000000,0.000733,1.000000,2.000000,0.523158,0.207315,1.000000,1.000000,0.714575,0.989988,1.000000,2.000000,125.000000,1.330000,93.405743,1.000000,1.000000,0.506959,10.000000,2.000000,216.552638,0.886096,150.000000,1.000000,143.200513,9.904884,10.000000,2.000000,2
/home/daniel/Projects/ppsEvolution/data/maps/custom_maps/Custom_2_Run_0_Map.csv,squared_error,0.0005421028968222037,0.4947,0.3925,0.000000,1.000000,0.954941,1.000000,0.036034,0.000000,0.989133,2.000000,1.000000,0.000000,1.000000,1.000000,1.000000,0.897245,0.487027,2.000000,125.000000,1.330000,143.646707,1.000000,8.170767,0.500000,9.902193,2.000000,300.000000,0.770000,150.000000,1.000000,200.000000,9.023824,5.383247,2.000000,3
/home/daniel/Projects/ppsEvolution/data/maps/custom_maps/Custom_2_Run_0_Map.csv,squared_error,0.0004984582971303159,0.4989,0.3916,0.000000,0.895609,0.672416,1.000000,0.336365,0.036126,0.855159,2.000000,0.489697,0.223243,1.000000,1.000000,1.000000,0.770075,0.974836,2.000000,125.000000,1.271541,103.810620,1.000000,67.936537,0.843199,8.696427,2.000000,210.697030,0.895016,150.000000,1.000000,200.000000,7.815713,9.773525,2.000000,4
/home/daniel/Projects/ppsEvolution/data/maps/custom_maps/Custom_2_Run_0_Map.csv,squared_error,0.0004682654198156261,0.4910,0.3892,0.000000,1.000000,0.521173,1.000000,0.000000,0.037771,0.898614,2.000000,0.361506,0.821891,1.000000,1.000000,0.922219,0.986972,0.840154,2.000000,125.000000,1.330000,82.485407,1.000000,1.000000,0.858827,9.087523,2.000000,188.263474,1.230259,150.000000,1.000000,184.521506,9.876233,8.561390,2.000000,5
/home/daniel/Projects/ppsEvolution/data/maps/custom_maps/Custom_2_Run_0_Map.csv,squared_error,0.00044383095284975806,0.4956,0.3895,0.000000,0.967581,0.580731,1.000000,0.094901,0.048187,1.000000,2.000000,0.394055,0.553376,1.000000,1.000000,0.620127,0.980252,1.000000,2.000000,125.000000,1.311845,90.883028,1.000000,19.885209,0.957776,10.000000,2.000000,193.959565,1.079890,150.000000,1.000000,124.405321,9.812390,10.000000,2.000000,6
/home/daniel/Projects/ppsEvolution/data/maps/custom_maps/Custom_2_Run_0_Map.csv,squared_error,0.00042329189589506875,0.4948,0.3886,0.000000,0.902498,0.766550,1.000000,0.148540,0.000000,1.000000,2.000000,0.743237,0.242859,1.000000,1.000000,1.000000,1.000000,0.983045,2.000000,125.000000,1.275399,117.083519,1.000000,30.559446,0.500000,10.000000,2.000000,255.066522,0.906001,150.000000,1.000000,200.000000,10.000000,9.847405,2.000000,7
/home/daniel/Projects/ppsEvolution/data/maps/custom_maps/Custom_2_Run_0_Map.csv,squared_error,0.0004664048171110619,0.4965,0.3903,0.000000,0.930008,0.827743,1.000000,0.384216,0.009568,1.000000,2.000000,0.780248,0.061923,1.000000,1.000000,1.000000,0.837898,0.962158,2.000000,125.000000,1.290804,125.711796,1.000000,77.458999,0.590899,10.000000,2.000000,261.543476,0.804677,150.000000,1.000000,200.000000,8.460028,9.659421,2.000000,8
/home/daniel/Projects/ppsEvolution/data/maps/custom_maps/Custom_2_Run_0_Map.csv,squared_error,0.00047514892073186103,0.4986,0.3908,0.007028,0.983596,0.703636,1.000000,0.080565,0.047865,0.772106,2.000000,0.626335,0.064154,0.994290,1.000000,1.000000,1.000000,0.943146,2.000000,126.229833,1.320814,108.212613,1.000000,17.032469,0.954721,7.948950,2.000000,234.608650,0.805926,149.194929,1.000000,200.000000,10.000000,9.488315,2.000000,9
map,fitness,fitness value,team0ratio,time,HP,Speed,Damage,Acc,ClipSize,RateOfFire,NrBullets,Range,HP,Speed,Damage,Acc,ClipSize,RateOfFire,NrBullets,Range,HP,Speed,Damage,Acc,ClipSize,RateOfFire,NrBullets,Range,HP,Speed,Damage,Acc,ClipSize,RateOfFire,NrBullets,Range,Run,target team0ratio: 0.5,target time: 0.36
/home/daniel/Projects/ppsEvolution/data/maps/custom_maps/Custom_3_Run_0_Map.csv,squared_error,0.006209296061898788,0.5018,0.4714,0.000000,0.114681,1.000000,0.960499,0.024640,0.000529,1.000000,2.000000,0.000000,0.321853,1.000000,1.000000,0.933610,0.430276,1.000000,2.000000,125.000000,0.834222,150.000000,0.960499,5.903265,0.505026,10.000000,2.000000,125.000000,0.950237,150.000000,1.000000,186.788399,4.587620,10.000000,2.000000,0
/home/daniel/Projects/ppsEvolution/data/maps/custom_maps/Custom_3_Run_0_Map.csv,squared_error,0.006517595604621992,0.5042,0.4741,0.000000,0.936732,0.835670,1.000000,0.000000,0.716752,1.000000,2.000000,0.577605,0.048177,1.000000,1.000000,0.957493,0.794786,0.973834,2.000000,125.000000,1.294570,126.829511,1.000000,1.000000,7.309142,10.000000,2.000000,226.080859,0.796979,150.000000,1.000000,191.541190,8.050465,9.764504,2.000000,1
/home/daniel/Projects/ppsEvolution/data/maps/custom_maps/Custom_3_Run_0_Map.csv,squared_error,0.006249199390461066,0.5018,0.4718,0.015084,0.714351,1.000000,0.980203,0.000000,0.000000,0.969842,2.000000,0.336805,0.063897,1.000000,1.000000,0.825859,0.000000,1.000000,2.000000,127.639753,1.170037,150.000000,0.980203,1.000000,0.500000,9.728579,2.000000,183.940886,0.805782,150.000000,1.000000,165.346005,0.500000,10.000000,2.000000,2
/home/daniel/Projects/ppsEvolution/data/maps/custom_maps/Custom_3_Run_0_Map.csv,squared_error,0.006264539666184523,0.5061,0.4718,0.000000,1.000000,0.913843,1.000000,0.000484,0.000000,1.000000,2.000000,0.559472,0.138131,1.000000,1.000000,0.941652,0.000000,1.000000,2.000000,125.000000,1.330000,137.851901,1.000000,1.096388,0.500000,10.000000,2.000000,222.907668,0.847353,150.000000,1.000000,188.388671,0.500000,10.000000,2.000000,3
/home/daniel/Projects/ppsEvolution/data/maps/custom_maps/Custom_3_Run_0_Map.csv,squared_error,0.006211658259282051,0.5078,0.4712,0.000000,1.000000,0.606993,1.000000,0.084358,0.430743,1.000000,2.000000,0.000000,0.000000,1.000000,1.000000,0.874393,0.151996,0.995693,2.000000,125.000000,1.330000,94.586065,1.000000,17.787261,4.592061,10.000000,2.000000,125.000000,0.770000,150.000000,1.000000,175.004214,1.943960,9.961237,2.000000,4
/home/daniel/Projects/ppsEvolution/data/maps/custom_maps/Custom_3_Run_0_Map.csv,squared_error,0.0063528314820736195,0.5049,0.4726,0.000000,1.000000,0.654168,1.000000,0.000000,0.544280,1.000000,2.000000,0.190273,0.019227,1.000000,1.000000,0.732876,0.552186,1.000000,2.000000,125.000000,1.330000,101.237659,1.000000,1.000000,5.670658,10.000000,2.000000,158.297796,0.780767,150.000000,1.000000,146.842410,5.745762,10.000000,2.000000,5
/home/daniel/Projects/ppsEvolution/data/maps/custom_maps/Custom_3_Run_0_Map.csv,squared_error,0.006189714416922986,0.5045,0.4712,0.000000,0.794120,0.608864,1.000000,0.000000,0.025254,1.000000,2.000000,0.000000,0.000000,1.000000,1.000000,0.413781,0.000000,1.000000,2.000000,125.000000,1.214707,94.849762,1.000000,1.000000,0.739910,10.000000,2.000000,125.000000,0.770000,150.000000,1.000000,83.342509,0.500000,10.000000,2.000000,6
/home/daniel/Projects/ppsEvolution/data/maps/custom_maps/Custom_3_Run_0_Map.csv,squared_error,0.006298514525819276,0.5159,0.4711,0.000000,0.804868,0.791372,0.992553,0.000000,0.095035,1.000000,2.000000,0.158692,0.092447,1.000000,1.000000,0.855760,0.325606,1.000000,2.000000,125.000000,1.220726,120.583430,0.992553,1.000000,1.402829,10.000000,2.000000,152.771127,0.821770,150.000000,1.000000,171.296204,3.593257,10.000000,2.000000,7
/home/daniel/Projects/ppsEvolution/data/maps/custom_maps/Custom_3_Run_0_Map.csv,squared_error,0.006464034234206399,0.5105,0.4732,0.000523,0.943242,0.804608,1.000000,0.000000,0.035244,1.000000,2.000000,0.486595,0.221853,0.985528,1.000000,0.827164,0.675030,1.000000,2.000000,125.091611,1.298215,122.449765,1.000000,1.000000,0.834815,10.000000,2.000000,210.154155,0.894238,147.959468,1.000000,165.605546,6.912784,10.000000,2.000000,8
/home/daniel/Projects/ppsEvolution/data/maps/custom_maps/Custom_3_Run_0_Map.csv,squared_error,0.006423794723157934,0.5107,0.4728,0.000000,0.176382,1.000000,0.990855,0.000000,0.000000,1.000000,2.000000,0.444124,0.480433,1.000000,1.000000,0.899835,0.029282,0.780076,2.000000,125.000000,0.868774,150.000000,0.990855,1.000000,0.500000,10.000000,2.000000,202.721785,1.039042,150.000000,1.000000,180.067193,0.778180,8.020685,2.000000,9
map,fitness,fitness value,team0ratio,time,HP,Speed,Damage,Acc,ClipSize,RateOfFire,NrBullets,Range,HP,Speed,Damage,Acc,ClipSize,RateOfFire,NrBullets,Range,HP,Speed,Damage,Acc,ClipSize,RateOfFire,NrBullets,Range,HP,Speed,Damage,Acc,ClipSize,RateOfFire,NrBullets,Range,Run,target team0ratio: 0.5,target time: 0.36
/home/daniel/Projects/ppsEvolution/data/maps/custom_maps/Custom_4_Run_0_Map.csv,squared_error,1.5244085543670487e-07,0.5005,0.3597,0.109796,1.000000,0.064671,0.800000,0.084577,0.042184,0.928979,1.000000,0.863885,0.000000,0.354065,0.527142,1.000000,0.961899,0.000000,0.000000,144.214239,1.330000,18.118652,0.800000,17.830870,0.900749,9.360813,1.000000,276.179824,0.770000,58.923156,0.527142,200.000000,9.638044,1.000000,0.000000,0
/home/daniel/Projects/ppsEvolution/data/maps/custom_maps/Custom_4_Run_0_Map.csv,squared_error,1.0730246276863848e-07,0.4997,0.3596,0.000000,0.871360,0.000000,0.831336,0.000000,0.000000,0.985033,2.000000,1.000000,0.196001,0.122775,0.619272,1.000000,1.000000,0.000000,1.000000,125.000000,1.257961,9.000000,0.831336,1.000000,0.500000,9.865297,2.000000,300.000000,0.879761,26.311323,0.619272,200.000000,10.000000,1.000000,1.000000,1
/home/daniel/Projects/ppsEvolution/data/maps/custom_maps/Custom_4_Run_0_Map.csv,squared_error,4.301140039575527e-06,0.5019,0.3578,0.000000,1.000000,0.338331,0.707440,0.007919,0.495215,0.871562,1.000000,0.997821,0.051780,0.000000,0.617525,0.862911,1.000000,0.493698,2.000000,125.000000,1.330000,56.704653,0.707440,2.575832,5.204539,8.844058,1.000000,299.618749,0.798997,9.000000,0.617525,172.719350,10.000000,5.443285,2.000000,2
/home/daniel/Projects/ppsEvolution/data/maps/custom_maps/Custom_4_Run_0_Map.csv,squared_error,8.077262257224008e-07,0.4988,0.3597,0.000000,1.000000,0.466903,0.643250,0.112182,0.030871,0.864796,0.000000,0.925437,0.000000,0.081163,0.595184,1.000000,1.000000,0.249458,2.000000,125.000000,1.330000,74.833253,0.643250,23.324291,0.793273,8.783163,0.000000,286.951439,0.770000,20.443981,0.595184,200.000000,10.000000,3.245125,2.000000,3
/home/daniel/Projects/ppsEvolution/data/maps/custom_maps/Custom_4_Run_0_Map.csv,squared_error,3.0534900813634114e-07,0.5007,0.3596,0.008179,0.880049,0.106859,0.801436,0.021945,0.000000,1.000000,0.000000,0.939365,0.124718,0.043450,0.648518,0.952551,1.000000,0.019714,2.000000,126.431303,1.262827,24.067100,0.801436,5.367011,0.500000,10.000000,0.000000,289.388814,0.839842,15.126391,0.648518,190.557586,10.000000,1.177422,2.000000,4
/home/daniel/Projects/ppsEvolution/data/maps/custom_maps/Custom_4_Run_0_Map.csv,squared_error,6.105185269468791e-07,0.5007,0.3591,0.029554,1.000000,0.271117,0.734119,0.000000,0.304995,1.000000,1.000000,1.000000,0.205290,0.000000,0.639696,0.956601,1.000000,0.173619,2.000000,130.171878,1.330000,47.227474,0.734119,1.000000,3.397452,10.000000,1.000000,300.000000,0.884963,9.000000,0.639696,191.363502,10.000000,2.562574,2.000000,5
/home/daniel/Projects/ppsEvolution/data/maps/custom_maps/Custom_4_Run_0_Map.csv,squared_error,1.912909259593957e-06,0.4998,0.3619,0.000000,1.000000,0.110317,0.794451,0.338158,0.646783,1.000000,2.000000,1.000000,0.000000,0.000000,0.659369,1.000000,0.891954,0.000000,0.000000,125.000000,1.330000,24.554742,0.794451,68.293510,6.644443,10.000000,2.000000,300.000000,0.770000,9.000000,0.659369,200.000000,8.973564,1.000000,0.000000,6
/home/daniel/Projects/ppsEvolution/data/maps/custom_maps/Custom_4_Run_0_Map.csv,squared_error,2.6187368774401694e-06,0.5010,0.3621,0.054936,0.867125,0.000000,0.805746,0.224682,0.077850,0.934667,0.000000,0.728503,0.077625,0.000000,0.677157,1.000000,1.000000,0.115542,2.000000,134.613787,1.255590,9.000000,0.805746,45.711708,1.239572,9.411999,0.000000,252.488036,0.813470,9.000000,0.677157,200.000000,10.000000,2.039880,2.000000,7
/home/daniel/Projects/ppsEvolution/data/maps/custom_maps/Custom_4_Run_0_Map.csv,squared_error,5.72009290027604e-07,0.5010,0.3597,0.000000,0.866674,0.278122,0.736120,0.000000,0.079243,0.973713,1.000000,1.000000,0.043361,0.000000,0.643519,1.000000,0.793927,0.000000,2.000000,125.000000,1.255338,48.215256,0.736120,1.000000,1.252812,9.763417,1.000000,300.000000,0.794282,9.000000,0.643519,200.000000,8.042304,1.000000,2.000000,8
/home/daniel/Projects/ppsEvolution/data/maps/custom_maps/Custom_4_Run_0_Map.csv,squared_error,2.490775274168308e-07,0.4993,0.3601,0.169350,1.000000,0.298213,0.746343,0.000000,0.234627,0.624767,1.000000,1.000000,0.000000,0.083616,0.657496,1.000000,1.000000,0.022285,1.000000,154.636245,1.330000,51.048073,0.746343,1.000000,2.728957,6.622903,1.000000,300.000000,0.770000,20.789790,0.657496,200.000000,10.000000,1.200562,1.000000,9
map,fitness,fitness value,team0ratio,time,HP,Speed,Damage,Acc,ClipSize,RateOfFire,NrBullets,Range,HP,Speed,Damage,Acc,ClipSize,RateOfFire,NrBullets,Range,HP,Speed,Damage,Acc,ClipSize,RateOfFire,NrBullets,Range,HP,Speed,Damage,Acc,ClipSize,RateOfFire,NrBullets,Range,Run,target team0ratio: 0.5,target time: 0.36
/home/daniel/Projects/ppsEvolution/data/maps/custom_maps/Custom_5_Run_0_Map.csv,squared_error,8.666975818052e-07,0.4987,0.3601,0.063356,0.392748,0.348102,1.000000,0.000000,0.028037,0.778520,1.000000,1.000000,0.122511,0.519268,0.936863,1.000000,1.000000,0.000000,0.000000,136.087378,0.989939,58.082367,1.000000,1.000000,0.766356,8.006678,1.000000,300.000000,0.838606,82.216765,0.936863,200.000000,10.000000,1.000000,0.000000,0
/home/daniel/Projects/ppsEvolution/data/maps/custom_maps/Custom_5_Run_0_Map.csv,squared_error,8.21139719167249e-07,0.4993,0.3589,0.000000,1.000000,0.084660,1.000000,0.000000,0.021971,0.931886,2.000000,0.722947,0.108990,0.323054,0.947976,0.856200,0.976888,0.057469,0.000000,125.000000,1.330000,20.937106,1.000000,1.000000,0.708728,9.386976,2.000000,251.515751,0.831034,54.550673,0.947976,171.383853,9.780438,1.517221,0.000000,1
/home/daniel/Projects/ppsEvolution/data/maps/custom_maps/Custom_5_Run_0_Map.csv,squared_error,2.1785197658410237e-06,0.5014,0.3616,0.296149,1.000000,0.523805,0.955027,0.131559,0.000000,1.000000,0.000000,1.000000,0.000000,0.000000,0.972142,0.881557,0.941650,0.219061,1.000000,176.826086,1.330000,82.856567,0.955027,27.180156,0.500000,10.000000,0.000000,300.000000,0.770000,9.000000,0.972142,176.429916,9.445673,2.971548,1.000000,2
/home/daniel/Projects/ppsEvolution/data/maps/custom_maps/Custom_5_Run_0_Map.csv,squared_error,2.246005305785592e-07,0.4994,0.3602,0.287909,0.876999,0.369710,0.979695,0.000000,0.040668,0.658140,1.000000,0.946392,0.186696,0.266725,0.958944,0.894168,0.665017,0.204155,1.000000,175.384102,1.261119,61.129059,0.979695,1.000000,0.886349,6.923261,1.000000,290.618675,0.874550,46.608291,0.958944,178.939355,6.817664,2.837394,1.000000,3
/home/daniel/Projects/ppsEvolution/data/maps/custom_maps/Custom_5_Run_0_Map.csv,squared_error,2.2109020636947258e-07,0.4995,0.3604,0.216566,0.922797,0.284497,1.000000,0.000000,0.127003,0.936194,1.000000,1.000000,0.061099,0.000000,1.000000,0.871327,0.934575,0.034887,0.000000,162.899070,1.286766,49.114109,1.000000,1.000000,1.706524,9.425746,1.000000,300.000000,0.804215,9.000000,1.000000,174.394021,9.378467,1.313987,0.000000,4
/home/daniel/Projects/ppsEvolution/data/maps/custom_maps/Custom_5_Run_0_Map.csv,squared_error,2.3474201581238072e-07,0.4997,0.3606,0.000000,0.856977,0.138329,1.000000,0.000000,0.095567,0.920205,1.000000,0.874926,0.170379,0.000000,0.980611,0.979998,0.971838,0.302298,2.000000,125.000000,1.249907,28.504397,1.000000,1.000000,1.407891,9.281843,1.000000,278.112089,0.865412,9.000000,0.980611,196.019695,9.732457,3.720685,2.000000,5
/home/daniel/Projects/ppsEvolution/data/maps/custom_maps/Custom_5_Run_0_Map.csv,squared_error,1.0396636854494728e-06,0.4995,0.3614,0.227030,0.700341,0.189736,1.000000,0.087701,0.220072,0.551021,2.000000,0.896260,0.519208,0.257146,0.975781,0.997714,1.000000,0.000000,1.000000,164.730204,1.162191,35.752786,1.000000,18.452575,2.590684,5.959191,2.000000,281.845583,1.060756,45.257618,0.975781,199.544994,10.000000,1.000000,1.000000,6
/home/daniel/Projects/ppsEvolution/data/maps/custom_maps/Custom_5_Run_0_Map.csv,squared_error,9.75325658561129e-07,0.4986,0.3597,0.111417,0.877062,0.120827,1.000000,0.197177,0.100272,1.000000,1.000000,0.710506,0.000000,0.210170,0.969804,1.000000,0.999381,0.192973,0.000000,144.497941,1.261155,26.036616,1.000000,40.238321,1.452581,10.000000,1.000000,249.338607,0.770000,38.633985,0.969804,200.000000,9.994119,2.736757,0.000000,7
/home/daniel/Projects/ppsEvolution/data/maps/custom_maps/Custom_5_Run_0_Map.csv,squared_error,6.420107873197022e-07,0.4992,0.3608,0.260491,1.000000,0.000000,1.000000,0.000000,0.607008,0.771627,2.000000,0.703771,0.015163,0.000000,1.000000,0.481927,0.886467,0.416410,1.000000,170.585966,1.330000,9.000000,1.000000,1.000000,6.266575,7.944642,2.000000,248.159895,0.778491,9.000000,1.000000,96.903407,8.921432,4.747688,1.000000,8
/home/daniel/Projects/ppsEvolution/data/maps/custom_maps/Custom_5_Run_0_Map.csv,squared_error,6.419111613766306e-07,0.4991,0.3593,0.290457,1.000000,0.225672,1.000000,0.075586,0.000000,0.963592,0.000000,0.892209,0.000000,0.000000,1.000000,0.781016,0.868890,0.247221,2.000000,175.829915,1.330000,40.819806,1.000000,16.041604,0.500000,9.672328,0.000000,281.136583,0.770000,9.000000,1.000000,156.422265,8.754456,3.224991,2.000000,9
map,fitness,fitness value,team0ratio,time,HP,Speed,Damage,Acc,ClipSize,RateOfFire,NrBullets,Range,HP,Speed,Damage,Acc,ClipSize,RateOfFire,NrBullets,Range,HP,Speed,Damage,Acc,ClipSize,RateOfFire,NrBullets,Range,HP,Speed,Damage,Acc,ClipSize,RateOfFire,NrBullets,Range,Run,target team0ratio: 0.5,target time: 0.36
/home/daniel/Projects/ppsEvolution/data/maps/custom_maps/Custom_6_Run_0_Map.csv,squared_error,0.008068239992859244,0.4725,0.4840,0.163889,0.987094,0.000000,1.000000,0.000000,0.000000,0.309754,2.000000,1.000000,0.028053,0.951294,0.915011,1.000000,1.000000,1.000000,2.000000,153.680498,1.322772,9.000000,1.000000,1.000000,0.500000,3.787788,2.000000,300.000000,0.785710,143.132429,0.915011,200.000000,10.000000,10.000000,2.000000,0
/home/daniel/Projects/ppsEvolution/data/maps/custom_maps/Custom_6_Run_0_Map.csv,squared_error,0.008053227139059762,0.4661,0.4823,0.036149,0.998664,0.000000,1.000000,0.027498,0.000000,0.770790,2.000000,1.000000,0.870335,1.000000,0.900927,1.000000,1.000000,0.937242,2.000000,131.326079,1.329252,9.000000,1.000000,6.472068,0.500000,7.937114,2.000000,300.000000,1.257387,150.000000,0.900927,200.000000,10.000000,9.435176,2.000000,1
/home/daniel/Projects/ppsEvolution/data/maps/custom_maps/Custom_6_Run_0_Map.csv,squared_error,0.008335216177554334,0.4717,0.4860,0.000000,0.956356,0.000000,1.000000,0.121019,0.018524,0.734886,2.000000,1.000000,0.380832,1.000000,0.889217,0.744066,0.965617,0.930712,2.000000,125.000000,1.305560,9.000000,1.000000,25.082805,0.675982,7.613971,2.000000,300.000000,0.983266,150.000000,0.889217,149.069233,9.673359,9.376404,2.000000,2
/home/daniel/Projects/ppsEvolution/data/maps/custom_maps/Custom_6_Run_0_Map.csv,squared_error,0.008518852301593964,0.4666,0.4862,0.249229,1.000000,0.000000,1.000000,0.000000,0.000000,0.649913,2.000000,1.000000,0.000000,1.000000,0.920160,0.931594,1.000000,0.520373,2.000000,168.614994,1.330000,9.000000,1.000000,1.000000,0.500000,6.849213,2.000000,300.000000,0.770000,150.000000,0.920160,186.387137,10.000000,5.683354,2.000000,3
/home/daniel/Projects/ppsEvolution/data/maps/custom_maps/Custom_6_Run_0_Map.csv,squared_error,0.00861489243412663,0.4556,0.4835,0.046570,0.803357,0.000000,1.000000,0.007061,0.000000,0.360821,2.000000,0.970043,0.066410,1.000000,0.913183,1.000000,1.000000,0.457816,2.000000,133.149775,1.219880,9.000000,1.000000,2.405216,0.500000,4.247390,2.000000,294.757535,0.807190,150.000000,0.913183,200.000000,10.000000,5.120348,2.000000,4
/home/daniel/Projects/ppsEvolution/data/maps/custom_maps/Custom_6_Run_0_Map.csv,squared_error,0.008182902187104869,0.4643,0.4829,0.150656,1.000000,0.000000,1.000000,0.010701,0.094120,0.961508,2.000000,1.000000,0.867798,0.938002,0.919104,0.941901,0.997760,1.000000,2.000000,151.364851,1.330000,9.000000,1.000000,3.129428,1.394144,9.653573,2.000000,300.000000,1.255967,141.258348,0.919104,188.438290,9.978719,10.000000,2.000000,5
/home/daniel/Projects/ppsEvolution/data/maps/custom_maps/Custom_6_Run_0_Map.csv,squared_error,0.008083482841041965,0.4569,0.4796,0.000000,1.000000,0.000000,1.000000,0.000000,0.000000,0.114450,2.000000,1.000000,0.101357,0.981240,0.908281,1.000000,1.000000,0.950385,2.000000,125.000000,1.330000,9.000000,1.000000,1.000000,0.500000,2.030049,2.000000,300.000000,0.826760,147.354797,0.908281,200.000000,10.000000,9.553464,2.000000,6
/home/daniel/Projects/ppsEvolution/data/maps/custom_maps/Custom_6_Run_0_Map.csv,squared_error,0.008227457551503042,0.4597,0.4818,0.073836,0.803190,0.000000,1.000000,0.000000,0.101530,0.591296,2.000000,1.000000,0.000000,0.930012,0.915993,0.925192,1.000000,1.000000,2.000000,137.921386,1.219787,9.000000,1.000000,1.000000,1.464536,6.321666,2.000000,300.000000,0.770000,140.131681,0.915993,185.113223,10.000000,10.000000,2.000000,7
/home/daniel/Projects/ppsEvolution/data/maps/custom_maps/Custom_6_Run_0_Map.csv,squared_error,0.008017009257737687,0.4592,0.4799,0.029710,1.000000,0.000000,1.000000,0.000000,0.000000,0.231911,2.000000,1.000000,0.000000,1.000000,0.907156,1.000000,1.000000,1.000000,2.000000,130.199217,1.330000,9.000000,1.000000,1.000000,0.500000,3.087196,2.000000,300.000000,0.770000,150.000000,0.907156,200.000000,10.000000,10.000000,2.000000,8
/home/daniel/Projects/ppsEvolution/data/maps/custom_maps/Custom_6_Run_0_Map.csv,squared_error,0.008158248280181135,0.4622,0.4820,0.000000,1.000000,0.000000,1.000000,0.000000,0.083837,0.819919,2.000000,1.000000,0.120577,1.000000,0.897458,0.861567,0.965791,1.000000,2.000000,125.000000,1.330000,9.000000,1.000000,1.000000,1.296451,8.379269,2.000000,300.000000,0.837523,150.000000,0.897458,172.451909,9.675018,10.000000,2.000000,9
map,fitness,fitness value,team0ratio,time,HP,Speed,Damage,Acc,ClipSize,RateOfFire,NrBullets,Range,HP,Speed,Damage,Acc,ClipSize,RateOfFire,NrBullets,Range,HP,Speed,Damage,Acc,ClipSize,RateOfFire,NrBullets,Range,HP,Speed,Damage,Acc,ClipSize,RateOfFire,NrBullets,Range,Run,target team0ratio: 0.5,target time: 0.36
/home/daniel/Projects/ppsEvolution/data/maps/custom_maps/Custom_7_Run_0_Map.csv,squared_error,3.634400928611208e-07,0.4995,0.3607,0.041210,0.894601,0.191895,1.000000,0.000000,0.145372,0.997209,0.000000,0.652904,0.252241,0.000000,1.000000,0.811691,0.725120,0.245778,1.000000,132.211698,1.270977,36.057212,1.000000,1.000000,1.881038,9.974883,0.000000,239.258125,0.911255,9.000000,1.000000,162.526581,7.388636,3.212001,1.000000,0
/home/daniel/Projects/ppsEvolution/data/maps/custom_maps/Custom_7_Run_0_Map.csv,squared_error,7.338986576634588e-07,0.5007,0.3610,0.160271,0.883916,0.113927,1.000000,0.057947,0.172999,0.958760,2.000000,0.771561,0.000000,0.022458,1.000000,0.903192,0.602260,0.000000,1.000000,153.047458,1.264993,25.063722,1.000000,12.531510,2.143489,9.628838,2.000000,260.023140,0.770000,12.166619,1.000000,180.735140,6.221469,1.000000,1.000000,1
/home/daniel/Projects/ppsEvolution/data/maps/custom_maps/Custom_7_Run_0_Map.csv,squared_error,3.063350465311285e-08,0.5002,0.3602,0.181575,0.739798,0.000000,1.000000,0.026811,0.094740,0.673047,0.000000,0.713971,0.000000,0.390557,0.936109,0.696748,0.908576,0.091282,1.000000,156.775571,1.184287,9.000000,1.000000,6.335341,1.400030,7.057423,0.000000,249.944963,0.770000,64.068559,0.936109,139.652803,9.131471,1.821535,1.000000,2
/home/daniel/Projects/ppsEvolution/data/maps/custom_maps/Custom_7_Run_0_Map.csv,squared_error,5.473999100686479e-08,0.4999,0.3597,0.258600,1.000000,0.056694,1.000000,0.132326,0.264970,0.554234,1.000000,0.448545,0.265963,0.233883,1.000000,0.793196,0.863539,0.275448,0.000000,170.254995,1.330000,16.993920,1.000000,27.332872,3.017212,5.988109,1.000000,203.495408,0.918940,41.977534,1.000000,158.846019,8.703620,3.479033,0.000000,3
/home/daniel/Projects/ppsEvolution/data/maps/custom_maps/Custom_7_Run_0_Map.csv,squared_error,6.339523024536362e-07,0.5004,0.3611,0.125815,1.000000,0.047567,0.967355,0.000000,0.389463,0.670599,2.000000,0.705880,0.247744,0.805022,0.844496,0.584769,0.881846,0.031873,1.000000,147.017643,1.330000,15.706961,0.967355,1.000000,4.199897,7.035395,2.000000,248.528978,0.908737,122.508049,0.844496,117.369061,8.877540,1.286857,1.000000,4
/home/daniel/Projects/ppsEvolution/data/maps/custom_maps/Custom_7_Run_0_Map.csv,squared_error,1.7180173121928394e-07,0.4996,0.3596,0.144824,1.000000,0.208181,1.000000,0.313442,0.347508,0.933960,1.000000,0.964546,0.275836,0.000000,0.996849,0.903490,0.989402,0.273957,2.000000,150.344113,1.330000,38.353542,1.000000,63.374992,3.801325,9.405642,1.000000,293.795496,0.924468,9.000000,0.996849,180.794546,9.899316,3.465609,2.000000,5
/home/daniel/Projects/ppsEvolution/data/maps/custom_maps/Custom_7_Run_0_Map.csv,squared_error,1.7792754055463686e-07,0.5006,0.3602,0.137644,0.895467,0.241100,1.000000,0.000000,0.204845,0.992762,1.000000,1.000000,0.080469,0.214596,0.972842,0.942775,1.000000,0.015657,0.000000,149.087627,1.271461,42.995137,1.000000,1.000000,2.446030,9.934854,1.000000,300.000000,0.815063,39.258002,0.972842,188.612271,10.000000,1.140911,0.000000,6
/home/daniel/Projects/ppsEvolution/data/maps/custom_maps/Custom_7_Run_0_Map.csv,squared_error,4.942262037623486e-07,0.4994,0.3608,0.282292,1.000000,0.406475,1.000000,0.232769,0.297054,0.991725,0.000000,0.881313,0.000000,0.244812,1.000000,0.907495,0.901323,0.152197,0.000000,174.401039,1.330000,66.313001,1.000000,47.320996,3.322010,9.925522,0.000000,279.229742,0.770000,43.518514,1.000000,181.591600,9.062572,2.369771,0.000000,7
/home/daniel/Projects/ppsEvolution/data/maps/custom_maps/Custom_7_Run_0_Map.csv,squared_error,1.4668910336652617e-07,0.4995,0.3600,0.000000,1.000000,0.292934,1.000000,0.041599,0.198175,0.981139,2.000000,1.000000,0.399605,0.000000,1.000000,1.000000,0.905548,0.000000,0.000000,125.000000,1.330000,50.303628,1.000000,9.278111,2.382658,9.830251,2.000000,300.000000,0.993779,9.000000,1.000000,200.000000,9.102701,1.000000,0.000000,8
/home/daniel/Projects/ppsEvolution/data/maps/custom_maps/Custom_7_Run_0_Map.csv,squared_error,1.0929264356064892e-06,0.5012,0.3591,0.054400,0.426151,0.326728,1.000000,0.209954,0.023625,0.981317,1.000000,1.000000,0.000000,0.000000,1.000000,1.000000,0.829798,0.174691,1.000000,134.520060,1.008645,55.068641,1.000000,42.780782,0.724436,9.831855,1.000000,300.000000,0.770000,9.000000,1.000000,200.000000,8.383076,2.572220,1.000000,9
map,fitness,fitness value,team0ratio,time,HP,Speed,Damage,Acc,ClipSize,RateOfFire,NrBullets,Range,HP,Speed,Damage,Acc,ClipSize,RateOfFire,NrBullets,Range,HP,Speed,Damage,Acc,ClipSize,RateOfFire,NrBullets,Range,HP,Speed,Damage,Acc,ClipSize,RateOfFire,NrBullets,Range,Run,target team0ratio: 0.5,target time: 0.36
/home/daniel/Projects/ppsEvolution/data/maps/custom_maps/Custom_8_Run_0_Map.csv,squared_error,2.028720347744413e-06,0.4996,0.3580,0.045186,0.899262,0.362911,0.749830,0.052973,0.244030,0.944970,2.000000,1.000000,0.000000,0.000000,0.718600,0.976624,0.921427,0.065620,2.000000,132.907496,1.273587,60.170400,0.749830,11.541689,2.818281,9.504726,2.000000,300.000000,0.770000,9.000000,0.718600,195.348195,9.253554,1.590583,2.000000,0
/home/daniel/Projects/ppsEvolution/data/maps/custom_maps/Custom_8_Run_0_Map.csv,squared_error,4.861458527784566e-07,0.5008,0.3595,0.000000,0.800212,0.262325,0.815234,0.000000,0.198656,0.799828,0.000000,0.991198,0.000000,0.051670,0.714280,0.997244,0.747663,0.027964,2.000000,125.000000,1.218119,45.987759,0.815234,1.000000,2.387236,8.198448,0.000000,298.459650,0.770000,16.285533,0.714280,199.451595,7.602797,1.251678,2.000000,1
/home/daniel/Projects/ppsEvolution/data/maps/custom_maps/Custom_8_Run_0_Map.csv,squared_error,2.7398700650450947e-06,0.5007,0.3578,0.116086,0.908229,0.152429,0.821194,0.095687,0.000000,1.000000,1.000000,0.889259,0.000000,0.057047,0.737812,0.765034,1.000000,0.000000,1.000000,145.315001,1.278608,30.492538,0.821194,20.041799,0.500000,10.000000,1.000000,280.620359,0.770000,17.043563,0.737812,153.241745,10.000000,1.000000,1.000000,2
/home/daniel/Projects/ppsEvolution/data/maps/custom_maps/Custom_8_Run_0_Map.csv,squared_error,2.285792642147274e-06,0.4990,0.3581,0.084327,0.966221,0.363230,0.784217,0.182625,0.197054,1.000000,0.000000,1.000000,0.000000,0.055900,0.736247,0.991504,0.839131,0.095142,0.000000,139.757236,1.311084,60.215500,0.784217,37.342397,2.372015,10.000000,0.000000,300.000000,0.770000,16.881907,0.736247,198.309343,8.471742,1.856274,0.000000,3
/home/daniel/Projects/ppsEvolution/data/maps/custom_maps/Custom_8_Run_0_Map.csv,squared_error,5.678666155574635e-07,0.5002,0.3590,0.000000,0.928036,0.000000,0.868764,0.030000,0.020824,0.956972,1.000000,0.904516,0.000000,0.079649,0.712891,0.859490,1.000000,0.211237,1.000000,125.000000,1.289700,9.000000,0.868764,6.970000,0.697829,9.612747,1.000000,283.290262,0.770000,20.230523,0.712891,172.038579,10.000000,2.901136,1.000000,4
/home/daniel/Projects/ppsEvolution/data/maps/custom_maps/Custom_8_Run_0_Map.csv,squared_error,5.140603950117262e-07,0.4998,0.3590,0.000000,1.000000,0.286128,0.800000,0.030000,0.000000,0.844621,1.000000,1.000000,0.303049,0.000000,0.732486,1.000000,1.000000,0.053257,1.000000,125.000000,1.330000,49.344108,0.800000,6.970000,0.500000,8.601590,1.000000,300.000000,0.939708,9.000000,0.732486,200.000000,10.000000,1.479309,1.000000,5
/home/daniel/Projects/ppsEvolution/data/maps/custom_maps/Custom_8_Run_0_Map.csv,squared_error,2.415545678391594e-06,0.5022,0.3599,0.030431,0.548415,0.210000,0.821328,0.000000,0.000000,0.974598,0.000000,0.931644,0.058804,0.196189,0.670355,0.950079,0.817057,0.000000,1.000000,130.325419,1.077112,38.610000,0.821328,1.000000,0.500000,9.771382,0.000000,288.037737,0.802930,36.662680,0.670355,190.065708,8.262038,1.000000,1.000000,6
/home/daniel/Projects/ppsEvolution/data/maps/custom_maps/Custom_8_Run_0_Map.csv,squared_error,1.617550274662018e-06,0.5001,0.3618,0.028083,0.766784,0.252757,0.808457,0.000000,0.041354,0.919931,0.000000,0.954734,0.000000,0.157123,0.682616,1.000000,1.000000,0.000000,1.000000,129.914454,1.199399,44.638682,0.808457,1.000000,0.892859,9.279382,0.000000,292.078422,0.770000,31.154329,0.682616,200.000000,10.000000,1.000000,1.000000,7
/home/daniel/Projects/ppsEvolution/data/maps/custom_maps/Custom_8_Run_0_Map.csv,squared_error,3.773721471773607e-08,0.5003,0.3599,0.193140,0.806314,0.198381,0.800000,0.155748,0.271604,0.976799,1.000000,0.852577,0.207008,0.165644,0.701400,0.954864,0.724531,0.107848,0.000000,158.799569,1.221536,36.971681,0.800000,31.993921,3.080236,9.791194,1.000000,274.200977,0.885925,32.355811,0.701400,191.017940,7.383044,1.970636,0.000000,8
/home/daniel/Projects/ppsEvolution/data/maps/custom_maps/Custom_8_Run_0_Map.csv,squared_error,1.6761330535565833e-06,0.4982,0.3600,0.084178,0.766565,0.265966,0.800000,0.172666,0.070964,0.725334,2.000000,1.000000,0.000000,0.310873,0.628007,0.539045,1.000000,0.000000,0.000000,139.731199,1.199276,46.501146,0.800000,35.360491,1.174160,7.528008,2.000000,300.000000,0.770000,52.833050,0.628007,108.269959,10.000000,1.000000,0.000000,9
map,fitness,fitness value,team0ratio,time,HP,Speed,Damage,Acc,ClipSize,RateOfFire,NrBullets,Range,HP,Speed,Damage,Acc,ClipSize,RateOfFire,NrBullets,Range,HP,Speed,Damage,Acc,ClipSize,RateOfFire,NrBullets,Range,HP,Speed,Damage,Acc,ClipSize,RateOfFire,NrBullets,Range,Run,target team0ratio: 0.5,target time: 0.36
/home/daniel/Projects/ppsEvolution/data/maps/custom_maps/Custom_9_Run_0_Map.csv,squared_error,8.167570708430118e-07,0.5013,0.3601,0.000000,0.983880,0.207499,0.725615,0.270674,0.000000,1.000000,1.000000,1.000000,0.166041,0.000000,0.641887,0.933619,0.995740,0.052328,1.000000,125.000000,1.320973,38.257301,0.725615,54.864176,0.500000,10.000000,1.000000,300.000000,0.862983,9.000000,0.641887,186.790274,9.959528,1.470950,1.000000,0
/home/daniel/Projects/ppsEvolution/data/maps/custom_maps/Custom_9_Run_0_Map.csv,squared_error,1.6335355070886465e-06,0.5006,0.3617,0.102510,0.984314,0.092875,0.722302,0.096294,0.000000,0.910506,2.000000,0.817442,0.017142,0.082402,0.600000,0.952244,1.000000,0.328422,0.000000,142.939270,1.321216,22.095422,0.722302,20.162473,0.500000,9.194554,2.000000,268.052409,0.779600,20.618735,0.600000,190.496561,10.000000,3.955797,0.000000,1
/home/daniel/Projects/ppsEvolution/data/maps/custom_maps/Custom_9_Run_0_Map.csv,squared_error,5.510748607441825e-07,0.5006,0.3591,0.316655,0.983277,0.228150,0.701325,0.092262,0.096261,1.000000,2.000000,0.989346,0.094845,0.075554,0.674629,0.904370,1.000000,0.000000,0.000000,180.414673,1.320635,41.169112,0.701325,19.360161,1.414483,10.000000,2.000000,298.135584,0.823113,19.653135,0.674629,180.969579,10.000000,1.000000,0.000000,2
/home/daniel/Projects/ppsEvolution/data/maps/custom_maps/Custom_9_Run_0_Map.csv,squared_error,2.1155652966122295e-06,0.4979,0.3598,0.273776,1.000000,0.167783,0.653386,0.188136,0.209375,1.000000,2.000000,0.639322,0.000000,0.000000,0.700606,0.845029,1.000000,0.000000,1.000000,172.910854,1.330000,32.657426,0.653386,38.439142,2.489062,10.000000,2.000000,236.881360,0.770000,9.000000,0.700606,169.160858,10.000000,1.000000,1.000000,3
/home/daniel/Projects/ppsEvolution/data/maps/custom_maps/Custom_9_Run_0_Map.csv,squared_error,4.067676193719901e-06,0.5028,0.3597,0.316560,0.980611,0.584250,0.476318,0.180251,0.132743,1.000000,1.000000,0.738541,0.033502,0.044880,0.697844,0.897244,0.993321,0.046611,0.000000,180.397964,1.319142,91.379188,0.476318,36.869932,1.761060,10.000000,1.000000,254.244635,0.788761,15.328137,0.697844,179.551653,9.936547,1.419503,0.000000,4
/home/daniel/Projects/ppsEvolution/data/maps/custom_maps/Custom_9_Run_0_Map.csv,squared_error,3.020118659455991e-06,0.5015,0.3580,0.000000,1.000000,0.225611,0.713222,0.009312,0.003998,0.935627,2.000000,1.000000,0.000000,0.088744,0.600000,1.000000,0.682028,0.000000,0.000000,125.000000,1.330000,40.811114,0.713222,2.853173,0.537979,9.420646,2.000000,300.000000,0.770000,21.512910,0.600000,200.000000,6.979270,1.000000,0.000000,5
/home/daniel/Projects/ppsEvolution/data/maps/custom_maps/Custom_9_Run_0_Map.csv,squared_error,1.1633877027207897e-06,0.5014,0.3594,0.049974,0.881790,0.061594,0.791453,0.036851,0.000000,0.768978,2.000000,1.000000,0.000000,0.000000,0.674373,0.983874,0.936684,0.000082,0.000000,133.745394,1.263802,17.684766,0.791453,8.333398,0.500000,7.920806,2.000000,300.000000,0.770000,9.000000,0.674373,196.791019,9.398498,1.000737,0.000000,6
/home/daniel/Projects/ppsEvolution/data/maps/custom_maps/Custom_9_Run_0_Map.csv,squared_error,1.362825652555678e-06,0.5004,0.3584,0.000000,0.875414,0.302084,0.644525,0.030000,0.043448,0.695880,2.000000,0.781589,0.000000,0.000000,0.651696,0.967442,0.770111,0.022142,1.000000,125.000000,1.260232,51.593852,0.644525,6.970000,0.912759,7.262924,2.000000,261.778078,0.770000,9.000000,0.651696,193.521016,7.816059,1.199280,1.000000,7
/home/daniel/Projects/ppsEvolution/data/maps/custom_maps/Custom_9_Run_0_Map.csv,squared_error,1.0744129308505904e-06,0.5013,0.3594,0.097340,0.817440,0.155037,0.747816,0.000000,0.217957,0.941442,1.000000,1.000000,0.099592,0.120742,0.600000,0.928825,0.915373,0.229706,0.000000,142.034569,1.227766,30.860234,0.747816,1.000000,2.570591,9.472982,1.000000,300.000000,0.825771,26.024552,0.600000,185.836154,9.196043,3.067355,0.000000,8
/home/daniel/Projects/ppsEvolution/data/maps/custom_maps/Custom_9_Run_0_Map.csv,squared_error,2.5868797404406735e-06,0.4985,0.3617,0.131705,0.696640,0.199615,0.724212,0.218241,0.115228,0.843813,1.000000,0.988567,0.000000,0.055541,0.638970,1.000000,1.000000,0.085313,2.000000,148.048338,1.160118,37.145740,0.724212,44.429922,1.594662,8.594313,1.000000,297.999192,0.770000,16.831215,0.638970,200.000000,10.000000,1.767816,2.000000,9
map,fitness,fitness value,team0ratio,time,HP,Speed,Damage,Acc,ClipSize,RateOfFire,NrBullets,Range,HP,Speed,Damage,Acc,ClipSize,RateOfFire,NrBullets,Range,HP,Speed,Damage,Acc,ClipSize,RateOfFire,NrBullets,Range,HP,Speed,Damage,Acc,ClipSize,RateOfFire,NrBullets,Range,Run,target team0ratio: 0.5,target time: 0.36
/home/daniel/Projects/ppsEvolution/data/maps/custom_maps/Custom_10_Run_0_Map.csv,squared_error,2.270364346901494e-06,0.5021,0.3605,0.000000,0.150219,0.976423,1.000000,0.008339,0.922618,0.999013,2.000000,0.647812,0.000000,0.839360,1.000000,1.000000,0.834831,0.000000,2.000000,125.000000,0.854123,146.675610,1.000000,2.659382,9.264869,9.991121,2.000000,238.367167,0.770000,127.349773,1.000000,200.000000,8.430895,1.000000,2.000000,0
/home/daniel/Projects/ppsEvolution/data/maps/custom_maps/Custom_10_Run_0_Map.csv,squared_error,7.55241097638775e-07,0.4997,0.3612,0.018658,0.434380,0.988681,1.000000,0.021359,0.000000,1.000000,2.000000,0.732916,0.098206,0.853194,1.000000,1.000000,0.656087,0.099985,2.000000,128.265190,1.013253,148.403977,1.000000,5.250514,0.500000,10.000000,2.000000,253.260272,0.824996,129.300403,1.000000,200.000000,6.732825,1.899863,2.000000,1
/home/daniel/Projects/ppsEvolution/data/maps/custom_maps/Custom_10_Run_0_Map.csv,squared_error,9.614283105953958e-07,0.5008,0.3612,0.213944,0.540239,0.783298,1.000000,0.279222,0.302711,0.991953,2.000000,0.536134,0.613073,1.000000,1.000000,0.696041,0.433652,0.622042,2.000000,162.440169,1.072534,119.445067,1.000000,56.565134,3.375758,9.927577,2.000000,218.823478,1.113321,150.000000,1.000000,139.512119,4.619691,6.598378,2.000000,2
/home/daniel/Projects/ppsEvolution/data/maps/custom_maps/Custom_10_Run_0_Map.csv,squared_error,3.5664125948925656e-07,0.5005,0.3593,0.000000,1.000000,1.000000,0.995457,0.000000,0.000000,1.000000,2.000000,0.592966,0.101248,0.826378,1.000000,0.972552,0.373568,0.000000,1.000000,125.000000,1.330000,150.000000,0.995457,1.000000,0.500000,10.000000,2.000000,228.769025,0.826699,125.519233,1.000000,194.537865,4.048900,1.000000,1.000000,3
/home/daniel/Projects/ppsEvolution/data/maps/custom_maps/Custom_10_Run_0_Map.csv,squared_error,5.119827299495363e-07,0.5001,0.3610,0.000000,0.717453,0.966799,0.992164,0.149599,0.285146,1.000000,2.000000,0.641309,0.523833,0.636055,1.000000,0.460545,0.430214,0.448429,2.000000,125.000000,1.171774,145.318699,0.992164,30.770260,3.208884,10.000000,2.000000,237.229110,1.063346,98.683821,1.000000,92.648405,4.587031,5.035863,2.000000,4
/home/daniel/Projects/ppsEvolution/data/maps/custom_maps/Custom_10_Run_0_Map.csv,squared_error,5.672971533734161e-07,0.4996,0.3610,0.020064,0.688570,0.916883,1.000000,0.010028,0.791895,0.970389,2.000000,0.636150,0.000000,0.987168,1.000000,0.174274,0.938334,0.302967,1.000000,128.511138,1.155599,138.280434,1.000000,2.995618,8.023000,9.733500,2.000000,236.326251,0.770000,148.190736,1.000000,35.680530,9.414168,3.726700,1.000000,5
/home/daniel/Projects/ppsEvolution/data/maps/custom_maps/Custom_10_Run_0_Map.csv,squared_error,2.9834708567435336e-06,0.4984,0.3619,0.050424,0.908543,0.802351,1.000000,0.000000,0.000000,0.884987,2.000000,0.552815,0.145087,1.000000,1.000000,1.000000,0.901324,0.400666,2.000000,133.824119,1.278784,122.131542,1.000000,1.000000,0.500000,8.964883,2.000000,221.742660,0.851249,150.000000,1.000000,200.000000,9.062582,4.605998,2.000000,6
/home/daniel/Projects/ppsEvolution/data/maps/custom_maps/Custom_10_Run_0_Map.csv,squared_error,8.182831117899435e-07,0.5011,0.3593,0.000000,0.980714,0.970896,0.978041,0.004179,0.398608,0.964398,1.000000,0.309689,0.299556,0.736929,1.000000,0.932675,0.707496,0.734059,1.000000,125.000000,1.319200,145.896329,0.978041,1.831559,4.286776,9.679580,1.000000,179.195494,0.937752,112.907028,1.000000,186.602244,7.221213,7.606532,1.000000,7
/home/daniel/Projects/ppsEvolution/data/maps/custom_maps/Custom_10_Run_0_Map.csv,squared_error,3.1720007151882946e-06,0.4997,0.3625,0.012999,0.104069,0.925362,0.994852,0.117945,0.171687,1.000000,2.000000,0.617469,0.699140,0.574794,1.000000,0.794767,0.221536,0.290325,2.000000,127.274907,0.828279,139.476014,0.994852,24.471086,2.131030,10.000000,2.000000,233.057071,1.161518,90.045977,1.000000,159.158610,2.604595,3.612925,2.000000,8
/home/daniel/Projects/ppsEvolution/data/maps/custom_maps/Custom_10_Run_0_Map.csv,squared_error,2.163080775609626e-07,0.4994,0.3597,0.006301,0.427560,0.530439,1.000000,0.025802,0.442541,0.940739,2.000000,0.000000,0.533651,0.906752,1.000000,0.797540,0.468157,0.511120,0.000000,126.102604,1.009434,83.791914,1.000000,6.134514,4.704141,9.466653,2.000000,125.000000,1.068844,136.852050,1.000000,159.710535,4.947490,5.600081,0.000000,9
