map,fitness,fitness value,team0ratio,time,HP,Speed,Damage,Acc,ClipSize,RateOfFire,NrBullets,Range,HP,Speed,Damage,Acc,ClipSize,RateOfFire,NrBullets,Range,HP,Speed,Damage,Acc,ClipSize,RateOfFire,NrBullets,Range,HP,Speed,Damage,Acc,ClipSize,RateOfFire,NrBullets,Range,Run,target team0ratio: 0.5,target time: 0.14
/home/daniel/Projects/ppsEvolution/data/maps/custom_maps/Custom_1_Run_0_Map.csv,squared_error,0.00016712824964244084,0.4964,0.1579,0.010287,0.830117,0.382195,1.000000,0.294738,0.000000,1.000000,2.000000,0.368851,0.074669,1.000000,0.998710,0.707628,0.508473,0.607279,2.000000,126.800243,1.234866,62.889431,1.000000,59.652938,0.500000,10.000000,2.000000,189.548877,0.811815,150.000000,0.998710,141.817925,5.330492,6.465509,2.000000,0
/home/daniel/Projects/ppsEvolution/data/maps/custom_maps/Custom_1_Run_0_Map.csv,squared_error,0.00025293613117090426,0.4983,0.1624,0.000000,0.251486,0.233806,1.000000,0.483140,0.142259,0.883933,2.000000,0.270933,0.126532,0.806600,1.000000,0.806719,0.779320,0.476968,2.000000,125.000000,0.910832,41.966664,1.000000,97.144872,1.851464,8.955393,2.000000,172.413291,0.840858,122.730538,1.000000,161.537039,7.903542,5.292711,2.000000,1
/home/daniel/Projects/ppsEvolution/data/maps/custom_maps/Custom_1_Run_0_Map.csv,squared_error,0.00019169075386086469,0.4993,0.1596,0.000000,0.445090,0.284984,1.000000,0.186568,0.019467,1.000000,2.000000,0.465050,0.004076,0.795049,1.000000,0.652905,1.000000,0.905958,2.000000,125.000000,1.019250,49.182743,1.000000,38.127015,0.684940,10.000000,2.000000,206.383829,0.772283,121.101852,1.000000,130.928154,10.000000,9.153621,2.000000,2
/home/daniel/Projects/ppsEvolution/data/maps/custom_maps/Custom_1_Run_0_Map.csv,squared_error,0.00020704000846308182,0.4964,0.1600,0.080818,1.000000,0.207152,1.000000,0.244133,0.408107,0.974763,2.000000,0.015513,0.512701,1.000000,1.000000,0.867910,0.346009,0.102950,2.000000,139.143149,1.330000,38.208416,1.000000,49.582471,4.377013,9.772866,2.000000,127.714854,1.057112,150.000000,1.000000,173.714139,3.787086,1.926554,2.000000,3
/home/daniel/Projects/ppsEvolution/data/maps/custom_maps/Custom_1_Run_0_Map.csv,squared_error,0.00018574845478312334,0.4994,0.1593,0.000000,0.889365,0.613396,1.000000,0.000000,0.264127,1.000000,2.000000,0.622332,0.537561,1.000000,1.000000,0.924797,0.161386,0.130402,2.000000,125.000000,1.268045,95.488816,1.000000,1.000000,3.009206,10.000000,2.000000,233.908187,1.071034,150.000000,1.000000,185.034653,2.033169,2.173622,2.000000,4
/home/daniel/Projects/ppsEvolution/data/maps/custom_maps/Custom_1_Run_0_Map.csv,squared_error,0.00022303428978837295,0.5064,0.1601,0.000000,0.936899,0.304381,1.000000,0.000000,0.000000,0.856710,2.000000,0.312348,0.070068,0.852092,0.999391,0.592995,0.767256,0.391261,2.000000,125.000000,1.294663,51.917783,1.000000,1.000000,0.500000,8.710388,2.000000,179.660877,0.809238,129.144975,0.999391,119.005943,7.788934,4.521346,2.000000,5
/home/daniel/Projects/ppsEvolution/data/maps/custom_maps/Custom_1_Run_0_Map.csv,squared_error,0.0002711584592365089,0.5114,0.1603,0.000000,0.884019,0.643853,1.000000,0.128716,0.058098,1.000000,2.000000,0.746841,0.663132,0.980255,1.000000,0.875251,0.809806,0.190138,2.000000,125.000000,1.265051,99.783325,1.000000,26.614390,1.051933,10.000000,2.000000,255.697242,1.141354,147.215924,1.000000,175.175044,8.193158,2.711238,2.000000,6
/home/daniel/Projects/ppsEvolution/data/maps/custom_maps/Custom_1_Run_0_Map.csv,squared_error,0.00026444641529229415,0.4952,0.1625,0.285950,0.575034,0.075930,1.000000,0.000000,0.184260,0.904783,2.000000,0.112007,0.000000,0.996361,1.000000,0.993821,0.831027,0.000000,2.000000,175.041207,1.092019,19.706166,1.000000,1.000000,2.250468,9.143049,2.000000,144.601170,0.770000,149.486964,1.000000,198.770286,8.394757,1.000000,2.000000,7
/home/daniel/Projects/ppsEvolution/data/maps/custom_maps/Custom_1_Run_0_Map.csv,squared_error,0.0002785724656250065,0.5044,0.1632,0.000000,0.707803,0.681856,1.000000,0.059958,0.564909,1.000000,2.000000,0.972888,0.082882,0.849270,1.000000,0.780013,0.949691,0.315144,2.000000,125.000000,1.166370,105.141745,1.000000,12.931547,5.866631,10.000000,2.000000,295.255410,0.816414,128.747131,1.000000,156.222594,9.522061,3.836293,2.000000,8
/home/daniel/Projects/ppsEvolution/data/maps/custom_maps/Custom_1_Run_0_Map.csv,squared_error,0.00021071208585603064,0.5023,0.1604,0.050073,0.656429,0.227327,1.000000,0.000000,0.128911,0.661171,2.000000,0.264902,0.000000,0.800327,1.000000,0.699094,0.290016,0.973434,2.000000,133.762758,1.137600,41.053044,1.000000,1.000000,1.724659,6.950537,2.000000,171.357794,0.770000,121.846061,1.000000,140.119641,3.255149,9.760908,2.000000,9
map,fitness,fitness value,team0ratio,time,HP,Speed,Damage,Acc,ClipSize,RateOfFire,NrBullets,Range,HP,Speed,Damage,Acc,ClipSize,RateOfFire,NrBullets,Range,HP,Speed,Damage,Acc,ClipSize,RateOfFire,NrBullets,Range,HP,Speed,Damage,Acc,ClipSize,RateOfFire,NrBullets,Range,Run,target team0ratio: 0.5,target time: 0.14
/home/daniel/Projects/ppsEvolution/data/maps/custom_maps/Custom_2_Run_0_Map.csv,squared_error,0.03080959238992013,0.4780,0.3873,0.020394,1.000000,0.527714,1.000000,0.105034,0.059724,0.898173,2.000000,0.508675,0.597883,0.992651,1.000000,1.000000,0.836683,1.000000,2.000000,128.568993,1.330000,83.407669,1.000000,21.901791,1.067375,9.083556,2.000000,214.018174,1.104815,148.963753,1.000000,200.000000,8.448488,10.000000,2.000000,0
/home/daniel/Projects/ppsEvolution/data/maps/custom_maps/Custom_2_Run_0_Map.csv,squared_error,0.030867350814259897,0.4610,0.3854,0.033013,1.000000,0.625296,1.000000,0.255085,0.237048,0.892208,2.000000,0.905512,0.502893,1.000000,1.000000,1.000000,0.997144,0.968771,2.000000,130.777352,1.330000,97.166679,1.000000,51.761934,2.751957,9.029869,2.000000,283.464635,1.051620,150.000000,1.000000,200.000000,9.972871,9.718939,2.000000,1
/home/daniel/Projects/ppsEvolution/data/maps/custom_maps/Custom_2_Run_0_Map.csv,squared_error,0.030828006403395305,0.4531,0.3838,0.038929,0.754846,0.643942,1.000000,0.107788,0.020107,0.938315,2.000000,0.996789,0.121129,1.000000,1.000000,0.898655,0.944587,1.000000,2.000000,131.812641,1.192714,99.795793,1.000000,22.449720,0.691018,9.444838,2.000000,299.438146,0.837832,150.000000,1.000000,179.832302,9.473581,10.000000,2.000000,2
/home/daniel/Projects/ppsEvolution/data/maps/custom_maps/Custom_2_Run_0_Map.csv,squared_error,0.031299787360914724,0.4687,0.3882,0.028763,0.871826,0.559816,1.000000,0.188838,0.367594,0.879710,2.000000,0.677292,0.464328,1.000000,1.000000,0.585903,1.000000,0.983166,2.000000,130.033561,1.258223,87.934028,1.000000,38.578811,3.992145,8.917392,2.000000,243.526154,1.030024,150.000000,1.000000,117.594659,10.000000,9.848497,2.000000,3
/home/daniel/Projects/ppsEvolution/data/maps/custom_maps/Custom_2_Run_0_Map.csv,squared_error,0.031684288611362035,0.4673,0.3896,0.029460,0.859555,0.506864,1.000000,0.000000,0.141305,0.948829,2.000000,0.725787,0.540926,1.000000,0.985924,1.000000,0.834136,0.613177,2.000000,130.155453,1.251351,80.467852,1.000000,1.000000,1.842399,9.539461,2.000000,252.012713,1.072919,150.000000,0.985924,200.000000,8.424288,6.518589,2.000000,4
/home/daniel/Projects/ppsEvolution/data/maps/custom_maps/Custom_2_Run_0_Map.csv,squared_error,0.03091462124308879,0.4809,0.3879,0.011347,0.729236,0.786971,1.000000,0.289133,0.116330,0.936224,2.000000,0.968559,0.504846,1.000000,1.000000,1.000000,0.991865,1.000000,2.000000,126.985661,1.178372,119.962860,1.000000,58.537521,1.605140,9.426018,2.000000,294.497759,1.052714,150.000000,1.000000,200.000000,9.922714,10.000000,2.000000,5
/home/daniel/Projects/ppsEvolution/data/maps/custom_maps/Custom_2_Run_0_Map.csv,squared_error,0.030912755355071896,0.4763,0.3875,0.000000,0.827919,0.831326,1.000000,0.000000,0.161009,0.923620,2.000000,1.000000,0.179585,1.000000,1.000000,1.000000,0.663879,1.000000,2.000000,125.000000,1.233634,126.216995,1.000000,1.000000,2.029582,9.312579,2.000000,300.000000,0.870568,150.000000,1.000000,200.000000,6.806850,10.000000,2.000000,6
/home/daniel/Projects/ppsEvolution/data/maps/custom_maps/Custom_2_Run_0_Map.csv,squared_error,0.03175650016685798,0.4742,0.3907,0.074550,0.999486,0.748233,1.000000,0.120090,0.000000,1.000000,2.000000,0.966937,0.096924,1.000000,1.000000,0.986217,1.000000,0.383965,2.000000,138.046295,1.329712,114.500814,1.000000,24.897867,0.500000,10.000000,2.000000,294.214046,0.824277,150.000000,1.000000,197.257157,10.000000,4.455683,2.000000,7
/home/daniel/Projects/ppsEvolution/data/maps/custom_maps/Custom_2_Run_0_Map.csv,squared_error,0.03110372592495792,0.4719,0.3878,0.101312,1.000000,0.684458,1.000000,0.061995,0.000000,1.000000,2.000000,0.902901,0.023176,0.963009,1.000000,0.982525,0.740681,0.947756,2.000000,142.729515,1.330000,105.508577,1.000000,13.337036,0.500000,10.000000,2.000000,283.007761,0.782979,144.784305,1.000000,196.522569,7.536472,9.529805,2.000000,8
/home/daniel/Projects/ppsEvolution/data/maps/custom_maps/Custom_2_Run_0_Map.csv,squared_error,0.03096816568963532,0.4913,0.3887,0.000000,0.715732,0.795800,1.000000,0.000000,0.000000,1.000000,2.000000,0.835754,0.376371,1.000000,1.000000,0.850826,1.000000,0.944475,2.000000,125.000000,1.170810,121.207766,1.000000,1.000000,0.500000,10.000000,2.000000,271.256865,0.980768,150.000000,1.000000,170.314444,10.000000,9.500271,2.000000,9
map,fitness,fitness value,team0ratio,time,HP,Speed,Damage,Acc,ClipSize,RateOfFire,NrBullets,Range,HP,Speed,Damage,Acc,ClipSize,RateOfFire,NrBullets,Range,HP,Speed,Damage,Acc,ClipSize,RateOfFire,NrBullets,Range,HP,Speed,Damage,Acc,ClipSize,RateOfFire,NrBullets,Range,Run,target team0ratio: 0.5,target time: 0.14
/home/daniel/Projects/ppsEvolution/data/maps/custom_maps/Custom_3_Run_0_Map.csv,squared_error,0.055856615952487684,0.5173,0.4738,0.083038,0.504978,0.947941,0.976833,0.000000,0.606400,1.000000,2.000000,0.007852,0.700379,0.985238,1.000000,0.918666,0.011559,0.257419,2.000000,139.531668,1.052788,142.659616,0.976833,1.000000,6.260795,10.000000,2.000000,126.374160,1.162212,147.918616,1.000000,183.814577,0.609814,3.316773,2.000000,0
/home/daniel/Projects/ppsEvolution/data/maps/custom_maps/Custom_3_Run_0_Map.csv,squared_error,0.05560303168504565,0.5570,0.4686,0.000000,0.717603,1.000000,1.000000,0.000000,0.068133,1.000000,2.000000,0.000000,0.164914,1.000000,1.000000,0.591143,0.193316,0.231340,2.000000,125.000000,1.171858,150.000000,1.000000,1.000000,1.147265,10.000000,2.000000,125.000000,0.862352,150.000000,1.000000,118.637451,2.336499,3.082058,2.000000,1
/home/daniel/Projects/ppsEvolution/data/maps/custom_maps/Custom_3_Run_0_Map.csv,squared_error,0.05534033561172319,0.5099,0.4725,0.000000,0.968257,1.000000,0.975885,0.000000,0.305820,1.000000,2.000000,0.118378,0.116146,0.960100,1.000000,0.686423,0.072819,0.486664,2.000000,125.000000,1.312224,150.000000,0.975885,1.000000,3.405293,10.000000,2.000000,145.716080,0.835042,144.374144,1.000000,137.598117,1.191778,5.379973,2.000000,2
/home/daniel/Projects/ppsEvolution/data/maps/custom_maps/Custom_3_Run_0_Map.csv,squared_error,0.05584739014683724,0.5186,0.4737,0.000000,1.000000,0.569858,1.000000,0.087922,0.437031,0.875341,2.000000,0.035565,0.061956,0.978275,1.000000,0.907786,0.862648,0.955346,2.000000,125.000000,1.330000,89.349997,1.000000,18.496459,4.651795,8.878066,2.000000,131.223833,0.804695,146.936821,1.000000,181.649485,8.695155,9.598115,2.000000,3
/home/daniel/Projects/ppsEvolution/data/maps/custom_maps/Custom_3_Run_0_Map.csv,squared_error,0.05606963020020639,0.5255,0.4739,0.000000,1.000000,0.787516,1.000000,0.572942,0.000000,1.000000,2.000000,0.332832,0.376011,1.000000,1.000000,0.790083,0.718863,0.962607,2.000000,125.000000,1.330000,120.039699,1.000000,115.015453,0.500000,10.000000,2.000000,183.245558,0.980566,150.000000,1.000000,158.226431,7.329200,9.663463,2.000000,4
/home/daniel/Projects/ppsEvolution/data/maps/custom_maps/Custom_3_Run_0_Map.csv,squared_error,0.05591733296224038,0.5585,0.4693,0.000000,0.857878,0.945043,1.000000,0.053121,0.487678,1.000000,2.000000,0.045384,0.802648,1.000000,1.000000,0.815087,0.121157,0.555287,2.000000,125.000000,1.250412,142.251072,1.000000,11.571099,5.132937,10.000000,2.000000,132.942184,1.219483,150.000000,1.000000,163.202284,1.650987,5.997584,2.000000,5
/home/daniel/Projects/ppsEvolution/data/maps/custom_maps/Custom_3_Run_0_Map.csv,squared_error,0.05616105705864451,0.5563,0.4704,0.000000,0.944395,1.000000,1.000000,0.000000,0.405278,1.000000,2.000000,0.055252,0.000000,1.000000,1.000000,0.670279,0.551839,0.000000,2.000000,125.000000,1.298861,150.000000,1.000000,1.000000,4.350138,10.000000,2.000000,134.669070,0.770000,150.000000,1.000000,134.385498,5.742466,1.000000,2.000000,6
/home/daniel/Projects/ppsEvolution/data/maps/custom_maps/Custom_3_Run_0_Map.csv,squared_error,0.05445171077369022,0.5504,0.4661,0.000000,0.667609,1.000000,0.991643,0.004094,0.148109,1.000000,2.000000,0.000000,0.000000,1.000000,1.000000,0.647717,0.009096,0.996112,2.000000,125.000000,1.143861,150.000000,0.991643,1.814787,1.907035,10.000000,2.000000,125.000000,0.770000,150.000000,1.000000,129.895780,0.586412,9.965010,2.000000,7
/home/daniel/Projects/ppsEvolution/data/maps/custom_maps/Custom_3_Run_0_Map.csv,squared_error,0.05551878366035898,0.5395,0.4709,0.014792,0.584850,1.000000,1.000000,0.012281,0.099132,1.000000,2.000000,0.328035,0.464994,1.000000,1.000000,0.861114,0.000000,0.650625,2.000000,127.588558,1.097516,150.000000,1.000000,3.444005,1.441753,10.000000,2.000000,182.406178,1.030396,150.000000,1.000000,172.361759,0.500000,6.855622,2.000000,8
/home/daniel/Projects/ppsEvolution/data/maps/custom_maps/Custom_3_Run_0_Map.csv,squared_error,0.054891143642387404,0.5351,0.4695,0.068168,0.998535,0.966352,0.978532,0.000000,0.756341,1.000000,2.000000,0.008926,0.000000,1.000000,1.000000,1.000000,0.208558,0.983733,1.000000,136.929398,1.329180,145.255641,0.978532,1.000000,7.685237,10.000000,2.000000,126.561978,0.770000,150.000000,1.000000,200.000000,2.481304,9.853595,1.000000,9
map,fitness,fitness value,team0ratio,time,HP,Speed,Damage,Acc,ClipSize,RateOfFire,NrBullets,Range,HP,Speed,Damage,Acc,ClipSize,RateOfFire,NrBullets,Range,HP,Speed,Damage,Acc,ClipSize,RateOfFire,NrBullets,Range,HP,Speed,Damage,Acc,ClipSize,RateOfFire,NrBullets,Range,Run,target team0ratio: 0.5,target time: 0.14
/home/daniel/Projects/ppsEvolution/data/maps/custom_maps/Custom_4_Run_0_Map.csv,squared_error,0.0017550811431455088,0.5169,0.1968,0.000000,0.804162,0.813404,1.000000,0.022423,0.090712,0.866797,2.000000,0.132617,0.300947,1.000000,1.000000,0.873658,0.828132,0.019644,2.000000,125.000000,1.220330,123.690019,1.000000,5.462223,1.361760,8.801177,2.000000,148.208035,0.938530,150.000000,1.000000,174.857920,8.367255,1.176800,2.000000,0
/home/daniel/Projects/ppsEvolution/data/maps/custom_maps/Custom_4_Run_0_Map.csv,squared_error,0.001564173703970541,0.4930,0.1955,0.000000,0.741137,0.869873,0.984248,0.063505,0.228812,1.000000,1.000000,0.004549,0.004671,1.000000,1.000000,0.954542,0.435294,0.921559,2.000000,125.000000,1.185037,131.652047,0.984248,13.637446,2.673718,10.000000,1.000000,125.796115,0.772615,150.000000,1.000000,190.953823,4.635289,9.294028,2.000000,1
/home/daniel/Projects/ppsEvolution/data/maps/custom_maps/Custom_4_Run_0_Map.csv,squared_error,0.0019266152376650673,0.4962,0.2020,0.047158,0.908143,0.911815,1.000000,0.092411,0.081031,0.931148,2.000000,0.726073,0.427551,0.751347,1.000000,0.659100,0.615689,0.420013,2.000000,133.252711,1.278560,137.565846,1.000000,19.389690,1.269790,9.380328,2.000000,252.062768,1.009429,114.939928,1.000000,132.160923,6.349041,4.780115,2.000000,2
/home/daniel/Projects/ppsEvolution/data/maps/custom_maps/Custom_4_Run_0_Map.csv,squared_error,0.0016886447171191314,0.5030,0.1980,0.000000,0.686129,0.959535,0.985652,0.760203,0.196909,0.943875,2.000000,0.225932,0.336125,0.999424,1.000000,1.000000,0.576002,0.455377,2.000000,125.000000,1.154232,144.294426,0.985652,152.280460,2.370634,9.494877,2.000000,164.538126,0.958230,149.918733,1.000000,200.000000,5.972020,5.098389,2.000000,3
/home/daniel/Projects/ppsEvolution/data/maps/custom_maps/Custom_4_Run_0_Map.csv,squared_error,0.0016395904093121766,0.5063,0.1969,0.000000,0.595808,0.996184,1.000000,0.000000,0.249807,0.741579,2.000000,0.350595,0.061396,1.000000,1.000000,1.000000,0.057597,0.090977,2.000000,125.000000,1.103653,149.461913,1.000000,1.000000,2.873168,7.674213,2.000000,186.354148,0.804382,150.000000,1.000000,200.000000,1.047173,1.818794,2.000000,4
/home/daniel/Projects/ppsEvolution/data/maps/custom_maps/Custom_4_Run_0_Map.csv,squared_error,0.0016495889314694161,0.5026,0.1974,0.043949,0.910223,0.663259,1.000000,0.024448,0.367916,1.000000,2.000000,0.166975,0.586502,0.935070,1.000000,0.674837,0.707950,0.855027,2.000000,132.691003,1.279725,102.519515,1.000000,5.865120,3.995200,10.000000,2.000000,154.220590,1.098441,140.844913,1.000000,135.292600,7.225521,8.695241,2.000000,5
/home/daniel/Projects/ppsEvolution/data/maps/custom_maps/Custom_4_Run_0_Map.csv,squared_error,0.0016001522509002792,0.5071,0.1961,0.000000,0.284769,0.899062,1.000000,0.000000,0.101721,0.857798,2.000000,0.374550,0.416537,0.943869,1.000000,0.534933,0.259379,1.000000,2.000000,125.000000,0.929471,135.767790,1.000000,1.000000,1.466351,8.720185,2.000000,190.546226,1.003261,142.085519,1.000000,107.451575,2.964098,10.000000,2.000000,6
/home/daniel/Projects/ppsEvolution/data/maps/custom_maps/Custom_4_Run_0_Map.csv,squared_error,0.0018289312970928278,0.5090,0.1998,0.000000,0.858797,0.917438,1.000000,0.121714,0.275835,0.906598,2.000000,0.585935,0.006072,0.737125,1.000000,0.813682,0.652984,0.729930,2.000000,125.000000,1.250927,138.358734,1.000000,25.221111,3.120431,9.159379,2.000000,227.538684,0.773400,112.934567,1.000000,162.922738,6.703350,7.569366,2.000000,7
/home/daniel/Projects/ppsEvolution/data/maps/custom_maps/Custom_4_Run_0_Map.csv,squared_error,0.0015762300156193503,0.5075,0.1956,0.017530,0.866499,0.726891,1.000000,0.347575,0.000000,0.937936,2.000000,0.016691,0.380994,1.000000,1.000000,0.740906,0.156394,0.457021,2.000000,128.067670,1.255239,111.491664,1.000000,70.167444,0.500000,9.441426,2.000000,127.920945,0.983356,150.000000,1.000000,148.440357,1.985739,5.113193,2.000000,8
/home/daniel/Projects/ppsEvolution/data/maps/custom_maps/Custom_4_Run_0_Map.csv,squared_error,0.001733609842420946,0.5066,0.1985,0.000000,0.909660,1.000000,1.000000,0.008029,0.000000,1.000000,1.000000,0.469005,0.199797,0.985244,1.000000,0.696865,1.000000,0.287700,2.000000,125.000000,1.279410,150.000000,1.000000,2.597796,0.500000,10.000000,1.000000,207.075861,0.881886,147.919430,1.000000,139.676189,10.000000,3.589304,2.000000,9
map,fitness,fitness value,team0ratio,time,HP,Speed,Damage,Acc,ClipSize,RateOfFire,NrBullets,Range,HP,Speed,Damage,Acc,ClipSize,RateOfFire,NrBullets,Range,HP,Speed,Damage,Acc,ClipSize,RateOfFire,NrBullets,Range,HP,Speed,Damage,Acc,ClipSize,RateOfFire,NrBullets,Range,Run,target team0ratio: 0.5,target time: 0.14
/home/daniel/Projects/ppsEvolution/data/maps/custom_maps/Custom_5_Run_0_Map.csv,squared_error,0.01116880093474616,0.5269,0.2870,0.003048,0.805763,0.985415,0.978948,0.027084,0.000000,0.996516,2.000000,0.103436,0.141669,1.000000,1.000000,0.973872,0.874883,0.534044,2.000000,125.533419,1.221228,147.943577,0.978948,6.389688,0.500000,9.968640,2.000000,143.101352,0.849335,150.000000,1.000000,194.800622,8.811389,5.806395,2.000000,0
/home/daniel/Projects/ppsEvolution/data/maps/custom_maps/Custom_5_Run_0_Map.csv,squared_error,0.010969573520883345,0.5110,0.2877,0.141580,0.788504,1.000000,0.964071,0.608456,0.120376,0.938799,2.000000,0.003076,0.079280,0.897807,1.000000,0.513868,0.294184,0.649680,2.000000,149.776490,1.211562,150.000000,0.964071,122.082690,1.643573,9.449187,2.000000,125.538227,0.814397,135.590817,1.000000,103.259828,3.294749,6.847118,2.000000,1
/home/daniel/Projects/ppsEvolution/data/maps/custom_maps/Custom_5_Run_0_Map.csv,squared_error,0.010746653368568275,0.5243,0.2846,0.000000,0.646858,1.000000,0.986985,0.013509,0.740850,1.000000,2.000000,0.164102,0.000000,0.925120,1.000000,0.971980,0.000000,0.735060,1.000000,125.000000,1.132241,150.000000,0.986985,3.688223,7.538079,10.000000,2.000000,153.717882,0.770000,139.441875,1.000000,194.423947,0.500000,7.615543,1.000000,2
/home/daniel/Projects/ppsEvolution/data/maps/custom_maps/Custom_5_Run_0_Map.csv,squared_error,0.011007500775184103,0.5264,0.2860,0.091084,0.478808,1.000000,0.975093,0.308344,0.000000,1.000000,2.000000,0.000000,0.419864,0.760038,1.000000,0.743625,0.294051,0.228398,2.000000,140.939782,1.038132,150.000000,0.975093,62.360416,0.500000,10.000000,2.000000,125.000000,1.005124,116.165403,1.000000,148.981431,3.293486,3.055585,2.000000,3
/home/daniel/Projects/ppsEvolution/data/maps/custom_maps/Custom_5_Run_0_Map.csv,squared_error,0.011081708637633653,0.5192,0.2876,0.000000,0.598125,1.000000,0.974435,0.126859,0.277263,1.000000,2.000000,0.036287,0.596495,0.900375,1.000000,0.782467,0.284023,0.195676,0.000000,125.000000,1.104950,150.000000,0.974435,26.244995,3.133998,10.000000,2.000000,131.350147,1.104037,135.952897,1.000000,156.710963,3.198219,2.761085,0.000000,4
/home/daniel/Projects/ppsEvolution/data/maps/custom_maps/Custom_5_Run_0_Map.csv,squared_error,0.010840832425176743,0.5129,0.2867,0.000000,0.995818,1.000000,0.973325,0.176514,0.671844,0.947131,2.000000,0.000000,0.069859,0.914881,1.000000,0.487045,0.052397,0.214003,0.000000,125.000000,1.327658,150.000000,0.973325,36.126203,6.882517,9.524183,2.000000,125.000000,0.809121,137.998224,1.000000,97.921961,0.997775,2.926030,0.000000,5
/home/daniel/Projects/ppsEvolution/data/maps/custom_maps/Custom_5_Run_0_Map.csv,squared_error,0.010870454713360858,0.5193,0.2862,0.130637,0.273931,1.000000,0.970741,0.301353,0.000000,1.000000,2.000000,0.000000,0.000000,0.868859,1.000000,0.512381,0.190351,0.363597,0.000000,147.861447,0.923401,150.000000,0.970741,60.969213,0.500000,10.000000,2.000000,125.000000,0.770000,131.509097,1.000000,102.963865,2.308337,4.272374,0.000000,6
/home/daniel/Projects/ppsEvolution/data/maps/custom_maps/Custom_5_Run_0_Map.csv,squared_error,0.011116174906561771,0.5199,0.2878,0.000000,0.788496,0.991382,0.970433,0.000000,0.000000,1.000000,2.000000,0.000000,0.205660,0.799075,1.000000,0.906304,0.468230,0.067458,0.000000,125.000000,1.211558,148.784837,0.970433,1.000000,0.500000,10.000000,2.000000,125.000000,0.885170,121.669525,1.000000,181.354496,4.948183,1.607124,0.000000,7
/home/daniel/Projects/ppsEvolution/data/maps/custom_maps/Custom_5_Run_0_Map.csv,squared_error,0.011271841584679579,0.5247,0.2881,0.000000,1.000000,0.990943,0.961277,0.182363,0.474505,0.882871,2.000000,0.042478,0.036072,0.722212,1.000000,1.000000,0.874307,1.000000,2.000000,125.000000,1.330000,148.722963,0.961277,37.290265,5.007795,8.945842,2.000000,132.433686,0.790200,110.831830,1.000000,200.000000,8.805914,10.000000,2.000000,8
/home/daniel/Projects/ppsEvolution/data/maps/custom_maps/Custom_5_Run_0_Map.csv,squared_error,0.010588514773974282,0.5343,0.2814,0.055482,0.795956,0.990001,0.988113,0.096378,0.548257,1.000000,2.000000,0.000000,0.000000,0.919731,1.000000,0.954746,0.005610,0.464077,2.000000,134.709272,1.215736,148.590088,0.988113,20.179283,5.708443,10.000000,2.000000,125.000000,0.770000,138.682125,1.000000,190.994479,0.553299,5.176692,2.000000,9
map,fitness,fitness value,team0ratio,time,HP,Speed,Damage,Acc,ClipSize,RateOfFire,NrBullets,Range,HP,Speed,Damage,Acc,ClipSize,RateOfFire,NrBullets,Range,HP,Speed,Damage,Acc,ClipSize,RateOfFire,NrBullets,Range,HP,Speed,Damage,Acc,ClipSize,RateOfFire,NrBullets,Range,Run,target team0ratio: 0.5,target time: 0.14
/home/daniel/Projects/ppsEvolution/data/maps/custom_maps/Custom_6_Run_0_Map.csv,squared_error,0.05764289158199131,0.3931,0.4623,0.180720,1.000000,0.000000,1.000000,0.260732,0.017988,0.333721,2.000000,0.980088,0.755377,1.000000,0.988066,0.908860,1.000000,0.993194,2.000000,156.625926,1.330000,9.000000,1.000000,52.885656,0.670882,4.003489,2.000000,296.515409,1.193011,150.000000,0.988066,181.863137,10.000000,9.938742,2.000000,0
/home/daniel/Projects/ppsEvolution/data/maps/custom_maps/Custom_6_Run_0_Map.csv,squared_error,0.059373274114927925,0.4021,0.4704,0.374546,1.000000,0.000000,1.000000,0.000000,0.135307,0.950255,2.000000,1.000000,0.318796,1.000000,0.982074,1.000000,1.000000,0.568992,2.000000,190.545597,1.330000,9.000000,1.000000,1.000000,1.785417,9.552294,2.000000,300.000000,0.948526,150.000000,0.982074,200.000000,10.000000,6.120930,2.000000,1
/home/daniel/Projects/ppsEvolution/data/maps/custom_maps/Custom_6_Run_0_Map.csv,squared_error,0.05785151703338271,0.3685,0.4537,0.074653,0.452788,0.000000,1.000000,0.000000,0.000000,0.248605,2.000000,1.000000,0.345373,1.000000,1.000000,0.950349,0.984922,1.000000,2.000000,138.064361,1.023562,9.000000,1.000000,1.000000,0.500000,3.237445,2.000000,300.000000,0.963409,150.000000,1.000000,190.119514,9.856761,10.000000,2.000000,2
/home/daniel/Projects/ppsEvolution/data/maps/custom_maps/Custom_6_Run_0_Map.csv,squared_error,0.05919137845789007,0.4177,0.4741,0.000000,0.901201,0.000000,1.000000,0.357727,0.170259,0.358756,2.000000,1.000000,0.499218,0.998556,0.940925,1.000000,1.000000,0.278467,2.000000,125.000000,1.274673,9.000000,1.000000,72.187719,2.117459,4.228804,2.000000,300.000000,1.049562,149.796445,0.940925,200.000000,10.000000,3.506206,2.000000,3
/home/daniel/Projects/ppsEvolution/data/maps/custom_maps/Custom_6_Run_0_Map.csv,squared_error,0.05894928462201778,0.3982,0.4679,0.000000,0.872825,0.000000,1.000000,0.000000,0.338757,0.504827,2.000000,1.000000,0.000000,0.880535,0.963260,0.855763,0.890029,0.788261,2.000000,125.000000,1.258782,9.000000,1.000000,1.000000,3.718188,5.543444,2.000000,300.000000,0.770000,133.155480,0.963260,171.296867,8.955276,8.094345,2.000000,4
/home/daniel/Projects/ppsEvolution/data/maps/custom_maps/Custom_6_Run_0_Map.csv,squared_error,0.05867404561250237,0.3992,0.4674,0.057550,0.777287,0.000000,1.000000,0.000000,0.000000,0.484214,1.000000,1.000000,0.000000,0.944682,0.955850,0.992256,1.000000,0.909726,2.000000,135.071183,1.205281,9.000000,1.000000,1.000000,0.500000,5.357923,1.000000,300.000000,0.770000,142.200144,0.955850,198.459041,10.000000,9.187532,2.000000,5
/home/daniel/Projects/ppsEvolution/data/maps/custom_maps/Custom_6_Run_0_Map.csv,squared_error,0.059608504155895164,0.4322,0.4785,0.262859,0.914631,0.000000,0.999520,0.013040,0.127503,0.708437,2.000000,0.991237,1.000000,1.000000,0.948089,0.880428,0.742320,0.630488,2.000000,171.000294,1.282193,9.000000,0.999520,3.594963,1.711283,7.375929,2.000000,298.466441,1.330000,150.000000,0.948089,176.205157,7.552038,6.674395,2.000000,6
/home/daniel/Projects/ppsEvolution/data/maps/custom_maps/Custom_6_Run_0_Map.csv,squared_error,0.06012899178364892,0.4003,0.4721,0.104453,1.000000,0.000000,1.000000,0.201920,0.193505,0.602825,1.000000,1.000000,0.349978,1.000000,0.951447,0.287804,0.962505,0.840417,2.000000,143.279218,1.330000,9.000000,1.000000,41.182123,2.338301,6.425424,1.000000,300.000000,0.965988,150.000000,0.951447,58.272979,9.643794,8.563752,2.000000,7
/home/daniel/Projects/ppsEvolution/data/maps/custom_maps/Custom_6_Run_0_Map.csv,squared_error,0.05972550545930647,0.3643,0.4579,0.101491,0.382707,0.000000,1.000000,0.000000,0.138502,0.496605,2.000000,0.997196,0.619757,1.000000,1.000000,0.856223,1.000000,0.488705,2.000000,142.760936,0.984316,9.000000,1.000000,1.000000,1.815767,5.469441,2.000000,299.509236,1.117064,150.000000,1.000000,171.388367,10.000000,5.398345,2.000000,8
/home/daniel/Projects/ppsEvolution/data/maps/custom_maps/Custom_6_Run_0_Map.csv,squared_error,0.05978423345657016,0.4132,0.4747,0.261225,1.000000,0.000000,1.000000,0.000000,0.000000,0.851084,2.000000,1.000000,0.257913,1.000000,0.963110,0.629233,1.000000,0.325419,2.000000,170.714300,1.330000,9.000000,1.000000,1.000000,0.500000,8.659760,2.000000,300.000000,0.914431,150.000000,0.963110,126.217269,10.000000,3.928770,2.000000,9
map,fitness,fitness value,team0ratio,time,HP,Speed,Damage,Acc,ClipSize,RateOfFire,NrBullets,Range,HP,Speed,Damage,Acc,ClipSize,RateOfFire,NrBullets,Range,HP,Speed,Damage,Acc,ClipSize,RateOfFire,NrBullets,Range,HP,Speed,Damage,Acc,ClipSize,RateOfFire,NrBullets,Range,Run,target team0ratio: 0.5,target time: 0.14
/home/daniel/Projects/ppsEvolution/data/maps/custom_maps/Custom_7_Run_0_Map.csv,squared_error,0.016815860669153554,0.4703,0.3210,0.038907,0.901372,0.417096,1.000000,0.297945,0.074870,0.897409,2.000000,0.494626,1.000000,1.000000,1.000000,0.806573,1.000000,1.000000,2.000000,131.808646,1.274768,67.810497,1.000000,60.291125,1.211263,9.076683,2.000000,211.559541,1.330000,150.000000,1.000000,161.508106,10.000000,10.000000,2.000000,0
/home/daniel/Projects/ppsEvolution/data/maps/custom_maps/Custom_7_Run_0_Map.csv,squared_error,0.016957496600619095,0.4827,0.3233,0.206951,1.000000,0.293199,1.000000,0.045328,0.131947,1.000000,2.000000,0.222007,0.190816,1.000000,1.000000,1.000000,0.837050,0.665074,2.000000,161.216353,1.330000,50.341060,1.000000,10.020271,1.753497,10.000000,2.000000,163.851260,0.876857,150.000000,1.000000,200.000000,8.451978,6.985667,2.000000,1
/home/daniel/Projects/ppsEvolution/data/maps/custom_maps/Custom_7_Run_0_Map.csv,squared_error,0.017270485878652972,0.4673,0.3230,0.033881,0.887497,0.361118,1.000000,0.095377,0.098861,0.966691,2.000000,0.328316,0.016482,1.000000,0.994236,0.962305,0.739223,0.358665,2.000000,130.929132,1.266998,59.917594,1.000000,19.980113,1.439183,9.700217,2.000000,182.455370,0.779230,150.000000,0.994236,192.498645,7.522619,4.227987,2.000000,2
/home/daniel/Projects/ppsEvolution/data/maps/custom_maps/Custom_7_Run_0_Map.csv,squared_error,0.01696401950770157,0.4938,0.3241,0.206231,0.909423,0.734499,1.000000,0.000000,0.020522,0.968049,2.000000,1.000000,0.068306,0.940632,1.000000,0.711257,0.814917,0.959001,2.000000,161.090343,1.279277,112.564416,1.000000,1.000000,0.694955,9.712442,2.000000,300.000000,0.808252,141.629125,1.000000,142.540177,8.241712,9.631011,2.000000,3
/home/daniel/Projects/ppsEvolution/data/maps/custom_maps/Custom_7_Run_0_Map.csv,squared_error,0.016629314544220394,0.4907,0.3221,0.032600,0.936550,0.485535,1.000000,0.000000,0.310073,1.000000,2.000000,0.375170,0.218289,1.000000,1.000000,1.000000,1.000000,0.842284,2.000000,130.705038,1.294468,77.460441,1.000000,1.000000,3.445691,10.000000,2.000000,190.654677,0.892242,150.000000,1.000000,200.000000,10.000000,8.580557,2.000000,4
/home/daniel/Projects/ppsEvolution/data/maps/custom_maps/Custom_7_Run_0_Map.csv,squared_error,0.018467587200460784,0.4582,0.3276,0.000000,0.828302,0.348980,1.000000,0.000000,0.000000,1.000000,2.000000,0.743998,0.142997,0.542596,1.000000,0.942261,1.000000,0.242525,2.000000,125.000000,1.233849,58.206113,1.000000,1.000000,0.500000,10.000000,2.000000,255.199609,0.850078,85.505973,1.000000,188.510034,10.000000,3.182728,2.000000,5
/home/daniel/Projects/ppsEvolution/data/maps/custom_maps/Custom_7_Run_0_Map.csv,squared_error,0.017235892016382294,0.5081,0.3255,0.000207,1.000000,0.467994,1.000000,0.277295,0.000000,1.000000,2.000000,0.184321,1.000000,1.000000,1.000000,0.686572,1.000000,0.617947,2.000000,125.036306,1.330000,74.987158,1.000000,56.181611,0.500000,10.000000,2.000000,157.256147,1.330000,150.000000,1.000000,137.627869,10.000000,6.561526,2.000000,6
/home/daniel/Projects/ppsEvolution/data/maps/custom_maps/Custom_7_Run_0_Map.csv,squared_error,0.017087908211360726,0.4937,0.3248,0.072409,0.719863,0.805372,1.000000,0.000000,0.000000,1.000000,2.000000,0.978834,0.451662,0.979449,1.000000,0.652086,0.981461,0.461626,2.000000,137.671588,1.173123,122.557425,1.000000,1.000000,0.500000,10.000000,2.000000,296.295942,1.022931,147.102248,1.000000,130.765137,9.823882,5.154631,2.000000,7
/home/daniel/Projects/ppsEvolution/data/maps/custom_maps/Custom_7_Run_0_Map.csv,squared_error,0.016964894610129212,0.4715,0.3220,0.107219,0.926404,0.522999,1.000000,0.005785,0.275926,0.607653,2.000000,0.718064,0.173231,0.998439,1.000000,0.887665,0.896654,0.862507,2.000000,143.763254,1.288786,82.742899,1.000000,2.151190,3.121295,6.468875,2.000000,250.661194,0.867009,149.779963,1.000000,177.645352,9.018213,8.762560,2.000000,8
/home/daniel/Projects/ppsEvolution/data/maps/custom_maps/Custom_7_Run_0_Map.csv,squared_error,0.01712621398374057,0.4837,0.3244,0.108130,0.974506,0.501004,1.000000,0.045182,0.001296,0.452093,2.000000,0.635141,0.260885,0.948029,1.000000,0.474683,0.876324,0.874371,2.000000,143.922763,1.315723,79.641534,1.000000,9.991154,0.512309,5.068840,2.000000,236.149655,0.916096,142.672030,1.000000,95.461903,8.825075,8.869336,2.000000,9
map,fitness,fitness value,team0ratio,time,HP,Speed,Damage,Acc,ClipSize,RateOfFire,NrBullets,Range,HP,Speed,Damage,Acc,ClipSize,RateOfFire,NrBullets,Range,HP,Speed,Damage,Acc,ClipSize,RateOfFire,NrBullets,Range,HP,Speed,Damage,Acc,ClipSize,RateOfFire,NrBullets,Range,Run,target team0ratio: 0.5,target time: 0.14
/home/daniel/Projects/ppsEvolution/data/maps/custom_maps/Custom_8_Run_0_Map.csv,squared_error,0.003104375821443809,0.5093,0.2182,0.006884,0.467374,0.862757,1.000000,0.096984,0.380105,0.866099,2.000000,0.563083,0.293815,0.993266,1.000000,0.835148,0.797592,0.839477,2.000000,126.204664,1.031729,130.648705,1.000000,20.299861,4.110996,8.794892,2.000000,223.539525,0.934537,149.050488,1.000000,167.194405,8.077123,8.555296,2.000000,0
/home/daniel/Projects/ppsEvolution/data/maps/custom_maps/Custom_8_Run_0_Map.csv,squared_error,0.0030988965659997573,0.4828,0.2168,0.006492,0.555742,0.660854,0.986786,0.000000,0.000000,1.000000,2.000000,0.115138,0.213841,1.000000,1.000000,0.917463,0.697126,0.490547,2.000000,126.136085,1.081216,102.180389,0.986786,1.000000,0.500000,10.000000,2.000000,145.149102,0.889751,150.000000,1.000000,183.575130,7.122693,5.414924,2.000000,1
/home/daniel/Projects/ppsEvolution/data/maps/custom_maps/Custom_8_Run_0_Map.csv,squared_error,0.003620499617972234,0.4882,0.2243,0.000000,0.917729,0.459688,1.000000,0.014412,0.092506,0.979294,2.000000,0.346426,0.000000,0.618770,1.000000,0.063467,0.987155,0.146214,2.000000,125.000000,1.283928,73.816022,1.000000,3.867959,1.378810,9.813648,2.000000,185.624556,0.770000,96.246625,1.000000,13.629841,9.877972,2.315930,2.000000,2
/home/daniel/Projects/ppsEvolution/data/maps/custom_maps/Custom_8_Run_0_Map.csv,squared_error,0.003109499738821099,0.5065,0.2186,0.000000,0.721330,0.982910,1.000000,0.301412,0.152097,0.947164,2.000000,0.551550,0.149580,1.000000,1.000000,0.785484,0.216390,0.151414,2.000000,125.000000,1.173945,147.590335,1.000000,60.981057,1.944920,9.524476,2.000000,221.521211,0.853765,150.000000,1.000000,157.311249,2.555703,2.362727,2.000000,3
/home/daniel/Projects/ppsEvolution/data/maps/custom_maps/Custom_8_Run_0_Map.csv,squared_error,0.002902234352296577,0.4931,0.2159,0.000000,1.000000,0.693259,1.000000,0.000000,0.067407,1.000000,2.000000,0.324528,0.018952,1.000000,1.000000,0.994602,0.559976,0.547652,2.000000,125.000000,1.330000,106.749570,1.000000,1.000000,1.140371,10.000000,2.000000,181.792487,0.780613,150.000000,1.000000,198.925726,5.819773,5.928872,2.000000,4
/home/daniel/Projects/ppsEvolution/data/maps/custom_maps/Custom_8_Run_0_Map.csv,squared_error,0.003024427759225573,0.5196,0.2153,0.000000,0.699577,1.000000,0.992366,0.000000,0.092457,0.945345,2.000000,0.446908,0.078757,1.000000,1.000000,0.830178,0.650452,0.738029,2.000000,125.000000,1.161763,150.000000,0.992366,1.000000,1.378343,9.508105,2.000000,203.208817,0.814104,150.000000,1.000000,166.205421,6.679297,7.642258,2.000000,5
/home/daniel/Projects/ppsEvolution/data/maps/custom_maps/Custom_8_Run_0_Map.csv,squared_error,0.0031463950639374428,0.4991,0.2193,0.000000,1.000000,0.965932,1.000000,0.091148,0.000000,0.985568,2.000000,0.787546,0.102535,0.952621,1.000000,0.982973,0.748747,0.187636,2.000000,125.000000,1.330000,145.196384,1.000000,19.138412,0.500000,9.870113,2.000000,262.820551,0.827420,143.319604,1.000000,196.611721,7.613098,2.688726,2.000000,6
/home/daniel/Projects/ppsEvolution/data/maps/custom_maps/Custom_8_Run_0_Map.csv,squared_error,0.003065568389661214,0.4990,0.2183,0.081321,0.420225,0.639665,1.000000,0.047771,0.038293,1.000000,2.000000,0.181935,0.702891,1.000000,1.000000,0.934934,0.284253,0.160355,2.000000,139.231211,1.005326,99.192782,1.000000,10.506376,0.863788,10.000000,2.000000,156.838593,1.163619,150.000000,1.000000,187.051784,3.200407,2.443191,2.000000,7
/home/daniel/Projects/ppsEvolution/data/maps/custom_maps/Custom_8_Run_0_Map.csv,squared_error,0.003111984572578307,0.5018,0.2189,0.000000,0.689572,0.941805,1.000000,0.000000,0.262137,1.000000,2.000000,0.682932,0.527895,0.978373,1.000000,0.919466,0.625015,0.324722,2.000000,125.000000,1.156160,141.794471,1.000000,1.000000,2.990302,10.000000,2.000000,244.513065,1.065621,146.950644,1.000000,183.973734,6.437644,3.922498,2.000000,8
/home/daniel/Projects/ppsEvolution/data/maps/custom_maps/Custom_8_Run_0_Map.csv,squared_error,0.003192974300058359,0.5050,0.2198,0.000000,0.944535,0.841521,0.996751,0.000000,0.443146,0.977034,1.000000,0.393170,0.651232,1.000000,1.000000,0.959243,0.914517,0.818980,2.000000,125.000000,1.298940,127.654420,0.996751,1.000000,4.709891,9.793306,1.000000,193.804693,1.134690,150.000000,1.000000,191.889402,9.187913,8.370822,2.000000,9
map,fitness,fitness value,team0ratio,time,HP,Speed,Damage,Acc,ClipSize,RateOfFire,NrBullets,Range,HP,Speed,Damage,Acc,ClipSize,RateOfFire,NrBullets,Range,HP,Speed,Damage,Acc,ClipSize,RateOfFire,NrBullets,Range,HP,Speed,Damage,Acc,ClipSize,RateOfFire,NrBullets,Range,Run,target team0ratio: 0.5,target time: 0.14
/home/daniel/Projects/ppsEvolution/data/maps/custom_maps/Custom_9_Run_0_Map.csv,squared_error,0.0013441711675450869,0.4985,0.1918,0.005167,0.848155,0.870812,0.991396,0.296990,0.334725,0.952936,2.000000,0.743995,0.142355,1.000000,1.000000,1.000000,0.437733,0.923541,1.000000,125.904162,1.244967,131.784517,0.991396,60.101004,3.679885,9.576425,2.000000,255.199055,0.849719,150.000000,1.000000,200.000000,4.658466,9.311871,1.000000,0
/home/daniel/Projects/ppsEvolution/data/maps/custom_maps/Custom_9_Run_0_Map.csv,squared_error,0.0012366256796775361,0.4989,0.1897,0.055157,0.669432,0.611587,1.000000,0.000000,0.064962,1.000000,2.000000,0.432644,0.081992,0.985240,1.000000,0.904429,0.355891,0.251184,2.000000,134.652390,1.144882,95.233822,1.000000,1.000000,1.117138,10.000000,2.000000,200.712658,0.815916,147.918859,1.000000,180.981329,3.880967,3.260656,2.000000,1
/home/daniel/Projects/ppsEvolution/data/maps/custom_maps/Custom_9_Run_0_Map.csv,squared_error,0.001063963684368718,0.5039,0.1860,0.020754,0.221931,0.824824,0.972027,0.000000,0.276491,1.000000,2.000000,0.096862,0.262733,0.952158,1.000000,0.548266,0.190784,0.711186,2.000000,128.631873,0.894281,125.300197,0.972027,1.000000,3.126665,10.000000,2.000000,141.950853,0.917130,143.254224,1.000000,110.104854,2.312452,7.400676,2.000000,2
/home/daniel/Projects/ppsEvolution/data/maps/custom_maps/Custom_9_Run_0_Map.csv,squared_error,0.001230926563122145,0.5106,0.1885,0.043533,0.769633,0.823621,0.981678,0.280607,0.143571,1.000000,2.000000,0.333520,0.013273,0.977684,1.000000,0.946520,0.629217,0.394811,2.000000,132.618297,1.200994,125.130570,0.981678,56.840829,1.863927,10.000000,2.000000,183.366047,0.777433,146.853462,1.000000,189.357504,6.477559,4.553298,2.000000,3
/home/daniel/Projects/ppsEvolution/data/maps/custom_maps/Custom_9_Run_0_Map.csv,squared_error,0.0013035611788317775,0.5016,0.1910,0.042908,0.431031,0.788205,0.988819,0.070618,0.105600,1.000000,1.000000,0.347998,0.220378,0.873985,1.000000,0.899239,0.117908,0.429220,2.000000,132.508881,1.011377,120.136872,0.988819,15.052896,1.503199,10.000000,1.000000,185.899713,0.893411,132.231821,1.000000,179.948462,1.620128,4.862978,2.000000,4
/home/daniel/Projects/ppsEvolution/data/maps/custom_maps/Custom_9_Run_0_Map.csv,squared_error,0.0012554148827952666,0.5098,0.1891,0.000000,0.031551,0.481988,1.000000,0.447604,0.000000,1.000000,2.000000,0.232936,0.480994,1.000000,1.000000,0.811198,0.927966,0.978328,2.000000,125.000000,0.787668,76.960359,1.000000,90.073195,0.500000,10.000000,2.000000,165.763740,1.039357,150.000000,1.000000,162.428448,9.315677,9.804954,2.000000,5
/home/daniel/Projects/ppsEvolution/data/maps/custom_maps/Custom_9_Run_0_Map.csv,squared_error,0.0012715300780801492,0.5025,0.1904,0.048739,1.000000,0.641560,1.000000,0.177771,0.757111,1.000000,2.000000,0.442256,0.081011,1.000000,1.000000,0.469396,0.234067,0.998745,1.000000,133.529364,1.330000,99.459932,1.000000,36.376466,7.692556,10.000000,2.000000,202.394769,0.815366,150.000000,1.000000,94.409760,2.723636,9.988707,1.000000,6
/home/daniel/Projects/ppsEvolution/data/maps/custom_maps/Custom_9_Run_0_Map.csv,squared_error,0.0014452719227391725,0.5044,0.1936,0.038044,0.562284,1.000000,0.984908,0.350861,0.189715,0.860821,2.000000,0.787135,0.215287,1.000000,1.000000,0.633106,0.921875,0.000000,2.000000,131.657706,1.084879,150.000000,0.984908,70.821267,2.302291,8.747387,2.000000,262.748680,0.890561,150.000000,1.000000,126.988026,9.257816,1.000000,2.000000,7
/home/daniel/Projects/ppsEvolution/data/maps/custom_maps/Custom_9_Run_0_Map.csv,squared_error,0.0013008679781493977,0.4960,0.1908,0.010767,0.269048,0.381589,1.000000,0.346302,0.280469,0.805544,2.000000,0.065408,0.000000,0.977125,1.000000,0.929401,0.477024,0.563676,2.000000,126.884277,0.920667,62.804069,1.000000,69.914046,3.164455,8.249893,2.000000,136.446391,0.770000,146.774670,1.000000,185.950884,5.031729,6.073083,2.000000,8
/home/daniel/Projects/ppsEvolution/data/maps/custom_maps/Custom_9_Run_0_Map.csv,squared_error,0.001187326850266532,0.5003,0.1887,0.000000,1.000000,0.276605,1.000000,0.000000,0.504331,1.000000,2.000000,0.000000,0.195376,0.864406,1.000000,0.888183,0.745231,1.000000,2.000000,125.000000,1.330000,48.001333,1.000000,1.000000,5.291142,10.000000,2.000000,125.000000,0.879410,130.881188,1.000000,177.748472,7.579696,10.000000,2.000000,9
map,fitness,fitness value,team0ratio,time,HP,Speed,Damage,Acc,ClipSize,RateOfFire,NrBullets,Range,HP,Speed,Damage,Acc,ClipSize,RateOfFire,NrBullets,Range,HP,Speed,Damage,Acc,ClipSize,RateOfFire,NrBullets,Range,HP,Speed,Damage,Acc,ClipSize,RateOfFire,NrBullets,Range,Run,target team0ratio: 0.5,target time: 0.14
/home/daniel/Projects/ppsEvolution/data/maps/custom_maps/Custom_10_Run_0_Map.csv,squared_error,0.021160740420950105,0.5454,0.3406,0.000000,0.792151,1.000000,1.000000,0.224750,0.256124,0.967504,2.000000,0.000000,0.154146,1.000000,1.000000,0.980591,0.040450,0.535090,0.000000,125.000000,1.213604,150.000000,1.000000,45.725316,2.933178,9.707539,2.000000,125.000000,0.856322,150.000000,1.000000,196.137605,0.884277,5.815813,0.000000,0
/home/daniel/Projects/ppsEvolution/data/maps/custom_maps/Custom_10_Run_0_Map.csv,squared_error,0.021101468872526993,0.5570,0.3374,0.092868,0.699528,1.000000,1.000000,0.012085,0.427354,1.000000,2.000000,0.000000,0.382990,1.000000,1.000000,0.799570,0.157522,0.872980,0.000000,141.251972,1.161736,150.000000,1.000000,3.404833,4.559862,10.000000,2.000000,125.000000,0.984475,150.000000,1.000000,160.114369,1.996459,8.856819,0.000000,1
/home/daniel/Projects/ppsEvolution/data/maps/custom_maps/Custom_10_Run_0_Map.csv,squared_error,0.02080328890886027,0.5370,0.3406,0.000000,1.000000,1.000000,1.000000,0.000000,0.581052,1.000000,2.000000,0.114044,0.000000,1.000000,1.000000,0.967170,0.000000,1.000000,2.000000,125.000000,1.330000,150.000000,1.000000,1.000000,6.019991,10.000000,2.000000,144.957766,0.770000,150.000000,1.000000,193.466845,0.500000,10.000000,2.000000,2
/home/daniel/Projects/ppsEvolution/data/maps/custom_maps/Custom_10_Run_0_Map.csv,squared_error,0.02111959059933253,0.5460,0.3403,0.219931,0.576979,1.000000,1.000000,0.185148,0.928008,1.000000,2.000000,0.000000,0.000000,0.971938,1.000000,0.881686,0.058132,0.154771,0.000000,163.487847,1.093108,150.000000,1.000000,37.844431,9.316075,10.000000,2.000000,125.000000,0.770000,146.043226,1.000000,176.455494,1.052251,2.392938,0.000000,3
/home/daniel/Projects/ppsEvolution/data/maps/custom_maps/Custom_10_Run_0_Map.csv,squared_error,0.020919208982579277,0.5571,0.3364,0.215187,0.218782,1.000000,1.000000,0.141969,1.000000,1.000000,2.000000,0.000000,0.384585,1.000000,1.000000,0.917126,0.022680,1.000000,1.000000,162.657717,0.892518,150.000000,1.000000,29.251804,10.000000,10.000000,2.000000,125.000000,0.985367,150.000000,1.000000,183.508099,0.715462,10.000000,1.000000,4
/home/daniel/Projects/ppsEvolution/data/maps/custom_maps/Custom_10_Run_0_Map.csv,squared_error,0.02113655024621454,0.5259,0.3440,0.000000,0.669709,0.989559,0.982222,0.000000,0.094534,1.000000,2.000000,0.000000,0.000000,0.856781,1.000000,0.557846,0.361626,0.980676,2.000000,125.000000,1.145037,148.527857,0.982222,1.000000,1.398069,10.000000,2.000000,125.000000,0.770000,129.806081,1.000000,112.011335,3.935451,9.826086,2.000000,5
/home/daniel/Projects/ppsEvolution/data/maps/custom_maps/Custom_10_Run_0_Map.csv,squared_error,0.020963913947038962,0.5524,0.3379,0.000000,0.651583,1.000000,1.000000,0.160977,0.663233,1.000000,2.000000,0.000000,0.119056,1.000000,1.000000,0.987346,0.290221,0.991376,1.000000,125.000000,1.134887,150.000000,1.000000,33.034482,6.800715,10.000000,2.000000,125.000000,0.836671,150.000000,1.000000,197.481945,3.257103,9.922383,1.000000,6
/home/daniel/Projects/ppsEvolution/data/maps/custom_maps/Custom_10_Run_0_Map.csv,squared_error,0.020908113359097532,0.5305,0.3422,0.020688,0.832912,0.992790,0.984804,0.756995,0.586930,0.994689,2.000000,0.015849,0.043533,0.982608,0.999752,0.990603,0.127905,1.000000,0.000000,128.620372,1.236431,148.983362,0.984804,151.642037,6.075838,9.952198,2.000000,127.773546,0.794378,147.547749,0.999752,198.130030,1.715094,10.000000,0.000000,7
/home/daniel/Projects/ppsEvolution/data/maps/custom_maps/Custom_10_Run_0_Map.csv,squared_error,0.02118097436650776,0.5587,0.3373,0.000000,1.000000,0.988287,1.000000,0.180126,0.889577,1.000000,2.000000,0.000000,0.121863,1.000000,1.000000,0.936395,0.572321,0.922225,0.000000,125.000000,1.330000,148.348478,1.000000,36.844985,8.950982,10.000000,2.000000,125.000000,0.838243,150.000000,1.000000,187.342628,5.937047,9.300021,0.000000,8
/home/daniel/Projects/ppsEvolution/data/maps/custom_maps/Custom_10_Run_0_Map.csv,squared_error,0.02136834664597802,0.5218,0.3456,0.404215,0.784097,1.000000,0.967080,0.378219,0.168915,1.000000,2.000000,0.000000,0.000000,0.917336,1.000000,0.770901,0.251922,0.984949,2.000000,195.737650,1.209094,150.000000,0.967080,76.265515,2.104688,10.000000,2.000000,125.000000,0.770000,138.344332,1.000000,154.409305,2.893261,9.864540,2.000000,9
