map,fitness,fitness value,team0ratio,time,HP,Speed,Damage,Acc,ClipSize,RateOfFire,NrBullets,Range,HP,Speed,Damage,Acc,ClipSize,RateOfFire,NrBullets,Range,HP,Speed,Damage,Acc,ClipSize,RateOfFire,NrBullets,Range,HP,Speed,Damage,Acc,ClipSize,RateOfFire,NrBullets,Range,Run,target team0ratio: 0.5,target time: 0.72
/home/daniel/Projects/ppsEvolution/data/maps/custom_maps/Custom_1_Run_0_Map.csv,squared_error,8.864807791837625e-07,0.5010,0.7192,0.768661,1.000000,0.017810,0.000000,0.121273,0.212879,0.520991,0.000000,0.972726,0.075562,0.000000,0.000000,1.000000,1.000000,0.000000,2.000000,259.515733,1.330000,11.511154,0.000000,25.133375,2.522348,5.688918,0.000000,295.227032,0.812315,9.000000,0.000000,200.000000,10.000000,1.000000,2.000000,0
/home/daniel/Projects/ppsEvolution/data/maps/custom_maps/Custom_1_Run_0_Map.csv,squared_error,2.4446078448717374e-07,0.4996,0.7195,0.770306,0.786237,0.000000,0.000000,0.000000,0.026756,0.752068,0.000000,0.968359,0.317442,0.000000,0.000000,1.000000,0.927909,0.000000,2.000000,259.803588,1.210293,9.000000,0.000000,1.000000,0.754179,7.768611,0.000000,294.462848,0.947768,9.000000,0.000000,200.000000,9.315137,1.000000,2.000000,1
/home/daniel/Projects/ppsEvolution/data/maps/custom_maps/Custom_1_Run_0_Map.csv,squared_error,3.377753098739249e-07,0.4992,0.7197,0.897562,0.990684,0.000000,0.000000,0.166663,0.108164,0.669045,1.000000,1.000000,0.136737,0.036074,0.000000,0.663176,0.972035,0.110873,0.000000,282.073327,1.324783,9.000000,0.000000,34.165985,1.527562,7.021404,1.000000,300.000000,0.846573,14.086434,0.000000,132.972121,9.734328,1.997861,0.000000,2
/home/daniel/Projects/ppsEvolution/data/maps/custom_maps/Custom_1_Run_0_Map.csv,squared_error,1.0337563377590098e-06,0.4996,0.7214,0.793236,1.000000,0.000000,0.001896,0.316045,0.210394,0.325739,2.000000,0.933378,0.156200,0.000000,0.000000,0.869162,0.992586,0.000000,2.000000,263.816365,1.330000,9.000000,0.001896,63.892959,2.498744,3.931649,2.000000,288.341114,0.857472,9.000000,0.000000,173.963166,9.929563,1.000000,2.000000,3
/home/daniel/Projects/ppsEvolution/data/maps/custom_maps/Custom_1_Run_0_Map.csv,squared_error,9.993749423216354e-07,0.5013,0.7194,0.779425,0.701692,0.000000,0.000000,0.172532,0.026172,0.572176,1.000000,0.956833,0.108816,0.000000,0.000000,0.941192,0.649906,0.000000,1.000000,261.399289,1.162947,9.000000,0.000000,35.333907,0.748638,6.149588,1.000000,292.445850,0.830937,9.000000,0.000000,188.297303,6.674109,1.000000,1.000000,4
/home/daniel/Projects/ppsEvolution/data/maps/custom_maps/Custom_1_Run_0_Map.csv,squared_error,3.10148457015207e-07,0.5008,0.7202,0.780079,1.000000,0.000000,0.000000,0.311382,0.231191,0.808839,0.000000,1.000000,0.075390,0.000000,0.000000,0.970808,1.000000,0.000000,1.000000,261.513902,1.330000,9.000000,0.000000,62.965005,2.696310,8.279554,0.000000,300.000000,0.812218,9.000000,0.000000,194.190772,10.000000,1.000000,1.000000,5
/home/daniel/Projects/ppsEvolution/data/maps/custom_maps/Custom_1_Run_0_Map.csv,squared_error,5.652102466598065e-07,0.5005,0.7191,0.918919,0.944631,0.000000,0.000000,0.000000,0.123241,0.783661,1.000000,1.000000,0.153466,0.000000,0.000000,0.799063,0.502827,0.519821,1.000000,285.810772,1.298993,9.000000,0.000000,1.000000,1.670788,8.052947,1.000000,300.000000,0.855941,9.000000,0.000000,160.013633,5.276858,5.678385,1.000000,6
/home/daniel/Projects/ppsEvolution/data/maps/custom_maps/Custom_1_Run_0_Map.csv,squared_error,2.7013627415045957e-07,0.4995,0.7205,0.838559,0.735162,0.000000,0.000000,0.071891,0.110072,0.703353,0.000000,1.000000,0.009992,0.005443,0.000000,0.663431,0.860589,0.145029,2.000000,271.747842,1.181690,9.000000,0.000000,15.306333,1.545682,7.330173,0.000000,300.000000,0.775596,9.767519,0.000000,133.022780,8.675594,2.305259,2.000000,7
/home/daniel/Projects/ppsEvolution/data/maps/custom_maps/Custom_1_Run_0_Map.csv,squared_error,6.914101179773852e-07,0.5011,0.7195,0.845767,1.000000,0.000000,0.000000,0.128930,0.000000,0.781043,2.000000,1.000000,0.085711,0.007925,0.000000,1.000000,0.973533,0.167181,2.000000,273.009187,1.330000,9.000000,0.000000,26.657010,0.500000,8.029386,2.000000,300.000000,0.817998,10.117445,0.000000,200.000000,9.748563,2.504626,2.000000,8
/home/daniel/Projects/ppsEvolution/data/maps/custom_maps/Custom_1_Run_0_Map.csv,squared_error,6.600819913955705e-07,0.5003,0.7189,0.811833,0.613223,0.000000,0.000000,0.242627,0.101219,0.764384,0.000000,1.000000,0.084798,0.010364,0.000000,0.777674,1.000000,0.000000,2.000000,267.070814,1.113405,9.000000,0.000000,49.282677,1.461580,7.879455,0.000000,300.000000,0.817487,10.461371,0.000000,155.757133,10.000000,1.000000,2.000000,9
map,fitness,fitness value,team0ratio,time,HP,Speed,Damage,Acc,ClipSize,RateOfFire,NrBullets,Range,HP,Speed,Damage,Acc,ClipSize,RateOfFire,NrBullets,Range,HP,Speed,Damage,Acc,ClipSize,RateOfFire,NrBullets,Range,HP,Speed,Damage,Acc,ClipSize,RateOfFire,NrBullets,Range,Run,target team0ratio: 0.5,target time: 0.72
/home/daniel/Projects/ppsEvolution/data/maps/custom_maps/Custom_2_Run_0_Map.csv,squared_error,6.411663347990013e-07,0.4991,0.7207,0.240733,1.000000,0.005349,0.574228,0.000000,0.039262,0.584047,1.000000,0.991134,0.000000,0.034221,0.221447,1.000000,0.649091,0.175567,0.000000,167.128202,1.330000,9.754266,0.574228,1.000000,0.872988,6.256427,1.000000,298.448395,0.770000,13.825130,0.221447,200.000000,6.666360,2.580104,0.000000,0
/home/daniel/Projects/ppsEvolution/data/maps/custom_maps/Custom_2_Run_0_Map.csv,squared_error,8.404527224577646e-07,0.4991,0.7209,0.208920,0.818768,0.158092,0.392097,0.000000,0.107942,1.000000,2.000000,1.000000,0.217287,0.000000,0.212426,0.587572,0.688876,0.092895,2.000000,161.561021,1.228510,31.291021,0.392097,1.000000,1.525445,10.000000,2.000000,300.000000,0.891681,9.000000,0.212426,117.926901,7.044325,1.836053,2.000000,1
/home/daniel/Projects/ppsEvolution/data/maps/custom_maps/Custom_2_Run_0_Map.csv,squared_error,8.1020027627406e-07,0.5007,0.7211,0.473526,1.000000,0.000000,0.526968,0.086018,0.030441,1.000000,2.000000,1.000000,0.000000,0.042969,0.295466,1.000000,0.794393,0.119809,0.000000,207.867099,1.330000,9.000000,0.526968,18.117539,0.789191,10.000000,2.000000,300.000000,0.770000,15.058574,0.295466,200.000000,8.046732,2.078285,0.000000,2
/home/daniel/Projects/ppsEvolution/data/maps/custom_maps/Custom_2_Run_0_Map.csv,squared_error,2.0134624649877705e-06,0.4989,0.7217,0.076935,0.552301,0.233022,0.348842,0.079027,0.000000,0.950887,0.000000,1.000000,0.217628,0.158049,0.000000,0.849618,0.871665,0.000000,2.000000,138.463666,1.079288,41.856108,0.348842,16.726285,0.500000,9.557987,0.000000,300.000000,0.891872,31.284902,0.000000,170.074044,8.780822,1.000000,2.000000,3
/home/daniel/Projects/ppsEvolution/data/maps/custom_maps/Custom_2_Run_0_Map.csv,squared_error,2.9976127518697666e-08,0.4998,0.7201,0.434175,0.783419,0.072560,0.459552,0.244061,0.000000,0.752259,1.000000,0.899056,0.077532,0.210691,0.068308,0.918775,0.984216,0.494596,0.000000,200.980591,1.208714,19.230993,0.459552,49.568211,0.500000,7.770328,1.000000,282.334874,0.813418,38.707487,0.068308,183.836168,9.850053,5.451365,0.000000,4
/home/daniel/Projects/ppsEvolution/data/maps/custom_maps/Custom_2_Run_0_Map.csv,squared_error,5.353380841029054e-07,0.5003,0.7190,0.092929,1.000000,0.000000,0.529747,0.158970,0.028055,0.977734,2.000000,0.921722,0.131146,0.122956,0.068933,0.847077,0.405056,0.000000,0.000000,141.262589,1.330000,9.000000,0.529747,32.635003,0.766526,9.799610,2.000000,286.301364,0.843442,26.336843,0.068933,169.568270,4.348034,1.000000,0.000000,5
/home/daniel/Projects/ppsEvolution/data/maps/custom_maps/Custom_2_Run_0_Map.csv,squared_error,2.9422104519312393e-06,0.5023,0.7192,0.121652,0.669863,0.000000,0.477077,0.000000,0.000000,0.771315,2.000000,0.713887,0.080259,0.000000,0.219975,0.610750,1.000000,0.000000,2.000000,146.289058,1.145123,9.000000,0.477077,1.000000,0.500000,7.941834,2.000000,249.930175,0.814945,9.000000,0.219975,122.539281,10.000000,1.000000,2.000000,6
/home/daniel/Projects/ppsEvolution/data/maps/custom_maps/Custom_2_Run_0_Map.csv,squared_error,6.146734124009191e-07,0.4998,0.7211,0.305127,1.000000,0.000330,0.532472,0.315189,0.171202,1.000000,2.000000,1.000000,0.123250,0.019860,0.255498,0.954057,0.855199,0.006847,0.000000,178.397299,1.330000,9.046483,0.532472,63.722577,2.126418,10.000000,2.000000,300.000000,0.839020,11.800252,0.255498,190.857282,8.624386,1.061619,0.000000,7
/home/daniel/Projects/ppsEvolution/data/maps/custom_maps/Custom_2_Run_0_Map.csv,squared_error,1.1372904351673916e-07,0.5005,0.7199,0.407268,1.000000,0.107890,0.301775,0.049118,0.285877,1.000000,2.000000,0.682792,0.000000,0.000000,0.321546,0.488173,0.825306,0.061036,2.000000,196.271930,1.330000,24.212515,0.301775,10.774501,3.215834,10.000000,2.000000,244.488553,0.770000,9.000000,0.321546,98.146452,8.340406,1.549322,2.000000,8
/home/daniel/Projects/ppsEvolution/data/maps/custom_maps/Custom_2_Run_0_Map.csv,squared_error,6.040562527694429e-07,0.4991,0.7207,0.125856,0.880264,0.000000,0.567553,0.101160,0.329477,0.836873,0.000000,0.973355,0.000000,0.054862,0.122976,1.000000,1.000000,0.295941,1.000000,147.024860,1.262948,9.000000,0.567553,21.130889,3.630028,8.531860,0.000000,295.337124,0.770000,16.735511,0.122976,200.000000,10.000000,3.663468,1.000000,9
map,fitness,fitness value,team0ratio,time,HP,Speed,Damage,Acc,ClipSize,RateOfFire,NrBullets,Range,HP,Speed,Damage,Acc,ClipSize,RateOfFire,NrBullets,Range,HP,Speed,Damage,Acc,ClipSize,RateOfFire,NrBullets,Range,HP,Speed,Damage,Acc,ClipSize,RateOfFire,NrBullets,Range,Run,target team0ratio: 0.5,target time: 0.72
/home/daniel/Projects/ppsEvolution/data/maps/custom_maps/Custom_3_Run_0_Map.csv,squared_error,7.826582797860882e-07,0.4995,0.7188,0.217948,0.993438,0.078390,0.585936,0.167524,0.005100,1.000000,0.000000,0.999090,0.110483,0.000000,0.411277,0.912197,0.942800,0.000000,0.000000,163.140898,1.326325,20.052959,0.585936,34.337230,0.548455,10.000000,0.000000,299.840814,0.831870,9.000000,0.411277,182.527123,9.456604,1.000000,0.000000,0
/home/daniel/Projects/ppsEvolution/data/maps/custom_maps/Custom_3_Run_0_Map.csv,squared_error,6.97378268822066e-07,0.5003,0.7212,0.000000,1.000000,0.040017,0.588657,0.000000,0.093818,0.849145,2.000000,0.922167,0.213656,0.000000,0.289392,1.000000,0.669585,0.094054,1.000000,125.000000,1.330000,14.642348,0.588657,1.000000,1.391273,8.642306,2.000000,286.379167,0.889648,9.000000,0.289392,200.000000,6.861053,1.846487,1.000000,1
/home/daniel/Projects/ppsEvolution/data/maps/custom_maps/Custom_3_Run_0_Map.csv,squared_error,1.1054637711367651e-06,0.5013,0.7193,0.073997,0.933682,0.375318,0.308883,0.000000,0.000000,1.000000,0.000000,1.000000,0.118621,0.000000,0.316774,0.704258,1.000000,0.000000,2.000000,137.949497,1.292862,61.919771,0.308883,1.000000,0.500000,10.000000,0.000000,300.000000,0.836428,9.000000,0.316774,141.147283,10.000000,1.000000,2.000000,2
/home/daniel/Projects/ppsEvolution/data/maps/custom_maps/Custom_3_Run_0_Map.csv,squared_error,3.925750848140075e-07,0.5001,0.7209,0.110439,0.764113,0.000000,0.631767,0.000000,0.264853,0.896213,2.000000,1.000000,0.149176,0.020326,0.278597,1.000000,1.000000,0.404564,2.000000,144.326740,1.197903,9.000000,0.631767,1.000000,3.016104,9.065913,2.000000,300.000000,0.853539,11.865971,0.278597,200.000000,10.000000,4.641077,2.000000,3
/home/daniel/Projects/ppsEvolution/data/maps/custom_maps/Custom_3_Run_0_Map.csv,squared_error,1.8538404438288625e-07,0.5006,0.7200,0.028984,0.727982,0.081992,0.587043,0.267128,0.135963,0.849663,1.000000,0.997030,0.310719,0.000000,0.312668,0.882244,0.863837,0.000000,2.000000,130.072240,1.177670,20.560830,0.587043,54.158428,1.791646,8.646970,1.000000,299.480224,0.944002,9.000000,0.312668,176.566472,8.706447,1.000000,2.000000,4
/home/daniel/Projects/ppsEvolution/data/maps/custom_maps/Custom_3_Run_0_Map.csv,squared_error,8.656328018900303e-08,0.5003,0.7197,0.017189,0.859276,0.173493,0.505037,0.104682,0.000000,1.000000,0.000000,1.000000,0.000000,0.000000,0.307152,0.820353,1.000000,0.036312,0.000000,128.008131,1.251194,33.462581,0.505037,21.831685,0.500000,10.000000,0.000000,300.000000,0.770000,9.000000,0.307152,164.250151,10.000000,1.326812,0.000000,5
/home/daniel/Projects/ppsEvolution/data/maps/custom_maps/Custom_3_Run_0_Map.csv,squared_error,1.0847384053932116e-06,0.5010,0.7211,0.000000,1.000000,0.015640,0.635018,0.145088,0.007646,0.962071,0.000000,0.977702,0.143822,0.000000,0.320797,0.970753,0.919042,0.000000,0.000000,125.000000,1.330000,11.205219,0.635018,29.872446,0.572638,9.658635,0.000000,296.097907,0.850540,9.000000,0.320797,194.179831,9.230900,1.000000,0.000000,6
/home/daniel/Projects/ppsEvolution/data/maps/custom_maps/Custom_3_Run_0_Map.csv,squared_error,4.51691265280349e-07,0.5002,0.7191,0.014537,0.738060,0.008727,0.637998,0.000000,0.551330,0.826301,1.000000,1.000000,0.137922,0.189198,0.133477,0.910885,0.825802,0.000000,2.000000,127.544018,1.183314,10.230519,0.637998,1.000000,5.737631,8.436712,1.000000,300.000000,0.847237,35.676857,0.133477,182.266177,8.345123,1.000000,2.000000,7
/home/daniel/Projects/ppsEvolution/data/maps/custom_maps/Custom_3_Run_0_Map.csv,squared_error,4.4793257918910503e-07,0.4991,0.7197,0.133728,0.815285,0.090536,0.523980,0.000000,0.183598,0.970672,1.000000,0.866020,0.019685,0.000000,0.362049,1.000000,0.972589,0.040751,0.000000,148.402411,1.226560,21.765532,0.523980,1.000000,2.244180,9.736046,1.000000,276.553484,0.781024,9.000000,0.362049,200.000000,9.739592,1.366759,0.000000,8
/home/daniel/Projects/ppsEvolution/data/maps/custom_maps/Custom_3_Run_0_Map.csv,squared_error,1.1635364280777817e-06,0.4987,0.7191,0.224074,1.000000,0.033013,0.577984,0.000000,0.121857,0.804311,2.000000,0.872320,0.012893,0.000000,0.407722,0.896612,1.000000,0.045844,0.000000,164.212882,1.330000,13.654811,0.577984,1.000000,1.657646,8.238798,2.000000,277.656035,0.777220,9.000000,0.407722,179.425883,10.000000,1.412597,0.000000,9
map,fitness,fitness value,team0ratio,time,HP,Speed,Damage,Acc,ClipSize,RateOfFire,NrBullets,Range,HP,Speed,Damage,Acc,ClipSize,RateOfFire,NrBullets,Range,HP,Speed,Damage,Acc,ClipSize,RateOfFire,NrBullets,Range,HP,Speed,Damage,Acc,ClipSize,RateOfFire,NrBullets,Range,Run,target team0ratio: 0.5,target time: 0.72
/home/daniel/Projects/ppsEvolution/data/maps/custom_maps/Custom_4_Run_0_Map.csv,squared_error,2.519532260521551e-07,0.4998,0.7207,0.447269,0.672926,0.000000,0.298026,0.064715,0.000256,0.998070,0.000000,1.000000,0.525498,0.000000,0.000000,0.824758,1.000000,0.000000,1.000000,203.272136,1.146839,9.000000,0.298026,13.878255,0.502431,9.982627,0.000000,300.000000,1.064279,9.000000,0.000000,165.126787,10.000000,1.000000,1.000000,0
/home/daniel/Projects/ppsEvolution/data/maps/custom_maps/Custom_4_Run_0_Map.csv,squared_error,9.368255423509865e-07,0.5008,0.7189,0.502666,0.504687,0.000000,0.273032,0.281351,0.459936,1.000000,2.000000,1.000000,0.071231,0.000000,0.012974,0.966194,0.737450,0.000000,2.000000,212.966571,1.052625,9.000000,0.273032,56.988795,4.869391,10.000000,2.000000,300.000000,0.809889,9.000000,0.012974,193.272695,7.505775,1.000000,2.000000,1
/home/daniel/Projects/ppsEvolution/data/maps/custom_maps/Custom_4_Run_0_Map.csv,squared_error,1.0244464489233496e-07,0.5004,0.7202,0.485867,1.000000,0.000000,0.303305,0.092268,0.066757,0.786853,1.000000,1.000000,0.000000,0.000000,0.009663,0.632916,0.838961,0.149682,0.000000,210.026786,1.330000,9.000000,0.303305,19.361364,1.134192,8.081675,1.000000,300.000000,0.770000,9.000000,0.009663,126.950351,8.470131,2.347142,0.000000,2
/home/daniel/Projects/ppsEvolution/data/maps/custom_maps/Custom_4_Run_0_Map.csv,squared_error,3.695164997282125e-07,0.5008,0.7202,0.441198,1.000000,0.005146,0.284425,0.237818,0.213992,1.000000,1.000000,1.000000,0.056404,0.000000,0.000000,1.000000,0.970742,0.000000,1.000000,202.209586,1.330000,9.725558,0.284425,48.325835,2.532919,10.000000,1.000000,300.000000,0.801586,9.000000,0.000000,200.000000,9.722053,1.000000,1.000000,3
/home/daniel/Projects/ppsEvolution/data/maps/custom_maps/Custom_4_Run_0_Map.csv,squared_error,8.186371400150142e-07,0.4988,0.7206,0.676763,0.786896,0.066841,0.150179,0.254224,0.024480,0.857852,2.000000,0.873819,0.210190,0.000000,0.098922,0.921712,0.831234,0.175153,0.000000,243.433505,1.210662,18.424612,0.150179,51.590574,0.732564,8.720664,2.000000,277.918342,0.887706,9.000000,0.098922,184.420687,8.396725,2.576380,0.000000,4
/home/daniel/Projects/ppsEvolution/data/maps/custom_maps/Custom_4_Run_0_Map.csv,squared_error,7.901971771502798e-07,0.5012,0.7202,0.546798,0.593269,0.000000,0.255708,0.008457,0.046787,1.000000,0.000000,0.914626,0.000000,0.000000,0.000000,0.872089,0.799625,0.412091,2.000000,220.689632,1.102231,9.000000,0.255708,2.682862,0.944479,10.000000,0.000000,285.059536,0.770000,9.000000,0.000000,174.545803,8.096433,4.708817,2.000000,5
/home/daniel/Projects/ppsEvolution/data/maps/custom_maps/Custom_4_Run_0_Map.csv,squared_error,4.310314564009657e-08,0.5000,0.7203,0.652655,0.689243,0.120496,0.059323,0.583825,0.563006,0.830484,1.000000,0.826298,0.000000,0.000000,0.089711,0.642896,0.660420,0.000000,1.000000,239.214657,1.155976,25.989886,0.059323,117.181148,5.848558,8.474355,1.000000,269.602174,0.770000,9.000000,0.089711,128.936400,6.773987,1.000000,1.000000,6
/home/daniel/Projects/ppsEvolution/data/maps/custom_maps/Custom_4_Run_0_Map.csv,squared_error,2.4919992753852765e-07,0.4996,0.7206,0.490430,0.655259,0.237440,0.000000,0.139717,0.404238,0.881362,0.000000,0.955450,0.048580,0.000000,0.000000,0.871606,0.571384,0.000000,1.000000,210.825286,1.136945,42.479030,0.000000,28.803696,4.340258,8.932254,0.000000,292.203800,0.797205,9.000000,0.000000,174.449690,5.928149,1.000000,1.000000,7
/home/daniel/Projects/ppsEvolution/data/maps/custom_maps/Custom_4_Run_0_Map.csv,squared_error,2.3626228778533885e-08,0.4999,0.7198,0.565184,1.000000,0.073199,0.109205,0.234121,0.008949,0.869527,1.000000,0.739371,0.205318,0.064904,0.000000,1.000000,0.937617,0.000000,0.000000,223.907276,1.330000,19.321128,0.109205,47.590014,0.585016,8.825743,1.000000,254.389888,0.884978,18.151461,0.000000,200.000000,9.407364,1.000000,0.000000,8
/home/daniel/Projects/ppsEvolution/data/maps/custom_maps/Custom_4_Run_0_Map.csv,squared_error,1.2019676082958177e-07,0.5003,0.7204,0.457126,0.865325,0.000000,0.257532,0.140144,0.000000,0.966999,0.000000,0.882654,1.000000,0.000000,0.000000,0.678560,0.780707,0.055201,0.000000,204.997133,1.254582,9.000000,0.257532,28.888666,0.500000,9.702987,0.000000,279.464423,1.330000,9.000000,0.000000,136.033475,7.916719,1.496809,0.000000,9
map,fitness,fitness value,team0ratio,time,HP,Speed,Damage,Acc,ClipSize,RateOfFire,NrBullets,Range,HP,Speed,Damage,Acc,ClipSize,RateOfFire,NrBullets,Range,HP,Speed,Damage,Acc,ClipSize,RateOfFire,NrBullets,Range,HP,Speed,Damage,Acc,ClipSize,RateOfFire,NrBullets,Range,Run,target team0ratio: 0.5,target time: 0.72
/home/daniel/Projects/ppsEvolution/data/maps/custom_maps/Custom_5_Run_0_Map.csv,squared_error,5.308042882575324e-07,0.5008,0.7207,0.000000,0.749598,0.000000,0.488998,0.026029,0.000000,0.522723,0.000000,0.981469,0.000000,0.000000,0.000000,0.876430,1.000000,0.217139,1.000000,125.000000,1.189775,9.000000,0.488998,6.179779,0.500000,5.704507,0.000000,296.757022,0.770000,9.000000,0.000000,175.409490,10.000000,2.954251,1.000000,0
/home/daniel/Projects/ppsEvolution/data/maps/custom_maps/Custom_5_Run_0_Map.csv,squared_error,4.0923638067698243e-07,0.5000,0.7209,0.300312,1.000000,0.120741,0.246895,0.129740,0.001233,0.873550,0.000000,0.825604,0.170310,0.000000,0.129375,0.944324,0.957800,0.203256,2.000000,177.554575,1.330000,26.024528,0.246895,26.818229,0.511715,8.861947,0.000000,269.480709,0.865374,9.000000,0.129375,188.920409,9.599101,2.829308,2.000000,1
/home/daniel/Projects/ppsEvolution/data/maps/custom_maps/Custom_5_Run_0_Map.csv,squared_error,2.1824631167249635e-07,0.4994,0.7203,0.069637,1.000000,0.000000,0.475916,0.223928,0.000000,0.635216,1.000000,1.000000,0.000000,0.000000,0.005678,0.910192,0.814158,0.374499,1.000000,137.186529,1.330000,9.000000,0.475916,45.561687,0.500000,6.716942,1.000000,300.000000,0.770000,9.000000,0.005678,182.128222,8.234503,4.370488,1.000000,2
/home/daniel/Projects/ppsEvolution/data/maps/custom_maps/Custom_5_Run_0_Map.csv,squared_error,9.216279805997657e-07,0.5008,0.7211,0.139713,0.770811,0.000000,0.354542,0.000000,0.000000,1.000000,1.000000,0.776992,0.195273,0.000556,0.066536,0.875521,0.794315,0.103337,1.000000,149.449766,1.201654,9.000000,0.354542,1.000000,0.500000,10.000000,1.000000,260.973620,0.879353,9.078371,0.066536,175.228679,8.045992,1.930029,1.000000,3
/home/daniel/Projects/ppsEvolution/data/maps/custom_maps/Custom_5_Run_0_Map.csv,squared_error,5.374111534280515e-07,0.4998,0.7210,0.228120,0.883454,0.030034,0.417132,0.316485,0.210723,0.899209,0.000000,1.000000,0.011718,0.000000,0.092623,0.926105,0.905005,0.259934,0.000000,164.920930,1.264734,13.234772,0.417132,63.980473,2.501866,9.092883,0.000000,300.000000,0.776562,9.000000,0.092623,185.294890,9.097549,3.339405,0.000000,4
/home/daniel/Projects/ppsEvolution/data/maps/custom_maps/Custom_5_Run_0_Map.csv,squared_error,2.662684484995544e-07,0.4999,0.7193,0.113546,0.928548,0.186124,0.253192,0.000000,0.052419,1.000000,1.000000,1.000000,0.265222,0.049798,0.000000,0.950352,1.000000,0.000000,0.000000,144.870532,1.289987,35.243458,0.253192,1.000000,0.997980,10.000000,1.000000,300.000000,0.918524,16.021453,0.000000,190.120140,10.000000,1.000000,0.000000,5
/home/daniel/Projects/ppsEvolution/data/maps/custom_maps/Custom_5_Run_0_Map.csv,squared_error,8.035753940845319e-07,0.4987,0.7200,0.000000,0.900929,0.000000,0.389483,0.431151,0.279436,1.000000,2.000000,0.886987,0.000000,0.000000,0.000000,0.880669,0.665986,0.000000,2.000000,125.000000,1.274520,9.000000,0.389483,86.799142,3.154639,10.000000,2.000000,280.222766,0.770000,9.000000,0.000000,176.253059,6.826868,1.000000,2.000000,6
/home/daniel/Projects/ppsEvolution/data/maps/custom_maps/Custom_5_Run_0_Map.csv,squared_error,2.429830631285953e-07,0.5001,0.7207,0.546960,0.592728,0.000000,0.390324,0.075437,0.103901,0.903399,2.000000,0.924793,0.321242,0.000000,0.214680,0.990862,1.000000,0.348250,2.000000,220.717935,1.101928,9.000000,0.390324,16.011947,1.487063,9.130594,2.000000,286.838689,0.949895,9.000000,0.214680,198.181541,10.000000,4.134249,2.000000,7
/home/daniel/Projects/ppsEvolution/data/maps/custom_maps/Custom_5_Run_0_Map.csv,squared_error,5.114606119611883e-07,0.4995,0.7191,0.524271,0.686418,0.083555,0.260138,0.639185,0.000000,0.930525,2.000000,0.823418,0.178120,0.063738,0.163351,1.000000,0.979107,0.191690,1.000000,216.747374,1.154394,20.781207,0.260138,128.197719,0.500000,9.374729,2.000000,269.098169,0.869747,17.987088,0.163351,200.000000,9.801519,2.725212,1.000000,8
/home/daniel/Projects/ppsEvolution/data/maps/custom_maps/Custom_5_Run_0_Map.csv,squared_error,7.76220924603907e-07,0.5005,0.7211,0.004642,0.741443,0.000000,0.442472,0.189922,0.000000,0.817787,2.000000,0.975515,0.275103,0.000000,0.000000,0.862793,0.674538,0.023634,1.000000,125.812397,1.185208,9.000000,0.442472,38.794409,0.500000,8.360084,2.000000,295.715118,0.924057,9.000000,0.000000,172.695836,6.908107,1.212708,1.000000,9
map,fitness,fitness value,team0ratio,time,HP,Speed,Damage,Acc,ClipSize,RateOfFire,NrBullets,Range,HP,Speed,Damage,Acc,ClipSize,RateOfFire,NrBullets,Range,HP,Speed,Damage,Acc,ClipSize,RateOfFire,NrBullets,Range,HP,Speed,Damage,Acc,ClipSize,RateOfFire,NrBullets,Range,Run,target team0ratio: 0.5,target time: 0.72
/home/daniel/Projects/ppsEvolution/data/maps/custom_maps/Custom_6_Run_0_Map.csv,squared_error,1.1251720435440244e-07,0.5000,0.7205,0.389846,0.864096,0.061887,0.658941,0.063344,0.014121,1.000000,0.000000,0.851958,0.016129,0.018435,0.617989,1.000000,0.509411,0.000000,0.000000,193.223091,1.253894,17.726062,0.658941,13.605388,0.634146,10.000000,0.000000,274.092717,0.779032,11.599347,0.617989,200.000000,5.339404,1.000000,0.000000,0
/home/daniel/Projects/ppsEvolution/data/maps/custom_maps/Custom_6_Run_0_Map.csv,squared_error,4.258319746669052e-08,0.5001,0.7203,0.000000,0.890927,0.028204,0.692100,0.195209,0.240653,0.868752,1.000000,0.836652,0.000000,0.000000,0.522165,0.856150,1.000000,0.077323,0.000000,125.000000,1.268919,12.976746,0.692100,39.846591,2.786203,8.818765,1.000000,271.414111,0.770000,9.000000,0.522165,171.373855,10.000000,1.695911,0.000000,1
/home/daniel/Projects/ppsEvolution/data/maps/custom_maps/Custom_6_Run_0_Map.csv,squared_error,1.970221861338924e-06,0.5020,0.7199,0.000000,0.895480,0.000000,0.717215,0.175549,0.287556,0.993536,1.000000,0.908495,0.033402,0.000000,0.522784,1.000000,0.858241,0.000000,0.000000,125.000000,1.271469,9.000000,0.717215,35.934248,3.231785,9.941825,1.000000,283.986709,0.788705,9.000000,0.522784,200.000000,8.653291,1.000000,0.000000,2
/home/daniel/Projects/ppsEvolution/data/maps/custom_maps/Custom_6_Run_0_Map.csv,squared_error,4.2807699243214107e-07,0.4993,0.7206,0.043356,1.000000,0.284502,0.557257,0.407465,0.000000,0.992847,0.000000,1.000000,0.000000,0.000000,0.516585,0.874831,1.000000,0.000000,2.000000,132.587372,1.330000,49.114766,0.557257,82.085507,0.500000,9.935619,0.000000,300.000000,0.770000,9.000000,0.516585,175.091318,10.000000,1.000000,2.000000,3
/home/daniel/Projects/ppsEvolution/data/maps/custom_maps/Custom_6_Run_0_Map.csv,squared_error,6.503889820493174e-07,0.5011,0.7199,0.084469,1.000000,0.000000,0.740089,0.090161,0.000000,1.000000,0.000000,1.000000,0.256011,0.086439,0.494009,0.918644,1.000000,0.000000,0.000000,139.782133,1.330000,9.000000,0.740089,18.942107,0.500000,10.000000,0.000000,300.000000,0.913366,21.187936,0.494009,183.810192,10.000000,1.000000,0.000000,4
/home/daniel/Projects/ppsEvolution/data/maps/custom_maps/Custom_6_Run_0_Map.csv,squared_error,7.591718260442877e-07,0.4988,0.7203,0.410994,0.575125,0.113446,0.601236,0.375598,0.276165,0.859384,0.000000,0.743125,0.099862,0.000000,0.609508,0.900740,0.878935,0.314655,2.000000,196.923897,1.092070,24.995937,0.601236,75.743945,3.123571,8.734457,0.000000,255.046947,0.825922,9.000000,0.609508,180.247357,8.849884,3.831891,2.000000,5
/home/daniel/Projects/ppsEvolution/data/maps/custom_maps/Custom_6_Run_0_Map.csv,squared_error,8.042894673650674e-07,0.5006,0.7211,0.058247,0.981453,0.266538,0.449559,0.000000,0.089697,1.000000,2.000000,0.708219,0.055547,0.000000,0.512575,0.967596,1.000000,0.027289,1.000000,135.193172,1.319614,46.581849,0.449559,1.000000,1.352123,10.000000,2.000000,248.938336,0.801106,9.000000,0.512575,193.551606,10.000000,1.245605,1.000000,6
/home/daniel/Projects/ppsEvolution/data/maps/custom_maps/Custom_6_Run_0_Map.csv,squared_error,8.264532027453531e-07,0.5011,0.7194,0.283681,0.970348,0.274782,0.535370,0.053341,0.447791,1.000000,0.000000,0.967942,0.012659,0.000000,0.579016,0.923416,0.852273,0.000000,0.000000,174.644100,1.313395,47.744289,0.535370,11.614785,4.754018,10.000000,0.000000,294.389828,0.777089,9.000000,0.579016,184.759878,8.596595,1.000000,0.000000,7
/home/daniel/Projects/ppsEvolution/data/maps/custom_maps/Custom_6_Run_0_Map.csv,squared_error,7.431217346549858e-07,0.4990,0.7193,0.000000,1.000000,0.148064,0.638534,0.001557,0.000000,0.953582,0.000000,0.886747,0.086342,0.009574,0.502101,0.860203,0.992841,0.195517,2.000000,125.000000,1.330000,29.877092,0.638534,1.309893,0.500000,9.582239,0.000000,280.180639,0.818352,10.349953,0.502101,172.180459,9.931994,2.759651,2.000000,8
/home/daniel/Projects/ppsEvolution/data/maps/custom_maps/Custom_6_Run_0_Map.csv,squared_error,3.232528365522695e-07,0.4993,0.7205,0.127667,0.761591,0.000000,0.706243,0.000000,0.132687,0.974755,0.000000,0.878476,0.000000,0.000000,0.550167,1.000000,0.961996,0.088993,1.000000,147.341799,1.196491,9.000000,0.706243,1.000000,1.760526,9.772791,0.000000,278.733216,0.770000,9.000000,0.550167,200.000000,9.638962,1.800941,1.000000,9
map,fitness,fitness value,team0ratio,time,HP,Speed,Damage,Acc,ClipSize,RateOfFire,NrBullets,Range,HP,Speed,Damage,Acc,ClipSize,RateOfFire,NrBullets,Range,HP,Speed,Damage,Acc,ClipSize,RateOfFire,NrBullets,Range,HP,Speed,Damage,Acc,ClipSize,RateOfFire,NrBullets,Range,Run,target team0ratio: 0.5,target time: 0.72
/home/daniel/Projects/ppsEvolution/data/maps/custom_maps/Custom_7_Run_0_Map.csv,squared_error,2.203263664853111e-07,0.5005,0.7195,0.133309,1.000000,0.258574,0.288190,0.117438,0.000000,0.907101,1.000000,1.000000,0.000000,0.000000,0.193589,1.000000,0.809778,0.000000,1.000000,148.329012,1.330000,45.458875,0.288190,24.370156,0.500000,9.163907,1.000000,300.000000,0.770000,9.000000,0.193589,200.000000,8.192889,1.000000,1.000000,0
/home/daniel/Projects/ppsEvolution/data/maps/custom_maps/Custom_7_Run_0_Map.csv,squared_error,1.6427603920562212e-06,0.5005,0.7217,0.096356,0.825201,0.000000,0.504255,0.000000,0.201291,1.000000,2.000000,0.981087,0.000000,0.134502,0.000000,0.966184,0.867831,0.168669,0.000000,141.862298,1.232113,9.000000,0.504255,1.000000,2.412268,10.000000,2.000000,296.690284,0.770000,27.964724,0.000000,193.270704,8.744390,2.518020,0.000000,1
/home/daniel/Projects/ppsEvolution/data/maps/custom_maps/Custom_7_Run_0_Map.csv,squared_error,3.4607340067507766e-07,0.5005,0.7193,0.095812,0.859271,0.046126,0.415630,0.000000,0.182576,0.962089,2.000000,0.804653,0.043622,0.151976,0.000000,1.000000,0.840647,0.148032,0.000000,141.767050,1.251192,15.503762,0.415630,1.000000,2.234474,9.658800,2.000000,265.814323,0.794428,30.428668,0.000000,200.000000,8.486150,2.332284,0.000000,2
/home/daniel/Projects/ppsEvolution/data/maps/custom_maps/Custom_7_Run_0_Map.csv,squared_error,9.645415600807913e-07,0.4986,0.7201,0.000000,0.964997,0.058307,0.458653,0.292773,0.078290,0.763748,1.000000,0.870661,0.007575,0.135543,0.000000,0.951663,0.353459,0.045800,2.000000,125.000000,1.310399,17.221319,0.458653,59.261778,1.243755,7.873729,1.000000,277.365700,0.774242,28.111541,0.000000,190.380885,3.857862,1.412199,2.000000,3
/home/daniel/Projects/ppsEvolution/data/maps/custom_maps/Custom_7_Run_0_Map.csv,squared_error,2.871007033718155e-07,0.4997,0.7193,0.676781,0.556568,0.164143,0.335931,0.228309,0.447765,0.734450,1.000000,1.000000,0.000000,0.000000,0.390869,0.615817,1.000000,0.133908,0.000000,243.436642,1.081678,32.144211,0.335931,46.433475,4.753766,7.610048,1.000000,300.000000,0.770000,9.000000,0.390869,123.547535,10.000000,2.205171,0.000000,4
/home/daniel/Projects/ppsEvolution/data/maps/custom_maps/Custom_7_Run_0_Map.csv,squared_error,1.6862928069087462e-07,0.4994,0.7198,0.071508,0.726830,0.048182,0.438363,0.182917,0.067772,0.853471,1.000000,0.873723,0.000000,0.000000,0.155256,0.375115,0.875803,0.092362,0.000000,137.513889,1.177025,15.793641,0.438363,37.400445,1.143839,8.681241,1.000000,277.901547,0.770000,9.000000,0.155256,75.647976,8.820127,1.831254,0.000000,5
/home/daniel/Projects/ppsEvolution/data/maps/custom_maps/Custom_7_Run_0_Map.csv,squared_error,8.954744671114793e-07,0.5005,0.7188,0.000000,0.949759,0.222718,0.361438,0.002042,0.173578,0.606998,1.000000,0.996432,0.097631,0.000000,0.099630,0.962041,1.000000,0.303898,0.000000,125.000000,1.301865,40.403178,0.361438,1.406284,2.148989,6.462984,1.000000,299.375630,0.824673,9.000000,0.099630,192.446140,10.000000,3.735081,0.000000,6
/home/daniel/Projects/ppsEvolution/data/maps/custom_maps/Custom_7_Run_0_Map.csv,squared_error,5.483202061469877e-07,0.4992,0.7207,0.001310,0.987372,0.154164,0.303933,0.084478,0.045382,0.844526,0.000000,0.704580,0.168514,0.000000,0.132723,1.000000,0.983177,0.202618,1.000000,125.229278,1.322928,30.737125,0.303933,17.811081,0.931133,8.600738,0.000000,248.301541,0.864368,9.000000,0.132723,200.000000,9.840182,2.823559,1.000000,7
/home/daniel/Projects/ppsEvolution/data/maps/custom_maps/Custom_7_Run_0_Map.csv,squared_error,3.657567778787927e-07,0.5008,0.7197,0.000000,0.459288,0.210000,0.351195,0.000000,0.580792,0.910466,0.000000,1.000000,0.300212,0.004543,0.086691,0.941423,0.377729,0.213008,1.000000,125.000000,1.027201,38.610000,0.351195,1.000000,6.017522,9.194192,0.000000,300.000000,0.938119,9.640613,0.086691,188.343080,4.088425,2.917076,1.000000,8
/home/daniel/Projects/ppsEvolution/data/maps/custom_maps/Custom_7_Run_0_Map.csv,squared_error,7.874959773886378e-07,0.5012,0.7203,0.095542,1.000000,0.000000,0.503370,0.000000,0.000000,0.637875,2.000000,0.882905,0.104565,0.000000,0.184355,0.961977,1.000000,0.000000,0.000000,141.719921,1.330000,9.000000,0.503370,1.000000,0.500000,6.740871,2.000000,279.508299,0.828556,9.000000,0.184355,192.433423,10.000000,1.000000,0.000000,9
map,fitness,fitness value,team0ratio,time,HP,Speed,Damage,Acc,ClipSize,RateOfFire,NrBullets,Range,HP,Speed,Damage,Acc,ClipSize,RateOfFire,NrBullets,Range,HP,Speed,Damage,Acc,ClipSize,RateOfFire,NrBullets,Range,HP,Speed,Damage,Acc,ClipSize,RateOfFire,NrBullets,Range,Run,target team0ratio: 0.5,target time: 0.72
/home/daniel/Projects/ppsEvolution/data/maps/custom_maps/Custom_8_Run_0_Map.csv,squared_error,7.209136097692406e-07,0.4995,0.7189,0.266741,1.000000,0.013809,0.390251,0.000000,0.101672,0.582467,1.000000,1.000000,0.072240,0.000000,0.000000,0.895421,1.000000,0.436839,0.000000,171.679745,1.330000,10.947114,0.390251,1.000000,1.465884,6.242201,1.000000,300.000000,0.810454,9.000000,0.000000,179.188848,10.000000,4.931555,0.000000,0
/home/daniel/Projects/ppsEvolution/data/maps/custom_maps/Custom_8_Run_0_Map.csv,squared_error,8.586447761701121e-07,0.5006,0.7212,0.199880,0.826222,0.017773,0.339512,0.000000,0.280350,0.419024,0.000000,0.839437,0.307507,0.000000,0.000000,0.855450,0.806836,0.142109,0.000000,159.979018,1.232685,11.506045,0.339512,1.000000,3.163323,4.771218,0.000000,271.901560,0.942204,9.000000,0.000000,171.234626,8.164941,2.278982,0.000000,1
/home/daniel/Projects/ppsEvolution/data/maps/custom_maps/Custom_8_Run_0_Map.csv,squared_error,2.3704767441470945e-07,0.4997,0.7194,0.345765,0.514676,0.042107,0.323567,0.000000,0.229599,0.791147,2.000000,1.000000,0.095024,0.000000,0.052236,0.952702,0.620844,0.141435,0.000000,185.508947,1.058218,14.937017,0.323567,1.000000,2.681192,8.120324,2.000000,300.000000,0.823214,9.000000,0.052236,190.587676,6.398023,2.272912,0.000000,2
/home/daniel/Projects/ppsEvolution/data/maps/custom_maps/Custom_8_Run_0_Map.csv,squared_error,1.859102498798403e-07,0.5006,0.7200,0.328447,0.938024,0.000000,0.378911,0.463802,0.000000,0.572211,2.000000,0.989077,0.151432,0.000000,0.000000,0.405654,0.921774,0.523093,0.000000,182.478265,1.295293,9.000000,0.378911,93.296504,0.500000,6.149902,2.000000,298.088522,0.854802,9.000000,0.000000,81.725187,9.256855,5.707840,0.000000,3
/home/daniel/Projects/ppsEvolution/data/maps/custom_maps/Custom_8_Run_0_Map.csv,squared_error,6.685725439588145e-07,0.5000,0.7188,0.292025,0.960323,0.035399,0.318933,0.258067,0.000000,0.742382,0.000000,0.905497,0.087884,0.049879,0.000000,0.925125,0.788475,0.067789,1.000000,176.104396,1.307781,13.991283,0.318933,52.355344,0.500000,7.681436,0.000000,283.461942,0.819215,16.032913,0.000000,185.099889,7.990514,1.610098,1.000000,4
/home/daniel/Projects/ppsEvolution/data/maps/custom_maps/Custom_8_Run_0_Map.csv,squared_error,5.771554019958029e-07,0.4990,0.7197,0.254151,0.880924,0.083742,0.229985,0.054235,0.231814,0.944650,2.000000,0.900920,0.339325,0.017140,0.000000,0.816078,0.760282,0.000000,1.000000,169.476459,1.263317,20.807671,0.229985,11.792848,2.702235,9.501850,2.000000,282.660924,0.960022,11.416755,0.000000,163.399463,7.722681,1.000000,1.000000,5
/home/daniel/Projects/ppsEvolution/data/maps/custom_maps/Custom_8_Run_0_Map.csv,squared_error,1.4006574572363117e-06,0.5016,0.7197,0.619325,0.657167,0.000000,0.376787,0.265110,0.171357,0.351505,1.000000,0.936703,0.000000,0.128050,0.002020,1.000000,0.597622,0.617104,0.000000,233.381909,1.138013,9.000000,0.376787,53.756958,2.127888,4.163542,1.000000,288.923018,0.770000,27.055010,0.002020,200.000000,6.177409,6.553937,0.000000,6
/home/daniel/Projects/ppsEvolution/data/maps/custom_maps/Custom_8_Run_0_Map.csv,squared_error,4.4308974889870456e-08,0.5003,0.7199,0.691859,0.819831,0.000000,0.352288,0.401871,0.014109,0.627315,0.000000,0.956877,0.000000,0.059454,0.183650,0.600641,0.982074,0.000000,1.000000,246.075391,1.229105,9.000000,0.352288,80.972410,0.634034,6.645838,0.000000,292.453496,0.770000,17.382944,0.183650,120.527587,9.829705,1.000000,1.000000,7
/home/daniel/Projects/ppsEvolution/data/maps/custom_maps/Custom_8_Run_0_Map.csv,squared_error,5.372227271578689e-07,0.5009,0.7195,0.229572,0.934098,0.000000,0.376372,0.125396,0.064897,0.909156,1.000000,1.000000,0.132301,0.013322,0.002821,1.000000,0.580306,0.089973,0.000000,165.175072,1.293095,9.000000,0.376372,25.953738,1.116521,9.182408,1.000000,300.000000,0.844089,10.878436,0.002821,200.000000,6.012904,1.809755,0.000000,8
/home/daniel/Projects/ppsEvolution/data/maps/custom_maps/Custom_8_Run_0_Map.csv,squared_error,1.7756969766651615e-07,0.4994,0.7201,0.223524,1.000000,0.000000,0.369536,0.054593,0.287443,0.783907,2.000000,1.000000,0.160129,0.000000,0.017607,0.643279,1.000000,0.000000,0.000000,164.116751,1.330000,9.000000,0.369536,11.863982,3.230713,8.055160,2.000000,300.000000,0.859672,9.000000,0.017607,129.012529,10.000000,1.000000,0.000000,9
map,fitness,fitness value,team0ratio,time,HP,Speed,Damage,Acc,ClipSize,RateOfFire,NrBullets,Range,HP,Speed,Damage,Acc,ClipSize,RateOfFire,NrBullets,Range,HP,Speed,Damage,Acc,ClipSize,RateOfFire,NrBullets,Range,HP,Speed,Damage,Acc,ClipSize,RateOfFire,NrBullets,Range,Run,target team0ratio: 0.5,target time: 0.72
/home/daniel/Projects/ppsEvolution/data/maps/custom_maps/Custom_9_Run_0_Map.csv,squared_error,1.4432421195927443e-06,0.4985,0.7207,0.748785,0.953301,0.000000,0.118224,0.176787,0.152360,1.000000,1.000000,0.886849,0.000000,0.037237,0.044213,0.864913,0.844440,0.418017,0.000000,256.037405,1.303848,9.000000,0.118224,36.180519,1.947422,10.000000,1.000000,280.198562,0.770000,14.250475,0.044213,173.117680,8.522182,4.762152,0.000000,0
/home/daniel/Projects/ppsEvolution/data/maps/custom_maps/Custom_9_Run_0_Map.csv,squared_error,3.1877940271557084e-07,0.5007,0.7203,0.572166,0.664742,0.086913,0.000000,0.235768,0.064173,0.893348,1.000000,0.825848,0.000000,0.000000,0.052107,0.953444,0.967814,0.028427,1.000000,225.129103,1.142256,21.254675,0.000000,47.917836,1.109647,9.040134,1.000000,269.523318,0.770000,9.000000,0.052107,190.735299,9.694237,1.255845,1.000000,1
/home/daniel/Projects/ppsEvolution/data/maps/custom_maps/Custom_9_Run_0_Map.csv,squared_error,1.9192301790555046e-07,0.5004,0.7205,0.659864,0.478258,0.032346,0.200604,0.036670,0.128527,0.349776,0.000000,1.000000,0.074269,0.063009,0.000000,1.000000,0.879787,0.119168,0.000000,240.476222,1.037824,13.560802,0.200604,8.297236,1.721004,4.147985,0.000000,300.000000,0.811591,17.884279,0.000000,200.000000,8.857976,2.072516,0.000000,2
/home/daniel/Projects/ppsEvolution/data/maps/custom_maps/Custom_9_Run_0_Map.csv,squared_error,1.448396937392048e-06,0.4995,0.7216,0.656713,0.950596,0.000000,0.190651,0.131811,0.031208,0.445219,1.000000,0.927715,0.000000,0.000000,0.073172,1.000000,0.416043,0.191992,0.000000,239.924784,1.302334,9.000000,0.190651,27.230440,0.796480,5.006968,1.000000,287.350159,0.770000,9.000000,0.073172,200.000000,4.452407,2.727930,0.000000,3
/home/daniel/Projects/ppsEvolution/data/maps/custom_maps/Custom_9_Run_0_Map.csv,squared_error,5.19722180936784e-07,0.5003,0.7190,0.572185,0.788777,0.000000,0.182655,0.280789,0.178487,0.880757,2.000000,1.000000,0.129941,0.000000,0.000000,0.887524,0.856477,0.225018,2.000000,225.132414,1.211715,9.000000,0.182655,56.876925,2.195627,8.926815,2.000000,300.000000,0.842767,9.000000,0.000000,177.617214,8.636531,3.025164,2.000000,4
/home/daniel/Projects/ppsEvolution/data/maps/custom_maps/Custom_9_Run_0_Map.csv,squared_error,3.353096549403911e-07,0.5005,0.7206,0.583816,0.754355,0.000000,0.203192,0.313012,0.017111,0.760532,1.000000,1.000000,0.468580,0.000000,0.000000,0.884008,0.745200,0.313814,0.000000,227.167786,1.192439,9.000000,0.203192,63.289449,0.662559,7.844792,1.000000,300.000000,1.032405,9.000000,0.000000,176.917538,7.579401,3.824329,0.000000,5
/home/daniel/Projects/ppsEvolution/data/maps/custom_maps/Custom_9_Run_0_Map.csv,squared_error,9.031978482461376e-07,0.4988,0.7195,0.543764,0.397236,0.000000,0.108818,0.233567,0.140649,1.000000,0.000000,0.837699,0.079369,0.027075,0.000000,0.866627,1.000000,0.031487,1.000000,220.158719,0.992452,9.000000,0.108818,47.479912,1.836170,10.000000,0.000000,271.597390,0.814447,12.817536,0.000000,173.458765,10.000000,1.283379,1.000000,6
/home/daniel/Projects/ppsEvolution/data/maps/custom_maps/Custom_9_Run_0_Map.csv,squared_error,9.641831805680296e-07,0.5009,0.7190,0.454005,1.000000,0.000000,0.123251,0.000000,0.165715,0.848048,0.000000,0.806660,0.037125,0.000499,0.000000,0.885230,0.780694,0.021961,1.000000,204.450948,1.330000,9.000000,0.123251,1.000000,2.074289,8.632428,0.000000,266.165445,0.790790,9.070322,0.000000,177.160727,7.916596,1.197646,1.000000,7
/home/daniel/Projects/ppsEvolution/data/maps/custom_maps/Custom_9_Run_0_Map.csv,squared_error,5.757321535611473e-07,0.5011,0.7200,0.561405,0.996161,0.029662,0.010623,0.000000,0.136983,0.365623,1.000000,0.573186,0.000000,0.018678,0.047792,0.841000,0.530522,0.000000,2.000000,223.245931,1.327850,13.182387,0.010623,1.000000,1.801342,4.290607,1.000000,225.307537,0.770000,11.633591,0.047792,168.358982,5.539958,1.000000,2.000000,8
/home/daniel/Projects/ppsEvolution/data/maps/custom_maps/Custom_9_Run_0_Map.csv,squared_error,9.91933463866028e-07,0.5000,0.7214,0.489565,0.885243,0.000000,0.121041,0.019263,0.123502,0.460790,0.000000,0.744007,0.099524,0.000000,0.000000,0.648980,0.817861,0.127550,1.000000,210.673803,1.265736,9.000000,0.121041,4.833402,1.673266,5.147109,0.000000,255.201147,0.825733,9.000000,0.000000,130.147104,8.269675,2.147954,1.000000,9
map,fitness,fitness value,team0ratio,time,HP,Speed,Damage,Acc,ClipSize,RateOfFire,NrBullets,Range,HP,Speed,Damage,Acc,ClipSize,RateOfFire,NrBullets,Range,HP,Speed,Damage,Acc,ClipSize,RateOfFire,NrBullets,Range,HP,Speed,Damage,Acc,ClipSize,RateOfFire,NrBullets,Range,Run,target team0ratio: 0.5,target time: 0.72
/home/daniel/Projects/ppsEvolution/data/maps/custom_maps/Custom_10_Run_0_Map.csv,squared_error,2.1320740309319815e-07,0.4994,0.7197,0.106802,0.767741,0.157309,0.306567,0.191712,0.370618,0.993445,2.000000,1.000000,0.351386,0.000000,0.083684,0.921944,0.682737,0.033234,2.000000,143.690316,1.199935,31.180637,0.306567,39.150729,4.020875,9.941009,2.000000,300.000000,0.966776,9.000000,0.083684,184.466768,6.985999,1.299103,2.000000,0
/home/daniel/Projects/ppsEvolution/data/maps/custom_maps/Custom_10_Run_0_Map.csv,squared_error,1.5938664386368008e-06,0.5011,0.7186,0.274355,1.000000,0.000000,0.445517,0.323670,0.000000,0.590781,0.000000,0.812622,0.174344,0.000000,0.223825,0.945027,0.884320,0.022104,1.000000,173.012153,1.330000,9.000000,0.445517,65.410252,0.500000,6.317026,0.000000,267.208923,0.867633,9.000000,0.223825,189.060431,8.901042,1.198940,1.000000,1
/home/daniel/Projects/ppsEvolution/data/maps/custom_maps/Custom_10_Run_0_Map.csv,squared_error,2.8345200339854724e-07,0.5003,0.7193,0.248127,0.998188,0.000000,0.404832,0.411271,0.114544,0.843234,1.000000,0.791096,0.150914,0.038177,0.157785,0.967013,0.779847,0.000000,1.000000,168.422177,1.328985,9.000000,0.404832,82.842906,1.588165,8.589108,1.000000,263.441878,0.854512,14.383009,0.157785,193.435660,7.908548,1.000000,1.000000,2
/home/daniel/Projects/ppsEvolution/data/maps/custom_maps/Custom_10_Run_0_Map.csv,squared_error,1.941260934668804e-06,0.5017,0.7210,0.258673,0.812528,0.056185,0.325098,0.179166,0.112328,0.857472,1.000000,0.736911,0.372774,0.000000,0.178475,0.933776,0.831697,0.142166,0.000000,170.267703,1.225016,16.922141,0.325098,36.654092,1.567112,8.717246,1.000000,253.959366,0.978753,9.000000,0.178475,186.821330,8.401117,2.279491,0.000000,3
/home/daniel/Projects/ppsEvolution/data/maps/custom_maps/Custom_10_Run_0_Map.csv,squared_error,8.381661402338161e-08,0.4998,0.7197,0.005380,1.000000,0.176853,0.190456,0.173312,0.393734,1.000000,0.000000,0.705228,0.308383,0.000000,0.049100,0.962790,0.900123,0.201240,0.000000,125.941501,1.330000,33.936322,0.190456,35.489050,4.240476,10.000000,0.000000,248.414914,0.942694,9.000000,0.049100,192.595303,9.051169,2.811164,0.000000,4
/home/daniel/Projects/ppsEvolution/data/maps/custom_maps/Custom_10_Run_0_Map.csv,squared_error,1.6278314886449262e-06,0.4982,0.7204,0.521265,0.791514,0.023789,0.461315,0.069279,0.000000,0.653830,1.000000,1.000000,0.187923,0.000000,0.323342,0.839993,0.860152,0.000000,0.000000,216.221414,1.213248,12.354216,0.461315,14.786492,0.500000,6.884470,1.000000,300.000000,0.875237,9.000000,0.323342,168.158627,8.671446,1.000000,0.000000,5
/home/daniel/Projects/ppsEvolution/data/maps/custom_maps/Custom_10_Run_0_Map.csv,squared_error,1.5613575953990906e-07,0.4997,0.7195,0.031095,0.979470,0.000000,0.375192,0.442890,0.153281,0.627016,2.000000,0.679042,0.014469,0.076568,0.000000,0.636241,1.000000,0.033045,1.000000,130.441700,1.318503,9.000000,0.375192,89.135174,1.956168,6.643140,2.000000,243.832291,0.778103,19.796152,0.000000,127.611928,10.000000,1.297404,1.000000,6
/home/daniel/Projects/ppsEvolution/data/maps/custom_maps/Custom_10_Run_0_Map.csv,squared_error,8.192580192740998e-07,0.4989,0.7194,0.397008,0.821823,0.000000,0.465158,0.512262,0.000000,0.998579,0.000000,1.000000,0.084258,0.000000,0.214436,0.625840,1.000000,0.378198,1.000000,194.476331,1.230221,9.000000,0.465158,102.940064,0.500000,9.987208,0.000000,300.000000,0.817185,9.000000,0.214436,125.542151,10.000000,4.403784,1.000000,7
/home/daniel/Projects/ppsEvolution/data/maps/custom_maps/Custom_10_Run_0_Map.csv,squared_error,9.41017900314019e-07,0.5014,0.7199,0.000000,1.000000,0.000000,0.486318,0.138444,0.271469,0.944801,0.000000,0.991279,0.000000,0.066431,0.000000,0.930573,0.633668,0.013337,0.000000,125.000000,1.330000,9.000000,0.486318,28.550358,3.078958,9.503206,0.000000,298.473836,0.770000,18.366758,0.000000,186.183997,6.519841,1.120030,0.000000,8
/home/daniel/Projects/ppsEvolution/data/maps/custom_maps/Custom_10_Run_0_Map.csv,squared_error,8.299234953142146e-07,0.5011,0.7193,0.000000,0.892075,0.000000,0.444032,0.000000,0.104681,0.673286,2.000000,0.839376,0.179767,0.000000,0.077350,0.954193,1.000000,0.000000,0.000000,125.000000,1.269562,9.000000,0.444032,1.000000,1.494466,7.059577,2.000000,271.890775,0.870669,9.000000,0.077350,190.884383,10.000000,1.000000,0.000000,9
