/home/daniel/Projects/ppsEvolution/data/maps/custom_maps/Custom_1_Run_0_Map.csv,0.050309,1.000000,0.076718,0.731982,0.000000,0.030000,1.000000,0.000000,1.000000,0.056778,0.000000,0.600000,1.000000,1.000000,0.000000,2.000000
/home/daniel/Projects/ppsEvolution/data/maps/custom_maps/Custom_1_Run_0_Map.csv,0.000000,1.000000,0.000000,0.767253,0.030000,0.003634,0.955052,1.000000,1.000000,0.225718,0.000000,0.593715,1.000000,1.000000,0.081305,1.000000
/home/daniel/Projects/ppsEvolution/data/maps/custom_maps/Custom_1_Run_0_Map.csv,0.000000,0.859060,0.174547,0.658311,0.030000,0.030000,1.000000,0.000000,0.859058,0.000000,0.000000,0.600000,1.000000,1.000000,0.000000,0.000000
/home/daniel/Projects/ppsEvolution/data/maps/custom_maps/Custom_1_Run_0_Map.csv,0.000000,0.963438,0.210000,0.688424,0.000000,0.000000,0.760599,0.000000,1.000000,0.000000,0.000000,0.600000,1.000000,0.883230,0.091716,0.000000
/home/daniel/Projects/ppsEvolution/data/maps/custom_maps/Custom_1_Run_0_Map.csv,0.000000,1.000000,0.210000,0.682685,0.030000,0.030000,0.853298,0.000000,1.000000,0.000000,0.006339,0.600000,1.000000,1.000000,0.000000,0.000000
/home/daniel/Projects/ppsEvolution/data/maps/custom_maps/Custom_1_Run_0_Map.csv,0.000000,0.878211,0.210000,0.680925,0.030000,0.030000,0.885873,0.000000,1.000000,0.237528,0.000000,0.601477,1.000000,1.000000,0.000000,0.000000
/home/daniel/Projects/ppsEvolution/data/maps/custom_maps/Custom_1_Run_0_Map.csv,0.050102,1.000000,0.199094,0.697552,0.266335,0.030000,0.677254,0.000000,1.000000,0.000000,0.066955,0.583482,1.000000,1.000000,0.000000,0.000000
/home/daniel/Projects/ppsEvolution/data/maps/custom_maps/Custom_1_Run_0_Map.csv,0.114300,0.887608,0.210000,0.664471,0.030000,0.053554,1.000000,0.000000,1.000000,0.000000,0.009515,0.610488,0.905808,0.910408,0.105823,0.000000
/home/daniel/Projects/ppsEvolution/data/maps/custom_maps/Custom_1_Run_0_Map.csv,0.033076,1.000000,0.295578,0.598349,0.065709,0.119625,0.965586,0.000000,0.920123,0.000000,0.011975,0.600000,1.000000,0.991316,0.000000,0.000000
/home/daniel/Projects/ppsEvolution/data/maps/custom_maps/Custom_1_Run_0_Map.csv,0.000000,1.000000,0.057132,0.748739,0.030000,0.000000,1.000000,0.000000,1.000000,0.000000,0.000000,0.600000,0.967422,1.000000,0.000000,1.000000
/home/daniel/Projects/ppsEvolution/data/maps/custom_maps/Custom_2_Run_0_Map.csv,0.000000,1.000000,0.785373,1.000000,0.000000,0.000000,1.000000,2.000000,0.776678,0.368106,1.000000,1.000000,1.000000,0.984814,1.000000,2.000000
/home/daniel/Projects/ppsEvolution/data/maps/custom_maps/Custom_2_Run_0_Map.csv,0.000000,0.992248,0.708380,1.000000,0.000000,0.000000,1.000000,2.000000,0.616603,0.301717,1.000000,1.000000,1.000000,1.000000,1.000000,2.000000
/home/daniel/Projects/ppsEvolution/data/maps/custom_maps/Custom_2_Run_0_Map.csv,0.000000,1.000000,0.806251,1.000000,0.000000,0.000000,1.000000,2.000000,0.805956,0.589908,1.000000,1.000000,1.000000,1.000000,1.000000,2.000000
/home/daniel/Projects/ppsEvolution/data/maps/custom_maps/Custom_2_Run_0_Map.csv,0.000000,1.000000,0.906653,1.000000,0.000000,0.000000,1.000000,2.000000,1.000000,0.673813,1.000000,1.000000,1.000000,1.000000,1.000000,2.000000
/home/daniel/Projects/ppsEvolution/data/maps/custom_maps/Custom_2_Run_0_Map.csv,0.000000,1.000000,0.729929,1.000000,0.000000,0.000000,0.983481,2.000000,0.664451,0.183206,0.997755,1.000000,1.000000,1.000000,1.000000,2.000000
/home/daniel/Projects/ppsEvolution/data/maps/custom_maps/Custom_2_Run_0_Map.csv,0.000000,1.000000,0.663347,1.000000,0.000000,0.000000,1.000000,2.000000,0.551343,0.326971,1.000000,1.000000,1.000000,1.000000,1.000000,2.000000
/home/daniel/Projects/ppsEvolution/data/maps/custom_maps/Custom_2_Run_0_Map.csv,0.000000,0.989656,0.732930,1.000000,0.000000,0.000000,1.000000,2.000000,0.693259,0.536384,1.000000,1.000000,1.000000,1.000000,1.000000,2.000000
/home/daniel/Projects/ppsEvolution/data/maps/custom_maps/Custom_2_Run_0_Map.csv,0.000000,1.000000,0.518010,1.000000,0.000000,0.002629,0.987468,2.000000,0.245328,0.187858,1.000000,1.000000,1.000000,0.996291,1.000000,2.000000
/home/daniel/Projects/ppsEvolution/data/maps/custom_maps/Custom_2_Run_0_Map.csv,0.000000,0.966694,0.673924,1.000000,0.000000,0.011225,1.000000,2.000000,0.597037,0.523504,1.000000,1.000000,0.991088,1.000000,1.000000,2.000000
/home/daniel/Projects/ppsEvolution/data/maps/custom_maps/Custom_2_Run_0_Map.csv,0.000000,0.769433,0.403443,1.000000,0.000000,0.000000,1.000000,2.000000,0.667596,0.230123,1.000000,0.952522,0.950953,0.916858,1.000000,2.000000
/home/daniel/Projects/ppsEvolution/data/maps/custom_maps/Custom_3_Run_0_Map.csv,0.000000,1.000000,1.000000,0.966966,0.000000,0.035727,1.000000,2.000000,0.000000,0.000000,1.000000,1.000000,1.000000,0.000000,1.000000,2.000000
/home/daniel/Projects/ppsEvolution/data/maps/custom_maps/Custom_3_Run_0_Map.csv,0.000000,1.000000,1.000000,0.965401,0.000000,0.000000,1.000000,2.000000,0.000000,0.000000,1.000000,1.000000,1.000000,0.000000,1.000000,2.000000
/home/daniel/Projects/ppsEvolution/data/maps/custom_maps/Custom_3_Run_0_Map.csv,0.000000,1.000000,1.000000,0.991650,0.000000,0.037493,1.000000,2.000000,0.488942,0.017043,1.000000,1.000000,1.000000,0.000000,1.000000,2.000000
/home/daniel/Projects/ppsEvolution/data/maps/custom_maps/Custom_3_Run_0_Map.csv,0.000000,1.000000,1.000000,0.965362,0.000000,0.000000,1.000000,2.000000,0.000000,0.000000,1.000000,1.000000,0.944662,0.000000,1.000000,2.000000
/home/daniel/Projects/ppsEvolution/data/maps/custom_maps/Custom_3_Run_0_Map.csv,0.001521,1.000000,0.749770,0.987504,0.000000,0.000000,1.000000,2.000000,0.000000,0.000000,1.000000,1.000000,0.930357,0.000000,1.000000,2.000000
/home/daniel/Projects/ppsEvolution/data/maps/custom_maps/Custom_3_Run_0_Map.csv,0.000000,1.000000,0.603327,1.000000,0.000000,0.000000,1.000000,2.000000,0.000000,0.000000,1.000000,1.000000,1.000000,0.000000,1.000000,2.000000
/home/daniel/Projects/ppsEvolution/data/maps/custom_maps/Custom_3_Run_0_Map.csv,0.000000,0.949643,0.657557,1.000000,0.000000,0.000000,1.000000,2.000000,0.074349,0.000000,1.000000,1.000000,1.000000,0.000209,1.000000,2.000000
/home/daniel/Projects/ppsEvolution/data/maps/custom_maps/Custom_3_Run_0_Map.csv,0.000000,1.000000,0.841764,1.000000,0.000000,0.000000,1.000000,2.000000,0.413246,0.000000,1.000000,1.000000,1.000000,0.000000,1.000000,2.000000
/home/daniel/Projects/ppsEvolution/data/maps/custom_maps/Custom_3_Run_0_Map.csv,0.000000,1.000000,0.781177,1.000000,0.000000,0.359959,1.000000,2.000000,0.300253,0.000000,1.000000,1.000000,1.000000,0.000000,1.000000,2.000000
/home/daniel/Projects/ppsEvolution/data/maps/custom_maps/Custom_3_Run_0_Map.csv,0.000000,0.917581,0.959608,0.973582,0.000000,0.000000,1.000000,2.000000,0.008983,0.000000,1.000000,1.000000,1.000000,0.000000,1.000000,2.000000
/home/daniel/Projects/ppsEvolution/data/maps/custom_maps/Custom_4_Run_0_Map.csv,0.016205,1.000000,0.218254,0.765528,0.030000,0.179464,1.000000,0.000000,0.942475,0.000000,0.153839,0.600000,1.000000,0.805478,0.000000,0.000000
/home/daniel/Projects/ppsEvolution/data/maps/custom_maps/Custom_4_Run_0_Map.csv,0.000000,0.875987,0.210000,0.771900,0.000000,0.000000,0.999392,0.000000,1.000000,0.000000,0.000000,0.655592,1.000000,1.000000,0.000000,2.000000
/home/daniel/Projects/ppsEvolution/data/maps/custom_maps/Custom_4_Run_0_Map.csv,0.028168,0.965530,0.128058,0.800000,0.094648,0.000000,1.000000,0.000000,1.000000,0.000000,0.062000,0.638202,0.963101,1.000000,0.130101,2.000000
/home/daniel/Projects/ppsEvolution/data/maps/custom_maps/Custom_4_Run_0_Map.csv,0.000000,1.000000,0.210000,0.781313,0.000000,0.092176,0.873917,0.000000,1.000000,0.054251,0.000000,0.663591,1.000000,1.000000,0.086616,1.000000
/home/daniel/Projects/ppsEvolution/data/maps/custom_maps/Custom_4_Run_0_Map.csv,0.000000,0.980267,0.162845,0.796857,0.000000,0.030000,1.000000,0.000000,0.992282,0.000000,0.035755,0.658292,0.994717,1.000000,0.097628,0.000000
/home/daniel/Projects/ppsEvolution/data/maps/custom_maps/Custom_4_Run_0_Map.csv,0.000000,0.680687,0.158465,0.800000,0.030000,0.000000,0.825858,0.000000,0.971148,0.016667,0.170540,0.600000,1.000000,0.891084,0.000000,1.000000
/home/daniel/Projects/ppsEvolution/data/maps/custom_maps/Custom_4_Run_0_Map.csv,0.000000,1.000000,0.368179,0.696818,0.130353,0.000000,0.836579,2.000000,0.998542,0.000000,0.000000,0.646904,0.854125,1.000000,0.000000,1.000000
/home/daniel/Projects/ppsEvolution/data/maps/custom_maps/Custom_4_Run_0_Map.csv,0.000000,1.000000,0.181809,0.800000,0.030000,0.000000,0.802500,0.000000,0.992730,0.000000,0.000000,0.679624,0.781943,0.977255,0.085590,0.000000
/home/daniel/Projects/ppsEvolution/data/maps/custom_maps/Custom_4_Run_0_Map.csv,0.000000,1.000000,0.210000,0.766696,0.030000,0.429397,0.968657,1.000000,1.000000,0.000000,0.185662,0.566297,1.000000,1.000000,0.056421,0.000000
/home/daniel/Projects/ppsEvolution/data/maps/custom_maps/Custom_4_Run_0_Map.csv,0.000000,1.000000,0.210000,0.800000,0.000000,0.000000,0.684637,0.000000,1.000000,0.170748,0.000000,0.683525,1.000000,0.941265,0.060878,0.000000
/home/daniel/Projects/ppsEvolution/data/maps/custom_maps/Custom_5_Run_0_Map.csv,0.000000,0.865666,0.238470,0.954848,0.157840,0.246831,1.000000,2.000000,0.753946,0.000000,0.000000,0.941666,0.743548,0.872101,0.283941,2.000000
/home/daniel/Projects/ppsEvolution/data/maps/custom_maps/Custom_5_Run_0_Map.csv,0.000000,0.957207,0.661749,0.852572,0.201594,0.000000,0.978596,2.000000,0.537064,0.044977,0.484709,0.842065,0.961543,0.783346,0.067852,1.000000
/home/daniel/Projects/ppsEvolution/data/maps/custom_maps/Custom_5_Run_0_Map.csv,0.000000,0.604712,0.599275,0.878996,0.000000,0.000000,1.000000,2.000000,0.639690,0.013917,0.314903,0.875538,1.000000,1.000000,0.054606,2.000000
/home/daniel/Projects/ppsEvolution/data/maps/custom_maps/Custom_5_Run_0_Map.csv,0.000000,0.852823,0.453102,0.906372,0.000000,0.055346,1.000000,2.000000,0.745007,0.026832,0.000000,0.922425,0.972111,0.987473,0.122610,2.000000
/home/daniel/Projects/ppsEvolution/data/maps/custom_maps/Custom_5_Run_0_Map.csv,0.041069,0.790418,0.688650,0.838288,0.000000,0.000000,1.000000,2.000000,0.491400,0.272986,0.407189,0.852575,0.959948,1.000000,0.087824,2.000000
/home/daniel/Projects/ppsEvolution/data/maps/custom_maps/Custom_5_Run_0_Map.csv,0.064892,0.945818,0.612148,0.947488,0.183063,0.331724,1.000000,0.000000,0.967868,0.000000,0.040045,0.955153,0.909633,1.000000,0.106365,1.000000
/home/daniel/Projects/ppsEvolution/data/maps/custom_maps/Custom_5_Run_0_Map.csv,0.014579,0.777008,0.206089,1.000000,0.119225,0.030265,0.685017,0.000000,0.632662,0.000000,0.000000,1.000000,1.000000,1.000000,0.150621,0.000000
/home/daniel/Projects/ppsEvolution/data/maps/custom_maps/Custom_5_Run_0_Map.csv,0.000000,1.000000,0.188718,1.000000,0.331999,0.699117,1.000000,2.000000,0.951192,0.000000,0.652828,0.890769,0.839546,0.616114,0.039281,2.000000
/home/daniel/Projects/ppsEvolution/data/maps/custom_maps/Custom_5_Run_0_Map.csv,0.198449,0.829819,0.456116,0.939033,0.269698,0.000000,1.000000,2.000000,1.000000,0.258863,0.096895,0.931142,0.816494,0.564479,0.106747,2.000000
/home/daniel/Projects/ppsEvolution/data/maps/custom_maps/Custom_5_Run_0_Map.csv,0.227717,0.956494,0.314461,1.000000,0.000000,0.030000,0.982348,0.000000,0.930794,0.047451,0.000000,1.000000,0.810887,0.747239,0.000000,0.000000
/home/daniel/Projects/ppsEvolution/data/maps/custom_maps/Custom_6_Run_0_Map.csv,0.113833,1.000000,0.000000,1.000000,0.000000,0.000000,0.634108,2.000000,1.000000,0.319389,1.000000,0.908263,1.000000,1.000000,1.000000,2.000000
/home/daniel/Projects/ppsEvolution/data/maps/custom_maps/Custom_6_Run_0_Map.csv,0.243229,1.000000,0.000000,1.000000,0.000000,0.002937,0.000000,2.000000,1.000000,0.524264,1.000000,0.925723,1.000000,1.000000,1.000000,2.000000
/home/daniel/Projects/ppsEvolution/data/maps/custom_maps/Custom_6_Run_0_Map.csv,0.056281,1.000000,0.000000,1.000000,0.000000,0.000000,0.634483,2.000000,1.000000,0.368152,1.000000,0.903145,1.000000,1.000000,1.000000,2.000000
/home/daniel/Projects/ppsEvolution/data/maps/custom_maps/Custom_6_Run_0_Map.csv,0.076273,1.000000,0.000000,1.000000,0.000000,0.000000,0.525285,2.000000,1.000000,0.405840,1.000000,0.905975,1.000000,1.000000,1.000000,2.000000
/home/daniel/Projects/ppsEvolution/data/maps/custom_maps/Custom_6_Run_0_Map.csv,0.114834,1.000000,0.000000,1.000000,0.000000,0.000000,0.464496,2.000000,1.000000,0.231365,1.000000,0.911604,1.000000,1.000000,1.000000,2.000000
/home/daniel/Projects/ppsEvolution/data/maps/custom_maps/Custom_6_Run_0_Map.csv,0.000000,1.000000,0.000000,1.000000,0.000000,0.000000,0.683397,2.000000,1.000000,0.000000,1.000000,0.897340,1.000000,1.000000,1.000000,2.000000
/home/daniel/Projects/ppsEvolution/data/maps/custom_maps/Custom_6_Run_0_Map.csv,0.076858,1.000000,0.000000,1.000000,0.000000,0.000000,0.430944,2.000000,1.000000,0.296407,1.000000,0.907096,1.000000,1.000000,1.000000,2.000000
/home/daniel/Projects/ppsEvolution/data/maps/custom_maps/Custom_6_Run_0_Map.csv,0.041280,1.000000,0.000000,1.000000,0.000000,0.000000,0.522630,2.000000,1.000000,0.991862,1.000000,0.905717,0.999290,1.000000,1.000000,2.000000
/home/daniel/Projects/ppsEvolution/data/maps/custom_maps/Custom_6_Run_0_Map.csv,0.000000,1.000000,0.000000,1.000000,0.000000,0.000000,0.997325,2.000000,1.000000,0.429676,1.000000,0.896208,1.000000,1.000000,1.000000,2.000000
/home/daniel/Projects/ppsEvolution/data/maps/custom_maps/Custom_6_Run_0_Map.csv,0.081980,1.000000,0.000000,1.000000,0.010316,0.003704,0.540624,2.000000,1.000000,0.598455,1.000000,0.908593,1.000000,1.000000,1.000000,2.000000
/home/daniel/Projects/ppsEvolution/data/maps/custom_maps/Custom_7_Run_0_Map.csv,0.000000,1.000000,0.250026,1.000000,0.220434,0.388799,1.000000,1.000000,0.883705,0.123320,0.283021,0.957578,1.000000,0.572291,0.000000,0.000000
/home/daniel/Projects/ppsEvolution/data/maps/custom_maps/Custom_7_Run_0_Map.csv,0.141054,1.000000,0.259363,0.970778,0.202107,0.000000,0.827484,2.000000,1.000000,0.107164,0.577248,0.892420,0.999927,0.681496,0.104851,1.000000
/home/daniel/Projects/ppsEvolution/data/maps/custom_maps/Custom_7_Run_0_Map.csv,0.000000,0.906487,0.389415,0.997764,0.097102,0.000000,1.000000,0.000000,0.918821,0.045992,0.229603,0.971675,0.803826,0.663678,0.130311,0.000000
/home/daniel/Projects/ppsEvolution/data/maps/custom_maps/Custom_7_Run_0_Map.csv,0.101516,0.950061,0.363706,1.000000,0.087666,0.030000,1.000000,0.000000,0.884884,0.005204,0.077197,1.000000,0.940002,0.886709,0.038186,1.000000
/home/daniel/Projects/ppsEvolution/data/maps/custom_maps/Custom_7_Run_0_Map.csv,0.000000,0.984071,0.498849,0.950924,0.315918,0.035838,0.912016,2.000000,0.865584,0.139524,0.433127,0.918016,1.000000,0.638929,0.018158,2.000000
/home/daniel/Projects/ppsEvolution/data/maps/custom_maps/Custom_7_Run_0_Map.csv,0.158132,1.000000,0.433137,1.000000,0.000000,0.246118,0.955450,0.000000,0.941365,0.295612,0.106303,1.000000,0.831263,0.744844,0.000000,1.000000
/home/daniel/Projects/ppsEvolution/data/maps/custom_maps/Custom_7_Run_0_Map.csv,0.000000,0.810577,0.353401,0.950753,0.030000,0.000000,0.688491,2.000000,0.924004,0.000078,0.709573,0.853965,0.970030,0.722079,0.082712,2.000000
/home/daniel/Projects/ppsEvolution/data/maps/custom_maps/Custom_7_Run_0_Map.csv,0.047772,1.000000,0.319066,0.931743,0.000000,0.000000,0.952771,2.000000,0.758766,0.000000,0.733400,0.833517,0.830755,1.000000,0.377802,2.000000
/home/daniel/Projects/ppsEvolution/data/maps/custom_maps/Custom_7_Run_0_Map.csv,0.000000,0.881162,0.274054,0.954310,0.190954,0.524920,0.930045,2.000000,0.697843,0.000000,0.837841,0.842434,0.876524,0.534002,0.525777,0.000000
/home/daniel/Projects/ppsEvolution/data/maps/custom_maps/Custom_7_Run_0_Map.csv,0.000000,1.000000,0.456631,1.000000,0.000000,0.185635,1.000000,0.000000,0.955295,0.035676,0.073989,1.000000,0.735866,0.939933,0.112106,0.000000
/home/daniel/Projects/ppsEvolution/data/maps/custom_maps/Custom_8_Run_0_Map.csv,0.000000,1.000000,0.213652,0.800000,0.140842,0.000000,1.000000,0.000000,0.820229,0.000000,0.142308,0.685480,1.000000,0.921895,0.000000,1.000000
/home/daniel/Projects/ppsEvolution/data/maps/custom_maps/Custom_8_Run_0_Map.csv,0.000000,1.000000,0.210000,0.800000,0.126562,0.030000,1.000000,2.000000,1.000000,0.000000,0.171173,0.646301,1.000000,1.000000,0.000000,1.000000
/home/daniel/Projects/ppsEvolution/data/maps/custom_maps/Custom_8_Run_0_Map.csv,0.000000,0.909215,0.141827,0.800000,0.000000,0.000000,0.950393,2.000000,0.833851,0.442746,0.316232,0.575446,0.941127,1.000000,0.000000,1.000000
/home/daniel/Projects/ppsEvolution/data/maps/custom_maps/Custom_8_Run_0_Map.csv,0.090437,1.000000,0.210000,0.800000,0.096298,0.000000,0.989609,2.000000,1.000000,0.000000,0.000000,0.730847,0.822090,0.778740,0.000000,2.000000
/home/daniel/Projects/ppsEvolution/data/maps/custom_maps/Custom_8_Run_0_Map.csv,0.016370,1.000000,0.263824,0.800000,0.000000,0.000000,1.000000,0.000000,0.996833,0.000000,0.203648,0.645439,1.000000,1.000000,0.000000,2.000000
/home/daniel/Projects/ppsEvolution/data/maps/custom_maps/Custom_8_Run_0_Map.csv,0.000000,1.000000,0.226184,0.800000,0.000000,0.030000,0.939470,2.000000,1.000000,0.111080,0.265846,0.600000,1.000000,0.755170,0.108855,0.000000
/home/daniel/Projects/ppsEvolution/data/maps/custom_maps/Custom_8_Run_0_Map.csv,0.026806,1.000000,0.271072,0.800000,0.030000,0.000000,1.000000,0.000000,1.000000,0.088674,0.000000,0.729234,1.000000,0.923656,0.000000,2.000000
/home/daniel/Projects/ppsEvolution/data/maps/custom_maps/Custom_8_Run_0_Map.csv,0.018130,1.000000,0.277041,0.790395,0.166354,0.030000,0.918821,1.000000,1.000000,0.000000,0.000000,0.724812,0.862335,1.000000,0.000000,2.000000
/home/daniel/Projects/ppsEvolution/data/maps/custom_maps/Custom_8_Run_0_Map.csv,0.043512,1.000000,0.220476,0.800000,0.030000,0.030000,1.000000,2.000000,1.000000,0.000000,0.000000,0.728982,0.975688,1.000000,0.000000,1.000000
/home/daniel/Projects/ppsEvolution/data/maps/custom_maps/Custom_8_Run_0_Map.csv,0.000000,0.802146,0.210000,0.800000,0.213643,0.030000,0.964836,2.000000,0.980361,0.000000,0.026757,0.701837,1.000000,0.687080,0.169602,1.000000
/home/daniel/Projects/ppsEvolution/data/maps/custom_maps/Custom_9_Run_0_Map.csv,0.000000,1.000000,0.210000,0.707534,0.030000,0.005133,1.000000,2.000000,0.983683,0.218136,0.000000,0.633545,0.975959,0.878918,0.000000,1.000000
/home/daniel/Projects/ppsEvolution/data/maps/custom_maps/Custom_9_Run_0_Map.csv,0.000000,1.000000,0.210000,0.731757,0.009890,0.107465,0.906511,1.000000,1.000000,0.004102,0.111294,0.600000,1.000000,0.840163,0.000000,0.000000
/home/daniel/Projects/ppsEvolution/data/maps/custom_maps/Custom_9_Run_0_Map.csv,0.000000,0.870558,0.210000,0.730264,0.141855,0.030000,0.972763,1.000000,1.000000,0.000000,0.106432,0.603958,1.000000,1.000000,0.000000,0.000000
/home/daniel/Projects/ppsEvolution/data/maps/custom_maps/Custom_9_Run_0_Map.csv,0.075548,0.991447,0.000000,0.800000,0.123834,0.075231,0.910817,2.000000,1.000000,0.000000,0.000000,0.666399,0.949793,0.943295,0.000000,2.000000
/home/daniel/Projects/ppsEvolution/data/maps/custom_maps/Custom_9_Run_0_Map.csv,0.087495,0.936446,0.210000,0.731419,0.002232,0.169120,1.000000,0.000000,1.000000,0.000000,0.147420,0.600000,1.000000,1.000000,0.000000,1.000000
/home/daniel/Projects/ppsEvolution/data/maps/custom_maps/Custom_9_Run_0_Map.csv,0.000000,0.923345,0.210000,0.740681,0.285436,0.287131,1.000000,0.000000,1.000000,0.020270,0.034886,0.644173,1.000000,0.826512,0.022871,0.000000
/home/daniel/Projects/ppsEvolution/data/maps/custom_maps/Custom_9_Run_0_Map.csv,0.000000,1.000000,0.284405,0.691697,0.000000,0.000000,1.000000,1.000000,0.980973,0.035081,0.000000,0.653693,0.790053,0.995616,0.000000,0.000000
/home/daniel/Projects/ppsEvolution/data/maps/custom_maps/Custom_9_Run_0_Map.csv,0.155270,1.000000,0.411662,0.613127,0.030000,0.030000,1.000000,0.000000,0.911012,0.000000,0.000000,0.680497,1.000000,1.000000,0.000000,1.000000
/home/daniel/Projects/ppsEvolution/data/maps/custom_maps/Custom_9_Run_0_Map.csv,0.000000,1.000000,0.132142,0.761880,0.045954,0.060903,1.000000,0.000000,1.000000,0.000000,0.085167,0.600000,0.977607,0.726606,0.090372,2.000000
/home/daniel/Projects/ppsEvolution/data/maps/custom_maps/Custom_9_Run_0_Map.csv,0.000000,0.981920,0.210000,0.704410,0.030000,0.000000,1.000000,2.000000,0.961920,0.144150,0.072245,0.600000,1.000000,1.000000,0.028130,0.000000
/home/daniel/Projects/ppsEvolution/data/maps/custom_maps/Custom_10_Run_0_Map.csv,0.020959,0.789953,0.593659,1.000000,0.003125,0.116860,1.000000,2.000000,0.332555,0.008232,0.710752,1.000000,0.639572,0.893915,0.731531,2.000000
/home/daniel/Projects/ppsEvolution/data/maps/custom_maps/Custom_10_Run_0_Map.csv,0.104153,0.724999,0.799766,1.000000,0.000000,0.000000,1.000000,2.000000,0.549496,0.103469,1.000000,1.000000,1.000000,0.591092,0.719981,0.000000
/home/daniel/Projects/ppsEvolution/data/maps/custom_maps/Custom_10_Run_0_Map.csv,0.026162,0.956767,0.827313,0.987275,0.056588,0.476855,0.988499,2.000000,0.440967,0.038128,0.670578,1.000000,0.646260,0.718995,0.516332,1.000000
/home/daniel/Projects/ppsEvolution/data/maps/custom_maps/Custom_10_Run_0_Map.csv,0.000000,1.000000,0.841530,0.990834,0.475602,0.035757,0.993779,2.000000,0.515727,0.071004,0.746612,1.000000,0.948283,1.000000,0.293802,2.000000
/home/daniel/Projects/ppsEvolution/data/maps/custom_maps/Custom_10_Run_0_Map.csv,0.126446,0.995573,0.986104,0.995135,0.000000,0.176036,1.000000,2.000000,0.805633,0.158245,0.865129,1.000000,0.977045,0.664729,0.712890,2.000000
/home/daniel/Projects/ppsEvolution/data/maps/custom_maps/Custom_10_Run_0_Map.csv,0.086165,1.000000,1.000000,0.977516,0.246987,0.215992,0.896688,2.000000,0.420447,0.213808,0.573300,1.000000,1.000000,0.395022,0.020045,2.000000
/home/daniel/Projects/ppsEvolution/data/maps/custom_maps/Custom_10_Run_0_Map.csv,0.000000,0.880137,1.000000,1.000000,0.163324,0.260666,0.983487,2.000000,0.817051,0.206174,0.587604,1.000000,0.327045,0.192961,0.381573,2.000000
/home/daniel/Projects/ppsEvolution/data/maps/custom_maps/Custom_10_Run_0_Map.csv,0.006534,0.893841,1.000000,1.000000,0.258810,0.107472,1.000000,2.000000,0.993284,0.056325,0.766557,1.000000,0.845712,0.900234,1.000000,2.000000
/home/daniel/Projects/ppsEvolution/data/maps/custom_maps/Custom_10_Run_0_Map.csv,0.000000,0.610160,0.797797,0.966265,0.000000,0.315964,0.957811,2.000000,0.074110,0.523990,0.571237,1.000000,0.631492,0.554568,0.322942,0.000000
/home/daniel/Projects/ppsEvolution/data/maps/custom_maps/Custom_10_Run_0_Map.csv,0.000000,0.720413,1.000000,0.974517,0.060304,0.060599,1.000000,2.000000,0.634889,0.000000,0.361372,1.000000,0.969533,0.361328,0.572983,2.000000
