gen, fitness
0,0.094016,0.000000,1.000000,0.210000,0.800000,0.030000,0.030000,1.000000,0.000000,1.000000,0.000000,0.000000,0.600000,1.000000,1.000000,0.000000,0.000000
1,0.094016,0.000000,1.000000,0.210000,0.800000,0.030000,0.030000,1.000000,0.000000,1.000000,0.000000,0.000000,0.600000,1.000000,1.000000,0.000000,0.000000
2,0.053774,0.000000,0.882853,0.253278,0.596970,0.081437,0.000000,0.895806,1.000000,1.000000,0.000000,0.000000,0.398075,1.000000,1.000000,0.000000,1.000000
3,0.032995,0.211765,1.000000,0.200888,0.424319,0.004696,0.245976,1.000000,1.000000,1.000000,0.017561,0.000000,0.186086,1.000000,0.994696,0.074885,1.000000
4,0.028741,0.048589,0.886660,0.103092,0.524564,0.045341,0.049856,0.710802,0.000000,1.000000,0.154811,0.000000,0.206999,0.987436,0.962050,0.114261,0.000000
5,0.026038,0.000000,0.903416,0.050964,0.504364,0.051772,0.000000,0.608909,1.000000,0.909758,0.121118,0.000000,0.201750,0.957446,1.000000,0.113372,2.000000
6,0.017073,0.168358,0.805315,0.015368,0.347825,0.026823,0.000000,0.667533,1.000000,0.898123,0.357101,0.102198,0.082136,0.986124,0.922861,0.143729,2.000000
7,0.012457,0.291585,0.906582,0.087892,0.247276,0.100726,0.345386,1.000000,0.000000,0.876686,0.118529,0.000000,0.056115,0.940296,0.819111,0.017502,1.000000
8,0.008963,0.321552,1.000000,0.020494,0.348031,0.000000,0.102440,0.561681,0.000000,1.000000,0.438378,0.000000,0.082942,1.000000,1.000000,0.273602,2.000000
9,0.007170,0.501349,0.758054,0.204173,0.000000,0.029205,0.000000,0.831012,0.000000,0.847455,0.112687,0.000000,0.115857,0.851877,0.989206,0.098701,1.000000
10,0.003968,0.595883,0.687586,0.165471,0.000000,0.073262,0.117638,0.918947,1.000000,0.975034,0.175128,0.041405,0.048733,0.718916,0.964965,0.129062,2.000000
11,0.002315,0.498094,0.662336,0.047489,0.000000,0.282952,0.034707,0.963685,0.000000,0.931983,0.080840,0.000000,0.054438,0.835839,0.997787,0.009071,1.000000
12,0.000741,0.677990,0.583785,0.000000,0.033259,0.506162,0.205040,0.903769,1.000000,0.898001,0.120065,0.012732,0.016200,0.729166,0.752412,0.034332,2.000000
13,0.000153,0.773586,0.833975,0.000000,0.000000,0.123922,0.041820,0.770513,1.000000,1.000000,0.082512,0.000000,0.000000,0.825348,1.000000,0.219994,2.000000
14,0.000011,0.762438,0.947840,0.000000,0.000000,0.208403,0.153264,0.694648,0.000000,1.000000,0.004139,0.000000,0.000000,0.602986,0.828478,0.000000,0.000000
15,0.000011,0.762438,0.947840,0.000000,0.000000,0.208403,0.153264,0.694648,0.000000,1.000000,0.004139,0.000000,0.000000,0.602986,0.828478,0.000000,0.000000
16,0.000011,0.762438,0.947840,0.000000,0.000000,0.208403,0.153264,0.694648,0.000000,1.000000,0.004139,0.000000,0.000000,0.602986,0.828478,0.000000,0.000000
17,0.000011,0.762438,0.947840,0.000000,0.000000,0.208403,0.153264,0.694648,0.000000,1.000000,0.004139,0.000000,0.000000,0.602986,0.828478,0.000000,0.000000
18,0.000011,0.762438,0.947840,0.000000,0.000000,0.208403,0.153264,0.694648,0.000000,1.000000,0.004139,0.000000,0.000000,0.602986,0.828478,0.000000,0.000000
19,0.000011,0.762438,0.947840,0.000000,0.000000,0.208403,0.153264,0.694648,0.000000,1.000000,0.004139,0.000000,0.000000,0.602986,0.828478,0.000000,0.000000
20,0.000011,0.762438,0.947840,0.000000,0.000000,0.208403,0.153264,0.694648,0.000000,1.000000,0.004139,0.000000,0.000000,0.602986,0.828478,0.000000,0.000000
21,0.000011,0.762438,0.947840,0.000000,0.000000,0.208403,0.153264,0.694648,0.000000,1.000000,0.004139,0.000000,0.000000,0.602986,0.828478,0.000000,0.000000
22,0.000011,0.762438,0.947840,0.000000,0.000000,0.208403,0.153264,0.694648,0.000000,1.000000,0.004139,0.000000,0.000000,0.602986,0.828478,0.000000,0.000000
23,0.000011,0.762438,0.947840,0.000000,0.000000,0.208403,0.153264,0.694648,0.000000,1.000000,0.004139,0.000000,0.000000,0.602986,0.828478,0.000000,0.000000
24,0.000011,0.762438,0.947840,0.000000,0.000000,0.208403,0.153264,0.694648,0.000000,1.000000,0.004139,0.000000,0.000000,0.602986,0.828478,0.000000,0.000000
gen, fitness
0,0.011444,0.000000,1.000000,0.210000,0.800000,0.030000,0.030000,1.000000,0.000000,1.000000,0.000000,0.000000,0.600000,1.000000,1.000000,0.000000,0.000000
1,0.011444,0.000000,1.000000,0.210000,0.800000,0.030000,0.030000,1.000000,0.000000,1.000000,0.000000,0.000000,0.600000,1.000000,1.000000,0.000000,0.000000
2,0.003887,0.076156,0.843930,0.202573,0.659209,0.000923,0.000000,0.990693,1.000000,0.983188,0.000000,0.000000,0.534291,0.981369,0.943138,0.007261,2.000000
3,0.001178,0.078936,0.831657,0.067158,0.576075,0.153308,0.080829,1.000000,0.000000,0.736885,0.017742,0.000000,0.406904,0.881450,0.920807,0.000000,2.000000
4,0.000220,0.040481,0.881737,0.038552,0.590360,0.000000,0.000000,0.950201,1.000000,1.000000,0.000000,0.020163,0.246764,1.000000,0.941386,0.029840,1.000000
5,0.000175,0.192024,1.000000,0.446985,0.181602,0.233492,0.055768,0.908208,0.000000,1.000000,0.300679,0.080724,0.188241,1.000000,1.000000,0.232409,1.000000
6,0.000010,0.198539,0.830252,0.012326,0.513354,0.293736,0.054456,0.870554,1.000000,0.827764,0.138069,0.058133,0.212150,0.989906,0.944780,0.000000,2.000000
7,0.000010,0.198539,0.830252,0.012326,0.513354,0.293736,0.054456,0.870554,1.000000,0.827764,0.138069,0.058133,0.212150,0.989906,0.944780,0.000000,2.000000
8,0.000010,0.198539,0.830252,0.012326,0.513354,0.293736,0.054456,0.870554,1.000000,0.827764,0.138069,0.058133,0.212150,0.989906,0.944780,0.000000,2.000000
9,0.000010,0.198539,0.830252,0.012326,0.513354,0.293736,0.054456,0.870554,1.000000,0.827764,0.138069,0.058133,0.212150,0.989906,0.944780,0.000000,2.000000
10,0.000009,0.009832,1.000000,0.526777,0.058863,0.162741,0.258507,0.737383,1.000000,0.942229,0.218345,0.038193,0.085133,1.000000,0.992922,0.191264,0.000000
11,0.000009,0.009832,1.000000,0.526777,0.058863,0.162741,0.258507,0.737383,1.000000,0.942229,0.218345,0.038193,0.085133,1.000000,0.992922,0.191264,0.000000
12,0.000009,0.009832,1.000000,0.526777,0.058863,0.162741,0.258507,0.737383,1.000000,0.942229,0.218345,0.038193,0.085133,1.000000,0.992922,0.191264,0.000000
13,0.000009,0.009832,1.000000,0.526777,0.058863,0.162741,0.258507,0.737383,1.000000,0.942229,0.218345,0.038193,0.085133,1.000000,0.992922,0.191264,0.000000
14,0.000009,0.009832,1.000000,0.526777,0.058863,0.162741,0.258507,0.737383,1.000000,0.942229,0.218345,0.038193,0.085133,1.000000,0.992922,0.191264,0.000000
15,0.000009,0.009832,1.000000,0.526777,0.058863,0.162741,0.258507,0.737383,1.000000,0.942229,0.218345,0.038193,0.085133,1.000000,0.992922,0.191264,0.000000
16,0.000009,0.009832,1.000000,0.526777,0.058863,0.162741,0.258507,0.737383,1.000000,0.942229,0.218345,0.038193,0.085133,1.000000,0.992922,0.191264,0.000000
gen, fitness
0,0.010533,0.000000,1.000000,0.210000,0.800000,0.030000,0.030000,1.000000,0.000000,1.000000,0.000000,0.000000,0.600000,1.000000,1.000000,0.000000,0.000000
1,0.010533,0.000000,1.000000,0.210000,0.800000,0.030000,0.030000,1.000000,0.000000,1.000000,0.000000,0.000000,0.600000,1.000000,1.000000,0.000000,0.000000
2,0.002369,0.000000,0.936472,0.184279,0.694549,0.000000,0.027955,0.874221,2.000000,0.930818,0.010226,0.152543,0.443876,1.000000,0.950635,0.000000,2.000000
3,0.000157,0.286182,1.000000,0.239010,0.535594,0.030612,0.029943,0.732341,0.000000,1.000000,0.000000,0.000000,0.483648,0.986259,0.800332,0.019375,2.000000
4,0.000157,0.286182,1.000000,0.239010,0.535594,0.030612,0.029943,0.732341,0.000000,1.000000,0.000000,0.000000,0.483648,0.986259,0.800332,0.019375,2.000000
5,0.000054,0.000000,1.000000,0.000000,0.671820,0.000000,0.000000,0.908641,0.000000,1.000000,0.000000,0.211648,0.175462,0.841518,0.952079,0.000000,2.000000
6,0.000023,0.098943,0.856727,0.000000,0.635831,0.033264,0.000000,1.000000,0.000000,0.948412,0.000000,0.087768,0.264415,0.895371,1.000000,0.289905,2.000000
7,0.000023,0.098943,0.856727,0.000000,0.635831,0.033264,0.000000,1.000000,0.000000,0.948412,0.000000,0.087768,0.264415,0.895371,1.000000,0.289905,2.000000
8,0.000023,0.098943,0.856727,0.000000,0.635831,0.033264,0.000000,1.000000,0.000000,0.948412,0.000000,0.087768,0.264415,0.895371,1.000000,0.289905,2.000000
9,0.000019,0.296590,0.953927,0.203140,0.481741,0.133053,0.039098,0.627747,0.000000,0.975207,0.000899,0.009610,0.402253,1.000000,0.943354,0.000000,0.000000
10,0.000001,0.499930,0.837603,0.088569,0.553421,0.117423,0.234769,0.912407,0.000000,1.000000,0.000000,0.353268,0.165434,0.887454,0.904794,0.146383,0.000000
gen, fitness
0,0.067934,0.000000,1.000000,0.210000,0.800000,0.030000,0.030000,1.000000,0.000000,1.000000,0.000000,0.000000,0.600000,1.000000,1.000000,0.000000,0.000000
1,0.067934,0.000000,1.000000,0.210000,0.800000,0.030000,0.030000,1.000000,0.000000,1.000000,0.000000,0.000000,0.600000,1.000000,1.000000,0.000000,0.000000
2,0.033898,0.181208,1.000000,0.109525,0.668492,0.000000,0.086878,0.986211,1.000000,1.000000,0.087966,0.000000,0.424257,1.000000,0.930896,0.023509,2.000000
3,0.021710,0.000000,1.000000,0.021582,0.565038,0.203615,0.000738,0.977526,0.000000,0.822338,0.000000,0.000000,0.365517,0.856178,1.000000,0.043573,0.000000
4,0.012487,0.177189,0.966990,0.051680,0.457796,0.125128,0.129621,0.924109,2.000000,1.000000,0.162792,0.000000,0.277620,0.923002,0.827656,0.167055,0.000000
5,0.004292,0.415568,0.883821,0.000000,0.316489,0.000000,0.089153,1.000000,1.000000,0.989496,0.000000,0.000000,0.203433,0.929588,0.984599,0.098579,0.000000
6,0.001007,0.439007,0.965954,0.000000,0.381104,0.070106,0.142528,1.000000,0.000000,0.966987,0.127964,0.032871,0.019030,1.000000,0.862553,0.202556,1.000000
7,0.001007,0.439007,0.965954,0.000000,0.381104,0.070106,0.142528,1.000000,0.000000,0.966987,0.127964,0.032871,0.019030,1.000000,0.862553,0.202556,1.000000
8,0.000150,0.574293,0.892063,0.002307,0.282081,0.063196,0.000000,0.964558,0.000000,1.000000,0.171516,0.000000,0.028121,0.749791,1.000000,0.000000,2.000000
9,0.000048,0.640055,1.000000,0.000000,0.237826,0.073496,0.194259,0.691577,2.000000,0.872487,0.225446,0.006892,0.052767,1.000000,0.745535,0.162633,0.000000
10,0.000048,0.640055,1.000000,0.000000,0.237826,0.073496,0.194259,0.691577,2.000000,0.872487,0.225446,0.006892,0.052767,1.000000,0.745535,0.162633,0.000000
11,0.000010,0.511983,0.536455,0.000000,0.257472,0.200639,0.094188,0.758358,0.000000,0.865356,0.432466,0.000000,0.008537,0.839760,1.000000,0.271439,1.000000
12,0.000008,0.565403,0.615527,0.036795,0.234243,0.000000,0.360193,0.897925,2.000000,1.000000,0.186561,0.000000,0.000000,0.885931,0.665534,0.298318,1.000000
13,0.000002,0.466359,1.000000,0.091951,0.226303,0.386069,0.012197,0.596220,0.000000,0.970346,0.179944,0.010306,0.000000,1.000000,0.889510,0.057874,1.000000
14,0.000002,0.466359,1.000000,0.091951,0.226303,0.386069,0.012197,0.596220,0.000000,0.970346,0.179944,0.010306,0.000000,1.000000,0.889510,0.057874,1.000000
15,0.000002,0.466359,1.000000,0.091951,0.226303,0.386069,0.012197,0.596220,0.000000,0.970346,0.179944,0.010306,0.000000,1.000000,0.889510,0.057874,1.000000
16,0.000002,0.466359,1.000000,0.091951,0.226303,0.386069,0.012197,0.596220,0.000000,0.970346,0.179944,0.010306,0.000000,1.000000,0.889510,0.057874,1.000000
17,0.000002,0.466359,1.000000,0.091951,0.226303,0.386069,0.012197,0.596220,0.000000,0.970346,0.179944,0.010306,0.000000,1.000000,0.889510,0.057874,1.000000
18,0.000002,0.466359,1.000000,0.091951,0.226303,0.386069,0.012197,0.596220,0.000000,0.970346,0.179944,0.010306,0.000000,1.000000,0.889510,0.057874,1.000000
19,0.000002,0.466359,1.000000,0.091951,0.226303,0.386069,0.012197,0.596220,0.000000,0.970346,0.179944,0.010306,0.000000,1.000000,0.889510,0.057874,1.000000
20,0.000001,0.509297,0.659860,0.000000,0.201175,0.000000,0.316385,0.824869,2.000000,0.775462,0.141941,0.000000,0.000000,0.975623,0.712653,0.278230,1.000000
gen, fitness
0,0.030614,0.000000,1.000000,0.210000,0.800000,0.030000,0.030000,1.000000,0.000000,1.000000,0.000000,0.000000,0.600000,1.000000,1.000000,0.000000,0.000000
1,0.030614,0.000000,1.000000,0.210000,0.800000,0.030000,0.030000,1.000000,0.000000,1.000000,0.000000,0.000000,0.600000,1.000000,1.000000,0.000000,0.000000
2,0.013010,0.000000,1.000000,0.009958,0.683759,0.121496,0.094036,1.000000,1.000000,1.000000,0.162121,0.047668,0.492660,0.990615,1.000000,0.031015,2.000000
3,0.006667,0.075430,1.000000,0.361774,0.417076,0.226375,0.246353,0.785378,0.000000,0.928095,0.137977,0.000000,0.325502,1.000000,0.917960,0.000000,1.000000
4,0.003773,0.037927,1.000000,0.214362,0.374838,0.137079,0.399817,0.754977,2.000000,0.848375,0.075019,0.000000,0.309034,0.988347,0.889644,0.127088,2.000000
5,0.001148,0.074746,0.974748,0.067861,0.443927,0.135913,0.183012,0.524256,1.000000,0.729126,0.297610,0.000000,0.205726,1.000000,0.991502,0.141199,2.000000
6,0.000501,0.000000,1.000000,0.166283,0.331420,0.390594,0.345515,0.667072,0.000000,0.817698,0.206910,0.022296,0.079732,0.938993,1.000000,0.055376,2.000000
7,0.000069,0.132722,1.000000,0.116832,0.293545,0.020363,0.031405,0.367279,2.000000,0.758225,0.266390,0.000000,0.061255,0.969996,1.000000,0.117371,1.000000
8,0.000069,0.132722,1.000000,0.116832,0.293545,0.020363,0.031405,0.367279,2.000000,0.758225,0.266390,0.000000,0.061255,0.969996,1.000000,0.117371,1.000000
9,0.000018,0.208937,0.968535,0.000000,0.366288,0.216025,0.222146,0.586716,1.000000,0.752053,0.192867,0.087693,0.005806,0.988580,1.000000,0.088572,0.000000
10,0.000006,0.000000,0.674690,0.142819,0.176707,0.263298,0.635482,1.000000,0.000000,0.732174,0.000000,0.000000,0.000000,1.000000,0.958300,0.000000,0.000000
11,0.000006,0.000000,0.674690,0.142819,0.176707,0.263298,0.635482,1.000000,0.000000,0.732174,0.000000,0.000000,0.000000,1.000000,0.958300,0.000000,0.000000
12,0.000006,0.000000,0.674690,0.142819,0.176707,0.263298,0.635482,1.000000,0.000000,0.732174,0.000000,0.000000,0.000000,1.000000,0.958300,0.000000,0.000000
13,0.000002,0.020900,0.764636,0.057986,0.281835,0.213285,0.649687,1.000000,2.000000,0.783430,0.000000,0.000000,0.000000,0.957728,0.917645,0.000000,2.000000
14,0.000002,0.020900,0.764636,0.057986,0.281835,0.213285,0.649687,1.000000,2.000000,0.783430,0.000000,0.000000,0.000000,0.957728,0.917645,0.000000,2.000000
15,0.000002,0.020900,0.764636,0.057986,0.281835,0.213285,0.649687,1.000000,2.000000,0.783430,0.000000,0.000000,0.000000,0.957728,0.917645,0.000000,2.000000
16,0.000002,0.020900,0.764636,0.057986,0.281835,0.213285,0.649687,1.000000,2.000000,0.783430,0.000000,0.000000,0.000000,0.957728,0.917645,0.000000,2.000000
17,0.000002,0.020900,0.764636,0.057986,0.281835,0.213285,0.649687,1.000000,2.000000,0.783430,0.000000,0.000000,0.000000,0.957728,0.917645,0.000000,2.000000
18,0.000002,0.020900,0.764636,0.057986,0.281835,0.213285,0.649687,1.000000,2.000000,0.783430,0.000000,0.000000,0.000000,0.957728,0.917645,0.000000,2.000000
19,0.000002,0.020900,0.764636,0.057986,0.281835,0.213285,0.649687,1.000000,2.000000,0.783430,0.000000,0.000000,0.000000,0.957728,0.917645,0.000000,2.000000
20,0.000002,0.020900,0.764636,0.057986,0.281835,0.213285,0.649687,1.000000,2.000000,0.783430,0.000000,0.000000,0.000000,0.957728,0.917645,0.000000,2.000000
gen, fitness
0,0.009712,0.000000,1.000000,0.210000,0.800000,0.030000,0.030000,1.000000,0.000000,1.000000,0.000000,0.000000,0.600000,1.000000,1.000000,0.000000,0.000000
1,0.009712,0.000000,1.000000,0.210000,0.800000,0.030000,0.030000,1.000000,0.000000,1.000000,0.000000,0.000000,0.600000,1.000000,1.000000,0.000000,0.000000
2,0.000490,0.057047,0.898280,0.170418,0.718973,0.000000,0.108504,0.967009,1.000000,0.960890,0.000000,0.017592,0.603283,0.845807,0.831479,0.107303,2.000000
3,0.000409,0.098963,1.000000,0.187371,0.553350,0.138753,0.241209,0.769400,0.000000,0.938109,0.000000,0.000000,0.490914,0.863957,1.000000,0.183864,0.000000
4,0.000036,0.000000,0.907780,0.061293,0.746644,0.046124,0.000000,0.900711,0.000000,1.000000,0.197952,0.217032,0.391869,0.876069,0.912191,0.381012,1.000000
5,0.000036,0.000000,0.907780,0.061293,0.746644,0.046124,0.000000,0.900711,0.000000,1.000000,0.197952,0.217032,0.391869,0.876069,0.912191,0.381012,1.000000
6,0.000025,0.050208,0.988544,0.110140,0.718773,0.021997,0.074290,0.773967,0.000000,1.000000,0.342033,0.006219,0.563317,0.934914,0.863645,0.074532,0.000000
7,0.000025,0.050208,0.988544,0.110140,0.718773,0.021997,0.074290,0.773967,0.000000,1.000000,0.342033,0.006219,0.563317,0.934914,0.863645,0.074532,0.000000
8,0.000001,0.092101,0.880196,0.000000,0.698711,0.204507,0.005404,0.851531,1.000000,0.768060,0.282834,0.082058,0.478900,1.000000,0.938401,0.361493,1.000000
gen, fitness
0,0.026348,0.000000,1.000000,0.210000,0.800000,0.030000,0.030000,1.000000,0.000000,1.000000,0.000000,0.000000,0.600000,1.000000,1.000000,0.000000,0.000000
1,0.026348,0.000000,1.000000,0.210000,0.800000,0.030000,0.030000,1.000000,0.000000,1.000000,0.000000,0.000000,0.600000,1.000000,1.000000,0.000000,0.000000
2,0.011514,0.000000,1.000000,0.128952,0.702900,0.108635,0.121130,1.000000,1.000000,0.861479,0.000000,0.000000,0.544318,0.970984,1.000000,0.092981,1.000000
3,0.001321,0.041493,0.974708,0.004927,0.641369,0.000000,0.000000,0.803006,0.000000,0.977758,0.000000,0.000000,0.331611,1.000000,0.917915,0.057457,0.000000
4,0.001321,0.041493,0.974708,0.004927,0.641369,0.000000,0.000000,0.803006,0.000000,0.977758,0.000000,0.000000,0.331611,1.000000,0.917915,0.057457,0.000000
5,0.000459,0.000000,0.846495,0.165451,0.387664,0.000000,0.121150,0.717528,2.000000,1.000000,0.066259,0.000000,0.178888,1.000000,0.840439,0.000000,2.000000
6,0.000370,0.000000,1.000000,0.000000,0.597144,0.092278,0.000756,0.805510,2.000000,1.000000,0.045888,0.000000,0.158861,1.000000,0.850782,0.221998,2.000000
7,0.000129,0.181700,0.716242,0.000000,0.503991,0.102142,0.112574,0.747954,1.000000,0.819466,0.000000,0.098970,0.135956,0.999198,0.596529,0.334138,0.000000
8,0.000129,0.181700,0.716242,0.000000,0.503991,0.102142,0.112574,0.747954,1.000000,0.819466,0.000000,0.098970,0.135956,0.999198,0.596529,0.334138,0.000000
9,0.000048,0.000000,1.000000,0.366427,0.181068,0.086063,0.029113,0.858741,1.000000,1.000000,0.284649,0.007857,0.118180,0.950567,0.874707,0.017846,2.000000
10,0.000048,0.000000,1.000000,0.366427,0.181068,0.086063,0.029113,0.858741,1.000000,1.000000,0.284649,0.007857,0.118180,0.950567,0.874707,0.017846,2.000000
11,0.000024,0.191588,1.000000,0.025298,0.435422,0.000000,0.720021,0.966349,0.000000,0.836815,0.180866,0.144930,0.047375,1.000000,0.907541,0.000000,1.000000
12,0.000024,0.191588,1.000000,0.025298,0.435422,0.000000,0.720021,0.966349,0.000000,0.836815,0.180866,0.144930,0.047375,1.000000,0.907541,0.000000,1.000000
13,0.000024,0.191588,1.000000,0.025298,0.435422,0.000000,0.720021,0.966349,0.000000,0.836815,0.180866,0.144930,0.047375,1.000000,0.907541,0.000000,1.000000
14,0.000024,0.191588,1.000000,0.025298,0.435422,0.000000,0.720021,0.966349,0.000000,0.836815,0.180866,0.144930,0.047375,1.000000,0.907541,0.000000,1.000000
15,0.000024,0.191588,1.000000,0.025298,0.435422,0.000000,0.720021,0.966349,0.000000,0.836815,0.180866,0.144930,0.047375,1.000000,0.907541,0.000000,1.000000
16,0.000012,0.057124,0.346057,0.186638,0.366668,0.261293,0.064263,0.674998,1.000000,0.894134,0.177596,0.080137,0.000000,0.818415,0.894086,0.607583,2.000000
17,0.000012,0.057124,0.346057,0.186638,0.366668,0.261293,0.064263,0.674998,1.000000,0.894134,0.177596,0.080137,0.000000,0.818415,0.894086,0.607583,2.000000
18,0.000012,0.057124,0.346057,0.186638,0.366668,0.261293,0.064263,0.674998,1.000000,0.894134,0.177596,0.080137,0.000000,0.818415,0.894086,0.607583,2.000000
19,0.000012,0.057124,0.346057,0.186638,0.366668,0.261293,0.064263,0.674998,1.000000,0.894134,0.177596,0.080137,0.000000,0.818415,0.894086,0.607583,2.000000
20,0.000012,0.057124,0.346057,0.186638,0.366668,0.261293,0.064263,0.674998,1.000000,0.894134,0.177596,0.080137,0.000000,0.818415,0.894086,0.607583,2.000000
21,0.000012,0.057124,0.346057,0.186638,0.366668,0.261293,0.064263,0.674998,1.000000,0.894134,0.177596,0.080137,0.000000,0.818415,0.894086,0.607583,2.000000
22,0.000012,0.057124,0.346057,0.186638,0.366668,0.261293,0.064263,0.674998,1.000000,0.894134,0.177596,0.080137,0.000000,0.818415,0.894086,0.607583,2.000000
23,0.000011,0.075557,0.560250,0.000000,0.507850,0.335340,0.138693,0.776625,0.000000,0.810625,0.396962,0.102389,0.014091,0.793939,1.000000,0.545936,1.000000
24,0.000011,0.075557,0.560250,0.000000,0.507850,0.335340,0.138693,0.776625,0.000000,0.810625,0.396962,0.102389,0.014091,0.793939,1.000000,0.545936,1.000000
25,0.000001,0.167202,0.979002,0.194194,0.229956,0.025585,0.846715,0.973301,2.000000,0.703532,0.192094,0.175127,0.000000,0.928192,1.000000,0.085551,2.000000
gen, fitness
0,0.052335,0.000000,1.000000,0.210000,0.800000,0.030000,0.030000,1.000000,0.000000,1.000000,0.000000,0.000000,0.600000,1.000000,1.000000,0.000000,0.000000
1,0.052335,0.000000,1.000000,0.210000,0.800000,0.030000,0.030000,1.000000,0.000000,1.000000,0.000000,0.000000,0.600000,1.000000,1.000000,0.000000,0.000000
2,0.018543,0.102640,0.946161,0.232295,0.576262,0.000000,0.087512,1.000000,1.000000,1.000000,0.024851,0.000000,0.463567,0.945520,1.000000,0.000000,1.000000
3,0.010982,0.000000,0.852455,0.062879,0.573985,0.000000,0.219285,1.000000,0.000000,0.828904,0.043963,0.005196,0.327117,0.943800,1.000000,0.151057,1.000000
4,0.010090,0.094552,0.999312,0.000000,0.535770,0.271145,0.331383,0.987148,2.000000,0.834122,0.000000,0.174787,0.214681,0.860394,0.647575,0.000935,1.000000
5,0.004359,0.129508,0.998341,0.000000,0.595767,0.371156,0.000000,0.781168,0.000000,1.000000,0.082155,0.000000,0.147054,0.843185,0.930192,0.270299,1.000000
6,0.000235,0.264997,1.000000,0.068225,0.356601,0.070762,0.006115,0.931709,0.000000,1.000000,0.367699,0.000000,0.081926,0.721319,0.905206,0.043207,1.000000
7,0.000235,0.264997,1.000000,0.068225,0.356601,0.070762,0.006115,0.931709,0.000000,1.000000,0.367699,0.000000,0.081926,0.721319,0.905206,0.043207,1.000000
8,0.000029,0.290991,1.000000,0.000000,0.339038,0.441511,0.000000,0.743031,1.000000,0.896500,0.152990,0.000000,0.038367,0.864608,1.000000,0.000000,2.000000
9,0.000018,0.198024,1.000000,0.196605,0.124553,0.000000,0.031566,0.902890,2.000000,0.940160,0.322597,0.000000,0.000000,0.675451,1.000000,0.000000,0.000000
10,0.000011,0.384009,1.000000,0.000000,0.358240,0.209124,0.036463,0.930799,2.000000,1.000000,0.327863,0.000000,0.091981,0.568615,0.685812,0.000000,0.000000
11,0.000011,0.384009,1.000000,0.000000,0.358240,0.209124,0.036463,0.930799,2.000000,1.000000,0.327863,0.000000,0.091981,0.568615,0.685812,0.000000,0.000000
12,0.000011,0.384009,1.000000,0.000000,0.358240,0.209124,0.036463,0.930799,2.000000,1.000000,0.327863,0.000000,0.091981,0.568615,0.685812,0.000000,0.000000
13,0.000009,0.274526,1.000000,0.242007,0.116784,0.000000,0.046822,0.710058,1.000000,1.000000,0.375538,0.000000,0.000000,0.950115,1.000000,0.065251,1.000000
14,0.000009,0.274526,1.000000,0.242007,0.116784,0.000000,0.046822,0.710058,1.000000,1.000000,0.375538,0.000000,0.000000,0.950115,1.000000,0.065251,1.000000
15,0.000009,0.274526,1.000000,0.242007,0.116784,0.000000,0.046822,0.710058,1.000000,1.000000,0.375538,0.000000,0.000000,0.950115,1.000000,0.065251,1.000000
16,0.000009,0.274526,1.000000,0.242007,0.116784,0.000000,0.046822,0.710058,1.000000,1.000000,0.375538,0.000000,0.000000,0.950115,1.000000,0.065251,1.000000
17,0.000009,0.274526,1.000000,0.242007,0.116784,0.000000,0.046822,0.710058,1.000000,1.000000,0.375538,0.000000,0.000000,0.950115,1.000000,0.065251,1.000000
18,0.000009,0.274526,1.000000,0.242007,0.116784,0.000000,0.046822,0.710058,1.000000,1.000000,0.375538,0.000000,0.000000,0.950115,1.000000,0.065251,1.000000
19,0.000003,0.362847,0.697333,0.221509,0.000000,0.000000,0.316557,0.872995,1.000000,0.743274,0.223804,0.000000,0.074993,0.890944,1.000000,0.000000,0.000000
gen, fitness
0,0.080636,0.000000,1.000000,0.210000,0.800000,0.030000,0.030000,1.000000,0.000000,1.000000,0.000000,0.000000,0.600000,1.000000,1.000000,0.000000,0.000000
1,0.080636,0.000000,1.000000,0.210000,0.800000,0.030000,0.030000,1.000000,0.000000,1.000000,0.000000,0.000000,0.600000,1.000000,1.000000,0.000000,0.000000
2,0.035967,0.000000,1.000000,0.000000,0.703380,0.000000,0.180694,1.000000,1.000000,1.000000,0.056259,0.000000,0.420912,0.998185,1.000000,0.000000,2.000000
3,0.025091,0.145285,1.000000,0.000000,0.521890,0.000000,0.259396,0.998573,1.000000,1.000000,0.000000,0.010848,0.405853,0.825676,0.830187,0.080986,2.000000
4,0.016883,0.260645,0.927607,0.000000,0.564211,0.000000,0.203011,0.711837,2.000000,0.966438,0.000000,0.000000,0.220207,0.803543,0.799871,0.277647,1.000000
5,0.011988,0.075199,0.840514,0.000000,0.479407,0.002480,0.000000,1.000000,0.000000,1.000000,0.000000,0.000000,0.224461,0.963137,0.765876,0.000000,1.000000
6,0.011400,0.078731,0.741731,0.000000,0.478625,0.000000,0.016245,1.000000,1.000000,1.000000,0.142823,0.006327,0.184774,1.000000,0.764701,0.063653,2.000000
7,0.005714,0.207698,0.997423,0.136717,0.000352,0.321852,0.274059,0.909935,1.000000,0.816311,0.013051,0.010659,0.111542,0.864267,1.000000,0.000000,2.000000
8,0.004569,0.560907,1.000000,0.000000,0.221833,0.000000,0.000000,0.995443,1.000000,0.758244,0.304518,0.000000,0.025828,1.000000,0.540301,0.000000,1.000000
9,0.003407,0.158155,1.000000,0.024018,0.245240,0.057004,0.025791,0.754095,1.000000,0.983822,0.000000,0.000000,0.055767,0.963675,0.684191,0.000000,0.000000
10,0.000857,0.621362,0.806597,0.070624,0.170299,0.573619,0.063763,0.741097,2.000000,1.000000,0.218614,0.000000,0.000000,1.000000,0.208898,0.298262,0.000000
11,0.000443,0.575748,1.000000,0.000000,0.098204,0.000000,0.083811,1.000000,1.000000,0.922997,0.289120,0.000416,0.060439,0.974262,0.973353,0.000000,1.000000
12,0.000126,0.641365,0.698619,0.000000,0.163474,0.423844,0.133587,0.840634,1.000000,0.958010,0.147694,0.009386,0.075025,0.748068,0.754776,0.140291,2.000000
13,0.000015,0.623874,0.705547,0.037112,0.033066,0.737856,0.007704,0.630802,1.000000,0.749415,0.000000,0.063207,0.000000,0.665080,0.597843,0.009983,2.000000
14,0.000013,0.531438,0.717546,0.107372,0.041908,0.460030,0.000000,1.000000,0.000000,1.000000,0.056752,0.000000,0.000000,0.679026,1.000000,0.033626,1.000000
15,0.000009,0.550148,0.418970,0.000000,0.090020,0.468676,0.000000,0.730938,0.000000,0.734831,0.000000,0.000000,0.037138,0.741518,0.230466,0.144801,1.000000
16,0.000007,0.511212,0.682123,0.078639,0.095153,0.267629,0.000000,0.856205,2.000000,1.000000,0.085463,0.000000,0.000000,0.887495,0.788834,0.000000,0.000000
17,0.000007,0.511212,0.682123,0.078639,0.095153,0.267629,0.000000,0.856205,2.000000,1.000000,0.085463,0.000000,0.000000,0.887495,0.788834,0.000000,0.000000
18,0.000007,0.511212,0.682123,0.078639,0.095153,0.267629,0.000000,0.856205,2.000000,1.000000,0.085463,0.000000,0.000000,0.887495,0.788834,0.000000,0.000000
19,0.000007,0.511212,0.682123,0.078639,0.095153,0.267629,0.000000,0.856205,2.000000,1.000000,0.085463,0.000000,0.000000,0.887495,0.788834,0.000000,0.000000
20,0.000007,0.511212,0.682123,0.078639,0.095153,0.267629,0.000000,0.856205,2.000000,1.000000,0.085463,0.000000,0.000000,0.887495,0.788834,0.000000,0.000000
21,0.000007,0.511212,0.682123,0.078639,0.095153,0.267629,0.000000,0.856205,2.000000,1.000000,0.085463,0.000000,0.000000,0.887495,0.788834,0.000000,0.000000
22,0.000000,0.861715,0.467996,0.000000,0.065744,0.405720,0.000000,0.709477,0.000000,0.712154,0.081344,0.172698,0.000000,1.000000,0.208845,0.000000,0.000000
gen, fitness
0,0.025383,0.000000,1.000000,0.210000,0.800000,0.030000,0.030000,1.000000,0.000000,1.000000,0.000000,0.000000,0.600000,1.000000,1.000000,0.000000,0.000000
1,0.025383,0.000000,1.000000,0.210000,0.800000,0.030000,0.030000,1.000000,0.000000,1.000000,0.000000,0.000000,0.600000,1.000000,1.000000,0.000000,0.000000
2,0.006342,0.000000,0.955509,0.045747,0.655457,0.000000,0.000000,0.984527,1.000000,0.815788,0.193299,0.000000,0.466259,0.995197,0.950502,0.000753,1.000000
3,0.004274,0.139857,1.000000,0.042405,0.632902,0.307561,0.031864,0.661683,0.000000,0.857574,0.123435,0.008951,0.329711,0.829241,0.898331,0.174991,2.000000
4,0.003115,0.064625,1.000000,0.000000,0.640019,0.221522,0.033855,0.657853,2.000000,0.919200,0.108886,0.079481,0.224249,0.883940,1.000000,0.133802,1.000000
5,0.000463,0.152602,0.775934,0.030413,0.448497,0.150096,0.053882,0.794160,0.000000,1.000000,0.041379,0.000000,0.187497,0.945346,0.908223,0.033694,2.000000
6,0.000069,0.486212,0.947913,0.000000,0.469351,0.249626,0.093403,0.944182,1.000000,0.989882,0.178216,0.042958,0.243273,0.881347,0.638069,0.000000,2.000000
7,0.000010,0.246259,0.815318,0.000000,0.464654,0.000000,0.015498,0.794326,2.000000,0.980042,0.000000,0.000000,0.184485,0.926438,0.922276,0.075318,0.000000
8,0.000010,0.246259,0.815318,0.000000,0.464654,0.000000,0.015498,0.794326,2.000000,0.980042,0.000000,0.000000,0.184485,0.926438,0.922276,0.075318,0.000000
9,0.000010,0.246259,0.815318,0.000000,0.464654,0.000000,0.015498,0.794326,2.000000,0.980042,0.000000,0.000000,0.184485,0.926438,0.922276,0.075318,0.000000
10,0.000010,0.000000,0.919023,0.054398,0.433073,0.331572,0.041594,0.678546,1.000000,0.917207,0.132597,0.000000,0.058664,0.856759,1.000000,0.167219,0.000000
11,0.000010,0.000000,0.919023,0.054398,0.433073,0.331572,0.041594,0.678546,1.000000,0.917207,0.132597,0.000000,0.058664,0.856759,1.000000,0.167219,0.000000
12,0.000010,0.000000,0.919023,0.054398,0.433073,0.331572,0.041594,0.678546,1.000000,0.917207,0.132597,0.000000,0.058664,0.856759,1.000000,0.167219,0.000000
13,0.000010,0.000000,0.919023,0.054398,0.433073,0.331572,0.041594,0.678546,1.000000,0.917207,0.132597,0.000000,0.058664,0.856759,1.000000,0.167219,0.000000
14,0.000010,0.000000,0.919023,0.054398,0.433073,0.331572,0.041594,0.678546,1.000000,0.917207,0.132597,0.000000,0.058664,0.856759,1.000000,0.167219,0.000000
15,0.000010,0.000000,0.919023,0.054398,0.433073,0.331572,0.041594,0.678546,1.000000,0.917207,0.132597,0.000000,0.058664,0.856759,1.000000,0.167219,0.000000
16,0.000010,0.000000,0.919023,0.054398,0.433073,0.331572,0.041594,0.678546,1.000000,0.917207,0.132597,0.000000,0.058664,0.856759,1.000000,0.167219,0.000000
17,0.000006,0.030694,0.600984,0.108100,0.406067,0.000000,0.216762,0.289942,2.000000,0.948820,0.149701,0.017383,0.013722,0.818376,0.681307,0.300376,0.000000
