gen, fitness
0,0.094016,0.000000,1.000000,0.210000,0.800000,0.030000,0.030000,1.000000,0.000000,1.000000,0.000000,0.000000,0.600000,1.000000,1.000000,0.000000,0.000000
1,0.094016,0.000000,1.000000,0.210000,0.800000,0.030000,0.030000,1.000000,0.000000,1.000000,0.000000,0.000000,0.600000,1.000000,1.000000,0.000000,0.000000
2,0.066161,0.000000,0.903844,0.210000,0.681893,0.030000,0.030000,1.000000,0.000000,1.000000,0.000000,0.000000,0.600000,1.000000,1.000000,0.000000,0.000000
3,0.062077,0.000000,0.903844,0.181824,0.616215,0.030000,0.068503,0.994992,0.000000,1.000000,0.019792,0.000000,0.600000,1.000000,1.000000,0.000000,0.000000
4,0.048063,0.000000,0.903844,0.087082,0.616061,0.030000,0.068503,0.994992,0.000000,1.000000,0.019792,0.000000,0.512713,1.000000,1.000000,0.000000,0.000000
5,0.041627,0.000000,0.903844,0.044035,0.616061,0.030000,0.068503,0.994992,0.000000,1.000000,0.039145,0.000000,0.444510,1.000000,1.000000,0.026289,1.000000
6,0.041627,0.000000,0.903844,0.044035,0.616061,0.030000,0.068503,0.994992,0.000000,1.000000,0.039145,0.000000,0.444510,1.000000,1.000000,0.026289,1.000000
7,0.034412,0.000000,0.903844,0.000000,0.601316,0.030000,0.068503,0.973986,0.000000,0.955963,0.021708,0.000000,0.360538,1.000000,0.801770,0.000000,0.000000
8,0.033494,0.077745,0.903844,0.000000,0.616061,0.022723,0.092077,0.994992,0.000000,0.929251,0.039145,0.031076,0.213434,1.000000,0.864889,0.179598,1.000000
9,0.021784,0.120760,0.903844,0.000000,0.328835,0.000000,0.068503,0.936126,0.000000,1.000000,0.000000,0.018376,0.230301,1.000000,0.801770,0.000000,0.000000
10,0.014632,0.323869,0.929531,0.000000,0.328835,0.000000,0.068503,0.936126,0.000000,1.000000,0.000000,0.020259,0.230301,1.000000,0.801770,0.000000,0.000000
11,0.012103,0.429002,1.000000,0.000000,0.328835,0.000000,0.068503,0.936126,0.000000,0.856538,0.000000,0.008145,0.186054,1.000000,0.801770,0.000000,0.000000
12,0.007938,0.429002,0.872334,0.000000,0.198273,0.000000,0.068503,0.936126,0.000000,0.856538,0.000000,0.008145,0.178253,1.000000,0.801770,0.000000,2.000000
13,0.006731,0.429002,1.000000,0.000000,0.266602,0.000000,0.068503,0.935195,0.000000,1.000000,0.003834,0.008145,0.136386,1.000000,0.801770,0.000000,2.000000
14,0.004988,0.429002,1.000000,0.000000,0.076709,0.000000,0.068503,0.935195,0.000000,1.000000,0.123084,0.008145,0.075187,1.000000,0.801770,0.000000,2.000000
15,0.003768,0.483840,1.000000,0.000000,0.076709,0.000000,0.068503,0.935195,0.000000,1.000000,0.123084,0.008145,0.075187,1.000000,0.801770,0.000000,2.000000
16,0.001464,0.483840,1.000000,0.000000,0.076709,0.000000,0.008420,0.935195,0.000000,1.000000,0.123084,0.000000,0.007966,1.000000,0.801770,0.000000,1.000000
17,0.001464,0.483840,1.000000,0.000000,0.076709,0.000000,0.008420,0.935195,0.000000,1.000000,0.123084,0.000000,0.007966,1.000000,0.801770,0.000000,1.000000
18,0.000700,0.625907,1.000000,0.000000,0.013750,0.000000,0.068503,0.935195,2.000000,0.856538,0.003834,0.000000,0.000000,0.979969,0.801770,0.283533,0.000000
19,0.000504,0.660609,1.000000,0.000000,0.076709,0.008924,0.208198,0.983486,0.000000,1.000000,0.123084,0.008145,0.002198,1.000000,0.801770,0.083626,2.000000
20,0.000235,0.739436,1.000000,0.000000,0.013750,0.000000,0.068503,0.699291,0.000000,0.856538,0.000000,0.000000,0.000000,0.979969,0.801770,0.283533,0.000000
21,0.000006,0.783228,1.000000,0.000000,0.000000,0.055329,0.068503,0.794625,1.000000,1.000000,0.000000,0.000000,0.000000,1.000000,0.791638,0.000000,1.000000
22,0.000002,0.783228,1.000000,0.000000,0.000000,0.085328,0.108859,0.742426,1.000000,1.000000,0.000000,0.000000,0.000000,1.000000,0.771656,0.000000,1.000000
23,0.000001,0.783228,1.000000,0.000000,0.000000,0.080578,0.068503,0.794625,1.000000,1.000000,0.000000,0.000000,0.000000,1.000000,0.791638,0.034821,1.000000
gen, fitness
0,0.011444,0.000000,1.000000,0.210000,0.800000,0.030000,0.030000,1.000000,0.000000,1.000000,0.000000,0.000000,0.600000,1.000000,1.000000,0.000000,0.000000
1,0.011444,0.000000,1.000000,0.210000,0.800000,0.030000,0.030000,1.000000,0.000000,1.000000,0.000000,0.000000,0.600000,1.000000,1.000000,0.000000,0.000000
2,0.003814,0.000000,1.000000,0.157210,0.683478,0.030000,0.000000,1.000000,1.000000,1.000000,0.000000,0.000000,0.427611,1.000000,1.000000,0.000000,0.000000
3,0.001478,0.000000,1.000000,0.039333,0.683478,0.030000,0.000000,1.000000,1.000000,1.000000,0.000000,0.000000,0.348921,1.000000,1.000000,0.015187,0.000000
4,0.001478,0.000000,1.000000,0.039333,0.683478,0.030000,0.000000,1.000000,1.000000,1.000000,0.000000,0.000000,0.348921,1.000000,1.000000,0.015187,0.000000
5,0.000954,0.000000,1.000000,0.039333,0.659089,0.000000,0.000000,1.000000,1.000000,1.000000,0.000000,0.000000,0.348921,1.000000,1.000000,0.000000,0.000000
6,0.000906,0.000000,0.881512,0.000000,0.683478,0.000000,0.000000,1.000000,1.000000,1.000000,0.000000,0.000000,0.307834,1.000000,1.000000,0.156168,0.000000
7,0.000767,0.000000,1.000000,0.039333,0.593794,0.024639,0.165102,0.917943,0.000000,0.908959,0.000000,0.000000,0.316858,1.000000,0.871239,0.077952,0.000000
8,0.000304,0.000000,0.804668,0.001908,0.631254,0.000000,0.000000,1.000000,1.000000,1.000000,0.000000,0.000000,0.272463,0.872929,0.893661,0.000000,1.000000
9,0.000274,0.000000,0.804668,0.001908,0.631254,0.000000,0.000000,1.000000,0.000000,1.000000,0.000000,0.000000,0.272463,0.872929,0.893661,0.000000,1.000000
10,0.000063,0.137308,0.914695,0.039333,0.566194,0.262264,0.000000,0.894188,0.000000,1.000000,0.070618,0.000000,0.271684,1.000000,0.936672,0.015187,0.000000
11,0.000060,0.137308,0.914695,0.039333,0.566194,0.262264,0.000000,0.894188,0.000000,1.000000,0.070618,0.000000,0.271684,0.845152,0.936672,0.000000,0.000000
12,0.000060,0.137308,0.914695,0.039333,0.566194,0.262264,0.000000,0.894188,0.000000,1.000000,0.070618,0.000000,0.271684,0.845152,0.936672,0.000000,0.000000
13,0.000055,0.137308,0.906915,0.039333,0.551755,0.262264,0.000000,0.854183,0.000000,0.927226,0.070618,0.000000,0.271684,1.000000,0.936672,0.015187,1.000000
14,0.000019,0.198488,1.000000,0.005091,0.573062,0.024639,0.165102,1.000000,0.000000,1.000000,0.070618,0.000000,0.271684,0.733920,0.893661,0.000000,1.000000
15,0.000019,0.198488,1.000000,0.005091,0.573062,0.024639,0.165102,1.000000,0.000000,1.000000,0.070618,0.000000,0.271684,0.733920,0.893661,0.000000,1.000000
16,0.000001,0.040503,0.881512,0.000493,0.564231,0.000000,0.089403,1.000000,2.000000,1.000000,0.000000,0.076004,0.094374,1.000000,0.890169,0.027344,2.000000
17,0.000001,0.040503,0.881512,0.000493,0.564231,0.000000,0.045350,1.000000,2.000000,1.000000,0.000000,0.076004,0.094374,1.000000,0.961359,0.027344,2.000000
18,0.000001,0.040503,0.881512,0.000493,0.564231,0.000000,0.045350,1.000000,2.000000,1.000000,0.000000,0.076004,0.094374,1.000000,0.961359,0.027344,2.000000
19,0.000001,0.040503,0.881512,0.000493,0.564231,0.000000,0.045350,0.907461,2.000000,1.000000,0.000000,0.076004,0.094374,1.000000,0.961359,0.027344,1.000000
gen, fitness
0,0.010533,0.000000,1.000000,0.210000,0.800000,0.030000,0.030000,1.000000,0.000000,1.000000,0.000000,0.000000,0.600000,1.000000,1.000000,0.000000,0.000000
1,0.010533,0.000000,1.000000,0.210000,0.800000,0.030000,0.030000,1.000000,0.000000,1.000000,0.000000,0.000000,0.600000,1.000000,1.000000,0.000000,0.000000
2,0.002072,0.000000,1.000000,0.210000,0.694847,0.030000,0.030000,1.000000,0.000000,1.000000,0.061073,0.000000,0.600000,0.997468,1.000000,0.000000,0.000000
3,0.000715,0.000000,1.000000,0.139229,0.608010,0.030000,0.069437,1.000000,0.000000,1.000000,0.026055,0.000000,0.443641,1.000000,1.000000,0.000000,2.000000
4,0.000642,0.000000,1.000000,0.139229,0.643917,0.030000,0.091597,1.000000,0.000000,0.949340,0.026055,0.000000,0.443641,1.000000,1.000000,0.000000,2.000000
5,0.000032,0.000000,1.000000,0.139229,0.545372,0.232882,0.069437,1.000000,2.000000,1.000000,0.077527,0.000000,0.314749,1.000000,1.000000,0.006408,1.000000
6,0.000003,0.000000,0.845474,0.139229,0.545372,0.232882,0.069437,1.000000,0.000000,1.000000,0.077527,0.000000,0.314749,1.000000,1.000000,0.006408,1.000000
7,0.000003,0.000000,0.845474,0.139229,0.545372,0.232882,0.069437,1.000000,0.000000,1.000000,0.077527,0.000000,0.314749,1.000000,1.000000,0.006408,1.000000
8,0.000003,0.000000,1.000000,0.139229,0.545372,0.140629,0.069437,1.000000,0.000000,1.000000,0.077527,0.000000,0.314749,1.000000,0.868186,0.006408,1.000000
9,0.000001,0.000000,1.000000,0.124117,0.545372,0.209886,0.069437,0.815161,2.000000,0.977914,0.077527,0.000000,0.307266,0.885172,1.000000,0.015331,0.000000
10,0.000001,0.000000,1.000000,0.124117,0.545372,0.209886,0.069437,0.815161,2.000000,0.977914,0.077527,0.000000,0.307266,0.885172,1.000000,0.015331,0.000000
11,0.000001,0.000000,1.000000,0.124117,0.545372,0.209886,0.069437,0.815161,2.000000,0.977914,0.077527,0.000000,0.307266,0.885172,1.000000,0.015331,0.000000
12,0.000001,0.000000,1.000000,0.139229,0.545372,0.209886,0.069437,0.908570,0.000000,1.000000,0.077527,0.000000,0.307266,0.858768,0.933360,0.015331,0.000000
gen, fitness
0,0.067934,0.000000,1.000000,0.210000,0.800000,0.030000,0.030000,1.000000,0.000000,1.000000,0.000000,0.000000,0.600000,1.000000,1.000000,0.000000,0.000000
1,0.067934,0.000000,1.000000,0.210000,0.800000,0.030000,0.030000,1.000000,0.000000,1.000000,0.000000,0.000000,0.600000,1.000000,1.000000,0.000000,0.000000
2,0.048860,0.000000,1.000000,0.210000,0.666692,0.030000,0.030000,1.000000,0.000000,1.000000,0.000000,0.000000,0.600000,1.000000,1.000000,0.000000,0.000000
3,0.043395,0.000000,1.000000,0.210000,0.689774,0.030000,0.094420,0.863037,0.000000,1.000000,0.088668,0.000000,0.538900,1.000000,1.000000,0.000000,0.000000
4,0.036963,0.000000,0.986756,0.217401,0.617942,0.183726,0.117161,1.000000,0.000000,0.959467,0.000000,0.056280,0.436126,1.000000,1.000000,0.000000,1.000000
5,0.030403,0.081133,1.000000,0.210000,0.552828,0.129653,0.077970,0.863037,0.000000,1.000000,0.088668,0.000000,0.478334,1.000000,0.929160,0.000000,0.000000
6,0.027534,0.195543,1.000000,0.210000,0.552828,0.129653,0.077970,0.863037,0.000000,1.000000,0.088668,0.000000,0.478334,1.000000,0.929160,0.002239,0.000000
7,0.024158,0.081133,1.000000,0.210000,0.552828,0.129653,0.077970,0.863037,0.000000,1.000000,0.088668,0.000000,0.354553,1.000000,0.929160,0.000000,0.000000
8,0.019445,0.081133,1.000000,0.210000,0.407693,0.129653,0.077970,0.863037,0.000000,1.000000,0.088668,0.000000,0.354553,1.000000,0.929160,0.000000,0.000000
9,0.015852,0.195543,0.921895,0.041630,0.552828,0.092433,0.195429,0.789257,0.000000,1.000000,0.088668,0.000000,0.368446,1.000000,0.914824,0.002239,1.000000
10,0.006255,0.136262,1.000000,0.107260,0.407693,0.152640,0.077970,0.863037,1.000000,1.000000,0.088668,0.000000,0.143642,1.000000,0.946904,0.016865,0.000000
11,0.006207,0.136262,1.000000,0.107260,0.407693,0.184434,0.000000,0.863037,1.000000,1.000000,0.088668,0.000000,0.143642,1.000000,0.946904,0.016865,0.000000
12,0.004384,0.136262,1.000000,0.107260,0.407693,0.184434,0.000000,0.863037,0.000000,1.000000,0.076775,0.000000,0.040721,1.000000,0.946904,0.016865,0.000000
13,0.004022,0.136262,1.000000,0.087315,0.407693,0.184434,0.000000,0.863037,1.000000,1.000000,0.065436,0.000000,0.044801,1.000000,0.946904,0.097318,1.000000
14,0.000880,0.536072,0.994883,0.030976,0.353167,0.059152,0.077970,0.863037,1.000000,1.000000,0.088668,0.000000,0.143642,1.000000,0.946904,0.016865,0.000000
15,0.000615,0.536072,0.953761,0.120852,0.197437,0.129653,0.000000,0.863037,2.000000,0.971598,0.088668,0.000000,0.143642,1.000000,0.872443,0.016865,0.000000
16,0.000441,0.545370,0.975398,0.030976,0.323459,0.000000,0.077970,0.797180,1.000000,1.000000,0.035671,0.000000,0.143642,1.000000,0.946904,0.016865,0.000000
17,0.000185,0.579716,0.975398,0.000000,0.353167,0.059152,0.077970,0.748870,0.000000,1.000000,0.088668,0.000000,0.131834,1.000000,0.931935,0.029961,0.000000
18,0.000079,0.659985,0.975398,0.000000,0.323459,0.000000,0.077970,0.797180,1.000000,1.000000,0.035671,0.000000,0.143642,1.000000,0.946904,0.015488,0.000000
19,0.000049,0.659985,0.975398,0.000000,0.323459,0.000000,0.077970,0.797180,0.000000,1.000000,0.035671,0.000000,0.143642,0.947359,0.946904,0.015488,0.000000
20,0.000036,0.659105,1.000000,0.030976,0.286793,0.110803,0.053323,0.700229,1.000000,1.000000,0.000000,0.000000,0.143642,1.000000,1.000000,0.016865,0.000000
21,0.000015,0.703649,0.946099,0.000000,0.307523,0.000000,0.131975,0.695676,1.000000,1.000000,0.035671,0.000000,0.143642,1.000000,0.946904,0.132754,0.000000
22,0.000002,0.703649,0.946099,0.000000,0.307523,0.000000,0.131975,0.689510,1.000000,1.000000,0.035671,0.000000,0.143642,1.000000,0.946904,0.036718,0.000000
23,0.000000,0.699193,1.000000,0.008130,0.286793,0.073988,0.037198,0.802011,1.000000,1.000000,0.170162,0.000000,0.143642,1.000000,1.000000,0.000000,0.000000
gen, fitness
0,0.030614,0.000000,1.000000,0.210000,0.800000,0.030000,0.030000,1.000000,0.000000,1.000000,0.000000,0.000000,0.600000,1.000000,1.000000,0.000000,0.000000
1,0.030614,0.000000,1.000000,0.210000,0.800000,0.030000,0.030000,1.000000,0.000000,1.000000,0.000000,0.000000,0.600000,1.000000,1.000000,0.000000,0.000000
2,0.015362,0.000000,1.000000,0.210000,0.644905,0.030000,0.030000,1.000000,0.000000,1.000000,0.000000,0.000000,0.600000,0.978136,1.000000,0.000000,0.000000
3,0.011957,0.000000,1.000000,0.210000,0.663626,0.030000,0.030000,1.000000,0.000000,1.000000,0.000000,0.000000,0.533675,0.978136,1.000000,0.000000,0.000000
4,0.011257,0.000000,1.000000,0.166112,0.663626,0.030000,0.030000,0.882733,0.000000,1.000000,0.000000,0.000000,0.533675,0.978136,1.000000,0.000000,1.000000
5,0.011051,0.000000,1.000000,0.210000,0.628718,0.053941,0.030000,1.000000,0.000000,1.000000,0.000000,0.000000,0.533675,1.000000,1.000000,0.000000,0.000000
6,0.009709,0.340241,1.000000,0.210000,0.586608,0.007009,0.077839,1.000000,0.000000,0.988927,0.000000,0.000000,0.608276,0.978136,1.000000,0.000000,0.000000
7,0.007466,0.000000,0.944841,0.210000,0.567553,0.000000,0.097796,1.000000,0.000000,0.984856,0.000000,0.002874,0.434243,0.978136,0.793923,0.000000,1.000000
8,0.005883,0.392612,1.000000,0.014749,0.615650,0.000000,0.097796,1.000000,1.000000,1.000000,0.000000,0.002874,0.534305,0.978136,1.000000,0.000000,0.000000
9,0.003036,0.000000,1.000000,0.085499,0.562874,0.030000,0.000000,0.945730,0.000000,0.960335,0.064530,0.000000,0.281375,0.978136,1.000000,0.092081,0.000000
10,0.002920,0.000000,1.000000,0.085499,0.562874,0.030000,0.000000,0.945730,0.000000,0.960335,0.064530,0.000000,0.226911,0.981816,1.000000,0.092081,0.000000
11,0.002141,0.000000,1.000000,0.085499,0.562874,0.012832,0.000000,0.731548,0.000000,0.989015,0.121071,0.000000,0.226911,0.872553,1.000000,0.092081,0.000000
12,0.000526,0.383733,1.000000,0.014749,0.494534,0.030000,0.000000,0.945730,0.000000,0.960335,0.064530,0.000000,0.281375,0.978136,1.000000,0.092081,2.000000
13,0.000208,0.383733,1.000000,0.014749,0.456202,0.159362,0.000000,0.797513,0.000000,0.960335,0.064530,0.000000,0.207380,1.000000,1.000000,0.092081,0.000000
14,0.000045,0.383733,0.924367,0.000000,0.456202,0.159362,0.000000,0.797513,0.000000,0.976037,0.064530,0.000000,0.207380,1.000000,0.942945,0.000000,2.000000
15,0.000045,0.383733,0.924367,0.000000,0.456202,0.159362,0.000000,0.797513,0.000000,0.976037,0.064530,0.000000,0.207380,1.000000,0.942945,0.000000,2.000000
16,0.000023,0.315051,0.875576,0.014749,0.456202,0.159362,0.000000,0.646866,0.000000,0.990742,0.064530,0.000000,0.167357,0.817916,0.892312,0.208295,2.000000
17,0.000005,0.383733,0.768759,0.000000,0.456202,0.174064,0.000000,0.797513,0.000000,1.000000,0.064530,0.000000,0.207380,1.000000,0.962288,0.000000,2.000000
18,0.000004,0.383733,0.768759,0.000000,0.456202,0.174064,0.000000,0.797513,0.000000,1.000000,0.064530,0.000000,0.207380,1.000000,0.962288,0.105897,0.000000
19,0.000002,0.383733,0.768759,0.000000,0.442680,0.174064,0.000000,0.797513,0.000000,0.985396,0.000000,0.000000,0.207380,1.000000,0.962288,0.000000,2.000000
20,0.000000,0.383733,0.768759,0.000000,0.456202,0.174064,0.000000,0.558187,1.000000,0.976962,0.064530,0.000000,0.207380,1.000000,0.962288,0.000000,2.000000
gen, fitness
0,0.009712,0.000000,1.000000,0.210000,0.800000,0.030000,0.030000,1.000000,0.000000,1.000000,0.000000,0.000000,0.600000,1.000000,1.000000,0.000000,0.000000
1,0.009712,0.000000,1.000000,0.210000,0.800000,0.030000,0.030000,1.000000,0.000000,1.000000,0.000000,0.000000,0.600000,1.000000,1.000000,0.000000,0.000000
2,0.000257,0.000000,1.000000,0.210000,0.681505,0.030000,0.030000,1.000000,0.000000,1.000000,0.000000,0.000000,0.600000,1.000000,1.000000,0.000000,0.000000
3,0.000224,0.000000,0.892563,0.210000,0.651142,0.000000,0.030000,1.000000,0.000000,0.876184,0.000000,0.000000,0.600000,1.000000,1.000000,0.000000,0.000000
4,0.000160,0.048076,0.913930,0.153604,0.704021,0.000000,0.030000,1.000000,0.000000,1.000000,0.000000,0.000000,0.600000,1.000000,1.000000,0.000000,0.000000
5,0.000160,0.048076,0.913930,0.153604,0.704021,0.000000,0.030000,1.000000,0.000000,1.000000,0.000000,0.000000,0.600000,1.000000,1.000000,0.000000,0.000000
6,0.000132,0.048076,0.815604,0.153604,0.704021,0.000000,0.045656,1.000000,0.000000,1.000000,0.000000,0.000000,0.592503,1.000000,1.000000,0.000000,0.000000
7,0.000132,0.048076,0.815604,0.153604,0.704021,0.000000,0.045656,1.000000,0.000000,1.000000,0.000000,0.000000,0.592503,1.000000,1.000000,0.000000,0.000000
8,0.000076,0.000000,1.000000,0.210000,0.672258,0.000000,0.000000,0.852942,1.000000,1.000000,0.183773,0.038197,0.545534,1.000000,1.000000,0.015697,0.000000
9,0.000060,0.000000,1.000000,0.210000,0.672258,0.000000,0.000000,0.706318,1.000000,1.000000,0.183773,0.038197,0.545534,1.000000,1.000000,0.015697,0.000000
10,0.000045,0.000000,1.000000,0.180567,0.672258,0.000000,0.000000,0.706318,1.000000,0.919749,0.183773,0.038197,0.545534,1.000000,1.000000,0.015697,0.000000
11,0.000029,0.048076,0.815604,0.123527,0.639885,0.000000,0.234268,0.990704,0.000000,0.981789,0.000000,0.000000,0.499120,0.969739,0.942572,0.000000,0.000000
12,0.000001,0.120793,0.969693,0.210000,0.614875,0.000000,0.000000,0.904878,0.000000,1.000000,0.183773,0.000000,0.545534,1.000000,1.000000,0.015697,0.000000
gen, fitness
0,0.026348,0.000000,1.000000,0.210000,0.800000,0.030000,0.030000,1.000000,0.000000,1.000000,0.000000,0.000000,0.600000,1.000000,1.000000,0.000000,0.000000
1,0.026348,0.000000,1.000000,0.210000,0.800000,0.030000,0.030000,1.000000,0.000000,1.000000,0.000000,0.000000,0.600000,1.000000,1.000000,0.000000,0.000000
2,0.011465,0.136706,1.000000,0.210000,0.638842,0.030000,0.030000,1.000000,2.000000,0.946223,0.000000,0.000000,0.600000,1.000000,1.000000,0.000000,2.000000
3,0.007441,0.000000,1.000000,0.210000,0.652164,0.000000,0.030000,0.930833,0.000000,1.000000,0.000000,0.000000,0.510302,1.000000,1.000000,0.013395,0.000000
4,0.007441,0.000000,1.000000,0.210000,0.652164,0.000000,0.030000,0.930833,0.000000,1.000000,0.000000,0.000000,0.510302,1.000000,1.000000,0.013395,0.000000
5,0.006679,0.136706,0.895265,0.056126,0.638842,0.000000,0.030000,1.000000,2.000000,0.946223,0.000000,0.000000,0.523661,1.000000,1.000000,0.000000,2.000000
6,0.002560,0.162704,1.000000,0.210000,0.485851,0.000000,0.063746,0.905049,0.000000,0.997931,0.085116,0.000000,0.429814,0.745033,1.000000,0.000000,2.000000
7,0.001533,0.000000,1.000000,0.280919,0.431657,0.106870,0.018911,0.844126,2.000000,1.000000,0.000000,0.000000,0.299775,1.000000,1.000000,0.013395,0.000000
8,0.001337,0.000000,0.782058,0.280919,0.431657,0.106870,0.018911,0.844126,0.000000,1.000000,0.000000,0.000000,0.299775,1.000000,1.000000,0.013395,0.000000
9,0.001134,0.000000,1.000000,0.210000,0.494334,0.106870,0.030000,0.645555,1.000000,1.000000,0.135402,0.000000,0.285750,1.000000,1.000000,0.013395,0.000000
10,0.000458,0.169492,1.000000,0.280919,0.334951,0.106870,0.038674,0.844126,2.000000,1.000000,0.135402,0.000000,0.299775,1.000000,1.000000,0.013395,0.000000
11,0.000061,0.000000,0.915809,0.128451,0.494334,0.106870,0.155928,0.421749,1.000000,1.000000,0.146624,0.015583,0.150728,0.983011,1.000000,0.000000,2.000000
12,0.000024,0.019583,1.000000,0.126593,0.431657,0.193356,0.093062,0.847128,2.000000,1.000000,0.135402,0.000000,0.145789,0.837720,0.986094,0.000000,0.000000
13,0.000002,0.000000,1.000000,0.129548,0.431657,0.193356,0.093062,0.847128,0.000000,1.000000,0.135402,0.000000,0.141568,0.837720,0.986094,0.000000,1.000000
14,0.000000,0.019583,1.000000,0.126593,0.431657,0.134099,0.093062,0.847128,0.000000,1.000000,0.135402,0.000000,0.145789,0.837720,0.758090,0.000000,0.000000
gen, fitness
0,0.052335,0.000000,1.000000,0.210000,0.800000,0.030000,0.030000,1.000000,0.000000,1.000000,0.000000,0.000000,0.600000,1.000000,1.000000,0.000000,0.000000
1,0.052335,0.000000,1.000000,0.210000,0.800000,0.030000,0.030000,1.000000,0.000000,1.000000,0.000000,0.000000,0.600000,1.000000,1.000000,0.000000,0.000000
2,0.031973,0.000000,1.000000,0.210000,0.673100,0.030000,0.030000,1.000000,0.000000,1.000000,0.027175,0.000000,0.600000,1.000000,1.000000,0.000000,0.000000
3,0.024532,0.000000,0.970729,0.210000,0.645251,0.005298,0.000000,0.962188,1.000000,1.000000,0.000000,0.000000,0.518653,0.990639,0.859149,0.000000,0.000000
4,0.022567,0.000000,1.000000,0.210000,0.573601,0.206518,0.000000,1.000000,0.000000,1.000000,0.000000,0.000000,0.504445,0.984528,0.818851,0.000000,2.000000
5,0.020702,0.099741,0.961849,0.210000,0.573601,0.206518,0.000000,1.000000,2.000000,1.000000,0.000000,0.000000,0.504445,0.984528,0.627010,0.000000,2.000000
6,0.015354,0.097774,1.000000,0.210000,0.573601,0.206518,0.000000,1.000000,0.000000,0.994398,0.000000,0.000000,0.399126,0.984528,0.802160,0.000000,1.000000
7,0.011386,0.097774,1.000000,0.115332,0.573601,0.206518,0.000000,1.000000,0.000000,1.000000,0.000000,0.000000,0.398720,0.844386,0.742142,0.000000,1.000000
8,0.010553,0.000000,1.000000,0.212357,0.483264,0.206518,0.000000,1.000000,0.000000,1.000000,0.000000,0.000000,0.338538,0.957697,0.847514,0.000000,0.000000
9,0.006183,0.000000,1.000000,0.047721,0.578305,0.000000,0.052060,0.964156,0.000000,1.000000,0.000000,0.000000,0.254504,0.991000,0.847514,0.000000,0.000000
10,0.004382,0.097774,1.000000,0.059553,0.516488,0.206518,0.000000,1.000000,2.000000,1.000000,0.000000,0.000000,0.212103,0.984528,0.818851,0.024940,0.000000
11,0.004382,0.097774,1.000000,0.059553,0.516488,0.206518,0.000000,1.000000,2.000000,1.000000,0.000000,0.000000,0.212103,0.984528,0.818851,0.024940,0.000000
12,0.003560,0.097774,1.000000,0.058537,0.430453,0.206518,0.000000,1.000000,2.000000,0.837050,0.062322,0.000000,0.212103,0.984528,0.818851,0.024940,0.000000
13,0.001750,0.000000,1.000000,0.291451,0.202877,0.206518,0.177469,1.000000,2.000000,1.000000,0.000000,0.000000,0.051363,1.000000,1.000000,0.000000,0.000000
14,0.000629,0.378987,1.000000,0.062711,0.286576,0.143099,0.000000,1.000000,0.000000,0.833220,0.000000,0.000000,0.212103,0.984528,0.937925,0.000000,2.000000
15,0.000444,0.418843,0.850503,0.062711,0.286576,0.143099,0.000000,1.000000,0.000000,0.833220,0.000000,0.000000,0.212103,0.984528,0.937925,0.000000,2.000000
16,0.000282,0.459505,0.640829,0.000000,0.286576,0.217695,0.000000,0.984409,0.000000,0.786333,0.000000,0.000000,0.212103,0.984528,0.937925,0.000000,0.000000
17,0.000014,0.355660,1.000000,0.020602,0.286576,0.143099,0.000000,0.938353,0.000000,0.833220,0.000000,0.000000,0.096894,0.984528,1.000000,0.000000,0.000000
18,0.000014,0.355660,1.000000,0.020602,0.286576,0.143099,0.000000,0.938353,0.000000,0.833220,0.000000,0.000000,0.096894,0.984528,1.000000,0.000000,0.000000
19,0.000007,0.355660,1.000000,0.020602,0.286576,0.143099,0.000000,0.834659,0.000000,0.822645,0.000000,0.000000,0.096894,0.855330,0.985490,0.000000,0.000000
20,0.000007,0.355660,1.000000,0.020602,0.286576,0.143099,0.000000,0.834659,0.000000,0.822645,0.000000,0.000000,0.096894,0.855330,0.985490,0.000000,0.000000
21,0.000000,0.355660,1.000000,0.020602,0.286576,0.143099,0.000000,0.938353,0.000000,0.846213,0.000000,0.000000,0.096894,0.984528,1.000000,0.000000,1.000000
gen, fitness
0,0.080636,0.000000,1.000000,0.210000,0.800000,0.030000,0.030000,1.000000,0.000000,1.000000,0.000000,0.000000,0.600000,1.000000,1.000000,0.000000,0.000000
1,0.080636,0.000000,1.000000,0.210000,0.800000,0.030000,0.030000,1.000000,0.000000,1.000000,0.000000,0.000000,0.600000,1.000000,1.000000,0.000000,0.000000
2,0.050235,0.000000,1.000000,0.019941,0.651942,0.030000,0.030000,1.000000,0.000000,1.000000,0.000000,0.000000,0.600000,1.000000,1.000000,0.000000,0.000000
3,0.031764,0.000000,1.000000,0.019941,0.651942,0.048443,0.030000,1.000000,0.000000,1.000000,0.000000,0.000000,0.454408,1.000000,1.000000,0.000000,0.000000
4,0.029551,0.000000,1.000000,0.112996,0.463784,0.030000,0.030000,1.000000,0.000000,1.000000,0.000000,0.000000,0.409142,1.000000,1.000000,0.147126,0.000000
5,0.026649,0.233751,0.980585,0.000000,0.651942,0.000000,0.030000,0.957692,0.000000,1.000000,0.000000,0.000000,0.454408,1.000000,1.000000,0.000000,0.000000
6,0.022483,0.214537,0.950532,0.112996,0.463784,0.030000,0.287403,1.000000,0.000000,1.000000,0.000000,0.000000,0.409142,1.000000,0.884031,0.147126,0.000000
7,0.018618,0.373812,0.980585,0.000000,0.523248,0.000000,0.030000,0.771515,1.000000,1.000000,0.000000,0.000000,0.454408,1.000000,1.000000,0.000000,0.000000
8,0.011378,0.041410,1.000000,0.000000,0.511662,0.048443,0.314569,0.809115,1.000000,0.972706,0.000000,0.000000,0.150549,1.000000,0.674699,0.000000,1.000000
9,0.008551,0.041410,1.000000,0.000000,0.395496,0.048443,0.314569,0.809115,1.000000,0.972706,0.000000,0.000000,0.150549,1.000000,0.674699,0.000000,0.000000
10,0.008201,0.354330,0.950532,0.112996,0.311544,0.047226,0.196434,0.886164,0.000000,1.000000,0.000000,0.000000,0.263129,1.000000,0.641044,0.083397,0.000000
11,0.005379,0.190669,1.000000,0.000000,0.395496,0.190512,0.314569,0.809115,1.000000,0.972706,0.000000,0.000000,0.116823,1.000000,0.674699,0.112290,1.000000
12,0.005379,0.190669,1.000000,0.000000,0.395496,0.190512,0.314569,0.809115,1.000000,0.972706,0.000000,0.000000,0.116823,1.000000,0.674699,0.112290,1.000000
13,0.001781,0.354330,0.950532,0.023719,0.311544,0.142296,0.196434,0.857698,0.000000,1.000000,0.000000,0.000000,0.061981,1.000000,0.592169,0.000000,0.000000
14,0.001548,0.495280,0.950532,0.112996,0.127593,0.047226,0.196434,0.982050,1.000000,0.891068,0.000000,0.015567,0.061981,1.000000,0.641044,0.083397,1.000000
15,0.000712,0.300739,0.934770,0.000000,0.272531,0.075349,0.314569,0.809115,0.000000,0.972706,0.000000,0.000000,0.000000,0.998074,0.752109,0.112290,1.000000
16,0.000321,0.495280,0.950532,0.131684,0.059008,0.047226,0.196434,0.783377,0.000000,1.000000,0.053525,0.000000,0.031659,1.000000,0.641044,0.253002,2.000000
17,0.000093,0.420791,0.950532,0.023719,0.174856,0.142296,0.196434,0.884086,0.000000,1.000000,0.000000,0.000000,0.000000,1.000000,0.592169,0.000000,1.000000
18,0.000011,0.495280,0.950532,0.131684,0.059008,0.126834,0.151149,0.783377,0.000000,1.000000,0.018249,0.000000,0.000000,0.843119,0.752109,0.112290,1.000000
19,0.000011,0.495280,0.950532,0.131684,0.059008,0.126834,0.151149,0.783377,0.000000,1.000000,0.018249,0.000000,0.000000,0.843119,0.752109,0.112290,1.000000
20,0.000011,0.495280,0.950532,0.131684,0.059008,0.126834,0.151149,0.783377,0.000000,1.000000,0.018249,0.000000,0.000000,0.843119,0.752109,0.112290,1.000000
21,0.000009,0.572101,1.000000,0.024547,0.181554,0.231812,0.154712,0.792349,0.000000,1.000000,0.000000,0.000000,0.056501,1.000000,0.754949,0.000000,0.000000
22,0.000007,0.556661,1.000000,0.024547,0.181554,0.231812,0.154712,0.792349,0.000000,1.000000,0.000000,0.000000,0.056501,1.000000,0.754949,0.000000,0.000000
23,0.000006,0.556661,1.000000,0.000000,0.181554,0.086034,0.154712,0.777980,0.000000,0.927883,0.000000,0.000000,0.056501,1.000000,0.754949,0.000000,0.000000
24,0.000002,0.556661,1.000000,0.000000,0.181554,0.086034,0.044086,0.677344,0.000000,0.927883,0.000000,0.000000,0.056501,1.000000,0.758608,0.000000,0.000000
25,0.000002,0.556661,1.000000,0.000000,0.181554,0.086034,0.044086,0.677344,0.000000,0.927883,0.000000,0.000000,0.056501,1.000000,0.758608,0.000000,0.000000
26,0.000001,0.482357,0.792424,0.000000,0.174856,0.142296,0.196434,0.884086,0.000000,0.957754,0.000000,0.000000,0.000000,1.000000,0.562044,0.000000,1.000000
27,0.000001,0.482357,0.792424,0.000000,0.174856,0.142296,0.196434,0.884086,0.000000,0.957754,0.000000,0.000000,0.000000,1.000000,0.562044,0.000000,1.000000
28,0.000001,0.482357,0.753901,0.010220,0.157723,0.075768,0.196434,0.945375,0.000000,0.956781,0.000000,0.000000,0.000000,1.000000,0.562044,0.004460,1.000000
gen, fitness
0,0.025383,0.000000,1.000000,0.210000,0.800000,0.030000,0.030000,1.000000,0.000000,1.000000,0.000000,0.000000,0.600000,1.000000,1.000000,0.000000,0.000000
1,0.025383,0.000000,1.000000,0.210000,0.800000,0.030000,0.030000,1.000000,0.000000,1.000000,0.000000,0.000000,0.600000,1.000000,1.000000,0.000000,0.000000
2,0.010572,0.051153,1.000000,0.210000,0.688341,0.030000,0.030000,1.000000,0.000000,1.000000,0.000000,0.000000,0.600000,1.000000,1.000000,0.000000,0.000000
3,0.009780,0.000000,0.756172,0.210000,0.659494,0.009606,0.030000,1.000000,0.000000,1.000000,0.002524,0.000000,0.579803,1.000000,1.000000,0.000000,0.000000
4,0.006900,0.000000,1.000000,0.210000,0.632693,0.030000,0.030000,1.000000,0.000000,1.000000,0.000000,0.000000,0.472881,1.000000,1.000000,0.000000,0.000000
5,0.005814,0.000000,1.000000,0.321832,0.480383,0.030000,0.217148,1.000000,0.000000,0.955597,0.000000,0.000000,0.472881,1.000000,1.000000,0.000000,1.000000
6,0.005767,0.000000,0.882366,0.321832,0.480383,0.030000,0.021227,1.000000,0.000000,0.955597,0.000000,0.000000,0.472881,1.000000,1.000000,0.000000,1.000000
7,0.005504,0.000000,0.882366,0.321832,0.480383,0.067720,0.021227,1.000000,0.000000,0.955597,0.000000,0.000000,0.472881,1.000000,1.000000,0.000000,0.000000
8,0.003210,0.000000,0.939923,0.321832,0.418813,0.000000,0.303502,1.000000,0.000000,1.000000,0.141877,0.000000,0.280819,0.930366,1.000000,0.000000,1.000000
9,0.003099,0.000000,0.939923,0.321832,0.418813,0.000000,0.303502,1.000000,0.000000,1.000000,0.141877,0.051864,0.280819,0.930366,1.000000,0.065332,2.000000
10,0.001739,0.313679,1.000000,0.116473,0.490549,0.073794,0.217148,0.881316,2.000000,0.955597,0.053025,0.000000,0.407013,0.930366,1.000000,0.000000,1.000000
11,0.000328,0.072028,0.939923,0.117154,0.418813,0.000000,0.303502,1.000000,2.000000,1.000000,0.141877,0.000000,0.176420,0.930366,1.000000,0.000000,0.000000
12,0.000328,0.072028,0.939923,0.117154,0.418813,0.000000,0.303502,1.000000,2.000000,1.000000,0.141877,0.000000,0.176420,0.930366,1.000000,0.000000,0.000000
13,0.000089,0.000000,0.975002,0.139084,0.384338,0.108044,0.303502,1.000000,0.000000,1.000000,0.189965,0.000000,0.091138,0.930366,0.795605,0.000000,0.000000
14,0.000089,0.000000,0.975002,0.139084,0.384338,0.108044,0.303502,1.000000,0.000000,1.000000,0.189965,0.000000,0.091138,0.930366,0.795605,0.000000,0.000000
15,0.000017,0.401371,1.000000,0.116473,0.326858,0.073794,0.217148,0.853239,0.000000,0.874217,0.053025,0.000000,0.263648,1.000000,1.000000,0.187768,1.000000
16,0.000017,0.401371,1.000000,0.116473,0.326858,0.073794,0.217148,0.853239,0.000000,0.874217,0.053025,0.000000,0.263648,1.000000,1.000000,0.187768,1.000000
17,0.000002,0.401760,1.000000,0.116473,0.326858,0.073794,0.324573,0.732742,0.000000,0.874217,0.053025,0.000000,0.263648,1.000000,1.000000,0.000000,1.000000
18,0.000002,0.401760,1.000000,0.116473,0.326858,0.073794,0.324573,0.732742,0.000000,0.874217,0.053025,0.000000,0.263648,1.000000,1.000000,0.000000,1.000000
19,0.000002,0.401760,1.000000,0.116473,0.326858,0.073794,0.324573,0.732742,0.000000,0.874217,0.053025,0.000000,0.263648,1.000000,1.000000,0.000000,1.000000
20,0.000000,0.401371,1.000000,0.116473,0.307893,0.073794,0.217148,0.881316,1.000000,0.874217,0.095703,0.000000,0.263648,1.000000,1.000000,0.000000,1.000000
