gen, fitness
0,0.094016,0.000000,1.000000,0.210000,0.800000,0.030000,0.030000,1.000000,0.000000,1.000000,0.000000,0.000000,0.600000,1.000000,1.000000,0.000000,0.000000
1,0.094016,0.000000,1.000000,0.210000,0.800000,0.030000,0.030000,1.000000,0.000000,1.000000,0.000000,0.000000,0.600000,1.000000,1.000000,0.000000,0.000000
2,0.063092,0.000000,1.000000,0.210000,0.638527,0.030000,0.030000,1.000000,0.000000,1.000000,0.000000,0.000000,0.600000,0.950293,1.000000,0.000000,0.000000
3,0.063092,0.000000,1.000000,0.210000,0.638527,0.030000,0.030000,1.000000,0.000000,1.000000,0.000000,0.000000,0.600000,0.950293,1.000000,0.000000,0.000000
4,0.060255,0.000000,1.000000,0.000000,0.667753,0.030000,0.088650,1.000000,0.000000,1.000000,0.000000,0.000000,0.600000,0.964082,1.000000,0.000000,0.000000
5,0.056035,0.000000,1.000000,0.210000,0.644886,0.030000,0.030000,1.000000,0.000000,1.000000,0.042069,0.000000,0.507626,1.000000,0.875393,0.000000,0.000000
6,0.037129,0.000000,1.000000,0.000000,0.667753,0.030000,0.088650,1.000000,0.000000,1.000000,0.000000,0.000000,0.295578,0.999951,0.875393,0.000000,0.000000
7,0.037115,0.000000,1.000000,0.000000,0.667753,0.030000,0.088650,1.000000,0.000000,1.000000,0.000000,0.000000,0.295578,0.999951,0.964960,0.000000,0.000000
8,0.029016,0.000000,1.000000,0.000000,0.550903,0.030000,0.088650,1.000000,0.000000,1.000000,0.000000,0.000000,0.295578,0.999951,0.964960,0.000000,0.000000
9,0.028633,0.000000,1.000000,0.000000,0.476006,0.030000,0.088650,1.000000,0.000000,1.000000,0.000000,0.000000,0.295578,0.999951,0.964960,0.000000,0.000000
10,0.028267,0.034970,1.000000,0.000000,0.550903,0.030000,0.088650,1.000000,0.000000,1.000000,0.000000,0.000000,0.295578,0.999951,0.964960,0.000000,0.000000
11,0.022801,0.000000,1.000000,0.000000,0.463588,0.030000,0.185342,1.000000,0.000000,1.000000,0.000000,0.000000,0.210585,1.000000,0.875393,0.000000,0.000000
12,0.020399,0.000000,1.000000,0.000000,0.513271,0.030000,0.088650,1.000000,0.000000,1.000000,0.000000,0.074128,0.009193,0.999951,0.964960,0.000000,0.000000
13,0.012870,0.121561,1.000000,0.000000,0.386715,0.030000,0.104162,1.000000,0.000000,1.000000,0.000000,0.000000,0.089202,0.825838,0.875393,0.000000,1.000000
14,0.012870,0.121561,1.000000,0.000000,0.386715,0.030000,0.104162,1.000000,0.000000,1.000000,0.000000,0.000000,0.089202,0.825838,0.875393,0.000000,1.000000
15,0.010745,0.121561,1.000000,0.000000,0.386715,0.030000,0.185342,1.000000,0.000000,1.000000,0.000000,0.000000,0.000000,1.000000,0.828628,0.000000,0.000000
16,0.009619,0.000000,1.000000,0.000000,0.232441,0.030000,0.185342,1.000000,2.000000,1.000000,0.000000,0.000000,0.000000,1.000000,0.828628,0.000000,0.000000
17,0.009236,0.000000,0.786353,0.000000,0.299534,0.030000,0.080808,1.000000,0.000000,1.000000,0.000000,0.000000,0.000000,1.000000,0.875393,0.000000,0.000000
18,0.005413,0.254429,1.000000,0.000000,0.276051,0.075663,0.088650,1.000000,0.000000,1.000000,0.000000,0.000000,0.000000,1.000000,0.828628,0.000000,0.000000
19,0.005313,0.254429,1.000000,0.000000,0.276051,0.075663,0.088650,0.967151,0.000000,1.000000,0.000000,0.000000,0.000000,1.000000,0.828628,0.000000,0.000000
20,0.004065,0.254429,1.000000,0.000000,0.162824,0.075663,0.088650,0.967151,0.000000,1.000000,0.000000,0.000000,0.000000,1.000000,0.828628,0.000000,0.000000
21,0.004063,0.254429,1.000000,0.000000,0.162824,0.075663,0.084729,0.967151,0.000000,1.000000,0.000000,0.000000,0.000000,1.000000,0.828628,0.000000,0.000000
22,0.002454,0.365625,1.000000,0.000000,0.135757,0.075663,0.088650,0.967151,0.000000,1.000000,0.000000,0.000000,0.000000,1.000000,0.828628,0.000000,0.000000
23,0.001887,0.417114,1.000000,0.000000,0.135757,0.049452,0.088650,0.967151,0.000000,1.000000,0.000000,0.000000,0.000000,1.000000,0.615601,0.000000,0.000000
24,0.001887,0.417114,1.000000,0.000000,0.135757,0.049452,0.088650,0.967151,0.000000,1.000000,0.000000,0.000000,0.000000,1.000000,0.615601,0.000000,0.000000
25,0.001264,0.540087,1.000000,0.000000,0.135757,0.075663,0.088650,0.967151,0.000000,1.000000,0.000000,0.000000,0.000000,1.000000,0.828628,0.000000,0.000000
26,0.001261,0.549189,1.000000,0.000000,0.135757,0.075663,0.088650,0.967151,0.000000,1.000000,0.000000,0.000000,0.000000,1.000000,0.828628,0.000000,0.000000
27,0.001231,0.540087,1.000000,0.000000,0.135757,0.075663,0.088650,0.967151,0.000000,1.000000,0.212661,0.000000,0.000000,1.000000,0.828628,0.000000,0.000000
28,0.000752,0.566680,1.000000,0.000000,0.096370,0.069527,0.088650,0.967151,0.000000,1.000000,0.000000,0.000000,0.000000,1.000000,0.828628,0.000000,2.000000
29,0.000579,0.713696,1.000000,0.000000,0.072891,0.075663,0.088650,0.967151,0.000000,1.000000,0.000000,0.000000,0.000000,1.000000,0.828628,0.000000,0.000000
30,0.000579,0.713696,1.000000,0.000000,0.072891,0.075663,0.088650,0.967151,0.000000,1.000000,0.000000,0.000000,0.000000,1.000000,0.828628,0.000000,0.000000
31,0.000419,0.659978,1.000000,0.000000,0.072891,0.075663,0.088650,0.967151,0.000000,1.000000,0.000000,0.000000,0.000000,1.000000,0.828628,0.000000,0.000000
32,0.000288,0.659978,1.000000,0.000000,0.054884,0.075663,0.088650,0.967151,0.000000,1.000000,0.000000,0.000000,0.000000,0.836676,0.828628,0.000000,0.000000
33,0.000048,0.713696,1.000000,0.000000,0.000000,0.075663,0.232270,0.967151,0.000000,1.000000,0.000000,0.000000,0.000000,0.963105,0.828628,0.000000,0.000000
34,0.000048,0.713696,1.000000,0.000000,0.000000,0.075663,0.232270,0.967151,0.000000,1.000000,0.000000,0.000000,0.000000,0.963105,0.828628,0.000000,0.000000
35,0.000046,0.713696,0.998603,0.000000,0.000000,0.075663,0.232270,1.000000,0.000000,1.000000,0.000000,0.000000,0.000000,0.963105,0.828628,0.000000,0.000000
36,0.000013,0.739655,1.000000,0.000000,0.001427,0.075663,0.088650,0.967151,0.000000,1.000000,0.000000,0.000000,0.000000,1.000000,0.828628,0.000000,2.000000
37,0.000013,0.739655,1.000000,0.000000,0.001427,0.075663,0.088650,0.967151,0.000000,1.000000,0.000000,0.000000,0.000000,1.000000,0.828628,0.000000,2.000000
38,0.000011,0.751499,1.000000,0.000000,0.001427,0.098638,0.088650,0.967151,0.000000,1.000000,0.000000,0.000000,0.000000,1.000000,0.828628,0.000000,2.000000
39,0.000001,0.784231,0.968947,0.000000,0.001427,0.075663,0.088650,0.815965,0.000000,1.000000,0.000000,0.003706,0.000000,1.000000,0.828628,0.000000,2.000000
40,0.000001,0.784231,0.911019,0.000000,0.001427,0.075663,0.088650,0.815965,0.000000,1.000000,0.000000,0.003706,0.000000,1.000000,0.828628,0.000000,2.000000
gen, fitness
0,0.011444,0.000000,1.000000,0.210000,0.800000,0.030000,0.030000,1.000000,0.000000,1.000000,0.000000,0.000000,0.600000,1.000000,1.000000,0.000000,0.000000
1,0.011444,0.000000,1.000000,0.210000,0.800000,0.030000,0.030000,1.000000,0.000000,1.000000,0.000000,0.000000,0.600000,1.000000,1.000000,0.000000,0.000000
2,0.005909,0.000000,0.955441,0.210000,0.718853,0.030000,0.030000,1.000000,0.000000,1.000000,0.049482,0.000000,0.600000,1.000000,1.000000,0.000000,0.000000
3,0.005504,0.000000,1.000000,0.210000,0.725958,0.030000,0.030000,0.947849,0.000000,1.000000,0.122426,0.000000,0.581647,1.000000,1.000000,0.000000,0.000000
4,0.004602,0.000000,0.852641,0.210000,0.619546,0.030000,0.030000,1.000000,1.000000,1.000000,0.122426,0.000000,0.318760,1.000000,1.000000,0.000000,0.000000
5,0.004230,0.000000,0.852641,0.210000,0.619546,0.030000,0.030000,0.930681,1.000000,1.000000,0.122426,0.000000,0.318760,1.000000,1.000000,0.000000,1.000000
6,0.001128,0.000000,0.852641,0.210000,0.538053,0.030000,0.030000,1.000000,1.000000,1.000000,0.158596,0.000000,0.318760,1.000000,1.000000,0.000000,0.000000
7,0.000899,0.000000,0.852641,0.091903,0.569426,0.030000,0.030000,0.930681,1.000000,1.000000,0.122426,0.000000,0.318760,1.000000,1.000000,0.000000,1.000000
8,0.000775,0.000000,0.852641,0.210000,0.515788,0.000000,0.030000,0.795316,2.000000,1.000000,0.158596,0.000000,0.318760,1.000000,0.983535,0.000000,0.000000
9,0.000425,0.081755,0.852641,0.091903,0.569426,0.030000,0.030000,0.930681,1.000000,1.000000,0.053291,0.000000,0.318760,1.000000,1.000000,0.000000,1.000000
10,0.000425,0.081755,0.852641,0.091903,0.569426,0.030000,0.030000,0.930681,1.000000,1.000000,0.053291,0.000000,0.318760,1.000000,1.000000,0.000000,1.000000
11,0.000387,0.081755,0.852641,0.091903,0.515788,0.000000,0.030000,0.795316,2.000000,1.000000,0.158596,0.000000,0.272318,1.000000,0.983535,0.000000,1.000000
12,0.000197,0.081755,0.852641,0.091903,0.515788,0.000000,0.134767,0.795316,2.000000,0.887473,0.158596,0.000000,0.272318,1.000000,0.983535,0.000000,1.000000
13,0.000084,0.173910,0.852641,0.066861,0.515788,0.000000,0.030000,0.795316,2.000000,0.986401,0.158596,0.000000,0.272318,1.000000,0.983535,0.000000,0.000000
14,0.000051,0.196272,0.852641,0.091903,0.515788,0.000000,0.030000,0.795316,2.000000,1.000000,0.158596,0.000000,0.272318,1.000000,0.983535,0.000000,1.000000
15,0.000040,0.196272,0.935001,0.091903,0.515788,0.000000,0.000000,0.795316,2.000000,1.000000,0.378050,0.000000,0.272318,1.000000,0.983535,0.000000,1.000000
16,0.000035,0.173910,0.852641,0.063407,0.515788,0.072435,0.000000,0.795316,0.000000,0.887473,0.158596,0.000000,0.272318,1.000000,0.983535,0.000000,2.000000
17,0.000016,0.196272,0.935001,0.091903,0.515788,0.000000,0.000000,0.795316,0.000000,1.000000,0.313203,0.000000,0.272318,0.924659,0.983535,0.000000,1.000000
18,0.000015,0.196272,1.000000,0.091903,0.515788,0.000000,0.000000,0.795316,0.000000,1.000000,0.378050,0.000000,0.272318,1.000000,0.983535,0.000000,1.000000
19,0.000005,0.196272,0.889562,0.091903,0.515788,0.000000,0.000000,0.746228,0.000000,1.000000,0.378050,0.000000,0.248629,0.847103,0.983535,0.130456,2.000000
20,0.000004,0.196272,0.889562,0.091903,0.515788,0.000000,0.000000,0.746228,0.000000,1.000000,0.378050,0.000000,0.248629,0.847103,0.983535,0.108737,2.000000
21,0.000004,0.196272,0.889562,0.091903,0.515788,0.000000,0.000000,0.746228,0.000000,1.000000,0.378050,0.000000,0.248629,0.847103,0.983535,0.108737,2.000000
22,0.000004,0.196272,0.889562,0.091903,0.515788,0.000000,0.000000,0.746228,0.000000,1.000000,0.378050,0.000000,0.248629,0.847103,0.983535,0.108737,2.000000
23,0.000003,0.205390,0.848953,0.091903,0.515788,0.000000,0.000000,0.746228,0.000000,1.000000,0.378050,0.000000,0.248629,0.964426,0.983535,0.130456,2.000000
24,0.000003,0.205390,0.848953,0.091903,0.515788,0.000000,0.000000,0.746228,0.000000,1.000000,0.378050,0.000000,0.248629,0.964426,0.983535,0.130456,2.000000
25,0.000003,0.205390,0.848953,0.091903,0.515788,0.000000,0.000000,0.746228,0.000000,1.000000,0.378050,0.000000,0.248629,0.964426,0.983535,0.130456,2.000000
26,0.000003,0.205390,0.848953,0.091903,0.515788,0.000000,0.000000,0.746228,0.000000,1.000000,0.378050,0.000000,0.248629,1.000000,0.983535,0.130456,2.000000
27,0.000001,0.196272,0.889562,0.091903,0.515788,0.000000,0.000000,0.688142,0.000000,1.000000,0.406115,0.000000,0.248629,0.847103,0.973151,0.080797,2.000000
gen, fitness
0,0.010533,0.000000,1.000000,0.210000,0.800000,0.030000,0.030000,1.000000,0.000000,1.000000,0.000000,0.000000,0.600000,1.000000,1.000000,0.000000,0.000000
1,0.010533,0.000000,1.000000,0.210000,0.800000,0.030000,0.030000,1.000000,0.000000,1.000000,0.000000,0.000000,0.600000,1.000000,1.000000,0.000000,0.000000
2,0.001235,0.000000,1.000000,0.210000,0.665355,0.030000,0.030000,1.000000,0.000000,1.000000,0.000000,0.000000,0.543051,1.000000,1.000000,0.000000,0.000000
3,0.001235,0.000000,1.000000,0.210000,0.665355,0.030000,0.030000,1.000000,0.000000,1.000000,0.000000,0.000000,0.543051,1.000000,1.000000,0.000000,0.000000
4,0.001207,0.000000,1.000000,0.210000,0.665355,0.030000,0.030000,0.958662,0.000000,1.000000,0.000000,0.000000,0.543051,1.000000,1.000000,0.000000,0.000000
5,0.000120,0.000000,1.000000,0.070790,0.641251,0.000000,0.065383,1.000000,0.000000,1.000000,0.000000,0.000000,0.366329,1.000000,1.000000,0.000000,0.000000
6,0.000120,0.000000,1.000000,0.070790,0.641251,0.000000,0.065383,1.000000,0.000000,1.000000,0.000000,0.000000,0.366329,1.000000,1.000000,0.000000,0.000000
7,0.000067,0.000000,1.000000,0.070790,0.641251,0.000000,0.065383,0.896055,0.000000,1.000000,0.000000,0.000000,0.366329,1.000000,1.000000,0.004183,0.000000
8,0.000052,0.000000,1.000000,0.070790,0.641251,0.000000,0.065383,0.863198,0.000000,1.000000,0.000000,0.000000,0.366329,1.000000,1.000000,0.043827,0.000000
9,0.000041,0.088570,1.000000,0.000000,0.641251,0.000000,0.065383,1.000000,0.000000,1.000000,0.000000,0.000000,0.366329,1.000000,1.000000,0.000000,1.000000
10,0.000039,0.000000,1.000000,0.070790,0.641251,0.000000,0.065383,0.724841,0.000000,1.000000,0.018638,0.000000,0.366329,1.000000,1.000000,0.043827,0.000000
11,0.000039,0.000000,1.000000,0.070790,0.641251,0.000000,0.065383,0.724841,0.000000,1.000000,0.018638,0.000000,0.366329,1.000000,1.000000,0.043827,0.000000
12,0.000004,0.088570,1.000000,0.000000,0.648149,0.000000,0.065383,1.000000,0.000000,1.000000,0.000000,0.000000,0.366329,1.000000,1.000000,0.000000,1.000000
13,0.000000,0.088570,1.000000,0.000000,0.641251,0.000000,0.065383,1.000000,1.000000,1.000000,0.014236,0.000000,0.355942,1.000000,0.972224,0.000000,1.000000
gen, fitness
0,0.067934,0.000000,1.000000,0.210000,0.800000,0.030000,0.030000,1.000000,0.000000,1.000000,0.000000,0.000000,0.600000,1.000000,1.000000,0.000000,0.000000
1,0.067934,0.000000,1.000000,0.210000,0.800000,0.030000,0.030000,1.000000,0.000000,1.000000,0.000000,0.000000,0.600000,1.000000,1.000000,0.000000,0.000000
2,0.048874,0.000000,1.000000,0.210000,0.657915,0.030000,0.030000,1.000000,0.000000,1.000000,0.000000,0.000000,0.600000,0.989690,1.000000,0.000000,0.000000
3,0.038630,0.000000,1.000000,0.210000,0.657915,0.030000,0.034593,1.000000,0.000000,1.000000,0.000000,0.000000,0.419532,0.989690,1.000000,0.000000,0.000000
4,0.030228,0.000000,1.000000,0.002686,0.657915,0.030000,0.030000,1.000000,2.000000,1.000000,0.000000,0.023896,0.439305,0.987617,1.000000,0.000000,0.000000
5,0.023313,0.000000,1.000000,0.002686,0.657915,0.030000,0.030000,1.000000,2.000000,1.000000,0.000000,0.023896,0.302451,0.987617,1.000000,0.000000,2.000000
6,0.023313,0.000000,1.000000,0.002686,0.657915,0.030000,0.030000,1.000000,2.000000,1.000000,0.000000,0.023896,0.302451,0.987617,1.000000,0.000000,2.000000
7,0.019261,0.000000,1.000000,0.002686,0.577026,0.030000,0.030000,1.000000,2.000000,1.000000,0.000000,0.023896,0.302451,0.987617,1.000000,0.000000,2.000000
8,0.018195,0.163987,0.992390,0.002686,0.527774,0.135301,0.030000,1.000000,2.000000,1.000000,0.000000,0.012304,0.369533,0.975280,1.000000,0.000000,0.000000
9,0.015303,0.000000,1.000000,0.002686,0.596861,0.030000,0.030000,0.915213,2.000000,1.000000,0.000000,0.023896,0.225053,0.987617,0.986655,0.000000,2.000000
10,0.012902,0.000000,1.000000,0.002686,0.596861,0.030000,0.030000,0.915213,2.000000,1.000000,0.000000,0.000000,0.151416,0.987617,0.986655,0.000000,2.000000
11,0.011244,0.251751,1.000000,0.002686,0.510050,0.033272,0.000000,1.000000,1.000000,0.908490,0.000000,0.000000,0.302451,0.987617,1.000000,0.099615,2.000000
12,0.009708,0.000000,1.000000,0.000000,0.565507,0.030000,0.000000,1.000000,1.000000,1.000000,0.000000,0.023896,0.113162,0.987617,0.986655,0.027962,0.000000
13,0.008755,0.197468,1.000000,0.002686,0.446414,0.033272,0.000000,1.000000,1.000000,1.000000,0.033160,0.023896,0.225053,0.987617,0.857365,0.000000,0.000000
14,0.005046,0.495825,1.000000,0.002686,0.446414,0.033272,0.000000,1.000000,1.000000,0.901467,0.033160,0.023896,0.225053,0.987617,0.857365,0.000000,0.000000
15,0.005046,0.495825,1.000000,0.002686,0.446414,0.033272,0.000000,1.000000,1.000000,0.901467,0.033160,0.023896,0.225053,0.987617,0.857365,0.000000,0.000000
16,0.002644,0.197468,1.000000,0.002686,0.446414,0.165903,0.000000,1.000000,1.000000,1.000000,0.033160,0.023896,0.015242,0.987617,0.857365,0.000000,0.000000
17,0.002644,0.197468,1.000000,0.002686,0.446414,0.165903,0.000000,1.000000,1.000000,1.000000,0.033160,0.023896,0.015242,0.987617,0.857365,0.000000,0.000000
18,0.001580,0.197468,1.000000,0.002686,0.371267,0.165903,0.000000,1.000000,2.000000,1.000000,0.033160,0.023896,0.015242,0.987617,0.857365,0.000000,0.000000
19,0.001303,0.197468,1.000000,0.002686,0.371267,0.165903,0.000000,1.000000,2.000000,1.000000,0.033160,0.023896,0.000000,0.987617,0.857365,0.000000,0.000000
20,0.001162,0.197468,1.000000,0.002686,0.371267,0.165903,0.000000,0.856998,1.000000,1.000000,0.033160,0.023896,0.000000,0.987617,0.857365,0.000000,0.000000
21,0.000423,0.337754,0.911323,0.002686,0.371267,0.165903,0.000000,0.860034,0.000000,1.000000,0.033160,0.023896,0.015242,0.987617,0.970730,0.000000,0.000000
22,0.000423,0.337754,0.911323,0.002686,0.371267,0.165903,0.000000,0.860034,0.000000,1.000000,0.033160,0.023896,0.015242,0.987617,0.970730,0.000000,0.000000
23,0.000375,0.337754,0.911323,0.002686,0.371267,0.165903,0.000000,0.860034,0.000000,1.000000,0.033160,0.000000,0.015242,0.987617,0.857365,0.073925,1.000000
24,0.000236,0.337754,0.836271,0.002686,0.296927,0.165903,0.000000,1.000000,0.000000,0.877102,0.033160,0.000000,0.015242,1.000000,0.857365,0.000000,1.000000
25,0.000189,0.337754,0.911323,0.000000,0.371267,0.165903,0.000000,0.684675,0.000000,1.000000,0.033160,0.000000,0.015242,0.987617,0.970730,0.000000,1.000000
26,0.000045,0.439948,0.836271,0.002686,0.296927,0.008579,0.000000,1.000000,2.000000,1.000000,0.000000,0.000000,0.000000,1.000000,0.857365,0.000000,1.000000
27,0.000007,0.439948,0.836271,0.002686,0.296927,0.165903,0.000000,1.000000,0.000000,1.000000,0.033160,0.000000,0.018028,1.000000,0.857365,0.000000,1.000000
28,0.000006,0.439948,0.859921,0.002686,0.296927,0.165903,0.000000,1.000000,0.000000,1.000000,0.033160,0.000000,0.018028,1.000000,0.857365,0.000000,1.000000
29,0.000002,0.439948,0.836271,0.002686,0.296927,0.008579,0.000000,0.929604,1.000000,1.000000,0.000000,0.000000,0.000000,1.000000,0.857365,0.000000,2.000000
30,0.000001,0.439948,0.836271,0.002686,0.284412,0.008579,0.000000,1.000000,2.000000,1.000000,0.000000,0.000000,0.000000,1.000000,0.857365,0.000000,1.000000
31,0.000001,0.439948,0.836271,0.002686,0.284412,0.008579,0.000000,1.000000,2.000000,1.000000,0.000000,0.000000,0.000000,1.000000,0.857365,0.000000,1.000000
32,0.000000,0.439948,0.836271,0.000000,0.284412,0.008579,0.000000,1.000000,2.000000,1.000000,0.000000,0.000000,0.000000,1.000000,0.857365,0.000000,1.000000
gen, fitness
0,0.030614,0.000000,1.000000,0.210000,0.800000,0.030000,0.030000,1.000000,0.000000,1.000000,0.000000,0.000000,0.600000,1.000000,1.000000,0.000000,0.000000
1,0.030614,0.000000,1.000000,0.210000,0.800000,0.030000,0.030000,1.000000,0.000000,1.000000,0.000000,0.000000,0.600000,1.000000,1.000000,0.000000,0.000000
2,0.014962,0.000000,1.000000,0.210000,0.668631,0.030000,0.030000,1.000000,0.000000,1.000000,0.000000,0.000000,0.600000,1.000000,1.000000,0.000000,0.000000
3,0.013319,0.000000,0.992570,0.210000,0.668631,0.030000,0.030000,1.000000,0.000000,1.000000,0.000000,0.000000,0.571910,1.000000,1.000000,0.000000,0.000000
4,0.011040,0.000000,1.000000,0.210000,0.652104,0.030000,0.030000,1.000000,0.000000,1.000000,0.000000,0.000000,0.511143,1.000000,1.000000,0.000000,0.000000
5,0.010615,0.000000,1.000000,0.210000,0.652104,0.030000,0.030000,0.891285,0.000000,1.000000,0.000000,0.000000,0.511143,1.000000,1.000000,0.000000,0.000000
6,0.009108,0.133316,1.000000,0.142791,0.652104,0.030000,0.030000,1.000000,0.000000,1.000000,0.000000,0.000000,0.530284,1.000000,1.000000,0.000000,0.000000
7,0.008830,0.133316,1.000000,0.142791,0.632807,0.030000,0.030000,1.000000,0.000000,1.000000,0.000000,0.000000,0.530284,1.000000,1.000000,0.002780,0.000000
8,0.007230,0.000000,1.000000,0.210000,0.560461,0.030000,0.030000,1.000000,0.000000,1.000000,0.000000,0.000000,0.442914,0.989694,1.000000,0.000000,0.000000
9,0.007229,0.000000,1.000000,0.210000,0.560461,0.000000,0.030000,1.000000,0.000000,1.000000,0.000000,0.000000,0.442914,0.989694,1.000000,0.000000,0.000000
10,0.005080,0.133316,1.000000,0.142791,0.506719,0.030000,0.030000,1.000000,2.000000,1.000000,0.000000,0.000000,0.406498,1.000000,1.000000,0.002780,1.000000
11,0.005080,0.133316,1.000000,0.142791,0.506719,0.030000,0.030000,1.000000,2.000000,1.000000,0.000000,0.000000,0.406498,1.000000,1.000000,0.002780,1.000000
12,0.003960,0.252288,1.000000,0.142791,0.445070,0.030000,0.030000,1.000000,2.000000,1.000000,0.000000,0.000000,0.406498,1.000000,1.000000,0.002780,1.000000
13,0.003935,0.282232,1.000000,0.179897,0.502323,0.030000,0.000000,0.891532,0.000000,1.000000,0.000000,0.000000,0.444899,0.907068,1.000000,0.000000,0.000000
14,0.002594,0.171388,1.000000,0.125219,0.506719,0.030000,0.030000,1.000000,1.000000,1.000000,0.000000,0.000000,0.326711,1.000000,0.906899,0.002780,0.000000
15,0.002059,0.252288,1.000000,0.142791,0.445070,0.030000,0.000000,1.000000,2.000000,1.000000,0.000000,0.000000,0.252731,0.989694,1.000000,0.000000,0.000000
16,0.001588,0.282232,1.000000,0.087733,0.487756,0.030000,0.020529,1.000000,0.000000,1.000000,0.043841,0.000000,0.333033,0.907068,1.000000,0.056030,1.000000
17,0.001389,0.171388,1.000000,0.125219,0.372802,0.109290,0.000000,1.000000,0.000000,1.000000,0.000000,0.000000,0.252731,0.989694,1.000000,0.000000,0.000000
18,0.000321,0.252288,1.000000,0.125219,0.372802,0.109290,0.000000,1.000000,0.000000,1.000000,0.000000,0.049396,0.172337,0.989694,1.000000,0.000000,0.000000
19,0.000181,0.252288,0.931025,0.142791,0.328370,0.030000,0.000000,1.000000,2.000000,1.000000,0.000000,0.000000,0.176026,0.899520,1.000000,0.000000,2.000000
20,0.000011,0.171388,0.938714,0.059143,0.372802,0.068629,0.128592,1.000000,0.000000,1.000000,0.000000,0.000000,0.086266,0.989694,1.000000,0.000000,0.000000
21,0.000011,0.171388,0.938714,0.059143,0.372802,0.068629,0.128592,1.000000,0.000000,1.000000,0.000000,0.000000,0.086266,0.989694,1.000000,0.000000,0.000000
22,0.000000,0.171388,0.938714,0.059143,0.372802,0.111283,0.128592,1.000000,2.000000,1.000000,0.215110,0.000000,0.086266,0.989694,1.000000,0.000000,1.000000
gen, fitness
0,0.009712,0.000000,1.000000,0.210000,0.800000,0.030000,0.030000,1.000000,0.000000,1.000000,0.000000,0.000000,0.600000,1.000000,1.000000,0.000000,0.000000
1,0.009712,0.000000,1.000000,0.210000,0.800000,0.030000,0.030000,1.000000,0.000000,1.000000,0.000000,0.000000,0.600000,1.000000,1.000000,0.000000,0.000000
2,0.000230,0.000000,1.000000,0.210000,0.685857,0.030000,0.030000,1.000000,0.000000,1.000000,0.000000,0.000000,0.600000,1.000000,1.000000,0.000000,0.000000
3,0.000230,0.000000,1.000000,0.210000,0.685857,0.030000,0.030000,1.000000,0.000000,1.000000,0.000000,0.000000,0.600000,1.000000,1.000000,0.000000,0.000000
4,0.000116,0.000000,1.000000,0.168159,0.685857,0.000000,0.030000,1.000000,0.000000,1.000000,0.000000,0.000000,0.574310,1.000000,1.000000,0.000000,0.000000
5,0.000116,0.000000,1.000000,0.168159,0.685857,0.000000,0.030000,1.000000,0.000000,1.000000,0.000000,0.000000,0.574310,1.000000,1.000000,0.000000,0.000000
6,0.000093,0.049264,1.000000,0.168159,0.685857,0.000000,0.030000,1.000000,0.000000,1.000000,0.034266,0.000000,0.574310,1.000000,1.000000,0.000000,0.000000
7,0.000081,0.166732,1.000000,0.210000,0.661769,0.030000,0.000000,0.896103,0.000000,1.000000,0.162864,0.000000,0.600000,1.000000,1.000000,0.051504,2.000000
8,0.000080,0.166732,0.933896,0.210000,0.661769,0.030000,0.000000,0.896103,0.000000,1.000000,0.162864,0.000000,0.600000,1.000000,1.000000,0.051504,2.000000
9,0.000051,0.166732,1.000000,0.201501,0.661769,0.030000,0.000000,0.873673,0.000000,0.999621,0.162864,0.000000,0.600000,1.000000,1.000000,0.051504,0.000000
10,0.000038,0.282240,0.933896,0.161303,0.661769,0.030000,0.000000,0.929649,0.000000,1.000000,0.162864,0.000000,0.600000,1.000000,1.000000,0.051504,2.000000
11,0.000038,0.282240,0.933896,0.161303,0.661769,0.030000,0.000000,0.929649,0.000000,1.000000,0.162864,0.000000,0.600000,1.000000,1.000000,0.051504,2.000000
12,0.000019,0.282240,0.933896,0.140013,0.661769,0.030000,0.000000,0.929649,0.000000,1.000000,0.162864,0.000000,0.600000,1.000000,1.000000,0.051504,2.000000
13,0.000003,0.282240,0.933896,0.140013,0.661769,0.030000,0.000000,0.929649,0.000000,0.999621,0.162864,0.000000,0.600000,0.967428,1.000000,0.051504,0.000000
14,0.000001,0.282240,0.933896,0.140013,0.661769,0.030000,0.000000,0.809998,1.000000,0.999621,0.162864,0.000000,0.600000,1.000000,1.000000,0.051504,0.000000
gen, fitness
0,0.026348,0.000000,1.000000,0.210000,0.800000,0.030000,0.030000,1.000000,0.000000,1.000000,0.000000,0.000000,0.600000,1.000000,1.000000,0.000000,0.000000
1,0.026348,0.000000,1.000000,0.210000,0.800000,0.030000,0.030000,1.000000,0.000000,1.000000,0.000000,0.000000,0.600000,1.000000,1.000000,0.000000,0.000000
2,0.012786,0.000000,1.000000,0.000000,0.800000,0.030000,0.030000,1.000000,0.000000,1.000000,0.000000,0.000000,0.600000,1.000000,1.000000,0.000000,0.000000
3,0.011454,0.000000,1.000000,0.007007,0.701258,0.000000,0.030000,1.000000,0.000000,1.000000,0.046890,0.000000,0.562464,1.000000,1.000000,0.000000,0.000000
4,0.004930,0.051460,0.986035,0.050295,0.701258,0.073102,0.104670,1.000000,0.000000,1.000000,0.046890,0.000000,0.447716,1.000000,1.000000,0.000000,2.000000
5,0.004895,0.051460,0.979829,0.050295,0.701258,0.073102,0.104670,1.000000,0.000000,1.000000,0.142176,0.000000,0.447716,1.000000,1.000000,0.000000,2.000000
6,0.003963,0.051460,0.986035,0.000000,0.701258,0.073102,0.104670,1.000000,0.000000,1.000000,0.046890,0.000000,0.447716,1.000000,1.000000,0.000000,2.000000
7,0.003897,0.051460,0.986035,0.000000,0.701258,0.073102,0.104670,1.000000,0.000000,1.000000,0.035231,0.000000,0.447716,1.000000,1.000000,0.000000,0.000000
8,0.003427,0.051460,0.986035,0.000000,0.701258,0.073102,0.104670,1.000000,0.000000,1.000000,0.046890,0.000000,0.415042,1.000000,1.000000,0.000000,1.000000
9,0.001401,0.051460,0.943748,0.086397,0.565046,0.073102,0.153349,1.000000,0.000000,0.923404,0.046890,0.000000,0.328064,1.000000,0.994673,0.000000,2.000000
10,0.001282,0.051460,0.943748,0.086397,0.565046,0.073102,0.153349,0.896679,0.000000,0.923404,0.046890,0.000000,0.328064,1.000000,1.000000,0.000000,2.000000
11,0.001004,0.000000,0.943748,0.051196,0.565046,0.073102,0.153349,1.000000,0.000000,0.923404,0.046890,0.000000,0.208570,1.000000,0.904434,0.000000,2.000000
12,0.000544,0.000000,0.943748,0.051196,0.467392,0.073102,0.153349,1.000000,0.000000,0.923404,0.046890,0.000000,0.208570,1.000000,0.904434,0.000000,2.000000
13,0.000544,0.000000,0.943748,0.051196,0.467392,0.073102,0.153349,1.000000,0.000000,0.923404,0.046890,0.000000,0.208570,1.000000,0.904434,0.000000,2.000000
14,0.000116,0.051460,0.783902,0.046372,0.500459,0.047234,0.515532,0.985948,0.000000,0.953687,0.046890,0.000000,0.208873,1.000000,0.904434,0.000000,2.000000
15,0.000116,0.051460,0.783902,0.046372,0.500588,0.047234,0.515532,0.985948,0.000000,0.953687,0.046890,0.000000,0.208873,1.000000,0.904434,0.000000,2.000000
16,0.000039,0.150313,0.943748,0.051196,0.467392,0.073102,0.153349,1.000000,0.000000,1.000000,0.046890,0.000000,0.208570,1.000000,0.904434,0.000000,0.000000
17,0.000017,0.127516,1.000000,0.000000,0.467392,0.073102,0.153349,0.992660,0.000000,0.785039,0.046890,0.000000,0.208570,1.000000,0.904434,0.000000,2.000000
18,0.000008,0.150313,0.943748,0.051196,0.467392,0.073102,0.153349,1.000000,0.000000,0.980043,0.046890,0.000000,0.208570,1.000000,0.904434,0.000000,0.000000
19,0.000003,0.150313,0.943748,0.051196,0.467392,0.009150,0.153349,1.000000,0.000000,0.967601,0.198430,0.000000,0.208570,0.830984,0.904434,0.000000,0.000000
20,0.000001,0.127516,1.000000,0.000000,0.467392,0.073102,0.153349,0.992660,0.000000,0.809931,0.046890,0.000000,0.208873,1.000000,1.000000,0.001944,1.000000
gen, fitness
0,0.052335,0.000000,1.000000,0.210000,0.800000,0.030000,0.030000,1.000000,0.000000,1.000000,0.000000,0.000000,0.600000,1.000000,1.000000,0.000000,0.000000
1,0.052335,0.000000,1.000000,0.210000,0.800000,0.030000,0.030000,1.000000,0.000000,1.000000,0.000000,0.000000,0.600000,1.000000,1.000000,0.000000,0.000000
2,0.032377,0.000000,1.000000,0.210000,0.631679,0.115638,0.030000,1.000000,0.000000,1.000000,0.000000,0.000000,0.600000,1.000000,1.000000,0.000000,0.000000
3,0.019314,0.000000,1.000000,0.210000,0.609726,0.030000,0.030000,1.000000,0.000000,1.000000,0.000000,0.000000,0.461412,1.000000,0.835865,0.000000,0.000000
4,0.019291,0.000000,1.000000,0.210000,0.609726,0.030000,0.000000,1.000000,0.000000,1.000000,0.000000,0.000000,0.461412,1.000000,0.835865,0.000000,0.000000
5,0.013972,0.210557,1.000000,0.210000,0.534108,0.030000,0.176640,1.000000,2.000000,1.000000,0.000000,0.000000,0.419778,1.000000,0.835865,0.000000,2.000000
6,0.013558,0.210557,1.000000,0.210000,0.306379,0.030000,0.176640,1.000000,2.000000,0.997942,0.000000,0.000000,0.419778,1.000000,0.835865,0.000000,2.000000
7,0.012568,0.210557,1.000000,0.210000,0.534108,0.030000,0.176640,0.727385,2.000000,1.000000,0.000000,0.000000,0.419778,1.000000,0.835865,0.000000,2.000000
8,0.009053,0.000000,0.693353,0.308759,0.347245,0.158132,0.030000,1.000000,0.000000,0.938270,0.000000,0.005032,0.291572,1.000000,1.000000,0.000000,0.000000
9,0.006205,0.210557,1.000000,0.170309,0.398637,0.115638,0.030000,1.000000,2.000000,0.938270,0.000000,0.078252,0.249231,1.000000,1.000000,0.000000,2.000000
10,0.002652,0.276116,1.000000,0.210000,0.306379,0.030000,0.176640,1.000000,0.000000,0.997942,0.000000,0.000000,0.249231,1.000000,1.000000,0.000000,2.000000
11,0.002652,0.276116,1.000000,0.210000,0.306379,0.030000,0.176640,1.000000,0.000000,0.997942,0.000000,0.000000,0.249231,1.000000,1.000000,0.000000,2.000000
12,0.002466,0.276116,1.000000,0.210000,0.306379,0.030000,0.176640,1.000000,2.000000,0.997942,0.000000,0.000000,0.170666,1.000000,1.000000,0.000000,2.000000
13,0.001992,0.446486,0.966245,0.284087,0.171768,0.030000,0.028254,1.000000,0.000000,0.938270,0.000000,0.005032,0.291572,1.000000,1.000000,0.000000,1.000000
14,0.001123,0.349393,1.000000,0.222667,0.195943,0.030000,0.176640,1.000000,0.000000,0.938270,0.000000,0.005032,0.214363,1.000000,1.000000,0.000000,0.000000
15,0.000597,0.349393,1.000000,0.222667,0.195943,0.030000,0.176640,1.000000,0.000000,0.997942,0.000000,0.000000,0.170666,1.000000,1.000000,0.000000,2.000000
16,0.000554,0.349393,1.000000,0.222667,0.178013,0.030000,0.176640,1.000000,0.000000,0.997942,0.000000,0.000000,0.170666,1.000000,1.000000,0.000000,2.000000
17,0.000303,0.349393,1.000000,0.222667,0.178013,0.030000,0.176640,1.000000,0.000000,0.997942,0.000000,0.000000,0.114550,1.000000,0.891787,0.000000,2.000000
18,0.000224,0.326393,1.000000,0.100396,0.254068,0.089612,0.078698,1.000000,0.000000,0.907710,0.016454,0.000000,0.135771,0.983398,0.927743,0.000000,2.000000
19,0.000224,0.326393,1.000000,0.100396,0.254068,0.089612,0.078698,1.000000,0.000000,0.907710,0.016454,0.000000,0.135771,0.983398,0.927743,0.000000,2.000000
20,0.000018,0.326393,1.000000,0.100396,0.254068,0.089612,0.078698,1.000000,0.000000,0.997942,0.000000,0.000000,0.075530,1.000000,0.891787,0.000000,2.000000
21,0.000018,0.326393,1.000000,0.100396,0.254068,0.089612,0.078698,1.000000,0.000000,0.997942,0.000000,0.000000,0.075530,1.000000,0.891787,0.000000,2.000000
22,0.000000,0.349393,1.000000,0.100396,0.254068,0.103655,0.078698,1.000000,0.000000,0.997942,0.000000,0.000000,0.075530,1.000000,0.891787,0.000000,2.000000
gen, fitness
0,0.080636,0.000000,1.000000,0.210000,0.800000,0.030000,0.030000,1.000000,0.000000,1.000000,0.000000,0.000000,0.600000,1.000000,1.000000,0.000000,0.000000
1,0.080636,0.000000,1.000000,0.210000,0.800000,0.030000,0.030000,1.000000,0.000000,1.000000,0.000000,0.000000,0.600000,1.000000,1.000000,0.000000,0.000000
2,0.054778,0.000000,0.844139,0.210000,0.673304,0.099906,0.030000,1.000000,2.000000,1.000000,0.000000,0.000000,0.559109,1.000000,1.000000,0.034647,0.000000
3,0.047102,0.000000,0.844139,0.097753,0.673304,0.099906,0.030000,1.000000,2.000000,1.000000,0.000000,0.000000,0.559109,1.000000,1.000000,0.034647,0.000000
4,0.045272,0.000000,0.844139,0.097753,0.627926,0.099906,0.030000,1.000000,2.000000,1.000000,0.000000,0.000000,0.559109,1.000000,1.000000,0.034647,0.000000
5,0.043572,0.107417,0.844139,0.097753,0.627926,0.099906,0.030000,1.000000,2.000000,1.000000,0.000000,0.000000,0.559109,1.000000,1.000000,0.034647,2.000000
6,0.031618,0.198190,1.000000,0.210000,0.512267,0.099906,0.030000,1.000000,2.000000,1.000000,0.000000,0.000000,0.313814,0.914074,1.000000,0.000000,1.000000
7,0.018316,0.248233,1.000000,0.066061,0.512267,0.099906,0.030000,1.000000,2.000000,1.000000,0.051562,0.000000,0.313814,0.914074,1.000000,0.000000,1.000000
8,0.015105,0.248233,1.000000,0.066061,0.460099,0.099906,0.030000,1.000000,2.000000,1.000000,0.051562,0.000000,0.313814,0.914074,1.000000,0.000000,1.000000
9,0.015105,0.248233,1.000000,0.066061,0.460099,0.099906,0.030000,1.000000,2.000000,1.000000,0.051562,0.000000,0.313814,0.914074,1.000000,0.000000,1.000000
10,0.013495,0.248233,1.000000,0.066061,0.391793,0.099906,0.041681,1.000000,2.000000,1.000000,0.051562,0.000000,0.313814,0.815684,1.000000,0.000000,1.000000
11,0.012916,0.248233,1.000000,0.066061,0.356832,0.099906,0.030000,1.000000,0.000000,1.000000,0.051562,0.000000,0.313814,0.914074,1.000000,0.000000,1.000000
12,0.010154,0.420572,1.000000,0.066061,0.391793,0.099906,0.041681,1.000000,2.000000,1.000000,0.051562,0.000000,0.313814,0.914074,1.000000,0.000000,1.000000
13,0.006866,0.248233,1.000000,0.066061,0.345818,0.294075,0.000000,1.000000,2.000000,1.000000,0.051562,0.000000,0.175351,1.000000,1.000000,0.000000,2.000000
14,0.006273,0.285987,1.000000,0.066061,0.345818,0.294075,0.000000,0.915449,2.000000,1.000000,0.051562,0.000000,0.175351,1.000000,1.000000,0.000000,2.000000
15,0.002721,0.538171,1.000000,0.066061,0.260688,0.099906,0.041681,1.000000,2.000000,1.000000,0.051562,0.000000,0.125333,0.914074,1.000000,0.155687,1.000000
16,0.002365,0.450267,1.000000,0.000000,0.299874,0.000000,0.030000,1.000000,0.000000,1.000000,0.051562,0.000000,0.175351,1.000000,1.000000,0.000000,2.000000
17,0.001281,0.457910,1.000000,0.000000,0.299874,0.000000,0.030000,1.000000,0.000000,1.000000,0.000000,0.000000,0.091947,0.815684,1.000000,0.074063,1.000000
18,0.000100,0.538171,1.000000,0.066061,0.119059,0.099906,0.000000,1.000000,0.000000,1.000000,0.096095,0.000000,0.000000,0.808149,1.000000,0.074063,1.000000
19,0.000067,0.538171,1.000000,0.066061,0.119059,0.029934,0.000000,1.000000,0.000000,1.000000,0.096095,0.000000,0.000000,0.808149,1.000000,0.114058,1.000000
20,0.000009,0.495451,1.000000,0.066061,0.119059,0.099906,0.000000,1.000000,0.000000,1.000000,0.096095,0.000000,0.000000,0.808149,1.000000,0.074063,1.000000
21,0.000009,0.495451,1.000000,0.066061,0.119059,0.099906,0.000000,1.000000,0.000000,1.000000,0.096095,0.000000,0.000000,0.808149,1.000000,0.074063,1.000000
22,0.000002,0.495451,1.000000,0.066061,0.119059,0.099906,0.000000,0.952452,0.000000,1.000000,0.096095,0.000000,0.000000,0.808149,1.000000,0.074063,1.000000
23,0.000002,0.495451,1.000000,0.066061,0.119059,0.099906,0.000000,0.952452,0.000000,1.000000,0.096095,0.000000,0.000000,0.808149,1.000000,0.074063,1.000000
24,0.000000,0.509926,1.000000,0.066061,0.119059,0.029934,0.000000,0.909750,0.000000,1.000000,0.096095,0.000000,0.000000,0.802432,0.947623,0.114058,1.000000
gen, fitness
0,0.025383,0.000000,1.000000,0.210000,0.800000,0.030000,0.030000,1.000000,0.000000,1.000000,0.000000,0.000000,0.600000,1.000000,1.000000,0.000000,0.000000
1,0.025383,0.000000,1.000000,0.210000,0.800000,0.030000,0.030000,1.000000,0.000000,1.000000,0.000000,0.000000,0.600000,1.000000,1.000000,0.000000,0.000000
2,0.012072,0.000000,1.000000,0.183502,0.727157,0.030000,0.030000,1.000000,0.000000,1.000000,0.000000,0.000000,0.600000,1.000000,1.000000,0.000000,0.000000
3,0.010853,0.000000,1.000000,0.029605,0.779586,0.030000,0.137260,1.000000,0.000000,1.000000,0.000000,0.000000,0.600000,1.000000,1.000000,0.000000,0.000000
4,0.010504,0.000000,1.000000,0.100499,0.727157,0.200523,0.030000,1.000000,0.000000,1.000000,0.000000,0.000000,0.600000,1.000000,1.000000,0.000000,0.000000
5,0.008776,0.000000,1.000000,0.000000,0.727157,0.205288,0.030000,1.000000,0.000000,1.000000,0.000000,0.000000,0.553657,1.000000,1.000000,0.000000,2.000000
6,0.007970,0.000000,1.000000,0.000000,0.734158,0.205288,0.030000,1.000000,0.000000,1.000000,0.120019,0.000000,0.553657,1.000000,1.000000,0.000000,0.000000
7,0.006850,0.000000,0.933359,0.000000,0.727157,0.205288,0.026352,1.000000,0.000000,1.000000,0.000000,0.000000,0.506865,1.000000,1.000000,0.000000,2.000000
8,0.006850,0.000000,0.933359,0.000000,0.727157,0.205288,0.026352,1.000000,0.000000,1.000000,0.000000,0.000000,0.506865,1.000000,1.000000,0.000000,2.000000
9,0.006572,0.000000,1.000000,0.000000,0.727157,0.205288,0.026352,1.000000,0.000000,1.000000,0.000000,0.000000,0.506865,1.000000,1.000000,0.000000,1.000000
10,0.006102,0.000000,1.000000,0.000000,0.734158,0.205288,0.000000,1.000000,0.000000,1.000000,0.120019,0.000000,0.482927,0.958307,1.000000,0.000000,0.000000
11,0.005848,0.000000,0.933359,0.000000,0.727157,0.286965,0.000000,1.000000,0.000000,1.000000,0.120019,0.000000,0.482927,0.958307,1.000000,0.000000,0.000000
12,0.005581,0.000000,1.000000,0.000000,0.727157,0.205288,0.026352,1.000000,0.000000,1.000000,0.049004,0.000000,0.452357,1.000000,1.000000,0.000000,0.000000
13,0.005226,0.181954,1.000000,0.000000,0.727157,0.205288,0.026352,0.817451,0.000000,1.000000,0.000000,0.000000,0.506865,1.000000,1.000000,0.000000,0.000000
14,0.003707,0.077933,1.000000,0.004885,0.653178,0.205288,0.026352,1.000000,0.000000,1.000000,0.049004,0.000000,0.440338,1.000000,1.000000,0.000000,0.000000
15,0.003691,0.077933,1.000000,0.004885,0.653178,0.205288,0.026352,1.000000,0.000000,1.000000,0.000841,0.000000,0.440338,1.000000,1.000000,0.000000,0.000000
16,0.001453,0.181954,1.000000,0.000000,0.623050,0.205288,0.026352,0.817451,0.000000,1.000000,0.000000,0.000000,0.361145,1.000000,1.000000,0.000000,0.000000
17,0.001453,0.181954,1.000000,0.000000,0.623050,0.205288,0.026352,0.817451,0.000000,1.000000,0.000000,0.000000,0.361145,1.000000,1.000000,0.000000,0.000000
18,0.001430,0.177921,0.834875,0.000000,0.623050,0.237147,0.026352,0.817451,0.000000,1.000000,0.000000,0.000000,0.350941,1.000000,1.000000,0.000000,0.000000
19,0.001260,0.177921,0.834875,0.000000,0.623050,0.237147,0.026352,0.684540,0.000000,1.000000,0.000000,0.000000,0.350941,1.000000,1.000000,0.000000,0.000000
20,0.001116,0.316402,1.000000,0.000000,0.602840,0.205288,0.026352,0.817451,0.000000,1.000000,0.000000,0.000000,0.361145,1.000000,1.000000,0.000000,0.000000
21,0.000790,0.308858,1.000000,0.000000,0.549953,0.205288,0.000000,0.817451,0.000000,1.000000,0.061389,0.000000,0.361145,1.000000,1.000000,0.033283,0.000000
22,0.000335,0.308858,1.000000,0.000000,0.549953,0.205288,0.000000,0.817451,0.000000,1.000000,0.061389,0.000000,0.320076,1.000000,1.000000,0.033283,0.000000
23,0.000319,0.317507,1.000000,0.000000,0.549953,0.205288,0.000000,0.817451,0.000000,1.000000,0.061389,0.000000,0.320076,1.000000,1.000000,0.033283,0.000000
24,0.000319,0.317507,1.000000,0.000000,0.549953,0.205288,0.000000,0.817451,0.000000,1.000000,0.061389,0.000000,0.320076,1.000000,1.000000,0.033283,0.000000
25,0.000298,0.317507,1.000000,0.000000,0.515432,0.205288,0.000000,0.817451,0.000000,0.938693,0.143376,0.000000,0.320076,1.000000,1.000000,0.033283,0.000000
26,0.000298,0.317507,1.000000,0.000000,0.515432,0.205288,0.000000,0.817451,0.000000,0.938693,0.143376,0.000000,0.320076,1.000000,1.000000,0.033283,0.000000
27,0.000276,0.317507,1.000000,0.000000,0.549953,0.205288,0.000000,0.779297,0.000000,1.000000,0.143376,0.000000,0.292044,1.000000,1.000000,0.033283,1.000000
28,0.000164,0.317507,1.000000,0.000000,0.515432,0.205288,0.000000,0.757051,0.000000,0.938693,0.143376,0.036545,0.261115,1.000000,0.988091,0.033283,0.000000
29,0.000144,0.317507,1.000000,0.000000,0.515432,0.205288,0.000000,0.757051,0.000000,0.938693,0.143376,0.016050,0.261115,1.000000,0.988091,0.033283,0.000000
30,0.000138,0.317507,1.000000,0.000000,0.515432,0.061970,0.000000,0.757051,0.000000,0.938693,0.143376,0.016050,0.261115,1.000000,0.988091,0.033283,0.000000
31,0.000138,0.317507,1.000000,0.000000,0.515432,0.061970,0.000000,0.757051,0.000000,0.938693,0.143376,0.016050,0.261115,1.000000,0.988091,0.033283,0.000000
32,0.000138,0.317507,1.000000,0.000000,0.515432,0.061970,0.000000,0.757051,0.000000,0.938693,0.143376,0.016050,0.261115,1.000000,0.988091,0.033283,0.000000
33,0.000094,0.317507,1.000000,0.000000,0.515432,0.189710,0.000000,0.613393,0.000000,0.938693,0.143376,0.000000,0.261115,1.000000,0.988091,0.033283,0.000000
34,0.000041,0.317507,1.000000,0.000000,0.508172,0.218135,0.000000,0.613393,0.000000,0.938693,0.143376,0.000000,0.261115,1.000000,0.988091,0.054468,0.000000
35,0.000024,0.317507,1.000000,0.000000,0.515432,0.299668,0.000000,0.591092,0.000000,1.000000,0.143376,0.000000,0.261115,1.000000,0.988091,0.033283,0.000000
36,0.000013,0.317507,1.000000,0.000000,0.515432,0.299668,0.000000,0.591092,0.000000,1.000000,0.143376,0.000000,0.261115,1.000000,0.988091,0.000000,0.000000
37,0.000007,0.343471,1.000000,0.000000,0.515432,0.299668,0.000000,0.591092,0.000000,1.000000,0.143376,0.000000,0.261115,1.000000,0.988091,0.000000,0.000000
38,0.000005,0.343471,1.000000,0.000000,0.515432,0.299668,0.000000,0.591092,0.000000,1.000000,0.143376,0.000000,0.261115,1.000000,0.988091,0.033283,0.000000
39,0.000001,0.317507,1.000000,0.000000,0.515432,0.299668,0.000000,0.511678,0.000000,1.000000,0.143376,0.000000,0.245553,0.900979,0.988091,0.000000,0.000000
