gen, fitness
0,0.094016,0.000000,1.000000,0.210000,0.800000,0.030000,0.030000,1.000000,0.000000,1.000000,0.000000,0.000000,0.600000,1.000000,1.000000,0.000000,0.000000
1,0.094016,0.000000,1.000000,0.210000,0.800000,0.030000,0.030000,1.000000,0.000000,1.000000,0.000000,0.000000,0.600000,1.000000,1.000000,0.000000,0.000000
2,0.050441,0.082407,1.000000,0.210000,0.538692,0.030000,0.030000,0.988288,1.000000,1.000000,0.021661,0.000000,0.540195,1.000000,1.000000,0.000000,0.000000
3,0.048081,0.000000,0.931250,0.210000,0.514770,0.067589,0.000000,1.000000,1.000000,1.000000,0.000000,0.034859,0.457690,1.000000,1.000000,0.000000,2.000000
4,0.037469,0.077359,0.969380,0.007552,0.582478,0.083487,0.030000,0.948728,0.000000,1.000000,0.045041,0.034859,0.405658,0.923820,0.912376,0.000000,2.000000
5,0.032647,0.000000,0.924194,0.246781,0.357482,0.034368,0.000000,1.000000,0.000000,1.000000,0.088578,0.000000,0.296467,1.000000,0.863133,0.057348,2.000000
6,0.023950,0.052972,0.984844,0.000000,0.325916,0.067589,0.044473,0.849197,2.000000,1.000000,0.049757,0.000000,0.238205,1.000000,0.855422,0.000000,0.000000
7,0.015532,0.052972,0.984844,0.000000,0.287447,0.119230,0.019476,0.912392,1.000000,1.000000,0.209176,0.000000,0.130711,1.000000,0.855422,0.000000,0.000000
8,0.013078,0.087844,0.854413,0.139096,0.268519,0.000000,0.169254,0.960017,0.000000,1.000000,0.066627,0.000000,0.000000,0.983487,0.837363,0.037045,0.000000
9,0.008302,0.120805,0.754929,0.000000,0.287447,0.004462,0.000000,0.914162,1.000000,1.000000,0.371082,0.000000,0.034476,0.953028,0.895241,0.000000,0.000000
10,0.005427,0.196358,1.000000,0.000000,0.153834,0.028639,0.036805,1.000000,2.000000,0.860380,0.253000,0.004759,0.000000,0.937022,0.791093,0.000000,1.000000
11,0.002956,0.452102,0.906328,0.000000,0.125644,0.028639,0.036805,1.000000,1.000000,0.860380,0.253000,0.038997,0.000000,1.000000,0.669459,0.000000,1.000000
12,0.002468,0.842182,1.000000,0.000000,0.148437,0.000000,0.319476,0.870365,0.000000,1.000000,0.001905,0.000000,0.215963,0.846059,0.955103,0.081336,1.000000
13,0.002185,0.842182,1.000000,0.000000,0.128911,0.125743,0.185552,0.710634,0.000000,1.000000,0.000000,0.000000,0.174376,0.647025,0.764469,0.395775,0.000000
14,0.000989,0.949515,0.738249,0.000000,0.038482,0.000000,0.080800,0.888942,1.000000,1.000000,0.001905,0.000000,0.214582,0.763632,0.950982,0.000000,1.000000
15,0.000026,0.817686,0.966062,0.000000,0.004173,0.000000,0.185552,0.902131,0.000000,1.000000,0.029121,0.000000,0.000000,0.695469,0.835245,0.177262,2.000000
16,0.000026,0.817686,0.966062,0.000000,0.004173,0.000000,0.185552,0.902131,0.000000,1.000000,0.029121,0.000000,0.000000,0.695469,0.835245,0.177262,2.000000
17,0.000026,0.817686,0.966062,0.000000,0.004173,0.000000,0.185552,0.902131,0.000000,1.000000,0.029121,0.000000,0.000000,0.695469,0.835245,0.177262,2.000000
18,0.000026,0.817686,0.966062,0.000000,0.004173,0.000000,0.185552,0.902131,0.000000,1.000000,0.029121,0.000000,0.000000,0.695469,0.835245,0.177262,2.000000
19,0.000002,0.790874,1.000000,0.000000,0.007564,0.026747,0.000000,0.768744,0.000000,0.991633,0.522188,0.000000,0.000000,0.874510,0.795924,0.000000,2.000000
20,0.000002,0.817686,0.920032,0.000000,0.000000,0.000000,0.268902,0.599689,0.000000,0.956528,0.098576,0.000000,0.000000,0.695469,0.938209,0.177262,0.000000
21,0.000002,0.817686,0.920032,0.000000,0.000000,0.000000,0.268902,0.599689,0.000000,0.956528,0.098576,0.000000,0.000000,0.695469,0.938209,0.177262,0.000000
22,0.000002,0.817686,0.920032,0.000000,0.000000,0.000000,0.268902,0.599689,0.000000,0.956528,0.098576,0.000000,0.000000,0.695469,0.938209,0.177262,0.000000
23,0.000002,0.817686,0.920032,0.000000,0.000000,0.000000,0.268902,0.599689,0.000000,0.956528,0.098576,0.000000,0.000000,0.695469,0.938209,0.177262,0.000000
24,0.000002,0.817686,0.920032,0.000000,0.000000,0.000000,0.268902,0.599689,0.000000,0.956528,0.098576,0.000000,0.000000,0.695469,0.938209,0.177262,0.000000
25,0.000001,0.913903,1.000000,0.000000,0.000000,0.298876,0.290663,0.656953,0.000000,1.000000,0.344193,0.000000,0.045599,0.459032,0.747789,0.132188,1.000000
26,0.000001,0.913903,1.000000,0.000000,0.000000,0.298876,0.290663,0.656953,0.000000,1.000000,0.344193,0.000000,0.045599,0.459032,0.747789,0.132188,1.000000
27,0.000000,0.856755,0.928850,0.000000,0.000000,0.000000,0.110337,0.588320,1.000000,0.971987,0.387274,0.018647,0.000000,0.582480,0.909552,0.057514,2.000000
gen, fitness
0,0.011444,0.000000,1.000000,0.210000,0.800000,0.030000,0.030000,1.000000,0.000000,1.000000,0.000000,0.000000,0.600000,1.000000,1.000000,0.000000,0.000000
1,0.011444,0.000000,1.000000,0.210000,0.800000,0.030000,0.030000,1.000000,0.000000,1.000000,0.000000,0.000000,0.600000,1.000000,1.000000,0.000000,0.000000
2,0.003704,0.000000,0.868338,0.294435,0.580887,0.070487,0.084638,1.000000,2.000000,1.000000,0.000000,0.000000,0.497305,1.000000,1.000000,0.000000,2.000000
3,0.003626,0.000000,0.780957,0.294435,0.580887,0.070487,0.027420,1.000000,1.000000,1.000000,0.000000,0.000000,0.497305,1.000000,1.000000,0.041223,2.000000
4,0.001590,0.000000,1.000000,0.210000,0.536143,0.000000,0.166092,1.000000,0.000000,0.874819,0.000000,0.013664,0.372248,1.000000,1.000000,0.106591,0.000000
5,0.001441,0.045459,0.907559,0.081993,0.652286,0.217248,0.000000,0.927255,2.000000,1.000000,0.063404,0.000000,0.376036,1.000000,0.935306,0.062160,1.000000
6,0.000499,0.051621,0.859731,0.161025,0.490712,0.093434,0.203470,0.970406,0.000000,0.940158,0.000000,0.000000,0.311975,1.000000,0.644011,0.000000,1.000000
7,0.000394,0.393423,1.000000,0.000000,0.637610,0.000000,0.030000,0.867272,1.000000,1.000000,0.000000,0.000000,0.450565,1.000000,0.904229,0.000000,1.000000
8,0.000354,0.447679,1.000000,0.000000,0.637610,0.000000,0.104535,0.882765,0.000000,1.000000,0.066948,0.000000,0.442518,0.965326,0.974113,0.000000,2.000000
9,0.000033,0.472632,1.000000,0.000000,0.549802,0.030000,0.195264,0.882765,2.000000,0.978280,0.000000,0.000000,0.365777,0.855307,0.974113,0.000000,2.000000
10,0.000012,0.000000,0.654449,0.170665,0.405239,0.068823,0.000000,0.761205,0.000000,0.972656,0.000000,0.000000,0.139020,0.965756,1.000000,0.034621,0.000000
11,0.000006,0.000000,0.654449,0.170665,0.423738,0.117179,0.000000,0.938768,1.000000,1.000000,0.029357,0.059115,0.091382,0.961433,1.000000,0.034621,1.000000
12,0.000006,0.000000,0.654449,0.170665,0.423738,0.117179,0.000000,0.938768,1.000000,1.000000,0.029357,0.059115,0.091382,0.961433,1.000000,0.034621,1.000000
13,0.000006,0.000000,0.654449,0.170665,0.423738,0.117179,0.000000,0.938768,1.000000,1.000000,0.029357,0.059115,0.091382,0.961433,1.000000,0.034621,1.000000
14,0.000005,0.472632,0.806171,0.000000,0.549802,0.030000,0.195264,0.884757,1.000000,0.978280,0.000000,0.000000,0.365777,0.983332,1.000000,0.087593,1.000000
15,0.000005,0.472632,0.806171,0.000000,0.549802,0.030000,0.195264,0.884757,1.000000,0.978280,0.000000,0.000000,0.365777,0.983332,1.000000,0.087593,1.000000
16,0.000001,0.099765,0.632256,0.135290,0.431515,0.084778,0.135319,0.902064,2.000000,1.000000,0.110830,0.000000,0.178460,0.884915,1.000000,0.000000,1.000000
gen, fitness
0,0.010533,0.000000,1.000000,0.210000,0.800000,0.030000,0.030000,1.000000,0.000000,1.000000,0.000000,0.000000,0.600000,1.000000,1.000000,0.000000,0.000000
1,0.010533,0.000000,1.000000,0.210000,0.800000,0.030000,0.030000,1.000000,0.000000,1.000000,0.000000,0.000000,0.600000,1.000000,1.000000,0.000000,0.000000
2,0.001575,0.000000,1.000000,0.210000,0.688983,0.030000,0.000000,1.000000,0.000000,1.000000,0.000000,0.000000,0.559338,1.000000,1.000000,0.000000,0.000000
3,0.001527,0.000000,1.000000,0.210000,0.685369,0.030000,0.030000,1.000000,0.000000,1.000000,0.000000,0.000000,0.549007,0.978026,0.952054,0.000000,0.000000
4,0.000747,0.394564,0.822695,0.210000,0.606273,0.122141,0.048030,1.000000,1.000000,1.000000,0.000000,0.000000,0.600000,1.000000,0.945324,0.000000,1.000000
5,0.000595,0.134322,0.811846,0.081645,0.706330,0.000000,0.000000,0.731111,0.000000,1.000000,0.043339,0.000000,0.468418,0.931578,1.000000,0.577787,0.000000
6,0.000333,0.264503,0.925349,0.067191,0.632817,0.149717,0.257750,0.952821,0.000000,0.874418,0.035612,0.000000,0.531966,0.911830,0.969648,0.000000,1.000000
7,0.000001,0.121836,1.000000,0.000000,0.612004,0.269240,0.180942,0.853742,1.000000,0.858290,0.202013,0.000000,0.373952,1.000000,0.754952,0.000000,2.000000
gen, fitness
0,0.067934,0.000000,1.000000,0.210000,0.800000,0.030000,0.030000,1.000000,0.000000,1.000000,0.000000,0.000000,0.600000,1.000000,1.000000,0.000000,0.000000
1,0.067934,0.000000,1.000000,0.210000,0.800000,0.030000,0.030000,1.000000,0.000000,1.000000,0.000000,0.000000,0.600000,1.000000,1.000000,0.000000,0.000000
2,0.052693,0.000000,0.884815,0.235162,0.656918,0.039453,0.000000,0.998138,2.000000,1.000000,0.053313,0.014180,0.600000,1.000000,1.000000,0.000000,0.000000
3,0.037472,0.000000,0.858072,0.135072,0.648170,0.291257,0.030000,1.000000,1.000000,0.862590,0.000000,0.000000,0.420735,0.999595,0.982562,0.000000,0.000000
4,0.027034,0.050855,1.000000,0.000000,0.636301,0.015279,0.072964,0.930270,2.000000,1.000000,0.230078,0.000000,0.429382,0.960774,1.000000,0.164210,0.000000
5,0.015087,0.134638,0.881163,0.061592,0.540128,0.101149,0.088015,1.000000,0.000000,0.862590,0.237365,0.000000,0.197249,1.000000,0.961242,0.035015,2.000000
6,0.008917,0.266087,0.842879,0.000000,0.514630,0.398821,0.017897,0.868168,1.000000,0.915794,0.000000,0.003733,0.264588,0.999595,0.982562,0.000000,0.000000
7,0.005557,0.266087,0.842879,0.000000,0.457244,0.398821,0.017897,0.868168,2.000000,0.872139,0.092959,0.003733,0.155910,0.966887,0.982562,0.000000,0.000000
8,0.002313,0.164855,1.000000,0.079769,0.283617,0.101149,0.000000,1.000000,2.000000,0.807063,0.235208,0.000000,0.004818,1.000000,0.928149,0.000000,0.000000
9,0.000765,0.340302,1.000000,0.000000,0.283617,0.070878,0.022125,1.000000,2.000000,0.785919,0.041530,0.000000,0.004818,1.000000,0.860500,0.000000,2.000000
10,0.000192,0.361873,1.000000,0.000000,0.283617,0.070878,0.022125,0.932463,1.000000,0.838273,0.106194,0.000000,0.000000,1.000000,0.871680,0.096057,0.000000
11,0.000087,0.642330,0.999177,0.000000,0.154775,0.146596,0.051839,0.978033,2.000000,0.769636,0.372579,0.002926,0.094665,1.000000,0.937400,0.089519,1.000000
12,0.000025,0.515406,0.892395,0.049229,0.096269,0.000000,0.289062,0.745677,2.000000,0.676809,0.175430,0.024634,0.002541,1.000000,0.955616,0.000000,1.000000
13,0.000017,0.443452,0.889304,0.000000,0.197951,0.000000,0.022125,1.000000,2.000000,0.785919,0.095924,0.000638,0.000000,0.745376,0.758386,0.000000,2.000000
14,0.000017,0.443452,0.889304,0.000000,0.197951,0.000000,0.022125,1.000000,2.000000,0.785919,0.095924,0.000638,0.000000,0.745376,0.758386,0.000000,2.000000
15,0.000005,0.446416,0.889304,0.000000,0.200103,0.000000,0.000000,0.930279,1.000000,0.781766,0.288210,0.000000,0.000000,0.740476,0.904088,0.000000,2.000000
16,0.000005,0.446416,0.889304,0.000000,0.200103,0.000000,0.000000,0.930279,1.000000,0.781766,0.288210,0.000000,0.000000,0.740476,0.904088,0.000000,2.000000
17,0.000005,0.446416,0.889304,0.000000,0.200103,0.000000,0.000000,0.930279,1.000000,0.781766,0.288210,0.000000,0.000000,0.740476,0.904088,0.000000,2.000000
18,0.000005,0.446416,0.889304,0.000000,0.200103,0.000000,0.000000,0.930279,1.000000,0.781766,0.288210,0.000000,0.000000,0.740476,0.904088,0.000000,2.000000
19,0.000003,0.645127,0.351774,0.000000,0.028634,0.000000,0.000000,1.000000,2.000000,0.453059,0.247525,0.034235,0.084465,0.873772,0.728393,0.000000,0.000000
20,0.000003,0.645127,0.351774,0.000000,0.028634,0.000000,0.000000,1.000000,2.000000,0.453059,0.247525,0.034235,0.084465,0.873772,0.728393,0.000000,0.000000
21,0.000003,0.645127,0.351774,0.000000,0.028634,0.000000,0.000000,1.000000,2.000000,0.453059,0.247525,0.034235,0.084465,0.873772,0.728393,0.000000,0.000000
22,0.000003,0.645127,0.351774,0.000000,0.028634,0.000000,0.000000,1.000000,2.000000,0.453059,0.247525,0.034235,0.084465,0.873772,0.728393,0.000000,0.000000
23,0.000002,0.645127,0.294481,0.000000,0.028634,0.090917,0.000000,1.000000,2.000000,0.449983,0.194998,0.043044,0.084465,0.797672,0.671263,0.000000,0.000000
24,0.000002,0.645127,0.294481,0.000000,0.028634,0.090917,0.000000,1.000000,2.000000,0.449983,0.194998,0.043044,0.084465,0.797672,0.671263,0.000000,0.000000
25,0.000002,0.645127,0.294481,0.000000,0.028634,0.090917,0.000000,1.000000,2.000000,0.449983,0.194998,0.043044,0.084465,0.797672,0.671263,0.000000,0.000000
gen, fitness
0,0.030614,0.000000,1.000000,0.210000,0.800000,0.030000,0.030000,1.000000,0.000000,1.000000,0.000000,0.000000,0.600000,1.000000,1.000000,0.000000,0.000000
1,0.030614,0.000000,1.000000,0.210000,0.800000,0.030000,0.030000,1.000000,0.000000,1.000000,0.000000,0.000000,0.600000,1.000000,1.000000,0.000000,0.000000
2,0.008034,0.000000,0.891182,0.050112,0.706742,0.030000,0.000000,1.000000,0.000000,1.000000,0.000000,0.047978,0.390531,0.972674,1.000000,0.000000,0.000000
3,0.006711,0.005081,0.891182,0.000000,0.706742,0.058511,0.000000,0.870238,1.000000,1.000000,0.000000,0.029476,0.390531,0.972674,1.000000,0.082291,0.000000
4,0.005563,0.000000,0.899762,0.071491,0.594981,0.000000,0.000000,1.000000,2.000000,0.953484,0.134461,0.000000,0.364868,1.000000,1.000000,0.000000,2.000000
5,0.003444,0.568741,1.000000,0.210243,0.437514,0.076308,0.118485,0.978025,1.000000,1.000000,0.000000,0.000000,0.458942,0.877709,0.875836,0.103251,2.000000
6,0.000818,0.404237,0.923022,0.000000,0.516549,0.119029,0.014422,1.000000,2.000000,0.999663,0.089773,0.000000,0.299436,0.963354,1.000000,0.000000,2.000000
7,0.000818,0.404237,0.923022,0.000000,0.516549,0.119029,0.014422,1.000000,2.000000,0.999663,0.089773,0.000000,0.299436,0.963354,1.000000,0.000000,2.000000
8,0.000428,0.149445,0.800104,0.000000,0.513018,0.000000,0.000000,1.000000,0.000000,1.000000,0.134461,0.000000,0.193433,1.000000,0.916962,0.000000,2.000000
9,0.000051,0.420715,0.929010,0.000000,0.429085,0.062263,0.045186,1.000000,1.000000,1.000000,0.168854,0.000000,0.203078,1.000000,1.000000,0.000000,0.000000
10,0.000011,0.420715,0.763374,0.001786,0.429085,0.230984,0.120873,1.000000,1.000000,1.000000,0.168854,0.000000,0.215296,1.000000,1.000000,0.000000,0.000000
11,0.000007,0.420715,0.759998,0.000000,0.418269,0.230984,0.156209,1.000000,1.000000,0.970787,0.168854,0.000000,0.215296,0.891380,1.000000,0.000000,1.000000
12,0.000007,0.420715,0.929010,0.000000,0.429085,0.008965,0.045186,1.000000,1.000000,1.000000,0.258527,0.000000,0.189849,1.000000,1.000000,0.120355,2.000000
13,0.000007,0.420715,0.929010,0.000000,0.429085,0.008965,0.045186,1.000000,1.000000,1.000000,0.258527,0.000000,0.189849,1.000000,1.000000,0.120355,2.000000
14,0.000005,0.420715,0.759998,0.000000,0.418269,0.062263,0.315535,1.000000,2.000000,1.000000,0.168854,0.000000,0.203078,0.895314,1.000000,0.000000,1.000000
15,0.000002,0.449237,0.533170,0.000000,0.398535,0.230984,0.037871,1.000000,2.000000,0.970787,0.279031,0.000000,0.215296,0.891380,1.000000,0.000000,1.000000
16,0.000002,0.449237,0.533170,0.000000,0.398535,0.230984,0.037871,1.000000,2.000000,0.970787,0.279031,0.000000,0.215296,0.891380,1.000000,0.000000,1.000000
17,0.000002,0.449237,0.533170,0.000000,0.398535,0.230984,0.037871,1.000000,2.000000,0.970787,0.279031,0.000000,0.215296,0.891380,1.000000,0.000000,1.000000
18,0.000002,0.420715,0.606193,0.000000,0.418269,0.230984,0.125897,1.000000,0.000000,0.970787,0.168854,0.000000,0.215296,0.891380,1.000000,0.000000,2.000000
19,0.000001,0.420715,0.510992,0.000000,0.418269,0.241322,0.125897,1.000000,0.000000,0.970787,0.168854,0.000000,0.215296,0.891380,1.000000,0.000000,1.000000
gen, fitness
0,0.009712,0.000000,1.000000,0.210000,0.800000,0.030000,0.030000,1.000000,0.000000,1.000000,0.000000,0.000000,0.600000,1.000000,1.000000,0.000000,0.000000
1,0.009712,0.000000,1.000000,0.210000,0.800000,0.030000,0.030000,1.000000,0.000000,1.000000,0.000000,0.000000,0.600000,1.000000,1.000000,0.000000,0.000000
2,0.000210,0.072020,1.000000,0.210000,0.693020,0.038717,0.030000,0.907704,0.000000,1.000000,0.000000,0.000000,0.612821,1.000000,1.000000,0.000000,0.000000
3,0.000190,0.000000,0.904148,0.182711,0.642851,0.124362,0.077686,0.786373,0.000000,1.000000,0.000000,0.001636,0.532124,1.000000,1.000000,0.000000,2.000000
4,0.000025,0.032617,1.000000,0.131051,0.693020,0.064832,0.127156,0.904650,1.000000,1.000000,0.000000,0.111920,0.477093,1.000000,1.000000,0.056099,1.000000
5,0.000025,0.032617,1.000000,0.131051,0.693020,0.064832,0.127156,0.904650,1.000000,1.000000,0.000000,0.111920,0.477093,1.000000,1.000000,0.056099,1.000000
6,0.000005,0.000000,0.772154,0.182711,0.673415,0.012679,0.000000,0.589455,0.000000,1.000000,0.000000,0.001636,0.532124,1.000000,0.921757,0.000000,1.000000
7,0.000005,0.000000,0.772154,0.182711,0.673415,0.012679,0.000000,0.589455,0.000000,1.000000,0.000000,0.001636,0.532124,1.000000,0.921757,0.000000,1.000000
8,0.000002,0.000000,1.000000,0.182711,0.673415,0.028612,0.128095,0.549904,0.000000,1.000000,0.243674,0.000000,0.527222,1.000000,0.921757,0.000000,2.000000
9,0.000000,0.032675,1.000000,0.206544,0.576982,0.007501,0.077362,0.828323,0.000000,0.821934,0.000053,0.000000,0.531511,1.000000,1.000000,0.000000,0.000000
gen, fitness
0,0.026348,0.000000,1.000000,0.210000,0.800000,0.030000,0.030000,1.000000,0.000000,1.000000,0.000000,0.000000,0.600000,1.000000,1.000000,0.000000,0.000000
1,0.026348,0.000000,1.000000,0.210000,0.800000,0.030000,0.030000,1.000000,0.000000,1.000000,0.000000,0.000000,0.600000,1.000000,1.000000,0.000000,0.000000
2,0.006401,0.066045,1.000000,0.210000,0.568647,0.030000,0.000000,1.000000,1.000000,0.859716,0.000000,0.000000,0.517656,0.894584,1.000000,0.000000,0.000000
3,0.005947,0.000000,0.916936,0.075690,0.694290,0.029309,0.030000,0.925978,1.000000,1.000000,0.007234,0.000000,0.457317,0.914799,1.000000,0.117851,0.000000
4,0.003698,0.039774,1.000000,0.260666,0.507556,0.000000,0.047471,1.000000,1.000000,0.929025,0.000000,0.000016,0.402411,0.894584,1.000000,0.000000,2.000000
5,0.002590,0.038372,0.916936,0.022771,0.650630,0.029309,0.000000,0.860246,0.000000,0.923162,0.000000,0.024447,0.268655,0.885440,1.000000,0.048988,2.000000
6,0.002439,0.033311,1.000000,0.022771,0.650630,0.060387,0.000000,0.860246,0.000000,0.882582,0.000000,0.082366,0.268655,0.885440,1.000000,0.177837,2.000000
7,0.000064,0.182445,0.966039,0.103130,0.380578,0.219709,0.005235,1.000000,0.000000,0.874171,0.000000,0.000000,0.196649,0.914896,0.982158,0.035836,1.000000
8,0.000064,0.182445,0.966039,0.103130,0.380578,0.219709,0.005235,1.000000,0.000000,0.874171,0.000000,0.000000,0.196649,0.914896,0.982158,0.035836,1.000000
9,0.000032,0.012321,1.000000,0.201989,0.300461,0.000000,0.000000,1.000000,0.000000,0.836198,0.089733,0.000000,0.150898,1.000000,0.849941,0.211702,0.000000
10,0.000032,0.012321,1.000000,0.201989,0.300461,0.000000,0.000000,1.000000,0.000000,0.836198,0.089733,0.000000,0.150898,1.000000,0.849941,0.211702,0.000000
11,0.000018,0.142727,0.783993,0.038621,0.489174,0.069138,0.075521,0.874513,0.000000,0.970603,0.103461,0.000000,0.196064,0.473962,0.831385,0.154175,0.000000
12,0.000009,0.142727,0.847005,0.076077,0.433810,0.092206,0.170412,0.949881,1.000000,0.970603,0.227255,0.000000,0.181236,0.473962,0.919601,0.000000,2.000000
13,0.000001,0.207511,1.000000,0.050349,0.383802,0.300613,0.003741,1.000000,0.000000,0.721493,0.012867,0.032091,0.205270,1.000000,1.000000,0.076121,1.000000
14,0.000001,0.207511,1.000000,0.050349,0.383802,0.300613,0.003741,1.000000,0.000000,0.721493,0.012867,0.032091,0.205270,1.000000,1.000000,0.076121,1.000000
15,0.000001,0.207511,1.000000,0.050349,0.383802,0.300613,0.003741,1.000000,0.000000,0.721493,0.012867,0.032091,0.205270,1.000000,1.000000,0.076121,1.000000
16,0.000001,0.207511,1.000000,0.050349,0.383802,0.300613,0.003741,1.000000,0.000000,0.721493,0.012867,0.032091,0.205270,1.000000,1.000000,0.076121,1.000000
17,0.000001,0.207511,1.000000,0.050349,0.383802,0.300613,0.003741,1.000000,0.000000,0.721493,0.012867,0.032091,0.205270,1.000000,1.000000,0.076121,1.000000
18,0.000001,0.207511,1.000000,0.050349,0.383802,0.300613,0.003741,1.000000,0.000000,0.721493,0.012867,0.032091,0.205270,1.000000,1.000000,0.076121,1.000000
19,0.000001,0.207511,1.000000,0.050349,0.383802,0.300613,0.003741,1.000000,0.000000,0.721493,0.012867,0.032091,0.205270,1.000000,1.000000,0.076121,1.000000
20,0.000001,0.207511,1.000000,0.050349,0.383802,0.300613,0.003741,1.000000,0.000000,0.721493,0.012867,0.032091,0.205270,1.000000,1.000000,0.076121,1.000000
21,0.000001,0.207511,1.000000,0.050349,0.383802,0.300613,0.003741,1.000000,0.000000,0.721493,0.012867,0.032091,0.205270,1.000000,1.000000,0.076121,1.000000
gen, fitness
0,0.052335,0.000000,1.000000,0.210000,0.800000,0.030000,0.030000,1.000000,0.000000,1.000000,0.000000,0.000000,0.600000,1.000000,1.000000,0.000000,0.000000
1,0.052335,0.000000,1.000000,0.210000,0.800000,0.030000,0.030000,1.000000,0.000000,1.000000,0.000000,0.000000,0.600000,1.000000,1.000000,0.000000,0.000000
2,0.025283,0.116509,1.000000,0.210000,0.662927,0.000000,0.030000,1.000000,0.000000,1.000000,0.000000,0.000000,0.527474,1.000000,1.000000,0.000000,2.000000
3,0.023526,0.080046,1.000000,0.000000,0.685070,0.030000,0.030000,1.000000,1.000000,1.000000,0.000000,0.000000,0.556542,0.989464,0.945803,0.000000,1.000000
4,0.013256,0.000000,1.000000,0.000000,0.685070,0.030000,0.030000,1.000000,1.000000,0.949511,0.121862,0.000000,0.361274,0.970695,0.945803,0.000000,1.000000
5,0.009967,0.242343,0.938381,0.126375,0.528675,0.166138,0.000000,0.984978,0.000000,1.000000,0.098347,0.000000,0.424845,0.938849,1.000000,0.025102,2.000000
6,0.006172,0.242343,0.938381,0.126375,0.428157,0.048919,0.127186,1.000000,2.000000,1.000000,0.098347,0.000000,0.342336,0.882554,1.000000,0.027473,1.000000
7,0.003601,0.267373,0.938381,0.126375,0.428157,0.048919,0.114661,0.915040,2.000000,1.000000,0.000000,0.000000,0.261323,0.858821,1.000000,0.023371,2.000000
8,0.003539,0.242343,0.938381,0.126375,0.428157,0.048919,0.126101,1.000000,2.000000,1.000000,0.098347,0.000000,0.210451,0.882554,1.000000,0.027473,1.000000
9,0.000737,0.267373,1.000000,0.042669,0.428157,0.203501,0.122469,0.791059,0.000000,1.000000,0.129418,0.013842,0.090797,0.844005,1.000000,0.000000,2.000000
10,0.000476,0.331457,0.870146,0.000000,0.428157,0.323400,0.178876,0.791059,0.000000,1.000000,0.000000,0.013842,0.158906,0.829486,1.000000,0.023371,0.000000
11,0.000256,0.247082,0.797226,0.042669,0.338411,0.290507,0.000000,0.729910,0.000000,0.873745,0.112459,0.000000,0.094191,0.858870,1.000000,0.092053,2.000000
12,0.000152,0.247082,0.797226,0.065839,0.338411,0.290507,0.000000,0.550216,0.000000,0.962549,0.108270,0.000000,0.075411,0.683025,0.885249,0.030153,2.000000
13,0.000135,0.325413,0.654292,0.000000,0.343465,0.208790,0.208725,0.688784,1.000000,0.832033,0.040097,0.000000,0.116424,0.692114,1.000000,0.083484,0.000000
14,0.000006,0.465336,0.626994,0.033421,0.328471,0.029828,0.233253,0.695529,2.000000,1.000000,0.239098,0.062735,0.019915,0.824883,0.894398,0.206012,0.000000
15,0.000006,0.465336,0.626994,0.033421,0.328471,0.029828,0.233253,0.695529,2.000000,1.000000,0.239098,0.062735,0.019915,0.824883,0.894398,0.206012,0.000000
16,0.000000,0.194623,0.744321,0.065839,0.338411,0.290507,0.000000,0.393466,1.000000,0.989928,0.149158,0.000000,0.001474,0.660581,1.000000,0.000000,1.000000
gen, fitness
0,0.080636,0.000000,1.000000,0.210000,0.800000,0.030000,0.030000,1.000000,0.000000,1.000000,0.000000,0.000000,0.600000,1.000000,1.000000,0.000000,0.000000
1,0.080636,0.000000,1.000000,0.210000,0.800000,0.030000,0.030000,1.000000,0.000000,1.000000,0.000000,0.000000,0.600000,1.000000,1.000000,0.000000,0.000000
2,0.047458,0.000000,1.000000,0.210000,0.626218,0.000000,0.030000,1.000000,0.000000,0.992491,0.000000,0.000000,0.569704,0.987956,1.000000,0.000000,1.000000
3,0.032921,0.000000,0.930021,0.037697,0.650457,0.030000,0.055065,1.000000,1.000000,1.000000,0.000000,0.000000,0.436436,1.000000,0.936949,0.000000,1.000000
4,0.028899,0.000000,1.000000,0.098811,0.608489,0.030000,0.055065,1.000000,0.000000,1.000000,0.000000,0.000000,0.335985,0.882108,1.000000,0.000000,1.000000
5,0.018328,0.036889,1.000000,0.041963,0.546676,0.000000,0.030000,1.000000,0.000000,0.995003,0.157001,0.000000,0.275493,1.000000,0.889383,0.000000,0.000000
6,0.013248,0.082566,1.000000,0.000000,0.546676,0.000000,0.030000,1.000000,0.000000,1.000000,0.321095,0.030655,0.146511,1.000000,0.818561,0.000000,0.000000
7,0.011717,0.101007,0.976937,0.041963,0.392726,0.146122,0.094002,1.000000,2.000000,1.000000,0.149678,0.000000,0.219367,1.000000,0.889383,0.049360,0.000000
8,0.008566,0.000000,1.000000,0.041963,0.392726,0.000000,0.198163,1.000000,1.000000,1.000000,0.160151,0.000000,0.112642,1.000000,0.853274,0.000000,2.000000
9,0.004405,0.046815,1.000000,0.031809,0.336851,0.000000,0.040678,1.000000,0.000000,1.000000,0.185426,0.000000,0.027063,0.911070,0.555421,0.107487,1.000000
10,0.002610,0.181476,0.620123,0.052135,0.242755,0.000000,0.437032,0.622947,1.000000,0.846425,0.062553,0.000000,0.012396,0.888869,0.827644,0.221248,0.000000
11,0.000642,0.302504,0.973493,0.001078,0.247283,0.008067,0.000000,0.889249,0.000000,0.914760,0.245536,0.000000,0.000000,0.747085,1.000000,0.075766,0.000000
12,0.000642,0.302504,0.973493,0.001078,0.247283,0.008067,0.000000,0.889249,0.000000,0.914760,0.245536,0.000000,0.000000,0.747085,1.000000,0.075766,0.000000
13,0.000275,0.415763,0.741986,0.001078,0.186665,0.000000,0.214379,0.889249,0.000000,0.990375,0.305500,0.000000,0.000000,0.583799,0.961986,0.000000,2.000000
14,0.000145,0.442088,0.741986,0.000000,0.202474,0.000000,0.000000,0.713863,0.000000,0.885706,0.281697,0.000000,0.000000,0.747085,1.000000,0.226264,1.000000
15,0.000132,0.541275,0.647291,0.000000,0.196499,0.045771,0.330540,0.458874,1.000000,1.000000,0.133092,0.020678,0.000000,0.855019,0.906509,0.000000,1.000000
16,0.000131,0.415763,0.741986,0.001078,0.186665,0.000000,0.214379,0.904349,2.000000,0.959267,0.305500,0.000000,0.000000,0.724379,0.961986,0.000000,0.000000
17,0.000064,0.497380,0.660591,0.102405,0.068657,0.000000,0.149593,0.889249,2.000000,0.966345,0.298217,0.000000,0.000000,0.687137,0.990201,0.000000,0.000000
18,0.000008,0.485120,0.741986,0.000000,0.186665,0.000000,0.104026,0.676935,1.000000,0.928826,0.320211,0.000000,0.000000,0.706396,0.735630,0.051116,1.000000
19,0.000008,0.485120,0.741986,0.000000,0.186665,0.000000,0.104026,0.676935,1.000000,0.928826,0.320211,0.000000,0.000000,0.706396,0.735630,0.051116,1.000000
20,0.000005,0.604140,0.834794,0.000000,0.187275,0.000000,0.211689,0.996993,0.000000,1.000000,0.651205,0.000000,0.000000,0.796065,0.970940,0.410434,0.000000
21,0.000000,0.511340,0.693550,0.102405,0.068657,0.314393,0.111605,0.889249,0.000000,1.000000,0.427463,0.000000,0.000000,0.666351,0.900950,0.000000,1.000000
gen, fitness
0,0.025383,0.000000,1.000000,0.210000,0.800000,0.030000,0.030000,1.000000,0.000000,1.000000,0.000000,0.000000,0.600000,1.000000,1.000000,0.000000,0.000000
1,0.025383,0.000000,1.000000,0.210000,0.800000,0.030000,0.030000,1.000000,0.000000,1.000000,0.000000,0.000000,0.600000,1.000000,1.000000,0.000000,0.000000
2,0.009292,0.101598,1.000000,0.213785,0.597472,0.207194,0.000000,0.959788,0.000000,0.725160,0.000000,0.000000,0.602422,0.946944,1.000000,0.000000,0.000000
3,0.007025,0.101598,1.000000,0.213785,0.597472,0.207194,0.007896,0.959788,0.000000,0.933749,0.000000,0.020941,0.522299,1.000000,1.000000,0.129796,0.000000
4,0.004745,0.176545,1.000000,0.213785,0.506072,0.397307,0.000000,0.765629,0.000000,0.776875,0.028187,0.021687,0.450090,0.845430,0.952822,0.205107,2.000000
5,0.002898,0.176545,1.000000,0.213785,0.506072,0.171573,0.000000,0.765629,0.000000,1.000000,0.028187,0.099481,0.304454,0.892541,0.951185,0.205107,2.000000
6,0.000643,0.176545,1.000000,0.213785,0.368198,0.171573,0.012889,0.765629,2.000000,1.000000,0.067629,0.000000,0.246328,0.892541,0.951185,0.205107,0.000000
7,0.000483,0.176545,0.948211,0.184408,0.400136,0.258764,0.144257,0.698564,1.000000,1.000000,0.075690,0.033088,0.151179,0.892541,1.000000,0.281941,2.000000
8,0.000438,0.092582,0.864955,0.301992,0.189592,0.171573,0.238102,0.765629,2.000000,0.955226,0.124353,0.069192,0.063978,0.892541,0.935796,0.281941,2.000000
9,0.000035,0.092582,0.999922,0.210698,0.189592,0.171573,0.197472,0.826143,0.000000,0.759792,0.124353,0.000000,0.063978,0.892541,0.849617,0.281941,2.000000
10,0.000003,0.272406,0.932287,0.263097,0.189592,0.124380,0.308104,0.765629,0.000000,0.916504,0.183937,0.069192,0.063978,0.835672,0.935796,0.287176,2.000000
11,0.000003,0.272406,0.932287,0.263097,0.189592,0.124380,0.308104,0.765629,0.000000,0.916504,0.183937,0.069192,0.063978,0.835672,0.935796,0.287176,2.000000
12,0.000000,0.000000,1.000000,0.226683,0.153444,0.073800,0.197472,0.794700,2.000000,0.733498,0.069046,0.000000,0.000000,0.785701,1.000000,0.448942,2.000000
