gen, fitness
0,0.013430,0.000000,1.000000,0.210000,0.800000,0.030000,0.030000,1.000000,0.000000,1.000000,0.000000,0.000000,0.600000,1.000000,1.000000,0.000000,0.000000
1,0.013430,0.000000,1.000000,0.210000,0.800000,0.030000,0.030000,1.000000,0.000000,1.000000,0.000000,0.000000,0.600000,1.000000,1.000000,0.000000,0.000000
2,0.000756,0.000000,1.000000,0.210000,0.733700,0.030000,0.030000,1.000000,0.000000,1.000000,0.000000,0.098655,0.600000,0.907672,1.000000,0.000000,0.000000
3,0.000341,0.000000,0.880571,0.210000,0.714815,0.030000,0.030000,1.000000,0.000000,1.000000,0.000000,0.062304,0.600000,1.000000,1.000000,0.000000,0.000000
4,0.000341,0.000000,0.880571,0.210000,0.714815,0.030000,0.030000,1.000000,0.000000,1.000000,0.000000,0.062304,0.600000,1.000000,1.000000,0.000000,0.000000
5,0.000035,0.000000,1.000000,0.066174,0.725587,0.030000,0.030000,1.000000,0.000000,0.932552,0.000000,0.000000,0.600000,1.000000,0.931499,0.000000,0.000000
6,0.000035,0.000000,1.000000,0.066174,0.725587,0.030000,0.030000,1.000000,0.000000,0.932552,0.000000,0.000000,0.600000,1.000000,0.931499,0.000000,0.000000
7,0.000032,0.000000,1.000000,0.066174,0.725587,0.030000,0.000000,1.000000,0.000000,0.932552,0.000000,0.000000,0.600000,1.000000,0.931499,0.000000,1.000000
8,0.000018,0.000000,1.000000,0.066174,0.725587,0.000000,0.205133,1.000000,0.000000,0.918602,0.078192,0.000000,0.600000,1.000000,0.931499,0.000000,0.000000
9,0.000001,0.000000,1.000000,0.066174,0.725587,0.030000,0.030000,1.000000,1.000000,0.932552,0.000000,0.000000,0.600000,1.000000,0.931499,0.000000,0.000000
10,0.000001,0.000000,1.000000,0.066174,0.725587,0.030000,0.030000,1.000000,1.000000,0.932552,0.000000,0.000000,0.600000,1.000000,0.931499,0.000000,0.000000
11,0.000001,0.000000,1.000000,0.066174,0.725587,0.030000,0.030000,1.000000,1.000000,0.932552,0.000000,0.000000,0.600000,1.000000,1.000000,0.000000,0.000000
gen, fitness
0,0.034276,0.000000,1.000000,0.210000,0.800000,0.030000,0.030000,1.000000,0.000000,1.000000,0.000000,0.000000,0.600000,1.000000,1.000000,0.000000,0.000000
1,0.034276,0.000000,1.000000,0.210000,0.800000,0.030000,0.030000,1.000000,0.000000,1.000000,0.000000,0.000000,0.600000,1.000000,1.000000,0.000000,0.000000
2,0.019729,0.000000,0.902393,0.210000,0.800000,0.030000,0.030000,1.000000,1.000000,1.000000,0.000000,0.000000,0.771001,1.000000,1.000000,0.000000,2.000000
3,0.019704,0.000000,0.902393,0.210000,0.800000,0.000000,0.030000,1.000000,1.000000,1.000000,0.000000,0.000000,0.771001,1.000000,1.000000,0.000000,2.000000
4,0.016543,0.000000,1.000000,0.210000,0.865810,0.030000,0.030000,1.000000,0.000000,1.000000,0.000000,0.000000,0.848576,1.000000,1.000000,0.000000,0.000000
5,0.012316,0.000000,1.000000,0.210000,0.931386,0.030000,0.030000,1.000000,0.000000,1.000000,0.000000,0.000000,0.848576,1.000000,1.000000,0.000000,0.000000
6,0.008914,0.068577,1.000000,0.210000,0.931830,0.030000,0.022816,1.000000,0.000000,1.000000,0.000000,0.000000,0.921646,1.000000,1.000000,0.000000,2.000000
7,0.008018,0.068577,1.000000,0.210000,0.931830,0.030000,0.022816,1.000000,0.000000,0.895334,0.000000,0.000000,0.921646,1.000000,0.883798,0.000000,2.000000
8,0.007065,0.000000,1.000000,0.210000,0.931830,0.030000,0.022816,0.890293,1.000000,1.000000,0.000000,0.276252,0.848576,1.000000,0.864516,0.000000,1.000000
9,0.006360,0.000000,1.000000,0.304119,0.931830,0.030000,0.022816,1.000000,0.000000,0.782070,0.000000,0.000000,0.921646,1.000000,0.883798,0.000000,2.000000
10,0.005741,0.000000,1.000000,0.210000,0.931830,0.030000,0.022816,0.890293,2.000000,1.000000,0.000000,0.276252,0.848576,1.000000,1.000000,0.000000,2.000000
11,0.005549,0.000000,1.000000,0.210000,0.931830,0.030000,0.022816,0.890293,2.000000,1.000000,0.000000,0.343485,0.848576,1.000000,0.966524,0.000000,2.000000
12,0.005360,0.000000,1.000000,0.330942,0.931830,0.000000,0.022816,0.890293,1.000000,1.000000,0.000000,0.347894,0.848576,1.000000,0.883798,0.000000,2.000000
13,0.005285,0.024200,1.000000,0.262051,0.931830,0.030000,0.064568,0.890293,2.000000,1.000000,0.000000,0.343485,0.848576,1.000000,0.966524,0.000000,2.000000
14,0.004576,0.000000,1.000000,0.100239,0.962106,0.030000,0.022816,1.000000,2.000000,1.000000,0.000000,0.347894,0.848576,1.000000,0.883798,0.000000,2.000000
15,0.003187,0.009285,1.000000,0.210000,0.987643,0.030000,0.022816,0.816517,2.000000,0.958406,0.000000,0.324435,0.921646,1.000000,1.000000,0.008076,2.000000
16,0.003187,0.009285,1.000000,0.210000,0.987643,0.030000,0.022816,0.816517,2.000000,0.958406,0.000000,0.324435,0.921646,1.000000,1.000000,0.008076,2.000000
17,0.003187,0.009285,1.000000,0.210000,0.987643,0.030000,0.022816,0.816517,2.000000,0.958406,0.000000,0.324435,0.921646,1.000000,1.000000,0.008076,2.000000
18,0.002708,0.000000,1.000000,0.210000,0.987643,0.030000,0.022816,0.890409,2.000000,0.958406,0.000000,0.324435,0.934872,1.000000,1.000000,0.016475,2.000000
19,0.002558,0.000000,1.000000,0.210000,0.987643,0.103346,0.022816,0.896250,2.000000,0.958406,0.000000,0.434926,0.913964,1.000000,1.000000,0.008076,2.000000
20,0.002558,0.000000,1.000000,0.210000,0.987643,0.103346,0.022816,0.896250,2.000000,0.958406,0.000000,0.434926,0.913964,1.000000,1.000000,0.008076,2.000000
21,0.002464,0.000000,1.000000,0.210000,0.987643,0.030000,0.000000,0.896250,2.000000,0.868623,0.135375,0.474161,0.913964,1.000000,1.000000,0.000000,2.000000
22,0.002439,0.000000,1.000000,0.210000,0.987643,0.103346,0.059378,0.896250,2.000000,0.914351,0.000000,0.434926,0.934948,1.000000,1.000000,0.000000,2.000000
23,0.001794,0.000000,1.000000,0.210000,1.000000,0.103346,0.080850,0.896250,2.000000,0.914351,0.000000,0.528160,0.934948,1.000000,1.000000,0.008076,2.000000
24,0.001794,0.000000,1.000000,0.210000,1.000000,0.103346,0.080850,0.896250,2.000000,0.914351,0.000000,0.528160,0.934948,1.000000,1.000000,0.008076,2.000000
25,0.001645,0.000000,0.897066,0.210000,1.000000,0.103346,0.122125,0.896250,2.000000,0.914351,0.000000,0.618969,0.934948,1.000000,1.000000,0.000000,2.000000
26,0.001136,0.000000,1.000000,0.321850,1.000000,0.103346,0.080850,0.972719,2.000000,0.820572,0.000000,0.827440,0.934948,1.000000,1.000000,0.008076,2.000000
27,0.001125,0.000000,1.000000,0.352197,1.000000,0.103346,0.080850,1.000000,2.000000,0.914351,0.000000,0.827440,0.934948,1.000000,1.000000,0.008076,2.000000
28,0.001108,0.000000,1.000000,0.321850,1.000000,0.076418,0.080850,0.972719,2.000000,0.820572,0.000000,0.844992,0.934948,0.994330,1.000000,0.008076,2.000000
29,0.001048,0.000000,1.000000,0.321850,1.000000,0.103346,0.080850,0.972719,2.000000,0.820572,0.000000,0.827440,0.934948,0.994330,1.000000,0.189456,2.000000
30,0.000977,0.000000,1.000000,0.321850,1.000000,0.076418,0.002962,0.972719,2.000000,0.820572,0.041384,0.871842,0.934948,0.994330,1.000000,0.189456,2.000000
31,0.000975,0.000000,1.000000,0.321850,1.000000,0.053746,0.000000,0.972719,2.000000,0.820572,0.000000,0.871842,0.934948,0.994330,1.000000,0.189456,2.000000
32,0.000940,0.000000,1.000000,0.321850,1.000000,0.076418,0.000000,0.972719,2.000000,0.820572,0.041384,0.930118,0.934948,0.994330,1.000000,0.189456,2.000000
33,0.000831,0.000000,1.000000,0.321850,1.000000,0.076418,0.002962,0.972719,2.000000,0.818089,0.041384,0.871842,0.934948,0.994330,1.000000,0.528804,2.000000
34,0.000779,0.000000,1.000000,0.321850,1.000000,0.000000,0.002962,0.925886,2.000000,0.818089,0.041384,1.000000,0.934948,0.994330,1.000000,0.528804,2.000000
35,0.000779,0.000000,1.000000,0.321850,1.000000,0.000000,0.002962,0.925886,2.000000,0.818089,0.041384,1.000000,0.934948,0.994330,1.000000,0.528804,2.000000
36,0.000732,0.000000,1.000000,0.349114,1.000000,0.076418,0.002962,0.972719,2.000000,0.818089,0.041384,1.000000,0.934948,0.994330,1.000000,0.528804,2.000000
37,0.000677,0.000000,1.000000,0.349114,1.000000,0.076418,0.002962,0.972719,2.000000,0.818089,0.041384,1.000000,0.934948,0.994330,1.000000,0.674075,2.000000
38,0.000677,0.000000,1.000000,0.349114,1.000000,0.076418,0.002962,0.972719,2.000000,0.818089,0.041384,1.000000,0.934948,0.994330,1.000000,0.674075,2.000000
39,0.000676,0.000000,1.000000,0.349114,1.000000,0.076418,0.000000,0.972719,2.000000,0.818089,0.041384,1.000000,0.934948,0.994330,1.000000,0.674075,2.000000
40,0.000663,0.000000,1.000000,0.374371,1.000000,0.076418,0.019110,0.972719,2.000000,0.818089,0.041384,1.000000,0.934948,0.994330,1.000000,0.674075,2.000000
41,0.000660,0.000000,1.000000,0.349114,1.000000,0.076418,0.000000,0.972719,2.000000,0.765602,0.144959,1.000000,0.934948,1.000000,1.000000,0.674075,2.000000
42,0.000653,0.000000,1.000000,0.349114,1.000000,0.076418,0.000000,1.000000,2.000000,0.765602,0.144959,1.000000,0.934948,1.000000,1.000000,0.674075,2.000000
43,0.000634,0.000000,1.000000,0.374371,1.000000,0.076418,0.060448,0.972719,2.000000,0.818089,0.077141,1.000000,0.934948,0.994330,1.000000,0.776677,2.000000
44,0.000617,0.000000,1.000000,0.329203,1.000000,0.076418,0.019110,0.972719,2.000000,0.818089,0.041384,1.000000,0.934948,0.910662,1.000000,0.939618,2.000000
45,0.000599,0.000000,1.000000,0.329203,1.000000,0.076418,0.019110,0.972719,2.000000,0.818089,0.041384,1.000000,0.934948,0.910662,1.000000,0.990897,2.000000
46,0.000572,0.000000,1.000000,0.367588,1.000000,0.071544,0.000000,0.972719,2.000000,0.818089,0.096856,1.000000,0.934948,0.847452,1.000000,1.000000,2.000000
47,0.000557,0.000000,1.000000,0.374371,1.000000,0.000000,0.000000,1.000000,2.000000,0.818089,0.041384,1.000000,0.934948,0.910662,1.000000,0.990897,2.000000
48,0.000557,0.000000,1.000000,0.374371,1.000000,0.000000,0.000000,1.000000,2.000000,0.818089,0.041384,1.000000,0.934948,0.910662,1.000000,0.990897,2.000000
49,0.000557,0.000000,1.000000,0.374371,1.000000,0.000000,0.000000,1.000000,2.000000,0.818089,0.041384,1.000000,0.934948,0.910662,1.000000,0.990897,2.000000
50,0.000553,0.000000,1.000000,0.367588,1.000000,0.071544,0.000000,1.000000,2.000000,0.818089,0.096856,1.000000,0.934948,0.994330,1.000000,1.000000,2.000000
51,0.000546,0.000000,1.000000,0.374371,1.000000,0.000000,0.000000,1.000000,2.000000,0.818089,0.041384,1.000000,0.934948,1.000000,1.000000,1.000000,2.000000
52,0.000546,0.000000,1.000000,0.374371,1.000000,0.000000,0.000000,1.000000,2.000000,0.818089,0.041384,1.000000,0.934948,1.000000,1.000000,1.000000,2.000000
53,0.000546,0.000000,1.000000,0.374371,1.000000,0.000000,0.000000,1.000000,2.000000,0.818089,0.096856,1.000000,0.934948,1.000000,1.000000,1.000000,2.000000
54,0.000544,0.000000,1.000000,0.374371,1.000000,0.000000,0.000000,1.000000,2.000000,0.818089,0.096856,1.000000,0.941249,1.000000,1.000000,1.000000,2.000000
55,0.000544,0.000000,1.000000,0.374371,1.000000,0.000000,0.000000,1.000000,2.000000,0.818089,0.096856,1.000000,0.941249,1.000000,1.000000,1.000000,2.000000
56,0.000544,0.000000,1.000000,0.374371,1.000000,0.000000,0.000000,1.000000,2.000000,0.818089,0.096856,1.000000,0.941249,1.000000,1.000000,1.000000,2.000000
57,0.000531,0.000000,1.000000,0.374371,1.000000,0.000000,0.000000,1.000000,2.000000,0.777428,0.096856,1.000000,0.941249,1.000000,0.996671,1.000000,2.000000
58,0.000531,0.000000,1.000000,0.374371,1.000000,0.000000,0.000000,1.000000,2.000000,0.777428,0.096856,1.000000,0.941249,1.000000,0.996671,1.000000,2.000000
59,0.000529,0.000000,1.000000,0.374371,1.000000,0.000000,0.000000,1.000000,2.000000,0.777428,0.175309,1.000000,0.941249,1.000000,0.996671,1.000000,2.000000
60,0.000529,0.000000,1.000000,0.374371,1.000000,0.000000,0.000000,1.000000,2.000000,0.777428,0.175309,1.000000,0.941249,1.000000,0.996671,1.000000,2.000000
61,0.000529,0.000000,1.000000,0.374371,1.000000,0.000000,0.000000,1.000000,2.000000,0.777428,0.143399,1.000000,0.941249,1.000000,1.000000,1.000000,2.000000
62,0.000529,0.000000,1.000000,0.374371,1.000000,0.000000,0.000000,1.000000,2.000000,0.777428,0.143399,1.000000,0.941249,1.000000,1.000000,1.000000,2.000000
63,0.000529,0.000000,1.000000,0.374371,1.000000,0.000000,0.000000,1.000000,2.000000,0.777428,0.210027,1.000000,0.941249,1.000000,0.996671,1.000000,2.000000
64,0.000529,0.000000,1.000000,0.374371,1.000000,0.000000,0.000000,1.000000,2.000000,0.777428,0.210027,1.000000,0.941249,1.000000,0.996671,1.000000,2.000000
65,0.000528,0.000000,1.000000,0.382437,1.000000,0.000000,0.000000,1.000000,2.000000,0.777428,0.210027,1.000000,0.941249,1.000000,0.996671,1.000000,2.000000
66,0.000527,0.000000,1.000000,0.374371,1.000000,0.000000,0.000000,1.000000,2.000000,0.777428,0.330807,1.000000,0.941249,1.000000,0.996671,1.000000,2.000000
67,0.000526,0.000000,1.000000,0.374371,1.000000,0.000000,0.000000,1.000000,2.000000,0.777428,0.367135,1.000000,0.941249,1.000000,1.000000,1.000000,2.000000
gen, fitness
0,0.044384,0.000000,1.000000,0.210000,0.800000,0.030000,0.030000,1.000000,0.000000,1.000000,0.000000,0.000000,0.600000,1.000000,1.000000,0.000000,0.000000
1,0.044384,0.000000,1.000000,0.210000,0.800000,0.030000,0.030000,1.000000,0.000000,1.000000,0.000000,0.000000,0.600000,1.000000,1.000000,0.000000,0.000000
2,0.032564,0.000000,1.000000,0.210000,0.800000,0.030000,0.030000,1.000000,0.000000,1.000000,0.000000,0.027214,0.754547,1.000000,0.912507,0.000000,0.000000
3,0.026878,0.000000,1.000000,0.210000,0.855826,0.030000,0.030000,1.000000,0.000000,1.000000,0.000000,0.027214,0.754547,1.000000,0.912507,0.000000,0.000000
4,0.026878,0.000000,1.000000,0.210000,0.855826,0.030000,0.030000,1.000000,0.000000,1.000000,0.000000,0.027214,0.754547,1.000000,0.912507,0.000000,0.000000
5,0.023700,0.000000,1.000000,0.127252,0.836670,0.030000,0.030000,1.000000,2.000000,0.879068,0.000000,0.027214,0.754547,1.000000,0.912507,0.000000,2.000000
6,0.022932,0.000000,1.000000,0.210000,0.855826,0.030000,0.030000,1.000000,0.000000,0.843636,0.000000,0.135280,0.754547,1.000000,0.869012,0.000000,1.000000
7,0.020713,0.000000,1.000000,0.469362,0.800000,0.030000,0.030000,1.000000,2.000000,1.000000,0.000000,0.027214,0.810831,1.000000,0.912507,0.000000,0.000000
8,0.020632,0.000000,1.000000,0.436899,0.800000,0.030000,0.000000,1.000000,2.000000,1.000000,0.089011,0.133926,0.754547,1.000000,0.897669,0.000000,2.000000
9,0.019705,0.000000,1.000000,0.469362,0.800000,0.030000,0.030000,1.000000,2.000000,1.000000,0.000000,0.000000,0.810831,1.000000,0.912507,0.000000,2.000000
10,0.019397,0.000000,1.000000,0.210000,0.882792,0.030000,0.170122,1.000000,0.000000,0.675116,0.000000,0.267232,0.754547,0.985775,0.912507,0.234133,2.000000
11,0.018971,0.000000,1.000000,0.210000,0.882792,0.030000,0.170122,1.000000,1.000000,0.843636,0.000000,0.267232,0.800668,1.000000,0.912507,0.000000,2.000000
12,0.018384,0.000000,1.000000,0.235138,0.882792,0.030000,0.170122,1.000000,1.000000,0.843636,0.000000,0.267232,0.800668,1.000000,0.912507,0.000000,2.000000
13,0.017391,0.000000,1.000000,0.210000,0.882792,0.030000,0.170122,1.000000,1.000000,0.678051,0.000000,0.267232,0.800668,1.000000,0.840245,0.000000,2.000000
14,0.016436,0.000000,1.000000,0.323538,0.886462,0.030000,0.170122,1.000000,2.000000,0.843636,0.000000,0.267232,0.800668,1.000000,0.912507,0.000000,2.000000
15,0.016436,0.000000,1.000000,0.323538,0.886462,0.030000,0.170122,1.000000,2.000000,0.843636,0.000000,0.267232,0.800668,1.000000,0.912507,0.000000,2.000000
16,0.011180,0.000000,1.000000,0.513640,0.937635,0.030000,0.170122,1.000000,2.000000,0.675116,0.005771,0.425578,0.923367,0.985775,0.818027,0.040133,2.000000
17,0.011089,0.000000,1.000000,0.565938,0.937635,0.030000,0.170122,1.000000,2.000000,0.745250,0.000000,0.425578,0.923367,0.985775,0.818027,0.017666,2.000000
18,0.008987,0.000000,1.000000,0.513640,0.990661,0.000000,0.170122,1.000000,2.000000,0.675116,0.005771,0.425578,1.000000,0.985775,0.818027,0.040133,2.000000
19,0.008987,0.000000,1.000000,0.513640,0.990661,0.000000,0.170122,1.000000,2.000000,0.675116,0.005771,0.425578,1.000000,0.985775,0.818027,0.040133,2.000000
20,0.008620,0.000000,1.000000,0.513640,0.990661,0.030000,0.371941,1.000000,2.000000,0.675116,0.000000,0.267232,1.000000,0.985775,0.843469,0.000000,2.000000
21,0.008259,0.000000,1.000000,0.513640,1.000000,0.000000,0.170122,1.000000,2.000000,0.675116,0.103092,0.425578,1.000000,1.000000,0.894057,0.004066,2.000000
22,0.007966,0.000000,1.000000,0.513640,1.000000,0.000000,0.170122,1.000000,2.000000,0.510871,0.005771,0.425578,1.000000,0.985775,0.818027,0.040133,2.000000
23,0.007930,0.000000,1.000000,0.513640,1.000000,0.000000,0.170122,1.000000,2.000000,0.510871,0.005771,0.425578,1.000000,0.985775,0.818027,0.115155,2.000000
24,0.007873,0.000000,0.879179,0.513640,1.000000,0.000000,0.170122,1.000000,2.000000,0.510871,0.005771,0.522653,1.000000,0.985775,0.818027,0.042399,2.000000
25,0.007736,0.000000,0.879179,0.513640,1.000000,0.000000,0.170122,1.000000,2.000000,0.365773,0.005771,0.522653,1.000000,0.985775,0.818027,0.042399,2.000000
26,0.007735,0.000000,0.879179,0.513640,1.000000,0.000000,0.170122,1.000000,2.000000,0.365773,0.000000,0.522653,1.000000,0.985775,0.818027,0.042399,2.000000
27,0.007684,0.000000,1.000000,0.513640,1.000000,0.000000,0.228724,1.000000,2.000000,0.389682,0.005771,0.534170,1.000000,0.985775,0.818027,0.105796,2.000000
28,0.007539,0.000000,0.879179,0.513640,1.000000,0.000000,0.170122,1.000000,2.000000,0.365773,0.005771,0.624207,1.000000,0.985775,0.818027,0.096883,2.000000
29,0.007506,0.000000,0.876013,0.544684,1.000000,0.000000,0.125801,0.951744,2.000000,0.365773,0.000000,0.695577,1.000000,0.985775,0.769983,0.000000,2.000000
30,0.007368,0.000000,0.879179,0.620870,1.000000,0.000000,0.184551,0.983300,2.000000,0.365773,0.000000,0.695577,1.000000,0.985775,0.638201,0.000000,2.000000
31,0.007352,0.000000,0.879179,0.620870,1.000000,0.000000,0.184551,1.000000,2.000000,0.365773,0.000000,0.695577,1.000000,0.985775,0.638201,0.000000,2.000000
32,0.007324,0.000000,1.000000,0.513640,1.000000,0.000000,0.170122,1.000000,2.000000,0.241033,0.000000,0.695577,1.000000,0.985775,0.769983,0.084892,2.000000
33,0.007299,0.000000,0.876013,0.594508,1.000000,0.000000,0.125801,0.951744,2.000000,0.366836,0.000000,0.826787,1.000000,0.985775,0.769983,0.035788,2.000000
34,0.007110,0.000000,0.879179,0.561979,1.000000,0.000000,0.170122,0.983300,2.000000,0.161097,0.000000,0.837207,1.000000,0.985775,0.769983,0.000000,2.000000
35,0.007110,0.000000,0.879179,0.561979,1.000000,0.000000,0.170122,0.983300,2.000000,0.161097,0.000000,0.837207,1.000000,0.985775,0.769983,0.000000,2.000000
36,0.006955,0.000000,0.810842,0.620870,1.000000,0.000000,0.184551,1.000000,2.000000,0.240526,0.000000,0.892444,1.000000,0.985775,0.569328,0.096883,2.000000
37,0.006888,0.000000,0.960437,0.620870,1.000000,0.000000,0.117282,0.983300,2.000000,0.161097,0.000000,0.959461,1.000000,0.985775,0.766778,0.000000,2.000000
38,0.006808,0.000000,0.960437,0.620870,1.000000,0.000000,0.170122,0.983300,2.000000,0.121733,0.000000,0.959571,1.000000,0.985775,0.617992,0.096883,2.000000
39,0.006768,0.000000,0.960437,0.620870,1.000000,0.000000,0.117282,1.000000,2.000000,0.161097,0.000000,0.959461,1.000000,0.985775,0.760128,0.216849,2.000000
40,0.006768,0.000000,0.960437,0.620870,1.000000,0.000000,0.117282,1.000000,2.000000,0.161097,0.000000,0.959461,1.000000,0.985775,0.760128,0.216849,2.000000
41,0.006671,0.000000,0.960437,0.620870,1.000000,0.000000,0.117282,0.983300,2.000000,0.161097,0.000000,0.959461,1.000000,0.985775,0.569328,0.362162,2.000000
42,0.006638,0.000000,0.960437,0.620870,1.000000,0.000000,0.117282,1.000000,2.000000,0.161097,0.000000,1.000000,1.000000,0.963476,0.769983,0.362162,2.000000
43,0.006609,0.000000,0.960437,0.620870,1.000000,0.000000,0.117282,0.983300,2.000000,0.161097,0.035855,0.959461,1.000000,0.985775,0.569328,0.498638,2.000000
44,0.006603,0.000000,0.960437,0.620870,1.000000,0.000000,0.000000,0.983300,2.000000,0.161097,0.000000,1.000000,1.000000,0.985775,0.583293,0.362162,2.000000
45,0.006564,0.000000,1.000000,0.620870,1.000000,0.000000,0.117282,0.983300,2.000000,0.161097,0.195461,0.959461,1.000000,0.928244,0.560620,0.637509,2.000000
46,0.006477,0.000000,0.960437,0.620870,1.000000,0.000000,0.121360,0.983300,2.000000,0.161097,0.195461,0.959461,1.000000,0.928244,0.560620,0.823373,2.000000
47,0.006396,0.000000,0.960437,0.620870,1.000000,0.000000,0.117282,0.983300,2.000000,0.161097,0.035855,1.000000,1.000000,0.928244,0.560620,0.823373,2.000000
48,0.006395,0.000000,0.952248,0.620870,1.000000,0.000000,0.117282,0.983300,2.000000,0.161097,0.000000,1.000000,1.000000,0.911826,0.560620,0.823373,2.000000
49,0.006325,0.004114,0.960437,0.620870,1.000000,0.000000,0.117282,1.000000,2.000000,0.176193,0.021310,1.000000,1.000000,0.911826,0.560620,0.958519,2.000000
50,0.006325,0.004114,0.960437,0.620870,1.000000,0.000000,0.117282,1.000000,2.000000,0.176193,0.021310,1.000000,1.000000,0.911826,0.560620,0.958519,2.000000
51,0.006325,0.004114,0.960437,0.620870,1.000000,0.000000,0.117282,1.000000,2.000000,0.176193,0.021310,1.000000,1.000000,0.911826,0.560620,0.958519,2.000000
52,0.006313,0.004114,0.901506,0.620870,1.000000,0.000000,0.000000,0.983300,2.000000,0.161097,0.035855,1.000000,1.000000,1.000000,0.560620,0.958519,2.000000
53,0.006295,0.000000,0.974561,0.620870,1.000000,0.000000,0.000000,1.000000,2.000000,0.161097,0.000000,1.000000,1.000000,0.911826,0.560620,0.958519,2.000000
54,0.006286,0.000000,0.960437,0.620870,1.000000,0.000000,0.000000,0.983300,2.000000,0.173919,0.035855,1.000000,1.000000,1.000000,0.488712,0.985665,2.000000
55,0.006261,0.000000,0.977577,0.620870,1.000000,0.000000,0.117282,1.000000,2.000000,0.161097,0.035855,1.000000,1.000000,1.000000,0.432273,1.000000,2.000000
56,0.006261,0.000000,0.977577,0.620870,1.000000,0.000000,0.117282,1.000000,2.000000,0.161097,0.035855,1.000000,1.000000,1.000000,0.432273,1.000000,2.000000
57,0.006246,0.000000,0.977577,0.620870,1.000000,0.000000,0.000000,1.000000,2.000000,0.161097,0.035855,1.000000,1.000000,1.000000,0.432273,1.000000,2.000000
58,0.006223,0.000000,0.977577,0.620870,1.000000,0.000000,0.000000,1.000000,2.000000,0.115193,0.014967,1.000000,1.000000,1.000000,0.432273,1.000000,2.000000
59,0.006217,0.000000,1.000000,0.620870,1.000000,0.000000,0.000000,1.000000,2.000000,0.115193,0.014967,1.000000,1.000000,1.000000,0.412082,1.000000,2.000000
60,0.006217,0.000000,1.000000,0.620870,1.000000,0.000000,0.000000,1.000000,2.000000,0.115193,0.014967,1.000000,1.000000,1.000000,0.412082,1.000000,2.000000
61,0.006209,0.000000,0.977577,0.620870,1.000000,0.000000,0.000000,1.000000,2.000000,0.115193,0.014967,1.000000,1.000000,1.000000,0.369994,1.000000,2.000000
62,0.006200,0.000000,1.000000,0.620870,1.000000,0.000000,0.000000,1.000000,2.000000,0.115193,0.014967,1.000000,1.000000,1.000000,0.330409,1.000000,2.000000
63,0.006200,0.000000,1.000000,0.620870,1.000000,0.000000,0.000000,1.000000,2.000000,0.115193,0.014967,1.000000,1.000000,1.000000,0.330409,1.000000,2.000000
64,0.006183,0.000000,1.000000,0.620870,1.000000,0.000000,0.000000,1.000000,2.000000,0.115193,0.009108,1.000000,1.000000,1.000000,0.212166,1.000000,2.000000
65,0.006183,0.000000,1.000000,0.620870,1.000000,0.000000,0.000000,1.000000,2.000000,0.115193,0.009108,1.000000,1.000000,1.000000,0.212166,1.000000,2.000000
66,0.006178,0.000000,1.000000,0.549462,1.000000,0.013490,0.075746,1.000000,2.000000,0.000000,0.009108,1.000000,1.000000,1.000000,0.212166,1.000000,2.000000
67,0.006178,0.000000,1.000000,0.549462,1.000000,0.013490,0.075746,1.000000,2.000000,0.000000,0.009108,1.000000,1.000000,1.000000,0.212166,1.000000,2.000000
68,0.006173,0.000000,1.000000,0.549462,1.000000,0.000000,0.075746,1.000000,2.000000,0.000000,0.009108,1.000000,1.000000,1.000000,0.212166,1.000000,2.000000
69,0.006171,0.000000,1.000000,0.549462,1.000000,0.000000,0.036021,1.000000,2.000000,0.000000,0.009108,1.000000,1.000000,1.000000,0.279275,1.000000,2.000000
70,0.006168,0.000000,1.000000,0.549462,1.000000,0.000000,0.036021,1.000000,2.000000,0.000000,0.009108,1.000000,1.000000,1.000000,0.212166,1.000000,2.000000
71,0.006162,0.000000,1.000000,0.549462,1.000000,0.000000,0.000000,1.000000,2.000000,0.000000,0.000000,1.000000,1.000000,1.000000,0.212166,1.000000,2.000000
72,0.006152,0.000000,1.000000,0.567402,1.000000,0.000000,0.075746,1.000000,2.000000,0.000000,0.000000,1.000000,1.000000,1.000000,0.212166,1.000000,2.000000
73,0.006144,0.000000,1.000000,0.567402,1.000000,0.000000,0.000000,1.000000,2.000000,0.000000,0.009108,1.000000,1.000000,1.000000,0.212166,1.000000,2.000000
74,0.006135,0.000000,1.000000,0.567402,1.000000,0.000000,0.000000,1.000000,2.000000,0.000000,0.009108,1.000000,1.000000,1.000000,0.137041,1.000000,2.000000
75,0.006119,0.000000,1.000000,0.598772,1.000000,0.000000,0.000000,1.000000,2.000000,0.000000,0.009108,1.000000,1.000000,1.000000,0.079183,0.990844,2.000000
76,0.006118,0.000000,1.000000,0.598772,1.000000,0.000000,0.000000,1.000000,2.000000,0.000000,0.009108,1.000000,1.000000,1.000000,0.079183,0.992310,2.000000
77,0.006097,0.000000,1.000000,0.598772,1.000000,0.000000,0.000000,1.000000,2.000000,0.000000,0.009108,1.000000,1.000000,1.000000,0.000000,1.000000,2.000000
78,0.006097,0.000000,1.000000,0.598772,1.000000,0.000000,0.000000,1.000000,2.000000,0.000000,0.009108,1.000000,1.000000,1.000000,0.000000,1.000000,2.000000
79,0.006097,0.000000,1.000000,0.598772,1.000000,0.000000,0.000000,1.000000,2.000000,0.000000,0.009108,1.000000,1.000000,1.000000,0.000000,1.000000,2.000000
80,0.006097,0.000000,1.000000,0.598772,1.000000,0.000000,0.000000,1.000000,2.000000,0.000000,0.009108,1.000000,1.000000,1.000000,0.000000,1.000000,2.000000
81,0.006097,0.000000,1.000000,0.598772,1.000000,0.000000,0.000000,1.000000,2.000000,0.000000,0.009108,1.000000,1.000000,1.000000,0.000000,1.000000,2.000000
82,0.006096,0.000000,1.000000,0.601017,1.000000,0.000000,0.000000,1.000000,2.000000,0.000000,0.000000,1.000000,1.000000,1.000000,0.000000,1.000000,2.000000
83,0.006096,0.000000,1.000000,0.601017,1.000000,0.000000,0.000000,1.000000,2.000000,0.000000,0.000000,1.000000,1.000000,1.000000,0.000000,1.000000,2.000000
84,0.006096,0.000000,1.000000,0.601017,1.000000,0.000000,0.000000,1.000000,2.000000,0.000000,0.000000,1.000000,1.000000,1.000000,0.000000,1.000000,2.000000
85,0.006096,0.000000,1.000000,0.601017,1.000000,0.000000,0.000000,1.000000,2.000000,0.000000,0.000000,1.000000,1.000000,1.000000,0.000000,1.000000,2.000000
86,0.006096,0.000000,1.000000,0.601017,1.000000,0.000000,0.000000,1.000000,2.000000,0.000000,0.000000,1.000000,1.000000,1.000000,0.000000,1.000000,2.000000
87,0.006096,0.000000,1.000000,0.601017,1.000000,0.000000,0.000000,1.000000,2.000000,0.000000,0.000000,1.000000,1.000000,1.000000,0.000000,1.000000,2.000000
gen, fitness
0,0.006335,0.000000,1.000000,0.210000,0.800000,0.030000,0.030000,1.000000,0.000000,1.000000,0.000000,0.000000,0.600000,1.000000,1.000000,0.000000,0.000000
1,0.006335,0.000000,1.000000,0.210000,0.800000,0.030000,0.030000,1.000000,0.000000,1.000000,0.000000,0.000000,0.600000,1.000000,1.000000,0.000000,0.000000
2,0.000436,0.000000,0.880476,0.210000,0.800000,0.000000,0.030000,1.000000,2.000000,1.000000,0.000000,0.000000,0.696494,1.000000,1.000000,0.000000,0.000000
3,0.000061,0.000000,1.000000,0.210000,0.800000,0.030000,0.030000,1.000000,0.000000,1.000000,0.000000,0.000000,0.695676,1.000000,0.948977,0.000000,0.000000
4,0.000060,0.000000,1.000000,0.210000,0.800000,0.088115,0.030000,1.000000,0.000000,1.000000,0.000000,0.000000,0.695676,1.000000,0.948977,0.000000,0.000000
5,0.000042,0.000000,1.000000,0.210000,0.800000,0.030000,0.030000,0.867520,0.000000,1.000000,0.000000,0.000000,0.696494,1.000000,1.000000,0.000000,0.000000
6,0.000012,0.000000,1.000000,0.174765,0.800000,0.030000,0.030000,1.000000,0.000000,1.000000,0.000000,0.000000,0.678629,1.000000,0.948977,0.000000,0.000000
7,0.000010,0.000000,1.000000,0.174765,0.800000,0.030000,0.030000,1.000000,0.000000,1.000000,0.000000,0.000000,0.678629,1.000000,0.948977,0.025728,0.000000
8,0.000010,0.000000,1.000000,0.174765,0.800000,0.030000,0.030000,1.000000,0.000000,1.000000,0.000000,0.000000,0.678629,1.000000,0.948977,0.025728,0.000000
9,0.000003,0.000000,1.000000,0.174765,0.800000,0.140097,0.030000,1.000000,0.000000,1.000000,0.000000,0.010215,0.678629,1.000000,0.948977,0.000000,0.000000
10,0.000002,0.000000,1.000000,0.174765,0.800000,0.140097,0.030000,0.956972,0.000000,1.000000,0.000000,0.010215,0.678629,1.000000,0.948977,0.000000,0.000000
11,0.000002,0.000000,1.000000,0.174765,0.800000,0.030000,0.153436,0.946500,0.000000,1.000000,0.000000,0.000000,0.678629,1.000000,0.948977,0.000000,0.000000
12,0.000001,0.012518,1.000000,0.174765,0.800000,0.140097,0.030000,0.956972,0.000000,1.000000,0.000000,0.010215,0.678629,1.000000,0.948977,0.016652,0.000000
gen, fitness
0,0.018541,0.000000,1.000000,0.210000,0.800000,0.030000,0.030000,1.000000,0.000000,1.000000,0.000000,0.000000,0.600000,1.000000,1.000000,0.000000,0.000000
1,0.018541,0.000000,1.000000,0.210000,0.800000,0.030000,0.030000,1.000000,0.000000,1.000000,0.000000,0.000000,0.600000,1.000000,1.000000,0.000000,0.000000
2,0.008312,0.000000,1.000000,0.210000,0.800000,0.102013,0.030000,1.000000,0.000000,1.000000,0.000000,0.000000,0.738772,1.000000,1.000000,0.061112,1.000000
3,0.005920,0.000000,1.000000,0.210000,0.800000,0.102013,0.030000,1.000000,2.000000,1.000000,0.027739,0.000000,0.738772,1.000000,1.000000,0.000000,1.000000
4,0.004943,0.000000,1.000000,0.210000,0.800000,0.030000,0.030000,1.000000,2.000000,0.888516,0.000000,0.000000,0.745739,1.000000,1.000000,0.000000,0.000000
5,0.004502,0.000000,1.000000,0.210000,0.800000,0.040176,0.030000,1.000000,2.000000,0.858656,0.000000,0.000000,0.738772,1.000000,1.000000,0.061112,1.000000
6,0.003936,0.000000,1.000000,0.350915,0.834641,0.102013,0.017478,1.000000,2.000000,1.000000,0.027739,0.000000,0.769513,1.000000,1.000000,0.000000,1.000000
7,0.003668,0.000000,1.000000,0.350915,0.834641,0.102013,0.017478,1.000000,2.000000,0.996302,0.108463,0.000000,0.769513,0.939632,0.977955,0.222873,0.000000
8,0.001955,0.000000,1.000000,0.350915,0.834641,0.102013,0.017478,1.000000,2.000000,0.996302,0.108463,0.115550,0.769513,0.939632,0.977955,0.222873,0.000000
9,0.001897,0.000000,1.000000,0.350915,0.834641,0.102013,0.017478,1.000000,2.000000,0.996302,0.108463,0.115550,0.769513,0.939632,0.977955,0.295919,0.000000
10,0.001677,0.000000,1.000000,0.350915,0.834641,0.000000,0.017478,1.000000,2.000000,0.996302,0.108463,0.115550,0.769513,0.939632,0.977955,0.222873,2.000000
11,0.001651,0.000000,1.000000,0.350915,0.834641,0.102013,0.017478,1.000000,2.000000,0.996302,0.039929,0.115550,0.769513,0.939632,0.977955,0.295919,2.000000
12,0.001492,0.000000,1.000000,0.350915,0.834641,0.102013,0.017478,1.000000,2.000000,0.938800,0.138921,0.115550,0.769513,1.000000,1.000000,0.295919,2.000000
13,0.000862,0.000000,1.000000,0.350915,0.834641,0.102013,0.017478,1.000000,2.000000,0.748386,0.069034,0.115550,0.805398,1.000000,1.000000,0.295919,2.000000
14,0.000862,0.000000,1.000000,0.350915,0.834641,0.102013,0.017478,1.000000,2.000000,0.748386,0.069034,0.115550,0.805398,1.000000,1.000000,0.295919,2.000000
15,0.000862,0.000000,1.000000,0.350915,0.834641,0.102013,0.017478,1.000000,2.000000,0.748386,0.069034,0.115550,0.805398,1.000000,1.000000,0.295919,2.000000
16,0.000754,0.000000,1.000000,0.350915,0.834641,0.102013,0.017478,1.000000,2.000000,0.681647,0.069034,0.115550,0.805398,1.000000,1.000000,0.295919,2.000000
17,0.000748,0.000000,1.000000,0.350915,0.834641,0.044802,0.017478,1.000000,2.000000,0.681647,0.069034,0.115550,0.805398,1.000000,1.000000,0.295919,2.000000
18,0.000748,0.000000,1.000000,0.350915,0.834641,0.044802,0.017478,1.000000,2.000000,0.681647,0.069034,0.115550,0.805398,1.000000,1.000000,0.295919,2.000000
19,0.000701,0.000000,0.920848,0.350915,0.834641,0.102013,0.016183,1.000000,2.000000,0.681647,0.084325,0.115550,0.805398,1.000000,1.000000,0.388794,2.000000
20,0.000691,0.000000,1.000000,0.350915,0.834641,0.102013,0.016183,1.000000,2.000000,0.681647,0.084325,0.115550,0.805398,1.000000,0.938066,0.388794,2.000000
21,0.000648,0.000000,1.000000,0.350915,0.834641,0.102013,0.017478,1.000000,2.000000,0.654525,0.069034,0.150245,0.805398,0.941794,1.000000,0.295919,2.000000
22,0.000648,0.000000,1.000000,0.350915,0.834641,0.103556,0.017478,1.000000,2.000000,0.654525,0.030042,0.150245,0.805398,0.941794,1.000000,0.295919,2.000000
23,0.000626,0.000000,1.000000,0.350915,0.834641,0.102013,0.017478,1.000000,2.000000,0.654525,0.225973,0.115550,0.805398,1.000000,0.827458,0.469700,2.000000
24,0.000476,0.000000,1.000000,0.447763,0.834641,0.044802,0.089488,1.000000,2.000000,0.731965,0.084325,0.207961,0.805398,0.941794,1.000000,0.282278,2.000000
25,0.000476,0.000000,1.000000,0.447763,0.834641,0.044802,0.089488,1.000000,2.000000,0.731965,0.084325,0.207961,0.805398,0.941794,1.000000,0.282278,2.000000
26,0.000476,0.000000,1.000000,0.447763,0.834641,0.044802,0.089488,1.000000,2.000000,0.731965,0.084325,0.207961,0.805398,0.941794,1.000000,0.282278,2.000000
27,0.000461,0.000000,0.966077,0.457892,0.834641,0.024329,0.089488,1.000000,2.000000,0.731965,0.084325,0.207961,0.805398,0.941794,1.000000,0.282278,2.000000
28,0.000454,0.000000,1.000000,0.457892,0.834641,0.024835,0.089488,1.000000,2.000000,0.731965,0.000000,0.207961,0.805398,0.941794,0.919077,0.282278,2.000000
29,0.000404,0.000000,0.966077,0.457892,0.834641,0.024329,0.089488,1.000000,2.000000,0.731965,0.078842,0.207961,0.805398,1.000000,1.000000,0.468223,2.000000
30,0.000403,0.000000,1.000000,0.457892,0.834641,0.017952,0.089488,1.000000,2.000000,0.731965,0.078842,0.207961,0.805398,1.000000,1.000000,0.468223,2.000000
31,0.000067,0.000000,0.966077,0.457892,0.893132,0.024329,0.089488,1.000000,2.000000,0.731965,0.084325,0.207961,0.879315,0.941794,1.000000,0.282278,2.000000
32,0.000013,0.000000,0.966077,0.487557,0.893132,0.024329,0.089488,1.000000,2.000000,0.731965,0.084325,0.207961,0.879315,0.941794,1.000000,0.282278,2.000000
33,0.000013,0.000000,0.966077,0.487557,0.893132,0.024329,0.089488,1.000000,2.000000,0.731965,0.084325,0.207961,0.879315,0.941794,1.000000,0.282278,2.000000
34,0.000013,0.000000,0.966077,0.487557,0.893132,0.024329,0.089488,1.000000,2.000000,0.731965,0.084325,0.207961,0.879315,0.941794,1.000000,0.282278,2.000000
35,0.000007,0.000000,0.966077,0.487557,0.893132,0.024329,0.089488,1.000000,2.000000,0.731965,0.084325,0.207961,0.879315,0.925985,1.000000,0.448756,2.000000
36,0.000007,0.000000,0.966077,0.487557,0.893132,0.024329,0.089488,1.000000,2.000000,0.731965,0.084325,0.207961,0.879315,0.925985,1.000000,0.448756,2.000000
37,0.000006,0.000000,0.966077,0.487557,0.893132,0.024329,0.089488,1.000000,2.000000,0.731965,0.207281,0.207961,0.879315,0.967098,1.000000,0.517299,2.000000
38,0.000006,0.000000,0.966077,0.487557,0.893132,0.024329,0.089488,1.000000,2.000000,0.731965,0.084325,0.207961,0.879315,0.958284,1.000000,0.473166,2.000000
39,0.000005,0.000000,0.966077,0.487557,0.893132,0.127648,0.000000,1.000000,2.000000,0.731965,0.084325,0.207961,0.879315,0.941794,1.000000,0.553273,2.000000
40,0.000005,0.000000,0.966077,0.487557,0.893132,0.024329,0.000000,1.000000,2.000000,0.731965,0.084325,0.207961,0.879315,0.925985,1.000000,0.517299,2.000000
41,0.000005,0.000000,1.000000,0.487557,0.893132,0.024329,0.000000,1.000000,2.000000,0.731965,0.084325,0.207961,0.879315,0.925985,1.000000,0.517299,2.000000
42,0.000004,0.000181,0.966077,0.487557,0.893132,0.057138,0.000000,1.000000,2.000000,0.731965,0.084325,0.207961,0.879315,0.941794,1.000000,0.629782,2.000000
gen, fitness
0,0.069293,0.000000,1.000000,0.210000,0.800000,0.030000,0.030000,1.000000,0.000000,1.000000,0.000000,0.000000,0.600000,1.000000,1.000000,0.000000,0.000000
1,0.069293,0.000000,1.000000,0.210000,0.800000,0.030000,0.030000,1.000000,0.000000,1.000000,0.000000,0.000000,0.600000,1.000000,1.000000,0.000000,0.000000
2,0.051484,0.000000,1.000000,0.164171,0.800000,0.030000,0.030000,1.000000,0.000000,1.000000,0.000000,0.178566,0.600000,1.000000,1.000000,0.000000,0.000000
3,0.043425,0.015824,0.913428,0.210000,0.800000,0.000000,0.030000,1.000000,0.000000,1.000000,0.081959,0.174002,0.690735,1.000000,1.000000,0.000000,0.000000
4,0.042828,0.000000,1.000000,0.210000,0.800000,0.000000,0.000000,1.000000,0.000000,1.000000,0.000000,0.377587,0.600000,1.000000,1.000000,0.000000,1.000000
5,0.038442,0.000000,1.000000,0.210000,0.800000,0.022306,0.000000,1.000000,0.000000,1.000000,0.000000,0.377587,0.713215,1.000000,1.000000,0.000000,0.000000
6,0.036593,0.000000,1.000000,0.210000,0.842867,0.000000,0.030000,1.000000,0.000000,1.000000,0.065287,0.174002,0.836253,1.000000,0.979951,0.000000,0.000000
7,0.033995,0.000000,0.913428,0.229076,0.800000,0.022306,0.000000,1.000000,2.000000,1.000000,0.000000,0.377587,0.713215,1.000000,1.000000,0.000000,2.000000
8,0.031581,0.000000,1.000000,0.210000,0.842867,0.000000,0.030000,1.000000,0.000000,1.000000,0.065287,0.117694,0.804548,1.000000,1.000000,0.000000,2.000000
9,0.031044,0.000000,1.000000,0.210000,0.842867,0.000000,0.030000,1.000000,2.000000,0.983596,0.000000,0.608667,0.713215,1.000000,0.906772,0.085774,0.000000
10,0.028421,0.000000,0.871293,0.255666,0.881157,0.000000,0.099877,1.000000,0.000000,1.000000,0.065287,0.174002,0.836253,0.943124,1.000000,0.018936,1.000000
11,0.026754,0.000000,0.871293,0.346087,0.881157,0.000000,0.099877,1.000000,0.000000,1.000000,0.065287,0.174002,0.836253,0.943124,1.000000,0.018936,2.000000
12,0.022734,0.000000,0.871293,0.346087,0.881157,0.000000,0.188962,1.000000,1.000000,0.983596,0.000000,0.608667,0.803898,1.000000,1.000000,0.085774,2.000000
13,0.020027,0.000000,0.951413,0.210000,0.917960,0.089151,0.188962,1.000000,0.000000,0.983596,0.000000,0.608667,0.803898,1.000000,1.000000,0.085774,2.000000
14,0.019211,0.000000,0.951413,0.210000,0.917960,0.089151,0.188962,1.000000,2.000000,0.983596,0.000000,0.608667,0.803898,1.000000,1.000000,0.085774,2.000000
15,0.014571,0.008464,1.000000,0.129726,0.972161,0.000000,0.211172,1.000000,0.000000,0.983596,0.095468,0.498544,0.892460,1.000000,0.749346,0.219337,2.000000
16,0.014571,0.008464,1.000000,0.129726,0.972161,0.000000,0.211172,1.000000,0.000000,0.983596,0.095468,0.498544,0.892460,1.000000,0.749346,0.219337,2.000000
17,0.013982,0.008464,0.925153,0.129726,0.972161,0.000000,0.211172,1.000000,1.000000,0.983596,0.095468,0.498544,0.892460,1.000000,0.749346,0.271992,2.000000
18,0.013766,0.000000,1.000000,0.129726,0.972161,0.000000,0.211172,1.000000,2.000000,0.983596,0.095468,0.498544,0.892460,0.921861,0.766990,0.219337,2.000000
19,0.013528,0.000000,0.809435,0.129726,0.972161,0.000000,0.211172,1.000000,2.000000,1.000000,0.095468,0.498544,0.892460,1.000000,0.749346,0.316563,2.000000
20,0.012943,0.000000,1.000000,0.000000,0.972161,0.000000,0.211172,1.000000,2.000000,0.983596,0.095468,0.498544,0.892460,0.921861,0.766990,0.219337,2.000000
21,0.012741,0.000000,0.809435,0.129726,0.972161,0.000000,0.211172,1.000000,2.000000,1.000000,0.101413,0.585713,0.892460,1.000000,1.000000,0.264978,2.000000
22,0.012489,0.000000,1.000000,0.129726,0.972161,0.000000,0.211172,1.000000,2.000000,0.983596,0.095468,0.681506,0.892460,0.921861,0.996810,0.125109,2.000000
23,0.011694,0.008464,1.000000,0.029814,0.994913,0.000000,0.211172,1.000000,2.000000,0.983596,0.095468,0.498544,0.907880,0.946653,0.766990,0.274451,2.000000
24,0.011665,0.008464,1.000000,0.029814,0.994913,0.000000,0.140298,1.000000,2.000000,0.983596,0.000000,0.498544,0.907880,0.946653,0.766990,0.274451,2.000000
25,0.010655,0.008464,0.925153,0.055316,1.000000,0.000000,0.278016,1.000000,2.000000,0.983596,0.095468,0.623068,0.936723,0.921861,0.766990,0.252534,2.000000
26,0.010410,0.008464,1.000000,0.029814,0.994913,0.000000,0.211172,1.000000,2.000000,0.983596,0.095468,0.682346,0.907880,0.946653,0.766990,0.274451,2.000000
27,0.009925,0.000000,1.000000,0.000000,0.994913,0.000000,0.278016,1.000000,2.000000,0.983596,0.095468,0.684868,0.892460,1.000000,0.995599,0.544295,2.000000
28,0.009691,0.008464,0.925153,0.055316,1.000000,0.000000,0.278016,1.000000,2.000000,0.983596,0.095468,0.684868,0.932803,1.000000,1.000000,0.544295,2.000000
29,0.009559,0.008464,1.000000,0.028849,1.000000,0.000000,0.278016,1.000000,2.000000,0.983596,0.095468,0.684868,0.932803,1.000000,1.000000,0.544295,2.000000
30,0.009285,0.000000,1.000000,0.000000,0.994913,0.000000,0.278016,1.000000,2.000000,1.000000,0.095468,0.799840,0.892460,1.000000,1.000000,0.544295,2.000000
31,0.009283,0.000000,1.000000,0.000000,0.994913,0.000000,0.278016,0.850452,2.000000,1.000000,0.000000,0.799840,0.892460,1.000000,1.000000,0.544295,2.000000
32,0.008962,0.000000,0.904885,0.000000,1.000000,0.000000,0.278016,1.000000,2.000000,1.000000,0.365131,0.848219,0.892460,1.000000,0.995599,0.544295,2.000000
33,0.008959,0.000000,0.904885,0.000000,1.000000,0.000000,0.278016,1.000000,2.000000,1.000000,0.365131,0.848219,0.892460,1.000000,1.000000,0.544295,2.000000
34,0.008580,0.008464,1.000000,0.000000,1.000000,0.000000,0.278016,1.000000,2.000000,0.984249,0.095468,1.000000,0.892460,1.000000,0.995599,0.604331,2.000000
35,0.008403,0.000000,1.000000,0.000000,1.000000,0.000000,0.278016,1.000000,2.000000,0.984249,0.095468,1.000000,0.892460,1.000000,0.995599,0.794883,2.000000
36,0.008403,0.000000,1.000000,0.000000,1.000000,0.000000,0.278016,1.000000,2.000000,0.984249,0.095468,1.000000,0.892460,1.000000,0.995599,0.794883,2.000000
37,0.008403,0.000000,1.000000,0.000000,1.000000,0.000000,0.278016,1.000000,2.000000,0.984249,0.095468,1.000000,0.892460,1.000000,0.995599,0.794883,2.000000
38,0.008395,0.000000,0.905810,0.000000,1.000000,0.000000,0.278016,0.850452,2.000000,1.000000,0.036585,1.000000,0.892460,1.000000,0.995599,0.777579,2.000000
39,0.008361,0.008464,1.000000,0.000000,1.000000,0.000000,0.278016,0.986804,2.000000,1.000000,0.000000,1.000000,0.892460,1.000000,0.995599,0.794883,2.000000
40,0.008198,0.000000,0.905810,0.000000,1.000000,0.000000,0.278016,0.850452,2.000000,1.000000,0.036585,1.000000,0.892460,1.000000,0.995599,1.000000,2.000000
41,0.008198,0.000000,0.905810,0.000000,1.000000,0.000000,0.278016,0.850452,2.000000,1.000000,0.036585,1.000000,0.892460,1.000000,0.995599,1.000000,2.000000
42,0.008135,0.008464,1.000000,0.000000,1.000000,0.000000,0.205957,0.938444,2.000000,1.000000,0.000000,1.000000,0.892460,1.000000,0.995599,1.000000,2.000000
43,0.008113,0.008464,1.000000,0.000000,1.000000,0.000000,0.064631,0.850452,2.000000,1.000000,0.000000,1.000000,0.892460,0.879059,1.000000,1.000000,2.000000
44,0.008101,0.008464,1.000000,0.000000,1.000000,0.000000,0.144348,1.000000,2.000000,1.000000,0.036585,1.000000,0.892460,1.000000,0.995599,1.000000,2.000000
45,0.008067,0.008464,1.000000,0.000000,1.000000,0.000000,0.080505,0.850452,2.000000,1.000000,0.036585,1.000000,0.892460,1.000000,0.995599,1.000000,2.000000
46,0.008058,0.008464,1.000000,0.000000,1.000000,0.000000,0.064631,0.850452,2.000000,1.000000,0.036585,1.000000,0.892460,1.000000,0.995599,1.000000,2.000000
47,0.008055,0.008464,1.000000,0.000000,1.000000,0.000000,0.064631,0.850452,2.000000,1.000000,0.000000,1.000000,0.892460,1.000000,1.000000,1.000000,2.000000
48,0.008017,0.000000,1.000000,0.000000,1.000000,0.000000,0.000000,0.850452,2.000000,1.000000,0.067976,1.000000,0.892460,1.000000,1.000000,1.000000,2.000000
49,0.008017,0.000000,1.000000,0.000000,1.000000,0.000000,0.000000,0.850452,2.000000,1.000000,0.067976,1.000000,0.892460,1.000000,1.000000,1.000000,2.000000
50,0.008017,0.000000,1.000000,0.000000,1.000000,0.000000,0.000000,0.850452,2.000000,1.000000,0.075951,1.000000,0.892460,1.000000,1.000000,1.000000,2.000000
51,0.008017,0.000000,1.000000,0.000000,1.000000,0.000000,0.000000,1.000000,2.000000,1.000000,0.067976,1.000000,0.892460,1.000000,1.000000,1.000000,2.000000
52,0.008016,0.000000,1.000000,0.000000,1.000000,0.000000,0.000000,0.962716,2.000000,1.000000,0.075951,1.000000,0.892460,1.000000,1.000000,1.000000,2.000000
53,0.008016,0.000000,1.000000,0.000000,1.000000,0.000000,0.000000,0.912864,2.000000,1.000000,0.303005,1.000000,0.892460,1.000000,1.000000,1.000000,2.000000
54,0.008016,0.000000,1.000000,0.000000,1.000000,0.000000,0.000000,0.912864,2.000000,1.000000,0.303005,1.000000,0.892460,1.000000,1.000000,1.000000,2.000000
55,0.008013,0.000000,1.000000,0.000000,1.000000,0.000000,0.000000,0.962716,2.000000,1.000000,0.075951,1.000000,0.894110,1.000000,1.000000,1.000000,2.000000
56,0.008013,0.000000,1.000000,0.000000,1.000000,0.000000,0.000000,0.962716,2.000000,1.000000,0.075951,1.000000,0.894110,1.000000,1.000000,1.000000,2.000000
57,0.008012,0.000000,1.000000,0.000000,1.000000,0.000000,0.000000,0.962716,2.000000,1.000000,0.175878,1.000000,0.894110,1.000000,1.000000,1.000000,2.000000
58,0.008012,0.000000,1.000000,0.000000,1.000000,0.000000,0.000000,0.962716,2.000000,1.000000,0.175878,1.000000,0.894110,1.000000,1.000000,1.000000,2.000000
gen, fitness
0,0.020772,0.000000,1.000000,0.210000,0.800000,0.030000,0.030000,1.000000,0.000000,1.000000,0.000000,0.000000,0.600000,1.000000,1.000000,0.000000,0.000000
1,0.020772,0.000000,1.000000,0.210000,0.800000,0.030000,0.030000,1.000000,0.000000,1.000000,0.000000,0.000000,0.600000,1.000000,1.000000,0.000000,0.000000
2,0.013573,0.000000,1.000000,0.210000,0.800000,0.030000,0.030000,1.000000,0.000000,1.000000,0.000000,0.000000,0.651261,1.000000,1.000000,0.000000,2.000000
3,0.008480,0.000000,0.907317,0.210000,0.800000,0.030000,0.030000,1.000000,0.000000,1.000000,0.000000,0.000000,0.716226,1.000000,1.000000,0.092576,0.000000
4,0.007501,0.000000,0.907317,0.217034,0.800000,0.030000,0.030000,1.000000,0.000000,1.000000,0.000000,0.000000,0.716226,1.000000,1.000000,0.000000,2.000000
5,0.006618,0.000000,0.907317,0.210000,0.800000,0.030000,0.030000,1.000000,2.000000,1.000000,0.000000,0.000000,0.716226,1.000000,1.000000,0.092576,0.000000
6,0.005829,0.000000,0.907317,0.210000,0.800000,0.097858,0.192070,1.000000,0.000000,0.847663,0.000000,0.000000,0.754848,1.000000,1.000000,0.390451,0.000000
7,0.004552,0.000000,0.912851,0.304289,0.800000,0.030000,0.094321,1.000000,2.000000,0.964615,0.000000,0.000000,0.793088,1.000000,1.000000,0.113634,0.000000
8,0.003698,0.000000,0.810058,0.210000,0.800000,0.084714,0.192070,1.000000,2.000000,0.777978,0.000000,0.000000,0.754848,1.000000,1.000000,0.390451,2.000000
9,0.003651,0.000000,0.810058,0.210000,0.800000,0.084714,0.183894,1.000000,2.000000,0.681648,0.000000,0.000000,0.754848,1.000000,1.000000,0.390451,2.000000
10,0.002972,0.000000,0.873938,0.252511,0.822973,0.000000,0.237175,1.000000,2.000000,0.895209,0.000000,0.000000,0.780851,0.941622,1.000000,0.390451,0.000000
11,0.002870,0.000000,0.810058,0.210000,0.800000,0.084714,0.183894,1.000000,2.000000,0.635108,0.000000,0.079965,0.754848,1.000000,1.000000,0.390451,2.000000
12,0.002714,0.000000,0.810058,0.210000,0.913497,0.084714,0.183894,1.000000,2.000000,0.659638,0.000000,0.000000,0.867455,0.977313,1.000000,0.406684,2.000000
13,0.002222,0.000000,1.000000,0.304289,0.822973,0.000000,0.237175,1.000000,2.000000,0.895209,0.000000,0.082587,0.773953,1.000000,1.000000,0.390451,2.000000
14,0.001786,0.000000,0.812405,0.210000,0.913497,0.084714,0.197177,1.000000,2.000000,0.659638,0.000000,0.000000,0.932767,0.977313,1.000000,0.406684,2.000000
15,0.000895,0.123467,0.812405,0.210000,0.913497,0.084714,0.197177,1.000000,2.000000,0.659638,0.000000,0.000000,0.932767,0.977313,1.000000,0.406684,1.000000
16,0.000465,0.000000,0.812405,0.307016,0.913497,0.084714,0.197177,1.000000,2.000000,0.659638,0.000000,0.000000,0.932767,0.977313,1.000000,0.406684,2.000000
17,0.000115,0.000000,0.812405,0.210000,0.934206,0.084714,0.197177,1.000000,2.000000,0.659638,0.000000,0.000000,0.932767,0.977313,1.000000,0.406684,2.000000
18,0.000110,0.000000,0.812405,0.210000,0.934206,0.039386,0.197177,1.000000,2.000000,0.659638,0.000000,0.000000,0.932767,0.977313,1.000000,0.406684,2.000000
19,0.000094,0.000000,0.812405,0.210000,0.934206,0.084714,0.197177,1.000000,2.000000,0.605598,0.000000,0.000000,0.932767,0.977313,1.000000,0.510285,2.000000
20,0.000080,0.000000,0.812405,0.210000,0.934206,0.075009,0.197177,1.000000,2.000000,0.605598,0.000000,0.009529,0.932767,0.977313,1.000000,0.510285,2.000000
21,0.000079,0.000000,0.921567,0.210000,0.934206,0.039386,0.288173,1.000000,2.000000,0.605598,0.000000,0.009529,0.932767,0.977313,1.000000,0.510285,2.000000
22,0.000079,0.000000,0.921567,0.210000,0.934206,0.039386,0.288173,1.000000,2.000000,0.605598,0.000000,0.009529,0.932767,0.977313,1.000000,0.510285,2.000000
23,0.000076,0.000000,0.750249,0.210000,0.934206,0.001506,0.197177,1.000000,2.000000,0.605598,0.000000,0.009529,0.932767,0.977313,1.000000,0.510285,2.000000
24,0.000075,0.000000,0.829958,0.210000,0.934206,0.084714,0.197177,1.000000,2.000000,0.605598,0.000000,0.000000,0.932767,0.977313,1.000000,0.668266,2.000000
25,0.000053,0.000000,0.829958,0.210000,0.934206,0.084714,0.197177,1.000000,2.000000,0.605598,0.000000,0.000000,0.932767,0.977313,1.000000,0.896344,2.000000
26,0.000034,0.000000,0.750249,0.210000,0.934206,0.001506,0.197177,0.997499,2.000000,0.605598,0.000000,0.009529,0.932767,0.977313,1.000000,0.975888,2.000000
27,0.000034,0.000000,0.657353,0.210000,0.934206,0.001506,0.197177,1.000000,2.000000,0.605598,0.000000,0.009529,0.932767,0.977313,1.000000,0.975888,2.000000
28,0.000034,0.000000,0.657353,0.210000,0.934206,0.001506,0.197177,1.000000,2.000000,0.605598,0.000000,0.009529,0.932767,0.977313,1.000000,0.975888,2.000000
29,0.000034,0.000000,0.611342,0.210000,0.934206,0.001506,0.197177,1.000000,2.000000,0.605598,0.000000,0.009529,0.932767,0.977313,1.000000,0.975888,2.000000
30,0.000033,0.000088,0.657353,0.210000,0.934206,0.001506,0.197177,1.000000,2.000000,0.605598,0.000000,0.009529,0.932767,0.977313,0.974662,0.975888,2.000000
31,0.000032,0.000000,0.657353,0.210000,0.934206,0.001506,0.166094,1.000000,2.000000,0.605598,0.000000,0.009529,0.932767,0.913006,0.982882,1.000000,2.000000
32,0.000032,0.000000,0.657353,0.210000,0.934206,0.001506,0.166094,1.000000,2.000000,0.605598,0.000000,0.009529,0.932767,0.913006,0.982882,1.000000,2.000000
33,0.000031,0.000000,0.657353,0.205138,0.934206,0.000000,0.166094,1.000000,2.000000,0.605598,0.000000,0.009529,0.932767,0.913006,0.982882,1.000000,2.000000
34,0.000031,0.000000,0.657353,0.205138,0.934206,0.000000,0.166094,1.000000,2.000000,0.605598,0.000000,0.009529,0.932767,0.913006,0.982882,1.000000,2.000000
35,0.000003,0.000000,0.657353,0.315812,0.934206,0.001506,0.197177,1.000000,2.000000,0.481571,0.000000,0.009529,0.958694,0.913006,0.982882,1.000000,2.000000
36,0.000003,0.000000,0.657353,0.315812,0.934206,0.001506,0.197177,1.000000,2.000000,0.481571,0.000000,0.009529,0.958694,0.913006,1.000000,1.000000,2.000000
37,0.000003,0.000000,0.657353,0.315812,0.934206,0.001506,0.197177,1.000000,2.000000,0.481571,0.000000,0.009529,0.958694,0.913006,1.000000,1.000000,2.000000
38,0.000003,0.000000,0.657353,0.319009,0.934206,0.001506,0.197177,1.000000,2.000000,0.481571,0.000000,0.009529,0.958694,0.913006,1.000000,1.000000,2.000000
39,0.000003,0.000000,0.657353,0.319009,0.934206,0.001506,0.197177,1.000000,2.000000,0.481571,0.000000,0.009529,0.958694,0.913006,1.000000,1.000000,2.000000
40,0.000003,0.000000,0.657353,0.319009,0.934206,0.001506,0.197177,1.000000,2.000000,0.481571,0.000000,0.009529,0.958694,0.913006,1.000000,1.000000,2.000000
41,0.000002,0.000000,0.890816,0.315812,0.934206,0.001506,0.138059,1.000000,2.000000,0.481571,0.000000,0.009529,0.958694,0.913006,1.000000,1.000000,2.000000
42,0.000002,0.000000,0.657353,0.315812,0.934206,0.000000,0.079665,1.000000,2.000000,0.481571,0.000000,0.009529,0.958694,0.913006,1.000000,1.000000,2.000000
43,0.000002,0.000000,0.496773,0.315812,0.934206,0.000000,0.079665,1.000000,2.000000,0.481571,0.000000,0.009529,0.958694,0.913006,1.000000,1.000000,2.000000
44,0.000002,0.000000,0.496773,0.315812,0.934206,0.000000,0.079665,1.000000,2.000000,0.481571,0.000000,0.009529,0.958694,1.000000,1.000000,1.000000,2.000000
45,0.000002,0.000000,0.496773,0.315812,0.934206,0.000000,0.079665,1.000000,2.000000,0.481571,0.000000,0.009529,0.958694,1.000000,1.000000,1.000000,2.000000
gen, fitness
0,0.008197,0.000000,1.000000,0.210000,0.800000,0.030000,0.030000,1.000000,0.000000,1.000000,0.000000,0.000000,0.600000,1.000000,1.000000,0.000000,0.000000
1,0.008197,0.000000,1.000000,0.210000,0.800000,0.030000,0.030000,1.000000,0.000000,1.000000,0.000000,0.000000,0.600000,1.000000,1.000000,0.000000,0.000000
2,0.000501,0.000000,1.000000,0.210000,0.800000,0.030000,0.030000,1.000000,0.000000,1.000000,0.116566,0.286482,0.600000,1.000000,1.000000,0.000000,0.000000
3,0.000316,0.060118,1.000000,0.210000,0.800000,0.000000,0.030000,1.000000,0.000000,1.000000,0.000000,0.095760,0.682307,1.000000,1.000000,0.000000,0.000000
4,0.000073,0.060118,1.000000,0.210000,0.800000,0.000000,0.030000,1.000000,1.000000,1.000000,0.000000,0.095760,0.682307,1.000000,1.000000,0.000000,1.000000
5,0.000039,0.000000,1.000000,0.257223,0.806198,0.030000,0.030000,1.000000,0.000000,1.000000,0.116566,0.286482,0.600000,1.000000,1.000000,0.000000,1.000000
6,0.000001,0.000000,1.000000,0.210000,0.806198,0.030000,0.030000,1.000000,2.000000,1.000000,0.116566,0.286482,0.600000,1.000000,1.000000,0.000000,0.000000
7,0.000001,0.000000,1.000000,0.210000,0.806198,0.030000,0.030000,1.000000,2.000000,1.000000,0.116566,0.286482,0.600000,1.000000,1.000000,0.000000,0.000000
8,0.000001,0.000000,1.000000,0.210000,0.806198,0.030000,0.030000,1.000000,2.000000,1.000000,0.116566,0.286482,0.600000,1.000000,1.000000,0.000000,0.000000
9,0.000001,0.000000,1.000000,0.210000,0.806198,0.030000,0.030000,1.000000,2.000000,1.000000,0.116566,0.286482,0.600000,1.000000,1.000000,0.000000,0.000000
10,0.000000,0.000000,1.000000,0.210000,0.806198,0.030000,0.030000,1.000000,2.000000,1.000000,0.116566,0.286482,0.600000,1.000000,0.884809,0.000000,0.000000
gen, fitness
0,0.011091,0.000000,1.000000,0.210000,0.800000,0.030000,0.030000,1.000000,0.000000,1.000000,0.000000,0.000000,0.600000,1.000000,1.000000,0.000000,0.000000
1,0.011091,0.000000,1.000000,0.210000,0.800000,0.030000,0.030000,1.000000,0.000000,1.000000,0.000000,0.000000,0.600000,1.000000,1.000000,0.000000,0.000000
2,0.000791,0.000000,1.000000,0.210000,0.722004,0.030000,0.030000,1.000000,0.000000,1.000000,0.000000,0.000000,0.600000,1.000000,1.000000,0.000000,2.000000
3,0.000399,0.000000,0.940724,0.210000,0.788116,0.066077,0.030000,1.000000,0.000000,1.000000,0.000000,0.341155,0.557783,1.000000,1.000000,0.000000,0.000000
4,0.000103,0.000000,1.000000,0.103143,0.800000,0.030000,0.000000,0.948949,0.000000,1.000000,0.000000,0.225103,0.600000,1.000000,1.000000,0.000000,0.000000
5,0.000103,0.000000,1.000000,0.103143,0.800000,0.030000,0.000000,0.948949,0.000000,1.000000,0.000000,0.225103,0.600000,1.000000,1.000000,0.000000,0.000000
6,0.000058,0.000000,1.000000,0.061616,0.800000,0.030000,0.030000,1.000000,0.000000,1.000000,0.163192,0.172850,0.600000,0.963590,1.000000,0.037234,0.000000
7,0.000015,0.000000,1.000000,0.061616,0.800000,0.030000,0.030000,1.000000,0.000000,0.956039,0.163192,0.172850,0.600000,0.963590,1.000000,0.037234,0.000000
8,0.000012,0.000000,1.000000,0.088347,0.800000,0.030000,0.305618,0.948949,0.000000,1.000000,0.163192,0.172850,0.600000,0.963590,1.000000,0.000000,0.000000
9,0.000011,0.000000,1.000000,0.061616,0.800000,0.030000,0.030000,0.931706,0.000000,0.956039,0.163192,0.172850,0.600000,0.963590,1.000000,0.037234,0.000000
10,0.000004,0.016797,1.000000,0.061616,0.800000,0.030000,0.085146,1.000000,0.000000,1.000000,0.163192,0.161041,0.600000,1.000000,1.000000,0.037234,0.000000
11,0.000004,0.016797,1.000000,0.061616,0.800000,0.030000,0.085146,1.000000,0.000000,1.000000,0.163192,0.161041,0.600000,1.000000,1.000000,0.037234,0.000000
12,0.000002,0.016797,1.000000,0.061616,0.800000,0.030000,0.262060,1.000000,0.000000,1.000000,0.163192,0.161041,0.600000,0.963590,1.000000,0.000000,0.000000
13,0.000001,0.016797,1.000000,0.061616,0.800000,0.000000,0.085146,0.999537,0.000000,1.000000,0.163192,0.161041,0.600000,1.000000,1.000000,0.000000,0.000000
gen, fitness
0,0.020988,0.000000,1.000000,0.210000,0.800000,0.030000,0.030000,1.000000,0.000000,1.000000,0.000000,0.000000,0.600000,1.000000,1.000000,0.000000,0.000000
1,0.020988,0.000000,1.000000,0.210000,0.800000,0.030000,0.030000,1.000000,0.000000,1.000000,0.000000,0.000000,0.600000,1.000000,1.000000,0.000000,0.000000
2,0.012047,0.000000,1.000000,0.210000,0.800000,0.030000,0.030000,1.000000,0.000000,1.000000,0.000000,0.000000,0.717603,1.000000,1.000000,0.000000,0.000000
3,0.008887,0.000000,1.000000,0.309759,0.800000,0.030000,0.030000,1.000000,2.000000,1.000000,0.000000,0.000000,0.717603,1.000000,1.000000,0.000000,0.000000
4,0.008321,0.000000,1.000000,0.149308,0.800000,0.000000,0.030000,1.000000,2.000000,0.865955,0.000000,0.000000,0.727517,1.000000,0.909261,0.000000,2.000000
5,0.007173,0.000000,1.000000,0.309759,0.800000,0.149220,0.000000,1.000000,2.000000,1.000000,0.000000,0.000000,0.751512,1.000000,1.000000,0.000000,0.000000
6,0.006711,0.000000,1.000000,0.366950,0.800000,0.149220,0.000000,1.000000,2.000000,1.000000,0.000000,0.000000,0.756853,1.000000,0.958520,0.000000,0.000000
7,0.006219,0.000000,1.000000,0.366950,0.800000,0.149220,0.000000,1.000000,2.000000,1.000000,0.000000,0.000000,0.756853,0.906760,0.958520,0.000000,2.000000
8,0.004725,0.000000,1.000000,0.551474,0.800000,0.151058,0.030000,1.000000,2.000000,1.000000,0.000000,0.000000,0.797425,1.000000,1.000000,0.011268,2.000000
9,0.004252,0.000000,1.000000,0.551474,0.800000,0.151058,0.063616,1.000000,2.000000,1.000000,0.000000,0.107955,0.797425,1.000000,1.000000,0.043205,2.000000
10,0.004200,0.000000,1.000000,0.551474,0.800000,0.151058,0.030000,1.000000,2.000000,1.000000,0.000000,0.094049,0.797425,1.000000,1.000000,0.011268,2.000000
11,0.004168,0.137312,1.000000,0.551474,0.800000,0.151058,0.063616,1.000000,2.000000,0.966386,0.000000,0.107955,0.797425,0.991635,1.000000,0.043205,2.000000
12,0.003697,0.000000,1.000000,0.638222,0.800000,0.151058,0.030000,1.000000,2.000000,1.000000,0.000000,0.189307,0.797425,1.000000,1.000000,0.011268,2.000000
13,0.003616,0.137312,1.000000,0.673686,0.800000,0.156656,0.165294,1.000000,2.000000,1.000000,0.000000,0.201849,0.797425,1.000000,1.000000,0.011268,1.000000
14,0.003483,0.137312,1.000000,0.673686,0.800000,0.156656,0.165294,1.000000,2.000000,1.000000,0.000000,0.291214,0.797425,1.000000,1.000000,0.011268,2.000000
15,0.003280,0.000000,1.000000,0.651206,0.859306,0.000000,0.165294,1.000000,2.000000,1.000000,0.000000,0.291214,0.797425,1.000000,1.000000,0.011268,2.000000
16,0.002841,0.000000,0.853246,0.764913,0.800000,0.000000,0.063616,1.000000,2.000000,1.000000,0.000000,0.107955,0.840440,1.000000,0.880093,0.000000,2.000000
17,0.002016,0.137312,1.000000,0.924953,0.800000,0.129908,0.165294,1.000000,2.000000,1.000000,0.165701,0.189744,0.852811,1.000000,0.672036,0.011268,2.000000
18,0.002016,0.137312,1.000000,0.924953,0.800000,0.129908,0.165294,1.000000,2.000000,1.000000,0.165701,0.189744,0.852811,1.000000,0.672036,0.011268,2.000000
19,0.002016,0.137312,1.000000,0.924953,0.800000,0.129908,0.165294,1.000000,2.000000,1.000000,0.165701,0.189744,0.852811,1.000000,0.672036,0.011268,2.000000
20,0.002016,0.137312,1.000000,0.924953,0.800000,0.129908,0.165294,1.000000,2.000000,1.000000,0.165701,0.189744,0.852811,1.000000,0.672036,0.011268,2.000000
21,0.001917,0.000796,0.928613,0.924953,0.800000,0.129908,0.165294,1.000000,1.000000,0.838567,0.165701,0.189744,0.852811,1.000000,0.672036,0.109542,2.000000
22,0.001821,0.035670,0.853246,1.000000,0.818656,0.129908,0.165294,1.000000,2.000000,1.000000,0.165701,0.189744,0.852811,1.000000,0.672036,0.001527,2.000000
23,0.001203,0.137312,0.872343,0.924953,0.871257,0.129908,0.161800,1.000000,2.000000,0.984423,0.165701,0.189744,0.894730,1.000000,0.623845,0.011268,2.000000
24,0.001203,0.137312,0.872343,0.924953,0.871257,0.129908,0.161800,1.000000,2.000000,0.984423,0.165701,0.189744,0.894730,1.000000,0.623845,0.011268,2.000000
25,0.001203,0.137312,0.872343,0.924953,0.871257,0.129908,0.161800,1.000000,2.000000,0.984423,0.165701,0.189744,0.894730,1.000000,0.623845,0.011268,2.000000
26,0.001201,0.137312,0.872343,0.924953,0.871257,0.129908,0.173417,1.000000,2.000000,0.984423,0.165701,0.189744,0.894730,1.000000,0.623845,0.011268,2.000000
27,0.001114,0.063900,0.939368,0.924953,0.871257,0.129908,0.161800,0.880804,2.000000,0.984423,0.165701,0.189744,0.894730,1.000000,0.623845,0.011268,2.000000
28,0.000897,0.063900,1.000000,1.000000,0.871257,0.129908,0.161800,1.000000,2.000000,0.984423,0.165701,0.289601,0.894730,0.989627,0.623845,0.011268,0.000000
29,0.000860,0.063900,1.000000,1.000000,0.871257,0.129908,0.161800,1.000000,2.000000,0.984423,0.164916,0.289601,0.894730,1.000000,0.623845,0.011268,2.000000
30,0.000802,0.063900,1.000000,1.000000,0.871257,0.129908,0.161800,1.000000,2.000000,0.984423,0.146960,0.289601,0.894730,1.000000,0.623845,0.220059,2.000000
31,0.000802,0.063900,1.000000,1.000000,0.871257,0.129908,0.161800,1.000000,2.000000,0.984423,0.146960,0.289601,0.894730,1.000000,0.623845,0.220059,2.000000
32,0.000768,0.000000,0.872343,1.000000,0.871257,0.129908,0.161800,1.000000,2.000000,0.890734,0.213746,0.289601,0.894730,0.989627,0.623845,0.011268,2.000000
33,0.000755,0.119228,0.949823,1.000000,0.871257,0.129908,0.194864,1.000000,2.000000,0.984423,0.164916,0.289601,0.894730,1.000000,0.445596,0.366023,2.000000
34,0.000431,0.063900,1.000000,1.000000,0.913930,0.129908,0.161800,1.000000,2.000000,0.984423,0.146347,0.338232,0.923102,1.000000,0.623845,0.220059,2.000000
35,0.000431,0.063900,1.000000,1.000000,0.913930,0.129908,0.161800,1.000000,2.000000,0.984423,0.146347,0.338232,0.923102,1.000000,0.623845,0.220059,2.000000
36,0.000411,0.063900,1.000000,1.000000,0.913930,0.129908,0.161800,1.000000,2.000000,0.984423,0.146347,0.375196,0.923102,0.851283,0.445596,0.366023,1.000000
37,0.000411,0.063900,1.000000,1.000000,0.913930,0.129908,0.161800,1.000000,2.000000,0.984423,0.146347,0.375196,0.923102,0.851283,0.445596,0.366023,1.000000
38,0.000377,0.063900,1.000000,1.000000,0.913930,0.129908,0.161800,1.000000,2.000000,0.942154,0.146347,0.375196,0.923102,0.964560,0.445596,0.366023,1.000000
39,0.000368,0.063900,1.000000,1.000000,0.913930,0.000000,0.225439,1.000000,2.000000,0.942154,0.146347,0.375196,0.923102,0.964560,0.445596,0.366023,1.000000
40,0.000351,0.063900,1.000000,1.000000,0.913930,0.129908,0.161800,1.000000,2.000000,0.942154,0.146347,0.375196,0.923102,0.851283,0.445596,0.481600,2.000000
41,0.000335,0.028198,1.000000,1.000000,0.913930,0.210604,0.161800,1.000000,2.000000,0.866083,0.037212,0.375196,0.923102,0.898265,0.445596,0.366023,2.000000
42,0.000329,0.000000,1.000000,1.000000,0.913930,0.210604,0.161800,1.000000,2.000000,0.866083,0.037212,0.375196,0.923102,0.898265,0.445596,0.366023,2.000000
43,0.000291,0.000000,1.000000,1.000000,0.913930,0.210604,0.161800,1.000000,2.000000,0.808597,0.146347,0.395888,0.923102,0.851283,0.445596,0.481600,2.000000
44,0.000123,0.000000,1.000000,1.000000,1.000000,0.210604,0.161800,1.000000,1.000000,0.808597,0.146347,0.395888,1.000000,0.851283,0.445596,0.481600,2.000000
45,0.000079,0.000000,1.000000,1.000000,1.000000,0.210604,0.161800,1.000000,1.000000,0.854902,0.146347,0.395888,1.000000,0.851283,0.445596,0.481600,2.000000
46,0.000044,0.000000,1.000000,1.000000,0.992347,0.210604,0.161800,1.000000,1.000000,0.742055,0.146347,0.395888,1.000000,0.851283,0.445596,0.481600,2.000000
47,0.000028,0.000000,1.000000,1.000000,1.000000,0.210604,0.161800,1.000000,1.000000,0.854902,0.202645,0.515891,1.000000,0.851283,0.445596,0.481600,2.000000
48,0.000026,0.000000,1.000000,1.000000,0.992347,0.210604,0.161800,1.000000,1.000000,0.742055,0.146347,0.395888,1.000000,0.816803,0.270895,0.481600,2.000000
49,0.000025,0.000000,1.000000,1.000000,1.000000,0.437667,0.161800,1.000000,1.000000,0.808597,0.213448,0.540057,1.000000,0.735420,0.445596,0.570039,2.000000
50,0.000019,0.000000,1.000000,0.995389,1.000000,0.565919,0.161800,1.000000,1.000000,0.742055,0.146347,0.518621,1.000000,0.816803,0.181158,0.481600,2.000000
51,0.000019,0.000000,1.000000,0.995389,1.000000,0.565919,0.161800,1.000000,1.000000,0.742055,0.146347,0.518621,1.000000,0.816803,0.181158,0.481600,2.000000
52,0.000016,0.000000,1.000000,0.995389,1.000000,0.351706,0.161800,1.000000,1.000000,0.742055,0.146347,0.518621,1.000000,0.816803,0.186940,0.467424,2.000000
53,0.000014,0.000000,1.000000,1.000000,1.000000,0.111441,0.161800,1.000000,1.000000,0.742055,0.146347,0.518621,1.000000,0.816803,0.181158,0.532414,2.000000
54,0.000011,0.000000,1.000000,1.000000,1.000000,0.446358,0.161800,1.000000,1.000000,0.742055,0.146347,0.589150,1.000000,0.816803,0.181158,0.594130,2.000000
55,0.000006,0.000000,1.000000,1.000000,1.000000,0.565919,0.161800,1.000000,2.000000,0.866144,0.146347,0.582260,1.000000,0.816803,0.270895,0.467424,2.000000
56,0.000006,0.000000,1.000000,1.000000,1.000000,0.565919,0.161800,1.000000,2.000000,0.866144,0.146347,0.582260,1.000000,0.816803,0.270895,0.467424,2.000000
57,0.000004,0.000000,0.990988,0.995389,1.000000,0.000000,0.161800,1.000000,1.000000,0.742055,0.000000,0.589150,1.000000,0.816803,0.181158,0.726354,2.000000
