gen, fitness
0,0.027983,0.000000,1.000000,0.210000,0.800000,0.030000,0.030000,1.000000,0.000000,1.000000,0.000000,0.000000,0.600000,1.000000,1.000000,0.000000,0.000000
1,0.027983,0.000000,1.000000,0.210000,0.800000,0.030000,0.030000,1.000000,0.000000,1.000000,0.000000,0.000000,0.600000,1.000000,1.000000,0.000000,0.000000
2,0.007502,0.000000,1.000000,0.210000,0.800000,0.030000,0.030000,1.000000,2.000000,1.000000,0.000000,0.000000,0.769400,1.000000,1.000000,0.000000,2.000000
3,0.006509,0.031344,1.000000,0.210000,0.909677,0.087373,0.022301,1.000000,0.000000,1.000000,0.000000,0.000000,0.847238,1.000000,1.000000,0.083737,0.000000
4,0.003058,0.000000,1.000000,0.210000,0.969823,0.162444,0.022301,1.000000,1.000000,1.000000,0.000000,0.000000,0.992786,1.000000,1.000000,0.083737,0.000000
5,0.001949,0.000000,1.000000,0.210000,1.000000,0.022251,0.100247,1.000000,1.000000,0.925496,0.000000,0.000000,0.992786,0.838340,0.823312,0.000000,0.000000
6,0.001167,0.000000,1.000000,0.210000,1.000000,0.000000,0.000000,1.000000,1.000000,0.950797,0.000000,0.000000,1.000000,0.838340,1.000000,0.083737,2.000000
7,0.000944,0.080360,1.000000,0.191113,0.999292,0.038467,0.100247,0.877157,0.000000,0.925496,0.050025,0.184918,0.992786,0.996636,0.896641,0.081842,2.000000
8,0.000878,0.000000,0.968627,0.239606,1.000000,0.224651,0.056786,1.000000,2.000000,1.000000,0.106392,0.063537,1.000000,1.000000,0.709013,0.220029,2.000000
9,0.000878,0.000000,0.968627,0.239606,1.000000,0.224651,0.056786,1.000000,2.000000,1.000000,0.106392,0.063537,1.000000,1.000000,0.709013,0.220029,2.000000
10,0.000750,0.000000,0.910328,0.264331,1.000000,0.137058,0.095641,0.986328,1.000000,0.993961,0.000000,0.134611,1.000000,0.976980,0.880825,0.000000,2.000000
11,0.000738,0.000000,1.000000,0.351274,0.986762,0.310752,0.171553,0.917630,2.000000,1.000000,0.000000,0.122827,1.000000,0.966108,0.893018,0.182997,2.000000
12,0.000552,0.000000,1.000000,0.191113,1.000000,0.064431,0.100247,0.966869,2.000000,0.915041,0.000000,0.274173,1.000000,1.000000,0.939622,0.270627,2.000000
13,0.000552,0.000000,1.000000,0.191113,1.000000,0.064431,0.100247,0.966869,2.000000,0.915041,0.000000,0.274173,1.000000,1.000000,0.939622,0.270627,2.000000
14,0.000552,0.000000,1.000000,0.191113,1.000000,0.064431,0.100247,0.966869,2.000000,0.915041,0.000000,0.274173,1.000000,1.000000,0.939622,0.270627,2.000000
15,0.000520,0.000000,0.910328,0.236664,1.000000,0.100003,0.332151,1.000000,2.000000,0.886928,0.000000,0.254326,1.000000,1.000000,0.939622,0.270627,2.000000
16,0.000520,0.000000,0.910328,0.236664,1.000000,0.100003,0.332151,1.000000,2.000000,0.886928,0.000000,0.254326,1.000000,1.000000,0.939622,0.270627,2.000000
17,0.000516,0.000000,0.949790,0.476175,0.999292,0.284645,0.332151,1.000000,2.000000,0.886928,0.000000,0.436166,1.000000,1.000000,0.755224,0.263578,2.000000
18,0.000380,0.000000,0.870186,0.253438,1.000000,0.256657,0.000000,0.953375,2.000000,0.656985,0.083779,0.463331,1.000000,1.000000,0.956834,0.269376,2.000000
19,0.000380,0.000000,0.870186,0.253438,1.000000,0.256657,0.000000,0.953375,2.000000,0.656985,0.083779,0.463331,1.000000,1.000000,0.956834,0.269376,2.000000
20,0.000380,0.000000,0.870186,0.253438,1.000000,0.256657,0.000000,0.953375,2.000000,0.656985,0.083779,0.463331,1.000000,1.000000,0.956834,0.269376,2.000000
21,0.000378,0.027276,0.445930,0.363179,0.992717,0.136980,0.015793,1.000000,2.000000,0.755189,0.220926,0.500118,1.000000,1.000000,1.000000,0.378721,2.000000
22,0.000351,0.000000,0.982223,0.338390,1.000000,0.540770,0.135708,0.901404,2.000000,0.450971,0.130046,0.728062,1.000000,0.972908,0.384294,0.565618,1.000000
23,0.000351,0.000000,0.982223,0.338390,1.000000,0.540770,0.135708,0.901404,2.000000,0.450971,0.130046,0.728062,1.000000,0.972908,0.384294,0.565618,1.000000
24,0.000351,0.000000,0.982223,0.338390,1.000000,0.540770,0.135708,0.901404,2.000000,0.450971,0.130046,0.728062,1.000000,0.972908,0.384294,0.565618,1.000000
25,0.000351,0.000000,0.982223,0.338390,1.000000,0.540770,0.135708,0.901404,2.000000,0.450971,0.130046,0.728062,1.000000,0.972908,0.384294,0.565618,1.000000
26,0.000322,0.085470,0.923479,0.211329,1.000000,0.022223,0.100247,0.934884,2.000000,0.599117,0.042378,0.579090,1.000000,0.944296,0.654630,0.569401,2.000000
27,0.000322,0.085470,0.923479,0.211329,1.000000,0.022223,0.100247,0.934884,2.000000,0.599117,0.042378,0.579090,1.000000,0.944296,0.654630,0.569401,2.000000
28,0.000250,0.027276,0.455939,0.363179,0.992717,0.291138,0.108123,0.916641,2.000000,0.349167,0.036009,0.761065,1.000000,1.000000,0.226074,0.687592,2.000000
29,0.000250,0.027276,0.455939,0.363179,0.992717,0.291138,0.108123,0.916641,2.000000,0.349167,0.036009,0.761065,1.000000,1.000000,0.226074,0.687592,2.000000
30,0.000250,0.027276,0.455939,0.363179,0.992717,0.291138,0.108123,0.916641,2.000000,0.349167,0.036009,0.761065,1.000000,1.000000,0.226074,0.687592,2.000000
31,0.000250,0.027276,0.455939,0.363179,0.992717,0.291138,0.108123,0.916641,2.000000,0.349167,0.036009,0.761065,1.000000,1.000000,0.226074,0.687592,2.000000
32,0.000196,0.000000,0.455939,0.363179,1.000000,0.229553,0.108123,0.954102,2.000000,0.381952,0.230878,0.989448,1.000000,0.883832,0.615875,0.647014,2.000000
33,0.000196,0.000000,0.455939,0.363179,1.000000,0.229553,0.108123,0.954102,2.000000,0.381952,0.230878,0.989448,1.000000,0.883832,0.615875,0.647014,2.000000
34,0.000196,0.000000,0.455939,0.363179,1.000000,0.229553,0.108123,0.954102,2.000000,0.381952,0.230878,0.989448,1.000000,0.883832,0.615875,0.647014,2.000000
35,0.000165,0.027276,0.437831,0.483301,1.000000,0.291138,0.108123,1.000000,2.000000,0.349167,0.036009,0.997005,1.000000,1.000000,0.038189,0.597984,2.000000
36,0.000165,0.027276,0.437831,0.483301,1.000000,0.291138,0.108123,1.000000,2.000000,0.349167,0.036009,0.997005,1.000000,1.000000,0.038189,0.597984,2.000000
37,0.000165,0.027276,0.437831,0.483301,1.000000,0.291138,0.108123,1.000000,2.000000,0.349167,0.036009,0.997005,1.000000,1.000000,0.038189,0.597984,2.000000
38,0.000165,0.027276,0.437831,0.483301,1.000000,0.291138,0.108123,1.000000,2.000000,0.349167,0.036009,0.997005,1.000000,1.000000,0.038189,0.597984,2.000000
39,0.000165,0.027276,0.437831,0.483301,1.000000,0.291138,0.108123,1.000000,2.000000,0.349167,0.036009,0.997005,1.000000,1.000000,0.038189,0.597984,2.000000
40,0.000165,0.027276,0.437831,0.483301,1.000000,0.291138,0.108123,1.000000,2.000000,0.349167,0.036009,0.997005,1.000000,1.000000,0.038189,0.597984,2.000000
41,0.000165,0.027276,0.437831,0.483301,1.000000,0.291138,0.108123,1.000000,2.000000,0.349167,0.036009,0.997005,1.000000,1.000000,0.038189,0.597984,2.000000
42,0.000165,0.027276,0.437831,0.483301,1.000000,0.291138,0.108123,1.000000,2.000000,0.349167,0.036009,0.997005,1.000000,1.000000,0.038189,0.597984,2.000000
43,0.000161,0.000000,0.351052,0.483301,1.000000,0.291138,0.169441,1.000000,2.000000,0.331293,0.036009,0.997005,1.000000,1.000000,0.038189,0.397714,2.000000
44,0.000161,0.000000,0.351052,0.483301,1.000000,0.291138,0.169441,1.000000,2.000000,0.331293,0.036009,0.997005,1.000000,1.000000,0.038189,0.397714,2.000000
45,0.000151,0.000000,0.337446,0.362501,1.000000,0.463990,0.084784,1.000000,2.000000,0.174972,0.172236,1.000000,1.000000,0.877631,0.202893,0.673696,2.000000
gen, fitness
0,0.112030,0.000000,1.000000,0.210000,0.800000,0.030000,0.030000,1.000000,0.000000,1.000000,0.000000,0.000000,0.600000,1.000000,1.000000,0.000000,0.000000
1,0.112030,0.000000,1.000000,0.210000,0.800000,0.030000,0.030000,1.000000,0.000000,1.000000,0.000000,0.000000,0.600000,1.000000,1.000000,0.000000,0.000000
2,0.064399,0.000000,1.000000,0.210000,0.899383,0.000000,0.000000,1.000000,1.000000,1.000000,0.081707,0.000000,0.846426,1.000000,0.788257,0.000000,2.000000
3,0.061220,0.005304,1.000000,0.210000,0.899383,0.126288,0.062737,1.000000,1.000000,1.000000,0.081707,0.113615,0.846426,1.000000,0.757975,0.006458,2.000000
4,0.052992,0.004882,0.999596,0.285531,0.950814,0.257824,0.000000,0.928734,1.000000,1.000000,0.000000,0.128896,0.899243,0.902940,1.000000,0.000000,2.000000
5,0.052992,0.004882,0.999596,0.285531,0.950814,0.257824,0.000000,0.928734,1.000000,1.000000,0.000000,0.128896,0.899243,0.902940,1.000000,0.000000,2.000000
6,0.045943,0.022993,0.999596,0.285531,1.000000,0.257824,0.157234,0.928734,0.000000,1.000000,0.049327,0.058418,0.984695,1.000000,0.905294,0.169786,2.000000
7,0.044295,0.095767,0.943793,0.212298,1.000000,0.253356,0.083312,0.975119,1.000000,1.000000,0.000000,0.128896,1.000000,1.000000,0.879735,0.068086,2.000000
8,0.039916,0.165428,0.992020,0.184990,1.000000,0.303185,0.199774,0.832897,2.000000,0.988523,0.049327,0.335832,0.984695,1.000000,1.000000,0.357482,2.000000
9,0.039916,0.165428,0.992020,0.184990,1.000000,0.303185,0.199774,0.832897,2.000000,0.988523,0.049327,0.335832,0.984695,1.000000,1.000000,0.357482,2.000000
10,0.039303,0.194562,0.992020,0.306112,1.000000,0.303185,0.396348,0.832897,1.000000,0.988523,0.049327,0.452534,1.000000,1.000000,0.912251,0.382325,2.000000
11,0.038520,0.194562,0.986135,0.306112,1.000000,0.303185,0.396348,0.784289,2.000000,1.000000,0.000000,0.439045,1.000000,1.000000,0.860181,0.382325,2.000000
12,0.037855,0.000000,0.850660,0.150771,1.000000,0.214833,0.045835,0.960994,2.000000,0.845518,0.143312,0.443659,0.953056,0.781125,0.753587,0.480893,2.000000
13,0.037286,0.111995,1.000000,0.234034,1.000000,0.147582,0.371823,0.980156,2.000000,1.000000,0.208046,0.440041,0.989107,0.761273,0.944668,0.524687,2.000000
14,0.036304,0.194562,0.992020,0.441784,1.000000,0.303185,0.027776,0.917199,2.000000,1.000000,0.000000,0.548541,1.000000,0.946745,0.949728,0.379489,2.000000
15,0.035975,0.000000,0.847716,0.501745,1.000000,0.478311,0.325400,0.994087,2.000000,1.000000,0.000818,0.757542,0.982333,0.886846,0.574823,0.525477,1.000000
16,0.035909,0.000000,0.608503,0.501745,1.000000,0.711814,0.325400,1.000000,2.000000,0.887862,0.000000,0.804815,0.982333,0.921692,0.574823,0.513763,1.000000
17,0.035248,0.000000,0.720830,0.413330,1.000000,0.490229,0.054585,0.924953,2.000000,1.000000,0.043797,0.712942,1.000000,0.978321,0.684386,0.429713,2.000000
18,0.034420,0.068709,0.822868,0.425446,1.000000,0.146522,0.257009,0.902860,2.000000,0.995949,0.027868,0.726029,1.000000,1.000000,0.780476,0.549195,2.000000
19,0.034209,0.000000,0.847716,0.501745,1.000000,0.367495,0.435769,0.994087,2.000000,1.000000,0.000818,0.757542,0.982333,0.886846,0.596739,0.568278,2.000000
20,0.033746,0.018326,0.668791,0.501745,1.000000,0.606088,0.581569,1.000000,2.000000,0.887862,0.000000,0.792946,0.995600,0.946745,0.780476,0.692394,2.000000
21,0.033428,0.072829,0.668791,0.501745,1.000000,0.606088,0.405908,0.958324,2.000000,0.856104,0.077340,0.849852,1.000000,0.621466,0.647761,0.841035,2.000000
22,0.033026,0.167735,0.980688,0.586818,1.000000,0.407076,0.529725,0.988006,2.000000,0.868535,0.000000,1.000000,1.000000,0.580833,0.461915,0.620237,2.000000
23,0.033026,0.167735,0.980688,0.586818,1.000000,0.407076,0.529725,0.988006,2.000000,0.868535,0.000000,1.000000,1.000000,0.580833,0.461915,0.620237,2.000000
24,0.032191,0.131336,0.668791,0.501745,1.000000,0.578202,0.405908,0.937399,2.000000,0.856104,0.135244,1.000000,1.000000,0.838255,0.707890,0.996646,2.000000
25,0.032191,0.131336,0.668791,0.501745,1.000000,0.578202,0.405908,0.937399,2.000000,0.856104,0.135244,1.000000,1.000000,0.838255,0.707890,0.996646,2.000000
26,0.031925,0.012888,0.601190,0.598813,1.000000,0.578202,0.388609,1.000000,2.000000,0.856104,0.135244,1.000000,1.000000,0.748093,0.852496,0.851079,2.000000
27,0.031925,0.012888,0.601190,0.598813,1.000000,0.578202,0.388609,1.000000,2.000000,0.856104,0.135244,1.000000,1.000000,0.748093,0.852496,0.851079,2.000000
28,0.031925,0.012888,0.601190,0.598813,1.000000,0.578202,0.388609,1.000000,2.000000,0.856104,0.135244,1.000000,1.000000,0.748093,0.852496,0.851079,2.000000
29,0.031675,0.064184,1.000000,0.737775,1.000000,0.666953,0.372873,0.971402,2.000000,1.000000,0.160826,1.000000,1.000000,0.713690,0.693022,0.984815,2.000000
30,0.031052,0.000000,0.828600,0.633895,1.000000,0.298529,0.305246,1.000000,2.000000,0.902390,0.072040,1.000000,1.000000,0.925885,0.866638,1.000000,2.000000
31,0.030923,0.000000,0.946110,0.633895,1.000000,0.298529,0.230448,1.000000,2.000000,0.902390,0.072040,1.000000,1.000000,0.925885,0.866638,1.000000,2.000000
32,0.030923,0.000000,0.946110,0.633895,1.000000,0.298529,0.230448,1.000000,2.000000,0.902390,0.072040,1.000000,1.000000,0.925885,0.866638,1.000000,2.000000
33,0.030923,0.000000,0.946110,0.633895,1.000000,0.298529,0.230448,1.000000,2.000000,0.902390,0.072040,1.000000,1.000000,0.925885,0.866638,1.000000,2.000000
34,0.030869,0.000000,0.946110,0.662400,1.000000,0.298529,0.230448,1.000000,2.000000,0.810184,0.041427,1.000000,1.000000,0.925885,0.866638,1.000000,2.000000
35,0.030869,0.000000,0.946110,0.662400,1.000000,0.298529,0.230448,1.000000,2.000000,0.810184,0.041427,1.000000,1.000000,0.925885,0.866638,1.000000,2.000000
36,0.030858,0.000000,0.993812,0.633895,1.000000,0.105125,0.249561,1.000000,2.000000,0.810184,0.041427,1.000000,1.000000,0.925885,0.866638,0.926998,2.000000
37,0.030858,0.000000,0.993812,0.633895,1.000000,0.105125,0.249561,1.000000,2.000000,0.810184,0.041427,1.000000,1.000000,0.925885,0.866638,0.926998,2.000000
38,0.030858,0.000000,0.993812,0.633895,1.000000,0.105125,0.249561,1.000000,2.000000,0.810184,0.041427,1.000000,1.000000,0.925885,0.866638,0.926998,2.000000
39,0.030858,0.000000,0.993812,0.633895,1.000000,0.105125,0.249561,1.000000,2.000000,0.810184,0.041427,1.000000,1.000000,0.925885,0.866638,0.926998,2.000000
40,0.030822,0.000000,1.000000,0.633895,1.000000,0.300108,0.305246,1.000000,2.000000,0.878905,0.016872,1.000000,1.000000,0.925885,0.989054,1.000000,2.000000
41,0.030822,0.000000,1.000000,0.633895,1.000000,0.300108,0.305246,1.000000,2.000000,0.878905,0.016872,1.000000,1.000000,0.925885,0.989054,1.000000,2.000000
42,0.030822,0.000000,1.000000,0.633895,1.000000,0.300108,0.305246,1.000000,2.000000,0.878905,0.016872,1.000000,1.000000,0.925885,0.989054,1.000000,2.000000
43,0.030822,0.000000,1.000000,0.633895,1.000000,0.300108,0.305246,1.000000,2.000000,0.878905,0.016872,1.000000,1.000000,0.925885,0.989054,1.000000,2.000000
44,0.030476,0.000000,1.000000,0.696982,1.000000,0.005066,0.114599,1.000000,2.000000,0.853348,0.013000,1.000000,1.000000,0.968397,0.927451,1.000000,2.000000
45,0.030476,0.000000,1.000000,0.696982,1.000000,0.005066,0.114599,1.000000,2.000000,0.853348,0.013000,1.000000,1.000000,0.968397,0.927451,1.000000,2.000000
46,0.030476,0.000000,1.000000,0.696982,1.000000,0.005066,0.114599,1.000000,2.000000,0.853348,0.013000,1.000000,1.000000,0.968397,0.927451,1.000000,2.000000
47,0.030476,0.000000,1.000000,0.696982,1.000000,0.005066,0.114599,1.000000,2.000000,0.853348,0.013000,1.000000,1.000000,0.968397,0.927451,1.000000,2.000000
48,0.030476,0.000000,1.000000,0.696982,1.000000,0.005066,0.114599,1.000000,2.000000,0.853348,0.013000,1.000000,1.000000,0.968397,0.927451,1.000000,2.000000
49,0.030476,0.000000,1.000000,0.696982,1.000000,0.005066,0.114599,1.000000,2.000000,0.853348,0.013000,1.000000,1.000000,0.968397,0.927451,1.000000,2.000000
50,0.030476,0.000000,1.000000,0.696982,1.000000,0.005066,0.114599,1.000000,2.000000,0.853348,0.013000,1.000000,1.000000,0.968397,0.927451,1.000000,2.000000
51,0.030476,0.000000,1.000000,0.696982,1.000000,0.005066,0.114599,1.000000,2.000000,0.853348,0.013000,1.000000,1.000000,0.968397,0.927451,1.000000,2.000000
52,0.030476,0.000000,1.000000,0.696982,1.000000,0.005066,0.114599,1.000000,2.000000,0.853348,0.013000,1.000000,1.000000,0.968397,0.927451,1.000000,2.000000
53,0.030476,0.000000,1.000000,0.696982,1.000000,0.005066,0.114599,1.000000,2.000000,0.853348,0.013000,1.000000,1.000000,0.968397,0.927451,1.000000,2.000000
54,0.030476,0.000000,1.000000,0.696982,1.000000,0.005066,0.114599,1.000000,2.000000,0.853348,0.013000,1.000000,1.000000,0.968397,0.927451,1.000000,2.000000
