gen, fitness
0,0.094016,0.000000,1.000000,0.210000,0.800000,0.030000,0.030000,1.000000,0.000000,1.000000,0.000000,0.000000,0.600000,1.000000,1.000000,0.000000,0.000000
1,0.094016,0.000000,1.000000,0.210000,0.800000,0.030000,0.030000,1.000000,0.000000,1.000000,0.000000,0.000000,0.600000,1.000000,1.000000,0.000000,0.000000
2,0.059350,0.094673,1.000000,0.210000,0.624745,0.030000,0.030000,1.000000,0.000000,1.000000,0.000000,0.000000,0.600000,1.000000,1.000000,0.000000,0.000000
3,0.059350,0.094673,1.000000,0.210000,0.624745,0.030000,0.030000,1.000000,0.000000,1.000000,0.000000,0.000000,0.600000,1.000000,1.000000,0.000000,0.000000
4,0.053751,0.094673,1.000000,0.210000,0.624745,0.030000,0.030000,1.000000,0.000000,1.000000,0.000000,0.000000,0.413991,1.000000,1.000000,0.165941,0.000000
5,0.053580,0.094673,1.000000,0.210000,0.624745,0.030000,0.030000,1.000000,0.000000,1.000000,0.000000,0.009452,0.413991,1.000000,1.000000,0.165941,0.000000
6,0.048559,0.094673,1.000000,0.210000,0.591976,0.030000,0.030000,0.988968,0.000000,1.000000,0.000000,0.000000,0.413991,1.000000,1.000000,0.165941,0.000000
7,0.041360,0.094673,1.000000,0.056062,0.624745,0.052639,0.030000,1.000000,1.000000,1.000000,0.064390,0.000000,0.457156,1.000000,1.000000,0.000000,0.000000
8,0.037508,0.094673,1.000000,0.092443,0.552469,0.030000,0.000000,0.960674,0.000000,1.000000,0.000000,0.066150,0.347919,1.000000,1.000000,0.165941,1.000000
9,0.032623,0.110710,1.000000,0.067039,0.545977,0.030000,0.052555,1.000000,2.000000,1.000000,0.104352,0.000000,0.319025,0.948945,1.000000,0.000000,1.000000
10,0.028770,0.110710,1.000000,0.067039,0.464594,0.030000,0.052555,1.000000,2.000000,1.000000,0.104352,0.000000,0.319025,0.948945,0.954820,0.000000,1.000000
11,0.025553,0.305281,1.000000,0.000000,0.495884,0.030000,0.017912,0.945559,0.000000,0.959860,0.021907,0.058942,0.297591,1.000000,1.000000,0.165941,1.000000
12,0.022334,0.331810,1.000000,0.000000,0.495884,0.109476,0.017912,1.000000,0.000000,1.000000,0.104352,0.000000,0.319025,1.000000,0.954820,0.000000,1.000000
13,0.022257,0.331810,1.000000,0.000000,0.495884,0.070063,0.017912,1.000000,0.000000,1.000000,0.104352,0.000000,0.319025,1.000000,0.954820,0.000000,0.000000
14,0.019696,0.331810,1.000000,0.000000,0.359347,0.070063,0.017912,1.000000,0.000000,1.000000,0.104352,0.000000,0.319025,0.894897,0.954820,0.000000,0.000000
15,0.016437,0.305281,1.000000,0.000000,0.441266,0.030000,0.131796,1.000000,0.000000,1.000000,0.104352,0.000000,0.190820,0.920403,1.000000,0.000000,1.000000
16,0.015095,0.394788,1.000000,0.000000,0.391773,0.030000,0.079643,1.000000,0.000000,1.000000,0.104352,0.000000,0.262432,1.000000,0.954820,0.000000,1.000000
17,0.012738,0.394788,1.000000,0.000000,0.391773,0.030000,0.079643,1.000000,0.000000,1.000000,0.104352,0.000000,0.181029,1.000000,0.954820,0.000000,1.000000
18,0.009004,0.339063,1.000000,0.000000,0.328159,0.030000,0.017912,0.945559,0.000000,1.000000,0.104352,0.000000,0.137832,0.948945,0.954820,0.000000,0.000000
19,0.008215,0.339063,1.000000,0.000000,0.328159,0.030000,0.017912,0.945559,0.000000,1.000000,0.104352,0.000000,0.098183,0.948945,0.954820,0.000000,1.000000
20,0.008036,0.481390,1.000000,0.000000,0.272151,0.030000,0.215980,0.827743,0.000000,0.917218,0.104352,0.000000,0.190820,0.920403,1.000000,0.000000,1.000000
21,0.006302,0.394788,1.000000,0.000000,0.250847,0.030000,0.079643,0.722862,0.000000,1.000000,0.104352,0.000000,0.137832,0.948945,0.954820,0.000000,0.000000
22,0.005439,0.481390,1.000000,0.000000,0.272151,0.000000,0.017912,0.945559,0.000000,1.000000,0.104352,0.000000,0.093512,0.948945,0.954820,0.000000,2.000000
23,0.004504,0.394788,1.000000,0.000000,0.250847,0.000000,0.029237,0.945559,1.000000,1.000000,0.104352,0.000000,0.024084,0.924470,1.000000,0.000000,2.000000
24,0.002988,0.394788,1.000000,0.000000,0.051983,0.000000,0.029237,0.945559,0.000000,1.000000,0.104352,0.000000,0.000000,0.924470,1.000000,0.000000,2.000000
25,0.002520,0.394788,1.000000,0.000000,0.155925,0.030000,0.079643,0.722862,0.000000,1.000000,0.220063,0.000000,0.014057,0.948945,0.954820,0.000000,2.000000
26,0.002200,0.394788,1.000000,0.077998,0.051983,0.000000,0.029237,1.000000,0.000000,1.000000,0.104352,0.000000,0.000000,0.924470,1.000000,0.000000,0.000000
27,0.001397,0.496557,1.000000,0.000000,0.051983,0.000000,0.069010,0.860118,0.000000,1.000000,0.104352,0.000000,0.000000,0.924470,1.000000,0.000000,0.000000
28,0.001397,0.496557,1.000000,0.000000,0.051983,0.000000,0.069010,0.860118,0.000000,1.000000,0.104352,0.000000,0.000000,0.924470,1.000000,0.000000,0.000000
29,0.000273,0.725952,1.000000,0.000000,0.051983,0.037492,0.069010,0.860118,2.000000,1.000000,0.156182,0.000000,0.000000,0.924470,0.780901,0.000000,0.000000
30,0.000258,0.725952,1.000000,0.000000,0.051983,0.037492,0.069010,0.860118,2.000000,1.000000,0.156182,0.000000,0.000000,1.000000,0.780901,0.000000,0.000000
31,0.000048,0.725952,1.000000,0.000000,0.009301,0.037492,0.069010,0.860118,2.000000,1.000000,0.156182,0.000000,0.000000,0.924470,0.780901,0.000000,0.000000
32,0.000036,0.725952,1.000000,0.000000,0.009301,0.037492,0.069010,0.860118,1.000000,1.000000,0.156182,0.000000,0.000000,0.924470,0.780901,0.000000,0.000000
33,0.000036,0.725952,1.000000,0.000000,0.009301,0.037492,0.069010,0.860118,1.000000,1.000000,0.156182,0.000000,0.000000,0.924470,0.780901,0.000000,0.000000
34,0.000028,0.725952,1.000000,0.000000,0.009301,0.037492,0.069010,0.860118,0.000000,1.000000,0.156182,0.000000,0.000000,0.924470,0.780901,0.000000,0.000000
35,0.000009,0.772059,0.924727,0.000000,0.000000,0.037492,0.069010,0.860118,2.000000,1.000000,0.156182,0.000000,0.000000,1.000000,0.780901,0.000000,0.000000
36,0.000003,0.772059,0.924727,0.000000,0.000000,0.037492,0.069010,0.860118,1.000000,1.000000,0.156182,0.000000,0.000000,1.000000,0.780901,0.000000,0.000000
37,0.000003,0.772059,0.924727,0.000000,0.000000,0.037492,0.069010,0.860118,1.000000,1.000000,0.156182,0.000000,0.000000,1.000000,0.780901,0.000000,0.000000
38,0.000000,0.772059,0.924727,0.000000,0.000000,0.037492,0.069010,0.860118,0.000000,1.000000,0.156182,0.000000,0.000000,1.000000,0.783031,0.000000,1.000000
gen, fitness
0,0.011444,0.000000,1.000000,0.210000,0.800000,0.030000,0.030000,1.000000,0.000000,1.000000,0.000000,0.000000,0.600000,1.000000,1.000000,0.000000,0.000000
1,0.011444,0.000000,1.000000,0.210000,0.800000,0.030000,0.030000,1.000000,0.000000,1.000000,0.000000,0.000000,0.600000,1.000000,1.000000,0.000000,0.000000
2,0.005562,0.000000,1.000000,0.210000,0.722104,0.030000,0.030000,1.000000,0.000000,1.000000,0.000000,0.000000,0.583243,1.000000,1.000000,0.000000,0.000000
3,0.005551,0.003487,1.000000,0.210000,0.722104,0.030000,0.030000,1.000000,0.000000,1.000000,0.000000,0.000000,0.583243,1.000000,1.000000,0.000000,0.000000
4,0.002397,0.000000,1.000000,0.210000,0.607897,0.000000,0.030000,1.000000,0.000000,1.000000,0.000000,0.000000,0.455662,1.000000,1.000000,0.000000,0.000000
5,0.002397,0.000000,1.000000,0.210000,0.607897,0.000000,0.030000,1.000000,0.000000,1.000000,0.000000,0.000000,0.455662,1.000000,1.000000,0.000000,0.000000
6,0.001990,0.118976,1.000000,0.210000,0.597071,0.000000,0.030000,1.000000,0.000000,1.000000,0.000000,0.000000,0.455662,1.000000,1.000000,0.000000,0.000000
7,0.001775,0.118976,1.000000,0.146405,0.597071,0.000000,0.030000,1.000000,0.000000,1.000000,0.000000,0.000000,0.455662,1.000000,1.000000,0.000000,0.000000
8,0.001757,0.118976,1.000000,0.182909,0.597071,0.000000,0.030000,1.000000,0.000000,1.000000,0.000000,0.000000,0.455662,0.903711,1.000000,0.000000,0.000000
9,0.001644,0.195771,1.000000,0.180664,0.597071,0.000000,0.000000,1.000000,0.000000,1.000000,0.000000,0.000000,0.461550,1.000000,1.000000,0.000000,0.000000
10,0.000629,0.118976,0.963971,0.200562,0.472285,0.000000,0.000000,1.000000,0.000000,1.000000,0.029477,0.000000,0.260286,1.000000,1.000000,0.014625,0.000000
11,0.000629,0.118976,0.963971,0.200562,0.472285,0.000000,0.000000,1.000000,0.000000,1.000000,0.029477,0.000000,0.260286,1.000000,0.974158,0.014625,0.000000
12,0.000467,0.090512,0.963971,0.200562,0.472285,0.000000,0.000000,1.000000,1.000000,1.000000,0.025504,0.000000,0.260286,1.000000,1.000000,0.014625,2.000000
13,0.000313,0.022095,0.963971,0.200562,0.472285,0.000000,0.000000,1.000000,0.000000,1.000000,0.029477,0.000000,0.260286,1.000000,1.000000,0.014625,0.000000
14,0.000112,0.118976,0.963971,0.200562,0.408689,0.000000,0.000000,1.000000,0.000000,1.000000,0.029477,0.000000,0.260286,1.000000,1.000000,0.014625,0.000000
15,0.000067,0.256931,0.963971,0.200562,0.388602,0.000000,0.000000,1.000000,0.000000,1.000000,0.025504,0.000000,0.260286,1.000000,1.000000,0.014625,2.000000
16,0.000062,0.256931,0.963971,0.200562,0.388602,0.000000,0.000000,1.000000,0.000000,1.000000,0.025504,0.000000,0.260286,1.000000,1.000000,0.022545,2.000000
17,0.000052,0.256931,0.963971,0.200562,0.388602,0.000000,0.000000,1.000000,0.000000,1.000000,0.105317,0.000000,0.260286,1.000000,1.000000,0.022545,2.000000
18,0.000000,0.256931,0.963971,0.178995,0.388602,0.000000,0.000000,1.000000,0.000000,1.000000,0.000000,0.000000,0.260286,1.000000,1.000000,0.014625,2.000000
gen, fitness
0,0.010533,0.000000,1.000000,0.210000,0.800000,0.030000,0.030000,1.000000,0.000000,1.000000,0.000000,0.000000,0.600000,1.000000,1.000000,0.000000,0.000000
1,0.010533,0.000000,1.000000,0.210000,0.800000,0.030000,0.030000,1.000000,0.000000,1.000000,0.000000,0.000000,0.600000,1.000000,1.000000,0.000000,0.000000
2,0.002412,0.000000,1.000000,0.210000,0.684374,0.030000,0.030000,1.000000,2.000000,1.000000,0.000000,0.000000,0.600000,1.000000,1.000000,0.000000,0.000000
3,0.002086,0.000000,1.000000,0.210000,0.658828,0.030000,0.030000,1.000000,0.000000,0.777633,0.000000,0.000000,0.600000,1.000000,1.000000,0.062860,0.000000
4,0.001536,0.000000,1.000000,0.210000,0.684374,0.030000,0.030000,1.000000,0.000000,1.000000,0.000000,0.000000,0.566135,1.000000,1.000000,0.000000,0.000000
5,0.000861,0.000000,1.000000,0.210000,0.616164,0.030000,0.030000,1.000000,0.000000,1.000000,0.000000,0.000000,0.502278,1.000000,1.000000,0.000000,0.000000
6,0.000727,0.072387,0.904013,0.210000,0.616164,0.030000,0.030000,1.000000,0.000000,1.000000,0.000000,0.000000,0.502278,1.000000,1.000000,0.000000,2.000000
7,0.000683,0.114329,1.000000,0.111101,0.684374,0.007010,0.030000,1.000000,0.000000,1.000000,0.129066,0.000000,0.510485,1.000000,1.000000,0.000000,0.000000
8,0.000099,0.098643,0.879134,0.210000,0.523310,0.030000,0.000000,1.000000,0.000000,1.000000,0.000000,0.000000,0.385783,1.000000,1.000000,0.000000,2.000000
9,0.000034,0.098643,0.879134,0.188293,0.523310,0.030000,0.000000,1.000000,0.000000,1.000000,0.000000,0.000000,0.385783,1.000000,1.000000,0.000000,0.000000
10,0.000034,0.098643,0.879134,0.188293,0.523310,0.030000,0.000000,1.000000,0.000000,1.000000,0.000000,0.000000,0.385783,1.000000,1.000000,0.000000,0.000000
11,0.000034,0.098643,0.879134,0.188293,0.523310,0.030000,0.000000,1.000000,0.000000,1.000000,0.000000,0.000000,0.385783,1.000000,1.000000,0.000000,0.000000
12,0.000033,0.098643,0.922047,0.188293,0.523310,0.000000,0.000000,1.000000,0.000000,1.000000,0.000000,0.000000,0.385783,1.000000,1.000000,0.000000,0.000000
13,0.000033,0.098643,0.922047,0.188293,0.523310,0.000000,0.000000,1.000000,0.000000,1.000000,0.000000,0.000000,0.385783,1.000000,1.000000,0.000000,0.000000
14,0.000033,0.098643,0.922047,0.188293,0.523310,0.000000,0.000000,1.000000,0.000000,1.000000,0.000000,0.000000,0.385783,1.000000,1.000000,0.000000,0.000000
15,0.000032,0.098643,0.879134,0.188293,0.523310,0.030000,0.000000,0.924089,0.000000,1.000000,0.000000,0.000000,0.385783,1.000000,1.000000,0.000000,0.000000
16,0.000032,0.098643,0.879134,0.188293,0.523310,0.030000,0.000000,0.924089,0.000000,1.000000,0.000000,0.000000,0.385783,1.000000,1.000000,0.000000,0.000000
17,0.000011,0.230389,0.922047,0.153670,0.523310,0.000000,0.000000,1.000000,0.000000,0.962746,0.000000,0.000000,0.421971,1.000000,1.000000,0.000000,0.000000
18,0.000011,0.230389,0.922047,0.153670,0.523310,0.000000,0.000000,1.000000,0.000000,0.962746,0.000000,0.000000,0.421971,1.000000,1.000000,0.000000,0.000000
19,0.000011,0.230389,0.922047,0.153670,0.523310,0.000000,0.000000,1.000000,0.000000,0.962746,0.000000,0.000000,0.421971,1.000000,1.000000,0.000000,0.000000
20,0.000009,0.230389,0.922047,0.153670,0.523310,0.000000,0.000000,1.000000,0.000000,0.962746,0.195931,0.000000,0.421971,1.000000,1.000000,0.000000,0.000000
21,0.000007,0.230389,0.922047,0.153670,0.523310,0.000000,0.000000,0.966938,0.000000,0.962746,0.000000,0.000000,0.421971,1.000000,1.000000,0.000000,0.000000
22,0.000006,0.230389,0.922047,0.153670,0.523310,0.000000,0.000000,0.936427,0.000000,0.962746,0.000000,0.000000,0.421971,1.000000,1.000000,0.000000,0.000000
23,0.000006,0.230389,0.922047,0.153670,0.523310,0.000000,0.000000,0.936427,0.000000,0.962746,0.000000,0.000000,0.421971,1.000000,1.000000,0.000000,0.000000
24,0.000006,0.230389,0.922047,0.153670,0.523310,0.000000,0.000000,0.936427,0.000000,0.962746,0.000000,0.000000,0.421971,1.000000,1.000000,0.000000,0.000000
25,0.000006,0.230389,0.922047,0.153670,0.523310,0.000000,0.000000,0.936427,0.000000,0.962746,0.000000,0.000000,0.421971,1.000000,1.000000,0.000000,0.000000
26,0.000004,0.252256,0.922047,0.153670,0.523310,0.000000,0.000000,1.000000,0.000000,0.985522,0.118721,0.000000,0.421971,0.951592,1.000000,0.000000,0.000000
27,0.000004,0.252256,0.922047,0.153670,0.523310,0.000000,0.000000,1.000000,0.000000,0.985522,0.134060,0.000000,0.421971,0.951592,1.000000,0.000000,0.000000
gen, fitness
0,0.067934,0.000000,1.000000,0.210000,0.800000,0.030000,0.030000,1.000000,0.000000,1.000000,0.000000,0.000000,0.600000,1.000000,1.000000,0.000000,0.000000
1,0.067934,0.000000,1.000000,0.210000,0.800000,0.030000,0.030000,1.000000,0.000000,1.000000,0.000000,0.000000,0.600000,1.000000,1.000000,0.000000,0.000000
2,0.043620,0.136189,1.000000,0.210000,0.634587,0.030000,0.030000,1.000000,0.000000,1.000000,0.000000,0.000000,0.600000,1.000000,1.000000,0.000000,0.000000
3,0.043620,0.136189,1.000000,0.210000,0.634587,0.030000,0.030000,1.000000,0.000000,1.000000,0.000000,0.000000,0.600000,1.000000,1.000000,0.000000,0.000000
4,0.043585,0.136189,1.000000,0.210000,0.634587,0.030000,0.000000,1.000000,0.000000,1.000000,0.000000,0.000000,0.600000,1.000000,1.000000,0.000000,0.000000
5,0.033042,0.078454,1.000000,0.289682,0.553971,0.030000,0.030000,1.000000,0.000000,1.000000,0.000000,0.062161,0.414172,1.000000,0.955291,0.000000,0.000000
6,0.033018,0.078454,1.000000,0.289682,0.553971,0.030000,0.030000,1.000000,0.000000,1.000000,0.129440,0.062161,0.414172,1.000000,0.955291,0.000000,0.000000
7,0.029762,0.302266,1.000000,0.210000,0.587211,0.030000,0.030000,1.000000,0.000000,1.000000,0.129440,0.062161,0.414172,1.000000,0.955291,0.000000,0.000000
8,0.019085,0.485197,1.000000,0.289682,0.388223,0.034823,0.030000,1.000000,0.000000,1.000000,0.129440,0.062161,0.414172,1.000000,0.955291,0.000000,0.000000
9,0.019085,0.485197,1.000000,0.289682,0.388223,0.034823,0.030000,1.000000,0.000000,1.000000,0.129440,0.062161,0.414172,1.000000,0.955291,0.000000,0.000000
10,0.016024,0.485197,1.000000,0.249733,0.388223,0.034823,0.030000,1.000000,2.000000,1.000000,0.224478,0.005006,0.414172,1.000000,0.919557,0.000000,0.000000
11,0.010820,0.136189,1.000000,0.007009,0.559382,0.080734,0.030000,0.970070,1.000000,1.000000,0.000000,0.000000,0.215330,1.000000,1.000000,0.196830,1.000000
12,0.006884,0.485197,0.882806,0.077987,0.388223,0.034823,0.030000,1.000000,2.000000,1.000000,0.490928,0.005006,0.318428,1.000000,0.919557,0.000000,0.000000
13,0.006856,0.485197,0.882806,0.077987,0.388223,0.034823,0.030000,1.000000,2.000000,1.000000,0.428040,0.005006,0.318428,1.000000,0.919557,0.000000,0.000000
14,0.006119,0.544232,0.882806,0.077987,0.388223,0.034823,0.030000,1.000000,2.000000,1.000000,0.490928,0.005006,0.318428,1.000000,0.836088,0.000000,2.000000
15,0.004240,0.544232,0.882806,0.077987,0.388223,0.034823,0.030000,0.938347,2.000000,1.000000,0.490928,0.005006,0.243721,1.000000,0.881687,0.000000,2.000000
16,0.003733,0.450881,0.882806,0.077987,0.331641,0.034823,0.030000,1.000000,2.000000,1.000000,0.490928,0.005006,0.229360,1.000000,0.919557,0.000000,0.000000
17,0.002095,0.480714,0.990562,0.077987,0.333913,0.034823,0.030000,1.000000,2.000000,1.000000,0.428040,0.005006,0.155064,1.000000,0.919557,0.000000,1.000000
18,0.001094,0.485197,0.902378,0.000000,0.388223,0.034823,0.030000,0.968945,0.000000,1.000000,0.490928,0.005006,0.052850,1.000000,0.839568,0.000000,2.000000
19,0.000403,0.620395,0.990562,0.077987,0.227008,0.034823,0.030000,1.000000,2.000000,1.000000,0.428040,0.005006,0.155064,1.000000,0.919557,0.000000,1.000000
20,0.000087,0.380592,0.990562,0.077987,0.227008,0.034823,0.030000,1.000000,2.000000,1.000000,0.428040,0.000000,0.000000,1.000000,0.919557,0.000000,0.000000
21,0.000056,0.692709,0.895392,0.027460,0.260924,0.034823,0.030000,0.979049,0.000000,0.955574,0.484124,0.000000,0.155064,1.000000,0.862962,0.000000,1.000000
22,0.000051,0.485197,0.902378,0.000000,0.308770,0.034823,0.057540,0.968945,0.000000,1.000000,0.490928,0.000000,0.052850,0.839386,0.875331,0.000000,1.000000
23,0.000007,0.692709,0.895392,0.000000,0.260924,0.122763,0.000000,0.979049,0.000000,0.955574,0.484124,0.000000,0.122953,1.000000,0.862962,0.000000,1.000000
24,0.000007,0.692709,0.895392,0.000000,0.260924,0.122763,0.000000,0.979049,0.000000,0.955574,0.484124,0.000000,0.122953,1.000000,0.862962,0.000000,1.000000
25,0.000005,0.692709,0.949798,0.000000,0.260924,0.122763,0.000000,0.979049,0.000000,0.955574,0.484124,0.000000,0.122953,0.702833,0.875331,0.000000,1.000000
26,0.000003,0.692709,0.895392,0.000000,0.260924,0.122763,0.050688,0.979049,0.000000,0.955574,0.484124,0.000000,0.122953,0.796811,0.751571,0.000000,1.000000
27,0.000001,0.692709,0.955638,0.000000,0.260924,0.122763,0.000000,0.979049,0.000000,0.955574,0.484124,0.000000,0.122953,0.702833,0.875331,0.000000,2.000000
28,0.000000,0.692709,0.895392,0.000000,0.260924,0.122763,0.000000,0.979049,1.000000,0.955574,0.563385,0.000000,0.122953,1.000000,0.793629,0.000000,2.000000
gen, fitness
0,0.030614,0.000000,1.000000,0.210000,0.800000,0.030000,0.030000,1.000000,0.000000,1.000000,0.000000,0.000000,0.600000,1.000000,1.000000,0.000000,0.000000
1,0.030614,0.000000,1.000000,0.210000,0.800000,0.030000,0.030000,1.000000,0.000000,1.000000,0.000000,0.000000,0.600000,1.000000,1.000000,0.000000,0.000000
2,0.019062,0.000000,1.000000,0.079431,0.800000,0.030000,0.030000,1.000000,0.000000,1.000000,0.000000,0.000000,0.600000,1.000000,1.000000,0.000000,0.000000
3,0.016497,0.000000,1.000000,0.210000,0.652898,0.030000,0.030000,1.000000,0.000000,1.000000,0.154466,0.000000,0.600000,1.000000,1.000000,0.163747,0.000000
4,0.015053,0.000000,1.000000,0.134441,0.704096,0.074061,0.030000,1.000000,0.000000,1.000000,0.246887,0.000000,0.600000,1.000000,1.000000,0.000000,0.000000
5,0.013393,0.000000,1.000000,0.134441,0.704096,0.030000,0.030000,0.938641,0.000000,1.000000,0.000000,0.000000,0.560356,0.986233,1.000000,0.000000,2.000000
6,0.008563,0.000000,1.000000,0.210000,0.591752,0.030000,0.030000,0.925800,0.000000,1.000000,0.154466,0.015992,0.449370,1.000000,1.000000,0.163747,0.000000
7,0.007688,0.109273,1.000000,0.210000,0.591752,0.030000,0.030000,0.925800,0.000000,1.000000,0.154466,0.015992,0.449370,1.000000,1.000000,0.163747,0.000000
8,0.006204,0.050605,1.000000,0.075329,0.652898,0.000000,0.030000,1.000000,0.000000,1.000000,0.215542,0.000000,0.323588,1.000000,1.000000,0.162388,0.000000
9,0.006073,0.050605,1.000000,0.075329,0.652898,0.160409,0.000000,1.000000,0.000000,1.000000,0.215542,0.000000,0.323588,1.000000,1.000000,0.288765,0.000000
10,0.003634,0.050605,1.000000,0.075329,0.589011,0.000000,0.030000,1.000000,0.000000,1.000000,0.215542,0.000000,0.323588,1.000000,1.000000,0.162388,0.000000
11,0.003634,0.050605,1.000000,0.075329,0.589011,0.000000,0.030000,1.000000,0.000000,1.000000,0.215542,0.000000,0.323588,1.000000,1.000000,0.162388,0.000000
12,0.002003,0.050605,1.000000,0.075329,0.503602,0.000000,0.277333,1.000000,1.000000,1.000000,0.215542,0.000000,0.238878,1.000000,0.966733,0.162388,0.000000
13,0.001972,0.050605,1.000000,0.075329,0.503602,0.000000,0.277333,1.000000,1.000000,1.000000,0.215542,0.000000,0.237399,1.000000,0.966733,0.162388,0.000000
14,0.001038,0.050605,1.000000,0.075329,0.503602,0.000000,0.277333,0.768568,1.000000,1.000000,0.215542,0.000000,0.106866,1.000000,1.000000,0.162388,2.000000
15,0.000946,0.215693,1.000000,0.000000,0.503602,0.000000,0.277333,0.829365,1.000000,1.000000,0.215542,0.000000,0.233062,1.000000,0.966733,0.162388,1.000000
16,0.000635,0.182917,0.999536,0.075329,0.419703,0.000000,0.277333,1.000000,1.000000,1.000000,0.215542,0.000000,0.194508,1.000000,0.966733,0.162388,0.000000
17,0.000203,0.050605,1.000000,0.003804,0.503602,0.000000,0.277333,0.768568,1.000000,1.000000,0.215542,0.000000,0.106866,1.000000,1.000000,0.075964,1.000000
18,0.000107,0.050605,1.000000,0.000000,0.503602,0.000000,0.251714,0.768568,1.000000,1.000000,0.215542,0.000000,0.066248,1.000000,1.000000,0.162388,1.000000
19,0.000065,0.050605,1.000000,0.000000,0.503602,0.000000,0.251714,0.768568,0.000000,1.000000,0.215542,0.000000,0.066248,1.000000,1.000000,0.162388,1.000000
20,0.000065,0.050605,1.000000,0.000000,0.503602,0.000000,0.251714,0.768568,0.000000,1.000000,0.215542,0.000000,0.066248,1.000000,1.000000,0.162388,1.000000
21,0.000065,0.050605,1.000000,0.000000,0.503602,0.000000,0.251714,0.768568,0.000000,1.000000,0.215542,0.000000,0.066248,1.000000,1.000000,0.162388,1.000000
22,0.000055,0.050605,1.000000,0.000000,0.503602,0.000000,0.251714,0.580385,1.000000,0.999411,0.215542,0.000000,0.066248,1.000000,0.986146,0.162388,1.000000
23,0.000055,0.050605,1.000000,0.000000,0.503602,0.000000,0.251714,0.580385,1.000000,0.999411,0.215542,0.000000,0.066248,1.000000,0.986146,0.162388,1.000000
24,0.000036,0.050605,1.000000,0.000000,0.503602,0.000000,0.000000,0.668975,0.000000,1.000000,0.285711,0.000000,0.066248,1.000000,1.000000,0.162388,1.000000
25,0.000025,0.082228,1.000000,0.000000,0.490926,0.000000,0.251714,0.580385,1.000000,0.999411,0.356274,0.000000,0.066248,1.000000,0.986146,0.162388,1.000000
26,0.000025,0.082228,1.000000,0.000000,0.490926,0.000000,0.251714,0.580385,1.000000,0.999411,0.356274,0.000000,0.066248,1.000000,0.986146,0.162388,1.000000
27,0.000018,0.082228,1.000000,0.000000,0.490926,0.000000,0.251714,0.668975,0.000000,1.000000,0.278906,0.000000,0.066248,1.000000,1.000000,0.169384,1.000000
28,0.000012,0.082228,1.000000,0.000000,0.490926,0.051406,0.375164,0.580385,0.000000,1.000000,0.215542,0.000000,0.066248,1.000000,1.000000,0.162388,0.000000
29,0.000009,0.082228,1.000000,0.000000,0.490926,0.000000,0.262662,0.580385,1.000000,0.999411,0.356274,0.000000,0.066248,1.000000,0.986146,0.074721,1.000000
30,0.000003,0.082228,1.000000,0.000000,0.490926,0.051406,0.375164,0.580385,0.000000,1.000000,0.215542,0.000000,0.066248,1.000000,1.000000,0.126028,0.000000
31,0.000003,0.082228,1.000000,0.000000,0.490926,0.051406,0.375164,0.580385,0.000000,1.000000,0.215542,0.000000,0.066248,1.000000,1.000000,0.126028,0.000000
32,0.000002,0.111244,1.000000,0.000000,0.490926,0.000000,0.251714,0.580385,0.000000,0.999411,0.356274,0.000000,0.066248,1.000000,0.928986,0.162388,0.000000
33,0.000000,0.082228,0.959184,0.000000,0.490926,0.051406,0.000000,0.580385,0.000000,0.999411,0.215542,0.000000,0.056458,1.000000,0.986146,0.162388,0.000000
gen, fitness
0,0.009712,0.000000,1.000000,0.210000,0.800000,0.030000,0.030000,1.000000,0.000000,1.000000,0.000000,0.000000,0.600000,1.000000,1.000000,0.000000,0.000000
1,0.009712,0.000000,1.000000,0.210000,0.800000,0.030000,0.030000,1.000000,0.000000,1.000000,0.000000,0.000000,0.600000,1.000000,1.000000,0.000000,0.000000
2,0.000388,0.090713,1.000000,0.210000,0.642474,0.030000,0.030000,1.000000,0.000000,1.000000,0.000000,0.000000,0.600000,1.000000,1.000000,0.000000,0.000000
3,0.000069,0.161906,1.000000,0.210000,0.642474,0.030000,0.000000,1.000000,0.000000,1.000000,0.000000,0.000000,0.600000,1.000000,1.000000,0.000000,0.000000
4,0.000040,0.090713,1.000000,0.210000,0.642474,0.030000,0.030000,1.000000,0.000000,1.000000,0.000000,0.000000,0.570142,1.000000,1.000000,0.000000,0.000000
5,0.000035,0.090713,1.000000,0.210000,0.642474,0.030000,0.030000,1.000000,0.000000,1.000000,0.111593,0.000000,0.570142,1.000000,1.000000,0.000000,0.000000
6,0.000034,0.090713,1.000000,0.204456,0.642474,0.030000,0.030000,1.000000,0.000000,1.000000,0.111593,0.000000,0.570142,1.000000,1.000000,0.000000,0.000000
7,0.000030,0.090713,0.912862,0.210000,0.642474,0.030000,0.030000,0.757400,0.000000,1.000000,0.000000,0.000000,0.570142,0.792196,0.966739,0.000000,0.000000
8,0.000020,0.090713,1.000000,0.210000,0.642474,0.030000,0.000000,0.757400,1.000000,1.000000,0.000000,0.000000,0.570142,1.000000,0.966739,0.000000,0.000000
9,0.000013,0.090713,0.912862,0.210000,0.649251,0.030000,0.030000,0.757400,0.000000,1.000000,0.000000,0.000000,0.570142,0.792196,0.966739,0.000000,0.000000
10,0.000013,0.090713,0.912862,0.210000,0.649251,0.030000,0.030000,0.757400,0.000000,1.000000,0.000000,0.000000,0.570142,0.792196,0.966739,0.000000,0.000000
11,0.000012,0.090713,0.912862,0.210000,0.649251,0.030000,0.000000,0.757400,0.000000,1.000000,0.000000,0.000000,0.570142,0.792196,0.966739,0.000000,0.000000
12,0.000011,0.090713,1.000000,0.210000,0.642474,0.030000,0.000000,0.757400,1.000000,1.000000,0.000000,0.000000,0.566554,1.000000,0.944323,0.000000,0.000000
13,0.000011,0.090713,0.912862,0.210000,0.649251,0.030000,0.000000,0.757400,0.000000,1.000000,0.000000,0.000000,0.570142,0.792196,0.820184,0.000000,0.000000
14,0.000011,0.090713,0.912862,0.210000,0.649251,0.030000,0.000000,0.757400,0.000000,1.000000,0.000000,0.000000,0.570142,0.792196,0.820184,0.000000,0.000000
gen, fitness
0,0.026348,0.000000,1.000000,0.210000,0.800000,0.030000,0.030000,1.000000,0.000000,1.000000,0.000000,0.000000,0.600000,1.000000,1.000000,0.000000,0.000000
1,0.026348,0.000000,1.000000,0.210000,0.800000,0.030000,0.030000,1.000000,0.000000,1.000000,0.000000,0.000000,0.600000,1.000000,1.000000,0.000000,0.000000
2,0.015237,0.000000,1.000000,0.210000,0.741543,0.030000,0.030000,1.000000,0.000000,1.000000,0.000000,0.000000,0.600000,1.000000,1.000000,0.000000,0.000000
3,0.010651,0.000000,1.000000,0.061710,0.743452,0.030000,0.030000,1.000000,0.000000,1.000000,0.000000,0.039519,0.556090,1.000000,1.000000,0.000000,0.000000
4,0.006093,0.000000,1.000000,0.000000,0.743452,0.030000,0.030000,1.000000,0.000000,1.000000,0.000000,0.009255,0.474457,1.000000,1.000000,0.000000,0.000000
5,0.005839,0.000000,1.000000,0.000000,0.743452,0.030000,0.030000,1.000000,0.000000,1.000000,0.000000,0.009255,0.407328,1.000000,1.000000,0.000000,0.000000
6,0.003933,0.000000,1.000000,0.000000,0.700445,0.030000,0.030000,1.000000,0.000000,0.939727,0.000000,0.009255,0.407328,1.000000,1.000000,0.000000,0.000000
7,0.003890,0.000000,1.000000,0.000000,0.700445,0.030000,0.030000,1.000000,0.000000,0.939727,0.181899,0.009255,0.407328,1.000000,1.000000,0.000000,0.000000
8,0.003308,0.000000,1.000000,0.000000,0.667178,0.030000,0.075536,1.000000,0.000000,0.939727,0.000000,0.009255,0.407328,1.000000,1.000000,0.000000,0.000000
9,0.002501,0.000000,1.000000,0.000000,0.667178,0.030000,0.075536,1.000000,0.000000,0.939727,0.000000,0.009255,0.361918,1.000000,1.000000,0.000000,1.000000
10,0.002375,0.000000,1.000000,0.042425,0.631313,0.000000,0.030000,0.965275,1.000000,0.939727,0.181899,0.009255,0.335183,0.912171,1.000000,0.000000,0.000000
11,0.001555,0.000000,1.000000,0.000000,0.635539,0.030000,0.056754,1.000000,0.000000,0.939727,0.049597,0.009255,0.319339,1.000000,1.000000,0.000000,0.000000
12,0.001523,0.000000,1.000000,0.000000,0.635539,0.030000,0.056754,1.000000,0.000000,0.939727,0.049597,0.009255,0.319339,1.000000,1.000000,0.000000,1.000000
13,0.001363,0.000000,1.000000,0.000000,0.631313,0.000000,0.030000,0.965275,0.000000,0.939727,0.181899,0.000000,0.246764,0.912171,1.000000,0.042664,0.000000
14,0.000749,0.128184,1.000000,0.000000,0.579176,0.030000,0.056754,1.000000,0.000000,0.939727,0.049597,0.009255,0.319339,0.934440,1.000000,0.000000,0.000000
15,0.000539,0.184185,1.000000,0.000000,0.579176,0.030000,0.056754,1.000000,0.000000,0.939727,0.049597,0.009255,0.319339,0.934440,1.000000,0.000000,1.000000
16,0.000223,0.109090,1.000000,0.000000,0.534395,0.000000,0.030000,0.965275,2.000000,0.939727,0.181899,0.000000,0.246764,0.999724,0.970642,0.042664,0.000000
17,0.000223,0.109090,1.000000,0.000000,0.534395,0.000000,0.030000,0.965275,2.000000,0.939727,0.181899,0.000000,0.246764,1.000000,0.970642,0.042664,0.000000
18,0.000161,0.128184,0.969563,0.000000,0.534395,0.000000,0.030000,0.965275,2.000000,0.939727,0.181899,0.000000,0.212826,0.999724,0.970642,0.042664,0.000000
19,0.000069,0.187117,1.000000,0.000000,0.534395,0.000000,0.030000,0.965275,0.000000,0.939727,0.181899,0.000000,0.246764,0.999724,0.970642,0.042664,0.000000
20,0.000013,0.134533,0.969563,0.000000,0.534395,0.000000,0.030000,0.965275,1.000000,1.000000,0.181899,0.000000,0.212826,0.996674,0.970642,0.000000,0.000000
21,0.000013,0.134533,0.969563,0.000000,0.534395,0.000000,0.030000,0.965275,1.000000,1.000000,0.181899,0.000000,0.212826,0.996674,0.970642,0.000000,0.000000
22,0.000012,0.134533,0.969563,0.000000,0.534395,0.000000,0.000000,0.965275,1.000000,1.000000,0.181899,0.000000,0.212826,0.996674,0.970642,0.000000,0.000000
23,0.000009,0.187117,0.817005,0.000000,0.509470,0.000000,0.000000,0.965275,0.000000,0.939727,0.277214,0.000000,0.212826,0.999724,0.970642,0.040917,1.000000
24,0.000005,0.134533,0.969563,0.000000,0.534395,0.000000,0.000000,0.965275,0.000000,1.000000,0.181899,0.000000,0.212826,0.996674,0.970642,0.000000,0.000000
25,0.000004,0.134533,0.969563,0.000000,0.534395,0.000000,0.000000,0.965275,0.000000,1.000000,0.140685,0.000000,0.212826,0.996674,0.970642,0.000000,0.000000
26,0.000004,0.134533,0.969563,0.000000,0.534395,0.032388,0.000000,0.965275,0.000000,0.971876,0.181899,0.000000,0.212826,0.996674,0.970642,0.000000,2.000000
27,0.000004,0.134533,0.969563,0.000000,0.534395,0.146502,0.000000,0.965275,0.000000,1.000000,0.105600,0.000000,0.212826,0.996674,0.970642,0.000000,0.000000
28,0.000003,0.134533,0.969563,0.000000,0.534395,0.032388,0.000000,0.965275,0.000000,0.971876,0.236783,0.000000,0.212826,0.996674,0.970642,0.000000,2.000000
29,0.000001,0.134533,0.910229,0.000000,0.534395,0.032388,0.000000,0.921671,0.000000,0.971876,0.236783,0.000000,0.212826,0.996674,0.970642,0.000000,2.000000
gen, fitness
0,0.052335,0.000000,1.000000,0.210000,0.800000,0.030000,0.030000,1.000000,0.000000,1.000000,0.000000,0.000000,0.600000,1.000000,1.000000,0.000000,0.000000
1,0.052335,0.000000,1.000000,0.210000,0.800000,0.030000,0.030000,1.000000,0.000000,1.000000,0.000000,0.000000,0.600000,1.000000,1.000000,0.000000,0.000000
2,0.030881,0.000000,1.000000,0.000000,0.800000,0.027534,0.030000,1.000000,0.000000,1.000000,0.000000,0.000000,0.600000,1.000000,1.000000,0.000000,0.000000
3,0.030688,0.000000,1.000000,0.071365,0.685442,0.030000,0.030000,1.000000,0.000000,0.899472,0.098257,0.000000,0.600000,1.000000,0.997178,0.000000,0.000000
4,0.027064,0.000000,1.000000,0.210000,0.681772,0.012047,0.030000,1.000000,0.000000,1.000000,0.000000,0.000000,0.456337,0.885066,0.873970,0.000000,2.000000
5,0.023776,0.000000,1.000000,0.000000,0.754219,0.027534,0.030000,1.000000,1.000000,1.000000,0.000000,0.000000,0.507560,1.000000,0.988318,0.020317,2.000000
6,0.018428,0.080885,1.000000,0.210000,0.509347,0.012047,0.030000,1.000000,0.000000,1.000000,0.031455,0.030955,0.456337,0.885066,1.000000,0.000000,2.000000
7,0.014203,0.000000,1.000000,0.210000,0.521895,0.012047,0.030000,1.000000,0.000000,1.000000,0.000000,0.000000,0.395297,0.885066,0.905782,0.000000,2.000000
8,0.003648,0.000000,1.000000,0.110397,0.472954,0.007330,0.030000,1.000000,0.000000,1.000000,0.000000,0.000000,0.132421,0.885066,0.905782,0.000000,1.000000
9,0.003643,0.000000,1.000000,0.110397,0.472954,0.007330,0.030000,1.000000,0.000000,1.000000,0.000000,0.000000,0.132421,0.885066,0.905782,0.000000,0.000000
10,0.002337,0.009193,1.000000,0.000000,0.470307,0.027534,0.030000,0.972520,0.000000,1.000000,0.000000,0.000000,0.132421,0.885066,0.944378,0.000000,1.000000
11,0.002337,0.009193,1.000000,0.000000,0.470307,0.027534,0.030000,0.972520,0.000000,1.000000,0.000000,0.000000,0.132421,0.885066,0.944378,0.000000,1.000000
12,0.000453,0.000000,1.000000,0.052436,0.370151,0.007330,0.030000,1.000000,0.000000,1.000000,0.006780,0.005926,0.000000,0.885066,0.944378,0.000000,1.000000
13,0.000369,0.000000,1.000000,0.052436,0.370151,0.007330,0.030000,1.000000,0.000000,1.000000,0.006780,0.000000,0.000000,1.000000,0.944378,0.000000,1.000000
14,0.000159,0.082102,1.000000,0.052436,0.370151,0.007330,0.030000,1.000000,0.000000,1.000000,0.006780,0.000000,0.000000,1.000000,0.944378,0.000000,1.000000
15,0.000053,0.117804,1.000000,0.025112,0.358987,0.027534,0.030000,0.972520,0.000000,1.000000,0.000000,0.000000,0.000000,0.885066,0.944378,0.000000,1.000000
16,0.000052,0.117804,1.000000,0.025112,0.358987,0.296424,0.030000,0.972520,0.000000,1.000000,0.000000,0.000000,0.000000,0.885066,0.944378,0.000000,1.000000
17,0.000052,0.117804,1.000000,0.025112,0.358987,0.296424,0.030000,0.972520,0.000000,1.000000,0.000000,0.000000,0.000000,0.885066,0.944378,0.000000,1.000000
18,0.000011,0.144217,0.940565,0.025112,0.358987,0.027534,0.030000,0.972520,0.000000,1.000000,0.000000,0.000000,0.000000,0.885066,0.944378,0.000000,1.000000
19,0.000008,0.143923,1.000000,0.025112,0.358987,0.082737,0.030000,0.972520,0.000000,1.000000,0.006780,0.000000,0.000000,1.000000,0.944378,0.000000,1.000000
20,0.000002,0.176212,1.000000,0.003964,0.358987,0.027534,0.011544,0.972520,0.000000,0.952841,0.000000,0.000000,0.000000,0.885066,0.944378,0.065918,2.000000
21,0.000002,0.176212,1.000000,0.003964,0.358987,0.027534,0.011544,0.972520,0.000000,0.952841,0.000000,0.000000,0.000000,0.885066,0.944378,0.065918,2.000000
22,0.000001,0.157705,1.000000,0.025112,0.358987,0.082737,0.030000,0.930256,0.000000,1.000000,0.006780,0.000000,0.000000,1.000000,0.944378,0.000000,1.000000
23,0.000001,0.157705,1.000000,0.025112,0.358987,0.082737,0.030000,0.930256,0.000000,1.000000,0.006780,0.000000,0.000000,1.000000,1.000000,0.000000,1.000000
24,0.000000,0.157705,1.000000,0.025112,0.358987,0.082737,0.030000,0.930256,0.000000,1.000000,0.006780,0.000000,0.000000,1.000000,1.000000,0.000000,0.000000
gen, fitness
0,0.080636,0.000000,1.000000,0.210000,0.800000,0.030000,0.030000,1.000000,0.000000,1.000000,0.000000,0.000000,0.600000,1.000000,1.000000,0.000000,0.000000
1,0.080636,0.000000,1.000000,0.210000,0.800000,0.030000,0.030000,1.000000,0.000000,1.000000,0.000000,0.000000,0.600000,1.000000,1.000000,0.000000,0.000000
2,0.052424,0.000000,1.000000,0.210000,0.674223,0.030000,0.030000,1.000000,0.000000,1.000000,0.000000,0.000000,0.600000,1.000000,1.000000,0.000000,0.000000
3,0.046379,0.098651,1.000000,0.210000,0.602557,0.030000,0.030000,1.000000,0.000000,1.000000,0.000000,0.000000,0.600000,1.000000,0.920291,0.000000,0.000000
4,0.038993,0.098651,1.000000,0.210000,0.602557,0.030000,0.030000,1.000000,0.000000,1.000000,0.000000,0.000000,0.507771,1.000000,0.920291,0.000000,0.000000
5,0.038127,0.028797,1.000000,0.210000,0.602557,0.030000,0.030000,1.000000,0.000000,1.000000,0.000000,0.000000,0.392258,1.000000,0.920291,0.000000,0.000000
6,0.028697,0.028797,1.000000,0.075292,0.602557,0.030000,0.030000,1.000000,1.000000,1.000000,0.000000,0.000000,0.392258,1.000000,0.920291,0.000000,0.000000
7,0.026645,0.028797,1.000000,0.075292,0.564549,0.030000,0.030000,1.000000,1.000000,1.000000,0.000000,0.000000,0.392258,1.000000,0.920291,0.000000,0.000000
8,0.024790,0.028797,1.000000,0.000000,0.602557,0.000000,0.030000,1.000000,0.000000,1.000000,0.000000,0.000000,0.392258,1.000000,0.920291,0.000000,0.000000
9,0.020684,0.028797,1.000000,0.000000,0.582341,0.030000,0.030000,1.000000,1.000000,1.000000,0.000000,0.000000,0.319248,1.000000,0.920291,0.000000,0.000000
10,0.015299,0.049575,1.000000,0.018320,0.477692,0.003818,0.170071,1.000000,1.000000,1.000000,0.000000,0.000000,0.263956,1.000000,0.920291,0.000000,1.000000
11,0.015077,0.049575,1.000000,0.018320,0.477692,0.004094,0.170071,0.909928,1.000000,1.000000,0.000000,0.000000,0.263956,1.000000,0.920291,0.000000,1.000000
12,0.011180,0.271965,1.000000,0.018320,0.472037,0.003818,0.170071,1.000000,1.000000,1.000000,0.000000,0.000000,0.263956,1.000000,0.961654,0.000000,1.000000
13,0.009580,0.271965,1.000000,0.018320,0.419842,0.003818,0.170071,1.000000,1.000000,1.000000,0.000000,0.000000,0.263956,1.000000,0.961654,0.000000,1.000000
14,0.007222,0.271965,1.000000,0.018320,0.419842,0.151321,0.196968,1.000000,1.000000,1.000000,0.000000,0.000000,0.055701,1.000000,0.961654,0.000000,1.000000
15,0.001728,0.271965,1.000000,0.018320,0.265322,0.151321,0.196968,1.000000,1.000000,1.000000,0.000000,0.000000,0.055701,1.000000,0.961654,0.000000,1.000000
16,0.001711,0.271965,1.000000,0.018320,0.265322,0.151321,0.154354,0.865182,1.000000,1.000000,0.000000,0.000000,0.055701,0.877311,0.961654,0.000000,1.000000
17,0.000977,0.271965,1.000000,0.018320,0.265322,0.151321,0.196968,1.000000,1.000000,1.000000,0.000000,0.000000,0.000000,1.000000,0.961654,0.000000,1.000000
18,0.000953,0.271965,1.000000,0.018320,0.265322,0.151321,0.098986,1.000000,1.000000,1.000000,0.000000,0.000000,0.000000,1.000000,0.961654,0.000000,1.000000
19,0.000489,0.349070,1.000000,0.018320,0.164324,0.151321,0.196968,1.000000,1.000000,0.981651,0.000000,0.000000,0.000000,0.879138,0.961654,0.000000,1.000000
20,0.000474,0.349070,1.000000,0.018320,0.164324,0.151321,0.070398,1.000000,1.000000,0.981651,0.000000,0.000000,0.000000,0.879138,0.961654,0.000000,1.000000
21,0.000002,0.471488,1.000000,0.013261,0.164324,0.062283,0.070398,1.000000,1.000000,0.981651,0.000000,0.000000,0.000000,0.879138,0.961654,0.000000,1.000000
22,0.000002,0.471488,1.000000,0.013261,0.164324,0.062283,0.070398,1.000000,1.000000,0.981651,0.000000,0.000000,0.000000,0.879138,0.961654,0.000000,0.000000
23,0.000000,0.497266,1.000000,0.000000,0.164324,0.137591,0.196968,1.000000,2.000000,0.981651,0.000000,0.000000,0.000000,0.830796,0.961654,0.000000,1.000000
gen, fitness
0,0.025383,0.000000,1.000000,0.210000,0.800000,0.030000,0.030000,1.000000,0.000000,1.000000,0.000000,0.000000,0.600000,1.000000,1.000000,0.000000,0.000000
1,0.025383,0.000000,1.000000,0.210000,0.800000,0.030000,0.030000,1.000000,0.000000,1.000000,0.000000,0.000000,0.600000,1.000000,1.000000,0.000000,0.000000
2,0.012968,0.000000,1.000000,0.210000,0.689789,0.030000,0.030000,1.000000,2.000000,1.000000,0.000000,0.000000,0.600000,1.000000,1.000000,0.000000,0.000000
3,0.010662,0.000000,1.000000,0.033355,0.728926,0.030000,0.030000,1.000000,0.000000,1.000000,0.000000,0.000000,0.600000,0.987087,1.000000,0.000000,0.000000
4,0.009072,0.166204,1.000000,0.210000,0.603273,0.030000,0.030000,1.000000,0.000000,1.000000,0.000000,0.000000,0.600000,1.000000,1.000000,0.000000,0.000000
5,0.006953,0.000000,1.000000,0.210000,0.603273,0.000000,0.030000,1.000000,0.000000,1.000000,0.000000,0.000000,0.514289,1.000000,1.000000,0.000000,0.000000
6,0.005684,0.000000,1.000000,0.000000,0.728926,0.030000,0.030000,1.000000,0.000000,1.000000,0.000000,0.000000,0.442973,0.987087,1.000000,0.000000,0.000000
7,0.004061,0.125670,1.000000,0.109984,0.621708,0.030000,0.030000,1.000000,0.000000,1.000000,0.000000,0.000000,0.452655,0.987087,1.000000,0.000000,0.000000
8,0.004059,0.125670,1.000000,0.109984,0.621708,0.000000,0.030000,1.000000,0.000000,1.000000,0.000000,0.000000,0.452655,0.987087,1.000000,0.000000,0.000000
9,0.003970,0.125670,1.000000,0.109984,0.621708,0.093180,0.030000,0.951898,0.000000,1.000000,0.000000,0.000000,0.452655,0.987087,1.000000,0.000000,0.000000
10,0.000041,0.171839,1.000000,0.109984,0.374714,0.030000,0.030000,1.000000,0.000000,1.000000,0.129222,0.000000,0.136800,1.000000,1.000000,0.000000,0.000000
11,0.000041,0.171839,1.000000,0.109984,0.374714,0.030000,0.030000,1.000000,0.000000,1.000000,0.129222,0.000000,0.136800,1.000000,1.000000,0.000000,0.000000
12,0.000028,0.171839,1.000000,0.109984,0.374714,0.122287,0.030000,1.000000,0.000000,0.987804,0.129222,0.000000,0.136800,1.000000,1.000000,0.070620,0.000000
13,0.000021,0.171839,1.000000,0.109984,0.374714,0.030000,0.030000,1.000000,0.000000,1.000000,0.129222,0.000000,0.136800,1.000000,0.932099,0.041773,0.000000
14,0.000001,0.171839,1.000000,0.109984,0.374714,0.030000,0.000000,1.000000,0.000000,1.000000,0.149751,0.045529,0.101487,1.000000,1.000000,0.000000,2.000000
15,0.000000,0.171839,1.000000,0.109984,0.374714,0.030000,0.030000,1.000000,0.000000,1.000000,0.149751,0.045529,0.101487,1.000000,1.000000,0.000000,1.000000
