gen, fitness
0,0.094016,0.000000,1.000000,0.210000,0.800000,0.030000,0.030000,1.000000,0.000000,1.000000,0.000000,0.000000,0.600000,1.000000,1.000000,0.000000,0.000000
1,0.094016,0.000000,1.000000,0.210000,0.800000,0.030000,0.030000,1.000000,0.000000,1.000000,0.000000,0.000000,0.600000,1.000000,1.000000,0.000000,0.000000
2,0.063213,0.000000,1.000000,0.210000,0.668194,0.030000,0.030000,0.832555,0.000000,1.000000,0.000000,0.000000,0.600000,0.916071,1.000000,0.000000,0.000000
3,0.063130,0.000000,1.000000,0.185345,0.689142,0.030000,0.030000,1.000000,1.000000,1.000000,0.000000,0.000000,0.491890,1.000000,1.000000,0.000000,0.000000
4,0.057733,0.000000,1.000000,0.015082,0.609057,0.000000,0.030000,1.000000,1.000000,1.000000,0.077241,0.000000,0.571240,0.895339,1.000000,0.000000,0.000000
5,0.051809,0.073735,1.000000,0.210000,0.573609,0.030000,0.131308,1.000000,0.000000,0.934124,0.095334,0.039682,0.484982,0.888884,1.000000,0.000000,2.000000
6,0.047220,0.043101,1.000000,0.000000,0.609057,0.135109,0.030000,0.865888,1.000000,1.000000,0.331771,0.000000,0.523620,0.895339,1.000000,0.000000,0.000000
7,0.037175,0.000000,0.905048,0.015082,0.609057,0.000000,0.030000,1.000000,0.000000,0.937977,0.166796,0.000000,0.379417,0.642913,1.000000,0.024572,0.000000
8,0.036405,0.000000,0.905048,0.000000,0.609057,0.000000,0.030000,0.945604,0.000000,0.937977,0.166796,0.000000,0.379417,0.473374,1.000000,0.024572,0.000000
9,0.023984,0.031774,0.922028,0.000000,0.393140,0.083656,0.118553,1.000000,2.000000,1.000000,0.145512,0.000000,0.231288,1.000000,1.000000,0.000000,1.000000
10,0.019390,0.031774,0.922028,0.000000,0.393140,0.088884,0.162229,1.000000,1.000000,1.000000,0.145512,0.019088,0.150510,0.876676,1.000000,0.000000,1.000000
11,0.016304,0.092632,1.000000,0.000000,0.394090,0.000000,0.218192,0.986849,1.000000,0.890800,0.154652,0.000000,0.116353,1.000000,1.000000,0.000000,1.000000
12,0.010574,0.268320,0.970882,0.051350,0.258224,0.030000,0.033228,1.000000,1.000000,1.000000,0.145512,0.000000,0.143368,1.000000,1.000000,0.000000,0.000000
13,0.010513,0.268320,0.970882,0.051350,0.258224,0.030000,0.033228,1.000000,0.000000,1.000000,0.145512,0.000000,0.143368,1.000000,1.000000,0.000000,1.000000
14,0.007761,0.092632,1.000000,0.000000,0.126505,0.000000,0.218192,0.721035,1.000000,0.890800,0.154652,0.000000,0.000000,0.836490,1.000000,0.000000,0.000000
15,0.006061,0.192070,1.000000,0.000000,0.126505,0.000000,0.310627,0.640316,1.000000,0.847021,0.154652,0.020523,0.000000,0.803119,1.000000,0.000000,0.000000
16,0.005386,0.268320,0.815297,0.013086,0.258224,0.030000,0.000000,1.000000,0.000000,1.000000,0.145512,0.000000,0.004751,1.000000,0.915388,0.000000,1.000000
17,0.002334,0.439932,0.877373,0.000000,0.169757,0.000000,0.033228,1.000000,1.000000,1.000000,0.091296,0.000000,0.000000,0.876676,0.987612,0.000000,2.000000
18,0.002311,0.439932,0.950498,0.000000,0.169757,0.000000,0.033228,1.000000,1.000000,1.000000,0.091296,0.000000,0.000000,0.876676,0.987612,0.000000,2.000000
19,0.002311,0.439932,0.950498,0.000000,0.169757,0.000000,0.033228,1.000000,1.000000,1.000000,0.091296,0.000000,0.000000,0.876676,0.987612,0.000000,2.000000
20,0.001787,0.452723,0.815297,0.013086,0.131258,0.059719,0.000000,1.000000,0.000000,1.000000,0.145512,0.000000,0.000000,1.000000,0.915388,0.000000,1.000000
21,0.001018,0.544637,0.950498,0.000000,0.054512,0.057999,0.033228,0.932925,1.000000,0.963235,0.228930,0.000000,0.000000,0.955447,0.961893,0.096130,0.000000
22,0.000404,0.652031,0.950498,0.000000,0.054512,0.057999,0.000000,0.932925,1.000000,0.963235,0.228930,0.000000,0.000000,0.955447,0.961893,0.096130,0.000000
23,0.000341,0.652031,0.950498,0.000000,0.054512,0.013257,0.000000,0.932925,0.000000,0.963235,0.228930,0.000000,0.000000,1.000000,0.961893,0.096130,0.000000
24,0.000290,0.652031,0.950498,0.000000,0.054512,0.013257,0.000000,0.749954,0.000000,0.963235,0.444089,0.000000,0.000000,1.000000,0.961893,0.096130,0.000000
25,0.000035,0.746713,1.000000,0.000000,0.000000,0.057999,0.259384,0.866535,0.000000,0.963235,0.207417,0.000000,0.000000,0.955447,0.961893,0.096130,0.000000
26,0.000035,0.746713,1.000000,0.000000,0.000000,0.057999,0.259384,0.866535,0.000000,0.963235,0.207417,0.000000,0.000000,0.955447,0.961893,0.096130,0.000000
27,0.000018,0.746713,1.000000,0.000000,0.000000,0.063374,0.259384,0.866535,0.000000,1.000000,0.207417,0.000000,0.000000,0.955447,0.961893,0.000000,0.000000
28,0.000013,0.806245,1.000000,0.000000,0.000000,0.108115,0.065832,0.673342,2.000000,1.000000,0.207417,0.000000,0.000000,0.955447,1.000000,0.096130,1.000000
29,0.000001,0.793618,1.000000,0.000000,0.000000,0.195671,0.347639,0.545141,0.000000,0.934072,0.192601,0.000000,0.000000,0.955447,0.961893,0.096130,0.000000
30,0.000001,0.806245,0.791375,0.000000,0.000000,0.063374,0.000000,0.793391,0.000000,1.000000,0.207417,0.000000,0.000000,0.842329,0.961893,0.096130,0.000000
gen, fitness
0,0.011444,0.000000,1.000000,0.210000,0.800000,0.030000,0.030000,1.000000,0.000000,1.000000,0.000000,0.000000,0.600000,1.000000,1.000000,0.000000,0.000000
1,0.011444,0.000000,1.000000,0.210000,0.800000,0.030000,0.030000,1.000000,0.000000,1.000000,0.000000,0.000000,0.600000,1.000000,1.000000,0.000000,0.000000
2,0.005002,0.000000,1.000000,0.210000,0.652524,0.030000,0.135611,1.000000,2.000000,1.000000,0.000000,0.000000,0.551658,1.000000,1.000000,0.000000,0.000000
3,0.004019,0.000000,1.000000,0.210000,0.652524,0.030000,0.135611,1.000000,2.000000,0.988700,0.000000,0.039448,0.486980,1.000000,1.000000,0.000000,0.000000
4,0.003173,0.000000,1.000000,0.210000,0.652524,0.030000,0.236430,1.000000,0.000000,1.000000,0.000000,0.000000,0.480302,1.000000,0.992615,0.000000,0.000000
5,0.002291,0.000000,1.000000,0.210000,0.571411,0.030000,0.122951,1.000000,1.000000,1.000000,0.000000,0.000000,0.436793,0.716270,1.000000,0.000000,0.000000
6,0.001675,0.000000,1.000000,0.059003,0.661311,0.030000,0.122951,1.000000,1.000000,1.000000,0.000000,0.000000,0.410842,0.710457,1.000000,0.000000,0.000000
7,0.000620,0.000000,0.987370,0.086285,0.585474,0.030000,0.122951,1.000000,2.000000,1.000000,0.000000,0.000000,0.295076,0.716270,1.000000,0.011561,0.000000
8,0.000321,0.146217,1.000000,0.071051,0.571411,0.092653,0.026370,1.000000,1.000000,1.000000,0.098666,0.000000,0.318005,0.716270,1.000000,0.000000,0.000000
9,0.000038,0.017039,1.000000,0.120161,0.495338,0.030000,0.122951,1.000000,0.000000,1.000000,0.056941,0.000000,0.195075,0.990055,0.811056,0.010792,2.000000
10,0.000038,0.017039,1.000000,0.120161,0.495338,0.030000,0.122951,1.000000,0.000000,1.000000,0.056941,0.000000,0.195075,0.990055,0.811056,0.010792,2.000000
11,0.000038,0.017039,1.000000,0.120161,0.495338,0.030000,0.122951,1.000000,0.000000,1.000000,0.056941,0.000000,0.195075,0.990055,0.811056,0.010792,2.000000
12,0.000035,0.021083,1.000000,0.120161,0.439517,0.030000,0.122951,1.000000,1.000000,0.893423,0.056941,0.000000,0.195075,0.990055,0.811056,0.000000,0.000000
13,0.000033,0.002706,1.000000,0.120161,0.495338,0.055343,0.246809,0.956087,0.000000,1.000000,0.056941,0.000000,0.165411,0.769310,0.774599,0.142616,2.000000
14,0.000024,0.017039,1.000000,0.120161,0.495338,0.030000,0.000000,0.943629,0.000000,1.000000,0.056941,0.000000,0.195075,0.990055,0.811056,0.000000,2.000000
15,0.000016,0.016067,1.000000,0.120161,0.495338,0.000000,0.000000,0.809654,0.000000,1.000000,0.182248,0.000000,0.169825,0.870157,0.854492,0.014196,2.000000
16,0.000002,0.016067,1.000000,0.120161,0.495338,0.000000,0.000000,0.718982,0.000000,1.000000,0.182248,0.000000,0.169825,0.917139,0.854492,0.014196,2.000000
17,0.000002,0.016067,1.000000,0.120161,0.495338,0.000000,0.000000,0.718982,0.000000,1.000000,0.182248,0.000000,0.169825,0.917139,0.854492,0.014196,2.000000
18,0.000002,0.016067,1.000000,0.120161,0.495338,0.000000,0.000000,0.718982,0.000000,1.000000,0.182248,0.000000,0.169825,0.917139,0.854492,0.014196,2.000000
19,0.000002,0.016067,1.000000,0.120161,0.495338,0.000000,0.000000,0.718982,0.000000,1.000000,0.182248,0.000000,0.169825,0.917139,0.854492,0.014196,2.000000
20,0.000002,0.016067,1.000000,0.120161,0.495338,0.000000,0.000000,0.718982,0.000000,1.000000,0.182248,0.000000,0.169825,0.917139,0.854492,0.014196,2.000000
21,0.000002,0.016067,1.000000,0.120161,0.495338,0.000000,0.000000,0.718982,0.000000,1.000000,0.182248,0.000000,0.169825,0.917139,0.854492,0.014196,2.000000
22,0.000002,0.016067,0.992218,0.120161,0.495338,0.000000,0.000000,0.718982,0.000000,1.000000,0.182248,0.000000,0.169825,0.917139,0.854492,0.014196,2.000000
23,0.000001,0.016067,1.000000,0.120161,0.494877,0.213715,0.000000,0.672966,0.000000,1.000000,0.111049,0.000000,0.169825,0.794739,0.944071,0.015425,2.000000
gen, fitness
0,0.010533,0.000000,1.000000,0.210000,0.800000,0.030000,0.030000,1.000000,0.000000,1.000000,0.000000,0.000000,0.600000,1.000000,1.000000,0.000000,0.000000
1,0.010533,0.000000,1.000000,0.210000,0.800000,0.030000,0.030000,1.000000,0.000000,1.000000,0.000000,0.000000,0.600000,1.000000,1.000000,0.000000,0.000000
2,0.001981,0.000000,0.868775,0.022077,0.800000,0.030000,0.030000,1.000000,0.000000,1.000000,0.000000,0.000000,0.600000,0.873321,0.751762,0.000000,0.000000
3,0.001723,0.000000,0.868775,0.000000,0.800000,0.000000,0.030000,1.000000,0.000000,1.000000,0.000000,0.000000,0.600000,0.873321,0.751762,0.000000,0.000000
4,0.001018,0.287480,1.000000,0.210000,0.655751,0.060536,0.030000,0.842003,0.000000,1.000000,0.000000,0.000000,0.600000,1.000000,1.000000,0.118904,0.000000
5,0.001018,0.287480,1.000000,0.210000,0.655751,0.060536,0.030000,0.842003,0.000000,1.000000,0.000000,0.000000,0.600000,1.000000,1.000000,0.118904,0.000000
6,0.000932,0.287480,0.924645,0.210000,0.655751,0.060536,0.000000,0.735182,0.000000,1.000000,0.000000,0.000000,0.600000,1.000000,1.000000,0.118904,0.000000
7,0.000932,0.287480,0.924645,0.210000,0.655751,0.060536,0.000000,0.735182,0.000000,1.000000,0.000000,0.000000,0.600000,1.000000,1.000000,0.118904,0.000000
8,0.000913,0.287480,0.924645,0.204992,0.655751,0.060536,0.000000,0.735182,0.000000,1.000000,0.000000,0.000000,0.600000,1.000000,1.000000,0.118904,0.000000
9,0.000906,0.277591,1.000000,0.210000,0.625916,0.060536,0.098564,0.842003,0.000000,0.953276,0.259426,0.000000,0.600000,0.868478,0.965330,0.000000,0.000000
10,0.000870,0.277591,0.960939,0.210000,0.649133,0.060536,0.030251,0.746344,0.000000,1.000000,0.259426,0.000000,0.600000,0.868478,0.965330,0.000000,0.000000
11,0.000607,0.287480,0.924645,0.102143,0.666533,0.060536,0.111577,0.735182,0.000000,1.000000,0.127054,0.000000,0.495376,1.000000,1.000000,0.118904,0.000000
12,0.000010,0.515182,0.924645,0.102143,0.568796,0.060536,0.046164,0.735182,0.000000,1.000000,0.127054,0.000000,0.495376,1.000000,1.000000,0.118904,0.000000
13,0.000010,0.515182,0.924645,0.102143,0.568796,0.060536,0.046164,0.735182,0.000000,1.000000,0.127054,0.000000,0.495376,1.000000,1.000000,0.118904,0.000000
14,0.000008,0.515182,0.924645,0.102143,0.568796,0.060536,0.074900,0.735182,0.000000,1.000000,0.147404,0.000000,0.495376,1.000000,1.000000,0.118904,0.000000
15,0.000008,0.515182,0.924645,0.102143,0.568796,0.060536,0.074900,0.735182,0.000000,1.000000,0.147404,0.000000,0.495376,1.000000,1.000000,0.118904,0.000000
16,0.000004,0.515182,0.924645,0.102143,0.568796,0.060536,0.074900,0.735182,0.000000,1.000000,0.147404,0.000000,0.495376,1.000000,1.000000,0.118904,1.000000
17,0.000003,0.515182,0.836936,0.102143,0.568796,0.095840,0.050965,0.830785,0.000000,1.000000,0.127054,0.000000,0.495376,0.985392,1.000000,0.277383,0.000000
18,0.000002,0.515182,1.000000,0.102143,0.568796,0.016700,0.136544,0.739989,0.000000,1.000000,0.093778,0.000000,0.507713,0.802591,0.998476,0.017837,1.000000
19,0.000001,0.515182,1.000000,0.102143,0.568796,0.016700,0.246522,0.739989,1.000000,1.000000,0.093778,0.000000,0.507713,0.914723,0.998476,0.017837,1.000000
gen, fitness
0,0.067934,0.000000,1.000000,0.210000,0.800000,0.030000,0.030000,1.000000,0.000000,1.000000,0.000000,0.000000,0.600000,1.000000,1.000000,0.000000,0.000000
1,0.067934,0.000000,1.000000,0.210000,0.800000,0.030000,0.030000,1.000000,0.000000,1.000000,0.000000,0.000000,0.600000,1.000000,1.000000,0.000000,0.000000
2,0.043706,0.000000,1.000000,0.179751,0.691153,0.030000,0.000000,1.000000,0.000000,0.997919,0.000000,0.000000,0.553121,1.000000,1.000000,0.000000,0.000000
3,0.038292,0.000000,1.000000,0.078167,0.713538,0.030000,0.200758,0.972650,1.000000,1.000000,0.000000,0.000000,0.455676,1.000000,0.895176,0.000000,2.000000
4,0.032760,0.000000,1.000000,0.179751,0.619240,0.000000,0.068218,1.000000,0.000000,1.000000,0.000000,0.000000,0.456920,1.000000,1.000000,0.000000,0.000000
5,0.023221,0.000000,1.000000,0.078167,0.633871,0.030000,0.008886,0.911673,0.000000,1.000000,0.000000,0.000000,0.344908,1.000000,0.895176,0.000000,1.000000
6,0.022688,0.000000,0.824689,0.000000,0.660441,0.178324,0.030000,0.979367,0.000000,0.998292,0.000000,0.097371,0.280030,0.932178,1.000000,0.000000,1.000000
7,0.011984,0.000000,0.973193,0.029368,0.559125,0.000000,0.000000,1.000000,0.000000,0.997919,0.000000,0.000000,0.207515,1.000000,1.000000,0.000000,0.000000
8,0.011984,0.000000,0.973193,0.029368,0.559125,0.000000,0.000000,1.000000,0.000000,0.997919,0.000000,0.000000,0.207515,1.000000,1.000000,0.000000,0.000000
9,0.007069,0.163601,0.973193,0.029368,0.449489,0.000000,0.000000,1.000000,0.000000,0.997919,0.000000,0.000000,0.207515,1.000000,1.000000,0.000000,0.000000
10,0.007069,0.163601,0.973193,0.029368,0.449489,0.000000,0.000000,1.000000,0.000000,0.997919,0.000000,0.000000,0.207515,1.000000,1.000000,0.000000,0.000000
11,0.005339,0.163601,0.973193,0.029368,0.486932,0.000000,0.000000,1.000000,0.000000,0.997919,0.000000,0.000000,0.081837,1.000000,0.865458,0.000000,2.000000
12,0.003597,0.163662,0.973193,0.029368,0.374576,0.039942,0.050289,1.000000,0.000000,0.997919,0.000000,0.000000,0.111893,1.000000,0.921220,0.000000,0.000000
13,0.003339,0.163601,0.973193,0.000000,0.466713,0.000000,0.000000,1.000000,0.000000,0.991635,0.000000,0.000000,0.081837,1.000000,0.865458,0.000000,0.000000
14,0.000980,0.163662,0.973193,0.000000,0.374576,0.000000,0.061750,1.000000,0.000000,0.997919,0.000000,0.000000,0.000000,1.000000,0.921220,0.000000,1.000000
15,0.000980,0.163662,0.973193,0.000000,0.374576,0.000000,0.061750,1.000000,0.000000,0.997919,0.000000,0.000000,0.000000,1.000000,0.921220,0.000000,1.000000
16,0.000521,0.566794,0.973193,0.042721,0.262548,0.000000,0.274046,0.471488,1.000000,0.774932,0.132135,0.000000,0.143135,1.000000,0.837589,0.000000,1.000000
17,0.000212,0.356630,0.973193,0.121349,0.193971,0.000000,0.061750,1.000000,0.000000,0.997919,0.106137,0.000000,0.000000,0.886026,0.921220,0.096547,1.000000
18,0.000192,0.607438,0.994319,0.037186,0.187379,0.000000,0.000000,0.260472,1.000000,0.691595,0.053121,0.000000,0.143135,0.971704,1.000000,0.144607,1.000000
19,0.000061,0.566794,0.874271,0.000000,0.262548,0.000000,0.274046,0.471488,1.000000,0.774932,0.132135,0.000000,0.093092,1.000000,0.837589,0.127071,1.000000
20,0.000061,0.566794,0.874271,0.000000,0.262548,0.000000,0.274046,0.471488,1.000000,0.774932,0.132135,0.000000,0.093092,1.000000,0.837589,0.127071,1.000000
21,0.000020,0.615979,0.874271,0.000000,0.231025,0.000000,0.274046,0.471488,1.000000,0.774932,0.132135,0.000000,0.093092,1.000000,0.837589,0.167004,1.000000
22,0.000020,0.615979,0.874271,0.000000,0.231025,0.000000,0.274046,0.471488,1.000000,0.774932,0.132135,0.000000,0.093092,1.000000,0.837589,0.167004,1.000000
23,0.000012,0.566794,0.904548,0.000000,0.262548,0.052263,0.274046,0.436810,0.000000,0.774932,0.325260,0.040854,0.030372,0.943431,1.000000,0.127071,1.000000
24,0.000008,0.566794,0.874271,0.000000,0.262548,0.000000,0.274046,0.436810,0.000000,0.780873,0.180660,0.014277,0.035513,0.920847,1.000000,0.271355,2.000000
25,0.000000,0.544965,0.874271,0.000000,0.262548,0.000000,0.274046,0.343958,0.000000,0.774932,0.180660,0.000000,0.045057,1.000000,0.889841,0.191241,2.000000
gen, fitness
0,0.030614,0.000000,1.000000,0.210000,0.800000,0.030000,0.030000,1.000000,0.000000,1.000000,0.000000,0.000000,0.600000,1.000000,1.000000,0.000000,0.000000
1,0.030614,0.000000,1.000000,0.210000,0.800000,0.030000,0.030000,1.000000,0.000000,1.000000,0.000000,0.000000,0.600000,1.000000,1.000000,0.000000,0.000000
2,0.015379,0.000000,1.000000,0.136812,0.685191,0.030000,0.030000,1.000000,0.000000,1.000000,0.000000,0.000000,0.600000,1.000000,1.000000,0.000000,0.000000
3,0.010048,0.000000,1.000000,0.210000,0.604975,0.030000,0.030000,1.000000,0.000000,1.000000,0.000000,0.000000,0.513367,1.000000,1.000000,0.000000,0.000000
4,0.009305,0.000000,0.978505,0.210000,0.625650,0.030000,0.030000,1.000000,0.000000,1.000000,0.000000,0.000000,0.445566,1.000000,1.000000,0.000000,0.000000
5,0.008809,0.124559,0.998385,0.210000,0.604975,0.030000,0.000000,1.000000,0.000000,1.000000,0.120428,0.000000,0.513367,1.000000,1.000000,0.024793,0.000000
6,0.008070,0.000000,1.000000,0.055167,0.696393,0.000000,0.093927,1.000000,0.000000,1.000000,0.000000,0.000000,0.458474,0.700249,1.000000,0.000000,0.000000
7,0.007124,0.410216,1.000000,0.210000,0.556362,0.000000,0.000000,1.000000,1.000000,1.000000,0.000000,0.000000,0.552045,1.000000,1.000000,0.000000,0.000000
8,0.003458,0.000000,1.000000,0.055167,0.587871,0.000000,0.093927,0.988050,0.000000,1.000000,0.000000,0.000000,0.316010,0.937590,0.991335,0.000000,1.000000
9,0.002912,0.124780,0.999829,0.055167,0.587871,0.000000,0.155490,0.988050,0.000000,1.000000,0.000000,0.000000,0.316010,0.937590,0.991335,0.000000,1.000000
10,0.002432,0.124780,0.999829,0.055167,0.587871,0.000000,0.155490,0.739452,0.000000,1.000000,0.000000,0.000000,0.316010,0.999695,0.945368,0.049716,1.000000
11,0.002067,0.129084,0.999829,0.000786,0.587871,0.000000,0.155490,0.988050,0.000000,1.000000,0.000000,0.000000,0.316010,0.937590,1.000000,0.000000,0.000000
12,0.002067,0.129084,0.999829,0.000786,0.587871,0.000000,0.155490,0.988050,0.000000,1.000000,0.000000,0.000000,0.316010,0.937590,1.000000,0.000000,0.000000
13,0.001523,0.129084,0.999829,0.000786,0.573668,0.000000,0.155490,0.988050,0.000000,1.000000,0.017385,0.000000,0.276940,0.937590,0.954297,0.009426,1.000000
14,0.001275,0.124780,0.999829,0.002979,0.587871,0.000000,0.155490,0.739452,0.000000,1.000000,0.000000,0.000000,0.216518,0.795786,1.000000,0.049716,1.000000
15,0.000491,0.129084,0.999829,0.000786,0.506270,0.050944,0.155490,1.000000,2.000000,1.000000,0.251131,0.000000,0.182262,0.937590,1.000000,0.000000,0.000000
16,0.000297,0.124780,1.000000,0.002979,0.423823,0.000000,0.334273,0.833067,0.000000,1.000000,0.000000,0.000000,0.087678,0.795786,0.927696,0.049716,0.000000
17,0.000214,0.049420,1.000000,0.002979,0.460237,0.231219,0.334273,0.834620,0.000000,1.000000,0.000000,0.000000,0.087678,0.795786,0.927696,0.049716,0.000000
18,0.000043,0.124780,1.000000,0.002979,0.423823,0.000000,0.161381,0.833067,0.000000,0.930340,0.000000,0.000000,0.085962,0.795786,1.000000,0.049716,2.000000
19,0.000008,0.124780,0.944354,0.000000,0.433526,0.000000,0.334273,0.761006,0.000000,0.895162,0.000000,0.000000,0.087678,0.680000,0.927696,0.049716,1.000000
20,0.000000,0.124780,0.959593,0.002979,0.423823,0.093018,0.161381,0.833067,1.000000,0.930340,0.000000,0.000000,0.085962,0.795786,0.902993,0.000000,0.000000
gen, fitness
0,0.009712,0.000000,1.000000,0.210000,0.800000,0.030000,0.030000,1.000000,0.000000,1.000000,0.000000,0.000000,0.600000,1.000000,1.000000,0.000000,0.000000
1,0.009712,0.000000,1.000000,0.210000,0.800000,0.030000,0.030000,1.000000,0.000000,1.000000,0.000000,0.000000,0.600000,1.000000,1.000000,0.000000,0.000000
2,0.000757,0.000000,1.000000,0.210000,0.716893,0.030000,0.030000,1.000000,0.000000,1.000000,0.000000,0.000000,0.651412,1.000000,1.000000,0.000000,0.000000
3,0.000413,0.088039,1.000000,0.210000,0.707593,0.030000,0.000000,0.913620,1.000000,1.000000,0.000000,0.000000,0.650375,1.000000,1.000000,0.031471,0.000000
4,0.000413,0.088039,1.000000,0.210000,0.707593,0.030000,0.000000,0.913620,1.000000,1.000000,0.000000,0.000000,0.650375,1.000000,1.000000,0.031471,0.000000
5,0.000318,0.088039,1.000000,0.210000,0.707593,0.217941,0.152294,1.000000,0.000000,1.000000,0.000000,0.072295,0.592072,1.000000,0.760258,0.131861,0.000000
6,0.000127,0.000000,1.000000,0.210000,0.570721,0.154791,0.043309,0.854776,0.000000,1.000000,0.000000,0.000000,0.450071,0.987038,1.000000,0.000000,0.000000
7,0.000124,0.000000,1.000000,0.210000,0.570721,0.154791,0.043309,0.854776,0.000000,1.000000,0.000000,0.000000,0.450071,0.987038,1.000000,0.124205,0.000000
8,0.000035,0.000000,1.000000,0.000000,0.762655,0.000000,0.175094,0.865771,0.000000,1.000000,0.000000,0.000000,0.547181,0.965948,0.786694,0.037315,0.000000
9,0.000035,0.000000,1.000000,0.000000,0.762655,0.000000,0.175094,0.865771,0.000000,1.000000,0.000000,0.000000,0.547181,0.965948,0.786694,0.037315,0.000000
10,0.000023,0.000000,1.000000,0.000000,0.733592,0.229565,0.088509,1.000000,0.000000,1.000000,0.000000,0.000000,0.507763,0.965948,0.868423,0.000000,0.000000
11,0.000010,0.000000,1.000000,0.000000,0.733592,0.229565,0.175094,1.000000,0.000000,1.000000,0.000000,0.000000,0.507763,0.953385,0.868423,0.037315,0.000000
12,0.000006,0.363835,1.000000,0.000000,0.701487,0.091118,0.060236,0.913620,0.000000,0.853414,0.000000,0.000000,0.623267,1.000000,0.932570,0.069583,0.000000
13,0.000005,0.363835,1.000000,0.000000,0.701487,0.200593,0.151121,0.913620,0.000000,0.853414,0.000000,0.000000,0.623267,1.000000,0.932570,0.069583,0.000000
14,0.000001,0.363835,1.000000,0.000000,0.701487,0.091118,0.148750,0.821427,0.000000,0.853414,0.000000,0.000000,0.621853,1.000000,0.932570,0.069583,0.000000
gen, fitness
0,0.026348,0.000000,1.000000,0.210000,0.800000,0.030000,0.030000,1.000000,0.000000,1.000000,0.000000,0.000000,0.600000,1.000000,1.000000,0.000000,0.000000
1,0.026348,0.000000,1.000000,0.210000,0.800000,0.030000,0.030000,1.000000,0.000000,1.000000,0.000000,0.000000,0.600000,1.000000,1.000000,0.000000,0.000000
2,0.012122,0.000000,1.000000,0.210000,0.662348,0.030000,0.030000,0.870435,0.000000,1.000000,0.000000,0.000000,0.600000,1.000000,1.000000,0.000000,0.000000
3,0.011886,0.034603,1.000000,0.024997,0.742368,0.006366,0.049547,1.000000,0.000000,1.000000,0.000000,0.000000,0.601938,0.966954,1.000000,0.000000,0.000000
4,0.010629,0.071686,1.000000,0.210000,0.662348,0.030000,0.030000,0.870435,0.000000,1.000000,0.000000,0.000000,0.600000,1.000000,1.000000,0.000000,0.000000
5,0.008364,0.059650,1.000000,0.024997,0.695097,0.000000,0.018932,1.000000,2.000000,1.000000,0.000000,0.000000,0.540257,1.000000,1.000000,0.000000,0.000000
6,0.003407,0.059650,1.000000,0.024997,0.634348,0.000000,0.018932,1.000000,2.000000,1.000000,0.149564,0.000000,0.415186,1.000000,1.000000,0.043320,0.000000
7,0.001421,0.059650,1.000000,0.024997,0.634348,0.000000,0.018932,0.841943,1.000000,1.000000,0.229465,0.000000,0.315458,1.000000,1.000000,0.043320,0.000000
8,0.001143,0.059650,1.000000,0.024997,0.571950,0.108134,0.088774,1.000000,2.000000,1.000000,0.000000,0.145067,0.172349,0.931067,1.000000,0.000000,0.000000
9,0.000914,0.059650,1.000000,0.024997,0.571950,0.108134,0.088774,1.000000,2.000000,0.933146,0.000000,0.145067,0.128187,0.931067,1.000000,0.000000,0.000000
10,0.000349,0.059650,1.000000,0.000000,0.571950,0.108134,0.222912,1.000000,2.000000,1.000000,0.000000,0.145067,0.084985,0.931067,0.927167,0.000000,0.000000
11,0.000312,0.000000,1.000000,0.024997,0.571950,0.108134,0.088774,1.000000,0.000000,1.000000,0.014621,0.040174,0.172349,0.935946,1.000000,0.003188,0.000000
12,0.000265,0.059650,1.000000,0.000000,0.571950,0.108134,0.222912,0.848073,2.000000,1.000000,0.000000,0.145067,0.084985,0.931067,0.927167,0.000000,0.000000
13,0.000105,0.000000,1.000000,0.024997,0.516441,0.000000,0.088774,1.000000,0.000000,1.000000,0.000000,0.062173,0.109547,0.931067,0.850919,0.000000,0.000000
14,0.000013,0.000000,1.000000,0.024997,0.516441,0.000000,0.088774,1.000000,0.000000,1.000000,0.000000,0.074686,0.053151,0.931067,0.795785,0.000000,0.000000
15,0.000004,0.059650,1.000000,0.024997,0.516441,0.000000,0.088774,1.000000,0.000000,1.000000,0.000000,0.074686,0.086721,0.931067,0.795785,0.000000,2.000000
16,0.000004,0.059650,1.000000,0.024997,0.516441,0.000000,0.127843,1.000000,0.000000,1.000000,0.000000,0.074686,0.086721,0.931067,0.795785,0.000000,2.000000
17,0.000003,0.000000,1.000000,0.000000,0.447789,0.108134,0.222912,1.000000,1.000000,0.726413,0.000000,0.104006,0.038750,0.931067,0.806705,0.000000,2.000000
18,0.000001,0.059650,1.000000,0.024997,0.516441,0.000000,0.000000,1.000000,0.000000,1.000000,0.000000,0.074686,0.086721,0.916761,0.795785,0.047911,2.000000
gen, fitness
0,0.052335,0.000000,1.000000,0.210000,0.800000,0.030000,0.030000,1.000000,0.000000,1.000000,0.000000,0.000000,0.600000,1.000000,1.000000,0.000000,0.000000
1,0.052335,0.000000,1.000000,0.210000,0.800000,0.030000,0.030000,1.000000,0.000000,1.000000,0.000000,0.000000,0.600000,1.000000,1.000000,0.000000,0.000000
2,0.025016,0.133334,1.000000,0.210000,0.600871,0.000000,0.025315,1.000000,0.000000,1.000000,0.000000,0.000000,0.581024,1.000000,1.000000,0.000000,0.000000
3,0.020435,0.303350,1.000000,0.210000,0.600871,0.000000,0.025315,1.000000,0.000000,1.000000,0.000000,0.000000,0.581024,1.000000,1.000000,0.000000,0.000000
4,0.018725,0.107762,1.000000,0.012643,0.724167,0.030000,0.030000,1.000000,1.000000,1.000000,0.000000,0.000000,0.499202,1.000000,1.000000,0.000000,0.000000
5,0.018331,0.303350,1.000000,0.210000,0.600871,0.000000,0.025315,1.000000,0.000000,1.000000,0.008861,0.000000,0.497590,1.000000,1.000000,0.000000,2.000000
6,0.014149,0.133334,1.000000,0.153221,0.600871,0.000000,0.025315,0.840343,0.000000,1.000000,0.128952,0.000000,0.455372,0.922858,0.888453,0.000000,0.000000
7,0.009141,0.380057,1.000000,0.040302,0.599218,0.000000,0.025315,1.000000,0.000000,0.932530,0.000000,0.000000,0.455372,0.922858,0.888453,0.000000,0.000000
8,0.008205,0.334974,1.000000,0.021258,0.600871,0.000000,0.025315,0.840343,0.000000,1.000000,0.229139,0.000000,0.455372,0.922858,0.778162,0.000000,0.000000
9,0.006223,0.542064,1.000000,0.021258,0.600871,0.000000,0.025315,0.819951,0.000000,1.000000,0.229139,0.000000,0.455372,0.922858,0.929670,0.000000,0.000000
10,0.001455,0.133334,1.000000,0.000000,0.506142,0.000000,0.002041,0.678042,1.000000,1.000000,0.000000,0.000000,0.160444,0.886686,0.888453,0.000000,0.000000
11,0.001455,0.133334,1.000000,0.000000,0.506142,0.000000,0.002041,0.678042,1.000000,1.000000,0.000000,0.000000,0.160444,0.886686,0.888453,0.000000,0.000000
12,0.001178,0.133334,1.000000,0.000000,0.506142,0.000000,0.082385,0.678042,1.000000,1.000000,0.000000,0.000000,0.120031,0.886686,0.888453,0.000000,1.000000
13,0.000969,0.380057,0.863530,0.000000,0.506142,0.000000,0.025315,0.477604,0.000000,1.000000,0.014933,0.000000,0.182632,1.000000,0.888453,0.091539,0.000000
14,0.000491,0.133334,1.000000,0.000000,0.477571,0.238640,0.002041,0.640594,0.000000,1.000000,0.000000,0.000000,0.074984,0.886686,0.960622,0.000000,2.000000
15,0.000344,0.133334,0.980249,0.000000,0.444654,0.238640,0.000000,0.695094,0.000000,1.000000,0.000000,0.000000,0.074984,0.886686,0.918401,0.000000,1.000000
16,0.000344,0.133334,0.980249,0.000000,0.444654,0.238640,0.000000,0.695094,0.000000,1.000000,0.000000,0.000000,0.074984,0.886686,0.918401,0.000000,1.000000
17,0.000019,0.133334,0.955757,0.000000,0.410275,0.238640,0.130979,0.640594,1.000000,1.000000,0.000000,0.000000,0.000000,0.826942,1.000000,0.000000,0.000000
18,0.000019,0.133334,0.955757,0.000000,0.410275,0.238640,0.130979,0.640594,1.000000,1.000000,0.000000,0.000000,0.000000,0.826942,1.000000,0.000000,0.000000
19,0.000019,0.133334,0.955757,0.000000,0.410275,0.238640,0.130979,0.640594,1.000000,1.000000,0.000000,0.000000,0.000000,0.826942,1.000000,0.000000,0.000000
20,0.000003,0.133334,0.955757,0.000000,0.410275,0.238640,0.000000,0.640594,0.000000,1.000000,0.000000,0.000000,0.000000,0.826942,1.000000,0.010224,0.000000
21,0.000003,0.133334,0.955757,0.000000,0.410275,0.238640,0.000000,0.640594,0.000000,1.000000,0.000000,0.000000,0.000000,0.826942,1.000000,0.010224,0.000000
22,0.000002,0.133334,0.955757,0.000000,0.410275,0.238640,0.176634,0.603276,0.000000,1.000000,0.000000,0.000000,0.000000,0.878020,0.932240,0.000000,0.000000
23,0.000000,0.185070,0.955757,0.000000,0.410275,0.238640,0.134483,0.448410,1.000000,1.000000,0.000000,0.000000,0.000000,0.912523,1.000000,0.138989,0.000000
gen, fitness
0,0.080636,0.000000,1.000000,0.210000,0.800000,0.030000,0.030000,1.000000,0.000000,1.000000,0.000000,0.000000,0.600000,1.000000,1.000000,0.000000,0.000000
1,0.080636,0.000000,1.000000,0.210000,0.800000,0.030000,0.030000,1.000000,0.000000,1.000000,0.000000,0.000000,0.600000,1.000000,1.000000,0.000000,0.000000
2,0.048401,0.000000,1.000000,0.128948,0.655257,0.030000,0.030000,1.000000,0.000000,1.000000,0.000000,0.000000,0.594559,1.000000,1.000000,0.000000,0.000000
3,0.039221,0.000000,1.000000,0.210000,0.600121,0.000000,0.073537,1.000000,1.000000,0.998601,0.000000,0.000000,0.450846,1.000000,1.000000,0.000000,0.000000
4,0.035792,0.000644,1.000000,0.141205,0.600121,0.000000,0.176231,1.000000,1.000000,0.998601,0.000000,0.000000,0.450846,1.000000,1.000000,0.000000,2.000000
5,0.034173,0.000000,1.000000,0.210000,0.581536,0.000000,0.073537,0.716226,1.000000,1.000000,0.000000,0.000000,0.403548,1.000000,1.000000,0.000000,0.000000
6,0.025598,0.000000,1.000000,0.210000,0.405291,0.000000,0.073537,1.000000,1.000000,1.000000,0.145914,0.000000,0.368387,1.000000,1.000000,0.000000,1.000000
7,0.017674,0.000000,1.000000,0.210000,0.364630,0.000000,0.073537,1.000000,1.000000,1.000000,0.145914,0.000000,0.246354,1.000000,1.000000,0.000000,0.000000
8,0.016603,0.000000,1.000000,0.210000,0.190245,0.000000,0.073537,1.000000,1.000000,1.000000,0.145914,0.000000,0.246354,1.000000,1.000000,0.000000,0.000000
9,0.013893,0.135508,1.000000,0.315814,0.190245,0.128965,0.073537,1.000000,1.000000,1.000000,0.145914,0.000000,0.246354,0.886288,1.000000,0.000000,1.000000
10,0.010367,0.111428,1.000000,0.071144,0.405291,0.000000,0.173591,0.940508,1.000000,1.000000,0.145914,0.001001,0.189720,1.000000,1.000000,0.000000,2.000000
11,0.007040,0.202552,1.000000,0.100212,0.205926,0.000000,0.227611,0.940508,1.000000,0.854564,0.068491,0.001001,0.189720,1.000000,0.829015,0.000000,0.000000
12,0.004426,0.369228,1.000000,0.100212,0.205926,0.000000,0.162797,0.940508,1.000000,0.854564,0.068491,0.001001,0.189720,1.000000,0.829015,0.000000,0.000000
13,0.002876,0.361008,1.000000,0.084594,0.205926,0.077030,0.162797,0.940508,1.000000,0.854564,0.068491,0.001001,0.098946,1.000000,0.917558,0.000000,0.000000
14,0.001831,0.361008,1.000000,0.084594,0.205926,0.077030,0.318735,0.940508,1.000000,1.000000,0.068491,0.001001,0.098946,1.000000,0.917558,0.000000,0.000000
15,0.000599,0.434363,1.000000,0.046326,0.160074,0.077030,0.283570,0.838678,1.000000,0.854564,0.030009,0.001001,0.017378,0.903791,0.781184,0.108504,1.000000
16,0.000151,0.434363,1.000000,0.046326,0.160074,0.077030,0.320885,0.838678,1.000000,1.000000,0.030009,0.001001,0.000000,0.903791,0.781184,0.108504,1.000000
17,0.000005,0.434363,0.935069,0.046326,0.051893,0.139214,0.213190,0.940508,0.000000,0.792893,0.068491,0.000000,0.000000,1.000000,0.608757,0.000000,1.000000
18,0.000005,0.434363,0.935069,0.046326,0.051893,0.139214,0.213190,0.940508,0.000000,0.792893,0.068491,0.000000,0.000000,1.000000,0.608757,0.000000,1.000000
19,0.000002,0.434363,0.935069,0.046326,0.051893,0.131900,0.213190,0.940508,0.000000,0.792893,0.068491,0.000000,0.000000,0.943745,0.608757,0.000000,0.000000
20,0.000002,0.557826,1.000000,0.046326,0.160074,0.077030,0.180521,0.729518,0.000000,1.000000,0.030009,0.001001,0.000000,1.000000,0.971058,0.269659,1.000000
21,0.000001,0.557826,0.908683,0.046326,0.160074,0.149519,0.180521,0.729518,0.000000,1.000000,0.030009,0.001001,0.000000,1.000000,0.971058,0.269659,1.000000
22,0.000001,0.557826,0.908683,0.046326,0.160074,0.149519,0.180521,0.729518,0.000000,1.000000,0.030009,0.001001,0.000000,1.000000,0.971058,0.269659,1.000000
23,0.000001,0.434363,0.935069,0.046326,0.051893,0.131900,0.038302,0.940508,0.000000,0.792893,0.068491,0.000000,0.000000,0.943745,0.608757,0.000000,0.000000
gen, fitness
0,0.025383,0.000000,1.000000,0.210000,0.800000,0.030000,0.030000,1.000000,0.000000,1.000000,0.000000,0.000000,0.600000,1.000000,1.000000,0.000000,0.000000
1,0.025383,0.000000,1.000000,0.210000,0.800000,0.030000,0.030000,1.000000,0.000000,1.000000,0.000000,0.000000,0.600000,1.000000,1.000000,0.000000,0.000000
2,0.011085,0.000000,1.000000,0.210000,0.654114,0.018418,0.030000,1.000000,0.000000,1.000000,0.000000,0.000000,0.600000,1.000000,1.000000,0.000000,0.000000
3,0.010346,0.000000,0.925068,0.118384,0.716322,0.030000,0.030000,1.000000,0.000000,1.000000,0.129633,0.019581,0.572129,0.990541,1.000000,0.000000,1.000000
4,0.007412,0.085604,1.000000,0.180318,0.557096,0.092519,0.000000,1.000000,0.000000,0.837839,0.096659,0.172848,0.387251,1.000000,0.911917,0.355331,0.000000
5,0.006072,0.085604,1.000000,0.180318,0.557096,0.092519,0.000000,1.000000,2.000000,0.837839,0.096659,0.172848,0.283511,1.000000,0.911917,0.355331,0.000000
6,0.004365,0.000000,1.000000,0.271492,0.505022,0.018418,0.030000,0.874162,0.000000,1.000000,0.000000,0.000000,0.299815,0.957746,0.791056,0.000000,0.000000
7,0.003005,0.224932,1.000000,0.076262,0.578707,0.030000,0.070012,1.000000,1.000000,1.000000,0.000000,0.000000,0.442620,1.000000,1.000000,0.080188,0.000000
8,0.000983,0.224932,0.975011,0.000000,0.578707,0.030000,0.070012,1.000000,0.000000,1.000000,0.000000,0.000000,0.268378,1.000000,1.000000,0.080188,1.000000
9,0.000696,0.224932,1.000000,0.000000,0.578707,0.030000,0.030000,0.881330,0.000000,1.000000,0.000000,0.000000,0.299815,1.000000,0.698436,0.133434,0.000000
10,0.000395,0.018064,1.000000,0.060007,0.505022,0.069810,0.030000,0.874162,0.000000,0.979947,0.000000,0.000000,0.176260,0.939876,0.791056,0.041746,0.000000
11,0.000395,0.018064,1.000000,0.060007,0.505022,0.069810,0.030000,0.874162,0.000000,0.979947,0.000000,0.000000,0.176260,0.939876,0.791056,0.041746,0.000000
12,0.000034,0.171291,0.877478,0.000000,0.488472,0.000000,0.070012,1.000000,0.000000,0.971514,0.075229,0.000000,0.160029,1.000000,1.000000,0.200304,2.000000
13,0.000019,0.171291,0.877478,0.000000,0.488472,0.000000,0.000000,1.000000,0.000000,0.971514,0.075229,0.000000,0.160029,1.000000,1.000000,0.200304,0.000000
14,0.000019,0.171291,0.877478,0.000000,0.488472,0.000000,0.000000,1.000000,0.000000,0.971514,0.075229,0.000000,0.160029,1.000000,1.000000,0.200304,0.000000
15,0.000006,0.171291,0.877478,0.000000,0.488472,0.000000,0.070012,0.876617,0.000000,0.971514,0.075229,0.000000,0.160029,1.000000,0.989485,0.154019,0.000000
16,0.000006,0.171291,0.877478,0.000000,0.488472,0.000000,0.070012,0.876617,0.000000,0.971514,0.075229,0.000000,0.160029,1.000000,0.989485,0.154019,0.000000
17,0.000004,0.224079,0.853641,0.000000,0.475444,0.006192,0.070012,1.000000,0.000000,1.000000,0.099671,0.000000,0.160029,0.817674,1.000000,0.200304,1.000000
18,0.000002,0.224079,0.853641,0.000000,0.475444,0.006192,0.010183,1.000000,0.000000,1.000000,0.099671,0.000000,0.160029,0.817674,1.000000,0.200304,0.000000
19,0.000001,0.224079,0.853641,0.000000,0.475444,0.006192,0.010183,1.000000,0.000000,1.000000,0.000000,0.000000,0.160029,0.817674,1.000000,0.200304,0.000000
