gen, fitness
0,0.094016,0.000000,1.000000,0.210000,0.800000,0.030000,0.030000,1.000000,0.000000,1.000000,0.000000,0.000000,0.600000,1.000000,1.000000,0.000000,0.000000
1,0.094016,0.000000,1.000000,0.210000,0.800000,0.030000,0.030000,1.000000,0.000000,1.000000,0.000000,0.000000,0.600000,1.000000,1.000000,0.000000,0.000000
2,0.062509,0.000000,1.000000,0.175101,0.654284,0.030000,0.030000,1.000000,0.000000,1.000000,0.000000,0.000000,0.600000,1.000000,1.000000,0.000000,0.000000
3,0.053080,0.000000,1.000000,0.277369,0.533820,0.010226,0.000000,0.778708,0.000000,0.980622,0.000000,0.000000,0.536342,0.800223,1.000000,0.000000,0.000000
4,0.033074,0.000000,0.992084,0.015187,0.479335,0.063893,0.012125,0.970267,1.000000,1.000000,0.061373,0.061853,0.277001,0.993577,0.930131,0.070547,1.000000
5,0.027051,0.115197,0.944800,0.015187,0.410938,0.134323,0.000000,1.000000,0.000000,1.000000,0.057305,0.026572,0.277001,0.993577,0.915792,0.070547,2.000000
6,0.020270,0.301095,0.780106,0.015187,0.410938,0.109576,0.101207,1.000000,0.000000,1.000000,0.000000,0.000000,0.277001,0.993577,0.915792,0.213728,0.000000
7,0.015923,0.000000,0.944800,0.015187,0.374908,0.215847,0.110815,0.893493,1.000000,0.908799,0.109795,0.026572,0.050221,0.856020,1.000000,0.070547,0.000000
8,0.013319,0.026933,0.899440,0.015187,0.278693,0.263383,0.184999,0.813158,1.000000,0.804527,0.109795,0.024003,0.050221,0.856020,1.000000,0.035105,0.000000
9,0.009616,0.208538,0.834032,0.002829,0.279991,0.379291,0.000000,0.894271,0.000000,0.991053,0.000000,0.099668,0.000000,0.985024,0.833688,0.000000,1.000000
10,0.005945,0.197117,1.000000,0.000000,0.209248,0.000000,0.080689,0.920335,1.000000,1.000000,0.000000,0.000000,0.000000,0.547864,1.000000,0.101077,1.000000
11,0.004606,0.240409,0.962083,0.000000,0.227472,0.428361,0.000000,0.817454,0.000000,0.991053,0.000000,0.000000,0.000000,0.789336,0.973074,0.000000,2.000000
12,0.003657,0.380922,1.000000,0.012308,0.101019,0.000000,0.080689,0.890170,0.000000,1.000000,0.033426,0.000000,0.000000,0.758022,0.970794,0.250259,1.000000
13,0.003295,0.329702,1.000000,0.000000,0.149593,0.094793,0.000000,0.948739,2.000000,1.000000,0.000000,0.000000,0.000000,0.839343,0.985600,0.000000,2.000000
14,0.000930,0.581893,1.000000,0.000000,0.050447,0.000000,0.080689,0.998028,1.000000,0.991417,0.056414,0.000000,0.000000,1.000000,0.967111,0.187695,0.000000
15,0.000930,0.581893,1.000000,0.000000,0.050447,0.000000,0.080689,0.998028,1.000000,0.991417,0.056414,0.000000,0.000000,1.000000,0.967111,0.187695,0.000000
16,0.000333,0.670793,1.000000,0.000000,0.000000,0.000000,0.204293,0.911023,2.000000,0.892527,0.053125,0.000000,0.000000,1.000000,0.967111,0.187695,0.000000
17,0.000099,0.766401,1.000000,0.000000,0.046449,0.314210,0.156677,0.712266,0.000000,1.000000,0.178421,0.000000,0.000000,0.784102,0.916541,0.061113,1.000000
18,0.000020,0.765810,1.000000,0.000000,0.000000,0.000000,0.034660,1.000000,0.000000,0.991417,0.035776,0.000000,0.000000,1.000000,0.949561,0.153813,1.000000
19,0.000020,0.765810,1.000000,0.000000,0.000000,0.000000,0.034660,1.000000,0.000000,0.991417,0.035776,0.000000,0.000000,1.000000,0.949561,0.153813,1.000000
20,0.000020,0.765810,1.000000,0.000000,0.000000,0.000000,0.034660,1.000000,0.000000,0.991417,0.035776,0.000000,0.000000,1.000000,0.949561,0.153813,1.000000
21,0.000018,0.807176,0.819289,0.000000,0.000000,0.000000,0.121491,1.000000,0.000000,1.000000,0.075555,0.000000,0.000000,1.000000,0.917989,0.267575,0.000000
22,0.000003,0.779551,0.831065,0.000000,0.000000,0.025192,0.048220,0.836399,1.000000,1.000000,0.094653,0.000000,0.000000,0.932132,1.000000,0.011348,1.000000
23,0.000003,0.779551,0.831065,0.000000,0.000000,0.025192,0.048220,0.836399,1.000000,1.000000,0.094653,0.000000,0.000000,0.932132,1.000000,0.011348,1.000000
24,0.000001,0.902552,0.838396,0.000000,0.000000,0.007507,0.162762,0.590432,2.000000,0.982345,0.287237,0.024729,0.000000,0.886487,0.869724,0.176922,2.000000
25,0.000001,0.902552,0.838396,0.000000,0.000000,0.007507,0.162762,0.590432,2.000000,0.982345,0.287237,0.024729,0.000000,0.886487,0.869724,0.176922,2.000000
26,0.000001,0.902552,0.838396,0.000000,0.000000,0.007507,0.162762,0.590432,2.000000,0.982345,0.287237,0.024729,0.000000,0.886487,0.869724,0.176922,2.000000
27,0.000001,0.902552,0.838396,0.000000,0.000000,0.007507,0.162762,0.590432,2.000000,0.982345,0.287237,0.024729,0.000000,0.886487,0.869724,0.176922,2.000000
28,0.000001,0.902552,0.838396,0.000000,0.000000,0.007507,0.162762,0.590432,2.000000,0.982345,0.287237,0.024729,0.000000,0.886487,0.869724,0.176922,2.000000
29,0.000000,0.897562,0.990684,0.000000,0.000000,0.166663,0.108164,0.669045,1.000000,1.000000,0.136737,0.036074,0.000000,0.663176,0.972035,0.110873,0.000000
gen, fitness
0,0.011444,0.000000,1.000000,0.210000,0.800000,0.030000,0.030000,1.000000,0.000000,1.000000,0.000000,0.000000,0.600000,1.000000,1.000000,0.000000,0.000000
1,0.011444,0.000000,1.000000,0.210000,0.800000,0.030000,0.030000,1.000000,0.000000,1.000000,0.000000,0.000000,0.600000,1.000000,1.000000,0.000000,0.000000
2,0.004554,0.000000,1.000000,0.210000,0.678486,0.120511,0.030000,1.000000,1.000000,1.000000,0.000000,0.000000,0.470565,0.916780,0.769546,0.000000,1.000000
3,0.002560,0.089134,1.000000,0.210000,0.581277,0.046860,0.000000,0.898294,0.000000,0.859017,0.000000,0.000000,0.504252,0.915019,0.883280,0.000000,0.000000
4,0.001677,0.000000,0.800661,0.253028,0.536460,0.000000,0.000000,1.000000,1.000000,1.000000,0.000000,0.002048,0.394592,0.908690,1.000000,0.000000,0.000000
5,0.000876,0.250125,1.000000,0.041183,0.537521,0.000000,0.030000,1.000000,1.000000,0.711810,0.000000,0.015638,0.422414,1.000000,1.000000,0.081209,1.000000
6,0.000773,0.213103,1.000000,0.000000,0.652467,0.030000,0.000000,0.886042,1.000000,1.000000,0.004698,0.002048,0.423178,1.000000,1.000000,0.000000,2.000000
7,0.000490,0.062799,0.857510,0.122250,0.536460,0.000000,0.113495,0.984507,2.000000,1.000000,0.000000,0.038965,0.269179,0.961240,1.000000,0.000000,0.000000
8,0.000015,0.106308,0.767477,0.122250,0.439787,0.000000,0.113495,0.843410,1.000000,1.000000,0.156804,0.000000,0.173733,0.961240,1.000000,0.000000,1.000000
9,0.000015,0.106308,0.767477,0.122250,0.439787,0.000000,0.113495,0.843410,1.000000,1.000000,0.156804,0.000000,0.173733,0.961240,1.000000,0.000000,1.000000
10,0.000002,0.107484,0.794848,0.131054,0.433661,0.000000,0.000000,1.000000,1.000000,1.000000,0.092459,0.071844,0.106848,1.000000,1.000000,0.001918,1.000000
11,0.000002,0.107484,0.794848,0.131054,0.433661,0.000000,0.000000,1.000000,1.000000,1.000000,0.092459,0.071844,0.106848,1.000000,1.000000,0.001918,1.000000
12,0.000002,0.107484,0.794848,0.131054,0.433661,0.000000,0.000000,1.000000,1.000000,1.000000,0.092459,0.071844,0.106848,1.000000,1.000000,0.001918,1.000000
13,0.000002,0.107484,0.794848,0.131054,0.433661,0.000000,0.000000,1.000000,1.000000,1.000000,0.092459,0.071844,0.106848,1.000000,1.000000,0.001918,1.000000
14,0.000002,0.107484,0.794848,0.131054,0.433661,0.000000,0.000000,1.000000,1.000000,1.000000,0.092459,0.071844,0.106848,1.000000,1.000000,0.001918,1.000000
15,0.000002,0.107484,0.794848,0.131054,0.433661,0.000000,0.000000,1.000000,1.000000,1.000000,0.092459,0.071844,0.106848,1.000000,1.000000,0.001918,1.000000
16,0.000001,0.473526,1.000000,0.000000,0.526968,0.086018,0.030441,1.000000,2.000000,1.000000,0.000000,0.042969,0.295466,1.000000,0.794393,0.119809,0.000000
gen, fitness
0,0.010533,0.000000,1.000000,0.210000,0.800000,0.030000,0.030000,1.000000,0.000000,1.000000,0.000000,0.000000,0.600000,1.000000,1.000000,0.000000,0.000000
1,0.010533,0.000000,1.000000,0.210000,0.800000,0.030000,0.030000,1.000000,0.000000,1.000000,0.000000,0.000000,0.600000,1.000000,1.000000,0.000000,0.000000
2,0.001857,0.098713,1.000000,0.091599,0.735721,0.030000,0.000000,1.000000,2.000000,1.000000,0.000000,0.000000,0.600000,1.000000,1.000000,0.000000,0.000000
3,0.000871,0.081196,1.000000,0.062509,0.686634,0.000000,0.030000,0.873689,1.000000,1.000000,0.000000,0.076211,0.454193,1.000000,1.000000,0.089134,0.000000
4,0.000543,0.344743,1.000000,0.320196,0.440381,0.000000,0.000000,1.000000,2.000000,0.960202,0.098072,0.057802,0.437795,0.905518,1.000000,0.033038,1.000000
5,0.000543,0.344743,1.000000,0.320196,0.440381,0.000000,0.000000,1.000000,2.000000,0.960202,0.098072,0.057802,0.437795,0.905518,1.000000,0.033038,1.000000
6,0.000259,0.344743,1.000000,0.320196,0.358297,0.000000,0.118531,0.918752,2.000000,1.000000,0.120075,0.000000,0.394993,0.595804,1.000000,0.059667,0.000000
7,0.000016,0.361124,1.000000,0.399661,0.223017,0.000000,0.032577,0.860104,0.000000,0.906426,0.045350,0.000000,0.403059,0.795782,1.000000,0.302169,2.000000
8,0.000016,0.361124,1.000000,0.399661,0.223017,0.000000,0.032577,0.860104,0.000000,0.906426,0.045350,0.000000,0.403059,0.795782,1.000000,0.302169,2.000000
9,0.000015,0.247432,1.000000,0.320196,0.353913,0.000000,0.118531,0.890183,2.000000,1.000000,0.066401,0.000000,0.396981,0.553123,1.000000,0.059667,0.000000
10,0.000015,0.247432,1.000000,0.320196,0.353913,0.000000,0.118531,0.890183,2.000000,1.000000,0.066401,0.000000,0.396981,0.553123,1.000000,0.059667,0.000000
11,0.000011,0.551535,0.877025,0.208638,0.443872,0.024102,0.101637,0.915533,2.000000,1.000000,0.206549,0.013303,0.489784,0.533158,1.000000,0.068654,1.000000
12,0.000004,0.247432,1.000000,0.309818,0.376449,0.036311,0.206970,0.890183,1.000000,1.000000,0.172854,0.000000,0.396981,0.704258,1.000000,0.010115,1.000000
13,0.000004,0.247432,1.000000,0.309818,0.376449,0.036311,0.206970,0.890183,1.000000,1.000000,0.172854,0.000000,0.396981,0.704258,1.000000,0.010115,1.000000
14,0.000003,0.615301,0.943609,0.208638,0.398522,0.024102,0.029224,0.822080,2.000000,0.825667,0.193136,0.000000,0.538494,0.472403,1.000000,0.000000,0.000000
15,0.000001,0.073997,0.933682,0.375318,0.308883,0.000000,0.000000,1.000000,0.000000,1.000000,0.118621,0.000000,0.316774,0.704258,1.000000,0.000000,2.000000
16,0.000001,0.073997,0.933682,0.375318,0.308883,0.000000,0.000000,1.000000,0.000000,1.000000,0.118621,0.000000,0.316774,0.704258,1.000000,0.000000,2.000000
17,0.000001,0.073997,0.933682,0.375318,0.308883,0.000000,0.000000,1.000000,0.000000,1.000000,0.118621,0.000000,0.316774,0.704258,1.000000,0.000000,2.000000
gen, fitness
0,0.067934,0.000000,1.000000,0.210000,0.800000,0.030000,0.030000,1.000000,0.000000,1.000000,0.000000,0.000000,0.600000,1.000000,1.000000,0.000000,0.000000
1,0.067934,0.000000,1.000000,0.210000,0.800000,0.030000,0.030000,1.000000,0.000000,1.000000,0.000000,0.000000,0.600000,1.000000,1.000000,0.000000,0.000000
2,0.043723,0.000000,1.000000,0.210000,0.659897,0.030000,0.084113,1.000000,1.000000,1.000000,0.000000,0.072731,0.491510,1.000000,1.000000,0.000000,0.000000
3,0.028476,0.056899,0.973421,0.042734,0.659897,0.030000,0.084113,0.970359,1.000000,1.000000,0.000000,0.072731,0.381258,0.799821,1.000000,0.000000,0.000000
4,0.025679,0.000000,1.000000,0.082475,0.630335,0.227493,0.081237,1.000000,0.000000,1.000000,0.000000,0.088879,0.295834,0.930658,0.817020,0.091304,0.000000
5,0.023300,0.207120,1.000000,0.000000,0.596745,0.000000,0.002610,1.000000,1.000000,0.809739,0.000000,0.000000,0.454536,0.930658,0.915076,0.000000,0.000000
6,0.018871,0.319835,1.000000,0.000000,0.641480,0.259620,0.084113,1.000000,0.000000,1.000000,0.076076,0.072731,0.330653,0.739203,1.000000,0.000000,2.000000
7,0.012726,0.207120,0.992217,0.000000,0.457592,0.000000,0.104063,0.784812,0.000000,1.000000,0.016415,0.072731,0.242762,1.000000,1.000000,0.000000,0.000000
8,0.007334,0.367112,0.912526,0.082895,0.437795,0.071326,0.063600,0.915398,1.000000,1.000000,0.157650,0.030427,0.238820,0.975941,0.987871,0.000000,0.000000
9,0.004176,0.270203,0.828414,0.025671,0.367589,0.076189,0.323175,0.932450,1.000000,0.849401,0.149519,0.000000,0.162602,1.000000,0.987871,0.089695,0.000000
10,0.002813,0.409416,0.653856,0.082895,0.322748,0.071326,0.063600,0.922493,2.000000,0.933442,0.095038,0.030427,0.119242,0.868140,1.000000,0.000000,2.000000
11,0.000293,0.486068,0.909813,0.082895,0.199284,0.000000,0.063600,0.891075,1.000000,0.985244,0.047149,0.000000,0.061751,0.966362,1.000000,0.111570,1.000000
12,0.000259,0.443799,0.949133,0.000000,0.360215,0.058003,0.221964,0.833891,0.000000,1.000000,0.032045,0.030846,0.012113,1.000000,1.000000,0.000000,2.000000
13,0.000050,0.561383,0.904841,0.000000,0.263769,0.194182,0.111753,0.977917,1.000000,1.000000,0.130239,0.000000,0.052317,1.000000,1.000000,0.000000,0.000000
14,0.000033,0.566490,0.886927,0.000000,0.263769,0.194182,0.106945,0.977917,1.000000,1.000000,0.000000,0.000000,0.052317,1.000000,0.977807,0.000000,2.000000
15,0.000033,0.566490,0.886927,0.000000,0.263769,0.194182,0.106945,0.977917,1.000000,1.000000,0.000000,0.000000,0.052317,1.000000,0.977807,0.000000,2.000000
16,0.000012,0.561383,0.881252,0.000000,0.284944,0.194182,0.064402,0.805844,1.000000,0.927248,0.130239,0.068713,0.000000,1.000000,0.971320,0.000000,1.000000
17,0.000005,0.566556,0.904841,0.055980,0.215560,0.285271,0.150805,0.895989,2.000000,1.000000,0.098257,0.000000,0.052317,1.000000,0.978017,0.021945,0.000000
18,0.000005,0.566556,0.904841,0.055980,0.215560,0.285271,0.150805,0.895989,2.000000,1.000000,0.098257,0.000000,0.052317,1.000000,0.978017,0.021945,0.000000
19,0.000005,0.566556,0.904841,0.055980,0.215560,0.285271,0.150805,0.895989,2.000000,1.000000,0.098257,0.000000,0.052317,1.000000,0.978017,0.021945,0.000000
20,0.000005,0.566556,0.904841,0.055980,0.215560,0.285271,0.150805,0.895989,2.000000,1.000000,0.098257,0.000000,0.052317,1.000000,0.978017,0.021945,0.000000
21,0.000000,0.485867,1.000000,0.000000,0.303305,0.092268,0.066757,0.786853,1.000000,1.000000,0.000000,0.000000,0.009663,0.632916,0.838961,0.149682,0.000000
gen, fitness
0,0.030614,0.000000,1.000000,0.210000,0.800000,0.030000,0.030000,1.000000,0.000000,1.000000,0.000000,0.000000,0.600000,1.000000,1.000000,0.000000,0.000000
1,0.030614,0.000000,1.000000,0.210000,0.800000,0.030000,0.030000,1.000000,0.000000,1.000000,0.000000,0.000000,0.600000,1.000000,1.000000,0.000000,0.000000
2,0.013827,0.000000,0.977787,0.210000,0.696758,0.118752,0.030000,0.915619,0.000000,1.000000,0.000000,0.067976,0.469095,0.960154,1.000000,0.092982,0.000000
3,0.011588,0.039165,1.000000,0.097015,0.682931,0.004632,0.000000,0.982747,0.000000,0.937800,0.000000,0.059430,0.510765,0.982183,1.000000,0.000000,1.000000
4,0.010125,0.107454,0.986288,0.142358,0.612696,0.152136,0.020051,1.000000,2.000000,0.981651,0.018881,0.000000,0.505206,0.896075,1.000000,0.265281,0.000000
5,0.006503,0.043591,0.947456,0.000000,0.664175,0.000695,0.000000,1.000000,0.000000,0.826105,0.066069,0.000000,0.433238,0.863425,0.853428,0.000000,0.000000
6,0.004340,0.297872,0.986288,0.000000,0.534841,0.152136,0.088194,1.000000,2.000000,0.867611,0.018881,0.000000,0.424184,0.896075,1.000000,0.227173,0.000000
7,0.001737,0.297872,1.000000,0.000000,0.534841,0.265856,0.000000,1.000000,2.000000,0.909472,0.194366,0.000000,0.319206,0.811111,1.000000,0.227173,0.000000
8,0.001737,0.297872,1.000000,0.000000,0.534841,0.265856,0.000000,1.000000,2.000000,0.909472,0.194366,0.000000,0.319206,0.811111,1.000000,0.227173,0.000000
9,0.000575,0.374233,0.763766,0.000000,0.485787,0.018952,0.098797,1.000000,2.000000,1.000000,0.098243,0.046547,0.222510,0.856315,0.923606,0.243677,0.000000
10,0.000575,0.374233,0.763766,0.000000,0.485787,0.018952,0.098797,1.000000,2.000000,1.000000,0.098243,0.046547,0.222510,0.856315,0.923606,0.243677,0.000000
11,0.000212,0.000000,0.989133,0.000000,0.475916,0.068833,0.143555,0.818220,0.000000,0.849739,0.065970,0.002492,0.000000,0.910192,0.799464,0.560851,0.000000
12,0.000169,0.000000,1.000000,0.000000,0.475916,0.068833,0.141049,0.770145,0.000000,0.849739,0.134882,0.002492,0.000000,0.951704,0.764420,0.560851,0.000000
13,0.000044,0.067310,0.989133,0.000000,0.475916,0.185691,0.143555,0.725286,1.000000,0.974487,0.065970,0.000000,0.005678,0.910192,0.881648,0.374499,0.000000
14,0.000036,0.040029,0.834455,0.000000,0.349731,0.178523,0.051060,1.000000,2.000000,0.788219,0.030209,0.000000,0.000000,1.000000,0.870770,0.014276,2.000000
15,0.000026,0.098131,0.923979,0.000000,0.475916,0.000000,0.147049,0.651157,2.000000,1.000000,0.065970,0.000000,0.005678,0.988477,0.881648,0.399077,0.000000
16,0.000009,0.000000,0.693060,0.000000,0.349731,0.332362,0.051060,1.000000,2.000000,0.788219,0.030209,0.000000,0.000000,1.000000,0.870770,0.014276,2.000000
17,0.000009,0.000000,0.693060,0.000000,0.349731,0.332362,0.051060,1.000000,2.000000,0.788219,0.030209,0.000000,0.000000,1.000000,0.870770,0.014276,2.000000
18,0.000002,0.000000,1.000000,0.000000,0.475916,0.185691,0.051213,0.630612,2.000000,1.000000,0.000000,0.000000,0.000000,1.000000,0.881648,0.162267,1.000000
19,0.000002,0.000000,1.000000,0.018873,0.361367,0.185691,0.000000,0.864883,0.000000,0.776801,0.000000,0.000000,0.000000,1.000000,0.870059,0.166804,2.000000
20,0.000000,0.069637,1.000000,0.000000,0.475916,0.223928,0.000000,0.635216,1.000000,1.000000,0.000000,0.000000,0.005678,0.910192,0.814158,0.374499,1.000000
gen, fitness
0,0.009712,0.000000,1.000000,0.210000,0.800000,0.030000,0.030000,1.000000,0.000000,1.000000,0.000000,0.000000,0.600000,1.000000,1.000000,0.000000,0.000000
1,0.009712,0.000000,1.000000,0.210000,0.800000,0.030000,0.030000,1.000000,0.000000,1.000000,0.000000,0.000000,0.600000,1.000000,1.000000,0.000000,0.000000
2,0.000291,0.000000,1.000000,0.210000,0.677755,0.011434,0.000000,1.000000,0.000000,0.901046,0.095871,0.000000,0.600000,1.000000,1.000000,0.000000,1.000000
3,0.000003,0.000000,0.895480,0.000000,0.717340,0.000000,0.195293,1.000000,2.000000,1.000000,0.000000,0.000000,0.502474,1.000000,0.888325,0.000000,2.000000
4,0.000003,0.000000,0.895480,0.000000,0.717340,0.000000,0.195293,1.000000,2.000000,1.000000,0.000000,0.000000,0.502474,1.000000,0.888325,0.000000,2.000000
5,0.000003,0.000000,0.895480,0.000000,0.717340,0.000000,0.195293,1.000000,2.000000,1.000000,0.000000,0.000000,0.502474,1.000000,0.888325,0.000000,2.000000
6,0.000003,0.000000,0.895480,0.000000,0.717340,0.000000,0.195293,1.000000,2.000000,1.000000,0.000000,0.000000,0.502474,1.000000,0.888325,0.000000,2.000000
7,0.000003,0.000000,0.895480,0.000000,0.717340,0.000000,0.195293,1.000000,2.000000,1.000000,0.000000,0.000000,0.502474,1.000000,0.888325,0.000000,2.000000
8,0.000003,0.000000,0.895480,0.000000,0.717340,0.000000,0.195293,1.000000,2.000000,1.000000,0.000000,0.000000,0.502474,1.000000,0.888325,0.000000,2.000000
9,0.000003,0.000000,0.895480,0.000000,0.717340,0.000000,0.195293,1.000000,2.000000,1.000000,0.000000,0.000000,0.502474,1.000000,0.888325,0.000000,2.000000
10,0.000003,0.000000,0.895480,0.000000,0.717340,0.000000,0.195293,1.000000,2.000000,1.000000,0.000000,0.000000,0.502474,1.000000,0.888325,0.000000,2.000000
11,0.000003,0.000000,0.895480,0.000000,0.717340,0.000000,0.195293,1.000000,2.000000,1.000000,0.000000,0.000000,0.502474,1.000000,0.888325,0.000000,2.000000
12,0.000002,0.000000,0.895480,0.000000,0.717215,0.175549,0.287556,0.993536,1.000000,0.908495,0.033402,0.000000,0.522784,1.000000,0.858241,0.000000,0.000000
13,0.000002,0.000000,0.895480,0.000000,0.717215,0.175549,0.287556,0.993536,1.000000,0.908495,0.033402,0.000000,0.522784,1.000000,0.858241,0.000000,0.000000
gen, fitness
0,0.026348,0.000000,1.000000,0.210000,0.800000,0.030000,0.030000,1.000000,0.000000,1.000000,0.000000,0.000000,0.600000,1.000000,1.000000,0.000000,0.000000
1,0.026348,0.000000,1.000000,0.210000,0.800000,0.030000,0.030000,1.000000,0.000000,1.000000,0.000000,0.000000,0.600000,1.000000,1.000000,0.000000,0.000000
2,0.011248,0.120197,1.000000,0.210000,0.696256,0.027710,0.000000,1.000000,0.000000,1.000000,0.000000,0.205683,0.469884,1.000000,1.000000,0.000000,2.000000
3,0.008046,0.050034,1.000000,0.210000,0.586984,0.000000,0.071998,0.979556,0.000000,0.875986,0.010582,0.018484,0.533983,0.970307,0.916797,0.000000,2.000000
4,0.004773,0.052669,0.928288,0.109878,0.617242,0.043146,0.223455,1.000000,1.000000,1.000000,0.000000,0.000000,0.460771,0.963810,1.000000,0.000000,2.000000
5,0.001817,0.000000,1.000000,0.057475,0.568457,0.000000,0.231585,0.915920,1.000000,0.973563,0.064808,0.000495,0.313238,0.767681,1.000000,0.133125,0.000000
6,0.000462,0.095812,0.859271,0.000000,0.517523,0.007166,0.169729,0.962089,2.000000,0.804653,0.043622,0.151976,0.112726,1.000000,0.801697,0.148032,2.000000
7,0.000462,0.095812,0.859271,0.000000,0.517523,0.007166,0.169729,0.962089,2.000000,0.804653,0.043622,0.151976,0.112726,1.000000,0.801697,0.148032,2.000000
8,0.000347,0.385512,0.878680,0.000000,0.451357,0.224475,0.223455,0.962603,1.000000,1.000000,0.000000,0.000000,0.278044,0.818731,0.905670,0.000000,1.000000
9,0.000000,0.095812,0.859271,0.046126,0.415630,0.000000,0.182576,0.962089,2.000000,0.804653,0.043622,0.151976,0.000000,1.000000,0.840647,0.148032,0.000000
gen, fitness
0,0.052335,0.000000,1.000000,0.210000,0.800000,0.030000,0.030000,1.000000,0.000000,1.000000,0.000000,0.000000,0.600000,1.000000,1.000000,0.000000,0.000000
1,0.052335,0.000000,1.000000,0.210000,0.800000,0.030000,0.030000,1.000000,0.000000,1.000000,0.000000,0.000000,0.600000,1.000000,1.000000,0.000000,0.000000
2,0.026564,0.142487,1.000000,0.111211,0.699049,0.126286,0.030000,0.879632,0.000000,1.000000,0.000000,0.000000,0.599182,1.000000,0.963445,0.138134,0.000000
3,0.022695,0.142487,1.000000,0.135225,0.699049,0.098647,0.055735,0.879632,0.000000,1.000000,0.031232,0.000000,0.431837,1.000000,1.000000,0.138134,0.000000
4,0.012226,0.142487,1.000000,0.000000,0.699049,0.067811,0.140997,0.889839,0.000000,0.996180,0.000000,0.000000,0.414449,1.000000,1.000000,0.000000,1.000000
5,0.011187,0.033933,0.890670,0.084339,0.527286,0.367507,0.191948,0.890105,0.000000,0.920573,0.000000,0.033181,0.321743,0.974786,0.870217,0.191220,2.000000
6,0.006156,0.237364,0.805531,0.000000,0.577631,0.000000,0.043327,0.947244,0.000000,1.000000,0.000000,0.000000,0.364797,1.000000,0.839467,0.000000,2.000000
7,0.005072,0.237364,0.805531,0.000000,0.408764,0.476944,0.389939,0.890105,0.000000,0.976969,0.000000,0.000000,0.233555,0.974786,0.835905,0.246632,0.000000
8,0.001096,0.314323,0.805531,0.016929,0.408764,0.476944,0.389939,0.890105,0.000000,0.976969,0.021192,0.000000,0.023121,0.890041,0.785134,0.222272,0.000000
9,0.000392,0.396518,0.805531,0.084944,0.271885,0.476944,0.429354,0.890105,2.000000,0.976969,0.021192,0.000000,0.023121,0.813178,0.785134,0.222272,0.000000
10,0.000053,0.355135,0.587930,0.002177,0.351341,0.000000,0.114332,0.886196,0.000000,1.000000,0.000000,0.010643,0.032987,1.000000,0.846883,0.103993,0.000000
11,0.000005,0.355135,0.572065,0.002177,0.351341,0.099662,0.032098,0.886196,2.000000,1.000000,0.000000,0.010643,0.032987,0.895573,0.780990,0.137453,2.000000
12,0.000005,0.355135,0.572065,0.002177,0.351341,0.099662,0.032098,0.886196,2.000000,1.000000,0.000000,0.010643,0.032987,0.895573,0.780990,0.137453,2.000000
13,0.000005,0.355135,0.572065,0.002177,0.351341,0.099662,0.032098,0.886196,2.000000,1.000000,0.000000,0.010643,0.032987,0.895573,0.780990,0.137453,2.000000
14,0.000005,0.355135,0.572065,0.002177,0.351341,0.099662,0.032098,0.886196,2.000000,1.000000,0.000000,0.010643,0.032987,0.895573,0.780990,0.137453,2.000000
15,0.000000,0.345765,0.514676,0.042107,0.323567,0.000000,0.229599,0.791147,2.000000,1.000000,0.095024,0.000000,0.052236,0.952702,0.620844,0.141435,0.000000
gen, fitness
0,0.080636,0.000000,1.000000,0.210000,0.800000,0.030000,0.030000,1.000000,0.000000,1.000000,0.000000,0.000000,0.600000,1.000000,1.000000,0.000000,0.000000
1,0.080636,0.000000,1.000000,0.210000,0.800000,0.030000,0.030000,1.000000,0.000000,1.000000,0.000000,0.000000,0.600000,1.000000,1.000000,0.000000,0.000000
2,0.047959,0.000000,1.000000,0.059138,0.742065,0.000000,0.000000,0.995150,0.000000,1.000000,0.000000,0.084772,0.486689,1.000000,1.000000,0.073154,0.000000
3,0.038967,0.334134,0.919079,0.210000,0.546096,0.000000,0.030000,0.877125,0.000000,0.889935,0.000000,0.000000,0.600000,0.882689,0.929197,0.000000,1.000000
4,0.032019,0.381153,0.919079,0.105112,0.546096,0.000000,0.030000,0.877125,1.000000,0.889935,0.136133,0.000000,0.549025,0.749756,0.929197,0.084061,2.000000
5,0.025237,0.460129,0.950387,0.079162,0.546096,0.000000,0.100107,0.867403,0.000000,0.889935,0.006729,0.018813,0.398204,0.524528,0.946772,0.212625,2.000000
6,0.019632,0.243611,0.981901,0.067612,0.546096,0.000000,0.030000,0.686682,2.000000,1.000000,0.040884,0.000000,0.293565,0.622672,0.738225,0.136514,1.000000
7,0.016016,0.000000,1.000000,0.097436,0.332427,0.000000,0.008697,0.969621,2.000000,0.944176,0.123481,0.000000,0.236257,0.994849,1.000000,0.109309,0.000000
8,0.010745,0.000000,1.000000,0.097436,0.332427,0.105477,0.008697,0.904697,1.000000,0.944176,0.121946,0.000000,0.137271,1.000000,0.921060,0.213120,1.000000
9,0.005491,0.473972,0.750585,0.000000,0.382398,0.074658,0.304070,0.766588,1.000000,1.000000,0.000000,0.029168,0.238785,0.913496,0.850202,0.000000,1.000000
10,0.002344,0.490960,0.875341,0.000000,0.339321,0.000000,0.052868,0.556541,0.000000,0.914629,0.092151,0.000000,0.147344,0.994849,1.000000,0.198853,2.000000
11,0.001688,0.677327,0.545210,0.000000,0.308100,0.186709,0.453377,0.826137,0.000000,1.000000,0.000000,0.000000,0.215317,1.000000,0.721028,0.040273,2.000000
12,0.001401,0.490100,0.542436,0.000000,0.180772,0.004005,0.039196,0.878247,1.000000,0.872608,0.161262,0.000000,0.117583,1.000000,1.000000,0.203774,1.000000
13,0.001296,0.677654,0.736009,0.000000,0.219200,0.385508,0.086806,0.849824,0.000000,0.838595,0.000000,0.029168,0.197995,0.919361,0.966988,0.000000,2.000000
14,0.000086,0.739169,0.674895,0.000000,0.186606,0.000000,0.433447,0.487216,2.000000,0.913232,0.000000,0.000000,0.146330,1.000000,0.741640,0.147193,1.000000
15,0.000064,0.703092,0.831889,0.000000,0.186606,0.000000,0.357780,0.487216,1.000000,0.913232,0.002178,0.000000,0.146330,0.939853,0.840562,0.046320,0.000000
16,0.000064,0.703092,0.831889,0.000000,0.186606,0.000000,0.357780,0.487216,1.000000,0.913232,0.002178,0.000000,0.146330,0.939853,0.840562,0.046320,0.000000
17,0.000017,0.715688,0.577930,0.000000,0.190803,0.000000,0.417844,0.375724,2.000000,0.968439,0.062237,0.004925,0.074699,0.888154,0.537004,0.108170,0.000000
18,0.000006,0.507388,0.412905,0.000000,0.076107,0.226572,0.000000,0.726084,2.000000,0.736233,0.334690,0.000000,0.000000,0.939853,0.840412,0.046320,2.000000
19,0.000006,0.507388,0.412905,0.000000,0.076107,0.226572,0.000000,0.726084,2.000000,0.736233,0.334690,0.000000,0.000000,0.939853,0.840412,0.046320,2.000000
20,0.000006,0.507388,0.412905,0.000000,0.076107,0.226572,0.000000,0.726084,2.000000,0.736233,0.334690,0.000000,0.000000,0.939853,0.840412,0.046320,2.000000
21,0.000006,0.507388,0.412905,0.000000,0.076107,0.226572,0.000000,0.726084,2.000000,0.736233,0.334690,0.000000,0.000000,0.939853,0.840412,0.046320,2.000000
22,0.000006,0.507388,0.412905,0.000000,0.076107,0.226572,0.000000,0.726084,2.000000,0.736233,0.334690,0.000000,0.000000,0.939853,0.840412,0.046320,2.000000
23,0.000000,0.659864,0.478258,0.032346,0.200604,0.036670,0.128527,0.349776,0.000000,1.000000,0.074269,0.063009,0.000000,1.000000,0.879787,0.119168,0.000000
gen, fitness
0,0.025383,0.000000,1.000000,0.210000,0.800000,0.030000,0.030000,1.000000,0.000000,1.000000,0.000000,0.000000,0.600000,1.000000,1.000000,0.000000,0.000000
1,0.025383,0.000000,1.000000,0.210000,0.800000,0.030000,0.030000,1.000000,0.000000,1.000000,0.000000,0.000000,0.600000,1.000000,1.000000,0.000000,0.000000
2,0.009157,0.111684,1.000000,0.236545,0.589675,0.190005,0.030000,1.000000,2.000000,1.000000,0.000000,0.000000,0.572397,1.000000,0.853539,0.069059,0.000000
3,0.003596,0.000000,1.000000,0.210000,0.498879,0.030000,0.000000,0.813444,2.000000,1.000000,0.000000,0.000000,0.379855,0.874714,1.000000,0.000000,1.000000
4,0.003596,0.000000,1.000000,0.210000,0.498879,0.030000,0.000000,0.813444,2.000000,1.000000,0.000000,0.000000,0.379855,0.874714,1.000000,0.000000,1.000000
5,0.003596,0.000000,1.000000,0.210000,0.498879,0.030000,0.000000,0.813444,2.000000,1.000000,0.000000,0.000000,0.379855,0.874714,1.000000,0.000000,1.000000
6,0.001483,0.228097,1.000000,0.184542,0.445873,0.149866,0.114544,1.000000,0.000000,0.974630,0.000000,0.050437,0.294735,1.000000,0.853539,0.011567,1.000000
7,0.000727,0.228097,0.999062,0.184542,0.382669,0.268863,0.114544,1.000000,1.000000,0.974630,0.149548,0.050437,0.202067,1.000000,0.853539,0.000000,1.000000
8,0.000013,0.248127,0.999062,0.070966,0.382669,0.433648,0.114544,0.843234,2.000000,0.974630,0.150914,0.000000,0.157785,1.000000,0.847762,0.000000,2.000000
9,0.000013,0.248127,0.999062,0.070966,0.382669,0.433648,0.114544,0.843234,2.000000,0.974630,0.150914,0.000000,0.157785,1.000000,0.847762,0.000000,2.000000
10,0.000013,0.248127,0.999062,0.070966,0.382669,0.433648,0.114544,0.843234,2.000000,0.974630,0.150914,0.000000,0.157785,1.000000,0.847762,0.000000,2.000000
11,0.000005,0.225078,0.587788,0.070966,0.346908,0.421098,0.023191,0.918050,0.000000,0.846876,0.044629,0.004217,0.157785,1.000000,0.487559,0.170240,0.000000
12,0.000005,0.225078,0.587788,0.070966,0.346908,0.421098,0.023191,0.918050,0.000000,0.846876,0.044629,0.004217,0.157785,1.000000,0.487559,0.170240,0.000000
13,0.000005,0.225078,0.587788,0.070966,0.346908,0.421098,0.023191,0.918050,0.000000,0.846876,0.044629,0.004217,0.157785,1.000000,0.487559,0.170240,0.000000
14,0.000005,0.225078,0.587788,0.070966,0.346908,0.421098,0.023191,0.918050,0.000000,0.846876,0.044629,0.004217,0.157785,1.000000,0.487559,0.170240,0.000000
15,0.000000,0.248127,0.998188,0.000000,0.404832,0.411271,0.114544,0.843234,1.000000,0.791096,0.150914,0.038177,0.157785,0.967013,0.779847,0.000000,1.000000
