gen, fitness
0,0.094016,0.000000,1.000000,0.210000,0.800000,0.030000,0.030000,1.000000,0.000000,1.000000,0.000000,0.000000,0.600000,1.000000,1.000000,0.000000,0.000000
1,0.094016,0.000000,1.000000,0.210000,0.800000,0.030000,0.030000,1.000000,0.000000,1.000000,0.000000,0.000000,0.600000,1.000000,1.000000,0.000000,0.000000
2,0.066943,0.000000,1.000000,0.210000,0.704780,0.030000,0.030000,1.000000,0.000000,1.000000,0.000000,0.000000,0.539700,1.000000,1.000000,0.000000,0.000000
3,0.066943,0.000000,1.000000,0.210000,0.704780,0.030000,0.030000,1.000000,0.000000,1.000000,0.000000,0.000000,0.539700,1.000000,1.000000,0.000000,0.000000
4,0.052171,0.000000,1.000000,0.000000,0.615461,0.030000,0.004953,1.000000,0.000000,1.000000,0.000000,0.000000,0.542068,1.000000,1.000000,0.021412,0.000000
5,0.043072,0.000000,1.000000,0.000000,0.615461,0.162267,0.053294,1.000000,0.000000,0.974366,0.000000,0.000000,0.477080,1.000000,1.000000,0.000000,0.000000
6,0.039456,0.038012,1.000000,0.000000,0.615461,0.000000,0.004953,0.933495,1.000000,0.959163,0.000000,0.000000,0.447174,1.000000,1.000000,0.000000,0.000000
7,0.030492,0.000000,1.000000,0.002722,0.534945,0.135973,0.030000,1.000000,2.000000,0.829038,0.061275,0.000000,0.239590,1.000000,1.000000,0.021412,0.000000
8,0.029409,0.038012,1.000000,0.000000,0.597516,0.000000,0.004953,0.933495,0.000000,0.959163,0.000000,0.000000,0.175972,1.000000,1.000000,0.000000,0.000000
9,0.024172,0.226874,0.965762,0.000000,0.464880,0.030000,0.116615,0.919127,2.000000,1.000000,0.060770,0.000000,0.315578,1.000000,1.000000,0.082953,0.000000
10,0.017642,0.038012,1.000000,0.000000,0.461446,0.000000,0.004953,1.000000,1.000000,0.959163,0.000000,0.000000,0.046696,1.000000,1.000000,0.000000,1.000000
11,0.016755,0.217614,1.000000,0.013229,0.367310,0.023675,0.139341,1.000000,0.000000,0.829038,0.155632,0.139369,0.015587,1.000000,1.000000,0.059653,0.000000
12,0.012065,0.038012,1.000000,0.000000,0.387522,0.000000,0.004953,1.000000,1.000000,0.959163,0.163810,0.000000,0.000000,1.000000,1.000000,0.000000,0.000000
13,0.008163,0.217614,0.957867,0.000000,0.270109,0.370894,0.139341,0.844157,2.000000,0.993673,0.143109,0.063946,0.000000,1.000000,1.000000,0.059653,0.000000
14,0.004883,0.217614,1.000000,0.013229,0.167421,0.023675,0.163658,1.000000,0.000000,0.866200,0.000000,0.000000,0.000000,1.000000,0.859110,0.000000,1.000000
15,0.004677,0.217614,1.000000,0.013229,0.167421,0.042674,0.000000,0.717876,2.000000,0.930236,0.000000,0.000000,0.000000,1.000000,0.950054,0.009684,1.000000
16,0.003745,0.362992,1.000000,0.013229,0.080720,0.023675,0.139341,1.000000,1.000000,0.829038,0.155632,0.038626,0.000000,1.000000,1.000000,0.032763,0.000000
17,0.002481,0.473341,0.957867,0.000000,0.100147,0.186739,0.139341,0.958442,2.000000,0.993673,0.191355,0.024389,0.000000,1.000000,1.000000,0.068641,1.000000
18,0.001822,0.473341,0.904591,0.000000,0.100147,0.186739,0.139341,0.958442,2.000000,0.993673,0.191355,0.000000,0.000000,0.876247,1.000000,0.068641,1.000000
19,0.000938,0.643482,0.957867,0.000000,0.015724,0.129881,0.139341,0.958442,2.000000,0.987214,0.191355,0.024389,0.000000,1.000000,1.000000,0.068641,1.000000
20,0.000353,0.643482,0.957867,0.000000,0.015724,0.129881,0.139341,0.958442,2.000000,0.996800,0.000000,0.000000,0.000000,1.000000,0.950054,0.009684,2.000000
21,0.000147,0.764690,0.973798,0.000000,0.000000,0.129881,0.139341,0.958442,2.000000,0.987214,0.191355,0.024389,0.000000,1.000000,1.000000,0.068641,0.000000
22,0.000076,0.792884,1.000000,0.000000,0.000000,0.129881,0.139341,0.988107,2.000000,0.987214,0.191355,0.024389,0.000000,1.000000,0.862175,0.068641,0.000000
23,0.000015,0.764690,0.946333,0.000000,0.000000,0.129881,0.139341,0.958442,0.000000,0.987214,0.191355,0.000000,0.000000,1.000000,1.000000,0.068641,0.000000
24,0.000015,0.764690,0.946333,0.000000,0.000000,0.129881,0.139341,0.958442,0.000000,0.987214,0.191355,0.000000,0.000000,1.000000,1.000000,0.068641,0.000000
25,0.000008,0.793984,0.946333,0.000000,0.000000,0.129881,0.139341,0.729981,0.000000,1.000000,0.191355,0.000000,0.000000,1.000000,1.000000,0.017397,0.000000
26,0.000008,0.793984,0.946333,0.000000,0.000000,0.129881,0.139341,0.729981,0.000000,1.000000,0.191355,0.000000,0.000000,1.000000,1.000000,0.017397,0.000000
27,0.000006,0.773706,0.947678,0.000000,0.000000,0.189176,0.139341,0.947258,0.000000,1.000000,0.191355,0.000000,0.000000,1.000000,1.000000,0.051608,2.000000
28,0.000003,0.874074,0.946333,0.000000,0.000000,0.129881,0.053858,0.729981,0.000000,1.000000,0.191355,0.000000,0.052535,1.000000,1.000000,0.017397,0.000000
29,0.000000,0.793984,0.918150,0.000000,0.000000,0.129881,0.053494,0.729981,2.000000,1.000000,0.191355,0.000000,0.000000,1.000000,1.000000,0.017397,0.000000
gen, fitness
0,0.011444,0.000000,1.000000,0.210000,0.800000,0.030000,0.030000,1.000000,0.000000,1.000000,0.000000,0.000000,0.600000,1.000000,1.000000,0.000000,0.000000
1,0.011444,0.000000,1.000000,0.210000,0.800000,0.030000,0.030000,1.000000,0.000000,1.000000,0.000000,0.000000,0.600000,1.000000,1.000000,0.000000,0.000000
2,0.005928,0.000000,1.000000,0.210000,0.710708,0.030000,0.030000,1.000000,0.000000,1.000000,0.000000,0.000000,0.600000,0.842863,1.000000,0.000000,0.000000
3,0.004731,0.000000,1.000000,0.210000,0.677377,0.030000,0.106090,1.000000,0.000000,0.908243,0.000000,0.000000,0.530749,1.000000,1.000000,0.051504,2.000000
4,0.004586,0.000000,1.000000,0.210000,0.677377,0.030000,0.106090,1.000000,0.000000,0.908243,0.000000,0.000000,0.530749,0.945946,1.000000,0.051504,0.000000
5,0.003459,0.126911,1.000000,0.210000,0.625234,0.030000,0.106090,1.000000,0.000000,0.887195,0.000000,0.000000,0.530749,1.000000,1.000000,0.051504,2.000000
6,0.002089,0.303175,1.000000,0.071014,0.625234,0.030000,0.106090,1.000000,0.000000,0.887195,0.000000,0.000000,0.530749,1.000000,1.000000,0.051504,2.000000
7,0.001906,0.141834,1.000000,0.000000,0.677377,0.086342,0.089219,1.000000,0.000000,0.908243,0.000000,0.000000,0.350185,1.000000,1.000000,0.051504,1.000000
8,0.001440,0.436005,1.000000,0.071014,0.625234,0.030000,0.106090,1.000000,0.000000,0.887195,0.000000,0.000000,0.530749,1.000000,1.000000,0.051504,2.000000
9,0.000448,0.141834,1.000000,0.000000,0.615881,0.086342,0.089219,0.842710,2.000000,0.908243,0.000000,0.000000,0.350185,1.000000,1.000000,0.051504,1.000000
10,0.000420,0.141834,1.000000,0.000000,0.611850,0.058786,0.089219,0.842710,2.000000,0.881440,0.000000,0.000000,0.326796,1.000000,1.000000,0.051504,1.000000
11,0.000414,0.223574,1.000000,0.000000,0.615881,0.086342,0.089219,0.842710,2.000000,0.908243,0.000000,0.000000,0.350185,1.000000,1.000000,0.224860,1.000000
12,0.000167,0.288697,1.000000,0.002594,0.562549,0.058786,0.089219,0.842710,2.000000,0.881440,0.000000,0.000000,0.326796,0.817679,0.855861,0.051504,1.000000
13,0.000155,0.267791,1.000000,0.000000,0.615881,0.086342,0.089219,0.842710,0.000000,0.995045,0.000000,0.000000,0.326796,1.000000,1.000000,0.051504,1.000000
14,0.000074,0.288697,1.000000,0.002594,0.562549,0.000000,0.000000,0.842710,0.000000,0.881440,0.000000,0.000000,0.326796,0.817679,0.855861,0.051504,1.000000
15,0.000068,0.288697,1.000000,0.000000,0.562549,0.056016,0.089219,0.741539,1.000000,0.881440,0.000000,0.000000,0.326796,0.817679,0.855861,0.051504,0.000000
16,0.000039,0.288697,1.000000,0.000000,0.562549,0.174063,0.050719,0.741539,1.000000,0.881440,0.000000,0.000000,0.326796,0.985635,0.855861,0.051504,2.000000
17,0.000003,0.288697,0.948215,0.000000,0.562549,0.110076,0.089219,0.838778,2.000000,1.000000,0.000000,0.000000,0.262018,0.817679,0.855861,0.212349,2.000000
18,0.000003,0.288697,0.933239,0.000000,0.562549,0.110076,0.000000,0.838778,2.000000,1.000000,0.000000,0.000000,0.262018,0.817679,0.855861,0.212349,2.000000
19,0.000001,0.288697,0.933239,0.000000,0.562549,0.110076,0.000000,0.838778,1.000000,1.000000,0.000000,0.000000,0.262018,0.817679,0.772133,0.212349,2.000000
gen, fitness
0,0.010533,0.000000,1.000000,0.210000,0.800000,0.030000,0.030000,1.000000,0.000000,1.000000,0.000000,0.000000,0.600000,1.000000,1.000000,0.000000,0.000000
1,0.010533,0.000000,1.000000,0.210000,0.800000,0.030000,0.030000,1.000000,0.000000,1.000000,0.000000,0.000000,0.600000,1.000000,1.000000,0.000000,0.000000
2,0.002532,0.000000,1.000000,0.210000,0.729084,0.030000,0.000000,1.000000,0.000000,1.000000,0.000000,0.000000,0.600000,0.975240,1.000000,0.000000,0.000000
3,0.002255,0.000000,1.000000,0.210000,0.706830,0.121234,0.030000,1.000000,1.000000,1.000000,0.000000,0.000000,0.600000,1.000000,1.000000,0.000000,0.000000
4,0.001228,0.000000,1.000000,0.210000,0.644939,0.030000,0.000000,0.917864,0.000000,1.000000,0.000000,0.000000,0.536435,1.000000,0.871789,0.021129,0.000000
5,0.000809,0.000000,1.000000,0.098692,0.698418,0.000000,0.118993,0.848011,1.000000,1.000000,0.000000,0.000000,0.507320,1.000000,0.893879,0.000000,0.000000
6,0.000809,0.000000,1.000000,0.098692,0.698418,0.000000,0.118993,0.848011,1.000000,1.000000,0.000000,0.000000,0.507320,1.000000,0.893879,0.000000,0.000000
7,0.000150,0.205856,1.000000,0.098692,0.602627,0.000000,0.118993,0.823740,1.000000,1.000000,0.055006,0.000000,0.411871,1.000000,0.893879,0.000000,0.000000
8,0.000150,0.205856,1.000000,0.098692,0.602627,0.000000,0.118993,0.823740,1.000000,1.000000,0.055006,0.000000,0.411871,1.000000,0.893879,0.000000,0.000000
9,0.000023,0.172013,1.000000,0.098692,0.602627,0.000000,0.118993,0.823740,0.000000,1.000000,0.055006,0.000000,0.411871,1.000000,1.000000,0.000000,0.000000
10,0.000023,0.172013,1.000000,0.098692,0.602627,0.000000,0.118993,0.823740,0.000000,1.000000,0.055006,0.000000,0.411871,1.000000,1.000000,0.000000,0.000000
11,0.000019,0.172013,1.000000,0.098692,0.602627,0.000000,0.118993,0.823740,0.000000,1.000000,0.055006,0.000000,0.413925,1.000000,0.940317,0.000000,0.000000
12,0.000017,0.205856,1.000000,0.098692,0.590292,0.000000,0.118993,0.823740,1.000000,1.000000,0.055006,0.000000,0.411871,1.000000,0.893879,0.000000,2.000000
13,0.000002,0.205856,1.000000,0.034237,0.602627,0.000000,0.005132,0.750331,1.000000,0.935398,0.175898,0.104331,0.302118,0.869868,0.959548,0.000000,0.000000
14,0.000002,0.205856,1.000000,0.034237,0.602627,0.000000,0.005132,0.750331,1.000000,0.935398,0.175898,0.104331,0.302118,0.869868,0.959548,0.000000,0.000000
15,0.000002,0.205856,1.000000,0.034237,0.602627,0.000000,0.005132,0.750331,1.000000,0.935398,0.175898,0.104331,0.302118,0.869868,0.959548,0.000000,0.000000
16,0.000002,0.205856,1.000000,0.034237,0.602627,0.000000,0.005132,0.750331,1.000000,0.935398,0.175898,0.104331,0.302118,0.869868,0.959548,0.000000,0.000000
17,0.000000,0.205856,1.000000,0.034237,0.602627,0.032175,0.005132,0.750331,1.000000,0.935398,0.175898,0.104331,0.302118,0.819316,0.893879,0.010009,1.000000
gen, fitness
0,0.067934,0.000000,1.000000,0.210000,0.800000,0.030000,0.030000,1.000000,0.000000,1.000000,0.000000,0.000000,0.600000,1.000000,1.000000,0.000000,0.000000
1,0.067934,0.000000,1.000000,0.210000,0.800000,0.030000,0.030000,1.000000,0.000000,1.000000,0.000000,0.000000,0.600000,1.000000,1.000000,0.000000,0.000000
2,0.047310,0.000000,1.000000,0.000000,0.800000,0.030000,0.030000,1.000000,0.000000,1.000000,0.000000,0.000000,0.600000,1.000000,1.000000,0.000000,0.000000
3,0.047288,0.000000,1.000000,0.000000,0.800000,0.030000,0.000000,1.000000,0.000000,1.000000,0.000000,0.000000,0.600000,1.000000,1.000000,0.000000,0.000000
4,0.039930,0.000000,1.000000,0.210000,0.584340,0.030000,0.000000,1.000000,0.000000,1.000000,0.064594,0.000000,0.530877,1.000000,1.000000,0.065139,0.000000
5,0.033665,0.000000,0.854087,0.270916,0.593373,0.030000,0.000000,0.874690,0.000000,1.000000,0.065617,0.000000,0.390315,1.000000,1.000000,0.147474,0.000000
6,0.028085,0.000000,0.854087,0.017410,0.507915,0.030000,0.000000,0.969882,0.000000,1.000000,0.065617,0.000000,0.390315,1.000000,1.000000,0.147474,0.000000
7,0.024342,0.223938,1.000000,0.046638,0.625656,0.000000,0.000000,0.857461,0.000000,1.000000,0.000000,0.000000,0.485702,1.000000,0.930533,0.000000,0.000000
8,0.014612,0.000000,0.854087,0.017410,0.620350,0.030000,0.000000,0.969882,0.000000,1.000000,0.145214,0.000000,0.164560,0.973549,1.000000,0.147474,0.000000
9,0.014612,0.000000,0.854087,0.017410,0.620350,0.030000,0.000000,0.969882,0.000000,1.000000,0.145214,0.000000,0.164560,0.973549,1.000000,0.147474,0.000000
10,0.010466,0.000000,0.854087,0.017410,0.559269,0.115372,0.000000,0.969882,2.000000,1.000000,0.145214,0.000000,0.037906,0.973549,1.000000,0.147474,1.000000
11,0.006831,0.079882,0.854087,0.017410,0.507915,0.045743,0.214192,0.963700,0.000000,1.000000,0.145214,0.000000,0.115928,0.956957,1.000000,0.147474,2.000000
12,0.005227,0.165396,0.839855,0.017410,0.426730,0.210848,0.109993,0.793927,0.000000,1.000000,0.065617,0.000000,0.147745,1.000000,0.792588,0.062223,2.000000
13,0.002995,0.151724,0.854087,0.017410,0.453998,0.002814,0.214192,0.963700,0.000000,1.000000,0.145214,0.000000,0.000000,0.956957,1.000000,0.147474,2.000000
14,0.002295,0.093529,0.854087,0.102325,0.318359,0.045743,0.367505,0.960298,0.000000,1.000000,0.206734,0.000000,0.000000,0.973549,0.822192,0.090833,0.000000
15,0.000661,0.289577,0.854087,0.017410,0.345028,0.089441,0.000000,0.969882,2.000000,1.000000,0.274129,0.000000,0.000000,1.000000,0.969650,0.147474,1.000000
16,0.000661,0.289577,0.854087,0.017410,0.345028,0.089441,0.000000,0.969882,2.000000,1.000000,0.274129,0.000000,0.000000,1.000000,0.969650,0.147474,1.000000
17,0.000570,0.359986,0.864131,0.017410,0.345028,0.089441,0.000000,1.000000,2.000000,1.000000,0.274129,0.000000,0.000000,1.000000,0.969650,0.147474,1.000000
18,0.000342,0.359986,0.884191,0.017410,0.345028,0.089441,0.000000,1.000000,0.000000,1.000000,0.268239,0.000000,0.000000,1.000000,0.969650,0.147474,1.000000
19,0.000112,0.510168,0.853049,0.017410,0.283537,0.089441,0.000000,1.000000,2.000000,1.000000,0.274129,0.000000,0.000000,1.000000,0.925345,0.147474,1.000000
20,0.000107,0.510168,0.937529,0.017410,0.283537,0.089441,0.000000,1.000000,2.000000,1.000000,0.312910,0.000000,0.000000,1.000000,0.925345,0.147474,1.000000
21,0.000051,0.510168,0.821620,0.000000,0.283537,0.089441,0.000000,1.000000,0.000000,1.000000,0.145214,0.000000,0.000000,0.975114,0.639370,0.064009,2.000000
22,0.000019,0.510168,0.937529,0.017410,0.283537,0.000000,0.073852,0.728557,2.000000,1.000000,0.312910,0.000000,0.000000,1.000000,0.925345,0.147474,0.000000
23,0.000000,0.530675,0.772966,0.000000,0.283537,0.089441,0.005380,1.000000,2.000000,1.000000,0.274129,0.021056,0.000000,0.905475,1.000000,0.147474,0.000000
gen, fitness
0,0.030614,0.000000,1.000000,0.210000,0.800000,0.030000,0.030000,1.000000,0.000000,1.000000,0.000000,0.000000,0.600000,1.000000,1.000000,0.000000,0.000000
1,0.030614,0.000000,1.000000,0.210000,0.800000,0.030000,0.030000,1.000000,0.000000,1.000000,0.000000,0.000000,0.600000,1.000000,1.000000,0.000000,0.000000
2,0.015988,0.061430,1.000000,0.210000,0.616529,0.030000,0.030000,0.848471,0.000000,1.000000,0.000000,0.000000,0.600000,1.000000,1.000000,0.000000,2.000000
3,0.009121,0.118590,1.000000,0.210000,0.616529,0.030000,0.077700,0.848471,0.000000,1.000000,0.000000,0.000000,0.505451,1.000000,0.989200,0.000000,2.000000
4,0.008602,0.118590,1.000000,0.210000,0.616529,0.030000,0.077700,0.857767,0.000000,1.000000,0.000000,0.000000,0.505451,1.000000,1.000000,0.000000,0.000000
5,0.004338,0.061430,1.000000,0.000000,0.676099,0.000000,0.030000,0.848471,0.000000,1.000000,0.000000,0.000000,0.358869,1.000000,0.989200,0.006460,2.000000
6,0.001576,0.213226,1.000000,0.225931,0.376729,0.030000,0.108039,0.760060,0.000000,1.000000,0.000000,0.000000,0.299945,1.000000,1.000000,0.000000,2.000000
7,0.001369,0.213226,1.000000,0.225931,0.376729,0.030000,0.108039,0.760060,0.000000,1.000000,0.000000,0.000000,0.278669,1.000000,1.000000,0.000000,2.000000
8,0.000810,0.351647,1.000000,0.225931,0.329919,0.030000,0.108039,0.760060,1.000000,1.000000,0.000000,0.000000,0.278669,0.976745,1.000000,0.059570,0.000000
9,0.000810,0.351647,1.000000,0.225931,0.329919,0.030000,0.108039,0.760060,1.000000,1.000000,0.000000,0.000000,0.278669,0.976745,1.000000,0.059570,0.000000
10,0.000537,0.567637,1.000000,0.225931,0.135434,0.030000,0.108039,0.648048,2.000000,1.000000,0.000000,0.000000,0.278669,0.976745,1.000000,0.059570,0.000000
11,0.000202,0.362642,1.000000,0.123491,0.376729,0.000000,0.000000,0.848471,0.000000,1.000000,0.000000,0.062266,0.161434,1.000000,0.989200,0.011627,2.000000
12,0.000201,0.388008,1.000000,0.123491,0.376729,0.030000,0.000000,0.542392,0.000000,0.994826,0.118386,0.000000,0.270412,0.691989,1.000000,0.000000,0.000000
13,0.000050,0.560922,1.000000,0.225931,0.135434,0.000000,0.108039,0.571448,2.000000,0.813251,0.000000,0.000000,0.278669,0.976745,1.000000,0.000000,1.000000
14,0.000031,0.560922,1.000000,0.225931,0.135434,0.000000,0.108039,0.571448,2.000000,0.813251,0.000000,0.000000,0.278669,0.976745,1.000000,0.059570,1.000000
15,0.000012,0.627071,0.872942,0.225931,0.127335,0.000000,0.108039,0.651519,2.000000,0.864677,0.000000,0.000000,0.278669,0.976745,0.973324,0.161226,1.000000
16,0.000003,0.544748,1.000000,0.206151,0.205921,0.030000,0.150131,0.679185,0.000000,0.949724,0.000000,0.000000,0.273323,0.976745,1.000000,0.009869,1.000000
17,0.000003,0.544748,1.000000,0.206151,0.205921,0.030000,0.150131,0.679185,0.000000,0.949724,0.000000,0.000000,0.273323,0.976745,1.000000,0.009869,1.000000
18,0.000000,0.627071,0.855713,0.225931,0.127335,0.000000,0.214589,0.651519,1.000000,0.864677,0.000000,0.000000,0.278669,0.937049,0.973324,0.251569,0.000000
gen, fitness
0,0.009712,0.000000,1.000000,0.210000,0.800000,0.030000,0.030000,1.000000,0.000000,1.000000,0.000000,0.000000,0.600000,1.000000,1.000000,0.000000,0.000000
1,0.009712,0.000000,1.000000,0.210000,0.800000,0.030000,0.030000,1.000000,0.000000,1.000000,0.000000,0.000000,0.600000,1.000000,1.000000,0.000000,0.000000
2,0.000228,0.000000,1.000000,0.210000,0.693941,0.175615,0.030000,1.000000,0.000000,1.000000,0.000000,0.000000,0.600000,1.000000,1.000000,0.000000,0.000000
3,0.000228,0.000000,1.000000,0.210000,0.693941,0.175615,0.030000,1.000000,0.000000,1.000000,0.000000,0.000000,0.600000,1.000000,1.000000,0.000000,0.000000
4,0.000052,0.000000,0.993978,0.210000,0.601780,0.030000,0.024937,0.981542,1.000000,1.000000,0.000000,0.000000,0.513301,1.000000,1.000000,0.000000,0.000000
5,0.000012,0.000000,1.000000,0.234506,0.601780,0.030000,0.024937,1.000000,1.000000,1.000000,0.000000,0.000000,0.513301,1.000000,1.000000,0.000000,0.000000
6,0.000012,0.000000,1.000000,0.234506,0.601780,0.030000,0.024937,1.000000,1.000000,1.000000,0.000000,0.000000,0.513301,1.000000,1.000000,0.000000,0.000000
7,0.000012,0.000000,1.000000,0.234506,0.601780,0.030000,0.024937,1.000000,1.000000,1.000000,0.000000,0.000000,0.513301,1.000000,1.000000,0.000000,0.000000
8,0.000005,0.000000,1.000000,0.234506,0.601780,0.030000,0.024937,1.000000,1.000000,1.000000,0.000000,0.000000,0.513301,1.000000,1.000000,0.000000,1.000000
9,0.000000,0.000000,1.000000,0.244410,0.601780,0.030000,0.000000,0.830866,1.000000,1.000000,0.000000,0.000000,0.513301,1.000000,1.000000,0.000000,2.000000
gen, fitness
0,0.026348,0.000000,1.000000,0.210000,0.800000,0.030000,0.030000,1.000000,0.000000,1.000000,0.000000,0.000000,0.600000,1.000000,1.000000,0.000000,0.000000
1,0.026348,0.000000,1.000000,0.210000,0.800000,0.030000,0.030000,1.000000,0.000000,1.000000,0.000000,0.000000,0.600000,1.000000,1.000000,0.000000,0.000000
2,0.012343,0.000000,0.967802,0.210000,0.658351,0.030000,0.030000,1.000000,0.000000,1.000000,0.000000,0.000000,0.600000,1.000000,1.000000,0.000000,0.000000
3,0.007750,0.000000,0.967802,0.210000,0.658351,0.030000,0.030000,1.000000,0.000000,1.000000,0.000000,0.000000,0.500602,1.000000,1.000000,0.000000,0.000000
4,0.005469,0.000000,1.000000,0.232263,0.566356,0.030000,0.030000,1.000000,2.000000,0.937296,0.000000,0.000000,0.431678,1.000000,0.857010,0.000000,0.000000
5,0.004663,0.000000,1.000000,0.232263,0.566356,0.030000,0.030000,1.000000,0.000000,0.937296,0.000000,0.000000,0.431678,1.000000,0.841896,0.000000,1.000000
6,0.003499,0.000000,0.967802,0.038005,0.658351,0.046844,0.021963,1.000000,1.000000,0.949431,0.000000,0.000000,0.399746,1.000000,0.911955,0.000000,0.000000
7,0.002419,0.000000,1.000000,0.088685,0.613872,0.030000,0.000000,0.996453,1.000000,1.000000,0.000000,0.000000,0.345755,1.000000,1.000000,0.000000,0.000000
8,0.002113,0.000000,1.000000,0.232263,0.496940,0.133600,0.030000,0.987240,1.000000,1.000000,0.000000,0.191768,0.146394,1.000000,0.841896,0.166089,1.000000
9,0.001023,0.000000,1.000000,0.038005,0.581050,0.167904,0.021963,0.977065,1.000000,0.949431,0.000000,0.000000,0.294103,1.000000,0.911955,0.000000,2.000000
10,0.000787,0.000000,1.000000,0.038005,0.581050,0.167904,0.021963,0.977065,0.000000,0.949431,0.056525,0.070654,0.214067,1.000000,0.911955,0.000000,2.000000
11,0.000054,0.000000,1.000000,0.106734,0.463822,0.133600,0.007232,0.987240,1.000000,1.000000,0.102552,0.024929,0.093641,1.000000,0.841896,0.166089,2.000000
12,0.000000,0.000000,0.925144,0.106734,0.448503,0.133600,0.007232,0.987240,1.000000,1.000000,0.102552,0.024929,0.093641,1.000000,0.841896,0.166089,2.000000
gen, fitness
0,0.052335,0.000000,1.000000,0.210000,0.800000,0.030000,0.030000,1.000000,0.000000,1.000000,0.000000,0.000000,0.600000,1.000000,1.000000,0.000000,0.000000
1,0.052335,0.000000,1.000000,0.210000,0.800000,0.030000,0.030000,1.000000,0.000000,1.000000,0.000000,0.000000,0.600000,1.000000,1.000000,0.000000,0.000000
2,0.029913,0.000000,1.000000,0.210000,0.661802,0.030000,0.030000,0.980693,0.000000,1.000000,0.000000,0.000000,0.585411,1.000000,1.000000,0.000000,0.000000
3,0.027205,0.000000,1.000000,0.210000,0.661802,0.000000,0.030000,0.980693,0.000000,1.000000,0.015904,0.108920,0.479351,1.000000,1.000000,0.000000,0.000000
4,0.020639,0.000000,1.000000,0.110665,0.661802,0.030000,0.030000,0.980693,1.000000,1.000000,0.000000,0.000000,0.496967,1.000000,1.000000,0.000000,0.000000
5,0.014634,0.000000,1.000000,0.042486,0.661802,0.030000,0.030000,0.980693,0.000000,1.000000,0.000000,0.032732,0.409252,1.000000,1.000000,0.000000,0.000000
6,0.010949,0.188982,0.899678,0.011876,0.661802,0.000000,0.030000,0.980693,0.000000,1.000000,0.000000,0.032732,0.409252,0.993517,1.000000,0.017210,0.000000
7,0.008142,0.042197,1.000000,0.036991,0.574986,0.000000,0.149285,0.893489,0.000000,0.899819,0.000000,0.000000,0.326797,0.863946,1.000000,0.000000,1.000000
8,0.005172,0.249125,0.950860,0.036991,0.529096,0.207492,0.011280,0.893489,0.000000,0.899819,0.000000,0.000000,0.334519,0.863946,1.000000,0.000000,0.000000
9,0.004239,0.129298,1.000000,0.036991,0.529096,0.207492,0.135203,0.893489,0.000000,0.919930,0.000000,0.000000,0.186381,0.993517,1.000000,0.025926,1.000000
10,0.002821,0.224675,1.000000,0.099755,0.398066,0.174971,0.030000,0.959505,0.000000,0.868996,0.000000,0.032732,0.127672,0.961133,1.000000,0.000000,2.000000
11,0.001070,0.224675,1.000000,0.027344,0.398066,0.095120,0.030000,0.959505,1.000000,0.868996,0.000000,0.032732,0.127672,0.961133,1.000000,0.000000,0.000000
12,0.001065,0.224675,1.000000,0.027344,0.398066,0.095120,0.030000,0.959505,1.000000,0.868996,0.000000,0.032732,0.127672,0.976416,1.000000,0.000000,0.000000
13,0.000470,0.129298,1.000000,0.000000,0.398066,0.115070,0.030000,0.760577,2.000000,0.868996,0.000000,0.032732,0.046084,0.961133,1.000000,0.000000,0.000000
14,0.000213,0.129298,1.000000,0.000000,0.398066,0.064488,0.030000,0.563463,2.000000,0.868996,0.000000,0.000000,0.027272,0.961133,1.000000,0.000000,0.000000
15,0.000096,0.129298,1.000000,0.000000,0.398066,0.064488,0.030000,0.563463,0.000000,0.868996,0.000000,0.000000,0.027272,0.961133,1.000000,0.000000,1.000000
16,0.000079,0.224675,1.000000,0.000000,0.408463,0.269392,0.030000,0.833790,1.000000,1.000000,0.053856,0.000000,0.056531,0.961133,1.000000,0.000000,0.000000
17,0.000015,0.129298,1.000000,0.000000,0.397881,0.115070,0.000000,0.651365,2.000000,0.987252,0.012835,0.000000,0.000000,0.961133,1.000000,0.000000,1.000000
18,0.000015,0.129298,1.000000,0.000000,0.397881,0.033178,0.000000,0.651365,2.000000,0.987252,0.012835,0.000000,0.000000,0.961133,1.000000,0.000000,1.000000
19,0.000013,0.224675,1.000000,0.014567,0.372578,0.287862,0.030000,0.959505,0.000000,1.000000,0.021345,0.032732,0.002828,1.000000,1.000000,0.051650,0.000000
20,0.000011,0.129298,1.000000,0.000000,0.397881,0.115070,0.000000,0.596718,2.000000,0.971011,0.012835,0.000000,0.000000,0.961133,1.000000,0.000000,0.000000
21,0.000005,0.129298,1.000000,0.000000,0.397881,0.115070,0.000000,0.596718,0.000000,0.971011,0.012835,0.000000,0.000000,0.961133,1.000000,0.000000,0.000000
22,0.000005,0.129298,1.000000,0.000000,0.397881,0.115070,0.000000,0.596718,0.000000,0.971011,0.012835,0.000000,0.000000,0.961133,1.000000,0.000000,0.000000
23,0.000001,0.129298,1.000000,0.000000,0.397881,0.097572,0.000000,0.651365,0.000000,0.964684,0.044235,0.000000,0.000000,1.000000,1.000000,0.000000,0.000000
gen, fitness
0,0.080636,0.000000,1.000000,0.210000,0.800000,0.030000,0.030000,1.000000,0.000000,1.000000,0.000000,0.000000,0.600000,1.000000,1.000000,0.000000,0.000000
1,0.080636,0.000000,1.000000,0.210000,0.800000,0.030000,0.030000,1.000000,0.000000,1.000000,0.000000,0.000000,0.600000,1.000000,1.000000,0.000000,0.000000
2,0.047907,0.044614,1.000000,0.210000,0.625142,0.030000,0.030000,0.887429,0.000000,1.000000,0.000000,0.000000,0.600000,1.000000,0.905600,0.000000,0.000000
3,0.046907,0.149912,1.000000,0.210000,0.579341,0.030000,0.030000,1.000000,0.000000,1.000000,0.000000,0.000000,0.600000,1.000000,1.000000,0.000000,2.000000
4,0.036234,0.149912,1.000000,0.210000,0.579341,0.030000,0.030000,1.000000,0.000000,1.000000,0.000000,0.000000,0.397500,1.000000,1.000000,0.000000,1.000000
5,0.034846,0.149912,1.000000,0.196651,0.579341,0.030000,0.030000,1.000000,0.000000,1.000000,0.000000,0.000000,0.397500,1.000000,1.000000,0.000000,1.000000
6,0.022832,0.022243,1.000000,0.004588,0.579341,0.155683,0.030000,0.951613,0.000000,1.000000,0.000000,0.000000,0.364046,1.000000,0.921100,0.000000,1.000000
7,0.022764,0.022243,1.000000,0.004588,0.579341,0.155683,0.030000,0.933158,0.000000,1.000000,0.000000,0.000000,0.364046,1.000000,0.921100,0.000000,1.000000
8,0.019909,0.022243,0.927304,0.004588,0.579341,0.155683,0.030000,0.951613,0.000000,1.000000,0.000000,0.000000,0.308613,1.000000,0.921100,0.000000,2.000000
9,0.012965,0.218543,0.865862,0.087279,0.432800,0.140135,0.089712,0.942602,1.000000,1.000000,0.000000,0.000000,0.249814,1.000000,0.894118,0.145845,1.000000
10,0.009804,0.191384,1.000000,0.000000,0.432800,0.155683,0.000000,0.933158,0.000000,1.000000,0.000000,0.000000,0.246154,1.000000,0.921100,0.000000,1.000000
11,0.009634,0.191384,1.000000,0.000000,0.432800,0.155683,0.000000,0.933158,0.000000,1.000000,0.000000,0.000000,0.246154,1.000000,0.921100,0.000000,0.000000
12,0.007740,0.191384,1.000000,0.069251,0.391532,0.155683,0.025959,0.973319,1.000000,1.000000,0.103873,0.000000,0.126909,1.000000,0.952696,0.000000,2.000000
13,0.001713,0.191384,1.000000,0.036024,0.310671,0.155683,0.030000,0.746310,0.000000,1.000000,0.000000,0.000000,0.000000,0.865271,0.921100,0.000000,0.000000
14,0.001713,0.191384,1.000000,0.036024,0.310671,0.155683,0.030000,0.746310,0.000000,1.000000,0.000000,0.000000,0.000000,0.865271,0.921100,0.000000,0.000000
15,0.000724,0.260458,1.000000,0.036024,0.250538,0.155683,0.030000,0.746310,0.000000,1.000000,0.000000,0.000000,0.000000,0.865271,0.921100,0.000000,0.000000
16,0.000677,0.260458,1.000000,0.036024,0.250538,0.155683,0.030000,0.651207,0.000000,1.000000,0.000000,0.000000,0.000000,0.865271,1.000000,0.000000,0.000000
17,0.000646,0.369911,0.983956,0.000000,0.235588,0.123289,0.214633,0.880298,1.000000,0.958075,0.103873,0.001986,0.040431,0.908914,0.763530,0.000000,1.000000
18,0.000491,0.302397,0.935555,0.000000,0.252330,0.155683,0.030000,0.651207,1.000000,1.000000,0.000000,0.000000,0.000000,0.865271,1.000000,0.000000,0.000000
19,0.000136,0.370074,1.000000,0.000000,0.250538,0.155683,0.030000,0.746310,0.000000,1.000000,0.124671,0.000000,0.000000,0.998628,0.921100,0.000000,0.000000
20,0.000068,0.414357,0.983956,0.000000,0.235588,0.155683,0.030000,0.631073,1.000000,1.000000,0.000000,0.000000,0.000000,0.778847,1.000000,0.000000,1.000000
21,0.000060,0.414357,0.947341,0.000000,0.252330,0.050572,0.030000,0.656805,0.000000,1.000000,0.124671,0.000000,0.000000,0.995440,0.921100,0.000000,0.000000
22,0.000034,0.494405,0.990132,0.000000,0.202391,0.152835,0.000000,0.746310,2.000000,0.977407,0.000000,0.000000,0.000000,0.968382,1.000000,0.000000,2.000000
23,0.000020,0.494405,0.990132,0.000000,0.202391,0.152835,0.000000,0.668809,2.000000,1.000000,0.000000,0.000000,0.000000,1.000000,0.826184,0.093773,1.000000
24,0.000001,0.494405,0.872860,0.000000,0.202391,0.152835,0.168023,0.668809,2.000000,1.000000,0.000000,0.000000,0.000000,1.000000,0.826184,0.005938,0.000000
gen, fitness
0,0.025383,0.000000,1.000000,0.210000,0.800000,0.030000,0.030000,1.000000,0.000000,1.000000,0.000000,0.000000,0.600000,1.000000,1.000000,0.000000,0.000000
1,0.025383,0.000000,1.000000,0.210000,0.800000,0.030000,0.030000,1.000000,0.000000,1.000000,0.000000,0.000000,0.600000,1.000000,1.000000,0.000000,0.000000
2,0.008537,0.000000,1.000000,0.210000,0.640680,0.030000,0.030000,1.000000,0.000000,1.000000,0.000000,0.000000,0.553109,1.000000,0.905073,0.000000,0.000000
3,0.008537,0.000000,1.000000,0.210000,0.640680,0.030000,0.030000,1.000000,0.000000,1.000000,0.000000,0.000000,0.553109,1.000000,0.905073,0.000000,0.000000
4,0.007680,0.108922,1.000000,0.114270,0.638321,0.030000,0.030000,1.000000,0.000000,1.000000,0.000000,0.000000,0.544034,1.000000,1.000000,0.000000,2.000000
5,0.006197,0.000000,0.925871,0.128830,0.576994,0.030000,0.020479,0.782361,1.000000,1.000000,0.000000,0.000000,0.454985,1.000000,0.972093,0.000000,2.000000
6,0.006197,0.000000,0.925871,0.128830,0.576994,0.030000,0.020479,0.782361,1.000000,1.000000,0.000000,0.000000,0.454985,1.000000,0.972093,0.000000,2.000000
7,0.005324,0.289729,1.000000,0.114270,0.638321,0.030000,0.000000,1.000000,0.000000,1.000000,0.000000,0.000000,0.484752,1.000000,1.000000,0.000000,1.000000
8,0.003447,0.107273,0.953415,0.014795,0.653899,0.039324,0.030000,0.775671,1.000000,0.940213,0.000000,0.000000,0.409889,0.975043,1.000000,0.000000,1.000000
9,0.003119,0.107273,0.953415,0.014795,0.653899,0.039324,0.030000,0.775671,1.000000,0.993415,0.000000,0.000000,0.409889,0.975043,1.000000,0.000000,1.000000
10,0.002334,0.233671,0.872462,0.000000,0.565252,0.030000,0.000000,1.000000,0.000000,0.844535,0.000000,0.025831,0.409889,0.975043,1.000000,0.000000,1.000000
11,0.001235,0.490005,0.768436,0.043361,0.490495,0.000000,0.119325,0.938683,0.000000,0.964503,0.000000,0.000000,0.439740,1.000000,0.836556,0.108106,0.000000
12,0.000968,0.490005,0.768436,0.043361,0.490495,0.000000,0.119325,0.938683,0.000000,0.964503,0.000000,0.000000,0.439740,1.000000,0.836556,0.001892,0.000000
13,0.000654,0.657468,0.768436,0.000000,0.359197,0.000000,0.119325,0.937464,2.000000,1.000000,0.038815,0.000000,0.304482,1.000000,0.950581,0.000000,1.000000
14,0.000315,0.761101,0.588405,0.000000,0.359197,0.000000,0.119325,0.938683,0.000000,0.876977,0.012286,0.000000,0.391645,1.000000,0.836556,0.108106,1.000000
15,0.000048,0.761101,0.660897,0.000000,0.398038,0.051918,0.119325,0.938683,0.000000,0.876977,0.012286,0.000000,0.391645,1.000000,0.836556,0.290841,1.000000
16,0.000048,0.761101,0.660897,0.000000,0.398038,0.051918,0.119325,0.938683,0.000000,0.876977,0.012286,0.000000,0.391645,1.000000,0.836556,0.290841,1.000000
17,0.000012,0.787131,0.660897,0.000000,0.398038,0.051918,0.119325,1.000000,0.000000,0.876977,0.012286,0.000000,0.391645,1.000000,0.836556,0.290841,1.000000
18,0.000008,0.743858,0.455087,0.000000,0.381445,0.000000,0.199242,0.910232,2.000000,0.842258,0.073341,0.000000,0.391645,1.000000,0.836556,0.091626,0.000000
19,0.000003,0.761101,0.741494,0.037868,0.359197,0.000000,0.000000,0.938683,1.000000,0.830138,0.012286,0.032958,0.391645,1.000000,0.836556,0.108106,0.000000
20,0.000003,0.761101,0.741494,0.037868,0.359197,0.000000,0.000000,0.938683,1.000000,0.830138,0.012286,0.032958,0.391645,1.000000,0.836556,0.108106,0.000000
21,0.000003,0.761101,0.789745,0.037868,0.359197,0.000000,0.000000,0.938683,1.000000,0.830138,0.012286,0.032958,0.391645,1.000000,0.836556,0.108106,0.000000
22,0.000000,0.940749,0.744951,0.000000,0.398038,0.000000,0.046542,0.962773,2.000000,0.876977,0.000000,0.000000,0.459271,1.000000,0.908505,0.290841,1.000000
