gen, fitness
0,0.013430,0.000000,1.000000,0.210000,0.800000,0.030000,0.030000,1.000000,0.000000,1.000000,0.000000,0.000000,0.600000,1.000000,1.000000,0.000000,0.000000
1,0.013430,0.000000,1.000000,0.210000,0.800000,0.030000,0.030000,1.000000,0.000000,1.000000,0.000000,0.000000,0.600000,1.000000,1.000000,0.000000,0.000000
2,0.000268,0.000000,1.000000,0.179630,0.681540,0.000000,0.050275,0.874232,1.000000,0.880664,0.070233,0.000000,0.623812,0.958129,0.980900,0.000000,2.000000
3,0.000153,0.104501,1.000000,0.087645,0.706180,0.389871,0.090678,1.000000,1.000000,0.977092,0.110842,0.000000,0.581853,0.820299,0.870861,0.111224,0.000000
4,0.000153,0.104501,1.000000,0.087645,0.706180,0.389871,0.090678,1.000000,1.000000,0.977092,0.110842,0.000000,0.581853,0.820299,0.870861,0.111224,0.000000
5,0.000045,0.032808,1.000000,0.276141,0.592528,0.000000,0.000000,1.000000,2.000000,0.862731,0.000000,0.063647,0.570290,1.000000,1.000000,0.000000,0.000000
6,0.000045,0.032808,1.000000,0.276141,0.592528,0.000000,0.000000,1.000000,2.000000,0.862731,0.000000,0.063647,0.570290,1.000000,1.000000,0.000000,0.000000
7,0.000001,0.034868,1.000000,0.276272,0.570408,0.000000,0.224620,1.000000,2.000000,0.855106,0.213690,0.097580,0.529931,0.878045,1.000000,0.000000,0.000000
8,0.000001,0.034868,1.000000,0.276272,0.570408,0.000000,0.224620,1.000000,2.000000,0.855106,0.213690,0.097580,0.529931,0.878045,1.000000,0.000000,0.000000
9,0.000001,0.034868,1.000000,0.276272,0.570408,0.000000,0.224620,1.000000,2.000000,0.855106,0.213690,0.097580,0.529931,0.878045,1.000000,0.000000,0.000000
10,0.000001,0.034868,1.000000,0.276272,0.570408,0.000000,0.224620,1.000000,2.000000,0.855106,0.213690,0.097580,0.529931,0.878045,1.000000,0.000000,0.000000
11,0.000001,0.034868,1.000000,0.276272,0.570408,0.000000,0.224620,1.000000,2.000000,0.855106,0.213690,0.097580,0.529931,0.878045,1.000000,0.000000,0.000000
12,0.000001,0.034868,1.000000,0.276272,0.570408,0.000000,0.224620,1.000000,2.000000,0.855106,0.213690,0.097580,0.529931,0.878045,1.000000,0.000000,0.000000
13,0.000001,0.034868,1.000000,0.276272,0.570408,0.000000,0.224620,1.000000,2.000000,0.855106,0.213690,0.097580,0.529931,0.878045,1.000000,0.000000,0.000000
14,0.000001,0.034868,1.000000,0.276272,0.570408,0.000000,0.224620,1.000000,2.000000,0.855106,0.213690,0.097580,0.529931,0.878045,1.000000,0.000000,0.000000
15,0.000001,0.034868,1.000000,0.276272,0.570408,0.000000,0.224620,1.000000,2.000000,0.855106,0.213690,0.097580,0.529931,0.878045,1.000000,0.000000,0.000000
16,0.000001,0.034868,1.000000,0.276272,0.570408,0.000000,0.224620,1.000000,2.000000,0.855106,0.213690,0.097580,0.529931,0.878045,1.000000,0.000000,0.000000
17,0.000001,0.034868,1.000000,0.276272,0.570408,0.000000,0.224620,1.000000,2.000000,0.855106,0.213690,0.097580,0.529931,0.878045,1.000000,0.000000,0.000000
gen, fitness
0,0.034276,0.000000,1.000000,0.210000,0.800000,0.030000,0.030000,1.000000,0.000000,1.000000,0.000000,0.000000,0.600000,1.000000,1.000000,0.000000,0.000000
1,0.034276,0.000000,1.000000,0.210000,0.800000,0.030000,0.030000,1.000000,0.000000,1.000000,0.000000,0.000000,0.600000,1.000000,1.000000,0.000000,0.000000
2,0.012019,0.000000,1.000000,0.193306,0.864621,0.000000,0.000000,0.957321,2.000000,1.000000,0.052950,0.000000,0.817425,1.000000,1.000000,0.000000,2.000000
3,0.012019,0.000000,1.000000,0.193306,0.864621,0.000000,0.000000,0.957321,2.000000,1.000000,0.052950,0.000000,0.817425,1.000000,1.000000,0.000000,2.000000
4,0.007757,0.044511,0.805839,0.111500,0.949682,0.154423,0.000000,0.818285,0.000000,0.557206,0.000000,0.043299,0.912000,1.000000,0.921816,0.035389,1.000000
5,0.004050,0.039443,1.000000,0.030193,1.000000,0.000000,0.000000,1.000000,2.000000,0.831272,0.044877,0.298446,0.918480,0.824165,0.766015,0.000000,1.000000
6,0.003309,0.162278,0.772959,0.228124,1.000000,0.213496,0.029025,0.815504,0.000000,0.977534,0.215523,0.176676,0.986376,0.778560,1.000000,0.488460,2.000000
7,0.002334,0.000000,0.942318,0.332980,1.000000,0.000000,0.000000,0.911593,2.000000,0.906510,0.000000,0.221008,1.000000,1.000000,1.000000,0.048036,2.000000
8,0.002334,0.000000,0.942318,0.332980,1.000000,0.000000,0.000000,0.911593,2.000000,0.906510,0.000000,0.221008,1.000000,1.000000,1.000000,0.048036,2.000000
9,0.002334,0.000000,0.942318,0.332980,1.000000,0.000000,0.000000,0.911593,2.000000,0.906510,0.000000,0.221008,1.000000,1.000000,1.000000,0.048036,2.000000
10,0.002267,0.013429,1.000000,0.326260,1.000000,0.116799,0.000000,0.961242,2.000000,0.842571,0.282342,0.224153,1.000000,1.000000,0.785777,0.178881,2.000000
11,0.002267,0.013429,1.000000,0.326260,1.000000,0.116799,0.000000,0.961242,2.000000,0.842571,0.282342,0.224153,1.000000,1.000000,0.785777,0.178881,2.000000
12,0.001649,0.110784,0.628903,0.436510,1.000000,0.134615,0.492252,0.528550,2.000000,0.778213,0.068868,0.472082,1.000000,0.973135,0.854001,0.532070,2.000000
13,0.001482,0.073469,0.785397,0.388876,1.000000,0.391182,0.650356,0.823591,2.000000,0.769698,0.107681,0.561614,0.970976,0.819550,1.000000,0.500993,2.000000
14,0.001169,0.001203,0.663233,0.494752,1.000000,0.049860,0.363221,0.753072,2.000000,0.624007,0.102395,0.536201,1.000000,1.000000,0.932909,0.582605,2.000000
15,0.001169,0.001203,0.663233,0.494752,1.000000,0.049860,0.363221,0.753072,2.000000,0.624007,0.102395,0.536201,1.000000,1.000000,0.932909,0.582605,2.000000
16,0.001106,0.181806,1.000000,0.629623,1.000000,0.000000,0.200418,1.000000,1.000000,0.628483,0.000000,0.753724,1.000000,0.681691,0.992468,0.347113,2.000000
17,0.001106,0.181806,1.000000,0.629623,1.000000,0.000000,0.200418,1.000000,1.000000,0.628483,0.000000,0.753724,1.000000,0.681691,0.992468,0.347113,2.000000
18,0.001106,0.181806,1.000000,0.629623,1.000000,0.000000,0.200418,1.000000,1.000000,0.628483,0.000000,0.753724,1.000000,0.681691,0.992468,0.347113,2.000000
19,0.001017,0.035284,0.795222,0.714338,1.000000,0.000000,0.148929,0.708662,1.000000,0.617398,0.000000,0.815896,1.000000,0.633175,0.905692,0.396293,2.000000
20,0.000905,0.098598,0.900966,0.621596,1.000000,0.084776,0.180434,0.738783,1.000000,0.712029,0.392936,0.817670,1.000000,0.981888,0.886201,0.814431,2.000000
21,0.000905,0.098598,0.900966,0.621596,1.000000,0.084776,0.180434,0.738783,1.000000,0.712029,0.392936,0.817670,1.000000,0.981888,0.886201,0.814431,2.000000
22,0.000905,0.098598,0.900966,0.621596,1.000000,0.084776,0.180434,0.738783,1.000000,0.712029,0.392936,0.817670,1.000000,0.981888,0.886201,0.814431,2.000000
23,0.000905,0.098598,0.900966,0.621596,1.000000,0.084776,0.180434,0.738783,1.000000,0.712029,0.392936,0.817670,1.000000,0.981888,0.886201,0.814431,2.000000
24,0.000905,0.098598,0.900966,0.621596,1.000000,0.084776,0.180434,0.738783,1.000000,0.712029,0.392936,0.817670,1.000000,0.981888,0.886201,0.814431,2.000000
25,0.000835,0.022269,0.768323,0.645094,1.000000,0.000000,0.247583,0.651607,2.000000,0.470100,0.484539,1.000000,1.000000,0.950276,0.957879,0.805149,1.000000
26,0.000835,0.022269,0.768323,0.645094,1.000000,0.000000,0.247583,0.651607,2.000000,0.470100,0.484539,1.000000,1.000000,0.950276,0.957879,0.805149,1.000000
27,0.000751,0.000000,0.853284,0.711192,1.000000,0.047942,0.046392,0.666152,0.000000,0.362999,0.428412,1.000000,1.000000,1.000000,0.998931,0.787324,2.000000
28,0.000751,0.000000,0.853284,0.711192,1.000000,0.047942,0.046392,0.666152,0.000000,0.362999,0.428412,1.000000,1.000000,1.000000,0.998931,0.787324,2.000000
29,0.000751,0.000000,0.853284,0.711192,1.000000,0.047942,0.046392,0.666152,0.000000,0.362999,0.428412,1.000000,1.000000,1.000000,0.998931,0.787324,2.000000
30,0.000731,0.000000,0.682261,0.674334,1.000000,0.000000,0.153750,0.712116,0.000000,0.346348,0.411377,1.000000,1.000000,0.968758,0.943644,0.895457,2.000000
31,0.000731,0.000000,0.682261,0.674334,1.000000,0.000000,0.153750,0.712116,0.000000,0.346348,0.411377,1.000000,1.000000,0.968758,0.943644,0.895457,2.000000
32,0.000731,0.000000,0.682261,0.674334,1.000000,0.000000,0.153750,0.712116,0.000000,0.346348,0.411377,1.000000,1.000000,0.968758,0.943644,0.895457,2.000000
33,0.000731,0.000000,0.682261,0.674334,1.000000,0.000000,0.153750,0.712116,0.000000,0.346348,0.411377,1.000000,1.000000,0.968758,0.943644,0.895457,2.000000
34,0.000731,0.000000,0.682261,0.674334,1.000000,0.000000,0.153750,0.712116,0.000000,0.346348,0.411377,1.000000,1.000000,0.968758,0.943644,0.895457,2.000000
35,0.000731,0.000000,0.682261,0.674334,1.000000,0.000000,0.153750,0.712116,0.000000,0.346348,0.411377,1.000000,1.000000,0.968758,0.943644,0.895457,2.000000
36,0.000725,0.108072,1.000000,0.643431,1.000000,0.025369,0.244774,0.541485,1.000000,0.515339,0.264099,1.000000,1.000000,0.890590,0.865872,0.828233,2.000000
37,0.000604,0.012879,0.757683,1.000000,1.000000,0.353039,0.030748,0.979668,2.000000,0.944935,0.156806,1.000000,1.000000,0.834860,0.809622,0.875308,2.000000
38,0.000604,0.012879,0.757683,1.000000,1.000000,0.353039,0.030748,0.979668,2.000000,0.944935,0.156806,1.000000,1.000000,0.834860,0.809622,0.875308,2.000000
39,0.000546,0.000000,0.776389,0.974555,1.000000,0.677013,0.000000,1.000000,2.000000,1.000000,0.263260,0.982875,1.000000,0.777388,0.857755,0.981085,2.000000
40,0.000546,0.000000,0.776389,0.974555,1.000000,0.677013,0.000000,1.000000,2.000000,1.000000,0.263260,0.982875,1.000000,0.777388,0.857755,0.981085,2.000000
41,0.000546,0.000000,0.776389,0.974555,1.000000,0.677013,0.000000,1.000000,2.000000,1.000000,0.263260,0.982875,1.000000,0.777388,0.857755,0.981085,2.000000
42,0.000546,0.000000,0.776389,0.974555,1.000000,0.677013,0.000000,1.000000,2.000000,1.000000,0.263260,0.982875,1.000000,0.777388,0.857755,0.981085,2.000000
43,0.000546,0.000000,0.776389,0.974555,1.000000,0.677013,0.000000,1.000000,2.000000,1.000000,0.263260,0.982875,1.000000,0.777388,0.857755,0.981085,2.000000
44,0.000546,0.000000,0.776389,0.974555,1.000000,0.677013,0.000000,1.000000,2.000000,1.000000,0.263260,0.982875,1.000000,0.777388,0.857755,0.981085,2.000000
45,0.000546,0.000000,0.776389,0.974555,1.000000,0.677013,0.000000,1.000000,2.000000,1.000000,0.263260,0.982875,1.000000,0.777388,0.857755,0.981085,2.000000
46,0.000546,0.000000,0.776389,0.974555,1.000000,0.677013,0.000000,1.000000,2.000000,1.000000,0.263260,0.982875,1.000000,0.777388,0.857755,0.981085,2.000000
47,0.000546,0.000000,0.776389,0.974555,1.000000,0.677013,0.000000,1.000000,2.000000,1.000000,0.263260,0.982875,1.000000,0.777388,0.857755,0.981085,2.000000
48,0.000546,0.000000,0.776389,0.974555,1.000000,0.677013,0.000000,1.000000,2.000000,1.000000,0.263260,0.982875,1.000000,0.777388,0.857755,0.981085,2.000000
49,0.000546,0.000000,0.776389,0.974555,1.000000,0.677013,0.000000,1.000000,2.000000,1.000000,0.263260,0.982875,1.000000,0.777388,0.857755,0.981085,2.000000
gen, fitness
0,0.044384,0.000000,1.000000,0.210000,0.800000,0.030000,0.030000,1.000000,0.000000,1.000000,0.000000,0.000000,0.600000,1.000000,1.000000,0.000000,0.000000
1,0.044384,0.000000,1.000000,0.210000,0.800000,0.030000,0.030000,1.000000,0.000000,1.000000,0.000000,0.000000,0.600000,1.000000,1.000000,0.000000,0.000000
2,0.019837,0.000000,1.000000,0.224888,0.866048,0.000000,0.090263,1.000000,2.000000,1.000000,0.000000,0.214052,0.767451,1.000000,0.854803,0.000000,2.000000
3,0.018962,0.021720,0.931668,0.222751,0.895130,0.229074,0.072036,0.971463,0.000000,0.834637,0.104304,0.000000,0.857954,0.896915,1.000000,0.215738,0.000000
4,0.013932,0.017208,1.000000,0.490395,0.925712,0.223261,0.029081,0.958272,0.000000,0.833900,0.025799,0.146827,0.914598,0.978834,1.000000,0.000000,1.000000
5,0.013932,0.017208,1.000000,0.490395,0.925712,0.223261,0.029081,0.958272,0.000000,0.833900,0.025799,0.146827,0.914598,0.978834,1.000000,0.000000,1.000000
6,0.010336,0.167710,0.648834,0.551988,0.999822,0.238725,0.148002,1.000000,0.000000,0.983594,0.000000,0.270551,0.981855,1.000000,0.724277,0.000000,2.000000
7,0.009664,0.078534,0.535386,0.682606,1.000000,0.210221,0.228790,0.974920,1.000000,1.000000,0.078779,0.377260,1.000000,1.000000,0.689573,0.000000,1.000000
8,0.008494,0.161360,0.596395,0.924882,1.000000,0.225270,0.218384,0.920072,2.000000,1.000000,0.000000,0.397691,1.000000,0.858528,0.733511,0.086254,2.000000
9,0.008458,0.266112,0.477302,0.895134,1.000000,0.077304,0.408141,1.000000,2.000000,1.000000,0.012970,0.567100,1.000000,0.703040,0.804555,0.399973,1.000000
10,0.007983,0.077684,0.633420,1.000000,1.000000,0.000000,0.225326,1.000000,1.000000,1.000000,0.000000,0.549221,1.000000,0.871966,0.868193,0.400885,2.000000
11,0.007983,0.077684,0.633420,1.000000,1.000000,0.000000,0.225326,1.000000,1.000000,1.000000,0.000000,0.549221,1.000000,0.871966,0.868193,0.400885,2.000000
12,0.007983,0.077684,0.633420,1.000000,1.000000,0.000000,0.225326,1.000000,1.000000,1.000000,0.000000,0.549221,1.000000,0.871966,0.868193,0.400885,2.000000
13,0.007667,0.068280,0.242163,0.852075,1.000000,0.000000,0.539748,1.000000,2.000000,0.950538,0.000000,0.734937,1.000000,0.967475,0.843750,0.326438,2.000000
14,0.007667,0.068280,0.242163,0.852075,1.000000,0.000000,0.539748,1.000000,2.000000,0.950538,0.000000,0.734937,1.000000,0.967475,0.843750,0.326438,2.000000
15,0.007667,0.068280,0.242163,0.852075,1.000000,0.000000,0.539748,1.000000,2.000000,0.950538,0.000000,0.734937,1.000000,0.967475,0.843750,0.326438,2.000000
16,0.007615,0.000000,0.606940,1.000000,1.000000,0.000000,0.389622,0.963166,1.000000,0.972951,0.000000,0.926139,1.000000,0.959260,0.929837,0.321515,2.000000
17,0.007615,0.000000,0.606940,1.000000,1.000000,0.000000,0.389622,0.963166,1.000000,0.972951,0.000000,0.926139,1.000000,0.959260,0.929837,0.321515,2.000000
18,0.007452,0.156434,0.351979,0.989555,1.000000,0.130748,0.415323,0.868318,2.000000,0.753957,0.000000,0.783184,1.000000,0.681617,0.271601,0.876573,2.000000
19,0.007346,0.273316,1.000000,1.000000,0.974418,0.082937,0.200280,1.000000,2.000000,0.737726,0.037708,0.926123,1.000000,0.733233,0.799772,0.469516,2.000000
20,0.007346,0.273316,1.000000,1.000000,0.974418,0.082937,0.200280,1.000000,2.000000,0.737726,0.037708,0.926123,1.000000,0.733233,0.799772,0.469516,2.000000
21,0.007346,0.273316,1.000000,1.000000,0.974418,0.082937,0.200280,1.000000,2.000000,0.737726,0.037708,0.926123,1.000000,0.733233,0.799772,0.469516,2.000000
22,0.007346,0.273316,1.000000,1.000000,0.974418,0.082937,0.200280,1.000000,2.000000,0.737726,0.037708,0.926123,1.000000,0.733233,0.799772,0.469516,2.000000
23,0.007279,0.177024,0.797811,0.792504,1.000000,0.057258,0.250025,0.885406,2.000000,0.460028,0.000000,1.000000,1.000000,0.764413,0.808291,0.550544,2.000000
24,0.007099,0.000000,0.311850,0.978467,1.000000,0.405717,0.227599,0.741866,2.000000,0.836754,0.015998,0.967914,1.000000,0.778418,0.246399,0.747335,2.000000
25,0.007099,0.000000,0.311850,0.978467,1.000000,0.405717,0.227599,0.741866,2.000000,0.836754,0.015998,0.967914,1.000000,0.778418,0.246399,0.747335,2.000000
26,0.007039,0.039311,0.393774,0.931443,1.000000,0.000000,0.618663,0.997083,2.000000,0.910633,0.154935,0.885252,1.000000,0.617048,0.277850,1.000000,2.000000
27,0.007039,0.039311,0.393774,0.931443,1.000000,0.000000,0.618663,0.997083,2.000000,0.910633,0.154935,0.885252,1.000000,0.617048,0.277850,1.000000,2.000000
28,0.007039,0.039311,0.393774,0.931443,1.000000,0.000000,0.618663,0.997083,2.000000,0.910633,0.154935,0.885252,1.000000,0.617048,0.277850,1.000000,2.000000
29,0.006910,0.000000,0.456906,1.000000,1.000000,0.041760,0.372494,1.000000,2.000000,1.000000,0.000000,1.000000,1.000000,1.000000,0.793360,0.771071,2.000000
30,0.006910,0.000000,0.456906,1.000000,1.000000,0.041760,0.372494,1.000000,2.000000,1.000000,0.000000,1.000000,1.000000,1.000000,0.793360,0.771071,2.000000
31,0.006910,0.000000,0.456906,1.000000,1.000000,0.041760,0.372494,1.000000,2.000000,1.000000,0.000000,1.000000,1.000000,1.000000,0.793360,0.771071,2.000000
32,0.006910,0.000000,0.456906,1.000000,1.000000,0.041760,0.372494,1.000000,2.000000,1.000000,0.000000,1.000000,1.000000,1.000000,0.793360,0.771071,2.000000
33,0.006910,0.000000,0.456906,1.000000,1.000000,0.041760,0.372494,1.000000,2.000000,1.000000,0.000000,1.000000,1.000000,1.000000,0.793360,0.771071,2.000000
34,0.006799,0.000000,0.592451,1.000000,1.000000,0.053339,0.423455,1.000000,1.000000,0.556522,0.158994,0.990366,1.000000,0.981858,0.113990,0.763551,2.000000
35,0.006799,0.000000,0.592451,1.000000,1.000000,0.053339,0.423455,1.000000,1.000000,0.556522,0.158994,0.990366,1.000000,0.981858,0.113990,0.763551,2.000000
36,0.006799,0.000000,0.592451,1.000000,1.000000,0.053339,0.423455,1.000000,1.000000,0.556522,0.158994,0.990366,1.000000,0.981858,0.113990,0.763551,2.000000
37,0.006799,0.000000,0.592451,1.000000,1.000000,0.053339,0.423455,1.000000,1.000000,0.556522,0.158994,0.990366,1.000000,0.981858,0.113990,0.763551,2.000000
38,0.006799,0.000000,0.592451,1.000000,1.000000,0.053339,0.423455,1.000000,1.000000,0.556522,0.158994,0.990366,1.000000,0.981858,0.113990,0.763551,2.000000
39,0.006799,0.000000,0.592451,1.000000,1.000000,0.053339,0.423455,1.000000,1.000000,0.556522,0.158994,0.990366,1.000000,0.981858,0.113990,0.763551,2.000000
40,0.006799,0.000000,0.592451,1.000000,1.000000,0.053339,0.423455,1.000000,1.000000,0.556522,0.158994,0.990366,1.000000,0.981858,0.113990,0.763551,2.000000
41,0.006799,0.000000,0.592451,1.000000,1.000000,0.053339,0.423455,1.000000,1.000000,0.556522,0.158994,0.990366,1.000000,0.981858,0.113990,0.763551,2.000000
42,0.006666,0.086051,0.142041,0.728833,1.000000,0.097853,0.119443,1.000000,2.000000,0.362002,0.360318,0.911543,1.000000,0.931120,0.210335,1.000000,2.000000
43,0.006666,0.086051,0.142041,0.728833,1.000000,0.097853,0.119443,1.000000,2.000000,0.362002,0.360318,0.911543,1.000000,0.931120,0.210335,1.000000,2.000000
44,0.006666,0.086051,0.142041,0.728833,1.000000,0.097853,0.119443,1.000000,2.000000,0.362002,0.360318,0.911543,1.000000,0.931120,0.210335,1.000000,2.000000
45,0.006545,0.000000,0.551787,0.908055,1.000000,0.000000,0.530407,1.000000,2.000000,0.419002,0.343074,0.998844,1.000000,0.867378,0.000000,0.615507,2.000000
46,0.006545,0.000000,0.551787,0.908055,1.000000,0.000000,0.530407,1.000000,2.000000,0.419002,0.343074,0.998844,1.000000,0.867378,0.000000,0.615507,2.000000
47,0.006545,0.000000,0.551787,0.908055,1.000000,0.000000,0.530407,1.000000,2.000000,0.419002,0.343074,0.998844,1.000000,0.867378,0.000000,0.615507,2.000000
48,0.006503,0.061427,0.188626,0.880424,0.973096,0.133027,0.200819,1.000000,2.000000,0.144796,0.089835,0.970093,1.000000,1.000000,0.530366,0.927461,2.000000
49,0.006503,0.061427,0.188626,0.880424,0.973096,0.133027,0.200819,1.000000,2.000000,0.144796,0.089835,0.970093,1.000000,1.000000,0.530366,0.927461,2.000000
50,0.006503,0.061427,0.188626,0.880424,0.973096,0.133027,0.200819,1.000000,2.000000,0.144796,0.089835,0.970093,1.000000,1.000000,0.530366,0.927461,2.000000
51,0.006503,0.061427,0.188626,0.880424,0.973096,0.133027,0.200819,1.000000,2.000000,0.144796,0.089835,0.970093,1.000000,1.000000,0.530366,0.927461,2.000000
52,0.006503,0.061427,0.188626,0.880424,0.973096,0.133027,0.200819,1.000000,2.000000,0.144796,0.089835,0.970093,1.000000,1.000000,0.530366,0.927461,2.000000
53,0.006503,0.061427,0.188626,0.880424,0.973096,0.133027,0.200819,1.000000,2.000000,0.144796,0.089835,0.970093,1.000000,1.000000,0.530366,0.927461,2.000000
54,0.006503,0.061427,0.188626,0.880424,0.973096,0.133027,0.200819,1.000000,2.000000,0.144796,0.089835,0.970093,1.000000,1.000000,0.530366,0.927461,2.000000
55,0.006503,0.061427,0.188626,0.880424,0.973096,0.133027,0.200819,1.000000,2.000000,0.144796,0.089835,0.970093,1.000000,1.000000,0.530366,0.927461,2.000000
56,0.006503,0.061427,0.188626,0.880424,0.973096,0.133027,0.200819,1.000000,2.000000,0.144796,0.089835,0.970093,1.000000,1.000000,0.530366,0.927461,2.000000
57,0.006503,0.061427,0.188626,0.880424,0.973096,0.133027,0.200819,1.000000,2.000000,0.144796,0.089835,0.970093,1.000000,1.000000,0.530366,0.927461,2.000000
58,0.006503,0.061427,0.188626,0.880424,0.973096,0.133027,0.200819,1.000000,2.000000,0.144796,0.089835,0.970093,1.000000,1.000000,0.530366,0.927461,2.000000
gen, fitness
0,0.006335,0.000000,1.000000,0.210000,0.800000,0.030000,0.030000,1.000000,0.000000,1.000000,0.000000,0.000000,0.600000,1.000000,1.000000,0.000000,0.000000
1,0.006335,0.000000,1.000000,0.210000,0.800000,0.030000,0.030000,1.000000,0.000000,1.000000,0.000000,0.000000,0.600000,1.000000,1.000000,0.000000,0.000000
2,0.000035,0.000000,0.958247,0.234761,0.722345,0.015796,0.134452,1.000000,2.000000,0.950053,0.000000,0.000520,0.631005,1.000000,1.000000,0.153254,2.000000
3,0.000017,0.105273,0.900811,0.132654,0.741618,0.088488,0.059287,1.000000,1.000000,0.782459,0.033983,0.052133,0.636224,1.000000,1.000000,0.214424,1.000000
4,0.000017,0.105273,0.900811,0.132654,0.741618,0.088488,0.059287,1.000000,1.000000,0.782459,0.033983,0.052133,0.636224,1.000000,1.000000,0.214424,1.000000
5,0.000017,0.105273,0.900811,0.132654,0.741618,0.088488,0.059287,1.000000,1.000000,0.782459,0.033983,0.052133,0.636224,1.000000,1.000000,0.214424,1.000000
6,0.000017,0.105273,0.900811,0.132654,0.741618,0.088488,0.059287,1.000000,1.000000,0.782459,0.033983,0.052133,0.636224,1.000000,1.000000,0.214424,1.000000
7,0.000017,0.105273,0.900811,0.132654,0.741618,0.088488,0.059287,1.000000,1.000000,0.782459,0.033983,0.052133,0.636224,1.000000,1.000000,0.214424,1.000000
8,0.000005,0.295190,1.000000,0.107005,0.755172,0.000000,0.000000,0.901560,2.000000,0.834436,0.127674,0.000000,0.689483,0.963282,0.995683,0.373834,1.000000
9,0.000005,0.295190,1.000000,0.107005,0.755172,0.000000,0.000000,0.901560,2.000000,0.834436,0.127674,0.000000,0.689483,0.963282,0.995683,0.373834,1.000000
10,0.000005,0.295190,1.000000,0.107005,0.755172,0.000000,0.000000,0.901560,2.000000,0.834436,0.127674,0.000000,0.689483,0.963282,0.995683,0.373834,1.000000
11,0.000005,0.295190,1.000000,0.107005,0.755172,0.000000,0.000000,0.901560,2.000000,0.834436,0.127674,0.000000,0.689483,0.963282,0.995683,0.373834,1.000000
12,0.000005,0.295190,1.000000,0.107005,0.755172,0.000000,0.000000,0.901560,2.000000,0.834436,0.127674,0.000000,0.689483,0.963282,0.995683,0.373834,1.000000
13,0.000005,0.295190,1.000000,0.107005,0.755172,0.000000,0.000000,0.901560,2.000000,0.834436,0.127674,0.000000,0.689483,0.963282,0.995683,0.373834,1.000000
14,0.000005,0.295190,1.000000,0.107005,0.755172,0.000000,0.000000,0.901560,2.000000,0.834436,0.127674,0.000000,0.689483,0.963282,0.995683,0.373834,1.000000
15,0.000005,0.295190,1.000000,0.107005,0.755172,0.000000,0.000000,0.901560,2.000000,0.834436,0.127674,0.000000,0.689483,0.963282,0.995683,0.373834,1.000000
16,0.000005,0.295190,1.000000,0.107005,0.755172,0.000000,0.000000,0.901560,2.000000,0.834436,0.127674,0.000000,0.689483,0.963282,0.995683,0.373834,1.000000
17,0.000005,0.295190,1.000000,0.107005,0.755172,0.000000,0.000000,0.901560,2.000000,0.834436,0.127674,0.000000,0.689483,0.963282,0.995683,0.373834,1.000000
18,0.000005,0.295190,1.000000,0.107005,0.755172,0.000000,0.000000,0.901560,2.000000,0.834436,0.127674,0.000000,0.689483,0.963282,0.995683,0.373834,1.000000
gen, fitness
0,0.018541,0.000000,1.000000,0.210000,0.800000,0.030000,0.030000,1.000000,0.000000,1.000000,0.000000,0.000000,0.600000,1.000000,1.000000,0.000000,0.000000
1,0.018541,0.000000,1.000000,0.210000,0.800000,0.030000,0.030000,1.000000,0.000000,1.000000,0.000000,0.000000,0.600000,1.000000,1.000000,0.000000,0.000000
2,0.002180,0.036699,0.996511,0.315490,0.844982,0.000000,0.000000,1.000000,1.000000,1.000000,0.027078,0.000000,0.807316,1.000000,1.000000,0.121010,2.000000
3,0.002180,0.036699,0.996511,0.315490,0.844982,0.000000,0.000000,1.000000,1.000000,1.000000,0.027078,0.000000,0.807316,1.000000,1.000000,0.121010,2.000000
4,0.000238,0.000000,0.872245,0.158722,0.979550,0.000000,0.157900,0.871883,1.000000,0.944890,0.000000,0.005452,0.950830,1.000000,0.893861,0.000000,2.000000
5,0.000238,0.000000,0.872245,0.158722,0.979550,0.000000,0.157900,0.871883,1.000000,0.944890,0.000000,0.005452,0.950830,1.000000,0.893861,0.000000,2.000000
6,0.000023,0.297017,0.830077,0.250497,1.000000,0.000000,0.000000,0.855130,2.000000,1.000000,0.000000,0.073678,1.000000,1.000000,0.612037,0.085166,0.000000
7,0.000023,0.297017,0.830077,0.250497,1.000000,0.000000,0.000000,0.855130,2.000000,1.000000,0.000000,0.073678,1.000000,1.000000,0.612037,0.085166,0.000000
8,0.000015,0.317810,0.606902,0.190414,1.000000,0.207057,0.016644,1.000000,2.000000,0.918418,0.000000,0.072900,1.000000,1.000000,0.809104,0.211659,0.000000
9,0.000010,0.372380,0.743572,0.282577,1.000000,0.000000,0.022365,0.857829,0.000000,1.000000,0.000000,0.127112,0.985331,1.000000,0.608920,0.222422,1.000000
10,0.000010,0.372380,0.743572,0.282577,1.000000,0.000000,0.022365,0.857829,0.000000,1.000000,0.000000,0.127112,0.985331,1.000000,0.608920,0.222422,1.000000
11,0.000010,0.372380,0.743572,0.282577,1.000000,0.000000,0.022365,0.857829,0.000000,1.000000,0.000000,0.127112,0.985331,1.000000,0.608920,0.222422,1.000000
12,0.000002,0.265292,0.905046,0.242338,1.000000,0.192135,0.568815,0.752901,1.000000,0.908944,0.200906,0.000000,1.000000,0.888970,0.650054,0.172364,1.000000
13,0.000002,0.265292,0.905046,0.242338,1.000000,0.192135,0.568815,0.752901,1.000000,0.908944,0.200906,0.000000,1.000000,0.888970,0.650054,0.172364,1.000000
14,0.000002,0.265292,0.905046,0.242338,1.000000,0.192135,0.568815,0.752901,1.000000,0.908944,0.200906,0.000000,1.000000,0.888970,0.650054,0.172364,1.000000
15,0.000002,0.265292,0.905046,0.242338,1.000000,0.192135,0.568815,0.752901,1.000000,0.908944,0.200906,0.000000,1.000000,0.888970,0.650054,0.172364,1.000000
16,0.000002,0.265292,0.905046,0.242338,1.000000,0.192135,0.568815,0.752901,1.000000,0.908944,0.200906,0.000000,1.000000,0.888970,0.650054,0.172364,1.000000
gen, fitness
0,0.069293,0.000000,1.000000,0.210000,0.800000,0.030000,0.030000,1.000000,0.000000,1.000000,0.000000,0.000000,0.600000,1.000000,1.000000,0.000000,0.000000
1,0.069293,0.000000,1.000000,0.210000,0.800000,0.030000,0.030000,1.000000,0.000000,1.000000,0.000000,0.000000,0.600000,1.000000,1.000000,0.000000,0.000000
2,0.039719,0.000000,0.986117,0.111463,0.851333,0.194710,0.030177,1.000000,1.000000,1.000000,0.000000,0.000000,0.761265,0.826845,1.000000,0.062951,1.000000
3,0.032361,0.000000,1.000000,0.190856,0.861324,0.262120,0.139906,1.000000,0.000000,0.982012,0.222315,0.000000,0.818239,0.776657,0.755133,0.061204,2.000000
4,0.030292,0.000000,0.968792,0.243504,0.858586,0.030504,0.193319,0.954906,2.000000,0.925473,0.000000,0.204341,0.815508,0.874646,0.831784,0.061679,1.000000
5,0.018008,0.000000,1.000000,0.151699,1.000000,0.280829,0.171857,0.946785,2.000000,1.000000,0.170649,0.000000,0.984677,0.932957,0.989268,0.069031,1.000000
6,0.016708,0.014081,0.769043,0.191784,1.000000,0.456502,0.295462,0.889590,1.000000,0.956876,0.046583,0.055536,1.000000,0.899977,0.752628,0.000000,2.000000
7,0.013462,0.207964,0.945461,0.011680,0.994542,0.027905,0.023877,0.957587,0.000000,0.866006,0.044829,0.677776,0.930659,0.850239,0.879570,0.086682,1.000000
8,0.013076,0.285012,0.846991,0.026298,1.000000,0.195963,0.062173,0.778708,1.000000,0.621716,0.303213,0.625661,0.968018,1.000000,0.521436,0.295702,2.000000
9,0.011780,0.016497,1.000000,0.000000,1.000000,0.317632,0.210175,0.738234,2.000000,0.793382,0.246992,0.776635,0.930443,0.891219,0.584603,0.222732,1.000000
10,0.011780,0.016497,1.000000,0.000000,1.000000,0.317632,0.210175,0.738234,2.000000,0.793382,0.246992,0.776635,0.930443,0.891219,0.584603,0.222732,1.000000
11,0.011044,0.011214,1.000000,0.005180,0.995621,0.887553,0.362127,1.000000,0.000000,1.000000,0.335304,1.000000,0.839618,0.751133,1.000000,0.465719,2.000000
12,0.011044,0.011214,1.000000,0.005180,0.995621,0.887553,0.362127,1.000000,0.000000,1.000000,0.335304,1.000000,0.839618,0.751133,1.000000,0.465719,2.000000
13,0.010025,0.119861,0.835675,0.034166,1.000000,0.387684,0.071735,0.969402,1.000000,1.000000,0.103217,0.765493,0.917072,1.000000,1.000000,0.453620,2.000000
14,0.010025,0.119861,0.835675,0.034166,1.000000,0.387684,0.071735,0.969402,1.000000,1.000000,0.103217,0.765493,0.917072,1.000000,1.000000,0.453620,2.000000
15,0.009807,0.112252,1.000000,0.000000,1.000000,0.054369,0.067558,0.981472,0.000000,0.993130,0.119603,0.794804,0.904038,0.985662,1.000000,0.588747,2.000000
16,0.009807,0.112252,1.000000,0.000000,1.000000,0.054369,0.067558,0.981472,0.000000,0.993130,0.119603,0.794804,0.904038,0.985662,1.000000,0.588747,2.000000
17,0.009120,0.120762,0.547534,0.000000,1.000000,0.194777,0.097544,0.344056,2.000000,0.946256,0.175762,0.836371,0.922990,0.902300,0.959247,0.677390,2.000000
18,0.009120,0.120762,0.547534,0.000000,1.000000,0.194777,0.097544,0.344056,2.000000,0.946256,0.175762,0.836371,0.922990,0.902300,0.959247,0.677390,2.000000
19,0.009120,0.120762,0.547534,0.000000,1.000000,0.194777,0.097544,0.344056,2.000000,0.946256,0.175762,0.836371,0.922990,0.902300,0.959247,0.677390,2.000000
20,0.009120,0.120762,0.547534,0.000000,1.000000,0.194777,0.097544,0.344056,2.000000,0.946256,0.175762,0.836371,0.922990,0.902300,0.959247,0.677390,2.000000
21,0.009120,0.120762,0.547534,0.000000,1.000000,0.194777,0.097544,0.344056,2.000000,0.946256,0.175762,0.836371,0.922990,0.902300,0.959247,0.677390,2.000000
22,0.009120,0.120762,0.547534,0.000000,1.000000,0.194777,0.097544,0.344056,2.000000,0.946256,0.175762,0.836371,0.922990,0.902300,0.959247,0.677390,2.000000
23,0.009120,0.120762,0.547534,0.000000,1.000000,0.194777,0.097544,0.344056,2.000000,0.946256,0.175762,0.836371,0.922990,0.902300,0.959247,0.677390,2.000000
24,0.009120,0.120762,0.547534,0.000000,1.000000,0.194777,0.097544,0.344056,2.000000,0.946256,0.175762,0.836371,0.922990,0.902300,0.959247,0.677390,2.000000
25,0.009120,0.120762,0.547534,0.000000,1.000000,0.194777,0.097544,0.344056,2.000000,0.946256,0.175762,0.836371,0.922990,0.902300,0.959247,0.677390,2.000000
26,0.009120,0.120762,0.547534,0.000000,1.000000,0.194777,0.097544,0.344056,2.000000,0.946256,0.175762,0.836371,0.922990,0.902300,0.959247,0.677390,2.000000
27,0.009120,0.120762,0.547534,0.000000,1.000000,0.194777,0.097544,0.344056,2.000000,0.946256,0.175762,0.836371,0.922990,0.902300,0.959247,0.677390,2.000000
gen, fitness
0,0.020772,0.000000,1.000000,0.210000,0.800000,0.030000,0.030000,1.000000,0.000000,1.000000,0.000000,0.000000,0.600000,1.000000,1.000000,0.000000,0.000000
1,0.020772,0.000000,1.000000,0.210000,0.800000,0.030000,0.030000,1.000000,0.000000,1.000000,0.000000,0.000000,0.600000,1.000000,1.000000,0.000000,0.000000
2,0.004128,0.026414,0.941156,0.067220,0.858585,0.182620,0.044368,0.965811,2.000000,0.993126,0.088398,0.110771,0.731852,0.995347,1.000000,0.000000,2.000000
3,0.003725,0.000000,0.936930,0.186655,0.838886,0.013381,0.018525,1.000000,0.000000,0.833764,0.214917,0.133637,0.755894,0.877837,0.876279,0.145438,1.000000
4,0.000061,0.107516,1.000000,0.029086,1.000000,0.089997,0.000000,0.968557,2.000000,0.855566,0.411378,0.055147,0.980598,0.889997,0.958697,0.214307,2.000000
5,0.000061,0.107516,1.000000,0.029086,1.000000,0.089997,0.000000,0.968557,2.000000,0.855566,0.411378,0.055147,0.980598,0.889997,0.958697,0.214307,2.000000
6,0.000050,0.104800,0.988939,0.326785,1.000000,0.170283,0.062449,1.000000,0.000000,0.855056,0.239097,0.294776,0.975729,1.000000,0.869034,0.000000,2.000000
7,0.000050,0.104800,0.988939,0.326785,1.000000,0.170283,0.062449,1.000000,0.000000,0.855056,0.239097,0.294776,0.975729,1.000000,0.869034,0.000000,2.000000
8,0.000032,0.044460,1.000000,0.063146,1.000000,0.000000,0.060394,0.833688,1.000000,0.663720,0.010768,0.025902,1.000000,0.627748,1.000000,0.181396,1.000000
9,0.000032,0.044460,1.000000,0.063146,1.000000,0.000000,0.060394,0.833688,1.000000,0.663720,0.010768,0.025902,1.000000,0.627748,1.000000,0.181396,1.000000
10,0.000021,0.327854,1.000000,0.158711,1.000000,0.223790,0.283652,0.920803,1.000000,1.000000,0.098015,0.000000,1.000000,1.000000,0.980747,0.182932,2.000000
11,0.000003,0.035340,0.763220,0.283046,1.000000,0.231481,0.089033,0.860297,0.000000,0.822716,0.080043,0.007147,1.000000,0.370516,1.000000,0.161521,1.000000
12,0.000003,0.035340,0.763220,0.283046,1.000000,0.231481,0.089033,0.860297,0.000000,0.822716,0.080043,0.007147,1.000000,0.370516,1.000000,0.161521,1.000000
13,0.000001,0.355720,1.000000,0.261330,1.000000,0.118435,0.214394,0.972446,0.000000,0.863849,0.143894,0.123002,0.999966,0.974020,0.720808,0.346650,2.000000
14,0.000001,0.355720,1.000000,0.261330,1.000000,0.118435,0.214394,0.972446,0.000000,0.863849,0.143894,0.123002,0.999966,0.974020,0.720808,0.346650,2.000000
15,0.000001,0.355720,1.000000,0.261330,1.000000,0.118435,0.214394,0.972446,0.000000,0.863849,0.143894,0.123002,0.999966,0.974020,0.720808,0.346650,2.000000
16,0.000001,0.355720,1.000000,0.261330,1.000000,0.118435,0.214394,0.972446,0.000000,0.863849,0.143894,0.123002,0.999966,0.974020,0.720808,0.346650,2.000000
17,0.000001,0.355720,1.000000,0.261330,1.000000,0.118435,0.214394,0.972446,0.000000,0.863849,0.143894,0.123002,0.999966,0.974020,0.720808,0.346650,2.000000
18,0.000001,0.355720,1.000000,0.261330,1.000000,0.118435,0.214394,0.972446,0.000000,0.863849,0.143894,0.123002,0.999966,0.974020,0.720808,0.346650,2.000000
19,0.000001,0.355720,1.000000,0.261330,1.000000,0.118435,0.214394,0.972446,0.000000,0.863849,0.143894,0.123002,0.999966,0.974020,0.720808,0.346650,2.000000
20,0.000001,0.355720,1.000000,0.261330,1.000000,0.118435,0.214394,0.972446,0.000000,0.863849,0.143894,0.123002,0.999966,0.974020,0.720808,0.346650,2.000000
21,0.000001,0.355720,1.000000,0.261330,1.000000,0.118435,0.214394,0.972446,0.000000,0.863849,0.143894,0.123002,0.999966,0.974020,0.720808,0.346650,2.000000
gen, fitness
0,0.008197,0.000000,1.000000,0.210000,0.800000,0.030000,0.030000,1.000000,0.000000,1.000000,0.000000,0.000000,0.600000,1.000000,1.000000,0.000000,0.000000
1,0.008197,0.000000,1.000000,0.210000,0.800000,0.030000,0.030000,1.000000,0.000000,1.000000,0.000000,0.000000,0.600000,1.000000,1.000000,0.000000,0.000000
2,0.000428,0.000000,1.000000,0.281697,0.753717,0.038600,0.153839,0.956707,1.000000,1.000000,0.000000,0.000000,0.693964,0.875477,0.982001,0.000000,1.000000
3,0.000089,0.068862,1.000000,0.032489,0.877277,0.014825,0.000000,1.000000,0.000000,1.000000,0.000000,0.202674,0.680301,0.877189,0.973870,0.000000,0.000000
4,0.000046,0.216733,1.000000,0.291908,0.739055,0.017866,0.082587,1.000000,2.000000,0.888336,0.000000,0.000000,0.733265,0.744644,0.983169,0.048881,2.000000
5,0.000046,0.216733,1.000000,0.291908,0.739055,0.017866,0.082587,1.000000,2.000000,0.888336,0.000000,0.000000,0.733265,0.744644,0.983169,0.048881,2.000000
6,0.000046,0.216733,1.000000,0.291908,0.739055,0.017866,0.082587,1.000000,2.000000,0.888336,0.000000,0.000000,0.733265,0.744644,0.983169,0.048881,2.000000
7,0.000046,0.216733,1.000000,0.291908,0.739055,0.017866,0.082587,1.000000,2.000000,0.888336,0.000000,0.000000,0.733265,0.744644,0.983169,0.048881,2.000000
8,0.000046,0.216733,1.000000,0.291908,0.739055,0.017866,0.082587,1.000000,2.000000,0.888336,0.000000,0.000000,0.733265,0.744644,0.983169,0.048881,2.000000
9,0.000046,0.216733,1.000000,0.291908,0.739055,0.017866,0.082587,1.000000,2.000000,0.888336,0.000000,0.000000,0.733265,0.744644,0.983169,0.048881,2.000000
10,0.000046,0.216733,1.000000,0.291908,0.739055,0.017866,0.082587,1.000000,2.000000,0.888336,0.000000,0.000000,0.733265,0.744644,0.983169,0.048881,2.000000
11,0.000010,0.000000,0.950671,0.583719,0.668224,0.371799,0.151507,1.000000,1.000000,0.957692,0.017186,0.160616,0.662156,0.705049,0.966364,0.000000,1.000000
12,0.000010,0.000000,0.950671,0.583719,0.668224,0.371799,0.151507,1.000000,1.000000,0.957692,0.017186,0.160616,0.662156,0.705049,0.966364,0.000000,1.000000
13,0.000010,0.000000,0.950671,0.583719,0.668224,0.371799,0.151507,1.000000,1.000000,0.957692,0.017186,0.160616,0.662156,0.705049,0.966364,0.000000,1.000000
14,0.000010,0.000000,0.950671,0.583719,0.668224,0.371799,0.151507,1.000000,1.000000,0.957692,0.017186,0.160616,0.662156,0.705049,0.966364,0.000000,1.000000
15,0.000010,0.000000,0.950671,0.583719,0.668224,0.371799,0.151507,1.000000,1.000000,0.957692,0.017186,0.160616,0.662156,0.705049,0.966364,0.000000,1.000000
16,0.000010,0.000000,0.950671,0.583719,0.668224,0.371799,0.151507,1.000000,1.000000,0.957692,0.017186,0.160616,0.662156,0.705049,0.966364,0.000000,1.000000
17,0.000010,0.000000,0.950671,0.583719,0.668224,0.371799,0.151507,1.000000,1.000000,0.957692,0.017186,0.160616,0.662156,0.705049,0.966364,0.000000,1.000000
18,0.000007,0.319851,0.694112,0.849637,0.572173,0.029947,0.430549,0.775307,2.000000,0.984662,0.160062,0.027724,0.749017,0.802486,0.963354,0.327392,2.000000
19,0.000007,0.319851,0.694112,0.849637,0.572173,0.029947,0.430549,0.775307,2.000000,0.984662,0.160062,0.027724,0.749017,0.802486,0.963354,0.327392,2.000000
20,0.000007,0.319851,0.694112,0.849637,0.572173,0.029947,0.430549,0.775307,2.000000,0.984662,0.160062,0.027724,0.749017,0.802486,0.963354,0.327392,2.000000
21,0.000007,0.319851,0.694112,0.849637,0.572173,0.029947,0.430549,0.775307,2.000000,0.984662,0.160062,0.027724,0.749017,0.802486,0.963354,0.327392,2.000000
gen, fitness
0,0.011091,0.000000,1.000000,0.210000,0.800000,0.030000,0.030000,1.000000,0.000000,1.000000,0.000000,0.000000,0.600000,1.000000,1.000000,0.000000,0.000000
1,0.011091,0.000000,1.000000,0.210000,0.800000,0.030000,0.030000,1.000000,0.000000,1.000000,0.000000,0.000000,0.600000,1.000000,1.000000,0.000000,0.000000
2,0.000003,0.125158,1.000000,0.027131,0.783542,0.000000,0.000000,1.000000,1.000000,0.936525,0.014771,0.088032,0.641657,0.901688,1.000000,0.000000,1.000000
3,0.000003,0.125158,1.000000,0.027131,0.783542,0.000000,0.000000,1.000000,1.000000,0.936525,0.014771,0.088032,0.641657,0.901688,1.000000,0.000000,1.000000
4,0.000003,0.125158,1.000000,0.027131,0.783542,0.000000,0.000000,1.000000,1.000000,0.936525,0.014771,0.088032,0.641657,0.901688,1.000000,0.000000,1.000000
5,0.000003,0.125158,1.000000,0.027131,0.783542,0.000000,0.000000,1.000000,1.000000,0.936525,0.014771,0.088032,0.641657,0.901688,1.000000,0.000000,1.000000
6,0.000003,0.125158,1.000000,0.027131,0.783542,0.000000,0.000000,1.000000,1.000000,0.936525,0.014771,0.088032,0.641657,0.901688,1.000000,0.000000,1.000000
7,0.000003,0.125158,1.000000,0.027131,0.783542,0.000000,0.000000,1.000000,1.000000,0.936525,0.014771,0.088032,0.641657,0.901688,1.000000,0.000000,1.000000
8,0.000003,0.125158,1.000000,0.027131,0.783542,0.000000,0.000000,1.000000,1.000000,0.936525,0.014771,0.088032,0.641657,0.901688,1.000000,0.000000,1.000000
9,0.000003,0.125158,1.000000,0.027131,0.783542,0.000000,0.000000,1.000000,1.000000,0.936525,0.014771,0.088032,0.641657,0.901688,1.000000,0.000000,1.000000
10,0.000003,0.125158,1.000000,0.027131,0.783542,0.000000,0.000000,1.000000,1.000000,0.936525,0.014771,0.088032,0.641657,0.901688,1.000000,0.000000,1.000000
11,0.000003,0.125158,1.000000,0.027131,0.783542,0.000000,0.000000,1.000000,1.000000,0.936525,0.014771,0.088032,0.641657,0.901688,1.000000,0.000000,1.000000
12,0.000003,0.125158,1.000000,0.027131,0.783542,0.000000,0.000000,1.000000,1.000000,0.936525,0.014771,0.088032,0.641657,0.901688,1.000000,0.000000,1.000000
gen, fitness
0,0.020988,0.000000,1.000000,0.210000,0.800000,0.030000,0.030000,1.000000,0.000000,1.000000,0.000000,0.000000,0.600000,1.000000,1.000000,0.000000,0.000000
1,0.020988,0.000000,1.000000,0.210000,0.800000,0.030000,0.030000,1.000000,0.000000,1.000000,0.000000,0.000000,0.600000,1.000000,1.000000,0.000000,0.000000
2,0.008277,0.000000,1.000000,0.379255,0.756207,0.000000,0.205119,0.951088,1.000000,0.937329,0.000000,0.016303,0.732192,1.000000,0.858348,0.000000,2.000000
3,0.005347,0.000000,0.938972,0.096516,0.924252,0.120213,0.210073,0.988003,1.000000,0.840840,0.113308,0.000000,0.824919,1.000000,0.878452,0.169443,1.000000
4,0.003069,0.000000,1.000000,0.081952,0.961241,0.000000,0.464713,1.000000,0.000000,0.768652,0.204273,0.000000,0.900636,0.878724,1.000000,0.071254,1.000000
5,0.001756,0.075718,0.927379,0.121963,0.985064,0.188675,0.206050,0.953180,2.000000,0.974258,0.003909,0.000000,0.942087,0.798183,1.000000,0.224108,1.000000
6,0.000589,0.000000,0.938247,0.413792,1.000000,0.000000,0.041204,0.770242,2.000000,0.975692,0.299791,0.000000,1.000000,1.000000,0.798744,0.171844,1.000000
7,0.000589,0.000000,0.938247,0.413792,1.000000,0.000000,0.041204,0.770242,2.000000,0.975692,0.299791,0.000000,1.000000,1.000000,0.798744,0.171844,1.000000
8,0.000589,0.000000,0.938247,0.413792,1.000000,0.000000,0.041204,0.770242,2.000000,0.975692,0.299791,0.000000,1.000000,1.000000,0.798744,0.171844,1.000000
9,0.000353,0.162305,0.920129,0.485006,1.000000,0.107270,0.000000,0.884551,2.000000,0.993086,0.166471,0.124633,1.000000,1.000000,0.720142,0.435463,2.000000
10,0.000353,0.162305,0.920129,0.485006,1.000000,0.107270,0.000000,0.884551,2.000000,0.993086,0.166471,0.124633,1.000000,1.000000,0.720142,0.435463,2.000000
11,0.000270,0.212753,1.000000,0.845440,1.000000,0.002352,0.025814,0.779528,2.000000,0.938215,0.204896,0.375211,1.000000,0.926644,0.706482,0.138167,2.000000
12,0.000165,0.000000,0.963426,0.978504,1.000000,0.000000,0.070308,0.940310,0.000000,0.905760,0.000000,0.327707,1.000000,0.930839,0.919925,0.271906,2.000000
13,0.000117,0.032327,1.000000,1.000000,1.000000,0.265672,0.188472,0.807199,2.000000,1.000000,0.000000,0.453564,1.000000,0.978795,0.754142,0.172897,1.000000
14,0.000117,0.032327,1.000000,1.000000,1.000000,0.265672,0.188472,0.807199,2.000000,1.000000,0.000000,0.453564,1.000000,0.978795,0.754142,0.172897,1.000000
15,0.000084,0.000000,0.997891,0.922057,1.000000,0.000000,0.027307,0.876423,2.000000,1.000000,0.000000,0.434915,1.000000,0.844954,0.890635,0.221437,1.000000
16,0.000084,0.000000,0.997891,0.922057,1.000000,0.000000,0.027307,0.876423,2.000000,1.000000,0.000000,0.434915,1.000000,0.844954,0.890635,0.221437,1.000000
17,0.000073,0.000000,1.000000,0.970876,1.000000,0.098348,0.121618,0.886490,2.000000,0.909758,0.000000,0.494671,1.000000,1.000000,0.952623,0.008178,2.000000
18,0.000073,0.000000,1.000000,0.970876,1.000000,0.098348,0.121618,0.886490,2.000000,0.909758,0.000000,0.494671,1.000000,1.000000,0.952623,0.008178,2.000000
19,0.000073,0.000000,1.000000,0.970876,1.000000,0.098348,0.121618,0.886490,2.000000,0.909758,0.000000,0.494671,1.000000,1.000000,0.952623,0.008178,2.000000
20,0.000073,0.000000,1.000000,0.970876,1.000000,0.098348,0.121618,0.886490,2.000000,0.909758,0.000000,0.494671,1.000000,1.000000,0.952623,0.008178,2.000000
21,0.000073,0.000000,1.000000,0.970876,1.000000,0.098348,0.121618,0.886490,2.000000,0.909758,0.000000,0.494671,1.000000,1.000000,0.952623,0.008178,2.000000
22,0.000073,0.000000,1.000000,0.970876,1.000000,0.098348,0.121618,0.886490,2.000000,0.909758,0.000000,0.494671,1.000000,1.000000,0.952623,0.008178,2.000000
23,0.000073,0.000000,1.000000,0.970876,1.000000,0.098348,0.121618,0.886490,2.000000,0.909758,0.000000,0.494671,1.000000,1.000000,0.952623,0.008178,2.000000
24,0.000019,0.000000,0.935518,1.000000,1.000000,0.068830,0.002949,0.993699,2.000000,0.866992,0.027163,0.901919,1.000000,0.898081,0.834843,0.255364,2.000000
25,0.000019,0.000000,0.935518,1.000000,1.000000,0.068830,0.002949,0.993699,2.000000,0.866992,0.027163,0.901919,1.000000,0.898081,0.834843,0.255364,2.000000
26,0.000019,0.000000,0.935518,1.000000,1.000000,0.068830,0.002949,0.993699,2.000000,0.866992,0.027163,0.901919,1.000000,0.898081,0.834843,0.255364,2.000000
27,0.000019,0.000000,0.935518,1.000000,1.000000,0.068830,0.002949,0.993699,2.000000,0.866992,0.027163,0.901919,1.000000,0.898081,0.834843,0.255364,2.000000
28,0.000019,0.000000,0.935518,1.000000,1.000000,0.068830,0.002949,0.993699,2.000000,0.866992,0.027163,0.901919,1.000000,0.898081,0.834843,0.255364,2.000000
29,0.000019,0.000000,0.935518,1.000000,1.000000,0.068830,0.002949,0.993699,2.000000,0.866992,0.027163,0.901919,1.000000,0.898081,0.834843,0.255364,2.000000
30,0.000019,0.000000,0.935518,1.000000,1.000000,0.068830,0.002949,0.993699,2.000000,0.866992,0.027163,0.901919,1.000000,0.898081,0.834843,0.255364,2.000000
31,0.000019,0.000000,0.935518,1.000000,1.000000,0.068830,0.002949,0.993699,2.000000,0.866992,0.027163,0.901919,1.000000,0.898081,0.834843,0.255364,2.000000
32,0.000019,0.000000,0.935518,1.000000,1.000000,0.068830,0.002949,0.993699,2.000000,0.866992,0.027163,0.901919,1.000000,0.898081,0.834843,0.255364,2.000000
33,0.000018,0.007001,1.000000,0.885265,1.000000,0.114248,0.000000,0.968041,2.000000,0.657335,0.096071,1.000000,1.000000,0.979113,1.000000,0.000000,2.000000
34,0.000016,0.092661,1.000000,0.998103,1.000000,0.248803,0.189583,0.911327,2.000000,0.952573,0.000000,0.801440,1.000000,1.000000,0.697516,0.324069,2.000000
