gen, fitness
0,0.094016,0.000000,1.000000,0.210000,0.800000,0.030000,0.030000,1.000000,0.000000,1.000000,0.000000,0.000000,0.600000,1.000000,1.000000,0.000000,0.000000
1,0.094016,0.000000,1.000000,0.210000,0.800000,0.030000,0.030000,1.000000,0.000000,1.000000,0.000000,0.000000,0.600000,1.000000,1.000000,0.000000,0.000000
2,0.062726,0.000000,1.000000,0.210000,0.568971,0.030000,0.030000,1.000000,0.000000,1.000000,0.000000,0.000000,0.600000,1.000000,1.000000,0.000000,0.000000
3,0.062726,0.000000,1.000000,0.210000,0.568971,0.030000,0.030000,1.000000,0.000000,1.000000,0.000000,0.000000,0.600000,1.000000,1.000000,0.000000,0.000000
4,0.049596,0.000000,1.000000,0.210000,0.568971,0.030000,0.030000,1.000000,0.000000,1.000000,0.000000,0.000000,0.500874,1.000000,1.000000,0.000000,0.000000
5,0.046305,0.000000,1.000000,0.210000,0.568971,0.000000,0.030000,1.000000,0.000000,1.000000,0.000000,0.000000,0.432046,1.000000,1.000000,0.000000,1.000000
6,0.039660,0.000000,1.000000,0.100751,0.568971,0.000000,0.030000,0.712465,0.000000,1.000000,0.000000,0.000000,0.432046,1.000000,1.000000,0.000000,1.000000
7,0.038814,0.000000,1.000000,0.035195,0.568971,0.030000,0.030000,0.712465,0.000000,1.000000,0.000000,0.000000,0.432046,1.000000,1.000000,0.000000,1.000000
8,0.034628,0.000000,1.000000,0.100751,0.568971,0.000000,0.030000,0.712465,1.000000,1.000000,0.000000,0.000000,0.317103,1.000000,1.000000,0.000000,1.000000
9,0.030107,0.000000,1.000000,0.035195,0.568971,0.030000,0.030000,1.000000,0.000000,1.000000,0.000000,0.000000,0.261279,1.000000,0.904180,0.000000,2.000000
10,0.023913,0.235611,1.000000,0.090873,0.438710,0.000000,0.030000,1.000000,0.000000,1.000000,0.189588,0.000000,0.261279,1.000000,1.000000,0.000000,1.000000
11,0.022049,0.235611,1.000000,0.000000,0.503199,0.030000,0.000000,1.000000,0.000000,0.961839,0.000000,0.000000,0.119159,1.000000,0.904180,0.000000,2.000000
12,0.020305,0.235611,1.000000,0.000000,0.458009,0.030000,0.059362,0.712465,0.000000,0.996206,0.000000,0.000000,0.284381,1.000000,1.000000,0.000000,2.000000
13,0.004837,0.335769,1.000000,0.000000,0.251883,0.030000,0.000000,0.894806,2.000000,1.000000,0.000000,0.025132,0.000000,1.000000,0.976919,0.010913,1.000000
14,0.004624,0.335769,1.000000,0.000000,0.251883,0.030000,0.000000,0.894806,1.000000,1.000000,0.000000,0.025132,0.000000,1.000000,0.976919,0.010913,1.000000
15,0.003994,0.335769,1.000000,0.000000,0.208431,0.000000,0.000000,0.894806,2.000000,1.000000,0.000000,0.025132,0.000000,1.000000,0.976919,0.010913,0.000000
16,0.003311,0.415377,1.000000,0.000000,0.208431,0.000000,0.000000,0.894806,2.000000,1.000000,0.000000,0.025132,0.000000,1.000000,0.976919,0.010913,0.000000
17,0.002305,0.459068,1.000000,0.000000,0.105841,0.000000,0.000000,0.894806,2.000000,1.000000,0.000000,0.025132,0.000000,1.000000,0.976919,0.010913,1.000000
18,0.002275,0.459068,1.000000,0.000000,0.105841,0.075420,0.000000,0.894806,2.000000,1.000000,0.000000,0.025132,0.000000,1.000000,0.976919,0.000000,1.000000
19,0.001487,0.459068,1.000000,0.000000,0.105841,0.000000,0.000000,0.894806,0.000000,1.000000,0.000000,0.000000,0.000000,1.000000,0.976919,0.010913,2.000000
20,0.001453,0.459068,1.000000,0.000000,0.122184,0.030000,0.000000,0.698521,1.000000,1.000000,0.000000,0.000000,0.000000,1.000000,0.976919,0.000000,1.000000
21,0.001252,0.486464,1.000000,0.000000,0.112209,0.014671,0.000000,0.894806,1.000000,1.000000,0.000000,0.000000,0.000000,1.000000,1.000000,0.000000,1.000000
22,0.000823,0.599233,1.000000,0.000000,0.112209,0.014671,0.000000,0.894806,1.000000,1.000000,0.000000,0.000000,0.000000,1.000000,1.000000,0.000000,1.000000
23,0.000815,0.597843,1.000000,0.000000,0.105841,0.000000,0.000000,0.890136,2.000000,1.000000,0.000000,0.000000,0.000000,1.000000,0.976919,0.000000,0.000000
24,0.000732,0.597843,1.000000,0.000000,0.105841,0.000000,0.000000,0.890136,1.000000,1.000000,0.000000,0.000000,0.000000,1.000000,0.976919,0.000000,1.000000
25,0.000700,0.597843,1.000000,0.000000,0.095458,0.000000,0.000000,0.890136,2.000000,1.000000,0.000000,0.000000,0.000000,1.000000,0.829681,0.000000,1.000000
26,0.000613,0.597843,1.000000,0.000000,0.105841,0.000000,0.000000,0.840702,0.000000,1.000000,0.000000,0.000000,0.000000,1.000000,0.829681,0.000000,1.000000
27,0.000008,0.746359,1.000000,0.000000,0.000000,0.000000,0.000000,0.927873,1.000000,1.000000,0.000000,0.000000,0.000000,1.000000,0.976919,0.000000,1.000000
28,0.000008,0.746359,1.000000,0.000000,0.000000,0.000000,0.000000,0.927873,1.000000,1.000000,0.000000,0.000000,0.000000,1.000000,0.976919,0.000000,1.000000
29,0.000001,0.778169,1.000000,0.000000,0.000000,0.168419,0.000000,0.772220,1.000000,1.000000,0.000000,0.000000,0.000000,1.000000,0.859336,0.000000,1.000000
30,0.000001,0.778169,1.000000,0.000000,0.000000,0.168419,0.000000,0.772220,1.000000,1.000000,0.000000,0.000000,0.000000,1.000000,0.859336,0.000000,1.000000
31,0.000001,0.778169,1.000000,0.000000,0.000000,0.168419,0.000000,0.772220,1.000000,1.000000,0.000000,0.000000,0.000000,1.000000,0.976919,0.000000,2.000000
gen, fitness
0,0.011444,0.000000,1.000000,0.210000,0.800000,0.030000,0.030000,1.000000,0.000000,1.000000,0.000000,0.000000,0.600000,1.000000,1.000000,0.000000,0.000000
1,0.011444,0.000000,1.000000,0.210000,0.800000,0.030000,0.030000,1.000000,0.000000,1.000000,0.000000,0.000000,0.600000,1.000000,1.000000,0.000000,0.000000
2,0.006063,0.000000,1.000000,0.210000,0.732714,0.065874,0.030000,1.000000,0.000000,1.000000,0.000000,0.000000,0.600000,1.000000,1.000000,0.000000,0.000000
3,0.005794,0.000000,1.000000,0.210000,0.732714,0.065874,0.030000,0.873498,0.000000,1.000000,0.000000,0.000000,0.600000,1.000000,1.000000,0.000000,0.000000
4,0.005734,0.000000,1.000000,0.028977,0.800000,0.030000,0.030000,1.000000,0.000000,1.000000,0.000000,0.000000,0.600000,1.000000,1.000000,0.000000,1.000000
5,0.002368,0.096030,0.875058,0.000000,0.732714,0.065874,0.030000,0.873498,0.000000,1.000000,0.000000,0.000000,0.514464,1.000000,1.000000,0.000000,0.000000
6,0.002162,0.117134,0.875058,0.000000,0.732714,0.065874,0.030000,0.800597,0.000000,1.000000,0.000000,0.000000,0.514464,1.000000,1.000000,0.000000,0.000000
7,0.002158,0.117134,1.000000,0.000000,0.732714,0.065874,0.030000,0.800597,0.000000,1.000000,0.000000,0.000000,0.514464,1.000000,1.000000,0.000000,0.000000
8,0.001899,0.314928,1.000000,0.000000,0.732714,0.065874,0.030000,0.800597,0.000000,1.000000,0.000000,0.000000,0.514464,1.000000,1.000000,0.000000,0.000000
9,0.001729,0.205900,0.875058,0.000000,0.732714,0.065874,0.030000,0.800597,0.000000,1.000000,0.000000,0.000000,0.514464,1.000000,1.000000,0.000000,0.000000
10,0.001645,0.117134,0.875058,0.000000,0.732714,0.065874,0.030000,0.800597,0.000000,1.000000,0.000000,0.000000,0.442872,0.948645,1.000000,0.056910,0.000000
11,0.001622,0.117134,0.875058,0.000000,0.711467,0.025514,0.030000,0.873498,0.000000,1.000000,0.088294,0.000000,0.474496,0.882230,1.000000,0.000000,0.000000
12,0.001412,0.248916,1.000000,0.000000,0.711467,0.025514,0.030000,0.934822,0.000000,1.000000,0.088294,0.017067,0.474496,0.882230,1.000000,0.000000,0.000000
13,0.000527,0.314928,1.000000,0.000000,0.656616,0.065874,0.030000,0.800597,0.000000,1.000000,0.000000,0.000000,0.442872,0.948645,1.000000,0.056910,1.000000
14,0.000506,0.469985,0.941145,0.000000,0.626561,0.025514,0.030000,0.934822,0.000000,1.000000,0.000000,0.017067,0.474496,0.882230,1.000000,0.000000,1.000000
15,0.000220,0.469985,0.941145,0.000000,0.626561,0.025514,0.030000,0.800597,0.000000,1.000000,0.000000,0.000000,0.442872,0.948645,1.000000,0.056910,0.000000
16,0.000207,0.469985,0.941145,0.000000,0.626561,0.025514,0.030000,0.800597,0.000000,1.000000,0.000000,0.000000,0.442872,0.948645,1.000000,0.056910,1.000000
17,0.000195,0.469985,0.941145,0.000000,0.626561,0.025514,0.030000,0.800597,0.000000,1.000000,0.000000,0.000000,0.442872,0.948645,0.981119,0.056910,2.000000
18,0.000149,0.531939,0.824588,0.000000,0.614784,0.065874,0.000000,0.718996,0.000000,1.000000,0.000000,0.000000,0.442872,0.948645,1.000000,0.000000,1.000000
19,0.000129,0.531939,0.824588,0.000000,0.614784,0.065874,0.000000,0.718996,0.000000,1.000000,0.000000,0.000000,0.442872,0.948645,1.000000,0.000000,2.000000
20,0.000093,0.531939,0.816602,0.000000,0.614784,0.065874,0.000000,0.718996,0.000000,1.000000,0.218957,0.000000,0.442872,0.948645,0.981119,0.056910,2.000000
21,0.000093,0.531939,0.816602,0.000000,0.614784,0.065874,0.000000,0.718996,0.000000,1.000000,0.218957,0.000000,0.442872,0.948645,0.981119,0.056910,2.000000
22,0.000057,0.531939,0.824588,0.000000,0.614784,0.065874,0.030000,0.584316,0.000000,1.000000,0.125773,0.000000,0.442872,0.948645,1.000000,0.000000,2.000000
23,0.000057,0.531939,0.824588,0.000000,0.614784,0.065874,0.030000,0.584316,0.000000,1.000000,0.125773,0.000000,0.442872,0.948645,1.000000,0.000000,2.000000
24,0.000049,0.531939,0.824588,0.000000,0.614784,0.000000,0.000000,0.474412,0.000000,1.000000,0.136243,0.000000,0.442872,0.948645,1.000000,0.056910,2.000000
25,0.000031,0.647292,0.902828,0.000000,0.563040,0.064664,0.000000,0.614886,0.000000,1.000000,0.218957,0.000000,0.442872,0.948645,0.954245,0.000000,2.000000
26,0.000002,0.647292,0.902828,0.000000,0.563040,0.064664,0.016921,0.614886,2.000000,1.000000,0.218957,0.000000,0.442872,0.948645,0.954245,0.000000,2.000000
27,0.000002,0.647292,0.902828,0.000000,0.563040,0.064664,0.016921,0.614886,2.000000,1.000000,0.218957,0.000000,0.442872,0.948645,0.954245,0.000000,2.000000
28,0.000002,0.647292,0.902828,0.000000,0.563040,0.000000,0.000000,0.584316,2.000000,1.000000,0.077264,0.000000,0.442872,1.000000,1.000000,0.000000,0.000000
29,0.000000,0.647292,0.902828,0.000000,0.563040,0.000000,0.000000,0.584316,2.000000,0.992608,0.077264,0.000000,0.443018,1.000000,1.000000,0.000000,2.000000
gen, fitness
0,0.010533,0.000000,1.000000,0.210000,0.800000,0.030000,0.030000,1.000000,0.000000,1.000000,0.000000,0.000000,0.600000,1.000000,1.000000,0.000000,0.000000
1,0.010533,0.000000,1.000000,0.210000,0.800000,0.030000,0.030000,1.000000,0.000000,1.000000,0.000000,0.000000,0.600000,1.000000,1.000000,0.000000,0.000000
2,0.003589,0.000000,1.000000,0.078425,0.800000,0.030000,0.030000,1.000000,0.000000,1.000000,0.000000,0.000000,0.600000,1.000000,1.000000,0.000000,1.000000
3,0.003399,0.000000,1.000000,0.078425,0.800000,0.030000,0.106842,1.000000,0.000000,1.000000,0.000000,0.000000,0.600000,1.000000,1.000000,0.000000,0.000000
4,0.001544,0.000000,1.000000,0.210000,0.645660,0.038997,0.030000,1.000000,0.000000,1.000000,0.000000,0.000000,0.552780,1.000000,1.000000,0.000000,0.000000
5,0.000918,0.000000,0.917032,0.210000,0.645660,0.038997,0.030000,1.000000,0.000000,1.000000,0.119691,0.000000,0.505079,1.000000,1.000000,0.000000,0.000000
6,0.000421,0.019309,1.000000,0.000000,0.701364,0.030000,0.103044,1.000000,2.000000,1.000000,0.000000,0.072884,0.396057,1.000000,1.000000,0.000000,0.000000
7,0.000421,0.019309,1.000000,0.000000,0.701364,0.030000,0.103044,1.000000,2.000000,1.000000,0.000000,0.072884,0.396057,1.000000,1.000000,0.000000,0.000000
8,0.000365,0.043534,1.000000,0.000000,0.701364,0.030000,0.103044,1.000000,2.000000,1.000000,0.000000,0.072884,0.396057,1.000000,1.000000,0.000000,0.000000
9,0.000357,0.019309,1.000000,0.000000,0.701364,0.030000,0.103044,1.000000,2.000000,1.000000,0.000000,0.060719,0.396057,1.000000,1.000000,0.000000,0.000000
10,0.000357,0.019309,1.000000,0.000000,0.701364,0.030000,0.103044,1.000000,2.000000,1.000000,0.000000,0.060719,0.396057,1.000000,1.000000,0.000000,0.000000
11,0.000258,0.093610,1.000000,0.000000,0.701364,0.030000,0.278263,1.000000,1.000000,1.000000,0.000000,0.072884,0.396057,1.000000,1.000000,0.000000,0.000000
12,0.000258,0.093610,1.000000,0.000000,0.701364,0.030000,0.278263,1.000000,1.000000,1.000000,0.000000,0.072884,0.396057,1.000000,1.000000,0.000000,0.000000
13,0.000198,0.100372,0.861525,0.000000,0.701364,0.030000,0.232753,1.000000,0.000000,1.000000,0.000000,0.072884,0.396057,1.000000,1.000000,0.000000,1.000000
14,0.000175,0.093610,1.000000,0.000000,0.701364,0.030000,0.226450,1.000000,0.000000,1.000000,0.000000,0.060719,0.396057,1.000000,1.000000,0.000000,0.000000
15,0.000123,0.126615,0.914616,0.019936,0.679143,0.030000,0.114968,1.000000,0.000000,1.000000,0.000000,0.060719,0.396057,1.000000,1.000000,0.000000,0.000000
16,0.000122,0.126615,0.914616,0.019936,0.679143,0.030000,0.114968,1.000000,0.000000,1.000000,0.000000,0.060719,0.396057,1.000000,0.920120,0.000000,0.000000
17,0.000122,0.126615,0.914616,0.019936,0.679143,0.030000,0.114968,1.000000,0.000000,1.000000,0.000000,0.060719,0.396057,1.000000,0.920120,0.000000,0.000000
18,0.000111,0.126615,0.914616,0.019936,0.679143,0.030000,0.114968,0.959804,0.000000,1.000000,0.000000,0.060719,0.396057,1.000000,1.000000,0.000000,0.000000
19,0.000102,0.126615,0.909562,0.019936,0.679143,0.030000,0.238639,0.848304,0.000000,1.000000,0.000000,0.060719,0.396057,1.000000,1.000000,0.000000,0.000000
20,0.000095,0.126615,0.914616,0.019936,0.679143,0.030000,0.000000,0.895444,0.000000,1.000000,0.000000,0.060719,0.396057,1.000000,0.920120,0.000000,0.000000
21,0.000088,0.137035,0.914616,0.019936,0.679143,0.030000,0.114968,0.862330,0.000000,1.000000,0.174124,0.060719,0.396057,1.000000,0.920120,0.000000,0.000000
22,0.000044,0.193950,0.914616,0.000000,0.679143,0.030000,0.114968,0.895444,0.000000,1.000000,0.000000,0.060719,0.396057,1.000000,0.920120,0.000000,0.000000
23,0.000044,0.193950,0.914616,0.000000,0.679143,0.030000,0.114968,0.895444,0.000000,1.000000,0.000000,0.060719,0.396057,1.000000,0.920120,0.000000,0.000000
24,0.000033,0.193950,0.914616,0.000000,0.679143,0.030000,0.114968,0.848304,0.000000,1.000000,0.000000,0.060719,0.396057,1.000000,1.000000,0.000000,0.000000
25,0.000033,0.193950,0.914616,0.000000,0.679143,0.030000,0.114968,0.848304,0.000000,1.000000,0.000000,0.060719,0.396057,1.000000,1.000000,0.000000,0.000000
26,0.000031,0.193950,0.914616,0.000000,0.679143,0.030000,0.114968,0.704875,0.000000,1.000000,0.000000,0.060719,0.396057,1.000000,0.986701,0.000000,1.000000
27,0.000026,0.234829,0.831112,0.000000,0.662376,0.160272,0.114968,0.869775,1.000000,1.000000,0.000000,0.060719,0.396057,1.000000,0.986701,0.000000,1.000000
28,0.000016,0.234829,0.831112,0.000000,0.662376,0.045045,0.114968,0.869775,0.000000,1.000000,0.000000,0.060719,0.396057,1.000000,0.902164,0.000000,0.000000
29,0.000013,0.234829,0.831112,0.000000,0.662376,0.045045,0.000000,0.869775,0.000000,1.000000,0.000000,0.060719,0.396057,1.000000,0.902164,0.000000,0.000000
30,0.000013,0.234829,0.813243,0.000000,0.662376,0.070644,0.082870,0.900182,0.000000,1.000000,0.000000,0.060719,0.396057,1.000000,1.000000,0.000000,0.000000
31,0.000005,0.234829,0.831112,0.000000,0.662376,0.045045,0.000000,0.869775,0.000000,1.000000,0.000000,0.060719,0.389111,1.000000,0.902164,0.000000,0.000000
32,0.000005,0.234829,0.831112,0.000000,0.662376,0.045045,0.000000,0.869775,0.000000,1.000000,0.000000,0.060719,0.389111,1.000000,0.902164,0.000000,0.000000
33,0.000004,0.234829,0.831112,0.000000,0.662376,0.045045,0.000000,0.845715,0.000000,1.000000,0.000000,0.060719,0.389111,1.000000,0.902164,0.000000,0.000000
34,0.000003,0.258731,0.831112,0.000000,0.662376,0.030000,0.082870,0.825554,0.000000,1.000000,0.000000,0.060719,0.396057,1.000000,1.000000,0.000000,0.000000
35,0.000003,0.234829,0.831112,0.000000,0.662376,0.045045,0.000000,0.827828,0.000000,1.000000,0.000000,0.060719,0.389111,1.000000,0.902164,0.000000,0.000000
36,0.000003,0.234829,0.831112,0.000000,0.662376,0.045045,0.000000,0.827828,0.000000,1.000000,0.000000,0.060719,0.389111,1.000000,0.902164,0.000000,0.000000
37,0.000002,0.258731,0.831112,0.000000,0.662376,0.030000,0.082870,0.757062,0.000000,1.000000,0.000000,0.060719,0.396057,1.000000,1.000000,0.000000,0.000000
38,0.000002,0.258731,0.889349,0.000000,0.662376,0.030000,0.082870,0.757062,0.000000,1.000000,0.000000,0.060719,0.396057,1.000000,1.000000,0.000000,0.000000
gen, fitness
0,0.067934,0.000000,1.000000,0.210000,0.800000,0.030000,0.030000,1.000000,0.000000,1.000000,0.000000,0.000000,0.600000,1.000000,1.000000,0.000000,0.000000
1,0.067934,0.000000,1.000000,0.210000,0.800000,0.030000,0.030000,1.000000,0.000000,1.000000,0.000000,0.000000,0.600000,1.000000,1.000000,0.000000,0.000000
2,0.055550,0.000000,1.000000,0.210000,0.748924,0.030000,0.030000,1.000000,0.000000,1.000000,0.000000,0.000000,0.600000,1.000000,1.000000,0.000000,0.000000
3,0.047809,0.000000,1.000000,0.141213,0.695683,0.030000,0.030000,1.000000,0.000000,1.000000,0.000000,0.000000,0.600000,1.000000,1.000000,0.000000,0.000000
4,0.046220,0.000000,1.000000,0.000000,0.800000,0.030000,0.030000,1.000000,0.000000,1.000000,0.000000,0.000000,0.521082,1.000000,1.000000,0.000000,2.000000
5,0.040442,0.000000,1.000000,0.210000,0.632799,0.030000,0.000000,1.000000,2.000000,1.000000,0.000000,0.000000,0.492125,1.000000,1.000000,0.000000,1.000000
6,0.037555,0.000000,1.000000,0.210000,0.632799,0.030000,0.000000,0.908339,1.000000,1.000000,0.000000,0.000000,0.480747,1.000000,1.000000,0.000000,1.000000
7,0.037318,0.000000,1.000000,0.000000,0.695683,0.030000,0.030000,1.000000,1.000000,0.885066,0.000000,0.000000,0.521082,1.000000,0.871754,0.000000,1.000000
8,0.030545,0.070184,1.000000,0.004114,0.695683,0.030000,0.030000,1.000000,0.000000,1.000000,0.000000,0.000000,0.492125,1.000000,1.000000,0.000000,1.000000
9,0.021117,0.036452,1.000000,0.000000,0.632799,0.030000,0.000000,0.892137,0.000000,0.931463,0.000000,0.000000,0.380086,1.000000,0.910618,0.000000,0.000000
10,0.021117,0.036452,1.000000,0.000000,0.632799,0.030000,0.000000,0.892137,0.000000,0.931463,0.000000,0.000000,0.380086,1.000000,0.910618,0.000000,0.000000
11,0.019932,0.036452,1.000000,0.000000,0.632799,0.030000,0.000000,0.892137,0.000000,0.931463,0.000000,0.000000,0.346092,0.975086,0.789352,0.000000,2.000000
12,0.016587,0.170212,1.000000,0.000000,0.536382,0.030000,0.000000,0.785564,0.000000,0.931463,0.000000,0.000000,0.380086,1.000000,0.767740,0.000000,0.000000
13,0.009022,0.170212,1.000000,0.000000,0.513856,0.030000,0.000000,0.785564,1.000000,0.931463,0.000000,0.000000,0.249240,1.000000,0.767740,0.000000,0.000000
14,0.009013,0.170212,1.000000,0.000000,0.513856,0.000000,0.000000,0.785564,1.000000,0.931463,0.000000,0.000000,0.249240,1.000000,0.767740,0.000000,0.000000
15,0.006711,0.170212,1.000000,0.026068,0.504135,0.030000,0.000000,0.785564,0.000000,0.931463,0.083769,0.000000,0.148850,0.975086,1.000000,0.000000,0.000000
16,0.005506,0.170212,0.927898,0.136204,0.354575,0.030000,0.000000,0.785564,0.000000,0.931463,0.083769,0.000000,0.148850,0.975086,1.000000,0.000000,0.000000
17,0.003640,0.206768,1.000000,0.000000,0.420802,0.030000,0.000000,0.785564,0.000000,0.931463,0.000000,0.000000,0.148992,0.975086,1.000000,0.000000,0.000000
18,0.003640,0.206768,1.000000,0.000000,0.420802,0.030000,0.000000,0.785564,0.000000,0.931463,0.000000,0.000000,0.148992,0.975086,1.000000,0.000000,0.000000
19,0.002502,0.347670,0.951347,0.136204,0.281825,0.030000,0.000000,0.785564,0.000000,0.931463,0.000000,0.000000,0.148850,0.975086,1.000000,0.000000,0.000000
20,0.001827,0.308065,1.000000,0.000000,0.420802,0.030000,0.000000,0.785564,0.000000,0.931463,0.000000,0.000000,0.086024,0.975086,1.000000,0.000000,1.000000
21,0.001797,0.308065,1.000000,0.000000,0.420802,0.030000,0.000000,0.785564,0.000000,0.931463,0.000000,0.000000,0.086024,0.975086,0.936738,0.000000,0.000000
22,0.001010,0.347670,0.951347,0.080677,0.281825,0.030000,0.000000,0.785564,0.000000,0.931463,0.083769,0.000000,0.061045,0.927386,1.000000,0.182604,2.000000
23,0.000020,0.396828,0.951347,0.136204,0.140368,0.063959,0.000000,0.785564,0.000000,0.931463,0.000000,0.000000,0.000000,0.975086,1.000000,0.000000,0.000000
24,0.000020,0.396828,0.951347,0.136204,0.140368,0.063959,0.000000,0.785564,0.000000,0.931463,0.000000,0.000000,0.000000,0.975086,1.000000,0.000000,0.000000
25,0.000020,0.396828,0.951347,0.136204,0.140368,0.063959,0.000000,0.785564,0.000000,0.931463,0.000000,0.000000,0.000000,0.975086,1.000000,0.000000,0.000000
26,0.000006,0.403590,0.951347,0.037218,0.281825,0.030000,0.000000,0.785564,0.000000,1.000000,0.148238,0.000000,0.000000,0.975086,0.903305,0.000000,0.000000
27,0.000006,0.403590,0.951347,0.037218,0.281825,0.030000,0.000000,0.785564,0.000000,1.000000,0.148238,0.000000,0.000000,0.865329,0.903305,0.000000,0.000000
28,0.000000,0.419290,1.000000,0.037218,0.281825,0.030000,0.000000,0.785564,0.000000,1.000000,0.148238,0.000000,0.000000,0.975086,0.903305,0.000000,0.000000
gen, fitness
0,0.030614,0.000000,1.000000,0.210000,0.800000,0.030000,0.030000,1.000000,0.000000,1.000000,0.000000,0.000000,0.600000,1.000000,1.000000,0.000000,0.000000
1,0.030614,0.000000,1.000000,0.210000,0.800000,0.030000,0.030000,1.000000,0.000000,1.000000,0.000000,0.000000,0.600000,1.000000,1.000000,0.000000,0.000000
2,0.014954,0.000000,1.000000,0.210000,0.670332,0.030000,0.030000,1.000000,0.000000,1.000000,0.000000,0.000000,0.600000,1.000000,1.000000,0.000000,0.000000
3,0.012291,0.000000,0.994782,0.210000,0.670332,0.030000,0.030000,1.000000,0.000000,1.000000,0.000000,0.000000,0.533623,1.000000,1.000000,0.000000,0.000000
4,0.012291,0.000000,0.994782,0.210000,0.670332,0.030000,0.030000,1.000000,0.000000,1.000000,0.000000,0.000000,0.533623,1.000000,1.000000,0.000000,0.000000
5,0.011510,0.000000,1.000000,0.210000,0.652480,0.030000,0.030000,1.000000,0.000000,1.000000,0.000000,0.000000,0.533623,1.000000,1.000000,0.000000,0.000000
6,0.011176,0.075962,1.000000,0.210000,0.652480,0.000000,0.030000,1.000000,0.000000,1.000000,0.000000,0.000000,0.533623,1.000000,1.000000,0.000000,0.000000
7,0.007058,0.000000,0.994782,0.210000,0.533113,0.030000,0.156442,1.000000,0.000000,1.000000,0.000000,0.000000,0.435722,1.000000,0.901955,0.000000,0.000000
8,0.007058,0.000000,0.994782,0.210000,0.533113,0.030000,0.156442,1.000000,0.000000,1.000000,0.000000,0.000000,0.435722,1.000000,0.901955,0.000000,0.000000
9,0.006117,0.075962,1.000000,0.210000,0.533113,0.030000,0.156442,1.000000,0.000000,1.000000,0.000000,0.000000,0.435722,1.000000,0.901955,0.000000,0.000000
10,0.005199,0.222764,1.000000,0.210000,0.523828,0.006635,0.030000,0.980140,0.000000,1.000000,0.000000,0.000000,0.432078,0.856024,0.901955,0.000000,0.000000
11,0.003894,0.149077,1.000000,0.134059,0.565251,0.140732,0.156442,0.806131,0.000000,1.000000,0.000000,0.000000,0.367118,1.000000,0.849659,0.000000,1.000000
12,0.003894,0.149077,1.000000,0.134059,0.565251,0.140732,0.156442,0.806131,0.000000,1.000000,0.000000,0.000000,0.367118,1.000000,0.849659,0.000000,1.000000
13,0.002659,0.149077,0.994782,0.188966,0.452209,0.030000,0.346966,1.000000,0.000000,1.000000,0.142753,0.000000,0.318442,1.000000,0.849659,0.000000,1.000000
14,0.002659,0.149077,0.994782,0.188966,0.452209,0.030000,0.346966,1.000000,0.000000,1.000000,0.142753,0.000000,0.318442,1.000000,0.849659,0.000000,1.000000
15,0.001733,0.175195,1.000000,0.155988,0.438748,0.006635,0.030000,0.932137,2.000000,1.000000,0.000000,0.000000,0.275644,0.804754,0.901955,0.000000,0.000000
16,0.001494,0.175195,1.000000,0.155988,0.438748,0.006635,0.030000,0.932137,0.000000,1.000000,0.000000,0.000000,0.275644,0.678973,0.777757,0.000000,0.000000
17,0.000755,0.455058,1.000000,0.107665,0.333212,0.011121,0.156442,0.974755,2.000000,1.000000,0.142753,0.000000,0.318442,1.000000,0.849659,0.000000,0.000000
18,0.000755,0.455058,1.000000,0.107665,0.333212,0.011121,0.156442,0.974755,2.000000,1.000000,0.142753,0.000000,0.318442,1.000000,0.849659,0.000000,0.000000
19,0.000056,0.464686,1.000000,0.107665,0.333212,0.011121,0.156442,0.974755,2.000000,1.000000,0.142753,0.000000,0.252572,0.998450,0.849659,0.000000,1.000000
20,0.000052,0.464686,1.000000,0.107665,0.333212,0.011121,0.156442,0.958660,2.000000,1.000000,0.142753,0.000000,0.252572,0.998450,0.849659,0.000000,1.000000
21,0.000023,0.464686,1.000000,0.107665,0.333212,0.011121,0.156442,0.839447,1.000000,1.000000,0.142753,0.000000,0.252572,0.998450,0.849659,0.000000,0.000000
22,0.000017,0.464686,1.000000,0.107665,0.333212,0.011121,0.156442,0.958660,0.000000,1.000000,0.142753,0.000000,0.252572,0.998450,0.849659,0.000000,0.000000
23,0.000016,0.464686,1.000000,0.107665,0.333212,0.011121,0.113035,0.958660,0.000000,1.000000,0.142753,0.000000,0.252572,0.998450,0.849659,0.000000,0.000000
24,0.000015,0.472426,1.000000,0.107665,0.333212,0.011121,0.113035,0.958660,0.000000,1.000000,0.142753,0.000000,0.252572,0.998450,0.849659,0.000000,0.000000
25,0.000015,0.472426,1.000000,0.107665,0.333212,0.011121,0.113035,0.958660,0.000000,1.000000,0.142753,0.000000,0.252572,0.998450,0.849659,0.000000,0.000000
26,0.000012,0.464686,1.000000,0.107665,0.333212,0.011121,0.156442,0.855212,0.000000,1.000000,0.000000,0.000000,0.252572,0.998450,1.000000,0.000000,0.000000
27,0.000012,0.464686,1.000000,0.107665,0.333212,0.011121,0.156442,0.855212,0.000000,1.000000,0.000000,0.000000,0.252572,0.998450,1.000000,0.000000,0.000000
28,0.000004,0.472426,1.000000,0.107665,0.333212,0.000000,0.000000,0.855212,0.000000,1.000000,0.000000,0.000000,0.252572,0.998450,1.000000,0.000000,0.000000
29,0.000001,0.464686,1.000000,0.056414,0.333212,0.032801,0.156442,0.855212,0.000000,0.870720,0.000000,0.000000,0.252572,0.998450,1.000000,0.000000,0.000000
30,0.000001,0.464686,1.000000,0.056414,0.333212,0.000000,0.156442,0.855212,0.000000,0.870720,0.000000,0.000000,0.252572,0.998450,1.000000,0.000000,0.000000
31,0.000001,0.464686,1.000000,0.056414,0.333212,0.000000,0.156442,0.855212,0.000000,0.870720,0.000000,0.000000,0.252572,0.998450,1.000000,0.000000,0.000000
gen, fitness
0,0.009712,0.000000,1.000000,0.210000,0.800000,0.030000,0.030000,1.000000,0.000000,1.000000,0.000000,0.000000,0.600000,1.000000,1.000000,0.000000,0.000000
1,0.009712,0.000000,1.000000,0.210000,0.800000,0.030000,0.030000,1.000000,0.000000,1.000000,0.000000,0.000000,0.600000,1.000000,1.000000,0.000000,0.000000
2,0.001019,0.000000,1.000000,0.210000,0.725537,0.030000,0.030000,1.000000,0.000000,1.000000,0.000000,0.000000,0.600000,1.000000,0.853615,0.000000,0.000000
3,0.000349,0.000000,0.976408,0.105385,0.728306,0.030000,0.030000,1.000000,0.000000,1.000000,0.065991,0.000000,0.600000,1.000000,1.000000,0.000000,1.000000
4,0.000220,0.000000,0.919468,0.073096,0.750281,0.030000,0.133655,1.000000,0.000000,1.000000,0.000000,0.000000,0.600000,1.000000,1.000000,0.000000,0.000000
5,0.000056,0.000000,0.976408,0.105385,0.701809,0.030000,0.030000,1.000000,1.000000,1.000000,0.065991,0.000000,0.537631,1.000000,1.000000,0.028356,0.000000
6,0.000056,0.000000,0.976408,0.105385,0.701809,0.030000,0.030000,1.000000,1.000000,1.000000,0.065991,0.000000,0.537631,1.000000,1.000000,0.028356,0.000000
7,0.000018,0.000000,0.976408,0.105385,0.701809,0.246751,0.030000,1.000000,0.000000,1.000000,0.065991,0.000000,0.537631,1.000000,1.000000,0.028356,0.000000
8,0.000017,0.000000,0.976408,0.105385,0.701809,0.246751,0.030000,1.000000,0.000000,1.000000,0.065991,0.000000,0.537631,1.000000,0.941689,0.028356,0.000000
9,0.000017,0.000000,0.976408,0.090045,0.701809,0.030000,0.030000,1.000000,1.000000,1.000000,0.029706,0.000000,0.537631,1.000000,1.000000,0.000000,0.000000
10,0.000007,0.000000,0.908165,0.105385,0.701809,0.246751,0.030000,0.925411,0.000000,1.000000,0.065991,0.000000,0.537631,1.000000,1.000000,0.028356,0.000000
11,0.000005,0.000000,0.993977,0.105385,0.701809,0.246751,0.000000,0.880277,0.000000,1.000000,0.065991,0.000000,0.537631,0.984625,0.941689,0.028356,0.000000
12,0.000004,0.000000,0.978255,0.105385,0.701809,0.246751,0.030000,0.871464,0.000000,1.000000,0.065991,0.000000,0.537631,1.000000,1.000000,0.011592,0.000000
13,0.000003,0.000000,0.993977,0.105385,0.701809,0.246751,0.000000,0.880277,1.000000,1.000000,0.065991,0.230167,0.365871,1.000000,0.950719,0.135064,0.000000
14,0.000002,0.000000,0.845500,0.105385,0.701809,0.246751,0.000000,0.880277,1.000000,1.000000,0.065991,0.230167,0.365871,0.970792,0.950719,0.135064,0.000000
15,0.000002,0.000000,0.993977,0.105385,0.701809,0.246751,0.000000,0.880277,1.000000,1.000000,0.065991,0.230167,0.365871,0.970792,0.950719,0.135064,0.000000
16,0.000000,0.000000,0.993977,0.116320,0.701809,0.251949,0.000000,0.695810,0.000000,1.000000,0.065991,0.000000,0.537631,0.984625,0.941689,0.000000,0.000000
gen, fitness
0,0.026348,0.000000,1.000000,0.210000,0.800000,0.030000,0.030000,1.000000,0.000000,1.000000,0.000000,0.000000,0.600000,1.000000,1.000000,0.000000,0.000000
1,0.026348,0.000000,1.000000,0.210000,0.800000,0.030000,0.030000,1.000000,0.000000,1.000000,0.000000,0.000000,0.600000,1.000000,1.000000,0.000000,0.000000
2,0.012170,0.000000,1.000000,0.210000,0.680139,0.030000,0.030000,1.000000,0.000000,1.000000,0.000000,0.000000,0.600000,1.000000,1.000000,0.000000,0.000000
3,0.012170,0.000000,1.000000,0.210000,0.680139,0.030000,0.030000,1.000000,0.000000,1.000000,0.000000,0.000000,0.600000,1.000000,1.000000,0.000000,0.000000
4,0.006841,0.000000,1.000000,0.210000,0.636866,0.030000,0.030000,1.000000,0.000000,1.000000,0.000000,0.000000,0.491034,1.000000,1.000000,0.024077,2.000000
5,0.006233,0.000000,1.000000,0.210000,0.615109,0.030000,0.030000,1.000000,0.000000,1.000000,0.000000,0.000000,0.491034,1.000000,1.000000,0.024077,0.000000
6,0.005962,0.012499,1.000000,0.210000,0.594862,0.030000,0.030000,1.000000,0.000000,1.000000,0.000000,0.000000,0.491034,1.000000,1.000000,0.024077,0.000000
7,0.005014,0.012499,1.000000,0.210000,0.540198,0.030000,0.030000,1.000000,0.000000,1.000000,0.000000,0.000000,0.458535,1.000000,0.922276,0.024077,0.000000
8,0.003453,0.000000,1.000000,0.185021,0.549277,0.221951,0.030000,1.000000,0.000000,0.938458,0.009360,0.000000,0.409959,0.936381,1.000000,0.054857,2.000000
9,0.002901,0.080903,1.000000,0.210000,0.540198,0.152790,0.124559,1.000000,0.000000,1.000000,0.000000,0.000000,0.354595,1.000000,0.922276,0.024077,0.000000
10,0.002211,0.000000,0.733064,0.082837,0.549277,0.221951,0.032825,1.000000,0.000000,0.938458,0.000000,0.000000,0.354595,1.000000,0.922276,0.000000,0.000000
11,0.001463,0.080903,1.000000,0.093730,0.549277,0.221951,0.032825,1.000000,0.000000,0.985520,0.000000,0.000000,0.354595,1.000000,0.922276,0.000000,1.000000
12,0.001071,0.012499,1.000000,0.171046,0.481975,0.188071,0.156431,1.000000,0.000000,0.938458,0.009360,0.000000,0.289872,0.936381,1.000000,0.034647,1.000000
13,0.000554,0.080903,1.000000,0.069434,0.549277,0.221951,0.032825,1.000000,0.000000,0.985520,0.133356,0.000000,0.279505,1.000000,0.922276,0.000000,1.000000
14,0.000554,0.080903,1.000000,0.069434,0.549277,0.221951,0.032825,1.000000,0.000000,0.985520,0.133356,0.000000,0.279505,1.000000,0.922276,0.000000,1.000000
15,0.000185,0.080903,1.000000,0.069434,0.500742,0.221951,0.109854,1.000000,0.000000,0.985520,0.133541,0.000000,0.234833,0.828784,0.869024,0.024077,0.000000
16,0.000139,0.028922,1.000000,0.069434,0.520734,0.221951,0.032825,1.000000,0.000000,1.000000,0.133541,0.000000,0.205763,0.828784,1.000000,0.000000,2.000000
17,0.000022,0.028922,1.000000,0.000000,0.549277,0.221951,0.032825,1.000000,0.000000,0.985520,0.133356,0.000000,0.177357,1.000000,0.927648,0.000000,1.000000
18,0.000013,0.028922,0.919461,0.000000,0.549277,0.221951,0.032825,0.927473,0.000000,0.985520,0.133356,0.000000,0.177357,1.000000,0.927648,0.000000,1.000000
19,0.000010,0.145102,1.000000,0.000000,0.520734,0.221951,0.109854,1.000000,0.000000,1.000000,0.000000,0.000000,0.205763,0.828784,1.000000,0.000000,2.000000
20,0.000002,0.145102,1.000000,0.000000,0.520734,0.221951,0.032825,1.000000,1.000000,1.000000,0.133541,0.000000,0.205763,0.828784,1.000000,0.000000,0.000000
21,0.000002,0.145102,1.000000,0.000000,0.520734,0.221951,0.032825,1.000000,1.000000,1.000000,0.133541,0.000000,0.205763,0.828784,1.000000,0.000000,0.000000
22,0.000001,0.145102,1.000000,0.000000,0.510816,0.221951,0.032825,1.000000,1.000000,0.975086,0.133541,0.000000,0.205763,0.828784,1.000000,0.000000,0.000000
23,0.000001,0.145102,1.000000,0.000000,0.520734,0.221951,0.032825,1.000000,1.000000,1.000000,0.133541,0.000000,0.205763,0.828784,1.000000,0.000000,1.000000
24,0.000001,0.145102,1.000000,0.000000,0.520734,0.221951,0.032825,1.000000,0.000000,1.000000,0.000000,0.000000,0.205763,0.828784,1.000000,0.000000,0.000000
gen, fitness
0,0.052335,0.000000,1.000000,0.210000,0.800000,0.030000,0.030000,1.000000,0.000000,1.000000,0.000000,0.000000,0.600000,1.000000,1.000000,0.000000,0.000000
1,0.052335,0.000000,1.000000,0.210000,0.800000,0.030000,0.030000,1.000000,0.000000,1.000000,0.000000,0.000000,0.600000,1.000000,1.000000,0.000000,0.000000
2,0.027971,0.000000,1.000000,0.210000,0.669549,0.138780,0.030000,1.000000,0.000000,1.000000,0.000000,0.000000,0.562121,1.000000,1.000000,0.000000,0.000000
3,0.026459,0.085627,1.000000,0.210000,0.669549,0.000000,0.030000,1.000000,0.000000,1.000000,0.000000,0.000000,0.562121,1.000000,1.000000,0.000000,0.000000
4,0.024816,0.000000,1.000000,0.210000,0.669549,0.138780,0.030000,1.000000,0.000000,1.000000,0.039812,0.000000,0.459571,1.000000,1.000000,0.000000,1.000000
5,0.024541,0.000000,1.000000,0.210000,0.669549,0.138780,0.030000,1.000000,0.000000,1.000000,0.007275,0.000000,0.458212,1.000000,1.000000,0.000000,0.000000
6,0.009714,0.000000,1.000000,0.007728,0.669549,0.138780,0.030000,1.000000,0.000000,1.000000,0.000000,0.000000,0.301674,1.000000,1.000000,0.000000,0.000000
7,0.009534,0.000000,1.000000,0.007728,0.669549,0.196189,0.030000,0.961245,0.000000,1.000000,0.000000,0.000000,0.301674,1.000000,1.000000,0.000000,0.000000
8,0.009534,0.000000,1.000000,0.007728,0.669549,0.196189,0.030000,0.961245,0.000000,1.000000,0.000000,0.000000,0.301674,1.000000,1.000000,0.000000,0.000000
9,0.006314,0.000000,1.000000,0.007728,0.609621,0.196189,0.030000,0.961245,0.000000,1.000000,0.000000,0.000000,0.109754,1.000000,1.000000,0.000000,2.000000
10,0.005919,0.124534,1.000000,0.007728,0.590538,0.097388,0.030000,1.000000,1.000000,1.000000,0.000000,0.000000,0.301674,1.000000,1.000000,0.000000,0.000000
11,0.003553,0.000000,0.940505,0.007728,0.557105,0.196189,0.030000,1.000000,1.000000,1.000000,0.000000,0.000000,0.109754,1.000000,1.000000,0.000000,0.000000
12,0.001999,0.000000,0.940505,0.007728,0.513861,0.196189,0.030000,1.000000,1.000000,1.000000,0.000000,0.000000,0.063952,1.000000,1.000000,0.000000,0.000000
13,0.001422,0.080879,1.000000,0.007728,0.474260,0.196189,0.215557,0.961245,0.000000,1.000000,0.044987,0.000000,0.124567,1.000000,1.000000,0.000000,2.000000
14,0.000402,0.176241,0.940505,0.007728,0.406865,0.196189,0.000000,1.000000,1.000000,1.000000,0.316166,0.000000,0.000000,0.966821,1.000000,0.000000,0.000000
15,0.000334,0.176241,0.940505,0.007728,0.406865,0.196189,0.000000,1.000000,1.000000,1.000000,0.316166,0.000000,0.000000,0.966821,1.000000,0.000000,2.000000
16,0.000057,0.176241,0.940505,0.007728,0.387953,0.196189,0.000000,1.000000,1.000000,1.000000,0.316166,0.025402,0.000000,0.966821,1.000000,0.000000,0.000000
17,0.000054,0.176241,0.940505,0.007728,0.387953,0.196189,0.000000,1.000000,1.000000,1.000000,0.431952,0.025402,0.000000,0.966821,1.000000,0.000000,0.000000
18,0.000013,0.176241,0.940505,0.007728,0.370721,0.196189,0.000000,1.000000,1.000000,1.000000,0.316166,0.000000,0.000000,0.966821,1.000000,0.000000,0.000000
19,0.000005,0.176241,0.940505,0.007728,0.387953,0.196189,0.000000,0.770954,1.000000,1.000000,0.316166,0.000000,0.000000,0.966821,1.000000,0.000000,2.000000
20,0.000000,0.216360,0.940505,0.000000,0.387953,0.196189,0.000000,0.851987,0.000000,1.000000,0.316166,0.025402,0.000000,0.966821,1.000000,0.000000,0.000000
gen, fitness
0,0.080636,0.000000,1.000000,0.210000,0.800000,0.030000,0.030000,1.000000,0.000000,1.000000,0.000000,0.000000,0.600000,1.000000,1.000000,0.000000,0.000000
1,0.080636,0.000000,1.000000,0.210000,0.800000,0.030000,0.030000,1.000000,0.000000,1.000000,0.000000,0.000000,0.600000,1.000000,1.000000,0.000000,0.000000
2,0.071933,0.000000,1.000000,0.144360,0.800000,0.030000,0.030000,1.000000,0.000000,1.000000,0.000000,0.000000,0.600000,1.000000,1.000000,0.116353,0.000000
3,0.061504,0.000000,1.000000,0.153835,0.760063,0.030000,0.030000,1.000000,0.000000,1.000000,0.000000,0.000000,0.600000,1.000000,1.000000,0.000000,0.000000
4,0.053033,0.000000,1.000000,0.210000,0.669705,0.030000,0.030000,1.000000,0.000000,1.000000,0.000000,0.000000,0.600000,1.000000,1.000000,0.116353,0.000000
5,0.050228,0.000000,1.000000,0.214440,0.629947,0.054375,0.030000,1.000000,0.000000,1.000000,0.000000,0.000000,0.600000,1.000000,1.000000,0.000000,0.000000
6,0.045543,0.169783,1.000000,0.061770,0.629947,0.030000,0.030000,1.000000,2.000000,1.000000,0.000000,0.000000,0.600000,1.000000,1.000000,0.116353,0.000000
7,0.042827,0.000000,1.000000,0.214440,0.629947,0.030000,0.030000,1.000000,0.000000,1.000000,0.112316,0.000000,0.460808,1.000000,1.000000,0.116353,2.000000
8,0.033548,0.169783,1.000000,0.061770,0.629947,0.030000,0.030000,1.000000,2.000000,1.000000,0.000000,0.000000,0.476346,1.000000,1.000000,0.116353,0.000000
9,0.023208,0.242079,1.000000,0.000000,0.629947,0.030000,0.030000,1.000000,0.000000,1.000000,0.000000,0.000000,0.387303,1.000000,1.000000,0.000000,0.000000
10,0.023208,0.242079,1.000000,0.000000,0.629947,0.030000,0.030000,1.000000,0.000000,1.000000,0.000000,0.000000,0.387303,1.000000,1.000000,0.000000,0.000000
11,0.018844,0.242079,1.000000,0.000000,0.448749,0.030000,0.004743,1.000000,2.000000,1.000000,0.158909,0.000000,0.387303,1.000000,1.000000,0.000000,1.000000
12,0.018390,0.139618,1.000000,0.003500,0.578362,0.299516,0.030000,0.922087,1.000000,1.000000,0.000000,0.014625,0.283282,1.000000,1.000000,0.000000,2.000000
13,0.017331,0.242079,1.000000,0.000000,0.448749,0.030000,0.004743,1.000000,2.000000,1.000000,0.158909,0.000000,0.373946,1.000000,1.000000,0.000000,0.000000
14,0.012213,0.242079,1.000000,0.055175,0.410706,0.000000,0.000000,0.890958,1.000000,1.000000,0.175685,0.014625,0.283282,1.000000,1.000000,0.000000,2.000000
15,0.008586,0.384427,1.000000,0.000000,0.448749,0.030000,0.004743,1.000000,2.000000,1.000000,0.158909,0.000000,0.257003,1.000000,1.000000,0.000000,1.000000
16,0.008240,0.066068,1.000000,0.003500,0.473872,0.289846,0.125137,0.890958,1.000000,1.000000,0.058337,0.014625,0.066066,1.000000,1.000000,0.000000,2.000000
17,0.006906,0.242079,1.000000,0.000000,0.448749,0.012545,0.125137,0.890958,1.000000,1.000000,0.058337,0.000000,0.066066,1.000000,0.937993,0.000000,2.000000
18,0.001211,0.382864,0.984393,0.000000,0.246944,0.030000,0.004743,1.000000,1.000000,1.000000,0.058337,0.014625,0.066066,1.000000,1.000000,0.000000,2.000000
19,0.000492,0.443330,0.986357,0.000000,0.246944,0.012545,0.125137,0.890958,1.000000,1.000000,0.058337,0.000000,0.066066,1.000000,0.937993,0.000000,2.000000
20,0.000319,0.517287,0.986357,0.000000,0.246944,0.012545,0.200007,0.890958,1.000000,1.000000,0.058337,0.000000,0.066066,1.000000,0.937993,0.000000,2.000000
21,0.000164,0.443330,0.986357,0.000000,0.246944,0.012545,0.125137,0.825055,0.000000,1.000000,0.058337,0.000000,0.000000,1.000000,1.000000,0.000000,2.000000
22,0.000164,0.443330,0.986357,0.000000,0.246944,0.012545,0.125137,0.825055,0.000000,1.000000,0.058337,0.000000,0.000000,1.000000,1.000000,0.000000,2.000000
23,0.000146,0.443330,0.955270,0.000000,0.246944,0.012545,0.125137,0.825055,0.000000,1.000000,0.058337,0.014625,0.000000,1.000000,0.959131,0.000000,2.000000
24,0.000119,0.517287,0.986357,0.000000,0.246944,0.000000,0.112089,0.737473,0.000000,1.000000,0.058337,0.000000,0.052572,1.000000,1.000000,0.044972,2.000000
25,0.000022,0.443330,0.986357,0.000000,0.225745,0.012545,0.067074,0.825055,0.000000,1.000000,0.058337,0.000000,0.000000,1.000000,1.000000,0.000000,1.000000
26,0.000022,0.443330,0.986357,0.000000,0.225745,0.012545,0.067074,0.825055,0.000000,1.000000,0.058337,0.000000,0.000000,1.000000,1.000000,0.000000,1.000000
27,0.000013,0.481022,0.955270,0.000000,0.210438,0.012545,0.125137,0.825055,0.000000,1.000000,0.090991,0.014625,0.000000,1.000000,0.959131,0.000000,1.000000
28,0.000013,0.481022,0.955270,0.000000,0.210438,0.012545,0.125137,0.825055,0.000000,1.000000,0.090991,0.014625,0.000000,1.000000,0.959131,0.000000,1.000000
29,0.000003,0.473593,0.955270,0.000000,0.237473,0.012545,0.000000,0.562494,0.000000,1.000000,0.058337,0.014625,0.000000,1.000000,1.000000,0.000000,0.000000
30,0.000002,0.481022,0.887145,0.000000,0.237473,0.012545,0.000000,0.562494,0.000000,1.000000,0.094487,0.014625,0.000000,1.000000,1.000000,0.000000,0.000000
31,0.000002,0.481022,0.887145,0.000000,0.237473,0.012545,0.000000,0.562494,0.000000,1.000000,0.094487,0.014625,0.000000,1.000000,1.000000,0.000000,0.000000
32,0.000001,0.481022,0.880466,0.000000,0.210438,0.012545,0.067074,0.703685,1.000000,1.000000,0.058337,0.000000,0.000000,1.000000,1.000000,0.000000,2.000000
33,0.000000,0.481022,0.880466,0.000000,0.210438,0.012545,0.067074,0.703685,1.000000,1.000000,0.058337,0.000000,0.000000,1.000000,0.887629,0.000000,1.000000
gen, fitness
0,0.025383,0.000000,1.000000,0.210000,0.800000,0.030000,0.030000,1.000000,0.000000,1.000000,0.000000,0.000000,0.600000,1.000000,1.000000,0.000000,0.000000
1,0.025383,0.000000,1.000000,0.210000,0.800000,0.030000,0.030000,1.000000,0.000000,1.000000,0.000000,0.000000,0.600000,1.000000,1.000000,0.000000,0.000000
2,0.012310,0.000000,1.000000,0.210000,0.706129,0.030000,0.030000,1.000000,0.000000,1.000000,0.000000,0.000000,0.621256,1.000000,1.000000,0.000000,0.000000
3,0.012139,0.000000,1.000000,0.210000,0.706129,0.030000,0.030000,0.947228,0.000000,1.000000,0.000000,0.000000,0.621256,1.000000,1.000000,0.000000,0.000000
4,0.006684,0.000000,1.000000,0.000000,0.706129,0.030000,0.030000,1.000000,0.000000,1.000000,0.000000,0.101703,0.427660,1.000000,1.000000,0.000000,2.000000
5,0.004779,0.000000,1.000000,0.000000,0.706129,0.030000,0.030000,1.000000,0.000000,1.000000,0.000000,0.000000,0.448687,1.000000,0.898763,0.000000,0.000000
6,0.004723,0.000000,1.000000,0.000000,0.670052,0.030000,0.030000,1.000000,0.000000,1.000000,0.000000,0.000000,0.448687,0.992503,0.828589,0.000000,0.000000
7,0.003544,0.117723,1.000000,0.000000,0.670052,0.030000,0.030000,0.993916,0.000000,1.000000,0.000000,0.000000,0.448687,0.992503,0.828589,0.000000,0.000000
8,0.003421,0.117723,1.000000,0.013411,0.670052,0.030000,0.030000,0.826995,0.000000,1.000000,0.000000,0.000000,0.448687,0.992503,0.828589,0.000000,0.000000
9,0.003016,0.117723,1.000000,0.013411,0.670052,0.030000,0.030000,0.826995,0.000000,1.000000,0.000000,0.000000,0.382647,0.992503,0.828589,0.000000,0.000000
10,0.002240,0.000000,0.873595,0.000000,0.620900,0.000000,0.030000,0.989727,2.000000,1.000000,0.000000,0.000000,0.271513,0.992503,0.828589,0.000000,2.000000
11,0.002107,0.000000,0.873595,0.000000,0.620900,0.000000,0.030000,0.989727,2.000000,1.000000,0.000000,0.000000,0.271513,1.000000,0.828589,0.000000,0.000000
12,0.001112,0.117723,0.960594,0.000000,0.572981,0.000000,0.089188,0.989727,2.000000,1.000000,0.000000,0.000000,0.271513,1.000000,0.828589,0.000000,2.000000
13,0.001112,0.117723,0.960594,0.000000,0.572981,0.000000,0.089188,0.989727,2.000000,1.000000,0.000000,0.000000,0.271513,1.000000,0.828589,0.000000,2.000000
14,0.000400,0.110632,0.644573,0.000000,0.505149,0.000665,0.030000,0.989727,2.000000,1.000000,0.000000,0.000000,0.213367,1.000000,0.838962,0.000000,0.000000
15,0.000130,0.110632,0.644573,0.000000,0.505149,0.000665,0.030000,0.989727,2.000000,1.000000,0.000000,0.000000,0.165357,1.000000,0.838962,0.000000,0.000000
16,0.000091,0.110632,0.644573,0.000000,0.488775,0.000665,0.030000,0.989727,2.000000,1.000000,0.000000,0.000000,0.165357,1.000000,0.838962,0.000000,0.000000
17,0.000059,0.223579,0.644573,0.000000,0.505149,0.000665,0.030000,0.989727,0.000000,1.000000,0.000000,0.000000,0.213367,1.000000,0.838962,0.000000,0.000000
18,0.000032,0.110632,0.644573,0.000000,0.505149,0.000665,0.030000,0.942321,0.000000,1.000000,0.000000,0.000000,0.143908,1.000000,1.000000,0.081419,2.000000
19,0.000032,0.110632,0.644573,0.000000,0.505149,0.000665,0.022018,0.942321,0.000000,1.000000,0.000000,0.000000,0.143908,1.000000,1.000000,0.081419,2.000000
20,0.000029,0.110632,0.644573,0.000000,0.505149,0.000665,0.030000,0.804018,0.000000,1.000000,0.000000,0.000000,0.143908,1.000000,1.000000,0.081419,2.000000
21,0.000008,0.223579,0.644573,0.000000,0.487716,0.047961,0.030000,0.989727,0.000000,1.000000,0.000000,0.000000,0.181632,1.000000,0.937344,0.081419,2.000000
22,0.000008,0.223579,0.644573,0.000000,0.487716,0.047961,0.018859,0.989727,0.000000,1.000000,0.000000,0.000000,0.181632,1.000000,0.937344,0.081419,2.000000
23,0.000008,0.223579,0.644573,0.000000,0.487716,0.047961,0.030000,0.989727,0.000000,1.000000,0.000000,0.000000,0.181632,1.000000,1.000000,0.081419,2.000000
24,0.000008,0.110632,0.644573,0.000000,0.505149,0.000665,0.030000,0.818723,0.000000,1.000000,0.019715,0.000000,0.143908,1.000000,0.942770,0.000000,2.000000
25,0.000005,0.223579,0.621231,0.000000,0.487716,0.047961,0.030000,0.909896,0.000000,1.000000,0.000000,0.000000,0.181632,1.000000,0.937344,0.081419,2.000000
26,0.000001,0.223579,0.501406,0.000000,0.487716,0.047961,0.018859,0.882855,0.000000,1.000000,0.000000,0.000000,0.181632,1.000000,0.937344,0.081419,0.000000
