gen, fitness
0,0.094016,0.000000,1.000000,0.210000,0.800000,0.030000,0.030000,1.000000,0.000000,1.000000,0.000000,0.000000,0.600000,1.000000,1.000000,0.000000,0.000000
1,0.094016,0.000000,1.000000,0.210000,0.800000,0.030000,0.030000,1.000000,0.000000,1.000000,0.000000,0.000000,0.600000,1.000000,1.000000,0.000000,0.000000
2,0.053116,0.000000,1.000000,0.149149,0.611979,0.000000,0.009003,1.000000,1.000000,0.851042,0.086975,0.052912,0.416019,0.840627,0.857687,0.035105,2.000000
3,0.031803,0.024968,0.920189,0.000000,0.515219,0.000000,0.000000,0.926500,1.000000,0.906633,0.000000,0.000000,0.327936,1.000000,1.000000,0.182797,0.000000
4,0.022360,0.232398,0.977819,0.000000,0.440437,0.000000,0.000000,0.738872,0.000000,0.779702,0.000000,0.000000,0.254042,1.000000,1.000000,0.290461,2.000000
5,0.019253,0.466850,0.830398,0.075582,0.368983,0.000000,0.008574,0.941867,1.000000,1.000000,0.161874,0.068149,0.220281,1.000000,0.977585,0.343391,0.000000
6,0.014843,0.455258,0.843460,0.091477,0.231596,0.087860,0.086998,0.908079,0.000000,0.798351,0.204448,0.000000,0.191712,0.914275,1.000000,0.465355,2.000000
7,0.010024,0.346214,0.751315,0.000000,0.140988,0.045807,0.000000,0.994868,2.000000,0.998000,0.311528,0.000000,0.098517,0.909665,1.000000,0.354296,0.000000
8,0.003795,0.473959,0.827135,0.067565,0.129126,0.467213,0.000000,0.757081,1.000000,0.938308,0.025565,0.000000,0.000000,0.781964,0.843093,0.416218,2.000000
9,0.003558,0.647631,0.807658,0.027175,0.152477,0.000000,0.000000,1.000000,2.000000,1.000000,0.343313,0.060289,0.018104,0.977686,0.877988,0.513128,0.000000
10,0.000676,0.631139,0.569012,0.000000,0.000000,0.784975,0.000000,0.780612,0.000000,0.792434,0.070845,0.000000,0.000000,0.732744,0.695583,0.190053,1.000000
11,0.000107,0.847759,0.844706,0.000000,0.000000,0.051370,0.000000,0.984398,2.000000,0.990125,0.337702,0.000000,0.011148,0.812198,0.909322,0.424228,2.000000
12,0.000107,0.847759,0.844706,0.000000,0.000000,0.051370,0.000000,0.984398,2.000000,0.990125,0.337702,0.000000,0.011148,0.812198,0.909322,0.424228,2.000000
13,0.000107,0.847759,0.844706,0.000000,0.000000,0.051370,0.000000,0.984398,2.000000,0.990125,0.337702,0.000000,0.011148,0.812198,0.909322,0.424228,2.000000
14,0.000107,0.847759,0.844706,0.000000,0.000000,0.051370,0.000000,0.984398,2.000000,0.990125,0.337702,0.000000,0.011148,0.812198,0.909322,0.424228,2.000000
15,0.000107,0.847759,0.844706,0.000000,0.000000,0.051370,0.000000,0.984398,2.000000,0.990125,0.337702,0.000000,0.011148,0.812198,0.909322,0.424228,2.000000
16,0.000107,0.847759,0.844706,0.000000,0.000000,0.051370,0.000000,0.984398,2.000000,0.990125,0.337702,0.000000,0.011148,0.812198,0.909322,0.424228,2.000000
17,0.000081,1.000000,1.000000,0.000000,0.000000,0.000000,0.054864,1.000000,0.000000,1.000000,0.274599,0.000000,0.129576,0.663705,0.826664,0.131082,1.000000
18,0.000043,0.889874,1.000000,0.000000,0.000000,0.001122,0.000000,0.893750,2.000000,0.982675,0.361878,0.000000,0.000000,0.739568,0.676131,0.419979,1.000000
19,0.000025,0.884282,0.879685,0.000000,0.000000,0.000000,0.000000,1.000000,0.000000,1.000000,0.420337,0.000000,0.000000,0.578232,0.915535,0.508832,1.000000
20,0.000025,0.884282,0.879685,0.000000,0.000000,0.000000,0.000000,1.000000,0.000000,1.000000,0.420337,0.000000,0.000000,0.578232,0.915535,0.508832,1.000000
21,0.000025,0.884282,0.879685,0.000000,0.000000,0.000000,0.000000,1.000000,0.000000,1.000000,0.420337,0.000000,0.000000,0.578232,0.915535,0.508832,1.000000
22,0.000025,0.884282,0.879685,0.000000,0.000000,0.000000,0.000000,1.000000,0.000000,1.000000,0.420337,0.000000,0.000000,0.578232,0.915535,0.508832,1.000000
23,0.000025,0.884282,0.879685,0.000000,0.000000,0.000000,0.000000,1.000000,0.000000,1.000000,0.420337,0.000000,0.000000,0.578232,0.915535,0.508832,1.000000
24,0.000025,0.884282,0.879685,0.000000,0.000000,0.000000,0.000000,1.000000,0.000000,1.000000,0.420337,0.000000,0.000000,0.578232,0.915535,0.508832,1.000000
25,0.000025,0.884282,0.879685,0.000000,0.000000,0.000000,0.000000,1.000000,0.000000,1.000000,0.420337,0.000000,0.000000,0.578232,0.915535,0.508832,1.000000
26,0.000025,0.884282,0.879685,0.000000,0.000000,0.000000,0.000000,1.000000,0.000000,1.000000,0.420337,0.000000,0.000000,0.578232,0.915535,0.508832,1.000000
27,0.000009,0.874116,0.879996,0.000000,0.000000,0.000000,0.123199,0.816052,0.000000,1.000000,0.449576,0.000000,0.017906,0.341656,0.810896,0.216627,0.000000
28,0.000009,0.874116,0.879996,0.000000,0.000000,0.000000,0.123199,0.816052,0.000000,1.000000,0.449576,0.000000,0.017906,0.341656,0.810896,0.216627,0.000000
29,0.000009,0.874116,0.879996,0.000000,0.000000,0.000000,0.123199,0.816052,0.000000,1.000000,0.449576,0.000000,0.017906,0.341656,0.810896,0.216627,0.000000
30,0.000009,0.874116,0.879996,0.000000,0.000000,0.000000,0.123199,0.816052,0.000000,1.000000,0.449576,0.000000,0.017906,0.341656,0.810896,0.216627,0.000000
31,0.000007,0.937936,0.920384,0.000000,0.000000,0.000000,0.176436,0.766342,1.000000,1.000000,0.525323,0.000000,0.015809,0.361210,0.684733,0.411963,1.000000
32,0.000007,0.937936,0.920384,0.000000,0.000000,0.000000,0.176436,0.766342,1.000000,1.000000,0.525323,0.000000,0.015809,0.361210,0.684733,0.411963,1.000000
33,0.000007,0.937936,0.920384,0.000000,0.000000,0.000000,0.176436,0.766342,1.000000,1.000000,0.525323,0.000000,0.015809,0.361210,0.684733,0.411963,1.000000
34,0.000007,0.937936,0.920384,0.000000,0.000000,0.000000,0.176436,0.766342,1.000000,1.000000,0.525323,0.000000,0.015809,0.361210,0.684733,0.411963,1.000000
35,0.000007,0.937936,0.920384,0.000000,0.000000,0.000000,0.176436,0.766342,1.000000,1.000000,0.525323,0.000000,0.015809,0.361210,0.684733,0.411963,1.000000
36,0.000007,0.937936,0.920384,0.000000,0.000000,0.000000,0.176436,0.766342,1.000000,1.000000,0.525323,0.000000,0.015809,0.361210,0.684733,0.411963,1.000000
37,0.000007,0.937936,0.920384,0.000000,0.000000,0.000000,0.176436,0.766342,1.000000,1.000000,0.525323,0.000000,0.015809,0.361210,0.684733,0.411963,1.000000
gen, fitness
0,0.011444,0.000000,1.000000,0.210000,0.800000,0.030000,0.030000,1.000000,0.000000,1.000000,0.000000,0.000000,0.600000,1.000000,1.000000,0.000000,0.000000
1,0.011444,0.000000,1.000000,0.210000,0.800000,0.030000,0.030000,1.000000,0.000000,1.000000,0.000000,0.000000,0.600000,1.000000,1.000000,0.000000,0.000000
2,0.003456,0.000000,0.982864,0.126556,0.674066,0.000000,0.116917,0.994025,2.000000,0.923204,0.000000,0.063151,0.425997,1.000000,0.886188,0.028621,2.000000
3,0.002704,0.050787,1.000000,0.137866,0.624141,0.000000,0.265258,0.855130,1.000000,0.894390,0.000000,0.037164,0.448314,1.000000,0.784453,0.095285,1.000000
4,0.001253,0.170235,0.665469,0.119592,0.568411,0.075427,0.031396,0.935376,1.000000,0.897811,0.070390,0.104393,0.344947,0.803191,0.823553,0.000000,2.000000
5,0.000089,0.090438,0.899431,0.284745,0.253043,0.000000,0.148877,0.949686,2.000000,0.795319,0.208733,0.000000,0.216809,1.000000,0.964239,0.048666,2.000000
6,0.000089,0.090438,0.899431,0.284745,0.253043,0.000000,0.148877,0.949686,2.000000,0.795319,0.208733,0.000000,0.216809,1.000000,0.964239,0.048666,2.000000
7,0.000004,0.000000,0.978037,0.349578,0.168937,0.037176,0.000000,0.978725,0.000000,0.873293,0.236639,0.000000,0.135459,1.000000,0.885501,0.000000,1.000000
8,0.000004,0.000000,0.978037,0.349578,0.168937,0.037176,0.000000,0.978725,0.000000,0.873293,0.236639,0.000000,0.135459,1.000000,0.885501,0.000000,1.000000
9,0.000004,0.000000,0.978037,0.349578,0.168937,0.037176,0.000000,0.978725,0.000000,0.873293,0.236639,0.000000,0.135459,1.000000,0.885501,0.000000,1.000000
10,0.000004,0.000000,0.978037,0.349578,0.168937,0.037176,0.000000,0.978725,0.000000,0.873293,0.236639,0.000000,0.135459,1.000000,0.885501,0.000000,1.000000
11,0.000004,0.000000,0.978037,0.349578,0.168937,0.037176,0.000000,0.978725,0.000000,0.873293,0.236639,0.000000,0.135459,1.000000,0.885501,0.000000,1.000000
12,0.000004,0.000000,0.978037,0.349578,0.168937,0.037176,0.000000,0.978725,0.000000,0.873293,0.236639,0.000000,0.135459,1.000000,0.885501,0.000000,1.000000
13,0.000004,0.000000,0.978037,0.349578,0.168937,0.037176,0.000000,0.978725,0.000000,0.873293,0.236639,0.000000,0.135459,1.000000,0.885501,0.000000,1.000000
14,0.000004,0.000000,0.978037,0.349578,0.168937,0.037176,0.000000,0.978725,0.000000,0.873293,0.236639,0.000000,0.135459,1.000000,0.885501,0.000000,1.000000
15,0.000004,0.000000,0.978037,0.349578,0.168937,0.037176,0.000000,0.978725,0.000000,0.873293,0.236639,0.000000,0.135459,1.000000,0.885501,0.000000,1.000000
16,0.000004,0.000000,0.978037,0.349578,0.168937,0.037176,0.000000,0.978725,0.000000,0.873293,0.236639,0.000000,0.135459,1.000000,0.885501,0.000000,1.000000
17,0.000000,0.338518,0.680608,0.476821,0.000000,0.000000,0.193177,0.727586,0.000000,0.710587,0.175983,0.275493,0.000000,0.758841,0.797368,0.000000,1.000000
gen, fitness
0,0.010533,0.000000,1.000000,0.210000,0.800000,0.030000,0.030000,1.000000,0.000000,1.000000,0.000000,0.000000,0.600000,1.000000,1.000000,0.000000,0.000000
1,0.010533,0.000000,1.000000,0.210000,0.800000,0.030000,0.030000,1.000000,0.000000,1.000000,0.000000,0.000000,0.600000,1.000000,1.000000,0.000000,0.000000
2,0.001326,0.180319,0.954110,0.229960,0.554633,0.017621,0.035706,1.000000,1.000000,1.000000,0.249265,0.000000,0.414277,1.000000,0.944249,0.000000,1.000000
3,0.000688,0.015844,0.862804,0.061900,0.552621,0.000000,0.073176,1.000000,0.000000,0.654446,0.173503,0.008422,0.332516,0.846282,0.833451,0.000000,2.000000
4,0.000458,0.307849,0.841363,0.123485,0.579558,0.292896,0.022047,1.000000,2.000000,0.994268,0.158168,0.007045,0.499546,1.000000,1.000000,0.105420,2.000000
5,0.000182,0.205501,0.997469,0.054659,0.651635,0.032070,0.000000,0.790728,2.000000,0.979509,0.000000,0.000000,0.467068,1.000000,0.569862,0.107138,1.000000
6,0.000035,0.196617,0.979743,0.125174,0.514822,0.000000,0.012509,0.882506,2.000000,0.853473,0.000000,0.000000,0.396299,0.948943,1.000000,0.204439,2.000000
7,0.000006,0.319042,0.794035,0.182330,0.487350,0.129281,0.000000,0.822604,0.000000,0.941222,0.000000,0.000000,0.434934,1.000000,0.691074,0.000000,1.000000
8,0.000006,0.319042,0.794035,0.182330,0.487350,0.129281,0.000000,0.822604,0.000000,0.941222,0.000000,0.000000,0.434934,1.000000,0.691074,0.000000,1.000000
9,0.000006,0.319042,0.794035,0.182330,0.487350,0.129281,0.000000,0.822604,0.000000,0.941222,0.000000,0.000000,0.434934,1.000000,0.691074,0.000000,1.000000
10,0.000006,0.319042,0.794035,0.182330,0.487350,0.129281,0.000000,0.822604,0.000000,0.941222,0.000000,0.000000,0.434934,1.000000,0.691074,0.000000,1.000000
11,0.000005,0.089666,1.000000,0.389245,0.103599,0.213412,0.326548,0.718136,1.000000,0.524331,0.449729,0.000000,0.328672,0.822580,1.000000,0.000000,0.000000
12,0.000005,0.089666,1.000000,0.389245,0.103599,0.213412,0.326548,0.718136,1.000000,0.524331,0.449729,0.000000,0.328672,0.822580,1.000000,0.000000,0.000000
13,0.000005,0.089666,1.000000,0.389245,0.103599,0.213412,0.326548,0.718136,1.000000,0.524331,0.449729,0.000000,0.328672,0.822580,1.000000,0.000000,0.000000
14,0.000005,0.061989,0.727915,0.059389,0.438228,0.000000,0.234321,1.000000,0.000000,0.504408,0.421554,0.172789,0.176963,0.496539,0.871820,0.000000,1.000000
15,0.000005,0.061989,0.727915,0.059389,0.438228,0.000000,0.234321,1.000000,0.000000,0.504408,0.421554,0.172789,0.176963,0.496539,0.871820,0.000000,1.000000
16,0.000005,0.061989,0.727915,0.059389,0.438228,0.000000,0.234321,1.000000,0.000000,0.504408,0.421554,0.172789,0.176963,0.496539,0.871820,0.000000,1.000000
17,0.000005,0.061989,0.727915,0.059389,0.438228,0.000000,0.234321,1.000000,0.000000,0.504408,0.421554,0.172789,0.176963,0.496539,0.871820,0.000000,1.000000
gen, fitness
0,0.067934,0.000000,1.000000,0.210000,0.800000,0.030000,0.030000,1.000000,0.000000,1.000000,0.000000,0.000000,0.600000,1.000000,1.000000,0.000000,0.000000
1,0.067934,0.000000,1.000000,0.210000,0.800000,0.030000,0.030000,1.000000,0.000000,1.000000,0.000000,0.000000,0.600000,1.000000,1.000000,0.000000,0.000000
2,0.041994,0.082000,0.923305,0.048549,0.680730,0.000000,0.051013,0.871458,1.000000,0.996914,0.082210,0.000000,0.573597,0.910395,0.986236,0.080353,1.000000
3,0.029353,0.000000,1.000000,0.161557,0.543283,0.028158,0.000000,0.947661,1.000000,0.993477,0.057264,0.000000,0.430385,0.987101,1.000000,0.014335,2.000000
4,0.026880,0.261529,0.766717,0.204791,0.499699,0.166745,0.000000,0.950187,1.000000,0.815231,0.000000,0.000000,0.406404,0.848039,1.000000,0.259300,0.000000
5,0.012767,0.122644,0.908662,0.000000,0.494174,0.000000,0.000000,0.892155,0.000000,0.989632,0.323467,0.000000,0.275605,0.923266,0.893991,0.115385,0.000000
6,0.011735,0.415232,0.747444,0.104154,0.490234,0.000000,0.023867,0.927063,1.000000,1.000000,0.226304,0.000000,0.322493,0.888238,0.965676,0.000000,0.000000
7,0.003028,0.209057,0.777070,0.044371,0.385679,0.124514,0.275013,0.754419,0.000000,1.000000,0.130133,0.005211,0.068058,0.735626,1.000000,0.235059,1.000000
8,0.001478,0.342305,0.780750,0.000000,0.392884,0.000000,0.041259,0.892322,2.000000,0.943828,0.435958,0.034176,0.000000,0.986722,0.988231,0.200658,0.000000
9,0.000131,0.496614,0.548075,0.000000,0.248182,0.249561,0.174748,0.971226,2.000000,0.915879,0.000000,0.000000,0.047152,0.811136,1.000000,0.144261,0.000000
10,0.000131,0.496614,0.548075,0.000000,0.248182,0.249561,0.174748,0.971226,2.000000,0.915879,0.000000,0.000000,0.047152,0.811136,1.000000,0.144261,0.000000
11,0.000091,0.534549,0.822305,0.000000,0.254023,0.315770,0.000000,0.869349,0.000000,0.933972,0.000000,0.049634,0.000000,0.551087,0.734246,0.053411,1.000000
12,0.000059,0.522440,0.417213,0.081768,0.135466,0.188552,0.085216,0.946490,0.000000,0.847673,0.000000,0.000000,0.000000,0.726525,0.909459,0.161022,2.000000
13,0.000052,0.456172,0.562477,0.000000,0.310006,0.229542,0.000000,0.944941,0.000000,0.963184,0.036625,0.000000,0.000000,0.952565,0.849046,0.273307,0.000000
14,0.000052,0.456172,0.562477,0.000000,0.310006,0.229542,0.000000,0.944941,0.000000,0.963184,0.036625,0.000000,0.000000,0.952565,0.849046,0.273307,0.000000
15,0.000012,0.560295,0.827162,0.100283,0.087627,0.259236,0.289448,0.731479,0.000000,0.761545,0.026204,0.000000,0.079048,0.592670,0.609027,0.000000,1.000000
16,0.000012,0.560295,0.827162,0.100283,0.087627,0.259236,0.289448,0.731479,0.000000,0.761545,0.026204,0.000000,0.079048,0.592670,0.609027,0.000000,1.000000
17,0.000012,0.560295,0.827162,0.100283,0.087627,0.259236,0.289448,0.731479,0.000000,0.761545,0.026204,0.000000,0.079048,0.592670,0.609027,0.000000,1.000000
18,0.000012,0.560295,0.827162,0.100283,0.087627,0.259236,0.289448,0.731479,0.000000,0.761545,0.026204,0.000000,0.079048,0.592670,0.609027,0.000000,1.000000
19,0.000012,0.560295,0.827162,0.100283,0.087627,0.259236,0.289448,0.731479,0.000000,0.761545,0.026204,0.000000,0.079048,0.592670,0.609027,0.000000,1.000000
20,0.000012,0.560295,0.827162,0.100283,0.087627,0.259236,0.289448,0.731479,0.000000,0.761545,0.026204,0.000000,0.079048,0.592670,0.609027,0.000000,1.000000
21,0.000012,0.560295,0.827162,0.100283,0.087627,0.259236,0.289448,0.731479,0.000000,0.761545,0.026204,0.000000,0.079048,0.592670,0.609027,0.000000,1.000000
22,0.000012,0.560295,0.827162,0.100283,0.087627,0.259236,0.289448,0.731479,0.000000,0.761545,0.026204,0.000000,0.079048,0.592670,0.609027,0.000000,1.000000
23,0.000012,0.560295,0.827162,0.100283,0.087627,0.259236,0.289448,0.731479,0.000000,0.761545,0.026204,0.000000,0.079048,0.592670,0.609027,0.000000,1.000000
24,0.000012,0.560295,0.827162,0.100283,0.087627,0.259236,0.289448,0.731479,0.000000,0.761545,0.026204,0.000000,0.079048,0.592670,0.609027,0.000000,1.000000
25,0.000012,0.560295,0.827162,0.100283,0.087627,0.259236,0.289448,0.731479,0.000000,0.761545,0.026204,0.000000,0.079048,0.592670,0.609027,0.000000,1.000000
gen, fitness
0,0.030614,0.000000,1.000000,0.210000,0.800000,0.030000,0.030000,1.000000,0.000000,1.000000,0.000000,0.000000,0.600000,1.000000,1.000000,0.000000,0.000000
1,0.030614,0.000000,1.000000,0.210000,0.800000,0.030000,0.030000,1.000000,0.000000,1.000000,0.000000,0.000000,0.600000,1.000000,1.000000,0.000000,0.000000
2,0.011457,0.248951,1.000000,0.164171,0.658464,0.065685,0.064395,1.000000,1.000000,1.000000,0.000000,0.000000,0.577415,1.000000,1.000000,0.040210,1.000000
3,0.006298,0.313910,0.775663,0.216665,0.490510,0.076757,0.000000,0.779214,0.000000,0.878279,0.000000,0.079955,0.469849,0.913189,1.000000,0.035489,0.000000
4,0.003724,0.133613,0.736209,0.044961,0.613235,0.227876,0.000000,0.968526,1.000000,1.000000,0.009544,0.000000,0.329168,1.000000,0.872294,0.111001,0.000000
5,0.003217,0.173089,1.000000,0.174869,0.492969,0.037320,0.000000,0.891315,1.000000,0.987599,0.036801,0.109771,0.232437,1.000000,0.831938,0.004128,0.000000
6,0.001818,0.447903,0.790888,0.091056,0.508506,0.000000,0.000000,0.937474,0.000000,1.000000,0.129140,0.000000,0.393697,1.000000,1.000000,0.000000,1.000000
7,0.000336,0.051042,1.000000,0.000000,0.459286,0.000000,0.184031,0.470338,0.000000,1.000000,0.117061,0.036882,0.027169,0.713986,0.819049,0.000000,2.000000
8,0.000046,0.157022,0.919806,0.142371,0.290994,0.042637,0.000000,0.994309,2.000000,0.991836,0.219900,0.081116,0.000000,1.000000,0.873850,0.073738,0.000000
9,0.000046,0.157022,0.919806,0.142371,0.290994,0.042637,0.000000,0.994309,2.000000,0.991836,0.219900,0.081116,0.000000,1.000000,0.873850,0.073738,0.000000
10,0.000018,0.000000,1.000000,0.038463,0.379435,0.000000,0.097842,0.538552,1.000000,0.867148,0.213756,0.000000,0.000000,0.691131,0.385699,0.034267,1.000000
11,0.000008,0.407974,0.781963,0.092034,0.266697,0.045790,0.000000,0.906889,0.000000,0.778181,0.000000,0.065037,0.124539,1.000000,0.961210,0.274867,1.000000
12,0.000008,0.407974,0.781963,0.092034,0.266697,0.045790,0.000000,0.906889,0.000000,0.778181,0.000000,0.065037,0.124539,1.000000,0.961210,0.274867,1.000000
13,0.000007,0.568650,0.870567,0.000000,0.435852,0.058065,0.076824,0.676220,1.000000,1.000000,0.035914,0.000000,0.288783,0.794376,1.000000,0.000000,1.000000
14,0.000007,0.568650,0.870567,0.000000,0.435852,0.058065,0.076824,0.676220,1.000000,1.000000,0.035914,0.000000,0.288783,0.794376,1.000000,0.000000,1.000000
15,0.000007,0.568650,0.870567,0.000000,0.435852,0.058065,0.076824,0.676220,1.000000,1.000000,0.035914,0.000000,0.288783,0.794376,1.000000,0.000000,1.000000
16,0.000007,0.568650,0.870567,0.000000,0.435852,0.058065,0.076824,0.676220,1.000000,1.000000,0.035914,0.000000,0.288783,0.794376,1.000000,0.000000,1.000000
17,0.000007,0.568650,0.870567,0.000000,0.435852,0.058065,0.076824,0.676220,1.000000,1.000000,0.035914,0.000000,0.288783,0.794376,1.000000,0.000000,1.000000
18,0.000007,0.568650,0.870567,0.000000,0.435852,0.058065,0.076824,0.676220,1.000000,1.000000,0.035914,0.000000,0.288783,0.794376,1.000000,0.000000,1.000000
19,0.000007,0.568650,0.870567,0.000000,0.435852,0.058065,0.076824,0.676220,1.000000,1.000000,0.035914,0.000000,0.288783,0.794376,1.000000,0.000000,1.000000
20,0.000007,0.568650,0.870567,0.000000,0.435852,0.058065,0.076824,0.676220,1.000000,1.000000,0.035914,0.000000,0.288783,0.794376,1.000000,0.000000,1.000000
gen, fitness
0,0.009712,0.000000,1.000000,0.210000,0.800000,0.030000,0.030000,1.000000,0.000000,1.000000,0.000000,0.000000,0.600000,1.000000,1.000000,0.000000,0.000000
1,0.009712,0.000000,1.000000,0.210000,0.800000,0.030000,0.030000,1.000000,0.000000,1.000000,0.000000,0.000000,0.600000,1.000000,1.000000,0.000000,0.000000
2,0.000010,0.000000,0.998847,0.066543,0.678114,0.094458,0.047642,0.920742,1.000000,0.806965,0.026089,0.055030,0.498328,0.840739,1.000000,0.093956,2.000000
3,0.000010,0.000000,0.998847,0.066543,0.678114,0.094458,0.047642,0.920742,1.000000,0.806965,0.026089,0.055030,0.498328,0.840739,1.000000,0.093956,2.000000
4,0.000010,0.000000,0.998847,0.066543,0.678114,0.094458,0.047642,0.920742,1.000000,0.806965,0.026089,0.055030,0.498328,0.840739,1.000000,0.093956,2.000000
5,0.000010,0.000000,0.998847,0.066543,0.678114,0.094458,0.047642,0.920742,1.000000,0.806965,0.026089,0.055030,0.498328,0.840739,1.000000,0.093956,2.000000
6,0.000010,0.000000,0.998847,0.066543,0.678114,0.094458,0.047642,0.920742,1.000000,0.806965,0.026089,0.055030,0.498328,0.840739,1.000000,0.093956,2.000000
7,0.000010,0.000000,0.998847,0.066543,0.678114,0.094458,0.047642,0.920742,1.000000,0.806965,0.026089,0.055030,0.498328,0.840739,1.000000,0.093956,2.000000
8,0.000000,0.000000,0.720956,0.144890,0.620195,0.041671,0.042114,0.818386,1.000000,0.728975,0.291745,0.131660,0.440524,0.872950,0.841473,0.093166,1.000000
gen, fitness
0,0.026348,0.000000,1.000000,0.210000,0.800000,0.030000,0.030000,1.000000,0.000000,1.000000,0.000000,0.000000,0.600000,1.000000,1.000000,0.000000,0.000000
1,0.026348,0.000000,1.000000,0.210000,0.800000,0.030000,0.030000,1.000000,0.000000,1.000000,0.000000,0.000000,0.600000,1.000000,1.000000,0.000000,0.000000
2,0.008142,0.000000,1.000000,0.230893,0.557448,0.084285,0.000000,1.000000,1.000000,1.000000,0.000000,0.000000,0.514104,0.830324,0.810152,0.012888,2.000000
3,0.005633,0.271101,0.990936,0.186875,0.572304,0.314379,0.051745,0.774604,0.000000,0.879725,0.002158,0.028365,0.544494,0.928842,0.837464,0.016264,2.000000
4,0.000253,0.000000,0.919028,0.224935,0.272190,0.182898,0.150293,0.866449,1.000000,0.685865,0.000000,0.000000,0.188551,0.819448,0.864888,0.000000,2.000000
5,0.000005,0.186524,0.852948,0.028161,0.503013,0.303624,0.059827,0.915693,0.000000,1.000000,0.013186,0.000000,0.216014,0.813803,0.768320,0.026301,0.000000
6,0.000005,0.186524,0.852948,0.028161,0.503013,0.303624,0.059827,0.915693,0.000000,1.000000,0.013186,0.000000,0.216014,0.813803,0.768320,0.026301,0.000000
7,0.000005,0.186524,0.852948,0.028161,0.503013,0.303624,0.059827,0.915693,0.000000,1.000000,0.013186,0.000000,0.216014,0.813803,0.768320,0.026301,0.000000
8,0.000005,0.186524,0.852948,0.028161,0.503013,0.303624,0.059827,0.915693,0.000000,1.000000,0.013186,0.000000,0.216014,0.813803,0.768320,0.026301,0.000000
9,0.000005,0.186524,0.852948,0.028161,0.503013,0.303624,0.059827,0.915693,0.000000,1.000000,0.013186,0.000000,0.216014,0.813803,0.768320,0.026301,0.000000
10,0.000005,0.186524,0.852948,0.028161,0.503013,0.303624,0.059827,0.915693,0.000000,1.000000,0.013186,0.000000,0.216014,0.813803,0.768320,0.026301,0.000000
11,0.000004,0.288283,0.973788,0.062627,0.386808,0.151506,0.505749,1.000000,2.000000,0.845220,0.190253,0.000000,0.248190,0.592026,1.000000,0.053671,0.000000
12,0.000004,0.288283,0.973788,0.062627,0.386808,0.151506,0.505749,1.000000,2.000000,0.845220,0.190253,0.000000,0.248190,0.592026,1.000000,0.053671,0.000000
13,0.000004,0.288283,0.973788,0.062627,0.386808,0.151506,0.505749,1.000000,2.000000,0.845220,0.190253,0.000000,0.248190,0.592026,1.000000,0.053671,0.000000
14,0.000004,0.288283,0.973788,0.062627,0.386808,0.151506,0.505749,1.000000,2.000000,0.845220,0.190253,0.000000,0.248190,0.592026,1.000000,0.053671,0.000000
15,0.000004,0.288283,0.973788,0.062627,0.386808,0.151506,0.505749,1.000000,2.000000,0.845220,0.190253,0.000000,0.248190,0.592026,1.000000,0.053671,0.000000
gen, fitness
0,0.052335,0.000000,1.000000,0.210000,0.800000,0.030000,0.030000,1.000000,0.000000,1.000000,0.000000,0.000000,0.600000,1.000000,1.000000,0.000000,0.000000
1,0.052335,0.000000,1.000000,0.210000,0.800000,0.030000,0.030000,1.000000,0.000000,1.000000,0.000000,0.000000,0.600000,1.000000,1.000000,0.000000,0.000000
2,0.024830,0.024756,1.000000,0.189703,0.649891,0.000000,0.000000,0.916141,1.000000,0.918257,0.000000,0.000000,0.471900,0.795065,1.000000,0.045442,2.000000
3,0.010128,0.076067,1.000000,0.000000,0.652380,0.000000,0.210203,1.000000,0.000000,0.921512,0.061871,0.000000,0.318914,0.883068,1.000000,0.054084,1.000000
4,0.006407,0.088429,0.798844,0.000000,0.561366,0.011206,0.254485,0.913681,1.000000,1.000000,0.150326,0.000000,0.270400,1.000000,1.000000,0.241524,2.000000
5,0.004752,0.634765,0.849342,0.038358,0.525952,0.124675,0.000000,0.867874,2.000000,1.000000,0.021936,0.007355,0.381257,1.000000,0.508853,0.000000,1.000000
6,0.000621,0.326532,0.953232,0.043180,0.366264,0.123201,0.004259,1.000000,2.000000,1.000000,0.147268,0.000000,0.138392,0.800083,0.907239,0.240369,1.000000
7,0.000075,0.213403,1.000000,0.025700,0.352091,0.000000,0.000000,1.000000,1.000000,1.000000,0.140853,0.003923,0.000000,0.761737,0.898067,0.288475,2.000000
8,0.000075,0.213403,1.000000,0.025700,0.352091,0.000000,0.000000,1.000000,1.000000,1.000000,0.140853,0.003923,0.000000,0.761737,0.898067,0.288475,2.000000
9,0.000005,0.340917,0.846654,0.000000,0.304921,0.054553,0.493698,0.960577,0.000000,0.865498,0.465256,0.000000,0.038113,0.708159,0.711067,0.213827,0.000000
10,0.000005,0.340917,0.846654,0.000000,0.304921,0.054553,0.493698,0.960577,0.000000,0.865498,0.465256,0.000000,0.038113,0.708159,0.711067,0.213827,0.000000
11,0.000001,0.228535,0.856917,0.108030,0.148206,0.000000,0.257613,0.888100,0.000000,0.710926,0.307701,0.000000,0.000000,0.937912,0.887445,0.196595,2.000000
gen, fitness
0,0.080636,0.000000,1.000000,0.210000,0.800000,0.030000,0.030000,1.000000,0.000000,1.000000,0.000000,0.000000,0.600000,1.000000,1.000000,0.000000,0.000000
1,0.080636,0.000000,1.000000,0.210000,0.800000,0.030000,0.030000,1.000000,0.000000,1.000000,0.000000,0.000000,0.600000,1.000000,1.000000,0.000000,0.000000
2,0.038912,0.060803,0.793369,0.144592,0.622776,0.008815,0.000000,1.000000,2.000000,1.000000,0.000000,0.000000,0.390357,1.000000,0.949564,0.143586,2.000000
3,0.029378,0.000000,0.976907,0.151970,0.554547,0.000000,0.057073,1.000000,1.000000,0.966442,0.000000,0.000000,0.217624,1.000000,1.000000,0.263394,0.000000
4,0.023506,0.094893,0.880373,0.074395,0.557415,0.101281,0.001055,0.865722,2.000000,0.973895,0.060584,0.000000,0.323858,0.978112,1.000000,0.036347,2.000000
5,0.013922,0.000000,0.952079,0.000000,0.534460,0.171961,0.012917,0.991376,0.000000,1.000000,0.000000,0.000000,0.182489,0.997236,1.000000,0.188172,1.000000
6,0.007894,0.354332,0.964299,0.067828,0.129182,0.141731,0.000000,0.590523,2.000000,0.962503,0.012892,0.007220,0.172114,0.668427,0.958918,0.207340,1.000000
7,0.002924,0.512952,0.788391,0.129636,0.038525,0.204395,0.000000,0.549870,1.000000,0.916931,0.051641,0.000000,0.175511,0.755903,0.905330,0.092100,2.000000
8,0.001410,0.484123,0.965684,0.113275,0.046474,0.121713,0.025967,0.672461,1.000000,0.941550,0.000000,0.092839,0.004694,0.518395,1.000000,0.000000,1.000000
9,0.000535,0.410906,0.971482,0.095749,0.081183,0.125826,0.066786,0.623096,2.000000,0.878992,0.052485,0.000000,0.052087,0.497398,0.847826,0.000000,1.000000
10,0.000133,0.560140,1.000000,0.070259,0.105264,0.388009,0.176460,0.886681,0.000000,1.000000,0.288198,0.044167,0.000000,0.834201,0.614381,0.088290,0.000000
11,0.000133,0.560140,1.000000,0.070259,0.105264,0.388009,0.176460,0.886681,0.000000,1.000000,0.288198,0.044167,0.000000,0.834201,0.614381,0.088290,0.000000
12,0.000005,0.482008,0.723628,0.045268,0.072205,0.515398,0.000000,0.695785,0.000000,0.798817,0.129355,0.000000,0.000000,0.699450,0.581071,0.072710,2.000000
13,0.000005,0.482008,0.723628,0.045268,0.072205,0.515398,0.000000,0.695785,0.000000,0.798817,0.129355,0.000000,0.000000,0.699450,0.581071,0.072710,2.000000
14,0.000005,0.482008,0.723628,0.045268,0.072205,0.515398,0.000000,0.695785,0.000000,0.798817,0.129355,0.000000,0.000000,0.699450,0.581071,0.072710,2.000000
15,0.000005,0.482008,0.723628,0.045268,0.072205,0.515398,0.000000,0.695785,0.000000,0.798817,0.129355,0.000000,0.000000,0.699450,0.581071,0.072710,2.000000
16,0.000002,0.627144,0.886318,0.038499,0.112886,0.091411,0.216293,0.555840,0.000000,0.840549,0.356084,0.066245,0.000000,0.943808,0.722305,0.017269,2.000000
17,0.000002,0.627144,0.886318,0.038499,0.112886,0.091411,0.216293,0.555840,0.000000,0.840549,0.356084,0.066245,0.000000,0.943808,0.722305,0.017269,2.000000
18,0.000002,0.627144,0.886318,0.038499,0.112886,0.091411,0.216293,0.555840,0.000000,0.840549,0.356084,0.066245,0.000000,0.943808,0.722305,0.017269,2.000000
19,0.000002,0.627144,0.886318,0.038499,0.112886,0.091411,0.216293,0.555840,0.000000,0.840549,0.356084,0.066245,0.000000,0.943808,0.722305,0.017269,2.000000
20,0.000002,0.627144,0.886318,0.038499,0.112886,0.091411,0.216293,0.555840,0.000000,0.840549,0.356084,0.066245,0.000000,0.943808,0.722305,0.017269,2.000000
21,0.000002,0.627144,0.886318,0.038499,0.112886,0.091411,0.216293,0.555840,0.000000,0.840549,0.356084,0.066245,0.000000,0.943808,0.722305,0.017269,2.000000
22,0.000002,0.627144,0.886318,0.038499,0.112886,0.091411,0.216293,0.555840,0.000000,0.840549,0.356084,0.066245,0.000000,0.943808,0.722305,0.017269,2.000000
gen, fitness
0,0.025383,0.000000,1.000000,0.210000,0.800000,0.030000,0.030000,1.000000,0.000000,1.000000,0.000000,0.000000,0.600000,1.000000,1.000000,0.000000,0.000000
1,0.025383,0.000000,1.000000,0.210000,0.800000,0.030000,0.030000,1.000000,0.000000,1.000000,0.000000,0.000000,0.600000,1.000000,1.000000,0.000000,0.000000
2,0.008686,0.087209,1.000000,0.200229,0.609776,0.016225,0.000000,1.000000,1.000000,0.952306,0.035415,0.000000,0.555028,1.000000,1.000000,0.000000,2.000000
3,0.005758,0.112570,0.936772,0.151969,0.497137,0.226072,0.034713,1.000000,0.000000,0.784108,0.043127,0.000000,0.497186,1.000000,0.994334,0.053486,1.000000
4,0.001298,0.235228,0.990399,0.000000,0.511483,0.141022,0.121838,0.926272,2.000000,0.945002,0.140720,0.004965,0.333004,1.000000,0.676953,0.000705,1.000000
5,0.001298,0.235228,0.990399,0.000000,0.511483,0.141022,0.121838,0.926272,2.000000,0.945002,0.140720,0.004965,0.333004,1.000000,0.676953,0.000705,1.000000
6,0.000416,0.298058,0.809870,0.028671,0.467345,0.207833,0.081428,1.000000,2.000000,0.992617,0.003471,0.011634,0.283393,0.981091,0.636741,0.000000,1.000000
7,0.000322,0.000000,0.709755,0.137567,0.348055,0.000000,0.000000,0.675616,0.000000,1.000000,0.000000,0.000000,0.094013,0.714804,1.000000,0.000000,1.000000
8,0.000074,0.327826,0.893951,0.219775,0.259271,0.048480,0.091728,1.000000,1.000000,1.000000,0.330389,0.100411,0.084852,0.794448,1.000000,0.386928,0.000000
9,0.000074,0.327826,0.893951,0.219775,0.259271,0.048480,0.091728,1.000000,1.000000,1.000000,0.330389,0.100411,0.084852,0.794448,1.000000,0.386928,0.000000
10,0.000001,0.281710,0.797596,0.108726,0.355950,0.000000,0.149952,1.000000,1.000000,1.000000,0.143609,0.000000,0.156504,0.956283,0.582401,0.267759,0.000000
11,0.000001,0.281710,0.797596,0.108726,0.355950,0.000000,0.149952,1.000000,1.000000,1.000000,0.143609,0.000000,0.156504,0.956283,0.582401,0.267759,0.000000
12,0.000001,0.281710,0.797596,0.108726,0.355950,0.000000,0.149952,1.000000,1.000000,1.000000,0.143609,0.000000,0.156504,0.956283,0.582401,0.267759,0.000000
13,0.000001,0.281710,0.797596,0.108726,0.355950,0.000000,0.149952,1.000000,1.000000,1.000000,0.143609,0.000000,0.156504,0.956283,0.582401,0.267759,0.000000
14,0.000001,0.281710,0.797596,0.108726,0.355950,0.000000,0.149952,1.000000,1.000000,1.000000,0.143609,0.000000,0.156504,0.956283,0.582401,0.267759,0.000000
15,0.000001,0.281710,0.797596,0.108726,0.355950,0.000000,0.149952,1.000000,1.000000,1.000000,0.143609,0.000000,0.156504,0.956283,0.582401,0.267759,0.000000
16,0.000001,0.281710,0.797596,0.108726,0.355950,0.000000,0.149952,1.000000,1.000000,1.000000,0.143609,0.000000,0.156504,0.956283,0.582401,0.267759,0.000000
17,0.000001,0.281710,0.797596,0.108726,0.355950,0.000000,0.149952,1.000000,1.000000,1.000000,0.143609,0.000000,0.156504,0.956283,0.582401,0.267759,0.000000
18,0.000001,0.281710,0.797596,0.108726,0.355950,0.000000,0.149952,1.000000,1.000000,1.000000,0.143609,0.000000,0.156504,0.956283,0.582401,0.267759,0.000000
19,0.000001,0.281710,0.797596,0.108726,0.355950,0.000000,0.149952,1.000000,1.000000,1.000000,0.143609,0.000000,0.156504,0.956283,0.582401,0.267759,0.000000
20,0.000001,0.281710,0.797596,0.108726,0.355950,0.000000,0.149952,1.000000,1.000000,1.000000,0.143609,0.000000,0.156504,0.956283,0.582401,0.267759,0.000000
