gen, fitness
0,0.013430,0.000000,1.000000,0.210000,0.800000,0.030000,0.030000,1.000000,0.000000,1.000000,0.000000,0.000000,0.600000,1.000000,1.000000,0.000000,0.000000
1,0.013430,0.000000,1.000000,0.210000,0.800000,0.030000,0.030000,1.000000,0.000000,1.000000,0.000000,0.000000,0.600000,1.000000,1.000000,0.000000,0.000000
2,0.000741,0.000000,0.958354,0.153274,0.721771,0.000000,0.000000,1.000000,2.000000,1.000000,0.000000,0.000000,0.600000,1.000000,0.933925,0.000000,1.000000
3,0.000023,0.000000,1.000000,0.000000,0.772462,0.179996,0.000000,1.000000,0.000000,1.000000,0.000000,0.000000,0.609365,1.000000,0.978588,0.000000,2.000000
4,0.000023,0.000000,1.000000,0.000000,0.772462,0.179996,0.000000,1.000000,0.000000,1.000000,0.000000,0.000000,0.609365,1.000000,0.978588,0.000000,2.000000
5,0.000023,0.000000,1.000000,0.000000,0.772462,0.179996,0.000000,1.000000,0.000000,1.000000,0.000000,0.000000,0.609365,1.000000,0.978588,0.000000,2.000000
6,0.000023,0.000000,1.000000,0.000000,0.772462,0.179996,0.000000,1.000000,0.000000,1.000000,0.000000,0.000000,0.609365,1.000000,0.978588,0.000000,2.000000
7,0.000023,0.000000,1.000000,0.000000,0.772462,0.179996,0.000000,1.000000,0.000000,1.000000,0.000000,0.000000,0.609365,1.000000,0.978588,0.000000,2.000000
8,0.000014,0.100188,0.906668,0.111970,0.710219,0.039292,0.066133,0.702349,2.000000,0.942679,0.125576,0.013513,0.597772,0.988276,1.000000,0.263906,0.000000
9,0.000014,0.100188,0.906668,0.111970,0.710219,0.039292,0.066133,0.702349,2.000000,0.942679,0.125576,0.013513,0.597772,0.988276,1.000000,0.263906,0.000000
10,0.000002,0.201895,0.731733,0.217269,0.629299,0.005118,0.249978,1.000000,1.000000,0.917305,0.281017,0.070236,0.591585,1.000000,1.000000,0.000200,1.000000
11,0.000001,0.000000,0.735749,0.324984,0.537301,0.000000,0.042383,1.000000,0.000000,0.840772,0.184815,0.000000,0.579024,0.674374,1.000000,0.000000,2.000000
gen, fitness
0,0.034276,0.000000,1.000000,0.210000,0.800000,0.030000,0.030000,1.000000,0.000000,1.000000,0.000000,0.000000,0.600000,1.000000,1.000000,0.000000,0.000000
1,0.034276,0.000000,1.000000,0.210000,0.800000,0.030000,0.030000,1.000000,0.000000,1.000000,0.000000,0.000000,0.600000,1.000000,1.000000,0.000000,0.000000
2,0.016295,0.000000,1.000000,0.210000,0.851693,0.030000,0.030000,0.996711,2.000000,1.000000,0.001757,0.000000,0.775463,1.000000,1.000000,0.055233,0.000000
3,0.012934,0.122341,0.900275,0.143039,0.899749,0.068481,0.030000,1.000000,1.000000,1.000000,0.000000,0.170544,0.775463,1.000000,0.920508,0.055233,1.000000
4,0.009723,0.000000,1.000000,0.048971,0.935435,0.030000,0.000000,0.767962,1.000000,1.000000,0.000000,0.000000,0.882618,1.000000,1.000000,0.098139,1.000000
5,0.009079,0.072394,0.944350,0.253132,0.889282,0.000000,0.040660,1.000000,2.000000,0.930572,0.000000,0.057620,0.855882,1.000000,1.000000,0.193687,1.000000
6,0.009079,0.072394,0.944350,0.253132,0.889282,0.000000,0.040660,1.000000,2.000000,0.930572,0.000000,0.057620,0.855882,1.000000,1.000000,0.193687,1.000000
7,0.005509,0.096828,0.959942,0.001989,1.000000,0.068481,0.211567,0.968210,2.000000,1.000000,0.000000,0.291814,0.976576,0.991069,0.988444,0.075212,0.000000
8,0.004444,0.073405,1.000000,0.052135,1.000000,0.072197,0.000000,0.739865,0.000000,0.745318,0.087956,0.000000,1.000000,0.878317,1.000000,0.159851,2.000000
9,0.003652,0.316697,1.000000,0.002891,1.000000,0.068481,0.103721,0.968210,2.000000,1.000000,0.000000,0.291814,0.976576,0.897260,0.903000,0.024721,2.000000
10,0.003079,0.105879,0.959942,0.102933,1.000000,0.103353,0.160047,0.896784,1.000000,1.000000,0.028288,0.405421,0.950123,0.996427,1.000000,0.075212,2.000000
11,0.002406,0.189962,1.000000,0.256190,1.000000,0.303252,0.383568,0.920395,2.000000,0.722745,0.074882,0.517289,0.950123,0.942380,0.956649,0.304536,2.000000
12,0.002406,0.189962,1.000000,0.256190,1.000000,0.303252,0.383568,0.920395,2.000000,0.722745,0.074882,0.517289,0.950123,0.942380,0.956649,0.304536,2.000000
13,0.001952,0.046796,0.895889,0.449997,1.000000,0.000000,0.000000,1.000000,0.000000,0.966551,0.118770,0.639519,0.957818,0.688565,0.902358,0.585619,1.000000
14,0.001545,0.046796,0.895889,0.479585,1.000000,0.000000,0.000000,0.977950,2.000000,0.966551,0.118770,0.613414,0.957818,0.688565,0.768661,0.585619,1.000000
15,0.001430,0.003581,0.820210,0.312910,1.000000,0.412251,0.315494,1.000000,2.000000,0.856216,0.072806,0.585847,0.950123,0.878901,0.963066,0.321577,2.000000
16,0.001147,0.000000,0.966807,0.490009,1.000000,0.008948,0.000580,1.000000,2.000000,0.889946,0.055407,0.649349,0.957818,0.821273,0.773336,0.472508,2.000000
17,0.001147,0.000000,0.966807,0.490009,1.000000,0.008948,0.000580,1.000000,2.000000,0.889946,0.055407,0.649349,0.957818,0.821273,0.773336,0.472508,2.000000
18,0.001067,0.000000,0.895889,0.585120,1.000000,0.144121,0.039908,0.596862,1.000000,1.000000,0.130758,0.827387,0.957818,0.625070,0.892519,0.649248,2.000000
19,0.001008,0.184752,0.865985,0.461620,1.000000,0.000000,0.144437,0.823655,2.000000,1.000000,0.174006,0.834807,0.957818,0.661929,0.768661,0.564813,2.000000
20,0.000931,0.101089,1.000000,0.479585,1.000000,0.000000,0.317355,0.900988,2.000000,0.979913,0.500163,0.829915,0.961140,0.888981,0.916049,0.466547,2.000000
21,0.000878,0.145112,0.819446,0.463186,1.000000,0.000000,0.201631,0.847981,2.000000,0.886341,0.481625,0.966262,0.957818,0.529720,0.683110,0.564813,2.000000
22,0.000878,0.145112,0.819446,0.463186,1.000000,0.000000,0.201631,0.847981,2.000000,0.886341,0.481625,0.966262,0.957818,0.529720,0.683110,0.564813,2.000000
23,0.000839,0.091895,1.000000,0.495407,1.000000,0.000000,0.381640,1.000000,2.000000,1.000000,0.500163,0.934459,0.961140,0.938299,0.989230,0.518480,2.000000
24,0.000798,0.184752,1.000000,0.511237,1.000000,0.110498,0.233342,0.764251,2.000000,0.950959,0.036416,1.000000,0.957818,0.596061,0.600591,0.806926,2.000000
25,0.000798,0.184752,1.000000,0.511237,1.000000,0.110498,0.233342,0.764251,2.000000,0.950959,0.036416,1.000000,0.957818,0.596061,0.600591,0.806926,2.000000
26,0.000798,0.184752,1.000000,0.511237,1.000000,0.110498,0.233342,0.764251,2.000000,0.950959,0.036416,1.000000,0.957818,0.596061,0.600591,0.806926,2.000000
27,0.000798,0.184752,1.000000,0.511237,1.000000,0.110498,0.233342,0.764251,2.000000,0.950959,0.036416,1.000000,0.957818,0.596061,0.600591,0.806926,2.000000
28,0.000798,0.184752,1.000000,0.511237,1.000000,0.110498,0.233342,0.764251,2.000000,0.950959,0.036416,1.000000,0.957818,0.596061,0.600591,0.806926,2.000000
29,0.000798,0.184752,1.000000,0.511237,1.000000,0.110498,0.233342,0.764251,2.000000,0.950959,0.036416,1.000000,0.957818,0.596061,0.600591,0.806926,2.000000
30,0.000798,0.184752,1.000000,0.511237,1.000000,0.110498,0.233342,0.764251,2.000000,0.950959,0.036416,1.000000,0.957818,0.596061,0.600591,0.806926,2.000000
31,0.000594,0.043979,1.000000,0.829919,1.000000,0.000000,0.000000,0.647527,2.000000,0.812020,0.159625,1.000000,1.000000,0.895832,1.000000,0.809634,2.000000
32,0.000594,0.043979,1.000000,0.829919,1.000000,0.000000,0.000000,0.647527,2.000000,0.812020,0.159625,1.000000,1.000000,0.895832,1.000000,0.809634,2.000000
33,0.000579,0.043979,0.967069,0.829919,0.995327,0.000000,0.000000,0.909460,2.000000,0.901733,0.159625,1.000000,1.000000,0.894771,0.982730,0.809634,2.000000
34,0.000579,0.043979,0.967069,0.829919,0.995327,0.000000,0.000000,0.909460,2.000000,0.901733,0.159625,1.000000,1.000000,0.894771,0.982730,0.809634,2.000000
35,0.000579,0.043979,0.967069,0.829919,0.995327,0.000000,0.000000,0.909460,2.000000,0.901733,0.159625,1.000000,1.000000,0.894771,0.982730,0.809634,2.000000
36,0.000548,0.000000,0.849995,0.892833,1.000000,0.000000,0.164867,0.775076,2.000000,0.897847,0.474339,1.000000,1.000000,1.000000,0.840867,0.745037,2.000000
37,0.000535,0.000000,0.888372,0.892833,1.000000,0.000000,0.164867,0.614099,2.000000,1.000000,0.456310,1.000000,1.000000,0.875504,0.972248,0.856539,2.000000
38,0.000535,0.000000,0.888372,0.892833,1.000000,0.000000,0.164867,0.614099,2.000000,1.000000,0.456310,1.000000,1.000000,0.875504,0.972248,0.856539,2.000000
39,0.000526,0.084491,0.800935,0.829919,1.000000,0.000000,0.088793,0.909460,2.000000,0.848113,0.159625,1.000000,1.000000,0.928273,0.767130,0.877305,2.000000
40,0.000526,0.084491,0.800935,0.829919,1.000000,0.000000,0.088793,0.909460,2.000000,0.848113,0.159625,1.000000,1.000000,0.928273,0.767130,0.877305,2.000000
41,0.000504,0.024638,1.000000,0.703636,1.000000,0.080565,0.029189,0.649684,2.000000,0.691094,0.000000,1.000000,1.000000,0.955447,1.000000,0.906137,2.000000
42,0.000504,0.024638,1.000000,0.703636,1.000000,0.080565,0.029189,0.649684,2.000000,0.691094,0.000000,1.000000,1.000000,0.955447,1.000000,0.906137,2.000000
43,0.000504,0.024638,1.000000,0.703636,1.000000,0.080565,0.029189,0.649684,2.000000,0.691094,0.000000,1.000000,1.000000,0.955447,1.000000,0.906137,2.000000
44,0.000504,0.024638,1.000000,0.703636,1.000000,0.080565,0.029189,0.649684,2.000000,0.691094,0.000000,1.000000,1.000000,0.955447,1.000000,0.906137,2.000000
45,0.000504,0.024638,1.000000,0.703636,1.000000,0.080565,0.029189,0.649684,2.000000,0.691094,0.000000,1.000000,1.000000,0.955447,1.000000,0.906137,2.000000
46,0.000475,0.007028,0.983596,0.703636,1.000000,0.080565,0.047865,0.772106,2.000000,0.626335,0.064154,0.994290,1.000000,1.000000,1.000000,0.943146,2.000000
47,0.000475,0.007028,0.983596,0.703636,1.000000,0.080565,0.047865,0.772106,2.000000,0.626335,0.064154,0.994290,1.000000,1.000000,1.000000,0.943146,2.000000
48,0.000475,0.007028,0.983596,0.703636,1.000000,0.080565,0.047865,0.772106,2.000000,0.626335,0.064154,0.994290,1.000000,1.000000,1.000000,0.943146,2.000000
49,0.000475,0.007028,0.983596,0.703636,1.000000,0.080565,0.047865,0.772106,2.000000,0.626335,0.064154,0.994290,1.000000,1.000000,1.000000,0.943146,2.000000
50,0.000475,0.007028,0.983596,0.703636,1.000000,0.080565,0.047865,0.772106,2.000000,0.626335,0.064154,0.994290,1.000000,1.000000,1.000000,0.943146,2.000000
51,0.000475,0.007028,0.983596,0.703636,1.000000,0.080565,0.047865,0.772106,2.000000,0.626335,0.064154,0.994290,1.000000,1.000000,1.000000,0.943146,2.000000
52,0.000475,0.007028,0.983596,0.703636,1.000000,0.080565,0.047865,0.772106,2.000000,0.626335,0.064154,0.994290,1.000000,1.000000,1.000000,0.943146,2.000000
53,0.000475,0.007028,0.983596,0.703636,1.000000,0.080565,0.047865,0.772106,2.000000,0.626335,0.064154,0.994290,1.000000,1.000000,1.000000,0.943146,2.000000
54,0.000475,0.007028,0.983596,0.703636,1.000000,0.080565,0.047865,0.772106,2.000000,0.626335,0.064154,0.994290,1.000000,1.000000,1.000000,0.943146,2.000000
55,0.000475,0.007028,0.983596,0.703636,1.000000,0.080565,0.047865,0.772106,2.000000,0.626335,0.064154,0.994290,1.000000,1.000000,1.000000,0.943146,2.000000
56,0.000475,0.007028,0.983596,0.703636,1.000000,0.080565,0.047865,0.772106,2.000000,0.626335,0.064154,0.994290,1.000000,1.000000,1.000000,0.943146,2.000000
gen, fitness
0,0.044384,0.000000,1.000000,0.210000,0.800000,0.030000,0.030000,1.000000,0.000000,1.000000,0.000000,0.000000,0.600000,1.000000,1.000000,0.000000,0.000000
1,0.044384,0.000000,1.000000,0.210000,0.800000,0.030000,0.030000,1.000000,0.000000,1.000000,0.000000,0.000000,0.600000,1.000000,1.000000,0.000000,0.000000
2,0.023838,0.000000,1.000000,0.210000,0.841238,0.000000,0.000000,1.000000,2.000000,1.000000,0.000000,0.000000,0.774282,1.000000,0.992494,0.037176,0.000000
3,0.022671,0.000000,1.000000,0.278908,0.841238,0.000000,0.123831,1.000000,2.000000,1.000000,0.000000,0.000000,0.774282,1.000000,0.988607,0.094748,0.000000
4,0.011444,0.000000,0.964459,0.319698,1.000000,0.000000,0.030000,1.000000,2.000000,1.000000,0.032691,0.000000,0.977228,1.000000,1.000000,0.000000,1.000000
5,0.011090,0.067578,0.964459,0.384307,1.000000,0.000000,0.069981,1.000000,1.000000,1.000000,0.098423,0.060942,0.977228,1.000000,1.000000,0.094129,2.000000
6,0.010948,0.000000,0.885063,0.384307,1.000000,0.000000,0.069981,1.000000,0.000000,1.000000,0.119008,0.098830,0.977228,0.940254,1.000000,0.154109,2.000000
7,0.010244,0.003283,0.964459,0.496549,1.000000,0.000000,0.259323,1.000000,1.000000,0.946293,0.000000,0.000000,1.000000,1.000000,0.992494,0.132648,1.000000
8,0.009594,0.067578,0.976336,0.487522,1.000000,0.000000,0.000000,1.000000,2.000000,1.000000,0.138297,0.105410,1.000000,1.000000,0.880443,0.000000,1.000000
9,0.008798,0.003283,0.714262,0.510764,1.000000,0.000000,0.141684,1.000000,2.000000,0.897281,0.000000,0.203024,1.000000,0.938917,0.992494,0.017667,2.000000
10,0.008798,0.003283,0.714262,0.510764,1.000000,0.000000,0.141684,1.000000,2.000000,0.897281,0.000000,0.203024,1.000000,0.938917,0.992494,0.017667,2.000000
11,0.008705,0.121876,0.841810,0.543118,1.000000,0.000000,0.411318,1.000000,2.000000,0.822475,0.000000,0.293920,1.000000,0.967458,1.000000,0.000000,2.000000
12,0.008694,0.012203,0.712369,0.503446,1.000000,0.132327,0.411318,1.000000,2.000000,0.911713,0.000000,0.172616,1.000000,0.952684,0.686425,0.451455,2.000000
13,0.008189,0.000000,0.588051,0.589976,1.000000,0.161412,0.320394,0.967116,2.000000,0.722531,0.022045,0.327698,1.000000,0.703999,0.838071,0.504032,2.000000
14,0.008189,0.000000,0.588051,0.589976,1.000000,0.161412,0.320394,0.967116,2.000000,0.722531,0.022045,0.327698,1.000000,0.703999,0.838071,0.504032,2.000000
15,0.008189,0.000000,0.588051,0.589976,1.000000,0.161412,0.320394,0.967116,2.000000,0.722531,0.022045,0.327698,1.000000,0.703999,0.838071,0.504032,2.000000
16,0.008189,0.000000,0.588051,0.589976,1.000000,0.161412,0.320394,0.967116,2.000000,0.722531,0.022045,0.327698,1.000000,0.703999,0.838071,0.504032,2.000000
17,0.008189,0.000000,0.588051,0.589976,1.000000,0.161412,0.320394,0.967116,2.000000,0.722531,0.022045,0.327698,1.000000,0.703999,0.838071,0.504032,2.000000
18,0.008189,0.000000,0.588051,0.589976,1.000000,0.161412,0.320394,0.967116,2.000000,0.722531,0.022045,0.327698,1.000000,0.703999,0.838071,0.504032,2.000000
19,0.008080,0.000000,0.745894,0.468980,1.000000,0.251255,0.330159,0.967116,2.000000,0.513672,0.137978,0.468985,1.000000,0.743913,0.826420,0.339865,2.000000
20,0.008080,0.000000,0.745894,0.468980,1.000000,0.251255,0.330159,0.967116,2.000000,0.513672,0.137978,0.468985,1.000000,0.743913,0.826420,0.339865,2.000000
21,0.008080,0.000000,0.745894,0.468980,1.000000,0.251255,0.330159,0.967116,2.000000,0.513672,0.137978,0.468985,1.000000,0.743913,0.826420,0.339865,2.000000
22,0.008080,0.000000,0.745894,0.468980,1.000000,0.251255,0.330159,0.967116,2.000000,0.513672,0.137978,0.468985,1.000000,0.743913,0.826420,0.339865,2.000000
23,0.007900,0.000000,0.676597,0.480079,1.000000,0.000000,0.169528,1.000000,2.000000,0.429496,0.256486,0.430798,1.000000,0.759316,1.000000,0.531732,2.000000
24,0.007900,0.000000,0.676597,0.480079,1.000000,0.000000,0.169528,1.000000,2.000000,0.429496,0.256486,0.430798,1.000000,0.759316,1.000000,0.531732,2.000000
25,0.007878,0.000000,0.727246,0.536442,1.000000,0.338852,0.000000,0.933039,2.000000,0.493611,0.483792,0.680838,1.000000,0.707505,0.695601,0.368349,2.000000
26,0.007585,0.000000,1.000000,0.625537,1.000000,0.242246,0.260430,0.991656,2.000000,0.609344,0.000000,0.562505,1.000000,0.696484,0.925865,0.625323,2.000000
27,0.007585,0.000000,1.000000,0.625537,1.000000,0.242246,0.260430,0.991656,2.000000,0.609344,0.000000,0.562505,1.000000,0.696484,0.925865,0.625323,2.000000
28,0.007469,0.112158,0.725777,0.596885,1.000000,0.253191,0.309745,1.000000,2.000000,0.395750,0.388450,0.680838,1.000000,0.671559,0.503256,0.603513,2.000000
29,0.007469,0.112158,0.725777,0.596885,1.000000,0.253191,0.309745,1.000000,2.000000,0.395750,0.388450,0.680838,1.000000,0.671559,0.503256,0.603513,2.000000
30,0.007469,0.112158,0.725777,0.596885,1.000000,0.253191,0.309745,1.000000,2.000000,0.395750,0.388450,0.680838,1.000000,0.671559,0.503256,0.603513,2.000000
31,0.007238,0.000000,0.057430,0.723713,1.000000,0.000000,0.087080,1.000000,2.000000,0.689726,0.270437,0.709498,0.994353,1.000000,0.580238,0.871014,2.000000
32,0.007238,0.000000,0.057430,0.723713,1.000000,0.000000,0.087080,1.000000,2.000000,0.689726,0.270437,0.709498,0.994353,1.000000,0.580238,0.871014,2.000000
33,0.007238,0.000000,0.057430,0.723713,1.000000,0.000000,0.087080,1.000000,2.000000,0.689726,0.270437,0.709498,0.994353,1.000000,0.580238,0.871014,2.000000
34,0.007238,0.000000,0.057430,0.723713,1.000000,0.000000,0.087080,1.000000,2.000000,0.689726,0.270437,0.709498,0.994353,1.000000,0.580238,0.871014,2.000000
35,0.007238,0.000000,0.057430,0.723713,1.000000,0.000000,0.087080,1.000000,2.000000,0.689726,0.270437,0.709498,0.994353,1.000000,0.580238,0.871014,2.000000
36,0.006913,0.000000,0.057430,0.866285,1.000000,0.000000,0.000000,0.991230,2.000000,0.689726,0.429786,0.806986,1.000000,1.000000,0.606616,0.871014,2.000000
37,0.006913,0.000000,0.057430,0.866285,1.000000,0.000000,0.000000,0.991230,2.000000,0.689726,0.429786,0.806986,1.000000,1.000000,0.606616,0.871014,2.000000
38,0.006913,0.000000,0.057430,0.866285,1.000000,0.000000,0.000000,0.991230,2.000000,0.689726,0.429786,0.806986,1.000000,1.000000,0.606616,0.871014,2.000000
39,0.006913,0.000000,0.057430,0.866285,1.000000,0.000000,0.000000,0.991230,2.000000,0.689726,0.429786,0.806986,1.000000,1.000000,0.606616,0.871014,2.000000
40,0.006913,0.000000,0.057430,0.866285,1.000000,0.000000,0.000000,0.991230,2.000000,0.689726,0.429786,0.806986,1.000000,1.000000,0.606616,0.871014,2.000000
41,0.006913,0.000000,0.057430,0.866285,1.000000,0.000000,0.000000,0.991230,2.000000,0.689726,0.429786,0.806986,1.000000,1.000000,0.606616,0.871014,2.000000
42,0.006808,0.000000,0.031242,0.894296,1.000000,0.061017,0.177859,0.786216,2.000000,0.689726,0.450713,1.000000,1.000000,0.922918,0.593648,1.000000,2.000000
43,0.006645,0.000000,0.000000,0.710999,1.000000,0.048569,0.024739,1.000000,2.000000,0.358777,0.285761,0.977720,1.000000,0.758729,0.756962,0.821808,2.000000
44,0.006622,0.029735,0.170451,0.943515,1.000000,0.009422,0.450650,1.000000,2.000000,0.689726,0.226707,1.000000,1.000000,0.970344,0.606616,0.960167,2.000000
45,0.006622,0.029735,0.170451,0.943515,1.000000,0.009422,0.450650,1.000000,2.000000,0.689726,0.226707,1.000000,1.000000,0.970344,0.606616,0.960167,2.000000
46,0.006622,0.029735,0.170451,0.943515,1.000000,0.009422,0.450650,1.000000,2.000000,0.689726,0.226707,1.000000,1.000000,0.970344,0.606616,0.960167,2.000000
47,0.006621,0.023183,0.243221,0.944729,1.000000,0.007440,0.000000,0.965275,2.000000,0.563853,0.456597,0.981618,1.000000,0.907304,0.178081,0.856323,2.000000
48,0.006424,0.000000,0.176382,1.000000,0.990855,0.000000,0.000000,1.000000,2.000000,0.444124,0.480433,1.000000,1.000000,0.899835,0.029282,0.780076,2.000000
49,0.006424,0.000000,0.176382,1.000000,0.990855,0.000000,0.000000,1.000000,2.000000,0.444124,0.480433,1.000000,1.000000,0.899835,0.029282,0.780076,2.000000
50,0.006424,0.000000,0.176382,1.000000,0.990855,0.000000,0.000000,1.000000,2.000000,0.444124,0.480433,1.000000,1.000000,0.899835,0.029282,0.780076,2.000000
51,0.006424,0.000000,0.176382,1.000000,0.990855,0.000000,0.000000,1.000000,2.000000,0.444124,0.480433,1.000000,1.000000,0.899835,0.029282,0.780076,2.000000
52,0.006424,0.000000,0.176382,1.000000,0.990855,0.000000,0.000000,1.000000,2.000000,0.444124,0.480433,1.000000,1.000000,0.899835,0.029282,0.780076,2.000000
53,0.006424,0.000000,0.176382,1.000000,0.990855,0.000000,0.000000,1.000000,2.000000,0.444124,0.480433,1.000000,1.000000,0.899835,0.029282,0.780076,2.000000
54,0.006424,0.000000,0.176382,1.000000,0.990855,0.000000,0.000000,1.000000,2.000000,0.444124,0.480433,1.000000,1.000000,0.899835,0.029282,0.780076,2.000000
55,0.006424,0.000000,0.176382,1.000000,0.990855,0.000000,0.000000,1.000000,2.000000,0.444124,0.480433,1.000000,1.000000,0.899835,0.029282,0.780076,2.000000
56,0.006424,0.000000,0.176382,1.000000,0.990855,0.000000,0.000000,1.000000,2.000000,0.444124,0.480433,1.000000,1.000000,0.899835,0.029282,0.780076,2.000000
57,0.006424,0.000000,0.176382,1.000000,0.990855,0.000000,0.000000,1.000000,2.000000,0.444124,0.480433,1.000000,1.000000,0.899835,0.029282,0.780076,2.000000
58,0.006424,0.000000,0.176382,1.000000,0.990855,0.000000,0.000000,1.000000,2.000000,0.444124,0.480433,1.000000,1.000000,0.899835,0.029282,0.780076,2.000000
gen, fitness
0,0.006335,0.000000,1.000000,0.210000,0.800000,0.030000,0.030000,1.000000,0.000000,1.000000,0.000000,0.000000,0.600000,1.000000,1.000000,0.000000,0.000000
1,0.006335,0.000000,1.000000,0.210000,0.800000,0.030000,0.030000,1.000000,0.000000,1.000000,0.000000,0.000000,0.600000,1.000000,1.000000,0.000000,0.000000
2,0.000198,0.000000,1.000000,0.091642,0.800000,0.030000,0.030000,1.000000,2.000000,1.000000,0.000000,0.180482,0.600000,1.000000,0.857716,0.000000,1.000000
3,0.000022,0.098454,1.000000,0.091642,0.800000,0.030000,0.131657,1.000000,2.000000,1.000000,0.117944,0.180482,0.600000,1.000000,0.857716,0.000000,2.000000
4,0.000007,0.036960,1.000000,0.278717,0.746343,0.000000,0.105449,0.643578,0.000000,0.857765,0.070628,0.045113,0.664602,0.872320,1.000000,0.000000,1.000000
5,0.000007,0.036960,1.000000,0.278717,0.746343,0.000000,0.105449,0.643578,0.000000,0.857765,0.070628,0.045113,0.664602,0.872320,1.000000,0.000000,1.000000
6,0.000007,0.036960,1.000000,0.278717,0.746343,0.000000,0.105449,0.643578,0.000000,0.857765,0.070628,0.045113,0.664602,0.872320,1.000000,0.000000,1.000000
7,0.000007,0.036960,1.000000,0.278717,0.746343,0.000000,0.105449,0.643578,0.000000,0.857765,0.070628,0.045113,0.664602,0.872320,1.000000,0.000000,1.000000
8,0.000002,0.000000,0.822616,0.345976,0.732790,0.199681,0.000000,0.858276,0.000000,1.000000,0.418054,0.191201,0.570155,0.950195,1.000000,0.108215,0.000000
9,0.000002,0.000000,0.822616,0.345976,0.732790,0.199681,0.000000,0.858276,0.000000,1.000000,0.418054,0.191201,0.570155,0.950195,1.000000,0.108215,0.000000
10,0.000002,0.000000,0.822616,0.345976,0.732790,0.199681,0.000000,0.858276,0.000000,1.000000,0.418054,0.191201,0.570155,0.950195,1.000000,0.108215,0.000000
11,0.000002,0.000000,0.822616,0.345976,0.732790,0.199681,0.000000,0.858276,0.000000,1.000000,0.418054,0.191201,0.570155,0.950195,1.000000,0.108215,0.000000
12,0.000002,0.000000,0.822616,0.345976,0.732790,0.199681,0.000000,0.858276,0.000000,1.000000,0.418054,0.191201,0.570155,0.950195,1.000000,0.108215,0.000000
13,0.000002,0.000000,0.822616,0.345976,0.732790,0.199681,0.000000,0.858276,0.000000,1.000000,0.418054,0.191201,0.570155,0.950195,1.000000,0.108215,0.000000
14,0.000000,0.169350,1.000000,0.298213,0.746343,0.000000,0.234627,0.624767,1.000000,1.000000,0.000000,0.083616,0.657496,1.000000,1.000000,0.022285,1.000000
gen, fitness
0,0.018541,0.000000,1.000000,0.210000,0.800000,0.030000,0.030000,1.000000,0.000000,1.000000,0.000000,0.000000,0.600000,1.000000,1.000000,0.000000,0.000000
1,0.018541,0.000000,1.000000,0.210000,0.800000,0.030000,0.030000,1.000000,0.000000,1.000000,0.000000,0.000000,0.600000,1.000000,1.000000,0.000000,0.000000
2,0.005548,0.060882,0.751965,0.278925,0.800000,0.033679,0.030000,0.852298,2.000000,1.000000,0.000000,0.000000,0.728130,1.000000,1.000000,0.000000,2.000000
3,0.001695,0.000000,1.000000,0.188300,0.875921,0.000000,0.285685,1.000000,2.000000,0.892461,0.000000,0.103852,0.800358,0.818107,0.953973,0.000000,0.000000
4,0.000337,0.049881,1.000000,0.244734,0.935389,0.030000,0.116278,1.000000,2.000000,1.000000,0.000000,0.000000,0.903913,0.955810,0.861661,0.120413,0.000000
5,0.000337,0.049881,1.000000,0.244734,0.935389,0.030000,0.116278,1.000000,2.000000,1.000000,0.000000,0.000000,0.903913,0.955810,0.861661,0.120413,0.000000
6,0.000259,0.063411,0.961910,0.457681,0.883273,0.030000,0.000106,1.000000,2.000000,0.923583,0.000000,0.000000,0.893037,0.895148,0.806054,0.065017,0.000000
7,0.000259,0.063411,0.961910,0.457681,0.883273,0.030000,0.000106,1.000000,2.000000,0.923583,0.000000,0.000000,0.893037,0.895148,0.806054,0.065017,0.000000
8,0.000037,0.063411,0.992669,0.457681,1.000000,0.030000,0.000000,1.000000,0.000000,0.984174,0.000000,0.000000,1.000000,0.895148,0.753023,0.065017,0.000000
9,0.000037,0.063411,0.992669,0.457681,1.000000,0.030000,0.000000,1.000000,0.000000,0.984174,0.000000,0.000000,1.000000,0.895148,0.753023,0.065017,0.000000
10,0.000014,0.063411,0.992669,0.425710,1.000000,0.095278,0.047709,0.865102,0.000000,0.984174,0.000000,0.000000,1.000000,0.859545,0.753023,0.057259,0.000000
11,0.000010,0.238991,1.000000,0.244734,1.000000,0.119155,0.000000,1.000000,1.000000,0.934398,0.000000,0.000000,1.000000,0.720583,1.000000,0.065478,0.000000
12,0.000010,0.238991,1.000000,0.244734,1.000000,0.119155,0.000000,1.000000,1.000000,0.934398,0.000000,0.000000,1.000000,0.720583,1.000000,0.065478,0.000000
13,0.000010,0.238991,1.000000,0.244734,1.000000,0.119155,0.000000,1.000000,1.000000,0.934398,0.000000,0.000000,1.000000,0.720583,1.000000,0.065478,0.000000
14,0.000010,0.238991,1.000000,0.244734,1.000000,0.119155,0.000000,1.000000,1.000000,0.934398,0.000000,0.000000,1.000000,0.720583,1.000000,0.065478,0.000000
15,0.000010,0.238991,1.000000,0.244734,1.000000,0.119155,0.000000,1.000000,1.000000,0.934398,0.000000,0.000000,1.000000,0.720583,1.000000,0.065478,0.000000
16,0.000001,0.290457,1.000000,0.225672,1.000000,0.075586,0.000000,0.963592,0.000000,0.892209,0.000000,0.000000,1.000000,0.781016,0.868890,0.247221,2.000000
gen, fitness
0,0.069293,0.000000,1.000000,0.210000,0.800000,0.030000,0.030000,1.000000,0.000000,1.000000,0.000000,0.000000,0.600000,1.000000,1.000000,0.000000,0.000000
1,0.069293,0.000000,1.000000,0.210000,0.800000,0.030000,0.030000,1.000000,0.000000,1.000000,0.000000,0.000000,0.600000,1.000000,1.000000,0.000000,0.000000
2,0.038713,0.000000,1.000000,0.210000,0.805943,0.000000,0.030000,0.984643,0.000000,1.000000,0.000000,0.000000,0.778054,1.000000,1.000000,0.000000,1.000000
3,0.033223,0.006968,1.000000,0.000000,0.862289,0.030000,0.000000,0.873695,2.000000,0.821138,0.000000,0.073305,0.804411,1.000000,0.841544,0.003798,1.000000
4,0.020001,0.000000,1.000000,0.239879,0.986988,0.044690,0.009355,0.945349,0.000000,0.918294,0.006432,0.057827,1.000000,0.827963,0.841544,0.165597,0.000000
5,0.016042,0.000000,0.918926,0.000000,1.000000,0.030000,0.000000,0.873695,1.000000,0.986118,0.121479,0.057827,1.000000,0.941972,0.742533,0.165597,1.000000
6,0.015025,0.056271,0.807862,0.000000,1.000000,0.003996,0.000000,0.915474,2.000000,0.986118,0.121479,0.057827,1.000000,0.941972,0.742533,0.263229,1.000000
7,0.013846,0.000000,0.998604,0.067673,1.000000,0.044690,0.000000,1.000000,2.000000,0.990974,0.168299,0.057827,1.000000,0.771480,1.000000,0.231872,2.000000
8,0.013218,0.219631,1.000000,0.009421,1.000000,0.006656,0.080715,0.861480,2.000000,0.981467,0.110614,0.291290,1.000000,0.966049,0.836144,0.260967,2.000000
9,0.012567,0.000000,0.982414,0.080749,1.000000,0.078414,0.060312,0.882661,2.000000,1.000000,0.135443,0.491628,0.913955,0.714802,0.900958,0.160218,2.000000
10,0.012156,0.000000,0.962139,0.080749,1.000000,0.054680,0.060312,0.882661,2.000000,1.000000,0.135443,0.508244,0.913955,0.684438,0.797477,0.291605,2.000000
11,0.011745,0.219631,0.954525,0.103872,1.000000,0.000000,0.064237,0.861480,1.000000,0.920574,0.105130,0.793085,0.971285,0.946878,0.970835,0.260967,2.000000
12,0.010799,0.000000,0.962139,0.080749,1.000000,0.000000,0.000000,0.956608,2.000000,1.000000,0.070824,0.663594,0.909471,0.665126,0.737417,0.291605,2.000000
13,0.010799,0.000000,0.962139,0.080749,1.000000,0.000000,0.000000,0.956608,2.000000,1.000000,0.070824,0.663594,0.909471,0.665126,0.737417,0.291605,2.000000
14,0.009764,0.066106,0.906070,0.070899,1.000000,0.008710,0.117393,0.668062,2.000000,0.994683,0.000000,0.794702,0.918466,1.000000,0.924248,0.306382,2.000000
15,0.009764,0.066106,0.906070,0.070899,1.000000,0.008710,0.117393,0.668062,2.000000,0.994683,0.000000,0.794702,0.918466,1.000000,0.924248,0.306382,2.000000
16,0.009658,0.000000,0.984715,0.000000,1.000000,0.000000,0.206282,0.737517,1.000000,1.000000,0.000000,0.758675,0.913955,0.736237,1.000000,0.500114,2.000000
17,0.009658,0.000000,0.984715,0.000000,1.000000,0.000000,0.206282,0.737517,1.000000,1.000000,0.000000,0.758675,0.913955,0.736237,1.000000,0.500114,2.000000
18,0.009658,0.000000,0.984715,0.000000,1.000000,0.000000,0.206282,0.737517,1.000000,1.000000,0.000000,0.758675,0.913955,0.736237,1.000000,0.500114,2.000000
19,0.008939,0.148939,0.941500,0.038799,1.000000,0.154460,0.000000,0.668062,2.000000,1.000000,0.031131,1.000000,0.919327,0.995913,0.924248,0.360706,2.000000
20,0.008939,0.148939,0.941500,0.038799,1.000000,0.154460,0.000000,0.668062,2.000000,1.000000,0.031131,1.000000,0.919327,0.995913,0.924248,0.360706,2.000000
21,0.008790,0.353267,0.919451,0.000000,1.000000,0.000000,0.131366,0.907782,2.000000,1.000000,0.097473,1.000000,0.935001,0.924748,0.983318,0.539342,2.000000
22,0.008790,0.353267,0.919451,0.000000,1.000000,0.000000,0.131366,0.907782,2.000000,1.000000,0.097473,1.000000,0.935001,0.924748,0.983318,0.539342,2.000000
23,0.008773,0.353267,1.000000,0.000000,1.000000,0.034977,0.131366,1.000000,2.000000,1.000000,0.097473,1.000000,0.935001,0.977521,1.000000,0.539342,2.000000
24,0.008773,0.353267,1.000000,0.000000,1.000000,0.034977,0.131366,1.000000,2.000000,1.000000,0.097473,1.000000,0.935001,0.977521,1.000000,0.539342,2.000000
25,0.008773,0.353267,1.000000,0.000000,1.000000,0.034977,0.131366,1.000000,2.000000,1.000000,0.097473,1.000000,0.935001,0.977521,1.000000,0.539342,2.000000
26,0.008773,0.353267,1.000000,0.000000,1.000000,0.034977,0.131366,1.000000,2.000000,1.000000,0.097473,1.000000,0.935001,0.977521,1.000000,0.539342,2.000000
27,0.008773,0.353267,1.000000,0.000000,1.000000,0.034977,0.131366,1.000000,2.000000,1.000000,0.097473,1.000000,0.935001,0.977521,1.000000,0.539342,2.000000
28,0.008637,0.353267,0.919451,0.000000,1.000000,0.000000,0.140247,0.806644,2.000000,1.000000,0.140828,1.000000,0.935001,0.924748,0.983318,0.648529,2.000000
29,0.008637,0.353267,0.919451,0.000000,1.000000,0.000000,0.140247,0.806644,2.000000,1.000000,0.140828,1.000000,0.935001,0.924748,0.983318,0.648529,2.000000
30,0.008637,0.353267,0.919451,0.000000,1.000000,0.000000,0.140247,0.806644,2.000000,1.000000,0.140828,1.000000,0.935001,0.924748,0.983318,0.648529,2.000000
31,0.008637,0.353267,0.919451,0.000000,1.000000,0.000000,0.140247,0.806644,2.000000,1.000000,0.140828,1.000000,0.935001,0.924748,0.983318,0.648529,2.000000
32,0.008629,0.000000,1.000000,0.000000,1.000000,0.000000,0.047512,0.730139,2.000000,0.930826,0.039050,0.978084,0.913955,1.000000,0.889990,0.769551,2.000000
33,0.008629,0.000000,1.000000,0.000000,1.000000,0.000000,0.047512,0.730139,2.000000,0.930826,0.039050,0.978084,0.913955,1.000000,0.889990,0.769551,2.000000
34,0.008629,0.000000,1.000000,0.000000,1.000000,0.000000,0.047512,0.730139,2.000000,0.930826,0.039050,0.978084,0.913955,1.000000,0.889990,0.769551,2.000000
35,0.008629,0.000000,1.000000,0.000000,1.000000,0.000000,0.047512,0.730139,2.000000,0.930826,0.039050,0.978084,0.913955,1.000000,0.889990,0.769551,2.000000
36,0.008583,0.059413,0.857708,0.000000,1.000000,0.000000,0.047512,0.973259,2.000000,1.000000,0.104538,0.948952,0.913955,1.000000,0.826632,0.815882,2.000000
37,0.008563,0.000000,0.980605,0.000000,1.000000,0.010184,0.037078,0.747231,2.000000,0.916577,0.033588,0.983561,0.913955,0.889143,1.000000,0.794787,2.000000
38,0.008489,0.000000,0.980605,0.013754,1.000000,0.000000,0.037078,0.747231,2.000000,1.000000,0.033588,0.872809,0.913955,0.889143,1.000000,0.794787,2.000000
39,0.008409,0.130938,1.000000,0.002170,1.000000,0.000000,0.000000,0.973259,2.000000,0.930826,0.141043,0.948952,0.913955,1.000000,1.000000,0.922229,2.000000
40,0.008409,0.130938,1.000000,0.002170,1.000000,0.000000,0.000000,0.973259,2.000000,0.930826,0.141043,0.948952,0.913955,1.000000,1.000000,0.922229,2.000000
41,0.008409,0.130938,1.000000,0.002170,1.000000,0.000000,0.000000,0.973259,2.000000,0.930826,0.141043,0.948952,0.913955,1.000000,1.000000,0.922229,2.000000
42,0.008287,0.084597,0.984892,0.000000,1.000000,0.000000,0.083837,0.793549,2.000000,1.000000,0.107294,0.998977,0.897458,0.963279,0.891569,0.886178,2.000000
43,0.008287,0.084597,0.984892,0.000000,1.000000,0.000000,0.083837,0.793549,2.000000,1.000000,0.107294,0.998977,0.897458,0.963279,0.891569,0.886178,2.000000
44,0.008287,0.084597,0.984892,0.000000,1.000000,0.000000,0.083837,0.793549,2.000000,1.000000,0.107294,0.998977,0.897458,0.963279,0.891569,0.886178,2.000000
45,0.008287,0.084597,0.984892,0.000000,1.000000,0.000000,0.083837,0.793549,2.000000,1.000000,0.107294,0.998977,0.897458,0.963279,0.891569,0.886178,2.000000
46,0.008287,0.084597,0.984892,0.000000,1.000000,0.000000,0.083837,0.793549,2.000000,1.000000,0.107294,0.998977,0.897458,0.963279,0.891569,0.886178,2.000000
47,0.008287,0.084597,0.984892,0.000000,1.000000,0.000000,0.083837,0.793549,2.000000,1.000000,0.107294,0.998977,0.897458,0.963279,0.891569,0.886178,2.000000
48,0.008287,0.084597,0.984892,0.000000,1.000000,0.000000,0.083837,0.793549,2.000000,1.000000,0.107294,0.998977,0.897458,0.963279,0.891569,0.886178,2.000000
49,0.008287,0.084597,0.984892,0.000000,1.000000,0.000000,0.083837,0.793549,2.000000,1.000000,0.107294,0.998977,0.897458,0.963279,0.891569,0.886178,2.000000
50,0.008287,0.084597,0.984892,0.000000,1.000000,0.000000,0.083837,0.793549,2.000000,1.000000,0.107294,0.998977,0.897458,0.963279,0.891569,0.886178,2.000000
51,0.008287,0.084597,0.984892,0.000000,1.000000,0.000000,0.083837,0.793549,2.000000,1.000000,0.107294,0.998977,0.897458,0.963279,0.891569,0.886178,2.000000
52,0.008236,0.078012,0.982971,0.000000,1.000000,0.000000,0.094808,0.924888,2.000000,1.000000,0.000000,1.000000,0.905910,0.672704,1.000000,1.000000,2.000000
53,0.008236,0.078012,0.982971,0.000000,1.000000,0.000000,0.094808,0.924888,2.000000,1.000000,0.000000,1.000000,0.905910,0.672704,1.000000,1.000000,2.000000
54,0.008158,0.000000,1.000000,0.000000,1.000000,0.000000,0.083837,0.819919,2.000000,1.000000,0.120577,1.000000,0.897458,0.861567,0.965791,1.000000,2.000000
55,0.008158,0.000000,1.000000,0.000000,1.000000,0.000000,0.083837,0.819919,2.000000,1.000000,0.120577,1.000000,0.897458,0.861567,0.965791,1.000000,2.000000
56,0.008158,0.000000,1.000000,0.000000,1.000000,0.000000,0.083837,0.819919,2.000000,1.000000,0.120577,1.000000,0.897458,0.861567,0.965791,1.000000,2.000000
57,0.008158,0.000000,1.000000,0.000000,1.000000,0.000000,0.083837,0.819919,2.000000,1.000000,0.120577,1.000000,0.897458,0.861567,0.965791,1.000000,2.000000
58,0.008158,0.000000,1.000000,0.000000,1.000000,0.000000,0.083837,0.819919,2.000000,1.000000,0.120577,1.000000,0.897458,0.861567,0.965791,1.000000,2.000000
59,0.008158,0.000000,1.000000,0.000000,1.000000,0.000000,0.083837,0.819919,2.000000,1.000000,0.120577,1.000000,0.897458,0.861567,0.965791,1.000000,2.000000
60,0.008158,0.000000,1.000000,0.000000,1.000000,0.000000,0.083837,0.819919,2.000000,1.000000,0.120577,1.000000,0.897458,0.861567,0.965791,1.000000,2.000000
61,0.008158,0.000000,1.000000,0.000000,1.000000,0.000000,0.083837,0.819919,2.000000,1.000000,0.120577,1.000000,0.897458,0.861567,0.965791,1.000000,2.000000
62,0.008158,0.000000,1.000000,0.000000,1.000000,0.000000,0.083837,0.819919,2.000000,1.000000,0.120577,1.000000,0.897458,0.861567,0.965791,1.000000,2.000000
63,0.008158,0.000000,1.000000,0.000000,1.000000,0.000000,0.083837,0.819919,2.000000,1.000000,0.120577,1.000000,0.897458,0.861567,0.965791,1.000000,2.000000
64,0.008158,0.000000,1.000000,0.000000,1.000000,0.000000,0.083837,0.819919,2.000000,1.000000,0.120577,1.000000,0.897458,0.861567,0.965791,1.000000,2.000000
gen, fitness
0,0.020772,0.000000,1.000000,0.210000,0.800000,0.030000,0.030000,1.000000,0.000000,1.000000,0.000000,0.000000,0.600000,1.000000,1.000000,0.000000,0.000000
1,0.020772,0.000000,1.000000,0.210000,0.800000,0.030000,0.030000,1.000000,0.000000,1.000000,0.000000,0.000000,0.600000,1.000000,1.000000,0.000000,0.000000
2,0.006021,0.000000,1.000000,0.480509,0.758123,0.030000,0.030000,1.000000,2.000000,1.000000,0.000000,0.000000,0.732228,1.000000,1.000000,0.000000,2.000000
3,0.003451,0.002093,1.000000,0.053125,0.888504,0.030000,0.000000,1.000000,0.000000,1.000000,0.000000,0.000000,0.788330,1.000000,1.000000,0.131934,2.000000
4,0.000717,0.000000,0.826418,0.289762,0.910990,0.194754,0.000000,1.000000,0.000000,0.758062,0.000000,0.000000,0.897421,0.931376,1.000000,0.130281,1.000000
5,0.000717,0.000000,0.826418,0.289762,0.910990,0.194754,0.000000,1.000000,0.000000,0.758062,0.000000,0.000000,0.897421,0.931376,1.000000,0.130281,1.000000
6,0.000717,0.000000,0.826418,0.289762,0.910990,0.194754,0.000000,1.000000,0.000000,0.758062,0.000000,0.000000,0.897421,0.931376,1.000000,0.130281,1.000000
7,0.000128,0.000000,0.625964,0.289762,1.000000,0.194754,0.050058,1.000000,0.000000,0.687438,0.000000,0.000000,1.000000,0.932308,0.985634,0.000000,2.000000
8,0.000128,0.000000,0.625964,0.289762,1.000000,0.194754,0.050058,1.000000,0.000000,0.687438,0.000000,0.000000,1.000000,0.932308,0.985634,0.000000,2.000000
9,0.000008,0.258724,0.765598,0.176934,1.000000,0.000000,0.000000,1.000000,2.000000,1.000000,0.272971,0.105093,1.000000,1.000000,1.000000,0.397363,0.000000
10,0.000008,0.258724,0.765598,0.176934,1.000000,0.000000,0.000000,1.000000,2.000000,1.000000,0.272971,0.105093,1.000000,1.000000,1.000000,0.397363,0.000000
11,0.000008,0.258724,0.765598,0.176934,1.000000,0.000000,0.000000,1.000000,2.000000,1.000000,0.272971,0.105093,1.000000,1.000000,1.000000,0.397363,0.000000
12,0.000006,0.146205,0.795598,0.081649,0.998206,0.181719,0.194142,0.881411,2.000000,0.851006,0.000000,0.000000,1.000000,1.000000,0.841565,0.591850,1.000000
13,0.000004,0.109233,0.475419,0.326728,1.000000,0.279785,0.148828,1.000000,1.000000,1.000000,0.000000,0.000000,1.000000,0.879638,0.739519,0.000000,1.000000
14,0.000004,0.109233,0.475419,0.326728,1.000000,0.279785,0.148828,1.000000,1.000000,1.000000,0.000000,0.000000,1.000000,0.879638,0.739519,0.000000,1.000000
15,0.000004,0.109233,0.475419,0.326728,1.000000,0.279785,0.148828,1.000000,1.000000,1.000000,0.000000,0.000000,1.000000,0.879638,0.739519,0.000000,1.000000
16,0.000001,0.000000,0.356272,0.667796,0.980745,0.389968,0.000000,1.000000,0.000000,0.850762,0.000000,0.071311,1.000000,1.000000,0.922008,0.000000,1.000000
17,0.000001,0.054400,0.426151,0.326728,1.000000,0.209954,0.023625,0.981317,1.000000,1.000000,0.000000,0.000000,1.000000,1.000000,0.829798,0.174691,1.000000
18,0.000001,0.054400,0.426151,0.326728,1.000000,0.209954,0.023625,0.981317,1.000000,1.000000,0.000000,0.000000,1.000000,1.000000,0.829798,0.174691,1.000000
19,0.000001,0.054400,0.426151,0.326728,1.000000,0.209954,0.023625,0.981317,1.000000,1.000000,0.000000,0.000000,1.000000,1.000000,0.829798,0.174691,1.000000
gen, fitness
0,0.008197,0.000000,1.000000,0.210000,0.800000,0.030000,0.030000,1.000000,0.000000,1.000000,0.000000,0.000000,0.600000,1.000000,1.000000,0.000000,0.000000
1,0.008197,0.000000,1.000000,0.210000,0.800000,0.030000,0.030000,1.000000,0.000000,1.000000,0.000000,0.000000,0.600000,1.000000,1.000000,0.000000,0.000000
2,0.000027,0.000000,1.000000,0.210000,0.800000,0.058712,0.030000,1.000000,1.000000,0.911476,0.108191,0.000000,0.725839,1.000000,0.916048,0.109204,2.000000
3,0.000027,0.000000,1.000000,0.210000,0.800000,0.058712,0.030000,1.000000,1.000000,0.911476,0.108191,0.000000,0.725839,1.000000,0.916048,0.109204,2.000000
4,0.000027,0.000000,1.000000,0.210000,0.800000,0.058712,0.030000,1.000000,1.000000,0.911476,0.108191,0.000000,0.725839,1.000000,0.916048,0.109204,2.000000
5,0.000008,0.000000,1.000000,0.172936,0.810806,0.030000,0.152305,0.997123,2.000000,1.000000,0.000000,0.258661,0.600000,1.000000,0.980538,0.142651,2.000000
6,0.000008,0.000000,1.000000,0.172936,0.810806,0.030000,0.152305,0.997123,2.000000,1.000000,0.000000,0.258661,0.600000,1.000000,0.980538,0.142651,2.000000
7,0.000008,0.000000,1.000000,0.172936,0.810806,0.030000,0.152305,0.997123,2.000000,1.000000,0.000000,0.258661,0.600000,1.000000,0.980538,0.142651,2.000000
8,0.000007,0.000000,1.000000,0.172936,0.810806,0.030000,0.152305,0.997123,2.000000,1.000000,0.136648,0.252812,0.600000,1.000000,0.980538,0.142651,2.000000
9,0.000002,0.084178,0.766565,0.265966,0.800000,0.172666,0.070964,0.725334,2.000000,1.000000,0.000000,0.310873,0.628007,0.539045,1.000000,0.000000,0.000000
10,0.000002,0.084178,0.766565,0.265966,0.800000,0.172666,0.070964,0.725334,2.000000,1.000000,0.000000,0.310873,0.628007,0.539045,1.000000,0.000000,0.000000
11,0.000002,0.084178,0.766565,0.265966,0.800000,0.172666,0.070964,0.725334,2.000000,1.000000,0.000000,0.310873,0.628007,0.539045,1.000000,0.000000,0.000000
12,0.000002,0.084178,0.766565,0.265966,0.800000,0.172666,0.070964,0.725334,2.000000,1.000000,0.000000,0.310873,0.628007,0.539045,1.000000,0.000000,0.000000
13,0.000002,0.084178,0.766565,0.265966,0.800000,0.172666,0.070964,0.725334,2.000000,1.000000,0.000000,0.310873,0.628007,0.539045,1.000000,0.000000,0.000000
14,0.000002,0.084178,0.766565,0.265966,0.800000,0.172666,0.070964,0.725334,2.000000,1.000000,0.000000,0.310873,0.628007,0.539045,1.000000,0.000000,0.000000
15,0.000002,0.084178,0.766565,0.265966,0.800000,0.172666,0.070964,0.725334,2.000000,1.000000,0.000000,0.310873,0.628007,0.539045,1.000000,0.000000,0.000000
gen, fitness
0,0.011091,0.000000,1.000000,0.210000,0.800000,0.030000,0.030000,1.000000,0.000000,1.000000,0.000000,0.000000,0.600000,1.000000,1.000000,0.000000,0.000000
1,0.011091,0.000000,1.000000,0.210000,0.800000,0.030000,0.030000,1.000000,0.000000,1.000000,0.000000,0.000000,0.600000,1.000000,1.000000,0.000000,0.000000
2,0.000110,0.101202,1.000000,0.210000,0.725798,0.000000,0.030000,1.000000,0.000000,0.939514,0.000000,0.000000,0.685209,1.000000,1.000000,0.081436,1.000000
3,0.000110,0.101202,1.000000,0.210000,0.725798,0.000000,0.030000,1.000000,0.000000,0.939514,0.000000,0.000000,0.685209,1.000000,1.000000,0.081436,1.000000
4,0.000099,0.191868,0.867316,0.204953,0.732719,0.035422,0.209838,1.000000,1.000000,0.951033,0.071017,0.124252,0.648809,1.000000,1.000000,0.000000,2.000000
5,0.000006,0.000000,1.000000,0.168326,0.726389,0.000000,0.030000,0.880531,2.000000,1.000000,0.000000,0.000000,0.623735,1.000000,1.000000,0.151229,2.000000
6,0.000006,0.000000,1.000000,0.168326,0.726389,0.000000,0.030000,0.880531,2.000000,1.000000,0.000000,0.000000,0.623735,1.000000,1.000000,0.151229,2.000000
7,0.000006,0.000000,1.000000,0.168326,0.726389,0.000000,0.030000,0.880531,2.000000,1.000000,0.000000,0.000000,0.623735,1.000000,1.000000,0.151229,2.000000
8,0.000006,0.000000,1.000000,0.168326,0.726389,0.000000,0.030000,0.880531,2.000000,1.000000,0.000000,0.000000,0.623735,1.000000,1.000000,0.151229,2.000000
9,0.000003,0.061149,0.839436,0.066796,0.759396,0.000000,0.000000,0.962597,1.000000,0.845145,0.075249,0.000000,0.658942,0.975765,0.919601,0.157119,1.000000
10,0.000003,0.061149,0.839436,0.066796,0.759396,0.000000,0.000000,0.962597,1.000000,0.845145,0.075249,0.000000,0.658942,0.975765,0.919601,0.157119,1.000000
11,0.000003,0.061149,0.839436,0.066796,0.759396,0.000000,0.000000,0.962597,1.000000,0.845145,0.075249,0.000000,0.658942,0.975765,0.919601,0.157119,1.000000
12,0.000003,0.061149,0.839436,0.066796,0.759396,0.000000,0.000000,0.962597,1.000000,0.845145,0.075249,0.000000,0.658942,0.975765,0.919601,0.157119,1.000000
13,0.000003,0.131705,0.696640,0.199615,0.724212,0.218241,0.115228,0.843813,1.000000,0.988567,0.000000,0.055541,0.638970,1.000000,1.000000,0.085313,2.000000
14,0.000003,0.131705,0.696640,0.199615,0.724212,0.218241,0.115228,0.843813,1.000000,0.988567,0.000000,0.055541,0.638970,1.000000,1.000000,0.085313,2.000000
15,0.000003,0.131705,0.696640,0.199615,0.724212,0.218241,0.115228,0.843813,1.000000,0.988567,0.000000,0.055541,0.638970,1.000000,1.000000,0.085313,2.000000
gen, fitness
0,0.020988,0.000000,1.000000,0.210000,0.800000,0.030000,0.030000,1.000000,0.000000,1.000000,0.000000,0.000000,0.600000,1.000000,1.000000,0.000000,0.000000
1,0.020988,0.000000,1.000000,0.210000,0.800000,0.030000,0.030000,1.000000,0.000000,1.000000,0.000000,0.000000,0.600000,1.000000,1.000000,0.000000,0.000000
2,0.007754,0.000000,0.895803,0.287432,0.837750,0.028390,0.030000,1.000000,0.000000,1.000000,0.000000,0.091947,0.774582,1.000000,1.000000,0.000000,0.000000
3,0.004729,0.000000,1.000000,0.208977,0.883503,0.173973,0.000000,0.912693,2.000000,1.000000,0.008597,0.012554,0.806562,1.000000,1.000000,0.128655,1.000000
4,0.001760,0.028076,0.914906,0.287432,0.960237,0.028390,0.000000,0.972418,1.000000,0.851676,0.000000,0.074285,0.931615,1.000000,0.837925,0.000000,0.000000
5,0.001575,0.093513,0.937083,0.287432,0.960237,0.000000,0.114010,1.000000,1.000000,0.693516,0.070540,0.074285,0.931615,1.000000,0.837925,0.113317,2.000000
6,0.001447,0.185970,0.937083,0.350033,0.930141,0.001487,0.104042,1.000000,1.000000,0.557967,0.107176,0.074285,0.931615,1.000000,0.878234,0.133921,2.000000
7,0.000452,0.170240,1.000000,0.350033,1.000000,0.001487,0.104042,0.987859,1.000000,0.557967,0.106603,0.142431,1.000000,0.970528,0.878084,0.007451,2.000000
8,0.000408,0.090803,1.000000,0.350033,1.000000,0.000000,0.000000,1.000000,1.000000,0.557967,0.106603,0.142431,1.000000,0.992173,0.975754,0.007451,2.000000
9,0.000340,0.150378,0.904107,0.541740,1.000000,0.389952,0.000000,0.853027,2.000000,0.875084,0.283465,0.205197,1.000000,0.914282,0.736701,0.203453,0.000000
10,0.000340,0.150378,0.904107,0.541740,1.000000,0.389952,0.000000,0.853027,2.000000,0.875084,0.283465,0.205197,1.000000,0.914282,0.736701,0.203453,0.000000
11,0.000340,0.150378,0.904107,0.541740,1.000000,0.389952,0.000000,0.853027,2.000000,0.875084,0.283465,0.205197,1.000000,0.914282,0.736701,0.203453,0.000000
12,0.000266,0.138498,1.000000,0.350033,0.999063,0.001487,0.104042,0.987859,2.000000,0.557967,0.106603,0.205973,1.000000,1.000000,0.878084,0.007451,2.000000
13,0.000222,0.034711,1.000000,0.298002,0.999063,0.000000,0.000000,1.000000,2.000000,0.394986,0.266141,0.205973,1.000000,1.000000,0.878084,0.007451,2.000000
14,0.000195,0.090803,1.000000,0.350033,1.000000,0.246978,0.000000,0.861129,2.000000,0.426161,0.106603,0.353918,1.000000,0.853527,0.778669,0.337086,2.000000
15,0.000085,0.104223,0.838385,0.443790,1.000000,0.000000,0.196434,1.000000,2.000000,0.329498,0.042975,0.555567,1.000000,0.684582,0.764077,0.331154,2.000000
16,0.000085,0.104223,0.838385,0.443790,1.000000,0.000000,0.196434,1.000000,2.000000,0.329498,0.042975,0.555567,1.000000,0.684582,0.764077,0.331154,2.000000
17,0.000068,0.104223,0.877963,0.443790,1.000000,0.000000,0.263811,1.000000,2.000000,0.329498,0.042975,0.555567,1.000000,0.611360,0.901948,0.331154,2.000000
18,0.000051,0.040248,0.854098,0.443790,1.000000,0.089177,0.145452,1.000000,2.000000,0.269246,0.064543,0.498313,1.000000,0.684582,0.639761,0.331154,2.000000
19,0.000044,0.000000,0.838385,0.532962,1.000000,0.077762,0.145452,1.000000,2.000000,0.329498,0.093544,0.498313,1.000000,0.592203,0.639761,0.312754,1.000000
20,0.000031,0.089240,0.838385,0.443790,1.000000,0.000000,0.137978,1.000000,2.000000,0.207719,0.042975,0.550794,1.000000,0.684582,0.580559,0.329795,2.000000
21,0.000031,0.089240,0.838385,0.443790,1.000000,0.000000,0.137978,1.000000,2.000000,0.207719,0.042975,0.550794,1.000000,0.684582,0.580559,0.329795,2.000000
22,0.000031,0.089240,0.838385,0.443790,1.000000,0.000000,0.137978,1.000000,2.000000,0.207719,0.042975,0.550794,1.000000,0.684582,0.580559,0.329795,2.000000
23,0.000026,0.000000,0.753731,0.588075,1.000000,0.032278,0.196434,1.000000,2.000000,0.200938,0.098233,0.661159,1.000000,0.428520,0.582086,0.238867,1.000000
24,0.000013,0.000000,0.777199,0.588075,1.000000,0.032278,0.196434,1.000000,2.000000,0.200938,0.249172,0.742697,1.000000,0.341215,0.374359,0.228849,0.000000
25,0.000006,0.000000,0.777199,0.597540,1.000000,0.037270,0.410288,1.000000,2.000000,0.200938,0.249172,0.742697,1.000000,0.477604,0.416685,0.228849,0.000000
26,0.000002,0.000000,0.777199,0.597540,1.000000,0.037270,0.442366,1.000000,2.000000,0.134500,0.249172,0.769650,1.000000,0.477604,0.416685,0.228849,1.000000
27,0.000002,0.000000,0.777199,0.597540,1.000000,0.037270,0.442366,1.000000,2.000000,0.134500,0.249172,0.769650,1.000000,0.477604,0.416685,0.228849,1.000000
28,0.000002,0.000000,0.777199,0.597540,1.000000,0.037270,0.442366,1.000000,2.000000,0.134500,0.249172,0.769650,1.000000,0.477604,0.416685,0.228849,1.000000
29,0.000002,0.000000,0.777199,0.597540,1.000000,0.037270,0.442366,1.000000,2.000000,0.134500,0.249172,0.769650,1.000000,0.477604,0.416685,0.228849,1.000000
30,0.000001,0.006301,0.483058,0.530439,1.000000,0.032278,0.541812,0.940739,2.000000,0.000000,0.533651,0.912584,1.000000,0.797540,0.468157,0.464469,0.000000
31,0.000000,0.006301,0.427560,0.530439,1.000000,0.025802,0.442541,0.940739,2.000000,0.000000,0.533651,0.906752,1.000000,0.797540,0.468157,0.511120,0.000000
