gen, fitness
0,0.027983,0.000000,1.000000,0.210000,0.800000,0.030000,0.030000,1.000000,0.000000,1.000000,0.000000,0.000000,0.600000,1.000000,1.000000,0.000000,0.000000
1,0.027983,0.000000,1.000000,0.210000,0.800000,0.030000,0.030000,1.000000,0.000000,1.000000,0.000000,0.000000,0.600000,1.000000,1.000000,0.000000,0.000000
2,0.008413,0.000000,1.000000,0.336753,0.783542,0.000000,0.000000,1.000000,1.000000,1.000000,0.000000,0.000000,0.810760,1.000000,0.949544,0.000000,1.000000
3,0.001172,0.000000,0.931550,0.349401,0.984874,0.000000,0.000000,1.000000,2.000000,0.766136,0.000000,0.140260,1.000000,1.000000,0.852421,0.034042,0.000000
4,0.001172,0.000000,0.931550,0.349401,0.984874,0.000000,0.000000,1.000000,2.000000,0.766136,0.000000,0.140260,1.000000,1.000000,0.852421,0.034042,0.000000
5,0.001061,0.000000,0.905177,0.217882,1.000000,0.000000,0.000000,0.960839,0.000000,0.616843,0.000000,0.139981,1.000000,1.000000,0.939972,0.054537,2.000000
6,0.001061,0.000000,0.905177,0.217882,1.000000,0.000000,0.000000,0.960839,0.000000,0.616843,0.000000,0.139981,1.000000,1.000000,0.939972,0.054537,2.000000
7,0.000855,0.000000,0.969881,0.354148,0.982780,0.000000,0.000000,1.000000,2.000000,0.674033,0.000000,0.242894,1.000000,0.935538,0.699284,0.000000,0.000000
8,0.000776,0.194767,1.000000,0.412219,0.970338,0.236830,0.078632,0.927417,1.000000,0.586490,0.129736,0.299318,1.000000,0.867512,0.906438,0.013304,2.000000
9,0.000458,0.000000,0.856726,0.548731,0.988461,0.106891,0.123140,0.879306,2.000000,0.801621,0.236205,0.515893,1.000000,0.912416,1.000000,0.089416,2.000000
10,0.000458,0.000000,0.856726,0.548731,0.988461,0.106891,0.123140,0.879306,2.000000,0.801621,0.236205,0.515893,1.000000,0.912416,1.000000,0.089416,2.000000
11,0.000458,0.000000,0.856726,0.548731,0.988461,0.106891,0.123140,0.879306,2.000000,0.801621,0.236205,0.515893,1.000000,0.912416,1.000000,0.089416,2.000000
12,0.000404,0.014291,0.301522,0.566753,1.000000,0.386117,0.090856,0.879162,2.000000,0.842536,0.282937,0.724542,1.000000,0.932833,0.893286,0.000000,2.000000
13,0.000404,0.014291,0.301522,0.566753,1.000000,0.386117,0.090856,0.879162,2.000000,0.842536,0.282937,0.724542,1.000000,0.932833,0.893286,0.000000,2.000000
14,0.000404,0.014291,0.301522,0.566753,1.000000,0.386117,0.090856,0.879162,2.000000,0.842536,0.282937,0.724542,1.000000,0.932833,0.893286,0.000000,2.000000
15,0.000404,0.014291,0.301522,0.566753,1.000000,0.386117,0.090856,0.879162,2.000000,0.842536,0.282937,0.724542,1.000000,0.932833,0.893286,0.000000,2.000000
16,0.000388,0.005659,0.886537,0.650128,1.000000,0.119118,0.158753,0.948582,2.000000,0.901500,0.341982,0.876208,1.000000,0.913935,0.920015,0.000000,1.000000
17,0.000388,0.005659,0.886537,0.650128,1.000000,0.119118,0.158753,0.948582,2.000000,0.901500,0.341982,0.876208,1.000000,0.913935,0.920015,0.000000,1.000000
18,0.000380,0.000000,0.840322,0.584742,1.000000,0.025319,0.047606,0.865401,1.000000,0.833841,0.379763,0.914625,1.000000,1.000000,1.000000,0.085848,2.000000
19,0.000380,0.000000,0.840322,0.584742,1.000000,0.025319,0.047606,0.865401,1.000000,0.833841,0.379763,0.914625,1.000000,1.000000,1.000000,0.085848,2.000000
20,0.000344,0.000000,0.916092,0.795152,1.000000,0.116891,0.191516,0.945122,1.000000,0.842841,0.538712,1.000000,1.000000,1.000000,0.737877,0.179174,2.000000
21,0.000316,0.025368,0.839501,0.642951,1.000000,0.026028,0.155572,0.786975,1.000000,0.685400,0.142198,1.000000,1.000000,0.880721,0.919288,0.000000,2.000000
22,0.000316,0.025368,0.839501,0.642951,1.000000,0.026028,0.155572,0.786975,1.000000,0.685400,0.142198,1.000000,1.000000,0.880721,0.919288,0.000000,2.000000
23,0.000316,0.025368,0.839501,0.642951,1.000000,0.026028,0.155572,0.786975,1.000000,0.685400,0.142198,1.000000,1.000000,0.880721,0.919288,0.000000,2.000000
24,0.000316,0.025368,0.839501,0.642951,1.000000,0.026028,0.155572,0.786975,1.000000,0.685400,0.142198,1.000000,1.000000,0.880721,0.919288,0.000000,2.000000
25,0.000316,0.025368,0.839501,0.642951,1.000000,0.026028,0.155572,0.786975,1.000000,0.685400,0.142198,1.000000,1.000000,0.880721,0.919288,0.000000,2.000000
26,0.000313,0.000000,1.000000,0.596376,1.000000,0.000000,0.000000,0.808488,2.000000,0.895511,0.172738,0.809634,1.000000,0.501420,0.993186,0.019596,2.000000
27,0.000313,0.000000,1.000000,0.596376,1.000000,0.000000,0.000000,0.808488,2.000000,0.895511,0.172738,0.809634,1.000000,0.501420,0.993186,0.019596,2.000000
28,0.000313,0.000000,1.000000,0.596376,1.000000,0.000000,0.000000,0.808488,2.000000,0.895511,0.172738,0.809634,1.000000,0.501420,0.993186,0.019596,2.000000
29,0.000313,0.000000,1.000000,0.596376,1.000000,0.000000,0.000000,0.808488,2.000000,0.895511,0.172738,0.809634,1.000000,0.501420,0.993186,0.019596,2.000000
30,0.000237,0.000000,0.463647,0.640651,1.000000,0.187910,0.120077,0.958767,2.000000,0.824864,0.310954,1.000000,1.000000,0.706516,1.000000,0.268556,2.000000
31,0.000237,0.000000,0.463647,0.640651,1.000000,0.187910,0.120077,0.958767,2.000000,0.824864,0.310954,1.000000,1.000000,0.706516,1.000000,0.268556,2.000000
32,0.000237,0.000000,0.463647,0.640651,1.000000,0.187910,0.120077,0.958767,2.000000,0.824864,0.310954,1.000000,1.000000,0.706516,1.000000,0.268556,2.000000
33,0.000237,0.000000,0.463647,0.640651,1.000000,0.187910,0.120077,0.958767,2.000000,0.824864,0.310954,1.000000,1.000000,0.706516,1.000000,0.268556,2.000000
34,0.000232,0.004551,1.000000,0.468505,1.000000,0.000000,0.004312,0.996497,1.000000,0.468837,0.286429,0.967398,1.000000,0.849543,0.792204,0.283170,2.000000
35,0.000232,0.004551,1.000000,0.468505,1.000000,0.000000,0.004312,0.996497,1.000000,0.468837,0.286429,0.967398,1.000000,0.849543,0.792204,0.283170,2.000000
36,0.000232,0.004551,1.000000,0.468505,1.000000,0.000000,0.004312,0.996497,1.000000,0.468837,0.286429,0.967398,1.000000,0.849543,0.792204,0.283170,2.000000
37,0.000232,0.004551,1.000000,0.468505,1.000000,0.000000,0.004312,0.996497,1.000000,0.468837,0.286429,0.967398,1.000000,0.849543,0.792204,0.283170,2.000000
38,0.000232,0.004551,1.000000,0.468505,1.000000,0.000000,0.004312,0.996497,1.000000,0.468837,0.286429,0.967398,1.000000,0.849543,0.792204,0.283170,2.000000
39,0.000232,0.004551,1.000000,0.468505,1.000000,0.000000,0.004312,0.996497,1.000000,0.468837,0.286429,0.967398,1.000000,0.849543,0.792204,0.283170,2.000000
40,0.000232,0.004551,1.000000,0.468505,1.000000,0.000000,0.004312,0.996497,1.000000,0.468837,0.286429,0.967398,1.000000,0.849543,0.792204,0.283170,2.000000
gen, fitness
0,0.112030,0.000000,1.000000,0.210000,0.800000,0.030000,0.030000,1.000000,0.000000,1.000000,0.000000,0.000000,0.600000,1.000000,1.000000,0.000000,0.000000
1,0.112030,0.000000,1.000000,0.210000,0.800000,0.030000,0.030000,1.000000,0.000000,1.000000,0.000000,0.000000,0.600000,1.000000,1.000000,0.000000,0.000000
2,0.071519,0.020436,0.902506,0.101884,0.875593,0.029917,0.000000,0.926699,2.000000,0.885728,0.028645,0.168125,0.767776,1.000000,0.900187,0.013306,1.000000
3,0.070806,0.011439,0.916685,0.337630,0.852739,0.000000,0.043404,0.920632,0.000000,1.000000,0.106679,0.039473,0.851729,1.000000,1.000000,0.297612,0.000000
4,0.052932,0.059124,0.809915,0.023594,0.980553,0.138769,0.019988,0.878049,2.000000,0.765353,0.000000,0.140782,0.930272,0.981059,0.776176,0.186253,0.000000
5,0.043190,0.127542,0.868879,0.059129,1.000000,0.147000,0.003170,0.745414,1.000000,0.808270,0.103308,0.187734,0.995475,1.000000,0.856336,0.339860,2.000000
6,0.042609,0.024416,0.864802,0.361872,1.000000,0.000000,0.081322,0.775685,1.000000,0.873179,0.112442,0.168366,1.000000,0.874000,0.960580,0.110687,2.000000
7,0.037656,0.089497,0.445368,0.311242,1.000000,0.000000,0.136545,0.936790,2.000000,0.917648,0.223028,0.523708,0.969067,1.000000,0.734380,0.267821,2.000000
8,0.037656,0.089497,0.445368,0.311242,1.000000,0.000000,0.136545,0.936790,2.000000,0.917648,0.223028,0.523708,0.969067,1.000000,0.734380,0.267821,2.000000
9,0.036042,0.143628,0.185222,0.581050,1.000000,0.310923,0.000000,0.887982,2.000000,0.922526,0.000000,0.734371,0.987357,1.000000,0.630401,0.186845,2.000000
10,0.036042,0.143628,0.185222,0.581050,1.000000,0.310923,0.000000,0.887982,2.000000,0.922526,0.000000,0.734371,0.987357,1.000000,0.630401,0.186845,2.000000
11,0.036042,0.143628,0.185222,0.581050,1.000000,0.310923,0.000000,0.887982,2.000000,0.922526,0.000000,0.734371,0.987357,1.000000,0.630401,0.186845,2.000000
12,0.036042,0.143628,0.185222,0.581050,1.000000,0.310923,0.000000,0.887982,2.000000,0.922526,0.000000,0.734371,0.987357,1.000000,0.630401,0.186845,2.000000
13,0.034842,0.014172,0.739511,0.276789,1.000000,0.220815,0.000000,0.964349,1.000000,0.792035,0.412804,0.921578,0.951605,1.000000,0.862464,0.219481,2.000000
14,0.034842,0.014172,0.739511,0.276789,1.000000,0.220815,0.000000,0.964349,1.000000,0.792035,0.412804,0.921578,0.951605,1.000000,0.862464,0.219481,2.000000
15,0.034005,0.000000,0.051601,0.654162,1.000000,0.135314,0.037234,0.795253,1.000000,0.849122,0.291129,1.000000,1.000000,1.000000,0.492678,0.302062,2.000000
16,0.034005,0.000000,0.051601,0.654162,1.000000,0.135314,0.037234,0.795253,1.000000,0.849122,0.291129,1.000000,1.000000,1.000000,0.492678,0.302062,2.000000
17,0.034005,0.000000,0.051601,0.654162,1.000000,0.135314,0.037234,0.795253,1.000000,0.849122,0.291129,1.000000,1.000000,1.000000,0.492678,0.302062,2.000000
18,0.034005,0.000000,0.051601,0.654162,1.000000,0.135314,0.037234,0.795253,1.000000,0.849122,0.291129,1.000000,1.000000,1.000000,0.492678,0.302062,2.000000
19,0.034005,0.000000,0.051601,0.654162,1.000000,0.135314,0.037234,0.795253,1.000000,0.849122,0.291129,1.000000,1.000000,1.000000,0.492678,0.302062,2.000000
20,0.033970,0.003188,0.046580,0.640638,1.000000,0.000000,0.205334,0.920793,2.000000,0.896331,0.162752,0.985218,0.970200,0.854927,0.464044,0.233886,2.000000
21,0.033970,0.003188,0.046580,0.640638,1.000000,0.000000,0.205334,0.920793,2.000000,0.896331,0.162752,0.985218,0.970200,0.854927,0.464044,0.233886,2.000000
22,0.033970,0.003188,0.046580,0.640638,1.000000,0.000000,0.205334,0.920793,2.000000,0.896331,0.162752,0.985218,0.970200,0.854927,0.464044,0.233886,2.000000
23,0.033901,0.000000,0.000000,0.457822,1.000000,0.000000,0.063489,0.689014,1.000000,0.940578,0.105506,0.921992,0.976105,0.954373,0.721236,0.841151,2.000000
24,0.033606,0.179025,0.058953,0.615702,1.000000,0.014639,0.000000,0.695295,2.000000,1.000000,0.521262,0.931508,1.000000,0.967595,0.713580,0.370094,2.000000
25,0.033606,0.179025,0.058953,0.615702,1.000000,0.014639,0.000000,0.695295,2.000000,1.000000,0.521262,0.931508,1.000000,0.967595,0.713580,0.370094,2.000000
26,0.032524,0.213846,0.532687,0.451458,1.000000,0.112477,0.114000,1.000000,2.000000,0.614072,0.042101,1.000000,1.000000,0.538764,1.000000,0.552400,2.000000
27,0.032524,0.213846,0.532687,0.451458,1.000000,0.112477,0.114000,1.000000,2.000000,0.614072,0.042101,1.000000,1.000000,0.538764,1.000000,0.552400,2.000000
28,0.032524,0.213846,0.532687,0.451458,1.000000,0.112477,0.114000,1.000000,2.000000,0.614072,0.042101,1.000000,1.000000,0.538764,1.000000,0.552400,2.000000
29,0.032524,0.213846,0.532687,0.451458,1.000000,0.112477,0.114000,1.000000,2.000000,0.614072,0.042101,1.000000,1.000000,0.538764,1.000000,0.552400,2.000000
30,0.032524,0.213846,0.532687,0.451458,1.000000,0.112477,0.114000,1.000000,2.000000,0.614072,0.042101,1.000000,1.000000,0.538764,1.000000,0.552400,2.000000
31,0.032524,0.213846,0.532687,0.451458,1.000000,0.112477,0.114000,1.000000,2.000000,0.614072,0.042101,1.000000,1.000000,0.538764,1.000000,0.552400,2.000000
32,0.032524,0.213846,0.532687,0.451458,1.000000,0.112477,0.114000,1.000000,2.000000,0.614072,0.042101,1.000000,1.000000,0.538764,1.000000,0.552400,2.000000
33,0.031510,0.000000,0.827219,0.485464,1.000000,0.093353,0.095181,0.962007,2.000000,0.397024,0.442763,0.973748,1.000000,0.670324,0.798369,0.805106,2.000000
34,0.031510,0.000000,0.827219,0.485464,1.000000,0.093353,0.095181,0.962007,2.000000,0.397024,0.442763,0.973748,1.000000,0.670324,0.798369,0.805106,2.000000
35,0.031510,0.000000,0.827219,0.485464,1.000000,0.093353,0.095181,0.962007,2.000000,0.397024,0.442763,0.973748,1.000000,0.670324,0.798369,0.805106,2.000000
36,0.031510,0.000000,0.827219,0.485464,1.000000,0.093353,0.095181,0.962007,2.000000,0.397024,0.442763,0.973748,1.000000,0.670324,0.798369,0.805106,2.000000
37,0.031510,0.000000,0.827219,0.485464,1.000000,0.093353,0.095181,0.962007,2.000000,0.397024,0.442763,0.973748,1.000000,0.670324,0.798369,0.805106,2.000000
38,0.031510,0.000000,0.827219,0.485464,1.000000,0.093353,0.095181,0.962007,2.000000,0.397024,0.442763,0.973748,1.000000,0.670324,0.798369,0.805106,2.000000
39,0.031510,0.000000,0.827219,0.485464,1.000000,0.093353,0.095181,0.962007,2.000000,0.397024,0.442763,0.973748,1.000000,0.670324,0.798369,0.805106,2.000000
40,0.031510,0.000000,0.827219,0.485464,1.000000,0.093353,0.095181,0.962007,2.000000,0.397024,0.442763,0.973748,1.000000,0.670324,0.798369,0.805106,2.000000
41,0.031510,0.000000,0.827219,0.485464,1.000000,0.093353,0.095181,0.962007,2.000000,0.397024,0.442763,0.973748,1.000000,0.670324,0.798369,0.805106,2.000000
42,0.031510,0.000000,0.827219,0.485464,1.000000,0.093353,0.095181,0.962007,2.000000,0.397024,0.442763,0.973748,1.000000,0.670324,0.798369,0.805106,2.000000
43,0.031510,0.000000,0.827219,0.485464,1.000000,0.093353,0.095181,0.962007,2.000000,0.397024,0.442763,0.973748,1.000000,0.670324,0.798369,0.805106,2.000000
gen, fitness
0,0.128870,0.000000,1.000000,0.210000,0.800000,0.030000,0.030000,1.000000,0.000000,1.000000,0.000000,0.000000,0.600000,1.000000,1.000000,0.000000,0.000000
1,0.128870,0.000000,1.000000,0.210000,0.800000,0.030000,0.030000,1.000000,0.000000,1.000000,0.000000,0.000000,0.600000,1.000000,1.000000,0.000000,0.000000
2,0.085544,0.000000,1.000000,0.184114,0.901451,0.019339,0.000000,0.873415,1.000000,1.000000,0.000000,0.000000,0.847384,1.000000,1.000000,0.060586,2.000000
3,0.073117,0.028262,1.000000,0.165697,0.999478,0.007754,0.065317,0.970003,0.000000,1.000000,0.010696,0.025659,0.985781,1.000000,1.000000,0.094427,1.000000
4,0.067121,0.000000,1.000000,0.357597,1.000000,0.244809,0.337764,0.899257,1.000000,0.945948,0.238797,0.342339,0.990299,1.000000,1.000000,0.262152,2.000000
5,0.065379,0.000000,0.913455,0.309812,1.000000,0.206024,0.020161,0.888825,1.000000,0.653342,0.137452,0.303060,0.974150,1.000000,0.896817,0.025649,2.000000
6,0.063268,0.223030,0.982491,0.590856,1.000000,0.187858,0.224189,0.947712,2.000000,0.993099,0.028800,0.150463,1.000000,1.000000,0.827305,0.000000,2.000000
7,0.063011,0.174525,0.890943,0.574491,0.964044,0.385898,0.000000,0.687797,2.000000,0.479416,0.101982,0.130572,1.000000,1.000000,1.000000,0.179280,2.000000
8,0.061538,0.000000,1.000000,0.656561,1.000000,0.230363,0.113285,0.934907,1.000000,0.833501,0.317789,0.361588,1.000000,1.000000,1.000000,0.385900,2.000000
9,0.060213,0.146304,1.000000,0.579927,1.000000,0.068346,0.005063,0.911676,2.000000,0.772228,0.377680,0.662869,1.000000,0.980879,0.873841,0.312425,2.000000
10,0.059434,0.000000,0.993636,0.787298,1.000000,0.209970,0.180501,1.000000,2.000000,0.735363,0.079936,0.426262,1.000000,1.000000,0.871554,0.493381,2.000000
11,0.059434,0.000000,0.993636,0.787298,1.000000,0.209970,0.180501,1.000000,2.000000,0.735363,0.079936,0.426262,1.000000,1.000000,0.871554,0.493381,2.000000
12,0.058522,0.109646,0.890319,0.802044,1.000000,0.000000,0.060096,0.854225,2.000000,0.737891,0.300456,0.663886,1.000000,0.894800,0.631752,0.678501,2.000000
13,0.058522,0.109646,0.890319,0.802044,1.000000,0.000000,0.060096,0.854225,2.000000,0.737891,0.300456,0.663886,1.000000,0.894800,0.631752,0.678501,2.000000
14,0.058522,0.109646,0.890319,0.802044,1.000000,0.000000,0.060096,0.854225,2.000000,0.737891,0.300456,0.663886,1.000000,0.894800,0.631752,0.678501,2.000000
15,0.058522,0.109646,0.890319,0.802044,1.000000,0.000000,0.060096,0.854225,2.000000,0.737891,0.300456,0.663886,1.000000,0.894800,0.631752,0.678501,2.000000
16,0.058522,0.109646,0.890319,0.802044,1.000000,0.000000,0.060096,0.854225,2.000000,0.737891,0.300456,0.663886,1.000000,0.894800,0.631752,0.678501,2.000000
17,0.058160,0.017229,1.000000,1.000000,0.997663,0.044036,0.300892,1.000000,2.000000,0.595543,0.017198,0.830454,1.000000,0.901913,0.867402,0.162862,1.000000
18,0.058160,0.017229,1.000000,1.000000,0.997663,0.044036,0.300892,1.000000,2.000000,0.595543,0.017198,0.830454,1.000000,0.901913,0.867402,0.162862,1.000000
19,0.058119,0.278698,0.961921,1.000000,1.000000,0.050674,0.509121,0.732103,2.000000,0.685097,0.228270,0.965226,1.000000,0.612904,0.454120,0.755645,2.000000
20,0.058119,0.278698,0.961921,1.000000,1.000000,0.050674,0.509121,0.732103,2.000000,0.685097,0.228270,0.965226,1.000000,0.612904,0.454120,0.755645,2.000000
21,0.057714,0.046565,0.718448,0.937145,0.991659,0.052673,0.316827,1.000000,2.000000,0.213082,0.050855,0.859581,1.000000,0.757354,0.743057,0.000000,1.000000
22,0.057714,0.046565,0.718448,0.937145,0.991659,0.052673,0.316827,1.000000,2.000000,0.213082,0.050855,0.859581,1.000000,0.757354,0.743057,0.000000,1.000000
23,0.057714,0.046565,0.718448,0.937145,0.991659,0.052673,0.316827,1.000000,2.000000,0.213082,0.050855,0.859581,1.000000,0.757354,0.743057,0.000000,1.000000
24,0.057714,0.046565,0.718448,0.937145,0.991659,0.052673,0.316827,1.000000,2.000000,0.213082,0.050855,0.859581,1.000000,0.757354,0.743057,0.000000,1.000000
25,0.057447,0.000000,0.947577,0.875412,1.000000,0.115684,0.000000,1.000000,2.000000,0.566443,0.249925,0.678016,1.000000,1.000000,0.577051,0.659857,2.000000
26,0.057447,0.000000,0.947577,0.875412,1.000000,0.115684,0.000000,1.000000,2.000000,0.566443,0.249925,0.678016,1.000000,1.000000,0.577051,0.659857,2.000000
27,0.057447,0.000000,0.947577,0.875412,1.000000,0.115684,0.000000,1.000000,2.000000,0.566443,0.249925,0.678016,1.000000,1.000000,0.577051,0.659857,2.000000
28,0.057447,0.000000,0.947577,0.875412,1.000000,0.115684,0.000000,1.000000,2.000000,0.566443,0.249925,0.678016,1.000000,1.000000,0.577051,0.659857,2.000000
29,0.057445,0.000000,0.693841,0.839681,1.000000,0.207832,0.253290,1.000000,2.000000,0.384040,0.000000,0.922232,1.000000,0.577474,0.000000,0.547697,0.000000
30,0.056949,0.000000,0.614570,1.000000,0.984502,0.148736,0.195578,1.000000,2.000000,0.226094,0.071879,1.000000,1.000000,0.757009,1.000000,0.720802,0.000000
31,0.056364,0.000000,0.956239,0.987845,1.000000,0.201407,0.259019,0.674972,2.000000,0.257644,0.000653,1.000000,1.000000,0.449788,0.000000,0.797314,2.000000
32,0.056364,0.000000,0.956239,0.987845,1.000000,0.201407,0.259019,0.674972,2.000000,0.257644,0.000653,1.000000,1.000000,0.449788,0.000000,0.797314,2.000000
33,0.056364,0.000000,0.956239,0.987845,1.000000,0.201407,0.259019,0.674972,2.000000,0.257644,0.000653,1.000000,1.000000,0.449788,0.000000,0.797314,2.000000
34,0.056364,0.000000,0.956239,0.987845,1.000000,0.201407,0.259019,0.674972,2.000000,0.257644,0.000653,1.000000,1.000000,0.449788,0.000000,0.797314,2.000000
35,0.055149,0.000000,0.177105,1.000000,0.979757,0.017013,0.222001,1.000000,2.000000,0.000000,0.112968,1.000000,1.000000,0.695665,0.474601,0.583502,2.000000
36,0.055149,0.000000,0.177105,1.000000,0.979757,0.017013,0.222001,1.000000,2.000000,0.000000,0.112968,1.000000,1.000000,0.695665,0.474601,0.583502,2.000000
37,0.055149,0.000000,0.177105,1.000000,0.979757,0.017013,0.222001,1.000000,2.000000,0.000000,0.112968,1.000000,1.000000,0.695665,0.474601,0.583502,2.000000
38,0.055149,0.000000,0.177105,1.000000,0.979757,0.017013,0.222001,1.000000,2.000000,0.000000,0.112968,1.000000,1.000000,0.695665,0.474601,0.583502,2.000000
39,0.055149,0.000000,0.177105,1.000000,0.979757,0.017013,0.222001,1.000000,2.000000,0.000000,0.112968,1.000000,1.000000,0.695665,0.474601,0.583502,2.000000
40,0.055149,0.000000,0.177105,1.000000,0.979757,0.017013,0.222001,1.000000,2.000000,0.000000,0.112968,1.000000,1.000000,0.695665,0.474601,0.583502,2.000000
41,0.055149,0.000000,0.177105,1.000000,0.979757,0.017013,0.222001,1.000000,2.000000,0.000000,0.112968,1.000000,1.000000,0.695665,0.474601,0.583502,2.000000
42,0.055149,0.000000,0.177105,1.000000,0.979757,0.017013,0.222001,1.000000,2.000000,0.000000,0.112968,1.000000,1.000000,0.695665,0.474601,0.583502,2.000000
43,0.055149,0.000000,0.177105,1.000000,0.979757,0.017013,0.222001,1.000000,2.000000,0.000000,0.112968,1.000000,1.000000,0.695665,0.474601,0.583502,2.000000
44,0.055149,0.000000,0.177105,1.000000,0.979757,0.017013,0.222001,1.000000,2.000000,0.000000,0.112968,1.000000,1.000000,0.695665,0.474601,0.583502,2.000000
45,0.055149,0.000000,0.177105,1.000000,0.979757,0.017013,0.222001,1.000000,2.000000,0.000000,0.112968,1.000000,1.000000,0.695665,0.474601,0.583502,2.000000
gen, fitness
0,0.032491,0.000000,1.000000,0.210000,0.800000,0.030000,0.030000,1.000000,0.000000,1.000000,0.000000,0.000000,0.600000,1.000000,1.000000,0.000000,0.000000
1,0.032491,0.000000,1.000000,0.210000,0.800000,0.030000,0.030000,1.000000,0.000000,1.000000,0.000000,0.000000,0.600000,1.000000,1.000000,0.000000,0.000000
2,0.014332,0.066877,0.991723,0.335360,0.817356,0.000000,0.000000,1.000000,2.000000,1.000000,0.045542,0.000000,0.756256,0.896590,0.899695,0.085099,1.000000
3,0.008543,0.015005,0.891893,0.194549,0.951888,0.144432,0.000000,1.000000,0.000000,1.000000,0.064720,0.199635,0.838192,1.000000,0.968059,0.000000,1.000000
4,0.006919,0.000000,0.979652,0.553053,0.912959,0.191762,0.292423,0.918419,0.000000,0.933184,0.000000,0.045223,0.886601,0.858117,0.945156,0.040159,2.000000
5,0.004232,0.023592,1.000000,0.332040,1.000000,0.330534,0.132726,1.000000,0.000000,0.778997,0.174075,0.236462,0.945105,0.976067,0.963215,0.285652,2.000000
6,0.003934,0.000000,1.000000,0.440948,0.993126,0.000000,0.045325,1.000000,1.000000,1.000000,0.135292,0.000000,0.979922,1.000000,0.827896,0.129117,2.000000
7,0.003487,0.064834,0.966912,0.706017,1.000000,0.088725,0.365183,1.000000,1.000000,1.000000,0.104817,0.138928,0.995890,0.780422,0.994836,0.274046,1.000000
8,0.003416,0.000031,0.722343,0.820247,0.973203,0.077024,0.401616,0.963452,1.000000,0.916316,0.299985,0.123557,1.000000,0.858666,1.000000,0.302200,2.000000
9,0.002744,0.000000,0.900774,0.666498,1.000000,0.187504,0.726359,1.000000,2.000000,0.725607,0.210087,0.228593,1.000000,0.716481,0.811321,0.075450,2.000000
10,0.002632,0.000000,1.000000,0.839588,1.000000,0.253746,0.426002,0.981752,1.000000,0.784166,0.454062,0.316519,1.000000,0.825645,1.000000,0.202437,2.000000
11,0.002632,0.000000,1.000000,0.839588,1.000000,0.253746,0.426002,0.981752,1.000000,0.784166,0.454062,0.316519,1.000000,0.825645,1.000000,0.202437,2.000000
12,0.002510,0.000000,0.660222,1.000000,1.000000,0.555293,0.839475,0.811088,2.000000,1.000000,0.266705,0.462438,1.000000,0.727215,0.892893,0.188181,2.000000
13,0.002510,0.000000,0.660222,1.000000,1.000000,0.555293,0.839475,0.811088,2.000000,1.000000,0.266705,0.462438,1.000000,0.727215,0.892893,0.188181,2.000000
14,0.002460,0.000000,0.910924,0.777435,1.000000,0.051311,0.399723,0.850956,2.000000,0.971807,0.000000,0.427628,1.000000,0.390979,0.985765,0.719335,2.000000
15,0.002460,0.000000,0.910924,0.777435,1.000000,0.051311,0.399723,0.850956,2.000000,0.971807,0.000000,0.427628,1.000000,0.390979,0.985765,0.719335,2.000000
16,0.002393,0.061287,0.528684,0.859180,1.000000,0.000000,0.809078,0.953107,2.000000,0.578458,0.272571,0.547274,1.000000,0.822430,0.465936,0.257207,1.000000
17,0.002393,0.061287,0.528684,0.859180,1.000000,0.000000,0.809078,0.953107,2.000000,0.578458,0.272571,0.547274,1.000000,0.822430,0.465936,0.257207,1.000000
18,0.002393,0.061287,0.528684,0.859180,1.000000,0.000000,0.809078,0.953107,2.000000,0.578458,0.272571,0.547274,1.000000,0.822430,0.465936,0.257207,1.000000
19,0.002185,0.049036,1.000000,0.782028,1.000000,0.331269,0.030469,0.976963,2.000000,0.669496,0.863101,0.596289,1.000000,0.756102,0.889695,0.081889,2.000000
20,0.002176,0.000000,0.455307,0.916756,1.000000,0.137431,0.847243,1.000000,1.000000,0.471704,0.515166,0.561678,1.000000,0.699308,0.490565,0.396682,2.000000
21,0.002176,0.000000,0.455307,0.916756,1.000000,0.137431,0.847243,1.000000,1.000000,0.471704,0.515166,0.561678,1.000000,0.699308,0.490565,0.396682,2.000000
22,0.002176,0.000000,0.455307,0.916756,1.000000,0.137431,0.847243,1.000000,1.000000,0.471704,0.515166,0.561678,1.000000,0.699308,0.490565,0.396682,2.000000
23,0.002078,0.009813,1.000000,0.529350,0.983050,0.000000,0.467238,0.982014,2.000000,0.000000,0.000000,0.746070,0.984021,0.655473,0.954073,0.272222,2.000000
24,0.002078,0.009813,1.000000,0.529350,0.983050,0.000000,0.467238,0.982014,2.000000,0.000000,0.000000,0.746070,0.984021,0.655473,0.954073,0.272222,2.000000
25,0.002010,0.000000,1.000000,0.828349,1.000000,0.457676,0.355796,0.878144,2.000000,0.494531,0.715814,0.855653,1.000000,0.725637,0.673279,0.000000,2.000000
26,0.002010,0.000000,1.000000,0.828349,1.000000,0.457676,0.355796,0.878144,2.000000,0.494531,0.715814,0.855653,1.000000,0.725637,0.673279,0.000000,2.000000
27,0.001979,0.000000,1.000000,1.000000,1.000000,0.485267,0.081795,1.000000,0.000000,0.382552,0.580564,0.882373,1.000000,0.932377,0.632895,0.030805,2.000000
28,0.001856,0.000000,0.867965,0.969161,1.000000,0.021683,0.738875,0.974890,1.000000,0.535430,0.006634,0.929582,1.000000,1.000000,0.934328,0.453160,2.000000
29,0.001856,0.000000,0.867965,0.969161,1.000000,0.021683,0.738875,0.974890,1.000000,0.535430,0.006634,0.929582,1.000000,1.000000,0.934328,0.453160,2.000000
30,0.001856,0.000000,0.867965,0.969161,1.000000,0.021683,0.738875,0.974890,1.000000,0.535430,0.006634,0.929582,1.000000,1.000000,0.934328,0.453160,2.000000
31,0.001856,0.000000,0.867965,0.969161,1.000000,0.021683,0.738875,0.974890,1.000000,0.535430,0.006634,0.929582,1.000000,1.000000,0.934328,0.453160,2.000000
32,0.001856,0.000000,0.867965,0.969161,1.000000,0.021683,0.738875,0.974890,1.000000,0.535430,0.006634,0.929582,1.000000,1.000000,0.934328,0.453160,2.000000
33,0.001856,0.000000,0.867965,0.969161,1.000000,0.021683,0.738875,0.974890,1.000000,0.535430,0.006634,0.929582,1.000000,1.000000,0.934328,0.453160,2.000000
34,0.001856,0.000000,0.867965,0.969161,1.000000,0.021683,0.738875,0.974890,1.000000,0.535430,0.006634,0.929582,1.000000,1.000000,0.934328,0.453160,2.000000
35,0.001814,0.000000,1.000000,0.996281,1.000000,0.208440,0.648771,1.000000,1.000000,0.422129,0.138426,1.000000,1.000000,1.000000,0.987266,0.606700,2.000000
36,0.001814,0.000000,1.000000,0.996281,1.000000,0.208440,0.648771,1.000000,1.000000,0.422129,0.138426,1.000000,1.000000,1.000000,0.987266,0.606700,2.000000
37,0.001814,0.000000,1.000000,0.996281,1.000000,0.208440,0.648771,1.000000,1.000000,0.422129,0.138426,1.000000,1.000000,1.000000,0.987266,0.606700,2.000000
38,0.001758,0.134559,0.844403,1.000000,1.000000,0.000000,0.308527,1.000000,2.000000,0.652286,0.000000,0.997479,1.000000,0.950833,0.832937,0.210829,2.000000
39,0.001758,0.134559,0.844403,1.000000,1.000000,0.000000,0.308527,1.000000,2.000000,0.652286,0.000000,0.997479,1.000000,0.950833,0.832937,0.210829,2.000000
40,0.001758,0.134559,0.844403,1.000000,1.000000,0.000000,0.308527,1.000000,2.000000,0.652286,0.000000,0.997479,1.000000,0.950833,0.832937,0.210829,2.000000
41,0.001758,0.134559,0.844403,1.000000,1.000000,0.000000,0.308527,1.000000,2.000000,0.652286,0.000000,0.997479,1.000000,0.950833,0.832937,0.210829,2.000000
42,0.001758,0.134559,0.844403,1.000000,1.000000,0.000000,0.308527,1.000000,2.000000,0.652286,0.000000,0.997479,1.000000,0.950833,0.832937,0.210829,2.000000
43,0.001758,0.134559,0.844403,1.000000,1.000000,0.000000,0.308527,1.000000,2.000000,0.652286,0.000000,0.997479,1.000000,0.950833,0.832937,0.210829,2.000000
44,0.001758,0.134559,0.844403,1.000000,1.000000,0.000000,0.308527,1.000000,2.000000,0.652286,0.000000,0.997479,1.000000,0.950833,0.832937,0.210829,2.000000
45,0.001755,0.000000,0.953519,0.937925,1.000000,0.058167,0.696901,0.945565,1.000000,0.300549,0.000000,1.000000,1.000000,1.000000,0.829204,0.663921,2.000000
46,0.001755,0.000000,0.953519,0.937925,1.000000,0.058167,0.696901,0.945565,1.000000,0.300549,0.000000,1.000000,1.000000,1.000000,0.829204,0.663921,2.000000
47,0.001755,0.000000,0.953519,0.937925,1.000000,0.058167,0.696901,0.945565,1.000000,0.300549,0.000000,1.000000,1.000000,1.000000,0.829204,0.663921,2.000000
48,0.001755,0.000000,0.953519,0.937925,1.000000,0.058167,0.696901,0.945565,1.000000,0.300549,0.000000,1.000000,1.000000,1.000000,0.829204,0.663921,2.000000
gen, fitness
0,0.074963,0.000000,1.000000,0.210000,0.800000,0.030000,0.030000,1.000000,0.000000,1.000000,0.000000,0.000000,0.600000,1.000000,1.000000,0.000000,0.000000
1,0.074963,0.000000,1.000000,0.210000,0.800000,0.030000,0.030000,1.000000,0.000000,1.000000,0.000000,0.000000,0.600000,1.000000,1.000000,0.000000,0.000000
2,0.046097,0.000000,0.891125,0.184787,0.875930,0.004092,0.000000,0.933671,2.000000,1.000000,0.031462,0.016487,0.748278,0.932494,0.951539,0.000000,2.000000
3,0.043785,0.000000,1.000000,0.185402,0.894465,0.336797,0.112347,0.946115,0.000000,0.851566,0.070823,0.117167,0.765585,1.000000,0.850301,0.137461,0.000000
4,0.027130,0.000000,0.980960,0.172729,1.000000,0.137195,0.254406,0.891640,1.000000,1.000000,0.000000,0.000000,1.000000,1.000000,0.926583,0.000000,1.000000
5,0.022925,0.000000,0.786810,0.179660,1.000000,0.022128,0.262690,0.983985,2.000000,0.917650,0.021085,0.000000,1.000000,1.000000,1.000000,0.000000,2.000000
6,0.019461,0.000000,0.901638,0.456531,1.000000,0.112728,0.000000,0.920181,2.000000,1.000000,0.015228,0.104109,1.000000,1.000000,1.000000,0.017505,2.000000
7,0.018765,0.000000,0.922133,0.535268,1.000000,0.139009,0.000000,0.983909,1.000000,0.861506,0.026587,0.154440,1.000000,1.000000,0.961361,0.223347,1.000000
8,0.017928,0.000000,0.928531,0.568341,1.000000,0.252901,0.000000,0.961142,2.000000,0.985122,0.097666,0.179573,1.000000,0.900248,1.000000,0.184953,2.000000
9,0.017928,0.000000,0.928531,0.568341,1.000000,0.252901,0.000000,0.961142,2.000000,0.985122,0.097666,0.179573,1.000000,0.900248,1.000000,0.184953,2.000000
10,0.016955,0.000000,1.000000,0.742079,1.000000,0.168276,0.000000,0.969784,1.000000,0.876951,0.060385,0.334790,1.000000,0.624188,0.970131,0.000000,1.000000
11,0.016732,0.000000,0.574773,0.754209,1.000000,0.000000,0.000000,0.968904,1.000000,0.880426,0.054650,0.703843,1.000000,0.953196,0.932766,0.025355,2.000000
12,0.016449,0.144943,0.590026,0.712802,1.000000,0.061400,0.000000,0.816392,2.000000,0.891076,0.153537,0.479737,1.000000,0.953442,1.000000,0.173738,1.000000
13,0.015010,0.066105,0.584189,0.763703,1.000000,0.168771,0.000000,0.971346,1.000000,0.663712,0.000000,0.601960,1.000000,0.919866,1.000000,0.232868,2.000000
14,0.014947,0.167602,0.570899,0.965881,1.000000,0.121954,0.000000,1.000000,1.000000,0.967275,0.000000,0.984194,1.000000,0.967677,0.799720,0.000000,2.000000
15,0.014056,0.459677,0.712240,0.956373,1.000000,0.091227,0.000000,0.904777,2.000000,0.761504,0.095865,0.821163,0.997777,0.943320,0.800940,0.000000,2.000000
16,0.013324,0.000000,0.625505,0.993312,1.000000,0.127202,0.164317,0.967407,2.000000,0.690111,0.000000,0.751259,1.000000,0.889073,1.000000,0.000000,1.000000
17,0.013277,0.370827,0.796002,1.000000,0.974717,0.126826,0.008756,0.928829,2.000000,0.628311,0.000000,0.791233,1.000000,1.000000,0.802227,0.029561,1.000000
18,0.013262,0.000000,0.675408,1.000000,1.000000,0.371266,0.000000,1.000000,2.000000,0.768846,0.011517,0.929977,1.000000,0.768756,0.710004,0.336724,0.000000
19,0.013035,0.000000,0.443632,0.965392,1.000000,0.244399,0.139906,1.000000,2.000000,0.581708,0.000000,0.792283,1.000000,0.812059,0.893325,0.000000,1.000000
20,0.012364,0.550793,0.721029,1.000000,0.953762,0.000000,0.102627,0.853959,2.000000,0.268165,0.116279,1.000000,1.000000,0.978309,0.738882,0.038090,1.000000
21,0.012364,0.550793,0.721029,1.000000,0.953762,0.000000,0.102627,0.853959,2.000000,0.268165,0.116279,1.000000,1.000000,0.978309,0.738882,0.038090,1.000000
22,0.012364,0.550793,0.721029,1.000000,0.953762,0.000000,0.102627,0.853959,2.000000,0.268165,0.116279,1.000000,1.000000,0.978309,0.738882,0.038090,1.000000
23,0.012364,0.550793,0.721029,1.000000,0.953762,0.000000,0.102627,0.853959,2.000000,0.268165,0.116279,1.000000,1.000000,0.978309,0.738882,0.038090,1.000000
24,0.012171,0.081524,0.307059,1.000000,1.000000,0.156586,0.216903,1.000000,2.000000,0.396598,0.219686,1.000000,1.000000,0.840730,0.738692,0.000000,2.000000
25,0.011778,0.166949,0.008556,1.000000,0.967966,0.024154,0.029013,0.940852,1.000000,0.044433,0.124822,0.974768,1.000000,0.932642,0.979887,0.288894,2.000000
26,0.011778,0.166949,0.008556,1.000000,0.967966,0.024154,0.029013,0.940852,1.000000,0.044433,0.124822,0.974768,1.000000,0.932642,0.979887,0.288894,2.000000
27,0.011778,0.166949,0.008556,1.000000,0.967966,0.024154,0.029013,0.940852,1.000000,0.044433,0.124822,0.974768,1.000000,0.932642,0.979887,0.288894,2.000000
28,0.011251,0.316104,0.047687,0.981973,0.972639,0.135617,0.088611,1.000000,2.000000,0.000000,0.000000,1.000000,1.000000,0.923087,1.000000,0.000000,2.000000
29,0.011251,0.316104,0.047687,0.981973,0.972639,0.135617,0.088611,1.000000,2.000000,0.000000,0.000000,1.000000,1.000000,0.923087,1.000000,0.000000,2.000000
30,0.011251,0.316104,0.047687,0.981973,0.972639,0.135617,0.088611,1.000000,2.000000,0.000000,0.000000,1.000000,1.000000,0.923087,1.000000,0.000000,2.000000
31,0.011251,0.316104,0.047687,0.981973,0.972639,0.135617,0.088611,1.000000,2.000000,0.000000,0.000000,1.000000,1.000000,0.923087,1.000000,0.000000,2.000000
32,0.011251,0.316104,0.047687,0.981973,0.972639,0.135617,0.088611,1.000000,2.000000,0.000000,0.000000,1.000000,1.000000,0.923087,1.000000,0.000000,2.000000
33,0.011251,0.316104,0.047687,0.981973,0.972639,0.135617,0.088611,1.000000,2.000000,0.000000,0.000000,1.000000,1.000000,0.923087,1.000000,0.000000,2.000000
34,0.011251,0.316104,0.047687,0.981973,0.972639,0.135617,0.088611,1.000000,2.000000,0.000000,0.000000,1.000000,1.000000,0.923087,1.000000,0.000000,2.000000
35,0.011251,0.316104,0.047687,0.981973,0.972639,0.135617,0.088611,1.000000,2.000000,0.000000,0.000000,1.000000,1.000000,0.923087,1.000000,0.000000,2.000000
36,0.011251,0.316104,0.047687,0.981973,0.972639,0.135617,0.088611,1.000000,2.000000,0.000000,0.000000,1.000000,1.000000,0.923087,1.000000,0.000000,2.000000
37,0.011170,0.194198,0.378469,1.000000,0.966674,0.102970,0.318560,1.000000,2.000000,0.055479,0.151762,1.000000,1.000000,0.987413,0.437439,0.090469,0.000000
38,0.011170,0.194198,0.378469,1.000000,0.966674,0.102970,0.318560,1.000000,2.000000,0.055479,0.151762,1.000000,1.000000,0.987413,0.437439,0.090469,0.000000
39,0.011170,0.194198,0.378469,1.000000,0.966674,0.102970,0.318560,1.000000,2.000000,0.055479,0.151762,1.000000,1.000000,0.987413,0.437439,0.090469,0.000000
40,0.011170,0.194198,0.378469,1.000000,0.966674,0.102970,0.318560,1.000000,2.000000,0.055479,0.151762,1.000000,1.000000,0.987413,0.437439,0.090469,0.000000
41,0.011170,0.194198,0.378469,1.000000,0.966674,0.102970,0.318560,1.000000,2.000000,0.055479,0.151762,1.000000,1.000000,0.987413,0.437439,0.090469,0.000000
42,0.011170,0.194198,0.378469,1.000000,0.966674,0.102970,0.318560,1.000000,2.000000,0.055479,0.151762,1.000000,1.000000,0.987413,0.437439,0.090469,0.000000
43,0.011170,0.194198,0.378469,1.000000,0.966674,0.102970,0.318560,1.000000,2.000000,0.055479,0.151762,1.000000,1.000000,0.987413,0.437439,0.090469,0.000000
44,0.011170,0.194198,0.378469,1.000000,0.966674,0.102970,0.318560,1.000000,2.000000,0.055479,0.151762,1.000000,1.000000,0.987413,0.437439,0.090469,0.000000
45,0.011170,0.194198,0.378469,1.000000,0.966674,0.102970,0.318560,1.000000,2.000000,0.055479,0.151762,1.000000,1.000000,0.987413,0.437439,0.090469,0.000000
46,0.011170,0.194198,0.378469,1.000000,0.966674,0.102970,0.318560,1.000000,2.000000,0.055479,0.151762,1.000000,1.000000,0.987413,0.437439,0.090469,0.000000
47,0.011170,0.194198,0.378469,1.000000,0.966674,0.102970,0.318560,1.000000,2.000000,0.055479,0.151762,1.000000,1.000000,0.987413,0.437439,0.090469,0.000000
gen, fitness
0,0.169504,0.000000,1.000000,0.210000,0.800000,0.030000,0.030000,1.000000,0.000000,1.000000,0.000000,0.000000,0.600000,1.000000,1.000000,0.000000,0.000000
1,0.169504,0.000000,1.000000,0.210000,0.800000,0.030000,0.030000,1.000000,0.000000,1.000000,0.000000,0.000000,0.600000,1.000000,1.000000,0.000000,0.000000
2,0.109814,0.000000,0.968705,0.207389,0.842707,0.009677,0.150863,1.000000,1.000000,0.833583,0.000000,0.022442,0.829104,1.000000,1.000000,0.049529,2.000000
3,0.101271,0.215829,0.933384,0.148686,0.926639,0.106093,0.085581,0.959520,1.000000,0.972269,0.000000,0.000000,0.947344,1.000000,0.979650,0.000000,0.000000
4,0.087952,0.000000,1.000000,0.152545,0.936776,0.139554,0.000000,0.902780,0.000000,1.000000,0.009348,0.179468,0.968165,0.811581,1.000000,0.227974,2.000000
5,0.075996,0.071429,0.995159,0.000000,1.000000,0.000000,0.110593,0.956703,1.000000,0.859292,0.009443,0.047797,1.000000,0.985599,0.881588,0.007286,2.000000
6,0.070506,0.094356,0.937318,0.000000,1.000000,0.449888,0.044947,0.904348,0.000000,0.994067,0.257556,0.335392,1.000000,1.000000,1.000000,0.142343,2.000000
7,0.070506,0.094356,0.937318,0.000000,1.000000,0.449888,0.044947,0.904348,0.000000,0.994067,0.257556,0.335392,1.000000,1.000000,1.000000,0.142343,2.000000
8,0.070205,0.000000,0.570381,0.000000,1.000000,0.253425,0.027454,0.844925,1.000000,0.956050,0.000220,0.255540,1.000000,1.000000,0.955183,0.000000,2.000000
9,0.067834,0.000000,0.916579,0.000000,1.000000,0.336341,0.071811,0.835351,1.000000,0.977036,0.399852,0.407802,1.000000,0.815905,0.982658,0.169016,2.000000
10,0.066123,0.054518,0.947502,0.017855,1.000000,0.513314,0.077924,0.714831,1.000000,0.967481,0.005228,0.485185,0.956074,0.982324,0.735278,0.626627,2.000000
11,0.066123,0.054518,0.947502,0.017855,1.000000,0.513314,0.077924,0.714831,1.000000,0.967481,0.005228,0.485185,0.956074,0.982324,0.735278,0.626627,2.000000
12,0.066123,0.054518,0.947502,0.017855,1.000000,0.513314,0.077924,0.714831,1.000000,0.967481,0.005228,0.485185,0.956074,0.982324,0.735278,0.626627,2.000000
13,0.064345,0.221353,0.820992,0.000000,1.000000,0.256854,0.302922,0.619673,0.000000,1.000000,0.232916,0.707838,1.000000,0.898005,1.000000,0.747647,2.000000
14,0.063289,0.203089,0.973748,0.000000,1.000000,0.465947,0.310562,0.600767,2.000000,0.981676,0.284511,0.879648,1.000000,0.820640,1.000000,0.696889,1.000000
15,0.062996,0.329844,0.867597,0.015646,1.000000,0.403921,0.466398,0.691867,1.000000,0.914858,0.487246,0.883418,1.000000,1.000000,0.823700,0.897748,2.000000
16,0.062996,0.329844,0.867597,0.015646,1.000000,0.403921,0.466398,0.691867,1.000000,0.914858,0.487246,0.883418,1.000000,1.000000,0.823700,0.897748,2.000000
17,0.060358,0.298173,0.923210,0.018398,1.000000,0.314180,0.233144,0.865451,2.000000,0.946485,0.559455,1.000000,1.000000,1.000000,0.770206,0.979500,2.000000
18,0.060238,0.000000,0.934229,0.000000,1.000000,0.399607,0.466944,0.794139,1.000000,1.000000,0.659866,0.965669,0.951665,0.915826,0.818665,0.994741,2.000000
19,0.060238,0.000000,0.934229,0.000000,1.000000,0.399607,0.466944,0.794139,1.000000,1.000000,0.659866,0.965669,0.951665,0.915826,0.818665,0.994741,2.000000
20,0.060238,0.000000,0.934229,0.000000,1.000000,0.399607,0.466944,0.794139,1.000000,1.000000,0.659866,0.965669,0.951665,0.915826,0.818665,0.994741,2.000000
21,0.059849,0.000000,1.000000,0.000000,1.000000,0.327438,0.586560,0.788538,2.000000,0.947318,0.330540,0.955262,0.953941,0.852911,0.737144,0.986514,2.000000
22,0.059849,0.000000,1.000000,0.000000,1.000000,0.327438,0.586560,0.788538,2.000000,0.947318,0.330540,0.955262,0.953941,0.852911,0.737144,0.986514,2.000000
23,0.059849,0.000000,1.000000,0.000000,1.000000,0.327438,0.586560,0.788538,2.000000,0.947318,0.330540,0.955262,0.953941,0.852911,0.737144,0.986514,2.000000
24,0.059849,0.000000,1.000000,0.000000,1.000000,0.327438,0.586560,0.788538,2.000000,0.947318,0.330540,0.955262,0.953941,0.852911,0.737144,0.986514,2.000000
25,0.059849,0.000000,1.000000,0.000000,1.000000,0.327438,0.586560,0.788538,2.000000,0.947318,0.330540,0.955262,0.953941,0.852911,0.737144,0.986514,2.000000
26,0.059849,0.000000,1.000000,0.000000,1.000000,0.327438,0.586560,0.788538,2.000000,0.947318,0.330540,0.955262,0.953941,0.852911,0.737144,0.986514,2.000000
27,0.059849,0.000000,1.000000,0.000000,1.000000,0.327438,0.586560,0.788538,2.000000,0.947318,0.330540,0.955262,0.953941,0.852911,0.737144,0.986514,2.000000
28,0.059849,0.000000,1.000000,0.000000,1.000000,0.327438,0.586560,0.788538,2.000000,0.947318,0.330540,0.955262,0.953941,0.852911,0.737144,0.986514,2.000000
29,0.059849,0.000000,1.000000,0.000000,1.000000,0.327438,0.586560,0.788538,2.000000,0.947318,0.330540,0.955262,0.953941,0.852911,0.737144,0.986514,2.000000
30,0.059849,0.000000,1.000000,0.000000,1.000000,0.327438,0.586560,0.788538,2.000000,0.947318,0.330540,0.955262,0.953941,0.852911,0.737144,0.986514,2.000000
31,0.059849,0.000000,1.000000,0.000000,1.000000,0.327438,0.586560,0.788538,2.000000,0.947318,0.330540,0.955262,0.953941,0.852911,0.737144,0.986514,2.000000
gen, fitness
0,0.081164,0.000000,1.000000,0.210000,0.800000,0.030000,0.030000,1.000000,0.000000,1.000000,0.000000,0.000000,0.600000,1.000000,1.000000,0.000000,0.000000
1,0.081164,0.000000,1.000000,0.210000,0.800000,0.030000,0.030000,1.000000,0.000000,1.000000,0.000000,0.000000,0.600000,1.000000,1.000000,0.000000,0.000000
2,0.038429,0.000000,0.943222,0.223206,0.873989,0.099568,0.103313,0.987690,2.000000,0.922872,0.000000,0.067663,0.805461,1.000000,0.952549,0.100723,2.000000
3,0.025183,0.123173,0.912176,0.561981,1.000000,0.032295,0.000000,0.719090,2.000000,0.932832,0.066784,0.131710,0.996937,0.922707,1.000000,0.055660,1.000000
4,0.023205,0.035286,0.997379,0.751285,1.000000,0.000000,0.000000,0.666898,0.000000,0.807823,0.134155,0.227044,1.000000,1.000000,1.000000,0.077008,2.000000
5,0.021910,0.000000,1.000000,0.124635,1.000000,0.067349,0.242837,0.795249,2.000000,1.000000,0.015575,0.224555,1.000000,0.926603,0.811560,0.000000,2.000000
6,0.020970,0.148049,0.831865,0.696603,1.000000,0.031821,0.000000,0.997876,1.000000,0.913958,0.000000,0.376756,1.000000,1.000000,0.689738,0.044718,2.000000
7,0.020759,0.317961,0.634468,0.604229,1.000000,0.121476,0.006100,1.000000,1.000000,0.869008,0.213008,0.516358,1.000000,0.887842,0.979126,0.063148,2.000000
8,0.019400,0.093649,0.611887,0.471312,1.000000,0.028328,0.042969,0.919625,2.000000,0.812054,0.240222,0.656052,1.000000,0.922247,0.858762,0.042449,1.000000
9,0.018988,0.120002,0.935990,0.473604,1.000000,0.043528,0.000000,0.838147,2.000000,0.980853,0.218185,0.467194,1.000000,0.911911,0.768732,0.319436,2.000000
10,0.018954,0.000000,0.988040,0.558869,1.000000,0.000000,0.211934,0.689871,1.000000,0.724297,0.000000,0.568560,1.000000,1.000000,0.938230,0.258970,2.000000
11,0.018954,0.000000,0.988040,0.558869,1.000000,0.000000,0.211934,0.689871,1.000000,0.724297,0.000000,0.568560,1.000000,1.000000,0.938230,0.258970,2.000000
12,0.018718,0.000000,0.754802,0.544684,0.999958,0.299676,0.073668,0.783824,2.000000,0.739408,0.459283,0.625819,1.000000,0.420676,0.663876,0.194215,2.000000
13,0.018718,0.000000,0.754802,0.544684,0.999958,0.299676,0.073668,0.783824,2.000000,0.739408,0.459283,0.625819,1.000000,0.420676,0.663876,0.194215,2.000000
14,0.018718,0.000000,0.754802,0.544684,0.999958,0.299676,0.073668,0.783824,2.000000,0.739408,0.459283,0.625819,1.000000,0.420676,0.663876,0.194215,2.000000
15,0.017836,0.171264,0.830421,0.597123,1.000000,0.014011,0.463343,0.683874,2.000000,0.844078,0.291089,0.961543,1.000000,1.000000,0.990887,0.000000,2.000000
16,0.017482,0.000000,1.000000,0.725388,1.000000,0.043225,0.108533,0.789743,2.000000,0.956519,0.126164,0.818424,1.000000,1.000000,0.798992,0.359280,2.000000
17,0.017482,0.000000,1.000000,0.725388,1.000000,0.043225,0.108533,0.789743,2.000000,0.956519,0.126164,0.818424,1.000000,1.000000,0.798992,0.359280,2.000000
18,0.017482,0.000000,1.000000,0.725388,1.000000,0.043225,0.108533,0.789743,2.000000,0.956519,0.126164,0.818424,1.000000,1.000000,0.798992,0.359280,2.000000
19,0.017482,0.000000,1.000000,0.725388,1.000000,0.043225,0.108533,0.789743,2.000000,0.956519,0.126164,0.818424,1.000000,1.000000,0.798992,0.359280,2.000000
20,0.017482,0.000000,1.000000,0.725388,1.000000,0.043225,0.108533,0.789743,2.000000,0.956519,0.126164,0.818424,1.000000,1.000000,0.798992,0.359280,2.000000
21,0.017482,0.000000,1.000000,0.725388,1.000000,0.043225,0.108533,0.789743,2.000000,0.956519,0.126164,0.818424,1.000000,1.000000,0.798992,0.359280,2.000000
22,0.017482,0.000000,1.000000,0.725388,1.000000,0.043225,0.108533,0.789743,2.000000,0.956519,0.126164,0.818424,1.000000,1.000000,0.798992,0.359280,2.000000
23,0.017482,0.000000,1.000000,0.725388,1.000000,0.043225,0.108533,0.789743,2.000000,0.956519,0.126164,0.818424,1.000000,1.000000,0.798992,0.359280,2.000000
24,0.017482,0.000000,1.000000,0.725388,1.000000,0.043225,0.108533,0.789743,2.000000,0.956519,0.126164,0.818424,1.000000,1.000000,0.798992,0.359280,2.000000
25,0.017482,0.000000,1.000000,0.725388,1.000000,0.043225,0.108533,0.789743,2.000000,0.956519,0.126164,0.818424,1.000000,1.000000,0.798992,0.359280,2.000000
26,0.017269,0.006162,0.787592,0.824641,1.000000,0.184917,0.000000,0.943400,2.000000,0.933745,0.000000,1.000000,1.000000,0.972952,0.487589,0.195691,2.000000
27,0.017269,0.006162,0.787592,0.824641,1.000000,0.184917,0.000000,0.943400,2.000000,0.933745,0.000000,1.000000,1.000000,0.972952,0.487589,0.195691,2.000000
28,0.017269,0.006162,0.787592,0.824641,1.000000,0.184917,0.000000,0.943400,2.000000,0.933745,0.000000,1.000000,1.000000,0.972952,0.487589,0.195691,2.000000
29,0.017269,0.006162,0.787592,0.824641,1.000000,0.184917,0.000000,0.943400,2.000000,0.933745,0.000000,1.000000,1.000000,0.972952,0.487589,0.195691,2.000000
30,0.017269,0.006162,0.787592,0.824641,1.000000,0.184917,0.000000,0.943400,2.000000,0.933745,0.000000,1.000000,1.000000,0.972952,0.487589,0.195691,2.000000
31,0.017269,0.006162,0.787592,0.824641,1.000000,0.184917,0.000000,0.943400,2.000000,0.933745,0.000000,1.000000,1.000000,0.972952,0.487589,0.195691,2.000000
32,0.017269,0.006162,0.787592,0.824641,1.000000,0.184917,0.000000,0.943400,2.000000,0.933745,0.000000,1.000000,1.000000,0.972952,0.487589,0.195691,2.000000
33,0.017062,0.101321,0.894338,0.749269,1.000000,0.018227,0.000000,0.847261,2.000000,0.836936,0.042280,1.000000,1.000000,0.263065,0.752508,0.813875,2.000000
34,0.017062,0.101321,0.894338,0.749269,1.000000,0.018227,0.000000,0.847261,2.000000,0.836936,0.042280,1.000000,1.000000,0.263065,0.752508,0.813875,2.000000
35,0.017062,0.101321,0.894338,0.749269,1.000000,0.018227,0.000000,0.847261,2.000000,0.836936,0.042280,1.000000,1.000000,0.263065,0.752508,0.813875,2.000000
36,0.017002,0.000000,1.000000,0.755166,1.000000,0.040188,0.000000,1.000000,2.000000,0.770385,0.102631,1.000000,1.000000,0.699082,0.939475,0.283216,2.000000
37,0.017002,0.000000,1.000000,0.755166,1.000000,0.040188,0.000000,1.000000,2.000000,0.770385,0.102631,1.000000,1.000000,0.699082,0.939475,0.283216,2.000000
38,0.017002,0.000000,1.000000,0.755166,1.000000,0.040188,0.000000,1.000000,2.000000,0.770385,0.102631,1.000000,1.000000,0.699082,0.939475,0.283216,2.000000
39,0.017002,0.000000,1.000000,0.755166,1.000000,0.040188,0.000000,1.000000,2.000000,0.770385,0.102631,1.000000,1.000000,0.699082,0.939475,0.283216,2.000000
40,0.017002,0.000000,1.000000,0.755166,1.000000,0.040188,0.000000,1.000000,2.000000,0.770385,0.102631,1.000000,1.000000,0.699082,0.939475,0.283216,2.000000
41,0.017002,0.000000,1.000000,0.755166,1.000000,0.040188,0.000000,1.000000,2.000000,0.770385,0.102631,1.000000,1.000000,0.699082,0.939475,0.283216,2.000000
42,0.017002,0.000000,1.000000,0.755166,1.000000,0.040188,0.000000,1.000000,2.000000,0.770385,0.102631,1.000000,1.000000,0.699082,0.939475,0.283216,2.000000
43,0.017002,0.000000,1.000000,0.755166,1.000000,0.040188,0.000000,1.000000,2.000000,0.770385,0.102631,1.000000,1.000000,0.699082,0.939475,0.283216,2.000000
44,0.017002,0.000000,1.000000,0.755166,1.000000,0.040188,0.000000,1.000000,2.000000,0.770385,0.102631,1.000000,1.000000,0.699082,0.939475,0.283216,2.000000
45,0.017002,0.000000,1.000000,0.755166,1.000000,0.040188,0.000000,1.000000,2.000000,0.770385,0.102631,1.000000,1.000000,0.699082,0.939475,0.283216,2.000000
46,0.017002,0.000000,1.000000,0.755166,1.000000,0.040188,0.000000,1.000000,2.000000,0.770385,0.102631,1.000000,1.000000,0.699082,0.939475,0.283216,2.000000
gen, fitness
0,0.045024,0.000000,1.000000,0.210000,0.800000,0.030000,0.030000,1.000000,0.000000,1.000000,0.000000,0.000000,0.600000,1.000000,1.000000,0.000000,0.000000
1,0.045024,0.000000,1.000000,0.210000,0.800000,0.030000,0.030000,1.000000,0.000000,1.000000,0.000000,0.000000,0.600000,1.000000,1.000000,0.000000,0.000000
2,0.020236,0.000000,0.834692,0.314260,0.790957,0.000000,0.008542,0.937256,2.000000,0.901622,0.070431,0.000000,0.750101,1.000000,0.989231,0.053859,1.000000
3,0.013320,0.000000,0.806006,0.488430,0.870087,0.000000,0.179415,1.000000,1.000000,0.798542,0.227288,0.074233,0.912517,0.980411,0.984778,0.000000,1.000000
4,0.009385,0.197308,1.000000,0.239546,1.000000,0.000000,0.011151,0.777166,2.000000,0.877211,0.078794,0.123941,0.959938,1.000000,0.947377,0.058683,0.000000
5,0.006407,0.032533,0.725563,0.344893,1.000000,0.255349,0.389759,1.000000,0.000000,0.744589,0.271498,0.196251,1.000000,0.991547,1.000000,0.000000,2.000000
6,0.005852,0.116999,0.682406,0.263305,1.000000,0.271359,0.324065,0.927916,2.000000,0.660946,0.150451,0.079672,1.000000,1.000000,1.000000,0.055120,1.000000
7,0.005271,0.000000,0.633230,0.435801,1.000000,0.300385,0.566320,1.000000,2.000000,0.637670,0.329018,0.148668,1.000000,1.000000,0.968387,0.063620,1.000000
8,0.005157,0.000000,0.752910,0.434167,1.000000,0.328584,0.425734,0.983798,2.000000,0.718846,0.000000,0.196243,1.000000,1.000000,1.000000,0.284368,0.000000
9,0.004656,0.028966,0.927707,0.541336,1.000000,0.039817,0.118449,0.914126,1.000000,0.756529,0.000000,0.205648,1.000000,0.680878,0.645533,0.000000,2.000000
10,0.004656,0.028966,0.927707,0.541336,1.000000,0.039817,0.118449,0.914126,1.000000,0.756529,0.000000,0.205648,1.000000,0.680878,0.645533,0.000000,2.000000
11,0.004591,0.127165,0.593746,0.581665,1.000000,0.093164,0.148539,1.000000,1.000000,0.834441,0.000000,0.398719,1.000000,0.322629,1.000000,0.072054,2.000000
12,0.004309,0.067833,1.000000,0.543664,1.000000,0.080317,0.274637,0.969141,2.000000,0.827067,0.255883,0.300212,1.000000,0.624262,0.781715,0.176636,2.000000
13,0.004309,0.067833,1.000000,0.543664,1.000000,0.080317,0.274637,0.969141,2.000000,0.827067,0.255883,0.300212,1.000000,0.624262,0.781715,0.176636,2.000000
14,0.004309,0.067833,1.000000,0.543664,1.000000,0.080317,0.274637,0.969141,2.000000,0.827067,0.255883,0.300212,1.000000,0.624262,0.781715,0.176636,2.000000
15,0.004309,0.067833,1.000000,0.543664,1.000000,0.080317,0.274637,0.969141,2.000000,0.827067,0.255883,0.300212,1.000000,0.624262,0.781715,0.176636,2.000000
16,0.004200,0.000000,0.825635,0.660948,1.000000,0.054051,0.043253,0.894090,2.000000,0.738467,0.310397,0.350731,1.000000,0.919709,1.000000,0.183282,2.000000
17,0.004200,0.000000,0.825635,0.660948,1.000000,0.054051,0.043253,0.894090,2.000000,0.738467,0.310397,0.350731,1.000000,0.919709,1.000000,0.183282,2.000000
18,0.004146,0.068239,0.836783,0.370416,1.000000,0.000000,0.000000,0.952440,2.000000,0.570972,0.316456,0.462611,1.000000,0.692576,1.000000,0.432272,2.000000
19,0.003429,0.064900,1.000000,0.565309,1.000000,0.000619,0.155584,1.000000,2.000000,0.442872,0.396863,0.640887,1.000000,0.727000,0.677713,0.425746,2.000000
20,0.003429,0.064900,1.000000,0.565309,1.000000,0.000619,0.155584,1.000000,2.000000,0.442872,0.396863,0.640887,1.000000,0.727000,0.677713,0.425746,2.000000
21,0.003429,0.064900,1.000000,0.565309,1.000000,0.000619,0.155584,1.000000,2.000000,0.442872,0.396863,0.640887,1.000000,0.727000,0.677713,0.425746,2.000000
22,0.003429,0.064900,1.000000,0.565309,1.000000,0.000619,0.155584,1.000000,2.000000,0.442872,0.396863,0.640887,1.000000,0.727000,0.677713,0.425746,2.000000
23,0.003429,0.064900,1.000000,0.565309,1.000000,0.000619,0.155584,1.000000,2.000000,0.442872,0.396863,0.640887,1.000000,0.727000,0.677713,0.425746,2.000000
24,0.003429,0.064900,1.000000,0.565309,1.000000,0.000619,0.155584,1.000000,2.000000,0.442872,0.396863,0.640887,1.000000,0.727000,0.677713,0.425746,2.000000
25,0.003429,0.064900,1.000000,0.565309,1.000000,0.000619,0.155584,1.000000,2.000000,0.442872,0.396863,0.640887,1.000000,0.727000,0.677713,0.425746,2.000000
26,0.003429,0.064900,1.000000,0.565309,1.000000,0.000619,0.155584,1.000000,2.000000,0.442872,0.396863,0.640887,1.000000,0.727000,0.677713,0.425746,2.000000
27,0.003429,0.064900,1.000000,0.565309,1.000000,0.000619,0.155584,1.000000,2.000000,0.442872,0.396863,0.640887,1.000000,0.727000,0.677713,0.425746,2.000000
28,0.003429,0.064900,1.000000,0.565309,1.000000,0.000619,0.155584,1.000000,2.000000,0.442872,0.396863,0.640887,1.000000,0.727000,0.677713,0.425746,2.000000
29,0.003429,0.064900,1.000000,0.565309,1.000000,0.000619,0.155584,1.000000,2.000000,0.442872,0.396863,0.640887,1.000000,0.727000,0.677713,0.425746,2.000000
gen, fitness
0,0.032391,0.000000,1.000000,0.210000,0.800000,0.030000,0.030000,1.000000,0.000000,1.000000,0.000000,0.000000,0.600000,1.000000,1.000000,0.000000,0.000000
1,0.032391,0.000000,1.000000,0.210000,0.800000,0.030000,0.030000,1.000000,0.000000,1.000000,0.000000,0.000000,0.600000,1.000000,1.000000,0.000000,0.000000
2,0.014385,0.000000,1.000000,0.180737,0.841475,0.000000,0.075256,0.895100,2.000000,1.000000,0.000000,0.000000,0.745867,0.818234,1.000000,0.047214,2.000000
3,0.011162,0.054955,1.000000,0.331145,0.884451,0.097694,0.110680,1.000000,1.000000,0.861115,0.032193,0.083675,0.824253,0.935704,1.000000,0.000000,1.000000
4,0.005720,0.091355,0.765000,0.000000,0.990614,0.047115,0.110709,1.000000,2.000000,0.978192,0.179612,0.395764,0.940045,0.770942,0.830194,0.000000,1.000000
5,0.004307,0.204169,0.915487,0.090294,1.000000,0.136343,0.065074,0.693671,1.000000,0.725909,0.126065,0.018372,1.000000,0.859239,0.891546,0.000000,2.000000
6,0.003215,0.067886,0.887205,0.108573,1.000000,0.000000,0.071970,1.000000,2.000000,0.792687,0.000000,0.018021,1.000000,0.949355,0.977973,0.400180,2.000000
7,0.003215,0.067886,0.887205,0.108573,1.000000,0.000000,0.071970,1.000000,2.000000,0.792687,0.000000,0.018021,1.000000,0.949355,0.977973,0.400180,2.000000
8,0.002973,0.199747,0.989244,0.236842,1.000000,0.000000,0.074761,0.842664,2.000000,0.711237,0.005139,0.293675,1.000000,0.881740,0.721085,0.080989,0.000000
9,0.002973,0.199747,0.989244,0.236842,1.000000,0.000000,0.074761,0.842664,2.000000,0.711237,0.005139,0.293675,1.000000,0.881740,0.721085,0.080989,0.000000
10,0.002643,0.242798,0.500367,0.271353,1.000000,0.000000,0.005361,0.886650,2.000000,0.760361,0.077333,0.390213,1.000000,0.687766,0.816771,0.152762,1.000000
11,0.002539,0.180398,0.992707,0.253948,1.000000,0.022497,0.000000,1.000000,2.000000,0.605913,0.083376,0.324347,1.000000,0.892394,0.608411,0.000000,1.000000
12,0.002366,0.016019,0.854175,0.299654,1.000000,0.023835,0.021473,0.972079,2.000000,0.898096,0.000175,0.372598,0.989537,0.840966,0.929641,0.566439,2.000000
13,0.002349,0.128131,0.561643,0.450579,1.000000,0.000000,0.000000,0.670677,0.000000,0.647523,0.343255,0.527772,1.000000,0.478972,0.874718,0.372903,2.000000
14,0.002320,0.218415,1.000000,0.651126,0.957096,0.173762,0.078667,0.978644,2.000000,0.626293,0.302714,0.399809,0.981823,0.883266,0.898141,0.243132,2.000000
15,0.002247,0.189148,0.367795,0.452167,1.000000,0.079659,0.133508,0.491112,1.000000,0.564888,0.474227,0.573898,1.000000,0.217234,0.733863,0.295124,2.000000
16,0.002201,0.063931,0.791369,0.193782,1.000000,0.011171,0.182452,0.964150,1.000000,0.014138,0.192788,0.430397,1.000000,1.000000,0.780454,0.528130,2.000000
17,0.001748,0.010171,0.675636,0.100050,1.000000,0.120777,0.317066,1.000000,2.000000,0.050064,0.178760,0.444689,1.000000,1.000000,0.849862,0.622847,2.000000
18,0.001748,0.010171,0.675636,0.100050,1.000000,0.120777,0.317066,1.000000,2.000000,0.050064,0.178760,0.444689,1.000000,1.000000,0.849862,0.622847,2.000000
19,0.001748,0.010171,0.675636,0.100050,1.000000,0.120777,0.317066,1.000000,2.000000,0.050064,0.178760,0.444689,1.000000,1.000000,0.849862,0.622847,2.000000
20,0.001748,0.010171,0.675636,0.100050,1.000000,0.120777,0.317066,1.000000,2.000000,0.050064,0.178760,0.444689,1.000000,1.000000,0.849862,0.622847,2.000000
21,0.001748,0.010171,0.675636,0.100050,1.000000,0.120777,0.317066,1.000000,2.000000,0.050064,0.178760,0.444689,1.000000,1.000000,0.849862,0.622847,2.000000
22,0.001720,0.013745,0.818153,0.191712,1.000000,0.211293,0.318573,0.928780,1.000000,0.000000,0.076092,0.697405,1.000000,0.725633,0.803418,0.648454,2.000000
23,0.001645,0.019344,0.828622,0.130910,1.000000,0.069492,0.392218,1.000000,2.000000,0.000000,0.052324,0.614076,1.000000,0.804352,0.793421,0.678026,1.000000
24,0.001645,0.019344,0.828622,0.130910,1.000000,0.069492,0.392218,1.000000,2.000000,0.000000,0.052324,0.614076,1.000000,0.804352,0.793421,0.678026,1.000000
25,0.001645,0.019344,0.828622,0.130910,1.000000,0.069492,0.392218,1.000000,2.000000,0.000000,0.052324,0.614076,1.000000,0.804352,0.793421,0.678026,1.000000
26,0.001645,0.019344,0.828622,0.130910,1.000000,0.069492,0.392218,1.000000,2.000000,0.000000,0.052324,0.614076,1.000000,0.804352,0.793421,0.678026,1.000000
27,0.001450,0.100944,0.651845,0.283505,1.000000,0.253711,0.048064,0.939365,2.000000,0.202743,0.508649,0.740833,1.000000,0.953975,0.804836,1.000000,2.000000
28,0.001450,0.100944,0.651845,0.283505,1.000000,0.253711,0.048064,0.939365,2.000000,0.202743,0.508649,0.740833,1.000000,0.953975,0.804836,1.000000,2.000000
29,0.001385,0.101848,0.814878,0.260728,1.000000,0.301766,0.644634,1.000000,2.000000,0.024383,0.075351,0.922416,1.000000,1.000000,0.985936,0.475227,2.000000
30,0.001385,0.101848,0.814878,0.260728,1.000000,0.301766,0.644634,1.000000,2.000000,0.024383,0.075351,0.922416,1.000000,1.000000,0.985936,0.475227,2.000000
31,0.001385,0.101848,0.814878,0.260728,1.000000,0.301766,0.644634,1.000000,2.000000,0.024383,0.075351,0.922416,1.000000,1.000000,0.985936,0.475227,2.000000
32,0.001385,0.101848,0.814878,0.260728,1.000000,0.301766,0.644634,1.000000,2.000000,0.024383,0.075351,0.922416,1.000000,1.000000,0.985936,0.475227,2.000000
33,0.001385,0.101848,0.814878,0.260728,1.000000,0.301766,0.644634,1.000000,2.000000,0.024383,0.075351,0.922416,1.000000,1.000000,0.985936,0.475227,2.000000
34,0.001363,0.000000,0.817120,0.451319,1.000000,0.426302,0.301657,0.972997,1.000000,0.103586,0.020437,0.881182,1.000000,0.898214,0.610752,0.757074,2.000000
35,0.001363,0.000000,0.817120,0.451319,1.000000,0.426302,0.301657,0.972997,1.000000,0.103586,0.020437,0.881182,1.000000,0.898214,0.610752,0.757074,2.000000
36,0.001363,0.000000,0.817120,0.451319,1.000000,0.426302,0.301657,0.972997,1.000000,0.103586,0.020437,0.881182,1.000000,0.898214,0.610752,0.757074,2.000000
37,0.001363,0.000000,0.817120,0.451319,1.000000,0.426302,0.301657,0.972997,1.000000,0.103586,0.020437,0.881182,1.000000,0.898214,0.610752,0.757074,2.000000
38,0.001300,0.033124,0.846268,0.438562,1.000000,0.089189,0.937558,0.977606,1.000000,0.000000,0.000000,1.000000,1.000000,0.740892,0.876516,0.967935,2.000000
39,0.001252,0.031591,0.960863,0.379048,1.000000,0.027518,0.597680,0.855225,2.000000,0.025420,0.216803,1.000000,1.000000,0.590606,0.801939,0.821342,2.000000
40,0.001252,0.031591,0.960863,0.379048,1.000000,0.027518,0.597680,0.855225,2.000000,0.025420,0.216803,1.000000,1.000000,0.590606,0.801939,0.821342,2.000000
41,0.001129,0.000000,0.803765,0.391950,1.000000,0.000000,0.583471,0.995187,2.000000,0.058228,0.000000,1.000000,1.000000,0.760631,0.750299,0.873669,2.000000
42,0.001129,0.000000,0.803765,0.391950,1.000000,0.000000,0.583471,0.995187,2.000000,0.058228,0.000000,1.000000,1.000000,0.760631,0.750299,0.873669,2.000000
43,0.001129,0.000000,0.803765,0.391950,1.000000,0.000000,0.583471,0.995187,2.000000,0.058228,0.000000,1.000000,1.000000,0.760631,0.750299,0.873669,2.000000
44,0.001129,0.000000,0.803765,0.391950,1.000000,0.000000,0.583471,0.995187,2.000000,0.058228,0.000000,1.000000,1.000000,0.760631,0.750299,0.873669,2.000000
45,0.001129,0.000000,0.803765,0.391950,1.000000,0.000000,0.583471,0.995187,2.000000,0.058228,0.000000,1.000000,1.000000,0.760631,0.750299,0.873669,2.000000
46,0.001129,0.000000,0.803765,0.391950,1.000000,0.000000,0.583471,0.995187,2.000000,0.058228,0.000000,1.000000,1.000000,0.760631,0.750299,0.873669,2.000000
47,0.001129,0.000000,0.803765,0.391950,1.000000,0.000000,0.583471,0.995187,2.000000,0.058228,0.000000,1.000000,1.000000,0.760631,0.750299,0.873669,2.000000
48,0.001129,0.000000,0.803765,0.391950,1.000000,0.000000,0.583471,0.995187,2.000000,0.058228,0.000000,1.000000,1.000000,0.760631,0.750299,0.873669,2.000000
49,0.001129,0.000000,0.803765,0.391950,1.000000,0.000000,0.583471,0.995187,2.000000,0.058228,0.000000,1.000000,1.000000,0.760631,0.750299,0.873669,2.000000
50,0.001129,0.000000,0.803765,0.391950,1.000000,0.000000,0.583471,0.995187,2.000000,0.058228,0.000000,1.000000,1.000000,0.760631,0.750299,0.873669,2.000000
51,0.001129,0.000000,0.803765,0.391950,1.000000,0.000000,0.583471,0.995187,2.000000,0.058228,0.000000,1.000000,1.000000,0.760631,0.750299,0.873669,2.000000
gen, fitness
0,0.082103,0.000000,1.000000,0.210000,0.800000,0.030000,0.030000,1.000000,0.000000,1.000000,0.000000,0.000000,0.600000,1.000000,1.000000,0.000000,0.000000
1,0.082103,0.000000,1.000000,0.210000,0.800000,0.030000,0.030000,1.000000,0.000000,1.000000,0.000000,0.000000,0.600000,1.000000,1.000000,0.000000,0.000000
2,0.048768,0.000000,1.000000,0.396872,0.853471,0.003083,0.000000,1.000000,1.000000,0.951748,0.000000,0.011312,0.814813,0.976839,1.000000,0.000000,2.000000
3,0.038949,0.000000,0.884833,0.508409,0.983983,0.000000,0.000000,0.855255,0.000000,0.879037,0.000000,0.000000,0.944351,1.000000,1.000000,0.000000,1.000000
4,0.034138,0.000000,0.923212,0.353243,1.000000,0.124162,0.198059,0.853093,2.000000,0.843596,0.170489,0.080091,0.956277,0.912825,0.666082,0.058534,2.000000
5,0.029334,0.000000,0.951139,0.874045,1.000000,0.000000,0.066094,0.800023,2.000000,1.000000,0.013333,0.000000,1.000000,0.958969,0.833985,0.115347,2.000000
6,0.029334,0.000000,0.951139,0.874045,1.000000,0.000000,0.066094,0.800023,2.000000,1.000000,0.013333,0.000000,1.000000,0.958969,0.833985,0.115347,2.000000
7,0.027722,0.000000,0.837710,0.920016,0.990450,0.054707,0.298622,0.600603,2.000000,1.000000,0.000000,0.454410,1.000000,1.000000,0.941753,0.325157,1.000000
8,0.027542,0.000000,0.767236,0.851672,1.000000,0.000000,0.059187,1.000000,2.000000,0.929395,0.310630,0.130562,1.000000,0.873289,0.738471,0.045337,2.000000
9,0.025977,0.000000,0.701870,1.000000,0.992025,0.000000,0.098548,0.718701,2.000000,0.768812,0.088468,0.334266,1.000000,0.866209,0.829722,0.372229,1.000000
10,0.025977,0.000000,0.701870,1.000000,0.992025,0.000000,0.098548,0.718701,2.000000,0.768812,0.088468,0.334266,1.000000,0.866209,0.829722,0.372229,1.000000
11,0.025977,0.000000,0.701870,1.000000,0.992025,0.000000,0.098548,0.718701,2.000000,0.768812,0.088468,0.334266,1.000000,0.866209,0.829722,0.372229,1.000000
12,0.025182,0.084578,0.679850,1.000000,0.988427,0.000000,0.391219,0.728858,2.000000,0.475421,0.262382,0.414017,1.000000,0.744617,0.967211,0.402722,1.000000
13,0.024304,0.000000,0.617003,1.000000,1.000000,0.153836,0.284697,0.813424,2.000000,0.451482,0.159310,0.647538,1.000000,0.788056,1.000000,0.190064,1.000000
14,0.024192,0.122086,0.994530,1.000000,1.000000,0.000000,0.388502,0.988341,2.000000,0.427619,0.157014,0.561515,1.000000,0.719231,0.926837,0.018946,0.000000
15,0.024121,0.167186,0.898106,1.000000,0.984371,0.242701,0.419313,0.907986,2.000000,0.349664,0.311058,0.578352,1.000000,0.840537,0.899753,0.000000,1.000000
16,0.023344,0.000000,0.659499,1.000000,1.000000,0.163377,0.129879,0.799867,2.000000,0.184833,0.036614,0.841462,1.000000,0.861372,1.000000,0.136883,1.000000
17,0.023344,0.000000,0.659499,1.000000,1.000000,0.163377,0.129879,0.799867,2.000000,0.184833,0.036614,0.841462,1.000000,0.861372,1.000000,0.136883,1.000000
18,0.023344,0.000000,0.659499,1.000000,1.000000,0.163377,0.129879,0.799867,2.000000,0.184833,0.036614,0.841462,1.000000,0.861372,1.000000,0.136883,1.000000
19,0.022965,0.009412,1.000000,1.000000,1.000000,0.065468,0.200357,1.000000,2.000000,0.178332,0.371261,0.718983,1.000000,0.797010,0.829080,0.092339,2.000000
20,0.022670,0.000000,0.912621,1.000000,1.000000,0.064045,0.265869,1.000000,2.000000,0.027354,0.112226,0.720108,1.000000,1.000000,0.791913,0.010909,1.000000
21,0.022670,0.000000,0.912621,1.000000,1.000000,0.064045,0.265869,1.000000,2.000000,0.027354,0.112226,0.720108,1.000000,1.000000,0.791913,0.010909,1.000000
22,0.022525,0.157862,0.936374,0.960526,0.985576,0.039043,0.372047,0.979734,2.000000,0.072377,0.000000,0.769942,1.000000,1.000000,0.722669,0.175449,1.000000
23,0.022440,0.030274,0.896465,1.000000,1.000000,0.000000,0.606251,0.959233,2.000000,0.000000,0.503307,0.895653,1.000000,0.739514,0.988389,0.138152,2.000000
24,0.022440,0.030274,0.896465,1.000000,1.000000,0.000000,0.606251,0.959233,2.000000,0.000000,0.503307,0.895653,1.000000,0.739514,0.988389,0.138152,2.000000
25,0.022440,0.030274,0.896465,1.000000,1.000000,0.000000,0.606251,0.959233,2.000000,0.000000,0.503307,0.895653,1.000000,0.739514,0.988389,0.138152,2.000000
26,0.022440,0.030274,0.896465,1.000000,1.000000,0.000000,0.606251,0.959233,2.000000,0.000000,0.503307,0.895653,1.000000,0.739514,0.988389,0.138152,2.000000
27,0.022223,0.178434,0.835980,1.000000,1.000000,0.000000,0.517431,0.971506,2.000000,0.000000,0.179561,1.000000,1.000000,0.629216,0.927241,0.257294,0.000000
28,0.022047,0.228773,0.834935,1.000000,0.990730,0.209795,0.384608,1.000000,2.000000,0.000000,0.037804,0.982983,1.000000,0.981890,0.796844,0.048426,2.000000
29,0.022047,0.228773,0.834935,1.000000,0.990730,0.209795,0.384608,1.000000,2.000000,0.000000,0.037804,0.982983,1.000000,0.981890,0.796844,0.048426,2.000000
30,0.022047,0.228773,0.834935,1.000000,0.990730,0.209795,0.384608,1.000000,2.000000,0.000000,0.037804,0.982983,1.000000,0.981890,0.796844,0.048426,2.000000
31,0.022012,0.045635,0.840935,0.938442,0.978432,0.000000,0.624218,0.955198,2.000000,0.073664,0.088423,0.957844,1.000000,0.801689,0.769876,0.585802,0.000000
32,0.022012,0.045635,0.840935,0.938442,0.978432,0.000000,0.624218,0.955198,2.000000,0.073664,0.088423,0.957844,1.000000,0.801689,0.769876,0.585802,0.000000
33,0.022012,0.045635,0.840935,0.938442,0.978432,0.000000,0.624218,0.955198,2.000000,0.073664,0.088423,0.957844,1.000000,0.801689,0.769876,0.585802,0.000000
34,0.022012,0.045635,0.840935,0.938442,0.978432,0.000000,0.624218,0.955198,2.000000,0.073664,0.088423,0.957844,1.000000,0.801689,0.769876,0.585802,0.000000
35,0.022012,0.045635,0.840935,0.938442,0.978432,0.000000,0.624218,0.955198,2.000000,0.073664,0.088423,0.957844,1.000000,0.801689,0.769876,0.585802,0.000000
36,0.022012,0.045635,0.840935,0.938442,0.978432,0.000000,0.624218,0.955198,2.000000,0.073664,0.088423,0.957844,1.000000,0.801689,0.769876,0.585802,0.000000
37,0.021498,0.019367,0.230050,1.000000,1.000000,0.000000,0.237849,1.000000,2.000000,0.000000,0.105388,1.000000,1.000000,1.000000,0.362909,0.146079,2.000000
38,0.021498,0.019367,0.230050,1.000000,1.000000,0.000000,0.237849,1.000000,2.000000,0.000000,0.105388,1.000000,1.000000,1.000000,0.362909,0.146079,2.000000
39,0.021498,0.019367,0.230050,1.000000,1.000000,0.000000,0.237849,1.000000,2.000000,0.000000,0.105388,1.000000,1.000000,1.000000,0.362909,0.146079,2.000000
40,0.021498,0.019367,0.230050,1.000000,1.000000,0.000000,0.237849,1.000000,2.000000,0.000000,0.105388,1.000000,1.000000,1.000000,0.362909,0.146079,2.000000
41,0.021498,0.019367,0.230050,1.000000,1.000000,0.000000,0.237849,1.000000,2.000000,0.000000,0.105388,1.000000,1.000000,1.000000,0.362909,0.146079,2.000000
42,0.021498,0.019367,0.230050,1.000000,1.000000,0.000000,0.237849,1.000000,2.000000,0.000000,0.105388,1.000000,1.000000,1.000000,0.362909,0.146079,2.000000
43,0.021498,0.019367,0.230050,1.000000,1.000000,0.000000,0.237849,1.000000,2.000000,0.000000,0.105388,1.000000,1.000000,1.000000,0.362909,0.146079,2.000000
44,0.021498,0.019367,0.230050,1.000000,1.000000,0.000000,0.237849,1.000000,2.000000,0.000000,0.105388,1.000000,1.000000,1.000000,0.362909,0.146079,2.000000
45,0.021498,0.019367,0.230050,1.000000,1.000000,0.000000,0.237849,1.000000,2.000000,0.000000,0.105388,1.000000,1.000000,1.000000,0.362909,0.146079,2.000000
46,0.021498,0.019367,0.230050,1.000000,1.000000,0.000000,0.237849,1.000000,2.000000,0.000000,0.105388,1.000000,1.000000,1.000000,0.362909,0.146079,2.000000
47,0.021498,0.019367,0.230050,1.000000,1.000000,0.000000,0.237849,1.000000,2.000000,0.000000,0.105388,1.000000,1.000000,1.000000,0.362909,0.146079,2.000000
