gen, fitness
0,0.027983,0.000000,1.000000,0.210000,0.800000,0.030000,0.030000,1.000000,0.000000,1.000000,0.000000,0.000000,0.600000,1.000000,1.000000,0.000000,0.000000
1,0.027983,0.000000,1.000000,0.210000,0.800000,0.030000,0.030000,1.000000,0.000000,1.000000,0.000000,0.000000,0.600000,1.000000,1.000000,0.000000,0.000000
2,0.006098,0.053639,0.870857,0.314159,0.816671,0.053522,0.127691,1.000000,2.000000,1.000000,0.206267,0.119745,0.803826,1.000000,1.000000,0.007260,1.000000
3,0.005656,0.000000,0.974192,0.259377,0.836030,0.000000,0.047230,1.000000,1.000000,0.883756,0.102126,0.285959,0.728489,0.905189,0.894294,0.349141,0.000000
4,0.004457,0.020519,0.958517,0.295797,0.871304,0.133096,0.043385,0.910125,0.000000,0.986152,0.000000,0.180282,0.818797,0.549443,0.916660,0.018382,2.000000
5,0.001044,0.005015,1.000000,0.274196,0.976267,0.002279,0.024574,0.890472,0.000000,0.691570,0.000000,0.000000,1.000000,1.000000,1.000000,0.000000,2.000000
6,0.001044,0.005015,1.000000,0.274196,0.976267,0.002279,0.024574,0.890472,0.000000,0.691570,0.000000,0.000000,1.000000,1.000000,1.000000,0.000000,2.000000
7,0.001044,0.005015,1.000000,0.274196,0.976267,0.002279,0.024574,0.890472,0.000000,0.691570,0.000000,0.000000,1.000000,1.000000,1.000000,0.000000,2.000000
8,0.001044,0.005015,1.000000,0.274196,0.976267,0.002279,0.024574,0.890472,0.000000,0.691570,0.000000,0.000000,1.000000,1.000000,1.000000,0.000000,2.000000
9,0.000697,0.128865,1.000000,0.309700,1.000000,0.026431,0.114949,0.987879,1.000000,1.000000,0.000000,0.238100,1.000000,0.971869,0.932110,0.186008,2.000000
10,0.000697,0.128865,1.000000,0.309700,1.000000,0.026431,0.114949,0.987879,1.000000,1.000000,0.000000,0.238100,1.000000,0.971869,0.932110,0.186008,2.000000
11,0.000586,0.033247,0.865749,0.197393,1.000000,0.079122,0.000000,0.826268,2.000000,0.783114,0.179282,0.268753,1.000000,0.889859,0.791076,0.231555,2.000000
12,0.000586,0.033247,0.865749,0.197393,1.000000,0.079122,0.000000,0.826268,2.000000,0.783114,0.179282,0.268753,1.000000,0.889859,0.791076,0.231555,2.000000
13,0.000586,0.033247,0.865749,0.197393,1.000000,0.079122,0.000000,0.826268,2.000000,0.783114,0.179282,0.268753,1.000000,0.889859,0.791076,0.231555,2.000000
14,0.000586,0.033247,0.865749,0.197393,1.000000,0.079122,0.000000,0.826268,2.000000,0.783114,0.179282,0.268753,1.000000,0.889859,0.791076,0.231555,2.000000
15,0.000586,0.033247,0.865749,0.197393,1.000000,0.079122,0.000000,0.826268,2.000000,0.783114,0.179282,0.268753,1.000000,0.889859,0.791076,0.231555,2.000000
16,0.000586,0.033247,0.865749,0.197393,1.000000,0.079122,0.000000,0.826268,2.000000,0.783114,0.179282,0.268753,1.000000,0.889859,0.791076,0.231555,2.000000
17,0.000542,0.000000,0.718617,0.135280,1.000000,0.072708,0.000000,0.500373,1.000000,0.243658,0.000000,0.616208,1.000000,0.816647,0.797181,0.446476,1.000000
18,0.000429,0.133323,1.000000,0.185641,1.000000,0.312862,0.030432,0.682043,2.000000,0.443316,0.026045,0.588506,1.000000,0.822422,0.293393,0.139652,2.000000
19,0.000429,0.133323,1.000000,0.185641,1.000000,0.312862,0.030432,0.682043,2.000000,0.443316,0.026045,0.588506,1.000000,0.822422,0.293393,0.139652,2.000000
20,0.000367,0.000000,0.753289,0.168970,1.000000,0.048303,0.006180,0.366127,2.000000,0.380959,0.077098,0.606340,1.000000,0.688104,0.705410,0.602222,2.000000
21,0.000367,0.000000,0.753289,0.168970,1.000000,0.048303,0.006180,0.366127,2.000000,0.380959,0.077098,0.606340,1.000000,0.688104,0.705410,0.602222,2.000000
22,0.000367,0.000000,0.753289,0.168970,1.000000,0.048303,0.006180,0.366127,2.000000,0.380959,0.077098,0.606340,1.000000,0.688104,0.705410,0.602222,2.000000
23,0.000367,0.000000,0.753289,0.168970,1.000000,0.048303,0.006180,0.366127,2.000000,0.380959,0.077098,0.606340,1.000000,0.688104,0.705410,0.602222,2.000000
24,0.000367,0.000000,0.753289,0.168970,1.000000,0.048303,0.006180,0.366127,2.000000,0.380959,0.077098,0.606340,1.000000,0.688104,0.705410,0.602222,2.000000
25,0.000367,0.000000,0.753289,0.168970,1.000000,0.048303,0.006180,0.366127,2.000000,0.380959,0.077098,0.606340,1.000000,0.688104,0.705410,0.602222,2.000000
26,0.000367,0.000000,0.753289,0.168970,1.000000,0.048303,0.006180,0.366127,2.000000,0.380959,0.077098,0.606340,1.000000,0.688104,0.705410,0.602222,2.000000
27,0.000367,0.000000,0.753289,0.168970,1.000000,0.048303,0.006180,0.366127,2.000000,0.380959,0.077098,0.606340,1.000000,0.688104,0.705410,0.602222,2.000000
28,0.000367,0.000000,0.753289,0.168970,1.000000,0.048303,0.006180,0.366127,2.000000,0.380959,0.077098,0.606340,1.000000,0.688104,0.705410,0.602222,2.000000
29,0.000367,0.000000,0.753289,0.168970,1.000000,0.048303,0.006180,0.366127,2.000000,0.380959,0.077098,0.606340,1.000000,0.688104,0.705410,0.602222,2.000000
30,0.000274,0.257417,1.000000,0.279087,1.000000,0.081385,0.092680,0.752910,2.000000,0.372124,0.000000,0.974216,1.000000,0.896536,0.426772,0.102961,2.000000
31,0.000211,0.050073,0.656429,0.227327,1.000000,0.000000,0.128911,0.661171,2.000000,0.264902,0.000000,0.800327,1.000000,0.699094,0.290016,0.973434,2.000000
32,0.000211,0.050073,0.656429,0.227327,1.000000,0.000000,0.128911,0.661171,2.000000,0.264902,0.000000,0.800327,1.000000,0.699094,0.290016,0.973434,2.000000
33,0.000211,0.050073,0.656429,0.227327,1.000000,0.000000,0.128911,0.661171,2.000000,0.264902,0.000000,0.800327,1.000000,0.699094,0.290016,0.973434,2.000000
34,0.000211,0.050073,0.656429,0.227327,1.000000,0.000000,0.128911,0.661171,2.000000,0.264902,0.000000,0.800327,1.000000,0.699094,0.290016,0.973434,2.000000
35,0.000211,0.050073,0.656429,0.227327,1.000000,0.000000,0.128911,0.661171,2.000000,0.264902,0.000000,0.800327,1.000000,0.699094,0.290016,0.973434,2.000000
36,0.000211,0.050073,0.656429,0.227327,1.000000,0.000000,0.128911,0.661171,2.000000,0.264902,0.000000,0.800327,1.000000,0.699094,0.290016,0.973434,2.000000
37,0.000211,0.050073,0.656429,0.227327,1.000000,0.000000,0.128911,0.661171,2.000000,0.264902,0.000000,0.800327,1.000000,0.699094,0.290016,0.973434,2.000000
38,0.000211,0.050073,0.656429,0.227327,1.000000,0.000000,0.128911,0.661171,2.000000,0.264902,0.000000,0.800327,1.000000,0.699094,0.290016,0.973434,2.000000
39,0.000211,0.050073,0.656429,0.227327,1.000000,0.000000,0.128911,0.661171,2.000000,0.264902,0.000000,0.800327,1.000000,0.699094,0.290016,0.973434,2.000000
40,0.000211,0.050073,0.656429,0.227327,1.000000,0.000000,0.128911,0.661171,2.000000,0.264902,0.000000,0.800327,1.000000,0.699094,0.290016,0.973434,2.000000
41,0.000211,0.050073,0.656429,0.227327,1.000000,0.000000,0.128911,0.661171,2.000000,0.264902,0.000000,0.800327,1.000000,0.699094,0.290016,0.973434,2.000000
gen, fitness
0,0.112030,0.000000,1.000000,0.210000,0.800000,0.030000,0.030000,1.000000,0.000000,1.000000,0.000000,0.000000,0.600000,1.000000,1.000000,0.000000,0.000000
1,0.112030,0.000000,1.000000,0.210000,0.800000,0.030000,0.030000,1.000000,0.000000,1.000000,0.000000,0.000000,0.600000,1.000000,1.000000,0.000000,0.000000
2,0.075333,0.000000,1.000000,0.242474,0.842914,0.037091,0.103724,0.952322,1.000000,0.950293,0.000000,0.207186,0.728689,0.938279,0.880230,0.000000,1.000000
3,0.058953,0.082912,0.852888,0.226119,0.994835,0.000000,0.095520,1.000000,2.000000,0.996649,0.023286,0.143479,0.911658,0.967905,0.737154,0.000000,0.000000
4,0.044197,0.139703,0.922529,0.221621,1.000000,0.019995,0.153003,1.000000,1.000000,1.000000,0.254514,0.210449,0.967152,0.916464,0.692896,0.172902,2.000000
5,0.044197,0.139703,0.922529,0.221621,1.000000,0.019995,0.153003,1.000000,1.000000,1.000000,0.254514,0.210449,0.967152,0.916464,0.692896,0.172902,2.000000
6,0.040276,0.000000,0.732948,0.336591,1.000000,0.030694,0.122334,0.775502,2.000000,0.956605,0.161461,0.314669,1.000000,0.972384,0.634101,0.000000,2.000000
7,0.039252,0.000000,0.924264,0.310781,1.000000,0.086907,0.000000,0.701112,2.000000,0.948022,0.000000,0.392874,1.000000,1.000000,0.573834,0.062250,2.000000
8,0.039152,0.141101,0.811322,0.221533,1.000000,0.065337,0.090842,1.000000,2.000000,0.951262,0.000000,0.438626,0.997684,1.000000,0.758469,0.025377,2.000000
9,0.037717,0.000000,0.965923,0.139310,1.000000,0.000410,0.152704,0.774761,1.000000,0.755411,0.109247,0.821759,0.953253,0.868499,0.530936,0.000000,2.000000
10,0.037343,0.000000,0.869364,0.309882,1.000000,0.000000,0.099013,0.807251,2.000000,0.767178,0.233767,0.797685,0.963535,0.841103,0.519467,0.036170,1.000000
11,0.037343,0.000000,0.869364,0.309882,1.000000,0.000000,0.099013,0.807251,2.000000,0.767178,0.233767,0.797685,0.963535,0.841103,0.519467,0.036170,1.000000
12,0.035746,0.098914,1.000000,0.000000,1.000000,0.000000,0.215276,0.904827,2.000000,0.829143,0.329051,0.890969,0.935652,0.971891,0.733100,0.190985,2.000000
13,0.035486,0.000000,1.000000,0.438281,1.000000,0.000000,0.130424,0.962931,1.000000,1.000000,0.153091,0.918807,0.997277,0.989623,0.781851,0.222806,2.000000
14,0.035486,0.000000,1.000000,0.438281,1.000000,0.000000,0.130424,0.962931,1.000000,1.000000,0.153091,0.918807,0.997277,0.989623,0.781851,0.222806,2.000000
15,0.033910,0.093404,0.611021,0.928141,1.000000,0.209219,0.259835,0.935534,2.000000,0.966051,0.247730,0.936521,1.000000,1.000000,0.437388,0.321074,2.000000
16,0.033910,0.093404,0.611021,0.928141,1.000000,0.209219,0.259835,0.935534,2.000000,0.966051,0.247730,0.936521,1.000000,1.000000,0.437388,0.321074,2.000000
17,0.033910,0.093404,0.611021,0.928141,1.000000,0.209219,0.259835,0.935534,2.000000,0.966051,0.247730,0.936521,1.000000,1.000000,0.437388,0.321074,2.000000
18,0.033700,0.000000,0.780120,0.567798,1.000000,0.000000,0.115356,1.000000,1.000000,0.885491,0.158720,0.964524,1.000000,1.000000,0.762736,0.276468,2.000000
19,0.033700,0.000000,0.780120,0.567798,1.000000,0.000000,0.115356,1.000000,1.000000,0.885491,0.158720,0.964524,1.000000,1.000000,0.762736,0.276468,2.000000
20,0.033180,0.044615,0.919340,0.649943,1.000000,0.000000,0.228083,0.902770,1.000000,0.823928,0.104531,1.000000,1.000000,0.922141,0.591637,0.400165,2.000000
21,0.033180,0.044615,0.919340,0.649943,1.000000,0.000000,0.228083,0.902770,1.000000,0.823928,0.104531,1.000000,1.000000,0.922141,0.591637,0.400165,2.000000
22,0.033180,0.044615,0.919340,0.649943,1.000000,0.000000,0.228083,0.902770,1.000000,0.823928,0.104531,1.000000,1.000000,0.922141,0.591637,0.400165,2.000000
23,0.033180,0.044615,0.919340,0.649943,1.000000,0.000000,0.228083,0.902770,1.000000,0.823928,0.104531,1.000000,1.000000,0.922141,0.591637,0.400165,2.000000
24,0.033180,0.044615,0.919340,0.649943,1.000000,0.000000,0.228083,0.902770,1.000000,0.823928,0.104531,1.000000,1.000000,0.922141,0.591637,0.400165,2.000000
25,0.033180,0.044615,0.919340,0.649943,1.000000,0.000000,0.228083,0.902770,1.000000,0.823928,0.104531,1.000000,1.000000,0.922141,0.591637,0.400165,2.000000
26,0.032691,0.000000,0.902038,0.620519,1.000000,0.294260,0.297523,0.899941,2.000000,1.000000,0.122455,0.987824,1.000000,0.980240,0.578865,0.487775,2.000000
27,0.032691,0.000000,0.902038,0.620519,1.000000,0.294260,0.297523,0.899941,2.000000,1.000000,0.122455,0.987824,1.000000,0.980240,0.578865,0.487775,2.000000
28,0.032691,0.000000,0.902038,0.620519,1.000000,0.294260,0.297523,0.899941,2.000000,1.000000,0.122455,0.987824,1.000000,0.980240,0.578865,0.487775,2.000000
29,0.032691,0.000000,0.902038,0.620519,1.000000,0.294260,0.297523,0.899941,2.000000,1.000000,0.122455,0.987824,1.000000,0.980240,0.578865,0.487775,2.000000
30,0.032691,0.000000,0.902038,0.620519,1.000000,0.294260,0.297523,0.899941,2.000000,1.000000,0.122455,0.987824,1.000000,0.980240,0.578865,0.487775,2.000000
31,0.032691,0.000000,0.902038,0.620519,1.000000,0.294260,0.297523,0.899941,2.000000,1.000000,0.122455,0.987824,1.000000,0.980240,0.578865,0.487775,2.000000
32,0.032691,0.000000,0.902038,0.620519,1.000000,0.294260,0.297523,0.899941,2.000000,1.000000,0.122455,0.987824,1.000000,0.980240,0.578865,0.487775,2.000000
33,0.032691,0.000000,0.902038,0.620519,1.000000,0.294260,0.297523,0.899941,2.000000,1.000000,0.122455,0.987824,1.000000,0.980240,0.578865,0.487775,2.000000
34,0.032691,0.000000,0.902038,0.620519,1.000000,0.294260,0.297523,0.899941,2.000000,1.000000,0.122455,0.987824,1.000000,0.980240,0.578865,0.487775,2.000000
35,0.032691,0.000000,0.902038,0.620519,1.000000,0.294260,0.297523,0.899941,2.000000,1.000000,0.122455,0.987824,1.000000,0.980240,0.578865,0.487775,2.000000
36,0.032485,0.041723,1.000000,0.661103,1.000000,0.039217,0.000000,0.952972,1.000000,0.836379,0.000000,0.940706,1.000000,1.000000,0.786130,0.612262,2.000000
37,0.032485,0.041723,1.000000,0.661103,1.000000,0.039217,0.000000,0.952972,1.000000,0.836379,0.000000,0.940706,1.000000,1.000000,0.786130,0.612262,2.000000
38,0.032254,0.000000,0.717937,0.785384,1.000000,0.191758,0.138672,0.939095,1.000000,1.000000,0.098594,1.000000,1.000000,0.835606,0.980984,0.668304,2.000000
39,0.032254,0.000000,0.717937,0.785384,1.000000,0.191758,0.138672,0.939095,1.000000,1.000000,0.098594,1.000000,1.000000,0.835606,0.980984,0.668304,2.000000
40,0.032254,0.000000,0.717937,0.785384,1.000000,0.191758,0.138672,0.939095,1.000000,1.000000,0.098594,1.000000,1.000000,0.835606,0.980984,0.668304,2.000000
41,0.031537,0.000000,0.922896,0.649909,1.000000,0.289804,0.102296,0.928583,2.000000,0.933406,0.000000,1.000000,1.000000,0.967173,0.972613,0.593040,2.000000
42,0.031537,0.000000,0.922896,0.649909,1.000000,0.289804,0.102296,0.928583,2.000000,0.933406,0.000000,1.000000,1.000000,0.967173,0.972613,0.593040,2.000000
43,0.031537,0.000000,0.922896,0.649909,1.000000,0.289804,0.102296,0.928583,2.000000,0.933406,0.000000,1.000000,1.000000,0.967173,0.972613,0.593040,2.000000
44,0.031537,0.000000,0.922896,0.649909,1.000000,0.289804,0.102296,0.928583,2.000000,0.933406,0.000000,1.000000,1.000000,0.967173,0.972613,0.593040,2.000000
45,0.031537,0.000000,0.922896,0.649909,1.000000,0.289804,0.102296,0.928583,2.000000,0.933406,0.000000,1.000000,1.000000,0.967173,0.972613,0.593040,2.000000
46,0.031537,0.000000,0.922896,0.649909,1.000000,0.289804,0.102296,0.928583,2.000000,0.933406,0.000000,1.000000,1.000000,0.967173,0.972613,0.593040,2.000000
47,0.031537,0.000000,0.922896,0.649909,1.000000,0.289804,0.102296,0.928583,2.000000,0.933406,0.000000,1.000000,1.000000,0.967173,0.972613,0.593040,2.000000
48,0.031537,0.000000,0.922896,0.649909,1.000000,0.289804,0.102296,0.928583,2.000000,0.933406,0.000000,1.000000,1.000000,0.967173,0.972613,0.593040,2.000000
49,0.031506,0.000000,0.831924,0.607719,1.000000,0.037503,0.000000,0.924452,2.000000,0.829228,0.000000,1.000000,1.000000,1.000000,0.875728,0.541596,2.000000
50,0.031506,0.000000,0.831924,0.607719,1.000000,0.037503,0.000000,0.924452,2.000000,0.829228,0.000000,1.000000,1.000000,1.000000,0.875728,0.541596,2.000000
51,0.031506,0.000000,0.831924,0.607719,1.000000,0.037503,0.000000,0.924452,2.000000,0.829228,0.000000,1.000000,1.000000,1.000000,0.875728,0.541596,2.000000
52,0.031506,0.000000,0.831924,0.607719,1.000000,0.037503,0.000000,0.924452,2.000000,0.829228,0.000000,1.000000,1.000000,1.000000,0.875728,0.541596,2.000000
53,0.031506,0.000000,0.831924,0.607719,1.000000,0.037503,0.000000,0.924452,2.000000,0.829228,0.000000,1.000000,1.000000,1.000000,0.875728,0.541596,2.000000
54,0.031506,0.000000,0.831924,0.607719,1.000000,0.037503,0.000000,0.924452,2.000000,0.829228,0.000000,1.000000,1.000000,1.000000,0.875728,0.541596,2.000000
55,0.031506,0.000000,0.831924,0.607719,1.000000,0.037503,0.000000,0.924452,2.000000,0.829228,0.000000,1.000000,1.000000,1.000000,0.875728,0.541596,2.000000
56,0.031506,0.000000,0.831924,0.607719,1.000000,0.037503,0.000000,0.924452,2.000000,0.829228,0.000000,1.000000,1.000000,1.000000,0.875728,0.541596,2.000000
57,0.031506,0.000000,0.831924,0.607719,1.000000,0.037503,0.000000,0.924452,2.000000,0.829228,0.000000,1.000000,1.000000,1.000000,0.875728,0.541596,2.000000
58,0.031288,0.000000,1.000000,0.771672,1.000000,0.439177,0.081952,1.000000,2.000000,0.813825,0.233622,0.978240,1.000000,0.866052,1.000000,0.933348,2.000000
59,0.031288,0.000000,1.000000,0.771672,1.000000,0.439177,0.081952,1.000000,2.000000,0.813825,0.233622,0.978240,1.000000,0.866052,1.000000,0.933348,2.000000
60,0.031288,0.000000,1.000000,0.771672,1.000000,0.439177,0.081952,1.000000,2.000000,0.813825,0.233622,0.978240,1.000000,0.866052,1.000000,0.933348,2.000000
61,0.031288,0.000000,1.000000,0.771672,1.000000,0.439177,0.081952,1.000000,2.000000,0.813825,0.233622,0.978240,1.000000,0.866052,1.000000,0.933348,2.000000
62,0.031288,0.000000,1.000000,0.771672,1.000000,0.439177,0.081952,1.000000,2.000000,0.813825,0.233622,0.978240,1.000000,0.866052,1.000000,0.933348,2.000000
63,0.031288,0.000000,1.000000,0.771672,1.000000,0.439177,0.081952,1.000000,2.000000,0.813825,0.233622,0.978240,1.000000,0.866052,1.000000,0.933348,2.000000
64,0.031288,0.000000,1.000000,0.771672,1.000000,0.439177,0.081952,1.000000,2.000000,0.813825,0.233622,0.978240,1.000000,0.866052,1.000000,0.933348,2.000000
65,0.030968,0.000000,0.715732,0.795800,1.000000,0.000000,0.000000,1.000000,2.000000,0.835754,0.376371,1.000000,1.000000,0.850826,1.000000,0.944475,2.000000
66,0.030968,0.000000,0.715732,0.795800,1.000000,0.000000,0.000000,1.000000,2.000000,0.835754,0.376371,1.000000,1.000000,0.850826,1.000000,0.944475,2.000000
67,0.030968,0.000000,0.715732,0.795800,1.000000,0.000000,0.000000,1.000000,2.000000,0.835754,0.376371,1.000000,1.000000,0.850826,1.000000,0.944475,2.000000
68,0.030968,0.000000,0.715732,0.795800,1.000000,0.000000,0.000000,1.000000,2.000000,0.835754,0.376371,1.000000,1.000000,0.850826,1.000000,0.944475,2.000000
69,0.030968,0.000000,0.715732,0.795800,1.000000,0.000000,0.000000,1.000000,2.000000,0.835754,0.376371,1.000000,1.000000,0.850826,1.000000,0.944475,2.000000
70,0.030968,0.000000,0.715732,0.795800,1.000000,0.000000,0.000000,1.000000,2.000000,0.835754,0.376371,1.000000,1.000000,0.850826,1.000000,0.944475,2.000000
71,0.030968,0.000000,0.715732,0.795800,1.000000,0.000000,0.000000,1.000000,2.000000,0.835754,0.376371,1.000000,1.000000,0.850826,1.000000,0.944475,2.000000
72,0.030968,0.000000,0.715732,0.795800,1.000000,0.000000,0.000000,1.000000,2.000000,0.835754,0.376371,1.000000,1.000000,0.850826,1.000000,0.944475,2.000000
73,0.030968,0.000000,0.715732,0.795800,1.000000,0.000000,0.000000,1.000000,2.000000,0.835754,0.376371,1.000000,1.000000,0.850826,1.000000,0.944475,2.000000
74,0.030968,0.000000,0.715732,0.795800,1.000000,0.000000,0.000000,1.000000,2.000000,0.835754,0.376371,1.000000,1.000000,0.850826,1.000000,0.944475,2.000000
75,0.030968,0.000000,0.715732,0.795800,1.000000,0.000000,0.000000,1.000000,2.000000,0.835754,0.376371,1.000000,1.000000,0.850826,1.000000,0.944475,2.000000
gen, fitness
0,0.128870,0.000000,1.000000,0.210000,0.800000,0.030000,0.030000,1.000000,0.000000,1.000000,0.000000,0.000000,0.600000,1.000000,1.000000,0.000000,0.000000
1,0.128870,0.000000,1.000000,0.210000,0.800000,0.030000,0.030000,1.000000,0.000000,1.000000,0.000000,0.000000,0.600000,1.000000,1.000000,0.000000,0.000000
2,0.087983,0.048916,1.000000,0.223719,0.860533,0.000000,0.005597,1.000000,2.000000,1.000000,0.096413,0.145987,0.787496,1.000000,1.000000,0.000000,2.000000
3,0.073141,0.000000,1.000000,0.152283,1.000000,0.000000,0.000000,0.921286,1.000000,0.978093,0.047630,0.086084,1.000000,1.000000,0.962544,0.096936,0.000000
4,0.066248,0.059645,1.000000,0.342049,0.987398,0.071229,0.236006,1.000000,2.000000,0.857169,0.105579,0.249677,0.984616,0.885341,1.000000,0.240365,1.000000
5,0.065815,0.191179,0.950826,0.421205,1.000000,0.082808,0.173214,0.934065,2.000000,0.839906,0.025064,0.018799,1.000000,1.000000,0.978030,0.001858,1.000000
6,0.063232,0.196254,0.873123,0.407806,1.000000,0.000000,0.215221,1.000000,2.000000,0.812042,0.164129,0.089763,1.000000,0.696469,0.904668,0.384224,2.000000
7,0.063232,0.196254,0.873123,0.407806,1.000000,0.000000,0.215221,1.000000,2.000000,0.812042,0.164129,0.089763,1.000000,0.696469,0.904668,0.384224,2.000000
8,0.059369,0.000000,0.900640,0.612037,1.000000,0.000000,0.034702,0.932494,2.000000,0.585440,0.034257,0.423693,1.000000,0.694329,0.757287,0.462421,2.000000
9,0.059369,0.000000,0.900640,0.612037,1.000000,0.000000,0.034702,0.932494,2.000000,0.585440,0.034257,0.423693,1.000000,0.694329,0.757287,0.462421,2.000000
10,0.059071,0.094013,0.855825,0.873974,1.000000,0.177792,0.000000,0.752686,2.000000,0.688424,0.000000,0.673854,1.000000,0.552979,0.757865,0.500472,2.000000
11,0.059071,0.094013,0.855825,0.873974,1.000000,0.177792,0.000000,0.752686,2.000000,0.688424,0.000000,0.673854,1.000000,0.552979,0.757865,0.500472,2.000000
12,0.059071,0.094013,0.855825,0.873974,1.000000,0.177792,0.000000,0.752686,2.000000,0.688424,0.000000,0.673854,1.000000,0.552979,0.757865,0.500472,2.000000
13,0.058603,0.000000,0.674458,1.000000,1.000000,0.000000,0.268767,0.731197,2.000000,0.528751,0.000000,0.640556,1.000000,0.545141,0.718466,0.545714,2.000000
14,0.058318,0.092635,0.860111,1.000000,0.983901,0.219233,0.083735,0.750786,2.000000,0.410840,0.000000,0.632423,1.000000,0.346097,0.748508,0.810936,2.000000
15,0.058318,0.092635,0.860111,1.000000,0.983901,0.219233,0.083735,0.750786,2.000000,0.410840,0.000000,0.632423,1.000000,0.346097,0.748508,0.810936,2.000000
16,0.058318,0.092635,0.860111,1.000000,0.983901,0.219233,0.083735,0.750786,2.000000,0.410840,0.000000,0.632423,1.000000,0.346097,0.748508,0.810936,2.000000
17,0.058318,0.092635,0.860111,1.000000,0.983901,0.219233,0.083735,0.750786,2.000000,0.410840,0.000000,0.632423,1.000000,0.346097,0.748508,0.810936,2.000000
18,0.057743,0.076718,0.974724,1.000000,1.000000,0.000000,0.000000,1.000000,2.000000,0.599667,0.232000,0.832749,1.000000,0.688720,0.586369,0.666030,1.000000
19,0.057743,0.076718,0.974724,1.000000,1.000000,0.000000,0.000000,1.000000,2.000000,0.599667,0.232000,0.832749,1.000000,0.688720,0.586369,0.666030,1.000000
20,0.057743,0.076718,0.974724,1.000000,1.000000,0.000000,0.000000,1.000000,2.000000,0.599667,0.232000,0.832749,1.000000,0.688720,0.586369,0.666030,1.000000
21,0.057170,0.000000,0.926024,0.978886,1.000000,0.000000,0.283720,0.956941,2.000000,0.463642,0.000000,0.830225,1.000000,0.547099,0.839083,0.563640,2.000000
22,0.057170,0.000000,0.926024,0.978886,1.000000,0.000000,0.283720,0.956941,2.000000,0.463642,0.000000,0.830225,1.000000,0.547099,0.839083,0.563640,2.000000
23,0.057170,0.000000,0.926024,0.978886,1.000000,0.000000,0.283720,0.956941,2.000000,0.463642,0.000000,0.830225,1.000000,0.547099,0.839083,0.563640,2.000000
24,0.057170,0.000000,0.926024,0.978886,1.000000,0.000000,0.283720,0.956941,2.000000,0.463642,0.000000,0.830225,1.000000,0.547099,0.839083,0.563640,2.000000
25,0.057170,0.000000,0.926024,0.978886,1.000000,0.000000,0.283720,0.956941,2.000000,0.463642,0.000000,0.830225,1.000000,0.547099,0.839083,0.563640,2.000000
26,0.057113,0.000000,0.726083,0.835806,1.000000,0.042113,0.000413,1.000000,1.000000,0.506171,0.208490,0.987628,1.000000,0.834586,0.717786,0.674876,2.000000
27,0.057113,0.000000,0.726083,0.835806,1.000000,0.042113,0.000413,1.000000,1.000000,0.506171,0.208490,0.987628,1.000000,0.834586,0.717786,0.674876,2.000000
28,0.056467,0.000000,0.757786,1.000000,1.000000,0.000000,0.098548,0.970507,2.000000,0.495633,0.000000,0.861419,1.000000,0.674589,0.400546,0.502034,2.000000
29,0.056467,0.000000,0.757786,1.000000,1.000000,0.000000,0.098548,0.970507,2.000000,0.495633,0.000000,0.861419,1.000000,0.674589,0.400546,0.502034,2.000000
30,0.056467,0.000000,0.757786,1.000000,1.000000,0.000000,0.098548,0.970507,2.000000,0.495633,0.000000,0.861419,1.000000,0.674589,0.400546,0.502034,2.000000
31,0.056311,0.000000,0.934604,1.000000,1.000000,0.000000,0.696421,0.993996,2.000000,0.156975,0.097841,1.000000,1.000000,0.859182,0.677990,1.000000,1.000000
32,0.055933,0.000000,0.972504,0.748718,1.000000,0.098369,0.033793,0.904198,1.000000,0.089983,0.000000,1.000000,1.000000,0.840481,0.043498,1.000000,2.000000
33,0.055933,0.000000,0.972504,0.748718,1.000000,0.098369,0.033793,0.904198,1.000000,0.089983,0.000000,1.000000,1.000000,0.840481,0.043498,1.000000,2.000000
34,0.055933,0.000000,0.972504,0.748718,1.000000,0.098369,0.033793,0.904198,1.000000,0.089983,0.000000,1.000000,1.000000,0.840481,0.043498,1.000000,2.000000
35,0.055599,0.125007,1.000000,1.000000,1.000000,0.048385,0.000000,1.000000,2.000000,0.264746,0.000000,0.976808,1.000000,0.948868,0.000000,0.816497,2.000000
36,0.055599,0.125007,1.000000,1.000000,1.000000,0.048385,0.000000,1.000000,2.000000,0.264746,0.000000,0.976808,1.000000,0.948868,0.000000,0.816497,2.000000
37,0.055599,0.125007,1.000000,1.000000,1.000000,0.048385,0.000000,1.000000,2.000000,0.264746,0.000000,0.976808,1.000000,0.948868,0.000000,0.816497,2.000000
38,0.055599,0.125007,1.000000,1.000000,1.000000,0.048385,0.000000,1.000000,2.000000,0.264746,0.000000,0.976808,1.000000,0.948868,0.000000,0.816497,2.000000
39,0.055599,0.125007,1.000000,1.000000,1.000000,0.048385,0.000000,1.000000,2.000000,0.264746,0.000000,0.976808,1.000000,0.948868,0.000000,0.816497,2.000000
40,0.054891,0.068168,0.998535,0.966352,0.978532,0.000000,0.756341,1.000000,2.000000,0.008926,0.000000,1.000000,1.000000,1.000000,0.208558,0.983733,1.000000
41,0.054891,0.068168,0.998535,0.966352,0.978532,0.000000,0.756341,1.000000,2.000000,0.008926,0.000000,1.000000,1.000000,1.000000,0.208558,0.983733,1.000000
42,0.054891,0.068168,0.998535,0.966352,0.978532,0.000000,0.756341,1.000000,2.000000,0.008926,0.000000,1.000000,1.000000,1.000000,0.208558,0.983733,1.000000
43,0.054891,0.068168,0.998535,0.966352,0.978532,0.000000,0.756341,1.000000,2.000000,0.008926,0.000000,1.000000,1.000000,1.000000,0.208558,0.983733,1.000000
44,0.054891,0.068168,0.998535,0.966352,0.978532,0.000000,0.756341,1.000000,2.000000,0.008926,0.000000,1.000000,1.000000,1.000000,0.208558,0.983733,1.000000
45,0.054891,0.068168,0.998535,0.966352,0.978532,0.000000,0.756341,1.000000,2.000000,0.008926,0.000000,1.000000,1.000000,1.000000,0.208558,0.983733,1.000000
46,0.054891,0.068168,0.998535,0.966352,0.978532,0.000000,0.756341,1.000000,2.000000,0.008926,0.000000,1.000000,1.000000,1.000000,0.208558,0.983733,1.000000
47,0.054891,0.068168,0.998535,0.966352,0.978532,0.000000,0.756341,1.000000,2.000000,0.008926,0.000000,1.000000,1.000000,1.000000,0.208558,0.983733,1.000000
48,0.054891,0.068168,0.998535,0.966352,0.978532,0.000000,0.756341,1.000000,2.000000,0.008926,0.000000,1.000000,1.000000,1.000000,0.208558,0.983733,1.000000
49,0.054891,0.068168,0.998535,0.966352,0.978532,0.000000,0.756341,1.000000,2.000000,0.008926,0.000000,1.000000,1.000000,1.000000,0.208558,0.983733,1.000000
50,0.054891,0.068168,0.998535,0.966352,0.978532,0.000000,0.756341,1.000000,2.000000,0.008926,0.000000,1.000000,1.000000,1.000000,0.208558,0.983733,1.000000
gen, fitness
0,0.032491,0.000000,1.000000,0.210000,0.800000,0.030000,0.030000,1.000000,0.000000,1.000000,0.000000,0.000000,0.600000,1.000000,1.000000,0.000000,0.000000
1,0.032491,0.000000,1.000000,0.210000,0.800000,0.030000,0.030000,1.000000,0.000000,1.000000,0.000000,0.000000,0.600000,1.000000,1.000000,0.000000,0.000000
2,0.011499,0.076781,0.981360,0.087425,0.899806,0.000000,0.000000,0.978585,2.000000,0.896070,0.009550,0.003536,0.805386,1.000000,0.921152,0.227125,2.000000
3,0.011499,0.076781,0.981360,0.087425,0.899806,0.000000,0.000000,0.978585,2.000000,0.896070,0.009550,0.003536,0.805386,1.000000,0.921152,0.227125,2.000000
4,0.006243,0.000000,0.870599,0.404483,1.000000,0.109513,0.000000,1.000000,2.000000,0.657655,0.022160,0.042957,0.974885,0.984419,0.946308,0.136504,1.000000
5,0.003429,0.000000,0.856278,0.444855,1.000000,0.083387,0.040944,0.995805,1.000000,0.475287,0.000000,0.077684,1.000000,0.962165,0.897114,0.099834,2.000000
6,0.002927,0.047675,0.862767,0.655539,1.000000,0.246037,0.000000,1.000000,0.000000,0.647601,0.000000,0.211364,1.000000,0.988814,1.000000,0.009141,2.000000
7,0.002927,0.047675,0.862767,0.655539,1.000000,0.246037,0.000000,1.000000,0.000000,0.647601,0.000000,0.211364,1.000000,0.988814,1.000000,0.009141,2.000000
8,0.002927,0.047675,0.862767,0.655539,1.000000,0.246037,0.000000,1.000000,0.000000,0.647601,0.000000,0.211364,1.000000,0.988814,1.000000,0.009141,2.000000
9,0.002599,0.200096,0.915327,0.661005,1.000000,0.000000,0.000000,1.000000,2.000000,0.856666,0.000000,0.370362,1.000000,1.000000,1.000000,0.000000,2.000000
10,0.002599,0.200096,0.915327,0.661005,1.000000,0.000000,0.000000,1.000000,2.000000,0.856666,0.000000,0.370362,1.000000,1.000000,1.000000,0.000000,2.000000
11,0.002599,0.200096,0.915327,0.661005,1.000000,0.000000,0.000000,1.000000,2.000000,0.856666,0.000000,0.370362,1.000000,1.000000,1.000000,0.000000,2.000000
12,0.002258,0.000000,0.845042,0.754616,1.000000,0.184217,0.065879,1.000000,2.000000,0.603916,0.000000,0.426125,1.000000,0.899485,0.862536,0.074734,2.000000
13,0.002258,0.000000,0.845042,0.754616,1.000000,0.184217,0.065879,1.000000,2.000000,0.603916,0.000000,0.426125,1.000000,0.899485,0.862536,0.074734,2.000000
14,0.002258,0.000000,0.845042,0.754616,1.000000,0.184217,0.065879,1.000000,2.000000,0.603916,0.000000,0.426125,1.000000,0.899485,0.862536,0.074734,2.000000
15,0.002258,0.000000,0.845042,0.754616,1.000000,0.184217,0.065879,1.000000,2.000000,0.603916,0.000000,0.426125,1.000000,0.899485,0.862536,0.074734,2.000000
16,0.002258,0.000000,0.845042,0.754616,1.000000,0.184217,0.065879,1.000000,2.000000,0.603916,0.000000,0.426125,1.000000,0.899485,0.862536,0.074734,2.000000
17,0.002258,0.000000,0.845042,0.754616,1.000000,0.184217,0.065879,1.000000,2.000000,0.603916,0.000000,0.426125,1.000000,0.899485,0.862536,0.074734,2.000000
18,0.002153,0.007426,1.000000,0.882319,1.000000,0.064773,0.375634,0.722890,2.000000,0.725835,0.414103,0.731737,1.000000,0.968284,0.799094,0.000000,2.000000
19,0.001753,0.000000,0.902559,0.875451,1.000000,0.000000,0.000000,1.000000,2.000000,0.576154,0.030005,0.832340,1.000000,0.931848,1.000000,0.248839,2.000000
20,0.001753,0.000000,0.902559,0.875451,1.000000,0.000000,0.000000,1.000000,2.000000,0.576154,0.030005,0.832340,1.000000,0.931848,1.000000,0.248839,2.000000
21,0.001753,0.000000,0.902559,0.875451,1.000000,0.000000,0.000000,1.000000,2.000000,0.576154,0.030005,0.832340,1.000000,0.931848,1.000000,0.248839,2.000000
22,0.001753,0.000000,0.902559,0.875451,1.000000,0.000000,0.000000,1.000000,2.000000,0.576154,0.030005,0.832340,1.000000,0.931848,1.000000,0.248839,2.000000
23,0.001753,0.000000,0.902559,0.875451,1.000000,0.000000,0.000000,1.000000,2.000000,0.576154,0.030005,0.832340,1.000000,0.931848,1.000000,0.248839,2.000000
24,0.001753,0.000000,0.902559,0.875451,1.000000,0.000000,0.000000,1.000000,2.000000,0.576154,0.030005,0.832340,1.000000,0.931848,1.000000,0.248839,2.000000
25,0.001753,0.000000,0.902559,0.875451,1.000000,0.000000,0.000000,1.000000,2.000000,0.576154,0.030005,0.832340,1.000000,0.931848,1.000000,0.248839,2.000000
26,0.001753,0.000000,0.902559,0.875451,1.000000,0.000000,0.000000,1.000000,2.000000,0.576154,0.030005,0.832340,1.000000,0.931848,1.000000,0.248839,2.000000
27,0.001753,0.000000,0.902559,0.875451,1.000000,0.000000,0.000000,1.000000,2.000000,0.576154,0.030005,0.832340,1.000000,0.931848,1.000000,0.248839,2.000000
28,0.001753,0.000000,0.902559,0.875451,1.000000,0.000000,0.000000,1.000000,2.000000,0.576154,0.030005,0.832340,1.000000,0.931848,1.000000,0.248839,2.000000
29,0.001734,0.000000,0.909660,1.000000,1.000000,0.008029,0.000000,1.000000,1.000000,0.469005,0.199797,0.985244,1.000000,0.696865,1.000000,0.287700,2.000000
30,0.001734,0.000000,0.909660,1.000000,1.000000,0.008029,0.000000,1.000000,1.000000,0.469005,0.199797,0.985244,1.000000,0.696865,1.000000,0.287700,2.000000
31,0.001734,0.000000,0.909660,1.000000,1.000000,0.008029,0.000000,1.000000,1.000000,0.469005,0.199797,0.985244,1.000000,0.696865,1.000000,0.287700,2.000000
32,0.001734,0.000000,0.909660,1.000000,1.000000,0.008029,0.000000,1.000000,1.000000,0.469005,0.199797,0.985244,1.000000,0.696865,1.000000,0.287700,2.000000
33,0.001734,0.000000,0.909660,1.000000,1.000000,0.008029,0.000000,1.000000,1.000000,0.469005,0.199797,0.985244,1.000000,0.696865,1.000000,0.287700,2.000000
34,0.001734,0.000000,0.909660,1.000000,1.000000,0.008029,0.000000,1.000000,1.000000,0.469005,0.199797,0.985244,1.000000,0.696865,1.000000,0.287700,2.000000
35,0.001734,0.000000,0.909660,1.000000,1.000000,0.008029,0.000000,1.000000,1.000000,0.469005,0.199797,0.985244,1.000000,0.696865,1.000000,0.287700,2.000000
36,0.001734,0.000000,0.909660,1.000000,1.000000,0.008029,0.000000,1.000000,1.000000,0.469005,0.199797,0.985244,1.000000,0.696865,1.000000,0.287700,2.000000
37,0.001734,0.000000,0.909660,1.000000,1.000000,0.008029,0.000000,1.000000,1.000000,0.469005,0.199797,0.985244,1.000000,0.696865,1.000000,0.287700,2.000000
38,0.001734,0.000000,0.909660,1.000000,1.000000,0.008029,0.000000,1.000000,1.000000,0.469005,0.199797,0.985244,1.000000,0.696865,1.000000,0.287700,2.000000
39,0.001734,0.000000,0.909660,1.000000,1.000000,0.008029,0.000000,1.000000,1.000000,0.469005,0.199797,0.985244,1.000000,0.696865,1.000000,0.287700,2.000000
gen, fitness
0,0.074963,0.000000,1.000000,0.210000,0.800000,0.030000,0.030000,1.000000,0.000000,1.000000,0.000000,0.000000,0.600000,1.000000,1.000000,0.000000,0.000000
1,0.074963,0.000000,1.000000,0.210000,0.800000,0.030000,0.030000,1.000000,0.000000,1.000000,0.000000,0.000000,0.600000,1.000000,1.000000,0.000000,0.000000
2,0.038935,0.015188,1.000000,0.205033,0.881321,0.113498,0.296813,1.000000,2.000000,1.000000,0.004560,0.000000,0.805987,1.000000,1.000000,0.000000,2.000000
3,0.027856,0.005465,0.923211,0.418532,0.941951,0.000000,0.000000,1.000000,0.000000,0.976524,0.051218,0.056443,0.916953,0.811094,0.879953,0.012412,2.000000
4,0.024550,0.000000,0.920300,0.129660,1.000000,0.104245,0.015336,0.900643,2.000000,0.820785,0.059291,0.146683,0.953642,0.891774,1.000000,0.134344,1.000000
5,0.019836,0.000000,0.963610,0.743925,1.000000,0.055000,0.436522,1.000000,0.000000,0.935134,0.000000,0.000000,1.000000,1.000000,0.975085,0.069003,0.000000
6,0.018388,0.060422,0.935544,0.831315,1.000000,0.052549,0.278223,1.000000,1.000000,0.825657,0.000000,0.000000,1.000000,0.906468,0.721105,0.000000,2.000000
7,0.017649,0.000000,0.906053,0.821661,1.000000,0.041278,0.459142,1.000000,0.000000,0.876653,0.245819,0.171497,1.000000,0.835408,0.738058,0.027826,0.000000
8,0.015793,0.000000,0.852848,0.812975,1.000000,0.000000,0.444569,0.972831,1.000000,0.809155,0.368707,0.279971,1.000000,0.573198,0.667271,0.018354,2.000000
9,0.015343,0.133902,0.867825,0.826258,1.000000,0.000000,0.031303,0.800326,1.000000,0.722824,0.019682,0.766349,1.000000,1.000000,0.952936,0.340069,0.000000
10,0.014905,0.089612,1.000000,0.867662,1.000000,0.105112,0.027722,0.891448,2.000000,0.846253,0.001765,0.560310,1.000000,0.984489,0.682533,0.000000,0.000000
11,0.014890,0.023144,0.910059,0.812342,0.967700,0.000000,0.272021,1.000000,2.000000,0.565536,0.131655,0.210174,1.000000,0.996179,0.874577,0.000000,1.000000
12,0.013764,0.000000,0.618609,1.000000,1.000000,0.000000,0.488603,0.827507,2.000000,0.879673,0.000000,0.662668,1.000000,0.996902,0.549549,0.000000,2.000000
13,0.013503,0.008090,1.000000,1.000000,1.000000,0.000000,0.347195,1.000000,2.000000,0.827787,0.052561,0.513813,1.000000,0.620470,0.708095,0.324037,2.000000
14,0.013349,0.035002,0.864825,0.975716,1.000000,0.180047,0.430837,1.000000,2.000000,0.729907,0.187250,0.667485,1.000000,0.716437,0.573924,0.052339,1.000000
15,0.013349,0.035002,0.864825,0.975716,1.000000,0.180047,0.430837,1.000000,2.000000,0.729907,0.187250,0.667485,1.000000,0.716437,0.573924,0.052339,1.000000
16,0.013349,0.035002,0.864825,0.975716,1.000000,0.180047,0.430837,1.000000,2.000000,0.729907,0.187250,0.667485,1.000000,0.716437,0.573924,0.052339,1.000000
17,0.013219,0.094133,0.904131,1.000000,1.000000,0.000000,0.589926,0.840733,2.000000,0.616139,0.185903,0.670639,1.000000,0.661699,0.494592,0.000000,0.000000
18,0.012885,0.046281,0.876226,0.995799,1.000000,0.009051,0.602564,0.864770,2.000000,0.627450,0.121152,0.725004,1.000000,0.650756,0.528948,0.014782,2.000000
19,0.012885,0.046281,0.876226,0.995799,1.000000,0.009051,0.602564,0.864770,2.000000,0.627450,0.121152,0.725004,1.000000,0.650756,0.528948,0.014782,2.000000
20,0.012885,0.046281,0.876226,0.995799,1.000000,0.009051,0.602564,0.864770,2.000000,0.627450,0.121152,0.725004,1.000000,0.650756,0.528948,0.014782,2.000000
21,0.012003,0.000000,1.000000,1.000000,1.000000,0.000000,0.470344,0.872740,2.000000,0.408559,0.304003,0.980740,1.000000,1.000000,0.305221,0.000000,2.000000
22,0.012003,0.000000,1.000000,1.000000,1.000000,0.000000,0.470344,0.872740,2.000000,0.408559,0.304003,0.980740,1.000000,1.000000,0.305221,0.000000,2.000000
23,0.012003,0.000000,1.000000,1.000000,1.000000,0.000000,0.470344,0.872740,2.000000,0.408559,0.304003,0.980740,1.000000,1.000000,0.305221,0.000000,2.000000
24,0.012003,0.000000,1.000000,1.000000,1.000000,0.000000,0.470344,0.872740,2.000000,0.408559,0.304003,0.980740,1.000000,1.000000,0.305221,0.000000,2.000000
25,0.012003,0.000000,1.000000,1.000000,1.000000,0.000000,0.470344,0.872740,2.000000,0.408559,0.304003,0.980740,1.000000,1.000000,0.305221,0.000000,2.000000
26,0.012003,0.000000,1.000000,1.000000,1.000000,0.000000,0.470344,0.872740,2.000000,0.408559,0.304003,0.980740,1.000000,1.000000,0.305221,0.000000,2.000000
27,0.011985,0.140210,0.732146,0.958582,1.000000,0.000000,0.435553,1.000000,2.000000,0.380766,0.165079,1.000000,1.000000,0.705800,0.399141,0.179290,2.000000
28,0.011787,0.000000,0.974484,0.877032,0.987182,0.018608,0.508359,0.958370,2.000000,0.060576,0.235931,0.763108,1.000000,0.668550,0.286769,0.143236,0.000000
29,0.011707,0.113554,0.923567,1.000000,0.983620,0.050820,0.602321,0.964625,2.000000,0.286899,0.213296,0.771191,1.000000,0.781355,0.415826,0.423292,1.000000
30,0.011707,0.113554,0.923567,1.000000,0.983620,0.050820,0.602321,0.964625,2.000000,0.286899,0.213296,0.771191,1.000000,0.781355,0.415826,0.423292,1.000000
31,0.011600,0.074149,0.721147,0.969435,0.951197,0.098155,0.455455,0.915330,2.000000,0.000000,0.095726,0.716049,1.000000,1.000000,0.191139,0.284564,0.000000
32,0.011600,0.074149,0.721147,0.969435,0.951197,0.098155,0.455455,0.915330,2.000000,0.000000,0.095726,0.716049,1.000000,1.000000,0.191139,0.284564,0.000000
33,0.011600,0.074149,0.721147,0.969435,0.951197,0.098155,0.455455,0.915330,2.000000,0.000000,0.095726,0.716049,1.000000,1.000000,0.191139,0.284564,0.000000
34,0.011600,0.074149,0.721147,0.969435,0.951197,0.098155,0.455455,0.915330,2.000000,0.000000,0.095726,0.716049,1.000000,1.000000,0.191139,0.284564,0.000000
35,0.010970,0.106232,0.899999,1.000000,0.965097,0.013228,0.681531,0.963844,2.000000,0.000000,0.000000,0.757548,1.000000,1.000000,0.423140,0.458040,0.000000
36,0.010970,0.106232,0.899999,1.000000,0.965097,0.013228,0.681531,0.963844,2.000000,0.000000,0.000000,0.757548,1.000000,1.000000,0.423140,0.458040,0.000000
37,0.010970,0.106232,0.899999,1.000000,0.965097,0.013228,0.681531,0.963844,2.000000,0.000000,0.000000,0.757548,1.000000,1.000000,0.423140,0.458040,0.000000
38,0.010892,0.173630,0.855013,1.000000,0.987936,0.061726,0.429845,0.910514,2.000000,0.043416,0.184861,1.000000,1.000000,1.000000,0.000000,0.240542,2.000000
39,0.010892,0.173630,0.855013,1.000000,0.987936,0.061726,0.429845,0.910514,2.000000,0.043416,0.184861,1.000000,1.000000,1.000000,0.000000,0.240542,2.000000
40,0.010892,0.173630,0.855013,1.000000,0.987936,0.061726,0.429845,0.910514,2.000000,0.043416,0.184861,1.000000,1.000000,1.000000,0.000000,0.240542,2.000000
41,0.010887,0.321101,0.676369,1.000000,0.969152,0.245410,0.724175,0.863604,2.000000,0.000000,0.194240,0.928144,1.000000,0.750480,0.000000,0.441111,1.000000
42,0.010887,0.321101,0.676369,1.000000,0.969152,0.245410,0.724175,0.863604,2.000000,0.000000,0.194240,0.928144,1.000000,0.750480,0.000000,0.441111,1.000000
43,0.010589,0.055482,0.795956,0.990001,0.988113,0.096378,0.548257,1.000000,2.000000,0.000000,0.000000,0.919731,1.000000,0.954746,0.005610,0.464077,2.000000
44,0.010589,0.055482,0.795956,0.990001,0.988113,0.096378,0.548257,1.000000,2.000000,0.000000,0.000000,0.919731,1.000000,0.954746,0.005610,0.464077,2.000000
45,0.010589,0.055482,0.795956,0.990001,0.988113,0.096378,0.548257,1.000000,2.000000,0.000000,0.000000,0.919731,1.000000,0.954746,0.005610,0.464077,2.000000
46,0.010589,0.055482,0.795956,0.990001,0.988113,0.096378,0.548257,1.000000,2.000000,0.000000,0.000000,0.919731,1.000000,0.954746,0.005610,0.464077,2.000000
47,0.010589,0.055482,0.795956,0.990001,0.988113,0.096378,0.548257,1.000000,2.000000,0.000000,0.000000,0.919731,1.000000,0.954746,0.005610,0.464077,2.000000
48,0.010589,0.055482,0.795956,0.990001,0.988113,0.096378,0.548257,1.000000,2.000000,0.000000,0.000000,0.919731,1.000000,0.954746,0.005610,0.464077,2.000000
49,0.010589,0.055482,0.795956,0.990001,0.988113,0.096378,0.548257,1.000000,2.000000,0.000000,0.000000,0.919731,1.000000,0.954746,0.005610,0.464077,2.000000
50,0.010589,0.055482,0.795956,0.990001,0.988113,0.096378,0.548257,1.000000,2.000000,0.000000,0.000000,0.919731,1.000000,0.954746,0.005610,0.464077,2.000000
51,0.010589,0.055482,0.795956,0.990001,0.988113,0.096378,0.548257,1.000000,2.000000,0.000000,0.000000,0.919731,1.000000,0.954746,0.005610,0.464077,2.000000
52,0.010589,0.055482,0.795956,0.990001,0.988113,0.096378,0.548257,1.000000,2.000000,0.000000,0.000000,0.919731,1.000000,0.954746,0.005610,0.464077,2.000000
53,0.010589,0.055482,0.795956,0.990001,0.988113,0.096378,0.548257,1.000000,2.000000,0.000000,0.000000,0.919731,1.000000,0.954746,0.005610,0.464077,2.000000
gen, fitness
0,0.169504,0.000000,1.000000,0.210000,0.800000,0.030000,0.030000,1.000000,0.000000,1.000000,0.000000,0.000000,0.600000,1.000000,1.000000,0.000000,0.000000
1,0.169504,0.000000,1.000000,0.210000,0.800000,0.030000,0.030000,1.000000,0.000000,1.000000,0.000000,0.000000,0.600000,1.000000,1.000000,0.000000,0.000000
2,0.117789,0.000000,1.000000,0.282504,0.761451,0.060108,0.017435,0.897538,2.000000,1.000000,0.000000,0.042875,0.821474,0.896686,1.000000,0.000000,2.000000
3,0.084282,0.075044,0.886266,0.040723,1.000000,0.053979,0.000000,1.000000,2.000000,0.994825,0.011305,0.000000,0.986411,1.000000,1.000000,0.000000,0.000000
4,0.082398,0.159132,0.939291,0.054578,0.955638,0.091998,0.041147,0.690074,2.000000,0.939633,0.021796,0.201108,0.930779,0.848461,1.000000,0.000000,2.000000
5,0.072301,0.000000,0.884358,0.069635,1.000000,0.166251,0.233280,1.000000,1.000000,1.000000,0.209902,0.187256,1.000000,0.940268,1.000000,0.000000,2.000000
6,0.072301,0.000000,0.884358,0.069635,1.000000,0.166251,0.233280,1.000000,1.000000,1.000000,0.209902,0.187256,1.000000,0.940268,1.000000,0.000000,2.000000
7,0.068601,0.000000,1.000000,0.000000,1.000000,0.000000,0.227938,1.000000,2.000000,0.620037,0.248348,0.512756,1.000000,0.795440,0.969933,0.117546,2.000000
8,0.068601,0.000000,1.000000,0.000000,1.000000,0.000000,0.227938,1.000000,2.000000,0.620037,0.248348,0.512756,1.000000,0.795440,0.969933,0.117546,2.000000
9,0.068485,0.121788,0.782871,0.000000,0.991795,0.099063,0.000000,0.829127,2.000000,0.922862,0.028375,0.465161,0.981216,0.886927,0.975427,0.000000,2.000000
10,0.066729,0.107310,0.821187,0.051793,1.000000,0.080236,0.134558,0.561747,2.000000,0.784578,0.538423,0.590721,1.000000,0.897002,0.968026,0.232734,2.000000
11,0.066729,0.107310,0.821187,0.051793,1.000000,0.080236,0.134558,0.561747,2.000000,0.784578,0.538423,0.590721,1.000000,0.897002,0.968026,0.232734,2.000000
12,0.063764,0.007257,0.963448,0.018338,1.000000,0.190997,0.129843,0.766145,1.000000,1.000000,0.000000,0.969028,1.000000,0.792690,0.917883,0.062194,2.000000
13,0.063764,0.007257,0.963448,0.018338,1.000000,0.190997,0.129843,0.766145,1.000000,1.000000,0.000000,0.969028,1.000000,0.792690,0.917883,0.062194,2.000000
14,0.063764,0.007257,0.963448,0.018338,1.000000,0.190997,0.129843,0.766145,1.000000,1.000000,0.000000,0.969028,1.000000,0.792690,0.917883,0.062194,2.000000
15,0.063764,0.007257,0.963448,0.018338,1.000000,0.190997,0.129843,0.766145,1.000000,1.000000,0.000000,0.969028,1.000000,0.792690,0.917883,0.062194,2.000000
16,0.062162,0.000000,1.000000,0.000000,1.000000,0.285317,0.066918,0.697094,2.000000,0.924718,0.090971,0.938148,1.000000,0.719703,0.953631,0.174831,2.000000
17,0.062162,0.000000,1.000000,0.000000,1.000000,0.285317,0.066918,0.697094,2.000000,0.924718,0.090971,0.938148,1.000000,0.719703,0.953631,0.174831,2.000000
18,0.061877,0.000000,0.848780,0.033711,1.000000,0.148389,0.311768,0.444901,2.000000,0.882623,0.330341,0.932601,1.000000,0.770206,1.000000,0.282777,2.000000
19,0.061877,0.000000,0.848780,0.033711,1.000000,0.148389,0.311768,0.444901,2.000000,0.882623,0.330341,0.932601,1.000000,0.770206,1.000000,0.282777,2.000000
20,0.059784,0.261225,1.000000,0.000000,1.000000,0.000000,0.000000,0.851084,2.000000,1.000000,0.257913,1.000000,0.963110,0.629233,1.000000,0.325419,2.000000
21,0.059784,0.261225,1.000000,0.000000,1.000000,0.000000,0.000000,0.851084,2.000000,1.000000,0.257913,1.000000,0.963110,0.629233,1.000000,0.325419,2.000000
22,0.059784,0.261225,1.000000,0.000000,1.000000,0.000000,0.000000,0.851084,2.000000,1.000000,0.257913,1.000000,0.963110,0.629233,1.000000,0.325419,2.000000
23,0.059784,0.261225,1.000000,0.000000,1.000000,0.000000,0.000000,0.851084,2.000000,1.000000,0.257913,1.000000,0.963110,0.629233,1.000000,0.325419,2.000000
24,0.059784,0.261225,1.000000,0.000000,1.000000,0.000000,0.000000,0.851084,2.000000,1.000000,0.257913,1.000000,0.963110,0.629233,1.000000,0.325419,2.000000
25,0.059784,0.261225,1.000000,0.000000,1.000000,0.000000,0.000000,0.851084,2.000000,1.000000,0.257913,1.000000,0.963110,0.629233,1.000000,0.325419,2.000000
26,0.059784,0.261225,1.000000,0.000000,1.000000,0.000000,0.000000,0.851084,2.000000,1.000000,0.257913,1.000000,0.963110,0.629233,1.000000,0.325419,2.000000
27,0.059784,0.261225,1.000000,0.000000,1.000000,0.000000,0.000000,0.851084,2.000000,1.000000,0.257913,1.000000,0.963110,0.629233,1.000000,0.325419,2.000000
28,0.059784,0.261225,1.000000,0.000000,1.000000,0.000000,0.000000,0.851084,2.000000,1.000000,0.257913,1.000000,0.963110,0.629233,1.000000,0.325419,2.000000
29,0.059784,0.261225,1.000000,0.000000,1.000000,0.000000,0.000000,0.851084,2.000000,1.000000,0.257913,1.000000,0.963110,0.629233,1.000000,0.325419,2.000000
30,0.059784,0.261225,1.000000,0.000000,1.000000,0.000000,0.000000,0.851084,2.000000,1.000000,0.257913,1.000000,0.963110,0.629233,1.000000,0.325419,2.000000
gen, fitness
0,0.081164,0.000000,1.000000,0.210000,0.800000,0.030000,0.030000,1.000000,0.000000,1.000000,0.000000,0.000000,0.600000,1.000000,1.000000,0.000000,0.000000
1,0.081164,0.000000,1.000000,0.210000,0.800000,0.030000,0.030000,1.000000,0.000000,1.000000,0.000000,0.000000,0.600000,1.000000,1.000000,0.000000,0.000000
2,0.044815,0.000000,0.962526,0.255589,0.869437,0.046765,0.000000,1.000000,1.000000,0.966649,0.154728,0.000000,0.785872,1.000000,1.000000,0.000000,2.000000
3,0.036769,0.000000,0.840659,0.252470,0.903716,0.212385,0.124571,1.000000,2.000000,0.752118,0.000000,0.085057,0.834511,0.994026,0.898321,0.137951,1.000000
4,0.028257,0.004760,1.000000,0.249399,0.962776,0.038538,0.224753,1.000000,1.000000,0.734365,0.000000,0.000000,0.951713,0.984147,0.820726,0.208012,0.000000
5,0.023415,0.000000,0.922326,0.300461,1.000000,0.126716,0.070436,0.900232,2.000000,0.660134,0.095960,0.094740,0.995956,0.887476,0.822562,0.214739,1.000000
6,0.021334,0.049969,0.959158,0.417088,1.000000,0.195238,0.084928,1.000000,2.000000,0.949777,0.000000,0.259030,0.996286,0.656718,0.800109,0.124501,1.000000
7,0.021094,0.049374,0.585667,0.000000,1.000000,0.000000,0.325517,1.000000,2.000000,0.654417,0.000000,0.145549,1.000000,0.888934,0.949864,0.088336,2.000000
8,0.021094,0.049374,0.585667,0.000000,1.000000,0.000000,0.325517,1.000000,2.000000,0.654417,0.000000,0.145549,1.000000,0.888934,0.949864,0.088336,2.000000
9,0.019418,0.000000,0.865106,0.369879,1.000000,0.146037,0.159778,0.476757,1.000000,0.691499,0.224511,0.609943,0.977295,0.607675,0.983079,0.376818,2.000000
10,0.018492,0.000000,0.949402,0.437844,1.000000,0.000000,0.160944,0.502635,2.000000,0.646624,0.207184,0.802690,1.000000,0.443196,1.000000,0.605856,1.000000
11,0.018492,0.000000,0.949402,0.437844,1.000000,0.000000,0.160944,0.502635,2.000000,0.646624,0.207184,0.802690,1.000000,0.443196,1.000000,0.605856,1.000000
12,0.018492,0.000000,0.949402,0.437844,1.000000,0.000000,0.160944,0.502635,2.000000,0.646624,0.207184,0.802690,1.000000,0.443196,1.000000,0.605856,1.000000
13,0.018492,0.000000,0.949402,0.437844,1.000000,0.000000,0.160944,0.502635,2.000000,0.646624,0.207184,0.802690,1.000000,0.443196,1.000000,0.605856,1.000000
14,0.018349,0.055898,0.923091,0.502880,1.000000,0.329487,0.064510,0.000000,2.000000,0.659031,0.284845,0.771781,1.000000,0.343258,1.000000,0.659708,2.000000
15,0.018145,0.000000,0.928861,0.466497,1.000000,0.000079,0.158524,0.274524,1.000000,0.528267,0.334516,0.790477,1.000000,0.459011,0.864007,0.814028,2.000000
16,0.018145,0.000000,0.928861,0.466497,1.000000,0.000079,0.158524,0.274524,1.000000,0.528267,0.334516,0.790477,1.000000,0.459011,0.864007,0.814028,2.000000
17,0.018145,0.000000,0.928861,0.466497,1.000000,0.000079,0.158524,0.274524,1.000000,0.528267,0.334516,0.790477,1.000000,0.459011,0.864007,0.814028,2.000000
18,0.017994,0.000000,0.944135,0.557576,1.000000,0.077934,0.419926,0.158485,2.000000,0.594308,0.228018,0.880009,1.000000,0.795122,1.000000,0.333354,2.000000
19,0.017994,0.000000,0.944135,0.557576,1.000000,0.077934,0.419926,0.158485,2.000000,0.594308,0.228018,0.880009,1.000000,0.795122,1.000000,0.333354,2.000000
20,0.017994,0.000000,0.944135,0.557576,1.000000,0.077934,0.419926,0.158485,2.000000,0.594308,0.228018,0.880009,1.000000,0.795122,1.000000,0.333354,2.000000
21,0.017994,0.000000,0.944135,0.557576,1.000000,0.077934,0.419926,0.158485,2.000000,0.594308,0.228018,0.880009,1.000000,0.795122,1.000000,0.333354,2.000000
22,0.017648,0.069559,1.000000,0.405809,1.000000,0.106404,0.000000,0.267785,2.000000,0.584577,0.354152,0.899452,1.000000,0.056103,0.753028,0.764086,2.000000
23,0.017126,0.108130,0.974506,0.501004,1.000000,0.045182,0.001296,0.452093,2.000000,0.635141,0.260885,0.948029,1.000000,0.474683,0.876324,0.874371,2.000000
24,0.017126,0.108130,0.974506,0.501004,1.000000,0.045182,0.001296,0.452093,2.000000,0.635141,0.260885,0.948029,1.000000,0.474683,0.876324,0.874371,2.000000
25,0.017126,0.108130,0.974506,0.501004,1.000000,0.045182,0.001296,0.452093,2.000000,0.635141,0.260885,0.948029,1.000000,0.474683,0.876324,0.874371,2.000000
26,0.017126,0.108130,0.974506,0.501004,1.000000,0.045182,0.001296,0.452093,2.000000,0.635141,0.260885,0.948029,1.000000,0.474683,0.876324,0.874371,2.000000
27,0.017126,0.108130,0.974506,0.501004,1.000000,0.045182,0.001296,0.452093,2.000000,0.635141,0.260885,0.948029,1.000000,0.474683,0.876324,0.874371,2.000000
28,0.017126,0.108130,0.974506,0.501004,1.000000,0.045182,0.001296,0.452093,2.000000,0.635141,0.260885,0.948029,1.000000,0.474683,0.876324,0.874371,2.000000
29,0.017126,0.108130,0.974506,0.501004,1.000000,0.045182,0.001296,0.452093,2.000000,0.635141,0.260885,0.948029,1.000000,0.474683,0.876324,0.874371,2.000000
30,0.017126,0.108130,0.974506,0.501004,1.000000,0.045182,0.001296,0.452093,2.000000,0.635141,0.260885,0.948029,1.000000,0.474683,0.876324,0.874371,2.000000
31,0.017126,0.108130,0.974506,0.501004,1.000000,0.045182,0.001296,0.452093,2.000000,0.635141,0.260885,0.948029,1.000000,0.474683,0.876324,0.874371,2.000000
32,0.017126,0.108130,0.974506,0.501004,1.000000,0.045182,0.001296,0.452093,2.000000,0.635141,0.260885,0.948029,1.000000,0.474683,0.876324,0.874371,2.000000
33,0.017126,0.108130,0.974506,0.501004,1.000000,0.045182,0.001296,0.452093,2.000000,0.635141,0.260885,0.948029,1.000000,0.474683,0.876324,0.874371,2.000000
gen, fitness
0,0.045024,0.000000,1.000000,0.210000,0.800000,0.030000,0.030000,1.000000,0.000000,1.000000,0.000000,0.000000,0.600000,1.000000,1.000000,0.000000,0.000000
1,0.045024,0.000000,1.000000,0.210000,0.800000,0.030000,0.030000,1.000000,0.000000,1.000000,0.000000,0.000000,0.600000,1.000000,1.000000,0.000000,0.000000
2,0.014306,0.044395,0.979172,0.094505,0.919429,0.000000,0.120791,0.905334,1.000000,0.926420,0.006106,0.256340,0.781048,0.816764,0.940016,0.063993,1.000000
3,0.008115,0.148666,0.932863,0.207977,1.000000,0.000000,0.000000,0.905149,0.000000,0.848339,0.056275,0.017816,0.978232,0.667454,0.807842,0.000000,0.000000
4,0.006911,0.000000,1.000000,0.000000,1.000000,0.000000,0.093004,0.935076,2.000000,0.937265,0.000000,0.332603,0.921392,0.600459,0.911248,0.221766,2.000000
5,0.005796,0.061727,0.870861,0.254626,1.000000,0.000000,0.125187,0.879464,1.000000,0.542979,0.000000,0.270962,1.000000,0.649487,0.517004,0.000000,2.000000
6,0.004953,0.030146,0.882838,0.248981,1.000000,0.214229,0.085892,0.729526,2.000000,0.551167,0.000000,0.220302,1.000000,0.757023,0.839391,0.000000,2.000000
7,0.004953,0.030146,0.882838,0.248981,1.000000,0.214229,0.085892,0.729526,2.000000,0.551167,0.000000,0.220302,1.000000,0.757023,0.839391,0.000000,2.000000
8,0.004953,0.030146,0.882838,0.248981,1.000000,0.214229,0.085892,0.729526,2.000000,0.551167,0.000000,0.220302,1.000000,0.757023,0.839391,0.000000,2.000000
9,0.004953,0.030146,0.882838,0.248981,1.000000,0.214229,0.085892,0.729526,2.000000,0.551167,0.000000,0.220302,1.000000,0.757023,0.839391,0.000000,2.000000
10,0.004308,0.183587,1.000000,0.594805,1.000000,0.000000,0.212356,1.000000,2.000000,1.000000,0.038004,0.300786,1.000000,1.000000,1.000000,0.470190,2.000000
11,0.004308,0.183587,1.000000,0.594805,1.000000,0.000000,0.212356,1.000000,2.000000,1.000000,0.038004,0.300786,1.000000,1.000000,1.000000,0.470190,2.000000
12,0.004191,0.115416,0.798521,0.709198,0.988510,0.000000,0.157891,0.883089,1.000000,0.565918,0.208601,0.391543,1.000000,0.572542,0.586433,0.348443,2.000000
13,0.004191,0.115416,0.798521,0.709198,0.988510,0.000000,0.157891,0.883089,1.000000,0.565918,0.208601,0.391543,1.000000,0.572542,0.586433,0.348443,2.000000
14,0.004191,0.115416,0.798521,0.709198,0.988510,0.000000,0.157891,0.883089,1.000000,0.565918,0.208601,0.391543,1.000000,0.572542,0.586433,0.348443,2.000000
15,0.004191,0.115416,0.798521,0.709198,0.988510,0.000000,0.157891,0.883089,1.000000,0.565918,0.208601,0.391543,1.000000,0.572542,0.586433,0.348443,2.000000
16,0.004101,0.025600,1.000000,0.488300,1.000000,0.219394,0.299154,0.957443,2.000000,0.506084,0.009439,0.352829,1.000000,0.907743,0.901815,0.462407,2.000000
17,0.003899,0.186056,1.000000,0.432768,1.000000,0.030015,0.048745,1.000000,2.000000,0.536612,0.175525,0.465770,1.000000,0.780324,0.603194,0.330132,2.000000
18,0.003899,0.186056,1.000000,0.432768,1.000000,0.030015,0.048745,1.000000,2.000000,0.536612,0.175525,0.465770,1.000000,0.780324,0.603194,0.330132,2.000000
19,0.003746,0.116092,0.848057,0.678170,1.000000,0.219432,0.191599,1.000000,2.000000,0.716939,0.031773,0.616231,1.000000,0.828368,0.689206,0.148794,2.000000
20,0.003746,0.116092,0.848057,0.678170,1.000000,0.219432,0.191599,1.000000,2.000000,0.716939,0.031773,0.616231,1.000000,0.828368,0.689206,0.148794,2.000000
21,0.003672,0.000398,0.775687,0.552675,1.000000,0.149627,0.147768,0.714030,2.000000,0.367263,0.168576,0.550612,1.000000,0.914875,0.455242,0.390910,2.000000
22,0.003672,0.000398,0.775687,0.552675,1.000000,0.149627,0.147768,0.714030,2.000000,0.367263,0.168576,0.550612,1.000000,0.914875,0.455242,0.390910,2.000000
23,0.003672,0.000398,0.775687,0.552675,1.000000,0.149627,0.147768,0.714030,2.000000,0.367263,0.168576,0.550612,1.000000,0.914875,0.455242,0.390910,2.000000
24,0.003672,0.000398,0.775687,0.552675,1.000000,0.149627,0.147768,0.714030,2.000000,0.367263,0.168576,0.550612,1.000000,0.914875,0.455242,0.390910,2.000000
25,0.003672,0.000398,0.775687,0.552675,1.000000,0.149627,0.147768,0.714030,2.000000,0.367263,0.168576,0.550612,1.000000,0.914875,0.455242,0.390910,2.000000
26,0.003659,0.000000,0.409916,0.958009,1.000000,0.217540,0.057667,0.881974,2.000000,0.682976,0.069607,0.797292,1.000000,0.833474,0.497983,0.237795,1.000000
27,0.003649,0.000000,0.676240,1.000000,1.000000,0.119176,0.044979,0.771195,2.000000,0.726619,0.163293,0.921029,1.000000,0.634316,0.660398,0.187869,1.000000
28,0.003423,0.141463,0.816342,1.000000,1.000000,0.042405,0.182588,1.000000,1.000000,0.532240,0.000000,0.996103,1.000000,0.371493,0.508243,0.200823,2.000000
29,0.003423,0.141463,0.816342,1.000000,1.000000,0.042405,0.182588,1.000000,1.000000,0.532240,0.000000,0.996103,1.000000,0.371493,0.508243,0.200823,2.000000
30,0.003375,0.000000,0.854469,0.984534,1.000000,0.000000,0.485132,1.000000,2.000000,0.667188,0.139338,0.964260,1.000000,0.513333,0.468962,0.188923,1.000000
31,0.003349,0.000000,0.818875,0.932702,1.000000,0.000000,0.523331,1.000000,2.000000,0.495098,0.188390,0.847024,1.000000,0.666012,0.600997,0.267357,2.000000
32,0.003349,0.000000,0.818875,0.932702,1.000000,0.000000,0.523331,1.000000,2.000000,0.495098,0.188390,0.847024,1.000000,0.666012,0.600997,0.267357,2.000000
33,0.003349,0.000000,0.818875,0.932702,1.000000,0.000000,0.523331,1.000000,2.000000,0.495098,0.188390,0.847024,1.000000,0.666012,0.600997,0.267357,2.000000
34,0.003349,0.000000,0.818875,0.932702,1.000000,0.000000,0.523331,1.000000,2.000000,0.495098,0.188390,0.847024,1.000000,0.666012,0.600997,0.267357,2.000000
35,0.003349,0.000000,0.818875,0.932702,1.000000,0.000000,0.523331,1.000000,2.000000,0.495098,0.188390,0.847024,1.000000,0.666012,0.600997,0.267357,2.000000
36,0.003321,0.227886,0.775051,0.730666,1.000000,0.271059,0.350985,0.956839,2.000000,0.501401,0.071421,1.000000,1.000000,0.807526,0.592892,0.368655,2.000000
37,0.003193,0.025425,0.785961,0.799802,1.000000,0.000000,0.166988,1.000000,1.000000,0.398379,0.652764,1.000000,1.000000,0.755229,0.764823,0.678933,2.000000
38,0.003193,0.025425,0.785961,0.799802,1.000000,0.000000,0.166988,1.000000,1.000000,0.398379,0.652764,1.000000,1.000000,0.755229,0.764823,0.678933,2.000000
39,0.003193,0.025425,0.785961,0.799802,1.000000,0.000000,0.166988,1.000000,1.000000,0.398379,0.652764,1.000000,1.000000,0.755229,0.764823,0.678933,2.000000
40,0.003193,0.025425,0.785961,0.799802,1.000000,0.000000,0.166988,1.000000,1.000000,0.398379,0.652764,1.000000,1.000000,0.755229,0.764823,0.678933,2.000000
41,0.003193,0.025425,0.785961,0.799802,1.000000,0.000000,0.166988,1.000000,1.000000,0.398379,0.652764,1.000000,1.000000,0.755229,0.764823,0.678933,2.000000
42,0.003193,0.025425,0.785961,0.799802,1.000000,0.000000,0.166988,1.000000,1.000000,0.398379,0.652764,1.000000,1.000000,0.755229,0.764823,0.678933,2.000000
43,0.003193,0.025425,0.785961,0.799802,1.000000,0.000000,0.166988,1.000000,1.000000,0.398379,0.652764,1.000000,1.000000,0.755229,0.764823,0.678933,2.000000
44,0.003193,0.025425,0.785961,0.799802,1.000000,0.000000,0.166988,1.000000,1.000000,0.398379,0.652764,1.000000,1.000000,0.755229,0.764823,0.678933,2.000000
45,0.003193,0.025425,0.785961,0.799802,1.000000,0.000000,0.166988,1.000000,1.000000,0.398379,0.652764,1.000000,1.000000,0.755229,0.764823,0.678933,2.000000
46,0.003193,0.025425,0.785961,0.799802,1.000000,0.000000,0.166988,1.000000,1.000000,0.398379,0.652764,1.000000,1.000000,0.755229,0.764823,0.678933,2.000000
47,0.003193,0.000000,0.944535,0.841521,0.996751,0.000000,0.443146,0.977034,1.000000,0.393170,0.651232,1.000000,1.000000,0.959243,0.914517,0.818980,2.000000
gen, fitness
0,0.032391,0.000000,1.000000,0.210000,0.800000,0.030000,0.030000,1.000000,0.000000,1.000000,0.000000,0.000000,0.600000,1.000000,1.000000,0.000000,0.000000
1,0.032391,0.000000,1.000000,0.210000,0.800000,0.030000,0.030000,1.000000,0.000000,1.000000,0.000000,0.000000,0.600000,1.000000,1.000000,0.000000,0.000000
2,0.009100,0.000000,1.000000,0.169286,0.898215,0.197723,0.084383,1.000000,1.000000,1.000000,0.075380,0.116780,0.836752,1.000000,1.000000,0.028049,2.000000
3,0.009100,0.000000,1.000000,0.169286,0.898215,0.197723,0.084383,1.000000,1.000000,1.000000,0.075380,0.116780,0.836752,1.000000,1.000000,0.028049,2.000000
4,0.007759,0.000000,0.908745,0.238284,0.930951,0.000000,0.127757,1.000000,0.000000,0.978454,0.000000,0.000000,0.878094,1.000000,0.997993,0.335031,1.000000
5,0.005997,0.000000,0.870032,0.000000,1.000000,0.041418,0.023123,0.879235,1.000000,1.000000,0.068083,0.000000,0.993712,0.905107,0.836612,0.000000,2.000000
6,0.004232,0.123361,0.986199,0.162618,1.000000,0.033874,0.007784,1.000000,2.000000,1.000000,0.196380,0.032235,0.993411,0.791518,0.903917,0.037786,0.000000
7,0.003508,0.088887,0.890091,0.228053,1.000000,0.000000,0.096356,0.946868,1.000000,0.746278,0.082604,0.061635,1.000000,1.000000,1.000000,0.215812,1.000000
8,0.003508,0.088887,0.890091,0.228053,1.000000,0.000000,0.096356,0.946868,1.000000,0.746278,0.082604,0.061635,1.000000,1.000000,1.000000,0.215812,1.000000
9,0.002899,0.000000,1.000000,0.235849,1.000000,0.235467,0.000000,0.868876,2.000000,0.919943,0.223212,0.103842,1.000000,0.932946,1.000000,0.309214,2.000000
10,0.002856,0.203908,0.830392,0.193783,0.997037,0.493823,0.232278,1.000000,2.000000,0.808674,0.000000,0.277297,1.000000,0.852248,0.984759,0.499165,2.000000
11,0.002801,0.000000,0.894162,0.276390,1.000000,0.207823,0.040330,0.769337,2.000000,0.810217,0.016117,0.124413,1.000000,0.961060,0.834957,0.203291,2.000000
12,0.002633,0.084817,0.876028,0.356352,1.000000,0.000000,0.082367,1.000000,2.000000,0.884029,0.296940,0.276333,1.000000,0.730560,0.828888,0.069337,1.000000
13,0.002622,0.000000,0.914278,0.493012,1.000000,0.267994,0.169105,0.697201,2.000000,1.000000,0.107434,0.336469,1.000000,0.956825,0.844036,0.501784,0.000000
14,0.002622,0.000000,0.914278,0.493012,1.000000,0.267994,0.169105,0.697201,2.000000,1.000000,0.107434,0.336469,1.000000,0.956825,0.844036,0.501784,0.000000
15,0.002431,0.000000,0.880496,0.481947,1.000000,0.198692,0.105689,0.805582,1.000000,0.864177,0.000000,0.238819,1.000000,0.813461,0.947819,0.540904,2.000000
16,0.002431,0.000000,0.880496,0.481947,1.000000,0.198692,0.105689,0.805582,1.000000,0.864177,0.000000,0.238819,1.000000,0.813461,0.947819,0.540904,2.000000
17,0.002289,0.101114,0.553674,0.674728,1.000000,0.203413,0.746836,0.854943,0.000000,0.909596,0.160883,0.451652,1.000000,0.743794,1.000000,0.448807,2.000000
18,0.002214,0.008258,0.630581,0.474191,1.000000,0.096884,0.000000,0.958370,2.000000,0.691223,0.245698,0.521779,1.000000,0.675043,0.950458,0.000000,0.000000
19,0.001907,0.000000,0.470881,0.627058,1.000000,0.064156,0.100218,0.957214,1.000000,0.713277,0.191852,0.493016,1.000000,0.696284,0.883797,0.059281,2.000000
20,0.001723,0.000000,0.537654,0.779533,0.980275,0.001649,0.181599,0.934861,1.000000,0.580891,0.199581,0.505809,1.000000,0.779272,0.714148,0.262954,2.000000
21,0.001723,0.000000,0.537654,0.779533,0.980275,0.001649,0.181599,0.934861,1.000000,0.580891,0.199581,0.505809,1.000000,0.779272,0.714148,0.262954,2.000000
22,0.001650,0.109375,0.833081,0.636582,1.000000,0.000000,0.140255,0.901348,1.000000,0.665954,0.000000,0.810797,1.000000,0.813813,0.757567,0.246456,2.000000
23,0.001650,0.109375,0.833081,0.636582,1.000000,0.000000,0.140255,0.901348,1.000000,0.665954,0.000000,0.810797,1.000000,0.813813,0.757567,0.246456,2.000000
24,0.001650,0.109375,0.833081,0.636582,1.000000,0.000000,0.140255,0.901348,1.000000,0.665954,0.000000,0.810797,1.000000,0.813813,0.757567,0.246456,2.000000
25,0.001551,0.078677,1.000000,0.451152,1.000000,0.235009,0.000000,0.741260,2.000000,0.327554,0.099387,0.931358,1.000000,0.684269,0.818937,0.665285,1.000000
26,0.001471,0.097417,0.912724,0.993347,0.976093,0.181900,0.557555,0.964922,1.000000,0.334707,0.166842,0.861766,1.000000,1.000000,0.562891,0.000000,2.000000
27,0.001471,0.097417,0.912724,0.993347,0.976093,0.181900,0.557555,0.964922,1.000000,0.334707,0.166842,0.861766,1.000000,1.000000,0.562891,0.000000,2.000000
28,0.001471,0.097417,0.912724,0.993347,0.976093,0.181900,0.557555,0.964922,1.000000,0.334707,0.166842,0.861766,1.000000,1.000000,0.562891,0.000000,2.000000
29,0.001471,0.097417,0.912724,0.993347,0.976093,0.181900,0.557555,0.964922,1.000000,0.334707,0.166842,0.861766,1.000000,1.000000,0.562891,0.000000,2.000000
30,0.001399,0.055822,0.950441,0.345310,1.000000,0.119341,0.153422,0.825035,2.000000,0.157184,0.101070,0.966052,1.000000,0.757578,0.797277,0.901067,1.000000
31,0.001399,0.055822,0.950441,0.345310,1.000000,0.119341,0.153422,0.825035,2.000000,0.157184,0.101070,0.966052,1.000000,0.757578,0.797277,0.901067,1.000000
32,0.001391,0.000000,0.951112,0.478958,1.000000,0.066701,0.392672,0.814413,0.000000,0.001537,0.045884,1.000000,1.000000,0.630937,0.800483,0.975024,2.000000
33,0.001391,0.000000,0.951112,0.478958,1.000000,0.066701,0.392672,0.814413,0.000000,0.001537,0.045884,1.000000,1.000000,0.630937,0.800483,0.975024,2.000000
34,0.001391,0.000000,0.951112,0.478958,1.000000,0.066701,0.392672,0.814413,0.000000,0.001537,0.045884,1.000000,1.000000,0.630937,0.800483,0.975024,2.000000
35,0.001391,0.000000,0.951112,0.478958,1.000000,0.066701,0.392672,0.814413,0.000000,0.001537,0.045884,1.000000,1.000000,0.630937,0.800483,0.975024,2.000000
36,0.001354,0.000000,0.899211,0.300692,1.000000,0.145270,0.460786,0.798453,2.000000,0.005204,0.000000,0.947377,1.000000,0.608831,0.838308,1.000000,1.000000
37,0.001354,0.000000,0.899211,0.300692,1.000000,0.145270,0.460786,0.798453,2.000000,0.005204,0.000000,0.947377,1.000000,0.608831,0.838308,1.000000,1.000000
38,0.001281,0.000000,0.768358,0.597473,1.000000,0.012846,0.141644,1.000000,2.000000,0.394342,0.172747,0.977473,1.000000,0.349397,0.947116,0.599759,2.000000
39,0.001281,0.000000,0.768358,0.597473,1.000000,0.012846,0.141644,1.000000,2.000000,0.394342,0.172747,0.977473,1.000000,0.349397,0.947116,0.599759,2.000000
40,0.001281,0.000000,0.768358,0.597473,1.000000,0.012846,0.141644,1.000000,2.000000,0.394342,0.172747,0.977473,1.000000,0.349397,0.947116,0.599759,2.000000
41,0.001281,0.000000,0.768358,0.597473,1.000000,0.012846,0.141644,1.000000,2.000000,0.394342,0.172747,0.977473,1.000000,0.349397,0.947116,0.599759,2.000000
42,0.001187,0.000000,1.000000,0.276605,1.000000,0.000000,0.504331,1.000000,2.000000,0.000000,0.195376,0.864406,1.000000,0.888183,0.745231,1.000000,2.000000
43,0.001187,0.000000,1.000000,0.276605,1.000000,0.000000,0.504331,1.000000,2.000000,0.000000,0.195376,0.864406,1.000000,0.888183,0.745231,1.000000,2.000000
44,0.001187,0.000000,1.000000,0.276605,1.000000,0.000000,0.504331,1.000000,2.000000,0.000000,0.195376,0.864406,1.000000,0.888183,0.745231,1.000000,2.000000
45,0.001187,0.000000,1.000000,0.276605,1.000000,0.000000,0.504331,1.000000,2.000000,0.000000,0.195376,0.864406,1.000000,0.888183,0.745231,1.000000,2.000000
46,0.001187,0.000000,1.000000,0.276605,1.000000,0.000000,0.504331,1.000000,2.000000,0.000000,0.195376,0.864406,1.000000,0.888183,0.745231,1.000000,2.000000
47,0.001187,0.000000,1.000000,0.276605,1.000000,0.000000,0.504331,1.000000,2.000000,0.000000,0.195376,0.864406,1.000000,0.888183,0.745231,1.000000,2.000000
48,0.001187,0.000000,1.000000,0.276605,1.000000,0.000000,0.504331,1.000000,2.000000,0.000000,0.195376,0.864406,1.000000,0.888183,0.745231,1.000000,2.000000
49,0.001187,0.000000,1.000000,0.276605,1.000000,0.000000,0.504331,1.000000,2.000000,0.000000,0.195376,0.864406,1.000000,0.888183,0.745231,1.000000,2.000000
50,0.001187,0.000000,1.000000,0.276605,1.000000,0.000000,0.504331,1.000000,2.000000,0.000000,0.195376,0.864406,1.000000,0.888183,0.745231,1.000000,2.000000
51,0.001187,0.000000,1.000000,0.276605,1.000000,0.000000,0.504331,1.000000,2.000000,0.000000,0.195376,0.864406,1.000000,0.888183,0.745231,1.000000,2.000000
52,0.001187,0.000000,1.000000,0.276605,1.000000,0.000000,0.504331,1.000000,2.000000,0.000000,0.195376,0.864406,1.000000,0.888183,0.745231,1.000000,2.000000
gen, fitness
0,0.082103,0.000000,1.000000,0.210000,0.800000,0.030000,0.030000,1.000000,0.000000,1.000000,0.000000,0.000000,0.600000,1.000000,1.000000,0.000000,0.000000
1,0.082103,0.000000,1.000000,0.210000,0.800000,0.030000,0.030000,1.000000,0.000000,1.000000,0.000000,0.000000,0.600000,1.000000,1.000000,0.000000,0.000000
2,0.054038,0.000000,0.931581,0.408856,0.871728,0.000000,0.035697,0.889503,1.000000,0.960542,0.000000,0.021764,0.773704,1.000000,1.000000,0.075935,2.000000
3,0.035754,0.100835,0.933227,0.356406,0.967003,0.000000,0.007471,0.894770,2.000000,0.739864,0.081241,0.323046,0.970345,0.990963,1.000000,0.000000,0.000000
4,0.035083,0.131187,1.000000,0.307450,0.994218,0.068170,0.193179,1.000000,2.000000,0.961612,0.136192,0.254345,0.937246,1.000000,0.777271,0.000000,2.000000
5,0.030805,0.051683,0.816423,0.492635,0.986115,0.194729,0.177138,0.751911,2.000000,0.779677,0.111095,0.060780,1.000000,1.000000,0.921255,0.178734,1.000000
6,0.030805,0.051683,0.816423,0.492635,0.986115,0.194729,0.177138,0.751911,2.000000,0.779677,0.111095,0.060780,1.000000,1.000000,0.921255,0.178734,1.000000
7,0.029123,0.138534,0.950247,0.507870,1.000000,0.036292,0.064354,0.940296,1.000000,0.551121,0.033624,0.334716,1.000000,0.706216,0.960860,0.112768,2.000000
8,0.028118,0.406196,0.802313,0.761642,1.000000,0.375896,0.000000,1.000000,2.000000,1.000000,0.219565,0.284420,1.000000,0.880538,0.526592,0.123837,2.000000
9,0.027089,0.131242,0.992239,0.674341,1.000000,0.002030,0.469063,0.982691,2.000000,0.487231,0.000000,0.247919,1.000000,0.442872,0.595953,0.000000,1.000000
10,0.025949,0.467961,0.769414,0.811481,1.000000,0.000000,0.367889,0.824194,2.000000,0.484593,0.055230,0.545022,1.000000,0.531983,0.739313,0.000000,2.000000
11,0.025949,0.467961,0.769414,0.811481,1.000000,0.000000,0.367889,0.824194,2.000000,0.484593,0.055230,0.545022,1.000000,0.531983,0.739313,0.000000,2.000000
12,0.025103,0.002758,0.983963,0.851231,1.000000,0.047716,0.427035,0.916077,2.000000,0.438495,0.145037,0.453207,1.000000,0.484963,0.559581,0.007317,0.000000
13,0.024713,0.322311,0.936589,0.977641,1.000000,0.000000,0.380563,0.776921,2.000000,0.582441,0.104712,0.753328,1.000000,0.515837,0.702628,0.000000,0.000000
14,0.024713,0.322311,0.936589,0.977641,1.000000,0.000000,0.380563,0.776921,2.000000,0.582441,0.104712,0.753328,1.000000,0.515837,0.702628,0.000000,0.000000
15,0.024713,0.322311,0.936589,0.977641,1.000000,0.000000,0.380563,0.776921,2.000000,0.582441,0.104712,0.753328,1.000000,0.515837,0.702628,0.000000,0.000000
16,0.024182,0.785358,0.905027,0.946536,0.982766,0.092420,0.272510,0.831544,2.000000,0.540416,0.104293,0.853611,1.000000,0.681035,0.178946,0.408409,1.000000
17,0.024182,0.785358,0.905027,0.946536,0.982766,0.092420,0.272510,0.831544,2.000000,0.540416,0.104293,0.853611,1.000000,0.681035,0.178946,0.408409,1.000000
18,0.024083,0.287498,0.709858,0.895182,1.000000,0.112917,0.770967,0.949947,2.000000,0.367954,0.662383,0.515962,1.000000,0.844254,0.038129,0.115180,2.000000
19,0.022808,0.877347,1.000000,0.925459,1.000000,0.074226,0.248359,0.954674,2.000000,0.156949,0.123862,1.000000,1.000000,0.603218,0.031237,0.512973,2.000000
20,0.022808,0.877347,1.000000,0.925459,1.000000,0.074226,0.248359,0.954674,2.000000,0.156949,0.123862,1.000000,1.000000,0.603218,0.031237,0.512973,2.000000
21,0.022808,0.877347,1.000000,0.925459,1.000000,0.074226,0.248359,0.954674,2.000000,0.156949,0.123862,1.000000,1.000000,0.603218,0.031237,0.512973,2.000000
22,0.022808,0.877347,1.000000,0.925459,1.000000,0.074226,0.248359,0.954674,2.000000,0.156949,0.123862,1.000000,1.000000,0.603218,0.031237,0.512973,2.000000
23,0.021965,0.357546,0.960952,1.000000,1.000000,0.127246,0.132165,1.000000,2.000000,0.102631,0.028606,0.830973,1.000000,0.691638,0.000000,0.483673,1.000000
24,0.021965,0.357546,0.960952,1.000000,1.000000,0.127246,0.132165,1.000000,2.000000,0.102631,0.028606,0.830973,1.000000,0.691638,0.000000,0.483673,1.000000
25,0.021368,0.404215,0.784097,1.000000,0.967080,0.378219,0.168915,1.000000,2.000000,0.000000,0.000000,0.917336,1.000000,0.770901,0.251922,0.984949,2.000000
26,0.021368,0.404215,0.784097,1.000000,0.967080,0.378219,0.168915,1.000000,2.000000,0.000000,0.000000,0.917336,1.000000,0.770901,0.251922,0.984949,2.000000
27,0.021368,0.404215,0.784097,1.000000,0.967080,0.378219,0.168915,1.000000,2.000000,0.000000,0.000000,0.917336,1.000000,0.770901,0.251922,0.984949,2.000000
28,0.021368,0.404215,0.784097,1.000000,0.967080,0.378219,0.168915,1.000000,2.000000,0.000000,0.000000,0.917336,1.000000,0.770901,0.251922,0.984949,2.000000
29,0.021368,0.404215,0.784097,1.000000,0.967080,0.378219,0.168915,1.000000,2.000000,0.000000,0.000000,0.917336,1.000000,0.770901,0.251922,0.984949,2.000000
30,0.021368,0.404215,0.784097,1.000000,0.967080,0.378219,0.168915,1.000000,2.000000,0.000000,0.000000,0.917336,1.000000,0.770901,0.251922,0.984949,2.000000
31,0.021368,0.404215,0.784097,1.000000,0.967080,0.378219,0.168915,1.000000,2.000000,0.000000,0.000000,0.917336,1.000000,0.770901,0.251922,0.984949,2.000000
32,0.021368,0.404215,0.784097,1.000000,0.967080,0.378219,0.168915,1.000000,2.000000,0.000000,0.000000,0.917336,1.000000,0.770901,0.251922,0.984949,2.000000
33,0.021368,0.404215,0.784097,1.000000,0.967080,0.378219,0.168915,1.000000,2.000000,0.000000,0.000000,0.917336,1.000000,0.770901,0.251922,0.984949,2.000000
34,0.021368,0.404215,0.784097,1.000000,0.967080,0.378219,0.168915,1.000000,2.000000,0.000000,0.000000,0.917336,1.000000,0.770901,0.251922,0.984949,2.000000
35,0.021368,0.404215,0.784097,1.000000,0.967080,0.378219,0.168915,1.000000,2.000000,0.000000,0.000000,0.917336,1.000000,0.770901,0.251922,0.984949,2.000000
