gen, fitness
0,0.027983,0.000000,1.000000,0.210000,0.800000,0.030000,0.030000,1.000000,0.000000,1.000000,0.000000,0.000000,0.600000,1.000000,1.000000,0.000000,0.000000
1,0.027983,0.000000,1.000000,0.210000,0.800000,0.030000,0.030000,1.000000,0.000000,1.000000,0.000000,0.000000,0.600000,1.000000,1.000000,0.000000,0.000000
2,0.007974,0.000000,1.000000,0.283017,0.800000,0.000000,0.030000,0.990347,1.000000,1.000000,0.000000,0.033412,0.790541,1.000000,1.000000,0.000000,0.000000
3,0.007346,0.000000,1.000000,0.210000,0.892726,0.000000,0.000000,1.000000,2.000000,0.996397,0.000000,0.000000,0.921718,1.000000,0.969805,0.000000,2.000000
4,0.003695,0.000000,1.000000,0.210000,0.892726,0.000000,0.000000,0.993883,1.000000,0.996397,0.000000,0.000000,0.860209,1.000000,0.969805,0.164306,2.000000
5,0.003695,0.000000,1.000000,0.210000,0.892726,0.000000,0.000000,0.993883,1.000000,0.996397,0.000000,0.000000,0.860209,1.000000,0.969805,0.164306,2.000000
6,0.002871,0.004448,1.000000,0.210000,0.926246,0.000000,0.028475,1.000000,2.000000,0.996397,0.000000,0.000000,0.921718,0.887717,0.969805,0.000000,0.000000
7,0.001265,0.014375,0.949949,0.283017,0.977191,0.033585,0.000000,0.917432,1.000000,0.834156,0.274409,0.061817,1.000000,0.911657,1.000000,0.000000,1.000000
8,0.001265,0.014375,0.949949,0.283017,0.977191,0.033585,0.000000,0.917432,1.000000,0.834156,0.274409,0.061817,1.000000,0.911657,1.000000,0.000000,1.000000
9,0.000749,0.004448,1.000000,0.272887,1.000000,0.149936,0.000000,0.779476,0.000000,0.805561,0.012193,0.260004,1.000000,0.825959,1.000000,0.000000,2.000000
10,0.000653,0.000000,1.000000,0.272887,1.000000,0.277089,0.000000,0.655571,2.000000,0.946299,0.000000,0.321550,0.993132,0.998076,0.995179,0.170593,2.000000
11,0.000439,0.000000,1.000000,0.415358,1.000000,0.149936,0.000000,0.779476,2.000000,0.913390,0.211211,0.494743,1.000000,0.815007,0.938654,0.000034,2.000000
12,0.000439,0.000000,1.000000,0.415358,1.000000,0.149936,0.000000,0.779476,2.000000,0.913390,0.211211,0.494743,1.000000,0.815007,0.938654,0.000034,2.000000
13,0.000439,0.000000,1.000000,0.415358,1.000000,0.149936,0.000000,0.779476,2.000000,0.913390,0.211211,0.494743,1.000000,0.815007,0.938654,0.000034,2.000000
14,0.000439,0.000000,1.000000,0.415358,1.000000,0.149936,0.000000,0.779476,2.000000,0.913390,0.211211,0.494743,1.000000,0.815007,0.938654,0.000034,2.000000
15,0.000403,0.025885,1.000000,0.426543,1.000000,0.000000,0.203578,0.807443,2.000000,0.917041,0.042581,0.516681,1.000000,0.662495,0.961939,0.461442,2.000000
16,0.000374,0.000000,0.887323,0.406310,1.000000,0.000000,0.000000,0.950901,2.000000,0.919973,0.225113,0.494743,1.000000,1.000000,0.929581,0.112510,2.000000
17,0.000374,0.000000,0.887323,0.406310,1.000000,0.000000,0.000000,0.950901,2.000000,0.919973,0.225113,0.494743,1.000000,1.000000,0.929581,0.112510,2.000000
18,0.000374,0.000000,0.887323,0.406310,1.000000,0.000000,0.000000,0.950901,2.000000,0.919973,0.225113,0.494743,1.000000,1.000000,0.929581,0.112510,2.000000
19,0.000374,0.000000,0.887323,0.406310,1.000000,0.000000,0.000000,0.950901,2.000000,0.919973,0.225113,0.494743,1.000000,1.000000,0.929581,0.112510,2.000000
20,0.000342,0.000000,0.475588,0.393939,1.000000,0.000000,0.000000,0.852949,2.000000,0.932782,0.150262,0.494743,1.000000,1.000000,0.929581,0.617399,2.000000
21,0.000342,0.000000,0.475588,0.393939,1.000000,0.000000,0.000000,0.852949,2.000000,0.932782,0.150262,0.494743,1.000000,1.000000,0.929581,0.617399,2.000000
22,0.000342,0.000000,0.475588,0.393939,1.000000,0.000000,0.000000,0.852949,2.000000,0.932782,0.150262,0.494743,1.000000,1.000000,0.929581,0.617399,2.000000
23,0.000342,0.000000,0.475588,0.393939,1.000000,0.000000,0.000000,0.852949,2.000000,0.932782,0.150262,0.494743,1.000000,1.000000,0.929581,0.617399,2.000000
24,0.000342,0.000000,0.475588,0.393939,1.000000,0.000000,0.000000,0.852949,2.000000,0.932782,0.150262,0.494743,1.000000,1.000000,0.929581,0.617399,2.000000
25,0.000342,0.000000,0.475588,0.393939,1.000000,0.000000,0.000000,0.852949,2.000000,0.932782,0.150262,0.494743,1.000000,1.000000,0.929581,0.617399,2.000000
26,0.000337,0.000000,1.000000,0.440920,1.000000,0.095861,0.053711,0.869186,2.000000,0.651839,0.061649,0.677020,1.000000,0.750845,0.714288,0.000000,2.000000
27,0.000280,0.000000,1.000000,0.379967,1.000000,0.030556,0.017239,0.960317,2.000000,0.589091,0.150889,0.728611,1.000000,0.736853,0.714288,0.000000,2.000000
28,0.000280,0.000000,1.000000,0.379967,1.000000,0.030556,0.017239,0.960317,2.000000,0.589091,0.150889,0.728611,1.000000,0.736853,0.714288,0.000000,2.000000
29,0.000280,0.000000,1.000000,0.379967,1.000000,0.030556,0.017239,0.960317,2.000000,0.589091,0.150889,0.728611,1.000000,0.736853,0.714288,0.000000,2.000000
30,0.000275,0.059364,0.554204,0.458275,1.000000,0.000000,0.207411,0.989398,2.000000,0.614047,0.133347,0.813375,1.000000,0.881920,0.712145,0.027089,2.000000
31,0.000275,0.059364,0.554204,0.458275,1.000000,0.000000,0.207411,0.989398,2.000000,0.614047,0.133347,0.813375,1.000000,0.881920,0.712145,0.027089,2.000000
32,0.000275,0.059364,0.554204,0.458275,1.000000,0.000000,0.207411,0.989398,2.000000,0.614047,0.133347,0.813375,1.000000,0.881920,0.712145,0.027089,2.000000
33,0.000267,0.012107,1.000000,0.441268,1.000000,0.008604,0.164802,0.989398,2.000000,0.768858,0.362023,0.813375,1.000000,0.969296,0.931392,0.541476,2.000000
34,0.000234,0.000000,1.000000,0.349762,1.000000,0.111895,0.026619,1.000000,2.000000,0.628616,0.303116,0.704361,1.000000,0.924427,0.991701,0.541476,2.000000
35,0.000234,0.000000,1.000000,0.349762,1.000000,0.111895,0.026619,1.000000,2.000000,0.628616,0.303116,0.704361,1.000000,0.924427,0.991701,0.541476,2.000000
36,0.000230,0.000000,0.917236,0.441268,1.000000,0.000000,0.164802,0.989398,2.000000,0.768858,0.362023,0.730043,1.000000,1.000000,0.931392,0.670410,2.000000
37,0.000230,0.000000,0.917236,0.441268,1.000000,0.000000,0.164802,0.989398,2.000000,0.768858,0.362023,0.730043,1.000000,1.000000,0.931392,0.670410,2.000000
38,0.000216,0.000000,0.917236,0.531408,1.000000,0.000000,0.299412,1.000000,2.000000,0.791091,0.362023,0.833234,1.000000,1.000000,0.931392,0.670410,2.000000
39,0.000212,0.094658,1.000000,0.369011,1.000000,0.012390,0.031548,0.958060,2.000000,0.628616,0.316918,0.827334,1.000000,0.924427,0.860751,0.701350,2.000000
40,0.000212,0.094658,1.000000,0.369011,1.000000,0.012390,0.031548,0.958060,2.000000,0.628616,0.316918,0.827334,1.000000,0.924427,0.860751,0.701350,2.000000
41,0.000205,0.000000,0.833007,0.416114,1.000000,0.171613,0.209536,0.977807,2.000000,0.587677,0.297837,0.904991,1.000000,0.793486,0.906579,0.705431,2.000000
42,0.000203,0.000000,0.950232,0.431483,1.000000,0.192316,0.211021,1.000000,2.000000,0.634937,0.391279,0.863075,1.000000,0.896896,0.906579,0.724463,2.000000
43,0.000203,0.000000,0.950232,0.431483,1.000000,0.192316,0.211021,1.000000,2.000000,0.634937,0.391279,0.863075,1.000000,0.896896,0.906579,0.724463,2.000000
44,0.000203,0.000000,0.950232,0.431483,1.000000,0.192316,0.211021,1.000000,2.000000,0.634937,0.391279,0.863075,1.000000,0.896896,0.906579,0.724463,2.000000
45,0.000203,0.000000,0.950232,0.431483,1.000000,0.192316,0.211021,1.000000,2.000000,0.634937,0.391279,0.863075,1.000000,0.896896,0.906579,0.724463,2.000000
46,0.000203,0.000000,0.950232,0.431483,1.000000,0.192316,0.211021,1.000000,2.000000,0.634937,0.391279,0.863075,1.000000,0.896896,0.906579,0.724463,2.000000
47,0.000178,0.000000,0.881294,0.431483,1.000000,0.192316,0.032858,1.000000,2.000000,0.634937,0.391279,0.867277,1.000000,0.896896,0.906579,0.968538,2.000000
48,0.000178,0.000000,0.881294,0.431483,1.000000,0.192316,0.032858,1.000000,2.000000,0.634937,0.391279,0.867277,1.000000,0.896896,0.906579,0.968538,2.000000
49,0.000178,0.000000,0.881294,0.431483,1.000000,0.192316,0.032858,1.000000,2.000000,0.634937,0.391279,0.867277,1.000000,0.896896,0.906579,0.968538,2.000000
50,0.000178,0.000000,0.881294,0.431483,1.000000,0.192316,0.032858,1.000000,2.000000,0.634937,0.391279,0.867277,1.000000,0.896896,0.906579,0.968538,2.000000
51,0.000154,0.000000,0.890015,0.409798,1.000000,0.171073,0.032858,0.953444,2.000000,0.522670,0.338993,1.000000,1.000000,0.844271,0.843292,1.000000,2.000000
52,0.000154,0.000000,0.890015,0.409798,1.000000,0.171073,0.032858,0.953444,2.000000,0.522670,0.338993,1.000000,1.000000,0.844271,0.843292,1.000000,2.000000
53,0.000154,0.000000,0.890015,0.409798,1.000000,0.171073,0.032858,0.953444,2.000000,0.522670,0.338993,1.000000,1.000000,0.844271,0.843292,1.000000,2.000000
54,0.000154,0.000000,0.890015,0.409798,1.000000,0.171073,0.032858,0.953444,2.000000,0.522670,0.338993,1.000000,1.000000,0.844271,0.843292,1.000000,2.000000
55,0.000154,0.000000,0.890015,0.409798,1.000000,0.171073,0.032858,0.953444,2.000000,0.522670,0.338993,1.000000,1.000000,0.844271,0.843292,1.000000,2.000000
56,0.000152,0.000000,0.906443,0.431483,1.000000,0.281627,0.000000,0.953444,2.000000,0.522670,0.338993,1.000000,1.000000,0.844271,0.804956,1.000000,2.000000
57,0.000152,0.000000,0.906443,0.431483,1.000000,0.281627,0.000000,0.953444,2.000000,0.522670,0.338993,1.000000,1.000000,0.844271,0.804956,1.000000,2.000000
58,0.000152,0.000000,0.906443,0.431483,1.000000,0.281627,0.000000,0.953444,2.000000,0.522670,0.338993,1.000000,1.000000,0.844271,0.804956,1.000000,2.000000
59,0.000152,0.000000,0.906443,0.431483,1.000000,0.281627,0.000000,0.953444,2.000000,0.522670,0.338993,1.000000,1.000000,0.844271,0.804956,1.000000,2.000000
60,0.000152,0.000000,0.881294,0.425995,1.000000,0.207132,0.000000,1.000000,2.000000,0.513019,0.565867,1.000000,1.000000,0.967563,0.920933,1.000000,2.000000
61,0.000152,0.000000,0.881294,0.425995,1.000000,0.207132,0.000000,1.000000,2.000000,0.513019,0.565867,1.000000,1.000000,0.967563,0.920933,1.000000,2.000000
gen, fitness
0,0.112030,0.000000,1.000000,0.210000,0.800000,0.030000,0.030000,1.000000,0.000000,1.000000,0.000000,0.000000,0.600000,1.000000,1.000000,0.000000,0.000000
1,0.112030,0.000000,1.000000,0.210000,0.800000,0.030000,0.030000,1.000000,0.000000,1.000000,0.000000,0.000000,0.600000,1.000000,1.000000,0.000000,0.000000
2,0.085180,0.000000,1.000000,0.210000,0.865358,0.030000,0.030000,1.000000,0.000000,1.000000,0.000000,0.048533,0.719978,1.000000,0.954606,0.000000,2.000000
3,0.069827,0.073777,0.904195,0.243560,0.865358,0.030000,0.027788,1.000000,0.000000,0.923878,0.000000,0.048533,0.811822,0.896292,1.000000,0.047639,2.000000
4,0.066641,0.000000,0.957341,0.322029,0.865358,0.030000,0.043392,0.970215,2.000000,1.000000,0.185292,0.048533,0.879283,1.000000,1.000000,0.185460,0.000000
5,0.055030,0.000000,1.000000,0.399463,0.944074,0.110200,0.098799,0.813987,0.000000,0.906056,0.000000,0.000000,1.000000,0.971367,0.815741,0.000000,2.000000
6,0.048141,0.000000,1.000000,0.290152,1.000000,0.082775,0.043392,0.899243,1.000000,1.000000,0.308158,0.048533,0.963357,1.000000,0.961704,0.131697,2.000000
7,0.044834,0.000000,0.904195,0.162179,1.000000,0.145026,0.028723,0.764202,2.000000,0.902416,0.160315,0.048533,1.000000,1.000000,1.000000,0.000000,2.000000
8,0.041047,0.000000,1.000000,0.319714,1.000000,0.238180,0.004433,0.815913,2.000000,1.000000,0.379465,0.172873,1.000000,0.971367,0.815741,0.260177,2.000000
9,0.041012,0.027660,1.000000,0.381947,1.000000,0.119425,0.000000,0.824227,2.000000,0.953566,0.000000,0.196889,1.000000,0.829498,0.949548,0.188351,2.000000
10,0.039241,0.000000,1.000000,0.241825,1.000000,0.095935,0.068727,1.000000,2.000000,1.000000,0.000000,0.409227,1.000000,0.970960,0.696229,0.000000,2.000000
11,0.039031,0.027660,1.000000,0.381947,0.997570,0.085363,0.000000,0.835700,2.000000,0.953566,0.153121,0.311978,1.000000,0.810489,0.964733,0.223467,2.000000
12,0.037771,0.000000,1.000000,0.282489,1.000000,0.000000,0.068727,0.877979,2.000000,1.000000,0.000000,0.513896,1.000000,1.000000,0.881634,0.000000,2.000000
13,0.037771,0.000000,1.000000,0.282489,1.000000,0.000000,0.068727,0.877979,2.000000,1.000000,0.000000,0.513896,1.000000,1.000000,0.881634,0.000000,2.000000
14,0.036390,0.000000,0.931062,0.518357,1.000000,0.085363,0.000000,0.835700,2.000000,1.000000,0.181264,0.399910,1.000000,0.963635,0.936941,0.535242,2.000000
15,0.036390,0.000000,0.931062,0.518357,1.000000,0.085363,0.000000,0.835700,2.000000,1.000000,0.181264,0.399910,1.000000,0.963635,0.936941,0.535242,2.000000
16,0.035060,0.000000,1.000000,0.392346,1.000000,0.000000,0.014668,0.898297,2.000000,0.917147,0.225003,0.707108,1.000000,0.932969,0.845637,0.114940,2.000000
17,0.035060,0.000000,1.000000,0.392346,1.000000,0.000000,0.014668,0.898297,2.000000,0.917147,0.225003,0.707108,1.000000,0.932969,0.845637,0.114940,2.000000
18,0.033934,0.090349,1.000000,0.518357,1.000000,0.140555,0.064616,0.792290,2.000000,1.000000,0.181264,0.804561,1.000000,0.832014,0.827660,0.340573,2.000000
19,0.032725,0.000000,0.995524,0.403044,1.000000,0.000000,0.000000,0.907314,2.000000,0.887414,0.073535,0.945585,0.968465,1.000000,0.782845,0.401655,2.000000
20,0.032725,0.000000,0.995524,0.403044,1.000000,0.000000,0.000000,0.907314,2.000000,0.887414,0.073535,0.945585,0.968465,1.000000,0.782845,0.401655,2.000000
21,0.032725,0.000000,0.995524,0.403044,1.000000,0.000000,0.000000,0.907314,2.000000,0.887414,0.073535,0.945585,0.968465,1.000000,0.782845,0.401655,2.000000
22,0.032725,0.000000,0.995524,0.403044,1.000000,0.000000,0.000000,0.907314,2.000000,0.887414,0.073535,0.945585,0.968465,1.000000,0.782845,0.401655,2.000000
23,0.032519,0.000000,0.921531,0.583461,1.000000,0.000000,0.110352,0.996832,2.000000,0.797958,0.039127,1.000000,0.968465,0.861646,0.598294,0.543426,2.000000
24,0.031204,0.000000,0.995364,0.500308,1.000000,0.063067,0.000000,1.000000,2.000000,0.587171,0.000000,1.000000,1.000000,0.849784,0.961795,0.633139,2.000000
25,0.031204,0.000000,0.995364,0.500308,1.000000,0.063067,0.000000,1.000000,2.000000,0.587171,0.000000,1.000000,1.000000,0.849784,0.961795,0.633139,2.000000
26,0.031204,0.000000,0.995364,0.500308,1.000000,0.063067,0.000000,1.000000,2.000000,0.587171,0.000000,1.000000,1.000000,0.849784,0.961795,0.633139,2.000000
27,0.031101,0.000000,1.000000,0.684595,1.000000,0.000000,0.000000,0.978040,2.000000,0.780375,0.168898,1.000000,1.000000,0.650882,0.961795,0.736689,2.000000
28,0.031101,0.000000,1.000000,0.684595,1.000000,0.000000,0.000000,0.978040,2.000000,0.780375,0.168898,1.000000,1.000000,0.650882,0.961795,0.736689,2.000000
29,0.031084,0.000000,1.000000,0.664597,1.000000,0.000000,0.000000,1.000000,2.000000,0.780375,0.163203,1.000000,1.000000,0.610305,0.932592,0.736689,2.000000
30,0.031084,0.000000,1.000000,0.664597,1.000000,0.000000,0.000000,1.000000,2.000000,0.780375,0.163203,1.000000,1.000000,0.610305,0.932592,0.736689,2.000000
31,0.030920,0.037245,1.000000,0.516878,1.000000,0.050954,0.000000,1.000000,2.000000,0.694924,0.000000,1.000000,1.000000,0.890566,0.961795,0.808172,2.000000
32,0.030920,0.037245,1.000000,0.516878,1.000000,0.050954,0.000000,1.000000,2.000000,0.694924,0.000000,1.000000,1.000000,0.890566,0.961795,0.808172,2.000000
33,0.030890,0.000000,1.000000,0.437708,1.000000,0.000000,0.000000,1.000000,2.000000,0.848856,0.224248,1.000000,0.983265,0.942182,0.980775,0.890850,2.000000
34,0.030890,0.000000,1.000000,0.437708,1.000000,0.000000,0.000000,1.000000,2.000000,0.848856,0.224248,1.000000,0.983265,0.942182,0.980775,0.890850,2.000000
35,0.030799,0.115428,1.000000,0.437708,1.000000,0.000000,0.000000,1.000000,2.000000,0.848856,0.224248,1.000000,1.000000,0.942182,1.000000,1.000000,2.000000
36,0.030799,0.115428,1.000000,0.437708,1.000000,0.000000,0.000000,1.000000,2.000000,0.848856,0.224248,1.000000,1.000000,0.942182,1.000000,1.000000,2.000000
37,0.030799,0.115428,1.000000,0.437708,1.000000,0.000000,0.000000,1.000000,2.000000,0.848856,0.224248,1.000000,1.000000,0.942182,1.000000,1.000000,2.000000
38,0.030799,0.115428,1.000000,0.437708,1.000000,0.000000,0.000000,1.000000,2.000000,0.848856,0.224248,1.000000,1.000000,0.942182,1.000000,1.000000,2.000000
39,0.030799,0.115428,1.000000,0.437708,1.000000,0.000000,0.000000,1.000000,2.000000,0.848856,0.224248,1.000000,1.000000,0.942182,1.000000,1.000000,2.000000
40,0.030476,0.000000,0.858186,0.573674,1.000000,0.000000,0.066785,1.000000,2.000000,0.834752,0.326181,1.000000,1.000000,0.942182,1.000000,1.000000,2.000000
41,0.030476,0.000000,0.858186,0.573674,1.000000,0.000000,0.066785,1.000000,2.000000,0.834752,0.326181,1.000000,1.000000,0.942182,1.000000,1.000000,2.000000
42,0.030476,0.000000,0.858186,0.573674,1.000000,0.000000,0.066785,1.000000,2.000000,0.834752,0.326181,1.000000,1.000000,0.942182,1.000000,1.000000,2.000000
43,0.030476,0.000000,0.858186,0.573674,1.000000,0.000000,0.066785,1.000000,2.000000,0.834752,0.326181,1.000000,1.000000,0.942182,1.000000,1.000000,2.000000
44,0.030476,0.000000,0.858186,0.573674,1.000000,0.000000,0.066785,1.000000,2.000000,0.834752,0.326181,1.000000,1.000000,0.942182,1.000000,1.000000,2.000000
45,0.030466,0.000000,1.000000,0.539342,1.000000,0.000000,0.049629,0.980099,2.000000,0.717960,0.112754,1.000000,1.000000,1.000000,0.908563,1.000000,2.000000
46,0.030466,0.000000,1.000000,0.539342,1.000000,0.000000,0.049629,0.980099,2.000000,0.717960,0.112754,1.000000,1.000000,1.000000,0.908563,1.000000,2.000000
47,0.030466,0.000000,1.000000,0.539342,1.000000,0.000000,0.049629,0.980099,2.000000,0.717960,0.112754,1.000000,1.000000,1.000000,0.908563,1.000000,2.000000
48,0.030466,0.000000,1.000000,0.539342,1.000000,0.000000,0.049629,0.980099,2.000000,0.717960,0.112754,1.000000,1.000000,1.000000,0.908563,1.000000,2.000000
49,0.030466,0.000000,1.000000,0.539342,1.000000,0.000000,0.049629,0.980099,2.000000,0.717960,0.112754,1.000000,1.000000,1.000000,0.908563,1.000000,2.000000
50,0.030466,0.000000,1.000000,0.539342,1.000000,0.000000,0.049629,0.980099,2.000000,0.717960,0.112754,1.000000,1.000000,1.000000,0.908563,1.000000,2.000000
51,0.030466,0.000000,1.000000,0.539342,1.000000,0.000000,0.049629,0.980099,2.000000,0.717960,0.112754,1.000000,1.000000,1.000000,0.908563,1.000000,2.000000
52,0.030466,0.000000,1.000000,0.539342,1.000000,0.000000,0.049629,0.980099,2.000000,0.717960,0.112754,1.000000,1.000000,1.000000,0.908563,1.000000,2.000000
53,0.030466,0.000000,1.000000,0.539342,1.000000,0.000000,0.049629,0.980099,2.000000,0.717960,0.112754,1.000000,1.000000,1.000000,0.908563,1.000000,2.000000
54,0.030346,0.000000,0.993502,0.539342,1.000000,0.000000,0.000000,1.000000,2.000000,0.687195,0.364039,1.000000,1.000000,1.000000,0.912421,1.000000,2.000000
55,0.030346,0.000000,0.993502,0.539342,1.000000,0.000000,0.000000,1.000000,2.000000,0.687195,0.364039,1.000000,1.000000,1.000000,0.912421,1.000000,2.000000
56,0.030346,0.000000,0.993502,0.539342,1.000000,0.000000,0.000000,1.000000,2.000000,0.687195,0.364039,1.000000,1.000000,1.000000,0.912421,1.000000,2.000000
57,0.030346,0.000000,0.993502,0.539342,1.000000,0.000000,0.000000,1.000000,2.000000,0.687195,0.364039,1.000000,1.000000,1.000000,0.912421,1.000000,2.000000
58,0.030346,0.000000,0.993502,0.539342,1.000000,0.000000,0.000000,1.000000,2.000000,0.687195,0.364039,1.000000,1.000000,1.000000,0.912421,1.000000,2.000000
59,0.030346,0.000000,0.993502,0.539342,1.000000,0.000000,0.000000,1.000000,2.000000,0.687195,0.364039,1.000000,1.000000,1.000000,0.912421,1.000000,2.000000
60,0.030346,0.000000,0.993502,0.539342,1.000000,0.000000,0.000000,1.000000,2.000000,0.687195,0.364039,1.000000,1.000000,1.000000,0.912421,1.000000,2.000000
61,0.030346,0.000000,0.993502,0.539342,1.000000,0.000000,0.000000,1.000000,2.000000,0.687195,0.364039,1.000000,1.000000,1.000000,0.912421,1.000000,2.000000
62,0.030346,0.000000,0.993502,0.539342,1.000000,0.000000,0.000000,1.000000,2.000000,0.687195,0.364039,1.000000,1.000000,1.000000,0.912421,1.000000,2.000000
63,0.030346,0.000000,0.993502,0.539342,1.000000,0.000000,0.000000,1.000000,2.000000,0.687195,0.364039,1.000000,1.000000,1.000000,0.912421,1.000000,2.000000
64,0.030346,0.000000,0.993502,0.539342,1.000000,0.000000,0.000000,1.000000,2.000000,0.687195,0.364039,1.000000,1.000000,1.000000,0.912421,1.000000,2.000000
