gen, fitness
0,0.013430,0.000000,1.000000,0.210000,0.800000,0.030000,0.030000,1.000000,0.000000,1.000000,0.000000,0.000000,0.600000,1.000000,1.000000,0.000000,0.000000
1,0.013430,0.000000,1.000000,0.210000,0.800000,0.030000,0.030000,1.000000,0.000000,1.000000,0.000000,0.000000,0.600000,1.000000,1.000000,0.000000,0.000000
2,0.000226,0.005771,1.000000,0.175428,0.647548,0.031981,0.152341,0.936368,1.000000,1.000000,0.103250,0.000000,0.555795,1.000000,0.917750,0.047694,1.000000
3,0.000226,0.005771,1.000000,0.175428,0.647548,0.031981,0.152341,0.936368,1.000000,1.000000,0.103250,0.000000,0.555795,1.000000,0.917750,0.047694,1.000000
4,0.000079,0.191003,0.954007,0.041625,0.709980,0.023208,0.128848,0.776644,1.000000,0.881151,0.087804,0.000000,0.598866,0.803190,1.000000,0.248630,2.000000
5,0.000005,0.076550,0.882520,0.341849,0.579053,0.096241,0.103283,1.000000,1.000000,1.000000,0.110582,0.000000,0.603640,0.943308,0.746163,0.000000,1.000000
6,0.000005,0.076550,0.882520,0.341849,0.579053,0.096241,0.103283,1.000000,1.000000,1.000000,0.110582,0.000000,0.603640,0.943308,0.746163,0.000000,1.000000
7,0.000005,0.076550,0.882520,0.341849,0.579053,0.096241,0.103283,1.000000,1.000000,1.000000,0.110582,0.000000,0.603640,0.943308,0.746163,0.000000,1.000000
8,0.000005,0.076550,0.882520,0.341849,0.579053,0.096241,0.103283,1.000000,1.000000,1.000000,0.110582,0.000000,0.603640,0.943308,0.746163,0.000000,1.000000
9,0.000005,0.076550,0.882520,0.341849,0.579053,0.096241,0.103283,1.000000,1.000000,1.000000,0.110582,0.000000,0.603640,0.943308,0.746163,0.000000,1.000000
10,0.000005,0.076550,0.882520,0.341849,0.579053,0.096241,0.103283,1.000000,1.000000,1.000000,0.110582,0.000000,0.603640,0.943308,0.746163,0.000000,1.000000
11,0.000005,0.076550,0.882520,0.341849,0.579053,0.096241,0.103283,1.000000,1.000000,1.000000,0.110582,0.000000,0.603640,0.943308,0.746163,0.000000,1.000000
12,0.000005,0.076550,0.882520,0.341849,0.579053,0.096241,0.103283,1.000000,1.000000,1.000000,0.110582,0.000000,0.603640,0.943308,0.746163,0.000000,1.000000
13,0.000005,0.076550,0.882520,0.341849,0.579053,0.096241,0.103283,1.000000,1.000000,1.000000,0.110582,0.000000,0.603640,0.943308,0.746163,0.000000,1.000000
14,0.000005,0.076550,0.882520,0.341849,0.579053,0.096241,0.103283,1.000000,1.000000,1.000000,0.110582,0.000000,0.603640,0.943308,0.746163,0.000000,1.000000
15,0.000005,0.076550,0.882520,0.341849,0.579053,0.096241,0.103283,1.000000,1.000000,1.000000,0.110582,0.000000,0.603640,0.943308,0.746163,0.000000,1.000000
gen, fitness
0,0.034276,0.000000,1.000000,0.210000,0.800000,0.030000,0.030000,1.000000,0.000000,1.000000,0.000000,0.000000,0.600000,1.000000,1.000000,0.000000,0.000000
1,0.034276,0.000000,1.000000,0.210000,0.800000,0.030000,0.030000,1.000000,0.000000,1.000000,0.000000,0.000000,0.600000,1.000000,1.000000,0.000000,0.000000
2,0.019122,0.043512,1.000000,0.155553,0.823019,0.000000,0.120111,1.000000,1.000000,0.941685,0.063988,0.067368,0.721349,1.000000,1.000000,0.000000,1.000000
3,0.012125,0.225978,0.795285,0.133916,0.894402,0.097320,0.034507,0.892952,0.000000,0.976596,0.003776,0.147063,0.808851,0.792073,0.912550,0.000000,2.000000
4,0.004882,0.175594,1.000000,0.220660,0.972468,0.182917,0.000000,0.719310,2.000000,0.788707,0.158436,0.184779,0.989637,0.754887,0.943407,0.108033,2.000000
5,0.002333,0.002499,0.663548,0.580703,1.000000,0.039967,0.328292,1.000000,1.000000,0.724071,0.071159,0.374258,1.000000,0.846074,1.000000,0.002535,1.000000
6,0.002006,0.000000,0.732507,0.506278,1.000000,0.027849,0.324465,0.954679,2.000000,0.948501,0.248121,0.283133,1.000000,0.713277,1.000000,0.105380,2.000000
7,0.002006,0.000000,0.732507,0.506278,1.000000,0.027849,0.324465,0.954679,2.000000,0.948501,0.248121,0.283133,1.000000,0.713277,1.000000,0.105380,2.000000
8,0.001736,0.134795,0.671511,0.767010,0.986953,0.051261,0.405939,1.000000,2.000000,0.632487,0.191929,0.720333,1.000000,1.000000,0.925894,0.000000,1.000000
9,0.001438,0.000000,0.357081,0.897427,1.000000,0.070057,0.098612,0.940471,1.000000,1.000000,0.000000,0.564375,1.000000,1.000000,1.000000,0.108017,2.000000
10,0.001438,0.000000,0.357081,0.897427,1.000000,0.070057,0.098612,0.940471,1.000000,1.000000,0.000000,0.564375,1.000000,1.000000,1.000000,0.108017,2.000000
11,0.001140,0.000000,0.401516,0.965013,1.000000,0.000000,0.300938,0.960482,1.000000,0.967515,0.383104,0.730807,1.000000,1.000000,0.942354,0.196904,2.000000
12,0.000857,0.000000,0.509844,0.855251,1.000000,0.196927,0.295885,0.822756,2.000000,1.000000,0.262591,0.857361,1.000000,1.000000,1.000000,0.236291,2.000000
13,0.000857,0.000000,0.509844,0.855251,1.000000,0.196927,0.295885,0.822756,2.000000,1.000000,0.262591,0.857361,1.000000,1.000000,1.000000,0.236291,2.000000
14,0.000857,0.000000,0.509844,0.855251,1.000000,0.196927,0.295885,0.822756,2.000000,1.000000,0.262591,0.857361,1.000000,1.000000,1.000000,0.236291,2.000000
15,0.000746,0.178215,0.625536,0.668103,1.000000,0.000000,0.042509,1.000000,2.000000,0.672533,0.116211,0.988129,1.000000,0.628660,1.000000,0.261602,2.000000
16,0.000746,0.178215,0.625536,0.668103,1.000000,0.000000,0.042509,1.000000,2.000000,0.672533,0.116211,0.988129,1.000000,0.628660,1.000000,0.261602,2.000000
17,0.000745,0.000000,0.502578,0.758238,1.000000,0.190934,0.505604,1.000000,2.000000,1.000000,0.667037,1.000000,0.978133,0.833955,0.755285,0.477999,2.000000
18,0.000745,0.000000,0.502578,0.758238,1.000000,0.190934,0.505604,1.000000,2.000000,1.000000,0.667037,1.000000,0.978133,0.833955,0.755285,0.477999,2.000000
19,0.000745,0.000000,0.502578,0.758238,1.000000,0.190934,0.505604,1.000000,2.000000,1.000000,0.667037,1.000000,0.978133,0.833955,0.755285,0.477999,2.000000
20,0.000745,0.000000,0.502578,0.758238,1.000000,0.190934,0.505604,1.000000,2.000000,1.000000,0.667037,1.000000,0.978133,0.833955,0.755285,0.477999,2.000000
21,0.000745,0.000000,0.502578,0.758238,1.000000,0.190934,0.505604,1.000000,2.000000,1.000000,0.667037,1.000000,0.978133,0.833955,0.755285,0.477999,2.000000
22,0.000745,0.000000,0.502578,0.758238,1.000000,0.190934,0.505604,1.000000,2.000000,1.000000,0.667037,1.000000,0.978133,0.833955,0.755285,0.477999,2.000000
23,0.000720,0.000000,0.586061,0.956224,1.000000,0.588982,0.100343,0.974260,1.000000,0.800447,0.000000,0.999890,1.000000,0.917553,0.923663,0.685931,2.000000
24,0.000720,0.000000,0.586061,0.956224,1.000000,0.588982,0.100343,0.974260,1.000000,0.800447,0.000000,0.999890,1.000000,0.917553,0.923663,0.685931,2.000000
25,0.000694,0.058978,0.750212,0.912210,1.000000,0.478446,0.102498,0.815582,2.000000,0.926866,0.211274,1.000000,1.000000,0.752500,0.894453,0.595553,2.000000
26,0.000694,0.058978,0.750212,0.912210,1.000000,0.478446,0.102498,0.815582,2.000000,0.926866,0.211274,1.000000,1.000000,0.752500,0.894453,0.595553,2.000000
27,0.000694,0.058978,0.750212,0.912210,1.000000,0.478446,0.102498,0.815582,2.000000,0.926866,0.211274,1.000000,1.000000,0.752500,0.894453,0.595553,2.000000
28,0.000694,0.058978,0.750212,0.912210,1.000000,0.478446,0.102498,0.815582,2.000000,0.926866,0.211274,1.000000,1.000000,0.752500,0.894453,0.595553,2.000000
29,0.000694,0.058978,0.750212,0.912210,1.000000,0.478446,0.102498,0.815582,2.000000,0.926866,0.211274,1.000000,1.000000,0.752500,0.894453,0.595553,2.000000
30,0.000694,0.058978,0.750212,0.912210,1.000000,0.478446,0.102498,0.815582,2.000000,0.926866,0.211274,1.000000,1.000000,0.752500,0.894453,0.595553,2.000000
31,0.000688,0.000000,0.712400,0.927347,1.000000,0.275844,0.300704,0.963476,2.000000,0.987196,0.028471,0.913037,1.000000,0.709622,0.958999,0.578636,2.000000
32,0.000688,0.000000,0.712400,0.927347,1.000000,0.275844,0.300704,0.963476,2.000000,0.987196,0.028471,0.913037,1.000000,0.709622,0.958999,0.578636,2.000000
33,0.000688,0.000000,0.712400,0.927347,1.000000,0.275844,0.300704,0.963476,2.000000,0.987196,0.028471,0.913037,1.000000,0.709622,0.958999,0.578636,2.000000
34,0.000688,0.000000,0.712400,0.927347,1.000000,0.275844,0.300704,0.963476,2.000000,0.987196,0.028471,0.913037,1.000000,0.709622,0.958999,0.578636,2.000000
35,0.000688,0.000000,0.712400,0.927347,1.000000,0.275844,0.300704,0.963476,2.000000,0.987196,0.028471,0.913037,1.000000,0.709622,0.958999,0.578636,2.000000
gen, fitness
0,0.044384,0.000000,1.000000,0.210000,0.800000,0.030000,0.030000,1.000000,0.000000,1.000000,0.000000,0.000000,0.600000,1.000000,1.000000,0.000000,0.000000
1,0.044384,0.000000,1.000000,0.210000,0.800000,0.030000,0.030000,1.000000,0.000000,1.000000,0.000000,0.000000,0.600000,1.000000,1.000000,0.000000,0.000000
2,0.026522,0.071195,1.000000,0.273099,0.835505,0.000000,0.000000,1.000000,1.000000,1.000000,0.000000,0.000000,0.745559,1.000000,0.941518,0.000000,2.000000
3,0.022116,0.164568,0.976421,0.313394,0.880747,0.000000,0.009159,0.965450,0.000000,1.000000,0.181575,0.044830,0.804250,0.968320,1.000000,0.087601,2.000000
4,0.013376,0.067791,0.957079,0.234680,1.000000,0.360362,0.041744,0.932530,1.000000,0.844511,0.077034,0.029126,0.959464,1.000000,0.645756,0.064304,1.000000
5,0.011382,0.187962,0.800600,0.216712,0.986993,0.437810,0.045795,0.902892,2.000000,0.766238,0.211714,0.000000,1.000000,0.847292,0.660728,0.202453,0.000000
6,0.010551,0.110199,1.000000,0.336289,0.998708,0.500765,0.032571,0.891754,2.000000,0.746890,0.168220,0.033192,1.000000,0.785427,0.665619,0.070819,0.000000
7,0.009461,0.302377,1.000000,0.525826,0.989691,0.048335,0.151387,0.997348,2.000000,1.000000,0.000000,0.156476,1.000000,0.640142,0.941249,0.033768,2.000000
8,0.009461,0.302377,1.000000,0.525826,0.989691,0.048335,0.151387,0.997348,2.000000,1.000000,0.000000,0.156476,1.000000,0.640142,0.941249,0.033768,2.000000
9,0.009229,0.007092,1.000000,0.219989,1.000000,0.000000,0.152506,0.947099,2.000000,0.625524,0.076774,0.170601,1.000000,0.929599,0.573002,0.429718,2.000000
10,0.009018,0.000000,1.000000,0.300857,1.000000,0.000000,0.305578,0.955819,2.000000,0.608905,0.327252,0.143837,1.000000,0.863066,0.919397,0.069437,2.000000
11,0.009018,0.000000,1.000000,0.300857,1.000000,0.000000,0.305578,0.955819,2.000000,0.608905,0.327252,0.143837,1.000000,0.863066,0.919397,0.069437,2.000000
12,0.008782,0.150382,0.888333,0.663592,1.000000,0.231711,0.002693,1.000000,2.000000,0.935139,0.000000,0.243342,1.000000,0.481930,0.732289,0.225161,2.000000
13,0.008782,0.150382,0.888333,0.663592,1.000000,0.231711,0.002693,1.000000,2.000000,0.935139,0.000000,0.243342,1.000000,0.481930,0.732289,0.225161,2.000000
14,0.008587,0.145066,0.828835,0.861430,1.000000,0.118234,0.000000,0.980518,2.000000,0.925814,0.047685,0.308928,1.000000,0.289211,0.588162,0.021313,2.000000
15,0.007954,0.118695,0.775220,0.832517,1.000000,0.088832,0.182188,1.000000,2.000000,1.000000,0.061360,0.486344,1.000000,0.814810,0.318762,0.205466,2.000000
16,0.007954,0.118695,0.775220,0.832517,1.000000,0.088832,0.182188,1.000000,2.000000,1.000000,0.061360,0.486344,1.000000,0.814810,0.318762,0.205466,2.000000
17,0.007954,0.118695,0.775220,0.832517,1.000000,0.088832,0.182188,1.000000,2.000000,1.000000,0.061360,0.486344,1.000000,0.814810,0.318762,0.205466,2.000000
18,0.007954,0.118695,0.775220,0.832517,1.000000,0.088832,0.182188,1.000000,2.000000,1.000000,0.061360,0.486344,1.000000,0.814810,0.318762,0.205466,2.000000
19,0.007954,0.118695,0.775220,0.832517,1.000000,0.088832,0.182188,1.000000,2.000000,1.000000,0.061360,0.486344,1.000000,0.814810,0.318762,0.205466,2.000000
20,0.007954,0.118695,0.775220,0.832517,1.000000,0.088832,0.182188,1.000000,2.000000,1.000000,0.061360,0.486344,1.000000,0.814810,0.318762,0.205466,2.000000
21,0.007769,0.000000,0.984218,1.000000,1.000000,0.274082,0.281029,0.966077,2.000000,0.765494,0.177114,0.668505,1.000000,0.136152,0.257904,0.023878,1.000000
22,0.007769,0.000000,0.984218,1.000000,1.000000,0.274082,0.281029,0.966077,2.000000,0.765494,0.177114,0.668505,1.000000,0.136152,0.257904,0.023878,1.000000
23,0.007769,0.000000,0.984218,1.000000,1.000000,0.274082,0.281029,0.966077,2.000000,0.765494,0.177114,0.668505,1.000000,0.136152,0.257904,0.023878,1.000000
24,0.007748,0.000000,0.696055,0.973554,0.987524,0.246499,0.281448,0.958667,2.000000,0.588867,0.000000,0.510268,1.000000,0.885653,0.293234,0.162401,1.000000
25,0.006894,0.000000,1.000000,1.000000,0.981754,0.415781,0.057484,0.977899,2.000000,0.398569,0.118918,1.000000,1.000000,0.877058,0.433231,0.003040,2.000000
26,0.006894,0.000000,1.000000,1.000000,0.981754,0.415781,0.057484,0.977899,2.000000,0.398569,0.118918,1.000000,1.000000,0.877058,0.433231,0.003040,2.000000
27,0.006894,0.000000,1.000000,1.000000,0.981754,0.415781,0.057484,0.977899,2.000000,0.398569,0.118918,1.000000,1.000000,0.877058,0.433231,0.003040,2.000000
28,0.006894,0.000000,1.000000,1.000000,0.981754,0.415781,0.057484,0.977899,2.000000,0.398569,0.118918,1.000000,1.000000,0.877058,0.433231,0.003040,2.000000
29,0.006894,0.000000,1.000000,1.000000,0.981754,0.415781,0.057484,0.977899,2.000000,0.398569,0.118918,1.000000,1.000000,0.877058,0.433231,0.003040,2.000000
30,0.006894,0.000000,1.000000,1.000000,0.981754,0.415781,0.057484,0.977899,2.000000,0.398569,0.118918,1.000000,1.000000,0.877058,0.433231,0.003040,2.000000
31,0.006894,0.000000,1.000000,1.000000,0.981754,0.415781,0.057484,0.977899,2.000000,0.398569,0.118918,1.000000,1.000000,0.877058,0.433231,0.003040,2.000000
32,0.006894,0.000000,1.000000,1.000000,0.981754,0.415781,0.057484,0.977899,2.000000,0.398569,0.118918,1.000000,1.000000,0.877058,0.433231,0.003040,2.000000
33,0.006894,0.000000,1.000000,1.000000,0.981754,0.415781,0.057484,0.977899,2.000000,0.398569,0.118918,1.000000,1.000000,0.877058,0.433231,0.003040,2.000000
34,0.006894,0.000000,1.000000,1.000000,0.981754,0.415781,0.057484,0.977899,2.000000,0.398569,0.118918,1.000000,1.000000,0.877058,0.433231,0.003040,2.000000
35,0.006894,0.000000,1.000000,1.000000,0.981754,0.415781,0.057484,0.977899,2.000000,0.398569,0.118918,1.000000,1.000000,0.877058,0.433231,0.003040,2.000000
gen, fitness
0,0.006335,0.000000,1.000000,0.210000,0.800000,0.030000,0.030000,1.000000,0.000000,1.000000,0.000000,0.000000,0.600000,1.000000,1.000000,0.000000,0.000000
1,0.006335,0.000000,1.000000,0.210000,0.800000,0.030000,0.030000,1.000000,0.000000,1.000000,0.000000,0.000000,0.600000,1.000000,1.000000,0.000000,0.000000
2,0.000046,0.000000,0.982819,0.206149,0.746510,0.043223,0.023134,1.000000,1.000000,1.000000,0.103493,0.108784,0.575631,0.863225,0.813122,0.000000,2.000000
3,0.000046,0.000000,0.982819,0.206149,0.746510,0.043223,0.023134,1.000000,1.000000,1.000000,0.103493,0.108784,0.575631,0.863225,0.813122,0.000000,2.000000
4,0.000017,0.000000,0.943006,0.116501,0.805084,0.090327,0.000000,0.923340,0.000000,1.000000,0.039191,0.114083,0.615097,1.000000,0.974945,0.006420,2.000000
5,0.000017,0.000000,0.943006,0.116501,0.805084,0.090327,0.000000,0.923340,0.000000,1.000000,0.039191,0.114083,0.615097,1.000000,0.974945,0.006420,2.000000
6,0.000017,0.000000,0.943006,0.116501,0.805084,0.090327,0.000000,0.923340,0.000000,1.000000,0.039191,0.114083,0.615097,1.000000,0.974945,0.006420,2.000000
7,0.000017,0.000000,0.943006,0.116501,0.805084,0.090327,0.000000,0.923340,0.000000,1.000000,0.039191,0.114083,0.615097,1.000000,0.974945,0.006420,2.000000
8,0.000017,0.000000,0.943006,0.116501,0.805084,0.090327,0.000000,0.923340,0.000000,1.000000,0.039191,0.114083,0.615097,1.000000,0.974945,0.006420,2.000000
9,0.000013,0.040305,1.000000,0.569122,0.605054,0.395817,0.000000,0.981166,0.000000,0.944518,0.018723,0.222951,0.544590,1.000000,0.839124,0.025119,2.000000
10,0.000013,0.040305,1.000000,0.569122,0.605054,0.395817,0.000000,0.981166,0.000000,0.944518,0.018723,0.222951,0.544590,1.000000,0.839124,0.025119,2.000000
11,0.000013,0.040305,1.000000,0.569122,0.605054,0.395817,0.000000,0.981166,0.000000,0.944518,0.018723,0.222951,0.544590,1.000000,0.839124,0.025119,2.000000
12,0.000013,0.040305,1.000000,0.569122,0.605054,0.395817,0.000000,0.981166,0.000000,0.944518,0.018723,0.222951,0.544590,1.000000,0.839124,0.025119,2.000000
13,0.000013,0.040305,1.000000,0.569122,0.605054,0.395817,0.000000,0.981166,0.000000,0.944518,0.018723,0.222951,0.544590,1.000000,0.839124,0.025119,2.000000
14,0.000013,0.040305,1.000000,0.569122,0.605054,0.395817,0.000000,0.981166,0.000000,0.944518,0.018723,0.222951,0.544590,1.000000,0.839124,0.025119,2.000000
gen, fitness
0,0.018541,0.000000,1.000000,0.210000,0.800000,0.030000,0.030000,1.000000,0.000000,1.000000,0.000000,0.000000,0.600000,1.000000,1.000000,0.000000,0.000000
1,0.018541,0.000000,1.000000,0.210000,0.800000,0.030000,0.030000,1.000000,0.000000,1.000000,0.000000,0.000000,0.600000,1.000000,1.000000,0.000000,0.000000
2,0.005259,0.000000,1.000000,0.099370,0.904717,0.038478,0.000000,1.000000,2.000000,1.000000,0.000000,0.104820,0.744527,0.988375,1.000000,0.092428,1.000000
3,0.000064,0.000000,1.000000,0.399771,0.997731,0.007075,0.018305,0.606179,1.000000,1.000000,0.000000,0.029460,1.000000,1.000000,1.000000,0.152024,2.000000
4,0.000064,0.000000,1.000000,0.399771,0.997731,0.007075,0.018305,0.606179,1.000000,1.000000,0.000000,0.029460,1.000000,1.000000,1.000000,0.152024,2.000000
5,0.000005,0.079336,1.000000,0.379861,1.000000,0.000000,0.090139,0.594241,0.000000,1.000000,0.000000,0.000000,1.000000,0.982697,1.000000,0.209665,0.000000
6,0.000003,0.111254,0.892940,0.373849,1.000000,0.000000,0.103461,0.562052,0.000000,0.977690,0.088105,0.048579,0.995525,0.942816,1.000000,0.341504,1.000000
7,0.000003,0.111254,0.892940,0.373849,1.000000,0.000000,0.103461,0.562052,0.000000,0.977690,0.088105,0.048579,0.995525,0.942816,1.000000,0.341504,1.000000
8,0.000003,0.111254,0.892940,0.373849,1.000000,0.000000,0.103461,0.562052,0.000000,0.977690,0.088105,0.048579,0.995525,0.942816,1.000000,0.341504,1.000000
9,0.000003,0.111254,0.892940,0.373849,1.000000,0.000000,0.103461,0.562052,0.000000,0.977690,0.088105,0.048579,0.995525,0.942816,1.000000,0.341504,1.000000
10,0.000003,0.111254,0.892940,0.373849,1.000000,0.000000,0.103461,0.562052,0.000000,0.977690,0.088105,0.048579,0.995525,0.942816,1.000000,0.341504,1.000000
11,0.000003,0.111254,0.892940,0.373849,1.000000,0.000000,0.103461,0.562052,0.000000,0.977690,0.088105,0.048579,0.995525,0.942816,1.000000,0.341504,1.000000
12,0.000003,0.111254,0.892940,0.373849,1.000000,0.000000,0.103461,0.562052,0.000000,0.977690,0.088105,0.048579,0.995525,0.942816,1.000000,0.341504,1.000000
13,0.000003,0.111254,0.892940,0.373849,1.000000,0.000000,0.103461,0.562052,0.000000,0.977690,0.088105,0.048579,0.995525,0.942816,1.000000,0.341504,1.000000
14,0.000003,0.111254,0.892940,0.373849,1.000000,0.000000,0.103461,0.562052,0.000000,0.977690,0.088105,0.048579,0.995525,0.942816,1.000000,0.341504,1.000000
15,0.000003,0.111254,0.892940,0.373849,1.000000,0.000000,0.103461,0.562052,0.000000,0.977690,0.088105,0.048579,0.995525,0.942816,1.000000,0.341504,1.000000
gen, fitness
0,0.069293,0.000000,1.000000,0.210000,0.800000,0.030000,0.030000,1.000000,0.000000,1.000000,0.000000,0.000000,0.600000,1.000000,1.000000,0.000000,0.000000
1,0.069293,0.000000,1.000000,0.210000,0.800000,0.030000,0.030000,1.000000,0.000000,1.000000,0.000000,0.000000,0.600000,1.000000,1.000000,0.000000,0.000000
2,0.031983,0.000000,0.940865,0.191129,0.833361,0.000000,0.073511,1.000000,2.000000,0.912022,0.100421,0.131349,0.785773,0.952692,0.988837,0.114717,2.000000
3,0.030509,0.000000,1.000000,0.185190,0.871822,0.000588,0.108999,1.000000,0.000000,0.918931,0.000000,0.087050,0.861554,1.000000,0.983649,0.000000,1.000000
4,0.017453,0.000000,1.000000,0.204932,1.000000,0.000000,0.213919,1.000000,1.000000,1.000000,0.000000,0.123434,1.000000,1.000000,1.000000,0.000000,0.000000
5,0.017453,0.000000,1.000000,0.204932,1.000000,0.000000,0.213919,1.000000,1.000000,1.000000,0.000000,0.123434,1.000000,1.000000,1.000000,0.000000,0.000000
6,0.014425,0.293040,0.950986,0.076017,1.000000,0.416109,0.416514,0.881621,0.000000,0.626076,0.256921,0.547844,0.967219,0.935266,0.903611,0.160795,2.000000
7,0.014062,0.364357,0.908824,0.025056,1.000000,0.352104,0.455456,0.925410,2.000000,0.687070,0.343681,0.581708,0.983310,1.000000,0.936190,0.228527,1.000000
8,0.013555,0.000000,0.637185,0.126312,1.000000,0.210389,0.048360,0.511022,2.000000,0.624643,0.153133,0.462374,1.000000,0.860561,0.868196,0.188186,2.000000
9,0.013141,0.275795,0.965506,0.000000,1.000000,0.596110,0.668354,0.903885,2.000000,0.803561,0.552499,0.651389,0.971304,0.696271,0.842315,0.389931,1.000000
10,0.012631,0.275375,0.847185,0.000000,1.000000,0.576106,0.612782,0.843687,1.000000,0.710058,0.451823,0.609706,0.958101,0.772002,0.917242,0.413945,2.000000
11,0.011816,0.206571,0.998740,0.000000,0.996643,0.675385,0.665615,0.767843,1.000000,0.768345,0.264551,0.861510,0.909903,0.647479,0.931905,0.251413,2.000000
12,0.011017,0.134821,0.916192,0.000000,1.000000,0.579704,0.592447,0.502138,2.000000,0.921347,0.670156,0.639171,0.963169,0.535436,0.993409,0.521833,2.000000
13,0.011017,0.134821,0.916192,0.000000,1.000000,0.579704,0.592447,0.502138,2.000000,0.921347,0.670156,0.639171,0.963169,0.535436,0.993409,0.521833,2.000000
14,0.011017,0.134821,0.916192,0.000000,1.000000,0.579704,0.592447,0.502138,2.000000,0.921347,0.670156,0.639171,0.963169,0.535436,0.993409,0.521833,2.000000
15,0.011017,0.134821,0.916192,0.000000,1.000000,0.579704,0.592447,0.502138,2.000000,0.921347,0.670156,0.639171,0.963169,0.535436,0.993409,0.521833,2.000000
16,0.011017,0.134821,0.916192,0.000000,1.000000,0.579704,0.592447,0.502138,2.000000,0.921347,0.670156,0.639171,0.963169,0.535436,0.993409,0.521833,2.000000
17,0.009793,0.085874,1.000000,0.000000,1.000000,0.020808,0.174744,0.522646,2.000000,0.906637,0.211147,0.960974,0.946432,0.989459,1.000000,0.092877,2.000000
18,0.009793,0.085874,1.000000,0.000000,1.000000,0.020808,0.174744,0.522646,2.000000,0.906637,0.211147,0.960974,0.946432,0.989459,1.000000,0.092877,2.000000
19,0.009793,0.085874,1.000000,0.000000,1.000000,0.020808,0.174744,0.522646,2.000000,0.906637,0.211147,0.960974,0.946432,0.989459,1.000000,0.092877,2.000000
20,0.009793,0.085874,1.000000,0.000000,1.000000,0.020808,0.174744,0.522646,2.000000,0.906637,0.211147,0.960974,0.946432,0.989459,1.000000,0.092877,2.000000
21,0.009793,0.085874,1.000000,0.000000,1.000000,0.020808,0.174744,0.522646,2.000000,0.906637,0.211147,0.960974,0.946432,0.989459,1.000000,0.092877,2.000000
22,0.009793,0.085874,1.000000,0.000000,1.000000,0.020808,0.174744,0.522646,2.000000,0.906637,0.211147,0.960974,0.946432,0.989459,1.000000,0.092877,2.000000
23,0.009793,0.085874,1.000000,0.000000,1.000000,0.020808,0.174744,0.522646,2.000000,0.906637,0.211147,0.960974,0.946432,0.989459,1.000000,0.092877,2.000000
24,0.009793,0.085874,1.000000,0.000000,1.000000,0.020808,0.174744,0.522646,2.000000,0.906637,0.211147,0.960974,0.946432,0.989459,1.000000,0.092877,2.000000
25,0.009793,0.085874,1.000000,0.000000,1.000000,0.020808,0.174744,0.522646,2.000000,0.906637,0.211147,0.960974,0.946432,0.989459,1.000000,0.092877,2.000000
26,0.009793,0.085874,1.000000,0.000000,1.000000,0.020808,0.174744,0.522646,2.000000,0.906637,0.211147,0.960974,0.946432,0.989459,1.000000,0.092877,2.000000
27,0.009793,0.085874,1.000000,0.000000,1.000000,0.020808,0.174744,0.522646,2.000000,0.906637,0.211147,0.960974,0.946432,0.989459,1.000000,0.092877,2.000000
gen, fitness
0,0.020772,0.000000,1.000000,0.210000,0.800000,0.030000,0.030000,1.000000,0.000000,1.000000,0.000000,0.000000,0.600000,1.000000,1.000000,0.000000,0.000000
1,0.020772,0.000000,1.000000,0.210000,0.800000,0.030000,0.030000,1.000000,0.000000,1.000000,0.000000,0.000000,0.600000,1.000000,1.000000,0.000000,0.000000
2,0.004290,0.099382,1.000000,0.162905,0.873518,0.117111,0.000000,0.982030,1.000000,1.000000,0.181723,0.000000,0.850032,1.000000,0.870667,0.164638,1.000000
3,0.002888,0.000000,0.878250,0.053221,0.919731,0.111158,0.151200,0.975394,0.000000,1.000000,0.100836,0.104850,0.848277,0.824496,1.000000,0.048517,2.000000
4,0.000596,0.000000,1.000000,0.151939,0.937384,0.137551,0.155234,0.829004,1.000000,1.000000,0.062179,0.170833,0.863352,1.000000,1.000000,0.114992,1.000000
5,0.000155,0.193004,0.777793,0.001750,1.000000,0.000000,0.249460,0.906119,2.000000,1.000000,0.161760,0.000000,0.997982,0.825086,1.000000,0.285925,2.000000
6,0.000003,0.138924,1.000000,0.230007,1.000000,0.063526,0.554559,0.933664,0.000000,0.752923,0.180125,0.034457,1.000000,1.000000,1.000000,0.162407,2.000000
7,0.000003,0.138924,1.000000,0.230007,1.000000,0.063526,0.554559,0.933664,0.000000,0.752923,0.180125,0.034457,1.000000,1.000000,1.000000,0.162407,2.000000
8,0.000003,0.138924,1.000000,0.230007,1.000000,0.063526,0.554559,0.933664,0.000000,0.752923,0.180125,0.034457,1.000000,1.000000,1.000000,0.162407,2.000000
9,0.000003,0.138924,1.000000,0.230007,1.000000,0.063526,0.554559,0.933664,0.000000,0.752923,0.180125,0.034457,1.000000,1.000000,1.000000,0.162407,2.000000
10,0.000003,0.138924,1.000000,0.230007,1.000000,0.063526,0.554559,0.933664,0.000000,0.752923,0.180125,0.034457,1.000000,1.000000,1.000000,0.162407,2.000000
11,0.000003,0.138924,1.000000,0.230007,1.000000,0.063526,0.554559,0.933664,0.000000,0.752923,0.180125,0.034457,1.000000,1.000000,1.000000,0.162407,2.000000
12,0.000003,0.138924,1.000000,0.230007,1.000000,0.063526,0.554559,0.933664,0.000000,0.752923,0.180125,0.034457,1.000000,1.000000,1.000000,0.162407,2.000000
13,0.000003,0.138924,1.000000,0.230007,1.000000,0.063526,0.554559,0.933664,0.000000,0.752923,0.180125,0.034457,1.000000,1.000000,1.000000,0.162407,2.000000
14,0.000003,0.138924,1.000000,0.230007,1.000000,0.063526,0.554559,0.933664,0.000000,0.752923,0.180125,0.034457,1.000000,1.000000,1.000000,0.162407,2.000000
15,0.000003,0.138924,1.000000,0.230007,1.000000,0.063526,0.554559,0.933664,0.000000,0.752923,0.180125,0.034457,1.000000,1.000000,1.000000,0.162407,2.000000
16,0.000003,0.138924,1.000000,0.230007,1.000000,0.063526,0.554559,0.933664,0.000000,0.752923,0.180125,0.034457,1.000000,1.000000,1.000000,0.162407,2.000000
gen, fitness
0,0.008197,0.000000,1.000000,0.210000,0.800000,0.030000,0.030000,1.000000,0.000000,1.000000,0.000000,0.000000,0.600000,1.000000,1.000000,0.000000,0.000000
1,0.008197,0.000000,1.000000,0.210000,0.800000,0.030000,0.030000,1.000000,0.000000,1.000000,0.000000,0.000000,0.600000,1.000000,1.000000,0.000000,0.000000
2,0.000006,0.103815,1.000000,0.082598,0.849519,0.147654,0.000000,0.879945,2.000000,1.000000,0.000000,0.100814,0.717738,1.000000,0.853584,0.000000,2.000000
3,0.000006,0.103815,1.000000,0.082598,0.849519,0.147654,0.000000,0.879945,2.000000,1.000000,0.000000,0.100814,0.717738,1.000000,0.853584,0.000000,2.000000
4,0.000006,0.103815,1.000000,0.082598,0.849519,0.147654,0.000000,0.879945,2.000000,1.000000,0.000000,0.100814,0.717738,1.000000,0.853584,0.000000,2.000000
5,0.000006,0.103815,1.000000,0.082598,0.849519,0.147654,0.000000,0.879945,2.000000,1.000000,0.000000,0.100814,0.717738,1.000000,0.853584,0.000000,2.000000
6,0.000006,0.103815,1.000000,0.082598,0.849519,0.147654,0.000000,0.879945,2.000000,1.000000,0.000000,0.100814,0.717738,1.000000,0.853584,0.000000,2.000000
7,0.000006,0.103815,1.000000,0.082598,0.849519,0.147654,0.000000,0.879945,2.000000,1.000000,0.000000,0.100814,0.717738,1.000000,0.853584,0.000000,2.000000
8,0.000006,0.103815,1.000000,0.082598,0.849519,0.147654,0.000000,0.879945,2.000000,1.000000,0.000000,0.100814,0.717738,1.000000,0.853584,0.000000,2.000000
9,0.000006,0.103815,1.000000,0.082598,0.849519,0.147654,0.000000,0.879945,2.000000,1.000000,0.000000,0.100814,0.717738,1.000000,0.853584,0.000000,2.000000
10,0.000006,0.103815,1.000000,0.082598,0.849519,0.147654,0.000000,0.879945,2.000000,1.000000,0.000000,0.100814,0.717738,1.000000,0.853584,0.000000,2.000000
11,0.000006,0.103815,1.000000,0.082598,0.849519,0.147654,0.000000,0.879945,2.000000,1.000000,0.000000,0.100814,0.717738,1.000000,0.853584,0.000000,2.000000
12,0.000000,0.000000,0.790688,0.105253,0.833876,0.106959,0.000000,0.895568,1.000000,0.907404,0.296893,0.426138,0.531414,0.678737,1.000000,0.138009,2.000000
gen, fitness
0,0.011091,0.000000,1.000000,0.210000,0.800000,0.030000,0.030000,1.000000,0.000000,1.000000,0.000000,0.000000,0.600000,1.000000,1.000000,0.000000,0.000000
1,0.011091,0.000000,1.000000,0.210000,0.800000,0.030000,0.030000,1.000000,0.000000,1.000000,0.000000,0.000000,0.600000,1.000000,1.000000,0.000000,0.000000
2,0.000136,0.032886,0.948263,0.033985,0.790695,0.079288,0.000000,0.983760,2.000000,0.973839,0.000000,0.000000,0.654034,0.897513,1.000000,0.000000,1.000000
3,0.000076,0.101822,0.989162,0.274273,0.682077,0.000000,0.000000,1.000000,0.000000,0.973391,0.000000,0.000000,0.650246,1.000000,0.851669,0.127699,0.000000
4,0.000076,0.101822,0.989162,0.274273,0.682077,0.000000,0.000000,1.000000,0.000000,0.973391,0.000000,0.000000,0.650246,1.000000,0.851669,0.127699,0.000000
5,0.000001,0.255280,0.989711,0.000000,0.793587,0.111759,0.177274,0.820283,2.000000,1.000000,0.107568,0.503275,0.446054,1.000000,0.993196,0.045928,0.000000
6,0.000001,0.255280,0.989711,0.000000,0.793587,0.111759,0.177274,0.820283,2.000000,1.000000,0.107568,0.503275,0.446054,1.000000,0.993196,0.045928,0.000000
7,0.000001,0.255280,0.989711,0.000000,0.793587,0.111759,0.177274,0.820283,2.000000,1.000000,0.107568,0.503275,0.446054,1.000000,0.993196,0.045928,0.000000
8,0.000001,0.255280,0.989711,0.000000,0.793587,0.111759,0.177274,0.820283,2.000000,1.000000,0.107568,0.503275,0.446054,1.000000,0.993196,0.045928,0.000000
9,0.000001,0.255280,0.989711,0.000000,0.793587,0.111759,0.177274,0.820283,2.000000,1.000000,0.107568,0.503275,0.446054,1.000000,0.993196,0.045928,0.000000
10,0.000001,0.255280,0.989711,0.000000,0.793587,0.111759,0.177274,0.820283,2.000000,1.000000,0.107568,0.503275,0.446054,1.000000,0.993196,0.045928,0.000000
11,0.000001,0.255280,0.989711,0.000000,0.793587,0.111759,0.177274,0.820283,2.000000,1.000000,0.107568,0.503275,0.446054,1.000000,0.993196,0.045928,0.000000
12,0.000001,0.255280,0.989711,0.000000,0.793587,0.111759,0.177274,0.820283,2.000000,1.000000,0.107568,0.503275,0.446054,1.000000,0.993196,0.045928,0.000000
13,0.000001,0.255280,0.989711,0.000000,0.793587,0.111759,0.177274,0.820283,2.000000,1.000000,0.107568,0.503275,0.446054,1.000000,0.993196,0.045928,0.000000
14,0.000001,0.255280,0.989711,0.000000,0.793587,0.111759,0.177274,0.820283,2.000000,1.000000,0.107568,0.503275,0.446054,1.000000,0.993196,0.045928,0.000000
15,0.000001,0.255280,0.989711,0.000000,0.793587,0.111759,0.177274,0.820283,2.000000,1.000000,0.107568,0.503275,0.446054,1.000000,0.993196,0.045928,0.000000
gen, fitness
0,0.020988,0.000000,1.000000,0.210000,0.800000,0.030000,0.030000,1.000000,0.000000,1.000000,0.000000,0.000000,0.600000,1.000000,1.000000,0.000000,0.000000
1,0.020988,0.000000,1.000000,0.210000,0.800000,0.030000,0.030000,1.000000,0.000000,1.000000,0.000000,0.000000,0.600000,1.000000,1.000000,0.000000,0.000000
2,0.004651,0.021476,1.000000,0.316531,0.839824,0.000000,0.000000,1.000000,2.000000,0.859436,0.000000,0.000000,0.804958,1.000000,0.903723,0.010350,1.000000
3,0.003375,0.170285,1.000000,0.000000,1.000000,0.109666,0.171727,0.816788,0.000000,1.000000,0.000000,0.000000,0.949840,1.000000,0.824798,0.056495,2.000000
4,0.003375,0.170285,1.000000,0.000000,1.000000,0.109666,0.171727,0.816788,0.000000,1.000000,0.000000,0.000000,0.949840,1.000000,0.824798,0.056495,2.000000
5,0.001765,0.069497,0.737697,0.440844,0.971125,0.006437,0.175641,1.000000,1.000000,0.745977,0.121771,0.046595,0.955764,0.741415,0.817605,0.000000,0.000000
6,0.000178,0.000000,0.841011,0.877102,0.946035,0.217861,0.181939,1.000000,2.000000,0.774134,0.090632,0.000000,1.000000,0.584672,0.879591,0.474636,0.000000
7,0.000178,0.000000,0.841011,0.877102,0.946035,0.217861,0.181939,1.000000,2.000000,0.774134,0.090632,0.000000,1.000000,0.584672,0.879591,0.474636,0.000000
8,0.000178,0.000000,0.841011,0.877102,0.946035,0.217861,0.181939,1.000000,2.000000,0.774134,0.090632,0.000000,1.000000,0.584672,0.879591,0.474636,0.000000
9,0.000161,0.005238,0.992513,0.574108,1.000000,0.216453,0.248858,0.893789,2.000000,0.508204,0.277851,0.423439,1.000000,1.000000,0.921893,0.000000,0.000000
10,0.000161,0.005238,0.992513,0.574108,1.000000,0.216453,0.248858,0.893789,2.000000,0.508204,0.277851,0.423439,1.000000,1.000000,0.921893,0.000000,0.000000
11,0.000161,0.005238,0.992513,0.574108,1.000000,0.216453,0.248858,0.893789,2.000000,0.508204,0.277851,0.423439,1.000000,1.000000,0.921893,0.000000,0.000000
12,0.000124,0.000000,0.950815,0.759932,0.969630,0.274325,0.209155,0.903705,2.000000,0.420225,0.508825,0.458614,1.000000,1.000000,1.000000,0.103070,0.000000
13,0.000061,0.161194,1.000000,0.771695,0.974555,0.412940,0.152102,0.890983,2.000000,0.431421,0.515328,0.466956,1.000000,0.506271,1.000000,0.022625,2.000000
14,0.000061,0.161194,1.000000,0.771695,0.974555,0.412940,0.152102,0.890983,2.000000,0.431421,0.515328,0.466956,1.000000,0.506271,1.000000,0.022625,2.000000
15,0.000055,0.032112,0.849397,0.895924,0.978950,0.179340,0.353502,0.886860,1.000000,0.442056,0.166775,0.412732,1.000000,0.970306,0.846870,0.083793,2.000000
16,0.000040,0.007928,0.858663,0.649561,1.000000,0.000000,0.157667,0.887322,2.000000,0.246786,0.139715,0.777428,1.000000,0.839104,0.887436,0.022960,2.000000
17,0.000032,0.033021,1.000000,1.000000,1.000000,0.035945,0.000000,0.907071,1.000000,0.570919,0.066933,0.682031,1.000000,0.358613,0.377836,0.018928,1.000000
18,0.000031,0.008651,0.876865,0.849441,1.000000,0.000000,0.000000,0.867578,1.000000,0.498336,0.029463,0.626301,1.000000,0.371329,0.281207,0.163996,2.000000
19,0.000019,0.125249,0.850458,0.748492,1.000000,0.103269,0.103682,0.932086,2.000000,0.516072,0.196581,0.779811,1.000000,0.418231,0.235587,0.181287,0.000000
20,0.000019,0.125249,0.850458,0.748492,1.000000,0.103269,0.103682,0.932086,2.000000,0.516072,0.196581,0.779811,1.000000,0.418231,0.235587,0.181287,0.000000
21,0.000004,0.173517,1.000000,0.977835,0.991737,0.000000,0.206929,1.000000,2.000000,0.688060,0.137743,0.722104,1.000000,0.270345,0.345532,0.113143,0.000000
22,0.000004,0.173517,1.000000,0.977835,0.991737,0.000000,0.206929,1.000000,2.000000,0.688060,0.137743,0.722104,1.000000,0.270345,0.345532,0.113143,0.000000
23,0.000004,0.173517,1.000000,0.977835,0.991737,0.000000,0.206929,1.000000,2.000000,0.688060,0.137743,0.722104,1.000000,0.270345,0.345532,0.113143,0.000000
24,0.000004,0.173517,1.000000,0.977835,0.991737,0.000000,0.206929,1.000000,2.000000,0.688060,0.137743,0.722104,1.000000,0.270345,0.345532,0.113143,0.000000
25,0.000004,0.173517,1.000000,0.977835,0.991737,0.000000,0.206929,1.000000,2.000000,0.688060,0.137743,0.722104,1.000000,0.270345,0.345532,0.113143,0.000000
26,0.000002,0.000000,1.000000,0.850236,1.000000,0.045201,0.298029,0.873254,2.000000,0.499416,0.071997,1.000000,1.000000,0.315976,0.670395,0.224106,1.000000
27,0.000002,0.000000,1.000000,0.850236,1.000000,0.045201,0.298029,0.873254,2.000000,0.499416,0.071997,1.000000,1.000000,0.315976,0.670395,0.224106,1.000000
28,0.000002,0.000000,1.000000,0.850236,1.000000,0.045201,0.298029,0.873254,2.000000,0.499416,0.071997,1.000000,1.000000,0.315976,0.670395,0.224106,1.000000
29,0.000002,0.000000,1.000000,0.850236,1.000000,0.045201,0.298029,0.873254,2.000000,0.499416,0.071997,1.000000,1.000000,0.315976,0.670395,0.224106,1.000000
30,0.000002,0.000000,1.000000,0.850236,1.000000,0.045201,0.298029,0.873254,2.000000,0.499416,0.071997,1.000000,1.000000,0.315976,0.670395,0.224106,1.000000
31,0.000000,0.000000,1.000000,1.000000,1.000000,0.105436,0.173314,1.000000,1.000000,0.489735,0.000000,0.923867,1.000000,0.466695,0.140980,0.332223,1.000000
