gen, fitness
0,0.027983,0.000000,1.000000,0.210000,0.800000,0.030000,0.030000,1.000000,0.000000,1.000000,0.000000,0.000000,0.600000,1.000000,1.000000,0.000000,0.000000
1,0.027983,0.000000,1.000000,0.210000,0.800000,0.030000,0.030000,1.000000,0.000000,1.000000,0.000000,0.000000,0.600000,1.000000,1.000000,0.000000,0.000000
2,0.009012,0.000000,1.000000,0.165395,0.800000,0.030000,0.030000,1.000000,1.000000,1.000000,0.000000,0.000000,0.751173,0.904187,1.000000,0.000000,2.000000
3,0.007168,0.000000,1.000000,0.201654,0.893392,0.086580,0.250914,1.000000,2.000000,1.000000,0.000000,0.000000,0.822621,0.840518,1.000000,0.022043,1.000000
4,0.004871,0.000000,0.868273,0.165395,0.897656,0.000000,0.000000,1.000000,2.000000,1.000000,0.080039,0.218409,0.789952,0.838421,1.000000,0.034285,2.000000
5,0.003373,0.000000,1.000000,0.355177,0.884809,0.297663,0.233529,1.000000,2.000000,1.000000,0.070179,0.424869,0.822621,0.783743,0.883797,0.022043,2.000000
6,0.003373,0.000000,1.000000,0.355177,0.884809,0.297663,0.233529,1.000000,2.000000,1.000000,0.070179,0.424869,0.822621,0.783743,0.883797,0.022043,2.000000
7,0.002855,0.022609,0.944667,0.428978,0.862921,0.000000,0.000000,0.901347,2.000000,0.544972,0.000000,0.255293,0.897491,0.903752,0.887670,0.071875,0.000000
8,0.001830,0.000000,0.833205,0.165395,0.956303,0.000000,0.279540,1.000000,2.000000,0.963184,0.000000,0.159359,0.924783,0.767612,0.772409,0.169188,1.000000
9,0.001737,0.000000,0.893007,0.206664,0.956303,0.000000,0.363402,1.000000,2.000000,0.875229,0.000000,0.304704,0.924783,0.695257,0.827189,0.285717,0.000000
10,0.001737,0.000000,0.893007,0.206664,0.956303,0.000000,0.363402,1.000000,2.000000,0.875229,0.000000,0.304704,0.924783,0.695257,0.827189,0.285717,0.000000
11,0.001185,0.000000,0.780965,0.165395,1.000000,0.011561,0.379137,1.000000,0.000000,0.838309,0.018819,0.159359,0.980638,0.729103,0.891206,0.356395,1.000000
12,0.001086,0.157569,0.885860,0.165395,1.000000,0.036815,0.341311,1.000000,2.000000,0.890372,0.008420,0.159359,1.000000,0.859440,0.891206,0.286761,1.000000
13,0.000529,0.000000,0.792470,0.260076,1.000000,0.136975,0.621911,0.909496,2.000000,0.890372,0.171874,0.461225,0.980638,0.868755,0.805393,0.613847,2.000000
14,0.000529,0.000000,0.792470,0.260076,1.000000,0.136975,0.621911,0.909496,2.000000,0.890372,0.171874,0.461225,0.980638,0.868755,0.805393,0.613847,2.000000
15,0.000529,0.000000,0.792470,0.260076,1.000000,0.136975,0.621911,0.909496,2.000000,0.890372,0.171874,0.461225,0.980638,0.868755,0.805393,0.613847,2.000000
16,0.000490,0.004524,0.985786,0.145114,1.000000,0.082400,0.072382,1.000000,2.000000,0.762351,0.120235,0.289857,1.000000,0.837864,0.957344,0.198279,2.000000
17,0.000435,0.005249,0.985786,0.261670,1.000000,0.082400,0.072382,1.000000,2.000000,0.762351,0.120235,0.375299,1.000000,0.801075,0.957344,0.198279,2.000000
18,0.000428,0.000000,1.000000,0.261670,1.000000,0.082400,0.072382,1.000000,2.000000,0.762351,0.058299,0.375299,1.000000,0.801075,0.957344,0.198279,2.000000
19,0.000428,0.000000,1.000000,0.261670,1.000000,0.082400,0.072382,1.000000,2.000000,0.762351,0.058299,0.375299,1.000000,0.801075,0.957344,0.198279,2.000000
20,0.000417,0.155558,0.985786,0.087277,1.000000,0.291291,0.273324,1.000000,2.000000,0.499087,0.000000,0.497523,1.000000,0.937671,0.822392,0.327664,2.000000
21,0.000396,0.000000,1.000000,0.214715,1.000000,0.063197,0.000000,0.959123,2.000000,0.676721,0.000000,0.409720,1.000000,0.797974,0.957344,0.155799,2.000000
22,0.000396,0.000000,1.000000,0.214715,1.000000,0.063197,0.000000,0.959123,2.000000,0.676721,0.000000,0.409720,1.000000,0.797974,0.957344,0.155799,2.000000
23,0.000350,0.011447,0.937323,0.182789,1.000000,0.090039,0.273606,1.000000,2.000000,0.523039,0.198764,0.579940,1.000000,0.664108,0.896240,0.532173,2.000000
24,0.000350,0.011447,0.937323,0.182789,1.000000,0.090039,0.273606,1.000000,2.000000,0.523039,0.198764,0.579940,1.000000,0.664108,0.896240,0.532173,2.000000
25,0.000350,0.011447,0.937323,0.182789,1.000000,0.090039,0.273606,1.000000,2.000000,0.523039,0.198764,0.579940,1.000000,0.664108,0.896240,0.532173,2.000000
26,0.000315,0.000000,0.937323,0.299232,0.992731,0.110229,0.512684,1.000000,2.000000,0.483111,0.198764,0.579940,1.000000,0.664108,0.863841,0.647315,2.000000
27,0.000315,0.000000,0.937323,0.299232,0.992731,0.110229,0.512684,1.000000,2.000000,0.483111,0.198764,0.579940,1.000000,0.664108,0.863841,0.647315,2.000000
28,0.000299,0.000000,0.937972,0.380380,1.000000,0.110070,0.087444,1.000000,1.000000,0.553821,0.172328,0.668133,1.000000,0.648906,0.995646,0.734368,2.000000
29,0.000299,0.000000,0.937972,0.380380,1.000000,0.110070,0.087444,1.000000,1.000000,0.553821,0.172328,0.668133,1.000000,0.648906,0.995646,0.734368,2.000000
30,0.000299,0.000000,0.937972,0.380380,1.000000,0.110070,0.087444,1.000000,1.000000,0.553821,0.172328,0.668133,1.000000,0.648906,0.995646,0.734368,2.000000
31,0.000299,0.000000,0.937972,0.380380,1.000000,0.110070,0.087444,1.000000,1.000000,0.553821,0.172328,0.668133,1.000000,0.648906,0.995646,0.734368,2.000000
32,0.000299,0.000000,0.937972,0.380380,1.000000,0.110070,0.087444,1.000000,1.000000,0.553821,0.172328,0.668133,1.000000,0.648906,0.995646,0.734368,2.000000
33,0.000201,0.000000,0.965499,0.264483,1.000000,0.156759,0.000000,1.000000,2.000000,0.404142,0.127145,0.773471,1.000000,0.706198,0.995646,0.642607,2.000000
34,0.000201,0.000000,0.965499,0.264483,1.000000,0.156759,0.000000,1.000000,2.000000,0.404142,0.127145,0.773471,1.000000,0.706198,0.995646,0.642607,2.000000
35,0.000201,0.000000,0.965499,0.264483,1.000000,0.156759,0.000000,1.000000,2.000000,0.404142,0.127145,0.773471,1.000000,0.706198,0.995646,0.642607,2.000000
36,0.000201,0.000000,0.965499,0.264483,1.000000,0.156759,0.000000,1.000000,2.000000,0.404142,0.127145,0.773471,1.000000,0.706198,0.995646,0.642607,2.000000
37,0.000201,0.000000,0.965499,0.264483,1.000000,0.156759,0.000000,1.000000,2.000000,0.404142,0.127145,0.773471,1.000000,0.706198,0.995646,0.642607,2.000000
38,0.000201,0.000000,0.965499,0.264483,1.000000,0.156759,0.000000,1.000000,2.000000,0.404142,0.127145,0.773471,1.000000,0.706198,0.995646,0.642607,2.000000
39,0.000184,0.104822,1.000000,0.189533,1.000000,0.079420,0.000000,0.959121,2.000000,0.308022,0.045831,0.887416,1.000000,0.834869,0.995646,0.642607,2.000000
40,0.000184,0.104822,1.000000,0.189533,1.000000,0.079420,0.000000,0.959121,2.000000,0.308022,0.045831,0.887416,1.000000,0.834869,0.995646,0.642607,2.000000
41,0.000184,0.104822,1.000000,0.189533,1.000000,0.079420,0.000000,0.959121,2.000000,0.308022,0.045831,0.887416,1.000000,0.834869,0.995646,0.642607,2.000000
42,0.000184,0.104822,1.000000,0.189533,1.000000,0.079420,0.000000,0.959121,2.000000,0.308022,0.045831,0.887416,1.000000,0.834869,0.995646,0.642607,2.000000
43,0.000184,0.104822,1.000000,0.189533,1.000000,0.079420,0.000000,0.959121,2.000000,0.308022,0.045831,0.887416,1.000000,0.834869,0.995646,0.642607,2.000000
44,0.000181,0.000000,0.881095,0.425451,1.000000,0.042331,0.081331,1.000000,2.000000,0.417085,0.127214,1.000000,1.000000,0.735282,0.938681,0.557156,2.000000
45,0.000167,0.104822,1.000000,0.189533,1.000000,0.079420,0.000000,0.959121,2.000000,0.308022,0.205089,0.907298,1.000000,0.800143,1.000000,0.882048,2.000000
46,0.000167,0.104822,1.000000,0.189533,1.000000,0.079420,0.000000,0.959121,2.000000,0.308022,0.205089,0.907298,1.000000,0.800143,1.000000,0.882048,2.000000
47,0.000120,0.000000,0.833294,0.212788,1.000000,0.011501,0.082177,1.000000,2.000000,0.050812,0.105713,1.000000,1.000000,0.784850,0.710482,0.693316,2.000000
48,0.000120,0.000000,0.833294,0.212788,1.000000,0.011501,0.082177,1.000000,2.000000,0.050812,0.105713,1.000000,1.000000,0.784850,0.710482,0.693316,2.000000
49,0.000120,0.000000,0.833294,0.212788,1.000000,0.011501,0.082177,1.000000,2.000000,0.050812,0.105713,1.000000,1.000000,0.784850,0.710482,0.693316,2.000000
50,0.000120,0.000000,0.833294,0.212788,1.000000,0.011501,0.082177,1.000000,2.000000,0.050812,0.105713,1.000000,1.000000,0.784850,0.710482,0.693316,2.000000
51,0.000120,0.000000,0.833294,0.212788,1.000000,0.011501,0.082177,1.000000,2.000000,0.050812,0.105713,1.000000,1.000000,0.784850,0.710482,0.693316,2.000000
52,0.000119,0.026247,1.000000,0.212788,1.000000,0.000000,0.107549,1.000000,2.000000,0.125733,0.000000,1.000000,1.000000,0.873187,0.841162,0.784520,2.000000
53,0.000119,0.026247,1.000000,0.212788,1.000000,0.000000,0.107549,1.000000,2.000000,0.125733,0.000000,1.000000,1.000000,0.873187,0.841162,0.784520,2.000000
54,0.000119,0.026247,1.000000,0.212788,1.000000,0.000000,0.107549,1.000000,2.000000,0.125733,0.000000,1.000000,1.000000,0.873187,0.841162,0.784520,2.000000
55,0.000119,0.026247,1.000000,0.212788,1.000000,0.000000,0.107549,1.000000,2.000000,0.125733,0.000000,1.000000,1.000000,0.873187,0.841162,0.784520,2.000000
56,0.000119,0.026247,1.000000,0.212788,1.000000,0.000000,0.107549,1.000000,2.000000,0.125733,0.000000,1.000000,1.000000,0.873187,0.841162,0.784520,2.000000
57,0.000119,0.026247,1.000000,0.212788,1.000000,0.000000,0.107549,1.000000,2.000000,0.125733,0.000000,1.000000,1.000000,0.873187,0.841162,0.784520,2.000000
gen, fitness
0,0.112030,0.000000,1.000000,0.210000,0.800000,0.030000,0.030000,1.000000,0.000000,1.000000,0.000000,0.000000,0.600000,1.000000,1.000000,0.000000,0.000000
1,0.112030,0.000000,1.000000,0.210000,0.800000,0.030000,0.030000,1.000000,0.000000,1.000000,0.000000,0.000000,0.600000,1.000000,1.000000,0.000000,0.000000
2,0.081392,0.076333,1.000000,0.210000,0.800000,0.030000,0.030000,1.000000,2.000000,1.000000,0.000000,0.287025,0.655199,1.000000,1.000000,0.000000,2.000000
3,0.071872,0.000000,1.000000,0.210000,0.910662,0.042345,0.258542,1.000000,1.000000,1.000000,0.000000,0.093001,0.786664,0.952729,0.966568,0.076113,1.000000
4,0.055350,0.000000,1.000000,0.210000,0.978925,0.235101,0.094625,1.000000,0.000000,1.000000,0.139369,0.195907,0.881148,1.000000,1.000000,0.000000,1.000000
5,0.048116,0.033642,0.943905,0.167297,0.979236,0.030000,0.030000,0.918197,2.000000,0.879647,0.277877,0.000000,0.980148,1.000000,1.000000,0.067405,2.000000
6,0.042293,0.145721,0.977429,0.000000,1.000000,0.000000,0.026175,0.990098,1.000000,0.735219,0.103292,0.308128,0.992031,0.807404,1.000000,0.000000,2.000000
7,0.041005,0.062220,0.977429,0.000929,1.000000,0.000000,0.011583,0.894002,2.000000,0.735219,0.103292,0.308128,0.976917,0.807404,0.974809,0.000000,2.000000
8,0.040504,0.000000,0.864855,0.073383,1.000000,0.000000,0.232693,1.000000,2.000000,0.869718,0.103333,0.564223,1.000000,1.000000,0.827504,0.177374,1.000000
9,0.039542,0.027901,1.000000,0.315785,1.000000,0.093220,0.012489,0.854054,2.000000,1.000000,0.093664,0.308128,1.000000,0.825518,1.000000,0.059987,2.000000
10,0.036340,0.000000,1.000000,0.315785,1.000000,0.093220,0.227955,1.000000,2.000000,0.869718,0.044563,0.564223,1.000000,1.000000,0.827504,0.177374,2.000000
11,0.036267,0.014278,1.000000,0.315785,1.000000,0.130385,0.109546,1.000000,2.000000,0.869718,0.044563,0.564223,1.000000,1.000000,0.827504,0.177374,2.000000
12,0.035545,0.000000,0.849874,0.315785,1.000000,0.103257,0.316721,0.965161,2.000000,1.000000,0.044563,0.760265,0.993161,1.000000,0.827504,0.292727,2.000000
13,0.035545,0.000000,0.849874,0.315785,1.000000,0.103257,0.316721,0.965161,2.000000,1.000000,0.044563,0.760265,0.993161,1.000000,0.827504,0.292727,2.000000
14,0.035114,0.120413,0.976421,0.603147,1.000000,0.194341,0.467372,1.000000,2.000000,1.000000,0.263552,0.649879,1.000000,1.000000,0.860068,0.337342,2.000000
15,0.035114,0.120413,0.976421,0.603147,1.000000,0.194341,0.467372,1.000000,2.000000,1.000000,0.263552,0.649879,1.000000,1.000000,0.860068,0.337342,2.000000
16,0.034198,0.000000,0.844760,0.315785,1.000000,0.103257,0.431547,0.867508,2.000000,0.762233,0.044563,0.940103,0.993161,1.000000,0.827504,0.292727,2.000000
17,0.032681,0.000000,1.000000,0.494729,1.000000,0.124893,0.431547,1.000000,2.000000,0.762233,0.165303,0.940103,0.993161,1.000000,0.939934,0.292727,2.000000
18,0.032681,0.000000,1.000000,0.494729,1.000000,0.124893,0.431547,1.000000,2.000000,0.762233,0.165303,0.940103,0.993161,1.000000,0.939934,0.292727,2.000000
19,0.032604,0.095011,0.980986,0.638026,1.000000,0.164110,0.143401,0.856683,2.000000,0.942496,0.193517,1.000000,1.000000,0.927177,0.766137,0.270403,2.000000
20,0.032604,0.095011,0.980986,0.638026,1.000000,0.164110,0.143401,0.856683,2.000000,0.942496,0.193517,1.000000,1.000000,0.927177,0.766137,0.270403,2.000000
21,0.032604,0.095011,0.980986,0.638026,1.000000,0.164110,0.143401,0.856683,2.000000,0.942496,0.193517,1.000000,1.000000,0.927177,0.766137,0.270403,2.000000
22,0.032604,0.095011,0.980986,0.638026,1.000000,0.164110,0.143401,0.856683,2.000000,0.942496,0.193517,1.000000,1.000000,0.927177,0.766137,0.270403,2.000000
23,0.032604,0.095011,0.980986,0.638026,1.000000,0.164110,0.143401,0.856683,2.000000,0.942496,0.193517,1.000000,1.000000,0.927177,0.766137,0.270403,2.000000
24,0.032604,0.095011,0.980986,0.638026,1.000000,0.164110,0.143401,0.856683,2.000000,0.942496,0.193517,1.000000,1.000000,0.927177,0.766137,0.270403,2.000000
25,0.032314,0.005527,0.930501,0.722371,1.000000,0.126690,0.143401,0.829404,2.000000,0.942496,0.462039,1.000000,1.000000,0.950933,0.828798,0.238626,2.000000
26,0.031730,0.008377,1.000000,0.537605,1.000000,0.085927,0.368759,1.000000,2.000000,0.724294,0.154428,0.995729,1.000000,0.936610,0.990691,0.502935,2.000000
27,0.031730,0.008377,1.000000,0.537605,1.000000,0.085927,0.368759,1.000000,2.000000,0.724294,0.154428,0.995729,1.000000,0.936610,0.990691,0.502935,2.000000
28,0.031730,0.008377,1.000000,0.537605,1.000000,0.085927,0.368759,1.000000,2.000000,0.724294,0.154428,0.995729,1.000000,0.936610,0.990691,0.502935,2.000000
29,0.031730,0.008377,1.000000,0.537605,1.000000,0.085927,0.368759,1.000000,2.000000,0.724294,0.154428,0.995729,1.000000,0.936610,0.990691,0.502935,2.000000
30,0.031730,0.008377,1.000000,0.537605,1.000000,0.085927,0.368759,1.000000,2.000000,0.724294,0.154428,0.995729,1.000000,0.936610,0.990691,0.502935,2.000000
31,0.031730,0.008377,1.000000,0.537605,1.000000,0.085927,0.368759,1.000000,2.000000,0.724294,0.154428,0.995729,1.000000,0.936610,0.990691,0.502935,2.000000
32,0.031730,0.008377,1.000000,0.537605,1.000000,0.085927,0.368759,1.000000,2.000000,0.724294,0.154428,0.995729,1.000000,0.936610,0.990691,0.502935,2.000000
33,0.031730,0.008377,1.000000,0.537605,1.000000,0.085927,0.368759,1.000000,2.000000,0.724294,0.154428,0.995729,1.000000,0.936610,0.990691,0.502935,2.000000
34,0.031730,0.008377,1.000000,0.537605,1.000000,0.085927,0.368759,1.000000,2.000000,0.724294,0.154428,0.995729,1.000000,0.936610,0.990691,0.502935,2.000000
35,0.031730,0.008377,1.000000,0.537605,1.000000,0.085927,0.368759,1.000000,2.000000,0.724294,0.154428,0.995729,1.000000,0.936610,0.990691,0.502935,2.000000
36,0.031640,0.172023,1.000000,0.524621,1.000000,0.000000,0.318454,0.991286,2.000000,0.857789,0.351198,1.000000,1.000000,0.832277,1.000000,0.693315,2.000000
37,0.031584,0.000000,1.000000,0.537605,1.000000,0.169381,0.368759,1.000000,2.000000,0.724294,0.218157,0.982183,1.000000,0.936610,1.000000,0.620019,2.000000
38,0.031584,0.000000,1.000000,0.537605,1.000000,0.169381,0.368759,1.000000,2.000000,0.724294,0.218157,0.982183,1.000000,0.936610,1.000000,0.620019,2.000000
39,0.031327,0.000000,1.000000,0.578431,1.000000,0.080620,0.368759,0.991286,2.000000,0.857789,0.351198,1.000000,1.000000,0.938900,1.000000,0.685571,2.000000
40,0.031327,0.000000,1.000000,0.578431,1.000000,0.080620,0.368759,0.991286,2.000000,0.857789,0.351198,1.000000,1.000000,0.938900,1.000000,0.685571,2.000000
41,0.031327,0.000000,1.000000,0.578431,1.000000,0.080620,0.368759,0.991286,2.000000,0.857789,0.351198,1.000000,1.000000,0.938900,1.000000,0.685571,2.000000
42,0.031327,0.000000,1.000000,0.578431,1.000000,0.080620,0.368759,0.991286,2.000000,0.857789,0.351198,1.000000,1.000000,0.938900,1.000000,0.685571,2.000000
43,0.031327,0.000000,1.000000,0.578431,1.000000,0.080620,0.368759,0.991286,2.000000,0.857789,0.351198,1.000000,1.000000,0.938900,1.000000,0.685571,2.000000
44,0.030807,0.000000,1.000000,0.575070,1.000000,0.000000,0.154071,1.000000,2.000000,0.857334,0.351198,1.000000,1.000000,0.832277,0.998078,0.872042,2.000000
45,0.030807,0.000000,1.000000,0.575070,1.000000,0.000000,0.154071,1.000000,2.000000,0.857334,0.351198,1.000000,1.000000,0.832277,0.998078,0.872042,2.000000
46,0.030807,0.000000,1.000000,0.575070,1.000000,0.000000,0.154071,1.000000,2.000000,0.857334,0.351198,1.000000,1.000000,0.832277,0.998078,0.872042,2.000000
47,0.030787,0.000000,1.000000,0.583949,1.000000,0.111613,0.154071,0.973399,2.000000,0.857334,0.351198,1.000000,1.000000,0.735136,0.998078,0.970037,2.000000
48,0.030787,0.000000,1.000000,0.583949,1.000000,0.111613,0.154071,0.973399,2.000000,0.857334,0.351198,1.000000,1.000000,0.735136,0.998078,0.970037,2.000000
49,0.030787,0.000000,1.000000,0.583949,1.000000,0.111613,0.154071,0.973399,2.000000,0.857334,0.351198,1.000000,1.000000,0.735136,0.998078,0.970037,2.000000
50,0.030787,0.000000,1.000000,0.583949,1.000000,0.111613,0.154071,0.973399,2.000000,0.857334,0.351198,1.000000,1.000000,0.735136,0.998078,0.970037,2.000000
51,0.030735,0.000000,1.000000,0.690746,1.000000,0.111613,0.154071,0.973399,2.000000,0.872515,0.325150,1.000000,1.000000,0.735136,0.998078,0.970037,2.000000
52,0.030735,0.000000,1.000000,0.690746,1.000000,0.111613,0.154071,0.973399,2.000000,0.872515,0.325150,1.000000,1.000000,0.735136,0.998078,0.970037,2.000000
53,0.030667,0.001584,1.000000,0.506745,1.000000,0.030567,0.000000,0.968540,2.000000,0.834138,0.528927,1.000000,1.000000,0.913854,0.961666,0.965306,2.000000
54,0.030667,0.001584,1.000000,0.506745,1.000000,0.030567,0.000000,0.968540,2.000000,0.834138,0.528927,1.000000,1.000000,0.913854,0.961666,0.965306,2.000000
55,0.030461,0.000000,1.000000,0.614713,1.000000,0.000000,0.135545,1.000000,2.000000,0.697681,0.296442,1.000000,1.000000,1.000000,0.998078,0.970037,2.000000
56,0.030461,0.000000,1.000000,0.614713,1.000000,0.000000,0.135545,1.000000,2.000000,0.697681,0.296442,1.000000,1.000000,1.000000,0.998078,0.970037,2.000000
57,0.030461,0.000000,1.000000,0.614713,1.000000,0.000000,0.135545,1.000000,2.000000,0.697681,0.296442,1.000000,1.000000,1.000000,0.998078,0.970037,2.000000
58,0.030419,0.001584,1.000000,0.574288,1.000000,0.030567,0.000000,1.000000,2.000000,0.757507,0.739815,1.000000,1.000000,0.959650,0.961666,0.929809,2.000000
59,0.030419,0.001584,1.000000,0.574288,1.000000,0.030567,0.000000,1.000000,2.000000,0.757507,0.739815,1.000000,1.000000,0.959650,0.961666,0.929809,2.000000
60,0.030413,0.001584,1.000000,0.613185,1.000000,0.012021,0.000000,1.000000,2.000000,0.831629,0.000587,1.000000,1.000000,1.000000,1.000000,0.944492,2.000000
61,0.030413,0.001584,1.000000,0.613185,1.000000,0.012021,0.000000,1.000000,2.000000,0.831629,0.000587,1.000000,1.000000,1.000000,1.000000,0.944492,2.000000
62,0.030413,0.001584,1.000000,0.613185,1.000000,0.012021,0.000000,1.000000,2.000000,0.831629,0.000587,1.000000,1.000000,1.000000,1.000000,0.944492,2.000000
63,0.030413,0.001584,1.000000,0.613185,1.000000,0.012021,0.000000,1.000000,2.000000,0.831629,0.000587,1.000000,1.000000,1.000000,1.000000,0.944492,2.000000
64,0.030413,0.001584,1.000000,0.613185,1.000000,0.012021,0.000000,1.000000,2.000000,0.831629,0.000587,1.000000,1.000000,1.000000,1.000000,0.944492,2.000000
65,0.030339,0.000000,1.000000,0.596268,1.000000,0.000000,0.060079,0.942042,2.000000,0.786432,0.805942,1.000000,1.000000,1.000000,0.977515,1.000000,2.000000
66,0.030339,0.000000,1.000000,0.596268,1.000000,0.000000,0.060079,0.942042,2.000000,0.786432,0.805942,1.000000,1.000000,1.000000,0.977515,1.000000,2.000000
67,0.030339,0.000000,1.000000,0.596268,1.000000,0.000000,0.060079,0.942042,2.000000,0.786432,0.805942,1.000000,1.000000,1.000000,0.977515,1.000000,2.000000
68,0.030339,0.000000,1.000000,0.596268,1.000000,0.000000,0.060079,0.942042,2.000000,0.786432,0.805942,1.000000,1.000000,1.000000,0.977515,1.000000,2.000000
69,0.030339,0.000000,1.000000,0.596268,1.000000,0.000000,0.060079,0.942042,2.000000,0.786432,0.805942,1.000000,1.000000,1.000000,0.977515,1.000000,2.000000
70,0.030339,0.000000,1.000000,0.596268,1.000000,0.000000,0.060079,0.942042,2.000000,0.786432,0.805942,1.000000,1.000000,1.000000,0.977515,1.000000,2.000000
71,0.030339,0.000000,1.000000,0.596268,1.000000,0.000000,0.060079,0.942042,2.000000,0.786432,0.805942,1.000000,1.000000,1.000000,0.977515,1.000000,2.000000
72,0.030331,0.000000,1.000000,0.712458,1.000000,0.000000,0.000000,1.000000,2.000000,0.872900,0.113447,1.000000,1.000000,1.000000,0.977515,1.000000,2.000000
73,0.030331,0.000000,1.000000,0.712458,1.000000,0.000000,0.000000,1.000000,2.000000,0.872900,0.113447,1.000000,1.000000,1.000000,0.977515,1.000000,2.000000
74,0.030331,0.000000,1.000000,0.712458,1.000000,0.000000,0.000000,1.000000,2.000000,0.872900,0.113447,1.000000,1.000000,1.000000,0.977515,1.000000,2.000000
75,0.030331,0.000000,1.000000,0.712458,1.000000,0.000000,0.000000,1.000000,2.000000,0.872900,0.113447,1.000000,1.000000,1.000000,0.977515,1.000000,2.000000
