gen, fitness
0,0.094016,0.000000,1.000000,0.210000,0.800000,0.030000,0.030000,1.000000,0.000000,1.000000,0.000000,0.000000,0.600000,1.000000,1.000000,0.000000,0.000000
1,0.094016,0.000000,1.000000,0.210000,0.800000,0.030000,0.030000,1.000000,0.000000,1.000000,0.000000,0.000000,0.600000,1.000000,1.000000,0.000000,0.000000
2,0.069566,0.000000,1.000000,0.022045,0.800000,0.030000,0.081787,1.000000,0.000000,1.000000,0.000000,0.000000,0.600000,1.000000,1.000000,0.000000,0.000000
3,0.062187,0.000000,1.000000,0.022045,0.758597,0.030000,0.081787,1.000000,0.000000,1.000000,0.014101,0.000000,0.600000,1.000000,1.000000,0.000000,0.000000
4,0.060780,0.000000,1.000000,0.210000,0.669320,0.030000,0.085429,1.000000,0.000000,1.000000,0.000000,0.000000,0.543944,1.000000,1.000000,0.000000,0.000000
5,0.047278,0.000000,1.000000,0.022045,0.607593,0.000000,0.046722,1.000000,1.000000,1.000000,0.000000,0.000000,0.502326,0.872039,1.000000,0.000000,1.000000
6,0.046625,0.000000,1.000000,0.005370,0.669320,0.030000,0.081787,0.892859,1.000000,1.000000,0.000000,0.000000,0.502326,0.872039,1.000000,0.000000,1.000000
7,0.040960,0.000000,1.000000,0.022045,0.607593,0.000000,0.046722,1.000000,0.000000,1.000000,0.000000,0.000000,0.451499,1.000000,0.701223,0.000000,0.000000
8,0.034194,0.000000,1.000000,0.000000,0.607593,0.000000,0.000542,1.000000,2.000000,1.000000,0.000000,0.000000,0.321746,1.000000,0.861577,0.000000,2.000000
9,0.034194,0.000000,1.000000,0.000000,0.607593,0.000000,0.000542,1.000000,2.000000,1.000000,0.000000,0.000000,0.321746,1.000000,0.861577,0.000000,2.000000
10,0.032281,0.116846,1.000000,0.039024,0.528671,0.006824,0.029705,0.845766,0.000000,1.000000,0.116178,0.025678,0.370855,1.000000,0.862376,0.000000,0.000000
11,0.031093,0.000000,1.000000,0.000000,0.607593,0.000000,0.029680,1.000000,1.000000,1.000000,0.000000,0.000000,0.236083,0.978492,0.937711,0.193288,0.000000
12,0.023145,0.000000,1.000000,0.000000,0.558660,0.030000,0.029705,0.845766,0.000000,1.000000,0.116178,0.000000,0.108935,1.000000,0.862376,0.000000,2.000000
13,0.023080,0.000000,1.000000,0.000000,0.558660,0.030000,0.001057,0.845766,0.000000,1.000000,0.116178,0.000000,0.108935,1.000000,0.862376,0.193288,0.000000
14,0.020978,0.116846,1.000000,0.000000,0.528671,0.006824,0.029705,0.845766,0.000000,1.000000,0.056276,0.000000,0.108935,0.930112,0.862376,0.000000,0.000000
15,0.015957,0.116846,0.745044,0.039024,0.370217,0.006824,0.003435,1.000000,2.000000,1.000000,0.000000,0.000000,0.108935,1.000000,0.862376,0.193288,0.000000
16,0.009699,0.116846,1.000000,0.059564,0.281475,0.128988,0.000000,0.802096,0.000000,1.000000,0.110203,0.000000,0.045662,1.000000,0.919523,0.000000,2.000000
17,0.009699,0.116846,1.000000,0.059564,0.281475,0.128988,0.000000,0.802096,0.000000,1.000000,0.110203,0.000000,0.045662,1.000000,0.919523,0.000000,2.000000
18,0.008455,0.110755,1.000000,0.059564,0.281475,0.128988,0.000000,0.802096,0.000000,1.000000,0.025463,0.000000,0.000000,1.000000,0.919523,0.000000,2.000000
19,0.006408,0.116846,1.000000,0.000000,0.281475,0.128988,0.000000,0.802096,0.000000,1.000000,0.000000,0.000000,0.000000,1.000000,0.919523,0.000000,0.000000
20,0.006359,0.116846,1.000000,0.000000,0.281475,0.128988,0.000000,0.775183,0.000000,1.000000,0.000000,0.000000,0.000000,1.000000,0.919523,0.000000,0.000000
21,0.005462,0.174623,1.000000,0.059564,0.177091,0.128988,0.000000,0.802096,0.000000,1.000000,0.025463,0.000000,0.000000,1.000000,0.831503,0.000000,1.000000
22,0.005158,0.195981,0.991563,0.000000,0.261955,0.128988,0.139365,0.802096,0.000000,1.000000,0.000000,0.000000,0.000000,1.000000,0.919523,0.000000,0.000000
23,0.004490,0.292755,0.991563,0.000000,0.261955,0.128988,0.139365,0.802096,1.000000,1.000000,0.145388,0.000000,0.000000,1.000000,0.919523,0.000000,0.000000
24,0.003415,0.292755,0.991563,0.000000,0.177091,0.128988,0.000000,0.802096,0.000000,1.000000,0.073868,0.000000,0.000000,1.000000,0.919523,0.000000,1.000000
25,0.003306,0.392488,1.000000,0.059564,0.167565,0.128988,0.000000,0.802096,0.000000,1.000000,0.070493,0.000000,0.000000,1.000000,0.919523,0.000000,0.000000
26,0.001714,0.504577,0.991563,0.000000,0.177091,0.128988,0.000000,0.802096,0.000000,1.000000,0.073868,0.000000,0.000000,1.000000,0.919523,0.013076,1.000000
27,0.001521,0.504577,0.991563,0.000000,0.168278,0.000000,0.000000,0.802096,0.000000,1.000000,0.073868,0.000000,0.000000,1.000000,0.919523,0.013076,0.000000
28,0.001156,0.504577,0.991563,0.000000,0.145791,0.208277,0.000000,0.723906,0.000000,1.000000,0.073868,0.000000,0.000000,1.000000,0.919523,0.000000,0.000000
29,0.001156,0.504577,0.991563,0.000000,0.145791,0.208277,0.000000,0.723906,0.000000,1.000000,0.073868,0.000000,0.000000,1.000000,0.919523,0.000000,0.000000
30,0.001015,0.504577,0.991563,0.000000,0.100580,0.000000,0.000000,0.802096,0.000000,1.000000,0.030656,0.000000,0.000000,1.000000,0.919523,0.013076,0.000000
31,0.000985,0.504577,0.991563,0.000000,0.100580,0.000000,0.000000,0.802096,0.000000,1.000000,0.030656,0.000000,0.000000,1.000000,0.919523,0.000000,0.000000
32,0.000582,0.563333,0.991563,0.000000,0.086223,0.001507,0.000000,0.802096,0.000000,1.000000,0.030656,0.000000,0.000000,1.000000,0.919523,0.000000,0.000000
33,0.000582,0.587408,1.000000,0.000000,0.100580,0.000000,0.000000,0.831026,0.000000,1.000000,0.000000,0.000000,0.000000,0.968976,0.919523,0.013076,0.000000
34,0.000323,0.625043,0.991563,0.000000,0.044814,0.000000,0.000000,0.802096,0.000000,1.000000,0.203771,0.000000,0.000000,0.958757,0.919523,0.000000,0.000000
35,0.000316,0.625043,0.991563,0.000000,0.044814,0.000000,0.016442,0.851028,0.000000,1.000000,0.203771,0.000000,0.000000,0.920297,0.919523,0.000000,0.000000
36,0.000281,0.625043,0.958425,0.000000,0.044814,0.000000,0.000000,0.842332,0.000000,0.966160,0.203771,0.000000,0.000000,0.958757,0.879114,0.000000,0.000000
37,0.000281,0.625043,0.958425,0.000000,0.044814,0.000000,0.000000,0.842332,0.000000,0.966160,0.203771,0.000000,0.000000,0.958757,0.879114,0.000000,0.000000
38,0.000068,0.713126,0.991563,0.000000,0.044814,0.000000,0.000000,0.802096,0.000000,1.000000,0.203771,0.000000,0.000000,1.000000,0.919523,0.000000,2.000000
39,0.000068,0.713126,0.991563,0.000000,0.044814,0.000000,0.000000,0.802096,0.000000,1.000000,0.203771,0.000000,0.000000,1.000000,0.919523,0.000000,2.000000
40,0.000054,0.713126,0.945543,0.000000,0.034606,0.000000,0.000000,0.802096,0.000000,1.000000,0.203771,0.000000,0.000000,0.933522,0.919523,0.000000,2.000000
41,0.000028,0.737824,0.991563,0.000000,0.044814,0.000000,0.000000,0.644230,1.000000,1.000000,0.460723,0.000000,0.000000,1.000000,0.919523,0.000000,0.000000
42,0.000016,0.737824,0.952831,0.000000,0.000000,0.000000,0.000000,0.950261,0.000000,0.980534,0.203771,0.000000,0.000000,0.958757,0.919523,0.000000,0.000000
43,0.000016,0.737824,0.952831,0.000000,0.000000,0.000000,0.000000,0.950261,0.000000,0.980534,0.203771,0.000000,0.000000,0.958757,0.919523,0.000000,0.000000
44,0.000002,0.769836,0.991563,0.000000,0.000000,0.000000,0.000000,0.856489,0.000000,0.998619,0.369761,0.000000,0.000000,0.910187,1.000000,0.000000,1.000000
45,0.000000,0.769836,0.991563,0.000000,0.000000,0.000000,0.000000,0.856489,0.000000,0.998619,0.369761,0.000000,0.000000,0.816313,0.974308,0.000000,0.000000
gen, fitness
0,0.011444,0.000000,1.000000,0.210000,0.800000,0.030000,0.030000,1.000000,0.000000,1.000000,0.000000,0.000000,0.600000,1.000000,1.000000,0.000000,0.000000
1,0.011444,0.000000,1.000000,0.210000,0.800000,0.030000,0.030000,1.000000,0.000000,1.000000,0.000000,0.000000,0.600000,1.000000,1.000000,0.000000,0.000000
2,0.006023,0.000000,1.000000,0.210000,0.702315,0.030000,0.000000,1.000000,0.000000,1.000000,0.000000,0.000000,0.600000,1.000000,1.000000,0.000000,0.000000
3,0.005366,0.000000,1.000000,0.210000,0.702315,0.030000,0.000000,0.868165,0.000000,0.875329,0.000000,0.000000,0.559647,1.000000,1.000000,0.000000,0.000000
4,0.005155,0.000000,1.000000,0.091087,0.645927,0.030000,0.030000,1.000000,0.000000,1.000000,0.000000,0.000000,0.507653,1.000000,1.000000,0.000000,0.000000
5,0.004777,0.129797,1.000000,0.151929,0.702315,0.030000,0.000000,1.000000,0.000000,1.000000,0.000000,0.000000,0.600000,1.000000,0.734423,0.000000,0.000000
6,0.003552,0.000000,1.000000,0.210000,0.645927,0.030000,0.030000,1.000000,1.000000,1.000000,0.000000,0.000000,0.507653,1.000000,1.000000,0.000000,0.000000
7,0.003552,0.000000,1.000000,0.210000,0.645927,0.030000,0.030000,1.000000,1.000000,1.000000,0.000000,0.000000,0.507653,1.000000,1.000000,0.000000,0.000000
8,0.002736,0.129797,1.000000,0.094992,0.702315,0.030000,0.035428,1.000000,0.000000,1.000000,0.000000,0.000000,0.507653,1.000000,1.000000,0.000000,2.000000
9,0.002655,0.129797,1.000000,0.094992,0.702315,0.030000,0.135824,1.000000,0.000000,1.000000,0.000000,0.000000,0.504069,1.000000,1.000000,0.000000,0.000000
10,0.002406,0.129797,1.000000,0.043477,0.702315,0.030000,0.035428,1.000000,0.000000,1.000000,0.110760,0.000000,0.507653,0.946520,1.000000,0.000000,2.000000
11,0.001202,0.129797,1.000000,0.000000,0.702315,0.030000,0.035428,1.000000,0.000000,1.000000,0.000000,0.000000,0.424015,1.000000,1.000000,0.000000,0.000000
12,0.001202,0.129797,1.000000,0.000000,0.702315,0.030000,0.035428,1.000000,0.000000,1.000000,0.000000,0.000000,0.424015,1.000000,1.000000,0.000000,0.000000
13,0.001177,0.129797,1.000000,0.000000,0.702315,0.030000,0.035428,0.981523,0.000000,1.000000,0.000000,0.000000,0.424015,1.000000,1.000000,0.000000,0.000000
14,0.001006,0.129797,1.000000,0.000000,0.688064,0.030000,0.035428,0.981523,0.000000,1.000000,0.000000,0.000000,0.424015,1.000000,1.000000,0.000000,0.000000
15,0.001006,0.129797,1.000000,0.000000,0.688064,0.030000,0.035428,0.981523,0.000000,1.000000,0.000000,0.000000,0.424015,1.000000,1.000000,0.000000,0.000000
16,0.000923,0.129797,1.000000,0.000000,0.702315,0.000000,0.035428,0.752351,0.000000,1.000000,0.031025,0.000000,0.424015,1.000000,1.000000,0.000000,0.000000
17,0.000922,0.129797,1.000000,0.000000,0.702315,0.000000,0.035428,0.752351,0.000000,1.000000,0.047487,0.000000,0.424015,1.000000,1.000000,0.000000,0.000000
18,0.000922,0.129797,1.000000,0.000000,0.702315,0.000000,0.035428,0.752351,0.000000,1.000000,0.047487,0.000000,0.424015,1.000000,1.000000,0.000000,0.000000
19,0.000801,0.129797,1.000000,0.000000,0.688064,0.030000,0.035428,0.828357,0.000000,1.000000,0.000000,0.000000,0.409507,1.000000,1.000000,0.000000,1.000000
20,0.000787,0.129797,1.000000,0.000000,0.693737,0.000000,0.035428,0.402046,1.000000,1.000000,0.047487,0.000000,0.424015,1.000000,1.000000,0.000000,0.000000
21,0.000365,0.129797,1.000000,0.000000,0.643780,0.000000,0.035428,0.402046,1.000000,1.000000,0.000000,0.000000,0.346903,1.000000,1.000000,0.000000,2.000000
22,0.000340,0.129797,1.000000,0.000000,0.643780,0.000000,0.035428,0.402046,2.000000,1.000000,0.000000,0.000000,0.346903,1.000000,1.000000,0.000000,2.000000
23,0.000255,0.129797,1.000000,0.000000,0.643780,0.000000,0.035428,0.402046,1.000000,0.912687,0.000000,0.000000,0.346903,1.000000,1.000000,0.000000,2.000000
24,0.000254,0.129797,1.000000,0.000000,0.643780,0.000000,0.035428,0.402046,1.000000,0.941522,0.000000,0.000000,0.346903,1.000000,0.880655,0.000000,0.000000
25,0.000157,0.129797,1.000000,0.000000,0.643780,0.000000,0.035428,0.402046,2.000000,1.000000,0.000000,0.000000,0.319357,1.000000,1.000000,0.009758,1.000000
26,0.000138,0.129797,1.000000,0.000000,0.643780,0.000000,0.035428,0.378448,1.000000,1.000000,0.000000,0.000000,0.319357,1.000000,1.000000,0.009758,1.000000
27,0.000117,0.129797,1.000000,0.000000,0.631235,0.211705,0.035428,0.402046,2.000000,1.000000,0.000000,0.000000,0.274232,0.845046,1.000000,0.000000,0.000000
28,0.000040,0.274613,1.000000,0.000000,0.600352,0.089010,0.035428,0.402046,2.000000,1.000000,0.000000,0.000000,0.319357,1.000000,1.000000,0.084240,1.000000
29,0.000012,0.274613,1.000000,0.000000,0.600352,0.089010,0.035428,0.402046,2.000000,1.000000,0.000000,0.000000,0.319357,1.000000,1.000000,0.009758,1.000000
30,0.000011,0.274613,1.000000,0.000000,0.600352,0.128021,0.035428,0.402046,1.000000,1.000000,0.000000,0.000000,0.319357,0.845046,1.000000,0.000000,0.000000
31,0.000011,0.274613,1.000000,0.000000,0.600352,0.128021,0.035428,0.402046,1.000000,1.000000,0.000000,0.000000,0.319357,0.845046,1.000000,0.000000,0.000000
32,0.000007,0.274613,1.000000,0.000000,0.600352,0.089010,0.035428,0.294062,1.000000,1.000000,0.000000,0.000000,0.277852,0.750676,1.000000,0.151770,1.000000
33,0.000006,0.274613,1.000000,0.000000,0.600352,0.089010,0.035428,0.294062,1.000000,1.000000,0.000000,0.000000,0.277852,0.750676,0.817097,0.151770,1.000000
34,0.000002,0.299564,0.911535,0.000000,0.600352,0.050758,0.000000,0.402046,1.000000,1.000000,0.056865,0.000000,0.316912,1.000000,1.000000,0.000000,1.000000
35,0.000001,0.263173,1.000000,0.000000,0.600352,0.089010,0.035428,0.294062,1.000000,1.000000,0.000000,0.000000,0.277852,0.750676,1.000000,0.151770,1.000000
36,0.000000,0.274613,1.000000,0.000000,0.600352,0.089010,0.035428,0.294062,1.000000,1.000000,0.000000,0.007554,0.277852,0.750676,1.000000,0.151770,0.000000
gen, fitness
0,0.010533,0.000000,1.000000,0.210000,0.800000,0.030000,0.030000,1.000000,0.000000,1.000000,0.000000,0.000000,0.600000,1.000000,1.000000,0.000000,0.000000
1,0.010533,0.000000,1.000000,0.210000,0.800000,0.030000,0.030000,1.000000,0.000000,1.000000,0.000000,0.000000,0.600000,1.000000,1.000000,0.000000,0.000000
2,0.002031,0.000000,1.000000,0.210000,0.702961,0.030000,0.060726,1.000000,0.000000,0.986314,0.000000,0.000000,0.600000,1.000000,1.000000,0.000000,0.000000
3,0.002021,0.000000,1.000000,0.210000,0.702961,0.030000,0.030000,1.000000,0.000000,1.000000,0.000000,0.000000,0.600000,1.000000,1.000000,0.000000,0.000000
4,0.001153,0.000000,1.000000,0.026016,0.762235,0.000000,0.030000,1.000000,0.000000,1.000000,0.000000,0.000000,0.548063,1.000000,1.000000,0.093713,0.000000
5,0.001153,0.000000,1.000000,0.026016,0.762235,0.000000,0.030000,1.000000,0.000000,1.000000,0.000000,0.000000,0.548063,1.000000,1.000000,0.093713,0.000000
6,0.001089,0.000000,1.000000,0.026016,0.762235,0.000000,0.077596,1.000000,0.000000,1.000000,0.015535,0.000000,0.548063,1.000000,1.000000,0.000000,0.000000
7,0.001019,0.000000,1.000000,0.000000,0.762235,0.000000,0.077596,1.000000,0.000000,1.000000,0.000000,0.000000,0.548063,1.000000,1.000000,0.000000,0.000000
8,0.000874,0.000000,0.848647,0.000000,0.762235,0.000000,0.030000,1.000000,0.000000,1.000000,0.040867,0.000000,0.498525,1.000000,1.000000,0.093713,0.000000
9,0.000874,0.000000,0.848647,0.000000,0.762235,0.000000,0.030000,1.000000,0.000000,1.000000,0.040867,0.000000,0.498525,1.000000,1.000000,0.093713,0.000000
10,0.000775,0.000000,0.848647,0.000000,0.762235,0.000000,0.030308,0.909483,0.000000,1.000000,0.040867,0.000000,0.498525,1.000000,1.000000,0.000000,0.000000
11,0.000586,0.000000,0.865936,0.000000,0.745806,0.000000,0.077596,1.000000,0.000000,1.000000,0.000000,0.000000,0.498774,1.000000,1.000000,0.000000,0.000000
12,0.000586,0.000000,0.865936,0.000000,0.745806,0.000000,0.077596,1.000000,0.000000,1.000000,0.000000,0.000000,0.498774,1.000000,1.000000,0.000000,0.000000
13,0.000559,0.000000,0.865936,0.000000,0.745806,0.190713,0.256148,0.888440,0.000000,1.000000,0.000000,0.000000,0.498774,0.881617,1.000000,0.000000,0.000000
14,0.000499,0.000000,1.000000,0.000000,0.762235,0.000000,0.091589,0.643768,0.000000,1.000000,0.000000,0.000000,0.498774,1.000000,1.000000,0.000000,0.000000
15,0.000426,0.157213,1.000000,0.000000,0.744582,0.000000,0.091589,0.564496,0.000000,1.000000,0.000000,0.000000,0.498774,1.000000,1.000000,0.000000,0.000000
16,0.000426,0.157213,1.000000,0.000000,0.744582,0.000000,0.091589,0.564496,0.000000,1.000000,0.000000,0.000000,0.498774,1.000000,1.000000,0.000000,0.000000
17,0.000252,0.157213,1.000000,0.000000,0.712748,0.000000,0.091589,0.643768,0.000000,1.000000,0.127845,0.000000,0.498774,1.000000,0.961263,0.000000,0.000000
18,0.000234,0.157213,1.000000,0.000000,0.712748,0.000000,0.091589,0.643768,1.000000,1.000000,0.127845,0.000000,0.498774,1.000000,0.961263,0.000000,0.000000
19,0.000177,0.157213,1.000000,0.000000,0.719946,0.000000,0.000000,0.488592,0.000000,1.000000,0.000000,0.000000,0.498774,1.000000,1.000000,0.000000,0.000000
20,0.000158,0.157213,1.000000,0.000000,0.733353,0.187460,0.000000,0.488592,0.000000,1.000000,0.000000,0.000000,0.498774,1.000000,1.000000,0.000000,0.000000
21,0.000158,0.216564,1.000000,0.000000,0.712748,0.000000,0.091589,0.633416,1.000000,1.000000,0.127845,0.000000,0.498774,1.000000,0.961263,0.000000,0.000000
22,0.000087,0.216564,1.000000,0.000000,0.719946,0.000000,0.000000,0.488592,0.000000,1.000000,0.000000,0.000000,0.498774,1.000000,1.000000,0.000000,0.000000
23,0.000053,0.172131,1.000000,0.000000,0.712748,0.000000,0.091589,0.488592,0.000000,1.000000,0.000000,0.000000,0.469115,1.000000,0.956083,0.000000,0.000000
24,0.000053,0.172131,1.000000,0.000000,0.712748,0.000000,0.091589,0.488592,0.000000,1.000000,0.000000,0.000000,0.469115,1.000000,0.956083,0.000000,0.000000
25,0.000036,0.172131,1.000000,0.000000,0.712748,0.000000,0.091589,0.397956,0.000000,1.000000,0.000000,0.000000,0.469115,1.000000,0.961263,0.000000,0.000000
26,0.000036,0.172131,1.000000,0.000000,0.712748,0.000000,0.091589,0.397956,0.000000,1.000000,0.000000,0.000000,0.469115,1.000000,0.961263,0.000000,0.000000
27,0.000036,0.172131,1.000000,0.000000,0.712748,0.000000,0.091589,0.397956,0.000000,1.000000,0.000000,0.000000,0.469115,1.000000,1.000000,0.000000,0.000000
28,0.000036,0.171582,1.000000,0.000000,0.712748,0.000000,0.091589,0.384558,0.000000,1.000000,0.000000,0.000000,0.469115,1.000000,0.961263,0.000000,0.000000
29,0.000035,0.172131,1.000000,0.000000,0.712748,0.000000,0.091589,0.384558,0.000000,1.000000,0.000000,0.000000,0.469115,1.000000,0.961263,0.000000,0.000000
30,0.000009,0.207675,1.000000,0.000000,0.712748,0.000000,0.091589,0.219750,0.000000,1.000000,0.005437,0.000000,0.469115,1.000000,0.961263,0.000000,0.000000
31,0.000009,0.207675,1.000000,0.000000,0.712748,0.000000,0.091589,0.219750,0.000000,1.000000,0.005437,0.000000,0.469115,1.000000,0.961263,0.000000,0.000000
32,0.000009,0.207675,1.000000,0.000000,0.712748,0.000000,0.091589,0.219750,0.000000,1.000000,0.005437,0.000000,0.469115,1.000000,0.961263,0.000000,0.000000
33,0.000009,0.207675,1.000000,0.000000,0.712748,0.000000,0.091589,0.219750,0.000000,1.000000,0.005437,0.000000,0.469115,1.000000,0.961263,0.000000,0.000000
34,0.000009,0.207675,1.000000,0.000000,0.712748,0.000000,0.091589,0.219750,0.000000,1.000000,0.005437,0.000000,0.469115,1.000000,0.961263,0.000000,0.000000
35,0.000009,0.207675,1.000000,0.000000,0.712748,0.000000,0.091589,0.219750,0.000000,1.000000,0.105208,0.000000,0.469115,1.000000,0.961263,0.000000,0.000000
36,0.000006,0.207675,1.000000,0.000000,0.712748,0.000000,0.091589,0.163990,0.000000,1.000000,0.005437,0.000000,0.469115,1.000000,0.961263,0.000000,0.000000
37,0.000006,0.207675,1.000000,0.000000,0.712748,0.000000,0.091589,0.163990,0.000000,1.000000,0.000000,0.000000,0.469115,1.000000,0.961263,0.000000,0.000000
38,0.000005,0.207675,1.000000,0.000000,0.712748,0.000000,0.018759,0.163990,0.000000,1.000000,0.000000,0.000000,0.469115,1.000000,0.961263,0.000000,0.000000
39,0.000005,0.207675,1.000000,0.000000,0.712748,0.000000,0.018759,0.163990,0.000000,1.000000,0.000000,0.000000,0.469115,1.000000,0.961263,0.000000,0.000000
40,0.000004,0.207675,1.000000,0.000000,0.712748,0.000000,0.091589,0.118448,0.000000,1.000000,0.000000,0.000000,0.460918,0.940178,0.961263,0.000000,0.000000
gen, fitness
0,0.067934,0.000000,1.000000,0.210000,0.800000,0.030000,0.030000,1.000000,0.000000,1.000000,0.000000,0.000000,0.600000,1.000000,1.000000,0.000000,0.000000
1,0.067934,0.000000,1.000000,0.210000,0.800000,0.030000,0.030000,1.000000,0.000000,1.000000,0.000000,0.000000,0.600000,1.000000,1.000000,0.000000,0.000000
2,0.047562,0.000000,1.000000,0.210000,0.708089,0.030000,0.030000,1.000000,0.000000,1.000000,0.000000,0.000000,0.550017,1.000000,1.000000,0.011409,0.000000
3,0.047227,0.000000,1.000000,0.210000,0.708089,0.030000,0.030000,1.000000,0.000000,1.000000,0.000000,0.000000,0.493509,1.000000,1.000000,0.011409,0.000000
4,0.043477,0.000000,1.000000,0.210000,0.668897,0.000000,0.030000,1.000000,0.000000,1.000000,0.000000,0.000000,0.551968,1.000000,1.000000,0.011409,0.000000
5,0.039575,0.042137,1.000000,0.131886,0.668897,0.030000,0.030000,1.000000,0.000000,1.000000,0.100369,0.000000,0.550017,1.000000,1.000000,0.011409,0.000000
6,0.032235,0.270896,0.966935,0.210000,0.513883,0.000000,0.030000,0.976753,0.000000,1.000000,0.000000,0.000000,0.550017,1.000000,0.763692,0.011409,0.000000
7,0.029723,0.270896,0.966935,0.210000,0.513883,0.030000,0.102389,1.000000,0.000000,1.000000,0.000000,0.000000,0.529694,1.000000,1.000000,0.000000,0.000000
8,0.021459,0.270896,0.966935,0.210000,0.513883,0.000000,0.030000,0.976753,0.000000,1.000000,0.000000,0.000000,0.375541,0.923722,1.000000,0.000000,2.000000
9,0.018293,0.241561,0.945037,0.210000,0.381640,0.000000,0.000000,0.976753,0.000000,1.000000,0.000000,0.000000,0.401221,0.868120,1.000000,0.000000,0.000000
10,0.016528,0.241561,0.945037,0.210000,0.381640,0.000000,0.000000,0.976753,0.000000,1.000000,0.000000,0.000000,0.375541,0.923722,0.990066,0.000000,2.000000
11,0.012217,0.270896,0.966935,0.070561,0.513883,0.000000,0.151650,0.889197,2.000000,1.000000,0.079461,0.000000,0.304683,1.000000,0.905046,0.000000,0.000000
12,0.010347,0.270896,0.966935,0.017624,0.513883,0.000000,0.030000,0.976753,0.000000,1.000000,0.000000,0.000000,0.304683,1.000000,1.000000,0.126191,0.000000
13,0.006357,0.345445,0.966935,0.000000,0.513883,0.000000,0.030000,1.000000,1.000000,1.000000,0.000000,0.000000,0.190611,1.000000,1.000000,0.000000,0.000000
14,0.006254,0.270896,0.966935,0.017475,0.419137,0.000000,0.030000,1.000000,2.000000,1.000000,0.093390,0.000000,0.223825,0.834533,1.000000,0.025025,0.000000
15,0.003619,0.357962,0.705340,0.210000,0.176750,0.000000,0.000000,0.924300,0.000000,1.000000,0.000000,0.000000,0.190611,1.000000,1.000000,0.000000,0.000000
16,0.002683,0.395816,0.891246,0.005956,0.359421,0.000000,0.030000,1.000000,0.000000,1.000000,0.013686,0.000000,0.190611,1.000000,1.000000,0.000000,0.000000
17,0.000959,0.364234,0.898030,0.005956,0.359421,0.000000,0.030000,0.976753,0.000000,1.000000,0.000000,0.000000,0.093427,0.923722,0.796879,0.062942,0.000000
18,0.000456,0.395816,0.891246,0.005956,0.359421,0.000000,0.000000,1.000000,0.000000,1.000000,0.013686,0.000000,0.061562,1.000000,1.000000,0.000000,0.000000
19,0.000330,0.321716,0.898030,0.005956,0.359421,0.000000,0.030000,0.976753,0.000000,1.000000,0.135718,0.000000,0.006752,1.000000,1.000000,0.008056,0.000000
20,0.000084,0.395816,0.891246,0.094979,0.225331,0.000000,0.030000,1.000000,0.000000,1.000000,0.000000,0.000000,0.000000,1.000000,1.000000,0.005751,0.000000
21,0.000080,0.395816,1.000000,0.094979,0.225331,0.000000,0.030000,1.000000,0.000000,1.000000,0.000000,0.000000,0.000000,1.000000,1.000000,0.005751,0.000000
22,0.000069,0.395816,0.891246,0.094979,0.225331,0.000000,0.030000,0.974208,0.000000,1.000000,0.000000,0.000000,0.006752,1.000000,1.000000,0.000000,0.000000
23,0.000018,0.395816,0.891246,0.078738,0.225331,0.000000,0.030000,1.000000,0.000000,1.000000,0.000000,0.000000,0.000000,1.000000,0.955516,0.000000,0.000000
24,0.000018,0.395816,0.891246,0.078738,0.225331,0.000000,0.030000,1.000000,0.000000,1.000000,0.000000,0.000000,0.000000,1.000000,1.000000,0.000000,0.000000
25,0.000018,0.395816,0.891246,0.078738,0.225331,0.000000,0.030000,1.000000,0.000000,1.000000,0.000000,0.000000,0.000000,1.000000,1.000000,0.000000,0.000000
26,0.000010,0.459530,0.892193,0.069413,0.225331,0.000000,0.000000,0.974208,0.000000,1.000000,0.000000,0.000000,0.006752,1.000000,1.000000,0.000000,1.000000
27,0.000007,0.419415,0.891246,0.078738,0.225331,0.001554,0.030000,0.877016,0.000000,1.000000,0.156875,0.000000,0.000000,1.000000,0.999963,0.005751,0.000000
28,0.000000,0.419415,0.891246,0.054058,0.225331,0.000000,0.101572,1.000000,0.000000,0.961496,0.000000,0.000000,0.000000,1.000000,1.000000,0.000000,0.000000
gen, fitness
0,0.030614,0.000000,1.000000,0.210000,0.800000,0.030000,0.030000,1.000000,0.000000,1.000000,0.000000,0.000000,0.600000,1.000000,1.000000,0.000000,0.000000
1,0.030614,0.000000,1.000000,0.210000,0.800000,0.030000,0.030000,1.000000,0.000000,1.000000,0.000000,0.000000,0.600000,1.000000,1.000000,0.000000,0.000000
2,0.015593,0.000000,1.000000,0.210000,0.680771,0.030000,0.030000,1.000000,0.000000,1.000000,0.000000,0.000000,0.600000,1.000000,1.000000,0.000000,1.000000
3,0.014972,0.000000,1.000000,0.210000,0.680771,0.030000,0.030000,1.000000,0.000000,1.000000,0.000000,0.000000,0.600000,1.000000,1.000000,0.000000,0.000000
4,0.014666,0.014970,1.000000,0.210000,0.680771,0.030000,0.030000,0.965948,0.000000,1.000000,0.000000,0.000000,0.600000,1.000000,0.882630,0.000000,0.000000
5,0.012471,0.172732,0.959271,0.210000,0.661568,0.031691,0.030000,1.000000,0.000000,1.000000,0.000000,0.000000,0.600000,1.000000,0.958401,0.000000,0.000000
6,0.010199,0.000000,1.000000,0.080004,0.680771,0.030000,0.030000,1.000000,0.000000,1.000000,0.000000,0.000000,0.504227,0.946165,1.000000,0.000000,2.000000
7,0.008527,0.000000,1.000000,0.080004,0.680771,0.030000,0.030000,1.000000,0.000000,1.000000,0.000000,0.000000,0.457251,0.946165,1.000000,0.000000,2.000000
8,0.008245,0.000000,1.000000,0.080004,0.680771,0.030000,0.030000,1.000000,0.000000,1.000000,0.000000,0.000000,0.457251,0.946165,1.000000,0.000000,1.000000
9,0.007605,0.023578,1.000000,0.000000,0.680771,0.030000,0.030000,1.000000,0.000000,1.000000,0.000000,0.000000,0.457251,0.946165,1.000000,0.000000,2.000000
10,0.007324,0.023578,1.000000,0.000000,0.680771,0.030000,0.030000,1.000000,0.000000,1.000000,0.000000,0.000000,0.457251,0.946165,1.000000,0.000000,1.000000
11,0.004033,0.000000,1.000000,0.080004,0.551763,0.030000,0.030000,1.000000,0.000000,1.000000,0.000000,0.000000,0.330429,0.946165,0.893895,0.000000,1.000000
12,0.002928,0.113053,1.000000,0.080004,0.551763,0.030000,0.000000,1.000000,0.000000,1.000000,0.000000,0.000000,0.330429,0.871003,0.893895,0.000000,2.000000
13,0.002256,0.000000,1.000000,0.080004,0.551763,0.030000,0.030000,1.000000,0.000000,1.000000,0.000000,0.000000,0.228463,0.946165,0.893895,0.000000,1.000000
14,0.002256,0.000000,1.000000,0.080004,0.551763,0.030000,0.030000,1.000000,0.000000,1.000000,0.000000,0.000000,0.228463,0.946165,0.893895,0.000000,1.000000
15,0.001240,0.113053,1.000000,0.026768,0.503304,0.030000,0.000000,1.000000,0.000000,1.000000,0.000000,0.000000,0.243243,0.946165,1.000000,0.000000,1.000000
16,0.000822,0.113053,0.942442,0.080004,0.420870,0.030000,0.325048,1.000000,0.000000,1.000000,0.000000,0.000000,0.191488,0.946165,0.893895,0.000000,2.000000
17,0.000790,0.000000,1.000000,0.000000,0.551763,0.030000,0.325048,0.997590,0.000000,1.000000,0.000000,0.000000,0.119266,0.946165,0.893895,0.000000,1.000000
18,0.000400,0.113053,0.942442,0.080004,0.420870,0.030000,0.325048,0.997590,0.000000,0.991363,0.000000,0.000000,0.161941,0.946165,0.893895,0.000000,2.000000
19,0.000191,0.113053,0.942442,0.080004,0.420870,0.030000,0.325048,0.930268,0.000000,1.000000,0.000000,0.000000,0.105549,0.946165,0.893895,0.000000,2.000000
20,0.000084,0.261371,0.942442,0.004026,0.420870,0.000000,0.258648,1.000000,0.000000,0.900589,0.000000,0.000000,0.191488,1.000000,0.925438,0.000000,1.000000
21,0.000053,0.261371,0.942442,0.000000,0.420870,0.030000,0.178660,0.930268,0.000000,1.000000,0.002171,0.000000,0.105549,0.946165,0.777697,0.000000,2.000000
22,0.000053,0.261371,0.942442,0.004026,0.420870,0.000000,0.258648,0.887169,0.000000,1.000000,0.000000,0.000000,0.105549,0.946165,0.893895,0.000000,2.000000
23,0.000004,0.006444,0.942442,0.080004,0.382356,0.030000,0.325048,0.799726,0.000000,1.000000,0.000000,0.000000,0.011790,0.946165,0.925438,0.000000,0.000000
24,0.000002,0.006444,0.942442,0.080004,0.382356,0.030000,0.325048,0.799726,0.000000,1.000000,0.000000,0.000000,0.011790,0.946165,0.898963,0.000000,1.000000
25,0.000000,0.006444,0.942442,0.080004,0.382356,0.030000,0.325048,0.833797,0.000000,1.000000,0.000000,0.000000,0.009906,0.946165,0.898963,0.000000,2.000000
gen, fitness
0,0.009712,0.000000,1.000000,0.210000,0.800000,0.030000,0.030000,1.000000,0.000000,1.000000,0.000000,0.000000,0.600000,1.000000,1.000000,0.000000,0.000000
1,0.009712,0.000000,1.000000,0.210000,0.800000,0.030000,0.030000,1.000000,0.000000,1.000000,0.000000,0.000000,0.600000,1.000000,1.000000,0.000000,0.000000
2,0.000216,0.000000,1.000000,0.210000,0.677823,0.000000,0.030000,1.000000,0.000000,0.953196,0.000000,0.000000,0.600000,1.000000,1.000000,0.000000,0.000000
3,0.000216,0.000000,1.000000,0.210000,0.677823,0.000000,0.030000,1.000000,0.000000,0.953196,0.000000,0.000000,0.600000,1.000000,1.000000,0.000000,0.000000
4,0.000197,0.000000,1.000000,0.210000,0.677823,0.000000,0.030000,0.868801,0.000000,0.953196,0.000000,0.000000,0.600000,1.000000,1.000000,0.000000,0.000000
5,0.000129,0.000000,1.000000,0.179933,0.677823,0.000000,0.030000,1.000000,0.000000,0.953196,0.000000,0.000000,0.582013,1.000000,1.000000,0.000000,0.000000
6,0.000040,0.000000,1.000000,0.143967,0.677823,0.000000,0.030000,1.000000,0.000000,0.953196,0.000000,0.000000,0.550232,1.000000,1.000000,0.000000,0.000000
7,0.000024,0.000000,1.000000,0.143967,0.677823,0.000000,0.030000,0.916579,0.000000,0.953196,0.000000,0.000000,0.550232,1.000000,1.000000,0.000000,0.000000
8,0.000007,0.161253,1.000000,0.086953,0.661216,0.000000,0.030000,1.000000,0.000000,0.953196,0.000000,0.000000,0.550232,1.000000,1.000000,0.000000,0.000000
9,0.000007,0.161253,1.000000,0.086953,0.661216,0.000000,0.030000,1.000000,0.000000,0.953196,0.000000,0.000000,0.550232,1.000000,1.000000,0.000000,0.000000
10,0.000007,0.161253,1.000000,0.086953,0.661216,0.000000,0.030000,1.000000,0.000000,0.953196,0.000000,0.000000,0.550232,1.000000,1.000000,0.000000,0.000000
11,0.000007,0.161253,1.000000,0.086953,0.661216,0.000000,0.030000,1.000000,0.000000,0.953196,0.000000,0.000000,0.550232,1.000000,1.000000,0.000000,0.000000
12,0.000001,0.161253,1.000000,0.086953,0.661216,0.000000,0.030000,1.000000,1.000000,0.953196,0.000000,0.000000,0.550232,1.000000,1.000000,0.000000,2.000000
13,0.000001,0.161253,1.000000,0.086953,0.661216,0.000000,0.030000,1.000000,1.000000,0.953196,0.000000,0.000000,0.550232,1.000000,1.000000,0.000000,2.000000
14,0.000001,0.161253,1.000000,0.086953,0.661216,0.000000,0.110285,1.000000,1.000000,0.953196,0.000000,0.000000,0.550232,1.000000,1.000000,0.000000,2.000000
15,0.000001,0.161253,1.000000,0.086953,0.661216,0.000000,0.110285,1.000000,1.000000,0.953196,0.000000,0.000000,0.550232,1.000000,1.000000,0.000000,2.000000
16,0.000001,0.143630,1.000000,0.112117,0.661216,0.000000,0.000000,1.000000,1.000000,1.000000,0.000000,0.000000,0.550232,1.000000,1.000000,0.000000,0.000000
gen, fitness
0,0.026348,0.000000,1.000000,0.210000,0.800000,0.030000,0.030000,1.000000,0.000000,1.000000,0.000000,0.000000,0.600000,1.000000,1.000000,0.000000,0.000000
1,0.026348,0.000000,1.000000,0.210000,0.800000,0.030000,0.030000,1.000000,0.000000,1.000000,0.000000,0.000000,0.600000,1.000000,1.000000,0.000000,0.000000
2,0.012164,0.000000,1.000000,0.210000,0.675275,0.030000,0.030000,1.000000,0.000000,1.000000,0.000000,0.000000,0.600000,1.000000,1.000000,0.000000,0.000000
3,0.010886,0.078262,1.000000,0.210000,0.675275,0.030000,0.030000,1.000000,0.000000,1.000000,0.000000,0.000000,0.600000,1.000000,1.000000,0.000000,0.000000
4,0.008628,0.000000,1.000000,0.163976,0.647870,0.000000,0.030000,1.000000,2.000000,1.000000,0.000000,0.000000,0.530332,0.998780,1.000000,0.000000,0.000000
5,0.006776,0.000000,1.000000,0.163976,0.627406,0.050047,0.088058,1.000000,0.000000,1.000000,0.000000,0.000000,0.503554,0.914273,1.000000,0.000000,1.000000
6,0.006776,0.000000,1.000000,0.163976,0.627406,0.050047,0.088058,1.000000,0.000000,1.000000,0.000000,0.000000,0.503554,0.914273,1.000000,0.000000,1.000000
7,0.005495,0.000000,1.000000,0.163976,0.627406,0.050047,0.088058,1.000000,1.000000,1.000000,0.049090,0.000000,0.357617,0.865008,1.000000,0.000000,1.000000
8,0.005165,0.000000,1.000000,0.163976,0.627406,0.050047,0.088058,1.000000,1.000000,1.000000,0.049090,0.000000,0.388808,0.865008,1.000000,0.000000,0.000000
9,0.002990,0.000000,1.000000,0.163976,0.483771,0.050047,0.088058,0.860774,0.000000,1.000000,0.102176,0.000000,0.357617,0.865008,1.000000,0.000000,0.000000
10,0.002394,0.000000,1.000000,0.035099,0.627406,0.050047,0.088058,1.000000,0.000000,1.000000,0.000000,0.000000,0.357617,0.865008,1.000000,0.125293,0.000000
11,0.001845,0.031744,1.000000,0.035099,0.627406,0.050047,0.088058,1.000000,0.000000,1.000000,0.049090,0.000000,0.357617,1.000000,0.747215,0.000000,1.000000
12,0.001041,0.232764,1.000000,0.163976,0.483771,0.050047,0.088058,0.994608,1.000000,1.000000,0.102176,0.000000,0.357617,0.865008,1.000000,0.000000,0.000000
13,0.000985,0.232764,1.000000,0.163976,0.483771,0.050047,0.088058,1.000000,0.000000,1.000000,0.000000,0.000000,0.357617,0.865008,1.000000,0.125293,0.000000
14,0.000820,0.232764,0.842665,0.163976,0.483771,0.050047,0.088058,0.914076,0.000000,1.000000,0.119172,0.000000,0.357617,0.865008,1.000000,0.009640,1.000000
15,0.000193,0.232764,1.000000,0.163976,0.406898,0.050047,0.088058,0.822315,1.000000,1.000000,0.000000,0.000000,0.279011,0.596789,1.000000,0.147052,1.000000
16,0.000144,0.232764,1.000000,0.163976,0.406898,0.050047,0.088058,0.567345,1.000000,1.000000,0.000000,0.000000,0.279011,0.596789,1.000000,0.009640,0.000000
17,0.000089,0.161850,1.000000,0.000000,0.550689,0.018902,0.050638,0.961393,1.000000,1.000000,0.030340,0.000000,0.235912,0.799061,1.000000,0.147052,1.000000
18,0.000056,0.161850,1.000000,0.000000,0.550689,0.161050,0.050638,0.961393,0.000000,1.000000,0.030340,0.000000,0.235912,0.799061,1.000000,0.147052,2.000000
19,0.000018,0.232764,0.943254,0.163976,0.406898,0.050047,0.125778,0.749210,0.000000,1.000000,0.000000,0.000000,0.232448,0.596789,1.000000,0.147052,2.000000
20,0.000016,0.260135,1.000000,0.163976,0.380004,0.050047,0.088058,0.922517,1.000000,1.000000,0.000000,0.000000,0.235912,0.799061,0.908332,0.147052,1.000000
21,0.000001,0.232764,0.943254,0.163976,0.406898,0.050047,0.125778,0.639483,0.000000,1.000000,0.000000,0.000000,0.232448,0.629149,1.000000,0.147052,2.000000
22,0.000001,0.242419,0.881363,0.149488,0.406898,0.050047,0.125778,0.749210,0.000000,1.000000,0.000000,0.000000,0.232448,0.608703,1.000000,0.147052,2.000000
gen, fitness
0,0.052335,0.000000,1.000000,0.210000,0.800000,0.030000,0.030000,1.000000,0.000000,1.000000,0.000000,0.000000,0.600000,1.000000,1.000000,0.000000,0.000000
1,0.052335,0.000000,1.000000,0.210000,0.800000,0.030000,0.030000,1.000000,0.000000,1.000000,0.000000,0.000000,0.600000,1.000000,1.000000,0.000000,0.000000
2,0.031531,0.000000,1.000000,0.009943,0.800000,0.030000,0.030000,1.000000,0.000000,1.000000,0.000000,0.000000,0.600000,1.000000,1.000000,0.000000,0.000000
3,0.031458,0.000000,1.000000,0.009943,0.800000,0.030000,0.030000,0.993152,0.000000,1.000000,0.000000,0.000000,0.600000,1.000000,1.000000,0.000000,0.000000
4,0.030089,0.000000,1.000000,0.009943,0.752109,0.030000,0.030000,1.000000,0.000000,1.000000,0.000000,0.000000,0.600000,1.000000,1.000000,0.000000,1.000000
5,0.028499,0.051383,1.000000,0.004817,0.705462,0.030000,0.030000,0.876702,0.000000,1.000000,0.000000,0.000000,0.600000,1.000000,1.000000,0.000000,0.000000
6,0.026927,0.051383,1.000000,0.210000,0.652134,0.030000,0.030000,1.000000,2.000000,1.000000,0.000000,0.000000,0.530455,1.000000,1.000000,0.064107,0.000000
7,0.014784,0.000000,1.000000,0.009943,0.670914,0.030000,0.030000,0.753920,1.000000,0.888078,0.035359,0.019002,0.403463,1.000000,0.952112,0.185529,0.000000
8,0.013471,0.048581,0.948507,0.009943,0.670914,0.030000,0.030000,0.753920,1.000000,0.888078,0.035359,0.000000,0.403463,1.000000,0.952112,0.185529,0.000000
9,0.013303,0.048581,0.948507,0.000000,0.670914,0.030000,0.030000,0.801213,1.000000,0.888078,0.035359,0.000000,0.403463,1.000000,0.952112,0.185529,0.000000
10,0.012563,0.048581,0.948507,0.000000,0.670914,0.030000,0.000000,0.801213,1.000000,0.888078,0.035359,0.000000,0.403463,1.000000,1.000000,0.000000,0.000000
11,0.010695,0.048581,0.948507,0.000000,0.670914,0.030000,0.000000,0.801213,1.000000,0.972951,0.035359,0.000000,0.354413,1.000000,0.952112,0.185529,0.000000
12,0.009468,0.048581,0.948507,0.000000,0.670914,0.030000,0.000000,0.801213,0.000000,0.972951,0.035359,0.000000,0.354413,1.000000,0.952112,0.000000,0.000000
13,0.008313,0.093583,0.948507,0.009943,0.590852,0.030000,0.048623,0.753920,1.000000,0.888078,0.000000,0.000000,0.337557,0.973717,0.834770,0.185529,1.000000
14,0.004641,0.093583,0.948507,0.009943,0.590852,0.030000,0.000000,0.801213,0.000000,0.972951,0.035359,0.000000,0.217380,1.000000,0.952112,0.185529,0.000000
15,0.004519,0.048581,0.948507,0.000000,0.590852,0.030000,0.000000,0.801213,0.000000,0.972951,0.035359,0.000000,0.217380,1.000000,0.952112,0.185529,0.000000
16,0.004302,0.129310,0.948507,0.000000,0.590852,0.030000,0.000000,0.801213,0.000000,0.972951,0.035359,0.000000,0.217380,1.000000,0.952112,0.185529,1.000000
17,0.003705,0.093583,0.948507,0.035900,0.524120,0.030000,0.000000,0.801213,0.000000,0.972951,0.035359,0.000000,0.217380,1.000000,1.000000,0.185529,0.000000
18,0.002726,0.214823,0.948507,0.009943,0.546323,0.063691,0.030000,0.801213,0.000000,1.000000,0.015973,0.000000,0.217380,1.000000,0.952112,0.185529,0.000000
19,0.002615,0.206108,0.948507,0.009943,0.541005,0.030000,0.030000,0.675209,0.000000,0.972951,0.035359,0.000000,0.217380,1.000000,1.000000,0.185529,1.000000
20,0.002114,0.236201,0.948507,0.000000,0.524120,0.030000,0.000000,0.801213,0.000000,1.000000,0.035359,0.000000,0.217380,1.000000,1.000000,0.185529,1.000000
21,0.000743,0.438924,0.954994,0.000000,0.473233,0.030000,0.000000,0.774606,0.000000,1.000000,0.035359,0.000000,0.217380,1.000000,0.952112,0.185529,0.000000
22,0.000698,0.272973,0.892406,0.000000,0.408217,0.030000,0.000000,0.774606,0.000000,1.000000,0.035359,0.000000,0.144981,1.000000,0.952112,0.000000,2.000000
23,0.000036,0.272973,0.892406,0.000000,0.408217,0.030000,0.000000,0.805490,0.000000,1.000000,0.016463,0.000000,0.074707,1.000000,0.952112,0.039539,1.000000
24,0.000036,0.272973,0.892406,0.000000,0.408217,0.030000,0.000000,0.805490,0.000000,1.000000,0.016463,0.000000,0.074707,1.000000,0.952112,0.039539,1.000000
25,0.000036,0.272973,0.892406,0.000000,0.408217,0.030000,0.000000,0.805490,0.000000,1.000000,0.016463,0.000000,0.074707,1.000000,0.952112,0.039539,1.000000
26,0.000024,0.272973,0.972055,0.000000,0.408217,0.030000,0.000000,0.775697,0.000000,1.000000,0.035359,0.000000,0.069193,1.000000,0.952112,0.081569,0.000000
27,0.000024,0.272973,0.972055,0.000000,0.408217,0.030000,0.000000,0.775697,0.000000,1.000000,0.035359,0.000000,0.069193,1.000000,0.952112,0.081569,0.000000
28,0.000008,0.272973,0.892406,0.000000,0.395165,0.030000,0.000000,0.805490,0.000000,1.000000,0.016463,0.000000,0.052432,1.000000,0.952112,0.039539,1.000000
29,0.000008,0.272973,0.892406,0.000000,0.395165,0.030000,0.000000,0.805490,0.000000,1.000000,0.016463,0.000000,0.052432,1.000000,0.952112,0.039539,1.000000
30,0.000007,0.272973,0.755305,0.000000,0.395165,0.030000,0.000000,0.805490,0.000000,1.000000,0.049360,0.000000,0.052432,1.000000,0.952112,0.039539,1.000000
31,0.000005,0.272973,0.892406,0.000000,0.395165,0.030000,0.000000,0.805490,0.000000,1.000000,0.016463,0.000000,0.052432,1.000000,0.952112,0.039539,2.000000
32,0.000002,0.272973,0.892406,0.000000,0.395165,0.030000,0.000000,0.677303,0.000000,1.000000,0.016463,0.000000,0.052432,1.000000,0.952112,0.039539,1.000000
33,0.000001,0.272973,0.892406,0.000000,0.395165,0.030000,0.000000,0.677303,0.000000,1.000000,0.016463,0.000000,0.052432,1.000000,0.952112,0.025631,1.000000
34,0.000000,0.272973,0.892406,0.000000,0.395165,0.030000,0.155280,0.677303,0.000000,1.000000,0.000000,0.000000,0.052432,0.901718,0.952112,0.000000,2.000000
gen, fitness
0,0.080636,0.000000,1.000000,0.210000,0.800000,0.030000,0.030000,1.000000,0.000000,1.000000,0.000000,0.000000,0.600000,1.000000,1.000000,0.000000,0.000000
1,0.080636,0.000000,1.000000,0.210000,0.800000,0.030000,0.030000,1.000000,0.000000,1.000000,0.000000,0.000000,0.600000,1.000000,1.000000,0.000000,0.000000
2,0.053975,0.000000,1.000000,0.210000,0.688972,0.000000,0.030000,1.000000,0.000000,1.000000,0.000000,0.000000,0.600000,1.000000,1.000000,0.000000,0.000000
3,0.050781,0.000000,1.000000,0.210000,0.649717,0.030000,0.055870,1.000000,0.000000,1.000000,0.000000,0.000000,0.600000,1.000000,1.000000,0.000000,0.000000
4,0.048547,0.000000,1.000000,0.077274,0.688972,0.000000,0.030000,1.000000,0.000000,1.000000,0.000000,0.000000,0.600000,1.000000,1.000000,0.000000,0.000000
5,0.033690,0.000000,1.000000,0.210000,0.554939,0.000000,0.030000,1.000000,0.000000,1.000000,0.000000,0.000000,0.434543,1.000000,1.000000,0.000000,0.000000
6,0.033690,0.000000,1.000000,0.210000,0.554939,0.000000,0.030000,1.000000,0.000000,1.000000,0.000000,0.000000,0.434543,1.000000,1.000000,0.000000,0.000000
7,0.028682,0.000000,0.837433,0.039000,0.618239,0.000000,0.089888,0.908780,0.000000,1.000000,0.000000,0.000000,0.417117,0.818281,1.000000,0.000000,0.000000
8,0.023680,0.000000,0.813287,0.210000,0.444428,0.000000,0.030000,1.000000,0.000000,1.000000,0.119724,0.003924,0.319009,0.954337,1.000000,0.000000,0.000000
9,0.021413,0.000000,1.000000,0.210000,0.377400,0.000000,0.000000,1.000000,0.000000,1.000000,0.000000,0.003924,0.319009,1.000000,1.000000,0.000000,0.000000
10,0.020691,0.045086,1.000000,0.210000,0.377400,0.000000,0.000000,1.000000,0.000000,1.000000,0.000000,0.010258,0.319009,1.000000,1.000000,0.000000,0.000000
11,0.013623,0.237826,0.886080,0.012657,0.488648,0.000000,0.030000,1.000000,0.000000,1.000000,0.000000,0.000000,0.319009,1.000000,1.000000,0.000000,1.000000
12,0.009558,0.237826,0.886080,0.012657,0.466898,0.000000,0.030000,1.000000,0.000000,1.000000,0.000000,0.000000,0.209438,0.599533,1.000000,0.000000,0.000000
13,0.009469,0.255875,0.886080,0.012657,0.466898,0.000000,0.030000,1.000000,0.000000,1.000000,0.000000,0.000000,0.209438,0.599533,1.000000,0.000000,0.000000
14,0.005891,0.386267,0.886080,0.012657,0.331938,0.000000,0.030000,1.000000,2.000000,1.000000,0.029344,0.000000,0.244947,1.000000,1.000000,0.000000,0.000000
15,0.003083,0.386267,0.886080,0.012657,0.331938,0.000000,0.030000,1.000000,0.000000,1.000000,0.000000,0.000000,0.022994,0.599533,1.000000,0.000000,2.000000
16,0.001087,0.386267,0.886080,0.012657,0.144436,0.108412,0.030000,1.000000,0.000000,1.000000,0.000000,0.000000,0.022994,0.599533,1.000000,0.000000,2.000000
17,0.000366,0.386267,0.886080,0.000000,0.228504,0.000000,0.000000,1.000000,0.000000,1.000000,0.000000,0.000000,0.022994,0.599533,1.000000,0.000000,2.000000
18,0.000366,0.386267,0.886080,0.000000,0.228504,0.000000,0.000000,1.000000,0.000000,1.000000,0.000000,0.000000,0.022994,0.599533,1.000000,0.000000,2.000000
19,0.000196,0.434719,0.886080,0.000000,0.225353,0.000000,0.000000,1.000000,0.000000,1.000000,0.000000,0.000000,0.022994,0.599533,1.000000,0.000000,2.000000
20,0.000165,0.434719,0.886080,0.000000,0.225353,0.000000,0.068059,1.000000,0.000000,1.000000,0.000000,0.000000,0.000000,0.599533,1.000000,0.000000,2.000000
21,0.000152,0.400205,0.743269,0.012657,0.144436,0.108412,0.131872,1.000000,0.000000,0.857497,0.000000,0.000000,0.000000,0.599533,1.000000,0.000000,2.000000
22,0.000052,0.434719,0.886080,0.000000,0.144436,0.108412,0.131872,1.000000,0.000000,0.857497,0.000000,0.000000,0.000000,0.599533,1.000000,0.000000,2.000000
23,0.000050,0.434719,0.886080,0.000000,0.144436,0.108412,0.091672,1.000000,0.000000,0.857497,0.000000,0.000000,0.000000,0.599533,1.000000,0.000000,2.000000
24,0.000028,0.434719,0.886080,0.088708,0.085089,0.000000,0.000000,1.000000,0.000000,0.978563,0.000000,0.000000,0.000000,0.814693,0.929430,0.000000,1.000000
25,0.000028,0.434719,0.886080,0.088708,0.085089,0.000000,0.000000,1.000000,0.000000,0.978563,0.000000,0.000000,0.000000,0.814693,0.930556,0.000000,1.000000
26,0.000023,0.434719,0.973347,0.000000,0.144436,0.204866,0.131872,1.000000,0.000000,0.885841,0.000000,0.000000,0.000000,0.599533,1.000000,0.000000,1.000000
27,0.000013,0.434719,0.973347,0.000000,0.144436,0.204866,0.032293,1.000000,0.000000,0.885841,0.000000,0.000000,0.000000,0.599533,1.000000,0.000000,0.000000
28,0.000009,0.434719,0.886080,0.000000,0.144436,0.000000,0.000000,0.888512,0.000000,0.857497,0.000000,0.000000,0.000000,0.716004,1.000000,0.000000,1.000000
29,0.000009,0.434719,1.000000,0.000000,0.144436,0.021086,0.131872,1.000000,0.000000,0.885841,0.000000,0.000000,0.000000,0.716362,1.000000,0.000000,0.000000
30,0.000004,0.434719,0.886080,0.000000,0.144436,0.000000,0.000000,0.888512,0.000000,0.857497,0.000000,0.000000,0.000000,0.765149,1.000000,0.000000,0.000000
31,0.000003,0.450597,1.000000,0.000000,0.144436,0.021086,0.020142,1.000000,0.000000,0.885841,0.000000,0.000000,0.000000,0.716362,1.000000,0.000000,0.000000
32,0.000001,0.450597,1.000000,0.000000,0.144436,0.021086,0.020142,0.984529,0.000000,0.885841,0.000000,0.000000,0.000000,0.716362,1.000000,0.000000,0.000000
33,0.000001,0.450597,1.000000,0.000000,0.144436,0.021086,0.020142,1.000000,0.000000,0.885841,0.165371,0.000000,0.000000,0.716362,1.000000,0.000000,0.000000
34,0.000001,0.450597,1.000000,0.000000,0.144436,0.021086,0.000000,1.000000,0.000000,0.885841,0.165371,0.000000,0.000000,0.716362,1.000000,0.000000,0.000000
35,0.000001,0.450597,1.000000,0.000000,0.144436,0.021086,0.020142,1.000000,0.000000,0.885841,0.165371,0.000000,0.000000,0.784346,1.000000,0.000000,0.000000
gen, fitness
0,0.025383,0.000000,1.000000,0.210000,0.800000,0.030000,0.030000,1.000000,0.000000,1.000000,0.000000,0.000000,0.600000,1.000000,1.000000,0.000000,0.000000
1,0.025383,0.000000,1.000000,0.210000,0.800000,0.030000,0.030000,1.000000,0.000000,1.000000,0.000000,0.000000,0.600000,1.000000,1.000000,0.000000,0.000000
2,0.010867,0.000000,1.000000,0.210000,0.673148,0.030000,0.030000,1.000000,0.000000,1.000000,0.000000,0.000000,0.600000,0.958792,1.000000,0.000000,0.000000
3,0.009190,0.127146,1.000000,0.201120,0.662252,0.030000,0.030000,1.000000,0.000000,1.000000,0.000000,0.000000,0.600000,1.000000,1.000000,0.000000,0.000000
4,0.009187,0.127146,1.000000,0.201120,0.662252,0.130628,0.030000,1.000000,0.000000,1.000000,0.000000,0.000000,0.600000,1.000000,1.000000,0.000000,0.000000
5,0.009052,0.267616,1.000000,0.201120,0.671570,0.030000,0.030000,1.000000,0.000000,1.000000,0.000000,0.000000,0.600000,0.888727,0.984957,0.000000,0.000000
6,0.007438,0.127146,1.000000,0.201120,0.662252,0.130628,0.030000,0.741591,0.000000,1.000000,0.000000,0.000000,0.557422,1.000000,1.000000,0.000000,0.000000
7,0.007404,0.144421,1.000000,0.201120,0.662252,0.130628,0.030000,0.741591,0.000000,1.000000,0.000000,0.000000,0.557422,1.000000,1.000000,0.000000,0.000000
8,0.005293,0.267616,1.000000,0.145398,0.608600,0.030000,0.030000,1.000000,0.000000,1.000000,0.000000,0.000000,0.551119,0.888727,0.984957,0.000000,0.000000
9,0.004628,0.446452,1.000000,0.145398,0.608600,0.030000,0.030000,1.000000,0.000000,0.996600,0.000000,0.000000,0.565041,1.000000,0.984957,0.000000,0.000000
10,0.003874,0.446452,1.000000,0.075405,0.608600,0.030000,0.030000,1.000000,0.000000,0.996600,0.000000,0.000000,0.565041,1.000000,1.000000,0.000000,0.000000
11,0.002973,0.267616,0.794810,0.145398,0.558389,0.030000,0.030000,0.739621,1.000000,1.000000,0.032922,0.000000,0.390684,1.000000,1.000000,0.000000,0.000000
12,0.002651,0.616681,1.000000,0.000000,0.611889,0.030000,0.030000,1.000000,0.000000,0.996600,0.000000,0.000000,0.565041,1.000000,0.918292,0.000000,2.000000
13,0.002651,0.616681,1.000000,0.000000,0.611889,0.030000,0.030000,1.000000,0.000000,0.996600,0.000000,0.000000,0.565041,1.000000,0.918292,0.000000,2.000000
14,0.001907,0.446452,1.000000,0.000000,0.608600,0.030000,0.030000,1.000000,1.000000,1.000000,0.032922,0.000000,0.437613,1.000000,1.000000,0.000000,0.000000
15,0.001670,0.554238,1.000000,0.000000,0.624787,0.030000,0.030000,0.771549,0.000000,1.000000,0.000000,0.000450,0.521407,1.000000,1.000000,0.000000,0.000000
16,0.001587,0.616681,1.000000,0.000000,0.611889,0.030000,0.030000,0.925083,0.000000,0.996600,0.000000,0.000450,0.521407,1.000000,1.000000,0.000000,0.000000
17,0.001128,0.554238,1.000000,0.000000,0.571553,0.030000,0.030000,1.000000,1.000000,1.000000,0.032922,0.000000,0.437613,1.000000,1.000000,0.000000,0.000000
18,0.000844,0.724663,1.000000,0.000000,0.534260,0.030000,0.030000,0.925083,0.000000,0.996600,0.051483,0.000450,0.521407,1.000000,1.000000,0.000000,0.000000
19,0.000596,0.554238,1.000000,0.000000,0.514844,0.030000,0.030000,1.000000,1.000000,1.000000,0.032922,0.000000,0.437613,1.000000,0.918292,0.000000,0.000000
20,0.000167,0.554238,1.000000,0.000000,0.514844,0.030000,0.000000,1.000000,0.000000,1.000000,0.120503,0.000000,0.387338,1.000000,1.000000,0.000000,0.000000
21,0.000167,0.554238,1.000000,0.000000,0.514844,0.030000,0.000000,1.000000,0.000000,1.000000,0.120503,0.000000,0.387338,1.000000,1.000000,0.000000,0.000000
22,0.000150,0.554238,1.000000,0.075043,0.423564,0.030000,0.000000,1.000000,0.000000,1.000000,0.120503,0.000000,0.387338,1.000000,1.000000,0.000000,0.000000
23,0.000040,0.837799,1.000000,0.000000,0.451624,0.030000,0.030000,0.925083,0.000000,1.000000,0.000000,0.000000,0.437613,1.000000,1.000000,0.000000,0.000000
24,0.000040,0.837799,1.000000,0.000000,0.451624,0.030000,0.030000,0.925083,0.000000,1.000000,0.000000,0.000000,0.437613,1.000000,1.000000,0.000000,0.000000
25,0.000000,0.837799,1.000000,0.000000,0.451624,0.030000,0.030000,0.925083,2.000000,1.000000,0.000000,0.014377,0.437613,1.000000,1.000000,0.000000,0.000000
