gen, fitness
0,0.094016,0.000000,1.000000,0.210000,0.800000,0.030000,0.030000,1.000000,0.000000,1.000000,0.000000,0.000000,0.600000,1.000000,1.000000,0.000000,0.000000
1,0.094016,0.000000,1.000000,0.210000,0.800000,0.030000,0.030000,1.000000,0.000000,1.000000,0.000000,0.000000,0.600000,1.000000,1.000000,0.000000,0.000000
2,0.053103,0.038153,1.000000,0.210421,0.627312,0.030000,0.030000,1.000000,0.000000,1.000000,0.000000,0.000000,0.450629,1.000000,1.000000,0.067911,0.000000
3,0.041279,0.000000,1.000000,0.210000,0.449988,0.012514,0.000000,0.991255,0.000000,1.000000,0.002529,0.000000,0.423758,0.781655,0.932764,0.000000,1.000000
4,0.035599,0.000000,0.912101,0.152319,0.458300,0.161646,0.157246,0.964376,2.000000,1.000000,0.000000,0.000000,0.355450,1.000000,1.000000,0.000000,0.000000
5,0.031357,0.000000,0.943561,0.096122,0.459311,0.161646,0.157246,0.906683,2.000000,1.000000,0.000000,0.000000,0.311941,0.959372,1.000000,0.000000,0.000000
6,0.028945,0.000000,0.876934,0.152319,0.374534,0.161646,0.295672,0.964376,0.000000,1.000000,0.215911,0.000000,0.257541,1.000000,1.000000,0.119563,1.000000
7,0.022022,0.055356,0.921807,0.000000,0.475841,0.161646,0.157246,0.876397,0.000000,1.000000,0.100984,0.000000,0.199447,1.000000,1.000000,0.175748,1.000000
8,0.015565,0.233559,0.890346,0.000000,0.397581,0.161646,0.123251,1.000000,1.000000,1.000000,0.206893,0.000000,0.172921,1.000000,1.000000,0.149688,1.000000
9,0.006663,0.308419,1.000000,0.010755,0.232406,0.013239,0.037143,1.000000,0.000000,1.000000,0.275456,0.000000,0.086619,1.000000,0.898502,0.026529,2.000000
10,0.006111,0.469553,0.870268,0.043128,0.232406,0.027017,0.037143,1.000000,0.000000,1.000000,0.242313,0.000000,0.101921,1.000000,0.898502,0.026529,0.000000
11,0.002635,0.469129,0.989782,0.000000,0.183056,0.013239,0.037143,0.845451,1.000000,1.000000,0.256746,0.000000,0.042406,0.975375,0.746108,0.000000,2.000000
12,0.002635,0.469129,0.989782,0.000000,0.183056,0.013239,0.037143,0.845451,1.000000,1.000000,0.256746,0.000000,0.042406,0.975375,0.746108,0.000000,2.000000
13,0.002599,0.469129,0.783652,0.000000,0.122956,0.000000,0.000000,0.973750,2.000000,1.000000,0.275525,0.000000,0.042406,0.975375,0.706381,0.000000,2.000000
14,0.001776,0.464889,0.780761,0.000000,0.000000,0.013239,0.118587,0.759909,0.000000,0.880464,0.240870,0.000000,0.000000,0.919400,1.000000,0.000000,0.000000
15,0.000957,0.588777,1.000000,0.000000,0.012892,0.000000,0.278554,0.909809,0.000000,0.900653,0.152373,0.000000,0.000000,0.797465,0.600844,0.248565,0.000000
16,0.000957,0.588777,1.000000,0.000000,0.012892,0.000000,0.278554,0.909809,0.000000,0.900653,0.152373,0.000000,0.000000,0.797465,0.600844,0.248565,0.000000
17,0.000212,0.757615,0.893702,0.000000,0.046210,0.037313,0.027466,0.713160,1.000000,0.977107,0.000000,0.000000,0.000000,0.574524,0.673339,0.310432,0.000000
18,0.000099,0.790792,0.893702,0.000000,0.025398,0.111525,0.000000,0.620580,1.000000,1.000000,0.000000,0.000000,0.000000,0.714148,0.673339,0.300990,2.000000
19,0.000041,0.777693,0.823642,0.000000,0.000000,0.010576,0.000000,0.959837,0.000000,1.000000,0.010414,0.000000,0.000000,0.902475,0.804330,0.000000,1.000000
20,0.000032,0.811165,0.769122,0.000000,0.000000,0.068484,0.287176,0.856671,0.000000,1.000000,0.022659,0.000000,0.000000,0.714148,0.578976,0.267108,0.000000
21,0.000025,0.811165,0.886186,0.000000,0.000000,0.152762,0.287176,0.856671,0.000000,1.000000,0.009638,0.000000,0.000000,0.851114,0.578976,0.267108,0.000000
22,0.000000,0.807205,0.990075,0.000000,0.000000,0.037313,0.138718,0.638584,0.000000,1.000000,0.186590,0.000000,0.000000,0.233247,0.682712,0.039766,1.000000
gen, fitness
0,0.011444,0.000000,1.000000,0.210000,0.800000,0.030000,0.030000,1.000000,0.000000,1.000000,0.000000,0.000000,0.600000,1.000000,1.000000,0.000000,0.000000
1,0.011444,0.000000,1.000000,0.210000,0.800000,0.030000,0.030000,1.000000,0.000000,1.000000,0.000000,0.000000,0.600000,1.000000,1.000000,0.000000,0.000000
2,0.005980,0.037587,1.000000,0.210000,0.728488,0.030000,0.107806,0.989703,0.000000,1.000000,0.000000,0.000000,0.600000,1.000000,1.000000,0.089601,0.000000
3,0.002599,0.000000,1.000000,0.291656,0.573979,0.030000,0.000000,0.861506,1.000000,1.000000,0.163149,0.031808,0.388970,0.795417,1.000000,0.070922,1.000000
4,0.002179,0.000000,1.000000,0.173082,0.573979,0.088942,0.000000,0.861506,1.000000,1.000000,0.176155,0.031808,0.381854,0.666018,1.000000,0.070922,2.000000
5,0.001263,0.000000,0.948627,0.173082,0.573979,0.077131,0.000000,0.861506,0.000000,1.000000,0.176155,0.031808,0.347566,0.666018,1.000000,0.000000,2.000000
6,0.000846,0.000000,0.948627,0.148419,0.573979,0.065619,0.000000,0.861506,2.000000,1.000000,0.320838,0.031808,0.265572,0.720619,0.996382,0.000000,2.000000
7,0.000405,0.000000,0.895467,0.148419,0.547979,0.000000,0.029556,0.861506,0.000000,1.000000,0.376590,0.000000,0.265572,0.642672,0.701290,0.000000,1.000000
8,0.000143,0.131803,1.000000,0.126543,0.507717,0.088942,0.000000,0.921824,1.000000,1.000000,0.268654,0.000000,0.274394,0.535694,1.000000,0.000000,2.000000
9,0.000001,0.239696,0.886153,0.029486,0.534391,0.368418,0.061166,0.845211,2.000000,1.000000,0.059368,0.000000,0.254858,0.666018,1.000000,0.076979,2.000000
gen, fitness
0,0.010533,0.000000,1.000000,0.210000,0.800000,0.030000,0.030000,1.000000,0.000000,1.000000,0.000000,0.000000,0.600000,1.000000,1.000000,0.000000,0.000000
1,0.010533,0.000000,1.000000,0.210000,0.800000,0.030000,0.030000,1.000000,0.000000,1.000000,0.000000,0.000000,0.600000,1.000000,1.000000,0.000000,0.000000
2,0.002010,0.126823,1.000000,0.210000,0.705321,0.030000,0.000000,0.960348,0.000000,1.000000,0.000000,0.000000,0.600000,1.000000,1.000000,0.216259,0.000000
3,0.000486,0.113504,0.988150,0.141853,0.634693,0.000000,0.031148,0.950495,0.000000,0.943933,0.000000,0.000000,0.501815,1.000000,0.950427,0.024253,0.000000
4,0.000483,0.124414,1.000000,0.141853,0.634693,0.056846,0.031148,0.950495,0.000000,0.943933,0.000000,0.000000,0.501815,1.000000,1.000000,0.000000,0.000000
5,0.000024,0.075375,0.988150,0.000000,0.634693,0.135576,0.054124,0.950495,0.000000,0.895373,0.000000,0.000000,0.380691,0.990352,1.000000,0.024253,2.000000
6,0.000024,0.075375,0.988150,0.000000,0.634693,0.135576,0.054124,0.950495,0.000000,0.895373,0.000000,0.000000,0.380691,0.990352,1.000000,0.024253,2.000000
7,0.000002,0.401674,1.000000,0.023057,0.634693,0.000000,0.031148,0.894020,0.000000,1.000000,0.000000,0.000000,0.476265,1.000000,1.000000,0.144695,1.000000
8,0.000002,0.076080,1.000000,0.037352,0.608589,0.118449,0.154678,0.902965,2.000000,0.994217,0.000000,0.013263,0.329088,0.987537,1.000000,0.024253,1.000000
9,0.000002,0.076080,1.000000,0.037352,0.608589,0.118449,0.154678,0.902965,2.000000,0.994217,0.000000,0.013263,0.329088,0.987537,1.000000,0.024253,1.000000
10,0.000001,0.300398,1.000000,0.000000,0.634693,0.367654,0.130734,0.982936,1.000000,1.000000,0.000000,0.065794,0.380691,1.000000,0.938923,0.032344,1.000000
gen, fitness
0,0.067934,0.000000,1.000000,0.210000,0.800000,0.030000,0.030000,1.000000,0.000000,1.000000,0.000000,0.000000,0.600000,1.000000,1.000000,0.000000,0.000000
1,0.067934,0.000000,1.000000,0.210000,0.800000,0.030000,0.030000,1.000000,0.000000,1.000000,0.000000,0.000000,0.600000,1.000000,1.000000,0.000000,0.000000
2,0.043550,0.000000,0.983220,0.210000,0.652313,0.135380,0.000000,1.000000,1.000000,0.913270,0.000000,0.000000,0.483875,1.000000,1.000000,0.003091,1.000000
3,0.026661,0.243069,1.000000,0.003035,0.615337,0.236507,0.030000,0.915601,2.000000,1.000000,0.000000,0.000000,0.495875,0.945561,1.000000,0.084941,1.000000
4,0.018953,0.185083,0.983220,0.165279,0.376299,0.264063,0.000000,1.000000,1.000000,0.913270,0.013495,0.000000,0.384052,0.943305,0.972367,0.003091,2.000000
5,0.010688,0.166407,1.000000,0.165279,0.376299,0.264063,0.000000,1.000000,2.000000,1.000000,0.000000,0.000000,0.241098,0.928840,0.972367,0.021380,2.000000
6,0.010656,0.166407,1.000000,0.165279,0.376299,0.168582,0.007004,1.000000,2.000000,1.000000,0.000000,0.000000,0.241098,0.820428,0.972367,0.000000,2.000000
7,0.009370,0.484828,0.969039,0.000000,0.513005,0.225565,0.000000,0.830266,2.000000,0.978424,0.008238,0.000000,0.369520,0.908821,0.968262,0.071724,1.000000
8,0.001877,0.430783,0.831978,0.000000,0.407485,0.242363,0.135879,0.989189,0.000000,1.000000,0.000000,0.000000,0.165392,1.000000,0.957816,0.051024,0.000000
9,0.000001,0.430783,0.831978,0.016097,0.193297,0.242363,0.135879,1.000000,0.000000,0.795985,0.000000,0.010115,0.000000,0.892469,0.940203,0.000000,1.000000
10,0.000001,0.430783,0.831978,0.016097,0.193297,0.242363,0.135879,1.000000,0.000000,0.795985,0.000000,0.010115,0.000000,0.892469,0.940203,0.000000,1.000000
11,0.000001,0.430783,0.831978,0.016097,0.193297,0.242363,0.135879,1.000000,0.000000,0.795985,0.000000,0.010115,0.000000,0.892469,0.940203,0.000000,1.000000
12,0.000001,0.430783,0.831978,0.016097,0.193297,0.242363,0.135879,1.000000,0.000000,0.795985,0.000000,0.010115,0.000000,0.892469,0.940203,0.000000,1.000000
13,0.000001,0.430783,0.831978,0.016097,0.193297,0.242363,0.135879,1.000000,0.000000,0.795985,0.000000,0.010115,0.000000,0.892469,0.940203,0.000000,1.000000
14,0.000001,0.430783,0.831978,0.016097,0.193297,0.242363,0.135879,1.000000,0.000000,0.795985,0.000000,0.010115,0.000000,0.892469,0.940203,0.000000,1.000000
15,0.000001,0.430783,0.831978,0.016097,0.193297,0.242363,0.135879,1.000000,0.000000,0.795985,0.000000,0.010115,0.000000,0.892469,0.940203,0.000000,1.000000
16,0.000001,0.430783,0.831978,0.016097,0.193297,0.242363,0.135879,1.000000,0.000000,0.795985,0.000000,0.010115,0.000000,0.892469,0.940203,0.000000,1.000000
17,0.000001,0.430783,0.831978,0.016097,0.193297,0.242363,0.135879,1.000000,0.000000,0.795985,0.000000,0.010115,0.000000,0.892469,0.940203,0.000000,1.000000
18,0.000001,0.430783,0.831978,0.016097,0.193297,0.242363,0.135879,1.000000,0.000000,0.795985,0.000000,0.010115,0.000000,0.892469,0.940203,0.000000,1.000000
19,0.000001,0.430783,0.831978,0.016097,0.193297,0.242363,0.135879,1.000000,0.000000,0.795985,0.000000,0.010115,0.000000,0.892469,0.940203,0.000000,1.000000
gen, fitness
0,0.030614,0.000000,1.000000,0.210000,0.800000,0.030000,0.030000,1.000000,0.000000,1.000000,0.000000,0.000000,0.600000,1.000000,1.000000,0.000000,0.000000
1,0.030614,0.000000,1.000000,0.210000,0.800000,0.030000,0.030000,1.000000,0.000000,1.000000,0.000000,0.000000,0.600000,1.000000,1.000000,0.000000,0.000000
2,0.012915,0.000000,0.906825,0.210000,0.630763,0.042481,0.030000,0.987152,0.000000,1.000000,0.000000,0.000000,0.536934,1.000000,1.000000,0.155937,2.000000
3,0.010303,0.000000,0.943016,0.210000,0.630763,0.124457,0.043995,0.987152,1.000000,1.000000,0.000000,0.000000,0.475937,1.000000,0.940102,0.017960,0.000000
4,0.003928,0.156970,0.906157,0.000000,0.646250,0.302866,0.210362,0.941725,0.000000,1.000000,0.000000,0.000000,0.379859,0.891999,0.586929,0.155937,1.000000
5,0.003817,0.068487,0.906825,0.230952,0.441091,0.420340,0.053666,0.948414,0.000000,1.000000,0.000000,0.007893,0.171463,1.000000,1.000000,0.098599,1.000000
6,0.001328,0.000000,0.615332,0.088127,0.407016,0.420340,0.053666,0.948414,0.000000,0.936687,0.000000,0.000000,0.161648,0.985874,1.000000,0.098599,1.000000
7,0.000330,0.000000,0.459978,0.088127,0.407016,0.446444,0.053666,0.948414,1.000000,0.936687,0.000000,0.029767,0.047319,0.933259,1.000000,0.098599,0.000000
8,0.000024,0.000000,0.615332,0.127479,0.298877,0.661982,0.018253,1.000000,2.000000,0.936687,0.151563,0.000000,0.000000,1.000000,1.000000,0.098599,2.000000
9,0.000024,0.000000,0.615332,0.127479,0.298877,0.661982,0.018253,1.000000,2.000000,0.936687,0.151563,0.000000,0.000000,1.000000,1.000000,0.098599,2.000000
10,0.000011,0.067122,0.856645,0.077978,0.279990,0.888272,0.315658,0.931991,1.000000,0.787237,0.000000,0.000000,0.032388,1.000000,0.892428,0.000000,1.000000
11,0.000002,0.032380,0.540279,0.088127,0.357744,0.418605,0.036386,0.857543,1.000000,0.975397,0.000000,0.000000,0.000000,1.000000,1.000000,0.146390,0.000000
12,0.000002,0.032380,0.540279,0.088127,0.357744,0.418605,0.036386,0.857543,1.000000,0.975397,0.000000,0.000000,0.000000,1.000000,1.000000,0.146390,0.000000
13,0.000002,0.032380,0.540279,0.088127,0.357744,0.418605,0.036386,0.857543,1.000000,0.975397,0.000000,0.000000,0.000000,1.000000,1.000000,0.146390,0.000000
14,0.000002,0.000000,0.431247,0.178891,0.261356,0.547164,0.000000,1.000000,1.000000,1.000000,0.000000,0.000000,0.000000,0.933259,0.994034,0.011134,0.000000
15,0.000002,0.000000,0.431247,0.178891,0.261356,0.547164,0.000000,1.000000,1.000000,1.000000,0.000000,0.000000,0.000000,0.933259,0.994034,0.011134,0.000000
16,0.000001,0.067122,0.856645,0.077978,0.279990,0.801226,0.419430,0.931991,0.000000,0.787237,0.000000,0.000000,0.032388,1.000000,0.778452,0.036645,1.000000
17,0.000001,0.067122,0.856645,0.077978,0.279990,0.801226,0.419430,0.931991,0.000000,0.787237,0.000000,0.000000,0.032388,1.000000,0.778452,0.036645,1.000000
18,0.000000,0.191856,1.000000,0.066747,0.279990,1.000000,0.517582,0.894694,1.000000,0.787237,0.000000,0.000000,0.083683,0.902308,1.000000,0.099217,1.000000
gen, fitness
0,0.009712,0.000000,1.000000,0.210000,0.800000,0.030000,0.030000,1.000000,0.000000,1.000000,0.000000,0.000000,0.600000,1.000000,1.000000,0.000000,0.000000
1,0.009712,0.000000,1.000000,0.210000,0.800000,0.030000,0.030000,1.000000,0.000000,1.000000,0.000000,0.000000,0.600000,1.000000,1.000000,0.000000,0.000000
2,0.000282,0.034749,1.000000,0.272608,0.647944,0.000000,0.116935,0.889509,0.000000,1.000000,0.000000,0.000000,0.600000,1.000000,0.856506,0.083846,1.000000
3,0.000282,0.034749,1.000000,0.272608,0.647944,0.000000,0.116935,0.889509,0.000000,1.000000,0.000000,0.000000,0.600000,1.000000,0.856506,0.083846,1.000000
4,0.000098,0.082717,0.905442,0.253400,0.621434,0.160982,0.030000,0.766083,2.000000,0.908764,0.109682,0.000000,0.596805,0.871877,1.000000,0.000000,1.000000
5,0.000098,0.082717,0.905442,0.253400,0.621434,0.160982,0.030000,0.766083,2.000000,0.908764,0.109682,0.000000,0.596805,0.871877,1.000000,0.000000,1.000000
6,0.000098,0.082717,0.905442,0.253400,0.621434,0.160982,0.030000,0.766083,2.000000,0.908764,0.109682,0.000000,0.596805,0.871877,1.000000,0.000000,1.000000
7,0.000079,0.044193,0.905442,0.253400,0.621434,0.099811,0.000000,0.768816,1.000000,0.908764,0.017330,0.000000,0.581123,0.856435,1.000000,0.000000,0.000000
8,0.000002,0.072427,0.748699,0.062939,0.709150,0.200734,0.139962,0.902744,1.000000,1.000000,0.000000,0.000000,0.530668,1.000000,0.776361,0.230551,2.000000
9,0.000002,0.072427,0.748699,0.062939,0.709150,0.200734,0.139962,0.902744,1.000000,1.000000,0.000000,0.000000,0.530668,1.000000,0.776361,0.230551,2.000000
10,0.000002,0.072427,0.748699,0.062939,0.709150,0.200734,0.139962,0.902744,1.000000,1.000000,0.000000,0.000000,0.530668,1.000000,0.776361,0.230551,2.000000
11,0.000001,0.137589,0.865788,0.062939,0.643584,0.143383,0.144170,0.765396,2.000000,0.753101,0.000000,0.000000,0.542298,1.000000,1.000000,0.258102,2.000000
12,0.000001,0.137589,0.865788,0.062939,0.643584,0.143383,0.144170,0.765396,2.000000,0.753101,0.000000,0.000000,0.542298,1.000000,1.000000,0.258102,2.000000
13,0.000001,0.137589,0.865788,0.062939,0.643584,0.143383,0.144170,0.765396,2.000000,0.753101,0.000000,0.000000,0.542298,1.000000,1.000000,0.258102,2.000000
14,0.000001,0.072427,0.870821,0.086029,0.709150,0.200734,0.137759,0.760053,0.000000,1.000000,0.061910,0.000000,0.532475,0.885721,0.787235,0.230551,1.000000
15,0.000001,0.072427,0.870821,0.086029,0.709150,0.200734,0.137759,0.760053,0.000000,1.000000,0.061910,0.000000,0.532475,0.885721,0.787235,0.230551,1.000000
16,0.000001,0.072427,0.870821,0.086029,0.709150,0.200734,0.137759,0.760053,0.000000,1.000000,0.061910,0.000000,0.532475,0.885721,0.787235,0.230551,1.000000
17,0.000001,0.072427,0.870821,0.086029,0.709150,0.200734,0.137759,0.760053,0.000000,1.000000,0.061910,0.000000,0.532475,0.885721,0.787235,0.230551,1.000000
18,0.000001,0.072427,0.870821,0.086029,0.709150,0.200734,0.137759,0.760053,0.000000,1.000000,0.061910,0.000000,0.532475,0.885721,0.787235,0.230551,1.000000
gen, fitness
0,0.026348,0.000000,1.000000,0.210000,0.800000,0.030000,0.030000,1.000000,0.000000,1.000000,0.000000,0.000000,0.600000,1.000000,1.000000,0.000000,0.000000
1,0.026348,0.000000,1.000000,0.210000,0.800000,0.030000,0.030000,1.000000,0.000000,1.000000,0.000000,0.000000,0.600000,1.000000,1.000000,0.000000,0.000000
2,0.006203,0.000000,0.933798,0.310890,0.549607,0.109724,0.046302,1.000000,1.000000,1.000000,0.000000,0.000000,0.476608,0.988505,1.000000,0.000000,0.000000
3,0.005091,0.000000,1.000000,0.000000,0.619449,0.030000,0.000000,1.000000,0.000000,1.000000,0.068008,0.000000,0.414831,0.968369,1.000000,0.000000,0.000000
4,0.003417,0.042149,1.000000,0.000000,0.619449,0.030000,0.000000,1.000000,0.000000,0.903629,0.068008,0.000000,0.175888,0.748038,1.000000,0.015659,1.000000
5,0.000097,0.042149,1.000000,0.000000,0.491676,0.000000,0.079231,0.957217,2.000000,0.903629,0.068008,0.000000,0.175888,0.748038,1.000000,0.060850,1.000000
6,0.000035,0.042149,1.000000,0.000000,0.491676,0.000000,0.079231,0.845676,1.000000,0.865912,0.068008,0.000000,0.175888,0.768592,1.000000,0.026555,1.000000
7,0.000017,0.037226,1.000000,0.000000,0.491676,0.000000,0.000000,1.000000,1.000000,0.865912,0.068008,0.000000,0.175888,0.729223,1.000000,0.026555,2.000000
8,0.000017,0.037226,1.000000,0.000000,0.491676,0.000000,0.000000,1.000000,1.000000,0.865912,0.068008,0.000000,0.175888,0.729223,1.000000,0.026555,2.000000
9,0.000003,0.106398,0.908658,0.000000,0.491676,0.000000,0.165809,0.879385,0.000000,0.823502,0.046111,0.000000,0.201324,1.000000,0.919984,0.073683,2.000000
10,0.000000,0.118108,1.000000,0.000000,0.479552,0.000000,0.157647,1.000000,0.000000,0.851780,0.185839,0.000000,0.199928,0.554776,1.000000,0.000000,2.000000
gen, fitness
0,0.052335,0.000000,1.000000,0.210000,0.800000,0.030000,0.030000,1.000000,0.000000,1.000000,0.000000,0.000000,0.600000,1.000000,1.000000,0.000000,0.000000
1,0.052335,0.000000,1.000000,0.210000,0.800000,0.030000,0.030000,1.000000,0.000000,1.000000,0.000000,0.000000,0.600000,1.000000,1.000000,0.000000,0.000000
2,0.019024,0.103431,1.000000,0.210000,0.566273,0.030000,0.030000,0.992308,2.000000,1.000000,0.045273,0.000000,0.497605,1.000000,1.000000,0.000000,0.000000
3,0.018109,0.113474,0.987130,0.000000,0.635602,0.000000,0.033415,0.959216,1.000000,0.858681,0.000000,0.000000,0.517315,1.000000,1.000000,0.047726,0.000000
4,0.007186,0.113474,0.900203,0.000000,0.541443,0.000000,0.033415,0.971372,0.000000,0.743667,0.000000,0.000000,0.326082,1.000000,1.000000,0.047726,2.000000
5,0.005840,0.113474,0.900203,0.000000,0.481885,0.000000,0.064021,0.971372,2.000000,0.743667,0.000000,0.002072,0.292079,0.980197,1.000000,0.047726,2.000000
6,0.001993,0.344947,1.000000,0.028820,0.428269,0.000000,0.000000,1.000000,0.000000,1.000000,0.148106,0.000000,0.262726,0.935472,0.891282,0.022833,2.000000
7,0.001358,0.048523,0.989315,0.000000,0.471263,0.000000,0.159572,0.979335,1.000000,0.932779,0.000000,0.000000,0.052795,0.857469,1.000000,0.060173,2.000000
8,0.000042,0.118479,0.989315,0.000000,0.386769,0.000000,0.159572,0.877350,0.000000,0.954367,0.000000,0.000000,0.000000,0.857469,1.000000,0.060173,1.000000
9,0.000042,0.118479,0.989315,0.000000,0.386769,0.000000,0.159572,0.877350,0.000000,0.954367,0.000000,0.000000,0.000000,0.857469,1.000000,0.060173,1.000000
10,0.000042,0.118479,0.989315,0.000000,0.386769,0.000000,0.159572,0.877350,0.000000,0.954367,0.000000,0.000000,0.000000,0.857469,1.000000,0.060173,1.000000
11,0.000042,0.118479,0.989315,0.000000,0.386769,0.000000,0.159572,0.877350,0.000000,0.954367,0.000000,0.000000,0.000000,0.857469,1.000000,0.060173,1.000000
12,0.000012,0.338244,0.718038,0.000000,0.364545,0.000000,0.536105,0.678869,2.000000,1.000000,0.060323,0.000000,0.040714,1.000000,0.792136,0.131374,0.000000
13,0.000012,0.338244,0.718038,0.000000,0.364545,0.000000,0.536105,0.678869,2.000000,1.000000,0.060323,0.000000,0.040714,1.000000,0.792136,0.131374,0.000000
14,0.000001,0.269283,0.926593,0.020747,0.364525,0.091426,0.470569,0.638200,2.000000,1.000000,0.207422,0.000000,0.040714,1.000000,0.756963,0.000000,1.000000
15,0.000001,0.269283,0.926593,0.020747,0.364525,0.091426,0.470569,0.638200,2.000000,1.000000,0.207422,0.000000,0.040714,1.000000,0.756963,0.000000,1.000000
16,0.000001,0.269283,0.926593,0.020747,0.364525,0.091426,0.354409,0.638200,2.000000,1.000000,0.031123,0.000000,0.040714,1.000000,0.730769,0.000000,1.000000
gen, fitness
0,0.080636,0.000000,1.000000,0.210000,0.800000,0.030000,0.030000,1.000000,0.000000,1.000000,0.000000,0.000000,0.600000,1.000000,1.000000,0.000000,0.000000
1,0.080636,0.000000,1.000000,0.210000,0.800000,0.030000,0.030000,1.000000,0.000000,1.000000,0.000000,0.000000,0.600000,1.000000,1.000000,0.000000,0.000000
2,0.050741,0.065411,1.000000,0.210000,0.672571,0.030000,0.009117,0.868520,1.000000,1.000000,0.000000,0.001307,0.473770,1.000000,1.000000,0.000000,0.000000
3,0.032315,0.119607,1.000000,0.236568,0.464987,0.000000,0.000000,1.000000,0.000000,0.887651,0.199744,0.001427,0.473920,1.000000,0.907812,0.000000,1.000000
4,0.026688,0.185888,1.000000,0.157442,0.405086,0.030000,0.113799,1.000000,2.000000,1.000000,0.000000,0.066562,0.395931,0.965430,1.000000,0.000000,0.000000
5,0.014467,0.164169,0.954833,0.157442,0.405086,0.030000,0.269471,0.784753,2.000000,1.000000,0.000000,0.066562,0.144665,0.965430,1.000000,0.000000,1.000000
6,0.008046,0.307429,0.954833,0.157442,0.314396,0.030000,0.269471,0.784753,0.000000,1.000000,0.147693,0.046705,0.144665,0.902033,1.000000,0.000000,1.000000
7,0.007701,0.215536,1.000000,0.196624,0.190866,0.104530,0.269471,0.784753,0.000000,1.000000,0.147693,0.035598,0.124468,0.922052,1.000000,0.259230,1.000000
8,0.004155,0.307429,0.954833,0.091312,0.314396,0.098156,0.269471,0.784753,0.000000,1.000000,0.147693,0.000000,0.070833,0.910844,1.000000,0.000000,0.000000
9,0.000862,0.307429,0.963386,0.000000,0.246726,0.030000,0.195763,0.765430,2.000000,0.876045,0.147693,0.000000,0.000000,1.000000,1.000000,0.026399,2.000000
10,0.000840,0.398513,1.000000,0.200417,0.045456,0.000000,0.173727,0.833118,2.000000,1.000000,0.147693,0.000000,0.037333,0.938556,1.000000,0.053059,2.000000
11,0.000069,0.534669,0.811453,0.000000,0.094885,0.049506,0.175990,0.784753,0.000000,0.776827,0.186696,0.000000,0.054214,0.943932,1.000000,0.033799,0.000000
12,0.000069,0.534669,0.811453,0.000000,0.094885,0.049506,0.175990,0.784753,0.000000,0.776827,0.186696,0.000000,0.054214,0.943932,1.000000,0.033799,0.000000
13,0.000069,0.434537,1.000000,0.000000,0.231915,0.273476,0.224004,0.666304,2.000000,1.000000,0.176105,0.000000,0.000000,0.996135,0.889011,0.000000,1.000000
14,0.000040,0.434537,1.000000,0.000000,0.231915,0.273476,0.224004,0.576098,0.000000,1.000000,0.176105,0.000000,0.000000,0.996135,0.884651,0.000000,1.000000
15,0.000015,0.508363,0.676095,0.000000,0.181482,0.091535,0.175990,0.663196,1.000000,0.938995,0.166583,0.000000,0.000000,0.943932,0.946871,0.000000,0.000000
16,0.000015,0.508363,0.676095,0.000000,0.181482,0.091535,0.175990,0.663196,1.000000,0.938995,0.166583,0.000000,0.000000,0.943932,0.946871,0.000000,0.000000
17,0.000015,0.508363,0.676095,0.000000,0.181482,0.091535,0.175990,0.663196,1.000000,0.938995,0.166583,0.000000,0.000000,0.943932,0.946871,0.000000,0.000000
18,0.000000,0.768307,0.950432,0.135347,0.000000,0.026009,0.440574,1.000000,1.000000,1.000000,0.170329,0.000000,0.120183,0.897196,0.919103,0.131380,1.000000
gen, fitness
0,0.025383,0.000000,1.000000,0.210000,0.800000,0.030000,0.030000,1.000000,0.000000,1.000000,0.000000,0.000000,0.600000,1.000000,1.000000,0.000000,0.000000
1,0.025383,0.000000,1.000000,0.210000,0.800000,0.030000,0.030000,1.000000,0.000000,1.000000,0.000000,0.000000,0.600000,1.000000,1.000000,0.000000,0.000000
2,0.007175,0.000000,0.902325,0.210000,0.623103,0.030000,0.000000,0.817553,0.000000,1.000000,0.020579,0.000000,0.520890,1.000000,1.000000,0.059288,0.000000
3,0.007175,0.000000,0.902325,0.210000,0.623103,0.030000,0.000000,0.817553,0.000000,1.000000,0.020579,0.000000,0.520890,1.000000,1.000000,0.059288,0.000000
4,0.002505,0.047700,1.000000,0.048332,0.592456,0.016539,0.000000,0.900361,2.000000,0.966175,0.046956,0.000000,0.317999,0.860264,1.000000,0.015905,1.000000
5,0.002505,0.047700,1.000000,0.048332,0.592456,0.016539,0.000000,0.900361,2.000000,0.966175,0.046956,0.000000,0.317999,0.860264,1.000000,0.015905,1.000000
6,0.000370,0.032387,0.917066,0.053425,0.458695,0.141635,0.000000,0.817553,2.000000,1.000000,0.031263,0.000000,0.010986,0.939369,0.934139,0.274783,0.000000
7,0.000007,0.000000,0.723660,0.053425,0.458695,0.141635,0.000000,0.754806,1.000000,1.000000,0.031263,0.000000,0.044606,0.939369,0.971926,0.274783,0.000000
8,0.000000,0.000000,0.927628,0.053425,0.458695,0.119383,0.000000,0.754806,0.000000,1.000000,0.136965,0.000000,0.033143,0.939369,0.971926,0.274783,2.000000
