map,fitness,fitness value,team0ratio,time,HP,Speed,Damage,Acc,ClipSize,RateOfFire,NrBullets,Range,HP,Speed,Damage,Acc,ClipSize,RateOfFire,NrBullets,Range,HP,Speed,Damage,Acc,ClipSize,RateOfFire,NrBullets,Range,HP,Speed,Damage,Acc,ClipSize,RateOfFire,NrBullets,Range,Run,target team0ratio: 0.5,target time: 0.72
/home/daniel/Projects/ppsevolution/data/maps/custom_maps/Custom_1_Run_0_Map.csv,squared_error,9.00628328236021e-07,0.4994,0.7188,0.794775,0.821476,0.000000,0.012705,0.273064,0.286353,0.621406,1.000000,1.000000,0.049182,0.004765,0.000000,1.000000,0.824384,0.006920,1.000000,264.085682,1.230027,9.000000,0.012705,55.339731,3.220350,6.592658,1.000000,300.000000,0.797542,9.671811,0.000000,200.000000,8.331650,1.062276,1.000000,0
/home/daniel/Projects/ppsevolution/data/maps/custom_maps/Custom_1_Run_0_Map.csv,squared_error,1.987321509969267e-06,0.5002,0.7180,0.806370,0.570704,0.000000,0.000000,0.025953,0.437691,0.813848,0.000000,1.000000,0.478362,0.000000,0.000000,0.782271,0.900329,0.021468,1.000000,266.114809,1.089594,9.000000,0.000000,6.164582,4.658067,8.324628,0.000000,300.000000,1.037883,9.000000,0.000000,156.671864,9.053130,1.193215,1.000000,1
/home/daniel/Projects/ppsevolution/data/maps/custom_maps/Custom_1_Run_0_Map.csv,squared_error,3.9403612353511414e-07,0.5008,0.7205,1.000000,0.870298,0.000000,0.000000,0.495065,0.000000,0.649269,1.000000,1.000000,0.238131,0.000000,0.084224,1.000000,0.651655,0.187628,1.000000,300.000000,1.257367,9.000000,0.000000,99.517893,0.500000,6.843419,1.000000,300.000000,0.903354,9.000000,0.084224,200.000000,6.690720,2.688650,1.000000,2
/home/daniel/Projects/ppsevolution/data/maps/custom_maps/Custom_1_Run_0_Map.csv,squared_error,8.408698576617382e-08,0.4999,0.7204,0.801285,1.000000,0.000000,0.000000,0.000000,0.276453,0.831187,0.000000,1.000000,0.251760,0.000000,0.003461,1.000000,0.640590,0.046015,2.000000,265.224938,1.330000,9.000000,0.000000,1.000000,3.126306,8.480685,0.000000,300.000000,0.910986,9.000000,0.003461,200.000000,6.585607,1.414131,2.000000,3
/home/daniel/Projects/ppsevolution/data/maps/custom_maps/Custom_1_Run_0_Map.csv,squared_error,5.292515549911067e-07,0.5010,0.7200,0.966530,1.000000,0.000000,0.000000,0.169301,0.335808,0.601515,2.000000,1.000000,0.159535,0.013927,0.041588,0.791090,0.976469,0.190308,2.000000,294.142692,1.330000,9.000000,0.000000,34.690860,3.690179,6.413639,2.000000,300.000000,0.859339,10.963757,0.041588,158.426998,9.776452,2.712775,2.000000,4
/home/daniel/Projects/ppsevolution/data/maps/custom_maps/Custom_1_Run_0_Map.csv,squared_error,1.555506805857561e-07,0.4995,0.7203,0.791498,1.000000,0.000000,0.000000,0.000000,0.041090,0.718888,1.000000,1.000000,0.012000,0.005205,0.000000,0.772461,0.662979,0.000000,2.000000,263.512069,1.330000,9.000000,0.000000,1.000000,0.890356,7.469991,1.000000,300.000000,0.776720,9.733927,0.000000,154.719661,6.798304,1.000000,2.000000,5
/home/daniel/Projects/ppsevolution/data/maps/custom_maps/Custom_1_Run_0_Map.csv,squared_error,5.591624371532794e-07,0.5005,0.7191,0.820439,0.773279,0.000000,0.000000,0.136895,0.527591,0.698695,0.000000,1.000000,0.233380,0.000000,0.000000,0.670134,0.544342,0.075049,0.000000,268.576775,1.203036,9.000000,0.000000,28.242154,5.512113,7.288252,0.000000,300.000000,0.900693,9.000000,0.000000,134.356643,5.671245,1.675443,0.000000,6
/home/daniel/Projects/ppsevolution/data/maps/custom_maps/Custom_1_Run_0_Map.csv,squared_error,9.234288673816269e-07,0.4994,0.7188,0.814195,0.548906,0.000000,0.000000,0.259219,0.188677,0.668569,0.000000,1.000000,0.119619,0.000000,0.013437,0.701617,0.333207,0.000000,0.000000,267.484192,1.077387,9.000000,0.000000,52.584520,2.292432,7.017121,0.000000,300.000000,0.836986,9.000000,0.013437,140.621768,3.665469,1.000000,0.000000,7
/home/daniel/Projects/ppsevolution/data/maps/custom_maps/Custom_1_Run_0_Map.csv,squared_error,9.745922504407436e-07,0.5012,0.7192,0.822045,0.267589,0.000000,0.000000,0.302984,0.000000,0.727463,1.000000,1.000000,0.528279,0.000000,0.000000,0.693428,0.985638,0.000000,2.000000,268.857907,0.919850,9.000000,0.000000,61.293888,0.500000,7.547167,1.000000,300.000000,1.065836,9.000000,0.000000,138.992244,9.863561,1.000000,2.000000,8
/home/daniel/Projects/ppsevolution/data/maps/custom_maps/Custom_1_Run_0_Map.csv,squared_error,1.0455242204272944e-06,0.5014,0.7199,0.789451,0.857010,0.000000,0.001754,0.208791,0.016596,0.754697,0.000000,1.000000,0.000000,0.000000,0.000000,0.758803,0.749569,0.026746,2.000000,263.153859,1.249925,9.000000,0.001754,42.549500,0.657660,7.792274,0.000000,300.000000,0.770000,9.000000,0.000000,152.001798,7.620907,1.240715,2.000000,9
map,fitness,fitness value,team0ratio,time,HP,Speed,Damage,Acc,ClipSize,RateOfFire,NrBullets,Range,HP,Speed,Damage,Acc,ClipSize,RateOfFire,NrBullets,Range,HP,Speed,Damage,Acc,ClipSize,RateOfFire,NrBullets,Range,HP,Speed,Damage,Acc,ClipSize,RateOfFire,NrBullets,Range,Run,target team0ratio: 0.5,target time: 0.72
/home/daniel/Projects/ppsevolution/data/maps/custom_maps/Custom_2_Run_0_Map.csv,squared_error,2.498447082473191e-07,0.5001,0.7193,0.376590,1.000000,0.000000,0.489534,0.000000,0.097997,1.000000,2.000000,0.857393,0.093346,0.000000,0.316061,0.876634,0.963405,0.043373,1.000000,190.903206,1.330000,9.000000,0.489534,1.000000,1.430967,10.000000,2.000000,275.043797,0.822274,9.000000,0.316061,175.450174,9.652347,1.390353,1.000000,0
/home/daniel/Projects/ppsevolution/data/maps/custom_maps/Custom_2_Run_0_Map.csv,squared_error,9.447049880691297e-07,0.5014,0.7198,0.152032,0.683802,0.079387,0.505492,0.000000,0.000000,0.661558,2.000000,1.000000,0.112325,0.000000,0.220618,0.943064,0.877772,0.000000,0.000000,151.605629,1.152929,20.193504,0.505492,1.000000,0.500000,6.954018,2.000000,300.000000,0.832902,9.000000,0.220618,188.669646,8.838833,1.000000,0.000000,1
/home/daniel/Projects/ppsevolution/data/maps/custom_maps/Custom_2_Run_0_Map.csv,squared_error,3.0826590887115435e-07,0.4993,0.7197,0.217430,0.882110,0.062726,0.504045,0.000000,0.000000,0.994027,0.000000,0.997502,0.202910,0.079993,0.170462,0.908407,0.941336,0.000000,1.000000,163.050216,1.263981,17.844339,0.504045,1.000000,0.500000,9.946247,0.000000,299.562936,0.883629,20.278953,0.170462,181.773000,9.442695,1.000000,1.000000,2
/home/daniel/Projects/ppsevolution/data/maps/custom_maps/Custom_2_Run_0_Map.csv,squared_error,8.361762360039136e-07,0.5011,0.7207,0.000000,0.959423,0.078818,0.526223,0.041853,0.143790,0.504320,1.000000,0.980790,0.108697,0.000000,0.131058,0.807224,1.000000,0.217945,0.000000,125.000000,1.307277,20.113378,0.526223,9.328826,1.866001,5.538881,1.000000,296.638181,0.830871,9.000000,0.131058,161.637636,10.000000,2.961508,0.000000,3
/home/daniel/Projects/ppsevolution/data/maps/custom_maps/Custom_2_Run_0_Map.csv,squared_error,8.407395084304678e-07,0.4990,0.7192,0.417715,1.000000,0.000000,0.537061,0.000000,0.008558,0.956019,2.000000,0.969356,0.222275,0.000000,0.323447,0.948547,0.919896,0.161315,2.000000,198.100211,1.330000,9.000000,0.537061,1.000000,0.581302,9.604175,2.000000,294.637381,0.894474,9.000000,0.323447,189.760925,9.239012,2.451831,2.000000,4
/home/daniel/Projects/ppsevolution/data/maps/custom_maps/Custom_2_Run_0_Map.csv,squared_error,1.902974184276512e-06,0.4987,0.7214,0.262610,1.000000,0.335866,0.256472,0.343991,0.000000,0.569434,0.000000,0.995445,0.000000,0.000000,0.259970,1.000000,0.726334,0.000000,0.000000,170.956680,1.330000,56.357174,0.256472,69.454128,0.500000,6.124904,0.000000,299.202864,0.770000,9.000000,0.259970,200.000000,7.400174,1.000000,0.000000,5
/home/daniel/Projects/ppsevolution/data/maps/custom_maps/Custom_2_Run_0_Map.csv,squared_error,1.5567451653282648e-06,0.4982,0.7200,0.151139,0.985643,0.100393,0.430797,0.034613,0.155806,1.000000,1.000000,0.901318,0.241838,0.190466,0.000000,1.000000,0.785400,0.119785,1.000000,151.449394,1.321960,23.155452,0.430797,7.888065,1.980155,10.000000,1.000000,282.730565,0.905429,35.855674,0.000000,200.000000,7.961297,2.078068,1.000000,6
/home/daniel/Projects/ppsevolution/data/maps/custom_maps/Custom_2_Run_0_Map.csv,squared_error,9.84397711843609e-07,0.5013,0.7204,0.008751,1.000000,0.002940,0.570639,0.300630,0.000000,0.541136,2.000000,0.917804,0.000000,0.047284,0.067203,0.600121,0.785949,0.440305,2.000000,126.531506,1.330000,9.414565,0.570639,60.825291,0.500000,5.870220,2.000000,285.615727,0.770000,15.667001,0.067203,120.424165,7.966515,4.962742,2.000000,7
/home/daniel/Projects/ppsevolution/data/maps/custom_maps/Custom_2_Run_0_Map.csv,squared_error,4.4088926429777565e-07,0.4994,0.7193,0.316405,0.987354,0.018304,0.530624,0.319102,0.000000,0.826357,0.000000,0.932689,0.011262,0.083669,0.227364,1.000000,0.543301,0.000000,1.000000,180.370927,1.322918,11.580797,0.530624,64.501324,0.500000,8.437214,0.000000,288.220633,0.776307,20.797343,0.227364,200.000000,5.661363,1.000000,1.000000,8
/home/daniel/Projects/ppsevolution/data/maps/custom_maps/Custom_2_Run_0_Map.csv,squared_error,5.41322499543596e-08,0.5003,0.7198,0.100353,1.000000,0.008932,0.494376,0.038196,0.000000,1.000000,1.000000,0.808089,0.234344,0.039030,0.149409,0.791620,0.733453,0.121440,2.000000,142.561701,1.330000,10.259370,0.494376,8.600990,0.500000,10.000000,1.000000,266.415628,0.901232,14.503203,0.149409,158.532382,7.467807,2.092956,2.000000,9
map,fitness,fitness value,team0ratio,time,HP,Speed,Damage,Acc,ClipSize,RateOfFire,NrBullets,Range,HP,Speed,Damage,Acc,ClipSize,RateOfFire,NrBullets,Range,HP,Speed,Damage,Acc,ClipSize,RateOfFire,NrBullets,Range,HP,Speed,Damage,Acc,ClipSize,RateOfFire,NrBullets,Range,Run,target team0ratio: 0.5,target time: 0.72
/home/daniel/Projects/ppsevolution/data/maps/custom_maps/Custom_3_Run_0_Map.csv,squared_error,1.2752017812551946e-06,0.4987,0.7191,0.296626,0.946126,0.000000,0.598935,0.135032,0.207389,0.665303,0.000000,0.776851,0.211385,0.000000,0.431669,0.734158,0.439106,0.183614,2.000000,176.909601,1.299830,9.000000,0.598935,27.871351,2.470191,6.987726,0.000000,260.948939,0.888375,9.000000,0.431669,147.097406,4.671508,2.652522,2.000000,0
/home/daniel/Projects/ppsevolution/data/maps/custom_maps/Custom_3_Run_0_Map.csv,squared_error,9.291067348442476e-08,0.4996,0.7200,0.000000,0.949074,0.000000,0.683656,0.000000,0.099974,0.378550,1.000000,1.000000,0.140742,0.000000,0.344171,0.805791,0.857559,0.005181,1.000000,125.000000,1.301482,9.000000,0.683656,1.000000,1.449753,4.406954,1.000000,300.000000,0.848815,9.000000,0.344171,161.352324,8.646808,1.046629,1.000000,1
/home/daniel/Projects/ppsevolution/data/maps/custom_maps/Custom_3_Run_0_Map.csv,squared_error,8.448479191088086e-07,0.4987,0.7197,0.087959,1.000000,0.211643,0.435576,0.000000,0.215506,1.000000,0.000000,0.901343,0.438096,0.000000,0.335991,0.922566,0.818000,0.000000,0.000000,140.392828,1.330000,38.841621,0.435576,1.000000,2.547308,10.000000,0.000000,282.734957,1.015334,9.000000,0.335991,184.590640,8.271001,1.000000,0.000000,2
/home/daniel/Projects/ppsevolution/data/maps/custom_maps/Custom_3_Run_0_Map.csv,squared_error,1.6581594717564926e-06,0.5008,0.7217,0.207237,1.000000,0.104479,0.558169,0.138215,0.156372,0.743452,2.000000,1.000000,0.071834,0.000000,0.384261,1.000000,1.000000,0.000000,0.000000,161.266479,1.330000,23.731556,0.558169,28.504723,1.985534,7.691064,2.000000,300.000000,0.810227,9.000000,0.384261,200.000000,10.000000,1.000000,0.000000,3
/home/daniel/Projects/ppsevolution/data/maps/custom_maps/Custom_3_Run_0_Map.csv,squared_error,7.550999312407481e-07,0.4993,0.7210,0.343724,0.538620,0.176176,0.429632,0.000000,0.237901,0.865672,0.000000,0.808993,0.310729,0.000000,0.429362,0.869092,1.000000,0.055967,2.000000,185.151765,1.071627,33.840819,0.429632,1.000000,2.760059,8.791048,0.000000,266.573835,0.944008,9.000000,0.429362,173.949404,10.000000,1.503699,2.000000,4
/home/daniel/Projects/ppsevolution/data/maps/custom_maps/Custom_3_Run_0_Map.csv,squared_error,9.10878300438009e-08,0.4999,0.7204,0.206164,0.864104,0.181818,0.460857,0.000000,0.597320,0.895539,1.000000,0.930983,0.065958,0.000000,0.369336,0.874293,1.000000,0.000000,2.000000,161.078637,1.253898,34.636313,0.460857,1.000000,6.174536,9.059847,1.000000,287.922007,0.806936,9.000000,0.369336,174.984363,10.000000,1.000000,2.000000,5
/home/daniel/Projects/ppsevolution/data/maps/custom_maps/Custom_3_Run_0_Map.csv,squared_error,1.4398445544124532e-06,0.4990,0.7214,0.050156,1.000000,0.064047,0.620307,0.087508,0.001734,0.640796,0.000000,1.000000,0.000000,0.000000,0.338481,0.825748,0.989760,0.029047,2.000000,133.777347,1.330000,18.030639,0.620307,18.414073,0.516478,6.767165,0.000000,300.000000,0.770000,9.000000,0.338481,165.323943,9.902719,1.261423,2.000000,6
/home/daniel/Projects/ppsevolution/data/maps/custom_maps/Custom_3_Run_0_Map.csv,squared_error,1.6495164706215313e-07,0.4998,0.7205,0.194788,1.000000,0.166362,0.476523,0.009206,0.078486,0.960043,0.000000,0.908125,0.178698,0.000000,0.360803,0.946893,1.000000,0.170735,2.000000,159.087868,1.330000,32.457054,0.476523,2.831970,1.245621,9.640383,0.000000,283.921829,0.870071,9.000000,0.360803,189.431766,10.000000,2.536612,2.000000,7
/home/daniel/Projects/ppsevolution/data/maps/custom_maps/Custom_3_Run_0_Map.csv,squared_error,1.759433844313058e-07,0.4998,0.7194,0.170859,0.921572,0.100282,0.538370,0.181708,0.000000,1.000000,2.000000,0.970293,0.167184,0.070307,0.298314,0.940472,0.961743,0.000000,2.000000,154.900354,1.286081,23.139767,0.538370,37.159843,0.500000,10.000000,2.000000,294.801260,0.863623,18.913324,0.298314,188.154002,9.636554,1.000000,2.000000,8
/home/daniel/Projects/ppsevolution/data/maps/custom_maps/Custom_3_Run_0_Map.csv,squared_error,1.7463644090012903e-07,0.5001,0.7194,0.136277,0.808119,0.043134,0.603668,0.000000,0.088910,0.913487,2.000000,1.000000,0.042264,0.000000,0.347015,1.000000,0.935631,0.167604,0.000000,148.848417,1.222547,15.081880,0.603668,1.000000,1.344642,9.221382,2.000000,300.000000,0.793668,9.000000,0.347015,200.000000,9.388493,2.508439,0.000000,9
map,fitness,fitness value,team0ratio,time,HP,Speed,Damage,Acc,ClipSize,RateOfFire,NrBullets,Range,HP,Speed,Damage,Acc,ClipSize,RateOfFire,NrBullets,Range,HP,Speed,Damage,Acc,ClipSize,RateOfFire,NrBullets,Range,HP,Speed,Damage,Acc,ClipSize,RateOfFire,NrBullets,Range,Run,target team0ratio: 0.5,target time: 0.72
/home/daniel/Projects/ppsevolution/data/maps/custom_maps/Custom_4_Run_0_Map.csv,squared_error,6.954948897515892e-07,0.5000,0.7212,0.498777,1.000000,0.000000,0.262314,0.000000,0.286089,0.492899,2.000000,0.848403,0.200403,0.005714,0.004356,0.729901,0.896952,0.180019,0.000000,212.286035,1.330000,9.000000,0.262314,1.000000,3.217843,5.436089,2.000000,273.470488,0.882226,9.805647,0.004356,146.250372,9.021049,2.620168,0.000000,0
/home/daniel/Projects/ppsevolution/data/maps/custom_maps/Custom_4_Run_0_Map.csv,squared_error,1.0922137433596075e-06,0.5014,0.7205,0.507247,0.643751,0.000000,0.260037,0.168568,0.305152,0.882822,2.000000,0.931488,0.168110,0.000000,0.000000,0.910128,0.543654,0.193494,0.000000,213.768186,1.130501,9.000000,0.260037,34.545106,3.398948,8.945395,2.000000,288.010484,0.864142,9.000000,0.000000,182.115515,5.664709,2.741446,0.000000,1
/home/daniel/Projects/ppsevolution/data/maps/custom_maps/Custom_4_Run_0_Map.csv,squared_error,3.695049110604051e-07,0.5009,0.7201,0.591476,0.810815,0.000000,0.257586,0.000000,0.237495,0.868558,1.000000,0.922418,0.000000,0.000000,0.078863,1.000000,0.912817,0.000000,2.000000,228.508263,1.224057,9.000000,0.257586,1.000000,2.756200,8.817018,1.000000,286.423205,0.770000,9.000000,0.078863,200.000000,9.171765,1.000000,2.000000,2
/home/daniel/Projects/ppsevolution/data/maps/custom_maps/Custom_4_Run_0_Map.csv,squared_error,2.6978640809433155e-07,0.5006,0.7205,0.533188,0.470190,0.274373,0.000000,0.136518,0.000000,0.546541,1.000000,1.000000,0.000000,0.000466,0.000000,0.655108,0.573313,0.089535,2.000000,218.307983,1.033306,47.686546,0.000000,28.167124,0.500000,5.918872,1.000000,300.000000,0.770000,9.065741,0.000000,131.366486,5.946476,1.805811,2.000000,3
/home/daniel/Projects/ppsevolution/data/maps/custom_maps/Custom_4_Run_0_Map.csv,squared_error,1.3585819058022487e-06,0.5014,0.7209,0.470021,1.000000,0.000000,0.284095,0.026254,0.392730,0.649701,0.000000,0.883246,0.332756,0.000000,0.000000,0.999522,1.000000,0.162869,1.000000,207.253621,1.330000,9.000000,0.284095,6.224498,4.230935,6.847310,0.000000,279.568109,0.956344,9.000000,0.000000,199.904840,10.000000,2.465825,1.000000,4
/home/daniel/Projects/ppsevolution/data/maps/custom_maps/Custom_4_Run_0_Map.csv,squared_error,3.0684150139921113e-07,0.4998,0.7208,0.780304,0.959215,0.000000,0.286512,0.168489,0.146993,0.760656,1.000000,1.000000,0.061839,0.000000,0.178802,0.965593,0.624790,0.000000,0.000000,261.553218,1.307161,9.000000,0.286512,34.529232,1.896432,7.845905,1.000000,300.000000,0.804630,9.000000,0.178802,193.152984,6.435504,1.000000,0.000000,5
/home/daniel/Projects/ppsevolution/data/maps/custom_maps/Custom_4_Run_0_Map.csv,squared_error,3.2282028017334913e-06,0.5022,0.7212,0.477208,0.961356,0.000000,0.265160,0.057502,0.465402,1.000000,0.000000,0.966914,0.097728,0.000000,0.000000,0.353752,0.929880,0.014241,2.000000,208.511442,1.308359,9.000000,0.265160,12.442912,4.921319,10.000000,0.000000,294.209865,0.824727,9.000000,0.000000,71.396700,9.333858,1.128170,2.000000,6
/home/daniel/Projects/ppsevolution/data/maps/custom_maps/Custom_4_Run_0_Map.csv,squared_error,7.690974582602471e-08,0.5001,0.7204,0.658059,0.868884,0.000000,0.301108,0.182127,0.094981,0.726646,1.000000,1.000000,0.262020,0.000000,0.077404,0.867918,0.589285,0.246584,1.000000,240.160320,1.256575,9.000000,0.301108,37.243304,1.402318,7.539812,1.000000,300.000000,0.916731,9.000000,0.077404,173.715605,6.098204,3.219255,1.000000,7
/home/daniel/Projects/ppsevolution/data/maps/custom_maps/Custom_4_Run_0_Map.csv,squared_error,1.1990981211880207e-06,0.4993,0.7186,0.421206,0.785517,0.075090,0.100063,0.000000,0.013765,0.887421,0.000000,0.717640,0.116719,0.000503,0.000000,0.676687,1.000000,0.069320,1.000000,198.710983,1.209889,19.587746,0.100063,1.000000,0.630769,8.986787,0.000000,250.587062,0.835362,9.070961,0.000000,135.660790,10.000000,1.623881,1.000000,8
/home/daniel/Projects/ppsevolution/data/maps/custom_maps/Custom_4_Run_0_Map.csv,squared_error,1.4911819236658862e-06,0.5015,0.7209,0.466291,0.820375,0.159471,0.207049,0.525969,0.000000,0.000000,1.000000,1.000000,0.058210,0.000000,0.000000,1.000000,0.953666,0.010519,0.000000,206.600980,1.229410,31.485451,0.207049,105.667773,0.500000,1.000000,1.000000,300.000000,0.802598,9.000000,0.000000,200.000000,9.559826,1.094667,0.000000,9
map,fitness,fitness value,team0ratio,time,HP,Speed,Damage,Acc,ClipSize,RateOfFire,NrBullets,Range,HP,Speed,Damage,Acc,ClipSize,RateOfFire,NrBullets,Range,HP,Speed,Damage,Acc,ClipSize,RateOfFire,NrBullets,Range,HP,Speed,Damage,Acc,ClipSize,RateOfFire,NrBullets,Range,Run,target team0ratio: 0.5,target time: 0.72
/home/daniel/Projects/ppsevolution/data/maps/custom_maps/Custom_5_Run_0_Map.csv,squared_error,3.663646521097654e-07,0.4993,0.7205,0.196078,0.847746,0.000000,0.339537,0.412806,0.000000,1.000000,0.000000,0.745542,0.000000,0.031030,0.066594,0.828916,0.671847,0.091403,2.000000,159.313642,1.244738,9.000000,0.339537,83.148404,0.500000,10.000000,0.000000,255.469882,0.770000,13.375203,0.066594,165.954205,6.882543,1.822626,2.000000,0
/home/daniel/Projects/ppsevolution/data/maps/custom_maps/Custom_5_Run_0_Map.csv,squared_error,2.649172777864977e-07,0.4997,0.7206,0.068698,0.974403,0.000000,0.443489,0.467237,0.091008,1.000000,0.000000,0.991628,0.328776,0.000000,0.000000,0.663329,0.431661,0.264434,2.000000,137.022099,1.315666,9.000000,0.443489,93.980187,1.364580,10.000000,0.000000,298.534880,0.954115,9.000000,0.000000,133.002484,4.600782,3.379909,2.000000,1
/home/daniel/Projects/ppsevolution/data/maps/custom_maps/Custom_5_Run_0_Map.csv,squared_error,1.6699316368658846e-06,0.5007,0.7217,0.320657,1.000000,0.000000,0.395027,0.000000,0.000000,1.000000,0.000000,0.914705,0.151102,0.000000,0.156324,0.560152,1.000000,0.039581,2.000000,181.114961,1.330000,9.000000,0.395027,1.000000,0.500000,10.000000,0.000000,285.073298,0.854617,9.000000,0.156324,112.470189,10.000000,1.356230,2.000000,2
/home/daniel/Projects/ppsevolution/data/maps/custom_maps/Custom_5_Run_0_Map.csv,squared_error,1.5945178671470763e-08,0.4998,0.7199,0.295962,1.000000,0.000000,0.377523,0.149703,0.129523,0.716322,0.000000,0.775084,0.437283,0.029611,0.133210,0.878619,0.813448,0.000000,2.000000,176.793381,1.330000,9.000000,0.377523,30.790964,1.730469,7.446900,0.000000,260.639669,1.014878,13.175217,0.133210,175.845210,8.227760,1.000000,2.000000,3
/home/daniel/Projects/ppsevolution/data/maps/custom_maps/Custom_5_Run_0_Map.csv,squared_error,1.0560460010539127e-07,0.5002,0.7204,0.218011,0.636845,0.117548,0.152313,0.151822,0.010373,0.982523,2.000000,0.631896,0.200803,0.060467,0.042318,0.947631,0.818333,0.000000,2.000000,163.151985,1.126633,25.574335,0.152313,31.212640,0.598544,9.842703,2.000000,235.581769,0.882450,17.525831,0.042318,189.578572,8.274168,1.000000,2.000000,4
/home/daniel/Projects/ppsevolution/data/maps/custom_maps/Custom_5_Run_0_Map.csv,squared_error,2.2015868308928116e-07,0.4996,0.7205,0.041707,0.886394,0.000000,0.464790,0.095520,0.234356,0.745909,1.000000,1.000000,0.000000,0.000000,0.000000,1.000000,0.775360,0.228456,2.000000,132.298764,1.266381,9.000000,0.464790,20.008517,2.726382,7.713181,1.000000,300.000000,0.770000,9.000000,0.000000,200.000000,7.865919,3.056106,2.000000,5
/home/daniel/Projects/ppsevolution/data/maps/custom_maps/Custom_5_Run_0_Map.csv,squared_error,1.1393756407869523e-06,0.5014,0.7195,0.417967,0.443729,0.000000,0.450037,0.263486,0.220539,0.751203,0.000000,1.000000,0.000000,0.000000,0.221400,0.955213,1.000000,0.000000,0.000000,198.144204,1.018488,9.000000,0.450037,53.433650,2.595120,7.760831,0.000000,300.000000,0.770000,9.000000,0.221400,191.087290,10.000000,1.000000,0.000000,6
/home/daniel/Projects/ppsevolution/data/maps/custom_maps/Custom_5_Run_0_Map.csv,squared_error,2.7655094002204624e-08,0.4999,0.7202,0.543418,0.772478,0.363668,0.000000,0.286615,0.226212,1.000000,0.000000,1.000000,0.042699,0.041587,0.173584,1.000000,1.000000,0.188301,0.000000,220.098139,1.202588,60.277196,0.000000,58.036325,2.649015,10.000000,0.000000,300.000000,0.793911,14.863823,0.173584,200.000000,10.000000,2.694708,0.000000,7
/home/daniel/Projects/ppsevolution/data/maps/custom_maps/Custom_5_Run_0_Map.csv,squared_error,1.2412416090342321e-06,0.5012,0.7210,0.400576,0.821814,0.000000,0.448304,0.234740,0.103000,0.815991,0.000000,1.000000,0.302892,0.064408,0.128084,0.921433,0.996420,0.107125,0.000000,195.100798,1.230216,9.000000,0.448304,47.713297,1.478498,8.343923,0.000000,300.000000,0.939620,18.081475,0.128084,184.365255,9.965990,1.964128,0.000000,8
/home/daniel/Projects/ppsevolution/data/maps/custom_maps/Custom_5_Run_0_Map.csv,squared_error,6.952095230701827e-07,0.5009,0.7208,0.168719,0.946151,0.000000,0.399372,0.029505,0.215563,1.000000,0.000000,0.874692,0.134768,0.018737,0.079024,1.000000,1.000000,0.039370,0.000000,154.525812,1.299844,9.000000,0.399372,6.871441,2.547852,10.000000,0.000000,278.071062,0.845470,11.641987,0.079024,200.000000,10.000000,1.354329,0.000000,9
map,fitness,fitness value,team0ratio,time,HP,Speed,Damage,Acc,ClipSize,RateOfFire,NrBullets,Range,HP,Speed,Damage,Acc,ClipSize,RateOfFire,NrBullets,Range,HP,Speed,Damage,Acc,ClipSize,RateOfFire,NrBullets,Range,HP,Speed,Damage,Acc,ClipSize,RateOfFire,NrBullets,Range,Run,target team0ratio: 0.5,target time: 0.72
/home/daniel/Projects/ppsevolution/data/maps/custom_maps/Custom_6_Run_0_Map.csv,squared_error,1.3650960187313367e-06,0.4997,0.7216,0.172952,0.897556,0.320573,0.517155,0.092072,0.000000,0.948247,0.000000,0.925110,0.207735,0.230750,0.387067,0.964820,0.882936,0.047096,2.000000,155.266534,1.272631,54.200757,0.517155,19.322307,0.500000,9.534220,0.000000,286.894190,0.886332,41.535751,0.387067,192.999200,8.887890,1.423863,2.000000,0
/home/daniel/Projects/ppsevolution/data/maps/custom_maps/Custom_6_Run_0_Map.csv,squared_error,8.027084025570638e-07,0.5012,0.7197,0.000000,1.000000,0.116706,0.655351,0.030000,0.030000,1.000000,2.000000,0.952066,0.000000,0.000000,0.511889,1.000000,1.000000,0.000000,2.000000,125.000000,1.330000,25.455501,0.655351,6.970000,0.785000,10.000000,2.000000,291.611532,0.770000,9.000000,0.511889,200.000000,10.000000,1.000000,2.000000,1
/home/daniel/Projects/ppsevolution/data/maps/custom_maps/Custom_6_Run_0_Map.csv,squared_error,9.821252403526357e-07,0.5012,0.7207,0.109499,0.708807,0.226732,0.620883,0.299483,0.220199,0.778997,2.000000,1.000000,0.264189,0.255939,0.361642,1.000000,0.931503,0.052640,1.000000,144.162309,1.166932,40.969182,0.620883,60.597174,2.591889,8.010971,2.000000,300.000000,0.917946,45.087425,0.361642,200.000000,9.349280,1.473764,1.000000,2
/home/daniel/Projects/ppsevolution/data/maps/custom_maps/Custom_6_Run_0_Map.csv,squared_error,8.704022341817283e-07,0.5011,0.7207,0.000000,1.000000,0.211047,0.607606,0.059208,0.000000,1.000000,1.000000,0.981324,0.001969,0.000000,0.499135,1.000000,0.693581,0.124204,1.000000,125.000000,1.330000,38.757573,0.607606,12.782444,0.500000,10.000000,1.000000,296.731775,0.771103,9.000000,0.499135,200.000000,7.089017,2.117836,1.000000,3
/home/daniel/Projects/ppsevolution/data/maps/custom_maps/Custom_6_Run_0_Map.csv,squared_error,2.525181358362218e-06,0.5016,0.7184,0.018669,1.000000,0.088400,0.704185,0.000000,0.260456,0.520330,1.000000,0.916052,0.145379,0.000000,0.540259,0.985679,1.000000,0.063767,2.000000,128.267008,1.330000,21.464337,0.704185,1.000000,2.974332,5.682972,1.000000,285.309038,0.851412,9.000000,0.540259,197.150113,10.000000,1.573901,2.000000,4
/home/daniel/Projects/ppsevolution/data/maps/custom_maps/Custom_6_Run_0_Map.csv,squared_error,3.685688645021596e-08,0.5001,0.7202,0.040198,0.928165,0.041154,0.654069,0.199232,0.114038,0.973588,1.000000,0.731357,0.075254,0.014643,0.528940,1.000000,1.000000,0.005547,0.000000,132.034731,1.289773,14.802696,0.654069,40.647159,1.583362,9.762296,1.000000,252.987525,0.812142,11.064613,0.528940,200.000000,10.000000,1.049927,0.000000,5
/home/daniel/Projects/ppsevolution/data/maps/custom_maps/Custom_6_Run_0_Map.csv,squared_error,3.65934808340294e-07,0.4992,0.7204,0.243852,1.000000,0.004007,0.702800,0.019711,0.078016,1.000000,0.000000,0.919110,0.021475,0.000000,0.569251,0.829039,1.000000,0.184372,2.000000,167.674105,1.330000,9.564986,0.702800,4.922484,1.241153,10.000000,0.000000,285.844290,0.782026,9.000000,0.569251,165.978847,10.000000,2.659344,2.000000,6
/home/daniel/Projects/ppsevolution/data/maps/custom_maps/Custom_6_Run_0_Map.csv,squared_error,9.754989038953134e-07,0.5013,0.7205,0.141098,0.706692,0.229523,0.566882,0.230222,0.000000,1.000000,1.000000,0.866788,0.000000,0.132484,0.444573,1.000000,0.597186,0.236865,2.000000,149.692210,1.165747,41.362806,0.566882,46.814154,0.500000,10.000000,1.000000,276.687926,0.770000,27.680282,0.444573,200.000000,6.173271,3.131789,2.000000,7
/home/daniel/Projects/ppsevolution/data/maps/custom_maps/Custom_6_Run_0_Map.csv,squared_error,1.3871181478178835e-07,0.5003,0.7196,0.022259,0.872562,0.000000,0.712426,0.264042,0.000000,0.952158,1.000000,0.890768,0.000000,0.000000,0.532061,0.809476,1.000000,0.000000,2.000000,128.895334,1.258635,9.000000,0.712426,53.544339,0.500000,9.569419,1.000000,280.884438,0.770000,9.000000,0.532061,162.085675,10.000000,1.000000,2.000000,8
/home/daniel/Projects/ppsevolution/data/maps/custom_maps/Custom_6_Run_0_Map.csv,squared_error,1.2745847510416565e-06,0.4988,0.7210,0.000000,0.987616,0.020592,0.676095,0.030000,0.072511,0.748444,2.000000,0.743145,0.000000,0.000000,0.520429,0.994335,1.000000,0.163631,0.000000,125.000000,1.323065,11.903420,0.676095,6.970000,1.188852,7.735996,2.000000,255.050336,0.770000,9.000000,0.520429,198.872672,10.000000,2.472679,0.000000,9
map,fitness,fitness value,team0ratio,time,HP,Speed,Damage,Acc,ClipSize,RateOfFire,NrBullets,Range,HP,Speed,Damage,Acc,ClipSize,RateOfFire,NrBullets,Range,HP,Speed,Damage,Acc,ClipSize,RateOfFire,NrBullets,Range,HP,Speed,Damage,Acc,ClipSize,RateOfFire,NrBullets,Range,Run,target team0ratio: 0.5,target time: 0.72
/home/daniel/Projects/ppsevolution/data/maps/custom_maps/Custom_7_Run_0_Map.csv,squared_error,8.898008816345472e-07,0.4989,0.7207,0.076225,0.862282,0.000000,0.527084,0.000000,0.149875,0.924952,0.000000,1.000000,0.042889,0.054542,0.111138,0.593748,0.832142,0.000000,0.000000,138.339346,1.252878,9.000000,0.527084,1.000000,1.923808,9.324572,0.000000,300.000000,0.794018,16.690466,0.111138,119.155776,8.405346,1.000000,0.000000,0
/home/daniel/Projects/ppsevolution/data/maps/custom_maps/Custom_7_Run_0_Map.csv,squared_error,4.625753412853129e-07,0.5001,0.7210,0.158931,1.000000,0.092624,0.438800,0.011452,0.000000,0.852733,2.000000,1.000000,0.212276,0.042953,0.151924,0.902534,1.000000,0.000000,0.000000,152.812977,1.330000,22.059925,0.438800,3.278921,0.500000,8.674596,2.000000,300.000000,0.888875,15.056398,0.151924,180.604236,10.000000,1.000000,0.000000,1
/home/daniel/Projects/ppsevolution/data/maps/custom_maps/Custom_7_Run_0_Map.csv,squared_error,1.1935097225263141e-07,0.5001,0.7205,0.213018,0.921162,0.000000,0.448799,0.280938,0.037779,0.510627,2.000000,0.722107,0.035027,0.140097,0.091291,0.558436,0.503255,0.028395,1.000000,162.278204,1.285851,9.000000,0.448799,56.906671,0.858896,5.595641,2.000000,251.368808,0.789615,28.753657,0.091291,112.128850,5.280923,1.255558,1.000000,2
/home/daniel/Projects/ppsevolution/data/maps/custom_maps/Custom_7_Run_0_Map.csv,squared_error,1.8698717431392023e-07,0.5005,0.7203,0.299873,0.919071,0.222061,0.302417,0.257334,0.227639,0.784798,0.000000,0.961864,0.241312,0.000000,0.250229,0.751152,0.914392,0.048387,0.000000,177.477841,1.284680,40.310539,0.302417,52.209477,2.662573,8.063186,0.000000,293.326247,0.905134,9.000000,0.250229,150.479182,9.186726,1.435486,0.000000,3
/home/daniel/Projects/ppsevolution/data/maps/custom_maps/Custom_7_Run_0_Map.csv,squared_error,1.3151670989656045e-07,0.5002,0.7195,0.181103,0.899808,0.000000,0.477502,0.061595,0.311733,1.000000,2.000000,0.913178,0.000000,0.000000,0.196808,0.966360,0.882100,0.114339,0.000000,156.693062,1.273893,9.000000,0.477502,13.257421,3.461467,10.000000,2.000000,284.806124,0.770000,9.000000,0.196808,193.305602,8.879953,2.029048,0.000000,4
/home/daniel/Projects/ppsevolution/data/maps/custom_maps/Custom_7_Run_0_Map.csv,squared_error,1.5909843815194096e-06,0.5015,0.7191,0.374688,1.000000,0.415260,0.027788,0.484863,0.040580,1.000000,0.000000,0.877279,0.028799,0.000000,0.298399,0.888864,0.306256,0.000000,2.000000,190.570429,1.330000,67.551602,0.027788,97.487691,0.885506,10.000000,0.000000,278.523849,0.786127,9.000000,0.298399,177.883984,3.409428,1.000000,2.000000,5
/home/daniel/Projects/ppsevolution/data/maps/custom_maps/Custom_7_Run_0_Map.csv,squared_error,4.2072829430213256e-07,0.4998,0.7209,0.104592,0.990837,0.000000,0.532345,0.439733,0.000000,0.723541,2.000000,1.000000,0.238002,0.009479,0.170274,0.730271,0.940649,0.000000,1.000000,143.303548,1.324869,9.000000,0.532345,88.506779,0.500000,7.511873,2.000000,300.000000,0.903281,10.336500,0.170274,146.323919,9.436167,1.000000,1.000000,6
/home/daniel/Projects/ppsevolution/data/maps/custom_maps/Custom_7_Run_0_Map.csv,squared_error,8.179281864791546e-07,0.4996,0.7212,0.000000,1.000000,0.000000,0.531397,0.090946,0.101469,0.913289,2.000000,1.000000,0.308225,0.062989,0.017960,0.890401,0.589973,0.325451,1.000000,125.000000,1.330000,9.000000,0.531397,19.098314,1.463951,9.219602,2.000000,300.000000,0.942606,17.881508,0.017960,178.189718,6.104746,3.929060,1.000000,7
/home/daniel/Projects/ppsevolution/data/maps/custom_maps/Custom_7_Run_0_Map.csv,squared_error,1.6705681487110642e-07,0.5006,0.7201,0.235436,0.698510,0.132408,0.399465,0.000000,0.296357,0.889665,0.000000,1.000000,0.000000,0.000000,0.196339,0.591502,1.000000,0.285209,0.000000,166.201376,1.161166,27.669464,0.399465,1.000000,3.315393,9.006986,0.000000,300.000000,0.770000,9.000000,0.196339,118.708920,10.000000,3.566879,0.000000,8
/home/daniel/Projects/ppsevolution/data/maps/custom_maps/Custom_7_Run_0_Map.csv,squared_error,4.741839094187347e-07,0.4995,0.7208,0.249471,0.818788,0.021570,0.527227,0.134680,0.463898,0.678159,0.000000,1.000000,0.197653,0.000000,0.205168,0.833552,0.720297,0.366494,2.000000,168.657393,1.228521,12.041382,0.527227,27.801344,4.907035,7.103434,0.000000,300.000000,0.880686,9.000000,0.205168,166.876901,7.342826,4.298445,2.000000,9
map,fitness,fitness value,team0ratio,time,HP,Speed,Damage,Acc,ClipSize,RateOfFire,NrBullets,Range,HP,Speed,Damage,Acc,ClipSize,RateOfFire,NrBullets,Range,HP,Speed,Damage,Acc,ClipSize,RateOfFire,NrBullets,Range,HP,Speed,Damage,Acc,ClipSize,RateOfFire,NrBullets,Range,Run,target team0ratio: 0.5,target time: 0.72
/home/daniel/Projects/ppsevolution/data/maps/custom_maps/Custom_8_Run_0_Map.csv,squared_error,5.206000985509817e-07,0.5010,0.7204,0.583496,0.942664,0.000000,0.269948,0.000846,0.404213,0.856556,1.000000,0.801918,0.187825,0.000000,0.197709,0.702717,1.000000,0.000000,0.000000,227.111810,1.297892,9.000000,0.269948,1.168328,4.340020,8.709004,1.000000,265.335594,0.875182,9.000000,0.197709,140.840659,10.000000,1.000000,0.000000,0
/home/daniel/Projects/ppsevolution/data/maps/custom_maps/Custom_8_Run_0_Map.csv,squared_error,6.322531321075089e-07,0.5011,0.7200,0.379523,0.804256,0.000000,0.376194,0.114082,0.089443,0.424569,2.000000,0.940631,0.210534,0.000000,0.035340,0.726507,0.716482,0.431864,2.000000,191.416464,1.220383,9.000000,0.376194,23.702352,1.349711,4.821125,2.000000,289.610363,0.887899,9.000000,0.035340,145.574976,7.306579,4.886773,2.000000,1
/home/daniel/Projects/ppsevolution/data/maps/custom_maps/Custom_8_Run_0_Map.csv,squared_error,1.6665092603148188e-06,0.4984,0.7208,0.623295,0.951931,0.063344,0.279999,0.000000,0.204910,0.898886,1.000000,1.000000,0.003161,0.055193,0.077725,0.778398,0.792261,0.473585,2.000000,234.076689,1.303081,17.931485,0.279999,1.000000,2.446640,9.089970,1.000000,300.000000,0.771770,16.782180,0.077725,155.901175,8.026479,5.262265,2.000000,2
/home/daniel/Projects/ppsevolution/data/maps/custom_maps/Custom_8_Run_0_Map.csv,squared_error,1.2057271817481515e-07,0.4998,0.7195,0.183357,0.974208,0.078804,0.268020,0.073448,0.167698,1.000000,0.000000,0.934607,0.358779,0.000000,0.000000,1.000000,0.993108,0.000000,0.000000,157.087397,1.315556,20.111355,0.268020,15.616082,2.093131,10.000000,0.000000,288.556305,0.970916,9.000000,0.000000,200.000000,9.934527,1.000000,0.000000,3
/home/daniel/Projects/ppsevolution/data/maps/custom_maps/Custom_8_Run_0_Map.csv,squared_error,2.9589349834394156e-07,0.5005,0.7194,0.631214,0.868887,0.000000,0.349102,0.025133,0.371692,0.917682,0.000000,0.990005,0.166528,0.026794,0.163192,0.741182,0.624163,0.187938,0.000000,235.462432,1.256577,9.000000,0.349102,6.001486,4.031074,9.259138,0.000000,298.250808,0.863256,12.778020,0.163192,148.495253,6.429546,2.691441,0.000000,4
/home/daniel/Projects/ppsevolution/data/maps/custom_maps/Custom_8_Run_0_Map.csv,squared_error,2.897065746594949e-07,0.5003,0.7207,0.334499,0.699227,0.000000,0.387644,0.260761,0.000000,0.661911,1.000000,1.000000,0.123598,0.000000,0.058505,1.000000,0.923952,0.140143,1.000000,183.537307,1.161567,9.000000,0.387644,52.891537,0.500000,6.957195,1.000000,300.000000,0.839215,9.000000,0.058505,200.000000,9.277539,2.261283,1.000000,5
/home/daniel/Projects/ppsevolution/data/maps/custom_maps/Custom_8_Run_0_Map.csv,squared_error,1.8890153829971214e-06,0.5004,0.7181,0.213331,0.540508,0.000000,0.288504,0.210131,0.000000,0.932061,2.000000,0.808910,0.029126,0.000000,0.000000,0.713132,0.635641,0.107492,1.000000,162.332976,1.072684,9.000000,0.288504,42.816139,0.500000,9.388550,2.000000,266.559167,0.786311,9.000000,0.000000,142.913219,6.538587,1.967425,1.000000,6
/home/daniel/Projects/ppsevolution/data/maps/custom_maps/Custom_8_Run_0_Map.csv,squared_error,1.2022869027646628e-06,0.5007,0.7214,0.546037,0.841800,0.015450,0.346014,0.180058,0.141205,0.816196,0.000000,1.000000,0.081685,0.000000,0.158353,0.816797,0.799088,0.074798,2.000000,220.556530,1.241408,11.178414,0.346014,36.831461,1.841445,8.345765,0.000000,300.000000,0.815744,9.000000,0.158353,163.542654,8.091340,1.673186,2.000000,7
/home/daniel/Projects/ppsevolution/data/maps/custom_maps/Custom_8_Run_0_Map.csv,squared_error,4.5764904618008345e-07,0.5002,0.7191,0.242301,0.868370,0.000000,0.353510,0.036054,0.000000,0.943531,2.000000,0.964421,0.226575,0.000000,0.029272,0.968304,0.822314,0.000000,1.000000,167.402714,1.256287,9.000000,0.353510,8.174683,0.500000,9.491777,2.000000,293.773665,0.896882,9.000000,0.029272,193.692538,8.311981,1.000000,1.000000,8
/home/daniel/Projects/ppsevolution/data/maps/custom_maps/Custom_8_Run_0_Map.csv,squared_error,2.1303707560777365e-07,0.5003,0.7206,0.360729,0.880068,0.000000,0.322294,0.083919,0.050667,0.824332,0.000000,0.837195,0.249985,0.000000,0.042015,0.988169,0.827738,0.446210,0.000000,188.127527,1.262838,9.000000,0.322294,17.699829,0.981337,8.418986,0.000000,271.509165,0.909992,9.000000,0.042015,197.645651,8.363511,5.015890,0.000000,9
map,fitness,fitness value,team0ratio,time,HP,Speed,Damage,Acc,ClipSize,RateOfFire,NrBullets,Range,HP,Speed,Damage,Acc,ClipSize,RateOfFire,NrBullets,Range,HP,Speed,Damage,Acc,ClipSize,RateOfFire,NrBullets,Range,HP,Speed,Damage,Acc,ClipSize,RateOfFire,NrBullets,Range,Run,target team0ratio: 0.5,target time: 0.72
/home/daniel/Projects/ppsevolution/data/maps/custom_maps/Custom_9_Run_0_Map.csv,squared_error,2.1883609234124872e-07,0.5004,0.7205,0.510043,0.764144,0.000000,0.179817,0.074169,0.050798,0.936220,2.000000,1.000000,0.000000,0.004770,0.000000,1.000000,0.967046,0.000000,1.000000,214.257610,1.197920,9.000000,0.179817,15.759690,0.982580,9.425983,2.000000,300.000000,0.770000,9.672534,0.000000,200.000000,9.686934,1.000000,1.000000,0
/home/daniel/Projects/ppsevolution/data/maps/custom_maps/Custom_9_Run_0_Map.csv,squared_error,2.1899573511133822e-07,0.4995,0.7196,0.564879,0.983861,0.000000,0.164481,0.145552,0.141540,0.701795,0.000000,0.867502,0.542859,0.026005,0.000000,1.000000,1.000000,0.119017,2.000000,223.853763,1.320962,9.000000,0.164481,29.964750,1.844634,7.316151,0.000000,276.812868,1.074001,12.666707,0.000000,200.000000,10.000000,2.071152,2.000000,1
/home/daniel/Projects/ppsevolution/data/maps/custom_maps/Custom_9_Run_0_Map.csv,squared_error,3.940201425052777e-07,0.5008,0.7203,0.646175,0.666627,0.000000,0.117389,0.470310,0.047330,0.992917,0.000000,0.861988,0.000000,0.075911,0.000000,1.000000,0.748655,0.000000,0.000000,238.080655,1.143311,9.000000,0.117389,94.591615,0.949634,9.936251,0.000000,275.847837,0.770000,19.703467,0.000000,200.000000,7.612221,1.000000,0.000000,2
/home/daniel/Projects/ppsevolution/data/maps/custom_maps/Custom_9_Run_0_Map.csv,squared_error,3.3433244182104425e-07,0.5005,0.7194,0.630458,0.813281,0.064028,0.124065,0.274993,0.027349,0.737537,2.000000,1.000000,0.055924,0.000000,0.000000,1.000000,0.540842,0.512945,0.000000,235.330192,1.225437,18.027949,0.124065,55.723617,0.759817,7.637831,2.000000,300.000000,0.801317,9.000000,0.000000,200.000000,5.637996,5.616504,0.000000,3
/home/daniel/Projects/ppsevolution/data/maps/custom_maps/Custom_9_Run_0_Map.csv,squared_error,2.989035441032842e-07,0.5005,0.7206,0.594266,0.363362,0.053108,0.153140,0.508978,0.100662,0.609836,0.000000,1.000000,0.000000,0.000000,0.000000,0.960914,0.977976,0.365923,0.000000,228.996475,0.973483,16.488221,0.153140,102.286527,1.456289,6.488526,0.000000,300.000000,0.770000,9.000000,0.000000,192.221833,9.790768,4.293308,0.000000,4
/home/daniel/Projects/ppsevolution/data/maps/custom_maps/Custom_9_Run_0_Map.csv,squared_error,6.753598455418266e-07,0.5011,0.7197,0.489217,0.726428,0.043712,0.063598,0.147680,0.029024,0.926920,1.000000,0.829499,0.081297,0.000000,0.000084,1.000000,0.932646,0.064748,2.000000,210.612947,1.176800,15.163425,0.063598,30.388346,0.775725,9.342277,1.000000,270.162313,0.815526,9.000000,0.000084,200.000000,9.360137,1.582733,2.000000,5
/home/daniel/Projects/ppsevolution/data/maps/custom_maps/Custom_9_Run_0_Map.csv,squared_error,4.551391045566584e-07,0.4994,0.7192,0.565738,0.901299,0.000000,0.173527,0.107580,0.609482,1.000000,2.000000,1.000000,0.393552,0.000000,0.001200,1.000000,0.551279,0.196554,0.000000,224.004124,1.274727,9.000000,0.173527,22.408373,6.290075,10.000000,2.000000,300.000000,0.990389,9.000000,0.001200,200.000000,5.737153,2.768987,0.000000,6
/home/daniel/Projects/ppsevolution/data/maps/custom_maps/Custom_9_Run_0_Map.csv,squared_error,1.241455142331876e-06,0.5006,0.7185,0.785828,1.000000,0.000000,0.195104,0.000000,0.207723,0.730955,1.000000,1.000000,0.093066,0.000000,0.116328,0.891739,0.900960,0.295293,2.000000,262.519899,1.330000,9.000000,0.195104,1.000000,2.473367,7.578596,1.000000,300.000000,0.822117,9.000000,0.116328,178.455981,9.059124,3.657640,2.000000,7
/home/daniel/Projects/ppsevolution/data/maps/custom_maps/Custom_9_Run_0_Map.csv,squared_error,6.573725321608207e-07,0.4996,0.7189,0.501879,1.000000,0.042919,0.155727,0.317695,0.000000,0.726567,1.000000,1.000000,0.345679,0.000000,0.000000,0.711859,0.771512,0.000000,2.000000,212.828843,1.330000,15.051573,0.155727,64.221228,0.500000,7.539107,1.000000,300.000000,0.963580,9.000000,0.000000,142.659883,7.829363,1.000000,2.000000,8
/home/daniel/Projects/ppsevolution/data/maps/custom_maps/Custom_9_Run_0_Map.csv,squared_error,6.634627691511236e-07,0.5012,0.7200,0.485907,0.749851,0.000000,0.183244,0.341241,0.161814,0.685963,1.000000,0.938805,0.015891,0.000000,0.000000,1.000000,0.997551,0.000000,1.000000,210.033788,1.189917,9.000000,0.183244,68.906874,2.037234,7.173663,1.000000,289.290893,0.778899,9.000000,0.000000,200.000000,9.976731,1.000000,1.000000,9
map,fitness,fitness value,team0ratio,time,HP,Speed,Damage,Acc,ClipSize,RateOfFire,NrBullets,Range,HP,Speed,Damage,Acc,ClipSize,RateOfFire,NrBullets,Range,HP,Speed,Damage,Acc,ClipSize,RateOfFire,NrBullets,Range,HP,Speed,Damage,Acc,ClipSize,RateOfFire,NrBullets,Range,Run,target team0ratio: 0.5,target time: 0.72
/home/daniel/Projects/ppsevolution/data/maps/custom_maps/Custom_10_Run_0_Map.csv,squared_error,1.1316913037092436e-06,0.4999,0.7215,0.366887,0.835198,0.158115,0.272709,0.047370,0.000000,0.944812,0.000000,0.906691,0.000000,0.091804,0.121333,1.000000,0.576702,0.120993,1.000000,189.205145,1.237711,31.294208,0.272709,10.426538,0.500000,9.503308,0.000000,283.670897,0.770000,21.944350,0.121333,200.000000,5.978671,2.088941,1.000000,0
/home/daniel/Projects/ppsevolution/data/maps/custom_maps/Custom_10_Run_0_Map.csv,squared_error,2.9990938534469633e-07,0.5002,0.7207,0.518081,0.532145,0.000000,0.439777,0.083727,0.116719,1.000000,1.000000,0.972104,0.083257,0.000000,0.291633,0.710371,0.641525,0.145763,0.000000,215.664116,1.068001,9.000000,0.439777,17.661624,1.608827,10.000000,1.000000,295.118159,0.816624,9.000000,0.291633,142.363841,6.594491,2.311864,0.000000,1
/home/daniel/Projects/ppsevolution/data/maps/custom_maps/Custom_10_Run_0_Map.csv,squared_error,1.3718779069733913e-06,0.4984,0.7198,0.306992,0.868289,0.051500,0.330435,0.093973,0.000000,1.000000,2.000000,0.809440,0.033844,0.000000,0.217130,0.859131,0.747757,0.000000,2.000000,178.723635,1.256242,16.261527,0.330435,19.700546,0.500000,10.000000,2.000000,266.651961,0.788953,9.000000,0.217130,171.967152,7.603694,1.000000,2.000000,2
/home/daniel/Projects/ppsevolution/data/maps/custom_maps/Custom_10_Run_0_Map.csv,squared_error,2.72097839727097e-07,0.4996,0.7206,0.287072,0.839477,0.216368,0.264560,0.000000,0.029173,0.648438,0.000000,0.983593,0.004402,0.000000,0.165263,0.427256,0.847862,0.279173,0.000000,175.237555,1.240107,39.507884,0.264560,1.000000,0.777147,6.835942,0.000000,297.128697,0.772465,9.000000,0.165263,86.023918,8.554689,3.512554,0.000000,3
/home/daniel/Projects/ppsevolution/data/maps/custom_maps/Custom_10_Run_0_Map.csv,squared_error,1.1932588857462001e-06,0.5014,0.7193,0.377421,0.905138,0.000000,0.453395,0.000000,0.025080,1.000000,2.000000,1.000000,0.000000,0.198302,0.000000,1.000000,0.925571,0.202107,1.000000,191.048679,1.276877,9.000000,0.453395,1.000000,0.738258,10.000000,2.000000,300.000000,0.770000,36.960646,0.000000,200.000000,9.292922,2.818966,1.000000,4
/home/daniel/Projects/ppsevolution/data/maps/custom_maps/Custom_10_Run_0_Map.csv,squared_error,1.563323097553814e-06,0.4988,0.7187,0.216540,0.824582,0.000000,0.470854,0.046085,0.000000,0.973265,1.000000,1.000000,0.037840,0.000000,0.172748,0.735214,0.842993,0.045615,1.000000,162.894546,1.231766,9.000000,0.470854,10.170963,0.500000,9.759389,1.000000,300.000000,0.791190,9.000000,0.172748,147.307660,8.508429,1.410533,1.000000,5
/home/daniel/Projects/ppsevolution/data/maps/custom_maps/Custom_10_Run_0_Map.csv,squared_error,1.2458621124807645e-06,0.5000,0.7216,0.040692,0.995631,0.018195,0.443303,0.330022,0.275875,1.000000,1.000000,0.978731,0.001137,0.000000,0.046725,0.807815,0.824646,0.188468,2.000000,132.121067,1.327553,11.565538,0.443303,66.674365,3.120814,10.000000,1.000000,296.277855,0.770636,9.000000,0.046725,161.755151,8.334142,2.696208,2.000000,6
/home/daniel/Projects/ppsevolution/data/maps/custom_maps/Custom_10_Run_0_Map.csv,squared_error,5.660928293423437e-07,0.5008,0.7207,0.000000,0.856379,0.000000,0.464382,0.132676,0.316875,0.984955,2.000000,0.993917,0.215327,0.029668,0.000000,0.726662,0.992268,0.130003,0.000000,125.000000,1.249572,9.000000,0.464382,27.402432,3.510309,9.864596,2.000000,298.935554,0.890583,13.183244,0.000000,145.605724,9.926546,2.170026,0.000000,7
/home/daniel/Projects/ppsevolution/data/maps/custom_maps/Custom_10_Run_0_Map.csv,squared_error,1.6784894819295462e-06,0.4982,0.7200,0.321699,0.383627,0.021616,0.431044,0.330810,0.047735,0.948226,2.000000,1.000000,0.277872,0.073308,0.118532,0.736774,0.883966,0.051386,1.000000,181.297377,0.984831,12.047882,0.431044,66.831281,0.953487,9.534036,2.000000,300.000000,0.925609,19.336443,0.118532,147.618014,8.897675,1.462477,1.000000,8
/home/daniel/Projects/ppsevolution/data/maps/custom_maps/Custom_10_Run_0_Map.csv,squared_error,5.147773947385566e-07,0.5002,0.7210,0.062603,1.000000,0.132275,0.345428,0.159830,0.140939,1.000000,0.000000,1.000000,0.037633,0.014985,0.069749,0.780973,0.802005,0.000000,1.000000,135.955609,1.330000,27.650728,0.345428,32.806132,1.838922,10.000000,0.000000,300.000000,0.791075,11.112848,0.069749,156.413682,8.119051,1.000000,1.000000,9
