/home/daniel/Projects/ppsevolution/data/maps/custom_maps/Custom_1_Run_0_Map.csv,0.000000,0.996722,0.641173,1.000000,0.000000,0.112713,0.989753,2.000000,0.823865,0.000000,0.983356,1.000000,0.972536,0.910423,0.000000,2.000000
/home/daniel/Projects/ppsevolution/data/maps/custom_maps/Custom_1_Run_0_Map.csv,0.000000,0.968952,0.726754,1.000000,0.000000,0.147155,1.000000,2.000000,0.974738,0.031169,0.914612,1.000000,1.000000,0.618452,0.347049,2.000000
/home/daniel/Projects/ppsevolution/data/maps/custom_maps/Custom_1_Run_0_Map.csv,0.000000,1.000000,0.356221,1.000000,0.276303,0.000000,0.632375,2.000000,0.236134,0.001217,1.000000,1.000000,0.667560,0.192383,0.368847,1.000000
/home/daniel/Projects/ppsevolution/data/maps/custom_maps/Custom_1_Run_0_Map.csv,0.000000,0.757898,0.761415,1.000000,0.194718,0.452450,1.000000,2.000000,1.000000,0.141606,1.000000,1.000000,0.956132,0.716328,0.989936,2.000000
/home/daniel/Projects/ppsevolution/data/maps/custom_maps/Custom_1_Run_0_Map.csv,0.000000,0.691577,0.565108,1.000000,0.081307,0.026331,0.781775,2.000000,0.675719,0.123944,1.000000,1.000000,0.614151,0.425260,1.000000,2.000000
/home/daniel/Projects/ppsevolution/data/maps/custom_maps/Custom_1_Run_0_Map.csv,0.054452,0.596775,0.395756,1.000000,0.170586,0.063524,0.866394,2.000000,0.354655,0.347132,1.000000,1.000000,1.000000,0.511204,0.104529,2.000000
/home/daniel/Projects/ppsevolution/data/maps/custom_maps/Custom_1_Run_0_Map.csv,0.001451,0.694237,0.424234,1.000000,0.134179,0.000064,0.940821,2.000000,0.266608,0.275663,1.000000,1.000000,0.721292,0.296900,0.174053,2.000000
/home/daniel/Projects/ppsevolution/data/maps/custom_maps/Custom_1_Run_0_Map.csv,0.016667,1.000000,0.460451,1.000000,0.010505,0.125155,0.972155,2.000000,0.424159,0.224373,0.983773,1.000000,0.659434,0.668013,0.422479,2.000000
/home/daniel/Projects/ppsevolution/data/maps/custom_maps/Custom_1_Run_0_Map.csv,0.013759,0.841849,0.523853,1.000000,0.011655,0.335978,0.874632,2.000000,0.614683,0.291714,1.000000,1.000000,1.000000,0.701793,0.660795,2.000000
/home/daniel/Projects/ppsevolution/data/maps/custom_maps/Custom_1_Run_0_Map.csv,0.015328,1.000000,0.281853,1.000000,0.032649,0.224291,1.000000,2.000000,0.470076,0.815890,0.612090,1.000000,1.000000,0.676574,0.510936,2.000000
/home/daniel/Projects/ppsevolution/data/maps/custom_maps/Custom_2_Run_0_Map.csv,0.000000,0.889037,0.643904,1.000000,0.092229,0.224291,1.000000,2.000000,1.000000,0.371148,1.000000,1.000000,1.000000,0.944582,1.000000,2.000000
/home/daniel/Projects/ppsevolution/data/maps/custom_maps/Custom_2_Run_0_Map.csv,0.000000,1.000000,0.587051,1.000000,0.269413,0.113746,0.783315,2.000000,0.693764,0.038337,1.000000,0.999916,0.966209,0.439384,0.655939,2.000000
/home/daniel/Projects/ppsevolution/data/maps/custom_maps/Custom_2_Run_0_Map.csv,0.184810,0.468318,0.510114,1.000000,0.137483,0.000000,0.790771,2.000000,1.000000,0.063641,1.000000,1.000000,1.000000,0.971666,0.957311,2.000000
/home/daniel/Projects/ppsevolution/data/maps/custom_maps/Custom_2_Run_0_Map.csv,0.000000,1.000000,0.477530,1.000000,0.091038,0.000000,0.804305,2.000000,0.801187,0.178426,1.000000,1.000000,0.940686,0.722899,0.852533,2.000000
/home/daniel/Projects/ppsevolution/data/maps/custom_maps/Custom_2_Run_0_Map.csv,0.000000,0.873281,0.661904,1.000000,0.046627,0.000000,0.918820,2.000000,0.891385,0.969857,1.000000,1.000000,0.819098,0.986048,0.922977,2.000000
/home/daniel/Projects/ppsevolution/data/maps/custom_maps/Custom_2_Run_0_Map.csv,0.000000,0.881303,0.536206,1.000000,0.396597,0.000000,0.879891,2.000000,0.240116,0.350172,1.000000,1.000000,1.000000,0.990079,0.922234,2.000000
/home/daniel/Projects/ppsevolution/data/maps/custom_maps/Custom_2_Run_0_Map.csv,0.018722,0.951758,0.744825,1.000000,0.003530,0.153015,0.803971,2.000000,0.989240,0.302350,1.000000,1.000000,0.778855,0.591854,0.841985,2.000000
/home/daniel/Projects/ppsevolution/data/maps/custom_maps/Custom_2_Run_0_Map.csv,0.000000,1.000000,0.748664,1.000000,0.054219,0.286785,1.000000,2.000000,1.000000,0.465100,1.000000,1.000000,1.000000,1.000000,1.000000,2.000000
/home/daniel/Projects/ppsevolution/data/maps/custom_maps/Custom_2_Run_0_Map.csv,0.000000,0.478764,0.445436,1.000000,0.000000,0.254742,0.880309,2.000000,0.649298,0.569715,1.000000,1.000000,0.977318,0.924593,0.868325,2.000000
/home/daniel/Projects/ppsevolution/data/maps/custom_maps/Custom_2_Run_0_Map.csv,0.000000,0.427177,0.478578,1.000000,0.499663,0.060588,1.000000,2.000000,0.668697,0.492043,1.000000,1.000000,1.000000,1.000000,0.933913,2.000000
/home/daniel/Projects/ppsevolution/data/maps/custom_maps/Custom_3_Run_0_Map.csv,0.000000,0.863993,0.770894,1.000000,0.000000,0.000000,1.000000,2.000000,0.064802,0.016132,1.000000,1.000000,0.778122,0.006031,0.940899,2.000000
/home/daniel/Projects/ppsevolution/data/maps/custom_maps/Custom_3_Run_0_Map.csv,0.000000,0.699913,0.813235,0.978067,0.059572,1.000000,1.000000,2.000000,0.000000,0.195574,0.940975,0.994084,0.922196,0.494647,0.862804,2.000000
/home/daniel/Projects/ppsevolution/data/maps/custom_maps/Custom_3_Run_0_Map.csv,0.022954,0.854282,1.000000,1.000000,0.000000,0.416558,1.000000,2.000000,0.060139,0.033462,0.969365,1.000000,0.837863,0.000000,0.802960,2.000000
/home/daniel/Projects/ppsevolution/data/maps/custom_maps/Custom_3_Run_0_Map.csv,0.000000,0.166146,1.000000,0.984220,0.000000,0.687796,1.000000,2.000000,0.000000,0.094548,1.000000,1.000000,1.000000,0.021671,0.968929,0.000000
/home/daniel/Projects/ppsevolution/data/maps/custom_maps/Custom_3_Run_0_Map.csv,0.000000,1.000000,0.664115,1.000000,0.054925,0.300215,1.000000,2.000000,0.118311,0.657728,0.990568,1.000000,0.740117,0.639540,0.545828,2.000000
/home/daniel/Projects/ppsevolution/data/maps/custom_maps/Custom_3_Run_0_Map.csv,0.000000,0.742966,1.000000,0.994227,0.113810,0.984785,1.000000,2.000000,0.021117,0.292951,0.961719,1.000000,0.889122,0.000000,1.000000,2.000000
/home/daniel/Projects/ppsevolution/data/maps/custom_maps/Custom_3_Run_0_Map.csv,0.008776,1.000000,0.924669,1.000000,0.000000,0.387390,1.000000,2.000000,0.304597,0.000000,0.994326,1.000000,0.896005,1.000000,0.648451,2.000000
/home/daniel/Projects/ppsevolution/data/maps/custom_maps/Custom_3_Run_0_Map.csv,0.000000,0.520452,0.994257,0.973988,0.178457,0.305340,0.879583,2.000000,0.016204,0.146764,1.000000,1.000000,0.574056,0.149927,0.844703,2.000000
/home/daniel/Projects/ppsevolution/data/maps/custom_maps/Custom_3_Run_0_Map.csv,0.000000,0.877639,0.998315,0.989514,0.000000,0.405481,1.000000,2.000000,0.043209,0.372834,1.000000,1.000000,0.703097,0.000000,0.639055,2.000000
/home/daniel/Projects/ppsevolution/data/maps/custom_maps/Custom_3_Run_0_Map.csv,0.028365,1.000000,1.000000,0.993271,0.066498,0.112511,1.000000,2.000000,0.436273,0.128229,1.000000,1.000000,0.671852,0.456337,1.000000,2.000000
/home/daniel/Projects/ppsevolution/data/maps/custom_maps/Custom_4_Run_0_Map.csv,0.000000,1.000000,0.810442,0.988623,0.245818,0.000000,0.923269,2.000000,0.030473,0.144823,1.000000,1.000000,0.763629,0.340796,0.726054,2.000000
/home/daniel/Projects/ppsevolution/data/maps/custom_maps/Custom_4_Run_0_Map.csv,0.000000,0.678427,0.936592,0.995523,0.146696,0.595895,1.000000,2.000000,0.506086,0.756936,0.894345,1.000000,1.000000,0.294323,0.199707,2.000000
/home/daniel/Projects/ppsevolution/data/maps/custom_maps/Custom_4_Run_0_Map.csv,0.036959,1.000000,0.971718,1.000000,0.012463,0.034838,1.000000,2.000000,0.538654,0.912589,1.000000,1.000000,0.670521,0.644278,0.312501,2.000000
/home/daniel/Projects/ppsevolution/data/maps/custom_maps/Custom_4_Run_0_Map.csv,0.000000,1.000000,0.776888,1.000000,0.042381,0.000000,0.966353,2.000000,0.129091,0.108054,1.000000,1.000000,0.800282,0.026517,0.444818,2.000000
/home/daniel/Projects/ppsevolution/data/maps/custom_maps/Custom_4_Run_0_Map.csv,0.045329,0.621027,0.969846,0.986500,0.000000,0.017503,1.000000,1.000000,0.010933,0.000000,0.977968,1.000000,1.000000,0.158072,0.443598,2.000000
/home/daniel/Projects/ppsevolution/data/maps/custom_maps/Custom_4_Run_0_Map.csv,0.007477,0.323036,1.000000,0.980577,0.127870,0.035454,1.000000,2.000000,0.047034,0.000000,1.000000,1.000000,0.937273,0.852770,0.360053,2.000000
/home/daniel/Projects/ppsevolution/data/maps/custom_maps/Custom_4_Run_0_Map.csv,0.000000,1.000000,0.996546,0.982368,0.000000,0.176862,0.860525,2.000000,0.170527,0.117362,1.000000,1.000000,1.000000,0.325356,0.137391,2.000000
/home/daniel/Projects/ppsevolution/data/maps/custom_maps/Custom_4_Run_0_Map.csv,0.000000,0.966605,0.845220,1.000000,0.332229,0.403794,1.000000,2.000000,0.151363,0.329656,1.000000,1.000000,0.720485,0.291912,0.372183,2.000000
/home/daniel/Projects/ppsevolution/data/maps/custom_maps/Custom_4_Run_0_Map.csv,0.000000,0.169318,0.832368,1.000000,0.034985,0.000000,0.978646,2.000000,0.363344,0.180363,0.983916,1.000000,0.842541,0.494226,0.838447,2.000000
/home/daniel/Projects/ppsevolution/data/maps/custom_maps/Custom_4_Run_0_Map.csv,0.000000,0.855897,1.000000,0.963005,0.221197,0.000000,0.871605,2.000000,0.000000,0.215636,0.913070,1.000000,1.000000,0.910039,1.000000,2.000000
/home/daniel/Projects/ppsevolution/data/maps/custom_maps/Custom_5_Run_0_Map.csv,0.000000,0.496862,1.000000,0.975420,0.199221,0.445738,0.891137,2.000000,0.106475,0.000000,1.000000,1.000000,0.891472,0.138694,0.613906,1.000000
/home/daniel/Projects/ppsevolution/data/maps/custom_maps/Custom_5_Run_0_Map.csv,0.000000,1.000000,0.994082,0.978850,0.000000,0.223556,1.000000,2.000000,0.000000,0.000000,0.932162,1.000000,0.561609,0.000000,0.448499,1.000000
/home/daniel/Projects/ppsevolution/data/maps/custom_maps/Custom_5_Run_0_Map.csv,0.130950,0.172137,0.999014,0.971760,0.000343,0.489917,1.000000,2.000000,0.000000,0.261341,1.000000,1.000000,0.894624,0.400014,0.123642,2.000000
/home/daniel/Projects/ppsevolution/data/maps/custom_maps/Custom_5_Run_0_Map.csv,0.326088,1.000000,1.000000,0.962426,0.135684,0.274291,1.000000,2.000000,0.000000,0.266677,0.881623,1.000000,0.923571,0.224258,0.321673,2.000000
/home/daniel/Projects/ppsevolution/data/maps/custom_maps/Custom_5_Run_0_Map.csv,0.136337,0.964764,1.000000,0.968243,0.080950,0.155557,1.000000,2.000000,0.000000,0.000000,1.000000,1.000000,0.857227,0.000000,0.849963,0.000000
/home/daniel/Projects/ppsevolution/data/maps/custom_maps/Custom_5_Run_0_Map.csv,0.000000,0.482904,1.000000,0.994874,0.000000,0.113353,1.000000,2.000000,0.000000,0.119527,1.000000,1.000000,0.920903,0.192982,0.266109,0.000000
/home/daniel/Projects/ppsevolution/data/maps/custom_maps/Custom_5_Run_0_Map.csv,0.147959,0.476654,1.000000,0.981010,0.065487,0.000000,0.970320,2.000000,0.000000,0.000000,0.760211,1.000000,0.632621,0.000000,0.291857,2.000000
/home/daniel/Projects/ppsevolution/data/maps/custom_maps/Custom_5_Run_0_Map.csv,0.046648,0.758436,1.000000,0.972362,0.000000,0.283664,0.970571,2.000000,0.000000,0.189391,0.903104,1.000000,0.422546,0.496194,0.747744,1.000000
/home/daniel/Projects/ppsevolution/data/maps/custom_maps/Custom_5_Run_0_Map.csv,0.094384,0.892903,1.000000,0.971114,0.074920,0.232115,0.978866,2.000000,0.000000,0.000000,1.000000,1.000000,0.950588,0.085813,0.715751,2.000000
/home/daniel/Projects/ppsevolution/data/maps/custom_maps/Custom_5_Run_0_Map.csv,0.221649,0.667453,1.000000,0.974189,0.000000,0.720585,0.929979,2.000000,0.000000,0.000000,0.944842,1.000000,0.966299,0.000000,0.352801,0.000000
/home/daniel/Projects/ppsevolution/data/maps/custom_maps/Custom_6_Run_0_Map.csv,0.025279,0.921974,0.000000,1.000000,0.042310,0.144164,0.469603,2.000000,1.000000,0.519809,0.952513,0.979330,1.000000,0.964377,0.943572,2.000000
/home/daniel/Projects/ppsevolution/data/maps/custom_maps/Custom_6_Run_0_Map.csv,0.262324,1.000000,0.000000,1.000000,0.316684,0.001972,0.005941,2.000000,0.897522,0.282989,1.000000,0.988309,0.976370,0.905997,1.000000,2.000000
/home/daniel/Projects/ppsevolution/data/maps/custom_maps/Custom_6_Run_0_Map.csv,0.147649,0.972783,0.000000,1.000000,0.197174,0.471627,0.467565,2.000000,1.000000,0.507600,1.000000,0.954293,0.621450,1.000000,0.837080,2.000000
/home/daniel/Projects/ppsevolution/data/maps/custom_maps/Custom_6_Run_0_Map.csv,0.214153,0.785442,0.000000,1.000000,0.000000,0.141270,0.000000,2.000000,1.000000,0.174444,1.000000,0.976491,0.983055,0.887016,0.927375,2.000000
/home/daniel/Projects/ppsevolution/data/maps/custom_maps/Custom_6_Run_0_Map.csv,0.114814,0.611126,0.000000,1.000000,0.035231,0.000000,0.401967,2.000000,1.000000,0.823414,1.000000,1.000000,1.000000,1.000000,1.000000,2.000000
/home/daniel/Projects/ppsevolution/data/maps/custom_maps/Custom_6_Run_0_Map.csv,0.000000,0.944986,0.000000,1.000000,0.255448,0.145234,0.564157,2.000000,1.000000,0.669773,1.000000,0.935064,1.000000,0.411622,0.591451,2.000000
/home/daniel/Projects/ppsevolution/data/maps/custom_maps/Custom_6_Run_0_Map.csv,0.084794,0.536332,0.000000,1.000000,0.121949,0.204519,0.921445,2.000000,1.000000,0.176730,1.000000,0.953569,0.634755,1.000000,0.611542,2.000000
/home/daniel/Projects/ppsevolution/data/maps/custom_maps/Custom_6_Run_0_Map.csv,0.183642,0.961344,0.000000,1.000000,0.110331,0.000000,0.619142,2.000000,0.952689,0.471083,0.947415,0.966202,0.979554,1.000000,0.646483,2.000000
/home/daniel/Projects/ppsevolution/data/maps/custom_maps/Custom_6_Run_0_Map.csv,0.406467,0.417905,0.000000,1.000000,0.023372,0.013137,0.158318,2.000000,1.000000,0.739355,1.000000,1.000000,0.890314,0.981801,1.000000,2.000000
/home/daniel/Projects/ppsevolution/data/maps/custom_maps/Custom_6_Run_0_Map.csv,0.093011,1.000000,0.000000,1.000000,0.329775,0.088111,0.757050,2.000000,0.955909,0.327606,0.973721,0.956395,1.000000,0.955369,0.185264,2.000000
/home/daniel/Projects/ppsevolution/data/maps/custom_maps/Custom_7_Run_0_Map.csv,0.000000,0.687681,0.760074,1.000000,0.000000,0.262180,1.000000,2.000000,0.844853,0.224819,1.000000,1.000000,0.773657,0.837069,0.687613,2.000000
/home/daniel/Projects/ppsevolution/data/maps/custom_maps/Custom_7_Run_0_Map.csv,0.105146,0.925042,0.510583,1.000000,0.000000,0.149756,0.744882,2.000000,0.589260,0.054805,1.000000,1.000000,0.709373,0.896094,0.264269,2.000000
/home/daniel/Projects/ppsevolution/data/maps/custom_maps/Custom_7_Run_0_Map.csv,0.000000,0.907564,0.748276,1.000000,0.000000,0.069677,0.805876,2.000000,0.741088,0.000000,1.000000,1.000000,0.761806,0.986351,0.355833,2.000000
/home/daniel/Projects/ppsevolution/data/maps/custom_maps/Custom_7_Run_0_Map.csv,0.000000,0.801283,0.795092,1.000000,0.000000,0.378110,1.000000,2.000000,1.000000,0.576902,1.000000,0.996002,1.000000,1.000000,0.658216,2.000000
/home/daniel/Projects/ppsevolution/data/maps/custom_maps/Custom_7_Run_0_Map.csv,0.072930,0.963826,0.497661,1.000000,0.000000,0.124274,0.945129,2.000000,0.710659,0.389878,0.978841,1.000000,1.000000,0.897176,1.000000,2.000000
/home/daniel/Projects/ppsevolution/data/maps/custom_maps/Custom_7_Run_0_Map.csv,0.000000,0.912918,0.609017,1.000000,0.002929,0.002262,0.841874,2.000000,0.662703,0.039204,0.989286,1.000000,1.000000,1.000000,0.773528,2.000000
/home/daniel/Projects/ppsevolution/data/maps/custom_maps/Custom_7_Run_0_Map.csv,0.000000,0.756276,0.638677,1.000000,0.164913,0.263391,1.000000,2.000000,0.651974,0.118803,0.998030,1.000000,0.984621,0.939857,0.905240,2.000000
/home/daniel/Projects/ppsevolution/data/maps/custom_maps/Custom_7_Run_0_Map.csv,0.002052,0.843752,0.755232,1.000000,0.000000,0.172280,0.944503,2.000000,1.000000,0.572391,0.995957,0.996334,0.831283,0.722230,1.000000,2.000000
/home/daniel/Projects/ppsevolution/data/maps/custom_maps/Custom_7_Run_0_Map.csv,0.000000,0.830582,0.368136,1.000000,0.000000,0.260231,0.852270,2.000000,0.121142,0.177491,1.000000,1.000000,0.587376,0.858816,0.422918,2.000000
/home/daniel/Projects/ppsevolution/data/maps/custom_maps/Custom_7_Run_0_Map.csv,0.000000,0.658228,0.658384,1.000000,0.000000,0.039197,0.967008,2.000000,0.957101,0.390444,1.000000,1.000000,1.000000,0.908214,0.637200,2.000000
/home/daniel/Projects/ppsevolution/data/maps/custom_maps/Custom_8_Run_0_Map.csv,0.004726,0.494636,0.549644,1.000000,0.000000,0.241995,0.998201,2.000000,0.003215,0.000000,1.000000,1.000000,0.775510,0.538614,1.000000,1.000000
/home/daniel/Projects/ppsevolution/data/maps/custom_maps/Custom_8_Run_0_Map.csv,0.013078,0.594620,0.711447,1.000000,0.255674,0.000000,1.000000,2.000000,0.306989,0.082327,1.000000,1.000000,0.667379,0.643910,0.271785,2.000000
/home/daniel/Projects/ppsevolution/data/maps/custom_maps/Custom_8_Run_0_Map.csv,0.000000,0.765085,0.691562,1.000000,0.000000,0.250271,0.968935,2.000000,0.141994,0.327715,0.932997,1.000000,0.737739,0.463232,0.135897,2.000000
/home/daniel/Projects/ppsevolution/data/maps/custom_maps/Custom_8_Run_0_Map.csv,0.000000,1.000000,0.709847,1.000000,0.093816,0.046529,1.000000,2.000000,0.386437,0.202139,0.887005,1.000000,1.000000,0.528277,0.696767,2.000000
/home/daniel/Projects/ppsevolution/data/maps/custom_maps/Custom_8_Run_0_Map.csv,0.014800,0.858238,0.874496,0.992591,0.000000,0.346032,1.000000,2.000000,0.308499,0.334113,1.000000,1.000000,0.431075,0.381541,0.623543,2.000000
/home/daniel/Projects/ppsevolution/data/maps/custom_maps/Custom_8_Run_0_Map.csv,0.020710,0.714978,1.000000,1.000000,0.292842,0.000000,1.000000,2.000000,0.601041,0.014374,1.000000,1.000000,0.689424,0.000000,1.000000,2.000000
/home/daniel/Projects/ppsevolution/data/maps/custom_maps/Custom_8_Run_0_Map.csv,0.000000,0.376910,0.813646,0.994797,0.173850,0.000000,0.872912,2.000000,0.264742,0.000000,1.000000,1.000000,0.854604,0.083558,0.968084,2.000000
/home/daniel/Projects/ppsevolution/data/maps/custom_maps/Custom_8_Run_0_Map.csv,0.000000,0.759702,0.490111,1.000000,0.000000,0.028566,0.971234,2.000000,0.000000,0.001108,0.998953,1.000000,0.920096,0.868806,0.831748,2.000000
/home/daniel/Projects/ppsevolution/data/maps/custom_maps/Custom_8_Run_0_Map.csv,0.000000,0.626351,0.888301,1.000000,0.000000,0.132428,0.868448,2.000000,0.532091,0.481516,1.000000,1.000000,0.885640,0.646644,0.452944,2.000000
/home/daniel/Projects/ppsevolution/data/maps/custom_maps/Custom_8_Run_0_Map.csv,0.076694,0.621211,0.856008,1.000000,0.000000,0.008069,1.000000,2.000000,0.628183,0.246758,1.000000,1.000000,1.000000,0.496986,0.610496,2.000000
/home/daniel/Projects/ppsevolution/data/maps/custom_maps/Custom_9_Run_0_Map.csv,0.000000,0.816774,0.793378,1.000000,0.062989,0.000000,1.000000,2.000000,0.631014,0.032427,1.000000,1.000000,1.000000,0.274287,0.919766,2.000000
/home/daniel/Projects/ppsevolution/data/maps/custom_maps/Custom_9_Run_0_Map.csv,0.008615,0.825710,0.397362,1.000000,0.087460,0.229570,0.928285,2.000000,0.087354,0.000000,1.000000,1.000000,0.776469,0.895771,0.623048,2.000000
/home/daniel/Projects/ppsevolution/data/maps/custom_maps/Custom_9_Run_0_Map.csv,0.170831,1.000000,1.000000,0.958286,0.082142,0.469673,1.000000,2.000000,0.201682,0.130441,0.890447,1.000000,0.619338,0.269530,0.768283,2.000000
/home/daniel/Projects/ppsevolution/data/maps/custom_maps/Custom_9_Run_0_Map.csv,0.000000,0.644575,0.855405,0.967975,0.000000,0.183348,0.942513,2.000000,0.041584,0.167008,1.000000,1.000000,0.688801,0.426882,0.224734,2.000000
/home/daniel/Projects/ppsevolution/data/maps/custom_maps/Custom_9_Run_0_Map.csv,0.000000,0.834687,1.000000,0.953356,0.156586,0.208376,1.000000,2.000000,0.198776,0.166374,0.777856,0.997735,0.574319,0.000000,1.000000,2.000000
/home/daniel/Projects/ppsevolution/data/maps/custom_maps/Custom_9_Run_0_Map.csv,0.000000,1.000000,0.859420,1.000000,0.047618,0.046505,1.000000,1.000000,0.644360,0.164802,0.993619,1.000000,0.869950,0.268420,0.769204,2.000000
/home/daniel/Projects/ppsevolution/data/maps/custom_maps/Custom_9_Run_0_Map.csv,0.127150,0.986017,0.642524,0.974522,0.063428,0.038094,1.000000,2.000000,0.028559,0.000000,1.000000,1.000000,0.850475,0.855572,0.418285,2.000000
/home/daniel/Projects/ppsevolution/data/maps/custom_maps/Custom_9_Run_0_Map.csv,0.000000,0.924954,0.704683,1.000000,0.219442,0.094669,1.000000,2.000000,0.568320,0.369876,1.000000,1.000000,0.827846,0.729136,0.720216,2.000000
/home/daniel/Projects/ppsevolution/data/maps/custom_maps/Custom_9_Run_0_Map.csv,0.000000,0.654944,0.976006,0.980035,0.002381,0.277989,1.000000,2.000000,0.727911,0.319178,0.880949,1.000000,0.769936,0.558077,0.466208,2.000000
/home/daniel/Projects/ppsevolution/data/maps/custom_maps/Custom_9_Run_0_Map.csv,0.000000,1.000000,1.000000,0.984193,0.364899,0.396115,0.880070,2.000000,0.672137,0.271929,0.924034,1.000000,0.936338,0.566700,0.501906,2.000000
/home/daniel/Projects/ppsevolution/data/maps/custom_maps/Custom_10_Run_0_Map.csv,0.032171,0.689069,1.000000,0.979067,0.000000,1.000000,1.000000,2.000000,0.000000,0.082118,0.948161,0.996200,0.641138,0.391654,0.999675,1.000000
/home/daniel/Projects/ppsevolution/data/maps/custom_maps/Custom_10_Run_0_Map.csv,0.214454,0.911563,1.000000,1.000000,0.000000,0.630145,0.986877,2.000000,0.011505,0.037843,0.926798,1.000000,0.464792,0.006152,0.402399,0.000000
/home/daniel/Projects/ppsevolution/data/maps/custom_maps/Custom_10_Run_0_Map.csv,0.016148,0.906933,1.000000,1.000000,0.009440,0.489629,0.959757,2.000000,0.023523,0.034589,0.989459,1.000000,0.641083,0.118623,1.000000,0.000000
/home/daniel/Projects/ppsevolution/data/maps/custom_maps/Custom_10_Run_0_Map.csv,0.042706,0.655212,1.000000,1.000000,0.000000,0.249115,1.000000,2.000000,0.000000,0.302295,1.000000,1.000000,0.735445,0.000000,1.000000,0.000000
/home/daniel/Projects/ppsevolution/data/maps/custom_maps/Custom_10_Run_0_Map.csv,0.000000,0.618931,1.000000,1.000000,0.061906,0.255547,0.954642,2.000000,0.000000,0.000000,0.854908,1.000000,0.725369,0.000000,0.637532,0.000000
/home/daniel/Projects/ppsevolution/data/maps/custom_maps/Custom_10_Run_0_Map.csv,0.000000,0.838906,1.000000,1.000000,0.782688,0.862803,1.000000,2.000000,0.000000,0.252503,1.000000,1.000000,0.917877,0.025472,0.141183,0.000000
/home/daniel/Projects/ppsevolution/data/maps/custom_maps/Custom_10_Run_0_Map.csv,0.000000,0.816444,0.969294,1.000000,0.229352,0.966067,0.951325,2.000000,0.037810,0.000000,1.000000,1.000000,1.000000,0.446816,0.776074,1.000000
/home/daniel/Projects/ppsevolution/data/maps/custom_maps/Custom_10_Run_0_Map.csv,0.027797,0.859893,1.000000,0.987859,0.020374,0.660283,0.967181,2.000000,0.040788,0.083357,0.964854,1.000000,1.000000,0.273611,0.560627,0.000000
/home/daniel/Projects/ppsevolution/data/maps/custom_maps/Custom_10_Run_0_Map.csv,0.114054,0.549023,1.000000,0.985973,0.000000,0.302641,1.000000,2.000000,0.000000,0.317120,1.000000,1.000000,0.458117,0.220244,0.780250,0.000000
/home/daniel/Projects/ppsevolution/data/maps/custom_maps/Custom_10_Run_0_Map.csv,0.000000,0.959484,1.000000,1.000000,0.000000,0.299067,1.000000,2.000000,0.000000,0.063804,1.000000,1.000000,0.865191,0.462943,1.000000,2.000000
