map,fitness,fitness value,team0ratio,time,HP,Speed,Damage,Acc,ClipSize,RateOfFire,NrBullets,Range,HP,Speed,Damage,Acc,ClipSize,RateOfFire,NrBullets,Range,HP,Speed,Damage,Acc,ClipSize,RateOfFire,NrBullets,Range,HP,Speed,Damage,Acc,ClipSize,RateOfFire,NrBullets,Range,Run,target team0ratio: 0.5,target time: 0.36
/home/daniel/Projects/ppsevolution/data/maps/custom_maps/Custom_1_Run_0_Map.csv,squared_error,1.8300201343947534e-06,0.5013,0.3586,0.197924,0.838365,0.415717,0.530045,0.247254,0.301578,0.861771,0.000000,0.979511,0.282325,0.000000,0.620581,1.000000,0.875270,0.072749,2.000000,159.636696,1.239484,67.616091,0.530045,50.203468,3.364995,8.755935,0.000000,296.414370,0.928102,9.000000,0.620581,200.000000,8.815060,1.654745,2.000000,0
/home/daniel/Projects/ppsevolution/data/maps/custom_maps/Custom_1_Run_0_Map.csv,squared_error,8.90192423905779e-06,0.5008,0.3641,0.324181,0.927608,0.037800,0.713081,0.161590,0.061840,0.984603,2.000000,0.972274,0.000000,0.116110,0.581314,1.000000,0.969310,0.056358,2.000000,181.731714,1.289460,14.329839,0.713081,33.156311,1.087478,9.861423,2.000000,295.148022,0.770000,25.371537,0.581314,200.000000,9.708447,1.507219,2.000000,1
/home/daniel/Projects/ppsevolution/data/maps/custom_maps/Custom_1_Run_0_Map.csv,squared_error,5.069439287154944e-07,0.4992,0.3606,0.323088,0.902542,0.261159,0.572004,0.006609,0.011358,1.000000,1.000000,0.810746,0.054192,0.028231,0.652762,0.999266,0.927057,0.063128,0.000000,181.540454,1.275423,45.823350,0.572004,2.315231,0.607897,10.000000,1.000000,266.880513,0.800347,12.980581,0.652762,199.853920,9.307043,1.568153,0.000000,2
/home/daniel/Projects/ppsevolution/data/maps/custom_maps/Custom_1_Run_0_Map.csv,squared_error,2.709193363048717e-06,0.5023,0.3604,0.000000,0.936289,0.185901,0.608313,0.074095,0.043710,1.000000,1.000000,0.739181,0.297570,0.098328,0.518759,0.986389,0.948046,0.019961,1.000000,125.000000,1.294322,35.212020,0.608313,15.744869,0.915247,10.000000,1.000000,254.356692,0.936639,22.864207,0.518759,197.291359,9.506437,1.179649,1.000000,3
/home/daniel/Projects/ppsevolution/data/maps/custom_maps/Custom_1_Run_0_Map.csv,squared_error,2.4088033490479e-06,0.5007,0.3621,0.081202,0.762652,0.312843,0.612564,0.047285,0.245193,0.721310,1.000000,1.000000,0.203551,0.003147,0.600396,0.921317,1.000000,0.136215,0.000000,139.210363,1.197085,53.110895,0.612564,10.409772,2.829335,7.491791,1.000000,300.000000,0.883989,9.443715,0.600396,184.342086,10.000000,2.225931,0.000000,4
/home/daniel/Projects/ppsevolution/data/maps/custom_maps/Custom_1_Run_0_Map.csv,squared_error,1.6403262610033435e-06,0.5006,0.3583,0.000000,0.821069,0.314767,0.592057,0.078383,0.000000,0.970952,0.000000,0.932004,0.000000,0.020311,0.584806,0.868932,0.821737,0.033983,0.000000,125.000000,1.229798,53.382183,0.592057,16.598137,0.500000,9.738569,0.000000,288.100734,0.770000,11.863858,0.584806,173.917530,8.306499,1.305844,0.000000,5
/home/daniel/Projects/ppsevolution/data/maps/custom_maps/Custom_1_Run_0_Map.csv,squared_error,5.7239360939355325e-06,0.5001,0.3566,0.381424,0.615968,0.306693,0.554491,0.000000,0.000000,0.680316,2.000000,0.789497,0.000000,0.147740,0.610506,1.000000,0.949336,0.000000,1.000000,191.749160,1.114942,52.243682,0.554491,1.000000,0.500000,7.122840,2.000000,263.161987,0.770000,29.831303,0.610506,200.000000,9.518691,1.000000,1.000000,6
/home/daniel/Projects/ppsevolution/data/maps/custom_maps/Custom_1_Run_0_Map.csv,squared_error,2.0563383464946203e-06,0.4981,0.3606,0.000000,1.000000,0.318595,0.562983,0.000000,0.000000,0.829437,1.000000,0.895845,0.120722,0.000000,0.565359,0.922652,1.000000,0.185831,2.000000,125.000000,1.330000,53.921850,0.562983,1.000000,0.500000,8.464930,1.000000,281.772804,0.837604,9.000000,0.565359,184.607723,10.000000,2.672476,2.000000,7
/home/daniel/Projects/ppsevolution/data/maps/custom_maps/Custom_1_Run_0_Map.csv,squared_error,1.271743098008214e-06,0.5016,0.3599,0.008073,0.993866,0.313933,0.617148,0.127445,0.344228,0.707984,0.000000,0.984409,0.106018,0.000000,0.587613,0.801431,0.971290,0.092486,1.000000,126.412837,1.326565,53.264557,0.617148,26.361586,3.770164,7.371854,0.000000,297.271613,0.829370,9.000000,0.587613,160.484756,9.727256,1.832372,1.000000,8
/home/daniel/Projects/ppsevolution/data/maps/custom_maps/Custom_1_Run_0_Map.csv,squared_error,2.563862850695398e-06,0.5021,0.3608,0.000000,0.731665,0.268399,0.621584,0.000000,0.018376,1.000000,1.000000,1.000000,0.000000,0.000000,0.578188,0.981572,0.834771,0.000000,1.000000,125.000000,1.179732,46.844212,0.621584,1.000000,0.674576,10.000000,1.000000,300.000000,0.770000,9.000000,0.578188,196.332824,8.430329,1.000000,1.000000,9
map,fitness,fitness value,team0ratio,time,HP,Speed,Damage,Acc,ClipSize,RateOfFire,NrBullets,Range,HP,Speed,Damage,Acc,ClipSize,RateOfFire,NrBullets,Range,HP,Speed,Damage,Acc,ClipSize,RateOfFire,NrBullets,Range,HP,Speed,Damage,Acc,ClipSize,RateOfFire,NrBullets,Range,Run,target team0ratio: 0.5,target time: 0.36
/home/daniel/Projects/ppsevolution/data/maps/custom_maps/Custom_2_Run_0_Map.csv,squared_error,0.0005042497887217717,0.5038,0.3915,0.000000,0.727386,0.898375,1.000000,0.120429,0.000000,1.000000,2.000000,0.842187,0.262145,1.000000,1.000000,1.000000,0.948356,0.848796,2.000000,125.000000,1.177336,135.670920,1.000000,24.965455,0.500000,10.000000,2.000000,272.382799,0.916801,150.000000,1.000000,200.000000,9.509380,8.639163,2.000000,0
/home/daniel/Projects/ppsevolution/data/maps/custom_maps/Custom_2_Run_0_Map.csv,squared_error,0.0009390066577384245,0.4936,0.4029,0.041487,0.657274,0.799507,1.000000,0.000000,0.354668,0.753629,2.000000,0.767450,0.460758,0.932955,1.000000,0.525863,0.714897,0.079554,2.000000,132.260254,1.138074,121.730498,1.000000,1.000000,3.869345,7.782664,2.000000,259.303670,1.028025,140.546692,1.000000,105.646745,7.291521,1.715985,2.000000,1
/home/daniel/Projects/ppsevolution/data/maps/custom_maps/Custom_2_Run_0_Map.csv,squared_error,0.0006402998070079808,0.4909,0.3946,0.106434,0.597703,0.532497,1.000000,0.000000,0.554913,0.845835,2.000000,0.402851,0.629986,1.000000,1.000000,1.000000,0.799204,0.747114,2.000000,143.625970,1.104714,84.082104,1.000000,1.000000,5.771675,8.612514,2.000000,195.498923,1.122792,150.000000,1.000000,200.000000,8.092443,7.724022,2.000000,2
/home/daniel/Projects/ppsevolution/data/maps/custom_maps/Custom_2_Run_0_Map.csv,squared_error,0.0007025735600340751,0.4938,0.3970,0.000000,1.000000,0.713673,1.000000,0.000000,0.666056,1.000000,2.000000,0.462375,0.356848,1.000000,1.000000,0.615615,0.589232,0.423675,2.000000,125.000000,1.330000,109.627951,1.000000,1.000000,6.827531,10.000000,2.000000,205.915649,0.969835,150.000000,1.000000,123.507398,6.097699,4.813075,2.000000,3
/home/daniel/Projects/ppsevolution/data/maps/custom_maps/Custom_2_Run_0_Map.csv,squared_error,0.0005234477685399025,0.4953,0.3920,0.000000,0.786513,0.709540,1.000000,0.313159,0.336428,0.830730,2.000000,0.646708,0.457552,1.000000,1.000000,0.903154,1.000000,0.932014,2.000000,125.000000,1.210448,109.045160,1.000000,63.318665,3.696066,8.476566,2.000000,238.173973,1.026229,150.000000,1.000000,180.727713,10.000000,9.388124,2.000000,4
/home/daniel/Projects/ppsevolution/data/maps/custom_maps/Custom_2_Run_0_Map.csv,squared_error,0.0005820448205444746,0.4966,0.3939,0.051784,0.733214,0.880118,1.000000,0.416844,0.348819,0.772313,2.000000,1.000000,0.442397,1.000000,1.000000,0.910766,1.000000,0.872922,2.000000,134.062231,1.180600,133.096664,1.000000,83.952006,3.813778,7.950814,2.000000,300.000000,1.017742,150.000000,1.000000,182.242336,10.000000,8.856299,2.000000,5
/home/daniel/Projects/ppsevolution/data/maps/custom_maps/Custom_2_Run_0_Map.csv,squared_error,0.0005119979366435029,0.4906,0.3906,0.000000,0.806435,0.443535,1.000000,0.385625,0.112004,0.999362,2.000000,0.163118,0.000000,0.984223,1.000000,0.836187,0.960813,0.975135,2.000000,125.000000,1.221604,71.538496,1.000000,77.739331,1.564038,9.994260,2.000000,153.545703,0.770000,147.775425,1.000000,167.401200,9.627724,9.776214,2.000000,6
/home/daniel/Projects/ppsevolution/data/maps/custom_maps/Custom_2_Run_0_Map.csv,squared_error,0.0006669153870361162,0.5082,0.3956,0.055149,0.621643,0.563736,1.000000,0.152145,0.081622,1.000000,2.000000,0.204332,0.264622,1.000000,1.000000,0.967320,0.949927,0.606483,2.000000,134.651022,1.118120,88.486813,1.000000,31.276758,1.275413,10.000000,2.000000,160.758178,0.918188,150.000000,1.000000,193.496768,9.524302,6.458349,2.000000,7
/home/daniel/Projects/ppsevolution/data/maps/custom_maps/Custom_2_Run_0_Map.csv,squared_error,0.0007356813115065425,0.4875,0.3963,0.000000,1.000000,0.891231,1.000000,0.801813,0.012685,0.786767,2.000000,1.000000,0.471063,1.000000,1.000000,0.647529,0.792502,0.426307,2.000000,125.000000,1.330000,134.663516,1.000000,160.560752,0.620506,8.080901,2.000000,300.000000,1.033795,150.000000,1.000000,129.858274,8.028771,4.836767,2.000000,8
/home/daniel/Projects/ppsevolution/data/maps/custom_maps/Custom_2_Run_0_Map.csv,squared_error,0.000665951655988813,0.4964,0.3963,0.000000,0.596554,0.745630,1.000000,0.014278,0.134494,0.921151,2.000000,0.939173,0.000000,0.871204,0.986210,0.725961,1.000000,0.746624,2.000000,125.000000,1.104070,114.133767,1.000000,3.841387,1.777693,9.290360,2.000000,289.355283,0.770000,131.839694,0.986210,145.466333,10.000000,7.719612,2.000000,9
map,fitness,fitness value,team0ratio,time,HP,Speed,Damage,Acc,ClipSize,RateOfFire,NrBullets,Range,HP,Speed,Damage,Acc,ClipSize,RateOfFire,NrBullets,Range,HP,Speed,Damage,Acc,ClipSize,RateOfFire,NrBullets,Range,HP,Speed,Damage,Acc,ClipSize,RateOfFire,NrBullets,Range,Run,target team0ratio: 0.5,target time: 0.36
/home/daniel/Projects/ppsevolution/data/maps/custom_maps/Custom_3_Run_0_Map.csv,squared_error,0.006539807393860887,0.5099,0.4739,0.000000,1.000000,0.940568,1.000000,0.053636,0.193421,0.953855,2.000000,0.701960,0.434348,1.000000,1.000000,1.000000,0.485333,0.976076,2.000000,125.000000,1.330000,141.620059,1.000000,11.673611,2.337499,9.584694,2.000000,247.842937,1.013235,150.000000,1.000000,200.000000,5.110659,9.784688,2.000000,0
/home/daniel/Projects/ppsevolution/data/maps/custom_maps/Custom_3_Run_0_Map.csv,squared_error,0.006514799953190324,0.5002,0.4741,0.000000,0.872940,0.798807,1.000000,0.003342,0.196771,0.970719,2.000000,0.384567,0.024250,1.000000,1.000000,0.035982,0.110401,0.817373,2.000000,125.000000,1.258847,121.631848,1.000000,1.665115,2.369324,9.736474,2.000000,192.299184,0.783580,150.000000,1.000000,8.160379,1.548806,8.356353,2.000000,1
/home/daniel/Projects/ppsevolution/data/maps/custom_maps/Custom_3_Run_0_Map.csv,squared_error,0.006617374071145325,0.5096,0.4746,0.000000,0.390566,0.738939,0.999452,0.000000,0.347610,0.988233,2.000000,0.294661,0.000000,1.000000,1.000000,0.805793,0.692665,0.653227,2.000000,125.000000,0.988717,113.190465,0.999452,1.000000,3.802291,9.894094,2.000000,176.565722,0.770000,150.000000,1.000000,161.352884,7.080313,6.879044,2.000000,2
/home/daniel/Projects/ppsevolution/data/maps/custom_maps/Custom_3_Run_0_Map.csv,squared_error,0.006600323844526092,0.5019,0.4749,0.010138,0.743896,0.545421,1.000000,0.288407,0.102196,1.000000,2.000000,0.000000,0.132630,1.000000,1.000000,0.101264,0.484411,0.764217,2.000000,126.774098,1.186582,85.904299,1.000000,58.393005,1.470859,10.000000,2.000000,125.000000,0.844273,150.000000,1.000000,21.151597,5.101904,7.877954,2.000000,3
/home/daniel/Projects/ppsevolution/data/maps/custom_maps/Custom_3_Run_0_Map.csv,squared_error,0.006954768345043935,0.5116,0.4774,0.000000,0.847063,1.000000,1.000000,0.157477,0.019051,0.975182,2.000000,0.695336,0.239855,1.000000,1.000000,1.000000,0.503833,0.000000,2.000000,125.000000,1.244356,150.000000,1.000000,32.337925,0.680984,9.776642,2.000000,246.683713,0.904319,150.000000,1.000000,200.000000,5.286409,1.000000,2.000000,4
/home/daniel/Projects/ppsevolution/data/maps/custom_maps/Custom_3_Run_0_Map.csv,squared_error,0.00667014716980473,0.5009,0.4755,0.056844,0.479207,0.962037,0.994775,0.023495,0.158297,1.000000,2.000000,0.760862,0.284386,1.000000,1.000000,0.984616,0.631546,0.910695,2.000000,134.947740,1.038356,144.647174,0.994775,5.675496,2.003826,10.000000,2.000000,258.150863,0.929256,150.000000,1.000000,196.938616,6.499684,9.196257,2.000000,5
/home/daniel/Projects/ppsevolution/data/maps/custom_maps/Custom_3_Run_0_Map.csv,squared_error,0.006470978992739995,0.5029,0.4737,0.000000,1.000000,0.781314,0.977953,0.084194,0.203991,1.000000,2.000000,0.075528,0.036261,1.000000,1.000000,0.687898,0.882419,0.832039,2.000000,125.000000,1.330000,119.165255,0.977953,17.754641,2.437917,10.000000,2.000000,138.217432,0.790306,150.000000,1.000000,137.891625,8.882984,8.488352,2.000000,6
/home/daniel/Projects/ppsevolution/data/maps/custom_maps/Custom_3_Run_0_Map.csv,squared_error,0.006297314656738597,0.5151,0.4712,0.000000,0.949750,0.673657,1.000000,0.029392,0.956004,0.992887,2.000000,0.025536,0.089645,1.000000,1.000000,1.000000,0.084838,0.892817,2.000000,125.000000,1.301860,103.985669,1.000000,6.848955,9.582036,9.935984,2.000000,129.468716,0.820201,150.000000,1.000000,200.000000,1.305959,9.035354,2.000000,7
/home/daniel/Projects/ppsevolution/data/maps/custom_maps/Custom_3_Run_0_Map.csv,squared_error,0.006648024232945723,0.5063,0.4751,0.006237,0.641726,1.000000,1.000000,0.000000,0.550858,0.990204,2.000000,0.714144,0.000000,0.957455,1.000000,0.687039,0.165570,0.705112,2.000000,126.091464,1.129366,150.000000,1.000000,1.000000,5.733150,9.911835,2.000000,249.975115,0.770000,144.001131,1.000000,137.720769,2.072914,7.346007,2.000000,8
/home/daniel/Projects/ppsevolution/data/maps/custom_maps/Custom_3_Run_0_Map.csv,squared_error,0.006352338102507351,0.5122,0.4721,0.042609,0.416011,0.830827,0.994048,0.076066,0.199281,1.000000,2.000000,0.271513,0.145836,1.000000,1.000000,1.000000,0.102456,1.000000,2.000000,132.456610,1.002966,126.146585,0.994048,16.137157,2.393167,10.000000,2.000000,172.514782,0.851668,150.000000,1.000000,200.000000,1.473333,10.000000,2.000000,9
map,fitness,fitness value,team0ratio,time,HP,Speed,Damage,Acc,ClipSize,RateOfFire,NrBullets,Range,HP,Speed,Damage,Acc,ClipSize,RateOfFire,NrBullets,Range,HP,Speed,Damage,Acc,ClipSize,RateOfFire,NrBullets,Range,HP,Speed,Damage,Acc,ClipSize,RateOfFire,NrBullets,Range,Run,target team0ratio: 0.5,target time: 0.36
/home/daniel/Projects/ppsevolution/data/maps/custom_maps/Custom_4_Run_0_Map.csv,squared_error,5.1364312996106385e-06,0.4987,0.3571,0.000000,0.998678,0.013929,0.840413,0.104911,0.058675,1.000000,0.000000,0.926239,0.074585,0.134203,0.635043,0.757739,0.860774,0.000000,1.000000,125.000000,1.329259,10.963928,0.840413,21.877349,1.057414,10.000000,0.000000,287.091838,0.811768,27.922623,0.635043,151.790049,8.677355,1.000000,1.000000,0
/home/daniel/Projects/ppsevolution/data/maps/custom_maps/Custom_4_Run_0_Map.csv,squared_error,2.5515446383252623e-06,0.4978,0.3606,0.559043,0.728647,0.382037,0.695149,0.231329,0.065271,1.000000,1.000000,0.959087,0.315754,0.000000,0.751378,0.942107,0.848253,0.000000,0.000000,222.832459,1.178042,62.867263,0.695149,47.034569,1.120076,10.000000,1.000000,292.840308,0.946822,9.000000,0.751378,188.479373,8.558401,1.000000,0.000000,1
/home/daniel/Projects/ppsevolution/data/maps/custom_maps/Custom_4_Run_0_Map.csv,squared_error,2.460430853434985e-06,0.5005,0.3578,0.219257,0.817461,0.408832,0.673883,0.116564,0.211317,0.755594,2.000000,1.000000,0.073303,0.273412,0.549657,0.843754,0.755369,0.035780,2.000000,163.370022,1.227778,66.645300,0.673883,24.196137,2.507516,7.800348,2.000000,300.000000,0.811050,47.551032,0.549657,168.907073,7.676006,1.322022,2.000000,2
/home/daniel/Projects/ppsevolution/data/maps/custom_maps/Custom_4_Run_0_Map.csv,squared_error,4.610691327076217e-06,0.5030,0.3605,0.045286,1.000000,0.086024,0.800000,0.189647,0.000000,0.964812,2.000000,1.000000,0.000000,0.000055,0.661876,0.934453,0.909495,0.159316,1.000000,132.925039,1.330000,21.129406,0.800000,38.739708,0.500000,9.683306,2.000000,300.000000,0.770000,9.007738,0.661876,186.956177,9.140198,2.433844,1.000000,3
/home/daniel/Projects/ppsevolution/data/maps/custom_maps/Custom_4_Run_0_Map.csv,squared_error,1.2292338707382373e-07,0.5005,0.3599,0.291327,1.000000,0.170821,0.747914,0.001412,0.096233,0.937730,1.000000,0.840131,0.110641,0.162976,0.637428,0.971752,0.798507,0.092208,1.000000,175.982143,1.330000,33.085692,0.747914,1.280918,1.414214,9.439573,1.000000,272.023009,0.831959,31.979640,0.637428,194.378648,8.085820,1.829875,1.000000,4
/home/daniel/Projects/ppsevolution/data/maps/custom_maps/Custom_4_Run_0_Map.csv,squared_error,5.27664826325068e-06,0.4977,0.3623,0.000000,0.947539,0.014389,0.791243,0.057015,0.054451,1.000000,1.000000,0.759309,0.024965,0.000000,0.661373,0.838005,1.000000,0.000000,2.000000,125.000000,1.300622,11.028796,0.791243,12.346010,1.017282,10.000000,1.000000,257.879097,0.783981,9.000000,0.661373,167.762943,10.000000,1.000000,2.000000,5
/home/daniel/Projects/ppsevolution/data/maps/custom_maps/Custom_4_Run_0_Map.csv,squared_error,3.021317980187634e-06,0.5025,0.3601,0.102121,0.817736,0.186208,0.766061,0.148172,0.084235,0.860783,2.000000,1.000000,0.207346,0.197256,0.579589,0.825026,1.000000,0.000000,1.000000,142.871253,1.227932,35.255296,0.766061,30.486130,1.300230,8.747046,2.000000,300.000000,0.886114,36.813159,0.579589,165.180190,10.000000,1.000000,1.000000,6
/home/daniel/Projects/ppsevolution/data/maps/custom_maps/Custom_4_Run_0_Map.csv,squared_error,5.5470258819447735e-06,0.5015,0.3630,0.093938,0.968799,0.091227,0.783406,0.000000,0.205618,1.000000,2.000000,0.967200,0.203352,0.121577,0.598003,0.923941,0.715030,0.180866,1.000000,141.439200,1.312527,21.863041,0.783406,1.000000,2.453375,10.000000,2.000000,294.260039,0.883877,26.142315,0.598003,184.864254,7.292787,2.627792,1.000000,7
/home/daniel/Projects/ppsevolution/data/maps/custom_maps/Custom_4_Run_0_Map.csv,squared_error,2.3524290673200462e-05,0.4932,0.3607,0.166048,1.000000,0.000000,0.817899,0.112412,0.000000,0.916225,2.000000,0.897555,0.000000,0.070679,0.682519,1.000000,0.923806,0.031208,0.000000,154.058337,1.330000,9.000000,0.817899,23.370005,0.500000,9.246025,2.000000,282.072168,0.770000,18.965769,0.682519,200.000000,9.276159,1.280874,0.000000,8
/home/daniel/Projects/ppsevolution/data/maps/custom_maps/Custom_4_Run_0_Map.csv,squared_error,6.835756961322794e-07,0.4994,0.3610,0.341017,0.773290,0.326054,0.707260,0.412010,0.086716,0.847233,1.000000,0.943573,0.272247,0.000000,0.701079,0.723640,0.853562,0.136367,2.000000,184.677947,1.203042,54.973612,0.707260,82.989931,1.323799,8.625099,1.000000,290.125265,0.922458,9.000000,0.701079,145.004286,8.608841,2.227299,2.000000,9
map,fitness,fitness value,team0ratio,time,HP,Speed,Damage,Acc,ClipSize,RateOfFire,NrBullets,Range,HP,Speed,Damage,Acc,ClipSize,RateOfFire,NrBullets,Range,HP,Speed,Damage,Acc,ClipSize,RateOfFire,NrBullets,Range,HP,Speed,Damage,Acc,ClipSize,RateOfFire,NrBullets,Range,Run,target team0ratio: 0.5,target time: 0.36
/home/daniel/Projects/ppsevolution/data/maps/custom_maps/Custom_5_Run_0_Map.csv,squared_error,8.245806630526569e-07,0.4992,0.3610,0.534920,0.973985,0.057613,0.981407,0.419269,0.075708,0.960448,1.000000,0.530680,0.334514,0.011816,1.000000,1.000000,0.728727,0.362958,0.000000,218.610918,1.315432,17.123370,0.981407,84.434585,1.219224,9.644035,1.000000,217.868926,0.957328,10.666099,1.000000,200.000000,7.422911,4.266618,0.000000,0
/home/daniel/Projects/ppsevolution/data/maps/custom_maps/Custom_5_Run_0_Map.csv,squared_error,1.0640869933588835e-06,0.5011,0.3610,0.385910,0.955459,0.260841,1.000000,0.000000,0.000000,0.919599,1.000000,1.000000,0.258357,0.070207,1.000000,0.510621,0.927681,0.138317,0.000000,192.534239,1.305057,45.778537,1.000000,1.000000,0.500000,9.276392,1.000000,300.000000,0.914680,18.899236,1.000000,102.613507,9.312967,2.244851,0.000000,1
/home/daniel/Projects/ppsevolution/data/maps/custom_maps/Custom_5_Run_0_Map.csv,squared_error,6.1385007347382266e-06,0.5006,0.3566,0.029555,0.792289,0.308183,1.000000,0.171196,0.000000,0.709306,0.000000,0.784732,0.000000,0.000000,1.000000,0.931482,0.936521,0.082639,1.000000,130.172058,1.213682,52.453747,1.000000,35.067956,0.500000,7.383753,0.000000,262.328172,0.770000,9.000000,1.000000,186.364881,9.396951,1.743751,1.000000,2
/home/daniel/Projects/ppsevolution/data/maps/custom_maps/Custom_5_Run_0_Map.csv,squared_error,2.6345773260345807e-07,0.5007,0.3602,0.167878,0.925050,0.333817,1.000000,0.354059,0.000000,0.577938,1.000000,1.000000,0.214381,0.000000,1.000000,0.795834,0.677899,0.113826,1.000000,154.378624,1.288028,56.068158,1.000000,71.457652,0.500000,6.201444,1.000000,300.000000,0.890053,9.000000,1.000000,159.370921,6.940036,2.024432,1.000000,3
/home/daniel/Projects/ppsevolution/data/maps/custom_maps/Custom_5_Run_0_Map.csv,squared_error,5.800514962461972e-06,0.5032,0.3587,0.146446,0.654643,0.186301,1.000000,0.235720,0.043910,0.867680,2.000000,1.000000,0.250410,0.323509,0.950379,0.491954,0.886706,0.250884,2.000000,150.628089,1.136600,35.268398,1.000000,47.908360,0.917147,8.809118,2.000000,300.000000,0.910230,54.614754,0.950379,98.898762,8.923711,3.257953,2.000000,4
/home/daniel/Projects/ppsevolution/data/maps/custom_maps/Custom_5_Run_0_Map.csv,squared_error,4.780532355176937e-07,0.4996,0.3591,0.324144,0.887477,0.233775,1.000000,0.056088,0.117443,1.000000,1.000000,0.942872,0.267752,0.091863,0.994960,0.701305,1.000000,0.233563,0.000000,181.725274,1.266987,41.962302,1.000000,12.161455,1.615709,10.000000,1.000000,290.002580,0.919941,21.952675,0.994960,140.559736,10.000000,3.102069,0.000000,5
/home/daniel/Projects/ppsevolution/data/maps/custom_maps/Custom_5_Run_0_Map.csv,squared_error,3.8924515908923835e-06,0.4998,0.3572,0.043705,0.897522,0.342914,0.995611,0.231202,0.232688,0.725021,0.000000,0.773580,0.073655,0.000000,1.000000,0.797764,0.979628,0.136972,0.000000,132.648316,1.272612,57.350857,0.995611,47.009129,2.710535,7.525187,0.000000,260.376504,0.811247,9.000000,1.000000,159.754993,9.806462,2.232746,0.000000,6
/home/daniel/Projects/ppsevolution/data/maps/custom_maps/Custom_5_Run_0_Map.csv,squared_error,7.09669388761098e-07,0.5001,0.3588,0.957998,0.815123,0.232570,0.974212,0.000000,0.059421,0.858931,0.000000,0.595794,0.000000,0.241834,1.000000,0.519822,0.724953,0.000000,1.000000,292.649670,1.226469,41.792377,0.974212,1.000000,1.064495,8.730375,0.000000,229.263928,0.770000,43.098641,1.000000,104.444543,7.387053,1.000000,1.000000,7
/home/daniel/Projects/ppsevolution/data/maps/custom_maps/Custom_5_Run_0_Map.csv,squared_error,3.2154514071365884e-07,0.4993,0.3605,0.115723,0.720037,0.136975,0.999943,0.058792,0.115797,0.920644,0.000000,0.634163,0.437549,0.000000,0.994426,0.891275,0.868044,0.412685,0.000000,145.251567,1.173221,28.313497,0.999943,12.699581,1.600068,9.285797,0.000000,235.978519,1.015028,9.000000,0.994426,178.363783,8.746420,4.714163,0.000000,8
/home/daniel/Projects/ppsevolution/data/maps/custom_maps/Custom_5_Run_0_Map.csv,squared_error,5.065551753659811e-07,0.5009,0.3605,0.304993,1.000000,0.206455,1.000000,0.069556,0.145279,1.000000,1.000000,0.938565,0.104890,0.000000,1.000000,0.676730,0.933072,0.115798,1.000000,178.373720,1.330000,38.110088,1.000000,14.841622,1.880155,10.000000,1.000000,289.248916,0.828738,9.000000,1.000000,135.669193,9.364185,2.042178,1.000000,9
map,fitness,fitness value,team0ratio,time,HP,Speed,Damage,Acc,ClipSize,RateOfFire,NrBullets,Range,HP,Speed,Damage,Acc,ClipSize,RateOfFire,NrBullets,Range,HP,Speed,Damage,Acc,ClipSize,RateOfFire,NrBullets,Range,HP,Speed,Damage,Acc,ClipSize,RateOfFire,NrBullets,Range,Run,target team0ratio: 0.5,target time: 0.36
/home/daniel/Projects/ppsevolution/data/maps/custom_maps/Custom_6_Run_0_Map.csv,squared_error,0.00905072372041699,0.4718,0.4916,0.053042,0.825788,0.025443,1.000000,0.020432,0.000000,0.955049,2.000000,0.986936,0.427786,0.932561,0.903768,1.000000,0.917854,0.318135,2.000000,134.282311,1.232441,12.587521,1.000000,5.065882,0.500000,9.595438,2.000000,297.713729,1.009560,140.491141,0.903768,200.000000,9.219617,3.863213,2.000000,0
/home/daniel/Projects/ppsevolution/data/maps/custom_maps/Custom_6_Run_0_Map.csv,squared_error,0.008730670499796226,0.4437,0.4795,0.027316,0.794172,0.000000,1.000000,0.205321,0.316082,0.549287,2.000000,1.000000,0.000000,0.879805,0.927933,0.970912,0.993550,0.987456,2.000000,129.780265,1.214736,9.000000,1.000000,41.858843,3.502782,5.943584,2.000000,300.000000,0.770000,133.052543,0.927933,194.211427,9.938727,9.887103,2.000000,1
/home/daniel/Projects/ppsevolution/data/maps/custom_maps/Custom_6_Run_0_Map.csv,squared_error,0.008430311670649462,0.4534,0.4812,0.040242,1.000000,0.000000,1.000000,0.326698,0.000000,0.000000,2.000000,1.000000,0.000000,0.969711,0.914067,0.901081,0.853561,0.984630,2.000000,132.042433,1.330000,9.000000,1.000000,66.012807,0.500000,1.000000,2.000000,300.000000,0.770000,145.729184,0.914067,180.315050,8.608828,9.861674,2.000000,2
/home/daniel/Projects/ppsevolution/data/maps/custom_maps/Custom_6_Run_0_Map.csv,squared_error,0.00858158027840275,0.4811,0.4896,0.047827,1.000000,0.000000,1.000000,0.080122,0.099957,0.910828,2.000000,0.982669,0.577398,0.983719,0.885359,0.857370,0.758474,1.000000,2.000000,133.369653,1.330000,9.000000,1.000000,16.944330,1.449590,9.197448,2.000000,296.966990,1.093343,147.704425,0.885359,171.616687,7.705506,10.000000,2.000000,3
/home/daniel/Projects/ppsevolution/data/maps/custom_maps/Custom_6_Run_0_Map.csv,squared_error,0.008573166913860016,0.4733,0.4882,0.000000,1.000000,0.000000,1.000000,0.032671,0.000000,1.000000,2.000000,1.000000,0.474376,1.000000,0.885014,0.701203,0.931952,0.663052,2.000000,125.000000,1.330000,9.000000,1.000000,7.501609,0.500000,10.000000,2.000000,300.000000,1.035650,150.000000,0.885014,140.539428,9.353542,6.967465,2.000000,4
/home/daniel/Projects/ppsevolution/data/maps/custom_maps/Custom_6_Run_0_Map.csv,squared_error,0.009120734477971959,0.4691,0.4915,0.000000,0.879593,0.001275,1.000000,0.051323,0.000000,0.966131,2.000000,0.985341,0.181641,0.961950,0.892727,1.000000,1.000000,0.000000,2.000000,125.000000,1.262572,9.179815,1.000000,11.213318,0.500000,9.695176,2.000000,297.434720,0.871719,144.634906,0.892727,200.000000,10.000000,1.000000,2.000000,5
/home/daniel/Projects/ppsevolution/data/maps/custom_maps/Custom_6_Run_0_Map.csv,squared_error,0.009953270114782134,0.4534,0.4932,0.000000,0.772294,0.000000,1.000000,0.210645,0.491748,0.826003,2.000000,0.987001,0.125643,0.798652,0.914084,0.849514,0.803261,0.196247,2.000000,125.000000,1.202485,9.000000,1.000000,42.918415,5.171605,8.434023,2.000000,297.725139,0.840360,121.609946,0.914084,170.053291,8.130981,2.766221,2.000000,6
/home/daniel/Projects/ppsevolution/data/maps/custom_maps/Custom_6_Run_0_Map.csv,squared_error,0.009367991654407512,0.4470,0.4862,0.086986,0.633135,0.000000,1.000000,0.022180,0.023525,0.869802,2.000000,0.996760,0.081271,0.722582,0.940231,0.898178,1.000000,0.623070,2.000000,140.222478,1.124556,9.000000,1.000000,5.413847,0.723490,8.828218,2.000000,299.432955,0.815512,110.884062,0.940231,179.737427,10.000000,6.607631,2.000000,7
/home/daniel/Projects/ppsevolution/data/maps/custom_maps/Custom_6_Run_0_Map.csv,squared_error,0.008906790805235648,0.4645,0.4887,0.119821,0.539755,0.000000,1.000000,0.436222,0.281925,0.177553,2.000000,0.960347,0.047935,0.985564,0.914641,0.933483,1.000000,0.712773,2.000000,145.968634,1.072263,9.000000,1.000000,87.808098,3.178283,2.597980,2.000000,293.060703,0.796844,147.964455,0.914641,186.763157,10.000000,7.414959,2.000000,8
/home/daniel/Projects/ppsevolution/data/maps/custom_maps/Custom_6_Run_0_Map.csv,squared_error,0.00945524193422562,0.4574,0.4908,0.234726,1.000000,0.000000,1.000000,0.309241,0.161774,0.656465,2.000000,0.951950,0.022540,1.000000,0.927827,0.946062,1.000000,0.000000,2.000000,166.077124,1.330000,9.000000,1.000000,62.538869,2.036855,6.908189,2.000000,291.591218,0.782623,150.000000,0.927827,189.266254,10.000000,1.000000,2.000000,9
map,fitness,fitness value,team0ratio,time,HP,Speed,Damage,Acc,ClipSize,RateOfFire,NrBullets,Range,HP,Speed,Damage,Acc,ClipSize,RateOfFire,NrBullets,Range,HP,Speed,Damage,Acc,ClipSize,RateOfFire,NrBullets,Range,HP,Speed,Damage,Acc,ClipSize,RateOfFire,NrBullets,Range,Run,target team0ratio: 0.5,target time: 0.36
/home/daniel/Projects/ppsevolution/data/maps/custom_maps/Custom_7_Run_0_Map.csv,squared_error,5.302776388617872e-07,0.4994,0.3609,0.074682,0.552390,0.214444,1.000000,0.295811,0.402703,1.000000,1.000000,0.833132,0.000000,0.000000,1.000000,0.893050,0.931623,0.207045,1.000000,138.069267,1.079339,39.236562,1.000000,59.866477,4.325683,10.000000,1.000000,270.798016,0.770000,9.000000,1.000000,178.716862,9.350417,2.863405,1.000000,0
/home/daniel/Projects/ppsevolution/data/maps/custom_maps/Custom_7_Run_0_Map.csv,squared_error,4.2088239694776597e-07,0.4994,0.3593,0.091804,0.766251,0.351430,1.000000,0.030675,0.052105,0.758455,0.000000,1.000000,0.048111,0.135724,0.983560,1.000000,0.690405,0.175067,1.000000,141.065681,1.199101,58.551612,1.000000,7.104345,0.995002,7.826095,0.000000,300.000000,0.796942,28.137135,0.983560,200.000000,7.058849,2.575605,1.000000,1
/home/daniel/Projects/ppsevolution/data/maps/custom_maps/Custom_7_Run_0_Map.csv,squared_error,1.4377927598509682e-06,0.5017,0.3603,0.196231,0.816299,0.084409,0.999253,0.092196,0.907174,0.854728,1.000000,0.622326,0.097281,0.034956,1.000000,1.000000,0.851676,0.231663,2.000000,159.340467,1.227127,20.901616,0.999253,19.347067,9.118150,8.692551,1.000000,233.907011,0.824478,13.928726,1.000000,200.000000,8.590921,3.084965,2.000000,2
/home/daniel/Projects/ppsevolution/data/maps/custom_maps/Custom_7_Run_0_Map.csv,squared_error,1.1347071390368e-06,0.5014,0.3596,0.213342,0.959396,0.303902,1.000000,0.241762,0.275461,0.621376,1.000000,1.000000,0.196840,0.047053,1.000000,1.000000,0.506854,0.308505,2.000000,162.334867,1.307262,51.850205,1.000000,49.110567,3.116879,6.592382,1.000000,300.000000,0.880230,15.634477,1.000000,200.000000,5.315114,3.776545,2.000000,3
/home/daniel/Projects/ppsevolution/data/maps/custom_maps/Custom_7_Run_0_Map.csv,squared_error,1.8803096137461103e-07,0.5006,0.3602,0.164661,0.656234,0.049519,1.000000,0.297460,0.000000,0.742310,0.000000,0.509147,0.206400,0.042788,1.000000,0.542181,0.791868,0.306157,2.000000,153.815657,1.137491,15.982136,1.000000,60.194457,0.500000,7.680793,0.000000,214.100719,0.885584,15.033116,1.000000,108.893970,8.022742,3.755409,2.000000,4
/home/daniel/Projects/ppsevolution/data/maps/custom_maps/Custom_7_Run_0_Map.csv,squared_error,6.83555431311349e-07,0.4999,0.3612,0.141228,0.846890,0.565475,1.000000,0.241333,0.349906,0.921750,0.000000,1.000000,0.000000,0.195107,1.000000,0.797784,0.700406,0.038179,0.000000,149.714880,1.244258,88.731943,1.000000,49.025332,3.824104,9.295754,0.000000,300.000000,0.770000,36.510102,1.000000,159.759022,7.153854,1.343608,0.000000,5
/home/daniel/Projects/ppsevolution/data/maps/custom_maps/Custom_7_Run_0_Map.csv,squared_error,1.2901658591381514e-06,0.4993,0.3586,0.091426,0.989479,0.125723,1.000000,0.033658,0.247879,1.000000,1.000000,0.932566,0.085949,0.022832,0.983154,0.824355,0.886485,0.133609,2.000000,140.999510,1.324108,26.726994,1.000000,7.697876,2.854852,10.000000,1.000000,288.198987,0.818131,12.219343,0.983154,165.046661,8.921611,2.202484,2.000000,6
/home/daniel/Projects/ppsevolution/data/maps/custom_maps/Custom_7_Run_0_Map.csv,squared_error,7.191545660624992e-07,0.5006,0.3610,0.118089,0.757831,0.260633,1.000000,0.518974,0.395196,0.610937,2.000000,0.983180,0.100157,0.042038,1.000000,0.991531,0.636404,0.474219,0.000000,145.665531,1.194385,45.749277,1.000000,104.275813,4.254358,6.498434,2.000000,297.056565,0.826088,14.927404,1.000000,198.314620,6.545842,5.267969,0.000000,7
/home/daniel/Projects/ppsevolution/data/maps/custom_maps/Custom_7_Run_0_Map.csv,squared_error,8.704218246748381e-07,0.4990,0.3591,0.054235,0.918706,0.236559,1.000000,0.437914,0.237411,1.000000,1.000000,0.865519,0.296524,0.000000,1.000000,1.000000,0.880688,0.415111,1.000000,134.491145,1.284475,42.354825,1.000000,88.144981,2.755402,10.000000,1.000000,276.465769,0.936053,9.000000,1.000000,200.000000,8.866536,4.736000,1.000000,8
/home/daniel/Projects/ppsevolution/data/maps/custom_maps/Custom_7_Run_0_Map.csv,squared_error,7.647633589115912e-07,0.4991,0.3609,0.115372,0.973516,0.492311,0.978705,0.000000,0.121288,0.540292,2.000000,1.000000,0.104117,0.000000,1.000000,0.700913,0.632278,0.000000,2.000000,145.190132,1.315169,78.415856,0.978705,1.000000,1.652237,5.862626,2.000000,300.000000,0.828306,9.000000,1.000000,140.481644,6.506645,1.000000,2.000000,9
map,fitness,fitness value,team0ratio,time,HP,Speed,Damage,Acc,ClipSize,RateOfFire,NrBullets,Range,HP,Speed,Damage,Acc,ClipSize,RateOfFire,NrBullets,Range,HP,Speed,Damage,Acc,ClipSize,RateOfFire,NrBullets,Range,HP,Speed,Damage,Acc,ClipSize,RateOfFire,NrBullets,Range,Run,target team0ratio: 0.5,target time: 0.36
/home/daniel/Projects/ppsevolution/data/maps/custom_maps/Custom_8_Run_0_Map.csv,squared_error,1.8403864817458452e-07,0.4996,0.3605,0.089270,0.721689,0.439985,0.713091,0.075466,0.052906,1.000000,0.000000,0.764973,0.345938,0.115436,0.719668,0.676066,0.932473,0.000000,0.000000,140.622327,1.174146,71.037940,0.713091,16.017786,1.002612,10.000000,0.000000,258.870267,0.963726,25.276419,0.719668,135.537100,9.358490,1.000000,0.000000,0
/home/daniel/Projects/ppsevolution/data/maps/custom_maps/Custom_8_Run_0_Map.csv,squared_error,5.429296475824607e-07,0.4991,0.3594,0.191148,1.000000,0.173558,0.800000,0.065022,0.231238,0.997443,2.000000,0.953377,0.198943,0.038668,0.725281,0.924816,1.000000,0.172539,2.000000,158.450840,1.330000,33.471616,0.800000,13.939379,2.696759,9.976986,2.000000,291.840943,0.881408,14.452137,0.725281,185.038358,10.000000,2.552853,2.000000,1
/home/daniel/Projects/ppsevolution/data/maps/custom_maps/Custom_8_Run_0_Map.csv,squared_error,6.25027745804365e-07,0.4991,0.3593,0.000000,1.000000,0.376253,0.720135,0.457952,0.054252,0.864709,2.000000,0.724018,0.070817,0.435949,0.545734,0.905670,0.579389,0.000000,0.000000,125.000000,1.330000,62.051616,0.720135,92.132405,1.015394,8.782379,2.000000,251.703125,0.809657,70.468813,0.545734,181.228250,6.004194,1.000000,0.000000,2
/home/daniel/Projects/ppsevolution/data/maps/custom_maps/Custom_8_Run_0_Map.csv,squared_error,1.3008431686102783e-06,0.4997,0.3584,0.000000,0.592650,0.250392,0.773998,0.172951,0.192493,0.934042,1.000000,0.832345,0.408549,0.121196,0.658738,0.713630,0.861754,0.423542,1.000000,125.000000,1.101884,44.305234,0.773998,35.417292,2.328683,9.406379,1.000000,270.660399,0.998788,26.088622,0.658738,143.012283,8.686665,4.811876,1.000000,3
/home/daniel/Projects/ppsevolution/data/maps/custom_maps/Custom_8_Run_0_Map.csv,squared_error,8.172960241999022e-06,0.4966,0.3579,0.232191,0.685270,0.161476,0.830909,0.155283,0.000000,1.000000,1.000000,0.997826,0.273707,0.000000,0.769857,0.892088,1.000000,0.000000,2.000000,165.633416,1.153751,31.768115,0.830909,31.901360,0.500000,10.000000,1.000000,299.619588,0.923276,9.000000,0.769857,178.525608,10.000000,1.000000,2.000000,4
/home/daniel/Projects/ppsevolution/data/maps/custom_maps/Custom_8_Run_0_Map.csv,squared_error,2.973374356432177e-06,0.5007,0.3623,0.165666,0.922474,0.011661,0.864052,0.067999,0.175694,0.809891,2.000000,1.000000,0.068511,0.491065,0.559689,0.961375,0.815278,0.046178,1.000000,153.991632,1.286586,10.644255,0.864052,14.531735,2.169092,8.289022,2.000000,300.000000,0.808366,78.240166,0.559689,192.313690,8.245136,1.415604,1.000000,5
/home/daniel/Projects/ppsevolution/data/maps/custom_maps/Custom_8_Run_0_Map.csv,squared_error,3.1527568038881994e-06,0.4982,0.3582,0.086456,0.969637,0.210000,0.801510,0.006114,0.033010,0.986920,2.000000,0.982470,0.000000,0.076338,0.709442,1.000000,0.937365,0.030632,1.000000,140.129872,1.312997,38.610000,0.801510,2.216599,0.813591,9.882276,2.000000,296.932284,0.770000,19.763603,0.709442,200.000000,9.404968,1.275685,1.000000,6
/home/daniel/Projects/ppsevolution/data/maps/custom_maps/Custom_8_Run_0_Map.csv,squared_error,4.955282016641107e-06,0.4997,0.3569,0.000000,0.437597,0.147096,0.807379,0.047479,0.710844,0.985160,1.000000,0.759929,0.000000,0.182349,0.659078,0.909693,0.851718,0.181578,0.000000,125.000000,1.015054,29.740491,0.807379,10.448257,7.253019,9.866436,1.000000,257.987604,0.770000,34.711245,0.659078,182.028818,8.591321,2.634200,0.000000,7
/home/daniel/Projects/ppsevolution/data/maps/custom_maps/Custom_8_Run_0_Map.csv,squared_error,3.095434995308494e-06,0.5013,0.3621,0.000000,0.953810,0.170848,0.818526,0.022556,0.130283,0.914036,1.000000,0.944565,0.000000,0.531138,0.441455,1.000000,0.907473,0.339677,1.000000,125.000000,1.304133,33.089621,0.818526,5.488727,1.737686,9.226327,1.000000,290.298882,0.770000,83.890512,0.441455,200.000000,9.120993,4.057091,1.000000,8
/home/daniel/Projects/ppsevolution/data/maps/custom_maps/Custom_8_Run_0_Map.csv,squared_error,4.669492423050804e-06,0.4984,0.3626,0.344165,1.000000,0.391550,0.742369,0.498341,0.010641,0.808413,2.000000,1.000000,0.164178,0.277046,0.671775,1.000000,0.813306,0.152718,0.000000,185.228955,1.330000,64.208565,0.742369,100.169864,0.601086,8.275718,2.000000,300.000000,0.861940,48.063551,0.671775,200.000000,8.226409,2.374459,0.000000,9
map,fitness,fitness value,team0ratio,time,HP,Speed,Damage,Acc,ClipSize,RateOfFire,NrBullets,Range,HP,Speed,Damage,Acc,ClipSize,RateOfFire,NrBullets,Range,HP,Speed,Damage,Acc,ClipSize,RateOfFire,NrBullets,Range,HP,Speed,Damage,Acc,ClipSize,RateOfFire,NrBullets,Range,Run,target team0ratio: 0.5,target time: 0.36
/home/daniel/Projects/ppsevolution/data/maps/custom_maps/Custom_9_Run_0_Map.csv,squared_error,5.336787116312493e-06,0.5007,0.3568,0.245047,1.000000,0.029063,0.808755,0.123534,0.106104,0.735151,1.000000,1.000000,0.468797,0.022030,0.690198,1.000000,0.905895,0.436675,1.000000,167.883244,1.330000,13.097888,0.808755,25.583329,1.507991,7.616359,1.000000,300.000000,1.032526,12.106262,0.690198,200.000000,9.106006,4.930075,1.000000,0
/home/daniel/Projects/ppsevolution/data/maps/custom_maps/Custom_9_Run_0_Map.csv,squared_error,8.610715838251052e-06,0.5035,0.3577,0.132709,0.870358,0.263490,0.651281,0.079440,0.124916,0.943373,2.000000,0.841706,0.363112,0.134319,0.581563,0.861433,0.769252,0.142689,2.000000,148.224096,1.257400,46.152079,0.651281,16.808606,1.686699,9.490353,2.000000,272.298562,0.973343,27.938952,0.581563,172.425082,7.807892,2.284198,2.000000,1
/home/daniel/Projects/ppsevolution/data/maps/custom_maps/Custom_9_Run_0_Map.csv,squared_error,9.07890852152283e-06,0.5015,0.3640,0.119368,1.000000,0.156580,0.668914,0.191609,0.009293,1.000000,2.000000,0.719307,0.125665,0.000000,0.650522,1.000000,0.920383,0.109102,1.000000,145.889349,1.330000,31.077761,0.668914,39.130258,0.588281,10.000000,2.000000,250.878699,0.840372,9.000000,0.650522,200.000000,9.243642,1.981922,1.000000,2
/home/daniel/Projects/ppsevolution/data/maps/custom_maps/Custom_9_Run_0_Map.csv,squared_error,2.2509561080426904e-07,0.5000,0.3607,0.006241,0.758804,0.287556,0.687662,0.137501,0.000189,1.000000,1.000000,1.000000,0.316753,0.000000,0.638506,1.000000,1.000000,0.068155,1.000000,126.092095,1.194930,49.545455,0.687662,28.362687,0.501793,10.000000,1.000000,300.000000,0.947382,9.000000,0.638506,200.000000,10.000000,1.613393,1.000000,3
/home/daniel/Projects/ppsevolution/data/maps/custom_maps/Custom_9_Run_0_Map.csv,squared_error,2.488516269096408e-07,0.5007,0.3600,0.000000,1.000000,0.484704,0.585615,0.130482,0.030249,1.000000,0.000000,1.000000,0.018005,0.012683,0.619495,0.995031,0.883145,0.243566,2.000000,125.000000,1.330000,77.343307,0.585615,26.965839,0.787370,10.000000,0.000000,300.000000,0.780083,10.788294,0.619495,199.011140,8.889878,3.192094,2.000000,4
/home/daniel/Projects/ppsevolution/data/maps/custom_maps/Custom_9_Run_0_Map.csv,squared_error,2.216312768896928e-06,0.5004,0.3579,0.000000,0.844540,0.522516,0.622962,0.304838,0.171895,0.602907,0.000000,1.000000,0.000000,0.000000,0.673626,1.000000,1.000000,0.040681,0.000000,125.000000,1.242942,82.674776,0.622962,61.662828,2.133004,6.426164,0.000000,300.000000,0.770000,9.000000,0.673626,200.000000,10.000000,1.366127,0.000000,5
/home/daniel/Projects/ppsevolution/data/maps/custom_maps/Custom_9_Run_0_Map.csv,squared_error,4.543366853684421e-06,0.5001,0.3570,0.148286,1.000000,0.287837,0.710595,0.118042,0.440130,0.851660,0.000000,1.000000,0.000000,0.001895,0.682432,0.689434,0.923456,0.140411,1.000000,150.949997,1.330000,49.584955,0.710595,24.490334,4.681232,8.664942,0.000000,300.000000,0.770000,9.267159,0.682432,138.197355,9.272837,2.263699,1.000000,6
/home/daniel/Projects/ppsevolution/data/maps/custom_maps/Custom_9_Run_0_Map.csv,squared_error,5.523780400724819e-06,0.5032,0.3591,0.000000,0.770776,0.186900,0.690124,0.218958,0.000000,1.000000,2.000000,0.843683,0.109480,0.000000,0.625599,0.945941,1.000000,0.164612,1.000000,125.000000,1.201635,35.352897,0.690124,44.572719,0.500000,10.000000,2.000000,272.644494,0.831309,9.000000,0.625599,189.242297,10.000000,2.481512,1.000000,7
/home/daniel/Projects/ppsevolution/data/maps/custom_maps/Custom_9_Run_0_Map.csv,squared_error,1.0667434004568868e-09,0.5000,0.3600,0.078494,0.912737,0.122268,0.758437,0.000000,0.000000,1.000000,0.000000,1.000000,0.000000,0.149747,0.558770,0.909353,0.987422,0.470967,2.000000,138.736511,1.281133,26.239729,0.758437,1.000000,0.500000,10.000000,0.000000,300.000000,0.770000,30.114272,0.558770,181.961249,9.880507,5.238703,2.000000,8
/home/daniel/Projects/ppsevolution/data/maps/custom_maps/Custom_9_Run_0_Map.csv,squared_error,1.8144567921353797e-06,0.5018,0.3594,0.004932,0.763969,0.139719,0.754907,0.128206,0.000000,0.891942,0.000000,0.883034,0.094004,0.178611,0.582884,0.804608,1.000000,0.000000,0.000000,125.863015,1.197822,28.700433,0.754907,26.512990,0.500000,9.027478,0.000000,279.531013,0.822642,34.184213,0.582884,161.116951,10.000000,1.000000,0.000000,9
map,fitness,fitness value,team0ratio,time,HP,Speed,Damage,Acc,ClipSize,RateOfFire,NrBullets,Range,HP,Speed,Damage,Acc,ClipSize,RateOfFire,NrBullets,Range,HP,Speed,Damage,Acc,ClipSize,RateOfFire,NrBullets,Range,HP,Speed,Damage,Acc,ClipSize,RateOfFire,NrBullets,Range,Run,target team0ratio: 0.5,target time: 0.36
/home/daniel/Projects/ppsevolution/data/maps/custom_maps/Custom_10_Run_0_Map.csv,squared_error,3.059441425314412e-07,0.4993,0.3597,0.062268,0.829642,1.000000,1.000000,0.106217,0.415795,0.860613,2.000000,0.770815,0.000000,0.853663,1.000000,1.000000,0.208771,0.528553,2.000000,135.896928,1.234599,150.000000,1.000000,22.137214,4.450057,8.745515,2.000000,259.892650,0.770000,129.366529,1.000000,200.000000,2.483324,5.756980,2.000000,0
/home/daniel/Projects/ppsevolution/data/maps/custom_maps/Custom_10_Run_0_Map.csv,squared_error,8.825983561350777e-08,0.5000,0.3596,0.053515,1.000000,1.000000,0.990620,0.002642,0.102522,1.000000,2.000000,0.634095,0.141515,0.880154,1.000000,0.000000,0.860266,0.382161,2.000000,134.365183,1.330000,150.000000,0.990620,1.525821,1.473963,10.000000,2.000000,235.966673,0.849248,133.101784,1.000000,1.000000,8.672528,4.439447,2.000000,1
/home/daniel/Projects/ppsevolution/data/maps/custom_maps/Custom_10_Run_0_Map.csv,squared_error,4.650026778736594e-06,0.5017,0.3626,0.000000,0.419693,0.699864,0.978241,0.000000,0.462838,0.958663,2.000000,0.081327,0.311929,0.630006,1.000000,1.000000,0.704195,0.142288,0.000000,125.000000,1.005028,107.680824,0.978241,1.000000,4.896963,9.627964,2.000000,139.232180,0.944680,97.830792,1.000000,200.000000,7.189855,2.280592,0.000000,2
/home/daniel/Projects/ppsevolution/data/maps/custom_maps/Custom_10_Run_0_Map.csv,squared_error,4.623403979977097e-07,0.4991,0.3602,0.000000,0.705684,1.000000,1.000000,0.000000,0.214542,0.840157,2.000000,0.681332,0.000000,0.887112,1.000000,1.000000,0.354807,0.137496,2.000000,125.000000,1.165183,150.000000,1.000000,1.000000,2.538152,8.561412,2.000000,244.233182,0.770000,134.082833,1.000000,200.000000,3.870662,2.237467,2.000000,3
/home/daniel/Projects/ppsevolution/data/maps/custom_maps/Custom_10_Run_0_Map.csv,squared_error,1.2798632367385332e-06,0.4987,0.3609,0.000000,0.558555,0.878143,1.000000,0.477142,0.154230,0.822497,2.000000,0.512391,0.159401,1.000000,1.000000,0.961313,0.346867,0.383007,1.000000,125.000000,1.082791,132.818175,1.000000,95.951334,1.965183,8.402472,2.000000,214.668496,0.859264,150.000000,1.000000,192.301231,3.795233,4.447059,1.000000,4
/home/daniel/Projects/ppsevolution/data/maps/custom_maps/Custom_10_Run_0_Map.csv,squared_error,1.0257952075227962e-05,0.4986,0.3643,0.013324,0.568822,1.000000,0.990983,0.223557,0.429531,0.954238,0.000000,0.342444,0.371367,1.000000,1.000000,1.000000,0.724590,0.266823,0.000000,127.331626,1.088540,150.000000,0.990983,45.487835,4.580541,9.588146,0.000000,184.927780,0.977965,150.000000,1.000000,200.000000,7.383606,3.401406,0.000000,5
/home/daniel/Projects/ppsevolution/data/maps/custom_maps/Custom_10_Run_0_Map.csv,squared_error,1.0876390660406111e-05,0.5043,0.3617,0.049316,1.000000,1.000000,1.000000,0.335727,0.082561,0.708689,2.000000,0.690728,0.278233,1.000000,1.000000,1.000000,0.272973,0.225423,1.000000,133.630337,1.330000,150.000000,1.000000,67.809604,1.284334,7.378202,2.000000,245.877364,0.925811,150.000000,1.000000,200.000000,3.093239,3.028807,1.000000,6
/home/daniel/Projects/ppsevolution/data/maps/custom_maps/Custom_10_Run_0_Map.csv,squared_error,2.499114968969691e-07,0.5007,0.3599,0.022012,0.875028,0.643625,1.000000,0.221537,0.005430,1.000000,2.000000,0.167294,0.026136,0.972682,1.000000,1.000000,0.770990,0.187404,2.000000,128.852111,1.260015,99.751055,1.000000,45.085898,0.551586,10.000000,2.000000,154.276498,0.784636,146.148214,1.000000,200.000000,7.824406,2.686635,2.000000,7
/home/daniel/Projects/ppsevolution/data/maps/custom_maps/Custom_10_Run_0_Map.csv,squared_error,2.1660836467731413e-06,0.4981,0.3607,0.000000,0.790412,1.000000,1.000000,0.150733,0.142860,1.000000,2.000000,0.789634,0.000000,0.900877,1.000000,0.928622,0.748957,0.307888,2.000000,125.000000,1.212631,150.000000,1.000000,30.995945,1.857170,10.000000,2.000000,263.185887,0.770000,136.023685,1.000000,185.795764,7.615087,3.770993,2.000000,8
/home/daniel/Projects/ppsevolution/data/maps/custom_maps/Custom_10_Run_0_Map.csv,squared_error,2.491698359565951e-06,0.4984,0.3615,0.000000,1.000000,0.553107,1.000000,0.927094,0.311358,1.000000,2.000000,0.171670,0.820828,0.841719,1.000000,0.753692,0.639396,1.000000,1.000000,125.000000,1.330000,86.988095,1.000000,185.491681,3.457903,10.000000,2.000000,155.042279,1.229663,127.682449,1.000000,150.984783,6.574262,10.000000,1.000000,9
