/home/daniel/Projects/ppsevolution/data/maps/custom_maps/Custom_1_Run_0_Map.csv,0.000000,0.825752,0.271477,1.000000,0.110329,0.126673,1.000000,2.000000,0.198893,0.642281,1.000000,1.000000,0.872578,0.365857,1.000000,2.000000
/home/daniel/Projects/ppsevolution/data/maps/custom_maps/Custom_1_Run_0_Map.csv,0.008332,0.758200,0.488850,1.000000,0.000000,0.024843,1.000000,2.000000,0.804208,0.000000,0.722302,1.000000,0.978412,0.773066,0.372641,2.000000
/home/daniel/Projects/ppsevolution/data/maps/custom_maps/Custom_1_Run_0_Map.csv,0.000000,0.389157,0.566361,0.986227,0.000000,0.819833,0.898089,2.000000,0.402955,0.000000,0.895221,1.000000,0.262241,0.867492,0.515254,2.000000
/home/daniel/Projects/ppsevolution/data/maps/custom_maps/Custom_1_Run_0_Map.csv,0.223292,0.872812,0.405690,1.000000,0.035481,0.133453,1.000000,2.000000,0.758322,0.013844,0.799650,1.000000,1.000000,0.738285,0.752249,2.000000
/home/daniel/Projects/ppsevolution/data/maps/custom_maps/Custom_1_Run_0_Map.csv,0.000000,1.000000,0.227181,1.000000,0.000000,0.345982,0.877523,2.000000,0.330843,0.281183,0.851832,1.000000,0.858405,0.801919,1.000000,2.000000
/home/daniel/Projects/ppsevolution/data/maps/custom_maps/Custom_1_Run_0_Map.csv,0.000000,0.775558,0.276107,1.000000,0.380303,0.550485,0.981768,2.000000,0.185624,0.000000,1.000000,1.000000,1.000000,1.000000,0.052286,2.000000
/home/daniel/Projects/ppsevolution/data/maps/custom_maps/Custom_1_Run_0_Map.csv,0.000000,0.425838,0.633950,1.000000,0.196099,0.235843,0.998483,2.000000,0.705888,0.087454,0.884731,1.000000,0.652331,0.289265,0.000000,2.000000
/home/daniel/Projects/ppsevolution/data/maps/custom_maps/Custom_1_Run_0_Map.csv,0.008863,0.481007,0.740957,1.000000,0.000000,0.235302,1.000000,2.000000,0.994139,0.099408,0.944207,1.000000,0.950458,0.735873,0.341666,2.000000
/home/daniel/Projects/ppsevolution/data/maps/custom_maps/Custom_1_Run_0_Map.csv,0.000000,0.850001,0.637643,1.000000,0.000000,0.000000,0.910080,2.000000,0.740028,0.000000,1.000000,1.000000,0.965453,0.703620,0.318957,2.000000
/home/daniel/Projects/ppsevolution/data/maps/custom_maps/Custom_1_Run_0_Map.csv,0.000000,0.705940,0.643166,1.000000,0.157673,0.098589,0.793224,2.000000,0.917705,0.247196,1.000000,1.000000,1.000000,0.652065,0.730671,2.000000
/home/daniel/Projects/ppsevolution/data/maps/custom_maps/Custom_2_Run_0_Map.csv,0.000000,0.862312,0.550111,1.000000,0.129640,0.000000,1.000000,2.000000,0.904118,0.000000,1.000000,1.000000,0.897506,0.998490,1.000000,2.000000
/home/daniel/Projects/ppsevolution/data/maps/custom_maps/Custom_2_Run_0_Map.csv,0.000000,0.774807,0.589457,1.000000,0.000000,0.129101,1.000000,2.000000,0.801669,0.299536,1.000000,1.000000,1.000000,1.000000,1.000000,2.000000
/home/daniel/Projects/ppsevolution/data/maps/custom_maps/Custom_2_Run_0_Map.csv,0.000000,0.925995,0.701141,1.000000,0.347302,0.026592,1.000000,2.000000,0.820034,0.000000,1.000000,1.000000,0.554240,0.949334,1.000000,2.000000
/home/daniel/Projects/ppsevolution/data/maps/custom_maps/Custom_2_Run_0_Map.csv,0.000000,1.000000,0.591223,1.000000,0.000000,0.327333,0.936885,2.000000,0.929725,0.490561,0.938801,1.000000,0.932658,0.868433,0.962542,2.000000
/home/daniel/Projects/ppsevolution/data/maps/custom_maps/Custom_2_Run_0_Map.csv,0.116845,0.701840,0.482105,1.000000,0.146939,0.366455,1.000000,2.000000,0.560001,0.097976,0.971318,1.000000,0.711544,0.818418,1.000000,2.000000
/home/daniel/Projects/ppsevolution/data/maps/custom_maps/Custom_2_Run_0_Map.csv,0.000000,0.832195,0.516666,1.000000,0.019233,0.000000,0.839719,2.000000,0.517289,0.152350,0.979904,1.000000,0.780640,1.000000,1.000000,2.000000
/home/daniel/Projects/ppsevolution/data/maps/custom_maps/Custom_2_Run_0_Map.csv,0.000000,1.000000,0.679858,1.000000,0.353300,0.000000,0.921425,2.000000,0.843953,0.453737,1.000000,1.000000,0.532870,0.771611,0.741883,2.000000
/home/daniel/Projects/ppsevolution/data/maps/custom_maps/Custom_2_Run_0_Map.csv,0.086462,1.000000,0.547638,1.000000,0.000000,0.000000,0.739233,2.000000,0.938661,0.416576,0.930703,1.000000,0.671449,1.000000,1.000000,2.000000
/home/daniel/Projects/ppsevolution/data/maps/custom_maps/Custom_2_Run_0_Map.csv,0.000000,1.000000,0.726276,1.000000,0.103739,0.082516,1.000000,2.000000,0.860087,0.425850,1.000000,1.000000,0.878444,0.632892,0.536292,2.000000
/home/daniel/Projects/ppsevolution/data/maps/custom_maps/Custom_2_Run_0_Map.csv,0.000000,0.892007,0.796141,1.000000,0.211222,0.000000,1.000000,2.000000,1.000000,0.378489,1.000000,1.000000,0.944610,0.930358,0.934172,2.000000
/home/daniel/Projects/ppsevolution/data/maps/custom_maps/Custom_3_Run_0_Map.csv,0.000000,0.827342,1.000000,0.972245,0.269232,0.481620,0.963671,2.000000,0.000000,0.353579,0.952725,1.000000,0.848143,0.091129,0.952465,2.000000
/home/daniel/Projects/ppsevolution/data/maps/custom_maps/Custom_3_Run_0_Map.csv,0.000000,0.279692,0.938241,0.987060,0.001426,0.000000,1.000000,2.000000,0.000000,0.128829,1.000000,1.000000,0.770119,0.111931,0.793033,2.000000
/home/daniel/Projects/ppsevolution/data/maps/custom_maps/Custom_3_Run_0_Map.csv,0.000000,0.710822,0.964353,0.986636,0.000000,0.347088,0.995720,2.000000,0.066952,0.365396,1.000000,1.000000,0.982510,0.188722,0.793135,2.000000
/home/daniel/Projects/ppsevolution/data/maps/custom_maps/Custom_3_Run_0_Map.csv,0.015961,0.809511,1.000000,0.984152,0.209657,0.000000,0.811515,2.000000,0.060775,0.049887,1.000000,1.000000,0.957919,0.011696,1.000000,2.000000
/home/daniel/Projects/ppsevolution/data/maps/custom_maps/Custom_3_Run_0_Map.csv,0.000000,0.923237,0.833882,1.000000,0.000000,0.067323,1.000000,2.000000,0.233673,0.000000,1.000000,1.000000,0.994339,0.069537,0.851630,2.000000
/home/daniel/Projects/ppsevolution/data/maps/custom_maps/Custom_3_Run_0_Map.csv,0.000000,0.663126,1.000000,0.997539,0.000000,0.711072,1.000000,2.000000,0.013832,0.208940,0.963783,1.000000,0.932666,0.143488,0.876189,2.000000
/home/daniel/Projects/ppsevolution/data/maps/custom_maps/Custom_3_Run_0_Map.csv,0.000000,0.874172,1.000000,1.000000,0.005740,0.083759,0.996888,2.000000,0.245340,0.000000,1.000000,1.000000,0.719576,0.104078,0.926602,2.000000
/home/daniel/Projects/ppsevolution/data/maps/custom_maps/Custom_3_Run_0_Map.csv,0.014159,0.876894,1.000000,0.982148,0.074190,0.000000,1.000000,2.000000,0.456842,0.000000,1.000000,1.000000,1.000000,0.701504,0.577012,2.000000
/home/daniel/Projects/ppsevolution/data/maps/custom_maps/Custom_3_Run_0_Map.csv,0.000000,1.000000,0.942149,0.987409,0.000000,0.997932,1.000000,2.000000,0.113259,0.069977,0.991079,0.998431,0.349355,0.027205,0.924220,2.000000
/home/daniel/Projects/ppsevolution/data/maps/custom_maps/Custom_3_Run_0_Map.csv,0.015449,0.929860,1.000000,0.976908,0.054104,0.000000,1.000000,2.000000,0.000000,0.000000,0.985916,1.000000,0.930012,0.094721,0.810747,2.000000
/home/daniel/Projects/ppsevolution/data/maps/custom_maps/Custom_4_Run_0_Map.csv,0.027951,0.938102,0.631009,1.000000,0.143693,0.021893,0.987569,2.000000,0.000000,0.496349,0.973059,1.000000,0.891511,0.572998,0.811952,2.000000
/home/daniel/Projects/ppsevolution/data/maps/custom_maps/Custom_4_Run_0_Map.csv,0.014674,0.808071,0.876553,1.000000,0.000000,0.313710,0.883099,2.000000,0.257681,0.097614,0.964565,1.000000,1.000000,0.644476,0.135012,2.000000
/home/daniel/Projects/ppsevolution/data/maps/custom_maps/Custom_4_Run_0_Map.csv,0.000000,0.567217,0.988109,1.000000,0.000000,0.000000,1.000000,2.000000,0.546898,0.018159,1.000000,1.000000,0.967388,0.664971,0.649851,2.000000
/home/daniel/Projects/ppsevolution/data/maps/custom_maps/Custom_4_Run_0_Map.csv,0.000000,0.298648,0.845093,1.000000,0.000000,0.000000,0.872792,2.000000,0.354232,0.302319,0.967776,1.000000,0.702591,0.815125,0.182098,2.000000
/home/daniel/Projects/ppsevolution/data/maps/custom_maps/Custom_4_Run_0_Map.csv,0.000000,0.883409,0.851797,1.000000,0.018366,0.148756,1.000000,2.000000,0.265890,0.000000,0.964040,1.000000,0.503397,0.918398,0.636583,2.000000
/home/daniel/Projects/ppsevolution/data/maps/custom_maps/Custom_4_Run_0_Map.csv,0.000000,0.312087,0.880551,1.000000,0.040469,0.387113,0.962159,2.000000,0.358061,0.000000,0.957323,1.000000,0.889955,0.884943,0.866657,2.000000
/home/daniel/Projects/ppsevolution/data/maps/custom_maps/Custom_4_Run_0_Map.csv,0.000000,0.663672,1.000000,1.000000,0.126027,0.000000,0.865097,2.000000,0.493022,0.000000,1.000000,1.000000,1.000000,0.057261,0.557416,2.000000
/home/daniel/Projects/ppsevolution/data/maps/custom_maps/Custom_4_Run_0_Map.csv,0.000000,0.356928,0.887965,1.000000,0.000000,0.044216,0.919379,2.000000,0.427769,0.216520,1.000000,1.000000,0.641730,0.562818,1.000000,2.000000
/home/daniel/Projects/ppsevolution/data/maps/custom_maps/Custom_4_Run_0_Map.csv,0.040258,0.686602,0.989044,1.000000,0.025899,0.000000,0.982728,2.000000,0.570599,0.000000,1.000000,1.000000,0.394891,0.665318,0.284554,2.000000
/home/daniel/Projects/ppsevolution/data/maps/custom_maps/Custom_4_Run_0_Map.csv,0.033940,0.511103,1.000000,1.000000,0.120056,0.036916,0.953687,2.000000,0.611701,0.045863,0.994697,1.000000,0.541813,0.954093,0.163482,2.000000
/home/daniel/Projects/ppsevolution/data/maps/custom_maps/Custom_5_Run_0_Map.csv,0.070900,0.718754,1.000000,0.966872,0.000000,0.376392,1.000000,2.000000,0.000000,0.075442,0.913194,1.000000,0.716115,0.142244,0.812415,0.000000
/home/daniel/Projects/ppsevolution/data/maps/custom_maps/Custom_5_Run_0_Map.csv,0.000000,0.831695,1.000000,0.972246,0.000000,0.378517,0.871500,2.000000,0.000000,0.650395,1.000000,1.000000,0.865049,0.234499,0.252464,2.000000
/home/daniel/Projects/ppsevolution/data/maps/custom_maps/Custom_5_Run_0_Map.csv,0.031195,0.599162,1.000000,0.963330,0.619729,0.597647,0.984145,2.000000,0.000000,0.048620,0.798515,1.000000,0.562781,0.000000,1.000000,1.000000
/home/daniel/Projects/ppsevolution/data/maps/custom_maps/Custom_5_Run_0_Map.csv,0.158233,0.473539,1.000000,0.972226,0.112913,0.256698,0.850911,2.000000,0.019553,0.000000,1.000000,1.000000,0.885478,0.800507,0.832201,2.000000
/home/daniel/Projects/ppsevolution/data/maps/custom_maps/Custom_5_Run_0_Map.csv,0.162817,0.692776,1.000000,0.955167,0.000000,0.424084,1.000000,2.000000,0.000000,0.020982,0.842043,1.000000,0.799789,0.130872,0.583060,2.000000
/home/daniel/Projects/ppsevolution/data/maps/custom_maps/Custom_5_Run_0_Map.csv,0.000000,0.380102,1.000000,0.978690,0.645023,0.121107,1.000000,2.000000,0.000000,0.000000,0.907193,1.000000,1.000000,0.110454,0.261790,0.000000
/home/daniel/Projects/ppsevolution/data/maps/custom_maps/Custom_5_Run_0_Map.csv,0.086473,0.601132,1.000000,0.972324,0.110814,0.316443,1.000000,2.000000,0.000000,0.589795,0.895540,1.000000,1.000000,0.594396,0.000000,2.000000
/home/daniel/Projects/ppsevolution/data/maps/custom_maps/Custom_5_Run_0_Map.csv,0.041214,0.665895,1.000000,0.972046,0.126912,0.268344,1.000000,2.000000,0.000000,0.059518,1.000000,1.000000,0.960023,0.407590,0.056024,0.000000
/home/daniel/Projects/ppsevolution/data/maps/custom_maps/Custom_5_Run_0_Map.csv,0.226773,0.662233,0.994648,0.967196,0.039514,0.015537,1.000000,2.000000,0.000000,0.192962,0.855512,1.000000,0.889571,0.411882,0.568648,2.000000
/home/daniel/Projects/ppsevolution/data/maps/custom_maps/Custom_5_Run_0_Map.csv,0.000000,0.740251,1.000000,0.974118,0.000000,0.738054,1.000000,2.000000,0.000000,0.133026,0.985508,1.000000,0.965064,0.070790,0.433534,0.000000
/home/daniel/Projects/ppsevolution/data/maps/custom_maps/Custom_6_Run_0_Map.csv,0.027710,0.828936,0.000000,1.000000,0.025991,0.000000,0.395896,2.000000,0.908388,0.116738,0.984499,0.973486,0.903341,0.987414,0.974024,2.000000
/home/daniel/Projects/ppsevolution/data/maps/custom_maps/Custom_6_Run_0_Map.csv,0.337594,0.744383,0.000000,1.000000,0.000000,0.272004,0.000000,2.000000,0.934618,0.143315,0.940424,1.000000,0.920703,0.975564,0.971409,2.000000
/home/daniel/Projects/ppsevolution/data/maps/custom_maps/Custom_6_Run_0_Map.csv,0.136622,0.936155,0.000000,1.000000,0.058663,0.220968,0.837832,2.000000,1.000000,0.026373,0.953347,0.942637,0.712876,0.879331,1.000000,2.000000
/home/daniel/Projects/ppsevolution/data/maps/custom_maps/Custom_6_Run_0_Map.csv,0.000000,1.000000,0.000000,1.000000,0.031595,0.028663,0.488806,2.000000,1.000000,0.000000,1.000000,0.968787,0.948675,1.000000,0.560086,2.000000
/home/daniel/Projects/ppsevolution/data/maps/custom_maps/Custom_6_Run_0_Map.csv,0.000000,0.924811,0.002197,1.000000,0.058418,0.260844,0.717879,2.000000,1.000000,0.326082,1.000000,0.914496,1.000000,0.993079,0.443147,2.000000
/home/daniel/Projects/ppsevolution/data/maps/custom_maps/Custom_6_Run_0_Map.csv,0.000000,0.889684,0.000000,1.000000,0.000000,0.000288,1.000000,2.000000,1.000000,0.000000,1.000000,0.920884,0.977807,0.990755,0.074299,2.000000
/home/daniel/Projects/ppsevolution/data/maps/custom_maps/Custom_6_Run_0_Map.csv,0.228872,1.000000,0.005795,1.000000,0.065659,0.000000,0.000000,2.000000,1.000000,0.197738,0.894757,1.000000,1.000000,0.713444,0.655114,2.000000
/home/daniel/Projects/ppsevolution/data/maps/custom_maps/Custom_6_Run_0_Map.csv,0.126692,0.990746,0.001150,1.000000,0.042790,0.299207,0.337485,2.000000,0.998208,0.000000,1.000000,0.985063,1.000000,0.942785,0.543878,2.000000
/home/daniel/Projects/ppsevolution/data/maps/custom_maps/Custom_6_Run_0_Map.csv,0.000000,1.000000,0.000000,1.000000,0.095289,0.297689,0.713613,2.000000,1.000000,0.131349,0.973837,0.931722,0.853718,0.833191,0.606030,2.000000
/home/daniel/Projects/ppsevolution/data/maps/custom_maps/Custom_6_Run_0_Map.csv,0.093712,0.983910,0.000000,1.000000,0.139587,0.000000,0.526497,2.000000,1.000000,0.000000,1.000000,1.000000,0.889355,1.000000,0.935636,2.000000
/home/daniel/Projects/ppsevolution/data/maps/custom_maps/Custom_7_Run_0_Map.csv,0.000000,1.000000,0.766680,1.000000,0.277973,0.148215,0.881438,2.000000,0.913204,0.166849,1.000000,1.000000,0.940189,0.986038,0.753071,2.000000
/home/daniel/Projects/ppsevolution/data/maps/custom_maps/Custom_7_Run_0_Map.csv,0.039246,0.439228,0.688734,1.000000,0.012232,0.199434,0.968077,2.000000,0.745526,0.321648,1.000000,1.000000,0.923196,0.782944,1.000000,2.000000
/home/daniel/Projects/ppsevolution/data/maps/custom_maps/Custom_7_Run_0_Map.csv,0.000000,0.576343,0.796737,1.000000,0.000000,0.239935,0.854495,2.000000,0.863333,0.224088,1.000000,1.000000,1.000000,0.922788,0.651862,2.000000
/home/daniel/Projects/ppsevolution/data/maps/custom_maps/Custom_7_Run_0_Map.csv,0.000000,0.758311,0.660977,1.000000,0.046519,0.196617,1.000000,2.000000,0.906990,0.090716,0.804036,1.000000,0.766489,0.940393,0.650356,2.000000
/home/daniel/Projects/ppsevolution/data/maps/custom_maps/Custom_7_Run_0_Map.csv,0.000000,0.558629,0.817478,1.000000,0.012366,0.000000,0.943657,2.000000,0.916355,0.289859,1.000000,1.000000,0.388124,0.855241,0.760354,2.000000
/home/daniel/Projects/ppsevolution/data/maps/custom_maps/Custom_7_Run_0_Map.csv,0.048469,0.874662,0.499581,1.000000,0.000000,0.187022,1.000000,2.000000,0.435981,0.078423,0.969612,1.000000,0.775305,1.000000,0.584596,2.000000
/home/daniel/Projects/ppsevolution/data/maps/custom_maps/Custom_7_Run_0_Map.csv,0.000000,0.962843,0.490647,1.000000,0.201332,0.047981,1.000000,2.000000,0.276910,0.000000,0.988671,1.000000,0.800442,0.749524,0.849263,2.000000
/home/daniel/Projects/ppsevolution/data/maps/custom_maps/Custom_7_Run_0_Map.csv,0.072503,0.779008,0.418565,1.000000,0.000000,0.000000,0.941356,2.000000,0.462662,0.250459,1.000000,1.000000,0.876434,0.826406,1.000000,2.000000
/home/daniel/Projects/ppsevolution/data/maps/custom_maps/Custom_7_Run_0_Map.csv,0.000000,0.436352,0.866141,0.997577,0.120110,0.230675,0.955311,2.000000,1.000000,0.084668,1.000000,1.000000,0.356582,0.873662,0.855890,2.000000
/home/daniel/Projects/ppsevolution/data/maps/custom_maps/Custom_7_Run_0_Map.csv,0.000000,1.000000,0.664871,1.000000,0.000000,0.264629,1.000000,2.000000,0.890091,0.259845,0.852723,1.000000,1.000000,0.978946,0.892962,2.000000
/home/daniel/Projects/ppsevolution/data/maps/custom_maps/Custom_8_Run_0_Map.csv,0.000000,0.947684,0.999436,1.000000,0.446642,0.082853,0.984978,2.000000,0.795523,0.224829,1.000000,1.000000,0.927110,0.796535,0.434208,2.000000
/home/daniel/Projects/ppsevolution/data/maps/custom_maps/Custom_8_Run_0_Map.csv,0.000000,0.436888,0.957849,1.000000,0.069377,0.190390,1.000000,2.000000,0.494555,0.000000,1.000000,1.000000,0.959204,0.425621,0.830666,2.000000
/home/daniel/Projects/ppsevolution/data/maps/custom_maps/Custom_8_Run_0_Map.csv,0.000000,0.836379,0.960878,1.000000,0.201925,0.100448,1.000000,2.000000,0.585671,0.000000,1.000000,1.000000,0.472585,0.000000,0.947360,2.000000
/home/daniel/Projects/ppsevolution/data/maps/custom_maps/Custom_8_Run_0_Map.csv,0.059192,1.000000,0.842630,1.000000,0.377712,0.000000,1.000000,2.000000,0.521024,0.051250,1.000000,1.000000,0.820981,0.466133,0.654208,2.000000
/home/daniel/Projects/ppsevolution/data/maps/custom_maps/Custom_8_Run_0_Map.csv,0.008879,1.000000,0.730304,0.987108,0.060314,0.024351,1.000000,2.000000,0.148249,0.512768,1.000000,1.000000,1.000000,0.910571,0.919822,2.000000
/home/daniel/Projects/ppsevolution/data/maps/custom_maps/Custom_8_Run_0_Map.csv,0.000000,0.981741,0.933736,1.000000,0.122187,0.000000,1.000000,2.000000,0.683511,0.642679,0.963292,1.000000,0.645697,0.398501,0.416497,2.000000
/home/daniel/Projects/ppsevolution/data/maps/custom_maps/Custom_8_Run_0_Map.csv,0.000000,0.989711,0.773953,1.000000,0.000000,0.082045,1.000000,2.000000,0.305816,0.000000,0.970131,1.000000,0.898490,0.524636,0.010903,2.000000
/home/daniel/Projects/ppsevolution/data/maps/custom_maps/Custom_8_Run_0_Map.csv,0.000000,0.455979,0.742798,1.000000,0.000000,0.176242,0.883741,2.000000,0.264001,0.000000,1.000000,1.000000,0.774431,0.601971,0.604010,2.000000
/home/daniel/Projects/ppsevolution/data/maps/custom_maps/Custom_8_Run_0_Map.csv,0.000000,0.631582,0.731326,0.985085,0.000000,0.183119,0.976658,2.000000,0.076836,0.741319,1.000000,1.000000,0.782404,0.854959,0.690425,2.000000
/home/daniel/Projects/ppsevolution/data/maps/custom_maps/Custom_8_Run_0_Map.csv,0.000000,0.967897,0.602134,1.000000,0.000000,0.000000,0.966298,2.000000,0.110497,0.169285,0.882459,1.000000,0.853774,0.625313,0.073801,2.000000
/home/daniel/Projects/ppsevolution/data/maps/custom_maps/Custom_9_Run_0_Map.csv,0.021676,0.881751,0.759863,0.981158,0.067415,0.297403,1.000000,2.000000,0.129027,0.417871,0.867302,1.000000,0.489500,0.228579,0.444632,2.000000
/home/daniel/Projects/ppsevolution/data/maps/custom_maps/Custom_9_Run_0_Map.csv,0.015437,0.988850,0.787779,1.000000,0.000000,0.128446,1.000000,2.000000,0.813384,0.001110,1.000000,1.000000,0.714546,0.880057,0.718638,2.000000
/home/daniel/Projects/ppsevolution/data/maps/custom_maps/Custom_9_Run_0_Map.csv,0.000000,0.539593,1.000000,1.000000,0.061777,0.000000,0.730701,2.000000,0.867202,0.206498,0.940022,1.000000,0.748854,0.076589,0.427420,2.000000
/home/daniel/Projects/ppsevolution/data/maps/custom_maps/Custom_9_Run_0_Map.csv,0.062715,0.729501,0.461178,1.000000,0.070953,0.000000,1.000000,2.000000,0.215298,0.435246,1.000000,1.000000,0.643109,0.345479,0.846707,2.000000
/home/daniel/Projects/ppsevolution/data/maps/custom_maps/Custom_9_Run_0_Map.csv,0.000000,0.934601,0.591186,1.000000,0.255881,0.395114,1.000000,1.000000,0.142329,0.337319,1.000000,1.000000,0.649003,0.176011,0.328713,2.000000
/home/daniel/Projects/ppsevolution/data/maps/custom_maps/Custom_9_Run_0_Map.csv,0.000000,0.304549,0.666220,1.000000,0.101381,0.127542,1.000000,2.000000,0.471107,0.005700,0.945658,1.000000,0.772736,0.235273,0.813566,2.000000
/home/daniel/Projects/ppsevolution/data/maps/custom_maps/Custom_9_Run_0_Map.csv,0.023937,0.784901,0.978956,1.000000,0.041248,0.045958,1.000000,2.000000,0.836279,0.119929,0.950259,1.000000,0.600130,0.000000,0.177471,2.000000
/home/daniel/Projects/ppsevolution/data/maps/custom_maps/Custom_9_Run_0_Map.csv,0.000000,1.000000,0.844434,0.993203,0.000000,0.212930,1.000000,2.000000,0.520324,0.418952,0.922242,1.000000,0.563850,0.023883,0.000000,2.000000
/home/daniel/Projects/ppsevolution/data/maps/custom_maps/Custom_9_Run_0_Map.csv,0.000000,0.974774,0.516028,1.000000,0.004281,0.174433,0.952305,2.000000,0.330087,0.586339,1.000000,1.000000,0.876401,0.858497,0.257490,2.000000
/home/daniel/Projects/ppsevolution/data/maps/custom_maps/Custom_9_Run_0_Map.csv,0.000000,0.873510,0.418777,1.000000,0.000000,0.059641,0.974357,2.000000,0.000000,0.271043,1.000000,1.000000,0.569997,0.694783,0.557372,2.000000
/home/daniel/Projects/ppsevolution/data/maps/custom_maps/Custom_10_Run_0_Map.csv,0.000000,0.486826,1.000000,1.000000,0.058426,0.434501,1.000000,2.000000,0.010690,0.024828,1.000000,1.000000,0.773089,0.000000,0.421181,1.000000
/home/daniel/Projects/ppsevolution/data/maps/custom_maps/Custom_10_Run_0_Map.csv,0.000000,0.349993,1.000000,1.000000,0.165822,1.000000,1.000000,2.000000,0.171892,0.000000,1.000000,1.000000,1.000000,0.092514,1.000000,0.000000
/home/daniel/Projects/ppsevolution/data/maps/custom_maps/Custom_10_Run_0_Map.csv,0.000000,0.899859,1.000000,1.000000,0.257472,0.868510,1.000000,2.000000,0.000000,0.203249,1.000000,1.000000,0.882386,0.183584,1.000000,2.000000
/home/daniel/Projects/ppsevolution/data/maps/custom_maps/Custom_10_Run_0_Map.csv,0.157300,0.061361,1.000000,0.983642,0.151513,0.168114,0.988177,2.000000,0.000000,0.063822,0.758614,1.000000,0.835619,0.019075,1.000000,0.000000
/home/daniel/Projects/ppsevolution/data/maps/custom_maps/Custom_10_Run_0_Map.csv,0.000000,0.458526,1.000000,0.973691,0.144252,1.000000,0.990216,2.000000,0.000000,0.754246,0.878475,1.000000,0.984605,0.084172,1.000000,0.000000
/home/daniel/Projects/ppsevolution/data/maps/custom_maps/Custom_10_Run_0_Map.csv,0.269499,0.975136,1.000000,0.970564,0.000000,0.620262,1.000000,2.000000,0.000000,0.385002,1.000000,1.000000,0.669753,0.000000,1.000000,0.000000
/home/daniel/Projects/ppsevolution/data/maps/custom_maps/Custom_10_Run_0_Map.csv,0.000000,0.970585,1.000000,1.000000,0.000000,0.464293,1.000000,2.000000,0.012820,0.406134,1.000000,1.000000,1.000000,0.000000,0.955168,1.000000
/home/daniel/Projects/ppsevolution/data/maps/custom_maps/Custom_10_Run_0_Map.csv,0.000000,1.000000,1.000000,1.000000,0.012563,0.029728,0.961004,2.000000,0.000000,0.030695,1.000000,1.000000,0.831572,0.000000,0.168896,2.000000
/home/daniel/Projects/ppsevolution/data/maps/custom_maps/Custom_10_Run_0_Map.csv,0.000000,0.977374,1.000000,1.000000,0.042482,0.898838,1.000000,2.000000,0.000000,0.066218,1.000000,1.000000,0.704088,0.034449,0.841450,0.000000
/home/daniel/Projects/ppsevolution/data/maps/custom_maps/Custom_10_Run_0_Map.csv,0.148894,0.755754,1.000000,0.985404,0.000000,0.558298,1.000000,2.000000,0.000000,0.507433,0.986957,1.000000,0.864860,0.000000,0.846451,2.000000
