/home/daniel/Projects/ppsevolution/data/maps/custom_maps/Custom_1_Run_0_Map.csv,0.799186,0.754672,0.000000,0.000000,0.000000,0.000000,0.738426,2.000000,1.000000,0.364762,0.000000,0.000000,1.000000,0.680565,0.000000,2.000000
/home/daniel/Projects/ppsevolution/data/maps/custom_maps/Custom_1_Run_0_Map.csv,0.803461,0.779004,0.000000,0.000000,0.371833,0.000000,0.821229,0.000000,1.000000,0.298773,0.000000,0.008841,1.000000,1.000000,0.000000,1.000000
/home/daniel/Projects/ppsevolution/data/maps/custom_maps/Custom_1_Run_0_Map.csv,0.788624,0.708425,0.000000,0.000000,0.312965,0.000000,0.825197,0.000000,1.000000,0.376863,0.000000,0.000000,1.000000,0.886334,0.000000,0.000000
/home/daniel/Projects/ppsevolution/data/maps/custom_maps/Custom_1_Run_0_Map.csv,0.782363,1.000000,0.000000,0.000000,0.072481,0.164683,0.705151,2.000000,1.000000,0.096510,0.000000,0.000000,0.975530,1.000000,0.000000,0.000000
/home/daniel/Projects/ppsevolution/data/maps/custom_maps/Custom_1_Run_0_Map.csv,0.788548,1.000000,0.000000,0.000000,0.000000,0.346092,0.856176,0.000000,1.000000,0.446314,0.000000,0.000000,1.000000,0.953226,0.000000,2.000000
/home/daniel/Projects/ppsevolution/data/maps/custom_maps/Custom_1_Run_0_Map.csv,0.785229,0.932091,0.000000,0.000000,0.350150,0.129033,0.770569,0.000000,1.000000,0.198248,0.000000,0.000000,0.942917,0.771227,0.000000,0.000000
/home/daniel/Projects/ppsevolution/data/maps/custom_maps/Custom_1_Run_0_Map.csv,0.801452,1.000000,0.000000,0.000000,0.108054,0.260484,0.755331,1.000000,1.000000,0.363782,0.000000,0.002455,0.891186,0.708965,0.000000,1.000000
/home/daniel/Projects/ppsevolution/data/maps/custom_maps/Custom_1_Run_0_Map.csv,0.815253,0.909737,0.000000,0.000000,0.399358,0.142411,0.713899,0.000000,1.000000,0.103825,0.000000,0.000000,0.718679,0.963037,0.094189,1.000000
/home/daniel/Projects/ppsevolution/data/maps/custom_maps/Custom_1_Run_0_Map.csv,0.791715,0.917714,0.000000,0.000000,0.000000,0.256738,0.292627,2.000000,0.936954,0.000000,0.000000,0.000000,0.522540,1.000000,0.000000,1.000000
/home/daniel/Projects/ppsevolution/data/maps/custom_maps/Custom_1_Run_0_Map.csv,0.779200,0.545429,0.000000,0.000000,0.350910,0.000000,0.812473,0.000000,1.000000,0.187895,0.000000,0.000000,0.976490,0.888782,0.000000,0.000000
/home/daniel/Projects/ppsevolution/data/maps/custom_maps/Custom_2_Run_0_Map.csv,0.053729,0.744426,0.063142,0.518782,0.061766,0.000000,0.880196,1.000000,0.975762,0.185483,0.000000,0.178101,0.972854,1.000000,0.058274,2.000000
/home/daniel/Projects/ppsevolution/data/maps/custom_maps/Custom_2_Run_0_Map.csv,0.334057,0.921555,0.005507,0.567619,0.105580,0.058944,0.653986,1.000000,0.990242,0.000000,0.000000,0.309753,1.000000,0.875086,0.046651,2.000000
/home/daniel/Projects/ppsevolution/data/maps/custom_maps/Custom_2_Run_0_Map.csv,0.147019,1.000000,0.148239,0.430005,0.233462,0.152233,0.887066,1.000000,1.000000,0.239982,0.000000,0.197466,0.855372,0.489441,0.126665,1.000000
/home/daniel/Projects/ppsevolution/data/maps/custom_maps/Custom_2_Run_0_Map.csv,0.438577,1.000000,0.000000,0.546160,0.292993,0.160377,1.000000,0.000000,1.000000,0.053931,0.000000,0.346551,0.838790,1.000000,0.029110,2.000000
/home/daniel/Projects/ppsevolution/data/maps/custom_maps/Custom_2_Run_0_Map.csv,0.217944,1.000000,0.051912,0.534534,0.277913,0.026798,0.654322,0.000000,0.982261,0.141358,0.000000,0.264869,0.881622,0.740641,0.000000,0.000000
/home/daniel/Projects/ppsevolution/data/maps/custom_maps/Custom_2_Run_0_Map.csv,0.420955,0.921109,0.132224,0.449613,0.188126,0.049344,0.587714,1.000000,0.996852,0.177056,0.000000,0.309740,0.799963,0.913363,0.247260,0.000000
/home/daniel/Projects/ppsevolution/data/maps/custom_maps/Custom_2_Run_0_Map.csv,0.261021,0.531344,0.000000,0.533787,0.075765,0.200727,0.938035,1.000000,0.929824,0.044414,0.000000,0.266625,1.000000,0.478638,0.065728,1.000000
/home/daniel/Projects/ppsevolution/data/maps/custom_maps/Custom_2_Run_0_Map.csv,0.030162,0.934202,0.000000,0.581007,0.121333,0.152009,0.836810,0.000000,1.000000,0.000000,0.024770,0.140136,0.691032,1.000000,0.104563,0.000000
/home/daniel/Projects/ppsevolution/data/maps/custom_maps/Custom_2_Run_0_Map.csv,0.407146,0.722995,0.000000,0.541933,0.000000,0.000000,0.877760,0.000000,0.935932,0.182953,0.000000,0.305561,1.000000,0.897523,0.332982,0.000000
/home/daniel/Projects/ppsevolution/data/maps/custom_maps/Custom_2_Run_0_Map.csv,0.003574,0.859014,0.000000,0.584392,0.187114,0.113756,0.728242,1.000000,1.000000,0.128338,0.000000,0.168010,1.000000,0.893452,0.000000,0.000000
/home/daniel/Projects/ppsevolution/data/maps/custom_maps/Custom_3_Run_0_Map.csv,0.340294,0.823507,0.138135,0.546021,0.066238,0.000000,0.796190,0.000000,1.000000,0.000000,0.000000,0.445959,0.941087,0.840758,0.000000,2.000000
/home/daniel/Projects/ppsevolution/data/maps/custom_maps/Custom_3_Run_0_Map.csv,0.148201,0.947536,0.000000,0.662753,0.000000,0.022982,0.815928,0.000000,1.000000,0.000000,0.009303,0.386376,0.954398,0.963595,0.031946,2.000000
/home/daniel/Projects/ppsevolution/data/maps/custom_maps/Custom_3_Run_0_Map.csv,0.394130,0.685911,0.253267,0.438426,0.070913,0.277000,0.633390,0.000000,0.969017,0.000000,0.000000,0.458028,1.000000,1.000000,0.000000,1.000000
/home/daniel/Projects/ppsevolution/data/maps/custom_maps/Custom_3_Run_0_Map.csv,0.221748,0.936944,0.227977,0.431113,0.000000,0.000000,1.000000,1.000000,0.970784,0.211411,0.000000,0.383601,1.000000,1.000000,0.000000,1.000000
/home/daniel/Projects/ppsevolution/data/maps/custom_maps/Custom_3_Run_0_Map.csv,0.043179,1.000000,0.025304,0.626671,0.257559,0.155879,0.912116,1.000000,1.000000,0.037210,0.000000,0.327514,0.996810,0.946597,0.064293,1.000000
/home/daniel/Projects/ppsevolution/data/maps/custom_maps/Custom_3_Run_0_Map.csv,0.312033,0.959471,0.147573,0.501546,0.145946,0.007555,1.000000,0.000000,0.949747,0.000000,0.000000,0.423477,1.000000,1.000000,0.043523,2.000000
/home/daniel/Projects/ppsevolution/data/maps/custom_maps/Custom_3_Run_0_Map.csv,0.085046,0.939901,0.000000,0.666989,0.130401,0.268399,0.492763,1.000000,0.973482,0.000000,0.000000,0.370853,1.000000,0.748924,0.000000,2.000000
/home/daniel/Projects/ppsevolution/data/maps/custom_maps/Custom_3_Run_0_Map.csv,0.335431,0.810414,0.000000,0.624569,0.171742,0.000000,1.000000,0.000000,0.943243,0.000000,0.000000,0.457228,1.000000,0.734946,0.000000,1.000000
/home/daniel/Projects/ppsevolution/data/maps/custom_maps/Custom_3_Run_0_Map.csv,0.228578,1.000000,0.000000,0.622340,0.000000,0.032580,1.000000,1.000000,0.959369,0.143960,0.000000,0.400402,0.905377,1.000000,0.091015,1.000000
/home/daniel/Projects/ppsevolution/data/maps/custom_maps/Custom_3_Run_0_Map.csv,0.151203,1.000000,0.125710,0.526517,0.130452,0.010572,1.000000,2.000000,1.000000,0.000000,0.028825,0.328892,1.000000,1.000000,0.000000,1.000000
/home/daniel/Projects/ppsevolution/data/maps/custom_maps/Custom_4_Run_0_Map.csv,0.693463,1.000000,0.000000,0.254231,0.109182,0.123465,0.614921,0.000000,0.853984,0.000000,0.000000,0.124690,0.908735,0.900894,0.159490,2.000000
/home/daniel/Projects/ppsevolution/data/maps/custom_maps/Custom_4_Run_0_Map.csv,0.459300,0.773899,0.002090,0.296131,0.050114,0.360431,0.859319,1.000000,1.000000,0.179293,0.000000,0.000000,0.905908,1.000000,0.010942,2.000000
/home/daniel/Projects/ppsevolution/data/maps/custom_maps/Custom_4_Run_0_Map.csv,0.820408,0.970389,0.000000,0.295147,0.194341,0.114111,0.662257,1.000000,1.000000,0.164148,0.092093,0.087862,0.753593,1.000000,0.000000,0.000000
/home/daniel/Projects/ppsevolution/data/maps/custom_maps/Custom_4_Run_0_Map.csv,0.420885,1.000000,0.000000,0.319230,0.057456,0.000000,0.766611,0.000000,1.000000,0.025637,0.000000,0.000000,1.000000,0.840983,0.000000,2.000000
/home/daniel/Projects/ppsevolution/data/maps/custom_maps/Custom_4_Run_0_Map.csv,0.473859,0.787020,0.021760,0.295251,0.000000,0.107335,0.719947,0.000000,0.989309,0.118572,0.000000,0.000000,1.000000,1.000000,0.145447,2.000000
/home/daniel/Projects/ppsevolution/data/maps/custom_maps/Custom_4_Run_0_Map.csv,0.485475,1.000000,0.032378,0.247664,0.144139,0.276000,0.854597,2.000000,1.000000,0.232267,0.000000,0.000000,0.612493,0.688329,0.000000,2.000000
/home/daniel/Projects/ppsevolution/data/maps/custom_maps/Custom_4_Run_0_Map.csv,0.886150,1.000000,0.000000,0.300484,0.100683,0.000000,0.536644,2.000000,1.000000,0.118101,0.000973,0.217403,0.957740,0.570083,0.136211,0.000000
/home/daniel/Projects/ppsevolution/data/maps/custom_maps/Custom_4_Run_0_Map.csv,0.454890,0.935599,0.000000,0.299403,0.000000,0.094788,0.883875,1.000000,1.000000,0.209285,0.000000,0.000000,0.656705,1.000000,0.074465,0.000000
/home/daniel/Projects/ppsevolution/data/maps/custom_maps/Custom_4_Run_0_Map.csv,0.425900,0.861111,0.000000,0.291940,0.105674,0.074918,0.652608,2.000000,0.933255,0.078462,0.000000,0.000000,1.000000,0.779237,0.000000,1.000000
/home/daniel/Projects/ppsevolution/data/maps/custom_maps/Custom_4_Run_0_Map.csv,0.536940,1.000000,0.000000,0.292656,0.010150,0.016814,0.968282,0.000000,1.000000,0.188431,0.049528,0.000000,0.568824,0.636318,0.000000,0.000000
/home/daniel/Projects/ppsevolution/data/maps/custom_maps/Custom_5_Run_0_Map.csv,0.488450,0.907293,0.049174,0.334516,0.115676,0.126604,1.000000,2.000000,0.929449,0.024749,0.054288,0.159543,0.875466,0.682489,0.138630,1.000000
/home/daniel/Projects/ppsevolution/data/maps/custom_maps/Custom_5_Run_0_Map.csv,0.368922,0.576386,0.000000,0.429453,0.002746,0.030000,0.922205,2.000000,1.000000,0.000000,0.000000,0.148750,0.966969,0.963066,0.264282,2.000000
/home/daniel/Projects/ppsevolution/data/maps/custom_maps/Custom_5_Run_0_Map.csv,0.339134,1.000000,0.114013,0.315377,0.136547,0.248145,0.938227,1.000000,1.000000,0.166975,0.000000,0.162623,1.000000,1.000000,0.000000,2.000000
/home/daniel/Projects/ppsevolution/data/maps/custom_maps/Custom_5_Run_0_Map.csv,0.104721,1.000000,0.013740,0.446804,0.134885,0.085639,0.635770,1.000000,0.966009,0.000000,0.072583,0.000000,1.000000,0.955075,0.000000,0.000000
/home/daniel/Projects/ppsevolution/data/maps/custom_maps/Custom_5_Run_0_Map.csv,0.386486,0.952469,0.000000,0.396757,0.170462,0.182306,0.879251,2.000000,0.905721,0.173972,0.056722,0.082318,0.977210,0.908440,0.415362,0.000000
/home/daniel/Projects/ppsevolution/data/maps/custom_maps/Custom_5_Run_0_Map.csv,0.177055,0.846211,0.000000,0.414709,0.000000,0.001663,1.000000,1.000000,0.932371,0.141399,0.017768,0.078523,0.989159,1.000000,0.000000,2.000000
/home/daniel/Projects/ppsevolution/data/maps/custom_maps/Custom_5_Run_0_Map.csv,0.395744,1.000000,0.000000,0.427256,0.000000,0.000000,1.000000,1.000000,1.000000,0.190481,0.171691,0.000000,0.872470,0.809935,0.155957,0.000000
/home/daniel/Projects/ppsevolution/data/maps/custom_maps/Custom_5_Run_0_Map.csv,0.606320,0.811022,0.000000,0.401064,0.244690,0.124184,0.939104,1.000000,0.943923,0.040059,0.005272,0.265041,0.880457,1.000000,0.294755,1.000000
/home/daniel/Projects/ppsevolution/data/maps/custom_maps/Custom_5_Run_0_Map.csv,0.439825,0.976512,0.051362,0.376357,0.094267,0.008862,1.000000,0.000000,1.000000,0.167557,0.008645,0.211220,0.731327,0.895688,0.041127,1.000000
/home/daniel/Projects/ppsevolution/data/maps/custom_maps/Custom_5_Run_0_Map.csv,0.484862,0.759188,0.028904,0.394105,0.232990,0.214916,1.000000,0.000000,1.000000,0.184264,0.000000,0.235680,1.000000,1.000000,0.000000,2.000000
/home/daniel/Projects/ppsevolution/data/maps/custom_maps/Custom_6_Run_0_Map.csv,0.038889,0.960608,0.000000,0.731799,0.006487,0.029729,0.908052,0.000000,0.951426,0.027151,0.000000,0.540620,1.000000,0.990553,0.000000,0.000000
/home/daniel/Projects/ppsevolution/data/maps/custom_maps/Custom_6_Run_0_Map.csv,0.000000,1.000000,0.235692,0.610481,0.000000,0.030000,0.843663,0.000000,1.000000,0.000000,0.000000,0.515053,1.000000,1.000000,0.000000,1.000000
/home/daniel/Projects/ppsevolution/data/maps/custom_maps/Custom_6_Run_0_Map.csv,0.000000,0.931823,0.098829,0.654268,0.000000,0.172443,1.000000,0.000000,0.856894,0.000000,0.000000,0.515237,1.000000,0.911883,0.043212,1.000000
/home/daniel/Projects/ppsevolution/data/maps/custom_maps/Custom_6_Run_0_Map.csv,0.159731,1.000000,0.210000,0.611340,0.119862,0.173082,0.860753,1.000000,1.000000,0.125177,0.000000,0.552658,1.000000,0.940415,0.001350,1.000000
/home/daniel/Projects/ppsevolution/data/maps/custom_maps/Custom_6_Run_0_Map.csv,0.099544,0.922077,0.113724,0.667777,0.000000,0.000000,0.849679,1.000000,0.952145,0.088600,0.000000,0.549869,0.915774,1.000000,0.000000,1.000000
/home/daniel/Projects/ppsevolution/data/maps/custom_maps/Custom_6_Run_0_Map.csv,0.193007,0.771054,0.041263,0.701268,0.030000,0.088070,1.000000,1.000000,0.959313,0.000000,0.198745,0.442599,0.887114,0.840900,0.000000,1.000000
/home/daniel/Projects/ppsevolution/data/maps/custom_maps/Custom_6_Run_0_Map.csv,0.030837,1.000000,0.175347,0.638240,0.030000,0.010591,0.969124,0.000000,1.000000,0.000000,0.000000,0.522410,0.944483,0.872051,0.001644,0.000000
/home/daniel/Projects/ppsevolution/data/maps/custom_maps/Custom_6_Run_0_Map.csv,0.017739,1.000000,0.000000,0.713074,0.117029,0.079674,0.898142,1.000000,0.876862,0.000000,0.015046,0.519993,1.000000,1.000000,0.026159,2.000000
/home/daniel/Projects/ppsevolution/data/maps/custom_maps/Custom_6_Run_0_Map.csv,0.000000,1.000000,0.051111,0.717023,0.000000,0.052590,0.913762,1.000000,1.000000,0.109634,0.000000,0.499762,0.961537,0.753399,0.350903,1.000000
/home/daniel/Projects/ppsevolution/data/maps/custom_maps/Custom_6_Run_0_Map.csv,0.000000,0.924242,0.217428,0.598948,0.000000,0.000000,0.995718,2.000000,1.000000,0.000000,0.000000,0.503836,0.928163,1.000000,0.000000,1.000000
/home/daniel/Projects/ppsevolution/data/maps/custom_maps/Custom_7_Run_0_Map.csv,0.275973,0.802042,0.205110,0.343254,0.000000,0.151114,0.874136,0.000000,0.990060,0.338055,0.031624,0.220853,0.761501,0.728379,0.000000,2.000000
/home/daniel/Projects/ppsevolution/data/maps/custom_maps/Custom_7_Run_0_Map.csv,0.430453,1.000000,0.059585,0.452815,0.066096,0.115016,0.964182,1.000000,1.000000,0.000000,0.000000,0.314543,0.850690,0.979372,0.042866,2.000000
/home/daniel/Projects/ppsevolution/data/maps/custom_maps/Custom_7_Run_0_Map.csv,0.259275,1.000000,0.066933,0.471874,0.031433,0.028395,0.704246,2.000000,1.000000,0.260383,0.000000,0.249510,0.902784,0.973664,0.000000,2.000000
/home/daniel/Projects/ppsevolution/data/maps/custom_maps/Custom_7_Run_0_Map.csv,0.000000,0.998181,0.000000,0.467595,0.000220,0.030000,0.996201,2.000000,0.840260,0.061895,0.007018,0.126445,0.582002,0.887117,0.000000,2.000000
/home/daniel/Projects/ppsevolution/data/maps/custom_maps/Custom_7_Run_0_Map.csv,0.370152,0.964554,0.276219,0.279848,0.000000,0.023343,0.597617,0.000000,1.000000,0.000000,0.026171,0.265536,1.000000,0.812116,0.000000,0.000000
/home/daniel/Projects/ppsevolution/data/maps/custom_maps/Custom_7_Run_0_Map.csv,0.229853,0.896506,0.000000,0.522386,0.063264,0.024397,1.000000,0.000000,1.000000,0.012331,0.001383,0.242332,0.921326,0.578982,0.000000,2.000000
/home/daniel/Projects/ppsevolution/data/maps/custom_maps/Custom_7_Run_0_Map.csv,0.175845,1.000000,0.000000,0.521456,0.089204,0.000000,0.912803,0.000000,0.971895,0.000000,0.000000,0.205994,0.809100,1.000000,0.135557,1.000000
/home/daniel/Projects/ppsevolution/data/maps/custom_maps/Custom_7_Run_0_Map.csv,0.264022,0.988261,0.005262,0.515442,0.055079,0.147852,0.938929,0.000000,0.983012,0.000000,0.072862,0.184628,0.883759,1.000000,0.000000,1.000000
/home/daniel/Projects/ppsevolution/data/maps/custom_maps/Custom_7_Run_0_Map.csv,0.219057,0.956366,0.000000,0.522364,0.001125,0.368178,1.000000,0.000000,1.000000,0.000000,0.039876,0.194094,1.000000,0.849279,0.000000,1.000000
/home/daniel/Projects/ppsevolution/data/maps/custom_maps/Custom_7_Run_0_Map.csv,0.557515,0.996800,0.000000,0.444273,0.000000,0.040141,0.869259,0.000000,0.812237,0.000000,0.071388,0.320222,1.000000,0.862825,0.000000,0.000000
/home/daniel/Projects/ppsevolution/data/maps/custom_maps/Custom_8_Run_0_Map.csv,0.200680,0.954433,0.052485,0.309515,0.036309,0.039692,1.000000,1.000000,1.000000,0.123702,0.000000,0.000000,0.712045,1.000000,0.000000,2.000000
/home/daniel/Projects/ppsevolution/data/maps/custom_maps/Custom_8_Run_0_Map.csv,0.288221,1.000000,0.000000,0.357439,0.061895,0.000000,0.959285,2.000000,1.000000,0.014179,0.000000,0.043649,0.900404,0.991717,0.000000,2.000000
/home/daniel/Projects/ppsevolution/data/maps/custom_maps/Custom_8_Run_0_Map.csv,0.504546,0.909192,0.072935,0.270488,0.156453,0.197863,0.917325,1.000000,1.000000,0.000000,0.000000,0.141518,0.845541,1.000000,0.046988,1.000000
/home/daniel/Projects/ppsevolution/data/maps/custom_maps/Custom_8_Run_0_Map.csv,0.225766,0.995110,0.061251,0.303527,0.268270,0.034875,1.000000,1.000000,1.000000,0.000000,0.000000,0.000000,0.965412,1.000000,0.182650,0.000000
/home/daniel/Projects/ppsevolution/data/maps/custom_maps/Custom_8_Run_0_Map.csv,0.221634,0.565850,0.000000,0.361914,0.264120,0.209295,0.885091,2.000000,1.000000,0.060657,0.000000,0.000000,0.844915,1.000000,0.092553,0.000000
/home/daniel/Projects/ppsevolution/data/maps/custom_maps/Custom_8_Run_0_Map.csv,0.447986,1.000000,0.136667,0.200410,0.177406,0.000000,0.829212,0.000000,0.926602,0.178436,0.107503,0.000000,1.000000,1.000000,0.049235,0.000000
/home/daniel/Projects/ppsevolution/data/maps/custom_maps/Custom_8_Run_0_Map.csv,0.430815,0.945784,0.000263,0.381763,0.125426,0.000000,0.555908,2.000000,1.000000,0.040651,0.083723,0.036271,0.740671,0.990285,0.000000,0.000000
/home/daniel/Projects/ppsevolution/data/maps/custom_maps/Custom_8_Run_0_Map.csv,0.169738,0.877986,0.000000,0.350556,0.026724,0.302620,0.995221,0.000000,0.938411,0.000000,0.000000,0.000000,0.973396,0.596548,0.000000,0.000000
/home/daniel/Projects/ppsevolution/data/maps/custom_maps/Custom_8_Run_0_Map.csv,0.416074,1.000000,0.034585,0.294512,0.012310,0.141899,0.774240,0.000000,0.876176,0.274084,0.085780,0.013206,0.811165,1.000000,0.012552,2.000000
/home/daniel/Projects/ppsevolution/data/maps/custom_maps/Custom_8_Run_0_Map.csv,0.488147,0.944185,0.000000,0.341837,0.000000,0.215538,0.922659,0.000000,0.960339,0.000000,0.000000,0.147162,0.778697,0.966628,0.016322,2.000000
/home/daniel/Projects/ppsevolution/data/maps/custom_maps/Custom_9_Run_0_Map.csv,0.483361,1.000000,0.000000,0.217863,0.185408,0.118210,0.607697,1.000000,1.000000,0.000000,0.000000,0.000000,1.000000,0.946777,0.015001,1.000000
/home/daniel/Projects/ppsevolution/data/maps/custom_maps/Custom_9_Run_0_Map.csv,0.448787,1.000000,0.000000,0.048918,0.044943,0.200032,0.666611,1.000000,0.617121,0.490200,0.000000,0.000000,0.608193,1.000000,0.017138,1.000000
/home/daniel/Projects/ppsevolution/data/maps/custom_maps/Custom_9_Run_0_Map.csv,0.562543,1.000000,0.059247,0.108072,0.144026,0.000000,1.000000,0.000000,1.000000,0.000000,0.000000,0.023041,0.518064,0.872081,0.150426,1.000000
/home/daniel/Projects/ppsevolution/data/maps/custom_maps/Custom_9_Run_0_Map.csv,0.477899,0.849156,0.000000,0.113950,0.000000,0.000000,0.804576,0.000000,0.782296,0.000000,0.000000,0.000000,0.919214,0.822728,0.139814,1.000000
/home/daniel/Projects/ppsevolution/data/maps/custom_maps/Custom_9_Run_0_Map.csv,0.483211,0.893186,0.000000,0.184806,0.000000,0.000000,0.867893,0.000000,0.948059,0.293136,0.007231,0.000000,1.000000,1.000000,0.000000,1.000000
/home/daniel/Projects/ppsevolution/data/maps/custom_maps/Custom_9_Run_0_Map.csv,0.457238,0.971217,0.000000,0.106316,0.088291,0.439826,1.000000,0.000000,0.812142,0.000000,0.000000,0.000000,1.000000,1.000000,0.000000,1.000000
/home/daniel/Projects/ppsevolution/data/maps/custom_maps/Custom_9_Run_0_Map.csv,0.500421,1.000000,0.000000,0.215984,0.000000,0.297172,0.681843,0.000000,0.979743,0.219784,0.000000,0.000000,0.959278,0.993554,0.137437,0.000000
/home/daniel/Projects/ppsevolution/data/maps/custom_maps/Custom_9_Run_0_Map.csv,0.519434,0.818455,0.000000,0.215191,0.325959,0.208577,0.554088,1.000000,1.000000,0.072154,0.000000,0.000000,0.799885,0.577920,0.064424,2.000000
/home/daniel/Projects/ppsevolution/data/maps/custom_maps/Custom_9_Run_0_Map.csv,0.510373,0.955559,0.016950,0.146364,0.479060,0.232459,1.000000,1.000000,0.972722,0.000000,0.000000,0.000000,1.000000,0.914157,0.063454,1.000000
/home/daniel/Projects/ppsevolution/data/maps/custom_maps/Custom_9_Run_0_Map.csv,0.514262,0.757144,0.000000,0.189463,0.054804,0.140676,0.904611,1.000000,1.000000,0.018847,0.000000,0.000000,1.000000,0.987497,0.083175,1.000000
/home/daniel/Projects/ppsevolution/data/maps/custom_maps/Custom_10_Run_0_Map.csv,0.327084,0.606587,0.000000,0.451373,0.130733,0.071059,1.000000,0.000000,0.940623,0.033132,0.000000,0.237251,0.871304,0.950938,0.018179,0.000000
/home/daniel/Projects/ppsevolution/data/maps/custom_maps/Custom_10_Run_0_Map.csv,0.309373,0.842120,0.045134,0.426609,0.073241,0.217285,0.777115,2.000000,1.000000,0.000000,0.123046,0.073161,1.000000,1.000000,0.000000,2.000000
/home/daniel/Projects/ppsevolution/data/maps/custom_maps/Custom_10_Run_0_Map.csv,0.405491,0.890133,0.044251,0.360766,0.320190,0.063804,1.000000,2.000000,0.869377,0.000000,0.109129,0.113249,1.000000,1.000000,0.234132,0.000000
/home/daniel/Projects/ppsevolution/data/maps/custom_maps/Custom_10_Run_0_Map.csv,0.657737,0.849070,0.084897,0.370874,0.000000,0.211953,1.000000,0.000000,1.000000,0.171517,0.000000,0.346080,0.833939,1.000000,0.158234,2.000000
/home/daniel/Projects/ppsevolution/data/maps/custom_maps/Custom_10_Run_0_Map.csv,0.205233,0.827984,0.000000,0.495798,0.000000,0.118025,0.799424,0.000000,1.000000,0.000000,0.000000,0.118833,1.000000,0.802615,0.430103,1.000000
/home/daniel/Projects/ppsevolution/data/maps/custom_maps/Custom_10_Run_0_Map.csv,0.293563,0.822918,0.042202,0.393887,0.030000,0.009865,0.960498,1.000000,0.893867,0.086461,0.000000,0.212641,1.000000,1.000000,0.076253,0.000000
/home/daniel/Projects/ppsevolution/data/maps/custom_maps/Custom_10_Run_0_Map.csv,0.323809,1.000000,0.034450,0.437899,0.000000,0.031200,0.824271,2.000000,1.000000,0.000000,0.000000,0.219547,0.953305,0.935661,0.049792,0.000000
/home/daniel/Projects/ppsevolution/data/maps/custom_maps/Custom_10_Run_0_Map.csv,0.420636,1.000000,0.000000,0.465779,0.000000,0.000000,0.756267,2.000000,1.000000,0.024079,0.000000,0.264419,0.675630,0.896014,0.000000,2.000000
/home/daniel/Projects/ppsevolution/data/maps/custom_maps/Custom_10_Run_0_Map.csv,0.158442,0.958409,0.000000,0.338442,0.089881,0.013698,0.639558,2.000000,0.579837,0.232775,0.000000,0.164220,0.815941,1.000000,0.000000,0.000000
/home/daniel/Projects/ppsevolution/data/maps/custom_maps/Custom_10_Run_0_Map.csv,0.395197,0.949774,0.000000,0.452847,0.041094,0.027926,0.429561,1.000000,0.848091,0.044054,0.000000,0.252368,1.000000,0.771603,0.172139,1.000000
