map,fitness,fitness value,team0ratio,time,HP,Speed,Damage,Acc,ClipSize,RateOfFire,NrBullets,Range,HP,Speed,Damage,Acc,ClipSize,RateOfFire,NrBullets,Range,HP,Speed,Damage,Acc,ClipSize,RateOfFire,NrBullets,Range,HP,Speed,Damage,Acc,ClipSize,RateOfFire,NrBullets,Range,Run,target team0ratio: 0.5,target time: 0.36
/home/daniel/Projects/ppsevolution/data/maps/custom_maps/Custom_1_Run_0_Map.csv,squared_error,1.1259256811988601e-05,0.5030,0.3563,0.000000,1.000000,0.107400,0.724110,0.030000,0.000000,0.974774,1.000000,0.988515,0.273967,0.000000,0.600000,1.000000,1.000000,0.000000,0.000000,125.000000,1.330000,24.143354,0.724110,6.970000,0.500000,9.772967,1.000000,297.990122,0.923421,9.000000,0.600000,200.000000,10.000000,1.000000,0.000000,0
/home/daniel/Projects/ppsevolution/data/maps/custom_maps/Custom_1_Run_0_Map.csv,squared_error,3.183141203329176e-06,0.5004,0.3625,0.235091,0.867906,0.130989,0.699462,0.191353,0.360938,0.818484,0.000000,0.919101,0.063101,0.000000,0.649503,1.000000,0.805744,0.154672,0.000000,166.140859,1.256027,27.469413,0.699462,39.079222,3.928914,8.366354,0.000000,285.842622,0.805336,9.000000,0.649503,200.000000,8.154565,2.392044,0.000000,1
/home/daniel/Projects/ppsevolution/data/maps/custom_maps/Custom_1_Run_0_Map.csv,squared_error,7.005966053443988e-06,0.5033,0.3582,0.203649,1.000000,0.260370,0.623160,0.002719,0.077356,0.979263,1.000000,1.000000,0.000000,0.000000,0.607392,1.000000,0.755023,0.367384,1.000000,160.638645,1.330000,45.712233,0.623160,1.540991,1.234882,9.813363,1.000000,300.000000,0.770000,9.000000,0.607392,200.000000,7.672719,4.306453,1.000000,2
/home/daniel/Projects/ppsevolution/data/maps/custom_maps/Custom_1_Run_0_Map.csv,squared_error,1.72869864319083e-05,0.4959,0.3642,0.076184,0.813301,0.000000,0.750107,0.223873,0.030000,1.000000,2.000000,1.000000,0.000000,0.000000,0.610430,0.969914,0.993880,0.000000,0.000000,138.332180,1.225448,9.000000,0.750107,45.550797,0.785000,10.000000,2.000000,300.000000,0.770000,9.000000,0.610430,194.012931,9.941857,1.000000,0.000000,3
/home/daniel/Projects/ppsevolution/data/maps/custom_maps/Custom_1_Run_0_Map.csv,squared_error,5.839580443001283e-06,0.4986,0.3569,0.000000,0.904722,0.092472,0.721872,0.067880,0.000000,1.000000,1.000000,0.986207,0.165278,0.168360,0.485683,0.947128,1.000000,0.000000,1.000000,125.000000,1.276645,22.038485,0.721872,14.508179,0.500000,10.000000,1.000000,297.586301,0.862556,32.738804,0.485683,189.478382,10.000000,1.000000,1.000000,4
/home/daniel/Projects/ppsevolution/data/maps/custom_maps/Custom_1_Run_0_Map.csv,squared_error,2.475585835557556e-06,0.5012,0.3581,0.016325,0.651925,0.231123,0.667860,0.000000,0.072831,0.885625,0.000000,0.993525,0.000000,0.061492,0.555949,0.909701,1.000000,0.175288,0.000000,127.856960,1.135078,41.588386,0.667860,1.000000,1.191891,8.970622,0.000000,298.866833,0.770000,17.670410,0.555949,182.030543,10.000000,2.577593,0.000000,5
/home/daniel/Projects/ppsevolution/data/maps/custom_maps/Custom_1_Run_0_Map.csv,squared_error,2.347459843860991e-08,0.4998,0.3599,0.000000,0.892632,0.016585,0.727056,0.058086,0.000000,0.702976,1.000000,0.788707,0.022787,0.093984,0.531167,0.848839,1.000000,0.097778,2.000000,125.000000,1.269874,11.338456,0.727056,12.559101,0.500000,7.326788,1.000000,263.023763,0.782760,22.251801,0.531167,169.919002,10.000000,1.880006,2.000000,6
/home/daniel/Projects/ppsevolution/data/maps/custom_maps/Custom_1_Run_0_Map.csv,squared_error,9.237908231575961e-07,0.5012,0.3606,0.421895,0.829058,0.596925,0.333470,0.081874,0.000000,1.000000,0.000000,0.872336,0.000000,0.348029,0.458087,0.964919,0.554531,0.296584,0.000000,198.831602,1.234273,93.166418,0.333470,17.292828,0.500000,10.000000,0.000000,277.658860,0.770000,58.072073,0.458087,193.018872,5.768044,3.669259,0.000000,7
/home/daniel/Projects/ppsevolution/data/maps/custom_maps/Custom_1_Run_0_Map.csv,squared_error,4.5606820083604806e-07,0.5007,0.3593,0.000000,0.937642,0.412979,0.515703,0.161916,0.064360,0.562218,0.000000,0.822669,0.404616,0.075446,0.539233,1.000000,0.161064,0.087972,2.000000,125.000000,1.295080,67.230040,0.515703,33.221202,1.111417,6.059961,0.000000,268.967064,0.996585,19.637897,0.539233,200.000000,2.030110,1.791745,2.000000,8
/home/daniel/Projects/ppsevolution/data/maps/custom_maps/Custom_1_Run_0_Map.csv,squared_error,1.2719405048280103e-06,0.4989,0.3611,0.000000,1.000000,0.580437,0.393318,0.074125,0.177826,0.881696,2.000000,1.000000,0.028280,0.000000,0.572580,1.000000,0.821176,0.000000,1.000000,125.000000,1.330000,90.841575,0.393318,15.750953,2.189344,8.935268,2.000000,300.000000,0.785837,9.000000,0.572580,200.000000,8.301171,1.000000,1.000000,9
map,fitness,fitness value,team0ratio,time,HP,Speed,Damage,Acc,ClipSize,RateOfFire,NrBullets,Range,HP,Speed,Damage,Acc,ClipSize,RateOfFire,NrBullets,Range,HP,Speed,Damage,Acc,ClipSize,RateOfFire,NrBullets,Range,HP,Speed,Damage,Acc,ClipSize,RateOfFire,NrBullets,Range,Run,target team0ratio: 0.5,target time: 0.36
/home/daniel/Projects/ppsevolution/data/maps/custom_maps/Custom_2_Run_0_Map.csv,squared_error,0.0005222495329739336,0.5007,0.3923,0.000000,0.827541,0.940299,1.000000,0.105910,0.112157,0.861678,2.000000,0.962461,0.302292,1.000000,1.000000,0.801544,0.850058,0.910150,2.000000,125.000000,1.233423,141.582201,1.000000,22.076008,1.565495,8.755099,2.000000,293.430720,0.939284,150.000000,1.000000,160.507353,8.575556,9.191349,2.000000,0
/home/daniel/Projects/ppsevolution/data/maps/custom_maps/Custom_2_Run_0_Map.csv,squared_error,0.00047157526210104774,0.4906,0.3892,0.000000,1.000000,0.668834,1.000000,0.212504,0.000000,0.969699,2.000000,0.610919,0.326609,1.000000,1.000000,1.000000,1.000000,0.834377,2.000000,125.000000,1.330000,103.305575,1.000000,43.288372,0.500000,9.727288,2.000000,231.910910,0.952901,150.000000,1.000000,200.000000,10.000000,8.509392,2.000000,1
/home/daniel/Projects/ppsevolution/data/maps/custom_maps/Custom_2_Run_0_Map.csv,squared_error,0.0006010101882096347,0.4932,0.3940,0.000000,0.833605,0.709815,1.000000,0.027798,0.000000,1.000000,2.000000,0.797083,0.593412,1.000000,0.987451,0.690336,1.000000,0.420082,2.000000,125.000000,1.236819,109.083937,1.000000,6.531742,0.500000,10.000000,2.000000,264.489480,1.102311,150.000000,0.987451,138.376792,10.000000,4.780739,2.000000,2
/home/daniel/Projects/ppsevolution/data/maps/custom_maps/Custom_2_Run_0_Map.csv,squared_error,0.0005011501702731952,0.4944,0.3912,0.000000,0.629318,0.847569,1.000000,0.332422,0.000000,0.902109,2.000000,0.845599,0.000000,0.991536,1.000000,1.000000,0.772163,1.000000,2.000000,125.000000,1.122418,128.507181,1.000000,67.151994,0.500000,9.118980,2.000000,272.979820,0.770000,148.806570,1.000000,200.000000,7.835544,10.000000,2.000000,3
/home/daniel/Projects/ppsevolution/data/maps/custom_maps/Custom_2_Run_0_Map.csv,squared_error,0.0005453988862700105,0.4910,0.3918,0.094037,0.839987,0.823989,1.000000,0.163074,0.090756,1.000000,2.000000,0.954353,0.277220,1.000000,1.000000,1.000000,1.000000,0.683628,2.000000,141.456408,1.240392,125.182389,1.000000,33.451655,1.362178,10.000000,2.000000,292.011820,0.925243,150.000000,1.000000,200.000000,10.000000,7.152650,2.000000,4
/home/daniel/Projects/ppsevolution/data/maps/custom_maps/Custom_2_Run_0_Map.csv,squared_error,0.0005034210650619604,0.4985,0.3917,0.096330,1.000000,0.858181,1.000000,0.314903,0.209144,0.929982,2.000000,1.000000,0.903153,1.000000,1.000000,0.767639,1.000000,1.000000,2.000000,141.857718,1.330000,130.003562,1.000000,63.665679,2.486871,9.369841,2.000000,300.000000,1.275766,150.000000,1.000000,153.760177,10.000000,10.000000,2.000000,5
/home/daniel/Projects/ppsevolution/data/maps/custom_maps/Custom_2_Run_0_Map.csv,squared_error,0.00047970378259859785,0.4961,0.3907,0.000000,0.939569,0.343390,1.000000,0.120827,0.099682,0.916299,2.000000,0.109886,0.094869,1.000000,0.988031,0.953701,1.000000,0.980632,2.000000,125.000000,1.296159,57.418048,1.000000,25.044612,1.446975,9.246690,2.000000,144.230052,0.823127,150.000000,0.988031,190.786494,10.000000,9.825691,2.000000,6
/home/daniel/Projects/ppsevolution/data/maps/custom_maps/Custom_2_Run_0_Map.csv,squared_error,0.000520724725978759,0.4924,0.3914,0.000000,0.960284,0.930994,1.000000,0.166113,0.000000,1.000000,2.000000,1.000000,0.081868,0.947639,1.000000,0.681459,0.634677,0.996350,2.000000,125.000000,1.307759,140.270126,1.000000,34.056498,0.500000,10.000000,2.000000,300.000000,0.815846,142.617083,1.000000,136.610353,6.529436,9.967146,2.000000,7
/home/daniel/Projects/ppsevolution/data/maps/custom_maps/Custom_2_Run_0_Map.csv,squared_error,0.0005048807320891374,0.4987,0.3918,0.000000,1.000000,1.000000,1.000000,0.194622,0.139654,0.985308,2.000000,1.000000,0.365017,1.000000,1.000000,0.917207,0.539194,0.943089,2.000000,125.000000,1.330000,150.000000,1.000000,39.729681,1.826714,9.867776,2.000000,300.000000,0.974409,150.000000,1.000000,183.524238,5.622342,9.487804,2.000000,8
/home/daniel/Projects/ppsevolution/data/maps/custom_maps/Custom_2_Run_0_Map.csv,squared_error,0.0006518368473476738,0.4949,0.3957,0.000000,1.000000,0.509487,1.000000,0.263587,0.000000,0.977900,2.000000,0.137108,0.654701,0.985974,1.000000,0.934298,0.579151,0.379985,2.000000,125.000000,1.330000,80.837615,1.000000,53.453908,0.500000,9.801102,2.000000,148.993855,1.136633,148.022279,1.000000,186.925336,6.001934,4.419865,2.000000,9
map,fitness,fitness value,team0ratio,time,HP,Speed,Damage,Acc,ClipSize,RateOfFire,NrBullets,Range,HP,Speed,Damage,Acc,ClipSize,RateOfFire,NrBullets,Range,HP,Speed,Damage,Acc,ClipSize,RateOfFire,NrBullets,Range,HP,Speed,Damage,Acc,ClipSize,RateOfFire,NrBullets,Range,Run,target team0ratio: 0.5,target time: 0.36
/home/daniel/Projects/ppsevolution/data/maps/custom_maps/Custom_3_Run_0_Map.csv,squared_error,0.006477346279906279,0.5003,0.4738,0.011764,0.915931,0.948982,0.980000,0.042615,0.079382,0.842839,2.000000,0.287612,0.000000,1.000000,1.000000,0.738716,0.058370,0.813633,2.000000,127.058644,1.282921,142.806427,0.980000,9.480424,1.254126,8.585548,2.000000,175.332059,0.770000,150.000000,1.000000,148.004580,1.054518,8.322697,2.000000,0
/home/daniel/Projects/ppsevolution/data/maps/custom_maps/Custom_3_Run_0_Map.csv,squared_error,0.006622633420249675,0.5075,0.4748,0.000000,0.639179,0.817166,0.994466,0.188879,0.168135,1.000000,2.000000,0.302946,0.449797,1.000000,1.000000,0.976279,0.301106,0.538625,2.000000,125.000000,1.127940,124.220416,0.994466,38.586864,2.097284,10.000000,2.000000,178.015598,1.021887,150.000000,1.000000,195.279453,3.360509,5.847623,2.000000,1
/home/daniel/Projects/ppsevolution/data/maps/custom_maps/Custom_3_Run_0_Map.csv,squared_error,0.006506289094347612,0.5150,0.4731,0.022077,1.000000,1.000000,1.000000,0.000000,0.035512,1.000000,2.000000,0.621066,0.000000,1.000000,1.000000,0.702264,0.086857,0.701025,2.000000,128.863437,1.330000,150.000000,1.000000,1.000000,0.837360,10.000000,2.000000,233.686636,0.770000,150.000000,1.000000,140.750585,1.325143,7.309222,2.000000,2
/home/daniel/Projects/ppsevolution/data/maps/custom_maps/Custom_3_Run_0_Map.csv,squared_error,0.006694731181503248,0.5173,0.4744,0.000000,1.000000,0.837025,0.992540,0.117098,0.055298,1.000000,2.000000,0.357538,0.000000,1.000000,1.000000,0.812937,1.000000,0.656097,2.000000,125.000000,1.330000,127.020515,0.992540,24.302424,1.025332,10.000000,2.000000,187.569107,0.770000,150.000000,1.000000,162.774536,10.000000,6.904876,2.000000,3
/home/daniel/Projects/ppsevolution/data/maps/custom_maps/Custom_3_Run_0_Map.csv,squared_error,0.006645056170742245,0.4923,0.4750,0.000000,0.852940,0.818251,1.000000,0.000000,0.251756,0.996178,2.000000,0.614331,0.346487,0.969039,1.000000,0.805835,0.417909,0.918292,2.000000,125.000000,1.247646,124.373388,1.000000,1.000000,2.891678,9.965603,2.000000,232.507921,0.964033,145.634464,1.000000,161.361095,4.470134,9.264627,2.000000,4
/home/daniel/Projects/ppsevolution/data/maps/custom_maps/Custom_3_Run_0_Map.csv,squared_error,0.006395742224549285,0.5148,0.4721,0.001054,1.000000,0.822684,1.000000,0.000000,0.233401,1.000000,2.000000,0.355026,0.174702,1.000000,1.000000,0.876379,0.228913,0.871625,2.000000,125.184364,1.330000,124.998513,1.000000,1.000000,2.717309,10.000000,2.000000,187.129537,0.867833,150.000000,1.000000,175.399415,2.674674,8.844625,2.000000,5
/home/daniel/Projects/ppsevolution/data/maps/custom_maps/Custom_3_Run_0_Map.csv,squared_error,0.006810899230024067,0.5099,0.4763,0.018039,0.984479,0.891035,0.978713,0.076433,0.000000,0.839471,2.000000,0.289259,0.000000,0.985464,1.000000,0.214924,1.000000,0.745123,2.000000,128.156768,1.321308,134.635947,0.978713,16.210118,0.500000,8.555238,2.000000,175.620270,0.770000,147.950427,1.000000,43.769831,10.000000,7.706109,2.000000,6
/home/daniel/Projects/ppsevolution/data/maps/custom_maps/Custom_3_Run_0_Map.csv,squared_error,0.006182486731818135,0.5107,0.4707,0.018522,0.833061,0.919948,0.976520,0.000000,0.774823,1.000000,2.000000,0.000000,0.000000,1.000000,1.000000,0.565278,0.000000,0.906428,2.000000,128.241384,1.236514,138.712715,0.976520,1.000000,7.860823,10.000000,2.000000,125.000000,0.770000,150.000000,1.000000,113.490345,0.500000,9.157855,2.000000,7
/home/daniel/Projects/ppsevolution/data/maps/custom_maps/Custom_3_Run_0_Map.csv,squared_error,0.006416699143246551,0.4978,0.4733,0.000000,0.757578,0.719077,0.998971,0.000000,0.147177,0.913386,2.000000,0.271452,0.000000,1.000000,1.000000,1.000000,0.115384,0.843917,2.000000,125.000000,1.194244,110.389863,0.998971,1.000000,1.898178,9.220475,2.000000,172.504055,0.770000,150.000000,1.000000,200.000000,1.596152,8.595251,2.000000,8
/home/daniel/Projects/ppsevolution/data/maps/custom_maps/Custom_3_Run_0_Map.csv,squared_error,0.006510908265174302,0.5105,0.4736,0.000000,0.998192,0.735458,1.000000,0.144976,0.000000,0.944954,2.000000,0.319552,0.292788,1.000000,1.000000,0.919098,0.490119,0.868196,2.000000,125.000000,1.328988,112.699564,1.000000,29.850318,0.500000,9.504586,2.000000,180.921687,0.933961,150.000000,1.000000,183.900589,5.156132,8.813762,2.000000,9
map,fitness,fitness value,team0ratio,time,HP,Speed,Damage,Acc,ClipSize,RateOfFire,NrBullets,Range,HP,Speed,Damage,Acc,ClipSize,RateOfFire,NrBullets,Range,HP,Speed,Damage,Acc,ClipSize,RateOfFire,NrBullets,Range,HP,Speed,Damage,Acc,ClipSize,RateOfFire,NrBullets,Range,Run,target team0ratio: 0.5,target time: 0.36
/home/daniel/Projects/ppsevolution/data/maps/custom_maps/Custom_4_Run_0_Map.csv,squared_error,1.2816755343720702e-07,0.4995,0.3599,0.138528,0.750438,0.260630,0.726774,0.086876,0.000000,0.850455,2.000000,0.926637,0.163494,0.138667,0.620616,0.761799,1.000000,0.000000,0.000000,149.242438,1.190245,45.748769,0.726774,18.288243,0.500000,8.654098,2.000000,287.161445,0.861556,28.552062,0.620616,152.597990,10.000000,1.000000,0.000000,0
/home/daniel/Projects/ppsevolution/data/maps/custom_maps/Custom_4_Run_0_Map.csv,squared_error,1.0258916075218807e-05,0.5033,0.3569,0.000000,1.000000,0.093652,0.800054,0.147237,0.071851,0.817007,1.000000,0.894579,0.000000,0.196301,0.580285,0.882041,1.000000,0.000000,2.000000,125.000000,1.330000,22.204887,0.800054,30.300087,1.182586,8.353063,1.000000,281.551255,0.770000,36.678467,0.580285,176.526166,10.000000,1.000000,2.000000,1
/home/daniel/Projects/ppsevolution/data/maps/custom_maps/Custom_4_Run_0_Map.csv,squared_error,1.2519389961531855e-05,0.4950,0.3598,0.095929,0.872757,0.084851,0.844084,0.276557,0.087504,0.666430,0.000000,1.000000,0.000000,0.072623,0.696130,0.876289,0.923492,0.000000,0.000000,141.787644,1.258744,20.964049,0.844084,56.034782,1.331289,6.997870,0.000000,300.000000,0.770000,19.239878,0.696130,175.381565,9.273178,1.000000,0.000000,2
/home/daniel/Projects/ppsevolution/data/maps/custom_maps/Custom_4_Run_0_Map.csv,squared_error,2.743752900573812e-06,0.4995,0.3623,0.071318,0.890090,0.111367,0.715258,0.000000,0.423482,0.881072,1.000000,0.557166,0.054500,0.241103,0.534991,0.631842,0.928253,0.088173,2.000000,137.480597,1.268450,24.702760,0.715258,1.000000,4.523080,8.929648,1.000000,222.504116,0.800520,42.995507,0.534991,126.736652,9.318406,1.793559,2.000000,3
/home/daniel/Projects/ppsevolution/data/maps/custom_maps/Custom_4_Run_0_Map.csv,squared_error,9.677245255403344e-07,0.4990,0.3590,0.094153,0.910374,0.200254,0.773163,0.109108,0.256805,0.946536,0.000000,0.926238,0.040386,0.085100,0.654295,0.933740,1.000000,0.053584,0.000000,141.476812,1.279810,37.235774,0.773163,22.712459,2.939652,9.518825,0.000000,287.091712,0.792616,20.999050,0.654295,186.814343,10.000000,1.482254,0.000000,4
/home/daniel/Projects/ppsevolution/data/maps/custom_maps/Custom_4_Run_0_Map.csv,squared_error,3.6548491692435716e-06,0.5023,0.3586,0.000000,1.000000,0.169171,0.786731,0.195411,0.000000,1.000000,1.000000,1.000000,0.010106,0.054373,0.643085,1.000000,1.000000,0.082434,0.000000,125.000000,1.330000,32.853101,0.786731,39.886766,0.500000,10.000000,1.000000,300.000000,0.775659,16.666609,0.643085,200.000000,10.000000,1.741908,0.000000,5
/home/daniel/Projects/ppsevolution/data/maps/custom_maps/Custom_4_Run_0_Map.csv,squared_error,1.3183812325714133e-06,0.4989,0.3612,0.124795,1.000000,0.186577,0.764304,0.033982,0.004530,1.000000,1.000000,0.939154,0.000000,0.000000,0.683930,0.810323,0.779441,0.074819,0.000000,146.839133,1.330000,35.307317,0.764304,7.762457,0.543034,10.000000,1.000000,289.351953,0.770000,9.000000,0.683930,162.254305,7.904686,1.673369,0.000000,6
/home/daniel/Projects/ppsevolution/data/maps/custom_maps/Custom_4_Run_0_Map.csv,squared_error,7.130362481340355e-06,0.5021,0.3631,0.190364,0.776849,0.362194,0.674526,0.077525,0.336705,0.846458,1.000000,0.905661,0.331387,0.404034,0.450712,0.725423,1.000000,0.197908,1.000000,158.313734,1.205035,60.069376,0.674526,16.427419,3.698695,8.618122,1.000000,283.490685,0.955576,65.968798,0.450712,145.359273,10.000000,2.781171,1.000000,7
/home/daniel/Projects/ppsevolution/data/maps/custom_maps/Custom_4_Run_0_Map.csv,squared_error,2.320756193277187e-06,0.5011,0.3618,0.238325,1.000000,0.525902,0.606187,0.011352,0.082926,1.000000,2.000000,1.000000,0.112302,0.000000,0.668201,1.000000,1.000000,0.011965,2.000000,166.706833,1.330000,83.152148,0.606187,3.259070,1.287795,10.000000,2.000000,300.000000,0.832889,9.000000,0.668201,200.000000,10.000000,1.107685,2.000000,8
/home/daniel/Projects/ppsevolution/data/maps/custom_maps/Custom_4_Run_0_Map.csv,squared_error,6.004230910892277e-06,0.5033,0.3612,0.301964,1.000000,0.044771,0.774297,0.234959,0.135528,0.538699,1.000000,0.664907,0.410230,0.330468,0.531993,1.000000,0.800349,0.655419,1.000000,177.843682,1.330000,15.312645,0.774297,47.756916,1.787520,5.848295,1.000000,241.358691,0.999729,55.596018,0.531993,200.000000,8.103317,6.898771,1.000000,9
map,fitness,fitness value,team0ratio,time,HP,Speed,Damage,Acc,ClipSize,RateOfFire,NrBullets,Range,HP,Speed,Damage,Acc,ClipSize,RateOfFire,NrBullets,Range,HP,Speed,Damage,Acc,ClipSize,RateOfFire,NrBullets,Range,HP,Speed,Damage,Acc,ClipSize,RateOfFire,NrBullets,Range,Run,target team0ratio: 0.5,target time: 0.36
/home/daniel/Projects/ppsevolution/data/maps/custom_maps/Custom_5_Run_0_Map.csv,squared_error,3.3758243011796475e-06,0.5016,0.3621,0.014617,0.860902,0.209704,1.000000,0.076078,0.000000,0.915467,0.000000,0.818961,0.108402,0.349494,0.938336,0.753233,1.000000,0.069929,2.000000,127.557923,1.252105,38.568208,1.000000,16.139527,0.500000,9.239206,0.000000,268.318218,0.830705,58.278677,0.938336,150.893338,10.000000,1.629357,2.000000,0
/home/daniel/Projects/ppsevolution/data/maps/custom_maps/Custom_5_Run_0_Map.csv,squared_error,2.7579501978493985e-06,0.5005,0.3623,0.091534,0.932829,0.116040,1.000000,0.176889,0.125785,0.457607,2.000000,0.750538,0.250633,0.000000,1.000000,0.538151,0.911615,0.233052,0.000000,141.018462,1.292384,25.361608,1.000000,36.200986,1.694961,5.118464,2.000000,256.344237,0.910354,9.000000,1.000000,108.092042,9.160345,3.097470,0.000000,1
/home/daniel/Projects/ppsevolution/data/maps/custom_maps/Custom_5_Run_0_Map.csv,squared_error,2.994776946892197e-08,0.5000,0.3602,0.000000,1.000000,0.273220,0.997883,0.000000,0.214619,0.890250,1.000000,0.884997,0.021288,0.367220,0.941459,0.572745,0.896102,0.041426,0.000000,125.000000,1.330000,47.523981,0.997883,1.000000,2.538882,9.012250,1.000000,279.874475,0.781921,60.777982,0.941459,114.976228,9.012969,1.372831,0.000000,2
/home/daniel/Projects/ppsevolution/data/maps/custom_maps/Custom_5_Run_0_Map.csv,squared_error,7.467742353874613e-07,0.4992,0.3610,0.174452,0.596834,0.095585,1.000000,0.362340,0.377908,0.603991,1.000000,0.637992,0.165866,0.016524,1.000000,0.879010,1.000000,0.112057,2.000000,155.529079,1.104227,22.477440,1.000000,73.105727,4.090125,6.435918,1.000000,236.648525,0.862885,11.329910,1.000000,175.922932,10.000000,2.008512,2.000000,3
/home/daniel/Projects/ppsevolution/data/maps/custom_maps/Custom_5_Run_0_Map.csv,squared_error,1.2288429115471722e-06,0.5008,0.3587,0.123077,0.782676,0.172937,1.000000,0.000000,0.001275,0.888659,2.000000,1.000000,0.195239,0.081606,0.978480,0.852937,0.786335,0.144012,2.000000,146.538498,1.208299,33.384106,1.000000,1.000000,0.512113,8.997933,2.000000,300.000000,0.879334,20.506453,0.978480,170.734430,7.970179,2.296111,2.000000,4
/home/daniel/Projects/ppsevolution/data/maps/custom_maps/Custom_5_Run_0_Map.csv,squared_error,9.015307366901589e-07,0.4989,0.3608,0.225111,0.808747,0.267774,1.000000,0.170083,0.032600,0.845653,1.000000,1.000000,0.030497,0.000000,1.000000,0.641979,0.935767,0.127265,1.000000,164.394350,1.222899,46.756144,1.000000,34.846521,0.809697,8.610880,1.000000,300.000000,0.787078,9.000000,1.000000,128.753863,9.389782,2.145381,1.000000,5
/home/daniel/Projects/ppsevolution/data/maps/custom_maps/Custom_5_Run_0_Map.csv,squared_error,1.941181745883827e-06,0.5020,0.3602,0.434424,0.973463,0.118860,1.000000,0.487476,0.010234,0.875953,2.000000,0.849094,0.193237,0.087473,1.000000,0.790890,0.892128,0.000000,1.000000,201.024169,1.315139,25.759226,1.000000,98.007675,0.597221,8.883578,2.000000,273.591490,0.878213,21.333724,1.000000,158.387184,8.975212,1.000000,1.000000,6
/home/daniel/Projects/ppsevolution/data/maps/custom_maps/Custom_5_Run_0_Map.csv,squared_error,3.356507862896867e-07,0.4998,0.3608,0.111281,0.782663,0.247077,1.000000,0.072071,0.086695,0.553328,1.000000,0.844669,0.130767,0.003903,1.000000,0.893861,0.833810,0.000000,1.000000,144.474160,1.208292,43.837904,1.000000,15.342175,1.323602,5.979953,1.000000,272.816999,0.843229,9.550331,1.000000,178.878313,8.421198,1.000000,1.000000,7
/home/daniel/Projects/ppsevolution/data/maps/custom_maps/Custom_5_Run_0_Map.csv,squared_error,2.0876402021087638e-06,0.5011,0.3583,0.055069,0.985513,0.217544,1.000000,0.280836,0.000000,0.430588,2.000000,0.904516,0.041773,0.000000,1.000000,1.000000,1.000000,0.037008,2.000000,134.637162,1.321887,39.673690,1.000000,56.886312,0.500000,4.875292,2.000000,283.290287,0.793393,9.000000,1.000000,200.000000,10.000000,1.333069,2.000000,8
/home/daniel/Projects/ppsevolution/data/maps/custom_maps/Custom_5_Run_0_Map.csv,squared_error,3.3623915873761244e-06,0.5026,0.3601,0.192579,0.927587,0.220980,1.000000,0.199564,0.086297,0.757311,2.000000,1.000000,0.000000,0.017106,0.996754,0.961055,0.920741,0.242912,0.000000,158.701274,1.289449,40.158178,1.000000,40.713323,1.319825,7.815800,2.000000,300.000000,0.770000,11.411968,0.996754,192.249911,9.247037,3.186204,0.000000,9
map,fitness,fitness value,team0ratio,time,HP,Speed,Damage,Acc,ClipSize,RateOfFire,NrBullets,Range,HP,Speed,Damage,Acc,ClipSize,RateOfFire,NrBullets,Range,HP,Speed,Damage,Acc,ClipSize,RateOfFire,NrBullets,Range,HP,Speed,Damage,Acc,ClipSize,RateOfFire,NrBullets,Range,Run,target team0ratio: 0.5,target time: 0.36
/home/daniel/Projects/ppsevolution/data/maps/custom_maps/Custom_6_Run_0_Map.csv,squared_error,0.008974482780717457,0.4754,0.4917,0.101829,0.926858,0.000000,1.000000,0.000000,0.446270,0.858655,2.000000,1.000000,0.667869,0.976661,0.895206,0.760492,0.945025,0.499228,2.000000,142.820123,1.289041,9.000000,1.000000,1.000000,4.739570,8.727893,2.000000,300.000000,1.144007,146.709187,0.895206,152.337957,9.477741,5.493051,2.000000,0
/home/daniel/Projects/ppsevolution/data/maps/custom_maps/Custom_6_Run_0_Map.csv,squared_error,0.00928565995078866,0.4501,0.4868,0.047378,0.829705,0.028411,1.000000,0.278056,0.042536,0.988657,2.000000,0.979567,0.128833,1.000000,0.915919,0.860992,0.958872,0.293269,2.000000,133.291100,1.234635,13.005954,1.000000,56.333052,0.904090,9.897914,2.000000,296.424280,0.842147,150.000000,0.915919,172.337398,9.609282,3.639418,2.000000,1
/home/daniel/Projects/ppsevolution/data/maps/custom_maps/Custom_6_Run_0_Map.csv,squared_error,0.008856228014753406,0.4624,0.4877,0.000000,1.000000,0.020876,1.000000,0.000000,0.119397,0.860159,2.000000,1.000000,0.679385,1.000000,0.900242,1.000000,1.000000,0.165454,2.000000,125.000000,1.330000,11.943585,1.000000,1.000000,1.634271,8.741433,2.000000,300.000000,1.150456,150.000000,0.900242,200.000000,10.000000,2.489090,2.000000,2
/home/daniel/Projects/ppsevolution/data/maps/custom_maps/Custom_6_Run_0_Map.csv,squared_error,0.008758190510338914,0.4544,0.4843,0.068564,0.883769,0.000000,1.000000,0.257085,0.059396,0.975931,2.000000,1.000000,0.238453,1.000000,0.905872,0.934496,0.802403,0.700169,2.000000,136.998729,1.264911,9.000000,1.000000,52.159821,1.064263,9.783381,2.000000,300.000000,0.903534,150.000000,0.905872,186.964619,8.122826,7.301522,2.000000,3
/home/daniel/Projects/ppsevolution/data/maps/custom_maps/Custom_6_Run_0_Map.csv,squared_error,0.008554393938624878,0.4699,0.4873,0.105411,0.824823,0.000000,1.000000,0.253979,0.160134,0.609936,2.000000,1.000000,0.400896,1.000000,0.900679,0.654558,0.877499,1.000000,2.000000,143.446972,1.231901,9.000000,1.000000,51.541885,2.021270,6.489427,2.000000,300.000000,0.994502,150.000000,0.900679,131.257050,8.836237,10.000000,2.000000,4
/home/daniel/Projects/ppsevolution/data/maps/custom_maps/Custom_6_Run_0_Map.csv,squared_error,0.008847553570827721,0.4469,0.4820,0.000000,0.718255,0.000000,1.000000,0.403740,0.217934,0.992839,2.000000,1.000000,0.025679,1.000000,0.907010,0.746950,0.953647,0.915976,2.000000,125.000000,1.172223,9.000000,1.000000,81.344357,2.570376,9.935548,2.000000,300.000000,0.784380,150.000000,0.907010,149.643137,9.559650,9.243780,2.000000,5
/home/daniel/Projects/ppsevolution/data/maps/custom_maps/Custom_6_Run_0_Map.csv,squared_error,0.00846796537493011,0.4506,0.4804,0.091270,1.000000,0.000000,1.000000,0.000000,0.012398,0.652288,2.000000,0.951507,0.133349,1.000000,0.923803,0.860793,1.000000,0.823803,2.000000,140.972299,1.330000,9.000000,1.000000,1.000000,0.617785,6.870593,2.000000,291.513675,0.844675,150.000000,0.923803,172.297822,10.000000,8.414225,2.000000,6
/home/daniel/Projects/ppsevolution/data/maps/custom_maps/Custom_6_Run_0_Map.csv,squared_error,0.008764996362638689,0.4585,0.4857,0.049511,1.000000,0.000000,1.000000,0.063772,0.000000,0.943527,2.000000,0.999411,0.399842,1.000000,0.899435,1.000000,0.727181,0.489537,2.000000,133.664458,1.330000,9.000000,1.000000,13.690713,0.500000,9.491747,2.000000,299.896971,0.993911,150.000000,0.899435,200.000000,7.408222,5.405834,2.000000,7
/home/daniel/Projects/ppsevolution/data/maps/custom_maps/Custom_6_Run_0_Map.csv,squared_error,0.008936144336167596,0.4671,0.4896,0.035194,0.851173,0.000000,1.000000,0.055246,0.087053,0.660207,2.000000,1.000000,0.408232,0.991436,0.895401,0.958753,0.943916,0.172305,2.000000,131.159000,1.246657,9.000000,1.000000,11.994034,1.327008,6.941866,2.000000,300.000000,0.998610,148.792424,0.895401,191.791846,9.467200,2.550747,2.000000,8
/home/daniel/Projects/ppsevolution/data/maps/custom_maps/Custom_6_Run_0_Map.csv,squared_error,0.009003061260668514,0.4524,0.4855,0.000000,0.638232,0.000000,1.000000,0.206025,0.106199,0.694579,2.000000,1.000000,0.388401,1.000000,0.904445,0.738503,1.000000,0.368373,2.000000,125.000000,1.127410,9.000000,1.000000,41.998885,1.508890,7.251212,2.000000,300.000000,0.987505,150.000000,0.904445,147.962009,10.000000,4.315355,2.000000,9
map,fitness,fitness value,team0ratio,time,HP,Speed,Damage,Acc,ClipSize,RateOfFire,NrBullets,Range,HP,Speed,Damage,Acc,ClipSize,RateOfFire,NrBullets,Range,HP,Speed,Damage,Acc,ClipSize,RateOfFire,NrBullets,Range,HP,Speed,Damage,Acc,ClipSize,RateOfFire,NrBullets,Range,Run,target team0ratio: 0.5,target time: 0.36
/home/daniel/Projects/ppsevolution/data/maps/custom_maps/Custom_7_Run_0_Map.csv,squared_error,2.9654914232253204e-07,0.5008,0.3599,0.421416,0.869023,0.137141,1.000000,0.216254,0.116220,0.955196,1.000000,0.766041,0.133610,0.145005,1.000000,0.804994,0.642131,0.126637,2.000000,198.747765,1.256653,28.336815,1.000000,44.034627,1.604087,9.596763,1.000000,259.057201,0.844821,29.445645,1.000000,161.193883,6.600242,2.139736,2.000000,0
/home/daniel/Projects/ppsevolution/data/maps/custom_maps/Custom_7_Run_0_Map.csv,squared_error,1.7482963419652052e-07,0.4997,0.3595,0.109388,0.876600,0.335634,1.000000,0.158758,0.425024,0.287231,0.000000,1.000000,0.000000,0.269361,0.972131,0.890713,0.874775,0.157506,1.000000,144.142884,1.260896,56.324405,1.000000,32.592887,4.537727,3.585076,0.000000,300.000000,0.770000,46.979900,0.972131,178.251844,8.810358,2.417554,1.000000,1
/home/daniel/Projects/ppsevolution/data/maps/custom_maps/Custom_7_Run_0_Map.csv,squared_error,2.397514437002697e-06,0.4981,0.3589,0.000000,1.000000,0.000000,0.997898,0.303148,0.097344,1.000000,0.000000,0.904004,0.000000,0.196982,0.926080,0.796629,0.816576,0.342244,2.000000,125.000000,1.330000,9.000000,0.997898,61.326361,1.424765,10.000000,0.000000,283.200657,0.770000,36.774530,0.926080,159.529225,8.257474,4.080196,2.000000,2
/home/daniel/Projects/ppsevolution/data/maps/custom_maps/Custom_7_Run_0_Map.csv,squared_error,5.38931595222184e-07,0.5010,0.3602,0.056424,0.915723,0.584294,1.000000,0.320262,0.342801,0.965862,0.000000,1.000000,0.310193,0.189421,1.000000,0.638520,0.955114,0.000000,0.000000,134.874161,1.282805,91.385523,1.000000,64.732201,3.756606,9.692761,0.000000,300.000000,0.943708,35.708381,1.000000,128.065526,9.573587,1.000000,0.000000,3
/home/daniel/Projects/ppsevolution/data/maps/custom_maps/Custom_7_Run_0_Map.csv,squared_error,1.1965924691280195e-08,0.5001,0.3599,0.157961,0.821225,0.289808,1.000000,0.058813,0.343190,1.000000,0.000000,0.925654,0.082623,0.000000,1.000000,0.911018,0.840075,0.218609,2.000000,152.643102,1.229886,49.862977,1.000000,12.703768,3.760306,10.000000,0.000000,286.989491,0.816269,9.000000,1.000000,182.292598,8.480713,2.967481,2.000000,4
/home/daniel/Projects/ppsevolution/data/maps/custom_maps/Custom_7_Run_0_Map.csv,squared_error,3.377606511413839e-07,0.5002,0.3592,0.071835,0.633334,0.174640,1.000000,0.104957,0.134851,0.939136,1.000000,0.501910,0.746983,0.157075,1.000000,1.000000,0.812867,0.000000,0.000000,137.571189,1.124667,33.624259,1.000000,21.886409,1.781080,9.452228,1.000000,212.834258,1.188311,31.147527,1.000000,200.000000,8.222241,1.000000,0.000000,5
/home/daniel/Projects/ppsevolution/data/maps/custom_maps/Custom_7_Run_0_Map.csv,squared_error,8.201584164659542e-07,0.4990,0.3608,0.044007,0.660394,0.377255,1.000000,0.827039,0.237539,0.599504,1.000000,0.812191,0.000000,0.191180,1.000000,1.000000,0.910747,0.001842,0.000000,132.701170,1.139821,62.192936,1.000000,165.580825,2.756617,6.395537,1.000000,267.133458,0.770000,35.956328,1.000000,200.000000,9.152094,1.016574,0.000000,6
/home/daniel/Projects/ppsevolution/data/maps/custom_maps/Custom_7_Run_0_Map.csv,squared_error,1.3293301509804218e-07,0.4996,0.3597,0.000000,0.717727,0.252846,1.000000,0.000000,0.204273,0.859680,1.000000,0.891202,0.000000,0.000000,1.000000,0.794340,0.913771,0.385432,0.000000,125.000000,1.171927,44.651257,1.000000,1.000000,2.440590,8.737116,1.000000,280.960300,0.770000,9.000000,1.000000,159.073661,9.180825,4.468888,0.000000,7
/home/daniel/Projects/ppsevolution/data/maps/custom_maps/Custom_7_Run_0_Map.csv,squared_error,1.227827275332046e-06,0.5011,0.3589,0.204611,0.762213,0.000000,1.000000,0.027640,0.216451,0.760792,2.000000,0.667765,0.525000,0.021026,1.000000,0.758058,0.543546,0.235217,2.000000,160.806842,1.196839,9.000000,1.000000,6.500397,2.556284,7.847130,2.000000,241.858881,1.064000,11.964718,1.000000,151.853590,5.663689,3.116951,2.000000,8
/home/daniel/Projects/ppsevolution/data/maps/custom_maps/Custom_7_Run_0_Map.csv,squared_error,4.079912882339562e-07,0.5001,0.3609,0.168427,0.889051,0.410916,1.000000,0.129906,0.204609,1.000000,0.000000,1.000000,0.127376,0.000000,1.000000,0.395875,0.301390,0.186977,2.000000,154.474784,1.267868,66.939123,1.000000,26.851250,2.443785,10.000000,0.000000,300.000000,0.841331,9.000000,1.000000,79.779218,3.363204,2.682795,2.000000,9
map,fitness,fitness value,team0ratio,time,HP,Speed,Damage,Acc,ClipSize,RateOfFire,NrBullets,Range,HP,Speed,Damage,Acc,ClipSize,RateOfFire,NrBullets,Range,HP,Speed,Damage,Acc,ClipSize,RateOfFire,NrBullets,Range,HP,Speed,Damage,Acc,ClipSize,RateOfFire,NrBullets,Range,Run,target team0ratio: 0.5,target time: 0.36
/home/daniel/Projects/ppsevolution/data/maps/custom_maps/Custom_8_Run_0_Map.csv,squared_error,1.5296519842379805e-06,0.4991,0.3585,0.000000,0.853633,0.343123,0.722380,0.213608,0.178190,1.000000,0.000000,0.681234,0.155296,0.066201,0.702959,0.954440,0.734449,0.068752,2.000000,125.000000,1.248034,57.380376,0.722380,43.507940,2.192808,10.000000,0.000000,244.215873,0.856966,18.334401,0.702959,190.933656,7.477267,1.618764,2.000000,0
/home/daniel/Projects/ppsevolution/data/maps/custom_maps/Custom_8_Run_0_Map.csv,squared_error,8.325264210952952e-07,0.5007,0.3611,0.000000,1.000000,0.311176,0.779611,0.000000,0.097488,0.876123,0.000000,0.814750,0.658872,0.541671,0.491273,1.000000,0.642700,0.000000,1.000000,125.000000,1.330000,52.875877,0.779611,1.000000,1.426134,8.885103,0.000000,267.581199,1.138968,85.375605,0.491273,200.000000,6.605648,1.000000,1.000000,1
/home/daniel/Projects/ppsevolution/data/maps/custom_maps/Custom_8_Run_0_Map.csv,squared_error,2.2747502714822313e-07,0.4996,0.3605,0.000000,1.000000,0.518561,0.664021,0.212267,0.000000,0.625587,1.000000,0.715178,0.000000,0.153473,0.665060,0.966701,0.875246,0.396853,1.000000,125.000000,1.330000,82.117163,0.664021,43.241046,0.500000,6.630284,1.000000,250.156100,0.770000,30.639758,0.665060,193.373552,8.814838,4.571674,1.000000,2
/home/daniel/Projects/ppsevolution/data/maps/custom_maps/Custom_8_Run_0_Map.csv,squared_error,5.510540635973597e-06,0.4975,0.3578,0.000000,0.899724,0.293332,0.761695,0.013095,0.072570,1.000000,2.000000,0.906504,0.004126,0.341308,0.570571,0.576255,0.955836,0.030224,1.000000,125.000000,1.273846,50.359754,0.761695,3.605959,1.189417,10.000000,2.000000,283.638275,0.772310,57.124358,0.570571,115.674726,9.580446,1.272013,1.000000,3
/home/daniel/Projects/ppsevolution/data/maps/custom_maps/Custom_8_Run_0_Map.csv,squared_error,2.248009964396428e-06,0.4991,0.3619,0.090779,0.874138,0.107215,0.827427,0.161805,0.190911,0.938091,2.000000,1.000000,0.237306,0.181684,0.654418,0.912460,1.000000,0.133519,2.000000,140.886403,1.259517,24.117314,0.827427,33.199112,2.313651,9.442815,2.000000,300.000000,0.902891,34.617452,0.654418,182.579511,10.000000,2.201670,2.000000,4
/home/daniel/Projects/ppsevolution/data/maps/custom_maps/Custom_8_Run_0_Map.csv,squared_error,1.0682464923440998e-06,0.4992,0.3588,0.034718,0.730271,0.371515,0.746979,0.000000,0.053524,1.000000,0.000000,0.754688,0.264979,0.396212,0.594140,0.889225,0.712630,0.000000,0.000000,131.075711,1.178952,61.383678,0.746979,1.000000,1.008474,10.000000,0.000000,257.070413,0.918388,64.865836,0.594140,177.955849,7.269986,1.000000,0.000000,5
/home/daniel/Projects/ppsevolution/data/maps/custom_maps/Custom_8_Run_0_Map.csv,squared_error,6.886034304677973e-07,0.4989,0.3603,0.126261,0.874387,0.149544,0.816669,0.010066,0.013092,0.878998,1.000000,0.825087,0.075806,0.182233,0.696604,0.806761,0.943870,0.027770,0.000000,147.095622,1.259657,30.085653,0.816669,3.003156,0.624374,8.910979,1.000000,269.390248,0.812452,34.694838,0.696604,161.545398,9.466769,1.249931,0.000000,6
/home/daniel/Projects/ppsevolution/data/maps/custom_maps/Custom_8_Run_0_Map.csv,squared_error,6.506639251170979e-07,0.4989,0.3598,0.000887,0.960459,0.228110,0.813137,0.192544,0.000000,0.944816,1.000000,0.961625,0.076481,0.017175,0.733316,0.963116,0.852885,0.068252,0.000000,125.155285,1.307857,41.163460,0.813137,39.316218,0.500000,9.503343,1.000000,293.284448,0.812829,11.421676,0.733316,192.659999,8.602403,1.614271,0.000000,7
/home/daniel/Projects/ppsevolution/data/maps/custom_maps/Custom_8_Run_0_Map.csv,squared_error,4.321602975490167e-06,0.4972,0.3590,0.112432,1.000000,0.415478,0.674274,0.262453,0.193721,0.887917,1.000000,0.570280,0.189372,0.000000,0.757838,0.854801,0.682513,0.294186,0.000000,144.675564,1.330000,67.582382,0.674274,53.228063,2.340347,8.991256,1.000000,224.799087,0.876048,9.000000,0.757838,171.105471,6.983874,3.647677,0.000000,8
/home/daniel/Projects/ppsevolution/data/maps/custom_maps/Custom_8_Run_0_Map.csv,squared_error,4.802271573072438e-06,0.5017,0.3626,0.138172,1.000000,0.149920,0.830402,0.082515,0.221295,0.922086,1.000000,1.000000,0.018585,0.040414,0.724271,0.671241,0.873715,0.465958,0.000000,149.180028,1.330000,30.138739,0.830402,17.420502,2.602300,9.298773,1.000000,300.000000,0.780407,14.698395,0.724271,134.577049,8.800293,5.193619,0.000000,9
map,fitness,fitness value,team0ratio,time,HP,Speed,Damage,Acc,ClipSize,RateOfFire,NrBullets,Range,HP,Speed,Damage,Acc,ClipSize,RateOfFire,NrBullets,Range,HP,Speed,Damage,Acc,ClipSize,RateOfFire,NrBullets,Range,HP,Speed,Damage,Acc,ClipSize,RateOfFire,NrBullets,Range,Run,target team0ratio: 0.5,target time: 0.36
/home/daniel/Projects/ppsevolution/data/maps/custom_maps/Custom_9_Run_0_Map.csv,squared_error,9.912708879205237e-06,0.4959,0.3618,0.000000,1.000000,0.210000,0.709005,0.130008,0.067135,1.000000,2.000000,1.000000,0.000000,0.000000,0.632873,0.973054,0.733358,0.098435,0.000000,125.000000,1.330000,38.610000,0.709005,26.871529,1.137786,10.000000,2.000000,300.000000,0.770000,9.000000,0.632873,194.637691,7.466898,1.885912,0.000000,0
/home/daniel/Projects/ppsevolution/data/maps/custom_maps/Custom_9_Run_0_Map.csv,squared_error,1.5568516091726048e-06,0.4994,0.3617,0.011516,0.956041,0.225191,0.688790,0.329945,0.152479,1.000000,1.000000,0.915576,0.121150,0.000000,0.611706,0.879655,0.890049,0.456885,1.000000,127.015275,1.305383,40.751877,0.688790,66.659034,1.948549,10.000000,1.000000,285.225828,0.837844,9.000000,0.611706,176.051320,8.955463,5.111967,1.000000,1
/home/daniel/Projects/ppsevolution/data/maps/custom_maps/Custom_9_Run_0_Map.csv,squared_error,1.1202635291076788e-05,0.5035,0.3632,0.000000,0.658525,0.376880,0.655514,0.000000,0.000000,1.000000,0.000000,1.000000,0.000000,0.088417,0.607806,0.854597,1.000000,0.000000,0.000000,125.000000,1.138774,62.140102,0.655514,1.000000,0.500000,10.000000,0.000000,300.000000,0.770000,21.466730,0.607806,171.064795,10.000000,1.000000,0.000000,2
/home/daniel/Projects/ppsevolution/data/maps/custom_maps/Custom_9_Run_0_Map.csv,squared_error,4.465798614368278e-06,0.4983,0.3576,0.036939,1.000000,0.031135,0.788859,0.000000,0.000000,0.879806,2.000000,0.971704,0.000000,0.000000,0.660311,0.881619,0.864506,0.090067,1.000000,131.464245,1.330000,13.389997,0.788859,1.000000,0.500000,8.918251,2.000000,295.048132,0.770000,9.000000,0.660311,176.442175,8.712809,1.810599,1.000000,3
/home/daniel/Projects/ppsevolution/data/maps/custom_maps/Custom_9_Run_0_Map.csv,squared_error,3.6974270109936597e-06,0.5012,0.3576,0.000000,1.000000,0.169542,0.754538,0.116569,0.032652,0.978030,0.000000,1.000000,0.139822,0.001683,0.648123,0.860539,0.846347,0.065143,2.000000,125.000000,1.330000,32.905492,0.754538,24.197148,0.810196,9.802269,0.000000,300.000000,0.848300,9.237252,0.648123,172.247246,8.540293,1.586291,2.000000,4
/home/daniel/Projects/ppsevolution/data/maps/custom_maps/Custom_9_Run_0_Map.csv,squared_error,5.639966402362294e-06,0.4976,0.3623,0.000000,1.000000,0.073920,0.781880,0.024021,0.075806,1.000000,0.000000,0.986897,0.000000,0.055781,0.627264,0.767018,1.000000,0.000000,2.000000,125.000000,1.330000,19.422721,0.781880,5.780173,1.220161,10.000000,0.000000,297.707002,0.770000,16.865103,0.627264,153.636571,10.000000,1.000000,2.000000,5
/home/daniel/Projects/ppsevolution/data/maps/custom_maps/Custom_9_Run_0_Map.csv,squared_error,9.928501741598137e-07,0.5008,0.3611,0.000000,0.938456,0.146475,0.742686,0.081217,0.000000,1.000000,0.000000,0.924802,0.000000,0.091746,0.600000,1.000000,0.789452,0.020846,2.000000,125.000000,1.295536,29.652969,0.742686,17.162281,0.500000,10.000000,0.000000,286.840365,0.770000,21.936136,0.600000,200.000000,7.999795,1.187617,2.000000,6
/home/daniel/Projects/ppsevolution/data/maps/custom_maps/Custom_9_Run_0_Map.csv,squared_error,1.2148904929667069e-06,0.4985,0.3603,0.000000,0.914602,0.000000,0.817851,0.009290,0.006063,1.000000,0.000000,1.000000,0.077048,0.193716,0.568964,0.809209,0.624799,0.116034,1.000000,125.000000,1.282177,9.000000,0.817851,2.848775,0.557594,10.000000,0.000000,300.000000,0.813147,36.313983,0.568964,162.032643,6.435592,2.044309,1.000000,7
/home/daniel/Projects/ppsevolution/data/maps/custom_maps/Custom_9_Run_0_Map.csv,squared_error,6.518026113489157e-06,0.4971,0.3621,0.128076,0.817221,0.108981,0.737687,0.000000,0.000000,1.000000,1.000000,0.921834,0.111093,0.000000,0.642634,1.000000,0.882641,0.355387,2.000000,147.413377,1.227644,24.366258,0.737687,1.000000,0.500000,10.000000,1.000000,286.320879,0.832212,9.000000,0.642634,200.000000,8.885090,4.198480,2.000000,8
/home/daniel/Projects/ppsevolution/data/maps/custom_maps/Custom_9_Run_0_Map.csv,squared_error,1.3387491834351024e-06,0.4991,0.3614,0.317619,0.860208,0.134060,0.715117,0.200629,0.261058,1.000000,2.000000,0.848615,0.389647,0.007946,0.702953,0.875473,1.000000,0.000000,0.000000,180.583325,1.251717,27.902513,0.715117,40.925239,2.980050,10.000000,2.000000,273.507566,0.988203,10.120363,0.702953,175.219180,10.000000,1.000000,0.000000,9
map,fitness,fitness value,team0ratio,time,HP,Speed,Damage,Acc,ClipSize,RateOfFire,NrBullets,Range,HP,Speed,Damage,Acc,ClipSize,RateOfFire,NrBullets,Range,HP,Speed,Damage,Acc,ClipSize,RateOfFire,NrBullets,Range,HP,Speed,Damage,Acc,ClipSize,RateOfFire,NrBullets,Range,Run,target team0ratio: 0.5,target time: 0.36
/home/daniel/Projects/ppsevolution/data/maps/custom_maps/Custom_10_Run_0_Map.csv,squared_error,4.357262185862919e-07,0.5009,0.3597,0.099341,1.000000,1.000000,1.000000,0.122207,0.163962,0.805097,2.000000,0.626008,0.183478,0.965509,1.000000,1.000000,0.000000,0.009265,2.000000,142.384693,1.330000,150.000000,1.000000,25.319171,2.057636,8.245877,2.000000,234.551456,0.872747,145.136754,1.000000,200.000000,0.500000,1.083384,2.000000,0
/home/daniel/Projects/ppsevolution/data/maps/custom_maps/Custom_10_Run_0_Map.csv,squared_error,7.760208515385617e-07,0.5012,0.3600,0.000000,1.000000,1.000000,1.000000,0.083528,0.022567,1.000000,1.000000,0.560871,0.311222,1.000000,1.000000,0.885651,0.596266,0.390355,2.000000,125.000000,1.330000,150.000000,1.000000,17.622090,0.714383,10.000000,1.000000,223.152473,0.944284,150.000000,1.000000,177.244570,6.164530,4.513195,2.000000,1
/home/daniel/Projects/ppsevolution/data/maps/custom_maps/Custom_10_Run_0_Map.csv,squared_error,7.936815721223113e-07,0.5004,0.3612,0.082569,1.000000,1.000000,1.000000,0.064520,0.147844,0.971244,2.000000,0.706749,0.280119,0.844418,1.000000,0.701344,0.000000,0.000000,0.000000,139.449586,1.330000,150.000000,1.000000,13.839400,1.904516,9.741196,2.000000,248.681066,0.926867,128.062974,1.000000,140.567520,0.500000,1.000000,0.000000,2
/home/daniel/Projects/ppsevolution/data/maps/custom_maps/Custom_10_Run_0_Map.csv,squared_error,1.167419247451498e-07,0.5000,0.3595,0.051208,0.928158,0.747968,1.000000,0.000000,0.282610,1.000000,2.000000,0.304505,0.635762,1.000000,1.000000,0.887742,0.363871,0.166848,1.000000,133.961415,1.289769,114.463472,1.000000,1.000000,3.184794,10.000000,2.000000,178.288438,1.126027,150.000000,1.000000,177.660604,3.956776,2.501630,1.000000,3
/home/daniel/Projects/ppsevolution/data/maps/custom_maps/Custom_10_Run_0_Map.csv,squared_error,1.4501453363237926e-06,0.4993,0.3616,0.123086,0.974311,0.921177,1.000000,0.643433,0.110335,1.000000,2.000000,0.729945,0.385698,1.000000,1.000000,0.773034,0.323370,0.610062,0.000000,146.539993,1.315614,138.886007,1.000000,129.043240,1.548180,10.000000,2.000000,252.740409,0.985991,150.000000,1.000000,154.833745,3.572011,6.490558,0.000000,4
/home/daniel/Projects/ppsevolution/data/maps/custom_maps/Custom_10_Run_0_Map.csv,squared_error,1.919712786349242e-06,0.5019,0.3604,0.067028,0.577870,0.636423,1.000000,0.413808,0.150973,1.000000,2.000000,0.214613,0.022087,1.000000,1.000000,0.749226,0.975909,0.473327,2.000000,136.729841,1.093607,98.735592,1.000000,83.347879,1.934247,10.000000,2.000000,162.557202,0.782369,150.000000,1.000000,150.095933,9.771134,5.259947,2.000000,5
/home/daniel/Projects/ppsevolution/data/maps/custom_maps/Custom_10_Run_0_Map.csv,squared_error,1.657886106045193e-07,0.5005,0.3598,0.025721,0.492272,1.000000,1.000000,0.086794,0.103398,0.830387,2.000000,0.607548,0.070541,0.852172,1.000000,0.857375,0.088180,0.046329,2.000000,129.501185,1.045672,150.000000,1.000000,18.271978,1.482284,8.473480,2.000000,231.320947,0.809503,129.156184,1.000000,171.617538,1.337708,1.416957,2.000000,6
/home/daniel/Projects/ppsevolution/data/maps/custom_maps/Custom_10_Run_0_Map.csv,squared_error,2.643047795305632e-06,0.4979,0.3609,0.000000,0.430131,0.858523,1.000000,0.081321,0.637847,1.000000,2.000000,0.546609,0.000000,0.739531,1.000000,0.943158,0.259433,0.308589,1.000000,125.000000,1.010874,130.051805,1.000000,17.182784,6.559551,10.000000,2.000000,220.656657,0.770000,113.273874,1.000000,188.688352,2.964614,3.777298,1.000000,7
/home/daniel/Projects/ppsevolution/data/maps/custom_maps/Custom_10_Run_0_Map.csv,squared_error,6.454074435204334e-07,0.4990,0.3595,0.062806,0.832683,0.910476,0.994333,0.061931,0.494787,0.889029,2.000000,0.637532,0.275804,1.000000,1.000000,0.858225,0.736989,0.804166,0.000000,135.991132,1.236302,137.377111,0.994333,13.324332,5.200479,9.001262,2.000000,236.568092,0.924450,150.000000,1.000000,171.786828,7.501394,8.237494,0.000000,8
/home/daniel/Projects/ppsevolution/data/maps/custom_maps/Custom_10_Run_0_Map.csv,squared_error,7.0913050916267876e-06,0.5033,0.3617,0.069677,0.923478,1.000000,0.999613,0.000000,0.410916,0.825884,2.000000,0.712461,0.015979,0.947542,1.000000,1.000000,0.444186,0.018315,0.000000,137.193520,1.287148,150.000000,0.999613,1.000000,4.403701,8.432959,2.000000,249.680721,0.778948,142.603464,1.000000,200.000000,4.719767,1.164833,0.000000,9
