/home/daniel/Projects/ppsevolution/data/maps/custom_maps/Custom_1_Run_0_Map.csv,0.046353,0.710722,0.445338,1.000000,0.060893,0.291246,0.968183,2.000000,0.829108,0.061256,0.757493,1.000000,0.946545,0.972486,0.568008,2.000000
/home/daniel/Projects/ppsevolution/data/maps/custom_maps/Custom_1_Run_0_Map.csv,0.000000,0.510674,0.523162,1.000000,0.218540,0.695807,0.768110,2.000000,0.593856,0.323764,1.000000,1.000000,0.892123,0.625382,0.591888,2.000000
/home/daniel/Projects/ppsevolution/data/maps/custom_maps/Custom_1_Run_0_Map.csv,0.000000,0.592171,0.240234,1.000000,0.073855,0.197836,0.923207,2.000000,0.141499,0.157860,1.000000,1.000000,0.463112,0.891313,0.616576,2.000000
/home/daniel/Projects/ppsevolution/data/maps/custom_maps/Custom_1_Run_0_Map.csv,0.003973,1.000000,0.519787,0.967945,0.599946,0.222263,0.981110,2.000000,0.231632,0.000000,0.651353,1.000000,0.913302,0.884725,0.278372,2.000000
/home/daniel/Projects/ppsevolution/data/maps/custom_maps/Custom_1_Run_0_Map.csv,0.000000,0.868607,0.459589,1.000000,0.000000,0.963202,1.000000,2.000000,0.534543,0.302821,0.862242,1.000000,0.892922,0.489465,1.000000,2.000000
/home/daniel/Projects/ppsevolution/data/maps/custom_maps/Custom_1_Run_0_Map.csv,0.000000,0.948741,0.327160,1.000000,0.355896,0.000000,1.000000,2.000000,0.163317,0.045210,0.951486,1.000000,0.778656,0.396579,0.365259,2.000000
/home/daniel/Projects/ppsevolution/data/maps/custom_maps/Custom_1_Run_0_Map.csv,0.056970,0.599826,0.550260,1.000000,0.215121,0.079163,0.941165,1.000000,0.585146,0.103635,0.986705,1.000000,1.000000,0.887867,0.337426,2.000000
/home/daniel/Projects/ppsevolution/data/maps/custom_maps/Custom_1_Run_0_Map.csv,0.000000,0.855482,0.405193,1.000000,0.127074,0.237656,0.677834,2.000000,0.387440,0.741076,1.000000,1.000000,0.831998,0.315886,0.315359,2.000000
/home/daniel/Projects/ppsevolution/data/maps/custom_maps/Custom_1_Run_0_Map.csv,0.000000,1.000000,0.680080,0.995346,0.031524,0.076987,0.999062,1.000000,0.574860,0.290243,0.996596,1.000000,0.478382,0.464445,0.667734,2.000000
/home/daniel/Projects/ppsevolution/data/maps/custom_maps/Custom_1_Run_0_Map.csv,0.000000,1.000000,0.464287,1.000000,0.000000,0.000000,1.000000,2.000000,0.677448,0.424141,0.915599,1.000000,0.543435,0.851573,0.180207,2.000000
/home/daniel/Projects/ppsevolution/data/maps/custom_maps/Custom_2_Run_0_Map.csv,0.012444,0.640021,0.384005,1.000000,0.000000,0.030350,0.880596,2.000000,0.738191,0.584098,1.000000,1.000000,1.000000,1.000000,1.000000,2.000000
/home/daniel/Projects/ppsevolution/data/maps/custom_maps/Custom_2_Run_0_Map.csv,0.097052,0.614542,0.711155,1.000000,0.000000,0.124080,1.000000,2.000000,0.925953,0.191336,0.960374,1.000000,0.534592,1.000000,0.927932,2.000000
/home/daniel/Projects/ppsevolution/data/maps/custom_maps/Custom_2_Run_0_Map.csv,0.023350,0.971357,0.775018,1.000000,0.000000,0.155100,0.915995,2.000000,0.845217,0.085711,0.985357,1.000000,0.856087,0.897128,0.965433,2.000000
/home/daniel/Projects/ppsevolution/data/maps/custom_maps/Custom_2_Run_0_Map.csv,0.097544,0.937809,0.579535,1.000000,0.000000,0.000000,0.999274,2.000000,0.996713,0.322319,0.962322,1.000000,0.854908,1.000000,1.000000,2.000000
/home/daniel/Projects/ppsevolution/data/maps/custom_maps/Custom_2_Run_0_Map.csv,0.000000,0.924674,0.610642,1.000000,0.028232,0.085291,0.622635,2.000000,0.943186,0.004228,1.000000,1.000000,0.978893,0.978215,0.654861,2.000000
/home/daniel/Projects/ppsevolution/data/maps/custom_maps/Custom_2_Run_0_Map.csv,0.109846,0.845163,0.667379,1.000000,0.114235,0.062568,0.917516,2.000000,1.000000,0.167220,0.962028,1.000000,0.627683,0.964287,1.000000,2.000000
/home/daniel/Projects/ppsevolution/data/maps/custom_maps/Custom_2_Run_0_Map.csv,0.077897,1.000000,0.601290,1.000000,0.015419,0.290828,1.000000,2.000000,0.749703,0.058354,0.948720,1.000000,0.851334,0.856314,0.974946,2.000000
/home/daniel/Projects/ppsevolution/data/maps/custom_maps/Custom_2_Run_0_Map.csv,0.006767,1.000000,0.568990,1.000000,0.033586,0.000000,1.000000,2.000000,0.725383,0.355371,0.939898,1.000000,0.974525,0.973708,0.915948,2.000000
/home/daniel/Projects/ppsevolution/data/maps/custom_maps/Custom_2_Run_0_Map.csv,0.000000,0.621270,0.214973,1.000000,0.053946,0.157522,0.895831,2.000000,0.263555,0.106887,0.988399,1.000000,0.954122,0.892297,1.000000,2.000000
/home/daniel/Projects/ppsevolution/data/maps/custom_maps/Custom_2_Run_0_Map.csv,0.000000,0.658234,0.788657,1.000000,0.191025,0.114081,1.000000,2.000000,1.000000,0.000000,0.994766,1.000000,0.960140,0.432602,1.000000,2.000000
/home/daniel/Projects/ppsevolution/data/maps/custom_maps/Custom_3_Run_0_Map.csv,0.000000,0.704749,0.807603,1.000000,0.000000,0.126812,1.000000,2.000000,0.301925,0.072651,1.000000,1.000000,0.588916,0.206886,1.000000,2.000000
/home/daniel/Projects/ppsevolution/data/maps/custom_maps/Custom_3_Run_0_Map.csv,0.000000,1.000000,1.000000,0.979716,0.246088,0.243089,0.962033,2.000000,0.041250,0.000000,0.914554,1.000000,0.753672,0.000000,0.877206,2.000000
/home/daniel/Projects/ppsevolution/data/maps/custom_maps/Custom_3_Run_0_Map.csv,0.116125,0.712774,0.939830,0.976223,0.000000,0.000000,0.955542,2.000000,0.000000,0.003924,0.950310,1.000000,0.996281,0.083037,0.595628,2.000000
/home/daniel/Projects/ppsevolution/data/maps/custom_maps/Custom_3_Run_0_Map.csv,0.052200,1.000000,1.000000,0.974339,0.000000,0.000000,1.000000,2.000000,0.270648,0.463263,0.989278,1.000000,0.955568,0.327652,0.959030,1.000000
/home/daniel/Projects/ppsevolution/data/maps/custom_maps/Custom_3_Run_0_Map.csv,0.000000,0.607645,0.996269,0.968279,0.010283,0.530526,0.913086,2.000000,0.000000,0.050676,0.742346,1.000000,0.850101,0.698065,0.005439,2.000000
/home/daniel/Projects/ppsevolution/data/maps/custom_maps/Custom_3_Run_0_Map.csv,0.112537,0.762389,1.000000,0.955796,0.324424,0.112138,0.811877,2.000000,0.000000,0.296742,0.969937,1.000000,1.000000,0.628380,0.606033,2.000000
/home/daniel/Projects/ppsevolution/data/maps/custom_maps/Custom_3_Run_0_Map.csv,0.048335,0.399920,0.946644,0.989742,0.308160,0.263895,1.000000,2.000000,0.082579,0.000000,1.000000,1.000000,0.408214,0.134129,0.716502,2.000000
/home/daniel/Projects/ppsevolution/data/maps/custom_maps/Custom_3_Run_0_Map.csv,0.000000,0.558047,1.000000,1.000000,0.040289,0.014183,1.000000,2.000000,0.320373,0.272420,1.000000,1.000000,1.000000,0.198064,0.747616,2.000000
/home/daniel/Projects/ppsevolution/data/maps/custom_maps/Custom_3_Run_0_Map.csv,0.000000,0.557989,0.970658,0.997462,0.139431,0.073279,1.000000,2.000000,0.114055,0.070357,1.000000,1.000000,0.879317,0.000000,0.301730,2.000000
/home/daniel/Projects/ppsevolution/data/maps/custom_maps/Custom_3_Run_0_Map.csv,0.000000,0.892409,0.925865,1.000000,0.047785,1.000000,1.000000,2.000000,0.074139,0.223623,1.000000,1.000000,1.000000,0.057756,0.791443,2.000000
/home/daniel/Projects/ppsevolution/data/maps/custom_maps/Custom_4_Run_0_Map.csv,0.085358,0.497697,0.766257,0.990303,0.042130,0.009486,0.926111,2.000000,0.009206,0.340219,1.000000,1.000000,0.439990,0.000000,0.870733,2.000000
/home/daniel/Projects/ppsevolution/data/maps/custom_maps/Custom_4_Run_0_Map.csv,0.000000,1.000000,0.760415,0.991866,0.067825,0.333746,1.000000,2.000000,0.074343,0.519405,1.000000,1.000000,0.896762,0.201912,0.873979,2.000000
/home/daniel/Projects/ppsevolution/data/maps/custom_maps/Custom_4_Run_0_Map.csv,0.032469,0.992202,0.681343,1.000000,0.000000,0.160067,0.877754,2.000000,0.000000,0.190569,1.000000,1.000000,0.699225,0.174744,0.527548,2.000000
/home/daniel/Projects/ppsevolution/data/maps/custom_maps/Custom_4_Run_0_Map.csv,0.074384,1.000000,0.976342,0.994518,0.000000,0.000000,1.000000,2.000000,0.093493,0.345556,1.000000,1.000000,0.781529,0.042699,0.088363,2.000000
/home/daniel/Projects/ppsevolution/data/maps/custom_maps/Custom_4_Run_0_Map.csv,0.121833,0.755288,0.972331,0.974929,0.000000,0.000000,1.000000,2.000000,0.000000,0.558872,1.000000,1.000000,0.643878,0.551275,0.325199,2.000000
/home/daniel/Projects/ppsevolution/data/maps/custom_maps/Custom_4_Run_0_Map.csv,0.080116,1.000000,0.964504,1.000000,0.258605,0.089989,0.949239,2.000000,0.388234,0.521896,1.000000,1.000000,0.633713,0.000000,0.894303,2.000000
/home/daniel/Projects/ppsevolution/data/maps/custom_maps/Custom_4_Run_0_Map.csv,0.000000,0.342073,1.000000,1.000000,0.289900,0.162762,0.778662,2.000000,0.411516,0.051835,1.000000,1.000000,0.867735,0.185077,0.608631,2.000000
/home/daniel/Projects/ppsevolution/data/maps/custom_maps/Custom_4_Run_0_Map.csv,0.000000,1.000000,0.835980,0.992043,0.247330,0.016529,1.000000,2.000000,0.189149,0.000000,0.842473,1.000000,0.602205,0.149942,1.000000,2.000000
/home/daniel/Projects/ppsevolution/data/maps/custom_maps/Custom_4_Run_0_Map.csv,0.000000,0.677789,0.998500,1.000000,0.110992,0.106489,0.933394,2.000000,0.636810,0.099182,0.969988,1.000000,1.000000,0.778401,0.090849,2.000000
/home/daniel/Projects/ppsevolution/data/maps/custom_maps/Custom_4_Run_0_Map.csv,0.000000,0.867452,0.625097,1.000000,0.074134,0.077842,1.000000,2.000000,0.000000,0.487231,0.869049,1.000000,1.000000,0.569535,0.402422,2.000000
/home/daniel/Projects/ppsevolution/data/maps/custom_maps/Custom_5_Run_0_Map.csv,0.058548,0.508343,0.927237,0.982348,0.034135,0.183944,1.000000,2.000000,0.000000,0.047829,0.861328,1.000000,0.896978,0.659592,0.000000,1.000000
/home/daniel/Projects/ppsevolution/data/maps/custom_maps/Custom_5_Run_0_Map.csv,0.000000,0.847938,1.000000,0.983480,0.589047,0.548168,1.000000,2.000000,0.000000,0.037305,0.804912,1.000000,0.756696,0.434869,0.213275,1.000000
/home/daniel/Projects/ppsevolution/data/maps/custom_maps/Custom_5_Run_0_Map.csv,0.006507,0.246571,0.993353,0.970740,0.000000,0.478296,0.965610,2.000000,0.000000,0.338436,0.773049,1.000000,0.470248,1.000000,0.544488,1.000000
/home/daniel/Projects/ppsevolution/data/maps/custom_maps/Custom_5_Run_0_Map.csv,0.000000,0.689691,1.000000,1.000000,0.465318,0.123816,1.000000,2.000000,0.029199,0.000000,1.000000,1.000000,0.600085,0.032918,0.058567,2.000000
/home/daniel/Projects/ppsevolution/data/maps/custom_maps/Custom_5_Run_0_Map.csv,0.062913,0.571966,1.000000,0.968585,0.130853,0.000000,1.000000,2.000000,0.022980,0.413757,0.864618,1.000000,0.388606,0.501445,0.291291,2.000000
/home/daniel/Projects/ppsevolution/data/maps/custom_maps/Custom_5_Run_0_Map.csv,0.011315,0.327216,1.000000,0.974051,0.510885,0.112465,1.000000,2.000000,0.000000,0.632375,0.804211,1.000000,0.991671,0.000000,0.376034,2.000000
/home/daniel/Projects/ppsevolution/data/maps/custom_maps/Custom_5_Run_0_Map.csv,0.306984,0.780890,1.000000,0.969302,0.159910,0.511948,1.000000,2.000000,0.054068,0.000000,1.000000,1.000000,0.695434,0.000000,0.521498,2.000000
/home/daniel/Projects/ppsevolution/data/maps/custom_maps/Custom_5_Run_0_Map.csv,0.000000,0.808675,1.000000,0.977245,0.417570,0.000000,1.000000,2.000000,0.000000,0.036508,0.796021,1.000000,0.849556,0.000000,0.536834,2.000000
/home/daniel/Projects/ppsevolution/data/maps/custom_maps/Custom_5_Run_0_Map.csv,0.000000,0.547013,1.000000,0.958000,0.000000,0.179210,1.000000,2.000000,0.000000,0.000000,0.989311,1.000000,0.908862,0.810129,0.488857,1.000000
/home/daniel/Projects/ppsevolution/data/maps/custom_maps/Custom_5_Run_0_Map.csv,0.313401,0.931296,1.000000,0.963114,0.029287,0.593417,1.000000,2.000000,0.000000,0.000000,0.942553,1.000000,0.987370,0.310233,0.224163,0.000000
/home/daniel/Projects/ppsevolution/data/maps/custom_maps/Custom_6_Run_0_Map.csv,0.000000,1.000000,0.000000,1.000000,0.000000,0.000000,1.000000,2.000000,1.000000,0.208534,1.000000,0.968487,0.567858,0.681271,0.273275,2.000000
/home/daniel/Projects/ppsevolution/data/maps/custom_maps/Custom_6_Run_0_Map.csv,0.033358,1.000000,0.000000,1.000000,0.000000,0.000000,0.345755,2.000000,1.000000,0.099302,0.990342,1.000000,0.940750,0.960923,0.511541,2.000000
/home/daniel/Projects/ppsevolution/data/maps/custom_maps/Custom_6_Run_0_Map.csv,0.000000,0.521083,0.000490,1.000000,0.008812,0.118418,0.939657,2.000000,0.948225,0.013299,1.000000,0.953661,0.960132,1.000000,0.447099,2.000000
/home/daniel/Projects/ppsevolution/data/maps/custom_maps/Custom_6_Run_0_Map.csv,0.187907,0.496566,0.039051,1.000000,0.000000,0.000000,0.660832,2.000000,1.000000,0.762380,0.911278,0.991528,0.878749,0.936938,0.145846,2.000000
/home/daniel/Projects/ppsevolution/data/maps/custom_maps/Custom_6_Run_0_Map.csv,0.196180,0.600412,0.000000,1.000000,0.004003,0.129735,0.000000,2.000000,0.954799,0.016221,0.989178,0.977517,1.000000,1.000000,1.000000,2.000000
/home/daniel/Projects/ppsevolution/data/maps/custom_maps/Custom_6_Run_0_Map.csv,0.056667,0.957092,0.011575,1.000000,0.000000,0.091910,0.948081,2.000000,1.000000,0.000000,1.000000,0.940577,0.950098,0.802098,0.132645,2.000000
/home/daniel/Projects/ppsevolution/data/maps/custom_maps/Custom_6_Run_0_Map.csv,0.111896,0.742485,0.000000,1.000000,0.057315,0.249768,0.825366,2.000000,0.970985,0.041345,0.970352,0.938744,0.942173,0.749453,0.602306,2.000000
/home/daniel/Projects/ppsevolution/data/maps/custom_maps/Custom_6_Run_0_Map.csv,0.000000,0.959267,0.000000,1.000000,0.169157,0.000000,0.269323,1.000000,1.000000,0.188202,1.000000,0.942879,1.000000,0.888455,0.849172,2.000000
/home/daniel/Projects/ppsevolution/data/maps/custom_maps/Custom_6_Run_0_Map.csv,0.202181,0.241889,0.000000,1.000000,0.204197,0.000000,0.463021,2.000000,1.000000,0.350698,1.000000,0.983769,1.000000,1.000000,0.500008,2.000000
/home/daniel/Projects/ppsevolution/data/maps/custom_maps/Custom_6_Run_0_Map.csv,0.000000,1.000000,0.000000,1.000000,0.050274,0.109845,0.888713,1.000000,1.000000,0.000000,0.909911,0.959471,0.899935,0.966022,0.728674,2.000000
/home/daniel/Projects/ppsevolution/data/maps/custom_maps/Custom_7_Run_0_Map.csv,0.000000,0.953561,0.713371,1.000000,0.162022,0.000000,0.960456,2.000000,1.000000,0.327852,0.945628,1.000000,0.671515,0.920006,0.704824,2.000000
/home/daniel/Projects/ppsevolution/data/maps/custom_maps/Custom_7_Run_0_Map.csv,0.025946,0.767458,0.625422,1.000000,0.521365,0.000000,1.000000,2.000000,0.555724,0.239173,1.000000,1.000000,0.833772,0.802809,0.601228,2.000000
/home/daniel/Projects/ppsevolution/data/maps/custom_maps/Custom_7_Run_0_Map.csv,0.000000,0.792953,0.374996,1.000000,0.182786,0.000000,0.967734,2.000000,0.080413,0.972681,1.000000,1.000000,0.489187,0.449323,0.778382,2.000000
/home/daniel/Projects/ppsevolution/data/maps/custom_maps/Custom_7_Run_0_Map.csv,0.000000,1.000000,0.667354,1.000000,0.017234,0.078755,0.741186,2.000000,0.773037,0.137957,0.933938,0.993790,0.899863,1.000000,0.518890,2.000000
/home/daniel/Projects/ppsevolution/data/maps/custom_maps/Custom_7_Run_0_Map.csv,0.036024,0.777628,0.767558,1.000000,0.262517,0.000000,0.907611,2.000000,0.902149,0.756043,1.000000,1.000000,0.330402,0.923248,0.840109,2.000000
/home/daniel/Projects/ppsevolution/data/maps/custom_maps/Custom_7_Run_0_Map.csv,0.189352,0.714914,0.398923,1.000000,0.355196,0.000000,1.000000,2.000000,0.547440,0.284898,0.989003,1.000000,1.000000,1.000000,0.560388,2.000000
/home/daniel/Projects/ppsevolution/data/maps/custom_maps/Custom_7_Run_0_Map.csv,0.255933,0.960140,0.742436,1.000000,0.271188,0.058231,1.000000,2.000000,0.919763,0.215953,1.000000,1.000000,0.511236,0.959564,0.234493,2.000000
/home/daniel/Projects/ppsevolution/data/maps/custom_maps/Custom_7_Run_0_Map.csv,0.048106,0.512543,0.558869,1.000000,0.000000,0.007621,1.000000,2.000000,0.693838,0.062959,0.986024,1.000000,0.842890,0.958511,0.465258,2.000000
/home/daniel/Projects/ppsevolution/data/maps/custom_maps/Custom_7_Run_0_Map.csv,0.000000,0.888005,0.809062,1.000000,0.112173,0.000000,0.725024,2.000000,0.972756,0.309597,0.953499,1.000000,0.676541,0.795473,1.000000,2.000000
/home/daniel/Projects/ppsevolution/data/maps/custom_maps/Custom_7_Run_0_Map.csv,0.000000,0.896054,0.262744,0.996949,0.000000,0.000000,0.517930,2.000000,0.184134,0.427819,0.984303,1.000000,0.975339,0.925683,0.997297,2.000000
/home/daniel/Projects/ppsevolution/data/maps/custom_maps/Custom_8_Run_0_Map.csv,0.063958,1.000000,0.755106,1.000000,0.000000,0.000000,1.000000,2.000000,0.523581,0.579210,1.000000,1.000000,0.827417,0.540155,0.489209,2.000000
/home/daniel/Projects/ppsevolution/data/maps/custom_maps/Custom_8_Run_0_Map.csv,0.051189,0.605251,0.655306,1.000000,0.000000,0.258775,1.000000,2.000000,0.213761,0.005683,1.000000,1.000000,0.288903,0.630821,1.000000,2.000000
/home/daniel/Projects/ppsevolution/data/maps/custom_maps/Custom_8_Run_0_Map.csv,0.000000,0.913581,0.854724,0.979287,0.000000,0.076221,1.000000,2.000000,0.083773,0.732183,1.000000,1.000000,0.789753,0.348088,0.832398,2.000000
/home/daniel/Projects/ppsevolution/data/maps/custom_maps/Custom_8_Run_0_Map.csv,0.119602,0.812407,0.657531,1.000000,0.669509,0.274500,1.000000,2.000000,0.115498,0.044024,1.000000,1.000000,1.000000,0.000000,0.763752,2.000000
/home/daniel/Projects/ppsevolution/data/maps/custom_maps/Custom_8_Run_0_Map.csv,0.000000,1.000000,0.731375,1.000000,0.279732,0.000000,1.000000,2.000000,0.258180,0.409525,0.996141,1.000000,1.000000,0.765968,0.807824,2.000000
/home/daniel/Projects/ppsevolution/data/maps/custom_maps/Custom_8_Run_0_Map.csv,0.000000,0.761108,0.755602,1.000000,0.000000,0.291754,1.000000,2.000000,0.581575,0.330692,0.921461,1.000000,0.218660,0.757097,0.173305,2.000000
/home/daniel/Projects/ppsevolution/data/maps/custom_maps/Custom_8_Run_0_Map.csv,0.059537,0.528302,0.565285,1.000000,0.145676,0.000000,1.000000,2.000000,0.030641,0.129238,1.000000,1.000000,0.923721,0.313803,0.735125,2.000000
/home/daniel/Projects/ppsevolution/data/maps/custom_maps/Custom_8_Run_0_Map.csv,0.106301,0.897748,0.865209,0.982222,0.000000,0.082164,1.000000,2.000000,0.359513,0.213867,0.869778,1.000000,0.736823,0.578518,0.836534,2.000000
/home/daniel/Projects/ppsevolution/data/maps/custom_maps/Custom_8_Run_0_Map.csv,0.077539,0.815857,0.740383,1.000000,0.402609,0.000428,0.763268,2.000000,0.499649,0.501474,1.000000,1.000000,0.865414,0.647180,0.171785,2.000000
/home/daniel/Projects/ppsevolution/data/maps/custom_maps/Custom_8_Run_0_Map.csv,0.000000,0.889159,0.939939,1.000000,0.414656,0.438894,1.000000,2.000000,0.783480,0.000160,0.897094,1.000000,0.712176,0.445306,1.000000,2.000000
/home/daniel/Projects/ppsevolution/data/maps/custom_maps/Custom_9_Run_0_Map.csv,0.000000,0.586503,0.503827,1.000000,0.345237,0.327352,1.000000,2.000000,0.280124,0.079383,0.941866,1.000000,0.111917,0.293498,1.000000,2.000000
/home/daniel/Projects/ppsevolution/data/maps/custom_maps/Custom_9_Run_0_Map.csv,0.000000,0.905551,0.723636,1.000000,0.276590,0.351084,0.695153,2.000000,0.504253,0.032018,0.994981,1.000000,0.655620,0.000000,0.429124,2.000000
/home/daniel/Projects/ppsevolution/data/maps/custom_maps/Custom_9_Run_0_Map.csv,0.000000,0.316223,0.695812,1.000000,0.006938,0.206002,0.994903,2.000000,0.592998,0.139651,1.000000,1.000000,0.360161,0.486228,0.683794,2.000000
/home/daniel/Projects/ppsevolution/data/maps/custom_maps/Custom_9_Run_0_Map.csv,0.000000,0.500283,0.897655,0.996192,0.095847,0.268275,0.985768,1.000000,0.641359,0.106875,1.000000,1.000000,0.925082,0.239372,0.819411,2.000000
/home/daniel/Projects/ppsevolution/data/maps/custom_maps/Custom_9_Run_0_Map.csv,0.000000,0.977845,0.857188,1.000000,0.000000,0.223871,1.000000,2.000000,0.819414,0.249780,0.963861,1.000000,0.512543,0.915622,0.208789,2.000000
/home/daniel/Projects/ppsevolution/data/maps/custom_maps/Custom_9_Run_0_Map.csv,0.000000,0.627654,1.000000,1.000000,0.000000,0.042215,1.000000,1.000000,0.762406,0.000000,0.969167,1.000000,0.982444,0.150290,0.137551,2.000000
/home/daniel/Projects/ppsevolution/data/maps/custom_maps/Custom_9_Run_0_Map.csv,0.079659,0.269351,0.592018,1.000000,0.148217,0.000000,1.000000,2.000000,0.244549,0.079290,0.984513,1.000000,0.908322,0.000000,0.257226,2.000000
/home/daniel/Projects/ppsevolution/data/maps/custom_maps/Custom_9_Run_0_Map.csv,0.000000,1.000000,0.544525,1.000000,0.307920,0.073236,0.855778,1.000000,0.235896,0.306470,0.911457,1.000000,0.527492,0.614019,1.000000,2.000000
/home/daniel/Projects/ppsevolution/data/maps/custom_maps/Custom_9_Run_0_Map.csv,0.000000,0.941709,0.617002,0.984854,0.289941,0.022998,1.000000,2.000000,0.232808,0.537571,0.912872,1.000000,0.873538,0.725116,0.737320,2.000000
/home/daniel/Projects/ppsevolution/data/maps/custom_maps/Custom_9_Run_0_Map.csv,0.123835,0.432441,0.740588,0.986626,0.000000,0.000000,0.985578,2.000000,0.573378,0.049534,0.831830,1.000000,0.700849,0.568808,0.642431,2.000000
/home/daniel/Projects/ppsevolution/data/maps/custom_maps/Custom_10_Run_0_Map.csv,0.387955,0.586392,1.000000,1.000000,0.148429,0.889826,1.000000,2.000000,0.000000,0.122297,1.000000,1.000000,0.612666,0.119823,0.925036,0.000000
/home/daniel/Projects/ppsevolution/data/maps/custom_maps/Custom_10_Run_0_Map.csv,0.221592,0.752214,1.000000,0.971239,0.149338,0.528029,0.995732,2.000000,0.000000,0.105813,0.918523,1.000000,0.622888,0.079500,1.000000,0.000000
/home/daniel/Projects/ppsevolution/data/maps/custom_maps/Custom_10_Run_0_Map.csv,0.000000,0.949521,1.000000,1.000000,0.000000,0.070579,0.914917,2.000000,0.000000,0.248120,0.910309,1.000000,0.613011,0.000000,0.964785,2.000000
/home/daniel/Projects/ppsevolution/data/maps/custom_maps/Custom_10_Run_0_Map.csv,0.000000,0.383558,1.000000,1.000000,0.000000,0.661983,1.000000,2.000000,0.000000,0.096963,1.000000,1.000000,0.709389,0.166851,0.769940,2.000000
/home/daniel/Projects/ppsevolution/data/maps/custom_maps/Custom_10_Run_0_Map.csv,0.046342,0.772912,1.000000,1.000000,0.143727,0.402154,0.934725,2.000000,0.000000,0.068718,0.996608,1.000000,0.930969,0.000000,0.373425,1.000000
/home/daniel/Projects/ppsevolution/data/maps/custom_maps/Custom_10_Run_0_Map.csv,0.000000,0.523136,0.965944,1.000000,0.226814,0.333148,1.000000,2.000000,0.035008,0.034181,0.971520,1.000000,1.000000,0.000000,0.776516,1.000000
/home/daniel/Projects/ppsevolution/data/maps/custom_maps/Custom_10_Run_0_Map.csv,0.188255,0.798006,1.000000,0.976244,0.304115,0.250955,1.000000,2.000000,0.000000,0.149913,1.000000,1.000000,0.777939,0.000000,0.776934,0.000000
/home/daniel/Projects/ppsevolution/data/maps/custom_maps/Custom_10_Run_0_Map.csv,0.000000,0.830649,1.000000,0.994278,0.000000,0.491434,1.000000,2.000000,0.000000,0.125770,1.000000,1.000000,0.424145,0.000000,0.730736,1.000000
/home/daniel/Projects/ppsevolution/data/maps/custom_maps/Custom_10_Run_0_Map.csv,0.000000,0.218434,0.986155,1.000000,0.000000,0.731548,0.948425,2.000000,0.000000,0.271193,1.000000,1.000000,0.876174,0.041004,0.664340,0.000000
/home/daniel/Projects/ppsevolution/data/maps/custom_maps/Custom_10_Run_0_Map.csv,0.027063,0.610259,0.994741,1.000000,0.032108,0.072128,1.000000,2.000000,0.000000,0.084084,0.950721,1.000000,0.601210,0.310899,0.057624,1.000000
