/home/daniel/Projects/ppsevolution/data/maps/custom_maps/Custom_1_Run_0_Map.csv,0.876911,0.482976,0.000000,0.000000,0.000000,0.153230,0.785452,0.000000,1.000000,0.262772,0.000000,0.000000,0.668969,0.875741,0.334926,0.000000
/home/daniel/Projects/ppsevolution/data/maps/custom_maps/Custom_1_Run_0_Map.csv,0.786291,0.781063,0.000000,0.000000,0.146392,0.000000,0.814652,0.000000,1.000000,0.464334,0.000000,0.000000,0.840508,0.792645,0.000000,1.000000
/home/daniel/Projects/ppsevolution/data/maps/custom_maps/Custom_1_Run_0_Map.csv,0.906553,0.987187,0.000000,0.000000,0.221519,0.264597,0.656875,0.000000,1.000000,0.093018,0.000000,0.041515,0.544468,0.575667,0.158706,0.000000
/home/daniel/Projects/ppsevolution/data/maps/custom_maps/Custom_1_Run_0_Map.csv,0.930884,0.623069,0.000000,0.000000,0.194782,0.511875,0.236560,2.000000,0.958395,0.193744,0.000000,0.056734,0.593957,0.700856,0.009116,2.000000
/home/daniel/Projects/ppsevolution/data/maps/custom_maps/Custom_1_Run_0_Map.csv,0.871362,0.737149,0.000000,0.000000,0.135334,0.077170,0.155127,1.000000,0.920080,0.238626,0.032589,0.000000,0.126105,0.653163,0.000000,1.000000
/home/daniel/Projects/ppsevolution/data/maps/custom_maps/Custom_1_Run_0_Map.csv,0.853179,0.858278,0.000237,0.000000,0.139313,0.191535,0.931720,0.000000,1.000000,0.958381,0.005251,0.000000,0.980504,1.000000,0.160879,1.000000
/home/daniel/Projects/ppsevolution/data/maps/custom_maps/Custom_1_Run_0_Map.csv,0.801234,0.987606,0.000000,0.000000,0.386043,0.586662,0.733695,0.000000,1.000000,0.201720,0.000000,0.000000,0.892302,0.535810,0.000000,1.000000
/home/daniel/Projects/ppsevolution/data/maps/custom_maps/Custom_1_Run_0_Map.csv,0.810911,0.893316,0.000000,0.015017,0.060231,0.095480,0.407548,0.000000,0.964569,0.117710,0.000000,0.018950,0.623468,0.886120,0.000000,0.000000
/home/daniel/Projects/ppsevolution/data/maps/custom_maps/Custom_1_Run_0_Map.csv,0.850991,0.551456,0.000000,0.000000,0.164505,0.000000,0.752806,0.000000,1.000000,0.252879,0.004322,0.029226,1.000000,0.629165,0.000000,2.000000
/home/daniel/Projects/ppsevolution/data/maps/custom_maps/Custom_1_Run_0_Map.csv,0.942419,1.000000,0.000000,0.000000,0.085050,0.000000,0.873594,0.000000,1.000000,0.308704,0.019152,0.000000,0.956903,0.859867,0.481790,0.000000
/home/daniel/Projects/ppsevolution/data/maps/custom_maps/Custom_2_Run_0_Map.csv,0.009896,0.993950,0.000000,0.573867,0.280357,0.001646,0.924609,2.000000,1.000000,0.056896,0.069914,0.107133,0.960311,1.000000,0.000000,2.000000
/home/daniel/Projects/ppsevolution/data/maps/custom_maps/Custom_2_Run_0_Map.csv,0.335060,0.451433,0.000000,0.527880,0.398690,0.186652,0.907729,1.000000,0.886783,0.358019,0.000000,0.281946,1.000000,0.814542,0.227810,2.000000
/home/daniel/Projects/ppsevolution/data/maps/custom_maps/Custom_2_Run_0_Map.csv,0.437642,0.699115,0.000000,0.557927,0.155964,0.117992,0.789560,0.000000,0.954370,0.131077,0.000000,0.367133,1.000000,1.000000,0.000000,2.000000
/home/daniel/Projects/ppsevolution/data/maps/custom_maps/Custom_2_Run_0_Map.csv,0.095128,1.000000,0.158510,0.409056,0.023120,0.411618,0.855705,1.000000,0.941134,0.245881,0.028600,0.145733,0.771230,0.744199,0.108797,1.000000
/home/daniel/Projects/ppsevolution/data/maps/custom_maps/Custom_2_Run_0_Map.csv,0.452679,1.000000,0.145163,0.400974,0.257811,0.394986,0.667781,2.000000,0.946306,0.100523,0.271635,0.053413,0.781754,0.809011,0.102413,1.000000
/home/daniel/Projects/ppsevolution/data/maps/custom_maps/Custom_2_Run_0_Map.csv,0.000000,1.000000,0.000000,0.558912,0.223563,0.064592,0.892426,0.000000,0.945179,0.041074,0.000000,0.145424,0.949135,0.856941,0.106980,0.000000
/home/daniel/Projects/ppsevolution/data/maps/custom_maps/Custom_2_Run_0_Map.csv,0.015383,0.883987,0.000000,0.583824,0.000000,0.074165,0.585167,2.000000,0.972714,0.223344,0.076264,0.102724,0.916523,0.931163,0.000000,2.000000
/home/daniel/Projects/ppsevolution/data/maps/custom_maps/Custom_2_Run_0_Map.csv,0.285243,0.960334,0.000000,0.515537,0.251304,0.049553,0.907765,2.000000,0.886977,0.000000,0.099112,0.185918,0.883183,1.000000,0.000000,2.000000
/home/daniel/Projects/ppsevolution/data/maps/custom_maps/Custom_2_Run_0_Map.csv,0.000000,0.846394,0.371037,0.225980,0.000000,0.051761,0.810851,0.000000,1.000000,0.001929,0.000000,0.147183,0.990238,1.000000,0.000000,1.000000
/home/daniel/Projects/ppsevolution/data/maps/custom_maps/Custom_2_Run_0_Map.csv,0.000000,0.973100,0.072259,0.494399,0.000000,0.225629,0.859010,0.000000,0.952977,0.000000,0.000000,0.148761,0.607069,0.701728,0.042511,2.000000
/home/daniel/Projects/ppsevolution/data/maps/custom_maps/Custom_3_Run_0_Map.csv,0.048916,1.000000,0.070074,0.583612,0.193616,0.121516,1.000000,2.000000,1.000000,0.010022,0.000935,0.310290,1.000000,0.922549,0.114423,2.000000
/home/daniel/Projects/ppsevolution/data/maps/custom_maps/Custom_3_Run_0_Map.csv,0.057334,1.000000,0.032781,0.630471,0.000000,0.167494,0.723916,0.000000,0.988984,0.020471,0.114533,0.217480,0.708668,0.822267,0.133871,2.000000
/home/daniel/Projects/ppsevolution/data/maps/custom_maps/Custom_3_Run_0_Map.csv,0.111412,0.712375,0.071178,0.539830,0.225120,0.000000,0.903147,0.000000,0.833808,0.201698,0.003292,0.360016,0.353944,1.000000,0.045116,0.000000
/home/daniel/Projects/ppsevolution/data/maps/custom_maps/Custom_3_Run_0_Map.csv,0.052823,0.703074,0.015440,0.627842,0.181468,0.095520,0.894679,2.000000,1.000000,0.172064,0.038016,0.295821,1.000000,0.978500,0.000000,2.000000
/home/daniel/Projects/ppsevolution/data/maps/custom_maps/Custom_3_Run_0_Map.csv,0.164573,1.000000,0.095859,0.560624,0.034197,0.084952,1.000000,1.000000,1.000000,0.002666,0.045319,0.293575,0.786176,0.897978,0.310791,1.000000
/home/daniel/Projects/ppsevolution/data/maps/custom_maps/Custom_3_Run_0_Map.csv,0.172097,1.000000,0.017388,0.637672,0.146453,0.175713,0.692790,1.000000,1.000000,0.129040,0.137866,0.260959,0.776872,0.654828,0.008620,0.000000
/home/daniel/Projects/ppsevolution/data/maps/custom_maps/Custom_3_Run_0_Map.csv,0.384756,0.909347,0.146596,0.494573,0.384316,0.000000,0.708721,1.000000,0.871062,0.033068,0.000000,0.462316,0.796063,1.000000,0.000000,1.000000
/home/daniel/Projects/ppsevolution/data/maps/custom_maps/Custom_3_Run_0_Map.csv,0.000000,1.000000,0.290568,0.392754,0.113525,0.006653,1.000000,0.000000,1.000000,0.015877,0.000000,0.296085,0.363953,0.885553,0.000000,0.000000
/home/daniel/Projects/ppsevolution/data/maps/custom_maps/Custom_3_Run_0_Map.csv,0.000000,0.990133,0.021652,0.627646,0.095740,0.209336,0.832313,1.000000,0.996043,0.070635,0.161027,0.160742,1.000000,0.794976,0.000000,0.000000
/home/daniel/Projects/ppsevolution/data/maps/custom_maps/Custom_3_Run_0_Map.csv,0.183780,0.622233,0.316694,0.372516,0.000000,0.131788,0.982676,0.000000,0.985464,0.202598,0.109220,0.246801,0.878304,0.973598,0.111736,2.000000
/home/daniel/Projects/ppsevolution/data/maps/custom_maps/Custom_4_Run_0_Map.csv,0.463880,0.865841,0.000000,0.307307,0.278737,0.000000,0.761744,0.000000,0.997427,0.314222,0.000000,0.000000,0.572458,0.191613,0.098079,0.000000
/home/daniel/Projects/ppsevolution/data/maps/custom_maps/Custom_4_Run_0_Map.csv,0.510823,0.929343,0.000000,0.313886,0.438257,0.467245,0.199239,1.000000,0.927266,0.280581,0.000000,0.018076,0.182912,0.658345,0.079673,0.000000
/home/daniel/Projects/ppsevolution/data/maps/custom_maps/Custom_4_Run_0_Map.csv,0.554167,0.702780,0.237377,0.000000,0.257883,0.368935,1.000000,1.000000,1.000000,0.111908,0.018917,0.000000,0.811803,0.527080,0.009882,2.000000
/home/daniel/Projects/ppsevolution/data/maps/custom_maps/Custom_4_Run_0_Map.csv,0.531583,0.851177,0.000000,0.154645,0.438992,0.013477,0.594724,2.000000,0.608824,0.278770,0.019471,0.000000,0.450327,0.817195,0.341286,0.000000
/home/daniel/Projects/ppsevolution/data/maps/custom_maps/Custom_4_Run_0_Map.csv,0.452146,0.644370,0.093494,0.178780,0.000000,0.399176,0.743846,0.000000,0.916405,0.382739,0.000000,0.000000,0.860962,0.809472,0.000000,0.000000
/home/daniel/Projects/ppsevolution/data/maps/custom_maps/Custom_4_Run_0_Map.csv,0.435720,0.800942,0.015601,0.160066,0.616394,0.000000,0.295475,2.000000,0.622386,0.060999,0.000000,0.000000,0.500133,1.000000,0.028321,1.000000
/home/daniel/Projects/ppsevolution/data/maps/custom_maps/Custom_4_Run_0_Map.csv,0.485058,1.000000,0.063896,0.225894,0.126420,0.029004,0.870502,2.000000,1.000000,0.038374,0.000000,0.000000,1.000000,1.000000,0.130777,2.000000
/home/daniel/Projects/ppsevolution/data/maps/custom_maps/Custom_4_Run_0_Map.csv,0.553049,1.000000,0.000320,0.287776,0.088199,0.162858,0.852747,1.000000,0.983763,0.095189,0.000000,0.054783,1.000000,0.999232,0.022751,2.000000
/home/daniel/Projects/ppsevolution/data/maps/custom_maps/Custom_4_Run_0_Map.csv,0.533306,0.830646,0.016690,0.174282,0.231856,0.581317,0.635911,0.000000,0.703551,0.000000,0.000000,0.062535,0.805785,0.990850,0.006259,2.000000
/home/daniel/Projects/ppsevolution/data/maps/custom_maps/Custom_4_Run_0_Map.csv,0.493474,0.449283,0.000000,0.268039,0.479818,0.250439,1.000000,2.000000,1.000000,0.165567,0.000000,0.000000,0.824968,1.000000,0.000000,2.000000
/home/daniel/Projects/ppsevolution/data/maps/custom_maps/Custom_5_Run_0_Map.csv,0.205085,0.964607,0.039424,0.378327,0.071051,0.130481,0.997496,1.000000,0.971617,0.049977,0.099498,0.000000,0.484515,0.968072,0.000000,0.000000
/home/daniel/Projects/ppsevolution/data/maps/custom_maps/Custom_5_Run_0_Map.csv,0.325548,0.945619,0.079939,0.348752,0.147353,0.278762,1.000000,0.000000,1.000000,0.042869,0.000000,0.149303,1.000000,0.233530,0.136773,0.000000
/home/daniel/Projects/ppsevolution/data/maps/custom_maps/Custom_5_Run_0_Map.csv,0.109916,1.000000,0.221902,0.188862,0.500522,0.000000,0.467670,0.000000,0.816220,0.103687,0.000000,0.065876,1.000000,1.000000,0.045996,0.000000
/home/daniel/Projects/ppsevolution/data/maps/custom_maps/Custom_5_Run_0_Map.csv,0.526993,0.860065,0.283198,0.074640,0.000000,0.000000,0.768993,1.000000,0.886934,0.000000,0.091252,0.124540,0.765196,0.943052,0.175027,1.000000
/home/daniel/Projects/ppsevolution/data/maps/custom_maps/Custom_5_Run_0_Map.csv,0.336872,1.000000,0.142090,0.178170,0.039825,0.348520,1.000000,2.000000,0.809327,0.008711,0.000000,0.092190,0.643663,0.992721,0.489205,2.000000
/home/daniel/Projects/ppsevolution/data/maps/custom_maps/Custom_5_Run_0_Map.csv,0.178640,0.860193,0.069640,0.372055,0.000000,0.000000,0.940193,2.000000,1.000000,0.000000,0.041246,0.010895,0.953016,1.000000,0.275578,1.000000
/home/daniel/Projects/ppsevolution/data/maps/custom_maps/Custom_5_Run_0_Map.csv,0.000000,0.881031,0.079545,0.325994,0.000000,0.202032,0.923752,0.000000,0.877379,0.156991,0.000000,0.000000,0.899944,0.846045,0.029353,1.000000
/home/daniel/Projects/ppsevolution/data/maps/custom_maps/Custom_5_Run_0_Map.csv,0.267388,0.519541,0.015172,0.379723,0.000000,0.021623,0.835680,1.000000,0.883992,0.000000,0.000000,0.112232,0.702247,0.964428,0.152359,1.000000
/home/daniel/Projects/ppsevolution/data/maps/custom_maps/Custom_5_Run_0_Map.csv,0.000000,0.944642,0.000000,0.453172,0.066941,0.697753,0.781196,1.000000,0.982276,0.120151,0.000000,0.000000,0.939963,0.707161,0.004155,2.000000
/home/daniel/Projects/ppsevolution/data/maps/custom_maps/Custom_5_Run_0_Map.csv,0.012988,0.863989,0.000000,0.419226,0.000000,0.022261,0.602944,0.000000,0.832432,0.090430,0.029189,0.000000,0.533856,0.983641,0.033335,0.000000
/home/daniel/Projects/ppsevolution/data/maps/custom_maps/Custom_6_Run_0_Map.csv,0.160594,0.561881,0.131059,0.616672,0.262213,0.040152,0.721108,0.000000,0.623815,0.243613,0.179134,0.471531,0.824286,0.802897,0.125648,2.000000
/home/daniel/Projects/ppsevolution/data/maps/custom_maps/Custom_6_Run_0_Map.csv,0.041916,1.000000,0.204410,0.617749,0.192580,0.000000,0.929788,2.000000,1.000000,0.573170,0.000000,0.511083,0.589372,0.903012,0.116674,1.000000
/home/daniel/Projects/ppsevolution/data/maps/custom_maps/Custom_6_Run_0_Map.csv,0.000000,0.900369,0.276134,0.630197,0.000000,0.000000,0.521048,1.000000,1.000000,0.061815,0.335107,0.303411,0.931151,0.986073,0.000000,0.000000
/home/daniel/Projects/ppsevolution/data/maps/custom_maps/Custom_6_Run_0_Map.csv,0.297918,0.885621,0.097276,0.661792,0.055664,0.012023,0.932487,1.000000,0.921734,0.000000,0.237575,0.431741,0.918108,0.906657,0.184587,0.000000
/home/daniel/Projects/ppsevolution/data/maps/custom_maps/Custom_6_Run_0_Map.csv,0.151900,0.922186,0.132948,0.642598,0.008439,0.000000,1.000000,0.000000,0.944337,0.070901,0.000000,0.555688,0.837046,0.899444,0.030229,1.000000
/home/daniel/Projects/ppsevolution/data/maps/custom_maps/Custom_6_Run_0_Map.csv,0.174638,1.000000,0.233267,0.581692,0.154053,0.135696,0.936884,2.000000,0.978677,0.004076,0.000000,0.562103,0.997527,0.956670,0.054841,0.000000
/home/daniel/Projects/ppsevolution/data/maps/custom_maps/Custom_6_Run_0_Map.csv,0.166079,0.886209,0.245571,0.520803,0.034052,0.147565,0.778482,2.000000,0.762112,0.031811,0.000000,0.571744,1.000000,1.000000,0.000000,0.000000
/home/daniel/Projects/ppsevolution/data/maps/custom_maps/Custom_6_Run_0_Map.csv,0.041909,1.000000,0.248131,0.594620,0.034456,0.081677,0.806561,1.000000,0.992525,0.000000,0.000000,0.529785,0.964624,1.000000,0.000000,0.000000
/home/daniel/Projects/ppsevolution/data/maps/custom_maps/Custom_6_Run_0_Map.csv,0.000000,0.901497,0.000000,0.723639,0.099253,0.039456,0.988499,0.000000,0.878695,0.000000,0.036434,0.505958,0.996631,0.954633,0.121030,0.000000
/home/daniel/Projects/ppsevolution/data/maps/custom_maps/Custom_6_Run_0_Map.csv,0.025942,1.000000,0.000000,0.724266,0.378461,0.000000,0.934680,2.000000,0.998613,0.202025,0.023178,0.493323,1.000000,0.835019,0.156887,2.000000
/home/daniel/Projects/ppsevolution/data/maps/custom_maps/Custom_7_Run_0_Map.csv,0.000000,0.744060,0.222803,0.349944,0.060865,0.081863,0.715379,1.000000,1.000000,0.000000,0.000000,0.131595,0.932146,0.757975,0.000000,2.000000
/home/daniel/Projects/ppsevolution/data/maps/custom_maps/Custom_7_Run_0_Map.csv,0.360313,0.973903,0.133267,0.371635,0.506452,0.350264,0.654739,1.000000,0.872300,0.162913,0.017783,0.255288,0.673717,1.000000,0.253823,1.000000
/home/daniel/Projects/ppsevolution/data/maps/custom_maps/Custom_7_Run_0_Map.csv,0.065646,0.609051,0.039928,0.510907,0.000000,0.285960,0.958276,0.000000,1.000000,0.242817,0.130740,0.000000,0.779706,1.000000,0.215662,2.000000
/home/daniel/Projects/ppsevolution/data/maps/custom_maps/Custom_7_Run_0_Map.csv,0.000000,0.872980,0.470521,0.000000,0.084839,0.215953,0.701598,1.000000,0.846432,0.029547,0.006349,0.084740,1.000000,0.705221,0.186618,0.000000
/home/daniel/Projects/ppsevolution/data/maps/custom_maps/Custom_7_Run_0_Map.csv,0.422899,0.887092,0.000000,0.480361,0.051589,0.000000,0.828977,1.000000,0.914935,0.000000,0.000000,0.316492,0.801504,0.901172,0.032820,0.000000
/home/daniel/Projects/ppsevolution/data/maps/custom_maps/Custom_7_Run_0_Map.csv,0.228628,1.000000,0.036308,0.453837,0.000000,0.387609,1.000000,1.000000,0.945344,0.018189,0.000000,0.214443,1.000000,1.000000,0.114558,0.000000
/home/daniel/Projects/ppsevolution/data/maps/custom_maps/Custom_7_Run_0_Map.csv,0.117096,0.861015,0.000000,0.517712,0.438349,0.130788,1.000000,1.000000,1.000000,0.009729,0.000000,0.163477,0.660599,0.998469,0.162011,1.000000
/home/daniel/Projects/ppsevolution/data/maps/custom_maps/Custom_7_Run_0_Map.csv,0.342938,0.855158,0.241629,0.289687,0.297597,0.323302,0.737100,0.000000,1.000000,0.000000,0.000000,0.251702,1.000000,0.898836,0.115798,0.000000
/home/daniel/Projects/ppsevolution/data/maps/custom_maps/Custom_7_Run_0_Map.csv,0.169940,0.657062,0.000000,0.471413,0.229506,0.052234,0.760868,2.000000,0.803276,0.239059,0.148010,0.029027,0.841107,0.679566,0.296380,2.000000
/home/daniel/Projects/ppsevolution/data/maps/custom_maps/Custom_7_Run_0_Map.csv,0.363338,0.547435,0.000000,0.490338,0.137927,0.186084,1.000000,2.000000,0.979735,0.258558,0.000000,0.247374,0.629098,0.761533,0.297913,1.000000
/home/daniel/Projects/ppsevolution/data/maps/custom_maps/Custom_8_Run_0_Map.csv,0.280142,1.000000,0.205397,0.218300,0.000000,0.169092,0.263946,0.000000,1.000000,0.082250,0.000000,0.017939,0.891461,0.853422,0.168500,2.000000
/home/daniel/Projects/ppsevolution/data/maps/custom_maps/Custom_8_Run_0_Map.csv,0.187042,1.000000,0.122099,0.178293,0.000000,0.000000,0.652013,0.000000,0.776628,0.000000,0.000000,0.000000,0.897864,0.906911,0.048731,1.000000
/home/daniel/Projects/ppsevolution/data/maps/custom_maps/Custom_8_Run_0_Map.csv,0.247152,1.000000,0.019614,0.362626,0.243245,0.213306,0.777827,0.000000,1.000000,0.000000,0.018074,0.000000,0.810157,0.812670,0.142712,0.000000
/home/daniel/Projects/ppsevolution/data/maps/custom_maps/Custom_8_Run_0_Map.csv,0.220287,0.976866,0.114118,0.277827,0.086824,0.151389,0.090222,2.000000,0.915179,0.000000,0.000000,0.000000,0.742718,0.710115,0.103639,0.000000
/home/daniel/Projects/ppsevolution/data/maps/custom_maps/Custom_8_Run_0_Map.csv,0.246156,0.638262,0.000000,0.359784,0.056410,0.044344,0.806734,1.000000,0.942363,0.130447,0.020593,0.000000,1.000000,1.000000,0.042396,2.000000
/home/daniel/Projects/ppsevolution/data/maps/custom_maps/Custom_8_Run_0_Map.csv,0.420714,0.842682,0.000000,0.303067,0.167898,0.072356,0.558583,0.000000,0.773367,0.236836,0.000000,0.116117,0.815686,0.660445,0.109610,1.000000
/home/daniel/Projects/ppsevolution/data/maps/custom_maps/Custom_8_Run_0_Map.csv,0.279410,0.975544,0.000000,0.310648,0.215778,0.267106,0.992921,2.000000,0.917413,0.278529,0.027263,0.000000,0.407680,0.646374,0.000000,0.000000
/home/daniel/Projects/ppsevolution/data/maps/custom_maps/Custom_8_Run_0_Map.csv,0.352991,1.000000,0.000000,0.340592,0.116442,0.705312,0.818395,1.000000,0.925133,0.074959,0.030982,0.043609,1.000000,0.633009,0.054597,0.000000
/home/daniel/Projects/ppsevolution/data/maps/custom_maps/Custom_8_Run_0_Map.csv,0.535028,0.940652,0.136869,0.167115,0.109306,0.000000,0.866450,0.000000,0.875095,0.000000,0.054312,0.077089,0.956456,0.666724,0.278875,1.000000
/home/daniel/Projects/ppsevolution/data/maps/custom_maps/Custom_8_Run_0_Map.csv,0.543526,0.950947,0.142296,0.175005,0.275316,0.000000,1.000000,2.000000,1.000000,0.492307,0.000000,0.122359,0.152922,0.627521,0.174453,1.000000
/home/daniel/Projects/ppsevolution/data/maps/custom_maps/Custom_9_Run_0_Map.csv,0.480996,0.597989,0.051523,0.031669,0.000000,0.000000,0.505069,0.000000,0.691961,0.000000,0.000000,0.000000,0.817344,0.731452,0.177710,2.000000
/home/daniel/Projects/ppsevolution/data/maps/custom_maps/Custom_9_Run_0_Map.csv,0.500217,0.845805,0.107355,0.032200,0.218369,0.127441,0.744041,2.000000,0.905316,0.240417,0.000000,0.000000,1.000000,0.814523,0.073078,0.000000
/home/daniel/Projects/ppsevolution/data/maps/custom_maps/Custom_9_Run_0_Map.csv,0.547860,0.915230,0.000000,0.180282,0.000000,0.246735,0.986881,0.000000,1.000000,0.000000,0.000000,0.000000,0.661600,1.000000,0.234273,1.000000
/home/daniel/Projects/ppsevolution/data/maps/custom_maps/Custom_9_Run_0_Map.csv,0.666448,0.830694,0.067940,0.000000,0.000000,0.448453,0.386668,0.000000,0.648266,0.107737,0.014921,0.061286,0.853876,0.709051,0.316613,0.000000
/home/daniel/Projects/ppsevolution/data/maps/custom_maps/Custom_9_Run_0_Map.csv,0.571740,0.756020,0.000000,0.191456,0.000000,0.000000,0.939783,0.000000,1.000000,0.202263,0.000000,0.023648,0.815755,1.000000,0.146294,1.000000
/home/daniel/Projects/ppsevolution/data/maps/custom_maps/Custom_9_Run_0_Map.csv,0.668384,0.907430,0.000000,0.178302,0.092461,0.000000,1.000000,0.000000,1.000000,0.226140,0.000000,0.089462,0.618219,1.000000,0.084778,0.000000
/home/daniel/Projects/ppsevolution/data/maps/custom_maps/Custom_9_Run_0_Map.csv,0.776840,0.833574,0.051297,0.089522,0.142892,0.136733,0.712157,0.000000,0.874588,0.268804,0.132631,0.000000,1.000000,0.760298,0.000000,0.000000
/home/daniel/Projects/ppsevolution/data/maps/custom_maps/Custom_9_Run_0_Map.csv,0.595041,0.953745,0.000000,0.145243,0.298530,0.004098,0.944809,1.000000,0.915243,0.008850,0.000000,0.009214,1.000000,0.312816,0.329904,0.000000
/home/daniel/Projects/ppsevolution/data/maps/custom_maps/Custom_9_Run_0_Map.csv,0.569421,0.925954,0.010642,0.120439,0.019065,0.162103,0.986322,2.000000,0.895990,0.182797,0.015835,0.000000,0.822378,0.941784,0.213740,0.000000
/home/daniel/Projects/ppsevolution/data/maps/custom_maps/Custom_9_Run_0_Map.csv,0.612353,1.000000,0.172081,0.000000,0.000000,0.160765,0.317272,1.000000,0.944835,0.000000,0.000000,0.064297,0.636965,1.000000,0.000000,1.000000
/home/daniel/Projects/ppsevolution/data/maps/custom_maps/Custom_10_Run_0_Map.csv,0.510322,1.000000,0.130089,0.300946,0.000000,0.254717,0.974924,0.000000,0.936203,0.026278,0.000000,0.309659,0.476107,0.784536,0.039995,0.000000
/home/daniel/Projects/ppsevolution/data/maps/custom_maps/Custom_10_Run_0_Map.csv,0.000000,0.861348,0.000000,0.467038,0.123530,0.376391,0.990915,2.000000,1.000000,0.322917,0.000000,0.017016,0.814247,0.792363,0.193303,2.000000
/home/daniel/Projects/ppsevolution/data/maps/custom_maps/Custom_10_Run_0_Map.csv,0.433036,0.891324,0.035149,0.343872,0.000000,0.073354,0.949690,2.000000,0.782708,0.324905,0.115778,0.150045,0.979733,0.855299,0.039925,1.000000
/home/daniel/Projects/ppsevolution/data/maps/custom_maps/Custom_10_Run_0_Map.csv,0.189966,0.774571,0.057889,0.380289,0.345945,0.000000,0.812755,1.000000,0.876060,0.000000,0.021101,0.123912,0.889182,0.779908,0.109730,2.000000
/home/daniel/Projects/ppsevolution/data/maps/custom_maps/Custom_10_Run_0_Map.csv,0.404689,0.993221,0.084703,0.386525,0.261766,0.000000,0.790160,2.000000,1.000000,0.000000,0.000000,0.233065,1.000000,0.887776,0.140440,2.000000
/home/daniel/Projects/ppsevolution/data/maps/custom_maps/Custom_10_Run_0_Map.csv,0.139232,0.886709,0.108166,0.339541,0.848629,0.251512,0.747056,1.000000,0.874060,0.152580,0.031318,0.097092,1.000000,0.885209,0.089408,0.000000
/home/daniel/Projects/ppsevolution/data/maps/custom_maps/Custom_10_Run_0_Map.csv,0.253895,1.000000,0.000000,0.422312,0.047281,0.004983,0.704837,0.000000,0.792622,0.230448,0.176606,0.000000,0.890399,0.938083,0.096114,1.000000
/home/daniel/Projects/ppsevolution/data/maps/custom_maps/Custom_10_Run_0_Map.csv,0.144587,1.000000,0.289477,0.185080,0.380647,0.000000,0.952556,0.000000,1.000000,0.004238,0.063833,0.022580,0.916576,0.941959,0.205845,2.000000
/home/daniel/Projects/ppsevolution/data/maps/custom_maps/Custom_10_Run_0_Map.csv,0.569629,0.712449,0.000000,0.354496,0.324471,0.250430,0.660203,2.000000,0.675733,0.000000,0.036880,0.297348,0.937709,0.688241,0.164764,0.000000
/home/daniel/Projects/ppsevolution/data/maps/custom_maps/Custom_10_Run_0_Map.csv,0.140479,0.911669,0.000000,0.458991,0.076519,0.046270,0.884464,0.000000,0.939326,0.092595,0.100454,0.000000,0.795633,0.590161,0.161765,2.000000
