map,fitness,fitness value,team0ratio,time,HP,Speed,Damage,Acc,ClipSize,RateOfFire,NrBullets,Range,HP,Speed,Damage,Acc,ClipSize,RateOfFire,NrBullets,Range,HP,Speed,Damage,Acc,ClipSize,RateOfFire,NrBullets,Range,HP,Speed,Damage,Acc,ClipSize,RateOfFire,NrBullets,Range,Run,target team0ratio: 0.5,target time: 0.36
/home/daniel/Projects/ppsevolution/data/maps/custom_maps/Custom_1_Run_0_Map.csv,squared_error,4.387852521460802e-07,0.4994,0.3593,0.000000,0.909957,0.044572,0.737921,0.000000,0.171717,0.816278,0.000000,0.887594,0.000000,0.000000,0.600000,1.000000,1.000000,0.000000,2.000000,125.000000,1.279576,15.284637,0.737921,1.000000,2.131310,8.346506,0.000000,280.328971,0.770000,9.000000,0.600000,200.000000,10.000000,1.000000,2.000000,0
/home/daniel/Projects/ppsevolution/data/maps/custom_maps/Custom_1_Run_0_Map.csv,squared_error,2.75514074814539e-06,0.4978,0.3608,0.000000,1.000000,0.252710,0.659439,0.000000,0.000000,0.790222,0.000000,1.000000,0.062889,0.000000,0.602847,1.000000,0.725094,0.000000,0.000000,125.000000,1.330000,44.632135,0.659439,1.000000,0.500000,8.111999,0.000000,300.000000,0.805218,9.000000,0.602847,200.000000,7.388395,1.000000,0.000000,1
/home/daniel/Projects/ppsevolution/data/maps/custom_maps/Custom_1_Run_0_Map.csv,squared_error,9.957404236395387e-07,0.5013,0.3594,0.000000,1.000000,0.364684,0.585090,0.035863,0.272234,0.741708,1.000000,1.000000,0.000000,0.133956,0.512561,1.000000,0.992341,0.000000,0.000000,125.000000,1.330000,60.420497,0.585090,8.136787,3.086220,7.675375,1.000000,300.000000,0.770000,27.887852,0.512561,200.000000,9.927243,1.000000,0.000000,2
/home/daniel/Projects/ppsevolution/data/maps/custom_maps/Custom_1_Run_0_Map.csv,squared_error,8.146945344613101e-07,0.4993,0.3589,0.018373,0.909659,0.107628,0.702360,0.000000,0.139519,1.000000,2.000000,1.000000,0.021619,0.031535,0.563516,0.772955,0.786793,0.000000,1.000000,128.215296,1.279409,24.175607,0.702360,1.000000,1.825430,10.000000,2.000000,300.000000,0.782106,13.446433,0.563516,154.818028,7.974530,1.000000,1.000000,3
/home/daniel/Projects/ppsevolution/data/maps/custom_maps/Custom_1_Run_0_Map.csv,squared_error,9.358221843093712e-07,0.5006,0.3588,0.000000,0.848575,0.204632,0.663022,0.000000,0.000000,0.695075,0.000000,0.879706,0.120369,0.000000,0.600000,0.883611,1.000000,0.041353,1.000000,125.000000,1.245202,37.853130,0.663022,1.000000,0.500000,7.255675,0.000000,278.948482,0.837406,9.000000,0.600000,176.838497,10.000000,1.372180,1.000000,4
/home/daniel/Projects/ppsevolution/data/maps/custom_maps/Custom_1_Run_0_Map.csv,squared_error,2.8800207760106573e-06,0.4980,0.3614,0.000000,0.987683,0.147470,0.659932,0.298366,0.114549,0.979779,0.000000,0.812591,0.046617,0.124798,0.491510,0.874616,0.888586,0.283742,0.000000,125.000000,1.323103,29.793242,0.659932,60.374853,1.588219,9.818011,0.000000,267.203343,0.796106,26.596535,0.491510,175.048529,8.941568,3.553682,0.000000,5
/home/daniel/Projects/ppsevolution/data/maps/custom_maps/Custom_1_Run_0_Map.csv,squared_error,1.4240170874942448e-07,0.4998,0.3605,0.000000,0.955489,0.213161,0.571374,0.372898,0.007208,1.000000,2.000000,0.741880,0.272406,0.040201,0.515804,0.858265,1.000000,0.347562,2.000000,125.000000,1.305074,39.055723,0.571374,75.206643,0.568471,10.000000,2.000000,254.829009,0.922547,14.668400,0.515804,171.794700,10.000000,4.128057,2.000000,6
/home/daniel/Projects/ppsevolution/data/maps/custom_maps/Custom_1_Run_0_Map.csv,squared_error,7.058323238908193e-07,0.4992,0.3591,0.000000,0.988750,0.102041,0.733611,0.159903,0.177417,0.910437,0.000000,1.000000,0.072264,0.000000,0.600000,1.000000,0.720748,0.000000,1.000000,125.000000,1.323700,23.387808,0.733611,32.820610,2.185459,9.193934,0.000000,300.000000,0.810468,9.000000,0.600000,200.000000,7.347103,1.000000,1.000000,7
/home/daniel/Projects/ppsevolution/data/maps/custom_maps/Custom_1_Run_0_Map.csv,squared_error,3.6411938906468075e-06,0.5020,0.3582,0.109868,0.660017,0.209981,0.646716,0.113646,0.090887,1.000000,0.000000,0.933944,0.000000,0.000000,0.600000,0.684708,0.904459,0.249985,1.000000,144.226971,1.139609,38.607382,0.646716,23.615525,1.363427,10.000000,0.000000,288.440229,0.770000,9.000000,0.600000,137.256819,9.092363,3.249867,1.000000,8
/home/daniel/Projects/ppsevolution/data/maps/custom_maps/Custom_1_Run_0_Map.csv,squared_error,4.1441408309592856e-08,0.4998,0.3598,0.107016,1.000000,0.133399,0.682750,0.000000,0.000000,1.000000,2.000000,1.000000,0.000000,0.000000,0.598593,1.000000,0.864094,0.000000,2.000000,143.727735,1.330000,27.809191,0.682750,1.000000,0.500000,10.000000,2.000000,300.000000,0.770000,9.000000,0.598593,200.000000,8.708890,1.000000,2.000000,9
map,fitness,fitness value,team0ratio,time,HP,Speed,Damage,Acc,ClipSize,RateOfFire,NrBullets,Range,HP,Speed,Damage,Acc,ClipSize,RateOfFire,NrBullets,Range,HP,Speed,Damage,Acc,ClipSize,RateOfFire,NrBullets,Range,HP,Speed,Damage,Acc,ClipSize,RateOfFire,NrBullets,Range,Run,target team0ratio: 0.5,target time: 0.36
/home/daniel/Projects/ppsevolution/data/maps/custom_maps/Custom_2_Run_0_Map.csv,squared_error,0.00041728300654715833,0.4940,0.3882,0.000000,1.000000,0.633895,1.000000,0.026968,0.060320,1.000000,2.000000,0.522523,0.544459,1.000000,1.000000,0.861370,1.000000,1.000000,2.000000,125.000000,1.330000,98.379264,1.000000,6.366596,1.073043,10.000000,2.000000,216.441497,1.074897,150.000000,1.000000,172.412600,10.000000,10.000000,2.000000,0
/home/daniel/Projects/ppsevolution/data/maps/custom_maps/Custom_2_Run_0_Map.csv,squared_error,0.0004407958391311656,0.4968,0.3895,0.017559,0.845042,0.801056,1.000000,0.000000,0.015291,0.979169,2.000000,0.792055,0.373349,1.000000,1.000000,0.971789,0.945193,0.935265,2.000000,128.072759,1.243224,121.948857,1.000000,1.000000,0.645260,9.812520,2.000000,263.609663,0.979075,150.000000,1.000000,194.386102,9.479338,9.417389,2.000000,1
/home/daniel/Projects/ppsevolution/data/maps/custom_maps/Custom_2_Run_0_Map.csv,squared_error,0.00042492658988819765,0.4960,0.3889,0.000000,0.861364,0.916327,1.000000,0.137397,0.011792,1.000000,2.000000,1.000000,0.221226,1.000000,1.000000,0.997538,1.000000,1.000000,2.000000,125.000000,1.252364,138.202170,1.000000,28.342051,0.612029,10.000000,2.000000,300.000000,0.893886,150.000000,1.000000,199.510144,10.000000,10.000000,2.000000,2
/home/daniel/Projects/ppsevolution/data/maps/custom_maps/Custom_2_Run_0_Map.csv,squared_error,0.0004494415932534285,0.4964,0.3898,0.000000,0.915269,0.677262,1.000000,0.000000,0.000000,0.972923,2.000000,0.552283,0.112195,1.000000,1.000000,0.621045,1.000000,0.969536,2.000000,125.000000,1.282550,104.493938,1.000000,1.000000,0.500000,9.756303,2.000000,221.649570,0.832829,150.000000,1.000000,124.587976,10.000000,9.725826,2.000000,3
/home/daniel/Projects/ppsevolution/data/maps/custom_maps/Custom_2_Run_0_Map.csv,squared_error,0.000426850942436548,0.4980,0.3892,0.000000,1.000000,0.811490,1.000000,0.020649,0.000000,0.966530,2.000000,0.783043,0.000000,0.985962,1.000000,1.000000,0.949040,1.000000,2.000000,125.000000,1.330000,123.420108,1.000000,5.109086,0.500000,9.698769,2.000000,262.032453,0.770000,148.020630,1.000000,200.000000,9.515877,10.000000,2.000000,4
/home/daniel/Projects/ppsevolution/data/maps/custom_maps/Custom_2_Run_0_Map.csv,squared_error,0.00040856406098658095,0.4942,0.3880,0.000000,0.969753,0.752570,1.000000,0.000000,0.000000,0.965762,2.000000,0.759641,0.715635,1.000000,1.000000,0.927663,1.000000,1.000000,2.000000,125.000000,1.313062,115.112313,1.000000,1.000000,0.500000,9.691862,2.000000,257.937151,1.170756,150.000000,1.000000,185.604990,10.000000,10.000000,2.000000,5
/home/daniel/Projects/ppsevolution/data/maps/custom_maps/Custom_2_Run_0_Map.csv,squared_error,0.0004607277273703187,0.4936,0.3897,0.000000,1.000000,0.917857,1.000000,0.116350,0.000000,1.000000,2.000000,1.000000,0.000000,1.000000,1.000000,1.000000,0.978880,0.811940,2.000000,125.000000,1.330000,138.417804,1.000000,24.153747,0.500000,10.000000,2.000000,300.000000,0.770000,150.000000,1.000000,200.000000,9.799364,8.307459,2.000000,6
/home/daniel/Projects/ppsevolution/data/maps/custom_maps/Custom_2_Run_0_Map.csv,squared_error,0.0004039578374385894,0.4968,0.3882,0.000000,0.968586,0.658640,1.000000,0.053754,0.000000,1.000000,2.000000,0.541794,0.635224,1.000000,1.000000,1.000000,0.982364,1.000000,2.000000,125.000000,1.312408,101.868236,1.000000,11.697111,0.500000,10.000000,2.000000,219.813913,1.125726,150.000000,1.000000,200.000000,9.832462,10.000000,2.000000,7
/home/daniel/Projects/ppsevolution/data/maps/custom_maps/Custom_2_Run_0_Map.csv,squared_error,0.00042777136267534713,0.4954,0.3889,0.000000,1.000000,0.628480,1.000000,0.096801,0.034631,0.988670,2.000000,0.467403,0.380388,1.000000,1.000000,0.932314,0.901293,0.996628,2.000000,125.000000,1.330000,97.615690,1.000000,20.263361,0.828991,9.898033,2.000000,206.795454,0.983017,150.000000,1.000000,186.530556,9.062280,9.969651,2.000000,8
/home/daniel/Projects/ppsevolution/data/maps/custom_maps/Custom_2_Run_0_Map.csv,squared_error,0.00040986172023923796,0.4979,0.3886,0.000000,0.980010,0.594377,1.000000,0.000000,0.033923,1.000000,2.000000,0.403480,0.390616,0.995232,1.000000,0.984078,1.000000,1.000000,2.000000,125.000000,1.318806,92.807110,1.000000,1.000000,0.822266,10.000000,2.000000,195.609022,0.988745,149.327721,1.000000,196.831531,10.000000,10.000000,2.000000,9
map,fitness,fitness value,team0ratio,time,HP,Speed,Damage,Acc,ClipSize,RateOfFire,NrBullets,Range,HP,Speed,Damage,Acc,ClipSize,RateOfFire,NrBullets,Range,HP,Speed,Damage,Acc,ClipSize,RateOfFire,NrBullets,Range,HP,Speed,Damage,Acc,ClipSize,RateOfFire,NrBullets,Range,Run,target team0ratio: 0.5,target time: 0.36
/home/daniel/Projects/ppsevolution/data/maps/custom_maps/Custom_3_Run_0_Map.csv,squared_error,0.006342952688417875,0.5092,0.4723,0.000000,0.866338,0.724691,1.000000,0.022827,0.000000,1.000000,2.000000,0.298067,0.306794,1.000000,1.000000,0.937815,0.452514,1.000000,2.000000,125.000000,1.255149,111.181403,1.000000,5.542505,0.500000,10.000000,2.000000,177.161805,0.941805,150.000000,1.000000,187.625123,4.798883,10.000000,2.000000,0
/home/daniel/Projects/ppsevolution/data/maps/custom_maps/Custom_3_Run_0_Map.csv,squared_error,0.006262845865475321,0.5061,0.4718,0.000000,0.886763,0.905658,1.000000,0.000000,0.027217,0.989939,2.000000,0.536037,0.042271,1.000000,1.000000,0.967521,0.000000,1.000000,2.000000,125.000000,1.266587,136.697758,1.000000,1.000000,0.758565,9.909454,2.000000,218.806534,0.793672,150.000000,1.000000,193.536743,0.500000,10.000000,2.000000,1
/home/daniel/Projects/ppsevolution/data/maps/custom_maps/Custom_3_Run_0_Map.csv,squared_error,0.006156711676353372,0.5088,0.4706,0.000000,0.997436,0.981427,0.985618,0.000000,0.000000,1.000000,2.000000,0.344298,0.000000,1.000000,1.000000,1.000000,0.000000,1.000000,2.000000,125.000000,1.328564,147.381253,0.985618,1.000000,0.500000,10.000000,2.000000,185.252098,0.770000,150.000000,1.000000,200.000000,0.500000,10.000000,2.000000,2
/home/daniel/Projects/ppsevolution/data/maps/custom_maps/Custom_3_Run_0_Map.csv,squared_error,0.006370860095390076,0.5068,0.4727,0.000000,0.994114,0.820948,1.000000,0.000000,0.185194,1.000000,2.000000,0.498070,0.000000,1.000000,1.000000,1.000000,0.559878,0.992102,2.000000,125.000000,1.326704,124.753736,1.000000,1.000000,2.259340,10.000000,2.000000,212.162307,0.770000,150.000000,1.000000,200.000000,5.818840,9.928922,2.000000,3
/home/daniel/Projects/ppsevolution/data/maps/custom_maps/Custom_3_Run_0_Map.csv,squared_error,0.006043584626949145,0.5011,0.4699,0.000000,0.892718,1.000000,0.964698,0.000000,0.186380,1.000000,2.000000,0.000000,0.000000,1.000000,1.000000,0.983437,0.000000,0.964679,2.000000,125.000000,1.269922,150.000000,0.964698,1.000000,2.270613,10.000000,2.000000,125.000000,0.770000,150.000000,1.000000,196.704028,0.500000,9.682107,2.000000,4
/home/daniel/Projects/ppsevolution/data/maps/custom_maps/Custom_3_Run_0_Map.csv,squared_error,0.00615765666257287,0.5063,0.4708,0.000000,0.867974,0.605665,1.000000,0.000000,0.007605,1.000000,2.000000,0.004245,0.101439,1.000000,1.000000,1.000000,0.036955,0.939197,2.000000,125.000000,1.256066,94.398816,1.000000,1.000000,0.572252,10.000000,2.000000,125.742814,0.826806,150.000000,1.000000,200.000000,0.851074,9.452773,2.000000,5
/home/daniel/Projects/ppsevolution/data/maps/custom_maps/Custom_3_Run_0_Map.csv,squared_error,0.006035341923186085,0.5095,0.4695,0.000000,0.786103,1.000000,0.968169,0.000000,0.095616,1.000000,2.000000,0.008818,0.016619,1.000000,1.000000,1.000000,0.101427,1.000000,2.000000,125.000000,1.210217,150.000000,0.968169,1.000000,1.408349,10.000000,2.000000,126.543123,0.779306,150.000000,1.000000,200.000000,1.463560,10.000000,2.000000,6
/home/daniel/Projects/ppsevolution/data/maps/custom_maps/Custom_3_Run_0_Map.csv,squared_error,0.006047917771201036,0.5094,0.4696,0.007981,0.668341,1.000000,0.969131,0.000000,0.051416,1.000000,2.000000,0.000000,0.075631,1.000000,1.000000,0.735645,0.000000,1.000000,2.000000,126.396612,1.144271,150.000000,0.969131,1.000000,0.988453,10.000000,2.000000,125.000000,0.812354,150.000000,1.000000,147.393453,0.500000,10.000000,2.000000,7
/home/daniel/Projects/ppsevolution/data/maps/custom_maps/Custom_3_Run_0_Map.csv,squared_error,0.006211754224194174,0.5004,0.4715,0.000000,0.913033,0.778635,1.000000,0.000000,0.000000,1.000000,2.000000,0.358593,0.000000,1.000000,1.000000,1.000000,0.000000,1.000000,2.000000,125.000000,1.281299,118.787496,1.000000,1.000000,0.500000,10.000000,2.000000,187.753788,0.770000,150.000000,1.000000,200.000000,0.500000,10.000000,2.000000,8
/home/daniel/Projects/ppsevolution/data/maps/custom_maps/Custom_3_Run_0_Map.csv,squared_error,0.006177731665789456,0.5071,0.4709,0.000000,0.791133,0.786967,0.989712,0.000000,0.132428,1.000000,2.000000,0.101536,0.130307,1.000000,1.000000,0.821034,0.009705,1.000000,2.000000,125.000000,1.213035,119.962293,0.989712,1.000000,1.758068,10.000000,2.000000,142.768882,0.842972,150.000000,1.000000,164.385771,0.592200,10.000000,2.000000,9
map,fitness,fitness value,team0ratio,time,HP,Speed,Damage,Acc,ClipSize,RateOfFire,NrBullets,Range,HP,Speed,Damage,Acc,ClipSize,RateOfFire,NrBullets,Range,HP,Speed,Damage,Acc,ClipSize,RateOfFire,NrBullets,Range,HP,Speed,Damage,Acc,ClipSize,RateOfFire,NrBullets,Range,Run,target team0ratio: 0.5,target time: 0.36
/home/daniel/Projects/ppsevolution/data/maps/custom_maps/Custom_4_Run_0_Map.csv,squared_error,1.2431268999570687e-06,0.4999,0.3616,0.000000,1.000000,0.088816,0.800000,0.000000,0.015755,1.000000,1.000000,0.934558,0.208958,0.000000,0.666072,1.000000,1.000000,0.000000,1.000000,125.000000,1.330000,21.523094,0.800000,1.000000,0.649671,10.000000,1.000000,288.547565,0.887017,9.000000,0.666072,200.000000,10.000000,1.000000,1.000000,0
/home/daniel/Projects/ppsevolution/data/maps/custom_maps/Custom_4_Run_0_Map.csv,squared_error,7.132044126258722e-07,0.5000,0.3612,0.000000,1.000000,0.362815,0.672912,0.000000,0.130808,1.000000,2.000000,0.966912,0.000000,0.061066,0.600000,1.000000,0.925313,0.000000,2.000000,125.000000,1.330000,60.156964,0.672912,1.000000,1.742676,10.000000,2.000000,294.209563,0.770000,17.610246,0.600000,200.000000,9.290476,1.000000,2.000000,1
/home/daniel/Projects/ppsevolution/data/maps/custom_maps/Custom_4_Run_0_Map.csv,squared_error,1.8260098241775494e-06,0.5014,0.3613,0.150215,1.000000,0.154682,0.774616,0.084860,0.000000,0.882659,1.000000,0.932099,0.111806,0.063208,0.655617,1.000000,1.000000,0.162989,1.000000,151.287681,1.330000,30.810171,0.774616,17.887151,0.500000,8.943932,1.000000,288.117377,0.832611,17.912328,0.655617,200.000000,10.000000,2.466901,1.000000,2
/home/daniel/Projects/ppsevolution/data/maps/custom_maps/Custom_4_Run_0_Map.csv,squared_error,1.3550820676357525e-06,0.4984,0.3603,0.125531,0.906080,0.210000,0.678830,0.148094,0.000000,1.000000,1.000000,0.609776,0.000000,0.000000,0.666031,0.973395,1.000000,0.148675,2.000000,146.967948,1.277405,38.610000,0.678830,30.470631,0.500000,10.000000,1.000000,231.710876,0.770000,9.000000,0.666031,194.705703,10.000000,2.338079,2.000000,3
/home/daniel/Projects/ppsevolution/data/maps/custom_maps/Custom_4_Run_0_Map.csv,squared_error,1.2504674504327213e-07,0.4998,0.3596,0.000000,0.918581,0.119517,0.793973,0.110648,0.030000,0.871424,2.000000,0.961878,0.000000,0.000000,0.671755,1.000000,1.000000,0.000000,0.000000,125.000000,1.284405,25.851905,0.793973,23.019021,0.785000,8.842814,2.000000,293.328737,0.770000,9.000000,0.671755,200.000000,10.000000,1.000000,0.000000,4
/home/daniel/Projects/ppsevolution/data/maps/custom_maps/Custom_4_Run_0_Map.csv,squared_error,7.601849825846253e-07,0.5011,0.3594,0.055717,0.800757,0.182958,0.747008,0.155170,0.009522,1.000000,1.000000,0.823203,0.215302,0.108307,0.623393,1.000000,1.000000,0.046755,0.000000,134.750500,1.218424,34.797019,0.747008,31.878894,0.590463,10.000000,1.000000,269.060498,0.890569,24.271339,0.623393,200.000000,10.000000,1.420795,0.000000,5
/home/daniel/Projects/ppsevolution/data/maps/custom_maps/Custom_4_Run_0_Map.csv,squared_error,1.6444781365045324e-06,0.4985,0.3590,0.039097,0.887803,0.175909,0.772775,0.030000,0.062398,0.774359,2.000000,1.000000,0.000000,0.039961,0.640696,0.966822,1.000000,0.092472,2.000000,131.842038,1.267170,33.803222,0.772775,6.970000,1.092777,7.969235,2.000000,300.000000,0.770000,14.634443,0.640696,193.397669,10.000000,1.832249,2.000000,6
/home/daniel/Projects/ppsevolution/data/maps/custom_maps/Custom_4_Run_0_Map.csv,squared_error,8.314386677056937e-07,0.4987,0.3597,0.000000,1.000000,0.279114,0.754539,0.000000,0.030000,1.000000,0.000000,1.000000,0.320373,0.000000,0.667067,1.000000,1.000000,0.000000,0.000000,125.000000,1.330000,48.355016,0.754539,1.000000,0.785000,10.000000,0.000000,300.000000,0.949409,9.000000,0.667067,200.000000,10.000000,1.000000,0.000000,7
/home/daniel/Projects/ppsevolution/data/maps/custom_maps/Custom_4_Run_0_Map.csv,squared_error,9.768836735048622e-07,0.4986,0.3603,0.000000,0.867432,0.150342,0.802337,0.000000,0.030000,0.953578,0.000000,0.991281,0.099986,0.153986,0.604419,1.000000,0.799603,0.074330,0.000000,125.000000,1.255762,30.198256,0.802337,1.000000,0.785000,9.582205,0.000000,298.474107,0.825992,30.712018,0.604419,200.000000,8.096224,1.668968,0.000000,8
/home/daniel/Projects/ppsevolution/data/maps/custom_maps/Custom_4_Run_0_Map.csv,squared_error,2.9926519704588986e-07,0.5006,0.3605,0.000000,0.972194,0.105978,0.800000,0.000000,0.201988,0.945555,1.000000,0.957168,0.000000,0.000000,0.665008,1.000000,1.000000,0.063166,1.000000,125.000000,1.314428,23.942917,0.800000,1.000000,2.418881,9.509998,1.000000,292.504454,0.770000,9.000000,0.665008,200.000000,10.000000,1.568492,1.000000,9
map,fitness,fitness value,team0ratio,time,HP,Speed,Damage,Acc,ClipSize,RateOfFire,NrBullets,Range,HP,Speed,Damage,Acc,ClipSize,RateOfFire,NrBullets,Range,HP,Speed,Damage,Acc,ClipSize,RateOfFire,NrBullets,Range,HP,Speed,Damage,Acc,ClipSize,RateOfFire,NrBullets,Range,Run,target team0ratio: 0.5,target time: 0.36
/home/daniel/Projects/ppsevolution/data/maps/custom_maps/Custom_5_Run_0_Map.csv,squared_error,4.1474373158507197e-07,0.5008,0.3597,0.395026,0.796463,0.256967,1.000000,0.178900,0.076874,0.882591,1.000000,0.921311,0.106644,0.116066,1.000000,0.995186,0.966264,0.000000,0.000000,194.129635,1.216019,45.232397,1.000000,36.601067,1.230306,8.943315,1.000000,286.229488,0.829721,25.365313,1.000000,199.041977,9.679505,1.000000,0.000000,0
/home/daniel/Projects/ppsevolution/data/maps/custom_maps/Custom_5_Run_0_Map.csv,squared_error,1.0768417352053404e-07,0.4997,0.3596,0.238639,0.868855,0.169314,1.000000,0.193383,0.279454,0.887465,2.000000,1.000000,0.095360,0.306725,0.956577,0.996558,0.819544,0.184645,2.000000,166.761867,1.256559,32.873304,1.000000,39.483257,3.154817,8.987182,2.000000,300.000000,0.823402,52.248258,0.956577,199.315103,8.285663,2.661806,2.000000,1
/home/daniel/Projects/ppsevolution/data/maps/custom_maps/Custom_5_Run_0_Map.csv,squared_error,6.678070489442741e-07,0.4989,0.3604,0.024488,0.935020,0.167052,1.000000,0.000000,0.164975,1.000000,2.000000,0.991290,0.178482,0.098087,0.970635,0.916079,1.000000,0.136884,1.000000,129.285486,1.293611,32.554365,1.000000,1.000000,2.067263,10.000000,2.000000,298.475810,0.869950,22.830311,0.970635,183.299760,10.000000,2.231954,1.000000,2
/home/daniel/Projects/ppsevolution/data/maps/custom_maps/Custom_5_Run_0_Map.csv,squared_error,6.180756493591992e-07,0.5000,0.3611,0.089881,0.948129,0.218686,1.000000,0.434075,0.327756,0.727838,2.000000,1.000000,0.000000,0.050612,0.983730,0.700341,0.804147,0.418491,0.000000,140.729221,1.300952,39.834678,1.000000,87.380905,3.613679,7.550545,2.000000,300.000000,0.770000,16.136301,0.983730,140.367908,8.139398,4.766420,0.000000,3
/home/daniel/Projects/ppsevolution/data/maps/custom_maps/Custom_5_Run_0_Map.csv,squared_error,2.991335924697644e-07,0.5006,0.3605,0.084298,1.000000,0.210000,1.000000,0.102671,0.033256,0.820229,0.000000,0.668082,0.442477,0.060510,0.991777,0.733059,1.000000,0.052599,0.000000,139.752174,1.330000,38.610000,1.000000,21.431506,0.815935,8.382064,0.000000,241.914271,1.017787,17.531936,0.991777,146.878694,10.000000,1.473389,0.000000,4
/home/daniel/Projects/ppsevolution/data/maps/custom_maps/Custom_5_Run_0_Map.csv,squared_error,9.148920192416306e-07,0.4989,0.3608,0.312343,0.932617,0.252417,1.000000,0.174307,0.278825,1.000000,0.000000,0.924673,0.000000,0.000000,1.000000,1.000000,0.847816,0.353791,1.000000,179.659988,1.292266,44.590824,1.000000,35.687155,3.148833,10.000000,0.000000,286.817840,0.770000,9.000000,1.000000,200.000000,8.554252,4.184119,1.000000,5
/home/daniel/Projects/ppsevolution/data/maps/custom_maps/Custom_5_Run_0_Map.csv,squared_error,2.968790248260603e-07,0.4996,0.3594,0.000000,1.000000,0.490303,0.931167,0.366142,0.000000,0.756498,1.000000,0.632560,0.000000,0.336533,0.912469,0.953452,1.000000,0.000000,1.000000,125.000000,1.330000,78.132740,0.931167,73.862210,0.500000,7.808482,1.000000,235.698075,0.770000,56.451179,0.912469,190.736898,10.000000,1.000000,1.000000,6
/home/daniel/Projects/ppsevolution/data/maps/custom_maps/Custom_5_Run_0_Map.csv,squared_error,9.503092750186728e-07,0.5013,0.3604,0.228780,1.000000,0.261495,1.000000,0.101703,0.089709,0.957129,0.000000,0.842611,0.258087,0.076621,0.990970,1.000000,0.866692,0.211598,0.000000,165.036557,1.330000,45.870790,1.000000,21.238839,1.352237,9.614158,0.000000,272.456927,0.914529,19.803567,0.990970,200.000000,8.733569,2.904385,0.000000,7
/home/daniel/Projects/ppsevolution/data/maps/custom_maps/Custom_5_Run_0_Map.csv,squared_error,7.439420870049582e-07,0.5010,0.3593,0.000000,0.934215,0.417579,1.000000,0.310925,0.175404,0.822245,0.000000,1.000000,0.000000,0.346375,0.951087,0.741952,1.000000,0.000000,1.000000,125.000000,1.293161,67.878604,1.000000,62.874153,2.166343,8.400201,0.000000,300.000000,0.770000,57.838909,0.951087,148.648358,10.000000,1.000000,1.000000,8
/home/daniel/Projects/ppsevolution/data/maps/custom_maps/Custom_5_Run_0_Map.csv,squared_error,1.277546285183478e-06,0.4990,0.3612,0.000000,1.000000,0.944785,0.867035,0.237223,0.135257,0.983474,0.000000,0.920235,0.198738,0.107438,0.913579,0.975524,0.895948,0.098441,1.000000,125.000000,1.330000,142.214723,0.867035,48.207327,1.784941,9.851263,0.000000,286.041205,0.881293,24.148776,0.913579,195.129257,9.011508,1.885973,1.000000,9
map,fitness,fitness value,team0ratio,time,HP,Speed,Damage,Acc,ClipSize,RateOfFire,NrBullets,Range,HP,Speed,Damage,Acc,ClipSize,RateOfFire,NrBullets,Range,HP,Speed,Damage,Acc,ClipSize,RateOfFire,NrBullets,Range,HP,Speed,Damage,Acc,ClipSize,RateOfFire,NrBullets,Range,Run,target team0ratio: 0.5,target time: 0.36
/home/daniel/Projects/ppsevolution/data/maps/custom_maps/Custom_6_Run_0_Map.csv,squared_error,0.00812391271828785,0.4640,0.4823,0.296231,1.000000,0.000000,1.000000,0.065680,0.000000,0.691378,2.000000,1.000000,0.373185,1.000000,0.930026,0.915530,1.000000,1.000000,2.000000,176.840488,1.330000,9.000000,1.000000,14.070396,0.500000,7.222406,2.000000,300.000000,0.978983,150.000000,0.930026,183.190391,10.000000,10.000000,2.000000,0
/home/daniel/Projects/ppsevolution/data/maps/custom_maps/Custom_6_Run_0_Map.csv,squared_error,0.008014105697034314,0.4663,0.4820,0.000000,1.000000,0.000000,1.000000,0.000000,0.000000,0.519936,2.000000,1.000000,0.000000,1.000000,0.896019,1.000000,1.000000,1.000000,2.000000,125.000000,1.330000,9.000000,1.000000,1.000000,0.500000,5.679426,2.000000,300.000000,0.770000,150.000000,0.896019,200.000000,10.000000,10.000000,2.000000,1
/home/daniel/Projects/ppsevolution/data/maps/custom_maps/Custom_6_Run_0_Map.csv,squared_error,0.008021244311309201,0.4615,0.4807,0.142552,0.960811,0.000000,1.000000,0.000000,0.000589,0.000000,2.000000,1.000000,0.000000,1.000000,0.919161,0.956223,1.000000,0.982066,2.000000,149.946674,1.308054,9.000000,1.000000,1.000000,0.505598,1.000000,2.000000,300.000000,0.770000,150.000000,0.919161,191.288440,10.000000,9.838590,2.000000,2
/home/daniel/Projects/ppsevolution/data/maps/custom_maps/Custom_6_Run_0_Map.csv,squared_error,0.008005455187657426,0.4640,0.4813,0.036736,1.000000,0.000000,1.000000,0.000861,0.000000,0.870676,2.000000,1.000000,0.769376,1.000000,0.902359,1.000000,0.987792,1.000000,2.000000,131.428741,1.330000,9.000000,1.000000,1.171401,0.500000,8.836080,2.000000,300.000000,1.200851,150.000000,0.902359,200.000000,9.884023,10.000000,2.000000,3
/home/daniel/Projects/ppsevolution/data/maps/custom_maps/Custom_6_Run_0_Map.csv,squared_error,0.007988773446674934,0.4672,0.4821,0.134571,0.984389,0.000000,1.000000,0.000000,0.000000,0.492348,2.000000,1.000000,0.217775,1.000000,0.911392,1.000000,1.000000,1.000000,2.000000,148.549855,1.321258,9.000000,1.000000,1.000000,0.500000,5.431129,2.000000,300.000000,0.891954,150.000000,0.911392,200.000000,10.000000,10.000000,2.000000,4
/home/daniel/Projects/ppsevolution/data/maps/custom_maps/Custom_6_Run_0_Map.csv,squared_error,0.008017529910397447,0.4603,0.4802,0.097129,1.000000,0.000000,1.000000,0.000000,0.017656,0.628705,2.000000,1.000000,0.130367,1.000000,0.912417,1.000000,1.000000,1.000000,2.000000,141.997647,1.330000,9.000000,1.000000,1.000000,0.667730,6.658341,2.000000,300.000000,0.843006,150.000000,0.912417,200.000000,10.000000,10.000000,2.000000,5
/home/daniel/Projects/ppsevolution/data/maps/custom_maps/Custom_6_Run_0_Map.csv,squared_error,0.008018634223210872,0.4637,0.4813,0.000000,1.000000,0.000000,1.000000,0.017431,0.000000,0.657080,2.000000,1.000000,0.139586,1.000000,0.898143,1.000000,1.000000,1.000000,2.000000,125.000000,1.330000,9.000000,1.000000,4.468704,0.500000,6.913717,2.000000,300.000000,0.848168,150.000000,0.898143,200.000000,10.000000,10.000000,2.000000,6
/home/daniel/Projects/ppsevolution/data/maps/custom_maps/Custom_6_Run_0_Map.csv,squared_error,0.008031254243178673,0.4690,0.4829,0.181772,1.000000,0.000000,1.000000,0.000000,0.000000,0.847467,2.000000,1.000000,0.131223,1.000000,0.912752,1.000000,1.000000,0.995615,2.000000,156.810015,1.330000,9.000000,1.000000,1.000000,0.500000,8.627203,2.000000,300.000000,0.843485,150.000000,0.912752,200.000000,10.000000,9.960539,2.000000,7
/home/daniel/Projects/ppsevolution/data/maps/custom_maps/Custom_6_Run_0_Map.csv,squared_error,0.007976224907234266,0.4683,0.4823,0.170283,1.000000,0.000000,1.000000,0.000000,0.005514,0.364344,2.000000,1.000000,0.392704,1.000000,0.915380,1.000000,1.000000,1.000000,2.000000,154.799573,1.330000,9.000000,1.000000,1.000000,0.552383,4.279096,2.000000,300.000000,0.989914,150.000000,0.915380,200.000000,10.000000,10.000000,2.000000,8
/home/daniel/Projects/ppsevolution/data/maps/custom_maps/Custom_6_Run_0_Map.csv,squared_error,0.0080626222995024,0.4625,0.4813,0.000000,0.953825,0.000000,1.000000,0.000000,0.030222,0.204187,2.000000,1.000000,0.000000,1.000000,0.900188,1.000000,1.000000,0.983293,2.000000,125.000000,1.304142,9.000000,1.000000,1.000000,0.787113,2.837681,2.000000,300.000000,0.770000,150.000000,0.900188,200.000000,10.000000,9.849633,2.000000,9
map,fitness,fitness value,team0ratio,time,HP,Speed,Damage,Acc,ClipSize,RateOfFire,NrBullets,Range,HP,Speed,Damage,Acc,ClipSize,RateOfFire,NrBullets,Range,HP,Speed,Damage,Acc,ClipSize,RateOfFire,NrBullets,Range,HP,Speed,Damage,Acc,ClipSize,RateOfFire,NrBullets,Range,Run,target team0ratio: 0.5,target time: 0.36
/home/daniel/Projects/ppsevolution/data/maps/custom_maps/Custom_7_Run_0_Map.csv,squared_error,7.459006953560312e-07,0.5012,0.3603,0.061599,1.000000,0.721965,0.983103,0.270126,0.073672,0.822096,1.000000,1.000000,0.000000,0.161162,1.000000,0.972203,0.656153,0.052997,0.000000,135.779818,1.330000,110.796995,0.983103,54.755169,1.199883,8.398868,1.000000,300.000000,0.770000,31.723895,1.000000,194.468309,6.733451,1.476973,0.000000,0
/home/daniel/Projects/ppsevolution/data/maps/custom_maps/Custom_7_Run_0_Map.csv,squared_error,3.716615198136639e-07,0.4993,0.3595,0.136890,0.848880,0.456695,0.979635,0.075180,0.000000,0.835218,2.000000,1.000000,0.000000,0.000000,1.000000,0.859867,0.790972,0.000000,2.000000,148.955741,1.245373,73.393967,0.979635,15.960721,0.500000,8.516963,2.000000,300.000000,0.770000,9.000000,1.000000,172.113453,8.014232,1.000000,2.000000,1
/home/daniel/Projects/ppsevolution/data/maps/custom_maps/Custom_7_Run_0_Map.csv,squared_error,2.3138156917142173e-07,0.4994,0.3603,0.188748,1.000000,0.289750,1.000000,0.000000,0.000000,1.000000,0.000000,1.000000,0.000000,0.000000,1.000000,0.951187,0.887386,0.121352,2.000000,158.030926,1.330000,49.854703,1.000000,1.000000,0.500000,10.000000,0.000000,300.000000,0.770000,9.000000,1.000000,190.286303,8.930167,2.092169,2.000000,2
/home/daniel/Projects/ppsevolution/data/maps/custom_maps/Custom_7_Run_0_Map.csv,squared_error,7.096677948893999e-07,0.4993,0.3590,0.216478,1.000000,0.340161,1.000000,0.000000,0.183861,0.849593,0.000000,1.000000,0.000000,0.065188,1.000000,1.000000,0.943450,0.049841,2.000000,162.883626,1.330000,56.962707,1.000000,1.000000,2.246678,8.646334,0.000000,300.000000,0.770000,18.191572,1.000000,200.000000,9.462780,1.448571,2.000000,3
/home/daniel/Projects/ppsevolution/data/maps/custom_maps/Custom_7_Run_0_Map.csv,squared_error,1.3936411296590934e-06,0.5007,0.3615,0.032701,0.554518,0.263010,0.957870,0.121112,0.071585,1.000000,2.000000,1.000000,0.108533,0.569834,0.859500,0.905370,0.755373,0.004472,2.000000,130.722684,1.080530,46.084354,0.957870,25.101212,1.180053,10.000000,2.000000,300.000000,0.830778,89.346532,0.859500,181.168584,7.676048,1.040249,2.000000,4
/home/daniel/Projects/ppsevolution/data/maps/custom_maps/Custom_7_Run_0_Map.csv,squared_error,1.0673559610864725e-06,0.5004,0.3586,0.119213,0.736208,0.000000,1.000000,0.015014,0.000000,0.870972,2.000000,1.000000,0.067587,0.336432,0.931840,0.742887,1.000000,0.009279,0.000000,145.862327,1.182276,9.000000,1.000000,3.987695,0.500000,8.838747,2.000000,300.000000,0.807849,56.436853,0.931840,148.834522,10.000000,1.083515,0.000000,5
/home/daniel/Projects/ppsevolution/data/maps/custom_maps/Custom_7_Run_0_Map.csv,squared_error,7.142494716340888e-07,0.5007,0.3609,0.000000,1.000000,0.176491,1.000000,0.081747,0.480455,0.759661,1.000000,1.000000,0.000000,0.052816,0.968073,0.999476,0.604214,0.000000,2.000000,125.000000,1.330000,33.885247,1.000000,17.267662,5.064322,7.836952,1.000000,300.000000,0.770000,16.447015,0.968073,199.895627,6.240033,1.000000,2.000000,6
/home/daniel/Projects/ppsevolution/data/maps/custom_maps/Custom_7_Run_0_Map.csv,squared_error,9.649966178450435e-07,0.4993,0.3588,0.057131,0.718824,0.201911,1.000000,0.170481,0.124489,1.000000,0.000000,0.830848,0.000000,0.000000,0.992465,0.761612,0.942115,0.171300,2.000000,134.997908,1.172541,37.469387,1.000000,34.925742,1.682642,10.000000,0.000000,270.398444,0.770000,9.000000,0.992465,152.560694,9.450089,2.541699,2.000000,7
/home/daniel/Projects/ppsevolution/data/maps/custom_maps/Custom_7_Run_0_Map.csv,squared_error,7.318119105150189e-07,0.5003,0.3588,0.000000,0.905619,0.291780,1.000000,0.000000,0.251927,0.744204,1.000000,0.917294,0.034527,0.000000,1.000000,1.000000,0.822704,0.142622,1.000000,125.000000,1.277147,50.140992,1.000000,1.000000,2.893303,7.697837,1.000000,285.526518,0.789335,9.000000,1.000000,200.000000,8.315686,2.283599,1.000000,8
/home/daniel/Projects/ppsevolution/data/maps/custom_maps/Custom_7_Run_0_Map.csv,squared_error,2.1282744615121757e-07,0.5002,0.3606,0.000000,0.893007,0.403492,0.990310,0.380638,0.196827,0.830727,0.000000,0.731928,0.312757,0.041723,1.000000,0.825546,0.844934,0.351906,1.000000,125.000000,1.270084,65.892425,0.990310,76.746924,2.369855,8.476546,0.000000,253.087331,0.945144,14.882977,1.000000,165.283726,8.526869,4.167155,1.000000,9
map,fitness,fitness value,team0ratio,time,HP,Speed,Damage,Acc,ClipSize,RateOfFire,NrBullets,Range,HP,Speed,Damage,Acc,ClipSize,RateOfFire,NrBullets,Range,HP,Speed,Damage,Acc,ClipSize,RateOfFire,NrBullets,Range,HP,Speed,Damage,Acc,ClipSize,RateOfFire,NrBullets,Range,Run,target team0ratio: 0.5,target time: 0.36
/home/daniel/Projects/ppsevolution/data/maps/custom_maps/Custom_8_Run_0_Map.csv,squared_error,1.2860656002324178e-06,0.5011,0.3588,0.064056,0.985117,0.152299,0.782414,0.028541,0.007442,1.000000,1.000000,0.682362,0.023554,0.216802,0.645437,0.808831,0.795581,0.154610,1.000000,136.209741,1.321665,30.474202,0.782414,6.679712,0.570702,10.000000,1.000000,244.413354,0.783190,39.569090,0.645437,161.957343,8.058024,2.391491,1.000000,0
/home/daniel/Projects/ppsevolution/data/maps/custom_maps/Custom_8_Run_0_Map.csv,squared_error,2.4430753443340493e-06,0.5019,0.3612,0.000000,1.000000,0.218496,0.800000,0.140384,0.140141,1.000000,2.000000,0.980625,0.154069,0.156038,0.657538,0.929965,0.823768,0.000000,0.000000,125.000000,1.330000,39.807916,0.800000,28.936429,1.831337,10.000000,2.000000,296.609414,0.856279,31.001415,0.657538,186.063096,8.325798,1.000000,0.000000,1
/home/daniel/Projects/ppsevolution/data/maps/custom_maps/Custom_8_Run_0_Map.csv,squared_error,2.414409305686221e-07,0.5004,0.3605,0.088272,1.000000,0.241552,0.800000,0.066780,0.278489,1.000000,1.000000,1.000000,0.022972,0.010991,0.730021,1.000000,0.923382,0.000000,2.000000,140.447562,1.330000,43.058792,0.800000,14.289184,3.145647,10.000000,1.000000,300.000000,0.782864,10.549780,0.730021,200.000000,9.272133,1.000000,2.000000,2
/home/daniel/Projects/ppsevolution/data/maps/custom_maps/Custom_8_Run_0_Map.csv,squared_error,4.546292833324828e-08,0.5002,0.3598,0.000000,0.820044,0.205061,0.827931,0.106318,0.000000,0.959398,0.000000,0.962480,0.034249,0.543210,0.491312,0.901525,0.587579,0.000000,2.000000,125.000000,1.229225,37.913647,0.827931,22.157215,0.500000,9.634579,0.000000,293.434011,0.789180,85.592639,0.491312,180.403490,6.082000,1.000000,2.000000,3
/home/daniel/Projects/ppsevolution/data/maps/custom_maps/Custom_8_Run_0_Map.csv,squared_error,3.2772177961561504e-06,0.4974,0.3600,0.000000,1.000000,0.311510,0.761373,0.030000,0.000000,0.934820,1.000000,0.833309,0.000000,0.019871,0.732361,1.000000,1.000000,0.040427,0.000000,125.000000,1.330000,52.922979,0.761373,6.970000,0.500000,9.413382,1.000000,270.828996,0.770000,11.801841,0.732361,200.000000,10.000000,1.363846,0.000000,4
/home/daniel/Projects/ppsevolution/data/maps/custom_maps/Custom_8_Run_0_Map.csv,squared_error,8.159058130054625e-07,0.4988,0.3604,0.115211,0.808613,0.304711,0.813520,0.000000,0.325536,0.804941,0.000000,1.000000,0.000000,0.035687,0.759018,0.990449,1.000000,0.000000,0.000000,145.161901,1.222823,51.964300,0.813520,1.000000,3.592592,8.244469,0.000000,300.000000,0.770000,14.031812,0.759018,198.099295,10.000000,1.000000,0.000000,5
/home/daniel/Projects/ppsevolution/data/maps/custom_maps/Custom_8_Run_0_Map.csv,squared_error,1.802428936250778e-06,0.4981,0.3600,0.000000,0.853850,0.219892,0.823718,0.067651,0.246776,1.000000,0.000000,1.000000,0.000000,0.328437,0.600000,0.975634,1.000000,0.056785,1.000000,125.000000,1.248156,40.004791,0.823718,14.462556,2.844375,10.000000,0.000000,300.000000,0.770000,55.309637,0.600000,195.151230,10.000000,1.511068,1.000000,6
/home/daniel/Projects/ppsevolution/data/maps/custom_maps/Custom_8_Run_0_Map.csv,squared_error,3.548779647168535e-07,0.4992,0.3604,0.000000,1.000000,0.349413,0.758674,0.000000,0.024766,1.000000,1.000000,1.000000,0.124648,0.028320,0.699621,1.000000,0.951643,0.094946,2.000000,125.000000,1.330000,58.267303,0.758674,1.000000,0.735281,10.000000,1.000000,300.000000,0.839803,12.993150,0.699621,200.000000,9.540611,1.854512,2.000000,7
/home/daniel/Projects/ppsevolution/data/maps/custom_maps/Custom_8_Run_0_Map.csv,squared_error,2.810044764820673e-06,0.4976,0.3599,0.000000,0.975526,0.091853,0.814161,0.070821,0.020142,1.000000,1.000000,0.710074,0.150890,0.198289,0.662302,1.000000,1.000000,0.000000,0.000000,125.000000,1.316295,21.951261,0.814161,15.093343,0.691348,10.000000,1.000000,249.263030,0.854499,36.958805,0.662302,200.000000,10.000000,1.000000,0.000000,8
/home/daniel/Projects/ppsevolution/data/maps/custom_maps/Custom_8_Run_0_Map.csv,squared_error,5.158282965347062e-07,0.5001,0.3610,0.207665,0.877663,0.213452,0.800000,0.121656,0.061977,0.824741,2.000000,1.000000,0.259790,0.240591,0.658304,1.000000,1.000000,0.000000,2.000000,161.341367,1.261491,39.096770,0.800000,25.209511,1.088778,8.422672,2.000000,300.000000,0.915482,42.923280,0.658304,200.000000,10.000000,1.000000,2.000000,9
map,fitness,fitness value,team0ratio,time,HP,Speed,Damage,Acc,ClipSize,RateOfFire,NrBullets,Range,HP,Speed,Damage,Acc,ClipSize,RateOfFire,NrBullets,Range,HP,Speed,Damage,Acc,ClipSize,RateOfFire,NrBullets,Range,HP,Speed,Damage,Acc,ClipSize,RateOfFire,NrBullets,Range,Run,target team0ratio: 0.5,target time: 0.36
/home/daniel/Projects/ppsevolution/data/maps/custom_maps/Custom_9_Run_0_Map.csv,squared_error,2.3238580648722722e-06,0.5011,0.3581,0.094582,0.791899,0.288414,0.692379,0.207142,0.208050,0.943898,1.000000,1.000000,0.000000,0.139621,0.600000,1.000000,0.750365,0.000000,1.000000,141.551905,1.213464,49.666359,0.692379,42.221357,2.476478,9.495082,1.000000,300.000000,0.770000,28.686498,0.600000,200.000000,7.628470,1.000000,1.000000,0
/home/daniel/Projects/ppsevolution/data/maps/custom_maps/Custom_9_Run_0_Map.csv,squared_error,1.4026385901218148e-07,0.5005,0.3601,0.019258,0.930165,0.000000,0.800000,0.161443,0.024031,1.000000,2.000000,1.000000,0.201220,0.101836,0.611166,0.952403,0.974886,0.000000,0.000000,128.370090,1.290892,9.000000,0.800000,33.127130,0.728294,10.000000,2.000000,300.000000,0.882683,23.358845,0.611166,190.528131,9.761414,1.000000,0.000000,1
/home/daniel/Projects/ppsevolution/data/maps/custom_maps/Custom_9_Run_0_Map.csv,squared_error,1.5839914797763847e-08,0.5000,0.3598,0.019425,1.000000,0.181119,0.742499,0.410343,0.046550,1.000000,1.000000,1.000000,0.401564,0.044494,0.636092,1.000000,0.813745,0.000000,0.000000,128.399441,1.330000,34.537803,0.742499,82.658348,0.942229,10.000000,1.000000,300.000000,0.994876,15.273679,0.636092,200.000000,8.230576,1.000000,0.000000,2
/home/daniel/Projects/ppsevolution/data/maps/custom_maps/Custom_9_Run_0_Map.csv,squared_error,1.4874981799330398e-06,0.4987,0.3588,0.000000,1.000000,0.348460,0.656506,0.000000,0.030000,0.946639,2.000000,1.000000,0.000000,0.000000,0.648192,1.000000,0.841531,0.000000,0.000000,125.000000,1.330000,58.132802,0.656506,1.000000,0.785000,9.519748,2.000000,300.000000,0.770000,9.000000,0.648192,200.000000,8.494546,1.000000,0.000000,3
/home/daniel/Projects/ppsevolution/data/maps/custom_maps/Custom_9_Run_0_Map.csv,squared_error,1.4383274396358333e-06,0.4999,0.3583,0.000000,0.784062,0.191297,0.737301,0.000000,0.000000,0.974951,1.000000,1.000000,0.000000,0.000000,0.642620,0.730548,0.569054,0.192529,0.000000,125.000000,1.209075,35.972838,0.737301,1.000000,0.500000,9.774558,1.000000,300.000000,0.770000,9.000000,0.642620,146.379053,5.906011,2.732763,0.000000,4
/home/daniel/Projects/ppsevolution/data/maps/custom_maps/Custom_9_Run_0_Map.csv,squared_error,4.2928448484431784e-07,0.5009,0.3601,0.000000,1.000000,0.000000,0.800000,0.030000,0.000000,1.000000,2.000000,1.000000,0.000000,0.000000,0.647450,1.000000,1.000000,0.157079,0.000000,125.000000,1.330000,9.000000,0.800000,6.970000,0.500000,10.000000,2.000000,300.000000,0.770000,9.000000,0.647450,200.000000,10.000000,2.413710,0.000000,5
/home/daniel/Projects/ppsevolution/data/maps/custom_maps/Custom_9_Run_0_Map.csv,squared_error,5.147408167751043e-07,0.4996,0.3591,0.000000,0.981827,0.000000,0.797263,0.033590,0.030000,0.941144,2.000000,1.000000,0.000000,0.103593,0.600000,1.000000,0.886227,0.000000,2.000000,125.000000,1.319823,9.000000,0.797263,7.684315,0.785000,9.470293,2.000000,300.000000,0.770000,23.606661,0.600000,200.000000,8.919154,1.000000,2.000000,6
/home/daniel/Projects/ppsevolution/data/maps/custom_maps/Custom_9_Run_0_Map.csv,squared_error,3.2304434682401673e-07,0.4992,0.3598,0.000000,0.676673,0.144197,0.766240,0.257073,0.309221,1.000000,0.000000,1.000000,0.000000,0.078559,0.618308,0.856377,1.000000,0.160517,0.000000,125.000000,1.148937,29.331833,0.766240,52.157482,3.437599,10.000000,0.000000,300.000000,0.770000,20.076849,0.618308,171.419027,10.000000,2.444649,0.000000,7
/home/daniel/Projects/ppsevolution/data/maps/custom_maps/Custom_9_Run_0_Map.csv,squared_error,6.946821908428389e-07,0.5000,0.3588,0.000000,0.916284,0.000000,0.800000,0.184789,0.030000,0.921526,2.000000,0.988725,0.052299,0.000000,0.653236,0.899815,1.000000,0.000000,2.000000,125.000000,1.283119,9.000000,0.800000,37.773026,0.785000,9.293735,2.000000,298.026814,0.799287,9.000000,0.653236,180.063128,10.000000,1.000000,2.000000,8
/home/daniel/Projects/ppsevolution/data/maps/custom_maps/Custom_9_Run_0_Map.csv,squared_error,4.85975966007155e-07,0.5007,0.3607,0.000000,1.000000,0.085916,0.795113,0.254272,0.221328,0.976640,0.000000,1.000000,0.013051,0.000000,0.672038,0.619110,1.000000,0.000000,0.000000,125.000000,1.330000,21.114156,0.795113,51.600108,2.602620,9.789760,0.000000,300.000000,0.777309,9.000000,0.672038,124.202982,10.000000,1.000000,0.000000,9
map,fitness,fitness value,team0ratio,time,HP,Speed,Damage,Acc,ClipSize,RateOfFire,NrBullets,Range,HP,Speed,Damage,Acc,ClipSize,RateOfFire,NrBullets,Range,HP,Speed,Damage,Acc,ClipSize,RateOfFire,NrBullets,Range,HP,Speed,Damage,Acc,ClipSize,RateOfFire,NrBullets,Range,Run,target team0ratio: 0.5,target time: 0.36
/home/daniel/Projects/ppsevolution/data/maps/custom_maps/Custom_10_Run_0_Map.csv,squared_error,8.391978755419467e-07,0.5012,0.3604,0.000000,0.784170,0.873621,0.942680,0.011151,0.414666,1.000000,2.000000,0.068544,0.349866,0.348100,1.000000,0.815930,0.497703,0.644071,1.000000,125.000000,1.209135,132.180607,0.942680,3.218990,4.439326,10.000000,2.000000,136.995135,0.965925,58.082103,1.000000,163.370039,5.228181,6.796643,1.000000,0
/home/daniel/Projects/ppsevolution/data/maps/custom_maps/Custom_10_Run_0_Map.csv,squared_error,1.154647429859799e-06,0.4999,0.3615,0.000000,0.894813,0.763526,1.000000,0.056647,0.228717,1.000000,2.000000,0.481443,0.046198,0.823084,1.000000,0.752297,0.845869,0.437774,2.000000,125.000000,1.271095,116.657159,1.000000,12.272803,2.672808,10.000000,2.000000,209.252517,0.795871,125.054900,1.000000,150.707127,8.535751,4.939966,2.000000,1
/home/daniel/Projects/ppsevolution/data/maps/custom_maps/Custom_10_Run_0_Map.csv,squared_error,9.513140281171851e-07,0.5003,0.3613,0.022215,1.000000,1.000000,1.000000,0.022746,0.362428,0.994050,2.000000,0.840528,0.000000,0.614202,1.000000,1.000000,0.276713,0.407835,2.000000,128.887544,1.330000,150.000000,1.000000,5.526395,3.943070,9.946452,2.000000,272.092470,0.770000,95.602439,1.000000,200.000000,3.128770,4.670516,2.000000,2
/home/daniel/Projects/ppsevolution/data/maps/custom_maps/Custom_10_Run_0_Map.csv,squared_error,2.6594940450337636e-07,0.4993,0.3602,0.029308,0.936723,0.779803,0.984300,0.629513,0.164948,0.900337,2.000000,0.242641,0.000000,0.818250,1.000000,0.903239,0.757494,0.597228,2.000000,130.128925,1.294565,118.952265,0.984300,126.273012,2.067002,9.103037,2.000000,167.462125,0.770000,124.373273,1.000000,180.744489,7.696193,6.375054,2.000000,3
/home/daniel/Projects/ppsevolution/data/maps/custom_maps/Custom_10_Run_0_Map.csv,squared_error,3.1128040771257636e-06,0.4997,0.3625,0.002650,0.973373,0.776710,1.000000,0.251950,0.364226,0.982257,2.000000,0.492360,0.276270,0.801978,1.000000,0.973108,0.538562,0.403700,1.000000,125.463812,1.315089,118.516122,1.000000,51.138099,3.960147,9.840311,2.000000,211.162954,0.924711,122.078856,1.000000,194.648444,5.616343,4.633296,1.000000,4
/home/daniel/Projects/ppsevolution/data/maps/custom_maps/Custom_10_Run_0_Map.csv,squared_error,7.44037177589278e-07,0.4996,0.3611,0.015697,0.989186,0.759048,0.993994,0.000000,0.000000,1.000000,2.000000,0.346054,0.089771,0.844086,1.000000,0.957016,0.718931,0.272218,1.000000,127.746993,1.323944,116.025710,0.993994,1.000000,0.500000,10.000000,2.000000,185.559501,0.820272,128.016193,1.000000,191.446198,7.329846,3.449959,1.000000,5
/home/daniel/Projects/ppsevolution/data/maps/custom_maps/Custom_10_Run_0_Map.csv,squared_error,2.076606841288262e-06,0.5019,0.3607,0.056748,0.563603,0.661378,1.000000,0.011234,0.133719,0.943740,2.000000,0.252555,0.000000,0.791278,1.000000,1.000000,0.351857,0.359699,2.000000,134.930843,1.085618,102.254342,1.000000,3.235639,1.770333,9.493663,2.000000,169.197184,0.770000,120.570231,1.000000,200.000000,3.842640,4.237292,2.000000,6
/home/daniel/Projects/ppsevolution/data/maps/custom_maps/Custom_10_Run_0_Map.csv,squared_error,7.187381370734318e-07,0.5001,0.3612,0.000000,0.937740,0.990896,1.000000,0.353601,0.000000,0.931706,2.000000,0.782904,0.054095,0.995913,1.000000,0.838939,0.891549,0.396595,2.000000,125.000000,1.295134,148.716329,1.000000,71.366653,0.500000,9.385355,2.000000,262.008231,0.800293,149.423729,1.000000,167.948846,8.969715,4.569354,2.000000,7
/home/daniel/Projects/ppsevolution/data/maps/custom_maps/Custom_10_Run_0_Map.csv,squared_error,7.726952013655422e-07,0.5012,0.3604,0.000000,0.819697,0.838448,1.000000,0.004613,0.178789,1.000000,2.000000,0.576588,0.108976,0.912974,1.000000,0.886965,0.989987,0.470856,2.000000,125.000000,1.229031,127.221136,1.000000,1.918035,2.198493,10.000000,2.000000,225.902947,0.831026,137.729343,1.000000,177.506113,9.904875,5.237707,2.000000,8
/home/daniel/Projects/ppsevolution/data/maps/custom_maps/Custom_10_Run_0_Map.csv,squared_error,1.3726222905809561e-06,0.4984,0.3605,0.038121,0.680855,1.000000,1.000000,0.492554,0.194714,0.940562,2.000000,0.738251,0.166138,0.961412,1.000000,0.833098,0.444623,0.364102,2.000000,131.671215,1.151279,150.000000,1.000000,99.018304,2.349780,9.465058,2.000000,254.193972,0.863037,144.559128,1.000000,166.786489,4.723919,4.276915,2.000000,9
