/home/daniel/Projects/ppsevolution/data/maps/custom_maps/Custom_1_Run_0_Map.csv,0.000000,0.874929,0.373557,1.000000,0.023836,0.247878,1.000000,2.000000,0.392798,0.088094,0.975559,1.000000,1.000000,0.912699,0.602574,2.000000
/home/daniel/Projects/ppsevolution/data/maps/custom_maps/Custom_1_Run_0_Map.csv,0.000000,0.613441,0.338933,1.000000,0.182542,0.033645,0.950583,2.000000,0.319719,0.213758,1.000000,1.000000,0.996865,0.745821,0.764232,2.000000
/home/daniel/Projects/ppsevolution/data/maps/custom_maps/Custom_1_Run_0_Map.csv,0.049153,0.934016,0.430456,1.000000,0.000000,0.000000,1.000000,2.000000,0.492651,0.000000,1.000000,1.000000,0.965178,0.581753,0.902636,2.000000
/home/daniel/Projects/ppsevolution/data/maps/custom_maps/Custom_1_Run_0_Map.csv,0.000000,1.000000,0.414034,1.000000,0.005846,0.053018,1.000000,2.000000,0.437639,0.129948,1.000000,1.000000,0.906895,0.425793,0.985876,2.000000
/home/daniel/Projects/ppsevolution/data/maps/custom_maps/Custom_1_Run_0_Map.csv,0.000000,1.000000,0.529425,1.000000,0.057558,0.000000,1.000000,2.000000,0.734306,1.000000,1.000000,1.000000,0.900384,0.947742,0.896397,2.000000
/home/daniel/Projects/ppsevolution/data/maps/custom_maps/Custom_1_Run_0_Map.csv,0.000000,0.829188,0.298530,1.000000,0.000000,0.000982,1.000000,2.000000,0.230978,0.227464,1.000000,1.000000,0.856615,0.714540,0.648743,2.000000
/home/daniel/Projects/ppsevolution/data/maps/custom_maps/Custom_1_Run_0_Map.csv,0.015288,0.820684,0.240428,1.000000,0.072373,0.086431,1.000000,2.000000,0.112780,0.433160,0.978567,1.000000,0.973978,0.571335,0.533692,2.000000
/home/daniel/Projects/ppsevolution/data/maps/custom_maps/Custom_1_Run_0_Map.csv,0.016207,0.863245,0.185274,1.000000,0.000000,0.000000,1.000000,2.000000,0.054280,0.042310,1.000000,1.000000,0.889691,0.751641,0.988173,2.000000
/home/daniel/Projects/ppsevolution/data/maps/custom_maps/Custom_1_Run_0_Map.csv,0.000000,1.000000,0.462514,1.000000,0.056513,0.000000,0.869082,2.000000,0.590667,0.153594,0.949758,1.000000,0.985290,0.798644,0.305608,2.000000
/home/daniel/Projects/ppsevolution/data/maps/custom_maps/Custom_1_Run_0_Map.csv,0.000000,1.000000,0.586160,1.000000,0.000000,0.000000,0.993954,2.000000,0.747687,0.287035,0.945948,1.000000,0.979085,0.852177,0.062468,2.000000
/home/daniel/Projects/ppsevolution/data/maps/custom_maps/Custom_2_Run_0_Map.csv,0.000000,1.000000,0.716377,1.000000,0.056507,0.000000,1.000000,2.000000,1.000000,0.236577,1.000000,1.000000,1.000000,1.000000,1.000000,2.000000
/home/daniel/Projects/ppsevolution/data/maps/custom_maps/Custom_2_Run_0_Map.csv,0.000000,1.000000,0.534758,1.000000,0.034894,0.000000,1.000000,2.000000,0.589126,0.353213,1.000000,1.000000,1.000000,1.000000,1.000000,2.000000
/home/daniel/Projects/ppsevolution/data/maps/custom_maps/Custom_2_Run_0_Map.csv,0.006588,1.000000,0.639329,1.000000,0.000000,0.000000,1.000000,2.000000,0.816847,0.335735,1.000000,1.000000,1.000000,1.000000,0.989644,2.000000
/home/daniel/Projects/ppsevolution/data/maps/custom_maps/Custom_2_Run_0_Map.csv,0.000000,1.000000,0.649852,1.000000,0.000000,0.000000,1.000000,2.000000,0.840846,0.315411,1.000000,1.000000,1.000000,1.000000,1.000000,2.000000
/home/daniel/Projects/ppsevolution/data/maps/custom_maps/Custom_2_Run_0_Map.csv,0.000000,1.000000,0.656119,1.000000,0.092936,0.000000,1.000000,2.000000,0.865201,0.304324,1.000000,1.000000,1.000000,1.000000,1.000000,2.000000
/home/daniel/Projects/ppsevolution/data/maps/custom_maps/Custom_2_Run_0_Map.csv,0.000000,1.000000,0.660382,1.000000,0.000000,0.000000,1.000000,2.000000,1.000000,0.289761,1.000000,1.000000,0.886987,1.000000,1.000000,2.000000
/home/daniel/Projects/ppsevolution/data/maps/custom_maps/Custom_2_Run_0_Map.csv,0.000000,1.000000,0.447280,1.000000,0.000000,0.000000,1.000000,2.000000,0.469896,0.961191,1.000000,1.000000,1.000000,1.000000,1.000000,2.000000
/home/daniel/Projects/ppsevolution/data/maps/custom_maps/Custom_2_Run_0_Map.csv,0.000000,1.000000,0.725066,1.000000,0.000000,0.025727,1.000000,2.000000,1.000000,0.244113,1.000000,1.000000,1.000000,1.000000,1.000000,2.000000
/home/daniel/Projects/ppsevolution/data/maps/custom_maps/Custom_2_Run_0_Map.csv,0.000000,1.000000,0.620183,1.000000,0.000000,0.000000,1.000000,2.000000,0.831585,0.359406,1.000000,1.000000,1.000000,1.000000,1.000000,2.000000
/home/daniel/Projects/ppsevolution/data/maps/custom_maps/Custom_2_Run_0_Map.csv,0.000000,1.000000,0.631148,1.000000,0.000000,0.000000,1.000000,2.000000,0.843390,0.348165,1.000000,1.000000,0.937743,1.000000,1.000000,2.000000
/home/daniel/Projects/ppsevolution/data/maps/custom_maps/Custom_3_Run_0_Map.csv,0.000000,1.000000,1.000000,0.979853,0.000000,0.000000,1.000000,2.000000,0.000000,0.000000,1.000000,1.000000,0.919341,0.031159,1.000000,2.000000
/home/daniel/Projects/ppsevolution/data/maps/custom_maps/Custom_3_Run_0_Map.csv,0.000000,1.000000,1.000000,0.980650,0.000000,0.056928,1.000000,2.000000,0.000000,0.000000,1.000000,1.000000,0.983948,0.000000,0.999975,2.000000
/home/daniel/Projects/ppsevolution/data/maps/custom_maps/Custom_3_Run_0_Map.csv,0.000000,1.000000,1.000000,0.969933,0.000000,0.134311,1.000000,2.000000,0.000000,0.000000,1.000000,1.000000,1.000000,0.035746,1.000000,2.000000
/home/daniel/Projects/ppsevolution/data/maps/custom_maps/Custom_3_Run_0_Map.csv,0.000000,0.605052,1.000000,0.982271,0.000000,0.000000,1.000000,2.000000,0.000000,0.000000,1.000000,1.000000,0.934262,0.000000,0.949058,2.000000
/home/daniel/Projects/ppsevolution/data/maps/custom_maps/Custom_3_Run_0_Map.csv,0.000000,0.710679,0.998358,0.979906,0.000000,0.671849,1.000000,2.000000,0.000000,0.017123,0.994939,1.000000,1.000000,0.007364,1.000000,2.000000
/home/daniel/Projects/ppsevolution/data/maps/custom_maps/Custom_3_Run_0_Map.csv,0.000000,1.000000,1.000000,0.973802,0.000000,0.000000,1.000000,2.000000,0.000000,0.031683,1.000000,1.000000,0.893233,0.000000,1.000000,2.000000
/home/daniel/Projects/ppsevolution/data/maps/custom_maps/Custom_3_Run_0_Map.csv,0.000000,1.000000,1.000000,0.968890,0.021256,0.367724,1.000000,2.000000,0.000000,0.000000,1.000000,1.000000,1.000000,0.097737,1.000000,2.000000
/home/daniel/Projects/ppsevolution/data/maps/custom_maps/Custom_3_Run_0_Map.csv,0.000000,0.431150,0.966308,0.981154,0.033937,0.168662,1.000000,2.000000,0.048172,0.226107,1.000000,1.000000,1.000000,0.000000,1.000000,2.000000
/home/daniel/Projects/ppsevolution/data/maps/custom_maps/Custom_3_Run_0_Map.csv,0.000000,1.000000,1.000000,0.976157,0.000685,0.018932,1.000000,2.000000,0.000000,0.346865,1.000000,1.000000,1.000000,0.011965,1.000000,2.000000
/home/daniel/Projects/ppsevolution/data/maps/custom_maps/Custom_3_Run_0_Map.csv,0.000000,1.000000,1.000000,0.980761,0.000000,0.081369,1.000000,2.000000,0.000000,0.000000,1.000000,1.000000,0.581755,0.000000,1.000000,2.000000
/home/daniel/Projects/ppsevolution/data/maps/custom_maps/Custom_4_Run_0_Map.csv,0.000000,0.496558,0.770882,0.986115,0.000000,0.028408,1.000000,2.000000,0.000000,0.179359,1.000000,1.000000,0.905094,0.857175,0.991998,2.000000
/home/daniel/Projects/ppsevolution/data/maps/custom_maps/Custom_4_Run_0_Map.csv,0.000000,0.878949,0.936284,1.000000,0.000000,0.000000,1.000000,2.000000,0.370960,0.099781,1.000000,1.000000,0.874257,0.000000,1.000000,2.000000
/home/daniel/Projects/ppsevolution/data/maps/custom_maps/Custom_4_Run_0_Map.csv,0.000000,0.883565,0.859208,0.993204,0.000000,0.119331,1.000000,2.000000,0.024086,0.077483,1.000000,1.000000,0.989284,0.060797,0.834077,2.000000
/home/daniel/Projects/ppsevolution/data/maps/custom_maps/Custom_4_Run_0_Map.csv,0.000000,1.000000,0.640812,0.999560,0.000000,0.080167,1.000000,2.000000,0.000000,0.000000,1.000000,1.000000,1.000000,0.609797,0.923678,2.000000
/home/daniel/Projects/ppsevolution/data/maps/custom_maps/Custom_4_Run_0_Map.csv,0.000000,1.000000,0.997354,0.972968,0.012039,0.000000,1.000000,2.000000,0.000000,0.000000,1.000000,1.000000,1.000000,0.345752,0.931680,2.000000
/home/daniel/Projects/ppsevolution/data/maps/custom_maps/Custom_4_Run_0_Map.csv,0.000000,0.358102,1.000000,0.975390,0.002901,0.014762,1.000000,2.000000,0.000000,0.008458,1.000000,1.000000,0.998577,0.017825,1.000000,2.000000
/home/daniel/Projects/ppsevolution/data/maps/custom_maps/Custom_4_Run_0_Map.csv,0.000000,0.931168,1.000000,1.000000,0.000000,0.000000,1.000000,2.000000,0.464919,0.000000,1.000000,1.000000,0.834696,0.196154,0.670850,2.000000
/home/daniel/Projects/ppsevolution/data/maps/custom_maps/Custom_4_Run_0_Map.csv,0.000000,0.971821,0.877814,0.984213,0.000000,0.204282,1.000000,2.000000,0.000000,0.000000,1.000000,1.000000,1.000000,0.356188,0.830517,2.000000
/home/daniel/Projects/ppsevolution/data/maps/custom_maps/Custom_4_Run_0_Map.csv,0.000000,0.393006,0.826398,0.991757,0.000000,0.000000,1.000000,2.000000,0.000000,0.000000,1.000000,1.000000,0.989506,0.019926,0.847618,2.000000
/home/daniel/Projects/ppsevolution/data/maps/custom_maps/Custom_4_Run_0_Map.csv,0.000000,0.747025,0.903628,0.990213,0.000000,0.000000,0.970555,2.000000,0.105644,0.000000,1.000000,1.000000,0.987827,0.000000,0.747814,2.000000
/home/daniel/Projects/ppsevolution/data/maps/custom_maps/Custom_5_Run_0_Map.csv,0.000000,0.782069,1.000000,0.980630,0.018421,0.818958,0.995701,2.000000,0.000000,0.000000,1.000000,1.000000,0.545636,0.021066,0.581276,2.000000
/home/daniel/Projects/ppsevolution/data/maps/custom_maps/Custom_5_Run_0_Map.csv,0.000000,0.769075,1.000000,0.981623,0.018903,0.912625,1.000000,2.000000,0.000000,0.041373,1.000000,1.000000,0.814973,0.000000,1.000000,2.000000
/home/daniel/Projects/ppsevolution/data/maps/custom_maps/Custom_5_Run_0_Map.csv,0.000000,0.259064,1.000000,0.973047,0.000000,0.863688,1.000000,2.000000,0.000000,0.000000,0.960397,1.000000,0.980473,0.000000,1.000000,2.000000
/home/daniel/Projects/ppsevolution/data/maps/custom_maps/Custom_5_Run_0_Map.csv,0.143971,1.000000,1.000000,0.977397,0.000000,0.405238,1.000000,2.000000,0.000000,0.002671,1.000000,1.000000,0.000000,0.000000,0.620573,2.000000
/home/daniel/Projects/ppsevolution/data/maps/custom_maps/Custom_5_Run_0_Map.csv,0.000000,0.832119,1.000000,0.976735,0.000000,0.243062,1.000000,2.000000,0.000000,0.000000,1.000000,1.000000,0.646473,0.000000,1.000000,2.000000
/home/daniel/Projects/ppsevolution/data/maps/custom_maps/Custom_5_Run_0_Map.csv,0.000000,0.281962,1.000000,0.976529,0.000000,0.694702,1.000000,2.000000,0.000000,0.000000,1.000000,1.000000,1.000000,0.000000,1.000000,2.000000
/home/daniel/Projects/ppsevolution/data/maps/custom_maps/Custom_5_Run_0_Map.csv,0.000000,0.687501,1.000000,0.980693,0.000000,0.513272,1.000000,2.000000,0.000000,0.000000,1.000000,1.000000,0.791329,0.000000,0.940278,2.000000
/home/daniel/Projects/ppsevolution/data/maps/custom_maps/Custom_5_Run_0_Map.csv,0.015122,0.525615,1.000000,0.980068,0.000000,0.470245,1.000000,2.000000,0.000000,0.000000,1.000000,1.000000,0.369933,0.030186,0.992953,2.000000
/home/daniel/Projects/ppsevolution/data/maps/custom_maps/Custom_5_Run_0_Map.csv,0.000000,0.475079,1.000000,0.985641,0.000000,0.774543,1.000000,2.000000,0.000000,0.000000,1.000000,1.000000,0.615549,0.000000,0.581458,2.000000
/home/daniel/Projects/ppsevolution/data/maps/custom_maps/Custom_5_Run_0_Map.csv,0.000000,0.670030,1.000000,0.976446,0.000000,0.574720,0.978811,2.000000,0.000000,0.000000,1.000000,1.000000,0.698449,0.000000,1.000000,2.000000
/home/daniel/Projects/ppsevolution/data/maps/custom_maps/Custom_6_Run_0_Map.csv,0.008136,0.916596,0.000000,1.000000,0.062246,0.000000,0.243775,2.000000,1.000000,0.255847,1.000000,0.960378,1.000000,1.000000,1.000000,2.000000
/home/daniel/Projects/ppsevolution/data/maps/custom_maps/Custom_6_Run_0_Map.csv,0.000000,1.000000,0.000000,1.000000,0.000000,0.000000,0.016870,2.000000,1.000000,0.667198,1.000000,0.976866,1.000000,1.000000,0.996698,2.000000
/home/daniel/Projects/ppsevolution/data/maps/custom_maps/Custom_6_Run_0_Map.csv,0.000000,1.000000,0.000000,1.000000,0.000000,0.003482,0.048848,2.000000,1.000000,0.408915,1.000000,0.969413,1.000000,1.000000,1.000000,2.000000
/home/daniel/Projects/ppsevolution/data/maps/custom_maps/Custom_6_Run_0_Map.csv,0.027947,0.976654,0.000000,1.000000,0.002295,0.000000,0.581333,2.000000,1.000000,0.061844,0.999264,0.952850,0.989753,1.000000,1.000000,2.000000
/home/daniel/Projects/ppsevolution/data/maps/custom_maps/Custom_6_Run_0_Map.csv,0.000000,1.000000,0.000000,1.000000,0.000000,0.000000,0.593078,2.000000,1.000000,0.294251,1.000000,0.954592,1.000000,1.000000,1.000000,2.000000
/home/daniel/Projects/ppsevolution/data/maps/custom_maps/Custom_6_Run_0_Map.csv,0.000000,1.000000,0.000000,1.000000,0.000000,0.019671,0.463542,2.000000,1.000000,0.286208,0.991044,0.949918,0.860468,0.989410,1.000000,2.000000
/home/daniel/Projects/ppsevolution/data/maps/custom_maps/Custom_6_Run_0_Map.csv,0.000000,0.915717,0.000000,1.000000,0.000000,0.000000,0.282557,2.000000,1.000000,0.262956,1.000000,0.950758,1.000000,0.988805,0.909504,2.000000
/home/daniel/Projects/ppsevolution/data/maps/custom_maps/Custom_6_Run_0_Map.csv,0.000235,1.000000,0.000000,1.000000,0.000000,0.000000,0.486672,2.000000,1.000000,0.266214,1.000000,0.963665,0.984867,1.000000,0.992978,2.000000
/home/daniel/Projects/ppsevolution/data/maps/custom_maps/Custom_6_Run_0_Map.csv,0.000000,1.000000,0.000000,1.000000,0.000000,0.000000,0.112688,2.000000,1.000000,0.000000,1.000000,0.969344,1.000000,1.000000,1.000000,2.000000
/home/daniel/Projects/ppsevolution/data/maps/custom_maps/Custom_6_Run_0_Map.csv,0.000000,1.000000,0.000000,1.000000,0.000000,0.000000,0.137536,2.000000,1.000000,0.682363,1.000000,0.956277,1.000000,0.986877,1.000000,2.000000
/home/daniel/Projects/ppsevolution/data/maps/custom_maps/Custom_7_Run_0_Map.csv,0.000000,1.000000,0.360650,1.000000,0.020971,0.000000,1.000000,2.000000,0.194080,0.028733,1.000000,1.000000,1.000000,1.000000,0.993513,2.000000
/home/daniel/Projects/ppsevolution/data/maps/custom_maps/Custom_7_Run_0_Map.csv,0.000000,1.000000,0.600180,1.000000,0.000000,0.000000,0.982181,2.000000,0.710692,0.100842,1.000000,1.000000,1.000000,1.000000,1.000000,2.000000
/home/daniel/Projects/ppsevolution/data/maps/custom_maps/Custom_7_Run_0_Map.csv,0.000000,0.666875,0.672208,1.000000,0.008922,0.000000,1.000000,2.000000,0.753946,0.119906,1.000000,1.000000,0.880127,1.000000,1.000000,2.000000
/home/daniel/Projects/ppsevolution/data/maps/custom_maps/Custom_7_Run_0_Map.csv,0.000000,1.000000,0.615757,1.000000,0.019527,0.000000,0.998254,2.000000,0.733164,0.156466,1.000000,1.000000,0.944511,1.000000,1.000000,2.000000
/home/daniel/Projects/ppsevolution/data/maps/custom_maps/Custom_7_Run_0_Map.csv,0.000000,0.923523,0.552616,1.000000,0.022126,0.000000,1.000000,2.000000,0.540245,0.000000,1.000000,1.000000,1.000000,1.000000,1.000000,2.000000
/home/daniel/Projects/ppsevolution/data/maps/custom_maps/Custom_7_Run_0_Map.csv,0.000000,0.964775,0.657205,1.000000,0.000000,0.000000,0.878712,2.000000,0.776188,0.000000,0.989084,1.000000,0.910812,0.933163,1.000000,2.000000
/home/daniel/Projects/ppsevolution/data/maps/custom_maps/Custom_7_Run_0_Map.csv,0.000000,1.000000,0.561472,1.000000,0.000000,0.020791,1.000000,2.000000,0.518534,0.043700,1.000000,1.000000,1.000000,0.988046,1.000000,2.000000
/home/daniel/Projects/ppsevolution/data/maps/custom_maps/Custom_7_Run_0_Map.csv,0.000000,1.000000,0.700398,1.000000,0.000000,0.000000,1.000000,2.000000,0.809565,0.115043,1.000000,1.000000,0.981887,1.000000,1.000000,2.000000
/home/daniel/Projects/ppsevolution/data/maps/custom_maps/Custom_7_Run_0_Map.csv,0.019421,1.000000,0.555645,1.000000,0.000000,0.000000,1.000000,2.000000,0.575525,0.039574,1.000000,1.000000,1.000000,0.936775,1.000000,2.000000
/home/daniel/Projects/ppsevolution/data/maps/custom_maps/Custom_7_Run_0_Map.csv,0.000000,0.896477,0.528551,1.000000,0.000000,0.000000,1.000000,2.000000,0.447257,0.111615,1.000000,1.000000,0.963187,1.000000,1.000000,2.000000
/home/daniel/Projects/ppsevolution/data/maps/custom_maps/Custom_8_Run_0_Map.csv,0.000000,1.000000,0.562508,1.000000,0.024618,0.000000,1.000000,2.000000,0.000000,0.000000,0.990788,1.000000,0.638333,0.389511,1.000000,2.000000
/home/daniel/Projects/ppsevolution/data/maps/custom_maps/Custom_8_Run_0_Map.csv,0.000000,0.785437,0.834749,1.000000,0.000000,0.000000,1.000000,2.000000,0.383015,0.092808,1.000000,1.000000,0.963144,0.000210,0.975591,2.000000
/home/daniel/Projects/ppsevolution/data/maps/custom_maps/Custom_8_Run_0_Map.csv,0.000000,0.918015,0.770891,1.000000,0.000000,0.172088,1.000000,2.000000,0.383808,0.051894,0.980949,1.000000,0.908191,0.403778,1.000000,2.000000
/home/daniel/Projects/ppsevolution/data/maps/custom_maps/Custom_8_Run_0_Map.csv,0.000000,0.674764,0.641810,1.000000,0.000000,0.027321,1.000000,2.000000,0.123837,0.127834,1.000000,0.999706,1.000000,0.388189,1.000000,2.000000
/home/daniel/Projects/ppsevolution/data/maps/custom_maps/Custom_8_Run_0_Map.csv,0.000000,1.000000,0.529253,1.000000,0.000000,0.007774,0.996777,2.000000,0.000000,0.000000,1.000000,1.000000,0.957055,0.394096,1.000000,2.000000
/home/daniel/Projects/ppsevolution/data/maps/custom_maps/Custom_8_Run_0_Map.csv,0.000000,1.000000,0.562759,1.000000,0.004533,0.079255,1.000000,2.000000,0.000000,0.037993,1.000000,1.000000,1.000000,0.335171,0.878128,2.000000
/home/daniel/Projects/ppsevolution/data/maps/custom_maps/Custom_8_Run_0_Map.csv,0.000000,0.842632,0.583370,1.000000,0.042971,0.000000,1.000000,2.000000,0.004109,0.105384,1.000000,1.000000,0.950408,0.315580,0.748996,2.000000
/home/daniel/Projects/ppsevolution/data/maps/custom_maps/Custom_8_Run_0_Map.csv,0.000000,0.737264,0.660098,1.000000,0.000000,0.000000,0.948848,2.000000,0.141498,0.000000,1.000000,1.000000,0.955647,0.019434,1.000000,2.000000
/home/daniel/Projects/ppsevolution/data/maps/custom_maps/Custom_8_Run_0_Map.csv,0.000000,1.000000,0.566453,1.000000,0.000000,0.000000,1.000000,2.000000,0.000000,0.000000,1.000000,1.000000,0.885002,0.261542,0.872201,2.000000
/home/daniel/Projects/ppsevolution/data/maps/custom_maps/Custom_8_Run_0_Map.csv,0.000000,0.890424,0.838181,0.982010,0.000000,0.022826,1.000000,2.000000,0.055288,0.204737,1.000000,1.000000,0.729873,0.485196,1.000000,2.000000
/home/daniel/Projects/ppsevolution/data/maps/custom_maps/Custom_9_Run_0_Map.csv,0.000000,0.851387,0.586952,1.000000,0.004364,0.004203,1.000000,2.000000,0.348867,0.000000,1.000000,1.000000,0.909481,0.054079,0.987561,2.000000
/home/daniel/Projects/ppsevolution/data/maps/custom_maps/Custom_9_Run_0_Map.csv,0.000000,0.883610,0.927845,0.972195,0.000000,0.149025,1.000000,2.000000,0.238832,0.199778,1.000000,1.000000,0.587792,0.593883,0.469953,2.000000
/home/daniel/Projects/ppsevolution/data/maps/custom_maps/Custom_9_Run_0_Map.csv,0.000000,0.451524,0.445769,1.000000,0.000000,0.024398,0.929997,2.000000,0.181201,0.000000,1.000000,1.000000,1.000000,0.560460,1.000000,2.000000
/home/daniel/Projects/ppsevolution/data/maps/custom_maps/Custom_9_Run_0_Map.csv,0.000000,1.000000,1.000000,0.973170,0.005878,0.115376,1.000000,2.000000,0.410574,0.089799,1.000000,1.000000,0.974860,0.748759,0.410850,2.000000
/home/daniel/Projects/ppsevolution/data/maps/custom_maps/Custom_9_Run_0_Map.csv,0.000000,0.665777,0.601183,0.981200,0.000000,0.175137,1.000000,2.000000,0.000000,0.077338,1.000000,1.000000,0.966407,0.473092,0.919729,2.000000
/home/daniel/Projects/ppsevolution/data/maps/custom_maps/Custom_9_Run_0_Map.csv,0.000000,0.861207,0.927814,0.974575,0.000000,0.000000,1.000000,2.000000,0.358056,0.000000,0.975243,1.000000,0.881557,0.391161,1.000000,2.000000
/home/daniel/Projects/ppsevolution/data/maps/custom_maps/Custom_9_Run_0_Map.csv,0.000000,0.726469,1.000000,0.989168,0.000000,0.084431,1.000000,2.000000,0.692432,0.180435,1.000000,1.000000,0.841544,0.142318,0.555763,2.000000
/home/daniel/Projects/ppsevolution/data/maps/custom_maps/Custom_9_Run_0_Map.csv,0.000000,0.790923,0.488787,1.000000,0.000000,0.000000,1.000000,2.000000,0.160300,0.012398,1.000000,1.000000,1.000000,0.366207,0.974189,2.000000
/home/daniel/Projects/ppsevolution/data/maps/custom_maps/Custom_9_Run_0_Map.csv,0.000000,0.741055,1.000000,0.950279,0.000000,0.000000,1.000000,2.000000,0.000000,0.000000,1.000000,1.000000,0.942645,0.490499,1.000000,2.000000
/home/daniel/Projects/ppsevolution/data/maps/custom_maps/Custom_9_Run_0_Map.csv,0.000000,0.605132,0.813459,0.991715,0.035019,0.105314,0.951043,2.000000,0.416739,0.000000,1.000000,1.000000,0.785718,0.184476,0.487863,2.000000
/home/daniel/Projects/ppsevolution/data/maps/custom_maps/Custom_10_Run_0_Map.csv,0.000000,0.433656,1.000000,0.992352,0.006054,1.000000,1.000000,2.000000,0.000000,0.021795,1.000000,1.000000,0.924764,0.000000,1.000000,0.000000
/home/daniel/Projects/ppsevolution/data/maps/custom_maps/Custom_10_Run_0_Map.csv,0.000000,0.124108,1.000000,0.990670,0.000000,1.000000,1.000000,2.000000,0.000000,0.000000,1.000000,1.000000,0.631785,0.000000,1.000000,0.000000
/home/daniel/Projects/ppsevolution/data/maps/custom_maps/Custom_10_Run_0_Map.csv,0.000000,0.924306,1.000000,0.984240,0.031429,0.941823,1.000000,2.000000,0.000000,0.003198,1.000000,1.000000,0.918483,0.001216,1.000000,0.000000
/home/daniel/Projects/ppsevolution/data/maps/custom_maps/Custom_10_Run_0_Map.csv,0.000000,0.728369,1.000000,0.992602,0.000000,1.000000,1.000000,2.000000,0.000000,0.000000,1.000000,1.000000,1.000000,0.000000,0.992392,0.000000
/home/daniel/Projects/ppsevolution/data/maps/custom_maps/Custom_10_Run_0_Map.csv,0.000000,0.617783,1.000000,0.986995,0.000000,1.000000,1.000000,2.000000,0.000000,0.000000,1.000000,1.000000,0.731783,0.000000,1.000000,0.000000
/home/daniel/Projects/ppsevolution/data/maps/custom_maps/Custom_10_Run_0_Map.csv,0.088639,0.852083,1.000000,0.984639,0.000000,1.000000,1.000000,2.000000,0.000000,0.000000,1.000000,1.000000,0.644332,0.000000,1.000000,0.000000
/home/daniel/Projects/ppsevolution/data/maps/custom_maps/Custom_10_Run_0_Map.csv,0.000000,1.000000,1.000000,0.985839,0.032020,0.983388,1.000000,2.000000,0.000000,0.000000,1.000000,1.000000,0.887553,0.000000,0.998357,0.000000
/home/daniel/Projects/ppsevolution/data/maps/custom_maps/Custom_10_Run_0_Map.csv,0.000000,0.835501,1.000000,0.985779,0.050122,1.000000,1.000000,2.000000,0.000000,0.001269,1.000000,1.000000,0.967831,0.000000,1.000000,0.000000
/home/daniel/Projects/ppsevolution/data/maps/custom_maps/Custom_10_Run_0_Map.csv,0.000000,0.894409,1.000000,0.993404,0.000000,0.952547,1.000000,2.000000,0.000000,0.028636,1.000000,1.000000,0.941905,0.021177,1.000000,0.000000
/home/daniel/Projects/ppsevolution/data/maps/custom_maps/Custom_10_Run_0_Map.csv,0.000000,0.691599,1.000000,0.988238,0.065264,1.000000,1.000000,2.000000,0.000000,0.000000,1.000000,1.000000,1.000000,0.000000,1.000000,0.000000
