map,fitness,fitness value,team0ratio,time,HP,Speed,Damage,Acc,ClipSize,RateOfFire,NrBullets,Range,HP,Speed,Damage,Acc,ClipSize,RateOfFire,NrBullets,Range,HP,Speed,Damage,Acc,ClipSize,RateOfFire,NrBullets,Range,HP,Speed,Damage,Acc,ClipSize,RateOfFire,NrBullets,Range,Run,target team0ratio: 0.5,target time: 0.14
/home/daniel/Projects/ppsevolution/data/maps/custom_maps/Custom_1_Run_0_Map.csv,squared_error,0.00014417727250545903,0.5039,0.1565,0.000000,0.972395,0.300302,0.997767,0.145655,0.000000,1.000000,2.000000,0.118242,1.000000,1.000000,1.000000,0.926607,0.516458,0.627348,2.000000,125.000000,1.314541,51.342603,0.997767,29.985316,0.500000,10.000000,2.000000,145.692355,1.330000,150.000000,1.000000,185.394816,5.406354,6.646133,2.000000,0
/home/daniel/Projects/ppsevolution/data/maps/custom_maps/Custom_1_Run_0_Map.csv,squared_error,0.00015019632596295458,0.4982,0.1572,0.000000,1.000000,0.534713,1.000000,0.000000,0.053532,1.000000,2.000000,0.698119,0.000000,1.000000,1.000000,0.882993,0.840265,0.766105,2.000000,125.000000,1.330000,84.394464,1.000000,1.000000,1.008555,10.000000,2.000000,247.170905,0.770000,150.000000,1.000000,176.715699,8.482516,7.894946,2.000000,1
/home/daniel/Projects/ppsevolution/data/maps/custom_maps/Custom_1_Run_0_Map.csv,squared_error,0.00017776141505610347,0.4985,0.1588,0.007727,0.646660,0.597001,1.000000,0.001262,0.000000,0.999613,2.000000,0.729615,0.096530,1.000000,1.000000,1.000000,0.651589,0.273720,2.000000,126.352229,1.132130,93.177133,1.000000,1.251095,0.500000,9.996518,2.000000,252.682658,0.824057,150.000000,1.000000,200.000000,6.690095,3.463477,2.000000,2
/home/daniel/Projects/ppsevolution/data/maps/custom_maps/Custom_1_Run_0_Map.csv,squared_error,0.00016535417689571112,0.5023,0.1580,0.000000,1.000000,0.290281,1.000000,0.000000,0.210237,1.000000,2.000000,0.321440,0.056789,0.851937,1.000000,0.839177,0.775141,0.709098,2.000000,125.000000,1.330000,49.929597,1.000000,1.000000,2.497249,10.000000,2.000000,181.251954,0.801802,129.123073,1.000000,167.996257,7.863842,7.381884,2.000000,3
/home/daniel/Projects/ppsevolution/data/maps/custom_maps/Custom_1_Run_0_Map.csv,squared_error,0.00015864384498339484,0.5019,0.1577,0.000000,0.891656,0.418881,1.000000,0.000000,0.000000,1.000000,2.000000,0.480473,0.035438,0.979370,1.000000,0.950890,1.000000,0.411906,2.000000,125.000000,1.269327,68.062161,1.000000,1.000000,0.500000,10.000000,2.000000,209.082828,0.789845,147.091151,1.000000,190.227195,10.000000,4.707157,2.000000,4
/home/daniel/Projects/ppsevolution/data/maps/custom_maps/Custom_1_Run_0_Map.csv,squared_error,0.00022784688507226027,0.5051,0.1607,0.006728,0.749853,0.756908,0.993669,0.000000,0.070139,0.972181,2.000000,0.877324,0.027082,1.000000,1.000000,0.815123,1.000000,0.157173,2.000000,126.177408,1.189918,115.724032,0.993669,1.000000,1.166317,9.749631,2.000000,278.531779,0.785166,150.000000,1.000000,163.209440,10.000000,2.414554,2.000000,5
/home/daniel/Projects/ppsevolution/data/maps/custom_maps/Custom_1_Run_0_Map.csv,squared_error,0.0001194057645069568,0.5015,0.1554,0.000000,0.895234,0.338291,1.000000,0.000000,0.000000,1.000000,2.000000,0.145365,0.026868,1.000000,1.000000,0.941823,0.211777,0.481620,2.000000,125.000000,1.271331,56.698993,1.000000,1.000000,0.500000,10.000000,2.000000,150.438874,0.785046,150.000000,1.000000,188.422837,2.511886,5.334582,2.000000,6
/home/daniel/Projects/ppsevolution/data/maps/custom_maps/Custom_1_Run_0_Map.csv,squared_error,0.00011507788954830287,0.5021,0.1550,0.000000,0.726211,0.225437,1.000000,0.000000,0.389333,1.000000,2.000000,0.000000,0.065030,1.000000,1.000000,1.000000,0.459262,0.798797,2.000000,125.000000,1.176678,40.786577,1.000000,1.000000,4.198663,10.000000,2.000000,125.000000,0.806417,150.000000,1.000000,200.000000,4.862987,8.189169,2.000000,7
/home/daniel/Projects/ppsevolution/data/maps/custom_maps/Custom_1_Run_0_Map.csv,squared_error,0.00016784816087200388,0.5001,0.1583,0.000000,0.952381,0.540868,1.000000,0.056285,0.000000,1.000000,2.000000,0.673296,0.111845,1.000000,1.000000,1.000000,0.879510,0.387309,2.000000,125.000000,1.303333,85.262420,1.000000,12.200689,0.500000,10.000000,2.000000,242.826861,0.832633,150.000000,1.000000,200.000000,8.855341,4.485783,2.000000,8
/home/daniel/Projects/ppsevolution/data/maps/custom_maps/Custom_1_Run_0_Map.csv,squared_error,0.00017293887648239795,0.5007,0.1586,0.000000,0.868905,0.672654,1.000000,0.000000,0.000000,1.000000,2.000000,0.947728,0.000000,1.000000,1.000000,0.971693,0.998985,0.618469,2.000000,125.000000,1.256587,103.844234,1.000000,1.000000,0.500000,10.000000,2.000000,290.852421,0.770000,150.000000,1.000000,194.366947,9.990357,6.566218,2.000000,9
map,fitness,fitness value,team0ratio,time,HP,Speed,Damage,Acc,ClipSize,RateOfFire,NrBullets,Range,HP,Speed,Damage,Acc,ClipSize,RateOfFire,NrBullets,Range,HP,Speed,Damage,Acc,ClipSize,RateOfFire,NrBullets,Range,HP,Speed,Damage,Acc,ClipSize,RateOfFire,NrBullets,Range,Run,target team0ratio: 0.5,target time: 0.14
/home/daniel/Projects/ppsevolution/data/maps/custom_maps/Custom_2_Run_0_Map.csv,squared_error,0.030239793780856887,0.4594,0.3826,0.000000,1.000000,0.643042,1.000000,0.000000,0.000000,1.000000,2.000000,0.917912,0.461177,1.000000,1.000000,1.000000,1.000000,1.000000,2.000000,125.000000,1.330000,99.668883,1.000000,1.000000,0.500000,10.000000,2.000000,285.634651,1.028259,150.000000,1.000000,200.000000,10.000000,10.000000,2.000000,0
/home/daniel/Projects/ppsevolution/data/maps/custom_maps/Custom_2_Run_0_Map.csv,squared_error,0.030209317250060697,0.4651,0.3833,0.000000,1.000000,0.605856,1.000000,0.000000,0.017087,1.000000,2.000000,0.803379,0.800452,1.000000,1.000000,1.000000,1.000000,1.000000,2.000000,125.000000,1.330000,94.425754,1.000000,1.000000,0.662330,10.000000,2.000000,265.591386,1.218253,150.000000,1.000000,200.000000,10.000000,10.000000,2.000000,1
/home/daniel/Projects/ppsevolution/data/maps/custom_maps/Custom_2_Run_0_Map.csv,squared_error,0.030300982390072354,0.4640,0.3835,0.000000,0.970308,0.458792,1.000000,0.000000,0.000000,1.000000,2.000000,0.511301,0.330557,1.000000,1.000000,0.992968,1.000000,1.000000,2.000000,125.000000,1.313373,73.689610,1.000000,1.000000,0.500000,10.000000,2.000000,214.477620,0.955112,150.000000,1.000000,198.600653,10.000000,10.000000,2.000000,2
/home/daniel/Projects/ppsevolution/data/maps/custom_maps/Custom_2_Run_0_Map.csv,squared_error,0.03023904080517599,0.4593,0.3825,0.000000,1.000000,0.538310,1.000000,0.000000,0.000000,1.000000,2.000000,0.726643,0.613863,1.000000,1.000000,1.000000,1.000000,1.000000,2.000000,125.000000,1.330000,84.901728,1.000000,1.000000,0.500000,10.000000,2.000000,252.162568,1.113763,150.000000,1.000000,200.000000,10.000000,10.000000,2.000000,3
/home/daniel/Projects/ppsevolution/data/maps/custom_maps/Custom_2_Run_0_Map.csv,squared_error,0.03020658048424264,0.4650,0.3833,0.000000,1.000000,0.713578,1.000000,0.000000,0.000000,1.000000,2.000000,1.000000,0.591069,1.000000,1.000000,1.000000,1.000000,1.000000,2.000000,125.000000,1.330000,109.614471,1.000000,1.000000,0.500000,10.000000,2.000000,300.000000,1.100999,150.000000,1.000000,200.000000,10.000000,10.000000,2.000000,4
/home/daniel/Projects/ppsevolution/data/maps/custom_maps/Custom_2_Run_0_Map.csv,squared_error,0.030320540073861767,0.4745,0.3849,0.000000,1.000000,0.581339,1.000000,0.000000,0.000000,1.000000,2.000000,0.629832,0.243608,1.000000,1.000000,1.000000,1.000000,1.000000,2.000000,125.000000,1.330000,90.968810,1.000000,1.000000,0.500000,10.000000,2.000000,235.220653,0.906421,150.000000,1.000000,200.000000,10.000000,10.000000,2.000000,5
/home/daniel/Projects/ppsevolution/data/maps/custom_maps/Custom_2_Run_0_Map.csv,squared_error,0.030261709418694126,0.4656,0.3836,0.000000,0.998255,0.728470,1.000000,0.005126,0.000000,1.000000,2.000000,1.000000,0.176810,1.000000,1.000000,1.000000,1.000000,1.000000,2.000000,125.000000,1.329023,111.714281,1.000000,2.020051,0.500000,10.000000,2.000000,300.000000,0.869013,150.000000,1.000000,200.000000,10.000000,10.000000,2.000000,6
/home/daniel/Projects/ppsevolution/data/maps/custom_maps/Custom_2_Run_0_Map.csv,squared_error,0.03015797775703523,0.4647,0.3830,0.000000,1.000000,0.700131,1.000000,0.000000,0.000000,1.000000,2.000000,1.000000,1.000000,1.000000,1.000000,1.000000,1.000000,1.000000,2.000000,125.000000,1.330000,107.718420,1.000000,1.000000,0.500000,10.000000,2.000000,300.000000,1.330000,150.000000,1.000000,200.000000,10.000000,10.000000,2.000000,7
/home/daniel/Projects/ppsevolution/data/maps/custom_maps/Custom_2_Run_0_Map.csv,squared_error,0.030227118074025488,0.4619,0.3829,0.000000,1.000000,0.700192,1.000000,0.000000,0.000000,1.000000,2.000000,1.000000,0.441089,1.000000,1.000000,1.000000,1.000000,1.000000,2.000000,125.000000,1.330000,107.727126,1.000000,1.000000,0.500000,10.000000,2.000000,300.000000,1.017010,150.000000,1.000000,200.000000,10.000000,10.000000,2.000000,8
/home/daniel/Projects/ppsevolution/data/maps/custom_maps/Custom_2_Run_0_Map.csv,squared_error,0.030197220935520647,0.4681,0.3837,0.000000,0.979453,0.704995,1.000000,0.000000,0.000000,1.000000,2.000000,0.963080,0.838818,1.000000,1.000000,1.000000,1.000000,1.000000,2.000000,125.000000,1.318494,108.404233,1.000000,1.000000,0.500000,10.000000,2.000000,293.538982,1.239738,150.000000,1.000000,200.000000,10.000000,10.000000,2.000000,9
map,fitness,fitness value,team0ratio,time,HP,Speed,Damage,Acc,ClipSize,RateOfFire,NrBullets,Range,HP,Speed,Damage,Acc,ClipSize,RateOfFire,NrBullets,Range,HP,Speed,Damage,Acc,ClipSize,RateOfFire,NrBullets,Range,HP,Speed,Damage,Acc,ClipSize,RateOfFire,NrBullets,Range,Run,target team0ratio: 0.5,target time: 0.14
/home/daniel/Projects/ppsevolution/data/maps/custom_maps/Custom_3_Run_0_Map.csv,squared_error,0.05405458399245386,0.5298,0.4674,0.000000,1.000000,1.000000,0.979053,0.000000,0.000000,1.000000,2.000000,0.000000,0.000000,1.000000,1.000000,1.000000,0.000000,1.000000,2.000000,125.000000,1.330000,150.000000,0.979053,1.000000,0.500000,10.000000,2.000000,125.000000,0.770000,150.000000,1.000000,200.000000,0.500000,10.000000,2.000000,0
/home/daniel/Projects/ppsevolution/data/maps/custom_maps/Custom_3_Run_0_Map.csv,squared_error,0.05402960239261998,0.5329,0.4671,0.000000,0.943224,1.000000,0.982042,0.000000,1.000000,1.000000,2.000000,0.000000,0.000000,1.000000,1.000000,1.000000,0.000000,1.000000,2.000000,125.000000,1.298206,150.000000,0.982042,1.000000,10.000000,10.000000,2.000000,125.000000,0.770000,150.000000,1.000000,200.000000,0.500000,10.000000,2.000000,1
/home/daniel/Projects/ppsevolution/data/maps/custom_maps/Custom_3_Run_0_Map.csv,squared_error,0.05406848272389962,0.5290,0.4676,0.000000,0.922894,1.000000,0.978786,0.000000,0.000000,1.000000,2.000000,0.000000,0.016687,1.000000,1.000000,1.000000,0.000000,1.000000,2.000000,125.000000,1.286821,150.000000,0.978786,1.000000,0.500000,10.000000,2.000000,125.000000,0.779345,150.000000,1.000000,200.000000,0.500000,10.000000,2.000000,2
/home/daniel/Projects/ppsevolution/data/maps/custom_maps/Custom_3_Run_0_Map.csv,squared_error,0.05407158009740844,0.5327,0.4672,0.000000,1.000000,1.000000,0.980666,0.000000,0.068794,1.000000,2.000000,0.000000,0.000000,1.000000,1.000000,1.000000,0.000000,1.000000,2.000000,125.000000,1.330000,150.000000,0.980666,1.000000,1.153543,10.000000,2.000000,125.000000,0.770000,150.000000,1.000000,200.000000,0.500000,10.000000,2.000000,3
/home/daniel/Projects/ppsevolution/data/maps/custom_maps/Custom_3_Run_0_Map.csv,squared_error,0.054054461707838015,0.5248,0.4679,0.000000,0.990686,1.000000,0.976470,0.000000,0.029844,1.000000,2.000000,0.000000,0.000000,1.000000,1.000000,1.000000,0.000000,1.000000,2.000000,125.000000,1.324784,150.000000,0.976470,1.000000,0.783514,10.000000,2.000000,125.000000,0.770000,150.000000,1.000000,200.000000,0.500000,10.000000,2.000000,4
/home/daniel/Projects/ppsevolution/data/maps/custom_maps/Custom_3_Run_0_Map.csv,squared_error,0.05408755110113856,0.5213,0.4682,0.000000,1.000000,1.000000,0.974937,0.000000,0.321101,1.000000,2.000000,0.000000,0.000000,1.000000,1.000000,1.000000,0.000000,1.000000,2.000000,125.000000,1.330000,150.000000,0.974937,1.000000,3.550456,10.000000,2.000000,125.000000,0.770000,150.000000,1.000000,200.000000,0.500000,10.000000,2.000000,5
/home/daniel/Projects/ppsevolution/data/maps/custom_maps/Custom_3_Run_0_Map.csv,squared_error,0.05410506938330218,0.5347,0.4671,0.000000,0.985464,1.000000,0.981958,0.000000,0.281854,1.000000,2.000000,0.000000,0.030914,1.000000,1.000000,1.000000,0.000000,1.000000,2.000000,125.000000,1.321860,150.000000,0.981958,1.000000,3.177614,10.000000,2.000000,125.000000,0.787312,150.000000,1.000000,200.000000,0.500000,10.000000,2.000000,6
/home/daniel/Projects/ppsevolution/data/maps/custom_maps/Custom_3_Run_0_Map.csv,squared_error,0.05405197426527903,0.5263,0.4677,0.000000,0.987891,1.000000,0.977253,0.000000,0.014094,1.000000,2.000000,0.000000,0.000000,1.000000,1.000000,1.000000,0.000000,1.000000,2.000000,125.000000,1.323219,150.000000,0.977253,1.000000,0.633891,10.000000,2.000000,125.000000,0.770000,150.000000,1.000000,200.000000,0.500000,10.000000,2.000000,7
/home/daniel/Projects/ppsevolution/data/maps/custom_maps/Custom_3_Run_0_Map.csv,squared_error,0.05409071687277861,0.5352,0.4670,0.000000,0.902318,1.000000,0.982899,0.000000,0.571311,1.000000,2.000000,0.000000,0.000000,1.000000,1.000000,1.000000,0.000000,1.000000,2.000000,125.000000,1.275298,150.000000,0.982899,1.000000,5.927452,10.000000,2.000000,125.000000,0.770000,150.000000,1.000000,200.000000,0.500000,10.000000,2.000000,8
/home/daniel/Projects/ppsevolution/data/maps/custom_maps/Custom_3_Run_0_Map.csv,squared_error,0.05407733718514298,0.5302,0.4675,0.000000,1.000000,1.000000,0.979715,0.000000,0.235764,1.000000,2.000000,0.003458,0.003629,1.000000,1.000000,1.000000,0.000000,1.000000,2.000000,125.000000,1.330000,150.000000,0.979715,1.000000,2.739757,10.000000,2.000000,125.605137,0.772032,150.000000,1.000000,200.000000,0.500000,10.000000,2.000000,9
map,fitness,fitness value,team0ratio,time,HP,Speed,Damage,Acc,ClipSize,RateOfFire,NrBullets,Range,HP,Speed,Damage,Acc,ClipSize,RateOfFire,NrBullets,Range,HP,Speed,Damage,Acc,ClipSize,RateOfFire,NrBullets,Range,HP,Speed,Damage,Acc,ClipSize,RateOfFire,NrBullets,Range,Run,target team0ratio: 0.5,target time: 0.14
/home/daniel/Projects/ppsevolution/data/maps/custom_maps/Custom_4_Run_0_Map.csv,squared_error,0.0015592578092130565,0.5046,0.1957,0.000000,0.910309,0.808681,1.000000,0.067630,0.000000,1.000000,2.000000,0.218956,0.072896,1.000000,1.000000,1.000000,0.631787,0.209639,2.000000,125.000000,1.279773,123.024044,1.000000,14.458327,0.500000,10.000000,2.000000,163.317316,0.810822,150.000000,1.000000,200.000000,6.501977,2.886755,2.000000,0
/home/daniel/Projects/ppsevolution/data/maps/custom_maps/Custom_4_Run_0_Map.csv,squared_error,0.0014374956885289509,0.4998,0.1936,0.000000,0.898159,0.612528,1.000000,0.000000,0.012472,1.000000,2.000000,0.000000,0.000000,1.000000,1.000000,0.999666,0.675249,1.000000,2.000000,125.000000,1.272969,95.366409,1.000000,1.000000,0.618483,10.000000,2.000000,125.000000,0.770000,150.000000,1.000000,199.933528,6.914864,10.000000,2.000000,1
/home/daniel/Projects/ppsevolution/data/maps/custom_maps/Custom_4_Run_0_Map.csv,squared_error,0.0014264572970780647,0.4994,0.1934,0.000000,0.749092,0.655267,1.000000,0.000000,0.000000,1.000000,2.000000,0.000000,0.116395,1.000000,1.000000,0.809366,0.340904,0.911767,2.000000,125.000000,1.189491,101.392705,1.000000,1.000000,0.500000,10.000000,2.000000,125.000000,0.835181,150.000000,1.000000,162.063854,3.738589,9.205900,2.000000,2
/home/daniel/Projects/ppsevolution/data/maps/custom_maps/Custom_4_Run_0_Map.csv,squared_error,0.0014264950713110864,0.5087,0.1927,0.000000,0.789624,0.952897,1.000000,0.000000,0.000000,1.000000,2.000000,0.358605,0.016110,1.000000,1.000000,1.000000,0.118805,1.000000,2.000000,125.000000,1.212189,143.358432,1.000000,1.000000,0.500000,10.000000,2.000000,187.755897,0.779022,150.000000,1.000000,200.000000,1.628645,10.000000,2.000000,3
/home/daniel/Projects/ppsevolution/data/maps/custom_maps/Custom_4_Run_0_Map.csv,squared_error,0.0013354310323452263,0.5075,0.1911,0.000000,0.991983,0.890894,0.987874,0.002997,0.000000,1.000000,2.000000,0.000000,0.020213,1.000000,1.000000,0.897940,0.015424,1.000000,2.000000,125.000000,1.325511,134.616044,0.987874,1.596497,0.500000,10.000000,2.000000,125.000000,0.781319,150.000000,1.000000,179.690055,0.646529,10.000000,2.000000,4
/home/daniel/Projects/ppsevolution/data/maps/custom_maps/Custom_4_Run_0_Map.csv,squared_error,0.0014857299374724413,0.5051,0.1943,0.023187,1.000000,0.648861,1.000000,0.000000,0.000000,1.000000,2.000000,0.000000,0.105462,1.000000,1.000000,0.947677,0.578532,0.628078,2.000000,129.057741,1.330000,100.489420,1.000000,1.000000,0.500000,10.000000,2.000000,125.000000,0.829059,150.000000,1.000000,189.587780,5.996053,6.652702,2.000000,5
/home/daniel/Projects/ppsevolution/data/maps/custom_maps/Custom_4_Run_0_Map.csv,squared_error,0.0013157405698843755,0.5054,0.1910,0.000000,0.547778,0.982254,0.981224,0.000000,0.000000,1.000000,2.000000,0.000000,0.000000,1.000000,1.000000,0.789474,0.000000,1.000000,2.000000,125.000000,1.076756,147.497750,0.981224,1.000000,0.500000,10.000000,2.000000,125.000000,0.770000,150.000000,1.000000,158.105334,0.500000,10.000000,2.000000,6
/home/daniel/Projects/ppsevolution/data/maps/custom_maps/Custom_4_Run_0_Map.csv,squared_error,0.001443508263816326,0.5039,0.1936,0.000000,0.779961,0.658928,1.000000,0.013338,0.000000,1.000000,2.000000,0.000000,0.108389,1.000000,1.000000,0.895214,0.518870,0.856419,2.000000,125.000000,1.206778,101.908792,1.000000,3.654295,0.500000,10.000000,2.000000,125.000000,0.830698,150.000000,1.000000,179.147535,5.429263,8.707775,2.000000,7
/home/daniel/Projects/ppsevolution/data/maps/custom_maps/Custom_4_Run_0_Map.csv,squared_error,0.0014515338204843025,0.5023,0.1938,0.000000,0.961864,1.000000,0.986887,0.019155,0.045416,1.000000,2.000000,0.322944,0.000000,1.000000,1.000000,0.679698,0.547959,1.000000,2.000000,125.000000,1.308644,150.000000,0.986887,4.811863,0.931451,10.000000,2.000000,181.515206,0.770000,150.000000,1.000000,136.259863,5.705615,10.000000,2.000000,8
/home/daniel/Projects/ppsevolution/data/maps/custom_maps/Custom_4_Run_0_Map.csv,squared_error,0.0013668631367562151,0.5063,0.1919,0.000000,0.996838,0.742973,1.000000,0.000000,0.061226,0.996292,2.000000,0.022041,0.000000,1.000000,1.000000,1.000000,0.016730,1.000000,2.000000,125.000000,1.328230,113.759262,1.000000,1.000000,1.081649,9.966628,2.000000,128.857200,0.770000,150.000000,1.000000,200.000000,0.658936,10.000000,2.000000,9
map,fitness,fitness value,team0ratio,time,HP,Speed,Damage,Acc,ClipSize,RateOfFire,NrBullets,Range,HP,Speed,Damage,Acc,ClipSize,RateOfFire,NrBullets,Range,HP,Speed,Damage,Acc,ClipSize,RateOfFire,NrBullets,Range,HP,Speed,Damage,Acc,ClipSize,RateOfFire,NrBullets,Range,Run,target team0ratio: 0.5,target time: 0.14
/home/daniel/Projects/ppsevolution/data/maps/custom_maps/Custom_5_Run_0_Map.csv,squared_error,0.010186527490020468,0.5175,0.2817,0.000000,0.603191,1.000000,0.977822,0.000000,0.452912,1.000000,2.000000,0.000000,0.000000,1.000000,1.000000,0.706548,0.000000,1.000000,2.000000,125.000000,1.107787,150.000000,0.977822,1.000000,4.802660,10.000000,2.000000,125.000000,0.770000,150.000000,1.000000,141.603008,0.500000,10.000000,2.000000,0
/home/daniel/Projects/ppsevolution/data/maps/custom_maps/Custom_5_Run_0_Map.csv,squared_error,0.01021681362288301,0.5102,0.2826,0.000000,0.936745,1.000000,0.972276,0.000000,0.139770,1.000000,2.000000,0.000000,0.000000,1.000000,1.000000,1.000000,0.000000,1.000000,2.000000,125.000000,1.294577,150.000000,0.972276,1.000000,1.827812,10.000000,2.000000,125.000000,0.770000,150.000000,1.000000,200.000000,0.500000,10.000000,2.000000,1
/home/daniel/Projects/ppsevolution/data/maps/custom_maps/Custom_5_Run_0_Map.csv,squared_error,0.010185599931469985,0.5103,0.2824,0.036111,0.350386,1.000000,0.973340,0.000000,0.838814,1.000000,2.000000,0.000000,0.000000,1.000000,1.000000,0.978239,0.002811,1.000000,2.000000,131.319383,0.966216,150.000000,0.973340,1.000000,8.468730,10.000000,2.000000,125.000000,0.770000,150.000000,1.000000,195.669647,0.526705,10.000000,2.000000,2
/home/daniel/Projects/ppsevolution/data/maps/custom_maps/Custom_5_Run_0_Map.csv,squared_error,0.010307250267654056,0.5114,0.2831,0.291361,0.208016,1.000000,0.964259,0.000000,0.020587,1.000000,2.000000,0.000000,0.000000,1.000000,1.000000,1.000000,0.000000,1.000000,2.000000,175.988157,0.886489,150.000000,0.964259,1.000000,0.695572,10.000000,2.000000,125.000000,0.770000,150.000000,1.000000,200.000000,0.500000,10.000000,2.000000,3
/home/daniel/Projects/ppsevolution/data/maps/custom_maps/Custom_5_Run_0_Map.csv,squared_error,0.010164003320873126,0.5193,0.2813,0.000000,0.570985,1.000000,0.978579,0.001851,0.597680,1.000000,2.000000,0.000000,0.000000,1.000000,1.000000,1.000000,0.000000,1.000000,2.000000,125.000000,1.089752,150.000000,0.978579,1.368413,6.177964,10.000000,2.000000,125.000000,0.770000,150.000000,1.000000,200.000000,0.500000,10.000000,2.000000,4
/home/daniel/Projects/ppsevolution/data/maps/custom_maps/Custom_5_Run_0_Map.csv,squared_error,0.010222108131448977,0.5097,0.2827,0.000000,0.997186,1.000000,0.971910,0.000000,0.164544,1.000000,2.000000,0.000000,0.000000,1.000000,1.000000,0.991860,0.000000,1.000000,2.000000,125.000000,1.328424,150.000000,0.971910,1.000000,2.063167,10.000000,2.000000,125.000000,0.770000,150.000000,1.000000,198.380054,0.500000,10.000000,2.000000,5
/home/daniel/Projects/ppsevolution/data/maps/custom_maps/Custom_5_Run_0_Map.csv,squared_error,0.010213121999999075,0.5122,0.2824,0.000000,1.000000,1.000000,0.973161,0.000000,0.066600,1.000000,2.000000,0.000000,0.000000,1.000000,1.000000,0.931835,0.000000,1.000000,2.000000,125.000000,1.330000,150.000000,0.973161,1.000000,1.132703,10.000000,2.000000,125.000000,0.770000,150.000000,1.000000,186.435208,0.500000,10.000000,2.000000,6
/home/daniel/Projects/ppsevolution/data/maps/custom_maps/Custom_5_Run_0_Map.csv,squared_error,0.010176099005375179,0.5237,0.2807,0.000000,0.502245,1.000000,0.981696,0.000000,0.903511,1.000000,2.000000,0.000000,0.031030,1.000000,1.000000,0.807375,0.000000,1.000000,2.000000,125.000000,1.051257,150.000000,0.981696,1.000000,9.083353,10.000000,2.000000,125.000000,0.787377,150.000000,1.000000,161.667656,0.500000,10.000000,2.000000,7
/home/daniel/Projects/ppsevolution/data/maps/custom_maps/Custom_5_Run_0_Map.csv,squared_error,0.010197691932786175,0.5112,0.2824,0.000000,0.507446,1.000000,0.974199,0.000000,0.300912,1.000000,2.000000,0.000000,0.000000,1.000000,1.000000,0.905489,0.000000,1.000000,2.000000,125.000000,1.054170,150.000000,0.974199,1.000000,3.358661,10.000000,2.000000,125.000000,0.770000,150.000000,1.000000,181.192222,0.500000,10.000000,2.000000,8
/home/daniel/Projects/ppsevolution/data/maps/custom_maps/Custom_5_Run_0_Map.csv,squared_error,0.010202146363252099,0.5210,0.2813,0.000000,0.084331,1.000000,0.981228,0.000000,0.405971,1.000000,2.000000,0.005075,0.000000,1.000000,1.000000,0.843373,0.000000,0.946326,2.000000,125.000000,0.817225,150.000000,0.981228,1.000000,4.356727,10.000000,2.000000,125.888065,0.770000,150.000000,1.000000,168.831288,0.500000,9.516932,2.000000,9
map,fitness,fitness value,team0ratio,time,HP,Speed,Damage,Acc,ClipSize,RateOfFire,NrBullets,Range,HP,Speed,Damage,Acc,ClipSize,RateOfFire,NrBullets,Range,HP,Speed,Damage,Acc,ClipSize,RateOfFire,NrBullets,Range,HP,Speed,Damage,Acc,ClipSize,RateOfFire,NrBullets,Range,Run,target team0ratio: 0.5,target time: 0.14
/home/daniel/Projects/ppsevolution/data/maps/custom_maps/Custom_6_Run_0_Map.csv,squared_error,0.05653576579915492,0.4066,0.4630,0.000000,1.000000,0.000000,1.000000,0.000000,0.000000,0.000000,2.000000,1.000000,0.631337,1.000000,0.959367,1.000000,1.000000,1.000000,2.000000,125.000000,1.330000,9.000000,1.000000,1.000000,0.500000,1.000000,2.000000,300.000000,1.123549,150.000000,0.959367,200.000000,10.000000,10.000000,2.000000,0
/home/daniel/Projects/ppsevolution/data/maps/custom_maps/Custom_6_Run_0_Map.csv,squared_error,0.056414122291174325,0.3987,0.4603,0.000000,1.000000,0.000000,1.000000,0.000000,0.000000,0.000000,2.000000,1.000000,1.000000,1.000000,0.968859,1.000000,1.000000,1.000000,2.000000,125.000000,1.330000,9.000000,1.000000,1.000000,0.500000,1.000000,2.000000,300.000000,1.330000,150.000000,0.968859,200.000000,10.000000,10.000000,2.000000,1
/home/daniel/Projects/ppsevolution/data/maps/custom_maps/Custom_6_Run_0_Map.csv,squared_error,0.056571981881841156,0.3982,0.4606,0.000000,1.000000,0.000000,1.000000,0.002904,0.000000,0.000000,2.000000,1.000000,0.200487,1.000000,0.966395,1.000000,1.000000,1.000000,2.000000,125.000000,1.330000,9.000000,1.000000,1.577892,0.500000,1.000000,2.000000,300.000000,0.882273,150.000000,0.966395,200.000000,10.000000,10.000000,2.000000,2
/home/daniel/Projects/ppsevolution/data/maps/custom_maps/Custom_6_Run_0_Map.csv,squared_error,0.05654239517014216,0.4049,0.4626,0.000000,1.000000,0.000000,1.000000,0.000000,0.000000,0.000000,2.000000,1.000000,0.507130,1.000000,0.960631,1.000000,1.000000,1.000000,2.000000,125.000000,1.330000,9.000000,1.000000,1.000000,0.500000,1.000000,2.000000,300.000000,1.053993,150.000000,0.960631,200.000000,10.000000,10.000000,2.000000,3
/home/daniel/Projects/ppsevolution/data/maps/custom_maps/Custom_6_Run_0_Map.csv,squared_error,0.056424204557817915,0.3961,0.4595,0.050325,1.000000,0.000000,1.000000,0.000000,0.000000,0.000000,2.000000,1.000000,1.000000,1.000000,0.976830,1.000000,1.000000,1.000000,2.000000,133.806814,1.330000,9.000000,1.000000,1.000000,0.500000,1.000000,2.000000,300.000000,1.330000,150.000000,0.976830,200.000000,10.000000,10.000000,2.000000,4
/home/daniel/Projects/ppsevolution/data/maps/custom_maps/Custom_6_Run_0_Map.csv,squared_error,0.05655044455731502,0.3969,0.4601,0.000000,1.000000,0.000000,1.000000,0.000000,0.000000,0.000000,2.000000,1.000000,0.299597,1.000000,0.968111,1.000000,1.000000,1.000000,2.000000,125.000000,1.330000,9.000000,1.000000,1.000000,0.500000,1.000000,2.000000,300.000000,0.937774,150.000000,0.968111,200.000000,10.000000,10.000000,2.000000,5
/home/daniel/Projects/ppsevolution/data/maps/custom_maps/Custom_6_Run_0_Map.csv,squared_error,0.05662073835387621,0.3933,0.4591,0.000000,1.000000,0.000000,1.000000,0.000000,0.010914,0.008760,2.000000,1.000000,0.086635,1.000000,0.970913,1.000000,1.000000,1.000000,2.000000,125.000000,1.330000,9.000000,1.000000,1.000000,0.603684,1.078843,2.000000,300.000000,0.818515,150.000000,0.970913,200.000000,10.000000,10.000000,2.000000,6
/home/daniel/Projects/ppsevolution/data/maps/custom_maps/Custom_6_Run_0_Map.csv,squared_error,0.05659705425318008,0.4018,0.4618,0.029295,1.000000,0.000000,1.000000,0.000000,0.000000,0.007223,2.000000,1.000000,0.138292,1.000000,0.965588,1.000000,1.000000,1.000000,2.000000,130.126699,1.330000,9.000000,1.000000,1.000000,0.500000,1.065004,2.000000,300.000000,0.847444,150.000000,0.965588,200.000000,10.000000,10.000000,2.000000,7
/home/daniel/Projects/ppsevolution/data/maps/custom_maps/Custom_6_Run_0_Map.csv,squared_error,0.05658157055958145,0.4054,0.4628,0.000000,1.000000,0.000000,1.000000,0.000000,0.000000,0.000000,2.000000,1.000000,0.306047,1.000000,0.959430,1.000000,1.000000,1.000000,2.000000,125.000000,1.330000,9.000000,1.000000,1.000000,0.500000,1.000000,2.000000,300.000000,0.941386,150.000000,0.959430,200.000000,10.000000,10.000000,2.000000,8
/home/daniel/Projects/ppsevolution/data/maps/custom_maps/Custom_6_Run_0_Map.csv,squared_error,0.05664238579555421,0.4048,0.4628,0.013192,1.000000,0.000000,1.000000,0.000000,0.000000,0.024656,2.000000,1.000000,0.000000,1.000000,0.960229,1.000000,1.000000,1.000000,2.000000,127.308641,1.330000,9.000000,1.000000,1.000000,0.500000,1.221907,2.000000,300.000000,0.770000,150.000000,0.960229,200.000000,10.000000,10.000000,2.000000,9
map,fitness,fitness value,team0ratio,time,HP,Speed,Damage,Acc,ClipSize,RateOfFire,NrBullets,Range,HP,Speed,Damage,Acc,ClipSize,RateOfFire,NrBullets,Range,HP,Speed,Damage,Acc,ClipSize,RateOfFire,NrBullets,Range,HP,Speed,Damage,Acc,ClipSize,RateOfFire,NrBullets,Range,Run,target team0ratio: 0.5,target time: 0.14
/home/daniel/Projects/ppsevolution/data/maps/custom_maps/Custom_7_Run_0_Map.csv,squared_error,0.01624591530589993,0.4842,0.3196,0.000000,1.000000,0.596785,1.000000,0.000000,0.000000,1.000000,2.000000,0.622900,0.034402,1.000000,1.000000,1.000000,1.000000,1.000000,2.000000,125.000000,1.330000,93.146643,1.000000,1.000000,0.500000,10.000000,2.000000,234.007473,0.789265,150.000000,1.000000,200.000000,10.000000,10.000000,2.000000,0
/home/daniel/Projects/ppsevolution/data/maps/custom_maps/Custom_7_Run_0_Map.csv,squared_error,0.016199075121654822,0.4835,0.3192,0.000000,1.000000,0.406266,1.000000,0.000000,0.000000,1.000000,2.000000,0.276874,0.000000,1.000000,1.000000,1.000000,0.990924,1.000000,2.000000,125.000000,1.330000,66.283489,1.000000,1.000000,0.500000,10.000000,2.000000,173.452957,0.770000,150.000000,1.000000,200.000000,9.913778,10.000000,2.000000,1
/home/daniel/Projects/ppsevolution/data/maps/custom_maps/Custom_7_Run_0_Map.csv,squared_error,0.016238564079890765,0.4756,0.3186,0.000000,1.000000,0.469244,1.000000,0.000000,0.000000,1.000000,2.000000,0.462163,0.014175,0.997813,1.000000,1.000000,1.000000,1.000000,2.000000,125.000000,1.330000,75.163423,1.000000,1.000000,0.500000,10.000000,2.000000,205.878578,0.777938,149.691580,1.000000,200.000000,10.000000,10.000000,2.000000,2
/home/daniel/Projects/ppsevolution/data/maps/custom_maps/Custom_7_Run_0_Map.csv,squared_error,0.016192988382224868,0.4814,0.3190,0.000000,0.983596,0.361911,1.000000,0.000000,0.000000,1.000000,2.000000,0.215459,0.020187,1.000000,1.000000,1.000000,1.000000,1.000000,2.000000,125.000000,1.320814,60.029511,1.000000,1.000000,0.500000,10.000000,2.000000,162.705397,0.781305,150.000000,1.000000,200.000000,10.000000,10.000000,2.000000,3
/home/daniel/Projects/ppsevolution/data/maps/custom_maps/Custom_7_Run_0_Map.csv,squared_error,0.016266932981530476,0.4838,0.3196,0.000000,0.949012,0.628062,1.000000,0.000000,0.000000,1.000000,2.000000,0.674722,0.000000,1.000000,1.000000,1.000000,0.971681,1.000000,2.000000,125.000000,1.301447,97.556684,1.000000,1.000000,0.500000,10.000000,2.000000,243.076269,0.770000,150.000000,1.000000,200.000000,9.730968,10.000000,2.000000,4
/home/daniel/Projects/ppsevolution/data/maps/custom_maps/Custom_7_Run_0_Map.csv,squared_error,0.016301202974191215,0.4819,0.3197,0.000000,0.987566,0.785168,1.000000,0.000000,0.000000,1.000000,2.000000,0.981342,0.000000,1.000000,1.000000,1.000000,0.969455,1.000000,2.000000,125.000000,1.323037,119.708635,1.000000,1.000000,0.500000,10.000000,2.000000,296.734848,0.770000,150.000000,1.000000,200.000000,9.709819,10.000000,2.000000,5
/home/daniel/Projects/ppsevolution/data/maps/custom_maps/Custom_7_Run_0_Map.csv,squared_error,0.016326457505742104,0.4826,0.3199,0.000000,0.683157,0.620799,1.000000,0.000000,0.000000,0.963365,2.000000,0.679148,0.060859,1.000000,1.000000,1.000000,1.000000,1.000000,2.000000,125.000000,1.152568,96.532723,1.000000,1.000000,0.500000,9.670282,2.000000,243.850883,0.804081,150.000000,1.000000,200.000000,10.000000,10.000000,2.000000,6
/home/daniel/Projects/ppsevolution/data/maps/custom_maps/Custom_7_Run_0_Map.csv,squared_error,0.016268466615467193,0.4818,0.3195,0.000000,1.000000,0.610786,1.000000,0.000000,0.000000,1.000000,2.000000,0.671574,0.127430,1.000000,1.000000,0.974429,1.000000,1.000000,2.000000,125.000000,1.330000,95.120821,1.000000,1.000000,0.500000,10.000000,2.000000,242.525493,0.841361,150.000000,1.000000,194.911404,10.000000,10.000000,2.000000,7
/home/daniel/Projects/ppsevolution/data/maps/custom_maps/Custom_7_Run_0_Map.csv,squared_error,0.01620027426077063,0.4808,0.3190,0.000000,0.992282,0.414006,1.000000,0.000000,0.000000,1.000000,2.000000,0.315283,0.000000,1.000000,1.000000,1.000000,1.000000,1.000000,2.000000,125.000000,1.325678,67.374892,1.000000,1.000000,0.500000,10.000000,2.000000,180.174509,0.770000,150.000000,1.000000,200.000000,10.000000,10.000000,2.000000,8
/home/daniel/Projects/ppsevolution/data/maps/custom_maps/Custom_7_Run_0_Map.csv,squared_error,0.01621343080735886,0.4820,0.3192,0.000000,0.962669,0.434055,1.000000,0.000000,0.000000,1.000000,2.000000,0.337371,0.000000,1.000000,1.000000,1.000000,0.984597,1.000000,2.000000,125.000000,1.309094,70.201742,1.000000,1.000000,0.500000,10.000000,2.000000,184.039971,0.770000,150.000000,1.000000,200.000000,9.853669,10.000000,2.000000,9
map,fitness,fitness value,team0ratio,time,HP,Speed,Damage,Acc,ClipSize,RateOfFire,NrBullets,Range,HP,Speed,Damage,Acc,ClipSize,RateOfFire,NrBullets,Range,HP,Speed,Damage,Acc,ClipSize,RateOfFire,NrBullets,Range,HP,Speed,Damage,Acc,ClipSize,RateOfFire,NrBullets,Range,Run,target team0ratio: 0.5,target time: 0.14
/home/daniel/Projects/ppsevolution/data/maps/custom_maps/Custom_8_Run_0_Map.csv,squared_error,0.002591290617272079,0.5054,0.2118,0.000000,0.970502,0.620595,1.000000,0.000000,0.000000,1.000000,2.000000,0.000000,0.000000,1.000000,1.000000,1.000000,0.000000,1.000000,2.000000,125.000000,1.313481,96.503825,1.000000,1.000000,0.500000,10.000000,2.000000,125.000000,0.770000,150.000000,1.000000,200.000000,0.500000,10.000000,2.000000,0
/home/daniel/Projects/ppsevolution/data/maps/custom_maps/Custom_8_Run_0_Map.csv,squared_error,0.0026122689131240044,0.5027,0.2122,0.006486,0.944797,0.615176,1.000000,0.000000,0.023645,1.000000,2.000000,0.015983,0.000000,1.000000,1.000000,0.943926,0.000000,0.977701,2.000000,126.135076,1.299086,95.739750,1.000000,1.000000,0.724627,10.000000,2.000000,127.797071,0.770000,150.000000,1.000000,188.841291,0.500000,9.799312,2.000000,1
/home/daniel/Projects/ppsevolution/data/maps/custom_maps/Custom_8_Run_0_Map.csv,squared_error,0.0025967579473966697,0.5037,0.2120,0.000000,1.000000,0.613465,1.000000,0.000000,0.045984,1.000000,2.000000,0.000000,0.000000,0.999484,1.000000,1.000000,0.000000,0.985504,2.000000,125.000000,1.330000,95.498623,1.000000,1.000000,0.936849,10.000000,2.000000,125.000000,0.770000,149.927282,1.000000,200.000000,0.500000,9.869534,2.000000,2
/home/daniel/Projects/ppsevolution/data/maps/custom_maps/Custom_8_Run_0_Map.csv,squared_error,0.0026104026265211947,0.5024,0.2122,0.000000,0.357021,0.900481,0.976435,0.000000,0.000000,0.995009,2.000000,0.000000,0.000000,1.000000,1.000000,0.977771,0.030257,0.992117,2.000000,125.000000,0.969932,135.967847,0.976435,1.000000,0.500000,9.955085,2.000000,125.000000,0.770000,150.000000,1.000000,195.576377,0.787439,9.929052,2.000000,3
/home/daniel/Projects/ppsevolution/data/maps/custom_maps/Custom_8_Run_0_Map.csv,squared_error,0.0026616032536514915,0.4977,0.2129,0.000000,0.921755,0.535435,1.000000,0.000000,0.049319,0.997757,2.000000,0.000000,0.000000,1.000000,1.000000,1.000000,0.406930,1.000000,2.000000,125.000000,1.286183,84.496357,1.000000,1.000000,0.968529,9.979814,2.000000,125.000000,0.770000,150.000000,1.000000,200.000000,4.365836,10.000000,2.000000,4
/home/daniel/Projects/ppsevolution/data/maps/custom_maps/Custom_8_Run_0_Map.csv,squared_error,0.0026782505614386656,0.5110,0.2124,0.000000,0.677316,0.801783,0.991449,0.000000,0.000000,1.000000,2.000000,0.110479,0.000000,1.000000,1.000000,0.938522,0.164018,1.000000,2.000000,125.000000,1.149297,122.051470,0.991449,1.000000,0.500000,10.000000,2.000000,144.333778,0.770000,150.000000,1.000000,187.765877,2.058170,10.000000,2.000000,5
/home/daniel/Projects/ppsevolution/data/maps/custom_maps/Custom_8_Run_0_Map.csv,squared_error,0.002737938806738031,0.5058,0.2138,0.000000,0.938066,0.555763,1.000000,0.027025,0.000000,1.000000,2.000000,0.060408,0.086621,1.000000,1.000000,0.940554,0.819512,0.956651,2.000000,125.000000,1.295317,87.362652,1.000000,6.377991,0.500000,10.000000,2.000000,135.571370,0.818508,150.000000,1.000000,188.170224,8.285364,9.609862,2.000000,6
/home/daniel/Projects/ppsevolution/data/maps/custom_maps/Custom_8_Run_0_Map.csv,squared_error,0.0025948793086708823,0.5048,0.2119,0.000000,1.000000,0.612299,1.000000,0.000000,0.000000,1.000000,2.000000,0.000000,0.021334,1.000000,1.000000,1.000000,0.033186,1.000000,2.000000,125.000000,1.330000,95.334132,1.000000,1.000000,0.500000,10.000000,2.000000,125.000000,0.781947,150.000000,1.000000,200.000000,0.815270,10.000000,2.000000,7
/home/daniel/Projects/ppsevolution/data/maps/custom_maps/Custom_8_Run_0_Map.csv,squared_error,0.002630847306788672,0.5054,0.2123,0.000000,1.000000,0.705459,1.000000,0.027615,0.016694,1.000000,2.000000,0.148495,0.000000,1.000000,1.000000,1.000000,0.000000,1.000000,2.000000,125.000000,1.330000,108.469745,1.000000,6.495469,0.658597,10.000000,2.000000,150.986668,0.770000,150.000000,1.000000,200.000000,0.500000,10.000000,2.000000,8
/home/daniel/Projects/ppsevolution/data/maps/custom_maps/Custom_8_Run_0_Map.csv,squared_error,0.002670502927642703,0.5029,0.2130,0.000000,0.842534,0.751447,1.000000,0.007478,0.107862,1.000000,2.000000,0.249982,0.050905,1.000000,1.000000,1.000000,0.025622,1.000000,2.000000,125.000000,1.241819,114.954012,1.000000,2.488190,1.524693,10.000000,2.000000,168.746934,0.798507,150.000000,1.000000,200.000000,0.743410,10.000000,2.000000,9
map,fitness,fitness value,team0ratio,time,HP,Speed,Damage,Acc,ClipSize,RateOfFire,NrBullets,Range,HP,Speed,Damage,Acc,ClipSize,RateOfFire,NrBullets,Range,HP,Speed,Damage,Acc,ClipSize,RateOfFire,NrBullets,Range,HP,Speed,Damage,Acc,ClipSize,RateOfFire,NrBullets,Range,Run,target team0ratio: 0.5,target time: 0.14
/home/daniel/Projects/ppsevolution/data/maps/custom_maps/Custom_9_Run_0_Map.csv,squared_error,0.0009811803692908456,0.5060,0.1839,0.000000,1.000000,0.484385,0.997562,0.000000,0.000000,1.000000,2.000000,0.000000,0.000000,1.000000,1.000000,0.861528,0.000000,0.974158,2.000000,125.000000,1.330000,77.298322,0.997562,1.000000,0.500000,10.000000,2.000000,125.000000,0.770000,150.000000,1.000000,172.444029,0.500000,9.767421,2.000000,0
/home/daniel/Projects/ppsevolution/data/maps/custom_maps/Custom_9_Run_0_Map.csv,squared_error,0.0009925019954491528,0.5040,0.1844,0.000000,0.992434,0.441379,1.000000,0.043929,0.000000,1.000000,2.000000,0.000000,0.003099,1.000000,1.000000,0.715696,0.014783,1.000000,2.000000,125.000000,1.325763,71.234475,1.000000,9.741898,0.500000,10.000000,2.000000,125.000000,0.771735,150.000000,1.000000,143.423572,0.640443,10.000000,2.000000,1
/home/daniel/Projects/ppsevolution/data/maps/custom_maps/Custom_9_Run_0_Map.csv,squared_error,0.0009688276043165041,0.5032,0.1839,0.000000,1.000000,0.738402,0.983002,0.000000,0.183033,1.000000,2.000000,0.153114,0.002628,1.000000,1.000000,0.949223,0.000000,1.000000,2.000000,125.000000,1.330000,113.114746,0.983002,1.000000,2.238810,10.000000,2.000000,151.794984,0.771472,150.000000,1.000000,189.895349,0.500000,10.000000,2.000000,2
/home/daniel/Projects/ppsevolution/data/maps/custom_maps/Custom_9_Run_0_Map.csv,squared_error,0.001092454231938866,0.5071,0.1862,0.000000,0.841157,1.000000,0.986098,0.064136,0.121730,1.000000,2.000000,0.615104,0.198884,1.000000,1.000000,1.000000,0.096103,0.685400,2.000000,125.000000,1.241048,150.000000,0.986098,13.762991,1.656440,10.000000,2.000000,232.643116,0.881375,150.000000,1.000000,200.000000,1.412981,7.168598,2.000000,3
/home/daniel/Projects/ppsevolution/data/maps/custom_maps/Custom_9_Run_0_Map.csv,squared_error,0.0011341322160161478,0.4971,0.1875,0.000000,1.000000,0.710985,1.000000,0.000000,0.006493,1.000000,2.000000,0.571162,0.051498,1.000000,1.000000,0.940523,0.194532,0.682870,2.000000,125.000000,1.330000,109.248827,1.000000,1.000000,0.561685,10.000000,2.000000,224.953358,0.798839,150.000000,1.000000,188.164120,2.348058,7.145829,2.000000,4
/home/daniel/Projects/ppsevolution/data/maps/custom_maps/Custom_9_Run_0_Map.csv,squared_error,0.000931522758687819,0.5062,0.1827,0.000000,0.421727,0.954958,0.970676,0.000000,0.000000,1.000000,2.000000,0.191872,0.000000,1.000000,1.000000,0.931161,0.000000,1.000000,2.000000,125.000000,1.006167,143.649020,0.970676,1.000000,0.500000,10.000000,2.000000,158.577635,0.770000,150.000000,1.000000,186.301110,0.500000,10.000000,2.000000,5
/home/daniel/Projects/ppsevolution/data/maps/custom_maps/Custom_9_Run_0_Map.csv,squared_error,0.0009958871156894617,0.4995,0.1846,0.000000,1.000000,0.411425,1.000000,0.007686,0.000000,1.000000,2.000000,0.000000,0.082149,1.000000,1.000000,0.946436,0.031975,0.974691,2.000000,125.000000,1.330000,67.010873,1.000000,2.529609,0.500000,10.000000,2.000000,125.000000,0.816004,150.000000,1.000000,189.340716,0.803763,9.772220,2.000000,6
/home/daniel/Projects/ppsevolution/data/maps/custom_maps/Custom_9_Run_0_Map.csv,squared_error,0.001079679766610972,0.5056,0.1861,0.000000,0.598446,1.000000,0.984899,0.000000,0.163265,1.000000,2.000000,0.525979,0.062194,1.000000,1.000000,0.533905,0.036463,0.526784,2.000000,125.000000,1.105130,150.000000,0.984899,1.000000,2.051019,10.000000,2.000000,217.046271,0.804828,150.000000,1.000000,107.247154,0.846397,5.741054,2.000000,7
/home/daniel/Projects/ppsevolution/data/maps/custom_maps/Custom_9_Run_0_Map.csv,squared_error,0.0010213851216938027,0.5014,0.1852,0.000000,0.905164,0.433897,1.000000,0.007498,0.374106,1.000000,2.000000,0.000000,0.308847,1.000000,1.000000,0.846843,0.000000,1.000000,2.000000,125.000000,1.276892,70.179491,1.000000,2.492074,4.054002,10.000000,2.000000,125.000000,0.942954,150.000000,1.000000,169.521690,0.500000,10.000000,2.000000,8
/home/daniel/Projects/ppsevolution/data/maps/custom_maps/Custom_9_Run_0_Map.csv,squared_error,0.0010660381241029166,0.5029,0.1861,0.000000,0.879877,0.801147,1.000000,0.000000,0.000000,1.000000,2.000000,0.651507,0.058001,1.000000,1.000000,0.934032,0.000000,1.000000,2.000000,125.000000,1.262731,121.961782,1.000000,1.000000,0.500000,10.000000,2.000000,239.013700,0.802480,150.000000,1.000000,186.872287,0.500000,10.000000,2.000000,9
map,fitness,fitness value,team0ratio,time,HP,Speed,Damage,Acc,ClipSize,RateOfFire,NrBullets,Range,HP,Speed,Damage,Acc,ClipSize,RateOfFire,NrBullets,Range,HP,Speed,Damage,Acc,ClipSize,RateOfFire,NrBullets,Range,HP,Speed,Damage,Acc,ClipSize,RateOfFire,NrBullets,Range,Run,target team0ratio: 0.5,target time: 0.14
/home/daniel/Projects/ppsevolution/data/maps/custom_maps/Custom_10_Run_0_Map.csv,squared_error,0.020098276044291652,0.5294,0.3383,0.000000,1.000000,1.000000,0.987771,0.000000,1.000000,1.000000,2.000000,0.000000,0.000000,1.000000,1.000000,1.000000,0.000000,1.000000,0.000000,125.000000,1.330000,150.000000,0.987771,1.000000,10.000000,10.000000,2.000000,125.000000,0.770000,150.000000,1.000000,200.000000,0.500000,10.000000,0.000000,0
/home/daniel/Projects/ppsevolution/data/maps/custom_maps/Custom_10_Run_0_Map.csv,squared_error,0.020136814390751455,0.5231,0.3394,0.000000,0.924389,1.000000,0.984117,0.000000,1.000000,1.000000,2.000000,0.000000,0.000000,1.000000,1.000000,0.916872,0.000000,1.000000,0.000000,125.000000,1.287658,150.000000,0.984117,1.000000,10.000000,10.000000,2.000000,125.000000,0.770000,150.000000,1.000000,183.457627,0.500000,10.000000,0.000000,1
/home/daniel/Projects/ppsevolution/data/maps/custom_maps/Custom_10_Run_0_Map.csv,squared_error,0.020113416272308372,0.5351,0.3375,0.000000,0.855368,1.000000,0.991560,0.000000,1.000000,1.000000,2.000000,0.000000,0.000000,1.000000,1.000000,1.000000,0.006819,1.000000,0.000000,125.000000,1.249006,150.000000,0.991560,1.000000,10.000000,10.000000,2.000000,125.000000,0.770000,150.000000,1.000000,200.000000,0.564785,10.000000,0.000000,2
/home/daniel/Projects/ppsevolution/data/maps/custom_maps/Custom_10_Run_0_Map.csv,squared_error,0.02010924427418755,0.5272,0.3387,0.000000,0.584241,1.000000,0.987455,0.000000,1.000000,1.000000,2.000000,0.000000,0.000000,1.000000,1.000000,1.000000,0.000000,1.000000,0.000000,125.000000,1.097175,150.000000,0.987455,1.000000,10.000000,10.000000,2.000000,125.000000,0.770000,150.000000,1.000000,200.000000,0.500000,10.000000,0.000000,3
/home/daniel/Projects/ppsevolution/data/maps/custom_maps/Custom_10_Run_0_Map.csv,squared_error,0.020163191606172248,0.5350,0.3377,0.000000,0.304150,1.000000,0.993263,0.000000,0.982293,1.000000,2.000000,0.000000,0.023056,1.000000,1.000000,0.734532,0.000000,1.000000,0.000000,125.000000,0.940324,150.000000,0.993263,1.000000,9.831779,10.000000,2.000000,125.000000,0.782912,150.000000,1.000000,147.171857,0.500000,10.000000,0.000000,4
/home/daniel/Projects/ppsevolution/data/maps/custom_maps/Custom_10_Run_0_Map.csv,squared_error,0.02010853607829911,0.5283,0.3385,0.000000,1.000000,1.000000,0.987173,0.000000,1.000000,1.000000,2.000000,0.000000,0.000000,1.000000,1.000000,0.927028,0.000000,1.000000,0.000000,125.000000,1.330000,150.000000,0.987173,1.000000,10.000000,10.000000,2.000000,125.000000,0.770000,150.000000,1.000000,185.478497,0.500000,10.000000,0.000000,5
/home/daniel/Projects/ppsevolution/data/maps/custom_maps/Custom_10_Run_0_Map.csv,squared_error,0.020115025376081282,0.5364,0.3373,0.000000,0.851483,1.000000,0.992448,0.000000,1.000000,1.000000,2.000000,0.000000,0.000000,1.000000,1.000000,1.000000,0.000000,1.000000,0.000000,125.000000,1.246831,150.000000,0.992448,1.000000,10.000000,10.000000,2.000000,125.000000,0.770000,150.000000,1.000000,200.000000,0.500000,10.000000,0.000000,6
/home/daniel/Projects/ppsevolution/data/maps/custom_maps/Custom_10_Run_0_Map.csv,squared_error,0.020103144279284182,0.5277,0.3386,0.000000,0.920370,1.000000,0.986871,0.000000,1.000000,1.000000,2.000000,0.000000,0.000000,1.000000,1.000000,1.000000,0.000000,1.000000,0.000000,125.000000,1.285407,150.000000,0.986871,1.000000,10.000000,10.000000,2.000000,125.000000,0.770000,150.000000,1.000000,200.000000,0.500000,10.000000,0.000000,7
/home/daniel/Projects/ppsevolution/data/maps/custom_maps/Custom_10_Run_0_Map.csv,squared_error,0.020108550804258867,0.5316,0.3380,0.000000,1.000000,1.000000,0.989265,0.000000,0.999795,1.000000,2.000000,0.000000,0.000000,1.000000,1.000000,0.904522,0.000000,1.000000,0.000000,125.000000,1.330000,150.000000,0.989265,1.000000,9.998054,10.000000,2.000000,125.000000,0.770000,150.000000,1.000000,180.999804,0.500000,10.000000,0.000000,8
/home/daniel/Projects/ppsevolution/data/maps/custom_maps/Custom_10_Run_0_Map.csv,squared_error,0.02023989556871466,0.5409,0.3370,0.003591,0.915585,1.000000,0.995922,0.000000,0.970062,1.000000,2.000000,0.000000,0.000000,1.000000,1.000000,0.330132,0.000000,1.000000,0.000000,125.628507,1.282727,150.000000,0.995922,1.000000,9.715586,10.000000,2.000000,125.000000,0.770000,150.000000,1.000000,66.696228,0.500000,10.000000,0.000000,9
