/home/daniel/Projects/ppsevolution/data/maps/custom_maps/Custom_1_Run_0_Map.csv,0.796824,1.000000,0.000000,0.000000,0.000000,0.097734,0.862003,0.000000,1.000000,0.169719,0.000000,0.000000,0.814983,0.894006,0.119503,0.000000
/home/daniel/Projects/ppsevolution/data/maps/custom_maps/Custom_1_Run_0_Map.csv,0.765144,1.000000,0.000000,0.000000,0.061388,0.000000,0.790941,2.000000,1.000000,0.000000,0.000000,0.000000,1.000000,1.000000,0.000000,0.000000
/home/daniel/Projects/ppsevolution/data/maps/custom_maps/Custom_1_Run_0_Map.csv,0.776522,0.728357,0.000000,0.000000,0.025002,0.000000,0.831587,1.000000,1.000000,0.248967,0.000000,0.000000,1.000000,0.967291,0.000000,1.000000
/home/daniel/Projects/ppsevolution/data/maps/custom_maps/Custom_1_Run_0_Map.csv,0.834810,0.886126,0.000000,0.025495,0.000000,0.246550,0.569970,0.000000,1.000000,0.141627,0.000000,0.015880,1.000000,0.797072,0.128201,1.000000
/home/daniel/Projects/ppsevolution/data/maps/custom_maps/Custom_1_Run_0_Map.csv,0.758487,1.000000,0.000000,0.000000,0.086882,0.000000,0.877089,0.000000,1.000000,0.117076,0.000000,0.000000,0.948320,0.917225,0.000000,0.000000
/home/daniel/Projects/ppsevolution/data/maps/custom_maps/Custom_1_Run_0_Map.csv,0.842282,0.963806,0.000000,0.000000,0.199866,0.036544,0.853562,0.000000,1.000000,0.338860,0.028615,0.000000,0.988699,0.691145,0.000000,0.000000
/home/daniel/Projects/ppsevolution/data/maps/custom_maps/Custom_1_Run_0_Map.csv,0.791549,0.515633,0.000000,0.000000,0.118786,0.227711,0.616131,0.000000,0.968155,0.000000,0.000000,0.002150,0.957754,0.898597,0.000000,2.000000
/home/daniel/Projects/ppsevolution/data/maps/custom_maps/Custom_1_Run_0_Map.csv,0.867910,0.981095,0.000000,0.000000,0.000000,0.063172,0.716716,0.000000,1.000000,0.106606,0.000000,0.051059,0.834636,0.961015,0.000000,1.000000
/home/daniel/Projects/ppsevolution/data/maps/custom_maps/Custom_1_Run_0_Map.csv,0.850213,0.985857,0.000000,0.000000,0.129056,0.090671,0.681889,2.000000,1.000000,0.000000,0.000000,0.000000,0.807581,0.830884,0.220633,2.000000
/home/daniel/Projects/ppsevolution/data/maps/custom_maps/Custom_1_Run_0_Map.csv,0.895242,0.897144,0.000000,0.000000,0.414256,0.497566,0.584278,2.000000,1.000000,0.051109,0.000000,0.035659,1.000000,0.833921,0.056615,2.000000
/home/daniel/Projects/ppsevolution/data/maps/custom_maps/Custom_2_Run_0_Map.csv,0.232083,0.933366,0.051987,0.469287,0.100258,0.075585,0.888110,1.000000,0.855283,0.210914,0.000000,0.243370,0.861884,0.970073,0.156048,2.000000
/home/daniel/Projects/ppsevolution/data/maps/custom_maps/Custom_2_Run_0_Map.csv,0.038927,0.681996,0.078010,0.488305,0.000000,0.280597,0.978697,0.000000,0.961248,0.067895,0.000000,0.169183,1.000000,1.000000,0.000000,2.000000
/home/daniel/Projects/ppsevolution/data/maps/custom_maps/Custom_2_Run_0_Map.csv,0.095100,1.000000,0.000000,0.543504,0.000000,0.077476,1.000000,0.000000,0.902454,0.192829,0.002320,0.204269,0.863866,0.708289,0.026646,2.000000
/home/daniel/Projects/ppsevolution/data/maps/custom_maps/Custom_2_Run_0_Map.csv,0.000000,1.000000,0.000000,0.575707,0.048285,0.261564,0.886621,0.000000,0.991618,0.054635,0.000000,0.161011,1.000000,0.901705,0.000000,0.000000
/home/daniel/Projects/ppsevolution/data/maps/custom_maps/Custom_2_Run_0_Map.csv,0.000000,0.669162,0.000000,0.532504,0.313811,0.000000,0.708196,0.000000,0.805316,0.180268,0.165712,0.000221,0.868934,0.856748,0.010407,2.000000
/home/daniel/Projects/ppsevolution/data/maps/custom_maps/Custom_2_Run_0_Map.csv,0.083192,0.910881,0.014409,0.543695,0.033274,0.040112,1.000000,2.000000,1.000000,0.392407,0.050932,0.118798,0.854702,0.771445,0.063728,2.000000
/home/daniel/Projects/ppsevolution/data/maps/custom_maps/Custom_2_Run_0_Map.csv,0.267808,0.929606,0.000000,0.579971,0.000000,0.059726,0.709408,0.000000,1.000000,0.000000,0.000000,0.291002,1.000000,0.884457,0.000000,2.000000
/home/daniel/Projects/ppsevolution/data/maps/custom_maps/Custom_2_Run_0_Map.csv,0.064985,0.907709,0.118029,0.463460,0.173006,0.199449,0.909551,1.000000,1.000000,0.636471,0.112029,0.047881,0.813396,0.997925,0.017445,1.000000
/home/daniel/Projects/ppsevolution/data/maps/custom_maps/Custom_2_Run_0_Map.csv,0.000000,1.000000,0.037842,0.550835,0.250741,0.000000,0.824086,1.000000,1.000000,0.148574,0.000000,0.152153,1.000000,1.000000,0.069228,1.000000
/home/daniel/Projects/ppsevolution/data/maps/custom_maps/Custom_2_Run_0_Map.csv,0.258062,0.875929,0.011957,0.540042,0.014017,0.053181,0.992959,0.000000,1.000000,0.123422,0.007863,0.260960,0.605436,0.896732,0.000000,0.000000
/home/daniel/Projects/ppsevolution/data/maps/custom_maps/Custom_3_Run_0_Map.csv,0.000000,1.000000,0.000000,0.612199,0.027098,0.233241,0.909497,1.000000,0.930139,0.000000,0.252113,0.060901,0.589724,1.000000,0.000000,2.000000
/home/daniel/Projects/ppsevolution/data/maps/custom_maps/Custom_3_Run_0_Map.csv,0.000000,0.966386,0.124057,0.535132,0.113627,0.057596,0.643593,1.000000,0.887501,0.000000,0.000000,0.314446,0.912481,0.890956,0.000000,1.000000
/home/daniel/Projects/ppsevolution/data/maps/custom_maps/Custom_3_Run_0_Map.csv,0.083279,0.962209,0.248089,0.413222,0.352577,0.030000,1.000000,2.000000,1.000000,0.149930,0.000000,0.297276,0.855829,0.947346,0.119952,1.000000
/home/daniel/Projects/ppsevolution/data/maps/custom_maps/Custom_3_Run_0_Map.csv,0.000000,1.000000,0.000000,0.631829,0.000000,0.150272,0.882352,1.000000,0.945443,0.069640,0.076362,0.241304,0.992703,0.972494,0.000000,2.000000
/home/daniel/Projects/ppsevolution/data/maps/custom_maps/Custom_3_Run_0_Map.csv,0.143976,0.988857,0.266594,0.417176,0.077830,0.267343,0.979876,0.000000,1.000000,0.000000,0.000000,0.347525,0.942343,0.734973,0.021955,2.000000
/home/daniel/Projects/ppsevolution/data/maps/custom_maps/Custom_3_Run_0_Map.csv,0.048574,0.815618,0.002529,0.652791,0.000000,0.079047,0.853761,1.000000,1.000000,0.256161,0.019739,0.326256,1.000000,0.869204,0.000000,1.000000
/home/daniel/Projects/ppsevolution/data/maps/custom_maps/Custom_3_Run_0_Map.csv,0.314999,0.964615,0.115549,0.469983,0.000000,0.110374,1.000000,0.000000,0.778400,0.035030,0.000000,0.429168,0.820511,1.000000,0.075551,2.000000
/home/daniel/Projects/ppsevolution/data/maps/custom_maps/Custom_3_Run_0_Map.csv,0.015929,0.996794,0.000000,0.651124,0.194352,0.078876,0.697310,0.000000,0.921229,0.137116,0.000000,0.349511,0.641642,1.000000,0.000000,0.000000
/home/daniel/Projects/ppsevolution/data/maps/custom_maps/Custom_3_Run_0_Map.csv,0.000000,0.966096,0.000000,0.644309,0.000000,0.013873,0.837598,2.000000,1.000000,0.145354,0.068180,0.226942,1.000000,0.937377,0.188444,1.000000
/home/daniel/Projects/ppsevolution/data/maps/custom_maps/Custom_3_Run_0_Map.csv,0.000000,0.971083,0.000000,0.590389,0.000000,0.293502,1.000000,0.000000,0.801212,0.100485,0.000000,0.315910,0.935073,0.832260,0.061741,0.000000
/home/daniel/Projects/ppsevolution/data/maps/custom_maps/Custom_4_Run_0_Map.csv,0.695589,0.910895,0.070593,0.208734,0.267207,0.157189,0.831350,1.000000,1.000000,0.105119,0.000000,0.121291,1.000000,1.000000,0.042265,1.000000
/home/daniel/Projects/ppsevolution/data/maps/custom_maps/Custom_4_Run_0_Map.csv,0.436307,0.757003,0.000000,0.313801,0.000000,0.146845,0.792205,0.000000,1.000000,0.038577,0.000000,0.000000,0.936546,0.548563,0.042662,0.000000
/home/daniel/Projects/ppsevolution/data/maps/custom_maps/Custom_4_Run_0_Map.csv,0.447039,0.701262,0.000000,0.204713,0.240726,0.000000,0.941111,2.000000,0.779518,0.384290,0.000000,0.000000,1.000000,0.888606,0.096157,0.000000
/home/daniel/Projects/ppsevolution/data/maps/custom_maps/Custom_4_Run_0_Map.csv,0.490142,0.677251,0.000000,0.309278,0.324307,0.089473,0.754434,0.000000,1.000000,0.035996,0.000000,0.014516,0.677455,0.906293,0.143286,0.000000
/home/daniel/Projects/ppsevolution/data/maps/custom_maps/Custom_4_Run_0_Map.csv,0.613120,1.000000,0.000000,0.256465,0.000000,0.000000,0.989095,2.000000,0.948020,0.262661,0.000000,0.089327,0.868424,0.704240,0.055469,0.000000
/home/daniel/Projects/ppsevolution/data/maps/custom_maps/Custom_4_Run_0_Map.csv,0.442423,1.000000,0.091060,0.114440,0.018379,0.105508,0.783902,0.000000,0.768087,0.207413,0.000000,0.000000,0.908445,0.996669,0.081989,2.000000
/home/daniel/Projects/ppsevolution/data/maps/custom_maps/Custom_4_Run_0_Map.csv,0.436917,1.000000,0.000000,0.279397,0.095793,0.228798,0.952866,2.000000,0.979612,0.114311,0.000000,0.000000,0.825861,0.852120,0.000000,0.000000
/home/daniel/Projects/ppsevolution/data/maps/custom_maps/Custom_4_Run_0_Map.csv,0.467544,0.592476,0.000000,0.321070,0.622342,0.258196,0.617110,0.000000,1.000000,0.172441,0.000000,0.000000,0.888234,1.000000,0.080348,1.000000
/home/daniel/Projects/ppsevolution/data/maps/custom_maps/Custom_4_Run_0_Map.csv,0.516002,0.909274,0.000000,0.288630,0.000000,0.000000,0.994918,0.000000,0.985131,0.016511,0.042223,0.000000,0.945247,0.905320,0.000000,1.000000
/home/daniel/Projects/ppsevolution/data/maps/custom_maps/Custom_4_Run_0_Map.csv,0.423544,1.000000,0.000000,0.297507,0.230342,0.041213,1.000000,0.000000,1.000000,0.093511,0.000000,0.000000,1.000000,0.919684,0.000000,1.000000
/home/daniel/Projects/ppsevolution/data/maps/custom_maps/Custom_5_Run_0_Map.csv,0.189126,0.848823,0.087871,0.350405,0.217972,0.000000,1.000000,0.000000,1.000000,0.023804,0.000000,0.100320,0.949793,1.000000,0.015914,0.000000
/home/daniel/Projects/ppsevolution/data/maps/custom_maps/Custom_5_Run_0_Map.csv,0.000000,0.812669,0.000000,0.443361,0.105590,0.001704,1.000000,2.000000,1.000000,0.000000,0.000000,0.000000,1.000000,1.000000,0.065072,1.000000
/home/daniel/Projects/ppsevolution/data/maps/custom_maps/Custom_5_Run_0_Map.csv,0.267975,0.860625,0.096190,0.305253,0.000000,0.125977,0.902789,1.000000,0.922831,0.000000,0.000000,0.124969,0.807226,0.809380,0.088013,1.000000
/home/daniel/Projects/ppsevolution/data/maps/custom_maps/Custom_5_Run_0_Map.csv,0.000000,0.996737,0.000000,0.376324,0.029126,0.084293,1.000000,1.000000,0.794006,0.310228,0.000000,0.000000,0.905877,0.822710,0.149127,0.000000
/home/daniel/Projects/ppsevolution/data/maps/custom_maps/Custom_5_Run_0_Map.csv,0.311819,0.815557,0.095486,0.233842,0.151267,0.102159,0.659908,1.000000,0.714917,0.000000,0.000000,0.167862,0.784582,0.769143,0.000250,1.000000
/home/daniel/Projects/ppsevolution/data/maps/custom_maps/Custom_5_Run_0_Map.csv,0.024584,1.000000,0.000000,0.448024,0.132032,0.001248,0.888581,2.000000,1.000000,0.018016,0.000000,0.000000,0.984458,0.815102,0.103964,2.000000
/home/daniel/Projects/ppsevolution/data/maps/custom_maps/Custom_5_Run_0_Map.csv,0.027918,0.999955,0.000000,0.411177,0.165938,0.056316,0.882500,2.000000,0.916739,0.000000,0.000000,0.024616,0.541417,0.668990,0.000000,0.000000
/home/daniel/Projects/ppsevolution/data/maps/custom_maps/Custom_5_Run_0_Map.csv,0.191821,0.735416,0.043001,0.417072,0.000000,0.000000,0.507711,0.000000,0.942901,0.000000,0.000000,0.117128,0.920901,0.985141,0.000000,1.000000
/home/daniel/Projects/ppsevolution/data/maps/custom_maps/Custom_5_Run_0_Map.csv,0.629407,0.989138,0.259474,0.131067,0.331550,0.194572,0.833782,1.000000,1.000000,0.109354,0.038681,0.241795,1.000000,0.766636,0.000000,2.000000
/home/daniel/Projects/ppsevolution/data/maps/custom_maps/Custom_5_Run_0_Map.csv,0.514984,1.000000,0.014069,0.395259,0.018873,0.000000,1.000000,2.000000,1.000000,0.000000,0.016811,0.236721,0.862683,0.776076,0.000000,1.000000
/home/daniel/Projects/ppsevolution/data/maps/custom_maps/Custom_6_Run_0_Map.csv,0.000000,1.000000,0.191067,0.621106,0.022282,0.208861,0.895212,2.000000,0.965830,0.397202,0.041837,0.479669,1.000000,1.000000,0.000000,0.000000
/home/daniel/Projects/ppsevolution/data/maps/custom_maps/Custom_6_Run_0_Map.csv,0.000000,1.000000,0.175435,0.620376,0.208584,0.197720,0.992896,1.000000,0.950362,0.000000,0.029570,0.488574,0.541890,0.812958,0.011421,1.000000
/home/daniel/Projects/ppsevolution/data/maps/custom_maps/Custom_6_Run_0_Map.csv,0.041883,1.000000,0.214659,0.616636,0.000000,0.067849,0.933455,0.000000,1.000000,0.179345,0.000000,0.520623,1.000000,1.000000,0.000000,1.000000
/home/daniel/Projects/ppsevolution/data/maps/custom_maps/Custom_6_Run_0_Map.csv,0.046409,1.000000,0.000000,0.726493,0.000000,0.000000,0.973010,1.000000,1.000000,0.000000,0.000000,0.516227,0.747900,0.817772,0.176202,1.000000
/home/daniel/Projects/ppsevolution/data/maps/custom_maps/Custom_6_Run_0_Map.csv,0.365656,0.756125,0.202594,0.605674,0.017751,0.000000,0.953516,0.000000,0.990114,0.021681,0.040805,0.588557,1.000000,1.000000,0.000000,0.000000
/home/daniel/Projects/ppsevolution/data/maps/custom_maps/Custom_6_Run_0_Map.csv,0.055068,0.933617,0.030580,0.732845,0.000000,0.148711,0.828659,0.000000,1.000000,0.391687,0.000000,0.543471,0.636501,0.993290,0.000000,1.000000
/home/daniel/Projects/ppsevolution/data/maps/custom_maps/Custom_6_Run_0_Map.csv,0.000000,1.000000,0.048437,0.671129,0.111770,0.030000,1.000000,2.000000,0.852512,0.116798,0.022635,0.501937,0.964419,0.860254,0.000000,1.000000
/home/daniel/Projects/ppsevolution/data/maps/custom_maps/Custom_6_Run_0_Map.csv,0.000000,1.000000,0.210000,0.588301,0.220746,0.005964,1.000000,1.000000,0.903794,0.111194,0.000000,0.501433,0.977578,1.000000,0.185398,0.000000
/home/daniel/Projects/ppsevolution/data/maps/custom_maps/Custom_6_Run_0_Map.csv,0.098313,0.732030,0.059489,0.679517,0.141854,0.050336,1.000000,1.000000,0.912973,0.029110,0.007727,0.537122,1.000000,0.695181,0.000000,2.000000
/home/daniel/Projects/ppsevolution/data/maps/custom_maps/Custom_6_Run_0_Map.csv,0.000000,0.729746,0.062765,0.648203,0.033045,0.004041,0.968807,1.000000,0.732038,0.326089,0.000000,0.529058,0.902362,0.844231,0.000000,1.000000
/home/daniel/Projects/ppsevolution/data/maps/custom_maps/Custom_7_Run_0_Map.csv,0.017041,1.000000,0.000000,0.538759,0.241469,0.000000,0.872219,0.000000,0.971423,0.219714,0.000000,0.155656,1.000000,0.797894,0.000000,1.000000
/home/daniel/Projects/ppsevolution/data/maps/custom_maps/Custom_7_Run_0_Map.csv,0.135467,1.000000,0.000000,0.528657,0.000000,0.198048,0.954855,1.000000,1.000000,0.142407,0.000000,0.201899,1.000000,1.000000,0.000000,2.000000
/home/daniel/Projects/ppsevolution/data/maps/custom_maps/Custom_7_Run_0_Map.csv,0.099568,1.000000,0.072031,0.492823,0.213517,0.139704,0.680767,0.000000,1.000000,0.020351,0.000000,0.190421,0.850383,0.851086,0.000000,2.000000
/home/daniel/Projects/ppsevolution/data/maps/custom_maps/Custom_7_Run_0_Map.csv,0.523578,1.000000,0.000000,0.506121,0.031939,0.067742,0.942480,0.000000,1.000000,0.116014,0.000000,0.353959,0.595061,0.922887,0.106054,1.000000
/home/daniel/Projects/ppsevolution/data/maps/custom_maps/Custom_7_Run_0_Map.csv,0.170814,0.816516,0.000000,0.533009,0.071190,0.210149,0.916853,0.000000,1.000000,0.000000,0.000000,0.205966,1.000000,0.924122,0.112395,1.000000
/home/daniel/Projects/ppsevolution/data/maps/custom_maps/Custom_7_Run_0_Map.csv,0.265328,1.000000,0.203966,0.334350,0.000000,0.016983,0.957284,1.000000,1.000000,0.123826,0.027560,0.225480,0.908895,0.917555,0.000000,1.000000
/home/daniel/Projects/ppsevolution/data/maps/custom_maps/Custom_7_Run_0_Map.csv,0.176279,0.462339,0.101045,0.372386,0.174140,0.228242,1.000000,1.000000,0.868457,0.000000,0.000000,0.195169,0.852994,0.781068,0.113732,1.000000
/home/daniel/Projects/ppsevolution/data/maps/custom_maps/Custom_7_Run_0_Map.csv,0.000000,0.984987,0.150527,0.419953,0.000000,0.000000,0.789622,1.000000,1.000000,0.272964,0.000000,0.131779,0.761677,1.000000,0.079049,2.000000
/home/daniel/Projects/ppsevolution/data/maps/custom_maps/Custom_7_Run_0_Map.csv,0.125137,1.000000,0.145599,0.397469,0.307394,0.232972,0.913116,0.000000,1.000000,0.000000,0.002941,0.166556,1.000000,0.734954,0.137561,0.000000
/home/daniel/Projects/ppsevolution/data/maps/custom_maps/Custom_7_Run_0_Map.csv,0.131809,0.783548,0.000000,0.539846,0.293206,0.000000,0.839583,0.000000,0.989309,0.190752,0.000000,0.198117,0.820093,1.000000,0.051560,2.000000
/home/daniel/Projects/ppsevolution/data/maps/custom_maps/Custom_8_Run_0_Map.csv,0.751117,0.794711,0.000000,0.343174,0.137674,0.408913,0.774918,2.000000,1.000000,0.075290,0.206488,0.031507,0.870744,0.816730,0.000000,2.000000
/home/daniel/Projects/ppsevolution/data/maps/custom_maps/Custom_8_Run_0_Map.csv,0.212842,0.918414,0.000000,0.267757,0.147056,0.342436,0.965529,0.000000,0.767421,0.078514,0.000000,0.000000,0.359926,1.000000,0.085066,1.000000
/home/daniel/Projects/ppsevolution/data/maps/custom_maps/Custom_8_Run_0_Map.csv,0.191390,0.917917,0.021919,0.353185,0.014612,0.369167,0.779338,0.000000,0.965729,0.000000,0.000000,0.000000,0.856500,0.935928,0.056080,2.000000
/home/daniel/Projects/ppsevolution/data/maps/custom_maps/Custom_8_Run_0_Map.csv,0.231995,0.973754,0.001115,0.360069,0.234217,0.241717,0.965515,2.000000,1.000000,0.074774,0.000000,0.014279,1.000000,1.000000,0.084596,0.000000
/home/daniel/Projects/ppsevolution/data/maps/custom_maps/Custom_8_Run_0_Map.csv,0.162779,0.880567,0.000000,0.348273,0.000000,0.000000,0.804488,2.000000,0.915670,0.123831,0.000000,0.000000,0.968680,0.886579,0.000000,0.000000
/home/daniel/Projects/ppsevolution/data/maps/custom_maps/Custom_8_Run_0_Map.csv,0.194248,1.000000,0.000000,0.376196,0.045472,0.184003,0.885664,1.000000,1.000000,0.166679,0.000000,0.000000,0.832991,0.951708,0.075218,0.000000
/home/daniel/Projects/ppsevolution/data/maps/custom_maps/Custom_8_Run_0_Map.csv,0.211184,1.000000,0.039833,0.320975,0.052645,0.531105,0.986879,1.000000,0.997794,0.000000,0.000000,0.000000,1.000000,0.994778,0.000000,2.000000
/home/daniel/Projects/ppsevolution/data/maps/custom_maps/Custom_8_Run_0_Map.csv,0.245970,0.928458,0.063680,0.297480,0.154467,0.175061,1.000000,0.000000,1.000000,0.138957,0.000000,0.000000,0.669541,0.937514,0.139143,2.000000
/home/daniel/Projects/ppsevolution/data/maps/custom_maps/Custom_8_Run_0_Map.csv,0.210442,0.944733,0.000000,0.354181,0.043587,0.129547,0.983444,2.000000,0.982534,0.000000,0.000000,0.000000,0.908167,1.000000,0.099965,0.000000
/home/daniel/Projects/ppsevolution/data/maps/custom_maps/Custom_8_Run_0_Map.csv,0.336637,0.697598,0.075779,0.294627,0.069742,0.000000,0.675341,2.000000,1.000000,0.103981,0.000000,0.060983,0.749843,0.930029,0.020480,1.000000
/home/daniel/Projects/ppsevolution/data/maps/custom_maps/Custom_9_Run_0_Map.csv,0.505465,1.000000,0.000000,0.135048,0.380666,0.373569,0.926213,2.000000,0.915985,0.169213,0.000000,0.000000,0.614948,0.942258,0.000000,0.000000
/home/daniel/Projects/ppsevolution/data/maps/custom_maps/Custom_9_Run_0_Map.csv,0.552987,0.826356,0.000000,0.181228,0.070447,0.103684,0.807194,1.000000,0.964626,0.000000,0.000000,0.000000,0.909495,0.706765,0.216801,2.000000
/home/daniel/Projects/ppsevolution/data/maps/custom_maps/Custom_9_Run_0_Map.csv,0.590397,0.756463,0.000000,0.229235,0.046047,0.157811,0.509444,0.000000,0.994392,0.253459,0.050322,0.000000,0.991524,1.000000,0.000000,1.000000
/home/daniel/Projects/ppsevolution/data/maps/custom_maps/Custom_9_Run_0_Map.csv,0.731632,0.961254,0.066178,0.080144,0.106097,0.304087,0.980743,2.000000,0.978116,0.330537,0.091545,0.002344,1.000000,1.000000,0.000000,1.000000
/home/daniel/Projects/ppsevolution/data/maps/custom_maps/Custom_9_Run_0_Map.csv,0.542573,1.000000,0.153479,0.000000,0.025498,0.000000,1.000000,0.000000,0.994239,0.321114,0.017634,0.000000,0.923806,0.965578,0.034422,2.000000
/home/daniel/Projects/ppsevolution/data/maps/custom_maps/Custom_9_Run_0_Map.csv,0.546852,0.886027,0.000000,0.141431,0.049089,0.000000,1.000000,1.000000,0.894538,0.089547,0.000000,0.000000,1.000000,0.693116,0.309594,0.000000
/home/daniel/Projects/ppsevolution/data/maps/custom_maps/Custom_9_Run_0_Map.csv,0.556505,0.920640,0.000000,0.209877,0.111024,0.000000,0.778135,0.000000,1.000000,0.228161,0.010647,0.031399,1.000000,0.857670,0.000000,0.000000
/home/daniel/Projects/ppsevolution/data/maps/custom_maps/Custom_9_Run_0_Map.csv,0.506572,0.019789,0.000000,0.205349,0.408461,0.014057,0.743000,0.000000,1.000000,0.120489,0.000000,0.000000,1.000000,0.877672,0.035735,0.000000
/home/daniel/Projects/ppsevolution/data/maps/custom_maps/Custom_9_Run_0_Map.csv,0.774040,0.603983,0.035446,0.119758,0.075831,0.307771,0.775540,1.000000,0.957681,0.002418,0.112667,0.000000,0.808295,0.747140,0.061879,0.000000
/home/daniel/Projects/ppsevolution/data/maps/custom_maps/Custom_9_Run_0_Map.csv,0.727565,0.863224,0.000000,0.172307,0.278321,0.389489,0.917047,1.000000,1.000000,0.004122,0.067055,0.000000,0.899740,0.875206,0.241641,2.000000
/home/daniel/Projects/ppsevolution/data/maps/custom_maps/Custom_10_Run_0_Map.csv,0.191393,0.568912,0.000000,0.476489,0.000000,0.000000,0.883293,0.000000,0.964256,0.000000,0.015206,0.141160,1.000000,0.627417,0.121831,0.000000
/home/daniel/Projects/ppsevolution/data/maps/custom_maps/Custom_10_Run_0_Map.csv,0.101145,0.878412,0.000000,0.379229,0.000000,0.034107,0.958524,2.000000,0.736912,0.300158,0.003440,0.080156,1.000000,1.000000,0.294428,0.000000
/home/daniel/Projects/ppsevolution/data/maps/custom_maps/Custom_10_Run_0_Map.csv,0.165424,0.909338,0.213468,0.261709,0.000000,0.154371,0.925625,1.000000,1.000000,0.193124,0.000000,0.140783,0.854192,0.901134,0.000000,0.000000
/home/daniel/Projects/ppsevolution/data/maps/custom_maps/Custom_10_Run_0_Map.csv,0.026965,0.834744,0.141706,0.365177,0.000000,0.191737,0.790856,0.000000,1.000000,0.086125,0.050622,0.020958,0.925713,1.000000,0.000000,1.000000
/home/daniel/Projects/ppsevolution/data/maps/custom_maps/Custom_10_Run_0_Map.csv,0.343880,0.912837,0.000000,0.429803,0.236673,0.127964,0.655100,0.000000,0.796332,0.254944,0.015262,0.235224,0.995339,0.812114,0.037579,0.000000
/home/daniel/Projects/ppsevolution/data/maps/custom_maps/Custom_10_Run_0_Map.csv,0.185214,1.000000,0.000000,0.447666,0.061646,0.000000,1.000000,2.000000,0.956946,0.077239,0.000000,0.137737,1.000000,0.932161,0.116871,1.000000
/home/daniel/Projects/ppsevolution/data/maps/custom_maps/Custom_10_Run_0_Map.csv,0.005868,1.000000,0.000000,0.506250,0.139878,0.187148,0.743987,0.000000,1.000000,0.209609,0.000000,0.087615,0.877442,0.837649,0.000000,0.000000
/home/daniel/Projects/ppsevolution/data/maps/custom_maps/Custom_10_Run_0_Map.csv,0.000000,0.834730,0.000000,0.483813,0.000000,0.314017,0.853811,1.000000,1.000000,0.000000,0.000000,0.041574,0.723555,0.922474,0.161289,0.000000
/home/daniel/Projects/ppsevolution/data/maps/custom_maps/Custom_10_Run_0_Map.csv,0.120558,1.000000,0.003869,0.483748,0.011350,0.002068,0.884988,1.000000,1.000000,0.000000,0.000000,0.139815,1.000000,1.000000,0.000000,0.000000
/home/daniel/Projects/ppsevolution/data/maps/custom_maps/Custom_10_Run_0_Map.csv,0.604725,0.731743,0.000000,0.475961,0.153557,0.033142,0.753326,0.000000,1.000000,0.000000,0.170510,0.187166,1.000000,0.937738,0.000000,0.000000
