map,fitness,fitness value,team0ratio,time,HP,Speed,Damage,Acc,ClipSize,RateOfFire,NrBullets,Range,HP,Speed,Damage,Acc,ClipSize,RateOfFire,NrBullets,Range,HP,Speed,Damage,Acc,ClipSize,RateOfFire,NrBullets,Range,HP,Speed,Damage,Acc,ClipSize,RateOfFire,NrBullets,Range,Run,target team0ratio: 0.5,target time: 0.72
/home/daniel/Projects/ppsevolution/data/maps/custom_maps/Custom_1_Run_0_Map.csv,squared_error,4.3360595723812005e-07,0.4991,0.7202,0.793882,0.890922,0.000000,0.000000,0.124365,0.563653,0.703546,1.000000,1.000000,0.082946,0.000000,0.000000,1.000000,1.000000,0.000000,1.000000,263.929282,1.268916,9.000000,0.000000,25.748545,5.854702,7.331918,1.000000,300.000000,0.816450,9.000000,0.000000,200.000000,10.000000,1.000000,1.000000,0
/home/daniel/Projects/ppsevolution/data/maps/custom_maps/Custom_1_Run_0_Map.csv,squared_error,8.901656310741044e-07,0.5002,0.7213,0.793215,0.899287,0.000000,0.033718,0.142554,0.443205,0.401637,0.000000,1.000000,0.054903,0.000000,0.000000,0.945484,0.905838,0.001284,2.000000,263.812635,1.273601,9.000000,0.033718,29.368292,4.710448,4.614730,0.000000,300.000000,0.800746,9.000000,0.000000,189.151237,9.105458,1.011560,2.000000,1
/home/daniel/Projects/ppsevolution/data/maps/custom_maps/Custom_1_Run_0_Map.csv,squared_error,3.188112522963265e-07,0.4994,0.7205,0.795399,1.000000,0.011998,0.000000,0.030000,0.159627,0.488847,2.000000,1.000000,0.080482,0.000000,0.000000,0.659574,1.000000,0.000000,2.000000,264.194868,1.330000,10.691767,0.000000,6.970000,2.016454,5.399622,2.000000,300.000000,0.815070,9.000000,0.000000,132.255217,10.000000,1.000000,2.000000,2
/home/daniel/Projects/ppsevolution/data/maps/custom_maps/Custom_1_Run_0_Map.csv,squared_error,2.9908239241722513e-07,0.4999,0.7208,0.776171,0.865897,0.000000,0.019956,0.000000,0.002922,0.178947,2.000000,0.940969,0.038740,0.000000,0.000000,0.775713,0.713057,0.000000,0.000000,260.829904,1.254903,9.000000,0.019956,1.000000,0.527758,2.610521,2.000000,289.669524,0.791694,9.000000,0.000000,155.366888,7.274040,1.000000,0.000000,3
/home/daniel/Projects/ppsevolution/data/maps/custom_maps/Custom_1_Run_0_Map.csv,squared_error,5.431912256888646e-07,0.4993,0.7208,0.786057,1.000000,0.024964,0.000000,0.086836,0.000000,0.431729,2.000000,0.995041,0.434699,0.000000,0.000000,1.000000,0.957317,0.000000,0.000000,262.559920,1.330000,12.519863,0.000000,18.280316,0.500000,4.885557,2.000000,299.132109,1.013432,9.000000,0.000000,200.000000,9.594514,1.000000,0.000000,4
/home/daniel/Projects/ppsevolution/data/maps/custom_maps/Custom_1_Run_0_Map.csv,squared_error,7.303472723492906e-07,0.5006,0.7210,0.784920,0.954297,0.000000,0.000000,0.203585,0.052763,0.754053,1.000000,1.000000,0.000000,0.000261,0.000000,0.979311,0.954211,0.000000,2.000000,262.360944,1.304406,9.000000,0.000000,41.513489,1.001245,7.786479,1.000000,300.000000,0.770000,9.036780,0.000000,195.882950,9.565001,1.000000,2.000000,5
/home/daniel/Projects/ppsevolution/data/maps/custom_maps/Custom_1_Run_0_Map.csv,squared_error,6.062629090848628e-07,0.4990,0.7195,0.764557,0.886405,0.000000,0.037386,0.175784,0.291228,0.363365,0.000000,0.986659,0.000000,0.000000,0.000000,1.000000,0.979020,0.000000,0.000000,258.797496,1.266387,9.000000,0.037386,35.981073,3.266667,4.270286,0.000000,297.665277,0.770000,9.000000,0.000000,200.000000,9.800689,1.000000,0.000000,6
/home/daniel/Projects/ppsevolution/data/maps/custom_maps/Custom_1_Run_0_Map.csv,squared_error,6.603770315479096e-07,0.5011,0.7200,0.778592,0.844090,0.000000,0.029148,0.000000,0.000000,0.556423,0.000000,1.000000,0.252723,0.000000,0.000000,0.866318,0.648639,0.000000,1.000000,261.253658,1.242690,9.000000,0.029148,1.000000,0.500000,6.007806,0.000000,300.000000,0.911525,9.000000,0.000000,173.397374,6.662074,1.000000,1.000000,7
/home/daniel/Projects/ppsevolution/data/maps/custom_maps/Custom_1_Run_0_Map.csv,squared_error,2.748634476830674e-07,0.4993,0.7203,0.793393,0.597825,0.000000,0.000000,0.049219,0.000000,0.834526,0.000000,1.000000,0.346206,0.000000,0.000000,0.978484,0.886634,0.047173,0.000000,263.843698,1.104782,9.000000,0.000000,10.794560,0.500000,8.510731,0.000000,300.000000,0.963875,9.000000,0.000000,195.718319,8.923025,1.424553,0.000000,8
/home/daniel/Projects/ppsevolution/data/maps/custom_maps/Custom_1_Run_0_Map.csv,squared_error,8.03319595917074e-08,0.5001,0.7196,0.768036,0.750273,0.000000,0.000000,0.063271,0.083955,0.782373,0.000000,0.988899,0.077056,0.000000,0.000000,1.000000,0.930460,0.000000,0.000000,259.406273,1.190153,9.000000,0.000000,13.590928,1.297571,8.041354,0.000000,298.057348,0.813151,9.000000,0.000000,200.000000,9.339371,1.000000,0.000000,9
map,fitness,fitness value,team0ratio,time,HP,Speed,Damage,Acc,ClipSize,RateOfFire,NrBullets,Range,HP,Speed,Damage,Acc,ClipSize,RateOfFire,NrBullets,Range,HP,Speed,Damage,Acc,ClipSize,RateOfFire,NrBullets,Range,HP,Speed,Damage,Acc,ClipSize,RateOfFire,NrBullets,Range,Run,target team0ratio: 0.5,target time: 0.72
/home/daniel/Projects/ppsevolution/data/maps/custom_maps/Custom_2_Run_0_Map.csv,squared_error,8.160068457215511e-07,0.4998,0.7213,0.205169,0.689392,0.036572,0.530272,0.000000,0.034928,0.959621,0.000000,1.000000,0.000000,0.039723,0.198528,0.945711,1.000000,0.051441,2.000000,160.904531,1.156059,14.156602,0.530272,1.000000,0.831816,9.636587,0.000000,300.000000,0.770000,14.601004,0.198528,189.196400,10.000000,1.462968,2.000000,0
/home/daniel/Projects/ppsevolution/data/maps/custom_maps/Custom_2_Run_0_Map.csv,squared_error,2.8254988782520185e-07,0.5006,0.7196,0.077901,0.590368,0.019683,0.559163,0.228979,0.106601,0.785153,1.000000,1.000000,0.000000,0.000000,0.192656,1.000000,0.925091,0.012808,0.000000,138.632688,1.100606,11.775238,0.559163,46.566810,1.512708,8.066373,1.000000,300.000000,0.770000,9.000000,0.192656,200.000000,9.288366,1.115269,0.000000,1
/home/daniel/Projects/ppsevolution/data/maps/custom_maps/Custom_2_Run_0_Map.csv,squared_error,8.661397809646599e-07,0.5013,0.7200,0.165424,0.890431,0.000000,0.593189,0.148443,0.041986,0.621305,0.000000,1.000000,0.000000,0.000000,0.242142,1.000000,0.690871,0.067173,0.000000,153.949235,1.268642,9.000000,0.593189,30.540187,0.898867,6.591745,0.000000,300.000000,0.770000,9.000000,0.242142,200.000000,7.063271,1.604558,0.000000,2
/home/daniel/Projects/ppsevolution/data/maps/custom_maps/Custom_2_Run_0_Map.csv,squared_error,7.510020338059715e-07,0.4997,0.7188,0.318352,1.000000,0.000000,0.553469,0.014626,0.028815,0.947064,1.000000,1.000000,0.051781,0.000000,0.304486,0.973261,0.714425,0.000000,0.000000,180.711571,1.330000,9.000000,0.553469,3.910562,0.773745,9.523572,1.000000,300.000000,0.798997,9.000000,0.304486,194.678970,7.287033,1.000000,0.000000,3
/home/daniel/Projects/ppsevolution/data/maps/custom_maps/Custom_2_Run_0_Map.csv,squared_error,5.301029434264058e-07,0.5010,0.7197,0.387699,0.842782,0.000000,0.546374,0.000000,0.104964,0.873097,0.000000,0.964256,0.141787,0.000000,0.332236,0.843112,1.000000,0.000000,0.000000,192.847362,1.241958,9.000000,0.546374,1.000000,1.497162,8.857869,0.000000,293.744831,0.849401,9.000000,0.332236,168.779350,10.000000,1.000000,0.000000,4
/home/daniel/Projects/ppsevolution/data/maps/custom_maps/Custom_2_Run_0_Map.csv,squared_error,5.462958919906451e-07,0.5007,0.7192,0.348653,1.000000,0.232160,0.332433,0.129176,0.074211,0.999190,0.000000,1.000000,0.081095,0.000000,0.294227,0.948259,0.936951,0.047601,2.000000,186.014351,1.330000,41.734503,0.332433,26.706083,1.205001,9.992711,0.000000,300.000000,0.815413,9.000000,0.294227,189.703444,9.401039,1.428411,2.000000,5
/home/daniel/Projects/ppsevolution/data/maps/custom_maps/Custom_2_Run_0_Map.csv,squared_error,1.186593065653901e-08,0.5001,0.7199,0.190006,1.000000,0.071048,0.499150,0.000000,0.289607,1.000000,0.000000,1.000000,0.609506,0.000000,0.230857,0.913970,0.830292,0.000000,1.000000,158.251128,1.330000,19.017746,0.499150,1.000000,3.251266,10.000000,0.000000,300.000000,1.111324,9.000000,0.230857,182.880101,8.387773,1.000000,1.000000,6
/home/daniel/Projects/ppsevolution/data/maps/custom_maps/Custom_2_Run_0_Map.csv,squared_error,7.060853038439362e-07,0.4996,0.7211,0.119426,1.000000,0.000000,0.599341,0.155636,0.153687,0.496766,0.000000,1.000000,0.125287,0.000000,0.229919,1.000000,0.876071,0.000000,0.000000,145.899605,1.330000,9.000000,0.599341,31.971555,1.960025,5.470895,0.000000,300.000000,0.840161,9.000000,0.229919,200.000000,8.822672,1.000000,0.000000,7
/home/daniel/Projects/ppsevolution/data/maps/custom_maps/Custom_2_Run_0_Map.csv,squared_error,2.111894154524613e-06,0.4991,0.7181,0.057395,1.000000,0.000000,0.574757,0.296003,0.000000,0.954936,0.000000,0.983850,0.052015,0.000000,0.201928,1.000000,1.000000,0.000000,1.000000,135.044203,1.330000,9.000000,0.574757,59.904581,0.500000,9.594427,0.000000,297.173691,0.799128,9.000000,0.201928,200.000000,10.000000,1.000000,1.000000,8
/home/daniel/Projects/ppsevolution/data/maps/custom_maps/Custom_2_Run_0_Map.csv,squared_error,4.093804291301043e-07,0.5005,0.7193,0.346680,0.960435,0.000000,0.549214,0.271052,0.157978,0.877360,2.000000,0.975331,0.000000,0.017617,0.246456,1.000000,0.725515,0.393640,2.000000,185.669042,1.307844,9.000000,0.549214,54.939372,2.000790,8.896238,2.000000,295.682841,0.770000,11.483939,0.246456,200.000000,7.392392,4.542757,2.000000,9
map,fitness,fitness value,team0ratio,time,HP,Speed,Damage,Acc,ClipSize,RateOfFire,NrBullets,Range,HP,Speed,Damage,Acc,ClipSize,RateOfFire,NrBullets,Range,HP,Speed,Damage,Acc,ClipSize,RateOfFire,NrBullets,Range,HP,Speed,Damage,Acc,ClipSize,RateOfFire,NrBullets,Range,Run,target team0ratio: 0.5,target time: 0.72
/home/daniel/Projects/ppsevolution/data/maps/custom_maps/Custom_3_Run_0_Map.csv,squared_error,5.996343132615336e-07,0.4989,0.7201,0.333426,0.902568,0.035567,0.636965,0.000000,0.000000,0.572100,1.000000,1.000000,0.006431,0.000000,0.467593,0.898438,0.915264,0.000000,0.000000,183.349596,1.275438,14.014959,0.636965,1.000000,0.500000,6.148902,1.000000,300.000000,0.773601,9.000000,0.467593,179.789242,9.195010,1.000000,0.000000,0
/home/daniel/Projects/ppsevolution/data/maps/custom_maps/Custom_3_Run_0_Map.csv,squared_error,4.001114051817229e-07,0.5000,0.7191,0.145811,0.932182,0.111339,0.493731,0.387056,0.174723,1.000000,1.000000,0.838582,0.082723,0.000000,0.365820,0.879818,0.676156,0.000000,1.000000,150.516996,1.292022,24.698813,0.493731,78.024080,2.159867,10.000000,1.000000,271.751869,0.816325,9.000000,0.365820,176.083722,6.923484,1.000000,1.000000,1
/home/daniel/Projects/ppsevolution/data/maps/custom_maps/Custom_3_Run_0_Map.csv,squared_error,4.263785325349785e-07,0.5002,0.7209,0.094653,1.000000,0.000000,0.649733,0.159656,0.242698,0.919945,0.000000,1.000000,0.000000,0.000000,0.361165,0.934570,0.981488,0.000000,1.000000,141.564237,1.330000,9.000000,0.649733,32.771460,2.805630,9.279506,0.000000,300.000000,0.770000,9.000000,0.361165,186.979493,9.824134,1.000000,1.000000,2
/home/daniel/Projects/ppsevolution/data/maps/custom_maps/Custom_3_Run_0_Map.csv,squared_error,1.966267377724614e-07,0.5003,0.7194,0.436149,0.942548,0.106667,0.596754,0.074039,0.330663,0.437809,0.000000,1.000000,0.011645,0.017643,0.481975,0.889593,0.932405,0.000000,1.000000,201.326008,1.297827,24.040076,0.596754,15.733758,3.641296,4.940282,0.000000,300.000000,0.776521,11.487608,0.481975,178.028995,9.357845,1.000000,1.000000,3
/home/daniel/Projects/ppsevolution/data/maps/custom_maps/Custom_3_Run_0_Map.csv,squared_error,7.201550192632717e-07,0.4996,0.7189,0.190263,1.000000,0.000000,0.636217,0.030000,0.159139,1.000000,1.000000,1.000000,0.000000,0.055155,0.336689,0.892609,0.799425,0.115405,0.000000,158.296024,1.330000,9.000000,0.636217,6.970000,2.011824,10.000000,1.000000,300.000000,0.770000,16.776857,0.336689,178.629213,8.094542,2.038642,0.000000,4
/home/daniel/Projects/ppsevolution/data/maps/custom_maps/Custom_3_Run_0_Map.csv,squared_error,6.312410126525817e-07,0.5010,0.7195,0.045153,0.795714,0.000000,0.655385,0.000000,0.030000,0.978324,0.000000,1.000000,0.064814,0.000000,0.350004,1.000000,1.000000,0.000000,0.000000,132.901860,1.215600,9.000000,0.655385,1.000000,0.785000,9.804914,0.000000,300.000000,0.806296,9.000000,0.350004,200.000000,10.000000,1.000000,0.000000,5
/home/daniel/Projects/ppsevolution/data/maps/custom_maps/Custom_3_Run_0_Map.csv,squared_error,6.408811442498518e-08,0.4999,0.7203,0.146613,0.830598,0.056712,0.587152,0.000000,0.135252,0.861954,0.000000,0.921670,0.000000,0.000000,0.382624,1.000000,1.000000,0.000000,0.000000,150.657231,1.235135,16.996406,0.587152,1.000000,1.784897,8.757582,0.000000,286.292231,0.770000,9.000000,0.382624,200.000000,10.000000,1.000000,0.000000,6
/home/daniel/Projects/ppsevolution/data/maps/custom_maps/Custom_3_Run_0_Map.csv,squared_error,6.635489213209849e-07,0.5009,0.7207,0.444100,1.000000,0.000000,0.650601,0.085744,0.000000,0.774394,0.000000,1.000000,0.000000,0.000000,0.484020,0.803287,0.875716,0.182583,2.000000,202.717504,1.330000,9.000000,0.650601,18.063041,0.500000,7.969544,0.000000,300.000000,0.770000,9.000000,0.484020,160.854104,8.819300,2.643243,2.000000,7
/home/daniel/Projects/ppsevolution/data/maps/custom_maps/Custom_3_Run_0_Map.csv,squared_error,5.018655800455632e-07,0.5008,0.7206,0.323102,0.720224,0.137990,0.539047,0.000000,0.000000,0.794831,0.000000,1.000000,0.000000,0.110333,0.331856,1.000000,0.819860,0.000000,2.000000,181.542888,1.173325,28.456608,0.539047,1.000000,0.500000,8.153483,0.000000,300.000000,0.770000,24.556999,0.331856,200.000000,8.288666,1.000000,2.000000,8
/home/daniel/Projects/ppsevolution/data/maps/custom_maps/Custom_3_Run_0_Map.csv,squared_error,5.634233800407203e-07,0.5011,0.7201,0.052274,0.896549,0.052099,0.596496,0.002824,0.054154,0.898452,2.000000,1.000000,0.000000,0.068753,0.215964,1.000000,0.608200,0.315182,1.000000,134.148000,1.272068,16.346018,0.596496,1.561952,1.014459,9.086070,2.000000,300.000000,0.770000,18.694206,0.215964,200.000000,6.277897,3.836638,1.000000,9
map,fitness,fitness value,team0ratio,time,HP,Speed,Damage,Acc,ClipSize,RateOfFire,NrBullets,Range,HP,Speed,Damage,Acc,ClipSize,RateOfFire,NrBullets,Range,HP,Speed,Damage,Acc,ClipSize,RateOfFire,NrBullets,Range,HP,Speed,Damage,Acc,ClipSize,RateOfFire,NrBullets,Range,Run,target team0ratio: 0.5,target time: 0.72
/home/daniel/Projects/ppsevolution/data/maps/custom_maps/Custom_4_Run_0_Map.csv,squared_error,6.87264829053996e-08,0.4999,0.7204,0.489841,0.811559,0.000000,0.256129,0.185734,0.000000,1.000000,2.000000,0.921890,0.448291,0.000000,0.000000,1.000000,0.993941,0.188655,0.000000,210.722247,1.224473,9.000000,0.256129,37.961002,0.500000,10.000000,2.000000,286.330837,1.021043,9.000000,0.000000,200.000000,9.942443,2.697897,0.000000,0
/home/daniel/Projects/ppsevolution/data/maps/custom_maps/Custom_4_Run_0_Map.csv,squared_error,9.96961557576262e-07,0.4986,0.7197,0.445075,0.958357,0.000000,0.298508,0.180660,0.000000,0.907535,1.000000,1.000000,0.022942,0.000000,0.000000,0.899646,0.983743,0.079326,1.000000,202.888059,1.306680,9.000000,0.298508,36.951284,0.500000,9.167817,1.000000,300.000000,0.782848,9.000000,0.000000,180.029546,9.845556,1.713932,1.000000,1
/home/daniel/Projects/ppsevolution/data/maps/custom_maps/Custom_4_Run_0_Map.csv,squared_error,1.9323702117617565e-07,0.5006,0.7201,0.475029,0.866002,0.056274,0.223145,0.206731,0.000000,0.898585,2.000000,1.000000,0.000000,0.008524,0.000000,0.667397,0.898231,0.000000,0.000000,208.130037,1.254961,16.934600,0.223145,42.139551,0.500000,9.087264,2.000000,300.000000,0.770000,10.201851,0.000000,133.812084,9.033198,1.000000,0.000000,2
/home/daniel/Projects/ppsevolution/data/maps/custom_maps/Custom_4_Run_0_Map.csv,squared_error,9.019025991648371e-07,0.5013,0.7204,0.427981,0.636263,0.000000,0.331279,0.051371,0.030000,0.608572,0.000000,1.000000,0.079012,0.000000,0.000000,0.824372,0.982201,0.000000,1.000000,199.896754,1.126307,9.000000,0.331279,11.222823,0.785000,6.477151,0.000000,300.000000,0.814247,9.000000,0.000000,165.050125,9.830906,1.000000,1.000000,3
/home/daniel/Projects/ppsevolution/data/maps/custom_maps/Custom_4_Run_0_Map.csv,squared_error,2.0717727762758916e-07,0.5005,0.7204,0.471042,1.000000,0.000000,0.314237,0.158280,0.118507,0.804281,0.000000,1.000000,0.000000,0.000000,0.000000,1.000000,1.000000,0.163795,2.000000,207.432288,1.330000,9.000000,0.314237,32.497622,1.625815,8.238528,0.000000,300.000000,0.770000,9.000000,0.000000,200.000000,10.000000,2.474151,2.000000,4
/home/daniel/Projects/ppsevolution/data/maps/custom_maps/Custom_4_Run_0_Map.csv,squared_error,9.090123695615292e-08,0.5002,0.7204,0.465302,1.000000,0.000000,0.304649,0.097694,0.000000,0.806042,1.000000,1.000000,0.000000,0.000000,0.000000,0.821536,1.000000,0.107392,2.000000,206.427896,1.330000,9.000000,0.304649,20.441065,0.500000,8.254374,1.000000,300.000000,0.770000,9.000000,0.000000,164.485622,10.000000,1.966531,2.000000,5
/home/daniel/Projects/ppsevolution/data/maps/custom_maps/Custom_4_Run_0_Map.csv,squared_error,7.160361133003284e-07,0.4988,0.7198,0.451766,1.000000,0.000000,0.304724,0.155506,0.201067,0.891733,0.000000,1.000000,0.063786,0.000000,0.012120,1.000000,0.877931,0.000000,2.000000,204.059077,1.330000,9.000000,0.304724,31.945740,2.410139,9.025597,0.000000,300.000000,0.805720,9.000000,0.012120,200.000000,8.840345,1.000000,2.000000,6
/home/daniel/Projects/ppsevolution/data/maps/custom_maps/Custom_4_Run_0_Map.csv,squared_error,1.6440124751397609e-07,0.5006,0.7199,0.429106,0.950110,0.000000,0.330183,0.000000,0.228704,0.649158,0.000000,1.000000,0.201370,0.000000,0.000000,0.842480,0.935236,0.017001,1.000000,200.093488,1.302061,9.000000,0.330183,1.000000,2.672687,6.842422,0.000000,300.000000,0.882767,9.000000,0.000000,168.653540,9.384744,1.153011,1.000000,7
/home/daniel/Projects/ppsevolution/data/maps/custom_maps/Custom_4_Run_0_Map.csv,squared_error,4.637561595728558e-07,0.4999,0.7190,0.538715,0.827288,0.000000,0.265859,0.121787,0.000000,0.913239,2.000000,0.941053,0.093050,0.000000,0.000000,0.912368,0.967092,0.363659,2.000000,219.275074,1.233281,9.000000,0.265859,25.235706,0.500000,9.219155,2.000000,289.684230,0.822108,9.000000,0.000000,182.561172,9.687373,4.272929,2.000000,8
/home/daniel/Projects/ppsevolution/data/maps/custom_maps/Custom_4_Run_0_Map.csv,squared_error,5.696180252819534e-07,0.4997,0.7210,0.502350,0.970677,0.014964,0.268456,0.033714,0.032078,0.995610,0.000000,0.969941,0.203916,0.000000,0.021251,1.000000,0.854406,0.151572,0.000000,212.911272,1.313579,11.109954,0.268456,7.709053,0.804745,9.960490,0.000000,294.739704,0.884193,9.000000,0.021251,200.000000,8.616853,2.364151,0.000000,9
map,fitness,fitness value,team0ratio,time,HP,Speed,Damage,Acc,ClipSize,RateOfFire,NrBullets,Range,HP,Speed,Damage,Acc,ClipSize,RateOfFire,NrBullets,Range,HP,Speed,Damage,Acc,ClipSize,RateOfFire,NrBullets,Range,HP,Speed,Damage,Acc,ClipSize,RateOfFire,NrBullets,Range,Run,target team0ratio: 0.5,target time: 0.72
/home/daniel/Projects/ppsevolution/data/maps/custom_maps/Custom_5_Run_0_Map.csv,squared_error,9.499405365261425e-07,0.5013,0.7205,0.404532,1.000000,0.008837,0.443824,0.000000,0.000000,0.732051,1.000000,1.000000,0.385342,0.000000,0.204787,0.953133,0.792372,0.068186,0.000000,195.793077,1.330000,10.246011,0.443824,1.000000,0.500000,7.588458,1.000000,300.000000,0.985792,9.000000,0.204787,190.673394,8.027536,1.613671,0.000000,0
/home/daniel/Projects/ppsevolution/data/maps/custom_maps/Custom_5_Run_0_Map.csv,squared_error,2.74569782875045e-07,0.4994,0.7204,0.760472,0.954028,0.000000,0.421780,0.030236,0.000000,0.756515,2.000000,1.000000,0.048691,0.071284,0.299471,1.000000,0.985302,0.002870,0.000000,258.082679,1.304256,9.000000,0.421780,7.017047,0.500000,7.808633,2.000000,300.000000,0.797267,19.051067,0.299471,200.000000,9.860365,1.025830,0.000000,1
/home/daniel/Projects/ppsevolution/data/maps/custom_maps/Custom_5_Run_0_Map.csv,squared_error,1.9443644751219464e-07,0.4995,0.7197,0.300474,0.892353,0.000000,0.459373,0.160126,0.077311,0.755611,0.000000,1.000000,0.000000,0.000000,0.177851,1.000000,1.000000,0.000000,0.000000,177.583032,1.269717,9.000000,0.459373,32.865032,1.234454,7.800497,0.000000,300.000000,0.770000,9.000000,0.177851,200.000000,10.000000,1.000000,0.000000,2
/home/daniel/Projects/ppsevolution/data/maps/custom_maps/Custom_5_Run_0_Map.csv,squared_error,4.945654425910242e-07,0.5009,0.7205,0.582497,1.000000,0.041158,0.388366,0.188700,0.000000,0.697205,0.000000,0.961878,0.040660,0.000000,0.290753,1.000000,0.810181,0.000000,2.000000,226.937053,1.330000,14.803282,0.388366,38.551236,0.500000,7.274849,0.000000,293.328653,0.792769,9.000000,0.290753,200.000000,8.196722,1.000000,2.000000,3
/home/daniel/Projects/ppsevolution/data/maps/custom_maps/Custom_5_Run_0_Map.csv,squared_error,6.450600706101755e-08,0.5000,0.7196,0.448077,0.968782,0.000000,0.434203,0.073821,0.121937,0.868018,1.000000,1.000000,0.126233,0.036719,0.187291,0.993636,0.789330,0.000000,2.000000,203.413489,1.312518,9.000000,0.434203,15.690348,1.658398,8.812164,1.000000,300.000000,0.840690,14.177403,0.187291,198.733663,7.998631,1.000000,2.000000,4
/home/daniel/Projects/ppsevolution/data/maps/custom_maps/Custom_5_Run_0_Map.csv,squared_error,5.070236746547622e-07,0.4990,0.7201,0.175643,0.756047,0.000000,0.430387,0.000000,0.000000,1.000000,2.000000,1.000000,0.024011,0.006626,0.086723,1.000000,1.000000,0.000000,1.000000,155.737464,1.193386,9.000000,0.430387,1.000000,0.500000,10.000000,2.000000,300.000000,0.783446,9.934264,0.086723,200.000000,10.000000,1.000000,1.000000,5
/home/daniel/Projects/ppsevolution/data/maps/custom_maps/Custom_5_Run_0_Map.csv,squared_error,4.2757194206617277e-07,0.5005,0.7208,0.466404,0.846096,0.014397,0.344134,0.010451,0.056184,0.961635,0.000000,0.823306,0.000000,0.000000,0.229991,1.000000,0.914653,0.124845,1.000000,206.620644,1.243814,11.030007,0.344134,3.079725,1.033750,9.654718,0.000000,269.078465,0.770000,9.000000,0.229991,200.000000,9.189203,2.123604,1.000000,6
/home/daniel/Projects/ppsevolution/data/maps/custom_maps/Custom_5_Run_0_Map.csv,squared_error,8.226345282309613e-07,0.4994,0.7188,0.095313,0.903306,0.019285,0.440001,0.040971,0.150148,0.706961,2.000000,1.000000,0.029328,0.000000,0.050562,0.923698,0.866803,0.053475,2.000000,141.679693,1.275852,11.719139,0.440001,9.153197,1.926407,7.362648,2.000000,300.000000,0.786424,9.000000,0.050562,184.815841,8.734630,1.481275,2.000000,7
/home/daniel/Projects/ppsevolution/data/maps/custom_maps/Custom_5_Run_0_Map.csv,squared_error,6.735742146986503e-07,0.5012,0.7201,0.343741,0.970059,0.000000,0.427548,0.360925,0.001703,0.806193,1.000000,0.958788,0.000000,0.000000,0.180068,1.000000,0.881174,0.000000,2.000000,185.154689,1.313233,9.000000,0.427548,72.824110,0.516183,8.255735,1.000000,292.787819,0.770000,9.000000,0.180068,200.000000,8.871149,1.000000,2.000000,8
/home/daniel/Projects/ppsevolution/data/maps/custom_maps/Custom_5_Run_0_Map.csv,squared_error,2.047221183516874e-07,0.4995,0.7196,0.613692,0.943941,0.070418,0.341509,0.000000,0.188439,0.959913,1.000000,1.000000,0.000000,0.000000,0.295346,1.000000,0.919124,0.069236,0.000000,232.396140,1.298607,18.928994,0.341509,1.000000,2.290167,9.639213,1.000000,300.000000,0.770000,9.000000,0.295346,200.000000,9.231680,1.623123,0.000000,9
map,fitness,fitness value,team0ratio,time,HP,Speed,Damage,Acc,ClipSize,RateOfFire,NrBullets,Range,HP,Speed,Damage,Acc,ClipSize,RateOfFire,NrBullets,Range,HP,Speed,Damage,Acc,ClipSize,RateOfFire,NrBullets,Range,HP,Speed,Damage,Acc,ClipSize,RateOfFire,NrBullets,Range,Run,target team0ratio: 0.5,target time: 0.72
/home/daniel/Projects/ppsevolution/data/maps/custom_maps/Custom_6_Run_0_Map.csv,squared_error,4.7574563098611004e-08,0.4997,0.7202,0.137120,0.734363,0.210000,0.619545,0.000000,0.135724,0.768220,1.000000,1.000000,0.007205,0.000000,0.555734,0.958511,1.000000,0.000000,0.000000,148.996065,1.181243,38.610000,0.619545,1.000000,1.789375,7.913983,1.000000,300.000000,0.774035,9.000000,0.555734,191.743699,10.000000,1.000000,0.000000,0
/home/daniel/Projects/ppsevolution/data/maps/custom_maps/Custom_6_Run_0_Map.csv,squared_error,2.0247667931700192e-07,0.5003,0.7205,0.086729,0.847299,0.109127,0.655555,0.000000,0.000000,1.000000,1.000000,0.939249,0.114932,0.000000,0.539512,0.933039,1.000000,0.000000,0.000000,140.177536,1.244487,24.386884,0.655555,1.000000,0.500000,10.000000,1.000000,289.368532,0.834362,9.000000,0.539512,186.674835,10.000000,1.000000,0.000000,1
/home/daniel/Projects/ppsevolution/data/maps/custom_maps/Custom_6_Run_0_Map.csv,squared_error,3.491984189026401e-06,0.4982,0.7180,0.202029,1.000000,0.199808,0.621477,0.016480,0.161776,0.777560,2.000000,1.000000,0.068687,0.000000,0.578039,1.000000,1.000000,0.000000,0.000000,160.355079,1.330000,37.172983,0.621477,4.279594,2.036868,7.998043,2.000000,300.000000,0.808465,9.000000,0.578039,200.000000,10.000000,1.000000,0.000000,2
/home/daniel/Projects/ppsevolution/data/maps/custom_maps/Custom_6_Run_0_Map.csv,squared_error,2.3547838784738294e-07,0.5002,0.7207,0.069501,1.000000,0.210000,0.587480,0.085313,0.000000,0.835928,2.000000,0.914142,0.000000,0.000000,0.534467,1.000000,0.919368,0.000000,0.000000,137.162672,1.330000,38.610000,0.587480,17.977266,0.500000,8.523351,2.000000,284.974898,0.770000,9.000000,0.534467,200.000000,9.233993,1.000000,0.000000,3
/home/daniel/Projects/ppsevolution/data/maps/custom_maps/Custom_6_Run_0_Map.csv,squared_error,8.289430182458151e-07,0.4987,0.7202,0.146187,1.000000,0.097739,0.676334,0.126248,0.000000,0.908489,1.000000,0.965741,0.000000,0.081017,0.503599,1.000000,0.780246,0.103291,0.000000,150.582810,1.330000,22.781230,0.676334,26.123281,0.500000,9.176402,1.000000,294.004686,0.770000,20.423449,0.503599,200.000000,7.912340,1.929616,0.000000,4
/home/daniel/Projects/ppsevolution/data/maps/custom_maps/Custom_6_Run_0_Map.csv,squared_error,5.068771768719434e-07,0.5005,0.7191,0.244978,0.813086,0.039645,0.688845,0.090649,0.060306,0.825361,0.000000,0.832996,0.000000,0.000000,0.600000,1.000000,0.699879,0.077063,0.000000,167.871094,1.225328,14.590000,0.688845,19.039069,1.072909,8.428245,0.000000,270.774292,0.770000,9.000000,0.600000,200.000000,7.148854,1.693566,0.000000,5
/home/daniel/Projects/ppsevolution/data/maps/custom_maps/Custom_6_Run_0_Map.csv,squared_error,3.163339398498217e-08,0.5000,0.7202,0.113788,1.000000,0.141203,0.653258,0.086734,0.030000,1.000000,0.000000,1.000000,0.000000,0.000000,0.546903,0.806010,0.954939,0.000000,0.000000,144.912957,1.330000,28.909605,0.653258,18.260148,0.785000,10.000000,0.000000,300.000000,0.770000,9.000000,0.546903,161.395903,9.571917,1.000000,0.000000,6
/home/daniel/Projects/ppsevolution/data/maps/custom_maps/Custom_6_Run_0_Map.csv,squared_error,2.575498347397433e-07,0.5006,0.7203,0.262721,1.000000,0.081487,0.686737,0.002815,0.000000,0.931994,0.000000,1.000000,0.019426,0.000000,0.588335,0.972556,0.887043,0.000000,1.000000,170.976151,1.330000,20.489626,0.686737,1.560206,0.500000,9.387947,0.000000,300.000000,0.780878,9.000000,0.588335,194.538672,8.926906,1.000000,1.000000,7
/home/daniel/Projects/ppsevolution/data/maps/custom_maps/Custom_6_Run_0_Map.csv,squared_error,8.11647400496333e-08,0.5000,0.7196,0.000000,0.768602,0.142287,0.669958,0.136756,0.002318,0.848275,0.000000,0.968810,0.072040,0.009908,0.515451,0.697767,0.917081,0.055153,2.000000,125.000000,1.200417,29.062502,0.669958,28.214441,0.522024,8.634475,0.000000,294.541776,0.810343,10.397012,0.515451,139.855687,9.212272,1.496373,2.000000,8
/home/daniel/Projects/ppsevolution/data/maps/custom_maps/Custom_6_Run_0_Map.csv,squared_error,5.8404397816509786e-08,0.4998,0.7203,0.091263,1.000000,0.345843,0.509206,0.054356,0.122030,0.701035,2.000000,0.966009,0.000000,0.000000,0.516482,1.000000,1.000000,0.216279,1.000000,140.971106,1.330000,57.763922,0.509206,11.816899,1.659289,7.309318,2.000000,294.051600,0.770000,9.000000,0.516482,200.000000,10.000000,2.946512,1.000000,9
map,fitness,fitness value,team0ratio,time,HP,Speed,Damage,Acc,ClipSize,RateOfFire,NrBullets,Range,HP,Speed,Damage,Acc,ClipSize,RateOfFire,NrBullets,Range,HP,Speed,Damage,Acc,ClipSize,RateOfFire,NrBullets,Range,HP,Speed,Damage,Acc,ClipSize,RateOfFire,NrBullets,Range,Run,target team0ratio: 0.5,target time: 0.72
/home/daniel/Projects/ppsevolution/data/maps/custom_maps/Custom_7_Run_0_Map.csv,squared_error,3.6288994278948875e-07,0.4992,0.7204,0.411042,1.000000,0.008716,0.472643,0.109574,0.141264,0.918141,2.000000,0.925905,0.023651,0.000000,0.293748,1.000000,0.956883,0.193414,2.000000,196.932300,1.330000,10.228925,0.472643,22.805161,1.842004,9.263273,2.000000,287.033432,0.783245,9.000000,0.293748,200.000000,9.590391,2.740727,2.000000,0
/home/daniel/Projects/ppsevolution/data/maps/custom_maps/Custom_7_Run_0_Map.csv,squared_error,6.36124123457174e-07,0.4991,0.7193,0.236977,0.961972,0.110208,0.339249,0.000000,0.002860,0.982432,1.000000,0.783606,0.049815,0.004906,0.226710,0.784621,0.939522,0.214550,1.000000,166.471005,1.308704,24.539299,0.339249,1.000000,0.527173,9.841886,1.000000,262.131078,0.797896,9.691730,0.226710,157.139485,9.425461,2.930950,1.000000,1
/home/daniel/Projects/ppsevolution/data/maps/custom_maps/Custom_7_Run_0_Map.csv,squared_error,1.1899516705399393e-07,0.5001,0.7205,0.403631,0.918241,0.210000,0.311337,0.092316,0.071333,1.000000,0.000000,1.000000,0.030065,0.000000,0.310539,1.000000,1.000000,0.000000,2.000000,195.635416,1.284215,38.610000,0.311337,19.370962,1.177661,10.000000,0.000000,300.000000,0.786837,9.000000,0.310539,200.000000,10.000000,1.000000,2.000000,2
/home/daniel/Projects/ppsevolution/data/maps/custom_maps/Custom_7_Run_0_Map.csv,squared_error,2.7015017208213266e-07,0.4993,0.7197,0.337215,0.888147,0.000000,0.512181,0.247646,0.000000,0.955038,1.000000,1.000000,0.262785,0.073932,0.210547,1.000000,1.000000,0.000000,0.000000,184.012688,1.267362,9.000000,0.512181,50.281640,0.500000,9.595342,1.000000,300.000000,0.917160,19.424432,0.210547,200.000000,10.000000,1.000000,0.000000,3
/home/daniel/Projects/ppsevolution/data/maps/custom_maps/Custom_7_Run_0_Map.csv,squared_error,2.61798555954589e-07,0.4993,0.7202,0.129832,1.000000,0.233285,0.294042,0.000000,0.000000,1.000000,1.000000,1.000000,0.000000,0.000000,0.185690,0.875521,1.000000,0.000000,0.000000,147.720683,1.330000,41.893217,0.294042,1.000000,0.500000,10.000000,1.000000,300.000000,0.770000,9.000000,0.185690,175.228648,10.000000,1.000000,0.000000,4
/home/daniel/Projects/ppsevolution/data/maps/custom_maps/Custom_7_Run_0_Map.csv,squared_error,1.9108175889642822e-07,0.5004,0.7204,0.233398,1.000000,0.000000,0.538329,0.056905,0.076634,0.759271,1.000000,1.000000,0.212315,0.096358,0.136203,0.896200,1.000000,0.093694,2.000000,165.844662,1.330000,9.000000,0.538329,12.324085,1.228023,7.833437,1.000000,300.000000,0.888896,22.586418,0.136203,179.343774,10.000000,1.843247,2.000000,5
/home/daniel/Projects/ppsevolution/data/maps/custom_maps/Custom_7_Run_0_Map.csv,squared_error,5.965172674222933e-07,0.5008,0.7192,0.243027,0.936007,0.000000,0.540357,0.030000,0.146108,0.720522,1.000000,1.000000,0.150276,0.000000,0.252395,1.000000,1.000000,0.000000,2.000000,167.529641,1.294164,9.000000,0.540357,6.970000,1.888026,7.484698,1.000000,300.000000,0.854155,9.000000,0.252395,200.000000,10.000000,1.000000,2.000000,6
/home/daniel/Projects/ppsevolution/data/maps/custom_maps/Custom_7_Run_0_Map.csv,squared_error,2.3278193140258543e-07,0.4996,0.7206,0.335829,0.772141,0.043902,0.482303,0.000000,0.043487,0.916814,0.000000,0.995404,0.025124,0.000000,0.286970,1.000000,0.976604,0.000000,2.000000,183.770140,1.202399,15.190142,0.482303,1.000000,0.913131,9.251328,0.000000,299.195754,0.784070,9.000000,0.286970,200.000000,9.777738,1.000000,2.000000,7
/home/daniel/Projects/ppsevolution/data/maps/custom_maps/Custom_7_Run_0_Map.csv,squared_error,9.913828562531227e-07,0.5008,0.7188,0.171247,1.000000,0.000000,0.514027,0.161779,0.018962,1.000000,0.000000,0.943041,0.024590,0.000000,0.228060,0.932093,0.820451,0.000000,2.000000,154.968226,1.330000,9.000000,0.514027,33.193971,0.680136,10.000000,0.000000,290.032222,0.783771,9.000000,0.228060,186.486450,8.294280,1.000000,2.000000,8
/home/daniel/Projects/ppsevolution/data/maps/custom_maps/Custom_7_Run_0_Map.csv,squared_error,2.43969348244367e-07,0.5006,0.7196,0.211167,0.884009,0.130521,0.402309,0.048362,0.000000,1.000000,0.000000,1.000000,0.000000,0.000000,0.212555,0.880497,0.948802,0.150335,0.000000,161.954207,1.265045,27.403468,0.402309,10.624127,0.500000,10.000000,0.000000,300.000000,0.770000,9.000000,0.212555,176.218822,9.513621,2.353019,0.000000,9
map,fitness,fitness value,team0ratio,time,HP,Speed,Damage,Acc,ClipSize,RateOfFire,NrBullets,Range,HP,Speed,Damage,Acc,ClipSize,RateOfFire,NrBullets,Range,HP,Speed,Damage,Acc,ClipSize,RateOfFire,NrBullets,Range,HP,Speed,Damage,Acc,ClipSize,RateOfFire,NrBullets,Range,Run,target team0ratio: 0.5,target time: 0.72
/home/daniel/Projects/ppsevolution/data/maps/custom_maps/Custom_8_Run_0_Map.csv,squared_error,1.0612418917047552e-07,0.5002,0.7196,0.376607,0.860083,0.007654,0.335724,0.023722,0.000000,0.920237,1.000000,0.943464,0.306894,0.079691,0.000000,0.796957,0.836452,0.066375,0.000000,190.906144,1.251646,10.079271,0.335724,5.720768,0.500000,9.282130,1.000000,290.106115,0.941861,20.236445,0.000000,159.594428,8.446289,1.597372,0.000000,0
/home/daniel/Projects/ppsevolution/data/maps/custom_maps/Custom_8_Run_0_Map.csv,squared_error,7.759385956944586e-08,0.4996,0.7200,0.563789,0.986227,0.150839,0.168800,0.000000,0.000000,0.875475,1.000000,0.955134,0.000000,0.023368,0.137934,0.862663,1.000000,0.104748,2.000000,223.663086,1.322287,30.268339,0.168800,1.000000,0.500000,8.879272,1.000000,292.148409,0.770000,12.294925,0.137934,172.669857,10.000000,1.942735,2.000000,1
/home/daniel/Projects/ppsevolution/data/maps/custom_maps/Custom_8_Run_0_Map.csv,squared_error,5.054186085658111e-07,0.5006,0.7192,0.312038,0.969101,0.000000,0.388445,0.000000,0.000000,0.699606,0.000000,0.976347,0.000000,0.000000,0.073483,1.000000,0.960008,0.030258,2.000000,179.606730,1.312696,9.000000,0.388445,1.000000,0.500000,7.296452,0.000000,295.860754,0.770000,9.000000,0.073483,200.000000,9.620078,1.272319,2.000000,2
/home/daniel/Projects/ppsevolution/data/maps/custom_maps/Custom_8_Run_0_Map.csv,squared_error,1.2818721164194558e-06,0.5014,0.7208,0.372686,1.000000,0.000000,0.312109,0.000000,0.078061,1.000000,0.000000,0.861184,0.347213,0.000000,0.094181,0.946406,0.884138,0.026274,1.000000,190.219982,1.330000,9.000000,0.312109,1.000000,1.241579,10.000000,0.000000,275.707146,0.964439,9.000000,0.094181,189.334699,8.899311,1.236468,1.000000,3
/home/daniel/Projects/ppsevolution/data/maps/custom_maps/Custom_8_Run_0_Map.csv,squared_error,7.680032057606937e-07,0.5012,0.7201,0.243835,1.000000,0.000000,0.373813,0.000000,0.040060,0.991105,0.000000,1.000000,0.000000,0.000000,0.033394,0.946428,1.000000,0.000000,2.000000,167.671204,1.330000,9.000000,0.373813,1.000000,0.880574,9.919942,0.000000,300.000000,0.770000,9.000000,0.033394,189.339103,10.000000,1.000000,2.000000,4
/home/daniel/Projects/ppsevolution/data/maps/custom_maps/Custom_8_Run_0_Map.csv,squared_error,3.617918646455223e-07,0.5007,0.7204,0.331153,0.957449,0.000000,0.384316,0.258092,0.090963,0.714412,1.000000,1.000000,0.000000,0.000000,0.056059,1.000000,0.878926,0.195371,0.000000,182.951838,1.306172,9.000000,0.384316,52.360242,1.364148,7.429708,1.000000,300.000000,0.770000,9.000000,0.056059,200.000000,8.849795,2.758342,0.000000,5
/home/daniel/Projects/ppsevolution/data/maps/custom_maps/Custom_8_Run_0_Map.csv,squared_error,5.923012166136194e-08,0.4997,0.7202,0.306657,1.000000,0.000000,0.398058,0.169264,0.074116,0.713702,0.000000,1.000000,0.880326,0.030323,0.000000,0.809701,1.000000,0.265303,0.000000,178.664939,1.330000,9.000000,0.398058,34.683512,1.204098,7.423317,0.000000,300.000000,1.262982,13.275503,0.000000,162.130452,10.000000,3.387724,0.000000,6
/home/daniel/Projects/ppsevolution/data/maps/custom_maps/Custom_8_Run_0_Map.csv,squared_error,3.605193824370002e-07,0.5005,0.7193,0.483635,0.818518,0.095458,0.238568,0.369374,0.190086,0.963282,2.000000,1.000000,0.141630,0.104516,0.000000,0.647541,0.966787,0.027025,1.000000,209.636175,1.228370,22.459568,0.238568,74.505512,2.305821,9.669537,2.000000,300.000000,0.849313,23.736804,0.000000,129.860687,9.684472,1.243225,1.000000,7
/home/daniel/Projects/ppsevolution/data/maps/custom_maps/Custom_8_Run_0_Map.csv,squared_error,8.499950125154824e-08,0.5000,0.7196,0.465553,0.991219,0.000000,0.317852,0.028245,0.126585,0.879844,0.000000,0.883818,0.000000,0.000000,0.148123,0.714177,1.000000,0.000000,1.000000,206.471821,1.325082,9.000000,0.317852,6.620732,1.702560,8.918592,0.000000,279.668165,0.770000,9.000000,0.148123,143.121178,10.000000,1.000000,1.000000,8
/home/daniel/Projects/ppsevolution/data/maps/custom_maps/Custom_8_Run_0_Map.csv,squared_error,4.166008234392589e-07,0.5005,0.7207,0.446377,0.923613,0.000000,0.363753,0.000000,0.000000,0.914624,1.000000,1.000000,0.262216,0.008246,0.108155,1.000000,0.707610,0.078106,1.000000,203.115961,1.287223,9.000000,0.363753,1.000000,0.500000,9.231612,1.000000,300.000000,0.916841,10.162696,0.108155,200.000000,7.222297,1.702955,1.000000,9
map,fitness,fitness value,team0ratio,time,HP,Speed,Damage,Acc,ClipSize,RateOfFire,NrBullets,Range,HP,Speed,Damage,Acc,ClipSize,RateOfFire,NrBullets,Range,HP,Speed,Damage,Acc,ClipSize,RateOfFire,NrBullets,Range,HP,Speed,Damage,Acc,ClipSize,RateOfFire,NrBullets,Range,Run,target team0ratio: 0.5,target time: 0.72
/home/daniel/Projects/ppsevolution/data/maps/custom_maps/Custom_9_Run_0_Map.csv,squared_error,2.1082920353593136e-07,0.4994,0.7203,0.498259,0.657961,0.021866,0.177337,0.350694,0.042554,0.636940,2.000000,1.000000,0.046578,0.000000,0.000000,0.867779,1.000000,0.000000,0.000000,212.195259,1.138458,12.083145,0.177337,70.788048,0.904266,6.732464,2.000000,300.000000,0.796084,9.000000,0.000000,173.687955,10.000000,1.000000,0.000000,0
/home/daniel/Projects/ppsevolution/data/maps/custom_maps/Custom_9_Run_0_Map.csv,squared_error,4.752286692173611e-07,0.4999,0.7190,0.689984,0.920783,0.000000,0.119171,0.189917,0.016945,0.625887,1.000000,0.789774,0.000000,0.088327,0.000000,1.000000,0.788984,0.105525,2.000000,245.747214,1.285638,9.000000,0.119171,38.793562,0.660980,6.632985,1.000000,263.210449,0.770000,21.454167,0.000000,200.000000,7.995346,1.949728,2.000000,1
/home/daniel/Projects/ppsevolution/data/maps/custom_maps/Custom_9_Run_0_Map.csv,squared_error,3.928447059394286e-07,0.5006,0.7207,0.594162,0.896984,0.015108,0.142801,0.000000,0.000000,0.984982,1.000000,0.953998,0.394493,0.000000,0.051797,1.000000,0.591742,0.000000,2.000000,228.978315,1.272311,11.130206,0.142801,1.000000,0.500000,9.864842,1.000000,291.949631,0.990916,9.000000,0.051797,200.000000,6.121552,1.000000,2.000000,2
/home/daniel/Projects/ppsevolution/data/maps/custom_maps/Custom_9_Run_0_Map.csv,squared_error,5.379066449513844e-07,0.4990,0.7197,0.601332,0.805232,0.000000,0.189285,0.000000,0.138236,0.945088,0.000000,1.000000,0.384287,0.000000,0.052143,0.931186,0.853834,0.039322,2.000000,230.233082,1.220930,9.000000,0.189285,1.000000,1.813237,9.505796,0.000000,300.000000,0.985200,9.000000,0.052143,186.305960,8.611423,1.353898,2.000000,3
/home/daniel/Projects/ppsevolution/data/maps/custom_maps/Custom_9_Run_0_Map.csv,squared_error,2.922766289799312e-07,0.5004,0.7194,0.634427,0.897978,0.000000,0.206296,0.047296,0.020460,0.752902,0.000000,1.000000,0.025538,0.000000,0.088434,1.000000,0.788410,0.023476,0.000000,236.024656,1.272868,9.000000,0.206296,10.411937,0.694372,7.776114,0.000000,300.000000,0.784301,9.000000,0.088434,200.000000,7.989896,1.211284,0.000000,4
/home/daniel/Projects/ppsevolution/data/maps/custom_maps/Custom_9_Run_0_Map.csv,squared_error,1.6585214551129579e-07,0.5000,0.7206,0.639819,0.847626,0.000000,0.199037,0.095019,0.000000,0.683594,0.000000,0.964628,0.351250,0.000000,0.072155,1.000000,0.944862,0.098316,1.000000,236.968380,1.244670,9.000000,0.199037,19.908850,0.500000,7.152342,0.000000,293.809893,0.966700,9.000000,0.072155,200.000000,9.476193,1.884848,1.000000,5
/home/daniel/Projects/ppsevolution/data/maps/custom_maps/Custom_9_Run_0_Map.csv,squared_error,6.180976185995073e-07,0.4998,0.7211,0.499985,0.769228,0.000000,0.166072,0.202603,0.091173,1.000000,0.000000,0.968615,0.135811,0.000000,0.000000,0.719989,0.991698,0.000896,2.000000,212.497302,1.200768,9.000000,0.166072,41.317986,1.366139,10.000000,0.000000,294.507595,0.846054,9.000000,0.000000,144.277805,9.921129,1.008063,2.000000,6
/home/daniel/Projects/ppsevolution/data/maps/custom_maps/Custom_9_Run_0_Map.csv,squared_error,7.477509998040167e-07,0.5010,0.7207,0.515805,1.000000,0.000000,0.170184,0.000000,0.211813,0.708479,1.000000,0.900266,0.314626,0.000000,0.000000,1.000000,0.961655,0.104433,2.000000,215.265857,1.330000,9.000000,0.170184,1.000000,2.512225,7.376315,1.000000,282.546547,0.946190,9.000000,0.000000,200.000000,9.635723,1.939901,2.000000,7
/home/daniel/Projects/ppsevolution/data/maps/custom_maps/Custom_9_Run_0_Map.csv,squared_error,8.743892960864437e-08,0.5003,0.7197,0.655068,0.990654,0.000000,0.194074,0.049966,0.000000,0.774499,1.000000,0.996087,0.299364,0.000000,0.088685,0.824271,0.852342,0.000000,1.000000,239.636889,1.324766,9.000000,0.194074,10.943201,0.500000,7.970495,1.000000,299.315212,0.937644,9.000000,0.088685,165.029964,8.597248,1.000000,1.000000,8
/home/daniel/Projects/ppsevolution/data/maps/custom_maps/Custom_9_Run_0_Map.csv,squared_error,1.326238368911094e-07,0.4997,0.7204,0.526156,0.986843,0.174844,0.000000,0.102587,0.000000,0.734992,0.000000,0.991240,0.326367,0.000000,0.000000,0.910375,0.825955,0.124932,2.000000,217.077279,1.322632,33.653070,0.000000,21.414719,0.500000,7.614932,0.000000,298.467024,0.952765,9.000000,0.000000,182.164639,8.346572,2.124391,2.000000,9
map,fitness,fitness value,team0ratio,time,HP,Speed,Damage,Acc,ClipSize,RateOfFire,NrBullets,Range,HP,Speed,Damage,Acc,ClipSize,RateOfFire,NrBullets,Range,HP,Speed,Damage,Acc,ClipSize,RateOfFire,NrBullets,Range,HP,Speed,Damage,Acc,ClipSize,RateOfFire,NrBullets,Range,Run,target team0ratio: 0.5,target time: 0.72
/home/daniel/Projects/ppsevolution/data/maps/custom_maps/Custom_10_Run_0_Map.csv,squared_error,7.000651569029723e-07,0.4991,0.7208,0.306546,0.864526,0.009922,0.428753,0.030000,0.228356,0.643240,0.000000,0.834057,0.000000,0.000000,0.189951,1.000000,0.484466,0.297061,2.000000,178.645610,1.254134,10.398994,0.428753,6.970000,2.669381,6.789163,0.000000,270.960059,0.770000,9.000000,0.189951,200.000000,5.102429,3.673551,2.000000,0
/home/daniel/Projects/ppsevolution/data/maps/custom_maps/Custom_10_Run_0_Map.csv,squared_error,5.893092474281254e-07,0.4992,0.7208,0.515529,0.974239,0.000000,0.500138,0.000000,0.000000,0.536581,0.000000,1.000000,0.000000,0.000000,0.333856,0.757886,0.909608,0.000000,0.000000,215.217527,1.315574,9.000000,0.500138,1.000000,0.500000,5.829229,0.000000,300.000000,0.770000,9.000000,0.333856,151.819257,9.141273,1.000000,0.000000,1
/home/daniel/Projects/ppsevolution/data/maps/custom_maps/Custom_10_Run_0_Map.csv,squared_error,8.408682902044321e-08,0.4997,0.7203,0.000000,0.872383,0.000000,0.494124,0.247631,0.151321,0.894750,0.000000,1.000000,0.153349,0.000000,0.071727,1.000000,0.966768,0.000000,2.000000,125.000000,1.258535,9.000000,0.494124,50.278609,1.937549,9.052748,0.000000,300.000000,0.855876,9.000000,0.071727,200.000000,9.684292,1.000000,2.000000,2
/home/daniel/Projects/ppsevolution/data/maps/custom_maps/Custom_10_Run_0_Map.csv,squared_error,9.009630508500892e-07,0.5004,0.7187,0.350460,1.000000,0.169965,0.306904,0.128524,0.030000,0.871287,1.000000,1.000000,0.000000,0.000000,0.231891,1.000000,0.802589,0.051539,0.000000,186.330529,1.330000,32.965010,0.306904,26.576218,0.785000,8.841583,1.000000,300.000000,0.770000,9.000000,0.231891,200.000000,8.124593,1.463851,0.000000,3
/home/daniel/Projects/ppsevolution/data/maps/custom_maps/Custom_10_Run_0_Map.csv,squared_error,3.8731136774285846e-07,0.5000,0.7191,0.331171,0.734390,0.241146,0.231857,0.000000,0.139022,0.856045,1.000000,1.000000,0.220536,0.000000,0.215942,0.998720,1.000000,0.000000,0.000000,182.955012,1.181258,43.001594,0.231857,1.000000,1.820709,8.704404,1.000000,300.000000,0.893500,9.000000,0.215942,199.745363,10.000000,1.000000,0.000000,4
/home/daniel/Projects/ppsevolution/data/maps/custom_maps/Custom_10_Run_0_Map.csv,squared_error,5.6502130122018286e-08,0.4999,0.7197,0.322650,1.000000,0.000000,0.508428,0.078660,0.000000,0.546095,0.000000,0.993237,0.120628,0.000000,0.248301,0.816072,0.854801,0.000000,0.000000,181.463666,1.330000,9.000000,0.508428,16.653306,0.500000,5.914857,0.000000,298.816438,0.837552,9.000000,0.248301,163.398335,8.620605,1.000000,0.000000,5
/home/daniel/Projects/ppsevolution/data/maps/custom_maps/Custom_10_Run_0_Map.csv,squared_error,3.2533454897246396e-07,0.5006,0.7195,0.363914,1.000000,0.210000,0.268955,0.030000,0.068262,0.860915,0.000000,1.000000,0.000000,0.000000,0.243097,1.000000,0.848496,0.000000,0.000000,188.684965,1.330000,38.610000,0.268955,6.970000,1.148488,8.748231,0.000000,300.000000,0.770000,9.000000,0.243097,200.000000,8.560714,1.000000,0.000000,6
/home/daniel/Projects/ppsevolution/data/maps/custom_maps/Custom_10_Run_0_Map.csv,squared_error,6.390730955103821e-07,0.4998,0.7189,0.198691,1.000000,0.100572,0.374863,0.093629,0.043314,1.000000,1.000000,1.000000,0.107417,0.000000,0.134352,1.000000,0.587821,0.182543,2.000000,159.770868,1.330000,23.180680,0.374863,19.632161,0.911485,10.000000,1.000000,300.000000,0.830153,9.000000,0.134352,200.000000,6.084298,2.642886,2.000000,7
/home/daniel/Projects/ppsevolution/data/maps/custom_maps/Custom_10_Run_0_Map.csv,squared_error,3.529536867291208e-08,0.4999,0.7203,0.479388,0.901221,0.034834,0.420670,0.000000,0.481225,1.000000,1.000000,1.000000,0.000000,0.000000,0.293137,0.892809,1.000000,0.000000,0.000000,208.892874,1.274684,13.911603,0.420670,1.000000,5.071637,10.000000,1.000000,300.000000,0.770000,9.000000,0.293137,178.669021,10.000000,1.000000,0.000000,8
/home/daniel/Projects/ppsevolution/data/maps/custom_maps/Custom_10_Run_0_Map.csv,squared_error,8.019558134016218e-07,0.4988,0.7196,0.620763,0.923044,0.000000,0.468998,0.000000,0.089188,0.611938,0.000000,0.925983,0.169126,0.000000,0.372338,0.978339,0.865509,0.000000,2.000000,233.633580,1.286905,9.000000,0.468998,1.000000,1.347284,6.507445,0.000000,287.046945,0.864711,9.000000,0.372338,195.689551,8.722333,1.000000,2.000000,9
