map,fitness,fitness value,team0ratio,time,HP,Speed,Damage,Acc,ClipSize,RateOfFire,NrBullets,Range,HP,Speed,Damage,Acc,ClipSize,RateOfFire,NrBullets,Range,HP,Speed,Damage,Acc,ClipSize,RateOfFire,NrBullets,Range,HP,Speed,Damage,Acc,ClipSize,RateOfFire,NrBullets,Range,Run,target team0ratio: 0.5,target time: 0.36
/home/daniel/Projects/ppsevolution/data/maps/custom_maps/Custom_1_Run_0_Map.csv,squared_error,1.9687252717439187e-06,0.4980,0.3598,0.000000,0.543414,0.160099,0.641251,0.330922,0.000000,1.000000,2.000000,0.859752,0.000000,0.000000,0.565923,1.000000,0.891866,0.169489,1.000000,125.000000,1.074312,31.574015,0.641251,66.853452,0.500000,10.000000,2.000000,275.456683,0.770000,9.000000,0.565923,200.000000,8.972725,2.525401,1.000000,0
/home/daniel/Projects/ppsevolution/data/maps/custom_maps/Custom_1_Run_0_Map.csv,squared_error,6.342847475440322e-06,0.4971,0.3621,0.000000,0.955442,0.116366,0.692485,0.000000,0.222834,0.957411,2.000000,1.000000,0.025749,0.000000,0.567850,1.000000,1.000000,0.000000,2.000000,125.000000,1.305048,25.407559,0.692485,1.000000,2.616919,9.616695,2.000000,300.000000,0.784420,9.000000,0.567850,200.000000,10.000000,1.000000,2.000000,1
/home/daniel/Projects/ppsevolution/data/maps/custom_maps/Custom_1_Run_0_Map.csv,squared_error,3.1328529400333787e-06,0.5020,0.3614,0.118276,1.000000,0.469014,0.481261,0.426145,0.000000,1.000000,0.000000,0.997785,0.031963,0.000000,0.605669,1.000000,0.893534,0.000000,1.000000,145.698361,1.330000,75.130963,0.481261,85.802920,0.500000,10.000000,0.000000,299.612346,0.787899,9.000000,0.605669,200.000000,8.988576,1.000000,1.000000,2
/home/daniel/Projects/ppsevolution/data/maps/custom_maps/Custom_1_Run_0_Map.csv,squared_error,8.674306269142439e-07,0.4991,0.3591,0.200332,0.978700,0.132564,0.653090,0.000000,0.164120,0.769128,1.000000,0.763956,0.217235,0.090859,0.581329,0.778366,1.000000,0.168802,1.000000,160.058021,1.318072,27.691497,0.653090,1.000000,2.059144,7.922148,1.000000,258.692316,0.891652,21.811101,0.581329,155.894831,10.000000,2.519218,1.000000,3
/home/daniel/Projects/ppsevolution/data/maps/custom_maps/Custom_1_Run_0_Map.csv,squared_error,1.9050024289106854e-05,0.5043,0.3556,0.000000,1.000000,0.018000,0.712689,0.000000,0.000000,0.800185,2.000000,0.787122,0.000000,0.000000,0.552987,1.000000,1.000000,0.395477,2.000000,125.000000,1.330000,11.537935,0.712689,1.000000,0.500000,8.201667,2.000000,262.746361,0.770000,9.000000,0.552987,200.000000,10.000000,4.559294,2.000000,4
/home/daniel/Projects/ppsevolution/data/maps/custom_maps/Custom_1_Run_0_Map.csv,squared_error,2.1153830590272327e-06,0.5011,0.3617,0.017226,1.000000,0.245179,0.606728,0.039224,0.000000,0.995096,2.000000,0.912739,0.025662,0.176815,0.463588,1.000000,0.901978,0.037379,0.000000,128.014592,1.330000,43.570205,0.606728,8.805669,0.500000,9.955861,2.000000,284.729361,0.784370,33.930850,0.463588,200.000000,9.068790,1.336411,0.000000,5
/home/daniel/Projects/ppsevolution/data/maps/custom_maps/Custom_1_Run_0_Map.csv,squared_error,2.43122094374402e-06,0.4989,0.3619,0.042466,1.000000,0.146806,0.687092,0.086240,0.081476,0.915245,1.000000,0.970841,0.163818,0.024761,0.580020,0.881248,0.970534,0.000000,1.000000,132.431587,1.330000,29.699595,0.687092,18.161740,1.274018,9.237209,1.000000,294.897154,0.861738,12.491351,0.580020,176.368304,9.720073,1.000000,1.000000,6
/home/daniel/Projects/ppsevolution/data/maps/custom_maps/Custom_1_Run_0_Map.csv,squared_error,2.6438696049481755e-06,0.4977,0.3597,0.081211,1.000000,0.124891,0.654153,0.039466,0.081994,0.791196,1.000000,0.752726,0.160290,0.121265,0.535352,1.000000,1.000000,0.000000,2.000000,139.211972,1.330000,26.609611,0.654153,8.853659,1.278943,8.120767,1.000000,256.727020,0.859762,26.098360,0.535352,200.000000,10.000000,1.000000,2.000000,7
/home/daniel/Projects/ppsevolution/data/maps/custom_maps/Custom_1_Run_0_Map.csv,squared_error,2.995538335916502e-07,0.5004,0.3593,0.129125,0.948737,0.000000,0.767375,0.095200,0.091345,0.987496,0.000000,1.000000,0.008372,0.326439,0.429336,0.869319,0.886318,0.000000,2.000000,147.596804,1.301293,9.000000,0.767375,19.944806,1.367777,9.887464,0.000000,300.000000,0.774688,55.027877,0.429336,173.994397,8.920020,1.000000,2.000000,8
/home/daniel/Projects/ppsevolution/data/maps/custom_maps/Custom_1_Run_0_Map.csv,squared_error,1.9586797313429115e-05,0.5063,0.3598,0.000000,0.607879,0.229595,0.600218,0.106894,0.144768,0.760801,0.000000,0.669399,0.471418,0.154678,0.507155,1.000000,0.746916,0.000000,0.000000,125.000000,1.110412,41.372961,0.600218,22.271909,1.875291,7.847211,0.000000,242.144892,1.033994,30.809654,0.507155,200.000000,7.595707,1.000000,0.000000,9
map,fitness,fitness value,team0ratio,time,HP,Speed,Damage,Acc,ClipSize,RateOfFire,NrBullets,Range,HP,Speed,Damage,Acc,ClipSize,RateOfFire,NrBullets,Range,HP,Speed,Damage,Acc,ClipSize,RateOfFire,NrBullets,Range,HP,Speed,Damage,Acc,ClipSize,RateOfFire,NrBullets,Range,Run,target team0ratio: 0.5,target time: 0.36
/home/daniel/Projects/ppsevolution/data/maps/custom_maps/Custom_2_Run_0_Map.csv,squared_error,0.0004864836812274615,0.4963,0.3910,0.000000,1.000000,0.662645,1.000000,0.014504,0.000000,1.000000,2.000000,0.517370,0.527710,1.000000,1.000000,1.000000,1.000000,0.613071,2.000000,125.000000,1.330000,102.432979,1.000000,3.886235,0.500000,10.000000,2.000000,215.539681,1.065518,150.000000,1.000000,200.000000,10.000000,6.517637,2.000000,0
/home/daniel/Projects/ppsevolution/data/maps/custom_maps/Custom_2_Run_0_Map.csv,squared_error,0.000499108257955459,0.4967,0.3914,0.000000,0.453582,0.811241,1.000000,0.080864,0.124357,0.786569,2.000000,0.846055,0.678386,1.000000,1.000000,1.000000,1.000000,0.935162,2.000000,125.000000,1.024006,123.385009,1.000000,17.091863,1.681395,8.079125,2.000000,273.059638,1.149896,150.000000,1.000000,200.000000,10.000000,9.416459,2.000000,1
/home/daniel/Projects/ppsevolution/data/maps/custom_maps/Custom_2_Run_0_Map.csv,squared_error,0.0005213912212407973,0.4997,0.3923,0.085170,1.000000,0.776975,1.000000,0.239700,0.000000,1.000000,2.000000,0.766201,0.141078,1.000000,1.000000,0.574380,1.000000,0.883961,2.000000,139.904697,1.330000,118.553478,1.000000,48.700310,0.500000,10.000000,2.000000,259.085178,0.849003,150.000000,1.000000,115.301658,10.000000,8.955649,2.000000,2
/home/daniel/Projects/ppsevolution/data/maps/custom_maps/Custom_2_Run_0_Map.csv,squared_error,0.0005370821521367969,0.5040,0.3925,0.000000,0.733475,1.000000,1.000000,0.015768,0.179531,0.951053,2.000000,1.000000,0.154781,0.964648,1.000000,1.000000,0.738014,0.990989,2.000000,125.000000,1.180746,150.000000,1.000000,4.137840,2.205540,9.559480,2.000000,300.000000,0.856677,145.015376,1.000000,200.000000,7.511136,9.918901,2.000000,3
/home/daniel/Projects/ppsevolution/data/maps/custom_maps/Custom_2_Run_0_Map.csv,squared_error,0.0005261715261271644,0.4966,0.3923,0.310040,0.996294,0.505582,1.000000,0.081592,0.064235,1.000000,2.000000,0.579170,1.000000,1.000000,1.000000,0.769027,0.965588,1.000000,2.000000,179.256959,1.327925,80.287118,1.000000,17.236838,1.110233,10.000000,2.000000,226.354703,1.330000,150.000000,1.000000,154.036370,9.673085,10.000000,2.000000,4
/home/daniel/Projects/ppsevolution/data/maps/custom_maps/Custom_2_Run_0_Map.csv,squared_error,0.0005409647713635974,0.4913,0.3917,0.032153,0.771443,0.904409,1.000000,0.075528,0.517539,1.000000,2.000000,0.969825,0.298169,1.000000,1.000000,0.750053,0.733171,0.987506,2.000000,130.626816,1.202008,136.521634,1.000000,16.030059,5.416623,10.000000,2.000000,294.719435,0.936975,150.000000,1.000000,150.260640,7.465127,9.887554,2.000000,5
/home/daniel/Projects/ppsevolution/data/maps/custom_maps/Custom_2_Run_0_Map.csv,squared_error,0.0005936943453008109,0.4959,0.3942,0.039870,0.726936,0.909872,1.000000,0.263685,0.000000,0.945541,2.000000,1.000000,0.327007,0.990077,1.000000,0.804786,1.000000,0.562020,2.000000,131.977165,1.177084,137.291939,1.000000,53.473278,0.500000,9.509865,2.000000,300.000000,0.953124,148.600838,1.000000,161.152441,10.000000,6.058182,2.000000,6
/home/daniel/Projects/ppsevolution/data/maps/custom_maps/Custom_2_Run_0_Map.csv,squared_error,0.0005824152538753996,0.4941,0.3936,0.000000,0.842916,0.871835,1.000000,0.461382,0.345231,0.724821,2.000000,0.911405,0.686935,1.000000,1.000000,0.947576,0.662452,0.928722,2.000000,125.000000,1.242033,131.928791,1.000000,92.814950,3.779699,7.523389,2.000000,284.495906,1.154684,150.000000,1.000000,189.567547,6.793295,9.358494,2.000000,7
/home/daniel/Projects/ppsevolution/data/maps/custom_maps/Custom_2_Run_0_Map.csv,squared_error,0.0007461830564809231,0.4927,0.3979,0.085543,0.949894,0.690404,1.000000,0.692372,0.000000,1.000000,2.000000,0.608970,0.341752,0.972702,1.000000,0.978218,0.787013,0.277064,2.000000,139.970028,1.301941,106.346928,1.000000,138.782124,0.500000,10.000000,2.000000,231.569766,0.961381,146.150934,1.000000,195.665342,7.976620,3.493575,2.000000,8
/home/daniel/Projects/ppsevolution/data/maps/custom_maps/Custom_2_Run_0_Map.csv,squared_error,0.0005102922361325352,0.5000,0.3919,0.000000,0.964213,0.673219,1.000000,0.591040,0.000000,1.000000,2.000000,0.496548,0.224039,1.000000,1.000000,0.483213,1.000000,0.989140,2.000000,125.000000,1.309959,103.923839,1.000000,118.616969,0.500000,10.000000,2.000000,211.895951,0.895462,150.000000,1.000000,97.159452,10.000000,9.902263,2.000000,9
map,fitness,fitness value,team0ratio,time,HP,Speed,Damage,Acc,ClipSize,RateOfFire,NrBullets,Range,HP,Speed,Damage,Acc,ClipSize,RateOfFire,NrBullets,Range,HP,Speed,Damage,Acc,ClipSize,RateOfFire,NrBullets,Range,HP,Speed,Damage,Acc,ClipSize,RateOfFire,NrBullets,Range,Run,target team0ratio: 0.5,target time: 0.36
/home/daniel/Projects/ppsevolution/data/maps/custom_maps/Custom_3_Run_0_Map.csv,squared_error,0.0063058554060456875,0.5125,0.4716,0.000000,0.946158,0.951666,0.975249,0.000000,0.000000,0.996069,2.000000,0.067306,0.000000,1.000000,0.999788,0.784387,0.000000,0.989708,1.000000,125.000000,1.299849,143.184856,0.975249,1.000000,0.500000,9.964619,2.000000,136.778593,0.770000,150.000000,0.999788,157.092961,0.500000,9.907372,1.000000,0
/home/daniel/Projects/ppsevolution/data/maps/custom_maps/Custom_3_Run_0_Map.csv,squared_error,0.006352419660332111,0.5097,0.4723,0.000000,0.627132,0.791186,1.000000,0.000000,0.475963,0.992285,2.000000,0.258112,0.000000,1.000000,1.000000,0.913565,0.000000,0.789689,2.000000,125.000000,1.121194,120.557226,1.000000,1.000000,5.021649,9.930561,2.000000,170.169558,0.770000,150.000000,1.000000,182.799359,0.500000,8.107198,2.000000,1
/home/daniel/Projects/ppsevolution/data/maps/custom_maps/Custom_3_Run_0_Map.csv,squared_error,0.006641625240082935,0.5096,0.4749,0.000000,1.000000,0.633778,1.000000,0.325744,0.251499,1.000000,2.000000,0.139418,0.797624,1.000000,1.000000,0.846925,0.496616,0.719670,2.000000,125.000000,1.330000,98.362636,1.000000,65.823133,2.889241,10.000000,2.000000,149.398095,1.216669,150.000000,1.000000,169.538046,5.217856,7.477032,2.000000,2
/home/daniel/Projects/ppsevolution/data/maps/custom_maps/Custom_3_Run_0_Map.csv,squared_error,0.0062292381659755204,0.5117,0.4710,0.000000,0.053781,1.000000,0.977117,0.159975,0.000000,1.000000,2.000000,0.143423,0.148522,0.965374,1.000000,0.899693,0.000000,1.000000,2.000000,125.000000,0.800117,150.000000,0.977117,32.834931,0.500000,10.000000,2.000000,150.098978,0.853172,145.117777,1.000000,180.038839,0.500000,10.000000,2.000000,3
/home/daniel/Projects/ppsevolution/data/maps/custom_maps/Custom_3_Run_0_Map.csv,squared_error,0.006548393532647389,0.5074,0.4742,0.000000,0.621720,0.804846,1.000000,0.069745,0.052010,1.000000,2.000000,0.435136,0.183067,1.000000,1.000000,0.921086,0.500505,0.716541,2.000000,125.000000,1.118163,122.483222,1.000000,14.879286,0.994094,10.000000,2.000000,201.148732,0.872518,150.000000,1.000000,184.296111,5.254794,7.448869,2.000000,4
/home/daniel/Projects/ppsevolution/data/maps/custom_maps/Custom_3_Run_0_Map.csv,squared_error,0.006639562074507414,0.5232,0.4729,0.000000,1.000000,0.838832,1.000000,0.134580,0.096144,1.000000,2.000000,0.291369,0.000000,1.000000,1.000000,0.797336,0.291573,0.593391,2.000000,125.000000,1.330000,127.275318,1.000000,27.781465,1.413369,10.000000,2.000000,175.989571,0.770000,150.000000,1.000000,159.669804,3.269944,6.340521,2.000000,5
/home/daniel/Projects/ppsevolution/data/maps/custom_maps/Custom_3_Run_0_Map.csv,squared_error,0.006487658373455251,0.4977,0.4739,0.000000,0.813777,0.521037,1.000000,0.000000,0.301363,1.000000,2.000000,0.067030,0.000000,1.000000,0.996642,1.000000,0.646658,0.849106,2.000000,125.000000,1.225715,82.466196,1.000000,1.000000,3.362948,10.000000,2.000000,136.730167,0.770000,150.000000,0.996642,200.000000,6.643254,8.641951,2.000000,6
/home/daniel/Projects/ppsevolution/data/maps/custom_maps/Custom_3_Run_0_Map.csv,squared_error,0.006841097701519254,0.5106,0.4765,0.012176,0.716564,0.831836,1.000000,0.000000,0.426282,1.000000,2.000000,0.485925,0.200635,1.000000,1.000000,0.246689,0.759078,0.520050,2.000000,127.130845,1.171276,126.288862,1.000000,1.000000,4.549676,10.000000,2.000000,210.036825,0.882355,150.000000,1.000000,50.091107,7.711238,5.680453,2.000000,7
/home/daniel/Projects/ppsevolution/data/maps/custom_maps/Custom_3_Run_0_Map.csv,squared_error,0.006690122667226015,0.5045,0.4756,0.000000,0.709509,0.719201,0.989788,0.000000,0.403196,1.000000,2.000000,0.044222,0.356528,1.000000,1.000000,0.504906,0.369967,0.279747,2.000000,125.000000,1.167325,110.407310,0.989788,1.000000,4.330359,10.000000,2.000000,132.738797,0.969656,150.000000,1.000000,101.476317,4.014687,3.517722,2.000000,8
/home/daniel/Projects/ppsevolution/data/maps/custom_maps/Custom_3_Run_0_Map.csv,squared_error,0.0067818776645949055,0.5144,0.4756,0.000000,0.629618,0.766254,1.000000,0.185318,0.501371,0.974237,2.000000,0.287975,0.402274,1.000000,1.000000,0.746534,0.490420,0.543399,2.000000,125.000000,1.122586,117.041751,1.000000,37.878183,5.263024,9.768130,2.000000,175.395677,0.995274,150.000000,1.000000,149.560286,5.158993,5.890593,2.000000,9
map,fitness,fitness value,team0ratio,time,HP,Speed,Damage,Acc,ClipSize,RateOfFire,NrBullets,Range,HP,Speed,Damage,Acc,ClipSize,RateOfFire,NrBullets,Range,HP,Speed,Damage,Acc,ClipSize,RateOfFire,NrBullets,Range,HP,Speed,Damage,Acc,ClipSize,RateOfFire,NrBullets,Range,Run,target team0ratio: 0.5,target time: 0.36
/home/daniel/Projects/ppsevolution/data/maps/custom_maps/Custom_4_Run_0_Map.csv,squared_error,3.621001360900748e-06,0.4985,0.3578,0.260280,0.813503,0.263974,0.747763,0.016606,0.000000,0.892792,1.000000,1.000000,0.303203,0.133762,0.651058,0.904741,1.000000,0.012948,1.000000,170.548935,1.225561,46.220320,0.747763,4.304520,0.500000,9.035128,1.000000,300.000000,0.939794,27.860403,0.651058,181.043407,10.000000,1.116536,1.000000,0
/home/daniel/Projects/ppsevolution/data/maps/custom_maps/Custom_4_Run_0_Map.csv,squared_error,8.398891975622947e-06,0.4997,0.3559,0.226602,1.000000,0.100806,0.791804,0.087832,0.172582,0.998876,1.000000,0.867876,0.045408,0.089061,0.686610,0.838828,1.000000,0.000000,0.000000,164.655270,1.330000,23.213584,0.791804,18.478643,2.139533,9.989882,1.000000,276.878370,0.795428,21.557566,0.686610,167.926867,10.000000,1.000000,0.000000,1
/home/daniel/Projects/ppsevolution/data/maps/custom_maps/Custom_4_Run_0_Map.csv,squared_error,7.5693594341033125e-06,0.5009,0.3638,0.235062,0.953343,0.622596,0.532382,0.229242,0.000000,0.654240,1.000000,0.753201,0.349149,0.040820,0.656714,0.891095,0.839419,0.139673,2.000000,166.135795,1.303872,96.786052,0.532382,46.619059,0.500000,6.888163,1.000000,256.810158,0.965524,14.755593,0.656714,178.327885,8.474482,2.257054,2.000000,2
/home/daniel/Projects/ppsevolution/data/maps/custom_maps/Custom_4_Run_0_Map.csv,squared_error,1.0949148953677927e-06,0.4985,0.3599,0.000000,0.860045,0.000000,0.830181,0.403200,0.040676,0.891399,2.000000,1.000000,0.043710,0.150266,0.594094,0.940340,0.938856,0.256104,1.000000,125.000000,1.251625,9.000000,0.830181,81.236792,0.886421,9.022590,2.000000,300.000000,0.794478,30.187553,0.594094,188.127647,9.419131,3.304940,1.000000,3
/home/daniel/Projects/ppsevolution/data/maps/custom_maps/Custom_4_Run_0_Map.csv,squared_error,2.059189657085197e-05,0.4937,0.3587,0.101901,0.891881,0.206631,0.704606,0.091329,0.102928,0.812839,2.000000,0.726417,0.167189,0.221028,0.562152,0.959760,1.000000,0.016209,2.000000,142.832697,1.269453,38.134935,0.704606,19.174524,1.477813,8.315554,2.000000,252.122938,0.863626,40.164879,0.562152,191.992256,10.000000,1.145882,2.000000,4
/home/daniel/Projects/ppsevolution/data/maps/custom_maps/Custom_4_Run_0_Map.csv,squared_error,1.282347712004317e-05,0.5005,0.3550,0.000000,0.712363,0.427433,0.663449,0.169301,0.039549,0.990338,2.000000,1.000000,0.064023,0.134076,0.574833,1.000000,0.933676,0.000000,2.000000,125.000000,1.168923,69.268116,0.663449,34.690932,0.875712,9.913039,2.000000,300.000000,0.805853,27.904676,0.574833,200.000000,9.369920,1.000000,2.000000,5
/home/daniel/Projects/ppsevolution/data/maps/custom_maps/Custom_4_Run_0_Map.csv,squared_error,5.82277245738465e-06,0.4970,0.3583,0.000000,1.000000,0.069901,0.820545,0.043865,0.000000,1.000000,1.000000,1.000000,0.000000,0.000000,0.678797,1.000000,1.000000,0.013080,1.000000,125.000000,1.330000,18.856095,0.820545,9.729185,0.500000,10.000000,1.000000,300.000000,0.770000,9.000000,0.678797,200.000000,10.000000,1.117724,1.000000,6
/home/daniel/Projects/ppsevolution/data/maps/custom_maps/Custom_4_Run_0_Map.csv,squared_error,2.103938980613391e-06,0.4983,0.3588,0.197058,1.000000,0.315207,0.737289,0.170495,0.128660,0.934797,0.000000,1.000000,0.018736,0.000000,0.694996,0.974557,0.883337,0.061375,1.000000,159.485190,1.330000,53.444227,0.737289,34.928591,1.722268,9.413169,0.000000,300.000000,0.780492,9.000000,0.694996,194.936834,8.891698,1.552379,1.000000,7
/home/daniel/Projects/ppsevolution/data/maps/custom_maps/Custom_4_Run_0_Map.csv,squared_error,6.85144577903419e-07,0.5009,0.3592,0.000000,1.000000,0.166505,0.771052,0.000000,0.000000,0.925324,1.000000,0.898680,0.169333,0.000000,0.662990,0.946019,0.890160,0.000000,1.000000,125.000000,1.330000,32.477191,0.771052,1.000000,0.500000,9.327919,1.000000,282.269035,0.864827,9.000000,0.662990,189.257693,8.956519,1.000000,1.000000,8
/home/daniel/Projects/ppsevolution/data/maps/custom_maps/Custom_4_Run_0_Map.csv,squared_error,7.792756389825733e-07,0.4988,0.3604,0.020554,0.780709,0.459531,0.616011,0.109317,0.303535,0.958627,0.000000,0.827462,0.023904,0.000000,0.636060,0.700811,1.000000,0.244019,2.000000,128.597015,1.207197,73.793828,0.616011,22.754038,3.383582,9.627641,0.000000,269.805904,0.783386,9.000000,0.636060,140.461393,10.000000,3.196168,2.000000,9
map,fitness,fitness value,team0ratio,time,HP,Speed,Damage,Acc,ClipSize,RateOfFire,NrBullets,Range,HP,Speed,Damage,Acc,ClipSize,RateOfFire,NrBullets,Range,HP,Speed,Damage,Acc,ClipSize,RateOfFire,NrBullets,Range,HP,Speed,Damage,Acc,ClipSize,RateOfFire,NrBullets,Range,Run,target team0ratio: 0.5,target time: 0.36
/home/daniel/Projects/ppsevolution/data/maps/custom_maps/Custom_5_Run_0_Map.csv,squared_error,5.275068074219154e-07,0.4999,0.3590,0.000000,1.000000,0.736938,0.853646,0.000000,0.451252,0.995164,2.000000,0.672592,0.029216,0.195577,0.885238,0.747028,0.688524,0.007013,2.000000,125.000000,1.330000,112.908323,0.853646,1.000000,4.786893,9.956473,2.000000,242.703612,0.786361,36.576381,0.885238,149.658669,7.040977,1.063114,2.000000,0
/home/daniel/Projects/ppsevolution/data/maps/custom_maps/Custom_5_Run_0_Map.csv,squared_error,3.9845788090843785e-06,0.4972,0.3597,0.296097,0.975928,0.179104,1.000000,0.186607,0.179989,1.000000,2.000000,1.000000,0.036167,0.000000,1.000000,1.000000,0.837935,0.218700,0.000000,176.817027,1.316520,34.253615,1.000000,38.134734,2.209898,10.000000,2.000000,300.000000,0.790253,9.000000,1.000000,200.000000,8.460380,2.968302,0.000000,1
/home/daniel/Projects/ppsevolution/data/maps/custom_maps/Custom_5_Run_0_Map.csv,squared_error,7.384179081306209e-07,0.5011,0.3594,0.000000,0.564325,0.052150,1.000000,0.000000,0.186936,0.981793,2.000000,0.687697,0.096412,0.000000,0.986874,0.719148,1.000000,0.037468,0.000000,125.000000,1.086022,16.353160,1.000000,1.000000,2.275893,9.836136,2.000000,245.346962,0.823991,9.000000,0.986874,144.110399,10.000000,1.337214,0.000000,2
/home/daniel/Projects/ppsevolution/data/maps/custom_maps/Custom_5_Run_0_Map.csv,squared_error,8.494446518404969e-07,0.5002,0.3587,0.061821,0.798104,0.000000,1.000000,0.362863,0.151692,0.693306,2.000000,0.477393,0.261042,0.000000,1.000000,0.583142,0.965032,0.000000,0.000000,135.818597,1.216938,9.000000,1.000000,73.209684,1.941074,7.239755,2.000000,208.543824,0.916184,9.000000,1.000000,117.045211,9.667801,1.000000,0.000000,3
/home/daniel/Projects/ppsevolution/data/maps/custom_maps/Custom_5_Run_0_Map.csv,squared_error,3.83037682172461e-07,0.5004,0.3592,0.048739,0.716095,0.320161,1.000000,0.246612,0.088865,0.210962,0.000000,0.871619,0.000000,0.028999,1.000000,0.993142,1.000000,0.547558,2.000000,133.529402,1.171013,54.142763,1.000000,50.075818,1.344213,2.898660,0.000000,277.533310,0.770000,13.088803,1.000000,198.635260,10.000000,5.928022,2.000000,4
/home/daniel/Projects/ppsevolution/data/maps/custom_maps/Custom_5_Run_0_Map.csv,squared_error,1.7538156026432513e-06,0.4989,0.3585,0.063128,0.856513,0.224362,1.000000,0.068041,0.147695,1.000000,0.000000,0.824839,0.007171,0.000000,0.988062,0.841330,0.988248,0.060651,2.000000,136.047366,1.249647,40.635008,1.000000,14.540125,1.903103,10.000000,0.000000,269.346813,0.774016,9.000000,0.988062,168.424585,9.888359,1.545858,2.000000,5
/home/daniel/Projects/ppsevolution/data/maps/custom_maps/Custom_5_Run_0_Map.csv,squared_error,1.6077681732930477e-06,0.4990,0.3585,0.185991,0.689882,0.284121,1.000000,0.069360,0.248201,0.557418,2.000000,0.978492,0.196886,0.023104,1.000000,0.627599,0.553174,0.043191,0.000000,157.548469,1.156334,49.061027,1.000000,14.802592,2.857912,6.016761,2.000000,296.236168,0.880256,12.257696,1.000000,125.892138,5.755154,1.388719,0.000000,6
/home/daniel/Projects/ppsevolution/data/maps/custom_maps/Custom_5_Run_0_Map.csv,squared_error,2.98836052039032e-08,0.5000,0.3598,0.219939,0.884969,0.250817,1.000000,0.075261,0.104389,0.837328,1.000000,0.883371,0.179827,0.000000,1.000000,0.462823,0.619854,0.035628,0.000000,163.489347,1.265583,44.365266,1.000000,15.976967,1.491700,8.535954,1.000000,279.589882,0.870703,9.000000,1.000000,93.101750,6.388613,1.320648,0.000000,7
/home/daniel/Projects/ppsevolution/data/maps/custom_maps/Custom_5_Run_0_Map.csv,squared_error,6.910804947103907e-07,0.4996,0.3589,0.135390,0.870329,0.134021,1.000000,0.195980,0.037149,1.000000,2.000000,0.860107,0.000000,0.367601,0.945764,1.000000,0.799390,0.000000,1.000000,148.693233,1.257384,27.897003,1.000000,39.999937,0.852912,10.000000,2.000000,275.518715,0.770000,60.831703,0.945764,200.000000,8.094210,1.000000,1.000000,8
/home/daniel/Projects/ppsevolution/data/maps/custom_maps/Custom_5_Run_0_Map.csv,squared_error,6.969618101273021e-07,0.5012,0.3597,0.169457,0.953918,0.147977,1.000000,0.000000,0.380259,0.805029,1.000000,0.728098,0.221088,0.000000,1.000000,0.427464,0.992576,0.245395,0.000000,154.654984,1.304194,29.864736,1.000000,1.000000,4.112457,8.245260,1.000000,252.417179,0.893809,9.000000,1.000000,86.065273,9.929476,3.208557,0.000000,9
map,fitness,fitness value,team0ratio,time,HP,Speed,Damage,Acc,ClipSize,RateOfFire,NrBullets,Range,HP,Speed,Damage,Acc,ClipSize,RateOfFire,NrBullets,Range,HP,Speed,Damage,Acc,ClipSize,RateOfFire,NrBullets,Range,HP,Speed,Damage,Acc,ClipSize,RateOfFire,NrBullets,Range,Run,target team0ratio: 0.5,target time: 0.36
/home/daniel/Projects/ppsevolution/data/maps/custom_maps/Custom_6_Run_0_Map.csv,squared_error,0.008786004138252375,0.4751,0.4902,0.064230,0.893367,0.000000,1.000000,0.000000,0.291669,0.816877,2.000000,1.000000,0.000000,1.000000,0.889308,0.761742,0.967230,0.595194,2.000000,136.240238,1.270285,9.000000,1.000000,1.000000,3.270853,8.351896,2.000000,300.000000,0.770000,150.000000,0.889308,152.586757,9.688684,6.356746,2.000000,0
/home/daniel/Projects/ppsevolution/data/maps/custom_maps/Custom_6_Run_0_Map.csv,squared_error,0.008412486095252409,0.4727,0.4868,0.068809,1.000000,0.000000,1.000000,0.411023,0.034486,0.834427,2.000000,0.993849,0.176127,1.000000,0.896114,0.978826,1.000000,0.878062,2.000000,137.041658,1.330000,9.000000,1.000000,82.793655,0.827614,8.509842,2.000000,298.923626,0.868631,150.000000,0.896114,195.786418,10.000000,8.902557,2.000000,1
/home/daniel/Projects/ppsevolution/data/maps/custom_maps/Custom_6_Run_0_Map.csv,squared_error,0.0088085682393074,0.4605,0.4867,0.054921,1.000000,0.000000,1.000000,0.134338,0.235162,0.586577,2.000000,0.970495,0.189119,1.000000,0.905121,0.922366,0.905290,0.532573,2.000000,134.611205,1.330000,9.000000,1.000000,27.733213,2.734040,6.279193,2.000000,294.836659,0.875906,150.000000,0.905121,184.550930,9.100251,5.793158,2.000000,2
/home/daniel/Projects/ppsevolution/data/maps/custom_maps/Custom_6_Run_0_Map.csv,squared_error,0.009217353029652224,0.4578,0.4890,0.000770,1.000000,0.000000,1.000000,0.034355,0.149984,1.000000,2.000000,0.860980,0.000000,0.940157,0.915929,0.814108,1.000000,0.476018,2.000000,125.134758,1.330000,9.000000,1.000000,7.836685,1.924851,10.000000,2.000000,275.671484,0.770000,141.562143,0.915929,163.007503,10.000000,5.284165,2.000000,3
/home/daniel/Projects/ppsevolution/data/maps/custom_maps/Custom_6_Run_0_Map.csv,squared_error,0.009250124495568064,0.4569,0.4890,0.280480,0.865129,0.000000,1.000000,0.235350,0.135473,0.644256,2.000000,1.000000,0.000000,0.963304,0.930747,0.593165,0.946867,0.386493,2.000000,174.083924,1.254472,9.000000,1.000000,47.834647,1.786994,6.798304,2.000000,300.000000,0.770000,144.825877,0.930747,119.039818,9.495240,4.478435,2.000000,4
/home/daniel/Projects/ppsevolution/data/maps/custom_maps/Custom_6_Run_0_Map.csv,squared_error,0.008710604772991154,0.4570,0.4848,0.000000,0.899064,0.086909,1.000000,0.123727,0.007257,0.030245,2.000000,0.983231,0.428887,1.000000,0.927672,0.875409,0.967259,0.750968,2.000000,125.000000,1.273476,21.254214,1.000000,25.621591,0.568944,1.272209,2.000000,297.065438,1.010177,150.000000,0.927672,175.206326,9.688959,7.758715,2.000000,5
/home/daniel/Projects/ppsevolution/data/maps/custom_maps/Custom_6_Run_0_Map.csv,squared_error,0.00892507978979564,0.4632,0.4884,0.283530,1.000000,0.000000,1.000000,0.000000,0.002791,0.862000,2.000000,0.904263,0.341731,0.986792,0.933967,1.000000,0.938706,0.527270,2.000000,174.617677,1.330000,9.000000,1.000000,1.000000,0.526513,8.758004,2.000000,283.246076,0.961369,148.137655,0.933967,200.000000,9.417706,5.745426,2.000000,6
/home/daniel/Projects/ppsevolution/data/maps/custom_maps/Custom_6_Run_0_Map.csv,squared_error,0.009167400275437065,0.4670,0.4913,0.195796,0.993146,0.000000,1.000000,0.316341,0.188104,0.695499,2.000000,1.000000,0.423960,1.000000,0.910571,0.886459,0.894773,0.206511,2.000000,159.264216,1.326162,9.000000,1.000000,63.951836,2.286988,7.259488,2.000000,300.000000,1.007418,150.000000,0.910571,177.405319,9.000345,2.858596,2.000000,7
/home/daniel/Projects/ppsevolution/data/maps/custom_maps/Custom_6_Run_0_Map.csv,squared_error,0.008489183712860216,0.4496,0.4802,0.323840,0.874427,0.000000,1.000000,0.078357,0.000000,0.639826,2.000000,1.000000,0.277030,0.957397,0.947316,0.908271,1.000000,0.937801,2.000000,181.672066,1.259679,9.000000,1.000000,16.593041,0.500000,6.758432,2.000000,300.000000,0.925137,143.992937,0.947316,181.745836,10.000000,9.440205,2.000000,8
/home/daniel/Projects/ppsevolution/data/maps/custom_maps/Custom_6_Run_0_Map.csv,squared_error,0.008820200380186572,0.4728,0.4900,0.091796,1.000000,0.062599,1.000000,0.000000,0.119407,0.000000,2.000000,1.000000,0.779180,1.000000,0.914856,0.956187,0.863660,0.490092,2.000000,141.064216,1.330000,17.826524,1.000000,1.000000,1.634365,1.000000,2.000000,300.000000,1.206341,150.000000,0.914856,191.281273,8.704768,5.410829,2.000000,9
map,fitness,fitness value,team0ratio,time,HP,Speed,Damage,Acc,ClipSize,RateOfFire,NrBullets,Range,HP,Speed,Damage,Acc,ClipSize,RateOfFire,NrBullets,Range,HP,Speed,Damage,Acc,ClipSize,RateOfFire,NrBullets,Range,HP,Speed,Damage,Acc,ClipSize,RateOfFire,NrBullets,Range,Run,target team0ratio: 0.5,target time: 0.36
/home/daniel/Projects/ppsevolution/data/maps/custom_maps/Custom_7_Run_0_Map.csv,squared_error,1.1174513297930927e-06,0.5014,0.3606,0.430703,0.785758,0.108024,0.998967,0.059354,0.296018,0.776842,2.000000,0.968483,0.027621,0.082620,1.000000,0.629125,0.661432,0.295555,2.000000,200.373030,1.210024,24.231324,0.998967,12.811507,3.312171,7.991575,2.000000,294.484532,0.785468,20.649361,1.000000,126.195941,6.783608,3.659994,2.000000,0
/home/daniel/Projects/ppsevolution/data/maps/custom_maps/Custom_7_Run_0_Map.csv,squared_error,1.9371445289585955e-06,0.5015,0.3588,0.585447,0.946089,0.000000,0.998166,0.105449,0.501303,0.937409,1.000000,0.926338,0.276361,0.573951,0.931864,0.893261,0.745199,0.161055,1.000000,227.453210,1.299810,9.000000,0.998166,21.984387,5.262379,9.436678,1.000000,287.109200,0.924762,89.927097,0.931864,178.758950,7.579391,2.449496,1.000000,1
/home/daniel/Projects/ppsevolution/data/maps/custom_maps/Custom_7_Run_0_Map.csv,squared_error,1.4374310085998084e-06,0.5007,0.3616,0.000000,0.722100,0.386076,1.000000,0.035136,0.384744,0.582431,0.000000,1.000000,0.249516,0.000000,1.000000,0.740930,1.000000,0.258857,1.000000,125.000000,1.174376,63.436777,1.000000,7.992061,4.155067,6.241879,0.000000,300.000000,0.909729,9.000000,1.000000,148.445103,10.000000,3.329711,1.000000,2
/home/daniel/Projects/ppsevolution/data/maps/custom_maps/Custom_7_Run_0_Map.csv,squared_error,1.0737815123242445e-06,0.5015,0.3599,0.425747,0.847395,0.000000,1.000000,0.000000,0.210157,1.000000,2.000000,0.579681,0.243899,0.222539,1.000000,0.473411,0.922535,0.051138,0.000000,199.505757,1.244541,9.000000,1.000000,1.000000,2.496496,10.000000,2.000000,226.444255,0.906583,40.377961,1.000000,95.208823,9.264087,1.460242,0.000000,3
/home/daniel/Projects/ppsevolution/data/maps/custom_maps/Custom_7_Run_0_Map.csv,squared_error,8.17669775972246e-07,0.5002,0.3587,0.261185,1.000000,0.292841,1.000000,0.116797,0.353919,1.000000,0.000000,0.638003,0.630202,0.235631,1.000000,0.508323,0.817166,0.001429,1.000000,170.707288,1.330000,50.290548,1.000000,24.242512,3.862228,10.000000,0.000000,236.650589,1.122913,42.223905,1.000000,102.156293,8.263078,1.012857,1.000000,4
/home/daniel/Projects/ppsevolution/data/maps/custom_maps/Custom_7_Run_0_Map.csv,squared_error,7.061104946395015e-07,0.5008,0.3609,0.000000,0.995926,0.000000,1.000000,0.645223,0.000000,0.870199,1.000000,0.641798,0.000000,0.091015,0.971993,0.964647,0.740012,0.324044,1.000000,125.000000,1.327718,9.000000,1.000000,129.399468,0.500000,8.831792,1.000000,237.314652,0.770000,21.833149,0.971993,192.964666,7.530116,3.916397,1.000000,5
/home/daniel/Projects/ppsevolution/data/maps/custom_maps/Custom_7_Run_0_Map.csv,squared_error,1.1494428942484213e-06,0.5012,0.3609,0.400355,0.837104,0.273166,1.000000,0.000000,0.263824,0.802569,1.000000,0.947679,0.000000,0.211050,1.000000,0.909431,0.845704,0.284104,0.000000,195.062128,1.238778,47.516358,1.000000,1.000000,3.006329,8.223123,1.000000,290.843786,0.770000,38.758036,1.000000,181.976867,8.534192,3.556936,0.000000,6
/home/daniel/Projects/ppsevolution/data/maps/custom_maps/Custom_7_Run_0_Map.csv,squared_error,1.096667969000707e-06,0.4989,0.3590,0.403483,0.626276,0.177974,1.000000,0.489317,0.024572,0.516080,0.000000,0.764470,0.000000,0.334686,0.981885,0.840309,0.777746,0.003288,2.000000,195.609576,1.120715,34.094353,1.000000,98.374176,0.733430,5.644720,0.000000,258.782265,0.770000,56.190725,0.981885,168.221586,7.888590,1.029594,2.000000,7
/home/daniel/Projects/ppsevolution/data/maps/custom_maps/Custom_7_Run_0_Map.csv,squared_error,9.325723186350205e-07,0.4999,0.3586,0.320541,1.000000,0.425631,1.000000,0.466873,0.015054,1.000000,0.000000,0.914394,0.000000,0.256274,1.000000,1.000000,0.903683,0.000000,1.000000,181.094694,1.330000,69.013963,1.000000,93.907723,0.643018,10.000000,0.000000,285.018931,0.770000,45.134656,1.000000,200.000000,9.084986,1.000000,1.000000,8
/home/daniel/Projects/ppsevolution/data/maps/custom_maps/Custom_7_Run_0_Map.csv,squared_error,1.3932637519033816e-06,0.4992,0.3615,0.110759,0.756328,0.301526,1.000000,0.183262,0.499019,1.000000,0.000000,0.935142,0.000000,0.196739,0.970456,0.650538,0.676087,0.040855,1.000000,144.382857,1.193543,51.515215,1.000000,37.469088,5.240683,10.000000,0.000000,288.649788,0.770000,36.740141,0.970456,130.456987,6.922830,1.367695,1.000000,9
map,fitness,fitness value,team0ratio,time,HP,Speed,Damage,Acc,ClipSize,RateOfFire,NrBullets,Range,HP,Speed,Damage,Acc,ClipSize,RateOfFire,NrBullets,Range,HP,Speed,Damage,Acc,ClipSize,RateOfFire,NrBullets,Range,HP,Speed,Damage,Acc,ClipSize,RateOfFire,NrBullets,Range,Run,target team0ratio: 0.5,target time: 0.36
/home/daniel/Projects/ppsevolution/data/maps/custom_maps/Custom_8_Run_0_Map.csv,squared_error,1.6088112810621276e-06,0.4984,0.3608,0.143785,1.000000,0.355941,0.770678,0.137489,0.223423,0.954520,0.000000,0.979121,0.000000,0.131435,0.702186,0.826457,0.916432,0.146491,1.000000,150.162461,1.330000,59.187629,0.770678,28.360214,2.622516,9.590684,0.000000,296.346194,0.770000,27.532273,0.702186,165.464993,9.206104,2.318422,1.000000,0
/home/daniel/Projects/ppsevolution/data/maps/custom_maps/Custom_8_Run_0_Map.csv,squared_error,7.133614099355207e-06,0.4997,0.3638,0.000000,0.910313,0.183575,0.819043,0.164646,0.088612,0.943775,1.000000,0.941188,0.065322,0.090399,0.701777,0.569618,0.921567,0.013198,0.000000,125.000000,1.279776,34.884089,0.819043,33.764604,1.341809,9.493971,1.000000,289.707895,0.806580,21.746268,0.701777,114.354019,9.254886,1.118786,0.000000,1
/home/daniel/Projects/ppsevolution/data/maps/custom_maps/Custom_8_Run_0_Map.csv,squared_error,1.3838055923145242e-06,0.5001,0.3617,0.338861,0.913721,0.474949,0.678934,0.045680,0.197013,1.000000,1.000000,0.805940,0.065393,0.251618,0.687196,0.804417,0.875665,0.036716,1.000000,184.300689,1.281684,75.967849,0.678934,10.090290,2.371624,10.000000,1.000000,266.039503,0.806620,44.478114,0.687196,161.079024,8.818817,1.330447,1.000000,2
/home/daniel/Projects/ppsevolution/data/maps/custom_maps/Custom_8_Run_0_Map.csv,squared_error,6.4663261006849604e-06,0.4968,0.3617,0.158012,1.000000,0.283205,0.761993,0.003797,0.054609,0.974273,2.000000,0.975639,0.000000,0.226507,0.645146,0.734529,0.977511,0.000000,2.000000,152.652032,1.330000,48.931957,0.761993,1.755512,1.018783,9.768461,2.000000,295.736790,0.770000,40.937555,0.645146,147.171277,9.786359,1.000000,2.000000,3
/home/daniel/Projects/ppsevolution/data/maps/custom_maps/Custom_8_Run_0_Map.csv,squared_error,1.2556034802151547e-05,0.5047,0.3582,0.000000,0.837938,0.296496,0.776640,0.192960,0.005955,1.000000,2.000000,1.000000,0.061853,0.000000,0.714790,1.000000,1.000000,0.123353,1.000000,125.000000,1.239245,50.805906,0.776640,39.398982,0.556576,10.000000,2.000000,300.000000,0.804638,9.000000,0.714790,200.000000,10.000000,2.110179,1.000000,4
/home/daniel/Projects/ppsevolution/data/maps/custom_maps/Custom_8_Run_0_Map.csv,squared_error,3.814847059504697e-06,0.4972,0.3598,0.000000,0.914271,0.404948,0.755575,0.096349,0.104885,0.716948,1.000000,0.951378,0.073333,0.161169,0.673621,0.579675,0.755732,0.043748,1.000000,125.000000,1.281992,66.097617,0.755575,20.173548,1.496411,7.452533,1.000000,291.491092,0.811066,31.724846,0.673621,116.355258,7.679456,1.393729,1.000000,5
/home/daniel/Projects/ppsevolution/data/maps/custom_maps/Custom_8_Run_0_Map.csv,squared_error,6.7492636822976695e-06,0.4988,0.3635,0.060446,0.816020,0.071272,0.852206,0.000000,0.073753,0.779274,1.000000,1.000000,0.076531,0.343766,0.583485,1.000000,0.787181,0.313422,2.000000,135.578027,1.226971,19.049331,0.852206,1.000000,1.200658,8.013462,1.000000,300.000000,0.812857,57.471061,0.583485,200.000000,7.978223,3.820797,2.000000,6
/home/daniel/Projects/ppsevolution/data/maps/custom_maps/Custom_8_Run_0_Map.csv,squared_error,6.616013474061376e-06,0.4984,0.3633,0.075126,1.000000,0.056406,0.869972,0.122117,0.000000,0.650062,2.000000,0.975800,0.000000,0.000000,0.771681,1.000000,0.920269,0.000000,0.000000,138.147127,1.330000,16.953252,0.869972,25.301240,0.500000,6.850555,2.000000,295.765054,0.770000,9.000000,0.771681,200.000000,9.242559,1.000000,0.000000,7
/home/daniel/Projects/ppsevolution/data/maps/custom_maps/Custom_8_Run_0_Map.csv,squared_error,5.3765003223162374e-06,0.4968,0.3593,0.118389,0.845225,0.122111,0.836549,0.048855,0.037210,0.865424,1.000000,0.900414,0.101966,0.132718,0.713557,0.888192,0.911770,0.168404,0.000000,145.718109,1.243326,26.217622,0.836549,10.722150,0.853494,8.788817,1.000000,282.572427,0.827101,27.713275,0.713557,177.750178,9.161811,2.515636,0.000000,8
/home/daniel/Projects/ppsevolution/data/maps/custom_maps/Custom_8_Run_0_Map.csv,squared_error,3.2676864934224303e-06,0.5024,0.3610,0.000000,0.644288,0.335523,0.774408,0.074641,0.148996,1.000000,0.000000,0.910946,0.000000,0.205605,0.653152,0.629754,1.000000,0.161339,0.000000,125.000000,1.130801,56.308704,0.774408,15.853629,1.915459,10.000000,0.000000,284.415480,0.770000,37.990280,0.653152,126.321074,10.000000,2.452055,0.000000,9
map,fitness,fitness value,team0ratio,time,HP,Speed,Damage,Acc,ClipSize,RateOfFire,NrBullets,Range,HP,Speed,Damage,Acc,ClipSize,RateOfFire,NrBullets,Range,HP,Speed,Damage,Acc,ClipSize,RateOfFire,NrBullets,Range,HP,Speed,Damage,Acc,ClipSize,RateOfFire,NrBullets,Range,Run,target team0ratio: 0.5,target time: 0.36
/home/daniel/Projects/ppsevolution/data/maps/custom_maps/Custom_9_Run_0_Map.csv,squared_error,3.36676056972537e-06,0.4976,0.3609,0.064673,0.960686,0.388113,0.631210,0.000000,0.478932,0.956880,1.000000,1.000000,0.021157,0.063838,0.616230,1.000000,0.762788,0.000000,2.000000,136.317779,1.307984,63.723875,0.631210,1.000000,5.049852,9.611924,1.000000,300.000000,0.781848,18.001227,0.616230,200.000000,7.746490,1.000000,2.000000,0
/home/daniel/Projects/ppsevolution/data/maps/custom_maps/Custom_9_Run_0_Map.csv,squared_error,1.3120916248745317e-06,0.5006,0.3615,0.000000,0.954858,0.343561,0.675420,0.020251,0.000000,0.349904,2.000000,0.954462,0.000000,0.057814,0.623033,1.000000,1.000000,0.056228,1.000000,125.000000,1.304721,57.442035,0.675420,5.029930,0.500000,4.149136,2.000000,292.030922,0.770000,17.151765,0.623033,200.000000,10.000000,1.506048,1.000000,1
/home/daniel/Projects/ppsevolution/data/maps/custom_maps/Custom_9_Run_0_Map.csv,squared_error,3.419238074093978e-06,0.5009,0.3575,0.000000,1.000000,0.000000,0.802666,0.075005,0.000000,1.000000,1.000000,0.968789,0.000000,0.164278,0.580479,0.957589,0.995961,0.005132,2.000000,125.000000,1.330000,9.000000,0.802666,15.925941,0.500000,10.000000,1.000000,294.538006,0.770000,32.163216,0.580479,191.560205,9.961632,1.046191,2.000000,2
/home/daniel/Projects/ppsevolution/data/maps/custom_maps/Custom_9_Run_0_Map.csv,squared_error,3.2759616407986075e-06,0.5001,0.3574,0.000000,0.715100,0.476719,0.624765,0.144833,0.000000,0.885992,0.000000,1.000000,0.200624,0.113877,0.609925,0.966979,0.786974,0.044378,0.000000,125.000000,1.170456,76.217444,0.624765,29.821717,0.500000,8.973925,0.000000,300.000000,0.882349,25.056656,0.609925,193.428736,7.976255,1.399405,0.000000,3
/home/daniel/Projects/ppsevolution/data/maps/custom_maps/Custom_9_Run_0_Map.csv,squared_error,4.241349911828991e-06,0.5019,0.3622,0.149210,0.869376,0.373627,0.610577,0.069680,0.082123,0.958747,1.000000,0.844749,0.000000,0.098729,0.634272,0.995780,1.000000,0.040343,0.000000,151.111680,1.256851,61.681390,0.610577,14.866394,1.280171,9.628725,1.000000,272.831001,0.770000,22.920734,0.634272,199.160130,10.000000,1.363087,0.000000,4
/home/daniel/Projects/ppsevolution/data/maps/custom_maps/Custom_9_Run_0_Map.csv,squared_error,2.5656959469657355e-06,0.4981,0.3613,0.283084,0.973453,0.209945,0.683995,0.000000,0.101746,0.983743,0.000000,0.808037,0.044789,0.381753,0.518003,0.795040,0.853532,0.009519,1.000000,174.539732,1.315134,38.602299,0.683995,1.000000,1.466587,9.853685,0.000000,266.406389,0.795082,62.827178,0.518003,159.212968,8.608552,1.085673,1.000000,5
/home/daniel/Projects/ppsevolution/data/maps/custom_maps/Custom_9_Run_0_Map.csv,squared_error,5.96259561424195e-06,0.5009,0.3633,0.054506,1.000000,0.088875,0.771190,0.050786,0.003564,0.865299,1.000000,0.973786,0.057401,0.101879,0.613169,1.000000,0.837389,0.000000,1.000000,134.538590,1.330000,21.531375,0.771190,11.106489,0.533857,8.787688,1.000000,295.412631,0.802144,23.364948,0.613169,200.000000,8.455199,1.000000,1.000000,6
/home/daniel/Projects/ppsevolution/data/maps/custom_maps/Custom_9_Run_0_Map.csv,squared_error,4.605563957684882e-06,0.5006,0.3570,0.000000,1.000000,0.281402,0.688056,0.003122,0.169628,0.831931,2.000000,1.000000,0.197348,0.088745,0.591544,0.952684,0.952446,0.000000,2.000000,125.000000,1.330000,48.677647,0.688056,1.621287,2.111466,8.487382,2.000000,300.000000,0.880515,21.513015,0.591544,190.584073,9.548234,1.000000,2.000000,7
/home/daniel/Projects/ppsevolution/data/maps/custom_maps/Custom_9_Run_0_Map.csv,squared_error,1.750047674473202e-05,0.5013,0.3658,0.053058,0.996731,0.162052,0.745005,0.000000,0.119735,0.974575,0.000000,1.000000,0.079672,0.000000,0.648816,1.000000,1.000000,0.000000,2.000000,134.285171,1.328170,31.849398,0.745005,1.000000,1.637486,9.771175,0.000000,300.000000,0.814616,9.000000,0.648816,200.000000,10.000000,1.000000,2.000000,8
/home/daniel/Projects/ppsevolution/data/maps/custom_maps/Custom_9_Run_0_Map.csv,squared_error,3.6047748207358827e-06,0.4985,0.3578,0.137149,0.865786,0.180686,0.773761,0.000000,0.258146,0.579498,0.000000,0.985107,0.000000,0.117050,0.663202,0.785854,1.000000,0.017933,0.000000,149.001090,1.254840,34.476774,0.773761,1.000000,2.952386,6.215483,0.000000,297.393784,0.770000,25.504102,0.663202,157.384974,10.000000,1.161397,0.000000,9
map,fitness,fitness value,team0ratio,time,HP,Speed,Damage,Acc,ClipSize,RateOfFire,NrBullets,Range,HP,Speed,Damage,Acc,ClipSize,RateOfFire,NrBullets,Range,HP,Speed,Damage,Acc,ClipSize,RateOfFire,NrBullets,Range,HP,Speed,Damage,Acc,ClipSize,RateOfFire,NrBullets,Range,Run,target team0ratio: 0.5,target time: 0.36
/home/daniel/Projects/ppsevolution/data/maps/custom_maps/Custom_10_Run_0_Map.csv,squared_error,6.842993277565102e-06,0.4984,0.3633,0.000000,0.182651,0.812118,1.000000,0.337534,0.085835,0.920040,2.000000,0.532888,0.227911,0.950734,1.000000,0.802607,1.000000,0.311632,2.000000,125.000000,0.872284,123.508654,1.000000,68.169291,1.315437,9.280356,2.000000,218.255464,0.897630,143.053436,1.000000,160.718878,10.000000,3.804691,2.000000,0
/home/daniel/Projects/ppsevolution/data/maps/custom_maps/Custom_10_Run_0_Map.csv,squared_error,9.71622528687259e-07,0.5003,0.3586,0.000000,0.933586,1.000000,0.987813,0.189681,0.020055,0.839357,2.000000,0.567284,0.232001,1.000000,1.000000,0.903146,0.947173,0.511835,2.000000,125.000000,1.292808,150.000000,0.987813,38.746556,0.690520,8.554209,2.000000,224.274750,0.899921,150.000000,1.000000,180.726009,9.498140,5.606512,2.000000,1
/home/daniel/Projects/ppsevolution/data/maps/custom_maps/Custom_10_Run_0_Map.csv,squared_error,5.551615240580038e-06,0.5016,0.3571,0.000000,1.000000,0.647776,1.000000,0.005601,0.279375,0.942963,2.000000,0.192685,0.291591,1.000000,1.000000,0.943542,0.743996,0.807586,1.000000,125.000000,1.330000,100.336453,1.000000,2.114551,3.154061,9.486670,2.000000,158.719949,0.933291,150.000000,1.000000,188.764891,7.567966,8.268272,1.000000,2
/home/daniel/Projects/ppsevolution/data/maps/custom_maps/Custom_10_Run_0_Map.csv,squared_error,9.463743486605994e-07,0.5007,0.3612,0.018530,0.967309,0.597636,1.000000,0.242717,0.941311,0.864076,2.000000,0.135396,0.269225,0.883884,1.000000,0.942888,0.545496,0.400146,1.000000,128.242665,1.311693,93.266656,1.000000,49.300751,9.442457,8.776688,2.000000,148.694285,0.920766,133.627706,1.000000,188.634654,5.682209,4.601316,1.000000,3
/home/daniel/Projects/ppsevolution/data/maps/custom_maps/Custom_10_Run_0_Map.csv,squared_error,7.592800949107977e-06,0.4997,0.3639,0.124501,0.769905,1.000000,1.000000,0.123294,0.003442,0.953913,1.000000,0.824090,0.183775,1.000000,1.000000,0.939728,0.889428,0.769923,2.000000,146.787631,1.201147,150.000000,1.000000,25.535495,0.532699,9.585220,1.000000,269.215789,0.872914,150.000000,1.000000,188.005925,8.949569,7.929303,2.000000,4
/home/daniel/Projects/ppsevolution/data/maps/custom_maps/Custom_10_Run_0_Map.csv,squared_error,3.1273930898764027e-07,0.5003,0.3607,0.000000,0.864108,0.713940,1.000000,0.063116,0.210315,1.000000,2.000000,0.281926,0.103123,1.000000,1.000000,0.991966,1.000000,0.000000,2.000000,125.000000,1.253901,109.665602,1.000000,13.560150,2.497989,10.000000,2.000000,174.337073,0.827749,150.000000,1.000000,198.401309,10.000000,1.000000,2.000000,5
/home/daniel/Projects/ppsevolution/data/maps/custom_maps/Custom_10_Run_0_Map.csv,squared_error,2.566514102888126e-07,0.4993,0.3601,0.058015,0.812251,0.979691,1.000000,0.000000,0.054944,1.000000,1.000000,0.515861,0.451225,1.000000,1.000000,0.921167,0.145331,0.363664,1.000000,135.152661,1.224861,147.136480,1.000000,1.000000,1.021966,10.000000,1.000000,215.275762,1.022686,150.000000,1.000000,184.312307,1.880641,4.272979,1.000000,6
/home/daniel/Projects/ppsevolution/data/maps/custom_maps/Custom_10_Run_0_Map.csv,squared_error,7.955667571792572e-07,0.5008,0.3609,0.000000,0.672667,0.860783,1.000000,0.000000,0.423975,0.889898,2.000000,0.478244,0.000000,1.000000,1.000000,0.519673,0.762922,0.127481,1.000000,125.000000,1.146694,130.370411,1.000000,1.000000,4.527766,9.009081,2.000000,208.692720,0.770000,150.000000,1.000000,104.414955,7.747756,2.147327,1.000000,7
/home/daniel/Projects/ppsevolution/data/maps/custom_maps/Custom_10_Run_0_Map.csv,squared_error,7.500795846972765e-07,0.4997,0.3612,0.000000,0.774058,1.000000,0.979156,0.549914,0.261234,0.879954,1.000000,0.179290,0.205729,0.590533,1.000000,0.190001,0.122100,0.115706,2.000000,125.000000,1.203472,150.000000,0.979156,110.432940,2.981726,8.919583,1.000000,156.375810,0.885208,92.265154,1.000000,38.810116,1.659947,2.041351,2.000000,8
/home/daniel/Projects/ppsevolution/data/maps/custom_maps/Custom_10_Run_0_Map.csv,squared_error,3.669315188361196e-07,0.4994,0.3606,0.070963,1.000000,0.818675,1.000000,0.063981,0.557714,1.000000,2.000000,0.522813,0.011351,1.000000,0.995452,0.601115,0.513371,0.382168,1.000000,137.418520,1.330000,124.433118,1.000000,13.732198,5.798285,10.000000,2.000000,216.492325,0.776357,150.000000,0.995452,120.621861,5.377020,4.439512,1.000000,9
