map,fitness,fitness value,team0ratio,time,HP,Speed,Damage,Acc,ClipSize,RateOfFire,NrBullets,Range,HP,Speed,Damage,Acc,ClipSize,RateOfFire,NrBullets,Range,HP,Speed,Damage,Acc,ClipSize,RateOfFire,NrBullets,Range,HP,Speed,Damage,Acc,ClipSize,RateOfFire,NrBullets,Range,Run,target team0ratio: 0.5,target time: 0.72
/home/daniel/Projects/ppsevolution/data/maps/custom_maps/Custom_1_Run_0_Map.csv,squared_error,9.376291605185748e-07,0.4987,0.7197,0.793057,0.766426,0.000000,0.000000,0.094335,0.217998,0.668430,1.000000,1.000000,0.243933,0.000000,0.000000,0.716573,0.469322,0.000000,0.000000,263.785032,1.199199,9.000000,0.000000,19.772644,2.570985,7.015867,1.000000,300.000000,0.906602,9.000000,0.000000,143.598016,4.958561,1.000000,0.000000,0
/home/daniel/Projects/ppsevolution/data/maps/custom_maps/Custom_1_Run_0_Map.csv,squared_error,2.0057339736462588e-08,0.5000,0.7198,0.777785,1.000000,0.000000,0.000000,0.039412,0.002574,0.796449,1.000000,1.000000,0.087784,0.000000,0.000000,0.872479,0.973576,0.019204,1.000000,261.112356,1.330000,9.000000,0.000000,8.842925,0.524456,8.168039,1.000000,300.000000,0.819159,9.000000,0.000000,174.623303,9.748972,1.172839,1.000000,1
/home/daniel/Projects/ppsevolution/data/maps/custom_maps/Custom_1_Run_0_Map.csv,squared_error,8.217799272187948e-07,0.4989,0.7193,0.786001,0.566548,0.000000,0.002043,0.000000,0.028455,0.796130,0.000000,1.000000,0.247934,0.001515,0.000000,0.831807,0.991523,0.000000,2.000000,262.550205,1.087267,9.000000,0.002043,1.000000,0.770323,8.165171,0.000000,300.000000,0.908843,9.213676,0.000000,166.529592,9.919473,1.000000,2.000000,2
/home/daniel/Projects/ppsevolution/data/maps/custom_maps/Custom_1_Run_0_Map.csv,squared_error,8.918030114387314e-07,0.5003,0.7213,0.807985,1.000000,0.000000,0.000000,0.139313,0.240361,0.706509,2.000000,1.000000,0.257276,0.003215,0.000000,1.000000,1.000000,0.000000,1.000000,266.397307,1.330000,9.000000,0.000000,28.723366,2.783429,7.358583,2.000000,300.000000,0.914074,9.453248,0.000000,200.000000,10.000000,1.000000,1.000000,3
/home/daniel/Projects/ppsevolution/data/maps/custom_maps/Custom_1_Run_0_Map.csv,squared_error,5.341820265243821e-07,0.4990,0.7202,0.804904,0.962013,0.008489,0.000000,0.183883,0.300193,0.659467,2.000000,1.000000,0.696285,0.000000,0.000000,1.000000,1.000000,0.000000,0.000000,265.858137,1.308727,10.196895,0.000000,37.592783,3.351837,6.935201,2.000000,300.000000,1.159920,9.000000,0.000000,200.000000,10.000000,1.000000,0.000000,4
/home/daniel/Projects/ppsevolution/data/maps/custom_maps/Custom_1_Run_0_Map.csv,squared_error,1.180898978788005e-07,0.4995,0.7199,0.816869,0.975032,0.000000,0.000000,0.000000,0.243387,0.597057,0.000000,0.963131,0.124079,0.000000,0.000000,0.681504,0.892584,0.162738,1.000000,267.952046,1.316018,9.000000,0.000000,1.000000,2.812173,6.373509,0.000000,293.547840,0.839484,9.000000,0.000000,136.619253,8.979551,2.464640,1.000000,5
/home/daniel/Projects/ppsevolution/data/maps/custom_maps/Custom_1_Run_0_Map.csv,squared_error,8.208982000297398e-07,0.4999,0.7187,0.771735,0.887757,0.000000,0.000000,0.033239,0.000000,0.741479,2.000000,0.996379,0.000000,0.000000,0.000000,1.000000,0.617029,0.000000,1.000000,260.053697,1.267144,9.000000,0.000000,7.614556,0.500000,7.673311,2.000000,299.366412,0.770000,9.000000,0.000000,200.000000,6.361776,1.000000,1.000000,6
/home/daniel/Projects/ppsevolution/data/maps/custom_maps/Custom_1_Run_0_Map.csv,squared_error,3.856266131379722e-08,0.5001,0.7203,0.773993,0.983009,0.000000,0.000000,0.000000,0.033386,0.820730,0.000000,1.000000,0.184711,0.000000,0.000000,0.820647,0.754275,0.000000,1.000000,260.448765,1.320485,9.000000,0.000000,1.000000,0.817170,8.386572,0.000000,300.000000,0.873438,9.000000,0.000000,164.308754,7.665616,1.000000,1.000000,7
/home/daniel/Projects/ppsevolution/data/maps/custom_maps/Custom_1_Run_0_Map.csv,squared_error,9.292491900765456e-07,0.4992,0.7189,0.884353,0.971698,0.000000,0.000000,0.349414,0.127718,0.555369,0.000000,0.940584,0.375832,0.016549,0.028992,1.000000,0.960584,0.105589,0.000000,279.761760,1.314151,9.000000,0.000000,70.533399,1.713324,5.998323,0.000000,289.602281,0.980466,11.333427,0.028992,200.000000,9.625547,1.950298,0.000000,8
/home/daniel/Projects/ppsevolution/data/maps/custom_maps/Custom_1_Run_0_Map.csv,squared_error,9.832880898913498e-08,0.5000,0.7204,0.815372,0.902451,0.000000,0.000000,0.157035,0.285524,0.754822,0.000000,1.000000,0.292177,0.000000,0.000000,0.742921,0.842652,0.078623,1.000000,267.690029,1.275373,9.000000,0.000000,32.250024,3.212481,7.793400,0.000000,300.000000,0.933619,9.000000,0.000000,148.841329,8.505196,1.707611,1.000000,9
map,fitness,fitness value,team0ratio,time,HP,Speed,Damage,Acc,ClipSize,RateOfFire,NrBullets,Range,HP,Speed,Damage,Acc,ClipSize,RateOfFire,NrBullets,Range,HP,Speed,Damage,Acc,ClipSize,RateOfFire,NrBullets,Range,HP,Speed,Damage,Acc,ClipSize,RateOfFire,NrBullets,Range,Run,target team0ratio: 0.5,target time: 0.72
/home/daniel/Projects/ppsevolution/data/maps/custom_maps/Custom_2_Run_0_Map.csv,squared_error,2.0586390055824151e-07,0.5003,0.7194,0.042242,0.904695,0.000000,0.571996,0.000000,0.089445,1.000000,0.000000,1.000000,0.000000,0.013136,0.156020,0.945899,0.891286,0.090005,0.000000,132.392349,1.276629,9.000000,0.571996,1.000000,1.349728,10.000000,0.000000,300.000000,0.770000,10.852217,0.156020,189.233848,8.967215,1.810048,0.000000,0
/home/daniel/Projects/ppsevolution/data/maps/custom_maps/Custom_2_Run_0_Map.csv,squared_error,1.2011863829002768e-07,0.5005,0.7202,0.413029,0.982611,0.078173,0.463573,0.193846,0.000000,0.992715,2.000000,1.000000,0.041755,0.000910,0.324348,1.000000,0.886470,0.000000,1.000000,197.280087,1.320262,20.022461,0.463573,39.575405,0.500000,9.934432,2.000000,300.000000,0.793383,9.128321,0.324348,200.000000,8.921468,1.000000,1.000000,1
/home/daniel/Projects/ppsevolution/data/maps/custom_maps/Custom_2_Run_0_Map.csv,squared_error,4.978370730242229e-07,0.5006,0.7192,0.304402,0.876914,0.000000,0.521892,0.119126,0.368532,0.823046,2.000000,0.923913,0.035053,0.014645,0.270565,0.737390,1.000000,0.000000,0.000000,178.270398,1.261072,9.000000,0.521892,24.706072,4.001051,8.407415,2.000000,286.684763,0.789630,11.064988,0.270565,147.740659,10.000000,1.000000,0.000000,2
/home/daniel/Projects/ppsevolution/data/maps/custom_maps/Custom_2_Run_0_Map.csv,squared_error,9.128907298901636e-07,0.4991,0.7210,0.089959,1.000000,0.042507,0.482599,0.080061,0.151590,0.930430,2.000000,0.914046,0.000000,0.000000,0.181645,0.959705,0.758647,0.023223,0.000000,140.742854,1.330000,14.993455,0.482599,16.932203,1.940108,9.373871,2.000000,284.958054,0.770000,9.000000,0.181645,191.981381,7.707142,1.209007,0.000000,3
/home/daniel/Projects/ppsevolution/data/maps/custom_maps/Custom_2_Run_0_Map.csv,squared_error,8.317096936146212e-07,0.4987,0.7203,0.068662,0.923772,0.057202,0.478917,0.099589,0.034050,0.941019,2.000000,0.921542,0.062681,0.129168,0.027423,1.000000,1.000000,0.117231,0.000000,137.015882,1.287313,17.065529,0.478917,20.818160,0.823473,9.469171,2.000000,286.269849,0.805101,27.212709,0.027423,200.000000,10.000000,2.055077,0.000000,4
/home/daniel/Projects/ppsevolution/data/maps/custom_maps/Custom_2_Run_0_Map.csv,squared_error,8.209038437286216e-07,0.4987,0.7202,0.533195,0.838205,0.084351,0.446032,0.024587,0.000000,0.969999,0.000000,0.934403,0.251101,0.000000,0.377766,0.830678,0.719122,0.041148,2.000000,218.309056,1.239395,20.893485,0.446032,5.892840,0.500000,9.729991,0.000000,288.520574,0.910616,9.000000,0.377766,166.304933,7.331661,1.370336,2.000000,5
/home/daniel/Projects/ppsevolution/data/maps/custom_maps/Custom_2_Run_0_Map.csv,squared_error,9.048350053404517e-07,0.4999,0.7187,0.000000,0.890556,0.047540,0.528398,0.079037,0.000000,1.000000,0.000000,0.991042,0.000000,0.000000,0.161491,0.851042,1.000000,0.000000,0.000000,125.000000,1.268711,15.703194,0.528398,16.728296,0.500000,10.000000,0.000000,298.432287,0.770000,9.000000,0.161491,170.357297,10.000000,1.000000,0.000000,6
/home/daniel/Projects/ppsevolution/data/maps/custom_maps/Custom_2_Run_0_Map.csv,squared_error,5.297769651065482e-07,0.5001,0.7210,0.080227,1.000000,0.000000,0.581324,0.000000,0.000000,0.805355,0.000000,1.000000,0.013736,0.000000,0.175899,0.794997,0.677531,0.198427,0.000000,139.039645,1.330000,9.000000,0.581324,1.000000,0.500000,8.248195,0.000000,300.000000,0.777692,9.000000,0.175899,159.204384,6.936541,2.785840,0.000000,7
/home/daniel/Projects/ppsevolution/data/maps/custom_maps/Custom_2_Run_0_Map.csv,squared_error,5.212405392114646e-07,0.4991,0.7196,0.256350,0.849165,0.000000,0.547919,0.002219,0.041922,0.841258,2.000000,0.979268,0.000000,0.000000,0.273058,1.000000,0.967829,0.000000,0.000000,169.861263,1.245533,9.000000,0.547919,1.441626,0.898259,8.571325,2.000000,296.371948,0.770000,9.000000,0.273058,200.000000,9.694374,1.000000,0.000000,8
/home/daniel/Projects/ppsevolution/data/maps/custom_maps/Custom_2_Run_0_Map.csv,squared_error,4.290423361481769e-07,0.5003,0.7191,0.000000,1.000000,0.000000,0.592721,0.000000,0.105658,0.800482,0.000000,1.000000,0.037972,0.011258,0.164507,1.000000,1.000000,0.000000,1.000000,125.000000,1.330000,9.000000,0.592721,1.000000,1.503749,8.204338,0.000000,300.000000,0.791264,10.587361,0.164507,200.000000,10.000000,1.000000,1.000000,9
map,fitness,fitness value,team0ratio,time,HP,Speed,Damage,Acc,ClipSize,RateOfFire,NrBullets,Range,HP,Speed,Damage,Acc,ClipSize,RateOfFire,NrBullets,Range,HP,Speed,Damage,Acc,ClipSize,RateOfFire,NrBullets,Range,HP,Speed,Damage,Acc,ClipSize,RateOfFire,NrBullets,Range,Run,target team0ratio: 0.5,target time: 0.72
/home/daniel/Projects/ppsevolution/data/maps/custom_maps/Custom_3_Run_0_Map.csv,squared_error,6.600674380478417e-08,0.5002,0.7197,0.173252,1.000000,0.147895,0.506883,0.150662,0.076044,0.991377,2.000000,1.000000,0.000000,0.000000,0.368299,0.931112,1.000000,0.000000,0.000000,155.319015,1.330000,29.853243,0.506883,30.981673,1.222417,9.922394,2.000000,300.000000,0.770000,9.000000,0.368299,186.291259,10.000000,1.000000,0.000000,0
/home/daniel/Projects/ppsevolution/data/maps/custom_maps/Custom_3_Run_0_Map.csv,squared_error,2.3445778495629192e-07,0.4996,0.7206,0.427276,0.932686,0.000000,0.629568,0.236859,0.000000,0.855684,2.000000,0.996913,0.211465,0.000000,0.476712,0.909231,1.000000,0.042572,2.000000,199.773302,1.292304,9.000000,0.629568,48.134966,0.500000,8.701152,2.000000,299.459740,0.888420,9.000000,0.476712,181.936926,10.000000,1.383152,2.000000,1
/home/daniel/Projects/ppsevolution/data/maps/custom_maps/Custom_3_Run_0_Map.csv,squared_error,8.527048939015273e-08,0.5004,0.7199,0.246189,0.857269,0.098891,0.519132,0.000000,0.064903,0.941617,0.000000,0.864284,0.000000,0.006747,0.386775,0.725315,0.973274,0.172749,1.000000,168.083050,1.250071,22.943684,0.519132,1.000000,1.116574,9.474557,0.000000,276.249649,0.770000,9.951331,0.386775,145.337701,9.746104,2.554742,1.000000,2
/home/daniel/Projects/ppsevolution/data/maps/custom_maps/Custom_3_Run_0_Map.csv,squared_error,4.0900291947989956e-07,0.5006,0.7193,0.144253,0.762661,0.032347,0.603478,0.496517,0.230483,0.921455,1.000000,0.951251,0.164670,0.000000,0.363360,0.901423,0.826503,0.086530,0.000000,150.244210,1.197090,13.560891,0.603478,99.806877,2.689589,9.293094,1.000000,291.468964,0.862215,9.000000,0.363360,180.383241,8.351781,1.778769,0.000000,3
/home/daniel/Projects/ppsevolution/data/maps/custom_maps/Custom_3_Run_0_Map.csv,squared_error,5.872556945689629e-08,0.5003,0.7200,0.012614,0.945845,0.152786,0.478508,0.131726,0.095264,1.000000,0.000000,0.881144,0.017595,0.011106,0.265410,0.670041,0.888749,0.248504,1.000000,127.207529,1.299673,30.542773,0.478508,27.213419,1.405012,10.000000,0.000000,279.200145,0.779853,10.565923,0.265410,134.338188,8.943112,3.236534,1.000000,4
/home/daniel/Projects/ppsevolution/data/maps/custom_maps/Custom_3_Run_0_Map.csv,squared_error,9.065215279776194e-07,0.5007,0.7212,0.149964,0.771639,0.173298,0.479042,0.000000,0.143483,0.974658,2.000000,1.000000,0.026080,0.096567,0.230983,0.958542,1.000000,0.102839,2.000000,151.243732,1.202118,33.434954,0.479042,1.000000,1.863088,9.771922,2.000000,300.000000,0.784605,22.616017,0.230983,191.749847,10.000000,1.925551,2.000000,5
/home/daniel/Projects/ppsevolution/data/maps/custom_maps/Custom_3_Run_0_Map.csv,squared_error,6.086772336003825e-08,0.5001,0.7197,0.295618,1.000000,0.036324,0.593371,0.000000,0.138878,0.955657,1.000000,0.962202,0.000000,0.135841,0.310608,1.000000,1.000000,0.000000,0.000000,176.733177,1.330000,14.121656,0.593371,1.000000,1.819338,9.600910,1.000000,293.385347,0.770000,28.153530,0.310608,200.000000,10.000000,1.000000,0.000000,6
/home/daniel/Projects/ppsevolution/data/maps/custom_maps/Custom_3_Run_0_Map.csv,squared_error,7.369809215170356e-07,0.4990,0.7207,0.084603,1.000000,0.012066,0.601434,0.033327,0.120496,1.000000,1.000000,0.910936,0.114807,0.000000,0.337224,0.933062,1.000000,0.059645,2.000000,139.805492,1.330000,10.701354,0.601434,7.632021,1.644714,10.000000,1.000000,284.413838,0.834292,9.000000,0.337224,186.679289,10.000000,1.536807,2.000000,7
/home/daniel/Projects/ppsevolution/data/maps/custom_maps/Custom_3_Run_0_Map.csv,squared_error,7.842083499383731e-07,0.4990,0.7207,0.168399,1.000000,0.006737,0.648087,0.000000,0.177020,0.845861,0.000000,1.000000,0.000000,0.022368,0.373091,1.000000,0.884671,0.000000,2.000000,154.469789,1.330000,9.949908,0.648087,1.000000,2.181694,8.612749,0.000000,300.000000,0.770000,12.153838,0.373091,200.000000,8.904375,1.000000,2.000000,8
/home/daniel/Projects/ppsevolution/data/maps/custom_maps/Custom_3_Run_0_Map.csv,squared_error,9.20565245633055e-07,0.5013,0.7205,0.333757,0.850635,0.005092,0.638931,0.000000,0.142799,0.852620,0.000000,0.999003,0.116013,0.063230,0.394381,0.527909,1.000000,0.000000,2.000000,183.407454,1.246355,9.717928,0.638931,1.000000,1.856595,8.673581,0.000000,299.825441,0.834967,17.915440,0.394381,106.053975,10.000000,1.000000,2.000000,9
map,fitness,fitness value,team0ratio,time,HP,Speed,Damage,Acc,ClipSize,RateOfFire,NrBullets,Range,HP,Speed,Damage,Acc,ClipSize,RateOfFire,NrBullets,Range,HP,Speed,Damage,Acc,ClipSize,RateOfFire,NrBullets,Range,HP,Speed,Damage,Acc,ClipSize,RateOfFire,NrBullets,Range,Run,target team0ratio: 0.5,target time: 0.72
/home/daniel/Projects/ppsevolution/data/maps/custom_maps/Custom_4_Run_0_Map.csv,squared_error,8.683191637722122e-07,0.4987,0.7200,0.653752,0.791331,0.215992,0.000000,0.091356,0.083875,1.000000,2.000000,0.979771,0.103344,0.000000,0.080854,0.657666,0.897598,0.000000,2.000000,239.406518,1.213146,39.454930,0.000000,19.179938,1.296811,10.000000,2.000000,296.459979,0.827873,9.000000,0.080854,131.875477,9.027182,1.000000,2.000000,0
/home/daniel/Projects/ppsevolution/data/maps/custom_maps/Custom_4_Run_0_Map.csv,squared_error,6.952724436189173e-07,0.5010,0.7194,0.485094,1.000000,0.034236,0.253572,0.000000,0.464525,1.000000,0.000000,1.000000,0.046685,0.000000,0.000000,0.694607,1.000000,0.164805,0.000000,209.891407,1.330000,13.827308,0.253572,1.000000,4.912986,10.000000,0.000000,300.000000,0.796144,9.000000,0.000000,139.226880,10.000000,2.483241,0.000000,1
/home/daniel/Projects/ppsevolution/data/maps/custom_maps/Custom_4_Run_0_Map.csv,squared_error,5.27979197909194e-07,0.5010,0.7202,0.622993,0.921651,0.009156,0.279868,0.261779,0.062961,0.866433,1.000000,1.000000,0.127237,0.000000,0.080133,0.887022,1.000000,0.095850,1.000000,234.023848,1.286124,10.291020,0.279868,53.093957,1.098130,8.797898,1.000000,300.000000,0.841253,9.000000,0.080133,177.517450,10.000000,1.862649,1.000000,2
/home/daniel/Projects/ppsevolution/data/maps/custom_maps/Custom_4_Run_0_Map.csv,squared_error,3.508248114599228e-07,0.4992,0.7203,0.521620,0.888970,0.000000,0.303162,0.281033,0.000000,0.768373,2.000000,1.000000,0.105995,0.000000,0.000000,1.000000,0.710661,0.343951,0.000000,216.283453,1.267823,9.000000,0.303162,56.925655,0.500000,7.915357,2.000000,300.000000,0.829357,9.000000,0.000000,200.000000,7.251278,4.095562,0.000000,3
/home/daniel/Projects/ppsevolution/data/maps/custom_maps/Custom_4_Run_0_Map.csv,squared_error,1.826757418939434e-07,0.4994,0.7199,0.571017,0.743644,0.000000,0.260802,0.072344,0.000000,1.000000,1.000000,0.946367,0.039160,0.019909,0.053910,1.000000,0.866662,0.000000,0.000000,224.928047,1.186441,9.000000,0.260802,15.396392,0.500000,10.000000,1.000000,290.614148,0.791930,11.807199,0.053910,200.000000,8.733289,1.000000,0.000000,4
/home/daniel/Projects/ppsevolution/data/maps/custom_maps/Custom_4_Run_0_Map.csv,squared_error,7.760622059123851e-07,0.4996,0.7212,0.463918,0.922164,0.072473,0.218875,0.177631,0.010613,0.818984,2.000000,1.000000,0.233626,0.000000,0.000000,1.000000,0.818818,0.000000,1.000000,206.185717,1.286412,19.218641,0.218875,36.348565,0.600822,8.370857,2.000000,300.000000,0.900831,9.000000,0.000000,200.000000,8.278774,1.000000,1.000000,5
/home/daniel/Projects/ppsevolution/data/maps/custom_maps/Custom_4_Run_0_Map.csv,squared_error,7.269129528715597e-07,0.4989,0.7195,0.567206,1.000000,0.000000,0.290316,0.000000,0.201062,0.993357,0.000000,1.000000,0.431923,0.001348,0.062644,0.851399,1.000000,0.000000,2.000000,224.261005,1.330000,9.000000,0.290316,1.000000,2.410092,9.940209,0.000000,300.000000,1.011877,9.190097,0.062644,170.428308,10.000000,1.000000,2.000000,6
/home/daniel/Projects/ppsevolution/data/maps/custom_maps/Custom_4_Run_0_Map.csv,squared_error,3.2339177789714806e-08,0.5001,0.7202,0.542486,1.000000,0.000000,0.238351,0.399727,0.059526,0.822477,1.000000,0.864555,0.000000,0.022581,0.019576,0.736221,0.996861,0.066829,2.000000,219.935048,1.330000,9.000000,0.238351,80.545745,1.065493,8.402292,1.000000,276.297210,0.770000,12.183972,0.019576,147.507883,9.970182,1.601460,2.000000,7
/home/daniel/Projects/ppsevolution/data/maps/custom_maps/Custom_4_Run_0_Map.csv,squared_error,5.729984257214732e-07,0.4993,0.7192,0.432611,0.871824,0.000000,0.318721,0.113776,0.000000,0.615131,1.000000,0.974275,0.000000,0.000000,0.000000,1.000000,1.000000,0.084703,1.000000,200.706897,1.258221,9.000000,0.318721,23.641435,0.500000,6.536181,1.000000,295.498208,0.770000,9.000000,0.000000,200.000000,10.000000,1.762325,1.000000,8
/home/daniel/Projects/ppsevolution/data/maps/custom_maps/Custom_4_Run_0_Map.csv,squared_error,1.9996668477587133e-07,0.4998,0.7194,0.513553,0.989160,0.000000,0.297954,0.160584,0.000000,1.000000,0.000000,1.000000,0.164577,0.000000,0.014387,1.000000,0.969235,0.220526,2.000000,214.871846,1.323929,9.000000,0.297954,32.956208,0.500000,10.000000,0.000000,300.000000,0.862163,9.000000,0.014387,200.000000,9.707731,2.984730,2.000000,9
map,fitness,fitness value,team0ratio,time,HP,Speed,Damage,Acc,ClipSize,RateOfFire,NrBullets,Range,HP,Speed,Damage,Acc,ClipSize,RateOfFire,NrBullets,Range,HP,Speed,Damage,Acc,ClipSize,RateOfFire,NrBullets,Range,HP,Speed,Damage,Acc,ClipSize,RateOfFire,NrBullets,Range,Run,target team0ratio: 0.5,target time: 0.72
/home/daniel/Projects/ppsevolution/data/maps/custom_maps/Custom_5_Run_0_Map.csv,squared_error,3.8591806648186045e-07,0.4992,0.7204,0.580743,0.880597,0.116737,0.293899,0.006284,0.129026,1.000000,0.000000,1.000000,0.280834,0.000000,0.277118,1.000000,0.947969,0.045025,0.000000,226.630091,1.263134,25.459894,0.293899,2.250615,1.725745,10.000000,0.000000,300.000000,0.927267,9.000000,0.277118,200.000000,9.505703,1.405224,0.000000,0
/home/daniel/Projects/ppsevolution/data/maps/custom_maps/Custom_5_Run_0_Map.csv,squared_error,8.07703080312871e-07,0.5000,0.7187,0.318089,1.000000,0.000000,0.440511,0.115017,0.007024,0.801545,2.000000,1.000000,0.199905,0.000000,0.164801,0.833260,1.000000,0.000000,2.000000,180.665511,1.330000,9.000000,0.440511,23.888367,0.566726,8.213908,2.000000,300.000000,0.881947,9.000000,0.164801,166.818776,10.000000,1.000000,2.000000,1
/home/daniel/Projects/ppsevolution/data/maps/custom_maps/Custom_5_Run_0_Map.csv,squared_error,3.0434397095005093e-07,0.5000,0.7192,0.187379,1.000000,0.072514,0.307826,0.116968,0.121336,1.000000,1.000000,0.860820,0.000000,0.000000,0.110604,0.929571,0.839520,0.000000,0.000000,157.791264,1.330000,19.224449,0.307826,24.276626,1.652690,10.000000,1.000000,275.643445,0.770000,9.000000,0.110604,185.984664,8.475444,1.000000,0.000000,2
/home/daniel/Projects/ppsevolution/data/maps/custom_maps/Custom_5_Run_0_Map.csv,squared_error,5.734279268494989e-07,0.5010,0.7203,0.000000,1.000000,0.158885,0.268665,0.000000,0.066709,1.000000,0.000000,0.950737,0.000000,0.000000,0.000000,1.000000,0.744610,0.000000,2.000000,125.000000,1.330000,31.402849,0.268665,1.000000,1.133734,10.000000,0.000000,291.378956,0.770000,9.000000,0.000000,200.000000,7.573797,1.000000,2.000000,3
/home/daniel/Projects/ppsevolution/data/maps/custom_maps/Custom_5_Run_0_Map.csv,squared_error,7.227809543593505e-07,0.5011,0.7205,0.205456,1.000000,0.000000,0.454339,0.346501,0.000000,0.888183,0.000000,1.000000,0.082373,0.029667,0.091276,1.000000,1.000000,0.019185,0.000000,160.954817,1.330000,9.000000,0.454339,69.953736,0.500000,8.993650,0.000000,300.000000,0.816129,13.182981,0.091276,200.000000,10.000000,1.172661,0.000000,4
/home/daniel/Projects/ppsevolution/data/maps/custom_maps/Custom_5_Run_0_Map.csv,squared_error,3.5402293823667504e-07,0.5002,0.7208,0.326786,0.865782,0.000000,0.407261,0.239993,0.066661,0.717306,1.000000,0.895794,0.094679,0.043931,0.125845,0.705352,0.978927,0.000000,1.000000,182.187604,1.254838,9.000000,0.407261,48.758606,1.133278,7.455750,1.000000,281.764024,0.823020,15.194210,0.125845,141.365083,9.799808,1.000000,1.000000,5
/home/daniel/Projects/ppsevolution/data/maps/custom_maps/Custom_5_Run_0_Map.csv,squared_error,2.308887458298307e-07,0.4996,0.7206,0.360567,0.849940,0.000000,0.395679,0.267231,0.281110,1.000000,2.000000,0.954030,0.000000,0.027043,0.150832,0.869402,0.816469,0.000209,0.000000,188.099297,1.245966,9.000000,0.395679,54.178984,3.170541,10.000000,2.000000,291.955334,0.770000,12.813035,0.150832,174.010952,8.256454,1.001885,0.000000,6
/home/daniel/Projects/ppsevolution/data/maps/custom_maps/Custom_5_Run_0_Map.csv,squared_error,1.2132518788802352e-07,0.5003,0.7197,0.139341,0.927279,0.000000,0.461224,0.061409,0.058856,0.600949,2.000000,0.996853,0.136157,0.000000,0.079915,0.685599,0.849421,0.021418,1.000000,149.384703,1.289276,9.000000,0.461224,13.220339,1.059136,6.408545,2.000000,299.449225,0.846248,9.000000,0.079915,137.434294,8.569496,1.192761,1.000000,7
/home/daniel/Projects/ppsevolution/data/maps/custom_maps/Custom_5_Run_0_Map.csv,squared_error,7.466772031790302e-07,0.5010,0.7194,0.041051,0.967369,0.034040,0.405020,0.034383,0.219359,1.000000,2.000000,1.000000,0.000000,0.000000,0.012507,0.990702,1.000000,0.050072,2.000000,132.183917,1.311727,13.799577,0.405020,7.842248,2.583915,10.000000,2.000000,300.000000,0.770000,9.000000,0.012507,198.149736,10.000000,1.450647,2.000000,8
/home/daniel/Projects/ppsevolution/data/maps/custom_maps/Custom_5_Run_0_Map.csv,squared_error,6.525326882751713e-07,0.4990,0.7194,0.069646,0.768415,0.103540,0.394463,0.417214,0.000000,0.401256,0.000000,1.000000,0.013121,0.000000,0.016718,0.666416,1.000000,0.295883,1.000000,137.188066,1.200312,23.599182,0.394463,84.025545,0.500000,4.611307,0.000000,300.000000,0.777348,9.000000,0.016718,133.616782,10.000000,3.662948,1.000000,9
map,fitness,fitness value,team0ratio,time,HP,Speed,Damage,Acc,ClipSize,RateOfFire,NrBullets,Range,HP,Speed,Damage,Acc,ClipSize,RateOfFire,NrBullets,Range,HP,Speed,Damage,Acc,ClipSize,RateOfFire,NrBullets,Range,HP,Speed,Damage,Acc,ClipSize,RateOfFire,NrBullets,Range,Run,target team0ratio: 0.5,target time: 0.72
/home/daniel/Projects/ppsevolution/data/maps/custom_maps/Custom_6_Run_0_Map.csv,squared_error,6.142232191138246e-07,0.5003,0.7211,0.000000,1.000000,0.041629,0.693334,0.030000,0.049182,1.000000,1.000000,0.913707,0.230370,0.000000,0.517630,0.959969,1.000000,0.000000,0.000000,125.000000,1.330000,14.869747,0.693334,6.970000,0.967228,10.000000,1.000000,284.898675,0.899007,9.000000,0.517630,192.033787,10.000000,1.000000,0.000000,0
/home/daniel/Projects/ppsevolution/data/maps/custom_maps/Custom_6_Run_0_Map.csv,squared_error,8.934565709325067e-07,0.4998,0.7213,0.108181,1.000000,0.185075,0.611181,0.000000,0.026471,1.000000,2.000000,1.000000,0.020263,0.000000,0.524668,1.000000,0.940619,0.068541,2.000000,143.931599,1.330000,35.095631,0.611181,1.000000,0.751477,10.000000,2.000000,300.000000,0.781347,9.000000,0.524668,200.000000,9.435883,1.616873,2.000000,1
/home/daniel/Projects/ppsevolution/data/maps/custom_maps/Custom_6_Run_0_Map.csv,squared_error,6.348896344661642e-07,0.5011,0.7201,0.198506,1.000000,0.210000,0.615018,0.007725,0.000000,0.812500,1.000000,1.000000,0.000000,0.000000,0.567142,0.951092,1.000000,0.000000,2.000000,159.738548,1.330000,38.610000,0.615018,2.537268,0.500000,8.312501,1.000000,300.000000,0.770000,9.000000,0.567142,190.267264,10.000000,1.000000,2.000000,2
/home/daniel/Projects/ppsevolution/data/maps/custom_maps/Custom_6_Run_0_Map.csv,squared_error,6.562478713163862e-07,0.5011,0.7196,0.072778,0.652154,0.286154,0.552208,0.170019,0.008864,1.000000,1.000000,1.000000,0.041804,0.000000,0.525107,0.974000,1.000000,0.000000,1.000000,137.736236,1.135206,49.347721,0.552208,34.833682,0.584207,10.000000,1.000000,300.000000,0.793410,9.000000,0.525107,194.826055,10.000000,1.000000,1.000000,3
/home/daniel/Projects/ppsevolution/data/maps/custom_maps/Custom_6_Run_0_Map.csv,squared_error,5.547117096511743e-07,0.5003,0.7190,0.234546,0.699976,0.121784,0.655800,0.000000,0.161479,1.000000,2.000000,1.000000,0.000000,0.117361,0.491846,0.999965,0.911143,0.117068,1.000000,166.045568,1.161986,26.171551,0.655800,1.000000,2.034050,10.000000,2.000000,300.000000,0.770000,25.547917,0.491846,199.993091,9.155861,2.053612,1.000000,4
/home/daniel/Projects/ppsevolution/data/maps/custom_maps/Custom_6_Run_0_Map.csv,squared_error,6.743917279557235e-07,0.4989,0.7195,0.228244,0.974219,0.000000,0.747503,0.000000,0.032302,0.548467,1.000000,1.000000,0.207255,0.000000,0.600000,1.000000,0.825355,0.000000,1.000000,164.942771,1.315563,9.000000,0.747503,1.000000,0.806870,5.936202,1.000000,300.000000,0.886063,9.000000,0.600000,200.000000,8.340875,1.000000,1.000000,5
/home/daniel/Projects/ppsevolution/data/maps/custom_maps/Custom_6_Run_0_Map.csv,squared_error,6.559800694646188e-07,0.4996,0.7211,0.215532,0.911568,0.000000,0.723979,0.116221,0.200878,0.964239,0.000000,1.000000,0.000000,0.000805,0.559001,1.000000,0.887273,0.169246,2.000000,162.718024,1.280478,9.000000,0.723979,24.127922,2.408342,9.678150,0.000000,300.000000,0.770000,9.113469,0.559001,200.000000,8.929097,2.523213,2.000000,6
/home/daniel/Projects/ppsevolution/data/maps/custom_maps/Custom_6_Run_0_Map.csv,squared_error,2.399369697066372e-07,0.4993,0.7201,0.000000,1.000000,0.283537,0.589745,0.109149,0.000000,0.733540,2.000000,1.000000,0.088669,0.194161,0.383034,0.908359,0.863227,0.000000,0.000000,125.000000,1.330000,48.978765,0.589745,22.720737,0.500000,7.601858,2.000000,300.000000,0.819655,36.376771,0.383034,181.763500,8.700653,1.000000,0.000000,7
/home/daniel/Projects/ppsevolution/data/maps/custom_maps/Custom_6_Run_0_Map.csv,squared_error,4.405855922413817e-07,0.4996,0.7191,0.198200,0.620490,0.210000,0.622791,0.131477,0.362424,0.862856,0.000000,0.981508,0.428097,0.098121,0.509855,1.000000,0.988822,0.000000,0.000000,159.685035,1.117474,38.610000,0.622791,27.163845,3.943025,8.765708,0.000000,296.763841,1.009734,22.835116,0.509855,200.000000,9.893807,1.000000,0.000000,8
/home/daniel/Projects/ppsevolution/data/maps/custom_maps/Custom_6_Run_0_Map.csv,squared_error,5.474194826689696e-07,0.5003,0.7210,0.089078,0.782522,0.146063,0.625540,0.194457,0.194606,1.000000,1.000000,0.921580,0.114323,0.000000,0.530451,0.953966,1.000000,0.000000,2.000000,140.588737,1.208212,29.594886,0.625540,39.696866,2.348761,10.000000,1.000000,286.276515,0.834021,9.000000,0.530451,190.839270,10.000000,1.000000,2.000000,9
map,fitness,fitness value,team0ratio,time,HP,Speed,Damage,Acc,ClipSize,RateOfFire,NrBullets,Range,HP,Speed,Damage,Acc,ClipSize,RateOfFire,NrBullets,Range,HP,Speed,Damage,Acc,ClipSize,RateOfFire,NrBullets,Range,HP,Speed,Damage,Acc,ClipSize,RateOfFire,NrBullets,Range,Run,target team0ratio: 0.5,target time: 0.72
/home/daniel/Projects/ppsevolution/data/maps/custom_maps/Custom_7_Run_0_Map.csv,squared_error,6.749283689629246e-07,0.5012,0.7200,0.230720,1.000000,0.210000,0.310884,0.000000,0.087264,1.000000,1.000000,0.972142,0.103861,0.000000,0.231038,1.000000,0.862384,0.031137,1.000000,165.375988,1.330000,38.610000,0.310884,1.000000,1.329010,10.000000,1.000000,295.124869,0.828162,9.000000,0.231038,200.000000,8.692653,1.280231,1.000000,0
/home/daniel/Projects/ppsevolution/data/maps/custom_maps/Custom_7_Run_0_Map.csv,squared_error,4.311777918360535e-07,0.5006,0.7207,0.274438,1.000000,0.257534,0.265596,0.353497,0.004230,1.000000,2.000000,1.000000,0.024725,0.038223,0.207581,0.796041,0.823909,0.000000,2.000000,173.026612,1.330000,45.312274,0.265596,71.345883,0.540189,10.000000,2.000000,300.000000,0.783846,14.389411,0.207581,159.412064,8.327135,1.000000,2.000000,1
/home/daniel/Projects/ppsevolution/data/maps/custom_maps/Custom_7_Run_0_Map.csv,squared_error,5.927105364385177e-07,0.4997,0.7190,0.000000,0.807461,0.006259,0.522318,0.359382,0.008106,1.000000,2.000000,1.000000,0.000000,0.000000,0.137222,1.000000,1.000000,0.000000,2.000000,125.000000,1.222178,9.882536,0.522318,72.517101,0.577008,10.000000,2.000000,300.000000,0.770000,9.000000,0.137222,200.000000,10.000000,1.000000,2.000000,2
/home/daniel/Projects/ppsevolution/data/maps/custom_maps/Custom_7_Run_0_Map.csv,squared_error,5.476597550640256e-08,0.4997,0.7201,0.327770,0.948514,0.000000,0.523076,0.009071,0.197956,0.771691,0.000000,0.988304,0.000000,0.000000,0.283628,1.000000,1.000000,0.025322,0.000000,182.359743,1.301168,9.000000,0.523076,2.805189,2.380582,7.945220,0.000000,297.953282,0.770000,9.000000,0.283628,200.000000,10.000000,1.227898,0.000000,3
/home/daniel/Projects/ppsevolution/data/maps/custom_maps/Custom_7_Run_0_Map.csv,squared_error,2.4243558867171367e-07,0.5003,0.7206,0.114646,1.000000,0.221908,0.328264,0.592043,0.112138,0.808939,0.000000,0.978692,0.000000,0.000000,0.180649,0.909352,1.000000,0.044245,1.000000,145.063068,1.330000,40.289045,0.328264,118.816471,1.565308,8.280452,0.000000,296.271026,0.770000,9.000000,0.180649,181.961020,10.000000,1.398209,1.000000,4
/home/daniel/Projects/ppsevolution/data/maps/custom_maps/Custom_7_Run_0_Map.csv,squared_error,2.21760947665638e-06,0.4995,0.7179,0.272529,0.741401,0.000000,0.539618,0.047781,0.010371,0.892509,0.000000,1.000000,0.125708,0.026984,0.222551,1.000000,1.000000,0.205796,2.000000,172.692660,1.185184,9.000000,0.539618,10.508369,0.598528,9.032581,0.000000,300.000000,0.840396,12.804741,0.222551,200.000000,10.000000,2.852161,2.000000,5
/home/daniel/Projects/ppsevolution/data/maps/custom_maps/Custom_7_Run_0_Map.csv,squared_error,3.778414451723011e-07,0.4996,0.7192,0.284307,0.913868,0.000000,0.535817,0.000000,0.015832,0.448157,1.000000,0.933664,0.110165,0.000000,0.274703,0.946650,0.894922,0.046608,2.000000,174.753740,1.281766,9.000000,0.535817,1.000000,0.650400,5.033416,1.000000,288.391212,0.831693,9.000000,0.274703,189.383306,9.001756,1.419470,2.000000,6
/home/daniel/Projects/ppsevolution/data/maps/custom_maps/Custom_7_Run_0_Map.csv,squared_error,5.375885808518816e-07,0.5010,0.7197,0.265046,0.812173,0.000000,0.501494,0.000000,0.157913,1.000000,0.000000,0.908856,0.287172,0.000000,0.215685,0.933485,0.749367,0.391625,2.000000,171.382982,1.224817,9.000000,0.501494,1.000000,2.000175,10.000000,0.000000,284.049767,0.930816,9.000000,0.215685,186.763590,7.618987,4.524626,2.000000,7
/home/daniel/Projects/ppsevolution/data/maps/custom_maps/Custom_7_Run_0_Map.csv,squared_error,4.306958108742437e-07,0.4993,0.7206,0.323717,1.000000,0.000000,0.513546,0.000000,0.125862,1.000000,0.000000,1.000000,0.000000,0.000000,0.273936,0.964776,1.000000,0.076185,1.000000,181.650556,1.330000,9.000000,0.513546,1.000000,1.695686,10.000000,0.000000,300.000000,0.770000,9.000000,0.273936,192.990337,10.000000,1.685668,1.000000,8
/home/daniel/Projects/ppsevolution/data/maps/custom_maps/Custom_7_Run_0_Map.csv,squared_error,1.906768905087018e-07,0.5005,0.7196,0.219876,0.745973,0.000000,0.490128,0.092572,0.004060,0.945287,1.000000,0.907925,0.111835,0.086596,0.147383,1.000000,0.765153,0.000000,0.000000,163.478386,1.187745,9.000000,0.490128,19.421820,0.538572,9.507585,1.000000,283.886844,0.832627,21.210043,0.147383,200.000000,7.768958,1.000000,0.000000,9
map,fitness,fitness value,team0ratio,time,HP,Speed,Damage,Acc,ClipSize,RateOfFire,NrBullets,Range,HP,Speed,Damage,Acc,ClipSize,RateOfFire,NrBullets,Range,HP,Speed,Damage,Acc,ClipSize,RateOfFire,NrBullets,Range,HP,Speed,Damage,Acc,ClipSize,RateOfFire,NrBullets,Range,Run,target team0ratio: 0.5,target time: 0.72
/home/daniel/Projects/ppsevolution/data/maps/custom_maps/Custom_8_Run_0_Map.csv,squared_error,3.8443955125160963e-07,0.5008,0.7202,0.274807,0.700467,0.000000,0.348554,0.000000,0.174402,0.724496,1.000000,0.913787,0.000000,0.000000,0.026643,0.770267,0.976687,0.116797,2.000000,173.091266,1.162262,9.000000,0.348554,1.000000,2.156823,7.520462,1.000000,284.912688,0.770000,9.000000,0.026643,154.283221,9.778524,2.051175,2.000000,0
/home/daniel/Projects/ppsevolution/data/maps/custom_maps/Custom_8_Run_0_Map.csv,squared_error,1.7799191161033003e-07,0.5005,0.7204,0.656098,0.667445,0.000000,0.355903,0.049815,0.098093,0.876034,0.000000,1.000000,0.356152,0.000000,0.221047,0.801788,0.831999,0.040400,0.000000,239.817225,1.143769,9.000000,0.355903,10.913166,1.431882,8.884306,0.000000,300.000000,0.969445,9.000000,0.221047,160.555894,8.403995,1.363596,0.000000,1
/home/daniel/Projects/ppsevolution/data/maps/custom_maps/Custom_8_Run_0_Map.csv,squared_error,1.3777071814116988e-07,0.4999,0.7195,0.216326,1.000000,0.092302,0.279893,0.029891,0.000000,0.916143,0.000000,0.996077,0.291779,0.000000,0.006250,0.755101,0.745899,0.000000,2.000000,162.857105,1.330000,22.014584,0.279893,6.948331,0.500000,9.245290,0.000000,299.313432,0.933396,9.000000,0.006250,151.265037,7.586045,1.000000,2.000000,2
/home/daniel/Projects/ppsevolution/data/maps/custom_maps/Custom_8_Run_0_Map.csv,squared_error,3.0841402150356216e-09,0.5001,0.7199,0.438632,0.938659,0.029582,0.313976,0.064568,0.274403,0.869509,0.000000,0.939954,0.062282,0.000000,0.131491,0.984938,0.981550,0.000000,0.000000,201.760647,1.295649,13.170996,0.313976,13.849110,3.106824,8.825578,0.000000,289.491910,0.804878,9.000000,0.131491,197.002591,9.824728,1.000000,0.000000,3
/home/daniel/Projects/ppsevolution/data/maps/custom_maps/Custom_8_Run_0_Map.csv,squared_error,4.290453320805942e-07,0.4991,0.7201,0.417587,0.835289,0.000000,0.362876,0.204331,0.208884,0.893390,1.000000,1.000000,0.193840,0.000000,0.093747,0.989906,1.000000,0.118629,2.000000,198.077761,1.237762,9.000000,0.362876,41.661873,2.484395,9.040513,1.000000,300.000000,0.878551,9.000000,0.093747,197.991320,10.000000,2.067657,2.000000,4
/home/daniel/Projects/ppsevolution/data/maps/custom_maps/Custom_8_Run_0_Map.csv,squared_error,5.646349033667947e-07,0.5001,0.7189,0.282491,1.000000,0.000000,0.373320,0.198553,0.016319,0.994510,0.000000,1.000000,0.064230,0.000000,0.052667,1.000000,0.959413,0.026152,2.000000,174.435935,1.330000,9.000000,0.373320,40.512048,0.655027,9.950593,0.000000,300.000000,0.805969,9.000000,0.052667,200.000000,9.614427,1.235369,2.000000,5
/home/daniel/Projects/ppsevolution/data/maps/custom_maps/Custom_8_Run_0_Map.csv,squared_error,9.539285982470239e-07,0.5005,0.7213,0.203423,1.000000,0.000000,0.287233,0.034177,0.136953,0.832880,2.000000,0.789118,0.000000,0.000000,0.002641,0.813041,1.000000,0.065615,1.000000,160.599103,1.330000,9.000000,0.287233,7.801197,1.801054,8.495921,2.000000,263.095651,0.770000,9.000000,0.002641,162.795230,10.000000,1.590533,1.000000,6
/home/daniel/Projects/ppsevolution/data/maps/custom_maps/Custom_8_Run_0_Map.csv,squared_error,3.9775792357657836e-07,0.4993,0.7195,0.427438,1.000000,0.045913,0.277163,0.076611,0.000000,0.827868,2.000000,0.905889,0.066462,0.000000,0.119352,1.000000,0.819866,0.000000,2.000000,199.801671,1.330000,15.473766,0.277163,16.245493,0.500000,8.450809,2.000000,283.530642,0.807219,9.000000,0.119352,200.000000,8.288727,1.000000,2.000000,7
/home/daniel/Projects/ppsevolution/data/maps/custom_maps/Custom_8_Run_0_Map.csv,squared_error,1.6997326374906968e-07,0.5003,0.7205,0.342609,0.914853,0.066844,0.312197,0.000000,0.000000,0.763218,0.000000,1.000000,0.038532,0.000000,0.069850,0.860805,0.573527,0.027595,2.000000,184.956538,1.282318,18.424989,0.312197,1.000000,0.500000,7.868962,0.000000,300.000000,0.791578,9.000000,0.069850,172.300267,5.948510,1.248353,2.000000,8
/home/daniel/Projects/ppsevolution/data/maps/custom_maps/Custom_8_Run_0_Map.csv,squared_error,6.691534993848483e-07,0.5010,0.7206,0.208990,0.874452,0.000000,0.376158,0.071770,0.000000,0.595563,1.000000,0.934812,0.000000,0.000000,0.027731,0.998377,0.999546,0.000000,0.000000,161.573199,1.259693,9.000000,0.376158,15.282197,0.500000,6.360071,1.000000,288.592038,0.770000,9.000000,0.027731,199.677077,9.995684,1.000000,0.000000,9
map,fitness,fitness value,team0ratio,time,HP,Speed,Damage,Acc,ClipSize,RateOfFire,NrBullets,Range,HP,Speed,Damage,Acc,ClipSize,RateOfFire,NrBullets,Range,HP,Speed,Damage,Acc,ClipSize,RateOfFire,NrBullets,Range,HP,Speed,Damage,Acc,ClipSize,RateOfFire,NrBullets,Range,Run,target team0ratio: 0.5,target time: 0.72
/home/daniel/Projects/ppsevolution/data/maps/custom_maps/Custom_9_Run_0_Map.csv,squared_error,6.901776980867974e-07,0.5010,0.7194,0.687226,1.000000,0.000000,0.191143,0.169210,0.000000,0.882197,0.000000,1.000000,0.066751,0.000000,0.117964,1.000000,0.739041,0.000000,0.000000,245.264518,1.330000,9.000000,0.191143,34.672870,0.500000,8.939775,0.000000,300.000000,0.807381,9.000000,0.117964,200.000000,7.520887,1.000000,0.000000,0
/home/daniel/Projects/ppsevolution/data/maps/custom_maps/Custom_9_Run_0_Map.csv,squared_error,9.611965521123619e-07,0.4996,0.7187,0.525336,0.868478,0.000000,0.203653,0.000000,0.169111,0.784658,1.000000,0.991907,0.243405,0.010819,0.000000,1.000000,1.000000,0.076812,1.000000,216.933801,1.256348,9.000000,0.203653,1.000000,2.106559,8.061922,1.000000,298.583691,0.906307,10.525485,0.000000,200.000000,10.000000,1.691312,1.000000,1
/home/daniel/Projects/ppsevolution/data/maps/custom_maps/Custom_9_Run_0_Map.csv,squared_error,5.1881220511524915e-08,0.4998,0.7203,0.502664,1.000000,0.045654,0.133688,0.161490,0.352530,0.885520,1.000000,1.000000,0.035492,0.000000,0.000000,0.980766,0.652556,0.000000,2.000000,212.966168,1.330000,15.437162,0.133688,33.136499,3.849032,8.969683,1.000000,300.000000,0.789875,9.000000,0.000000,196.172431,6.699282,1.000000,2.000000,2
/home/daniel/Projects/ppsevolution/data/maps/custom_maps/Custom_9_Run_0_Map.csv,squared_error,4.180452746822916e-07,0.5009,0.7197,0.528785,0.974126,0.049502,0.158274,0.151338,0.377551,0.639180,1.000000,1.000000,0.352215,0.003192,0.000000,0.913105,0.825535,0.085743,0.000000,217.537326,1.315511,15.979772,0.158274,31.116218,4.086730,6.752619,1.000000,300.000000,0.967241,9.450041,0.000000,182.707805,8.342582,1.771690,0.000000,3
/home/daniel/Projects/ppsevolution/data/maps/custom_maps/Custom_9_Run_0_Map.csv,squared_error,3.057028527393827e-07,0.5008,0.7198,0.476641,1.000000,0.000000,0.165823,0.110515,0.097598,0.942405,0.000000,0.940087,0.088277,0.000000,0.000000,0.679797,0.974313,0.000000,1.000000,208.412124,1.330000,9.000000,0.165823,22.992565,1.427178,9.481641,0.000000,289.515176,0.819435,9.000000,0.000000,136.279642,9.755971,1.000000,1.000000,4
/home/daniel/Projects/ppsevolution/data/maps/custom_maps/Custom_9_Run_0_Map.csv,squared_error,6.92839087975024e-08,0.5004,0.7200,0.493024,0.796580,0.000000,0.200502,0.041765,0.000000,0.798783,1.000000,1.000000,0.071775,0.000000,0.000000,0.932859,0.871652,0.000000,2.000000,211.279140,1.216085,9.000000,0.200502,9.311204,0.500000,8.189047,1.000000,300.000000,0.810194,9.000000,0.000000,186.638860,8.780698,1.000000,2.000000,5
/home/daniel/Projects/ppsevolution/data/maps/custom_maps/Custom_9_Run_0_Map.csv,squared_error,4.642024432229418e-07,0.5001,0.7210,0.690953,1.000000,0.000000,0.188419,0.005891,0.000000,0.852072,0.000000,1.000000,0.000000,0.088792,0.000000,0.814468,0.919065,0.000000,2.000000,245.916822,1.330000,9.000000,0.188419,2.172291,0.500000,8.668646,0.000000,300.000000,0.770000,21.519623,0.000000,163.079171,9.231113,1.000000,2.000000,6
/home/daniel/Projects/ppsevolution/data/maps/custom_maps/Custom_9_Run_0_Map.csv,squared_error,6.002487221763759e-07,0.4990,0.7195,0.495230,1.000000,0.003568,0.202515,0.081126,0.000000,0.796405,1.000000,1.000000,0.266197,0.000000,0.000000,1.000000,0.968048,0.043708,2.000000,211.665262,1.330000,9.503020,0.202515,17.143996,0.500000,8.167642,1.000000,300.000000,0.919070,9.000000,0.000000,200.000000,9.696460,1.393373,2.000000,7
/home/daniel/Projects/ppsevolution/data/maps/custom_maps/Custom_9_Run_0_Map.csv,squared_error,3.729524563027753e-08,0.4997,0.7201,0.496136,0.933472,0.000000,0.211148,0.000000,0.180204,0.585494,2.000000,1.000000,0.000000,0.000000,0.000000,1.000000,0.650455,0.000000,2.000000,211.823879,1.292744,9.000000,0.211148,1.000000,2.211942,6.269442,2.000000,300.000000,0.770000,9.000000,0.000000,200.000000,6.679326,1.000000,2.000000,8
/home/daniel/Projects/ppsevolution/data/maps/custom_maps/Custom_9_Run_0_Map.csv,squared_error,5.184924812169919e-07,0.5009,0.7204,0.564635,0.746676,0.026887,0.145529,0.148291,0.015618,0.976751,1.000000,1.000000,0.000000,0.028771,0.000000,0.944589,0.601985,0.000000,1.000000,223.811088,1.188139,12.791084,0.145529,30.510003,0.648372,9.790759,1.000000,300.000000,0.770000,13.056653,0.000000,188.973220,6.218853,1.000000,1.000000,9
map,fitness,fitness value,team0ratio,time,HP,Speed,Damage,Acc,ClipSize,RateOfFire,NrBullets,Range,HP,Speed,Damage,Acc,ClipSize,RateOfFire,NrBullets,Range,HP,Speed,Damage,Acc,ClipSize,RateOfFire,NrBullets,Range,HP,Speed,Damage,Acc,ClipSize,RateOfFire,NrBullets,Range,Run,target team0ratio: 0.5,target time: 0.72
/home/daniel/Projects/ppsevolution/data/maps/custom_maps/Custom_10_Run_0_Map.csv,squared_error,5.58592993638768e-07,0.5002,0.7210,0.154775,0.684491,0.000000,0.483746,0.000000,0.007700,0.837844,1.000000,1.000000,0.258396,0.000000,0.138047,0.963450,0.940627,0.000000,2.000000,152.085563,1.153315,9.000000,0.483746,1.000000,0.573149,8.540598,1.000000,300.000000,0.914702,9.000000,0.138047,192.726578,9.435954,1.000000,2.000000,0
/home/daniel/Projects/ppsevolution/data/maps/custom_maps/Custom_10_Run_0_Map.csv,squared_error,8.575143549023655e-07,0.4988,0.7195,0.329578,0.793752,0.000000,0.478961,0.000000,0.000000,0.877808,0.000000,1.000000,0.076801,0.000000,0.216662,0.672239,1.000000,0.133738,2.000000,182.676124,1.214501,9.000000,0.478961,1.000000,0.500000,8.900270,0.000000,300.000000,0.813009,9.000000,0.216662,134.775482,10.000000,2.203638,2.000000,1
/home/daniel/Projects/ppsevolution/data/maps/custom_maps/Custom_10_Run_0_Map.csv,squared_error,2.1253040634119853e-07,0.5000,0.7193,0.561221,0.974284,0.126105,0.238518,0.015488,0.000000,0.929729,2.000000,0.773618,0.000000,0.011745,0.324029,1.000000,0.916141,0.000000,2.000000,223.213608,1.315599,26.780754,0.238518,4.082143,0.500000,9.367559,2.000000,260.383075,0.770000,10.656029,0.324029,200.000000,9.203344,1.000000,2.000000,2
/home/daniel/Projects/ppsevolution/data/maps/custom_maps/Custom_10_Run_0_Map.csv,squared_error,8.367607182442551e-07,0.4990,0.7191,0.010773,0.655560,0.000000,0.488292,0.000000,0.000000,1.000000,0.000000,1.000000,0.000000,0.074058,0.000000,1.000000,0.898081,0.037487,0.000000,126.885313,1.137114,9.000000,0.488292,1.000000,0.500000,10.000000,0.000000,300.000000,0.770000,19.442132,0.000000,200.000000,9.031772,1.337386,0.000000,3
/home/daniel/Projects/ppsevolution/data/maps/custom_maps/Custom_10_Run_0_Map.csv,squared_error,5.414759948337301e-07,0.5009,0.7205,0.251717,0.859747,0.048964,0.425616,0.129556,0.450398,0.943321,0.000000,1.000000,0.062496,0.000000,0.186729,0.746228,1.000000,0.000000,0.000000,169.050434,1.251458,15.903983,0.425616,26.781648,4.778783,9.489888,0.000000,300.000000,0.804998,9.000000,0.186729,149.499371,10.000000,1.000000,0.000000,4
/home/daniel/Projects/ppsevolution/data/maps/custom_maps/Custom_10_Run_0_Map.csv,squared_error,6.65783653187201e-07,0.5011,0.7204,0.335906,0.846886,0.000000,0.470037,0.000000,0.002044,0.818981,0.000000,0.937886,0.329756,0.000000,0.219633,0.957793,0.899261,0.186974,0.000000,183.783594,1.244256,9.000000,0.470037,1.000000,0.519414,8.370831,0.000000,289.130105,0.954663,9.000000,0.219633,191.600785,9.042983,2.682765,0.000000,5
/home/daniel/Projects/ppsevolution/data/maps/custom_maps/Custom_10_Run_0_Map.csv,squared_error,8.501921399613023e-07,0.5002,0.7187,0.015697,0.569211,0.015446,0.466415,0.000000,0.214255,0.730697,0.000000,0.922060,0.012323,0.000000,0.072901,0.858902,1.000000,0.134488,0.000000,127.747057,1.088758,11.177849,0.466415,1.000000,2.535421,7.576276,0.000000,286.360507,0.776901,9.000000,0.072901,171.921531,10.000000,2.210392,0.000000,6
/home/daniel/Projects/ppsevolution/data/maps/custom_maps/Custom_10_Run_0_Map.csv,squared_error,8.647721983905889e-08,0.4996,0.7202,0.000000,0.718321,0.000000,0.414728,0.038286,0.194503,1.000000,1.000000,0.820876,0.190804,0.031464,0.000000,1.000000,0.849710,0.201019,2.000000,125.000000,1.172259,9.000000,0.414728,8.618834,2.347778,10.000000,1.000000,268.653258,0.876850,13.436461,0.000000,200.000000,8.572241,2.809170,2.000000,7
/home/daniel/Projects/ppsevolution/data/maps/custom_maps/Custom_10_Run_0_Map.csv,squared_error,4.3146069458612626e-07,0.4997,0.7191,0.404802,1.000000,0.046219,0.438079,0.408460,0.000000,0.836948,0.000000,1.000000,0.089823,0.108948,0.154215,0.996321,1.000000,0.000000,1.000000,195.840365,1.330000,15.516884,0.438079,82.283625,0.500000,8.532533,0.000000,300.000000,0.820301,24.361719,0.154215,199.267787,10.000000,1.000000,1.000000,8
/home/daniel/Projects/ppsevolution/data/maps/custom_maps/Custom_10_Run_0_Map.csv,squared_error,7.263578510048542e-07,0.5008,0.7191,0.257322,0.721973,0.074419,0.384668,0.025875,0.315715,1.000000,2.000000,1.000000,0.000000,0.083502,0.068779,0.899418,0.905869,0.129330,0.000000,170.031383,1.174305,19.493034,0.384668,6.149074,3.499291,10.000000,2.000000,300.000000,0.770000,20.773824,0.068779,179.984121,9.105758,2.163970,0.000000,9
