/home/daniel/Projects/ppsevolution/data/maps/custom_maps/Custom_1_Run_0_Map.csv,0.770249,1.000000,0.003884,0.000000,0.000000,0.092472,0.792657,0.000000,1.000000,0.125636,0.000000,0.000000,1.000000,0.747477,0.000000,0.000000
/home/daniel/Projects/ppsevolution/data/maps/custom_maps/Custom_1_Run_0_Map.csv,0.796110,0.945363,0.000000,0.000000,0.000000,0.184141,0.761092,0.000000,0.982676,0.224944,0.000000,0.000000,0.950916,0.822041,0.074073,2.000000
/home/daniel/Projects/ppsevolution/data/maps/custom_maps/Custom_1_Run_0_Map.csv,0.893171,0.932513,0.000000,0.000000,0.170169,0.740872,0.674719,0.000000,0.983520,0.114322,0.000000,0.012421,1.000000,1.000000,0.317251,1.000000
/home/daniel/Projects/ppsevolution/data/maps/custom_maps/Custom_1_Run_0_Map.csv,0.788835,0.988908,0.000000,0.000000,0.000000,0.168555,0.827128,0.000000,0.997989,0.024562,0.000000,0.000000,0.931694,0.931449,0.078524,1.000000
/home/daniel/Projects/ppsevolution/data/maps/custom_maps/Custom_1_Run_0_Map.csv,0.810573,1.000000,0.000000,0.000000,0.186267,0.084282,0.784892,0.000000,1.000000,0.230484,0.000000,0.000000,0.723074,0.930581,0.093828,1.000000
/home/daniel/Projects/ppsevolution/data/maps/custom_maps/Custom_1_Run_0_Map.csv,0.847051,0.633381,0.000000,0.000000,0.000000,0.032847,0.682219,0.000000,0.977414,0.126111,0.000000,0.037566,1.000000,0.809520,0.020992,0.000000
/home/daniel/Projects/ppsevolution/data/maps/custom_maps/Custom_1_Run_0_Map.csv,0.779159,0.973138,0.000000,0.027864,0.000000,0.054993,0.499777,1.000000,1.000000,0.047099,0.000000,0.000000,0.905710,0.655267,0.046263,0.000000
/home/daniel/Projects/ppsevolution/data/maps/custom_maps/Custom_1_Run_0_Map.csv,0.782676,0.738597,0.000000,0.063521,0.167101,0.209964,0.034167,1.000000,0.972478,0.345720,0.000000,0.000000,1.000000,0.818946,0.017991,1.000000
/home/daniel/Projects/ppsevolution/data/maps/custom_maps/Custom_1_Run_0_Map.csv,0.776893,1.000000,0.000000,0.000000,0.186987,0.020102,0.779773,1.000000,1.000000,0.031862,0.000000,0.000000,1.000000,0.826251,0.015774,1.000000
/home/daniel/Projects/ppsevolution/data/maps/custom_maps/Custom_1_Run_0_Map.csv,0.854639,0.758644,0.000000,0.000000,0.000000,0.000000,0.820627,0.000000,1.000000,0.000000,0.024580,0.000000,0.939212,1.000000,0.119654,1.000000
/home/daniel/Projects/ppsevolution/data/maps/custom_maps/Custom_2_Run_0_Map.csv,0.367709,0.846263,0.011044,0.544596,0.177574,0.061715,0.832996,1.000000,1.000000,0.147966,0.000000,0.314272,1.000000,0.653518,0.043224,0.000000
/home/daniel/Projects/ppsevolution/data/maps/custom_maps/Custom_2_Run_0_Map.csv,0.601730,1.000000,0.210000,0.330612,0.241602,0.077265,0.729994,0.000000,0.929126,0.038373,0.000000,0.397877,0.786117,0.843417,0.074046,0.000000
/home/daniel/Projects/ppsevolution/data/maps/custom_maps/Custom_2_Run_0_Map.csv,0.370013,0.795306,0.067113,0.491137,0.000000,0.000000,0.852555,1.000000,0.997018,0.035201,0.000000,0.311225,0.808858,0.813614,0.057957,0.000000
/home/daniel/Projects/ppsevolution/data/maps/custom_maps/Custom_2_Run_0_Map.csv,0.590236,1.000000,0.000000,0.542680,0.217315,0.226484,0.830669,0.000000,1.000000,0.171205,0.130683,0.281498,0.763521,1.000000,0.000000,0.000000
/home/daniel/Projects/ppsevolution/data/maps/custom_maps/Custom_2_Run_0_Map.csv,0.248485,0.922436,0.000000,0.530522,0.000000,0.183393,0.773652,0.000000,0.860206,0.000000,0.000000,0.264738,0.940822,0.589932,0.141154,2.000000
/home/daniel/Projects/ppsevolution/data/maps/custom_maps/Custom_2_Run_0_Map.csv,0.517626,0.964355,0.000000,0.551132,0.000000,0.000000,0.860813,1.000000,1.000000,0.121565,0.023708,0.323696,1.000000,0.864990,0.316869,1.000000
/home/daniel/Projects/ppsevolution/data/maps/custom_maps/Custom_2_Run_0_Map.csv,0.006807,0.817904,0.000000,0.573007,0.000000,0.007250,0.807632,0.000000,0.932032,0.147713,0.000000,0.168197,0.934698,0.741403,0.089785,1.000000
/home/daniel/Projects/ppsevolution/data/maps/custom_maps/Custom_2_Run_0_Map.csv,0.517581,0.866173,0.000000,0.545718,0.000393,0.074526,1.000000,0.000000,1.000000,0.143692,0.000000,0.381415,0.944929,0.676088,0.000000,1.000000
/home/daniel/Projects/ppsevolution/data/maps/custom_maps/Custom_2_Run_0_Map.csv,0.103817,0.743140,0.016085,0.528675,0.000000,0.000000,0.983241,2.000000,0.968489,0.156560,0.090916,0.097433,0.975101,0.981638,0.000000,1.000000
/home/daniel/Projects/ppsevolution/data/maps/custom_maps/Custom_2_Run_0_Map.csv,0.304725,0.984011,0.000000,0.571810,0.036150,0.000000,0.823293,1.000000,1.000000,0.312715,0.000000,0.292588,0.885184,0.953780,0.077886,2.000000
/home/daniel/Projects/ppsevolution/data/maps/custom_maps/Custom_3_Run_0_Map.csv,0.084165,0.859913,0.041520,0.585810,0.208164,0.061059,0.915018,0.000000,0.873699,0.478015,0.018022,0.333519,1.000000,1.000000,0.000000,2.000000
/home/daniel/Projects/ppsevolution/data/maps/custom_maps/Custom_3_Run_0_Map.csv,0.000000,0.705142,0.076442,0.590676,0.000000,0.086008,0.951369,0.000000,1.000000,0.104228,0.000000,0.310570,0.649329,1.000000,0.012461,0.000000
/home/daniel/Projects/ppsevolution/data/maps/custom_maps/Custom_3_Run_0_Map.csv,0.171709,0.894669,0.000000,0.639482,0.492803,0.030000,1.000000,1.000000,1.000000,0.000000,0.020517,0.375311,1.000000,1.000000,0.000000,1.000000
/home/daniel/Projects/ppsevolution/data/maps/custom_maps/Custom_3_Run_0_Map.csv,0.000000,0.914805,0.000000,0.670269,0.054871,0.093319,0.681724,0.000000,1.000000,0.000000,0.000000,0.336596,0.947116,1.000000,0.000000,0.000000
/home/daniel/Projects/ppsevolution/data/maps/custom_maps/Custom_3_Run_0_Map.csv,0.150412,1.000000,0.000000,0.664935,0.287123,0.000000,0.814180,0.000000,1.000000,0.234141,0.000000,0.399493,1.000000,0.591496,0.000956,0.000000
/home/daniel/Projects/ppsevolution/data/maps/custom_maps/Custom_3_Run_0_Map.csv,0.267362,1.000000,0.155333,0.499519,0.289282,0.155657,1.000000,1.000000,0.968934,0.000000,0.027130,0.386188,1.000000,0.677045,0.000000,1.000000
/home/daniel/Projects/ppsevolution/data/maps/custom_maps/Custom_3_Run_0_Map.csv,0.000000,1.000000,0.210000,0.443321,0.000000,0.156584,0.834174,2.000000,0.926550,0.046063,0.000000,0.276674,0.950277,1.000000,0.097500,1.000000
/home/daniel/Projects/ppsevolution/data/maps/custom_maps/Custom_3_Run_0_Map.csv,0.202849,0.912532,0.000000,0.574915,0.000000,0.000000,0.778791,1.000000,0.729880,0.089585,0.000000,0.417962,0.995445,1.000000,0.000000,0.000000
/home/daniel/Projects/ppsevolution/data/maps/custom_maps/Custom_3_Run_0_Map.csv,0.134111,1.000000,0.087733,0.573992,0.176920,0.130793,0.940007,1.000000,1.000000,0.545384,0.000000,0.349597,1.000000,0.468978,0.000000,2.000000
/home/daniel/Projects/ppsevolution/data/maps/custom_maps/Custom_3_Run_0_Map.csv,0.221865,1.000000,0.447330,0.234330,0.094039,0.000000,1.000000,0.000000,1.000000,0.219132,0.166534,0.193328,0.902181,0.856107,0.022579,1.000000
/home/daniel/Projects/ppsevolution/data/maps/custom_maps/Custom_4_Run_0_Map.csv,0.518038,0.781879,0.071148,0.177908,0.000000,0.000000,0.626229,1.000000,0.848422,0.078634,0.037707,0.000000,0.787161,0.872353,0.000000,0.000000
/home/daniel/Projects/ppsevolution/data/maps/custom_maps/Custom_4_Run_0_Map.csv,0.545224,0.902499,0.118074,0.183651,0.498194,0.129499,0.607156,0.000000,1.000000,0.207332,0.000000,0.024891,0.546598,0.894428,0.080595,1.000000
/home/daniel/Projects/ppsevolution/data/maps/custom_maps/Custom_4_Run_0_Map.csv,0.700335,0.953655,0.000000,0.254544,0.144374,0.253005,0.991230,2.000000,0.975715,0.000000,0.103524,0.000000,0.876425,1.000000,0.000000,2.000000
/home/daniel/Projects/ppsevolution/data/maps/custom_maps/Custom_4_Run_0_Map.csv,0.435045,0.904346,0.000000,0.294101,0.005701,0.123390,0.905329,1.000000,0.978453,0.000000,0.000000,0.000000,0.902403,0.930996,0.061814,0.000000
/home/daniel/Projects/ppsevolution/data/maps/custom_maps/Custom_4_Run_0_Map.csv,0.455559,0.620056,0.000000,0.269899,0.138987,0.000000,1.000000,2.000000,0.972941,0.025290,0.000000,0.000000,0.943791,0.860047,0.000000,2.000000
/home/daniel/Projects/ppsevolution/data/maps/custom_maps/Custom_4_Run_0_Map.csv,0.692614,0.880022,0.000000,0.259778,0.287303,0.014391,0.774102,1.000000,0.919784,0.000000,0.000000,0.115935,0.916024,0.888522,0.154234,2.000000
/home/daniel/Projects/ppsevolution/data/maps/custom_maps/Custom_4_Run_0_Map.csv,0.438913,1.000000,0.040976,0.253454,0.318983,0.065554,1.000000,0.000000,1.000000,0.112714,0.000000,0.000000,0.861708,0.925436,0.029949,0.000000
/home/daniel/Projects/ppsevolution/data/maps/custom_maps/Custom_4_Run_0_Map.csv,0.408333,1.000000,0.000000,0.330688,0.000000,0.000000,0.673206,0.000000,1.000000,0.139029,0.000000,0.000000,0.742634,0.645586,0.000000,0.000000
/home/daniel/Projects/ppsevolution/data/maps/custom_maps/Custom_4_Run_0_Map.csv,0.493964,0.848487,0.167273,0.095542,0.000000,0.000000,0.929283,2.000000,1.000000,0.042350,0.000000,0.000000,0.923503,0.967730,0.092780,1.000000
/home/daniel/Projects/ppsevolution/data/maps/custom_maps/Custom_4_Run_0_Map.csv,0.472028,0.835413,0.003607,0.290277,0.060888,0.267388,0.884583,1.000000,1.000000,0.000000,0.009305,0.000000,1.000000,0.579821,0.031063,1.000000
/home/daniel/Projects/ppsevolution/data/maps/custom_maps/Custom_5_Run_0_Map.csv,0.410253,0.903020,0.148258,0.267142,0.331246,0.276184,0.957835,0.000000,1.000000,0.000000,0.000000,0.197307,0.931869,0.926228,0.000000,0.000000
/home/daniel/Projects/ppsevolution/data/maps/custom_maps/Custom_5_Run_0_Map.csv,0.125347,1.000000,0.210000,0.214846,0.031830,0.057849,0.858029,0.000000,0.971129,0.112706,0.000000,0.060200,0.450032,0.939933,0.000000,0.000000
/home/daniel/Projects/ppsevolution/data/maps/custom_maps/Custom_5_Run_0_Map.csv,0.168098,0.955640,0.000000,0.410785,0.244238,0.029575,0.783608,1.000000,0.882564,0.000000,0.000000,0.106470,0.919917,0.985504,0.000000,1.000000
/home/daniel/Projects/ppsevolution/data/maps/custom_maps/Custom_5_Run_0_Map.csv,0.211021,1.000000,0.000000,0.448096,0.149106,0.326536,0.928485,0.000000,1.000000,0.000000,0.099733,0.016912,0.910675,0.784693,0.000000,1.000000
/home/daniel/Projects/ppsevolution/data/maps/custom_maps/Custom_5_Run_0_Map.csv,0.474946,0.603581,0.000000,0.404649,0.121769,0.261816,0.815556,2.000000,0.955063,0.000000,0.000000,0.202179,0.941315,1.000000,0.189152,2.000000
/home/daniel/Projects/ppsevolution/data/maps/custom_maps/Custom_5_Run_0_Map.csv,0.315324,0.799817,0.000000,0.406391,0.211555,0.000000,0.815795,2.000000,0.921297,0.000000,0.067736,0.071055,0.914355,0.794308,0.131359,2.000000
/home/daniel/Projects/ppsevolution/data/maps/custom_maps/Custom_5_Run_0_Map.csv,0.407363,0.976860,0.000000,0.412586,0.054743,0.138710,0.938475,1.000000,0.948746,0.469791,0.058462,0.124749,0.810477,0.916945,0.102138,2.000000
/home/daniel/Projects/ppsevolution/data/maps/custom_maps/Custom_5_Run_0_Map.csv,0.464104,0.341667,0.014870,0.399759,0.204532,0.000000,0.826176,0.000000,0.922785,0.161315,0.007859,0.227761,1.000000,1.000000,0.072230,0.000000
/home/daniel/Projects/ppsevolution/data/maps/custom_maps/Custom_5_Run_0_Map.csv,0.177135,0.920428,0.056916,0.327897,0.071286,0.174090,0.911209,0.000000,0.843170,0.021967,0.000000,0.100554,0.894470,0.871257,0.000360,2.000000
/home/daniel/Projects/ppsevolution/data/maps/custom_maps/Custom_5_Run_0_Map.csv,0.381415,1.000000,0.133194,0.288351,0.199028,0.057860,0.892445,1.000000,1.000000,0.000000,0.000000,0.181597,0.722275,1.000000,0.054570,0.000000
/home/daniel/Projects/ppsevolution/data/maps/custom_maps/Custom_6_Run_0_Map.csv,0.000000,0.942651,0.000000,0.736466,0.000000,0.325447,1.000000,0.000000,1.000000,0.000000,0.000000,0.483595,0.808525,0.615159,0.445893,0.000000
/home/daniel/Projects/ppsevolution/data/maps/custom_maps/Custom_6_Run_0_Map.csv,0.000000,0.712857,0.210000,0.607217,0.000000,0.030000,1.000000,2.000000,1.000000,0.000000,0.006936,0.483585,1.000000,0.908392,0.181937,2.000000
/home/daniel/Projects/ppsevolution/data/maps/custom_maps/Custom_6_Run_0_Map.csv,0.292298,1.000000,0.032414,0.710021,0.000000,0.228564,1.000000,0.000000,1.000000,0.630545,0.000000,0.586342,1.000000,1.000000,0.071640,2.000000
/home/daniel/Projects/ppsevolution/data/maps/custom_maps/Custom_6_Run_0_Map.csv,0.334559,1.000000,0.170093,0.614442,0.000000,0.030000,1.000000,2.000000,1.000000,0.109368,0.000000,0.600000,1.000000,1.000000,0.000000,0.000000
/home/daniel/Projects/ppsevolution/data/maps/custom_maps/Custom_6_Run_0_Map.csv,0.003116,0.982792,0.000000,0.734651,0.151717,0.000000,0.840047,0.000000,0.948003,0.000000,0.000000,0.516949,1.000000,0.970104,0.138972,2.000000
/home/daniel/Projects/ppsevolution/data/maps/custom_maps/Custom_6_Run_0_Map.csv,0.000000,0.839385,0.168059,0.643446,0.030793,0.242321,1.000000,0.000000,0.999974,0.013381,0.000000,0.510061,0.825305,1.000000,0.000000,1.000000
/home/daniel/Projects/ppsevolution/data/maps/custom_maps/Custom_6_Run_0_Map.csv,0.042521,0.894558,0.298991,0.544001,0.093622,0.146428,1.000000,1.000000,1.000000,0.000000,0.033315,0.475505,0.943906,0.825928,0.220760,0.000000
/home/daniel/Projects/ppsevolution/data/maps/custom_maps/Custom_6_Run_0_Map.csv,0.193857,1.000000,0.000000,0.718837,0.250019,0.144237,1.000000,1.000000,0.984759,0.041247,0.000000,0.570766,0.969096,1.000000,0.039205,0.000000
/home/daniel/Projects/ppsevolution/data/maps/custom_maps/Custom_6_Run_0_Map.csv,0.000000,0.895856,0.210000,0.626685,0.000095,0.091447,0.906181,0.000000,1.000000,0.000000,0.000000,0.514892,0.947871,0.959777,0.000000,2.000000
/home/daniel/Projects/ppsevolution/data/maps/custom_maps/Custom_6_Run_0_Map.csv,0.011022,0.881955,0.054744,0.700577,0.065746,0.100222,0.854608,2.000000,0.972440,0.019231,0.025443,0.506369,1.000000,1.000000,0.000000,1.000000
/home/daniel/Projects/ppsevolution/data/maps/custom_maps/Custom_7_Run_0_Map.csv,0.341114,0.539689,0.000000,0.499200,0.267338,0.114633,1.000000,1.000000,1.000000,0.122321,0.000000,0.276437,0.522326,1.000000,0.000000,1.000000
/home/daniel/Projects/ppsevolution/data/maps/custom_maps/Custom_7_Run_0_Map.csv,0.407142,0.829498,0.000000,0.523136,0.080960,0.190716,0.665761,0.000000,0.943758,0.110953,0.055061,0.256228,0.918007,0.862231,0.129872,2.000000
/home/daniel/Projects/ppsevolution/data/maps/custom_maps/Custom_7_Run_0_Map.csv,0.184300,0.941930,0.000000,0.523115,0.176482,0.000000,0.992420,0.000000,1.000000,0.333150,0.023896,0.188558,0.882015,0.954680,0.038482,0.000000
/home/daniel/Projects/ppsevolution/data/maps/custom_maps/Custom_7_Run_0_Map.csv,0.122857,1.000000,0.028965,0.510632,0.032836,0.021677,0.954258,0.000000,1.000000,0.246514,0.000000,0.195276,1.000000,0.743194,0.000000,1.000000
/home/daniel/Projects/ppsevolution/data/maps/custom_maps/Custom_7_Run_0_Map.csv,0.409372,0.968074,0.000000,0.516121,0.288187,0.000000,1.000000,0.000000,1.000000,0.251617,0.007635,0.314895,0.768655,0.856055,0.000000,2.000000
/home/daniel/Projects/ppsevolution/data/maps/custom_maps/Custom_7_Run_0_Map.csv,0.216852,1.000000,0.380135,0.148004,0.088777,0.216988,1.000000,0.000000,1.000000,0.117492,0.000000,0.203826,1.000000,0.918546,0.195220,2.000000
/home/daniel/Projects/ppsevolution/data/maps/custom_maps/Custom_7_Run_0_Map.csv,0.082952,0.944900,0.090189,0.471434,0.370109,0.180633,0.750993,0.000000,1.000000,0.342439,0.000000,0.170382,0.989122,1.000000,0.058444,0.000000
/home/daniel/Projects/ppsevolution/data/maps/custom_maps/Custom_7_Run_0_Map.csv,0.158801,0.795983,0.000000,0.522885,0.090353,0.070241,0.970840,0.000000,1.000000,0.000000,0.000000,0.208731,1.000000,1.000000,0.000000,0.000000
/home/daniel/Projects/ppsevolution/data/maps/custom_maps/Custom_7_Run_0_Map.csv,0.129921,0.990411,0.019497,0.510074,0.165215,0.015233,0.886046,2.000000,1.000000,0.073666,0.000000,0.194851,1.000000,0.852815,0.000000,2.000000
/home/daniel/Projects/ppsevolution/data/maps/custom_maps/Custom_7_Run_0_Map.csv,0.115907,1.000000,0.205574,0.351136,0.000000,0.000000,0.824554,0.000000,1.000000,0.100807,0.003228,0.183617,0.919170,0.848627,0.000000,0.000000
/home/daniel/Projects/ppsevolution/data/maps/custom_maps/Custom_8_Run_0_Map.csv,0.536610,0.897282,0.055560,0.281135,0.300661,0.140946,0.967963,2.000000,1.000000,0.110093,0.000000,0.160990,0.986226,1.000000,0.000000,1.000000
/home/daniel/Projects/ppsevolution/data/maps/custom_maps/Custom_8_Run_0_Map.csv,0.405079,0.953231,0.000679,0.386536,0.087535,0.032938,0.734429,0.000000,1.000000,0.186691,0.000000,0.080373,0.931391,0.795834,0.231942,2.000000
/home/daniel/Projects/ppsevolution/data/maps/custom_maps/Custom_8_Run_0_Map.csv,0.399568,1.000000,0.083758,0.231029,0.125375,0.000000,0.856282,2.000000,0.901816,0.033532,0.084189,0.000000,0.813155,0.995363,0.000000,1.000000
/home/daniel/Projects/ppsevolution/data/maps/custom_maps/Custom_8_Run_0_Map.csv,0.463205,0.804398,0.043538,0.296306,0.260244,0.155606,1.000000,2.000000,1.000000,0.000000,0.000000,0.109194,0.983694,0.910081,0.083308,2.000000
/home/daniel/Projects/ppsevolution/data/maps/custom_maps/Custom_8_Run_0_Map.csv,0.232403,0.847337,0.000000,0.369065,0.281069,0.019097,0.960114,1.000000,1.000000,0.005529,0.000000,0.027517,0.932568,0.892518,0.000000,1.000000
/home/daniel/Projects/ppsevolution/data/maps/custom_maps/Custom_8_Run_0_Map.csv,0.405455,0.907051,0.000345,0.374883,0.083372,0.000000,0.843999,0.000000,1.000000,0.055432,0.062070,0.044050,1.000000,0.938583,0.000000,2.000000
/home/daniel/Projects/ppsevolution/data/maps/custom_maps/Custom_8_Run_0_Map.csv,0.222621,1.000000,0.000000,0.352477,0.018655,0.125663,0.826332,0.000000,0.907594,0.261919,0.000000,0.000000,0.719412,1.000000,0.211948,1.000000
/home/daniel/Projects/ppsevolution/data/maps/custom_maps/Custom_8_Run_0_Map.csv,0.284215,1.000000,0.000000,0.378030,0.050802,0.344805,0.887055,0.000000,1.000000,0.013710,0.000000,0.040727,1.000000,0.890555,0.125637,1.000000
/home/daniel/Projects/ppsevolution/data/maps/custom_maps/Custom_8_Run_0_Map.csv,0.309031,0.882216,0.000000,0.375039,0.350905,0.017732,0.857935,0.000000,0.989501,0.313204,0.000000,0.057397,0.967063,1.000000,0.097191,0.000000
/home/daniel/Projects/ppsevolution/data/maps/custom_maps/Custom_8_Run_0_Map.csv,0.213116,0.964095,0.128447,0.240693,0.483824,0.000000,0.849355,0.000000,1.000000,0.000000,0.000000,0.000000,0.884718,0.903089,0.015196,2.000000
/home/daniel/Projects/ppsevolution/data/maps/custom_maps/Custom_9_Run_0_Map.csv,0.472704,0.741078,0.000000,0.154092,0.299469,0.091614,0.986545,1.000000,0.928723,0.069846,0.000000,0.000000,1.000000,0.814052,0.000000,0.000000
/home/daniel/Projects/ppsevolution/data/maps/custom_maps/Custom_9_Run_0_Map.csv,0.473159,0.930712,0.000000,0.204656,0.257921,0.000000,0.806092,0.000000,1.000000,0.000000,0.000000,0.000000,0.839105,1.000000,0.000000,1.000000
/home/daniel/Projects/ppsevolution/data/maps/custom_maps/Custom_9_Run_0_Map.csv,0.531300,0.966033,0.008725,0.218216,0.169316,0.006283,0.414933,2.000000,1.000000,0.000000,0.000000,0.014577,1.000000,0.995456,0.093142,1.000000
/home/daniel/Projects/ppsevolution/data/maps/custom_maps/Custom_9_Run_0_Map.csv,0.482889,0.895223,0.000000,0.191016,0.124600,0.001085,0.907883,1.000000,1.000000,0.014360,0.000000,0.000000,0.899422,1.000000,0.000000,1.000000
/home/daniel/Projects/ppsevolution/data/maps/custom_maps/Custom_9_Run_0_Map.csv,0.518732,0.817643,0.000000,0.191201,0.000000,0.225370,0.954137,0.000000,1.000000,0.100344,0.005838,0.000000,0.890685,0.893286,0.088322,1.000000
/home/daniel/Projects/ppsevolution/data/maps/custom_maps/Custom_9_Run_0_Map.csv,0.502411,1.000000,0.029500,0.146966,0.000000,0.253614,0.928182,2.000000,1.000000,0.000000,0.000000,0.000000,0.959707,0.883552,0.005412,1.000000
/home/daniel/Projects/ppsevolution/data/maps/custom_maps/Custom_9_Run_0_Map.csv,0.486313,0.796475,0.000000,0.192925,0.221106,0.000000,0.907355,1.000000,1.000000,0.174110,0.000000,0.000000,0.965274,0.848338,0.019156,0.000000
/home/daniel/Projects/ppsevolution/data/maps/custom_maps/Custom_9_Run_0_Map.csv,0.797511,1.000000,0.047041,0.120391,0.061051,0.096486,0.914082,0.000000,0.987439,0.052460,0.000000,0.177591,1.000000,0.972500,0.000000,0.000000
/home/daniel/Projects/ppsevolution/data/maps/custom_maps/Custom_9_Run_0_Map.csv,0.478595,0.992675,0.000000,0.198170,0.146308,0.000000,0.704287,1.000000,0.986410,0.025116,0.000000,0.000000,0.725311,0.758879,0.000000,0.000000
/home/daniel/Projects/ppsevolution/data/maps/custom_maps/Custom_9_Run_0_Map.csv,0.698089,0.848390,0.000000,0.202757,0.258800,0.000000,0.600612,0.000000,0.991234,0.073486,0.005010,0.080158,0.673506,0.970773,0.180007,1.000000
/home/daniel/Projects/ppsevolution/data/maps/custom_maps/Custom_10_Run_0_Map.csv,0.442091,1.000000,0.050822,0.396734,0.000000,0.159535,0.888259,0.000000,0.907188,0.350072,0.019727,0.266821,0.940832,1.000000,0.000000,1.000000
/home/daniel/Projects/ppsevolution/data/maps/custom_maps/Custom_10_Run_0_Map.csv,0.403836,1.000000,0.000000,0.437076,0.091071,0.092438,0.773509,0.000000,0.869998,0.336957,0.116918,0.142327,0.844118,0.999798,0.000000,2.000000
/home/daniel/Projects/ppsevolution/data/maps/custom_maps/Custom_10_Run_0_Map.csv,0.091200,0.907646,0.022573,0.513242,0.000000,0.000000,0.436517,0.000000,1.000000,0.496131,0.000000,0.129369,1.000000,1.000000,0.000000,2.000000
/home/daniel/Projects/ppsevolution/data/maps/custom_maps/Custom_10_Run_0_Map.csv,0.059199,0.680970,0.000000,0.495160,0.012475,0.106757,0.800751,0.000000,1.000000,0.000000,0.011208,0.088462,0.692113,0.848827,0.000000,2.000000
/home/daniel/Projects/ppsevolution/data/maps/custom_maps/Custom_10_Run_0_Map.csv,0.321492,0.973749,0.000000,0.483170,0.101161,0.069333,0.852537,0.000000,0.997497,0.300553,0.000000,0.225356,0.972381,0.964680,0.000000,2.000000
/home/daniel/Projects/ppsevolution/data/maps/custom_maps/Custom_10_Run_0_Map.csv,0.147345,0.994242,0.004568,0.483028,0.000000,0.027433,0.873548,1.000000,1.000000,0.075238,0.000000,0.106941,0.948937,0.812645,0.305934,1.000000
/home/daniel/Projects/ppsevolution/data/maps/custom_maps/Custom_10_Run_0_Map.csv,0.288363,0.854728,0.007318,0.453943,0.000000,0.132031,1.000000,2.000000,1.000000,0.000000,0.000000,0.178144,0.963395,0.815490,0.193983,1.000000
/home/daniel/Projects/ppsevolution/data/maps/custom_maps/Custom_10_Run_0_Map.csv,0.548019,1.000000,0.000000,0.449489,0.097494,0.020509,1.000000,2.000000,1.000000,0.074587,0.025099,0.265979,1.000000,0.842551,0.259387,1.000000
/home/daniel/Projects/ppsevolution/data/maps/custom_maps/Custom_10_Run_0_Map.csv,0.395427,0.911263,0.065771,0.395002,0.047375,0.044216,0.778854,2.000000,0.976258,0.000000,0.000000,0.252296,0.753595,1.000000,0.023362,0.000000
/home/daniel/Projects/ppsevolution/data/maps/custom_maps/Custom_10_Run_0_Map.csv,0.292780,0.928275,0.006867,0.425529,0.000000,0.175790,0.810037,1.000000,0.873712,0.379325,0.000000,0.199921,0.705417,0.776882,0.092615,0.000000
