map,fitness,fitness value,team0ratio,time,HP,Speed,Damage,Acc,ClipSize,RateOfFire,NrBullets,Range,HP,Speed,Damage,Acc,ClipSize,RateOfFire,NrBullets,Range,HP,Speed,Damage,Acc,ClipSize,RateOfFire,NrBullets,Range,HP,Speed,Damage,Acc,ClipSize,RateOfFire,NrBullets,Range,Run,target team0ratio: 0.5,target time: 0.72
/home/daniel/Projects/ppsevolution/data/maps/custom_maps/Custom_1_Run_0_Map.csv,squared_error,3.054441483812416e-08,0.5001,0.7202,0.776793,1.000000,0.000000,0.012662,0.459952,0.000000,0.691188,0.000000,1.000000,0.083718,0.000000,0.000000,0.951156,0.850849,0.000000,2.000000,260.938817,1.330000,9.000000,0.012662,92.530376,0.500000,7.220689,0.000000,300.000000,0.816882,9.000000,0.000000,190.280023,8.583070,1.000000,2.000000,0
/home/daniel/Projects/ppsevolution/data/maps/custom_maps/Custom_1_Run_0_Map.csv,squared_error,2.281993554121424e-06,0.4980,0.7193,0.771616,0.947335,0.000000,0.000000,0.048712,0.310601,0.812088,0.000000,1.000000,0.109672,0.000000,0.000000,1.000000,0.592807,0.000000,2.000000,260.032868,1.300507,9.000000,0.000000,10.693590,3.450706,8.308790,0.000000,300.000000,0.831417,9.000000,0.000000,200.000000,6.131667,1.000000,2.000000,1
/home/daniel/Projects/ppsevolution/data/maps/custom_maps/Custom_1_Run_0_Map.csv,squared_error,2.773131973140215e-06,0.4997,0.7223,0.817642,0.341105,0.000000,0.000000,0.000000,0.272352,0.650095,0.000000,1.000000,0.319842,0.000000,0.000000,0.796700,0.632606,0.000000,1.000000,268.087383,0.961019,9.000000,0.000000,1.000000,3.087340,6.850854,0.000000,300.000000,0.949111,9.000000,0.000000,159.543376,6.509753,1.000000,1.000000,2
/home/daniel/Projects/ppsevolution/data/maps/custom_maps/Custom_1_Run_0_Map.csv,squared_error,1.0044034821702339e-07,0.5002,0.7196,0.793467,0.550993,0.000000,0.000000,0.545880,0.000000,0.801671,0.000000,1.000000,0.249143,0.000000,0.000000,0.986995,0.893915,0.010897,1.000000,263.856688,1.078556,9.000000,0.000000,109.630194,0.500000,8.215041,0.000000,300.000000,0.909520,9.000000,0.000000,197.412087,8.992189,1.098072,1.000000,3
/home/daniel/Projects/ppsevolution/data/maps/custom_maps/Custom_1_Run_0_Map.csv,squared_error,2.8486492183861024e-07,0.5000,0.7208,0.858145,0.721346,0.000000,0.000000,0.437591,0.329241,0.472276,2.000000,0.964853,0.220608,0.000000,0.000000,0.936883,0.899994,0.174343,2.000000,275.175392,1.173954,9.000000,0.000000,88.080683,3.627792,5.250484,2.000000,293.849253,0.893541,9.000000,0.000000,187.439679,9.049940,2.569091,2.000000,4
/home/daniel/Projects/ppsevolution/data/maps/custom_maps/Custom_1_Run_0_Map.csv,squared_error,1.7223878943014069e-06,0.4982,0.7206,0.821500,0.554818,0.000000,0.000000,0.230158,0.191576,0.346895,0.000000,0.916734,0.079905,0.000000,0.000000,0.905410,0.906197,0.169654,2.000000,268.762498,1.080698,9.000000,0.000000,46.801492,2.319972,4.122051,0.000000,285.428533,0.814747,9.000000,0.000000,181.176503,9.108875,2.526885,2.000000,5
/home/daniel/Projects/ppsevolution/data/maps/custom_maps/Custom_1_Run_0_Map.csv,squared_error,3.0948940279358277e-06,0.4984,0.7181,0.783040,0.709083,0.000000,0.000000,0.072015,0.136523,0.602746,0.000000,0.957083,0.221743,0.000000,0.000000,0.791519,0.524879,0.068053,0.000000,262.031981,1.167087,9.000000,0.000000,15.330991,1.796971,6.424710,0.000000,292.489604,0.894176,9.000000,0.000000,158.512279,5.486351,1.612474,0.000000,6
/home/daniel/Projects/ppsevolution/data/maps/custom_maps/Custom_1_Run_0_Map.csv,squared_error,5.949498224396428e-07,0.5005,0.7210,0.898069,0.870431,0.000000,0.042476,1.000000,0.357080,0.163230,1.000000,1.000000,0.220684,0.000000,0.041936,1.000000,0.772721,0.024940,1.000000,282.162011,1.257442,9.000000,0.042476,200.000000,3.892257,2.469069,1.000000,300.000000,0.893583,9.000000,0.041936,200.000000,7.840853,1.224463,1.000000,7
/home/daniel/Projects/ppsevolution/data/maps/custom_maps/Custom_1_Run_0_Map.csv,squared_error,9.343134444435773e-07,0.4993,0.7212,0.813006,0.450894,0.000000,0.000000,0.260213,0.323426,0.395710,1.000000,0.975693,0.053275,0.000000,0.000000,0.578359,0.641960,0.000000,0.000000,267.276102,1.022501,9.000000,0.000000,52.782391,3.572550,4.561387,1.000000,295.746329,0.799834,9.000000,0.000000,116.093362,6.598621,1.000000,0.000000,8
/home/daniel/Projects/ppsevolution/data/maps/custom_maps/Custom_1_Run_0_Map.csv,squared_error,2.843341046255442e-06,0.5024,0.7204,0.928428,0.798891,0.000000,0.000000,0.303618,0.095809,0.632988,2.000000,1.000000,0.081138,0.029739,0.000000,0.948145,0.319888,0.189061,2.000000,287.474979,1.217379,9.000000,0.000000,61.419977,1.410182,6.696896,2.000000,300.000000,0.815438,13.193166,0.000000,189.680863,3.538940,2.701545,2.000000,9
map,fitness,fitness value,team0ratio,time,HP,Speed,Damage,Acc,ClipSize,RateOfFire,NrBullets,Range,HP,Speed,Damage,Acc,ClipSize,RateOfFire,NrBullets,Range,HP,Speed,Damage,Acc,ClipSize,RateOfFire,NrBullets,Range,HP,Speed,Damage,Acc,ClipSize,RateOfFire,NrBullets,Range,Run,target team0ratio: 0.5,target time: 0.72
/home/daniel/Projects/ppsevolution/data/maps/custom_maps/Custom_2_Run_0_Map.csv,squared_error,1.7255363375852314e-06,0.5017,0.7192,0.359123,0.674099,0.152230,0.464384,0.089374,0.000000,0.270930,2.000000,1.000000,0.411428,0.069566,0.231319,0.815058,0.690807,0.116524,0.000000,187.846568,1.147495,30.464436,0.464384,18.785517,0.500000,3.438367,2.000000,300.000000,1.000400,18.808875,0.231319,163.196577,7.062663,2.048715,0.000000,0
/home/daniel/Projects/ppsevolution/data/maps/custom_maps/Custom_2_Run_0_Map.csv,squared_error,8.732320380041068e-07,0.4988,0.7206,0.014843,1.000000,0.031192,0.517658,0.480888,0.047895,0.567508,1.000000,0.819998,0.310042,0.000000,0.142274,0.863602,1.000000,0.288931,2.000000,127.597597,1.330000,13.398081,0.517658,96.696710,0.955000,6.107576,1.000000,268.499576,0.943623,9.000000,0.142274,172.856710,10.000000,3.600379,2.000000,1
/home/daniel/Projects/ppsevolution/data/maps/custom_maps/Custom_2_Run_0_Map.csv,squared_error,1.0386124169599135e-06,0.5005,0.7186,0.037788,0.617371,0.097291,0.460253,0.185142,0.000000,0.835138,2.000000,0.928877,0.089882,0.000000,0.151429,0.968688,0.988106,0.135490,0.000000,131.612975,1.115728,22.718087,0.460253,37.843234,0.500000,8.516243,2.000000,287.553438,0.820334,9.000000,0.151429,193.768864,9.887005,2.219411,0.000000,2
/home/daniel/Projects/ppsevolution/data/maps/custom_maps/Custom_2_Run_0_Map.csv,squared_error,9.158071485700275e-07,0.4987,0.7201,0.095961,0.872023,0.101813,0.484041,0.000000,0.114058,0.746902,0.000000,0.953705,0.202143,0.000000,0.182076,0.926983,0.894247,0.188949,2.000000,141.793244,1.258333,23.355577,0.484041,1.000000,1.583548,7.722122,0.000000,291.898415,0.883200,9.000000,0.182076,185.469698,8.995350,2.700544,2.000000,3
/home/daniel/Projects/ppsevolution/data/maps/custom_maps/Custom_2_Run_0_Map.csv,squared_error,4.816078587850919e-07,0.5009,0.7203,0.398556,0.861860,0.116992,0.445009,0.162338,0.000000,0.668243,0.000000,0.912520,0.276789,0.000000,0.324909,0.947537,1.000000,0.087595,2.000000,194.747373,1.252641,25.495896,0.445009,33.305295,0.500000,7.014189,0.000000,284.691007,0.925002,9.000000,0.324909,189.559888,10.000000,1.788352,2.000000,4
/home/daniel/Projects/ppsevolution/data/maps/custom_maps/Custom_2_Run_0_Map.csv,squared_error,2.0763431605245953e-07,0.4994,0.7199,0.542997,0.999081,0.137049,0.285390,0.252475,0.174384,0.828500,0.000000,0.638309,0.000000,0.000000,0.370423,1.000000,0.830569,0.306185,2.000000,220.024449,1.329485,28.323930,0.285390,51.242576,2.156649,8.456498,0.000000,236.704135,0.770000,9.000000,0.370423,200.000000,8.390408,3.755666,2.000000,5
/home/daniel/Projects/ppsevolution/data/maps/custom_maps/Custom_2_Run_0_Map.csv,squared_error,3.9717049579904673e-07,0.4993,0.7195,0.328269,0.720934,0.000000,0.541288,0.403669,0.040681,1.000000,0.000000,0.969090,0.000000,0.000000,0.289751,1.000000,0.912240,0.139818,0.000000,182.447094,1.173723,9.000000,0.541288,81.330151,0.886466,10.000000,0.000000,294.590820,0.770000,9.000000,0.289751,200.000000,9.166281,2.258365,0.000000,6
/home/daniel/Projects/ppsevolution/data/maps/custom_maps/Custom_2_Run_0_Map.csv,squared_error,1.827436046380576e-06,0.5004,0.7181,0.118678,0.978590,0.000000,0.531545,0.000000,0.321625,1.000000,1.000000,0.879260,0.581993,0.000000,0.178915,0.956064,0.971980,0.257820,1.000000,145.768655,1.318010,9.000000,0.531545,1.000000,3.555442,10.000000,1.000000,278.870499,1.095916,9.000000,0.178915,191.256707,9.733811,3.320384,1.000000,7
/home/daniel/Projects/ppsevolution/data/maps/custom_maps/Custom_2_Run_0_Map.csv,squared_error,1.9785551646130587e-06,0.4984,0.7212,0.000000,0.870534,0.000000,0.483081,0.076126,0.378022,0.622165,0.000000,0.666724,0.019662,0.063297,0.095283,1.000000,0.901511,0.077338,1.000000,125.000000,1.257499,9.000000,0.483081,16.149161,4.091205,6.599486,0.000000,241.676692,0.781011,17.924853,0.095283,200.000000,9.064356,1.696041,1.000000,8
/home/daniel/Projects/ppsevolution/data/maps/custom_maps/Custom_2_Run_0_Map.csv,squared_error,4.0919288791203475e-07,0.5004,0.7208,0.000000,0.962311,0.142030,0.434211,0.023599,0.143769,0.786743,0.000000,0.941021,0.000000,0.060434,0.071153,0.763873,0.969407,0.118425,1.000000,125.000000,1.308894,29.026297,0.434211,5.696261,1.865810,8.080683,0.000000,289.678752,0.770000,17.521217,0.071153,153.010817,9.709367,2.065825,1.000000,9
map,fitness,fitness value,team0ratio,time,HP,Speed,Damage,Acc,ClipSize,RateOfFire,NrBullets,Range,HP,Speed,Damage,Acc,ClipSize,RateOfFire,NrBullets,Range,HP,Speed,Damage,Acc,ClipSize,RateOfFire,NrBullets,Range,HP,Speed,Damage,Acc,ClipSize,RateOfFire,NrBullets,Range,Run,target team0ratio: 0.5,target time: 0.72
/home/daniel/Projects/ppsevolution/data/maps/custom_maps/Custom_3_Run_0_Map.csv,squared_error,2.9609423498016763e-07,0.5007,0.7203,0.000000,0.881715,0.000000,0.638115,0.205076,0.000000,1.000000,0.000000,0.951394,0.105736,0.000000,0.318300,0.951687,0.992019,0.056108,0.000000,125.000000,1.263761,9.000000,0.638115,41.810151,0.500000,10.000000,0.000000,291.493927,0.829212,9.000000,0.318300,190.385637,9.924182,1.504971,0.000000,0
/home/daniel/Projects/ppsevolution/data/maps/custom_maps/Custom_3_Run_0_Map.csv,squared_error,3.0887471430390816e-07,0.5007,0.7204,0.012638,0.732278,0.000000,0.552392,0.000000,0.000000,0.990040,1.000000,0.705104,0.223659,0.015979,0.268762,0.829944,0.745580,0.251300,1.000000,127.211610,1.180075,9.000000,0.552392,1.000000,0.500000,9.910361,1.000000,248.393114,0.895249,11.253021,0.268762,166.158950,7.583010,3.261698,1.000000,1
/home/daniel/Projects/ppsevolution/data/maps/custom_maps/Custom_3_Run_0_Map.csv,squared_error,5.898406333500628e-07,0.5004,0.7210,0.036727,0.798506,0.133869,0.535989,0.068855,0.163291,1.000000,0.000000,1.000000,0.000000,0.000000,0.301373,1.000000,0.777026,0.068205,2.000000,131.427289,1.217163,27.875514,0.535989,14.702136,2.051265,10.000000,0.000000,300.000000,0.770000,9.000000,0.301373,200.000000,7.881752,1.613846,2.000000,2
/home/daniel/Projects/ppsevolution/data/maps/custom_maps/Custom_3_Run_0_Map.csv,squared_error,5.525043728312359e-07,0.5002,0.7210,0.005635,1.000000,0.000000,0.630585,0.606783,0.000000,1.000000,1.000000,0.986503,0.009932,0.078288,0.191076,0.845665,1.000000,0.363908,0.000000,125.986040,1.330000,9.000000,0.630585,121.749772,0.500000,10.000000,1.000000,297.637948,0.775562,20.038606,0.191076,169.287392,10.000000,4.275176,0.000000,3
/home/daniel/Projects/ppsevolution/data/maps/custom_maps/Custom_3_Run_0_Map.csv,squared_error,1.2664299158700202e-06,0.4988,0.7189,0.039196,0.926358,0.000000,0.601343,0.385021,0.000000,0.903106,1.000000,0.836946,0.136841,0.000000,0.313904,0.808454,0.904609,0.200485,2.000000,131.859381,1.288761,9.000000,0.601343,77.619103,0.500000,9.127956,1.000000,271.465477,0.846631,9.000000,0.313904,161.882375,9.093784,2.804366,2.000000,4
/home/daniel/Projects/ppsevolution/data/maps/custom_maps/Custom_3_Run_0_Map.csv,squared_error,3.8865874627160735e-07,0.4999,0.7191,0.000000,0.749368,0.213220,0.286798,0.000000,0.205831,0.966669,2.000000,0.532256,0.475961,0.000000,0.251857,0.823745,0.689437,0.455365,0.000000,125.000000,1.189646,39.064009,0.286798,1.000000,2.455395,9.700022,2.000000,218.144785,1.036538,9.000000,0.251857,164.925171,7.049652,5.098282,0.000000,5
/home/daniel/Projects/ppsevolution/data/maps/custom_maps/Custom_3_Run_0_Map.csv,squared_error,2.7753311306070075e-07,0.5006,0.7195,0.168016,0.883357,0.151730,0.470543,0.076059,0.269828,1.000000,0.000000,0.856353,0.157212,0.102282,0.276367,1.000000,0.878258,0.000000,0.000000,154.402784,1.264680,30.393903,0.470543,16.135743,3.063371,10.000000,0.000000,274.861803,0.858039,23.421751,0.276367,200.000000,8.843448,1.000000,0.000000,6
/home/daniel/Projects/ppsevolution/data/maps/custom_maps/Custom_3_Run_0_Map.csv,squared_error,7.348577580763745e-07,0.4993,0.7190,0.072560,0.934536,0.000000,0.618605,0.164487,0.139320,0.969384,1.000000,0.914466,0.092901,0.000000,0.349027,0.862124,1.000000,0.014835,1.000000,137.698017,1.293340,9.000000,0.618605,33.732820,1.823542,9.724455,1.000000,285.031539,0.822025,9.000000,0.349027,172.562731,10.000000,1.133512,1.000000,7
/home/daniel/Projects/ppsevolution/data/maps/custom_maps/Custom_3_Run_0_Map.csv,squared_error,2.3103840427125896e-06,0.4979,0.7197,0.089723,0.832272,0.000000,0.647708,0.000000,0.129791,0.893723,0.000000,1.000000,0.021603,0.185569,0.164272,1.000000,0.905739,0.173687,2.000000,140.701576,1.236072,9.000000,0.647708,1.000000,1.733015,9.043510,0.000000,300.000000,0.782097,35.165179,0.164272,200.000000,9.104519,2.563183,2.000000,8
/home/daniel/Projects/ppsevolution/data/maps/custom_maps/Custom_3_Run_0_Map.csv,squared_error,2.159735455987321e-06,0.5017,0.7212,0.269285,0.824835,0.369650,0.313503,0.003383,0.000000,0.756730,0.000000,0.940663,0.210677,0.267815,0.123437,0.984161,1.000000,0.057466,0.000000,172.124820,1.231907,61.120648,0.313503,1.673250,0.500000,7.810566,0.000000,289.615944,0.887979,46.761856,0.123437,196.848025,10.000000,1.517190,0.000000,9
map,fitness,fitness value,team0ratio,time,HP,Speed,Damage,Acc,ClipSize,RateOfFire,NrBullets,Range,HP,Speed,Damage,Acc,ClipSize,RateOfFire,NrBullets,Range,HP,Speed,Damage,Acc,ClipSize,RateOfFire,NrBullets,Range,HP,Speed,Damage,Acc,ClipSize,RateOfFire,NrBullets,Range,Run,target team0ratio: 0.5,target time: 0.72
/home/daniel/Projects/ppsevolution/data/maps/custom_maps/Custom_4_Run_0_Map.csv,squared_error,2.8640746832022987e-07,0.4997,0.7193,0.505435,0.948179,0.083751,0.124622,0.182559,0.012352,0.994043,2.000000,0.844195,0.523659,0.000000,0.000000,0.814256,0.984946,0.179888,2.000000,213.451208,1.300980,20.808960,0.124622,37.329165,0.617349,9.946383,2.000000,272.734120,1.063249,9.000000,0.000000,163.036925,9.856988,2.618996,2.000000,0
/home/daniel/Projects/ppsevolution/data/maps/custom_maps/Custom_4_Run_0_Map.csv,squared_error,1.536067574648613e-06,0.4994,0.7216,0.500986,0.540880,0.023222,0.183986,0.403489,0.204892,1.000000,2.000000,0.843315,0.181072,0.000000,0.000000,1.000000,0.913505,0.180754,0.000000,212.672595,1.072893,12.274332,0.183986,81.294388,2.446477,10.000000,2.000000,272.580147,0.871400,9.000000,0.000000,200.000000,9.178295,2.626788,0.000000,1
/home/daniel/Projects/ppsevolution/data/maps/custom_maps/Custom_4_Run_0_Map.csv,squared_error,6.420636588984769e-07,0.5006,0.7210,0.468778,0.622373,0.000000,0.261021,0.029160,0.101436,0.943063,2.000000,0.934324,0.121675,0.000000,0.000000,1.000000,0.947456,0.096846,0.000000,207.036223,1.118529,9.000000,0.261021,6.802852,1.463639,9.487563,2.000000,288.506639,0.838138,9.000000,0.000000,200.000000,9.500834,1.871617,0.000000,2
/home/daniel/Projects/ppsevolution/data/maps/custom_maps/Custom_4_Run_0_Map.csv,squared_error,2.63017546499777e-06,0.5014,0.7182,0.657844,0.165470,0.000000,0.311059,0.320529,0.279680,0.000000,1.000000,0.855566,0.000000,0.072055,0.000000,0.932262,0.982717,0.297524,0.000000,240.122690,0.862663,9.000000,0.311059,64.785231,3.156959,1.000000,1.000000,274.724003,0.770000,19.159799,0.000000,186.520235,9.835816,3.677717,0.000000,3
/home/daniel/Projects/ppsevolution/data/maps/custom_maps/Custom_4_Run_0_Map.csv,squared_error,9.476243250368564e-07,0.4986,0.7200,0.475057,1.000000,0.017043,0.179358,0.355417,0.106554,0.940910,0.000000,0.772128,0.056434,0.000000,0.021864,0.722521,0.969610,0.115788,0.000000,208.134936,1.330000,11.403053,0.179358,71.727921,1.512265,9.468194,0.000000,260.122370,0.801603,9.000000,0.021864,144.781635,9.711298,2.042091,0.000000,4
/home/daniel/Projects/ppsevolution/data/maps/custom_maps/Custom_4_Run_0_Map.csv,squared_error,1.0206888986459842e-06,0.5014,0.7205,0.487313,0.700605,0.000000,0.311058,0.000000,0.161373,0.543074,0.000000,0.928028,0.581078,0.000000,0.000000,0.734356,1.000000,0.213654,0.000000,210.279841,1.162339,9.000000,0.311058,1.000000,2.033047,5.887669,0.000000,287.404835,1.095404,9.000000,0.000000,147.136902,10.000000,2.922882,0.000000,5
/home/daniel/Projects/ppsevolution/data/maps/custom_maps/Custom_4_Run_0_Map.csv,squared_error,1.1521114279561271e-07,0.5002,0.7204,0.465731,1.000000,0.113027,0.112278,0.030158,0.046876,0.905561,0.000000,0.874271,0.055586,0.000000,0.017230,0.564151,0.705770,0.000000,0.000000,206.502975,1.330000,24.936838,0.112278,7.001512,0.945318,9.150050,0.000000,277.997367,0.801128,9.000000,0.017230,113.266038,7.204819,1.000000,0.000000,6
/home/daniel/Projects/ppsevolution/data/maps/custom_maps/Custom_4_Run_0_Map.csv,squared_error,7.913384645348417e-07,0.5003,0.7188,0.569115,0.874940,0.034800,0.236035,0.117198,0.220361,1.000000,1.000000,1.000000,0.072330,0.000362,0.046127,0.655150,0.663316,0.070209,2.000000,224.595094,1.259967,13.906735,0.236035,24.322397,2.593434,10.000000,1.000000,300.000000,0.810505,9.051083,0.046127,131.374812,6.801505,1.631882,2.000000,7
/home/daniel/Projects/ppsevolution/data/maps/custom_maps/Custom_4_Run_0_Map.csv,squared_error,1.0835496328639113e-06,0.4992,0.7212,0.572109,0.779845,0.000000,0.261195,0.213423,0.315383,0.938862,2.000000,0.977784,0.147103,0.000000,0.017840,0.673061,0.983428,0.227577,2.000000,225.119031,1.206713,9.000000,0.261195,43.471110,3.496134,9.449756,2.000000,296.112248,0.852377,9.000000,0.017840,134.939234,9.842563,3.048194,2.000000,8
/home/daniel/Projects/ppsevolution/data/maps/custom_maps/Custom_4_Run_0_Map.csv,squared_error,6.4424427932840706e-09,0.5001,0.7199,0.619482,0.948105,0.081589,0.086118,0.220463,0.000000,0.358117,2.000000,0.638690,0.000000,0.000000,0.089620,1.000000,0.806518,0.151767,2.000000,233.409300,1.300939,20.504076,0.086118,44.872095,0.500000,4.223050,2.000000,236.770785,0.770000,9.000000,0.089620,200.000000,8.161917,2.365900,2.000000,9
map,fitness,fitness value,team0ratio,time,HP,Speed,Damage,Acc,ClipSize,RateOfFire,NrBullets,Range,HP,Speed,Damage,Acc,ClipSize,RateOfFire,NrBullets,Range,HP,Speed,Damage,Acc,ClipSize,RateOfFire,NrBullets,Range,HP,Speed,Damage,Acc,ClipSize,RateOfFire,NrBullets,Range,Run,target team0ratio: 0.5,target time: 0.72
/home/daniel/Projects/ppsevolution/data/maps/custom_maps/Custom_5_Run_0_Map.csv,squared_error,1.2782253406847125e-06,0.4984,0.7200,0.000000,0.903089,0.063239,0.373010,0.096084,0.119265,1.000000,1.000000,0.979226,0.244500,0.000000,0.000000,0.685924,0.788553,0.059424,0.000000,125.000000,1.275730,17.916687,0.373010,20.120660,1.633021,10.000000,1.000000,296.364591,0.906920,9.000000,0.000000,137.498810,7.991257,1.534820,0.000000,0
/home/daniel/Projects/ppsevolution/data/maps/custom_maps/Custom_5_Run_0_Map.csv,squared_error,2.141081723348707e-06,0.4986,0.7185,0.060521,0.772309,0.000000,0.458366,0.084697,0.189794,0.529097,1.000000,0.927565,0.112507,0.007119,0.058497,0.888212,0.997697,0.000000,0.000000,135.591139,1.202493,9.000000,0.458366,17.854794,2.303046,5.761869,1.000000,287.323859,0.833004,10.003746,0.058497,177.754124,9.978126,1.000000,0.000000,1
/home/daniel/Projects/ppsevolution/data/maps/custom_maps/Custom_5_Run_0_Map.csv,squared_error,5.128204528233683e-07,0.5007,0.7208,0.385892,1.000000,0.000000,0.407852,0.185541,0.000000,0.194929,2.000000,0.780280,0.098071,0.000000,0.192570,1.000000,1.000000,0.237958,0.000000,192.531039,1.330000,9.000000,0.407852,37.922756,0.500000,2.754361,2.000000,261.548997,0.824920,9.000000,0.192570,200.000000,10.000000,3.141621,0.000000,2
/home/daniel/Projects/ppsevolution/data/maps/custom_maps/Custom_5_Run_0_Map.csv,squared_error,1.291364833218749e-06,0.5013,0.7210,0.617766,0.880021,0.141640,0.246161,0.030826,0.078378,1.000000,2.000000,1.000000,0.089665,0.022546,0.234375,0.759789,1.000000,0.202738,1.000000,233.109029,1.262812,28.971194,0.246161,7.134427,1.244587,10.000000,2.000000,300.000000,0.820212,12.178958,0.234375,152.198051,10.000000,2.824641,1.000000,3
/home/daniel/Projects/ppsevolution/data/maps/custom_maps/Custom_5_Run_0_Map.csv,squared_error,1.512070419931879e-06,0.4983,0.7197,0.186838,0.664368,0.000000,0.359650,0.218347,0.279976,0.725720,2.000000,0.761901,0.330867,0.000000,0.089134,0.799661,1.000000,0.116551,1.000000,157.696694,1.142046,9.000000,0.359650,44.451142,3.159772,7.531476,2.000000,258.332686,0.955286,9.000000,0.089134,160.132445,10.000000,2.048959,1.000000,4
/home/daniel/Projects/ppsevolution/data/maps/custom_maps/Custom_5_Run_0_Map.csv,squared_error,1.7882343582867772e-07,0.4996,0.7195,0.000000,1.000000,0.000000,0.373672,0.411255,0.274805,0.998533,2.000000,0.827908,0.240919,0.000000,0.004531,0.925518,0.633292,0.021781,1.000000,125.000000,1.330000,9.000000,0.373672,82.839748,3.110645,9.986801,2.000000,269.883884,0.904915,9.000000,0.004531,185.178111,6.516276,1.196027,1.000000,5
/home/daniel/Projects/ppsevolution/data/maps/custom_maps/Custom_5_Run_0_Map.csv,squared_error,1.1851969821037748e-06,0.5015,0.7200,0.215624,0.638552,0.070354,0.350336,0.225686,0.220712,0.833984,0.000000,0.911629,0.241486,0.076172,0.002121,0.772739,0.886866,0.181638,1.000000,162.734159,1.127589,18.919911,0.350336,45.911564,2.596764,8.505854,0.000000,284.535012,0.905232,19.740285,0.002121,154.775142,8.925223,2.634738,1.000000,6
/home/daniel/Projects/ppsevolution/data/maps/custom_maps/Custom_5_Run_0_Map.csv,squared_error,2.661732222007947e-09,0.5001,0.7200,0.119071,0.886037,0.112020,0.226349,0.519241,0.000000,0.995329,0.000000,0.758741,0.037997,0.000000,0.073946,0.925455,0.695638,0.000000,1.000000,145.837466,1.266181,24.794885,0.226349,104.328908,0.500000,9.957961,0.000000,257.779662,0.791279,9.000000,0.073946,185.165587,7.108565,1.000000,1.000000,7
/home/daniel/Projects/ppsevolution/data/maps/custom_maps/Custom_5_Run_0_Map.csv,squared_error,1.6746577746581208e-06,0.4997,0.7218,0.017841,0.824266,0.056112,0.354819,0.426467,0.169007,0.419744,0.000000,0.774599,0.113131,0.000000,0.027388,1.000000,0.968302,0.049764,1.000000,128.122175,1.231589,16.911804,0.354819,85.866864,2.105565,4.777694,0.000000,260.554866,0.833353,9.000000,0.027388,200.000000,9.698870,1.447875,1.000000,8
/home/daniel/Projects/ppsevolution/data/maps/custom_maps/Custom_5_Run_0_Map.csv,squared_error,2.3747290273064805e-06,0.5017,0.7214,0.374707,1.000000,0.117140,0.299864,0.008361,0.302190,1.000000,0.000000,1.000000,0.129391,0.000000,0.178488,0.722094,1.000000,0.000000,0.000000,190.573671,1.330000,25.516711,0.299864,2.663899,3.370809,10.000000,0.000000,300.000000,0.842459,9.000000,0.178488,144.696739,10.000000,1.000000,0.000000,9
map,fitness,fitness value,team0ratio,time,HP,Speed,Damage,Acc,ClipSize,RateOfFire,NrBullets,Range,HP,Speed,Damage,Acc,ClipSize,RateOfFire,NrBullets,Range,HP,Speed,Damage,Acc,ClipSize,RateOfFire,NrBullets,Range,HP,Speed,Damage,Acc,ClipSize,RateOfFire,NrBullets,Range,Run,target team0ratio: 0.5,target time: 0.72
/home/daniel/Projects/ppsevolution/data/maps/custom_maps/Custom_6_Run_0_Map.csv,squared_error,1.5095344109824288e-06,0.4998,0.7217,0.174449,1.000000,0.080312,0.675636,0.200954,0.000000,0.859113,1.000000,0.951706,0.000000,0.000000,0.564449,0.920091,0.968956,0.000000,1.000000,155.528498,1.330000,20.323966,0.675636,40.989938,0.500000,8.732017,1.000000,291.548610,0.770000,9.000000,0.564449,184.098164,9.705082,1.000000,1.000000,0
/home/daniel/Projects/ppsevolution/data/maps/custom_maps/Custom_6_Run_0_Map.csv,squared_error,3.218508112664167e-06,0.4975,0.7205,0.155545,0.885440,0.139701,0.670220,0.210742,0.086222,0.654484,2.000000,1.000000,0.054939,0.175172,0.454147,0.919500,0.964934,0.000000,0.000000,152.220375,1.265847,28.697868,0.670220,42.937740,1.319112,6.890360,2.000000,300.000000,0.800766,33.699220,0.454147,183.980510,9.666872,1.000000,0.000000,1
/home/daniel/Projects/ppsevolution/data/maps/custom_maps/Custom_6_Run_0_Map.csv,squared_error,2.1435115135374378e-07,0.5005,0.7196,0.000000,0.913122,0.180203,0.529708,0.314218,0.085443,1.000000,0.000000,0.590686,0.000000,0.088600,0.450729,1.000000,0.817188,0.190457,1.000000,125.000000,1.281348,34.408677,0.529708,63.529369,1.311708,10.000000,0.000000,228.370064,0.770000,21.492635,0.450729,200.000000,8.263288,2.714110,1.000000,2
/home/daniel/Projects/ppsevolution/data/maps/custom_maps/Custom_6_Run_0_Map.csv,squared_error,1.9951244632039423e-06,0.5014,0.7186,0.000000,1.000000,0.204619,0.501482,0.067764,0.000000,0.793074,2.000000,0.581188,0.000000,0.000000,0.532485,0.751058,1.000000,0.000000,0.000000,125.000000,1.330000,37.851239,0.501482,14.485098,0.500000,8.137665,2.000000,226.707978,0.770000,9.000000,0.532485,150.460453,10.000000,1.000000,0.000000,3
/home/daniel/Projects/ppsevolution/data/maps/custom_maps/Custom_6_Run_0_Map.csv,squared_error,1.80275243670001e-06,0.4995,0.7218,0.131482,0.953605,0.118955,0.624781,0.094154,0.182108,0.722263,0.000000,0.736272,0.527168,0.000000,0.561554,0.836661,0.650116,0.000000,2.000000,148.009313,1.304019,25.772699,0.624781,19.736739,2.230025,7.500369,0.000000,253.847556,1.065214,9.000000,0.561554,167.495469,6.676101,1.000000,2.000000,4
/home/daniel/Projects/ppsevolution/data/maps/custom_maps/Custom_6_Run_0_Map.csv,squared_error,1.2787595640702417e-06,0.5016,0.7200,0.159577,0.832632,0.022498,0.705602,0.073095,0.130664,1.000000,2.000000,0.997798,0.000000,0.029321,0.537687,0.911436,1.000000,0.000000,1.000000,152.926052,1.236274,12.172283,0.705602,15.546003,1.741307,10.000000,2.000000,299.614683,0.770000,13.134330,0.537687,182.375792,10.000000,1.000000,1.000000,5
/home/daniel/Projects/ppsevolution/data/maps/custom_maps/Custom_6_Run_0_Map.csv,squared_error,8.464431648576133e-07,0.5004,0.7188,0.227320,0.703786,0.247536,0.573415,0.000000,0.000000,1.000000,2.000000,1.000000,0.010147,0.091601,0.513206,1.000000,0.871625,0.008506,0.000000,164.780919,1.164120,43.902538,0.573415,1.000000,0.500000,10.000000,2.000000,300.000000,0.775682,21.915766,0.513206,200.000000,8.780438,1.076558,0.000000,6
/home/daniel/Projects/ppsevolution/data/maps/custom_maps/Custom_6_Run_0_Map.csv,squared_error,5.24835050069322e-07,0.4990,0.7198,0.000000,0.704816,0.417770,0.414923,0.027453,0.000000,0.934206,0.000000,0.899219,0.268135,0.000000,0.500729,1.000000,0.708163,0.000000,0.000000,125.000000,1.164697,67.905584,0.414923,6.463216,0.500000,9.407851,0.000000,282.363362,0.920156,9.000000,0.500729,200.000000,7.227551,1.000000,0.000000,7
/home/daniel/Projects/ppsevolution/data/maps/custom_maps/Custom_6_Run_0_Map.csv,squared_error,1.4623261525599283e-06,0.4991,0.7185,0.005890,0.930070,0.178799,0.636673,0.127929,0.167358,1.000000,2.000000,1.000000,0.106296,0.058050,0.442974,1.000000,1.000000,0.410687,1.000000,126.030831,1.290839,34.210647,0.636673,26.457926,2.089901,10.000000,2.000000,300.000000,0.829526,17.185059,0.442974,200.000000,10.000000,4.696186,1.000000,8
/home/daniel/Projects/ppsevolution/data/maps/custom_maps/Custom_6_Run_0_Map.csv,squared_error,6.364237952905694e-06,0.5035,0.7204,0.000000,0.950655,0.275916,0.569758,0.113679,0.000000,1.000000,0.000000,0.968991,0.017997,0.056354,0.468974,0.966920,0.832229,0.000000,2.000000,125.000000,1.302367,47.904098,0.569758,23.622133,0.500000,10.000000,0.000000,294.573464,0.780078,16.945855,0.468974,193.417059,8.406179,1.000000,2.000000,9
map,fitness,fitness value,team0ratio,time,HP,Speed,Damage,Acc,ClipSize,RateOfFire,NrBullets,Range,HP,Speed,Damage,Acc,ClipSize,RateOfFire,NrBullets,Range,HP,Speed,Damage,Acc,ClipSize,RateOfFire,NrBullets,Range,HP,Speed,Damage,Acc,ClipSize,RateOfFire,NrBullets,Range,Run,target team0ratio: 0.5,target time: 0.72
/home/daniel/Projects/ppsevolution/data/maps/custom_maps/Custom_7_Run_0_Map.csv,squared_error,8.795303695847867e-07,0.4991,0.7190,0.075656,1.000000,0.123954,0.424591,0.111895,0.000000,1.000000,1.000000,1.000000,0.132060,0.000000,0.171312,1.000000,0.458487,0.048643,2.000000,138.239761,1.330000,26.477524,0.424591,23.267100,0.500000,10.000000,1.000000,300.000000,0.843954,9.000000,0.171312,200.000000,4.855627,1.437789,2.000000,0
/home/daniel/Projects/ppsevolution/data/maps/custom_maps/Custom_7_Run_0_Map.csv,squared_error,3.4138442313749493e-08,0.4998,0.7201,0.136743,0.938677,0.184898,0.357634,0.149795,0.210937,0.897404,2.000000,1.000000,0.405944,0.000000,0.185162,0.936595,1.000000,0.000000,1.000000,148.930072,1.295659,35.070556,0.357634,30.809265,2.503899,9.076635,2.000000,300.000000,0.997328,9.000000,0.185162,187.382433,10.000000,1.000000,1.000000,1
/home/daniel/Projects/ppsevolution/data/maps/custom_maps/Custom_7_Run_0_Map.csv,squared_error,3.941155285485778e-06,0.5023,0.7184,0.038183,1.000000,0.095013,0.316066,0.192299,0.064977,0.939211,2.000000,0.609482,0.204199,0.085758,0.081285,0.774720,0.795069,0.000000,2.000000,131.682104,1.330000,22.396891,0.316066,39.267437,1.117280,9.452899,2.000000,231.659428,0.884351,21.091923,0.081285,155.169234,8.053153,1.000000,2.000000,2
/home/daniel/Projects/ppsevolution/data/maps/custom_maps/Custom_7_Run_0_Map.csv,squared_error,4.075668056032333e-07,0.4998,0.7209,0.293610,0.960310,0.000000,0.528767,0.344422,0.184837,0.841651,0.000000,0.985429,0.263444,0.047286,0.147614,0.841416,1.000000,0.605077,0.000000,176.381755,1.307774,9.000000,0.528767,69.539957,2.255947,8.574861,0.000000,297.450055,0.917529,15.667309,0.147614,168.441719,10.000000,6.445696,0.000000,3
/home/daniel/Projects/ppsevolution/data/maps/custom_maps/Custom_7_Run_0_Map.csv,squared_error,5.470957130012354e-06,0.5002,0.7233,0.224092,0.653283,0.000000,0.526485,0.396335,0.155777,0.730842,0.000000,1.000000,0.027479,0.000000,0.228124,0.844351,0.995169,0.000000,0.000000,164.216111,1.135838,9.000000,0.526485,79.870738,1.979879,7.577577,0.000000,300.000000,0.785388,9.000000,0.228124,169.025929,9.954106,1.000000,0.000000,4
/home/daniel/Projects/ppsevolution/data/maps/custom_maps/Custom_7_Run_0_Map.csv,squared_error,7.073014823617934e-07,0.4988,0.7198,0.220707,0.879657,0.000000,0.466227,0.027385,0.313207,0.882425,2.000000,0.840510,0.304691,0.125981,0.094243,0.955195,0.762196,0.064639,1.000000,163.623695,1.262608,9.000000,0.466227,6.449516,3.475462,8.941827,2.000000,272.089211,0.940627,26.763366,0.094243,191.083782,7.740862,1.581748,1.000000,5
/home/daniel/Projects/ppsevolution/data/maps/custom_maps/Custom_7_Run_0_Map.csv,squared_error,5.405306701618611e-07,0.5008,0.7207,0.348043,0.889150,0.435989,0.000000,0.000000,0.144667,1.000000,2.000000,0.798776,0.432603,0.227593,0.000000,0.712653,0.986803,0.112783,2.000000,185.907552,1.267924,70.474399,0.000000,1.000000,1.874338,10.000000,2.000000,264.785800,1.012257,41.090632,0.000000,142.817871,9.874625,2.015047,2.000000,6
/home/daniel/Projects/ppsevolution/data/maps/custom_maps/Custom_7_Run_0_Map.csv,squared_error,9.322138444362058e-08,0.5001,0.7204,0.444847,1.000000,0.000000,0.473863,0.172848,0.185570,0.972688,1.000000,0.911042,0.088434,0.110099,0.214206,0.924640,0.745020,0.047800,1.000000,202.848197,1.330000,9.000000,0.473863,35.396767,2.262910,9.754191,1.000000,284.432332,0.819523,24.523939,0.214206,185.003448,7.577685,1.430198,1.000000,7
/home/daniel/Projects/ppsevolution/data/maps/custom_maps/Custom_7_Run_0_Map.csv,squared_error,9.747718691073639e-07,0.4986,0.7197,0.205873,0.860737,0.069783,0.477866,0.000000,0.300077,0.753470,1.000000,1.000000,0.000000,0.013910,0.190331,1.000000,0.893400,0.225724,2.000000,161.027839,1.252013,18.839343,0.477866,1.000000,3.350733,7.781232,1.000000,300.000000,0.770000,10.961363,0.190331,200.000000,8.987302,3.031512,2.000000,8
/home/daniel/Projects/ppsevolution/data/maps/custom_maps/Custom_7_Run_0_Map.csv,squared_error,1.7575238632446023e-06,0.5018,0.7196,0.558654,0.842938,0.164945,0.359101,0.317507,0.224929,0.849810,2.000000,1.000000,0.350504,0.161896,0.190690,0.950552,0.978060,0.066807,1.000000,222.764386,1.242045,32.257275,0.359101,64.183972,2.636829,8.648291,2.000000,300.000000,0.966282,31.827295,0.190690,190.159772,9.791567,1.601261,1.000000,9
map,fitness,fitness value,team0ratio,time,HP,Speed,Damage,Acc,ClipSize,RateOfFire,NrBullets,Range,HP,Speed,Damage,Acc,ClipSize,RateOfFire,NrBullets,Range,HP,Speed,Damage,Acc,ClipSize,RateOfFire,NrBullets,Range,HP,Speed,Damage,Acc,ClipSize,RateOfFire,NrBullets,Range,Run,target team0ratio: 0.5,target time: 0.72
/home/daniel/Projects/ppsevolution/data/maps/custom_maps/Custom_8_Run_0_Map.csv,squared_error,2.611339572496311e-07,0.5007,0.7202,0.439902,0.971079,0.183216,0.073066,0.000000,0.008440,0.957595,1.000000,0.821360,0.162478,0.044425,0.064680,0.772212,0.879667,0.000000,2.000000,201.982860,1.313804,34.833511,0.073066,1.000000,0.580182,9.618356,1.000000,268.737940,0.860988,15.263895,0.064680,154.670166,8.856832,1.000000,2.000000,0
/home/daniel/Projects/ppsevolution/data/maps/custom_maps/Custom_8_Run_0_Map.csv,squared_error,9.821363205447197e-08,0.5004,0.7202,0.213783,0.783423,0.118898,0.219468,0.337020,0.233436,1.000000,0.000000,0.967205,0.055804,0.000000,0.000000,0.771009,0.537638,0.000000,0.000000,162.411941,1.208717,25.764651,0.219468,68.067026,2.717644,10.000000,0.000000,294.260812,0.801250,9.000000,0.000000,154.430802,5.607557,1.000000,0.000000,1
/home/daniel/Projects/ppsevolution/data/maps/custom_maps/Custom_8_Run_0_Map.csv,squared_error,5.50734112803771e-07,0.5008,0.7207,0.292650,0.649917,0.010546,0.342602,0.305858,0.067222,0.833509,0.000000,0.939005,0.112231,0.009341,0.043623,0.877409,0.868942,0.017564,0.000000,176.213831,1.133953,10.487041,0.342602,61.865765,1.138613,8.501585,0.000000,289.325808,0.832850,10.317115,0.043623,175.604433,8.754949,1.158072,0.000000,2
/home/daniel/Projects/ppsevolution/data/maps/custom_maps/Custom_8_Run_0_Map.csv,squared_error,2.201635659347599e-06,0.4994,0.7220,0.253287,1.000000,0.000000,0.328204,0.245090,0.036328,0.968850,0.000000,0.897367,0.000000,0.000000,0.000000,0.806618,1.000000,0.284323,1.000000,169.325139,1.330000,9.000000,0.328204,49.772849,0.845119,9.719650,0.000000,282.039238,0.770000,9.000000,0.000000,161.516945,10.000000,3.558903,1.000000,3
/home/daniel/Projects/ppsevolution/data/maps/custom_maps/Custom_8_Run_0_Map.csv,squared_error,1.9531062826246577e-06,0.5013,0.7215,0.232432,0.936915,0.100957,0.262741,0.070836,0.051276,0.910390,1.000000,1.000000,0.000000,0.000000,0.000000,0.983718,0.903633,0.078000,1.000000,165.675640,1.294672,23.234955,0.262741,15.096362,0.987120,9.193508,1.000000,300.000000,0.770000,9.000000,0.000000,196.759783,9.084511,1.701998,1.000000,4
/home/daniel/Projects/ppsevolution/data/maps/custom_maps/Custom_8_Run_0_Map.csv,squared_error,5.464663569661613e-07,0.4996,0.7210,0.265891,0.743926,0.000000,0.377160,0.375718,0.039498,0.807366,1.000000,1.000000,0.373715,0.000000,0.032653,1.000000,0.617505,0.000000,2.000000,171.530912,1.186598,9.000000,0.377160,75.767863,0.875229,8.266291,1.000000,300.000000,0.979280,9.000000,0.032653,200.000000,6.366298,1.000000,2.000000,5
/home/daniel/Projects/ppsevolution/data/maps/custom_maps/Custom_8_Run_0_Map.csv,squared_error,5.303132208751914e-07,0.4990,0.7197,0.506094,0.892233,0.194480,0.000000,0.246649,0.115261,0.837544,2.000000,0.671523,0.000000,0.106573,0.031071,1.000000,1.000000,0.000000,2.000000,213.566495,1.269650,36.421697,0.000000,50.083058,1.594983,8.537895,2.000000,242.516536,0.770000,24.026830,0.031071,200.000000,10.000000,1.000000,2.000000,6
/home/daniel/Projects/ppsevolution/data/maps/custom_maps/Custom_8_Run_0_Map.csv,squared_error,5.461394350277445e-07,0.5008,0.7207,0.162535,1.000000,0.007200,0.299928,0.124707,0.000000,0.852265,1.000000,0.814675,0.080473,0.000000,0.000000,0.832389,1.000000,0.000000,0.000000,153.443546,1.330000,10.015204,0.299928,25.816792,0.500000,8.670389,1.000000,267.568147,0.815065,9.000000,0.000000,166.645448,10.000000,1.000000,0.000000,7
/home/daniel/Projects/ppsevolution/data/maps/custom_maps/Custom_8_Run_0_Map.csv,squared_error,2.6823849088059953e-06,0.5000,0.7177,0.160936,0.996154,0.075294,0.290959,0.023141,0.016884,0.692506,0.000000,0.899536,0.276531,0.000000,0.000000,0.912712,0.907964,0.000000,1.000000,153.163745,1.327846,19.616508,0.290959,5.605069,0.660401,7.232557,0.000000,282.418763,0.924857,9.000000,0.000000,182.629749,9.125660,1.000000,1.000000,8
/home/daniel/Projects/ppsevolution/data/maps/custom_maps/Custom_8_Run_0_Map.csv,squared_error,7.452740207554538e-07,0.5012,0.7198,0.491486,0.944809,0.000669,0.205183,0.139753,0.124020,0.659779,1.000000,0.573151,0.049220,0.029507,0.125708,0.917364,0.409919,0.102147,2.000000,211.010113,1.299093,9.094319,0.205183,28.810813,1.678186,6.938009,1.000000,225.301479,0.797563,13.160528,0.125708,183.555510,4.394234,1.919320,2.000000,9
map,fitness,fitness value,team0ratio,time,HP,Speed,Damage,Acc,ClipSize,RateOfFire,NrBullets,Range,HP,Speed,Damage,Acc,ClipSize,RateOfFire,NrBullets,Range,HP,Speed,Damage,Acc,ClipSize,RateOfFire,NrBullets,Range,HP,Speed,Damage,Acc,ClipSize,RateOfFire,NrBullets,Range,Run,target team0ratio: 0.5,target time: 0.72
/home/daniel/Projects/ppsevolution/data/maps/custom_maps/Custom_9_Run_0_Map.csv,squared_error,1.9091629175421326e-07,0.4994,0.7203,0.746682,0.935963,0.000000,0.158975,0.216719,0.000000,0.789089,2.000000,0.956136,0.000000,0.094028,0.011283,0.789896,0.987944,0.058759,1.000000,255.669422,1.294139,9.000000,0.158975,44.127081,0.500000,8.101803,2.000000,292.323870,0.770000,22.257974,0.011283,158.189247,9.885473,1.528830,1.000000,0
/home/daniel/Projects/ppsevolution/data/maps/custom_maps/Custom_9_Run_0_Map.csv,squared_error,1.924574230383805e-06,0.4986,0.7214,0.848419,1.000000,0.047015,0.112511,0.749260,0.053014,0.512641,2.000000,0.932533,0.133857,0.125254,0.000000,0.866495,0.929817,0.225567,0.000000,273.473365,1.330000,15.629147,0.112511,150.102794,1.003637,5.613770,2.000000,288.193219,0.844960,26.660744,0.000000,173.432575,9.333259,3.030101,0.000000,1
/home/daniel/Projects/ppsevolution/data/maps/custom_maps/Custom_9_Run_0_Map.csv,squared_error,9.805266809877467e-07,0.5013,0.7204,0.686996,0.775215,0.000000,0.141443,0.172372,0.079177,1.000000,0.000000,0.923948,0.000000,0.080095,0.000000,0.823557,1.000000,0.043666,2.000000,245.224235,1.204120,9.000000,0.141443,35.302049,1.252183,10.000000,0.000000,286.690831,0.770000,20.293344,0.000000,164.887851,10.000000,1.392996,2.000000,2
/home/daniel/Projects/ppsevolution/data/maps/custom_maps/Custom_9_Run_0_Map.csv,squared_error,9.872647159000007e-07,0.5012,0.7207,0.491671,0.375899,0.000000,0.122913,0.354423,0.022743,0.840695,0.000000,0.819585,0.611661,0.000000,0.000000,0.756182,1.000000,0.000000,0.000000,211.042498,0.980503,9.000000,0.122913,71.530189,0.716059,8.566253,0.000000,268.427362,1.112530,9.000000,0.000000,151.480301,10.000000,1.000000,0.000000,3
/home/daniel/Projects/ppsevolution/data/maps/custom_maps/Custom_9_Run_0_Map.csv,squared_error,2.085390697371323e-06,0.4987,0.7216,0.963512,0.987075,0.145231,0.000000,0.497400,0.965631,0.593433,1.000000,1.000000,0.000000,0.052481,0.143135,0.635215,0.557796,0.038678,0.000000,293.614652,1.322762,29.477579,0.000000,99.982645,9.673490,6.340901,1.000000,300.000000,0.770000,16.399823,0.143135,127.407804,5.799064,1.348103,0.000000,4
/home/daniel/Projects/ppsevolution/data/maps/custom_maps/Custom_9_Run_0_Map.csv,squared_error,7.425986114213983e-07,0.4989,0.7205,0.605874,0.930683,0.000000,0.052347,0.113155,0.766878,0.902982,0.000000,0.711589,0.470452,0.052237,0.000000,0.532031,0.809272,0.000000,1.000000,231.027927,1.291182,9.000000,0.052347,23.517899,7.785343,9.126840,0.000000,249.528022,1.033453,16.365474,0.000000,106.874163,8.188080,1.000000,1.000000,5
/home/daniel/Projects/ppsevolution/data/maps/custom_maps/Custom_9_Run_0_Map.csv,squared_error,1.9087814017922774e-06,0.4997,0.7219,0.573758,0.693244,0.084405,0.071366,0.495910,0.416516,0.748840,2.000000,0.966836,0.230169,0.000000,0.000000,1.000000,0.936676,0.142548,2.000000,225.407677,1.158217,20.901060,0.071366,99.686152,4.456897,7.739564,2.000000,294.196379,0.898895,9.000000,0.000000,200.000000,9.398422,2.282933,2.000000,6
/home/daniel/Projects/ppsevolution/data/maps/custom_maps/Custom_9_Run_0_Map.csv,squared_error,3.603126867997663e-06,0.5009,0.7175,0.681046,0.564890,0.000000,0.087743,0.222028,0.665811,0.468706,1.000000,0.694472,0.206280,0.000000,0.085261,1.000000,0.649338,0.216786,1.000000,244.183004,1.086338,9.000000,0.087743,45.183546,6.825207,5.218353,1.000000,246.532677,0.885517,9.000000,0.085261,200.000000,6.668707,2.951073,1.000000,7
/home/daniel/Projects/ppsevolution/data/maps/custom_maps/Custom_9_Run_0_Map.csv,squared_error,9.804775037565556e-07,0.5014,0.7198,0.545604,1.000000,0.177586,0.000000,0.151474,0.438847,0.704079,0.000000,1.000000,0.114971,0.000000,0.000000,0.950793,0.826687,0.176607,1.000000,220.480679,1.330000,34.039614,0.000000,31.143232,4.669047,7.336708,0.000000,300.000000,0.834384,9.000000,0.000000,190.207752,8.353525,2.589464,1.000000,8
/home/daniel/Projects/ppsevolution/data/maps/custom_maps/Custom_9_Run_0_Map.csv,squared_error,2.7999659461926714e-06,0.4983,0.7216,0.495460,0.828776,0.053904,0.138574,0.543322,0.032118,0.447230,0.000000,0.927751,0.000000,0.000000,0.000000,1.000000,1.000000,0.078715,1.000000,211.705570,1.234115,16.600460,0.138574,109.121159,0.805120,5.025074,0.000000,287.356449,0.770000,9.000000,0.000000,200.000000,10.000000,1.708438,1.000000,9
map,fitness,fitness value,team0ratio,time,HP,Speed,Damage,Acc,ClipSize,RateOfFire,NrBullets,Range,HP,Speed,Damage,Acc,ClipSize,RateOfFire,NrBullets,Range,HP,Speed,Damage,Acc,ClipSize,RateOfFire,NrBullets,Range,HP,Speed,Damage,Acc,ClipSize,RateOfFire,NrBullets,Range,Run,target team0ratio: 0.5,target time: 0.72
/home/daniel/Projects/ppsevolution/data/maps/custom_maps/Custom_10_Run_0_Map.csv,squared_error,4.693222535775e-06,0.5030,0.7192,0.253290,0.822787,0.000000,0.472547,0.048481,0.000000,1.000000,0.000000,0.980997,0.053926,0.000000,0.170168,0.753312,0.859544,0.224615,0.000000,169.325826,1.230761,9.000000,0.472547,10.647629,0.500000,10.000000,0.000000,296.674522,0.800198,9.000000,0.170168,150.908997,8.665671,3.021536,0.000000,0
/home/daniel/Projects/ppsevolution/data/maps/custom_maps/Custom_10_Run_0_Map.csv,squared_error,6.64316736857706e-06,0.5027,0.7224,0.000000,0.716283,0.164530,0.318724,0.000000,0.000000,0.821827,2.000000,1.000000,0.114400,0.000000,0.000000,0.796041,0.936768,0.256834,1.000000,125.000000,1.171119,32.198746,0.318724,1.000000,0.500000,8.396447,2.000000,300.000000,0.834064,9.000000,0.000000,159.412194,9.399297,3.311508,1.000000,1
/home/daniel/Projects/ppsevolution/data/maps/custom_maps/Custom_10_Run_0_Map.csv,squared_error,7.446932089834332e-07,0.4989,0.7194,0.074464,0.876444,0.000000,0.459246,0.000000,0.563077,1.000000,1.000000,0.963694,0.135190,0.011766,0.072190,0.877430,0.861035,0.105474,1.000000,138.031200,1.260808,9.000000,0.459246,1.000000,5.849233,10.000000,1.000000,293.646389,0.845706,10.658938,0.072190,175.608604,8.679835,1.949265,1.000000,2
/home/daniel/Projects/ppsevolution/data/maps/custom_maps/Custom_10_Run_0_Map.csv,squared_error,3.158580723557194e-07,0.4992,0.7198,0.371487,1.000000,0.373481,0.067466,0.365030,0.294285,1.000000,1.000000,1.000000,0.225458,0.114057,0.070515,1.000000,0.765620,0.109196,0.000000,190.010200,1.330000,61.660764,0.067466,73.640976,3.295709,10.000000,1.000000,300.000000,0.896257,25.082007,0.070515,200.000000,7.773392,1.982760,0.000000,3
/home/daniel/Projects/ppsevolution/data/maps/custom_maps/Custom_10_Run_0_Map.csv,squared_error,6.854482631535965e-06,0.4972,0.7176,0.053850,0.976017,0.454427,0.000000,0.521233,0.000000,0.914637,0.000000,1.000000,0.000000,0.000000,0.064729,0.917642,0.768152,0.114679,2.000000,134.423812,1.316570,73.074160,0.000000,104.725356,0.500000,9.231736,0.000000,300.000000,0.770000,9.000000,0.064729,183.610726,7.797440,2.032113,2.000000,4
/home/daniel/Projects/ppsevolution/data/maps/custom_maps/Custom_10_Run_0_Map.csv,squared_error,8.108446691153091e-07,0.4995,0.7188,0.344326,0.706578,0.315792,0.056931,0.001870,0.415667,0.901860,0.000000,0.808843,0.000000,0.108910,0.093916,0.695610,0.706866,0.000000,2.000000,185.257080,1.165684,53.526612,0.056931,1.372174,4.448839,9.116739,0.000000,266.547492,0.770000,24.356316,0.093916,139.426421,7.215230,1.000000,2.000000,5
/home/daniel/Projects/ppsevolution/data/maps/custom_maps/Custom_10_Run_0_Map.csv,squared_error,2.421432693449828e-06,0.4984,0.7215,0.235518,0.866663,0.116473,0.294891,0.346930,0.171305,1.000000,2.000000,0.892480,0.027791,0.000000,0.173465,1.000000,0.913697,0.000000,0.000000,166.215708,1.255331,25.422719,0.294891,70.039035,2.127393,10.000000,2.000000,281.184008,0.785563,9.000000,0.173465,200.000000,9.180118,1.000000,0.000000,6
/home/daniel/Projects/ppsevolution/data/maps/custom_maps/Custom_10_Run_0_Map.csv,squared_error,9.339242466672902e-07,0.4991,0.7190,0.143203,0.381275,0.333535,0.076515,0.000000,0.145056,0.910026,0.000000,0.868075,0.113779,0.000000,0.124008,1.000000,0.827464,0.071850,0.000000,150.060535,0.983514,56.028442,0.076515,1.000000,1.878035,9.190232,0.000000,276.913127,0.833716,9.000000,0.124008,200.000000,8.360909,1.646648,0.000000,7
/home/daniel/Projects/ppsevolution/data/maps/custom_maps/Custom_10_Run_0_Map.csv,squared_error,1.4883452299415414e-06,0.4992,0.7215,0.107282,0.865821,0.093962,0.407880,0.097150,0.028790,0.719318,0.000000,1.000000,0.312977,0.026053,0.088753,0.712758,0.950277,0.000000,0.000000,143.774335,1.254860,22.248662,0.407880,20.332916,0.773504,7.473862,0.000000,300.000000,0.945267,12.673409,0.088753,142.838915,9.527636,1.000000,0.000000,8
/home/daniel/Projects/ppsevolution/data/maps/custom_maps/Custom_10_Run_0_Map.csv,squared_error,6.715217323545327e-07,0.5002,0.7189,0.150360,0.483380,0.100386,0.401305,0.219584,0.058579,0.644137,1.000000,1.000000,0.133052,0.000000,0.130326,0.730643,0.971959,0.059154,0.000000,151.313003,1.040693,23.154363,0.401305,44.697310,1.056496,6.797229,1.000000,300.000000,0.844509,9.000000,0.130326,146.397904,9.733606,1.532389,0.000000,9
