map,fitness,fitness value,team0ratio,time,HP,Speed,Damage,Acc,ClipSize,RateOfFire,NrBullets,Range,HP,Speed,Damage,Acc,ClipSize,RateOfFire,NrBullets,Range,HP,Speed,Damage,Acc,ClipSize,RateOfFire,NrBullets,Range,HP,Speed,Damage,Acc,ClipSize,RateOfFire,NrBullets,Range,Run,target team0ratio: 0.5,target time: 0.36
/home/daniel/Projects/ppsevolution/data/maps/custom_maps/Custom_1_Run_0_Map.csv,squared_error,2.118691836656513e-08,0.4998,0.3599,0.000000,0.919286,0.192997,0.626670,0.151818,0.105067,1.000000,1.000000,0.846932,0.000000,0.000000,0.571325,0.935913,0.946074,0.167044,1.000000,125.000000,1.284800,36.212604,0.626670,31.211712,1.498139,10.000000,1.000000,273.213018,0.770000,9.000000,0.571325,187.246767,9.487700,2.503397,1.000000,0
/home/daniel/Projects/ppsevolution/data/maps/custom_maps/Custom_1_Run_0_Map.csv,squared_error,4.288495642774887e-06,0.5003,0.3629,0.276586,0.945521,0.075852,0.717702,0.011261,0.070769,0.905048,1.000000,1.000000,0.047997,0.077102,0.599786,1.000000,1.000000,0.098299,2.000000,173.402603,1.299492,19.695200,0.717702,3.240908,1.172309,9.145428,1.000000,300.000000,0.796878,19.871414,0.599786,200.000000,10.000000,1.884690,2.000000,1
/home/daniel/Projects/ppsevolution/data/maps/custom_maps/Custom_1_Run_0_Map.csv,squared_error,7.495170933160689e-06,0.4970,0.3576,0.097002,0.941081,0.000000,0.763391,0.202913,0.000000,1.000000,0.000000,0.931453,0.095550,0.046513,0.602655,1.000000,0.986153,0.183084,0.000000,141.975427,1.297006,9.000000,0.763391,41.379784,0.500000,10.000000,0.000000,288.004243,0.823508,15.558328,0.602655,200.000000,9.868455,2.647758,0.000000,2
/home/daniel/Projects/ppsevolution/data/maps/custom_maps/Custom_1_Run_0_Map.csv,squared_error,6.440994812131034e-07,0.5005,0.3610,0.000000,1.000000,0.180936,0.693486,0.154656,0.000000,0.906512,0.000000,1.000000,0.041344,0.000000,0.600000,1.000000,1.000000,0.000000,0.000000,125.000000,1.330000,34.512017,0.693486,31.776608,0.500000,9.158607,0.000000,300.000000,0.793153,9.000000,0.600000,200.000000,10.000000,1.000000,0.000000,3
/home/daniel/Projects/ppsevolution/data/maps/custom_maps/Custom_1_Run_0_Map.csv,squared_error,2.3616937393768183e-06,0.5004,0.3579,0.113990,0.888841,0.249221,0.640600,0.000000,0.000000,0.820683,2.000000,1.000000,0.000000,0.078984,0.566587,0.925639,0.707953,0.111391,0.000000,144.948315,1.267751,44.140102,0.640600,1.000000,0.500000,8.386151,2.000000,300.000000,0.770000,20.136687,0.566587,185.202122,7.225549,2.002516,0.000000,4
/home/daniel/Projects/ppsevolution/data/maps/custom_maps/Custom_1_Run_0_Map.csv,squared_error,1.4656289879468452e-06,0.4983,0.3602,0.074615,1.000000,0.151134,0.652222,0.301043,0.014164,0.913086,2.000000,0.841836,0.128995,0.000000,0.610836,0.976380,0.682393,0.000000,0.000000,138.057623,1.330000,30.309890,0.652222,60.907501,0.634556,9.217770,2.000000,272.321308,0.842237,9.000000,0.610836,195.299652,6.982733,1.000000,0.000000,5
/home/daniel/Projects/ppsevolution/data/maps/custom_maps/Custom_1_Run_0_Map.csv,squared_error,1.3120186730965638e-06,0.4984,0.3603,0.000000,1.000000,0.089658,0.645905,0.000000,0.000000,0.990300,1.000000,0.668493,0.179618,0.053586,0.540640,0.894702,1.000000,0.158373,1.000000,125.000000,1.330000,21.641737,0.645905,1.000000,0.500000,9.912697,1.000000,241.986310,0.870586,16.555616,0.540640,179.045701,10.000000,2.425353,1.000000,6
/home/daniel/Projects/ppsevolution/data/maps/custom_maps/Custom_1_Run_0_Map.csv,squared_error,5.3836326078517355e-06,0.4969,0.3588,0.000000,0.704885,0.252908,0.602781,0.086692,0.107836,0.890603,0.000000,0.830360,0.098147,0.000000,0.596136,0.787571,0.867006,0.000000,1.000000,125.000000,1.164735,44.660090,0.602781,18.251760,1.524444,9.015431,0.000000,270.313058,0.824963,9.000000,0.596136,157.726572,8.736555,1.000000,1.000000,7
/home/daniel/Projects/ppsevolution/data/maps/custom_maps/Custom_1_Run_0_Map.csv,squared_error,1.746372245867873e-06,0.5014,0.3588,0.022089,1.000000,0.210000,0.625709,0.079337,0.132811,1.000000,1.000000,0.851893,0.037730,0.000000,0.600000,0.852024,0.940345,0.000000,0.000000,128.865504,1.330000,38.610000,0.625709,16.788042,1.761709,10.000000,1.000000,274.081210,0.791129,9.000000,0.600000,170.552831,9.433277,1.000000,0.000000,8
/home/daniel/Projects/ppsevolution/data/maps/custom_maps/Custom_1_Run_0_Map.csv,squared_error,3.816802611346864e-07,0.4996,0.3608,0.183062,1.000000,0.218026,0.643184,0.036198,0.115393,0.901534,0.000000,0.948177,0.261848,0.046363,0.600000,0.925955,1.000000,0.000000,2.000000,157.035796,1.330000,39.741604,0.643184,8.203480,1.596229,9.113805,0.000000,290.931030,0.916635,15.537178,0.600000,185.265058,10.000000,1.000000,2.000000,9
map,fitness,fitness value,team0ratio,time,HP,Speed,Damage,Acc,ClipSize,RateOfFire,NrBullets,Range,HP,Speed,Damage,Acc,ClipSize,RateOfFire,NrBullets,Range,HP,Speed,Damage,Acc,ClipSize,RateOfFire,NrBullets,Range,HP,Speed,Damage,Acc,ClipSize,RateOfFire,NrBullets,Range,Run,target team0ratio: 0.5,target time: 0.36
/home/daniel/Projects/ppsevolution/data/maps/custom_maps/Custom_2_Run_0_Map.csv,squared_error,0.0005190077115292053,0.4933,0.3915,0.000000,0.645198,0.699378,1.000000,0.000000,0.000000,1.000000,2.000000,0.579517,0.000000,1.000000,1.000000,1.000000,0.962081,0.633561,2.000000,125.000000,1.131311,107.612281,1.000000,1.000000,0.500000,10.000000,2.000000,226.415480,0.770000,150.000000,1.000000,200.000000,9.639766,6.702050,2.000000,0
/home/daniel/Projects/ppsevolution/data/maps/custom_maps/Custom_2_Run_0_Map.csv,squared_error,0.00044378527798163926,0.4950,0.3894,0.013967,1.000000,0.818810,1.000000,0.098480,0.108025,1.000000,2.000000,0.838631,0.023814,0.988266,1.000000,0.984992,0.990856,0.961908,2.000000,127.444176,1.330000,124.452234,1.000000,20.597464,1.526239,10.000000,2.000000,271.760498,0.783336,148.345474,1.000000,197.013505,9.913135,9.657169,2.000000,1
/home/daniel/Projects/ppsevolution/data/maps/custom_maps/Custom_2_Run_0_Map.csv,squared_error,0.00043589566864907393,0.4978,0.3894,0.000000,0.757743,0.607055,1.000000,0.099108,0.000000,1.000000,2.000000,0.397342,0.524625,1.000000,1.000000,0.983911,0.879963,1.000000,2.000000,125.000000,1.194336,94.594798,1.000000,20.722481,0.500000,10.000000,2.000000,194.534769,1.063790,150.000000,1.000000,196.798367,8.859648,10.000000,2.000000,2
/home/daniel/Projects/ppsevolution/data/maps/custom_maps/Custom_2_Run_0_Map.csv,squared_error,0.0004340925623032416,0.4958,0.3892,0.101076,0.912046,0.524366,1.000000,0.000000,0.000000,1.000000,2.000000,0.412085,0.742568,1.000000,1.000000,1.000000,1.000000,0.982418,2.000000,142.688258,1.280746,82.935670,1.000000,1.000000,0.500000,10.000000,2.000000,197.114912,1.185838,150.000000,1.000000,200.000000,10.000000,9.841759,2.000000,3
/home/daniel/Projects/ppsevolution/data/maps/custom_maps/Custom_2_Run_0_Map.csv,squared_error,0.000427697955532263,0.4997,0.3892,0.024644,0.718218,0.759877,1.000000,0.024998,0.000000,1.000000,2.000000,0.725783,0.798056,1.000000,1.000000,1.000000,1.000000,1.000000,2.000000,129.312736,1.172202,116.142644,1.000000,5.974594,0.500000,10.000000,2.000000,252.011958,1.216911,150.000000,1.000000,200.000000,10.000000,10.000000,2.000000,4
/home/daniel/Projects/ppsevolution/data/maps/custom_maps/Custom_2_Run_0_Map.csv,squared_error,0.00044432081290286584,0.4900,0.3881,0.000000,0.924468,0.669729,1.000000,0.166102,0.000000,1.000000,2.000000,0.619361,0.054258,0.990105,1.000000,1.000000,1.000000,1.000000,2.000000,125.000000,1.287702,103.431850,1.000000,34.054233,0.500000,10.000000,2.000000,233.388211,0.800384,148.604766,1.000000,200.000000,10.000000,10.000000,2.000000,5
/home/daniel/Projects/ppsevolution/data/maps/custom_maps/Custom_2_Run_0_Map.csv,squared_error,0.00047305618294490485,0.4936,0.3901,0.000000,1.000000,0.919222,1.000000,0.000000,0.000000,1.000000,2.000000,1.000000,0.000000,1.000000,1.000000,0.877501,1.000000,0.748787,2.000000,125.000000,1.330000,138.610316,1.000000,1.000000,0.500000,10.000000,2.000000,300.000000,0.770000,150.000000,1.000000,175.622790,10.000000,7.739082,2.000000,6
/home/daniel/Projects/ppsevolution/data/maps/custom_maps/Custom_2_Run_0_Map.csv,squared_error,0.00047812202563205343,0.4952,0.3906,0.000000,0.894795,0.842587,1.000000,0.090093,0.000000,1.000000,2.000000,0.819357,0.167306,1.000000,1.000000,0.715432,0.841936,0.898113,2.000000,125.000000,1.271085,127.804698,1.000000,18.928514,0.500000,10.000000,2.000000,268.387507,0.863692,150.000000,1.000000,143.371027,8.498390,9.083017,2.000000,7
/home/daniel/Projects/ppsevolution/data/maps/custom_maps/Custom_2_Run_0_Map.csv,squared_error,0.00045073260871390244,0.4967,0.3898,0.000000,0.981963,0.816393,1.000000,0.000000,0.009696,0.875379,2.000000,0.823584,0.129599,1.000000,1.000000,1.000000,1.000000,0.881724,2.000000,125.000000,1.319900,124.111345,1.000000,1.000000,0.592108,8.878412,2.000000,269.127152,0.842576,150.000000,1.000000,200.000000,10.000000,8.935519,2.000000,8
/home/daniel/Projects/ppsevolution/data/maps/custom_maps/Custom_2_Run_0_Map.csv,squared_error,0.00041160201923799597,0.4941,0.3881,0.000000,0.819261,0.666824,1.000000,0.000000,0.000000,1.000000,2.000000,0.576422,0.382614,1.000000,1.000000,1.000000,1.000000,1.000000,2.000000,125.000000,1.228786,103.022212,1.000000,1.000000,0.500000,10.000000,2.000000,225.873875,0.984264,150.000000,1.000000,200.000000,10.000000,10.000000,2.000000,9
map,fitness,fitness value,team0ratio,time,HP,Speed,Damage,Acc,ClipSize,RateOfFire,NrBullets,Range,HP,Speed,Damage,Acc,ClipSize,RateOfFire,NrBullets,Range,HP,Speed,Damage,Acc,ClipSize,RateOfFire,NrBullets,Range,HP,Speed,Damage,Acc,ClipSize,RateOfFire,NrBullets,Range,Run,target team0ratio: 0.5,target time: 0.36
/home/daniel/Projects/ppsevolution/data/maps/custom_maps/Custom_3_Run_0_Map.csv,squared_error,0.006212985250967795,0.5115,0.4709,0.005797,1.000000,0.797936,1.000000,0.000000,0.007384,0.989551,2.000000,0.304840,0.000000,1.000000,1.000000,0.943417,0.000000,1.000000,2.000000,126.014550,1.330000,121.508967,1.000000,1.000000,0.570148,9.905963,2.000000,178.347085,0.770000,150.000000,1.000000,188.740067,0.500000,10.000000,2.000000,0
/home/daniel/Projects/ppsevolution/data/maps/custom_maps/Custom_3_Run_0_Map.csv,squared_error,0.006375939315926666,0.5036,0.4729,0.000000,0.840620,0.659565,1.000000,0.000000,0.032985,1.000000,2.000000,0.259622,0.219115,1.000000,1.000000,0.987285,0.648065,0.949612,2.000000,125.000000,1.240747,101.998722,1.000000,1.000000,0.813353,10.000000,2.000000,170.433805,0.892704,150.000000,1.000000,197.469774,6.656618,9.546509,2.000000,1
/home/daniel/Projects/ppsevolution/data/maps/custom_maps/Custom_3_Run_0_Map.csv,squared_error,0.006403710167493092,0.5021,0.4732,0.000000,1.000000,0.914689,1.000000,0.000000,0.029672,1.000000,2.000000,0.696304,0.021557,1.000000,1.000000,1.000000,0.475140,0.982288,2.000000,125.000000,1.330000,137.971121,1.000000,1.000000,0.781883,10.000000,2.000000,246.853231,0.782072,150.000000,1.000000,200.000000,5.013832,9.840591,2.000000,2
/home/daniel/Projects/ppsevolution/data/maps/custom_maps/Custom_3_Run_0_Map.csv,squared_error,0.006183504964385908,0.5100,0.4708,0.000000,0.667408,0.694758,1.000000,0.000000,0.027724,1.000000,2.000000,0.134684,0.000000,1.000000,1.000000,1.000000,0.079880,1.000000,2.000000,125.000000,1.143748,106.960859,1.000000,1.000000,0.763379,10.000000,2.000000,148.569645,0.770000,150.000000,1.000000,200.000000,1.258859,10.000000,2.000000,3
/home/daniel/Projects/ppsevolution/data/maps/custom_maps/Custom_3_Run_0_Map.csv,squared_error,0.006023979538316177,0.5074,0.4695,0.000000,0.668511,1.000000,0.968569,0.000000,0.000000,1.000000,2.000000,0.000000,0.008320,1.000000,1.000000,0.769917,0.000000,1.000000,2.000000,125.000000,1.144366,150.000000,0.968569,1.000000,0.500000,10.000000,2.000000,125.000000,0.774659,150.000000,1.000000,154.213492,0.500000,10.000000,2.000000,4
/home/daniel/Projects/ppsevolution/data/maps/custom_maps/Custom_3_Run_0_Map.csv,squared_error,0.006173753495880569,0.4968,0.4711,0.000000,1.000000,0.572698,1.000000,0.002555,0.236466,1.000000,2.000000,0.003282,0.001839,1.000000,1.000000,1.000000,0.000000,0.970261,2.000000,125.000000,1.330000,89.750433,1.000000,1.508515,2.746427,10.000000,2.000000,125.574299,0.771030,150.000000,1.000000,200.000000,0.500000,9.732350,2.000000,5
/home/daniel/Projects/ppsevolution/data/maps/custom_maps/Custom_3_Run_0_Map.csv,squared_error,0.006159277406689402,0.5046,0.4709,0.000000,0.845829,0.607437,1.000000,0.000000,0.365797,1.000000,2.000000,0.000000,0.051666,0.995803,1.000000,0.930014,0.000000,1.000000,2.000000,125.000000,1.243664,94.648587,1.000000,1.000000,3.975067,10.000000,2.000000,125.000000,0.798933,149.408253,1.000000,186.072808,0.500000,10.000000,2.000000,6
/home/daniel/Projects/ppsevolution/data/maps/custom_maps/Custom_3_Run_0_Map.csv,squared_error,0.006406234371835812,0.4979,0.4732,0.004308,0.801723,0.759539,1.000000,0.000000,0.000000,1.000000,2.000000,0.390794,0.298008,1.000000,1.000000,0.892541,0.180045,0.871504,2.000000,125.753949,1.218965,116.095049,1.000000,1.000000,0.500000,10.000000,2.000000,193.388924,0.936884,150.000000,1.000000,178.615724,2.210428,8.843539,2.000000,7
/home/daniel/Projects/ppsevolution/data/maps/custom_maps/Custom_3_Run_0_Map.csv,squared_error,0.006240913284049686,0.4987,0.4717,0.000000,0.896665,0.596047,1.000000,0.023468,0.000000,1.000000,2.000000,0.045360,0.307453,1.000000,1.000000,0.781404,0.000000,0.945611,2.000000,125.000000,1.272132,93.042605,1.000000,5.670078,0.500000,10.000000,2.000000,132.937965,0.942174,150.000000,1.000000,156.499346,0.500000,9.510496,2.000000,8
/home/daniel/Projects/ppsevolution/data/maps/custom_maps/Custom_3_Run_0_Map.csv,squared_error,0.006201939885118965,0.5027,0.4713,0.000000,0.897003,0.567191,1.000000,0.074690,0.157174,1.000000,2.000000,0.000000,0.000000,1.000000,1.000000,0.989518,0.248411,1.000000,2.000000,125.000000,1.272322,88.973977,1.000000,15.863222,1.993154,10.000000,2.000000,125.000000,0.770000,150.000000,1.000000,197.913984,2.859908,10.000000,2.000000,9
map,fitness,fitness value,team0ratio,time,HP,Speed,Damage,Acc,ClipSize,RateOfFire,NrBullets,Range,HP,Speed,Damage,Acc,ClipSize,RateOfFire,NrBullets,Range,HP,Speed,Damage,Acc,ClipSize,RateOfFire,NrBullets,Range,HP,Speed,Damage,Acc,ClipSize,RateOfFire,NrBullets,Range,Run,target team0ratio: 0.5,target time: 0.36
/home/daniel/Projects/ppsevolution/data/maps/custom_maps/Custom_4_Run_0_Map.csv,squared_error,4.835172331190283e-06,0.5025,0.3582,0.083944,0.982912,0.082678,0.793315,0.036798,0.000000,1.000000,0.000000,0.839890,0.008300,0.166444,0.610674,0.907351,1.000000,0.000000,2.000000,139.690260,1.320431,20.657639,0.793315,8.322747,0.500000,10.000000,0.000000,271.980815,0.774648,32.468601,0.610674,181.562809,10.000000,1.000000,2.000000,0
/home/daniel/Projects/ppsevolution/data/maps/custom_maps/Custom_4_Run_0_Map.csv,squared_error,1.7007921786450974e-06,0.5012,0.3586,0.102554,1.000000,0.134588,0.800000,0.000000,0.000000,1.000000,1.000000,1.000000,0.000000,0.000000,0.689881,1.000000,0.855624,0.096200,0.000000,142.946867,1.330000,27.976933,0.800000,1.000000,0.500000,10.000000,1.000000,300.000000,0.770000,9.000000,0.689881,200.000000,8.628428,1.865797,0.000000,1
/home/daniel/Projects/ppsevolution/data/maps/custom_maps/Custom_4_Run_0_Map.csv,squared_error,1.3425311532479673e-06,0.4984,0.3605,0.014536,0.956601,0.281657,0.728882,0.000000,0.000000,0.744596,2.000000,1.000000,0.099960,0.224463,0.509056,1.000000,0.985822,0.453373,0.000000,127.543772,1.305697,48.713630,0.728882,1.000000,0.500000,7.701361,2.000000,300.000000,0.825978,40.649243,0.509056,200.000000,9.865305,5.080361,0.000000,2
/home/daniel/Projects/ppsevolution/data/maps/custom_maps/Custom_4_Run_0_Map.csv,squared_error,1.4998137503454043e-06,0.5008,0.3585,0.057348,0.957914,0.091683,0.817365,0.000000,0.127917,1.000000,1.000000,1.000000,0.000000,0.027939,0.680549,1.000000,0.967562,0.000000,0.000000,135.035886,1.306432,21.927363,0.817365,1.000000,1.715215,10.000000,1.000000,300.000000,0.770000,12.939415,0.680549,200.000000,9.691835,1.000000,0.000000,3
/home/daniel/Projects/ppsevolution/data/maps/custom_maps/Custom_4_Run_0_Map.csv,squared_error,3.49634350676103e-07,0.5007,0.3604,0.195366,1.000000,0.083746,0.800000,0.000000,0.000000,1.000000,1.000000,1.000000,0.000000,0.202412,0.593187,1.000000,1.000000,0.367530,1.000000,159.188968,1.330000,20.808142,0.800000,1.000000,0.500000,10.000000,1.000000,300.000000,0.770000,37.540156,0.593187,200.000000,10.000000,4.307773,1.000000,4
/home/daniel/Projects/ppsevolution/data/maps/custom_maps/Custom_4_Run_0_Map.csv,squared_error,1.336441485029387e-06,0.4984,0.3603,0.000000,1.000000,0.123797,0.800000,0.148663,0.059514,0.886091,0.000000,0.886863,0.127163,0.023583,0.666981,1.000000,0.719914,0.125181,0.000000,125.000000,1.330000,26.455331,0.800000,30.584008,1.065388,8.974820,0.000000,280.200968,0.841212,12.325160,0.666981,200.000000,7.339179,2.126633,0.000000,5
/home/daniel/Projects/ppsevolution/data/maps/custom_maps/Custom_4_Run_0_Map.csv,squared_error,7.721289395369911e-07,0.5011,0.3595,0.105972,1.000000,0.185691,0.759742,0.143957,0.000000,1.000000,2.000000,1.000000,0.000000,0.000000,0.662423,1.000000,0.804312,0.041424,2.000000,143.545137,1.330000,35.182407,0.759742,29.647542,0.500000,10.000000,2.000000,300.000000,0.770000,9.000000,0.662423,200.000000,8.140964,1.372818,2.000000,6
/home/daniel/Projects/ppsevolution/data/maps/custom_maps/Custom_4_Run_0_Map.csv,squared_error,4.536663726528935e-06,0.4985,0.3626,0.000000,1.000000,0.304881,0.697693,0.378108,0.030000,0.923107,0.000000,0.839363,0.000000,0.099792,0.600000,1.000000,0.941640,0.014556,2.000000,125.000000,1.330000,51.988291,0.697693,76.243587,0.785000,9.307959,0.000000,271.888454,0.770000,23.070663,0.600000,200.000000,9.445577,1.131006,2.000000,7
/home/daniel/Projects/ppsevolution/data/maps/custom_maps/Custom_4_Run_0_Map.csv,squared_error,9.85194527962824e-07,0.4987,0.3604,0.186240,1.000000,0.217728,0.764447,0.000000,0.000000,0.817990,1.000000,0.968626,0.067395,0.149361,0.639637,0.837903,0.955783,0.000000,0.000000,157.592014,1.330000,39.699665,0.764447,1.000000,0.500000,8.361910,1.000000,294.509559,0.807741,30.059875,0.639637,167.742628,9.579938,1.000000,0.000000,8
/home/daniel/Projects/ppsevolution/data/maps/custom_maps/Custom_4_Run_0_Map.csv,squared_error,5.777013171616693e-07,0.5003,0.3590,0.021522,0.974404,0.350345,0.703571,0.132223,0.043201,0.853297,2.000000,1.000000,0.086266,0.000000,0.649068,0.820455,1.000000,0.048350,1.000000,128.766277,1.315666,58.398598,0.703571,27.312454,0.910414,8.679670,2.000000,300.000000,0.818309,9.000000,0.649068,164.270622,10.000000,1.435151,1.000000,9
map,fitness,fitness value,team0ratio,time,HP,Speed,Damage,Acc,ClipSize,RateOfFire,NrBullets,Range,HP,Speed,Damage,Acc,ClipSize,RateOfFire,NrBullets,Range,HP,Speed,Damage,Acc,ClipSize,RateOfFire,NrBullets,Range,HP,Speed,Damage,Acc,ClipSize,RateOfFire,NrBullets,Range,Run,target team0ratio: 0.5,target time: 0.36
/home/daniel/Projects/ppsevolution/data/maps/custom_maps/Custom_5_Run_0_Map.csv,squared_error,1.1324852874807192e-06,0.4989,0.3589,0.143220,0.611360,0.537403,0.951978,0.000000,0.230206,0.689264,0.000000,0.755763,0.195802,0.178115,0.958681,0.830304,1.000000,0.076541,0.000000,150.063464,1.112362,84.773873,0.951978,1.000000,2.686958,7.203375,0.000000,257.258584,0.879649,34.114218,0.958681,166.230552,10.000000,1.688870,0.000000,0
/home/daniel/Projects/ppsevolution/data/maps/custom_maps/Custom_5_Run_0_Map.csv,squared_error,1.2081445084534866e-08,0.5001,0.3601,0.193093,0.934426,0.088254,1.000000,0.039369,0.145644,1.000000,2.000000,0.789851,0.553360,0.000000,0.995059,1.000000,0.920312,0.000000,0.000000,158.791340,1.293278,21.443846,1.000000,8.834360,1.883613,10.000000,2.000000,263.223856,1.079882,9.000000,0.995059,200.000000,9.242965,1.000000,0.000000,1
/home/daniel/Projects/ppsevolution/data/maps/custom_maps/Custom_5_Run_0_Map.csv,squared_error,2.774955054820762e-06,0.5003,0.3577,0.000000,0.761183,0.470953,0.939590,0.442720,0.050625,1.000000,2.000000,0.878685,0.000000,0.000075,0.951216,0.879109,1.000000,0.152752,0.000000,125.000000,1.196263,75.404443,0.939590,89.101277,0.980939,10.000000,2.000000,278.769796,0.770000,9.010584,0.951216,175.942653,10.000000,2.374764,0.000000,2
/home/daniel/Projects/ppsevolution/data/maps/custom_maps/Custom_5_Run_0_Map.csv,squared_error,2.69664713985669e-07,0.4995,0.3605,0.252737,0.935125,0.260703,1.000000,0.000000,0.109291,0.970096,1.000000,0.986258,0.031394,0.000000,1.000000,0.850819,0.869268,0.097065,0.000000,169.229013,1.293670,45.759095,1.000000,1.000000,1.538264,9.730861,1.000000,297.595160,0.787581,9.000000,1.000000,170.312897,8.758050,1.873582,0.000000,3
/home/daniel/Projects/ppsevolution/data/maps/custom_maps/Custom_5_Run_0_Map.csv,squared_error,1.0611311826338196e-06,0.4996,0.3614,0.000000,0.963053,0.216469,0.988363,0.030000,0.014525,0.855789,2.000000,0.933516,0.000000,0.404602,0.919696,0.947396,0.858600,0.215575,1.000000,125.000000,1.309310,39.522120,0.988363,6.970000,0.637988,8.702099,2.000000,288.365336,0.770000,66.048895,0.919696,189.531763,8.656704,2.940173,1.000000,4
/home/daniel/Projects/ppsevolution/data/maps/custom_maps/Custom_5_Run_0_Map.csv,squared_error,9.68138898502972e-07,0.4992,0.3611,0.237137,1.000000,0.083564,1.000000,0.074145,0.481244,0.762392,2.000000,0.809604,0.024647,0.000000,1.000000,0.939254,0.952690,0.182608,1.000000,166.498941,1.330000,20.782520,1.000000,15.754830,5.071820,7.861531,2.000000,266.680712,0.783802,9.000000,1.000000,187.911519,9.550554,2.643470,1.000000,5
/home/daniel/Projects/ppsevolution/data/maps/custom_maps/Custom_5_Run_0_Map.csv,squared_error,2.97136932210399e-07,0.4995,0.3594,0.056306,0.911185,0.366066,1.000000,0.408669,0.000000,0.789569,0.000000,0.888132,0.000000,0.000000,1.000000,0.831003,0.946531,0.000000,0.000000,134.853577,1.280263,60.615297,1.000000,82.325110,0.500000,8.106120,0.000000,280.423106,0.770000,9.000000,1.000000,166.369578,9.492046,1.000000,0.000000,6
/home/daniel/Projects/ppsevolution/data/maps/custom_maps/Custom_5_Run_0_Map.csv,squared_error,9.844865943400006e-07,0.4994,0.3613,0.000000,0.977771,0.488193,0.958232,0.066208,0.112124,1.000000,0.000000,0.867215,0.159640,0.115774,0.944095,1.000000,0.838121,0.000000,1.000000,125.000000,1.317552,77.835186,0.958232,14.175309,1.565178,10.000000,0.000000,276.762653,0.859398,25.324096,0.944095,200.000000,8.462148,1.000000,1.000000,7
/home/daniel/Projects/ppsevolution/data/maps/custom_maps/Custom_5_Run_0_Map.csv,squared_error,7.975629050662162e-07,0.5008,0.3590,0.000000,0.562228,0.666882,0.923711,0.000000,0.000000,1.000000,1.000000,1.000000,0.189769,0.111603,0.922343,1.000000,0.860157,0.000000,2.000000,125.000000,1.084848,103.030428,0.923711,1.000000,0.500000,10.000000,1.000000,300.000000,0.876271,24.736035,0.922343,200.000000,8.671495,1.000000,2.000000,8
/home/daniel/Projects/ppsevolution/data/maps/custom_maps/Custom_5_Run_0_Map.csv,squared_error,3.751120847141365e-07,0.4996,0.3593,0.154015,0.805310,0.126408,1.000000,0.076878,0.000000,0.768423,1.000000,0.666574,0.014327,0.023947,1.000000,1.000000,0.873650,0.182653,0.000000,151.952634,1.220974,26.823573,1.000000,16.298706,0.500000,7.915803,1.000000,241.650526,0.778023,12.376458,1.000000,200.000000,8.799676,2.643874,0.000000,9
map,fitness,fitness value,team0ratio,time,HP,Speed,Damage,Acc,ClipSize,RateOfFire,NrBullets,Range,HP,Speed,Damage,Acc,ClipSize,RateOfFire,NrBullets,Range,HP,Speed,Damage,Acc,ClipSize,RateOfFire,NrBullets,Range,HP,Speed,Damage,Acc,ClipSize,RateOfFire,NrBullets,Range,Run,target team0ratio: 0.5,target time: 0.36
/home/daniel/Projects/ppsevolution/data/maps/custom_maps/Custom_6_Run_0_Map.csv,squared_error,0.008199738758503227,0.4715,0.4849,0.088633,1.000000,0.000000,1.000000,0.000000,0.000000,0.790858,2.000000,1.000000,0.060152,0.979162,0.900134,0.883994,0.884073,1.000000,2.000000,140.510783,1.330000,9.000000,1.000000,1.000000,0.500000,8.117725,2.000000,300.000000,0.803685,147.061851,0.900134,176.914738,8.898690,10.000000,2.000000,0
/home/daniel/Projects/ppsevolution/data/maps/custom_maps/Custom_6_Run_0_Map.csv,squared_error,0.00811182462396388,0.4541,0.4788,0.247899,0.909930,0.000000,1.000000,0.000000,0.056933,0.486664,2.000000,1.000000,0.570360,1.000000,0.935672,1.000000,1.000000,1.000000,2.000000,168.382289,1.279561,9.000000,1.000000,1.000000,1.040865,5.379974,2.000000,300.000000,1.089402,150.000000,0.935672,200.000000,10.000000,10.000000,2.000000,1
/home/daniel/Projects/ppsevolution/data/maps/custom_maps/Custom_6_Run_0_Map.csv,squared_error,0.008621708100530296,0.4821,0.4901,0.000000,0.967250,0.000000,1.000000,0.000000,0.051703,1.000000,2.000000,1.000000,0.066292,1.000000,0.875158,0.948132,0.850185,0.736389,2.000000,125.000000,1.311660,9.000000,1.000000,1.000000,0.991183,10.000000,2.000000,300.000000,0.807124,150.000000,0.875158,189.678208,8.576755,7.627499,2.000000,2
/home/daniel/Projects/ppsevolution/data/maps/custom_maps/Custom_6_Run_0_Map.csv,squared_error,0.008190592509037324,0.4733,0.4852,0.100272,0.982632,0.000000,1.000000,0.000000,0.000000,0.911270,2.000000,1.000000,0.035564,1.000000,0.898848,1.000000,1.000000,0.842584,2.000000,142.547609,1.320274,9.000000,1.000000,1.000000,0.500000,9.201431,2.000000,300.000000,0.789916,150.000000,0.898848,200.000000,10.000000,8.583257,2.000000,3
/home/daniel/Projects/ppsevolution/data/maps/custom_maps/Custom_6_Run_0_Map.csv,squared_error,0.008045260771979305,0.4689,0.4830,0.066023,1.000000,0.000000,1.000000,0.008927,0.000000,0.911280,2.000000,1.000000,0.455788,1.000000,0.900472,1.000000,1.000000,0.959098,2.000000,136.554026,1.330000,9.000000,1.000000,2.776411,0.500000,9.201521,2.000000,300.000000,1.025241,150.000000,0.900472,200.000000,10.000000,9.631885,2.000000,4
/home/daniel/Projects/ppsevolution/data/maps/custom_maps/Custom_6_Run_0_Map.csv,squared_error,0.008520108798493504,0.4598,0.4842,0.000000,1.000000,0.003252,1.000000,0.058080,0.000000,0.186880,2.000000,1.000000,0.425196,1.000000,0.903401,1.000000,1.000000,0.393077,2.000000,125.000000,1.330000,9.458480,1.000000,12.557987,0.500000,2.681924,2.000000,300.000000,1.008110,150.000000,0.903401,200.000000,10.000000,4.537690,2.000000,5
/home/daniel/Projects/ppsevolution/data/maps/custom_maps/Custom_6_Run_0_Map.csv,squared_error,0.008150186599045418,0.4575,0.4804,0.061323,1.000000,0.000000,1.000000,0.010087,0.132214,0.462799,2.000000,1.000000,0.566049,1.000000,0.911695,1.000000,1.000000,0.908099,2.000000,135.731548,1.330000,9.000000,1.000000,3.007294,1.756034,5.165190,2.000000,300.000000,1.086988,150.000000,0.911695,200.000000,10.000000,9.172893,2.000000,6
/home/daniel/Projects/ppsevolution/data/maps/custom_maps/Custom_6_Run_0_Map.csv,squared_error,0.008068009025220115,0.4673,0.4827,0.076987,0.942821,0.000000,1.000000,0.000000,0.012701,0.979013,2.000000,1.000000,0.146408,1.000000,0.902004,1.000000,0.993233,0.970272,2.000000,138.472776,1.297980,9.000000,1.000000,1.000000,0.620658,9.811120,2.000000,300.000000,0.851988,150.000000,0.902004,200.000000,9.935712,9.732451,2.000000,7
/home/daniel/Projects/ppsevolution/data/maps/custom_maps/Custom_6_Run_0_Map.csv,squared_error,0.008186763906673968,0.4632,0.4826,0.000000,1.000000,0.000000,1.000000,0.000000,0.000000,1.000000,2.000000,1.000000,0.459116,1.000000,0.896921,0.821034,0.991557,0.906129,2.000000,125.000000,1.330000,9.000000,1.000000,1.000000,0.500000,10.000000,2.000000,300.000000,1.027105,150.000000,0.896921,164.385749,9.919793,9.155164,2.000000,8
/home/daniel/Projects/ppsevolution/data/maps/custom_maps/Custom_6_Run_0_Map.csv,squared_error,0.00804172130020232,0.4714,0.4835,0.000125,1.000000,0.000000,1.000000,0.000000,0.000000,0.720289,2.000000,1.000000,0.512714,1.000000,0.891620,0.967442,1.000000,1.000000,2.000000,125.021849,1.330000,9.000000,1.000000,1.000000,0.500000,7.482601,2.000000,300.000000,1.057120,150.000000,0.891620,193.520905,10.000000,10.000000,2.000000,9
map,fitness,fitness value,team0ratio,time,HP,Speed,Damage,Acc,ClipSize,RateOfFire,NrBullets,Range,HP,Speed,Damage,Acc,ClipSize,RateOfFire,NrBullets,Range,HP,Speed,Damage,Acc,ClipSize,RateOfFire,NrBullets,Range,HP,Speed,Damage,Acc,ClipSize,RateOfFire,NrBullets,Range,Run,target team0ratio: 0.5,target time: 0.36
/home/daniel/Projects/ppsevolution/data/maps/custom_maps/Custom_7_Run_0_Map.csv,squared_error,7.529059860679702e-07,0.5000,0.3588,0.048892,1.000000,0.260392,1.000000,0.000000,0.000000,0.801006,0.000000,0.793887,0.149917,0.000000,1.000000,0.977878,0.751395,0.000000,2.000000,133.556072,1.330000,45.715252,1.000000,1.000000,0.500000,8.209054,0.000000,263.930197,0.853953,9.000000,1.000000,195.597691,7.638256,1.000000,2.000000,0
/home/daniel/Projects/ppsevolution/data/maps/custom_maps/Custom_7_Run_0_Map.csv,squared_error,1.8573636473464625e-08,0.5001,0.3602,0.073455,0.792309,0.421197,0.986751,0.099104,0.076773,0.948911,2.000000,1.000000,0.000000,0.075125,0.994604,0.630799,0.936436,0.085782,0.000000,137.854710,1.213693,68.388709,0.986751,20.721692,1.229339,9.540201,2.000000,300.000000,0.770000,19.592636,0.994604,126.528910,9.396138,1.772037,0.000000,1
/home/daniel/Projects/ppsevolution/data/maps/custom_maps/Custom_7_Run_0_Map.csv,squared_error,9.021798180654488e-07,0.4992,0.3590,0.159829,0.496123,0.242444,1.000000,0.304123,0.482476,0.933853,1.000000,0.878239,0.000000,0.047129,1.000000,0.882726,0.988918,0.000000,2.000000,152.970030,1.047829,43.184662,1.000000,61.520397,5.083526,9.404676,1.000000,278.691761,0.770000,15.645186,1.000000,176.662494,9.894718,1.000000,2.000000,2
/home/daniel/Projects/ppsevolution/data/maps/custom_maps/Custom_7_Run_0_Map.csv,squared_error,9.268169304334787e-07,0.4999,0.3614,0.024971,0.785572,0.408527,0.972439,0.100185,0.000000,1.000000,1.000000,1.000000,0.059977,0.135894,0.955100,0.828124,0.892029,0.000000,2.000000,129.369844,1.209920,66.602316,0.972439,20.936823,0.500000,10.000000,1.000000,300.000000,0.803587,28.161047,0.955100,165.796577,8.974275,1.000000,2.000000,3
/home/daniel/Projects/ppsevolution/data/maps/custom_maps/Custom_7_Run_0_Map.csv,squared_error,5.37849712905101e-07,0.5003,0.3590,0.133703,1.000000,0.292889,1.000000,0.169141,0.000000,0.748246,1.000000,0.892498,0.127760,0.099769,1.000000,0.730778,0.891392,0.000000,1.000000,148.397995,1.330000,50.297294,1.000000,34.659080,0.500000,7.734216,1.000000,281.187220,0.841546,23.067493,1.000000,146.424836,8.968221,1.000000,1.000000,4
/home/daniel/Projects/ppsevolution/data/maps/custom_maps/Custom_7_Run_0_Map.csv,squared_error,8.35307920854697e-07,0.4989,0.3606,0.000000,1.000000,0.446459,0.954905,0.131628,0.130609,0.842940,2.000000,0.801606,0.047123,0.189154,0.953252,0.731312,0.891602,0.031405,2.000000,125.000000,1.330000,71.950748,0.954905,27.194026,1.740785,8.586463,2.000000,265.281095,0.796389,35.670697,0.953252,146.531073,8.970217,1.282641,2.000000,5
/home/daniel/Projects/ppsevolution/data/maps/custom_maps/Custom_7_Run_0_Map.csv,squared_error,1.386797785350065e-06,0.5016,0.3597,0.055588,1.000000,0.000000,1.000000,0.006604,0.061728,0.876183,2.000000,0.560138,0.000000,0.125147,0.983548,0.816544,0.616040,0.000000,0.000000,134.727859,1.330000,9.000000,1.000000,2.314277,1.086415,8.885650,2.000000,223.024154,0.770000,26.645737,0.983548,163.492336,6.352377,1.000000,0.000000,6
/home/daniel/Projects/ppsevolution/data/maps/custom_maps/Custom_7_Run_0_Map.csv,squared_error,3.341059858598879e-07,0.5004,0.3607,0.031197,1.000000,0.391693,1.000000,0.013483,0.000000,1.000000,0.000000,1.000000,0.029112,0.000000,1.000000,0.817395,0.956683,0.000000,1.000000,130.459558,1.330000,64.228688,1.000000,3.683120,0.500000,10.000000,0.000000,300.000000,0.786303,9.000000,1.000000,163.661644,9.588485,1.000000,1.000000,7
/home/daniel/Projects/ppsevolution/data/maps/custom_maps/Custom_7_Run_0_Map.csv,squared_error,1.1112555019600882e-06,0.5010,0.3611,0.212528,1.000000,0.139478,1.000000,0.194199,0.161413,0.955430,0.000000,0.934477,0.000000,0.162247,0.967164,0.981060,0.905470,0.056441,2.000000,162.192404,1.330000,28.666432,1.000000,39.645635,2.033420,9.598873,0.000000,288.533462,0.770000,31.876876,0.967164,196.230886,9.101962,1.507971,2.000000,8
/home/daniel/Projects/ppsevolution/data/maps/custom_maps/Custom_7_Run_0_Map.csv,squared_error,1.1675996650552469e-06,0.4991,0.3588,0.196793,0.685261,0.069962,1.000000,0.000000,0.000000,1.000000,0.000000,1.000000,0.077974,0.249677,0.943255,0.972320,0.950665,0.015742,2.000000,159.438692,1.153746,18.864594,1.000000,1.000000,0.500000,10.000000,0.000000,300.000000,0.813665,44.204510,0.943255,194.491609,9.531320,1.141677,2.000000,9
map,fitness,fitness value,team0ratio,time,HP,Speed,Damage,Acc,ClipSize,RateOfFire,NrBullets,Range,HP,Speed,Damage,Acc,ClipSize,RateOfFire,NrBullets,Range,HP,Speed,Damage,Acc,ClipSize,RateOfFire,NrBullets,Range,HP,Speed,Damage,Acc,ClipSize,RateOfFire,NrBullets,Range,Run,target team0ratio: 0.5,target time: 0.36
/home/daniel/Projects/ppsevolution/data/maps/custom_maps/Custom_8_Run_0_Map.csv,squared_error,7.523135395693042e-06,0.4974,0.3629,0.035938,0.891490,0.484094,0.704574,0.000000,0.041287,0.928748,1.000000,1.000000,0.086826,0.132524,0.656549,0.993237,0.804776,0.194122,2.000000,131.289154,1.269235,77.257249,0.704574,1.000000,0.892224,9.358731,1.000000,300.000000,0.818623,27.685822,0.656549,198.654101,8.145375,2.747100,2.000000,0
/home/daniel/Projects/ppsevolution/data/maps/custom_maps/Custom_8_Run_0_Map.csv,squared_error,6.72373898811416e-07,0.4994,0.3590,0.192857,1.000000,0.200899,0.800000,0.020392,0.084997,0.873497,2.000000,1.000000,0.000000,0.116812,0.695271,0.882002,0.987361,0.244309,2.000000,158.750057,1.330000,37.326752,0.800000,5.058016,1.307475,8.861472,2.000000,300.000000,0.770000,25.470424,0.695271,176.518474,9.879932,3.198785,2.000000,1
/home/daniel/Projects/ppsevolution/data/maps/custom_maps/Custom_8_Run_0_Map.csv,squared_error,6.330242151399545e-07,0.4989,0.3600,0.000000,0.931388,0.346751,0.796721,0.535749,0.208704,0.925655,0.000000,1.000000,0.209559,0.000000,0.749230,0.985276,0.919479,0.000000,0.000000,125.000000,1.291577,57.891908,0.796721,107.613995,2.482687,9.330894,0.000000,300.000000,0.887353,9.000000,0.749230,197.069994,9.235046,1.000000,0.000000,2
/home/daniel/Projects/ppsevolution/data/maps/custom_maps/Custom_8_Run_0_Map.csv,squared_error,2.1346431072117153e-07,0.5004,0.3595,0.000000,0.916537,0.215170,0.795639,0.098460,0.187735,0.857243,2.000000,0.939008,0.099321,0.000000,0.711558,0.956437,1.000000,0.400238,0.000000,125.000000,1.283261,39.338945,0.795639,20.593586,2.283486,8.715187,2.000000,289.326333,0.825620,9.000000,0.711558,191.330933,10.000000,4.602143,0.000000,3
/home/daniel/Projects/ppsevolution/data/maps/custom_maps/Custom_8_Run_0_Map.csv,squared_error,3.597125316680675e-07,0.4992,0.3601,0.000000,0.942622,0.210000,0.800000,0.081470,0.173096,1.000000,2.000000,1.000000,0.111789,0.000000,0.714360,1.000000,1.000000,0.000000,2.000000,125.000000,1.297868,38.610000,0.800000,17.212611,2.144408,10.000000,2.000000,300.000000,0.832602,9.000000,0.714360,200.000000,10.000000,1.000000,2.000000,4
/home/daniel/Projects/ppsevolution/data/maps/custom_maps/Custom_8_Run_0_Map.csv,squared_error,1.5094249938620619e-06,0.5007,0.3616,0.091125,0.930998,0.179113,0.808711,0.030000,0.000000,1.000000,0.000000,0.861158,0.170817,0.353457,0.595961,1.000000,0.951461,0.016598,2.000000,140.946915,1.291359,34.254890,0.808711,6.970000,0.500000,10.000000,0.000000,275.702708,0.865657,58.837474,0.595961,200.000000,9.538878,1.149380,2.000000,5
/home/daniel/Projects/ppsevolution/data/maps/custom_maps/Custom_8_Run_0_Map.csv,squared_error,1.1504459821722323e-06,0.4987,0.3592,0.000000,1.000000,0.210000,0.805559,0.160876,0.025383,0.856706,2.000000,0.957060,0.275706,0.056539,0.701605,1.000000,0.898026,0.191419,0.000000,125.000000,1.330000,38.610000,0.805559,33.014277,0.741139,8.710350,2.000000,292.485467,0.924396,16.972008,0.701605,200.000000,9.031249,2.722774,0.000000,6
/home/daniel/Projects/ppsevolution/data/maps/custom_maps/Custom_8_Run_0_Map.csv,squared_error,8.248417940450226e-07,0.4988,0.3596,0.039406,0.924417,0.177004,0.807392,0.371271,0.067409,0.863907,2.000000,0.971322,0.045148,0.394340,0.533901,0.882348,0.839189,0.195856,2.000000,131.896062,1.287674,33.957617,0.807392,74.882936,1.140388,8.775161,2.000000,294.981283,0.795283,64.601897,0.533901,176.587290,8.472294,2.762706,2.000000,7
/home/daniel/Projects/ppsevolution/data/maps/custom_maps/Custom_8_Run_0_Map.csv,squared_error,1.9470017535240754e-06,0.4984,0.3588,0.020920,1.000000,0.248429,0.832719,0.116386,0.023283,0.742562,0.000000,1.000000,0.104116,0.092808,0.722372,1.000000,1.000000,0.155316,0.000000,128.661016,1.330000,44.028447,0.832719,24.160854,0.721186,7.683062,0.000000,300.000000,0.828305,22.085936,0.722372,200.000000,10.000000,2.397848,0.000000,8
/home/daniel/Projects/ppsevolution/data/maps/custom_maps/Custom_8_Run_0_Map.csv,squared_error,9.371718842739029e-06,0.4991,0.3558,0.000000,0.944977,0.380021,0.780873,0.000000,0.149429,0.938605,0.000000,1.000000,0.000000,0.054990,0.722618,1.000000,0.848231,0.000382,1.000000,125.000000,1.299187,62.583002,0.780873,1.000000,1.919580,9.447442,0.000000,300.000000,0.770000,16.753582,0.722618,200.000000,8.558193,1.003434,1.000000,9
map,fitness,fitness value,team0ratio,time,HP,Speed,Damage,Acc,ClipSize,RateOfFire,NrBullets,Range,HP,Speed,Damage,Acc,ClipSize,RateOfFire,NrBullets,Range,HP,Speed,Damage,Acc,ClipSize,RateOfFire,NrBullets,Range,HP,Speed,Damage,Acc,ClipSize,RateOfFire,NrBullets,Range,Run,target team0ratio: 0.5,target time: 0.36
/home/daniel/Projects/ppsevolution/data/maps/custom_maps/Custom_9_Run_0_Map.csv,squared_error,3.97806718695028e-09,0.5001,0.3601,0.000000,0.916555,0.228060,0.723847,0.206030,0.063217,0.792117,0.000000,0.917311,0.307441,0.000000,0.649191,0.713154,1.000000,0.300100,0.000000,125.000000,1.283271,41.156433,0.723847,41.999930,1.100561,8.129049,0.000000,285.529494,0.942167,9.000000,0.649191,142.917726,10.000000,3.700903,0.000000,0
/home/daniel/Projects/ppsevolution/data/maps/custom_maps/Custom_9_Run_0_Map.csv,squared_error,2.761441548577923e-06,0.4996,0.3623,0.217640,1.000000,0.000000,0.807812,0.088422,0.000000,1.000000,1.000000,1.000000,0.175584,0.000000,0.698116,0.840712,0.670587,0.048482,1.000000,163.087022,1.330000,9.000000,0.807812,18.595890,0.500000,10.000000,1.000000,300.000000,0.868327,9.000000,0.698116,168.301630,6.870580,1.436337,1.000000,1
/home/daniel/Projects/ppsevolution/data/maps/custom_maps/Custom_9_Run_0_Map.csv,squared_error,3.4739009121339534e-07,0.5000,0.3608,0.085571,1.000000,0.000000,0.781057,0.131650,0.141543,1.000000,0.000000,0.799421,0.000000,0.144843,0.600000,1.000000,0.951526,0.172624,1.000000,139.974973,1.330000,9.000000,0.781057,27.198447,1.844658,10.000000,0.000000,264.898729,0.770000,29.422822,0.600000,200.000000,9.539499,2.553619,1.000000,2
/home/daniel/Projects/ppsevolution/data/maps/custom_maps/Custom_9_Run_0_Map.csv,squared_error,2.926894043375959e-06,0.5019,0.3616,0.000000,0.945054,0.043715,0.800000,0.046010,0.000000,1.000000,0.000000,0.968727,0.000000,0.000000,0.662679,0.888925,0.892617,0.021669,1.000000,125.000000,1.299230,15.163777,0.800000,10.156001,0.500000,10.000000,0.000000,294.527260,0.770000,9.000000,0.662679,177.896038,8.979860,1.195020,1.000000,3
/home/daniel/Projects/ppsevolution/data/maps/custom_maps/Custom_9_Run_0_Map.csv,squared_error,5.598746680064869e-08,0.5001,0.3603,0.034906,1.000000,0.196647,0.734061,0.030000,0.019267,0.928065,1.000000,1.000000,0.000000,0.122623,0.600000,1.000000,0.955582,0.025159,0.000000,131.108565,1.330000,36.727258,0.734061,6.970000,0.683036,9.352589,1.000000,300.000000,0.770000,26.289874,0.600000,200.000000,9.578032,1.226434,0.000000,4
/home/daniel/Projects/ppsevolution/data/maps/custom_maps/Custom_9_Run_0_Map.csv,squared_error,5.848970177659528e-07,0.5004,0.3610,0.000000,1.000000,0.176334,0.690984,0.000000,0.161009,0.904832,1.000000,0.800654,0.189098,0.095302,0.557509,0.900784,1.000000,0.378962,2.000000,125.000000,1.330000,33.863097,0.690984,1.000000,2.029585,9.143491,1.000000,265.114466,0.875895,22.437524,0.557509,180.256017,10.000000,4.410655,2.000000,5
/home/daniel/Projects/ppsevolution/data/maps/custom_maps/Custom_9_Run_0_Map.csv,squared_error,3.231774706011915e-06,0.5008,0.3576,0.197715,0.982787,0.210000,0.693596,0.000000,0.000000,0.986071,1.000000,0.861838,0.323270,0.000000,0.676649,1.000000,1.000000,0.089944,2.000000,159.600209,1.320361,38.610000,0.693596,1.000000,0.500000,9.874635,1.000000,275.821673,0.951031,9.000000,0.676649,200.000000,10.000000,1.809498,2.000000,6
/home/daniel/Projects/ppsevolution/data/maps/custom_maps/Custom_9_Run_0_Map.csv,squared_error,9.379163874669316e-07,0.4989,0.3592,0.042830,0.998699,0.000000,0.784457,0.029787,0.017037,0.814684,2.000000,0.862064,0.001866,0.000000,0.660267,0.953465,0.971579,0.189800,0.000000,132.495223,1.329272,9.000000,0.784457,6.927678,0.661852,8.332160,2.000000,275.861242,0.771045,9.000000,0.660267,190.739533,9.730000,2.708197,0.000000,7
/home/daniel/Projects/ppsevolution/data/maps/custom_maps/Custom_9_Run_0_Map.csv,squared_error,1.9370887673914642e-07,0.4995,0.3596,0.086747,1.000000,0.175457,0.747582,0.000000,0.205477,0.956142,0.000000,1.000000,0.000000,0.000000,0.664290,0.936880,0.952127,0.051782,2.000000,140.180667,1.330000,33.739495,0.747582,1.000000,2.452030,9.605280,0.000000,300.000000,0.770000,9.000000,0.664290,187.439156,9.545208,1.466040,2.000000,8
/home/daniel/Projects/ppsevolution/data/maps/custom_maps/Custom_9_Run_0_Map.csv,squared_error,6.945363886280948e-07,0.4994,0.3590,0.127386,0.845318,0.576439,0.494648,0.065587,0.218925,0.846522,2.000000,0.854972,0.122545,0.234177,0.550718,1.000000,0.876266,0.000000,2.000000,147.292617,1.243378,90.277914,0.494648,14.051756,2.579786,8.618694,2.000000,274.620057,0.838625,42.018927,0.550718,200.000000,8.824530,1.000000,2.000000,9
map,fitness,fitness value,team0ratio,time,HP,Speed,Damage,Acc,ClipSize,RateOfFire,NrBullets,Range,HP,Speed,Damage,Acc,ClipSize,RateOfFire,NrBullets,Range,HP,Speed,Damage,Acc,ClipSize,RateOfFire,NrBullets,Range,HP,Speed,Damage,Acc,ClipSize,RateOfFire,NrBullets,Range,Run,target team0ratio: 0.5,target time: 0.36
/home/daniel/Projects/ppsevolution/data/maps/custom_maps/Custom_10_Run_0_Map.csv,squared_error,7.726829394762514e-07,0.4988,0.3598,0.126820,0.687007,1.000000,0.993045,0.142540,0.227690,0.928830,2.000000,0.715001,0.123488,0.953706,1.000000,0.798870,0.621606,0.527814,2.000000,147.193570,1.154724,150.000000,0.993045,29.365483,2.663053,9.359466,2.000000,250.125198,0.839153,143.472526,1.000000,159.975120,6.405257,5.750322,2.000000,0
/home/daniel/Projects/ppsevolution/data/maps/custom_maps/Custom_10_Run_0_Map.csv,squared_error,6.217254022324383e-07,0.5011,0.3597,0.085192,0.692694,0.990917,0.974791,0.073265,0.549011,0.956211,1.000000,0.238544,0.012117,0.771308,1.000000,0.638979,0.833216,0.416866,1.000000,139.908580,1.157909,148.719339,0.974791,15.579759,5.715608,9.605900,1.000000,166.745131,0.776785,117.754414,1.000000,128.156871,8.415556,4.751793,1.000000,1
/home/daniel/Projects/ppsevolution/data/maps/custom_maps/Custom_10_Run_0_Map.csv,squared_error,3.1882568263270943e-07,0.4992,0.3602,0.104941,0.645219,0.764182,1.000000,0.263535,0.049281,1.000000,2.000000,0.430433,0.137146,1.000000,1.000000,0.729268,0.631269,0.461476,2.000000,143.364725,1.131323,116.749693,1.000000,53.443558,0.968169,10.000000,2.000000,200.325770,0.846802,150.000000,1.000000,146.124303,6.497054,5.153286,2.000000,2
/home/daniel/Projects/ppsevolution/data/maps/custom_maps/Custom_10_Run_0_Map.csv,squared_error,2.748798470347618e-05,0.4973,0.3669,0.000000,0.614463,1.000000,1.000000,0.000000,0.009658,1.000000,2.000000,0.970742,0.000000,0.637603,1.000000,0.932095,0.650433,0.206569,0.000000,125.000000,1.114099,150.000000,1.000000,1.000000,0.591750,10.000000,2.000000,294.879780,0.770000,98.902037,1.000000,186.486865,6.679112,2.859123,0.000000,3
/home/daniel/Projects/ppsevolution/data/maps/custom_maps/Custom_10_Run_0_Map.csv,squared_error,6.982493395526047e-07,0.5012,0.3601,0.028047,0.949221,0.829993,1.000000,0.003800,0.241922,0.956409,2.000000,0.573316,0.000000,0.907645,1.000000,0.822796,0.849654,0.593960,2.000000,129.908266,1.301564,126.029082,1.000000,1.756101,2.798257,9.607678,2.000000,225.330315,0.770000,136.978008,1.000000,164.736418,8.571715,6.345643,2.000000,4
/home/daniel/Projects/ppsevolution/data/maps/custom_maps/Custom_10_Run_0_Map.csv,squared_error,7.067281269996931e-08,0.4996,0.3601,0.000000,0.995147,0.932115,1.000000,0.701778,0.118184,1.000000,2.000000,0.696548,0.119959,0.960372,1.000000,0.662408,0.519913,0.757352,0.000000,125.000000,1.327282,140.428167,1.000000,140.653817,1.622746,10.000000,2.000000,246.895915,0.837177,144.412469,1.000000,132.819120,5.439171,7.816170,0.000000,5
/home/daniel/Projects/ppsevolution/data/maps/custom_maps/Custom_10_Run_0_Map.csv,squared_error,1.0350036117308333e-05,0.5034,0.3630,0.012482,0.548342,1.000000,0.991065,0.000000,0.000000,1.000000,1.000000,0.720880,0.054407,0.632408,1.000000,1.000000,0.908386,1.000000,2.000000,127.184296,1.077072,150.000000,0.991065,1.000000,0.500000,10.000000,1.000000,251.154029,0.800468,98.169590,1.000000,200.000000,9.129670,10.000000,2.000000,6
/home/daniel/Projects/ppsevolution/data/maps/custom_maps/Custom_10_Run_0_Map.csv,squared_error,3.123178801210036e-06,0.4999,0.3625,0.000000,0.609484,0.547290,1.000000,0.066811,0.315843,0.951360,2.000000,0.041814,0.567763,1.000000,1.000000,0.951985,1.000000,0.055757,1.000000,125.000000,1.111311,86.167884,1.000000,14.295319,3.500507,9.562241,2.000000,132.317478,1.087947,150.000000,1.000000,190.444983,10.000000,1.501810,1.000000,7
/home/daniel/Projects/ppsevolution/data/maps/custom_maps/Custom_10_Run_0_Map.csv,squared_error,1.1464130568185797e-06,0.5014,0.3604,0.043785,0.650584,0.964824,0.988570,0.008304,0.033739,1.000000,1.000000,0.318824,0.328764,1.000000,1.000000,0.778602,1.000000,0.067013,2.000000,132.662304,1.134327,145.040121,0.988570,2.652502,0.820519,10.000000,1.000000,180.794177,0.954108,150.000000,1.000000,155.941724,10.000000,1.603115,2.000000,8
/home/daniel/Projects/ppsevolution/data/maps/custom_maps/Custom_10_Run_0_Map.csv,squared_error,9.206083820380812e-07,0.4990,0.3610,0.070847,0.880833,0.873974,1.000000,0.000000,0.351389,0.971950,2.000000,0.725636,0.181305,0.885022,1.000000,0.729601,0.775177,0.766521,2.000000,137.398145,1.263267,132.230266,1.000000,1.000000,3.838195,9.747550,2.000000,251.986216,0.871531,133.788067,1.000000,146.190534,7.864183,7.898691,2.000000,9
