/home/daniel/Projects/ppsevolution/data/maps/custom_maps/Custom_1_Run_0_Map.csv,0.138873,0.927244,0.311623,0.590744,0.135187,0.015742,1.000000,0.000000,1.000000,0.000000,0.000000,0.596787,1.000000,1.000000,0.253557,2.000000
/home/daniel/Projects/ppsevolution/data/maps/custom_maps/Custom_1_Run_0_Map.csv,0.000000,1.000000,0.312236,0.459409,0.000000,0.138914,0.927882,1.000000,0.548059,0.000000,0.099500,0.531082,0.917551,0.698143,0.000000,2.000000
/home/daniel/Projects/ppsevolution/data/maps/custom_maps/Custom_1_Run_0_Map.csv,0.146216,0.779126,0.245646,0.631994,0.004125,0.413752,1.000000,0.000000,0.985905,0.013393,0.093623,0.544896,1.000000,0.911405,0.252439,1.000000
/home/daniel/Projects/ppsevolution/data/maps/custom_maps/Custom_1_Run_0_Map.csv,0.052205,0.765806,0.079415,0.734522,0.294844,0.043229,1.000000,1.000000,1.000000,0.000194,0.187299,0.499380,0.653980,0.956842,0.000000,0.000000
/home/daniel/Projects/ppsevolution/data/maps/custom_maps/Custom_1_Run_0_Map.csv,0.105204,0.953497,0.274376,0.613919,0.196594,0.141587,0.834364,0.000000,0.951121,0.218367,0.000000,0.574211,0.865138,0.989664,0.512521,2.000000
/home/daniel/Projects/ppsevolution/data/maps/custom_maps/Custom_1_Run_0_Map.csv,0.326812,0.818552,0.130541,0.695173,0.053218,0.296955,0.537229,1.000000,0.941666,0.112656,0.136356,0.566956,1.000000,1.000000,0.339610,2.000000
/home/daniel/Projects/ppsevolution/data/maps/custom_maps/Custom_1_Run_0_Map.csv,0.159610,0.972796,0.000000,0.758003,0.145004,0.148689,1.000000,0.000000,0.882390,0.299480,0.015030,0.645671,0.975068,0.824419,0.044454,0.000000
/home/daniel/Projects/ppsevolution/data/maps/custom_maps/Custom_1_Run_0_Map.csv,0.000000,0.662664,0.081655,0.746725,0.220884,0.124305,0.709899,1.000000,1.000000,0.287863,0.000000,0.600000,0.871641,0.904797,0.085285,0.000000
/home/daniel/Projects/ppsevolution/data/maps/custom_maps/Custom_1_Run_0_Map.csv,0.004172,1.000000,0.210000,0.622454,0.076963,0.000000,1.000000,1.000000,0.881941,0.000000,0.011766,0.568463,1.000000,0.882426,0.092854,1.000000
/home/daniel/Projects/ppsevolution/data/maps/custom_maps/Custom_1_Run_0_Map.csv,0.139368,0.737105,0.556126,0.399119,0.077438,0.361088,0.749218,1.000000,0.865199,0.169816,0.000000,0.609691,1.000000,0.902047,0.004852,2.000000
/home/daniel/Projects/ppsevolution/data/maps/custom_maps/Custom_2_Run_0_Map.csv,0.032441,1.000000,0.754059,1.000000,0.186513,0.106687,0.636182,2.000000,0.747638,0.010528,0.993678,1.000000,0.903466,1.000000,0.774280,2.000000
/home/daniel/Projects/ppsevolution/data/maps/custom_maps/Custom_2_Run_0_Map.csv,0.000000,0.809821,0.867272,1.000000,0.033705,0.140214,1.000000,2.000000,0.751534,0.298587,0.948724,1.000000,0.353219,0.982935,0.799856,2.000000
/home/daniel/Projects/ppsevolution/data/maps/custom_maps/Custom_2_Run_0_Map.csv,0.021777,0.920533,0.701053,1.000000,0.238520,0.000000,1.000000,2.000000,0.607475,0.515360,1.000000,1.000000,0.779916,1.000000,0.715138,2.000000
/home/daniel/Projects/ppsevolution/data/maps/custom_maps/Custom_2_Run_0_Map.csv,0.000000,1.000000,0.741829,1.000000,0.038283,0.038311,0.799203,2.000000,0.758890,0.386582,0.904406,1.000000,1.000000,1.000000,0.984361,2.000000
/home/daniel/Projects/ppsevolution/data/maps/custom_maps/Custom_2_Run_0_Map.csv,0.000000,0.669180,0.657084,1.000000,0.393698,0.000000,0.949270,2.000000,0.374284,0.505140,1.000000,1.000000,0.625519,0.380314,1.000000,2.000000
/home/daniel/Projects/ppsevolution/data/maps/custom_maps/Custom_2_Run_0_Map.csv,0.000000,0.909979,0.719843,1.000000,0.216243,0.077649,1.000000,2.000000,0.634179,0.169381,1.000000,1.000000,0.891675,0.996352,0.925955,2.000000
/home/daniel/Projects/ppsevolution/data/maps/custom_maps/Custom_2_Run_0_Map.csv,0.000000,0.987997,0.977905,1.000000,0.300127,0.132370,1.000000,2.000000,1.000000,1.000000,0.988541,1.000000,1.000000,1.000000,0.991102,2.000000
/home/daniel/Projects/ppsevolution/data/maps/custom_maps/Custom_2_Run_0_Map.csv,0.075319,0.886606,0.656332,1.000000,0.364841,0.158106,1.000000,2.000000,0.539029,0.194785,0.987274,1.000000,0.801346,0.665721,0.928412,2.000000
/home/daniel/Projects/ppsevolution/data/maps/custom_maps/Custom_2_Run_0_Map.csv,0.076865,1.000000,0.382566,1.000000,0.261380,0.000000,0.915715,2.000000,0.131537,0.103273,1.000000,1.000000,0.876614,0.753802,0.360487,2.000000
/home/daniel/Projects/ppsevolution/data/maps/custom_maps/Custom_2_Run_0_Map.csv,0.000000,0.971790,0.748009,1.000000,0.127503,0.006993,0.987667,2.000000,0.639377,0.000000,1.000000,1.000000,0.691235,1.000000,1.000000,2.000000
/home/daniel/Projects/ppsevolution/data/maps/custom_maps/Custom_3_Run_0_Map.csv,0.128662,1.000000,0.962849,0.972639,0.259962,0.141865,1.000000,2.000000,0.256247,0.013415,1.000000,1.000000,0.874885,0.749278,0.879718,2.000000
/home/daniel/Projects/ppsevolution/data/maps/custom_maps/Custom_3_Run_0_Map.csv,0.000000,1.000000,0.634255,1.000000,0.046787,0.263453,0.962810,2.000000,0.314978,0.871579,1.000000,1.000000,0.889811,0.458743,1.000000,2.000000
/home/daniel/Projects/ppsevolution/data/maps/custom_maps/Custom_3_Run_0_Map.csv,0.000000,1.000000,0.904711,0.970938,0.132966,0.222171,0.870227,2.000000,0.012597,0.155268,1.000000,1.000000,0.366808,0.519933,0.953548,2.000000
/home/daniel/Projects/ppsevolution/data/maps/custom_maps/Custom_3_Run_0_Map.csv,0.000000,0.795567,0.704409,1.000000,0.079423,0.000000,1.000000,2.000000,0.254563,0.517175,1.000000,1.000000,0.355170,0.581949,0.222027,2.000000
/home/daniel/Projects/ppsevolution/data/maps/custom_maps/Custom_3_Run_0_Map.csv,0.014985,0.234842,0.866634,1.000000,0.000000,0.430074,0.924877,2.000000,0.441569,0.075091,0.960466,1.000000,0.696842,0.247127,0.615119,2.000000
/home/daniel/Projects/ppsevolution/data/maps/custom_maps/Custom_3_Run_0_Map.csv,0.114673,0.880639,0.998960,0.978421,0.000000,0.383578,0.884041,2.000000,0.310927,0.103235,0.972999,1.000000,1.000000,0.276169,1.000000,2.000000
/home/daniel/Projects/ppsevolution/data/maps/custom_maps/Custom_3_Run_0_Map.csv,0.000000,0.618213,0.865854,0.997155,0.000000,0.137362,1.000000,2.000000,0.530877,0.176338,0.965230,1.000000,0.878835,0.160650,1.000000,2.000000
/home/daniel/Projects/ppsevolution/data/maps/custom_maps/Custom_3_Run_0_Map.csv,0.000000,1.000000,0.750776,1.000000,0.053360,0.242727,1.000000,2.000000,0.223142,0.258475,0.999250,1.000000,0.156497,0.331920,0.915278,2.000000
/home/daniel/Projects/ppsevolution/data/maps/custom_maps/Custom_3_Run_0_Map.csv,0.000000,0.770415,1.000000,1.000000,0.000000,0.000000,1.000000,2.000000,0.760349,0.000000,0.997860,1.000000,0.942718,0.026464,0.916254,2.000000
/home/daniel/Projects/ppsevolution/data/maps/custom_maps/Custom_3_Run_0_Map.csv,0.000000,0.424761,0.859799,1.000000,0.000000,0.000000,1.000000,2.000000,0.505362,0.027563,0.891585,1.000000,1.000000,0.370177,1.000000,2.000000
/home/daniel/Projects/ppsevolution/data/maps/custom_maps/Custom_4_Run_0_Map.csv,0.000000,0.970897,0.136347,0.780138,0.262118,0.000000,1.000000,2.000000,0.983717,0.152715,0.000000,0.655831,1.000000,0.831873,0.000000,0.000000
/home/daniel/Projects/ppsevolution/data/maps/custom_maps/Custom_4_Run_0_Map.csv,0.025571,1.000000,0.182195,0.761019,0.040614,0.083215,0.939286,1.000000,0.914714,0.294035,0.291426,0.508062,0.720274,0.952401,0.234197,0.000000
/home/daniel/Projects/ppsevolution/data/maps/custom_maps/Custom_4_Run_0_Map.csv,0.108275,0.741104,0.514408,0.622506,0.054746,0.060764,0.912765,1.000000,0.983254,0.370585,0.129267,0.594678,1.000000,0.906391,0.127782,1.000000
/home/daniel/Projects/ppsevolution/data/maps/custom_maps/Custom_4_Run_0_Map.csv,0.000000,1.000000,0.170855,0.800000,0.042413,0.000344,0.793598,0.000000,0.934364,0.067946,0.000000,0.682647,1.000000,1.000000,0.123382,0.000000
/home/daniel/Projects/ppsevolution/data/maps/custom_maps/Custom_4_Run_0_Map.csv,0.031276,0.990978,0.406362,0.682643,0.186285,0.001341,0.925130,1.000000,0.968655,0.000000,0.072743,0.633103,0.974030,1.000000,0.000000,0.000000
/home/daniel/Projects/ppsevolution/data/maps/custom_maps/Custom_4_Run_0_Map.csv,0.100673,0.860166,0.556373,0.604681,0.026383,0.095228,0.882212,0.000000,0.890963,0.189238,0.419402,0.458715,0.965935,1.000000,0.000000,0.000000
/home/daniel/Projects/ppsevolution/data/maps/custom_maps/Custom_4_Run_0_Map.csv,0.018954,0.948420,0.218203,0.746348,0.014819,0.056638,0.872715,2.000000,1.000000,0.057238,0.282999,0.497236,0.886999,1.000000,0.000000,2.000000
/home/daniel/Projects/ppsevolution/data/maps/custom_maps/Custom_4_Run_0_Map.csv,0.056331,0.764561,0.246881,0.758917,0.000000,0.000000,0.796232,0.000000,0.954570,0.013666,0.158710,0.600885,0.991044,0.943344,0.034726,1.000000
/home/daniel/Projects/ppsevolution/data/maps/custom_maps/Custom_4_Run_0_Map.csv,0.121865,0.987934,0.289091,0.677868,0.000000,0.053971,0.465389,2.000000,0.592843,0.000000,0.540848,0.397995,0.959115,0.895412,0.065626,0.000000
/home/daniel/Projects/ppsevolution/data/maps/custom_maps/Custom_4_Run_0_Map.csv,0.000000,1.000000,0.333183,0.713545,0.000000,0.000000,0.986456,1.000000,0.998512,0.065263,0.021732,0.633528,1.000000,0.834814,0.165430,1.000000
/home/daniel/Projects/ppsevolution/data/maps/custom_maps/Custom_5_Run_0_Map.csv,0.250456,0.954890,0.202691,1.000000,0.174201,0.059419,0.997732,0.000000,0.779773,0.072997,0.047654,0.992566,0.676477,0.826449,0.040719,1.000000
/home/daniel/Projects/ppsevolution/data/maps/custom_maps/Custom_5_Run_0_Map.csv,0.263358,0.711107,0.000000,1.000000,0.071167,0.000000,0.819917,2.000000,0.695805,0.000000,0.000000,1.000000,0.817526,0.661666,0.170159,2.000000
/home/daniel/Projects/ppsevolution/data/maps/custom_maps/Custom_5_Run_0_Map.csv,0.384088,0.878918,0.240262,1.000000,0.482804,0.352599,0.992700,1.000000,0.951704,0.012050,0.052895,1.000000,1.000000,0.928292,0.090458,1.000000
/home/daniel/Projects/ppsevolution/data/maps/custom_maps/Custom_5_Run_0_Map.csv,0.192169,0.823110,0.227042,1.000000,0.065553,0.175558,0.821729,0.000000,0.823556,0.012297,0.000000,1.000000,0.790419,1.000000,0.198985,2.000000
/home/daniel/Projects/ppsevolution/data/maps/custom_maps/Custom_5_Run_0_Map.csv,0.534841,1.000000,0.325272,1.000000,0.456567,0.322002,0.860315,0.000000,1.000000,0.510550,0.128160,1.000000,0.509928,1.000000,0.000000,2.000000
/home/daniel/Projects/ppsevolution/data/maps/custom_maps/Custom_5_Run_0_Map.csv,0.115359,0.793748,0.000000,1.000000,0.078263,0.000000,0.935975,1.000000,0.481167,0.006779,0.000000,1.000000,0.898100,0.995423,0.239287,1.000000
/home/daniel/Projects/ppsevolution/data/maps/custom_maps/Custom_5_Run_0_Map.csv,0.233516,0.750464,0.276272,1.000000,0.115337,0.381945,0.851857,0.000000,0.767689,0.406802,0.166177,0.986652,0.692325,0.886721,0.027029,0.000000
/home/daniel/Projects/ppsevolution/data/maps/custom_maps/Custom_5_Run_0_Map.csv,0.104881,0.893707,0.357933,1.000000,0.023630,0.000000,0.929299,0.000000,1.000000,0.420539,0.005491,0.991236,0.481811,0.761861,0.415777,0.000000
/home/daniel/Projects/ppsevolution/data/maps/custom_maps/Custom_5_Run_0_Map.csv,0.069955,0.651435,0.143368,1.000000,0.000000,0.167413,0.971007,0.000000,0.666497,0.253101,0.497610,0.925410,0.732457,0.834524,0.270397,2.000000
/home/daniel/Projects/ppsevolution/data/maps/custom_maps/Custom_5_Run_0_Map.csv,0.331080,0.958371,0.243627,1.000000,0.253551,0.111679,0.715943,1.000000,0.905543,0.265575,0.056101,1.000000,0.950171,0.625078,0.188701,1.000000
/home/daniel/Projects/ppsevolution/data/maps/custom_maps/Custom_6_Run_0_Map.csv,0.000000,0.969387,0.000000,1.000000,0.020703,0.353433,0.661325,1.000000,1.000000,0.151246,0.935052,0.907688,1.000000,1.000000,1.000000,2.000000
/home/daniel/Projects/ppsevolution/data/maps/custom_maps/Custom_6_Run_0_Map.csv,0.000000,0.929998,0.000000,1.000000,0.028601,0.000000,0.334530,2.000000,0.954603,0.293560,0.958230,0.922980,0.799668,0.956826,0.335633,2.000000
/home/daniel/Projects/ppsevolution/data/maps/custom_maps/Custom_6_Run_0_Map.csv,0.157754,0.997169,0.000000,1.000000,0.000000,0.752645,1.000000,2.000000,0.983824,0.158179,0.700138,0.933574,0.636094,0.809169,0.964248,2.000000
/home/daniel/Projects/ppsevolution/data/maps/custom_maps/Custom_6_Run_0_Map.csv,0.053926,0.757290,0.000000,1.000000,0.000000,0.000000,0.830970,2.000000,0.982834,0.061703,1.000000,0.879518,0.905379,0.694102,0.717341,2.000000
/home/daniel/Projects/ppsevolution/data/maps/custom_maps/Custom_6_Run_0_Map.csv,0.000000,1.000000,0.000000,1.000000,0.040642,0.000000,0.974983,2.000000,0.926360,0.010690,1.000000,0.892500,0.863253,1.000000,0.915995,2.000000
/home/daniel/Projects/ppsevolution/data/maps/custom_maps/Custom_6_Run_0_Map.csv,0.101540,1.000000,0.000000,1.000000,0.116858,0.000000,0.841560,2.000000,1.000000,0.080868,1.000000,0.875683,0.764118,0.759342,1.000000,2.000000
/home/daniel/Projects/ppsevolution/data/maps/custom_maps/Custom_6_Run_0_Map.csv,0.052611,1.000000,0.000000,1.000000,0.000000,0.196424,0.636350,2.000000,1.000000,0.389385,0.955838,0.899436,0.545579,1.000000,0.745950,2.000000
/home/daniel/Projects/ppsevolution/data/maps/custom_maps/Custom_6_Run_0_Map.csv,0.102666,0.802009,0.000000,1.000000,0.005477,0.000000,0.532892,2.000000,0.975558,0.090371,0.809774,0.931958,0.830737,0.979859,0.867115,2.000000
/home/daniel/Projects/ppsevolution/data/maps/custom_maps/Custom_6_Run_0_Map.csv,0.000000,0.798603,0.000000,1.000000,0.000000,0.157483,0.863281,2.000000,0.967389,0.000000,1.000000,0.898467,0.964503,0.718348,0.899637,2.000000
/home/daniel/Projects/ppsevolution/data/maps/custom_maps/Custom_6_Run_0_Map.csv,0.092800,1.000000,0.046517,1.000000,0.184449,0.119375,0.838742,2.000000,1.000000,0.051801,1.000000,0.909835,1.000000,0.936128,0.334088,2.000000
/home/daniel/Projects/ppsevolution/data/maps/custom_maps/Custom_7_Run_0_Map.csv,0.111930,0.976423,0.170131,1.000000,0.052363,0.361611,0.583245,1.000000,0.862731,0.000000,0.000000,1.000000,0.979881,0.940576,0.075063,2.000000
/home/daniel/Projects/ppsevolution/data/maps/custom_maps/Custom_7_Run_0_Map.csv,0.115472,1.000000,0.209426,1.000000,0.000000,0.196199,0.966521,2.000000,0.856643,0.392583,0.074917,1.000000,0.907409,0.840458,0.105879,0.000000
/home/daniel/Projects/ppsevolution/data/maps/custom_maps/Custom_7_Run_0_Map.csv,0.000000,1.000000,0.253928,1.000000,0.100000,0.308124,1.000000,0.000000,1.000000,0.164636,0.247863,0.948604,0.722668,0.858207,0.064103,1.000000
/home/daniel/Projects/ppsevolution/data/maps/custom_maps/Custom_7_Run_0_Map.csv,0.434586,0.787492,0.108910,0.987658,0.295048,0.000000,0.943255,2.000000,0.609473,0.255732,0.186648,1.000000,0.628088,0.902363,0.279093,1.000000
/home/daniel/Projects/ppsevolution/data/maps/custom_maps/Custom_7_Run_0_Map.csv,0.000000,0.952087,0.035921,1.000000,0.142366,0.084358,0.757616,2.000000,0.871565,0.000000,0.004534,0.985137,0.980734,1.000000,0.147186,1.000000
/home/daniel/Projects/ppsevolution/data/maps/custom_maps/Custom_7_Run_0_Map.csv,0.278666,0.824483,0.342349,1.000000,0.186258,0.611430,0.793678,1.000000,1.000000,0.166207,0.133695,1.000000,0.222363,0.801321,0.200891,1.000000
/home/daniel/Projects/ppsevolution/data/maps/custom_maps/Custom_7_Run_0_Map.csv,0.003387,0.658536,0.434270,0.986521,0.246214,0.000000,0.797029,2.000000,0.976888,0.000000,0.000000,1.000000,0.771665,0.837774,0.013181,1.000000
/home/daniel/Projects/ppsevolution/data/maps/custom_maps/Custom_7_Run_0_Map.csv,0.254658,0.660386,0.033653,1.000000,0.093432,0.000444,1.000000,2.000000,1.000000,0.000000,0.190768,0.967839,0.867723,0.906302,0.319688,0.000000
/home/daniel/Projects/ppsevolution/data/maps/custom_maps/Custom_7_Run_0_Map.csv,0.178267,0.635169,0.058856,1.000000,0.054564,0.164880,0.928309,2.000000,0.792344,0.257185,0.032605,1.000000,0.825544,0.974939,0.156557,1.000000
/home/daniel/Projects/ppsevolution/data/maps/custom_maps/Custom_7_Run_0_Map.csv,0.036213,1.000000,0.566153,0.975647,0.255270,0.180464,0.993101,0.000000,0.492896,0.048529,0.230111,1.000000,0.800915,1.000000,0.000000,0.000000
/home/daniel/Projects/ppsevolution/data/maps/custom_maps/Custom_8_Run_0_Map.csv,0.097876,0.957780,0.332548,0.688854,0.000000,0.052384,1.000000,2.000000,0.631028,0.133835,0.306539,0.601427,0.913513,1.000000,0.000000,2.000000
/home/daniel/Projects/ppsevolution/data/maps/custom_maps/Custom_8_Run_0_Map.csv,0.000000,0.937413,0.329146,0.761745,0.000000,0.110201,0.785742,1.000000,0.800416,0.000000,0.058543,0.722187,0.685830,0.761246,0.025781,1.000000
/home/daniel/Projects/ppsevolution/data/maps/custom_maps/Custom_8_Run_0_Map.csv,0.109221,0.953445,0.178512,0.811833,0.081227,0.085432,0.986171,2.000000,0.960382,0.118094,0.000000,0.745117,0.894726,0.801806,0.000000,1.000000
/home/daniel/Projects/ppsevolution/data/maps/custom_maps/Custom_8_Run_0_Map.csv,0.000000,0.984032,0.210000,0.789041,0.151599,0.045734,0.931163,2.000000,0.902975,0.000000,0.411466,0.527076,0.924080,0.966917,0.007170,2.000000
/home/daniel/Projects/ppsevolution/data/maps/custom_maps/Custom_8_Run_0_Map.csv,0.095194,1.000000,0.050091,0.833923,0.000000,0.082875,0.965015,0.000000,0.701865,0.012175,0.478537,0.549476,0.901690,0.855877,0.113992,1.000000
/home/daniel/Projects/ppsevolution/data/maps/custom_maps/Custom_8_Run_0_Map.csv,0.156157,0.995335,0.149183,0.834193,0.352361,0.063850,0.856739,1.000000,0.947975,0.000000,0.345617,0.636554,1.000000,1.000000,0.000000,1.000000
/home/daniel/Projects/ppsevolution/data/maps/custom_maps/Custom_8_Run_0_Map.csv,0.058045,0.817099,0.000000,0.877619,0.198462,0.230404,1.000000,0.000000,0.955285,0.457954,0.249369,0.658855,0.922763,0.891297,0.005824,2.000000
/home/daniel/Projects/ppsevolution/data/maps/custom_maps/Custom_8_Run_0_Map.csv,0.198832,1.000000,0.243606,0.824953,0.090496,0.000000,0.755623,0.000000,1.000000,0.143646,0.263514,0.680768,0.900672,1.000000,0.027803,1.000000
/home/daniel/Projects/ppsevolution/data/maps/custom_maps/Custom_8_Run_0_Map.csv,0.062187,0.708635,0.173978,0.824472,0.000000,0.283299,0.997174,1.000000,0.958530,0.000000,0.021150,0.731739,0.643605,0.788243,0.170896,1.000000
/home/daniel/Projects/ppsevolution/data/maps/custom_maps/Custom_8_Run_0_Map.csv,0.006214,1.000000,0.210000,0.800000,0.000000,0.193783,1.000000,2.000000,0.983884,0.030769,0.000000,0.720666,0.887735,0.879468,0.039243,1.000000
/home/daniel/Projects/ppsevolution/data/maps/custom_maps/Custom_9_Run_0_Map.csv,0.312913,1.000000,0.487367,0.548360,0.246622,0.115837,0.967675,2.000000,0.921039,0.095746,0.400942,0.505188,0.962019,0.823166,0.042167,0.000000
/home/daniel/Projects/ppsevolution/data/maps/custom_maps/Custom_9_Run_0_Map.csv,0.227247,0.733278,0.056884,0.777010,0.206524,0.016585,0.899344,0.000000,0.923470,0.222349,0.172325,0.613451,0.977210,1.000000,0.218832,2.000000
/home/daniel/Projects/ppsevolution/data/maps/custom_maps/Custom_9_Run_0_Map.csv,0.291933,0.993445,0.000000,0.797463,0.000000,0.216912,0.624527,0.000000,0.847460,0.000000,0.438330,0.518670,0.943674,0.993397,0.085356,2.000000
/home/daniel/Projects/ppsevolution/data/maps/custom_maps/Custom_9_Run_0_Map.csv,0.008016,1.000000,0.108785,0.782512,0.258059,0.129568,0.843629,1.000000,1.000000,0.150149,0.000000,0.667446,0.988904,1.000000,0.000000,0.000000
/home/daniel/Projects/ppsevolution/data/maps/custom_maps/Custom_9_Run_0_Map.csv,0.006224,0.752724,0.000000,0.819757,0.116860,0.539999,0.783009,1.000000,0.945323,0.000000,0.075230,0.650378,1.000000,0.874965,0.000000,0.000000
/home/daniel/Projects/ppsevolution/data/maps/custom_maps/Custom_9_Run_0_Map.csv,0.153124,0.826224,0.300129,0.660626,0.337015,0.355852,0.845178,0.000000,0.785877,0.357993,0.031163,0.682442,1.000000,0.798372,0.000000,0.000000
/home/daniel/Projects/ppsevolution/data/maps/custom_maps/Custom_9_Run_0_Map.csv,0.000000,0.896454,0.346479,0.678630,0.084015,0.008384,1.000000,0.000000,1.000000,0.000000,0.682390,0.233906,0.973206,0.853945,0.078945,1.000000
/home/daniel/Projects/ppsevolution/data/maps/custom_maps/Custom_9_Run_0_Map.csv,0.102164,1.000000,0.145565,0.714338,0.087968,0.337761,1.000000,1.000000,0.864904,0.204116,0.304974,0.481518,0.805846,0.866237,0.107767,2.000000
/home/daniel/Projects/ppsevolution/data/maps/custom_maps/Custom_9_Run_0_Map.csv,0.058370,0.865544,0.317639,0.650626,0.000000,0.340934,0.695845,2.000000,0.891927,0.147502,0.000000,0.642163,1.000000,0.867679,0.199649,1.000000
/home/daniel/Projects/ppsevolution/data/maps/custom_maps/Custom_9_Run_0_Map.csv,0.000000,1.000000,0.333943,0.635306,0.071796,0.000000,1.000000,1.000000,0.882268,0.001120,0.059409,0.611052,1.000000,1.000000,0.007957,2.000000
/home/daniel/Projects/ppsevolution/data/maps/custom_maps/Custom_10_Run_0_Map.csv,0.000000,0.702308,0.905278,1.000000,0.189616,0.396743,0.712836,2.000000,0.471909,0.121323,0.897621,1.000000,0.914095,0.000000,0.022440,1.000000
/home/daniel/Projects/ppsevolution/data/maps/custom_maps/Custom_10_Run_0_Map.csv,0.153724,0.946642,0.966288,0.959723,0.099391,0.648879,0.918219,2.000000,0.346141,0.424472,0.662785,1.000000,0.999658,0.908783,0.408888,0.000000
/home/daniel/Projects/ppsevolution/data/maps/custom_maps/Custom_10_Run_0_Map.csv,0.000000,0.926568,1.000000,0.983297,0.432904,0.000000,1.000000,1.000000,0.377148,0.137864,0.717401,1.000000,0.649436,0.366517,0.424749,1.000000
/home/daniel/Projects/ppsevolution/data/maps/custom_maps/Custom_10_Run_0_Map.csv,0.000000,0.868184,0.862632,1.000000,0.024864,0.413372,0.884218,2.000000,0.613071,0.043641,1.000000,1.000000,1.000000,1.000000,0.409676,2.000000
/home/daniel/Projects/ppsevolution/data/maps/custom_maps/Custom_10_Run_0_Map.csv,0.163709,1.000000,1.000000,0.979127,0.654774,0.238838,0.983855,2.000000,0.431927,0.081733,0.729404,1.000000,0.542065,0.316026,0.021116,0.000000
/home/daniel/Projects/ppsevolution/data/maps/custom_maps/Custom_10_Run_0_Map.csv,0.000000,1.000000,0.723641,1.000000,0.000000,0.000000,1.000000,2.000000,0.437129,0.004569,0.915263,1.000000,0.823298,0.986843,0.700024,1.000000
/home/daniel/Projects/ppsevolution/data/maps/custom_maps/Custom_10_Run_0_Map.csv,0.000000,0.932421,1.000000,0.966055,0.661413,0.076447,1.000000,2.000000,0.421053,0.191555,0.438446,1.000000,0.789535,0.849047,0.275752,2.000000
/home/daniel/Projects/ppsevolution/data/maps/custom_maps/Custom_10_Run_0_Map.csv,0.000000,0.708661,0.995228,1.000000,0.230682,0.680972,1.000000,2.000000,0.687571,0.062767,0.973709,1.000000,0.679922,0.750211,0.000000,1.000000
/home/daniel/Projects/ppsevolution/data/maps/custom_maps/Custom_10_Run_0_Map.csv,0.044833,0.764411,1.000000,1.000000,0.206392,0.358919,1.000000,1.000000,0.687727,0.076732,0.977612,1.000000,0.879601,0.943075,0.601923,2.000000
/home/daniel/Projects/ppsevolution/data/maps/custom_maps/Custom_10_Run_0_Map.csv,0.158273,0.417950,0.846466,0.954201,0.000000,0.000000,0.614353,2.000000,0.057612,0.227333,0.705414,0.993417,0.483500,1.000000,0.301311,2.000000
