map,fitness,fitness value,team0ratio,time,HP,Speed,Damage,Acc,ClipSize,RateOfFire,NrBullets,Range,HP,Speed,Damage,Acc,ClipSize,RateOfFire,NrBullets,Range,HP,Speed,Damage,Acc,ClipSize,RateOfFire,NrBullets,Range,HP,Speed,Damage,Acc,ClipSize,RateOfFire,NrBullets,Range,Run,target team0ratio: 0.5,target time: 0.72
/home/daniel/Projects/ppsevolution/data/maps/custom_maps/Custom_1_Run_0_Map.csv,squared_error,8.37156235844522e-06,0.5018,0.7163,0.776523,0.940651,0.000000,0.000000,0.000000,0.220973,1.000000,0.000000,1.000000,0.513380,0.000000,0.000000,0.946458,0.813190,0.000000,2.000000,260.891578,1.296765,9.000000,0.000000,1.000000,2.599246,10.000000,0.000000,300.000000,1.057493,9.000000,0.000000,189.345213,8.225301,1.000000,2.000000,0
/home/daniel/Projects/ppsevolution/data/maps/custom_maps/Custom_1_Run_0_Map.csv,squared_error,1.57094846128984e-06,0.5018,0.7198,0.891489,0.866750,0.000000,0.000000,0.252610,0.420941,0.642661,2.000000,0.991634,0.323332,0.000000,0.000000,0.843574,0.755082,0.277121,2.000000,281.010640,1.255380,9.000000,0.000000,51.269382,4.498938,6.783951,2.000000,298.535863,0.951066,9.000000,0.000000,168.871217,7.673279,3.494085,2.000000,1
/home/daniel/Projects/ppsevolution/data/maps/custom_maps/Custom_1_Run_0_Map.csv,squared_error,5.279771999340487e-07,0.5006,0.7192,0.949126,0.828633,0.000000,0.000000,0.000000,0.304047,0.621022,2.000000,1.000000,0.692019,0.035638,0.000000,0.425994,0.820162,0.145969,1.000000,291.097022,1.234034,9.000000,0.000000,1.000000,3.388444,6.589195,2.000000,300.000000,1.157530,14.024904,0.000000,85.772842,8.291543,2.313720,1.000000,2
/home/daniel/Projects/ppsevolution/data/maps/custom_maps/Custom_1_Run_0_Map.csv,squared_error,1.9296954458354445e-06,0.5015,0.7188,0.809534,0.393604,0.000000,0.000000,0.509721,0.280002,0.515007,1.000000,0.963606,0.000000,0.000000,0.000000,0.919096,1.000000,0.037101,1.000000,266.668518,0.990418,9.000000,0.000000,102.434515,3.160017,5.635062,1.000000,293.630989,0.770000,9.000000,0.000000,183.900050,10.000000,1.333908,1.000000,3
/home/daniel/Projects/ppsevolution/data/maps/custom_maps/Custom_1_Run_0_Map.csv,squared_error,1.7798672115361124e-06,0.5009,0.7183,0.820192,0.875648,0.000000,0.000000,0.103487,0.640591,0.741288,1.000000,1.000000,0.088105,0.000000,0.000000,1.000000,0.681488,0.111454,0.000000,268.533659,1.260363,9.000000,0.000000,21.593952,6.585613,7.671596,1.000000,300.000000,0.819339,9.000000,0.000000,200.000000,6.974133,2.003082,0.000000,4
/home/daniel/Projects/ppsevolution/data/maps/custom_maps/Custom_1_Run_0_Map.csv,squared_error,6.229919794982797e-07,0.4990,0.7205,0.783691,0.882862,0.000000,0.000000,0.129169,0.100532,0.688824,1.000000,1.000000,0.087670,0.000000,0.000000,0.743303,0.951802,0.000000,0.000000,262.146000,1.264403,9.000000,0.000000,26.704720,1.455052,7.199417,1.000000,300.000000,0.819095,9.000000,0.000000,148.917386,9.542118,1.000000,0.000000,5
/home/daniel/Projects/ppsevolution/data/maps/custom_maps/Custom_1_Run_0_Map.csv,squared_error,2.9950914619377648e-06,0.4991,0.7223,0.941841,1.000000,0.000000,0.000000,0.000000,0.132935,0.635311,1.000000,1.000000,0.648024,0.000000,0.062806,0.711037,0.551714,0.040857,2.000000,289.822248,1.330000,9.000000,0.000000,1.000000,1.762879,6.717795,1.000000,300.000000,1.132893,9.000000,0.062806,142.496287,5.741285,1.367712,2.000000,6
/home/daniel/Projects/ppsevolution/data/maps/custom_maps/Custom_1_Run_0_Map.csv,squared_error,3.1819030504294167e-06,0.5016,0.7181,0.804602,0.622038,0.000000,0.000000,0.000000,0.286842,0.796728,0.000000,1.000000,0.442259,0.000000,0.000000,0.622086,0.601890,0.000000,2.000000,265.805328,1.118341,9.000000,0.000000,1.000000,3.225003,8.170552,0.000000,300.000000,1.017665,9.000000,0.000000,124.795204,6.217954,1.000000,2.000000,7
/home/daniel/Projects/ppsevolution/data/maps/custom_maps/Custom_1_Run_0_Map.csv,squared_error,1.4999566267988847e-06,0.5011,0.7214,0.890635,1.000000,0.000000,0.000000,0.000000,0.643401,0.223302,2.000000,0.909664,0.016920,0.000000,0.000000,1.000000,0.752134,0.371574,1.000000,280.861160,1.330000,9.000000,0.000000,1.000000,6.612310,3.009717,2.000000,284.191258,0.779475,9.000000,0.000000,200.000000,7.645275,4.344166,1.000000,8
/home/daniel/Projects/ppsevolution/data/maps/custom_maps/Custom_1_Run_0_Map.csv,squared_error,2.3395574267766534e-06,0.5022,0.7201,0.885993,0.254151,0.000000,0.000000,0.997470,0.466402,0.493952,1.000000,0.973096,0.529772,0.015471,0.000000,0.957089,0.944695,0.000000,2.000000,280.048816,0.912325,9.000000,0.000000,199.496534,4.930817,5.445572,1.000000,295.291733,1.066673,11.181387,0.000000,191.460661,9.474605,1.000000,2.000000,9
map,fitness,fitness value,team0ratio,time,HP,Speed,Damage,Acc,ClipSize,RateOfFire,NrBullets,Range,HP,Speed,Damage,Acc,ClipSize,RateOfFire,NrBullets,Range,HP,Speed,Damage,Acc,ClipSize,RateOfFire,NrBullets,Range,HP,Speed,Damage,Acc,ClipSize,RateOfFire,NrBullets,Range,Run,target team0ratio: 0.5,target time: 0.72
/home/daniel/Projects/ppsevolution/data/maps/custom_maps/Custom_2_Run_0_Map.csv,squared_error,2.8568993834284167e-06,0.5024,0.7201,0.543573,0.656025,0.178838,0.277256,0.154851,0.588589,0.981526,1.000000,0.781109,0.000000,0.271472,0.076232,0.848671,0.912177,0.092937,2.000000,220.125276,1.137374,34.216124,0.277256,31.815402,6.091593,9.833737,1.000000,261.694067,0.770000,47.277562,0.076232,169.885436,9.165680,1.836431,2.000000,0
/home/daniel/Projects/ppsevolution/data/maps/custom_maps/Custom_2_Run_0_Map.csv,squared_error,3.95850670164743e-06,0.4979,0.7182,0.133780,1.000000,0.000000,0.390946,0.212996,0.056151,0.920078,2.000000,0.506375,0.097137,0.060539,0.124909,0.960852,0.910922,0.364766,0.000000,148.411576,1.330000,9.000000,0.390946,43.386256,1.033437,9.280706,2.000000,213.615624,0.824397,17.535954,0.124909,192.209491,9.153763,4.282892,0.000000,1
/home/daniel/Projects/ppsevolution/data/maps/custom_maps/Custom_2_Run_0_Map.csv,squared_error,9.219321266414307e-07,0.5013,0.7203,0.308046,0.964196,0.265638,0.325595,0.000000,0.163642,0.591408,0.000000,0.957534,0.368227,0.000000,0.281814,0.785049,0.719522,0.000000,2.000000,178.908014,1.309950,46.454954,0.325595,1.000000,2.054603,6.322674,0.000000,292.568534,0.976207,9.000000,0.281814,157.224658,7.335462,1.000000,2.000000,2
/home/daniel/Projects/ppsevolution/data/maps/custom_maps/Custom_2_Run_0_Map.csv,squared_error,3.1478788570467874e-06,0.5020,0.7215,0.318771,1.000000,0.132126,0.376188,0.017502,0.230560,0.823573,2.000000,0.847212,0.337729,0.000000,0.279975,0.979208,1.000000,0.000000,2.000000,180.784857,1.330000,27.629768,0.376188,4.482848,2.690323,8.412153,2.000000,273.262136,0.959128,9.000000,0.279975,195.862336,10.000000,1.000000,2.000000,3
/home/daniel/Projects/ppsevolution/data/maps/custom_maps/Custom_2_Run_0_Map.csv,squared_error,1.3255655267539723e-05,0.5035,0.7238,0.289111,1.000000,0.119682,0.406882,0.000000,0.048039,1.000000,0.000000,0.920494,0.288949,0.191887,0.053138,1.000000,0.347403,0.034939,0.000000,175.594438,1.330000,25.875142,0.406882,1.000000,0.956369,10.000000,0.000000,286.086396,0.931811,36.056024,0.053138,200.000000,3.800332,1.314454,0.000000,4
/home/daniel/Projects/ppsevolution/data/maps/custom_maps/Custom_2_Run_0_Map.csv,squared_error,3.1277463064042205e-07,0.5007,0.7196,0.040409,0.790700,0.000000,0.495357,0.342952,0.361013,0.625707,1.000000,0.679407,0.537235,0.107239,0.000000,1.000000,0.858429,0.560168,0.000000,132.071558,1.212792,9.000000,0.495357,69.247530,3.929621,6.631361,1.000000,243.896138,1.070852,24.120719,0.000000,200.000000,8.655074,6.041510,0.000000,5
/home/daniel/Projects/ppsevolution/data/maps/custom_maps/Custom_2_Run_0_Map.csv,squared_error,5.588461821844038e-07,0.5007,0.7192,0.395502,0.763089,0.000000,0.534936,0.021839,0.397613,0.841947,0.000000,0.924820,0.000000,0.000000,0.302550,0.974827,1.000000,0.271916,0.000000,194.212891,1.197330,9.000000,0.534936,5.346004,4.277326,8.577524,0.000000,286.843473,0.770000,9.000000,0.302550,194.990595,10.000000,3.447242,0.000000,6
/home/daniel/Projects/ppsevolution/data/maps/custom_maps/Custom_2_Run_0_Map.csv,squared_error,3.847309441749739e-06,0.5027,0.7193,0.114077,0.895225,0.208314,0.360277,0.000000,0.000000,0.685096,0.000000,0.855135,0.799094,0.194425,0.000000,0.874099,0.935598,0.000000,1.000000,144.963540,1.271326,38.372213,0.360277,1.000000,0.500000,7.165863,0.000000,274.648656,1.217492,36.413921,0.000000,174.945758,9.388181,1.000000,1.000000,7
/home/daniel/Projects/ppsevolution/data/maps/custom_maps/Custom_2_Run_0_Map.csv,squared_error,4.273986370915928e-06,0.5002,0.7229,0.000000,0.701344,0.387730,0.024054,0.199891,0.587754,0.552186,0.000000,0.569796,0.000000,0.000000,0.148415,0.635507,0.878396,0.000000,0.000000,125.000000,1.162753,63.669979,0.024054,40.778238,6.083666,5.969676,0.000000,224.714352,0.770000,9.000000,0.148415,127.465824,8.844761,1.000000,0.000000,8
/home/daniel/Projects/ppsevolution/data/maps/custom_maps/Custom_2_Run_0_Map.csv,squared_error,8.852548454073187e-06,0.4958,0.7206,0.328305,0.949657,0.155584,0.382979,0.294750,0.000000,0.894414,0.000000,0.961133,0.046987,0.178882,0.105395,0.404203,0.805712,0.000000,0.000000,182.453379,1.301808,30.937380,0.382979,59.655195,0.500000,9.049726,0.000000,293.198336,0.796313,34.222334,0.105395,81.436365,8.154269,1.000000,0.000000,9
map,fitness,fitness value,team0ratio,time,HP,Speed,Damage,Acc,ClipSize,RateOfFire,NrBullets,Range,HP,Speed,Damage,Acc,ClipSize,RateOfFire,NrBullets,Range,HP,Speed,Damage,Acc,ClipSize,RateOfFire,NrBullets,Range,HP,Speed,Damage,Acc,ClipSize,RateOfFire,NrBullets,Range,Run,target team0ratio: 0.5,target time: 0.72
/home/daniel/Projects/ppsevolution/data/maps/custom_maps/Custom_3_Run_0_Map.csv,squared_error,1.3572604058260674e-06,0.4997,0.7184,0.023271,0.724160,0.027566,0.596214,0.347484,0.217745,0.880517,1.000000,0.918765,0.026864,0.258294,0.074101,0.676665,0.874635,0.000000,1.000000,129.072449,1.175529,12.886759,0.596214,70.149234,2.568574,8.924652,1.000000,285.783889,0.785044,45.419487,0.074101,135.656415,8.809028,1.000000,1.000000,0
/home/daniel/Projects/ppsevolution/data/maps/custom_maps/Custom_3_Run_0_Map.csv,squared_error,4.405420649085372e-07,0.4994,0.7193,0.000000,0.698114,0.000000,0.624125,0.137099,0.129550,1.000000,0.000000,0.919208,0.000000,0.210465,0.122934,0.984846,0.871172,0.000000,0.000000,125.000000,1.160944,9.000000,0.624125,28.282645,1.730730,10.000000,0.000000,285.861439,0.770000,38.675562,0.122934,196.984361,8.776134,1.000000,0.000000,1
/home/daniel/Projects/ppsevolution/data/maps/custom_maps/Custom_3_Run_0_Map.csv,squared_error,5.858041158558072e-06,0.5034,0.7197,0.356263,0.576165,0.162348,0.450263,0.000000,0.226902,1.000000,2.000000,0.897861,0.202872,0.000000,0.409000,0.652066,1.000000,0.158815,2.000000,187.346040,1.092653,31.891113,0.450263,1.000000,2.655565,10.000000,2.000000,282.125654,0.883608,9.000000,0.409000,130.761061,10.000000,2.429335,2.000000,2
/home/daniel/Projects/ppsevolution/data/maps/custom_maps/Custom_3_Run_0_Map.csv,squared_error,1.8850408703314994e-06,0.4983,0.7191,0.121359,1.000000,0.026512,0.597412,0.000000,0.000000,0.916381,1.000000,0.899966,0.159931,0.000000,0.348477,0.955181,0.799596,0.203138,1.000000,146.237804,1.330000,12.738230,0.597412,1.000000,0.500000,9.247431,1.000000,282.494126,0.859561,9.000000,0.348477,191.081056,8.096163,2.828242,1.000000,3
/home/daniel/Projects/ppsevolution/data/maps/custom_maps/Custom_3_Run_0_Map.csv,squared_error,5.172446064545887e-06,0.5013,0.7171,0.114797,0.110207,0.000000,0.629582,0.173358,0.113781,0.485667,2.000000,0.894530,0.177775,0.339447,0.000000,0.569623,0.853261,0.432777,0.000000,145.089389,0.831716,9.000000,0.629582,35.498309,1.580922,5.371005,2.000000,281.542683,0.869554,56.861991,0.000000,114.355035,8.605984,4.894995,0.000000,4
/home/daniel/Projects/ppsevolution/data/maps/custom_maps/Custom_3_Run_0_Map.csv,squared_error,4.561666332261909e-06,0.5030,0.7206,0.228159,1.000000,0.050554,0.606815,0.000000,0.365007,0.794355,1.000000,1.000000,0.171523,0.000000,0.364766,0.797960,0.829045,0.293326,1.000000,164.927852,1.330000,16.128108,0.606815,1.000000,3.967563,8.149192,1.000000,300.000000,0.866053,9.000000,0.364766,159.794129,8.375930,3.639932,1.000000,5
/home/daniel/Projects/ppsevolution/data/maps/custom_maps/Custom_3_Run_0_Map.csv,squared_error,8.101838666448529e-07,0.5003,0.7212,0.437449,0.634125,0.000000,0.608575,0.028976,0.000000,0.767116,1.000000,0.902295,0.137817,0.000000,0.473948,0.471028,0.780400,0.099848,2.000000,201.553637,1.125110,9.000000,0.608575,6.766253,0.500000,7.904045,1.000000,282.901589,0.847177,9.000000,0.473948,94.734614,7.913803,1.898635,2.000000,6
/home/daniel/Projects/ppsevolution/data/maps/custom_maps/Custom_3_Run_0_Map.csv,squared_error,3.790077050408006e-06,0.5019,0.7180,0.020676,0.963546,0.000000,0.653812,0.130830,0.105786,0.716729,2.000000,0.986531,0.262306,0.025416,0.281965,1.000000,1.000000,0.224099,2.000000,128.618272,1.309586,9.000000,0.653812,27.035197,1.504964,7.450565,2.000000,297.642941,0.916891,12.583608,0.281965,200.000000,10.000000,3.016887,2.000000,7
/home/daniel/Projects/ppsevolution/data/maps/custom_maps/Custom_3_Run_0_Map.csv,squared_error,7.372485370052525e-06,0.5034,0.7182,0.316678,0.831455,0.133595,0.508055,0.000000,0.160273,0.767342,1.000000,0.876570,0.187068,0.084427,0.363995,0.909654,0.853390,0.000000,0.000000,180.418653,1.235615,27.836945,0.508055,1.000000,2.022593,7.906075,1.000000,278.399726,0.874758,20.904221,0.363995,182.021175,8.607209,1.000000,0.000000,8
/home/daniel/Projects/ppsevolution/data/maps/custom_maps/Custom_3_Run_0_Map.csv,squared_error,1.2345195774142433e-05,0.5029,0.7240,0.161963,0.961540,0.000000,0.619791,0.171522,0.218261,0.684976,1.000000,0.911962,0.000000,0.000000,0.349019,0.775936,0.802184,0.186037,1.000000,153.343568,1.308462,9.000000,0.619791,35.132977,2.573483,7.164787,1.000000,284.593361,0.770000,9.000000,0.349019,155.411253,8.120746,2.674334,1.000000,9
map,fitness,fitness value,team0ratio,time,HP,Speed,Damage,Acc,ClipSize,RateOfFire,NrBullets,Range,HP,Speed,Damage,Acc,ClipSize,RateOfFire,NrBullets,Range,HP,Speed,Damage,Acc,ClipSize,RateOfFire,NrBullets,Range,HP,Speed,Damage,Acc,ClipSize,RateOfFire,NrBullets,Range,Run,target team0ratio: 0.5,target time: 0.72
/home/daniel/Projects/ppsevolution/data/maps/custom_maps/Custom_4_Run_0_Map.csv,squared_error,6.658393365626423e-08,0.4997,0.7201,0.511488,0.837820,0.006822,0.000000,0.770240,0.113070,0.946249,1.000000,0.367686,0.088170,0.000000,0.053389,0.867463,0.835466,0.147771,1.000000,214.510325,1.239179,9.961895,0.000000,154.277818,1.574165,9.516237,1.000000,189.345124,0.819375,9.000000,0.053389,173.625073,8.436925,2.329943,1.000000,0
/home/daniel/Projects/ppsevolution/data/maps/custom_maps/Custom_4_Run_0_Map.csv,squared_error,2.1420168016276866e-07,0.5006,0.7198,0.607047,1.000000,0.081268,0.103496,0.410544,0.356839,0.785543,2.000000,0.772431,0.000000,0.067910,0.000000,0.889268,0.946699,0.000000,1.000000,231.233269,1.330000,20.458752,0.103496,82.698225,3.889967,8.069891,2.000000,260.175395,0.770000,18.575360,0.000000,177.964425,9.493641,1.000000,1.000000,1
/home/daniel/Projects/ppsevolution/data/maps/custom_maps/Custom_4_Run_0_Map.csv,squared_error,1.4265549470576503e-05,0.5032,0.7243,0.587765,0.898891,0.000000,0.329580,0.319558,0.234474,0.489013,0.000000,1.000000,0.715185,0.000000,0.021894,0.776255,0.709537,0.238850,2.000000,227.858907,1.273379,9.000000,0.329580,64.591952,2.727500,5.401119,0.000000,300.000000,1.170503,9.000000,0.021894,155.474656,7.240599,3.149647,2.000000,2
/home/daniel/Projects/ppsevolution/data/maps/custom_maps/Custom_4_Run_0_Map.csv,squared_error,1.1072672293633444e-05,0.4953,0.7199,0.628705,1.000000,0.000000,0.230463,0.209846,0.043109,0.892788,0.000000,0.884166,0.133369,0.000000,0.088723,0.326755,0.731101,0.175708,0.000000,235.023346,1.330000,9.000000,0.230463,42.759255,0.909535,9.035096,0.000000,279.729106,0.844687,9.000000,0.088723,66.024228,7.445460,2.581371,0.000000,3
/home/daniel/Projects/ppsevolution/data/maps/custom_maps/Custom_4_Run_0_Map.csv,squared_error,1.0355969870630388e-06,0.4988,0.7192,0.628224,0.769617,0.000000,0.000000,0.147914,0.162085,0.976929,2.000000,0.364237,0.000000,0.105623,0.000000,0.762643,1.000000,0.020875,1.000000,234.939152,1.200985,9.000000,0.000000,30.434979,2.039811,9.792362,2.000000,188.741473,0.770000,23.892838,0.000000,152.765867,10.000000,1.187874,1.000000,4
/home/daniel/Projects/ppsevolution/data/maps/custom_maps/Custom_4_Run_0_Map.csv,squared_error,4.881204271896193e-07,0.5005,0.7191,0.594140,1.000000,0.116292,0.084593,0.331601,0.104700,0.894817,1.000000,0.830160,0.000000,0.028650,0.000000,0.804214,0.844837,0.328358,2.000000,228.974448,1.330000,25.397164,0.084593,66.988518,1.494651,9.053352,1.000000,270.278057,0.770000,13.039657,0.000000,161.038536,8.525951,3.955224,2.000000,5
/home/daniel/Projects/ppsevolution/data/maps/custom_maps/Custom_4_Run_0_Map.csv,squared_error,6.681191702782817e-06,0.4977,0.7229,0.805058,0.537704,0.113732,0.128168,0.236960,0.146358,0.339620,1.000000,0.833759,0.236278,0.059532,0.059658,0.963889,0.826998,0.361978,0.000000,265.885204,1.071114,25.036186,0.128168,48.155104,1.890405,4.056582,1.000000,270.907864,0.902316,17.394080,0.059658,192.813996,8.356477,4.257806,0.000000,6
/home/daniel/Projects/ppsevolution/data/maps/custom_maps/Custom_4_Run_0_Map.csv,squared_error,5.075053643946583e-06,0.5031,0.7192,0.697284,0.963849,0.084806,0.262037,0.143318,0.000000,0.127156,1.000000,1.000000,0.119559,0.000000,0.090635,0.673229,0.681497,0.245676,2.000000,247.024625,1.309755,20.957709,0.262037,29.520377,0.500000,2.144407,1.000000,300.000000,0.836953,9.000000,0.090635,134.972627,6.974218,3.211080,2.000000,7
/home/daniel/Projects/ppsevolution/data/maps/custom_maps/Custom_4_Run_0_Map.csv,squared_error,7.6046233903077046e-06,0.4996,0.7161,0.707979,0.120694,0.117163,0.179260,0.000000,0.050738,0.650051,0.000000,1.000000,0.220773,0.021245,0.079677,0.611990,1.000000,0.183569,1.000000,248.896398,0.837589,25.520037,0.179260,1.000000,0.982006,6.850459,0.000000,300.000000,0.893633,11.995500,0.079677,122.786108,10.000000,2.652121,1.000000,8
/home/daniel/Projects/ppsevolution/data/maps/custom_maps/Custom_4_Run_0_Map.csv,squared_error,8.632664797943556e-07,0.5010,0.7208,0.779122,0.605530,0.028591,0.137176,0.082583,0.441113,0.937442,1.000000,0.752573,0.642661,0.126176,0.000000,0.593311,0.968701,0.000000,2.000000,261.346323,1.109097,13.031279,0.137176,17.434067,4.690574,9.436974,1.000000,256.700289,1.129890,26.790886,0.000000,119.068859,9.702660,1.000000,2.000000,9
map,fitness,fitness value,team0ratio,time,HP,Speed,Damage,Acc,ClipSize,RateOfFire,NrBullets,Range,HP,Speed,Damage,Acc,ClipSize,RateOfFire,NrBullets,Range,HP,Speed,Damage,Acc,ClipSize,RateOfFire,NrBullets,Range,HP,Speed,Damage,Acc,ClipSize,RateOfFire,NrBullets,Range,Run,target team0ratio: 0.5,target time: 0.72
/home/daniel/Projects/ppsevolution/data/maps/custom_maps/Custom_5_Run_0_Map.csv,squared_error,1.1746309899337228e-06,0.5009,0.7213,0.066890,0.399710,0.149204,0.282184,0.000000,0.293153,0.596754,2.000000,0.928742,0.413667,0.000000,0.000000,0.741462,0.480530,0.071721,2.000000,136.705820,0.993838,30.037730,0.282184,1.000000,3.284956,6.370785,2.000000,287.529814,1.001654,9.000000,0.000000,148.550941,5.065031,1.645486,2.000000,0
/home/daniel/Projects/ppsevolution/data/maps/custom_maps/Custom_5_Run_0_Map.csv,squared_error,1.4119013560616469e-06,0.5016,0.7194,0.387460,0.922600,0.306151,0.081228,0.090934,0.000000,0.912202,0.000000,0.929784,0.418031,0.143697,0.000000,0.425642,0.967316,0.053238,0.000000,192.805450,1.286656,52.167301,0.081228,19.095895,0.500000,9.209815,0.000000,287.712265,1.004097,29.261301,0.000000,85.702830,9.689506,1.479139,0.000000,1
/home/daniel/Projects/ppsevolution/data/maps/custom_maps/Custom_5_Run_0_Map.csv,squared_error,7.489863755523571e-07,0.4988,0.7198,0.368439,0.847431,0.000000,0.304225,0.186227,0.134464,1.000000,2.000000,0.700178,0.068774,0.172383,0.000000,0.998605,0.890751,0.000000,2.000000,189.476789,1.244561,9.000000,0.304225,38.059142,1.777405,10.000000,2.000000,247.531177,0.808514,33.306035,0.000000,199.722490,8.962138,1.000000,2.000000,2
/home/daniel/Projects/ppsevolution/data/maps/custom_maps/Custom_5_Run_0_Map.csv,squared_error,6.082661430014256e-07,0.4994,0.7209,0.465158,0.691400,0.178280,0.087453,0.157802,0.055871,0.899590,2.000000,0.701937,0.082842,0.000000,0.207708,0.934482,0.809969,0.265554,0.000000,206.402580,1.157184,34.137456,0.087453,32.402687,1.030774,9.096308,2.000000,247.839044,0.816392,9.000000,0.207708,186.961913,8.194705,3.389986,0.000000,3
/home/daniel/Projects/ppsevolution/data/maps/custom_maps/Custom_5_Run_0_Map.csv,squared_error,1.7064617118307994e-06,0.4982,0.7201,0.043554,0.469246,0.030883,0.347170,0.000000,0.057384,1.000000,2.000000,0.840305,0.303191,0.002635,0.000000,1.000000,0.516741,0.150680,1.000000,132.621882,1.032778,13.354573,0.347170,1.000000,1.045152,10.000000,2.000000,272.053448,0.939787,9.371487,0.000000,200.000000,5.409038,2.356117,1.000000,4
/home/daniel/Projects/ppsevolution/data/maps/custom_maps/Custom_5_Run_0_Map.csv,squared_error,7.434819187235973e-06,0.5032,0.7178,0.547274,0.803404,0.066848,0.265135,0.332934,0.042940,0.956090,2.000000,0.811454,0.134708,0.033867,0.213800,0.505518,0.869310,0.137516,1.000000,220.772993,1.219907,18.425507,0.265135,67.253863,0.907934,9.604813,2.000000,267.004367,0.845436,13.775207,0.213800,101.598144,8.758442,2.237640,1.000000,5
/home/daniel/Projects/ppsevolution/data/maps/custom_maps/Custom_5_Run_0_Map.csv,squared_error,1.1658365695240442e-06,0.5001,0.7215,0.150919,0.439645,0.236373,0.159901,0.022259,0.130666,0.535497,1.000000,0.858358,0.093669,0.004253,0.037547,0.689340,0.564407,0.205290,0.000000,151.410756,1.016201,42.328634,0.159901,5.429445,1.741322,5.819470,1.000000,275.212596,0.822455,9.599692,0.037547,138.178698,5.861865,2.847611,0.000000,6
/home/daniel/Projects/ppsevolution/data/maps/custom_maps/Custom_5_Run_0_Map.csv,squared_error,4.51546496378721e-08,0.5001,0.7197,0.085208,1.000000,0.031867,0.395813,0.043070,0.344032,0.720878,1.000000,0.888192,0.557886,0.011830,0.000000,0.867585,0.652574,0.263914,2.000000,139.911350,1.330000,13.493249,0.395813,9.570988,3.768301,7.487898,1.000000,280.433674,1.082416,10.668098,0.000000,173.649399,6.699451,3.375230,2.000000,7
/home/daniel/Projects/ppsevolution/data/maps/custom_maps/Custom_5_Run_0_Map.csv,squared_error,3.6310065223518247e-06,0.4995,0.7227,0.585588,0.818863,0.232258,0.173006,0.489438,0.000000,0.852823,0.000000,0.973645,0.021669,0.227254,0.000000,1.000000,0.708235,0.117352,0.000000,227.477862,1.228563,41.748441,0.173006,98.398247,0.500000,8.675406,0.000000,295.387823,0.782135,41.042873,0.000000,200.000000,7.228237,2.056169,0.000000,8
/home/daniel/Projects/ppsevolution/data/maps/custom_maps/Custom_5_Run_0_Map.csv,squared_error,3.730788907515198e-06,0.4980,0.7219,0.006714,0.952757,0.000000,0.381531,0.175007,0.000000,0.912559,2.000000,0.834237,0.231119,0.000000,0.000000,0.999650,0.866209,0.058825,2.000000,126.174990,1.303544,9.000000,0.381531,35.826392,0.500000,9.213033,2.000000,270.991413,0.899427,9.000000,0.000000,199.930405,8.728988,1.529429,2.000000,9
map,fitness,fitness value,team0ratio,time,HP,Speed,Damage,Acc,ClipSize,RateOfFire,NrBullets,Range,HP,Speed,Damage,Acc,ClipSize,RateOfFire,NrBullets,Range,HP,Speed,Damage,Acc,ClipSize,RateOfFire,NrBullets,Range,HP,Speed,Damage,Acc,ClipSize,RateOfFire,NrBullets,Range,Run,target team0ratio: 0.5,target time: 0.72
/home/daniel/Projects/ppsevolution/data/maps/custom_maps/Custom_6_Run_0_Map.csv,squared_error,3.4444542185665726e-07,0.4996,0.7193,0.201165,1.000000,0.000000,0.732658,0.324199,0.287841,0.981361,0.000000,1.000000,0.088632,0.151390,0.479882,1.000000,1.000000,0.000000,1.000000,160.203800,1.330000,9.000000,0.732658,65.515700,3.234488,9.832246,0.000000,300.000000,0.819634,30.346001,0.479882,200.000000,10.000000,1.000000,1.000000,0
/home/daniel/Projects/ppsevolution/data/maps/custom_maps/Custom_6_Run_0_Map.csv,squared_error,2.2893973875854343e-07,0.5003,0.7206,0.003403,0.661639,0.177670,0.646528,0.000000,0.025132,0.857110,2.000000,1.000000,0.242283,0.069464,0.450918,0.879870,0.831590,0.238576,0.000000,125.595578,1.140518,34.051503,0.646528,1.000000,0.738756,8.713986,2.000000,300.000000,0.905679,18.794441,0.450918,176.094200,8.400106,3.147180,0.000000,1
/home/daniel/Projects/ppsevolution/data/maps/custom_maps/Custom_6_Run_0_Map.csv,squared_error,6.651677784049299e-07,0.5008,0.7209,0.050985,1.000000,0.157573,0.618677,0.000000,0.004459,1.000000,1.000000,0.919350,0.000000,0.000412,0.520343,0.788430,1.000000,0.018292,2.000000,133.922452,1.330000,31.217728,0.618677,1.000000,0.542356,10.000000,1.000000,285.886308,0.770000,9.058152,0.520343,157.897600,10.000000,1.164626,2.000000,2
/home/daniel/Projects/ppsevolution/data/maps/custom_maps/Custom_6_Run_0_Map.csv,squared_error,1.6027840585593845e-06,0.5000,0.7218,0.000000,0.881156,0.000000,0.725204,0.243899,0.000000,0.852341,1.000000,0.928033,0.200741,0.000000,0.515196,0.794277,0.796162,0.113025,2.000000,125.000000,1.263447,9.000000,0.725204,49.535875,0.500000,8.671068,1.000000,287.405827,0.882415,9.000000,0.515196,159.061155,8.063543,2.017229,2.000000,3
/home/daniel/Projects/ppsevolution/data/maps/custom_maps/Custom_6_Run_0_Map.csv,squared_error,3.4409036555701465e-06,0.4990,0.7224,0.346968,0.878756,0.313847,0.421148,0.562502,0.000000,0.840319,0.000000,0.667602,0.025669,0.216758,0.458696,0.833081,0.953657,0.000000,2.000000,185.719455,1.262103,53.252435,0.421148,112.937996,0.500000,8.562867,0.000000,241.830362,0.784375,39.562873,0.458696,166.783090,9.559742,1.000000,2.000000,4
/home/daniel/Projects/ppsevolution/data/maps/custom_maps/Custom_6_Run_0_Map.csv,squared_error,2.731814591073318e-06,0.4979,0.7190,0.000000,0.829927,0.361052,0.403978,0.400800,0.000000,0.697082,2.000000,0.591444,0.172641,0.155142,0.383241,1.000000,0.584749,0.426119,1.000000,125.000000,1.234759,59.908314,0.403978,80.759254,0.500000,7.273737,2.000000,228.502786,0.866679,30.875055,0.383241,200.000000,6.055113,4.835075,1.000000,5
/home/daniel/Projects/ppsevolution/data/maps/custom_maps/Custom_6_Run_0_Map.csv,squared_error,3.036813170183576e-07,0.5006,0.7205,0.216399,0.897302,0.275415,0.554869,0.236585,0.045669,0.906135,2.000000,1.000000,0.076938,0.027428,0.544345,0.990038,0.987216,0.000000,2.000000,162.869877,1.272489,47.833507,0.554869,48.080352,0.933857,9.155211,2.000000,300.000000,0.813085,12.867315,0.544345,198.017489,9.878551,1.000000,2.000000,6
/home/daniel/Projects/ppsevolution/data/maps/custom_maps/Custom_6_Run_0_Map.csv,squared_error,1.2058473347138708e-06,0.4987,0.7191,0.230057,0.733896,0.376803,0.428378,0.290127,0.253948,1.000000,2.000000,0.905823,0.176537,0.029978,0.543033,1.000000,0.501843,0.000000,0.000000,165.259913,1.180982,62.129203,0.428378,58.735322,2.912507,10.000000,2.000000,283.518962,0.868861,13.226951,0.543033,200.000000,5.267512,1.000000,0.000000,7
/home/daniel/Projects/ppsevolution/data/maps/custom_maps/Custom_6_Run_0_Map.csv,squared_error,8.165576578818296e-07,0.5011,0.7194,0.000000,0.982896,0.103551,0.693760,0.079733,0.000000,0.502582,1.000000,0.889449,0.109996,0.000000,0.534141,0.877024,0.912405,0.159540,1.000000,125.000000,1.320422,23.600703,0.693760,16.866880,0.500000,5.523242,1.000000,280.653504,0.831598,9.000000,0.534141,175.527705,9.167849,2.435859,1.000000,8
/home/daniel/Projects/ppsevolution/data/maps/custom_maps/Custom_6_Run_0_Map.csv,squared_error,1.5792501351626122e-06,0.5017,0.7196,0.000000,1.000000,0.269703,0.584623,0.026464,0.309252,1.000000,2.000000,1.000000,0.137101,0.311536,0.269346,0.659879,1.000000,0.076716,1.000000,125.000000,1.330000,47.028126,0.584623,6.266363,3.437896,10.000000,2.000000,300.000000,0.846776,52.926554,0.269346,132.315919,10.000000,1.690443,1.000000,9
map,fitness,fitness value,team0ratio,time,HP,Speed,Damage,Acc,ClipSize,RateOfFire,NrBullets,Range,HP,Speed,Damage,Acc,ClipSize,RateOfFire,NrBullets,Range,HP,Speed,Damage,Acc,ClipSize,RateOfFire,NrBullets,Range,HP,Speed,Damage,Acc,ClipSize,RateOfFire,NrBullets,Range,Run,target team0ratio: 0.5,target time: 0.72
/home/daniel/Projects/ppsevolution/data/maps/custom_maps/Custom_7_Run_0_Map.csv,squared_error,9.680605259544041e-06,0.4960,0.7218,0.228217,1.000000,0.150871,0.315614,0.157358,0.000000,1.000000,0.000000,0.801610,0.043470,0.227623,0.000000,0.944845,0.591486,0.035738,2.000000,164.938046,1.330000,30.272869,0.315614,32.314282,0.500000,10.000000,0.000000,265.281715,0.794343,41.094796,0.000000,189.024173,6.119120,1.321644,2.000000,0
/home/daniel/Projects/ppsevolution/data/maps/custom_maps/Custom_7_Run_0_Map.csv,squared_error,2.2816106385022865e-06,0.5001,0.7221,0.377547,0.660541,0.171774,0.288791,0.000000,0.036412,0.880850,0.000000,0.794397,0.428871,0.065763,0.203129,0.582603,0.885839,0.263191,2.000000,191.070739,1.139903,33.220134,0.288791,1.000000,0.845914,8.927649,0.000000,264.019541,1.010168,18.272628,0.203129,116.937928,8.915470,3.368723,2.000000,1
/home/daniel/Projects/ppsevolution/data/maps/custom_maps/Custom_7_Run_0_Map.csv,squared_error,7.129997805151574e-07,0.5008,0.7209,0.553234,0.995542,0.126302,0.303341,0.414310,0.291782,0.780531,0.000000,0.743180,0.768324,0.000000,0.360734,0.791916,0.933156,0.106199,0.000000,221.815886,1.327504,26.808611,0.303341,83.447611,3.271932,8.024775,0.000000,255.056479,1.200262,9.000000,0.360734,158.591340,9.364986,1.955791,0.000000,2
/home/daniel/Projects/ppsevolution/data/maps/custom_maps/Custom_7_Run_0_Map.csv,squared_error,1.3226797530315293e-06,0.4986,0.7208,0.000000,0.976088,0.009286,0.498364,0.464075,0.127613,1.000000,2.000000,0.975219,0.000000,0.037857,0.056133,0.670897,0.792629,0.217736,0.000000,125.000000,1.316610,10.309366,0.498364,93.350994,1.712322,10.000000,2.000000,295.663319,0.770000,14.337904,0.056133,134.508419,8.029978,2.959621,0.000000,3
/home/daniel/Projects/ppsevolution/data/maps/custom_maps/Custom_7_Run_0_Map.csv,squared_error,1.243480565518676e-05,0.4965,0.7235,0.150431,0.797951,0.000000,0.508573,0.022661,0.171680,0.708798,1.000000,0.947432,0.000000,0.000000,0.194644,0.978043,1.000000,0.038658,0.000000,151.325386,1.216853,9.000000,0.508573,5.509513,2.130964,7.379185,1.000000,290.800668,0.770000,9.000000,0.194644,195.630562,10.000000,1.347918,0.000000,4
/home/daniel/Projects/ppsevolution/data/maps/custom_maps/Custom_7_Run_0_Map.csv,squared_error,7.755664249327717e-06,0.4965,0.7182,0.343249,0.994034,0.000000,0.380347,0.118699,0.061817,0.947299,2.000000,0.653952,0.478668,0.000000,0.294083,0.539034,0.894938,0.061106,0.000000,185.068608,1.326659,9.000000,0.380347,24.621066,1.087259,9.525691,2.000000,239.441573,1.038054,9.000000,0.294083,108.267706,9.001915,1.549958,0.000000,5
/home/daniel/Projects/ppsevolution/data/maps/custom_maps/Custom_7_Run_0_Map.csv,squared_error,1.6695209295221228e-06,0.5015,0.7190,0.000000,0.794875,0.150225,0.415360,0.000000,0.000000,0.844459,2.000000,0.995424,0.499606,0.000000,0.096627,0.706790,0.749161,0.284280,2.000000,125.000000,1.215130,30.181707,0.415360,1.000000,0.500000,8.600131,2.000000,299.199179,1.049779,9.000000,0.096627,141.651247,7.617031,3.558521,2.000000,6
/home/daniel/Projects/ppsevolution/data/maps/custom_maps/Custom_7_Run_0_Map.csv,squared_error,1.5073257422500777e-06,0.5002,0.7217,0.398306,0.782029,0.000000,0.429898,0.000000,0.161436,1.000000,2.000000,0.804328,0.000000,0.000000,0.282408,1.000000,0.741737,0.225042,2.000000,194.703623,1.207936,9.000000,0.429898,1.000000,2.033638,10.000000,2.000000,265.757366,0.770000,9.000000,0.282408,200.000000,7.546503,3.025381,2.000000,7
/home/daniel/Projects/ppsevolution/data/maps/custom_maps/Custom_7_Run_0_Map.csv,squared_error,1.005175192387929e-05,0.5040,0.7220,0.029909,0.740988,0.000000,0.405403,0.338187,0.000000,0.825565,2.000000,0.633171,0.116669,0.110183,0.029803,0.711019,0.476394,0.000000,0.000000,130.234008,1.184953,9.000000,0.405403,68.299235,0.500000,8.430083,2.000000,235.804986,0.835335,24.535805,0.029803,142.492772,5.025740,1.000000,0.000000,8
/home/daniel/Projects/ppsevolution/data/maps/custom_maps/Custom_7_Run_0_Map.csv,squared_error,7.213723574579794e-07,0.5011,0.7194,0.000000,0.853130,0.236075,0.261791,0.103751,0.394417,0.974561,2.000000,0.834342,0.539763,0.071114,0.011682,0.838395,0.809488,0.309282,2.000000,125.000000,1.247753,42.286597,0.261791,21.646409,4.246960,9.771048,2.000000,271.009854,1.072267,19.027020,0.011682,167.840605,8.190140,3.783534,2.000000,9
map,fitness,fitness value,team0ratio,time,HP,Speed,Damage,Acc,ClipSize,RateOfFire,NrBullets,Range,HP,Speed,Damage,Acc,ClipSize,RateOfFire,NrBullets,Range,HP,Speed,Damage,Acc,ClipSize,RateOfFire,NrBullets,Range,HP,Speed,Damage,Acc,ClipSize,RateOfFire,NrBullets,Range,Run,target team0ratio: 0.5,target time: 0.72
/home/daniel/Projects/ppsevolution/data/maps/custom_maps/Custom_8_Run_0_Map.csv,squared_error,2.6391177151737585e-06,0.4985,0.7218,0.565147,0.712928,0.000000,0.364868,0.559636,0.053900,0.656549,2.000000,1.000000,0.597459,0.075569,0.033054,0.817638,0.846944,0.425352,1.000000,223.900685,1.169240,9.000000,0.364868,112.367534,1.012051,6.908941,2.000000,300.000000,1.104577,19.655205,0.033054,163.709991,8.545972,4.828167,1.000000,0
/home/daniel/Projects/ppsevolution/data/maps/custom_maps/Custom_8_Run_0_Map.csv,squared_error,2.480824378690753e-06,0.4980,0.7210,0.361175,0.897950,0.050578,0.323130,0.261799,0.303582,0.644171,2.000000,1.000000,0.190743,0.056547,0.000000,1.000000,1.000000,0.081901,2.000000,188.205621,1.272852,16.131525,0.323130,53.098048,3.384027,6.797543,2.000000,300.000000,0.876816,16.973154,0.000000,200.000000,10.000000,1.737109,2.000000,1
/home/daniel/Projects/ppsevolution/data/maps/custom_maps/Custom_8_Run_0_Map.csv,squared_error,7.597935981777513e-08,0.5004,0.7198,0.232303,1.000000,0.000000,0.092110,0.000000,0.175154,0.890247,1.000000,0.316426,0.306102,0.000000,0.046038,0.923332,0.369746,0.147909,0.000000,165.652989,1.330000,9.000000,0.092110,1.000000,2.163967,9.012223,1.000000,180.374548,0.941417,9.000000,0.046038,184.743154,4.012588,2.331183,0.000000,2
/home/daniel/Projects/ppsevolution/data/maps/custom_maps/Custom_8_Run_0_Map.csv,squared_error,5.606406727850126e-07,0.5000,0.7211,0.217107,0.421154,0.038199,0.260273,0.665840,0.158601,0.464014,1.000000,0.751161,0.271220,0.000000,0.000000,0.705672,0.822242,0.063912,1.000000,162.993738,1.005846,14.386048,0.260273,133.502207,2.006713,5.176128,1.000000,256.453222,0.921883,9.000000,0.000000,141.428735,8.311298,1.575212,1.000000,3
/home/daniel/Projects/ppsevolution/data/maps/custom_maps/Custom_8_Run_0_Map.csv,squared_error,1.0651676640148446e-05,0.4965,0.7230,0.281928,0.726318,0.000000,0.351777,0.499748,0.243052,1.000000,0.000000,0.982763,0.126842,0.000000,0.000000,1.000000,0.922337,0.319340,1.000000,174.337336,1.176738,9.000000,0.351777,100.449851,2.808996,10.000000,0.000000,296.983461,0.841032,9.000000,0.000000,200.000000,9.262203,3.874062,1.000000,4
/home/daniel/Projects/ppsevolution/data/maps/custom_maps/Custom_8_Run_0_Map.csv,squared_error,3.4426103498049786e-06,0.5001,0.7226,0.270999,0.483934,0.035993,0.242097,0.214071,0.375874,0.724920,0.000000,0.756952,0.211956,0.024937,0.003489,0.755027,0.757467,0.000000,1.000000,172.424793,1.041003,14.075056,0.242097,43.600179,4.070800,7.524282,0.000000,257.466591,0.888695,12.516078,0.003489,151.250427,7.695936,1.000000,1.000000,5
/home/daniel/Projects/ppsevolution/data/maps/custom_maps/Custom_8_Run_0_Map.csv,squared_error,2.2184407947641764e-06,0.4998,0.7221,0.327148,0.918860,0.000000,0.206717,0.253853,0.000000,1.000000,0.000000,0.622010,0.004912,0.040050,0.022545,0.850547,0.823215,0.132047,1.000000,182.250821,1.284561,9.000000,0.206717,51.516821,0.500000,10.000000,0.000000,233.851804,0.772751,14.646995,0.022545,170.258782,8.320546,2.188422,1.000000,6
/home/daniel/Projects/ppsevolution/data/maps/custom_maps/Custom_8_Run_0_Map.csv,squared_error,2.2370231379423614e-05,0.4980,0.7264,0.345824,0.945625,0.000000,0.366037,0.003926,0.000000,0.875350,0.000000,1.000000,0.191190,0.000000,0.040439,1.000000,1.000000,0.215692,2.000000,185.519214,1.299550,9.000000,0.366037,1.781219,0.500000,8.878152,0.000000,300.000000,0.877066,9.000000,0.040439,200.000000,10.000000,2.941230,2.000000,7
/home/daniel/Projects/ppsevolution/data/maps/custom_maps/Custom_8_Run_0_Map.csv,squared_error,2.6271489057990156e-06,0.4978,0.7204,0.226145,0.470746,0.000000,0.361857,0.254978,0.037665,1.000000,1.000000,1.000000,0.137925,0.000000,0.000000,1.000000,0.937294,0.095994,2.000000,164.575355,1.033618,9.000000,0.361857,51.740540,0.857818,10.000000,1.000000,300.000000,0.847238,9.000000,0.000000,200.000000,9.404294,1.863948,2.000000,8
/home/daniel/Projects/ppsevolution/data/maps/custom_maps/Custom_8_Run_0_Map.csv,squared_error,4.943034292466328e-07,0.5005,0.7191,0.201596,1.000000,0.028972,0.250408,0.191124,0.069964,0.000000,1.000000,0.543466,0.456114,0.004373,0.000000,0.897284,0.629972,0.233227,1.000000,160.279299,1.330000,13.085083,0.250408,39.033594,1.164663,1.000000,1.000000,220.106590,1.025424,9.616533,0.000000,179.559426,6.484735,3.099043,1.000000,9
map,fitness,fitness value,team0ratio,time,HP,Speed,Damage,Acc,ClipSize,RateOfFire,NrBullets,Range,HP,Speed,Damage,Acc,ClipSize,RateOfFire,NrBullets,Range,HP,Speed,Damage,Acc,ClipSize,RateOfFire,NrBullets,Range,HP,Speed,Damage,Acc,ClipSize,RateOfFire,NrBullets,Range,Run,target team0ratio: 0.5,target time: 0.72
/home/daniel/Projects/ppsevolution/data/maps/custom_maps/Custom_9_Run_0_Map.csv,squared_error,1.67479144193978e-06,0.4983,0.7207,0.737020,1.000000,0.000000,0.111145,0.034233,0.212020,0.700530,1.000000,0.812184,0.385654,0.101530,0.000000,0.603112,0.864926,0.073120,1.000000,253.978429,1.330000,9.000000,0.111145,7.812461,2.514191,7.304772,1.000000,267.132117,0.985966,23.315750,0.000000,121.019296,8.716800,1.658080,1.000000,0
/home/daniel/Projects/ppsevolution/data/maps/custom_maps/Custom_9_Run_0_Map.csv,squared_error,6.923993033023993e-06,0.4992,0.7164,0.706435,0.886598,0.078409,0.034692,0.323206,0.376037,0.847927,0.000000,0.847148,0.197661,0.000000,0.082653,0.897009,0.884662,0.390544,0.000000,248.626196,1.266495,20.055634,0.034692,65.317951,4.072349,8.631341,0.000000,273.250859,0.880690,9.000000,0.082653,179.504743,8.904292,4.514893,0.000000,1
/home/daniel/Projects/ppsevolution/data/maps/custom_maps/Custom_9_Run_0_Map.csv,squared_error,4.826878628332938e-06,0.5001,0.7169,0.692255,1.000000,0.000000,0.179369,0.444611,0.000000,0.651020,2.000000,0.961417,0.117456,0.053105,0.000000,0.538622,0.600574,0.270176,2.000000,246.144609,1.330000,9.000000,0.179369,89.477523,0.500000,6.859180,2.000000,293.248019,0.835776,16.487737,0.000000,108.185800,6.205458,3.431586,2.000000,2
/home/daniel/Projects/ppsevolution/data/maps/custom_maps/Custom_9_Run_0_Map.csv,squared_error,1.8632843835149545e-06,0.5019,0.7201,0.703255,0.718530,0.000000,0.152744,0.285955,0.000000,0.922888,1.000000,0.942767,0.337355,0.000000,0.105589,0.975253,0.800710,0.004865,2.000000,248.069606,1.172377,9.000000,0.152744,57.905007,0.500000,9.305992,1.000000,289.984236,0.958919,9.000000,0.105589,195.075400,8.106741,1.043782,2.000000,3
/home/daniel/Projects/ppsevolution/data/maps/custom_maps/Custom_9_Run_0_Map.csv,squared_error,5.321094557669501e-06,0.5016,0.7228,0.523024,1.000000,0.078456,0.084487,0.018249,0.291929,0.865907,2.000000,1.000000,0.070107,0.000000,0.000000,0.823284,0.826832,0.000000,1.000000,216.529166,1.330000,20.062330,0.084487,4.631555,3.273328,8.793164,2.000000,300.000000,0.809260,9.000000,0.000000,164.833597,8.354901,1.000000,1.000000,4
/home/daniel/Projects/ppsevolution/data/maps/custom_maps/Custom_9_Run_0_Map.csv,squared_error,7.017556525282924e-08,0.4999,0.7196,0.604332,0.984756,0.111404,0.000000,0.267468,0.144004,0.857969,0.000000,0.855877,0.418747,0.038406,0.022153,0.809212,0.966520,0.000000,0.000000,230.758072,1.321463,24.707967,0.000000,54.226126,1.868034,8.721725,0.000000,274.778456,1.004498,14.415181,0.022153,162.033175,9.681937,1.000000,0.000000,5
/home/daniel/Projects/ppsevolution/data/maps/custom_maps/Custom_9_Run_0_Map.csv,squared_error,1.3568304952656349e-06,0.4984,0.7203,0.999897,0.350770,0.000000,0.161153,0.298224,0.349104,0.334185,0.000000,0.880443,0.394345,0.181398,0.038083,0.843326,0.819522,0.000000,2.000000,299.981993,0.966431,9.000000,0.161153,60.346513,3.816490,4.007669,0.000000,279.077519,0.990833,34.577075,0.038083,168.821840,8.285461,1.000000,2.000000,6
/home/daniel/Projects/ppsevolution/data/maps/custom_maps/Custom_9_Run_0_Map.csv,squared_error,7.042242438740135e-06,0.4990,0.7164,1.000000,0.781488,0.043719,0.000000,0.473909,0.163039,0.079526,2.000000,0.560005,0.449288,0.234543,0.000000,0.862880,0.504748,0.000000,0.000000,300.000000,1.207633,15.164381,0.000000,95.307885,2.048875,1.715738,2.000000,223.000958,1.021602,42.070498,0.000000,172.713195,5.295102,1.000000,0.000000,7
/home/daniel/Projects/ppsevolution/data/maps/custom_maps/Custom_9_Run_0_Map.csv,squared_error,1.4778769944541264e-06,0.4990,0.7186,0.467476,1.000000,0.000000,0.112057,0.027763,0.268260,1.000000,0.000000,0.817173,0.000000,0.000000,0.000000,0.961389,0.896143,0.073005,2.000000,206.808380,1.330000,9.000000,0.112057,6.524759,3.048467,10.000000,0.000000,268.005237,0.770000,9.000000,0.000000,192.316483,9.013362,1.657045,2.000000,8
/home/daniel/Projects/ppsevolution/data/maps/custom_maps/Custom_9_Run_0_Map.csv,squared_error,1.35269388115664e-06,0.5003,0.7216,0.544121,0.989844,0.124231,0.000000,0.093380,0.017684,0.867437,2.000000,0.913631,0.129505,0.000000,0.000000,0.988229,0.787087,0.239621,0.000000,220.221249,1.324313,26.516537,0.000000,19.582529,0.667994,8.806935,2.000000,284.885408,0.842523,9.000000,0.000000,197.657614,7.977323,3.156593,0.000000,9
map,fitness,fitness value,team0ratio,time,HP,Speed,Damage,Acc,ClipSize,RateOfFire,NrBullets,Range,HP,Speed,Damage,Acc,ClipSize,RateOfFire,NrBullets,Range,HP,Speed,Damage,Acc,ClipSize,RateOfFire,NrBullets,Range,HP,Speed,Damage,Acc,ClipSize,RateOfFire,NrBullets,Range,Run,target team0ratio: 0.5,target time: 0.72
/home/daniel/Projects/ppsevolution/data/maps/custom_maps/Custom_10_Run_0_Map.csv,squared_error,8.258454467664684e-07,0.5009,0.7191,0.017994,0.832062,0.035734,0.410361,0.138983,0.000000,0.487333,2.000000,0.825055,0.042464,0.000000,0.081497,0.568769,1.000000,0.000000,1.000000,128.148999,1.235955,14.038461,0.410361,28.657624,0.500000,5.385998,2.000000,269.384663,0.793780,9.000000,0.081497,114.185088,10.000000,1.000000,1.000000,0
/home/daniel/Projects/ppsevolution/data/maps/custom_maps/Custom_10_Run_0_Map.csv,squared_error,5.10682927963995e-07,0.4992,0.7193,0.429866,0.580116,0.284562,0.090526,0.103632,0.193706,0.985487,2.000000,0.824655,0.379246,0.183878,0.000000,1.000000,0.826769,0.315739,1.000000,200.226605,1.094865,49.123307,0.090526,21.622768,2.340203,9.869383,2.000000,269.314646,0.982378,34.926794,0.000000,200.000000,8.354304,3.841654,1.000000,1
/home/daniel/Projects/ppsevolution/data/maps/custom_maps/Custom_10_Run_0_Map.csv,squared_error,1.4848798234197585e-06,0.4983,0.7199,0.494429,0.695643,0.265357,0.167155,0.183435,0.228184,1.000000,0.000000,0.958560,0.262479,0.058699,0.172946,0.946178,0.980778,0.418288,0.000000,211.525154,1.159560,46.415403,0.167155,37.503519,2.667753,10.000000,0.000000,292.747917,0.916988,17.276612,0.172946,189.289333,9.817391,4.764590,0.000000,2
/home/daniel/Projects/ppsevolution/data/maps/custom_maps/Custom_10_Run_0_Map.csv,squared_error,7.260805863521199e-06,0.5021,0.7232,0.000000,1.000000,0.000000,0.493911,0.539998,0.000000,0.530312,2.000000,1.000000,0.250333,0.047536,0.000000,0.627761,0.692715,0.019275,0.000000,125.000000,1.330000,9.000000,0.493911,108.459636,0.500000,5.772810,2.000000,300.000000,0.910186,15.702565,0.000000,125.924392,7.080793,1.173475,0.000000,3
/home/daniel/Projects/ppsevolution/data/maps/custom_maps/Custom_10_Run_0_Map.csv,squared_error,2.4544002809542185e-06,0.4995,0.7222,0.289695,0.675321,0.136516,0.296759,0.259493,0.072988,1.000000,2.000000,0.946713,0.389959,0.087769,0.067594,0.983776,0.867436,0.126172,0.000000,175.696609,1.148180,28.248821,0.296759,52.639057,1.193387,10.000000,2.000000,290.674814,0.988377,21.375483,0.067594,196.771364,8.740645,2.135549,0.000000,4
/home/daniel/Projects/ppsevolution/data/maps/custom_maps/Custom_10_Run_0_Map.csv,squared_error,4.358248160284036e-06,0.4973,0.7211,0.184389,1.000000,0.081571,0.331019,0.364652,0.000000,0.778666,2.000000,0.826064,0.403667,0.078910,0.058856,0.901085,0.851359,0.000000,2.000000,157.268001,1.330000,20.501534,0.331019,73.565713,0.500000,8.007994,2.000000,269.561212,0.996053,20.126327,0.058856,180.315834,8.587909,1.000000,2.000000,5
/home/daniel/Projects/ppsevolution/data/maps/custom_maps/Custom_10_Run_0_Map.csv,squared_error,8.460682880702865e-07,0.4994,0.7211,0.125213,0.872187,0.000000,0.451512,0.088850,0.190366,0.707700,0.000000,0.854864,0.452472,0.092902,0.000000,1.000000,0.814110,0.221913,2.000000,146.912358,1.258425,9.000000,0.451512,18.681227,2.308473,7.369297,0.000000,274.601161,1.023384,22.099188,0.000000,200.000000,8.234048,2.997220,2.000000,6
/home/daniel/Projects/ppsevolution/data/maps/custom_maps/Custom_10_Run_0_Map.csv,squared_error,7.093232863653658e-06,0.4988,0.7164,0.043292,0.737753,0.000000,0.484592,0.195395,0.000000,0.583791,0.000000,0.893027,0.137962,0.070474,0.021290,0.771322,1.000000,0.139766,1.000000,132.576115,1.183142,9.000000,0.484592,39.883658,0.500000,6.254122,0.000000,281.279766,0.847259,18.936841,0.021290,154.493091,10.000000,2.257893,1.000000,7
/home/daniel/Projects/ppsevolution/data/maps/custom_maps/Custom_10_Run_0_Map.csv,squared_error,8.509259933190936e-08,0.5004,0.7198,0.375133,0.790011,0.068674,0.323755,0.572370,0.358128,0.855665,1.000000,0.790646,0.169607,0.000000,0.206780,0.964088,1.000000,0.319318,1.000000,190.648192,1.212406,18.683065,0.323755,114.901630,3.902219,8.700985,1.000000,263.363019,0.864980,9.000000,0.206780,192.853588,10.000000,3.873863,1.000000,8
/home/daniel/Projects/ppsevolution/data/maps/custom_maps/Custom_10_Run_0_Map.csv,squared_error,3.8253163459251945e-06,0.4980,0.7181,0.000677,0.950168,0.457346,0.000000,0.264567,0.435043,1.000000,0.000000,1.000000,0.204000,0.036991,0.000000,1.000000,1.000000,0.000000,0.000000,125.118425,1.302094,73.485836,0.000000,53.648846,4.632911,10.000000,0.000000,300.000000,0.884240,14.215748,0.000000,200.000000,10.000000,1.000000,0.000000,9
