/home/daniel/Projects/ppsevolution/data/maps/custom_maps/Custom_1_Run_0_Map.csv,1.000000,0.763295,0.000000,0.000000,0.191700,0.225078,0.494045,2.000000,1.000000,0.000000,0.000000,0.107296,0.655802,0.727689,0.000000,1.000000
/home/daniel/Projects/ppsevolution/data/maps/custom_maps/Custom_1_Run_0_Map.csv,0.896183,0.892635,0.000000,0.000000,0.135151,0.552855,0.275236,1.000000,0.898534,0.215197,0.000000,0.000000,0.930752,0.732421,0.451132,0.000000
/home/daniel/Projects/ppsevolution/data/maps/custom_maps/Custom_1_Run_0_Map.csv,0.803797,0.989660,0.016737,0.000000,0.703441,0.612019,0.444877,0.000000,1.000000,0.129560,0.000000,0.000000,0.880843,0.961911,0.009108,0.000000
/home/daniel/Projects/ppsevolution/data/maps/custom_maps/Custom_1_Run_0_Map.csv,0.867673,0.816005,0.000000,0.000000,0.341487,0.392530,0.707784,0.000000,1.000000,0.000000,0.029287,0.000000,0.784899,0.247897,0.052680,1.000000
/home/daniel/Projects/ppsevolution/data/maps/custom_maps/Custom_1_Run_0_Map.csv,0.885145,0.498774,0.000000,0.038819,0.832257,0.205799,0.367781,0.000000,1.000000,0.704272,0.018990,0.000000,1.000000,0.248936,0.061918,2.000000
/home/daniel/Projects/ppsevolution/data/maps/custom_maps/Custom_1_Run_0_Map.csv,0.936184,0.992004,0.000000,0.000000,0.086761,0.733254,0.590073,1.000000,1.000000,0.323721,0.000000,0.041259,0.776604,1.000000,0.207647,0.000000
/home/daniel/Projects/ppsevolution/data/maps/custom_maps/Custom_1_Run_0_Map.csv,1.000000,0.973654,0.000000,0.000000,0.153033,0.003566,0.730560,1.000000,0.978457,0.490374,0.000000,0.048497,1.000000,0.936657,0.519871,2.000000
/home/daniel/Projects/ppsevolution/data/maps/custom_maps/Custom_1_Run_0_Map.csv,0.823703,0.640605,0.000000,0.000000,0.465402,0.180823,0.719091,0.000000,0.989623,0.000000,0.000339,0.018748,1.000000,0.875732,0.024638,0.000000
/home/daniel/Projects/ppsevolution/data/maps/custom_maps/Custom_1_Run_0_Map.csv,0.857142,0.871396,0.000000,0.000000,0.142742,0.106095,0.579462,1.000000,1.000000,0.000000,0.000000,0.029956,0.649961,1.000000,0.000000,2.000000
/home/daniel/Projects/ppsevolution/data/maps/custom_maps/Custom_1_Run_0_Map.csv,0.849498,0.710709,0.000000,0.000000,0.523978,0.018678,0.602069,2.000000,0.991096,0.452687,0.000000,0.000000,0.604616,0.896764,0.139802,1.000000
/home/daniel/Projects/ppsevolution/data/maps/custom_maps/Custom_2_Run_0_Map.csv,0.000000,0.767179,0.054112,0.540233,0.409959,0.000000,0.711956,0.000000,0.968816,0.167686,0.109203,0.053758,1.000000,0.694845,0.000000,2.000000
/home/daniel/Projects/ppsevolution/data/maps/custom_maps/Custom_2_Run_0_Map.csv,0.000000,1.000000,0.000000,0.524486,0.000000,0.090469,1.000000,2.000000,0.891973,0.119778,0.129744,0.000000,0.940624,0.775818,0.123692,1.000000
/home/daniel/Projects/ppsevolution/data/maps/custom_maps/Custom_2_Run_0_Map.csv,0.222313,0.818780,0.000000,0.561750,0.000000,0.410338,1.000000,1.000000,1.000000,0.228028,0.000000,0.237131,1.000000,1.000000,0.164011,2.000000
/home/daniel/Projects/ppsevolution/data/maps/custom_maps/Custom_2_Run_0_Map.csv,0.104641,0.849692,0.000000,0.536895,0.562274,0.047543,0.653069,0.000000,0.854762,0.228893,0.083196,0.108321,0.302125,1.000000,0.178704,2.000000
/home/daniel/Projects/ppsevolution/data/maps/custom_maps/Custom_2_Run_0_Map.csv,0.413934,0.751402,0.000000,0.470790,0.023562,0.076890,0.821815,0.000000,0.751422,0.114963,0.000000,0.325999,0.890163,0.222543,0.163805,0.000000
/home/daniel/Projects/ppsevolution/data/maps/custom_maps/Custom_2_Run_0_Map.csv,0.084082,0.913602,0.093027,0.499286,0.000000,0.494988,0.536737,2.000000,0.994000,0.269468,0.100493,0.047417,0.649979,1.000000,0.254716,0.000000
/home/daniel/Projects/ppsevolution/data/maps/custom_maps/Custom_2_Run_0_Map.csv,0.224670,0.568422,0.569578,0.000000,0.042927,0.251575,0.713828,1.000000,0.985077,0.011203,0.190195,0.000000,0.884837,0.964215,0.048552,1.000000
/home/daniel/Projects/ppsevolution/data/maps/custom_maps/Custom_2_Run_0_Map.csv,0.017516,0.855927,0.000000,0.586323,0.000000,0.225432,0.826054,1.000000,0.988942,0.293185,0.000000,0.134617,0.931984,0.637835,0.380317,2.000000
/home/daniel/Projects/ppsevolution/data/maps/custom_maps/Custom_2_Run_0_Map.csv,0.582968,0.563170,0.277282,0.168681,0.358763,0.187527,0.983360,2.000000,0.805049,0.017951,0.160132,0.181345,0.640845,0.597384,0.324121,2.000000
/home/daniel/Projects/ppsevolution/data/maps/custom_maps/Custom_2_Run_0_Map.csv,0.190885,1.000000,0.245723,0.213890,0.000000,0.051328,0.827220,0.000000,0.736236,0.000000,0.000000,0.212134,0.984328,0.654654,0.137536,0.000000
/home/daniel/Projects/ppsevolution/data/maps/custom_maps/Custom_3_Run_0_Map.csv,0.135172,0.648807,0.000000,0.600307,0.000000,0.275083,1.000000,1.000000,0.897834,0.180044,0.096087,0.251092,0.788437,0.950315,0.160711,0.000000
/home/daniel/Projects/ppsevolution/data/maps/custom_maps/Custom_3_Run_0_Map.csv,0.067537,1.000000,0.000000,0.678985,0.008958,0.000000,0.483217,1.000000,1.000000,0.346475,0.028369,0.318046,0.951175,0.440011,0.241832,1.000000
/home/daniel/Projects/ppsevolution/data/maps/custom_maps/Custom_3_Run_0_Map.csv,0.000000,0.896462,0.279477,0.391433,0.136953,0.000000,0.831744,0.000000,0.884050,0.379805,0.023377,0.271718,0.971728,0.861419,0.000000,2.000000
/home/daniel/Projects/ppsevolution/data/maps/custom_maps/Custom_3_Run_0_Map.csv,0.215918,0.814152,0.000000,0.636400,0.353973,0.099136,0.768115,2.000000,0.989635,0.111597,0.000000,0.383578,0.801646,0.982453,0.162069,1.000000
/home/daniel/Projects/ppsevolution/data/maps/custom_maps/Custom_3_Run_0_Map.csv,0.550277,0.727717,0.143628,0.453456,0.000000,0.147670,1.000000,2.000000,0.903275,0.096305,0.000000,0.496980,0.927143,0.949822,0.000000,1.000000
/home/daniel/Projects/ppsevolution/data/maps/custom_maps/Custom_3_Run_0_Map.csv,0.155799,0.947403,0.373786,0.298505,0.360132,0.000000,0.735233,0.000000,0.937364,0.000000,0.064086,0.283846,0.760651,1.000000,0.000000,2.000000
/home/daniel/Projects/ppsevolution/data/maps/custom_maps/Custom_3_Run_0_Map.csv,0.229604,0.208385,0.000000,0.633733,0.027537,0.367516,0.849318,0.000000,0.959467,0.000000,0.018680,0.343909,0.796679,0.873674,0.430716,1.000000
/home/daniel/Projects/ppsevolution/data/maps/custom_maps/Custom_3_Run_0_Map.csv,0.045061,0.750358,0.081910,0.573167,0.000000,0.080906,0.888559,2.000000,1.000000,0.000000,0.048254,0.272903,0.895283,0.866238,0.000000,0.000000
/home/daniel/Projects/ppsevolution/data/maps/custom_maps/Custom_3_Run_0_Map.csv,0.461510,0.537257,0.070423,0.539724,0.098804,0.464592,0.624467,0.000000,0.832712,0.002712,0.214545,0.296075,1.000000,0.891445,0.005329,2.000000
/home/daniel/Projects/ppsevolution/data/maps/custom_maps/Custom_3_Run_0_Map.csv,0.000000,0.743167,0.025191,0.639781,0.116604,0.000000,0.782685,1.000000,1.000000,0.011701,0.023482,0.298352,1.000000,0.988255,0.000383,1.000000
/home/daniel/Projects/ppsevolution/data/maps/custom_maps/Custom_4_Run_0_Map.csv,0.760933,1.000000,0.000000,0.251601,0.150934,0.313103,0.888800,2.000000,0.961096,0.247868,0.036755,0.082191,0.626265,1.000000,0.179521,1.000000
/home/daniel/Projects/ppsevolution/data/maps/custom_maps/Custom_4_Run_0_Map.csv,0.484788,0.865818,0.000000,0.251722,0.314235,0.279773,0.840348,2.000000,0.893874,0.080453,0.000000,0.000000,1.000000,1.000000,0.136113,1.000000
/home/daniel/Projects/ppsevolution/data/maps/custom_maps/Custom_4_Run_0_Map.csv,0.507027,0.897438,0.000000,0.286072,0.226911,0.154812,0.941819,2.000000,1.000000,0.451459,0.000000,0.000000,0.797148,0.624727,0.155979,2.000000
/home/daniel/Projects/ppsevolution/data/maps/custom_maps/Custom_4_Run_0_Map.csv,0.450511,0.831263,0.000000,0.268511,0.000000,0.288047,1.000000,1.000000,0.960295,0.000000,0.000000,0.000000,0.921183,1.000000,0.000000,2.000000
/home/daniel/Projects/ppsevolution/data/maps/custom_maps/Custom_4_Run_0_Map.csv,0.478858,0.821401,0.123908,0.184955,0.094056,0.091354,0.733657,0.000000,1.000000,0.241450,0.000000,0.000000,1.000000,0.648878,0.097743,2.000000
/home/daniel/Projects/ppsevolution/data/maps/custom_maps/Custom_4_Run_0_Map.csv,0.640024,1.000000,0.000000,0.256098,0.000000,0.016887,0.853792,1.000000,0.907594,0.000000,0.043321,0.039013,0.906552,0.862729,0.135016,2.000000
/home/daniel/Projects/ppsevolution/data/maps/custom_maps/Custom_4_Run_0_Map.csv,0.842058,0.976297,0.024442,0.268644,0.049371,0.415426,0.518593,0.000000,0.943978,0.206221,0.036872,0.096917,0.763434,0.944367,0.480541,2.000000
/home/daniel/Projects/ppsevolution/data/maps/custom_maps/Custom_4_Run_0_Map.csv,0.641681,0.767326,0.000000,0.286602,0.000000,0.000000,1.000000,0.000000,1.000000,0.159795,0.000000,0.114972,0.988267,0.517095,0.000000,0.000000
/home/daniel/Projects/ppsevolution/data/maps/custom_maps/Custom_4_Run_0_Map.csv,0.465663,0.715379,0.075024,0.195976,0.179856,0.235884,1.000000,2.000000,1.000000,0.051422,0.000000,0.000000,0.727559,0.752299,0.036546,0.000000
/home/daniel/Projects/ppsevolution/data/maps/custom_maps/Custom_4_Run_0_Map.csv,0.522846,0.606954,0.244758,0.000000,0.459102,0.017129,0.706223,2.000000,0.978378,0.000000,0.000000,0.000000,0.372248,0.823430,0.091244,1.000000
/home/daniel/Projects/ppsevolution/data/maps/custom_maps/Custom_5_Run_0_Map.csv,0.436640,0.909657,0.011304,0.411427,1.000000,0.375444,0.392580,0.000000,0.880782,0.352138,0.145374,0.042296,0.390421,0.753678,0.190928,2.000000
/home/daniel/Projects/ppsevolution/data/maps/custom_maps/Custom_5_Run_0_Map.csv,0.433371,0.940495,0.133036,0.304737,0.157549,0.153577,1.000000,0.000000,1.000000,0.083564,0.141591,0.000000,0.884077,0.946854,0.498985,0.000000
/home/daniel/Projects/ppsevolution/data/maps/custom_maps/Custom_5_Run_0_Map.csv,0.452299,0.866332,0.002784,0.378742,0.000000,0.000000,1.000000,0.000000,0.872092,0.000000,0.209389,0.006075,0.959078,0.901578,0.090660,0.000000
/home/daniel/Projects/ppsevolution/data/maps/custom_maps/Custom_5_Run_0_Map.csv,0.048180,1.000000,0.076643,0.318416,0.000000,0.197771,1.000000,2.000000,0.870935,0.000000,0.000000,0.009616,0.984460,0.996693,0.158889,2.000000
/home/daniel/Projects/ppsevolution/data/maps/custom_maps/Custom_5_Run_0_Map.csv,0.287579,0.390035,0.135013,0.267056,0.000000,0.000000,0.791591,2.000000,0.883436,0.431084,0.114539,0.000000,1.000000,0.920034,0.132336,0.000000
/home/daniel/Projects/ppsevolution/data/maps/custom_maps/Custom_5_Run_0_Map.csv,0.462837,0.854678,0.175622,0.225766,0.218631,0.444193,0.989914,1.000000,1.000000,0.000000,0.000000,0.167365,1.000000,0.922397,0.329324,2.000000
/home/daniel/Projects/ppsevolution/data/maps/custom_maps/Custom_5_Run_0_Map.csv,0.220929,0.924565,0.076792,0.306275,0.000000,0.413477,0.991807,2.000000,0.891686,0.638142,0.000000,0.093991,1.000000,0.682755,0.045813,0.000000
/home/daniel/Projects/ppsevolution/data/maps/custom_maps/Custom_5_Run_0_Map.csv,0.166796,0.799864,0.121930,0.349852,0.389999,0.065663,0.510068,1.000000,1.000000,0.234202,0.074107,0.000000,0.766543,0.759302,0.000000,2.000000
/home/daniel/Projects/ppsevolution/data/maps/custom_maps/Custom_5_Run_0_Map.csv,0.085908,0.879116,0.000000,0.397282,0.053996,0.059011,1.000000,0.000000,0.865130,0.528919,0.047105,0.000000,0.813224,0.857470,0.000550,1.000000
/home/daniel/Projects/ppsevolution/data/maps/custom_maps/Custom_5_Run_0_Map.csv,0.144610,0.963394,0.000000,0.418622,0.114839,0.000000,0.891248,1.000000,0.922851,0.086641,0.048795,0.036351,0.961957,0.787032,0.000000,1.000000
/home/daniel/Projects/ppsevolution/data/maps/custom_maps/Custom_6_Run_0_Map.csv,0.113604,1.000000,0.082372,0.680769,0.000000,0.000000,1.000000,1.000000,0.901922,0.207187,0.328398,0.328519,1.000000,1.000000,0.000000,1.000000
/home/daniel/Projects/ppsevolution/data/maps/custom_maps/Custom_6_Run_0_Map.csv,0.324861,0.892779,0.092577,0.678879,0.142192,0.118209,0.731276,2.000000,0.958647,0.141968,0.000000,0.614109,1.000000,0.732661,0.000000,2.000000
/home/daniel/Projects/ppsevolution/data/maps/custom_maps/Custom_6_Run_0_Map.csv,0.264606,0.937484,0.258044,0.540582,0.372941,0.000916,0.781233,0.000000,0.828520,0.167073,0.033938,0.573820,0.843903,1.000000,0.072027,0.000000
/home/daniel/Projects/ppsevolution/data/maps/custom_maps/Custom_6_Run_0_Map.csv,0.083318,0.839439,0.365693,0.481839,0.000000,0.000000,0.574982,2.000000,0.910088,0.000000,0.000000,0.509210,0.758871,0.860000,0.299113,0.000000
/home/daniel/Projects/ppsevolution/data/maps/custom_maps/Custom_6_Run_0_Map.csv,0.170496,0.775624,0.291535,0.554609,0.005984,0.228854,0.602930,2.000000,0.938251,0.226536,0.075630,0.514707,1.000000,0.815063,0.000000,0.000000
/home/daniel/Projects/ppsevolution/data/maps/custom_maps/Custom_6_Run_0_Map.csv,0.077781,0.769090,0.101648,0.646356,0.159559,0.033326,0.980010,2.000000,0.880835,0.000000,0.046191,0.511512,1.000000,1.000000,0.048758,0.000000
/home/daniel/Projects/ppsevolution/data/maps/custom_maps/Custom_6_Run_0_Map.csv,0.000000,1.000000,0.301034,0.530898,0.033733,0.183817,0.967131,0.000000,0.941193,0.082871,0.028659,0.484732,1.000000,0.958905,0.000000,0.000000
/home/daniel/Projects/ppsevolution/data/maps/custom_maps/Custom_6_Run_0_Map.csv,0.204576,0.991431,0.196910,0.598861,0.120919,0.000000,0.966038,2.000000,0.947622,0.282996,0.169600,0.429393,0.491708,0.988080,0.203938,2.000000
/home/daniel/Projects/ppsevolution/data/maps/custom_maps/Custom_6_Run_0_Map.csv,0.098889,0.953482,0.000000,0.656304,0.352034,0.258787,1.000000,2.000000,0.590314,0.274184,0.238386,0.376545,1.000000,0.762414,0.272966,2.000000
/home/daniel/Projects/ppsevolution/data/maps/custom_maps/Custom_6_Run_0_Map.csv,0.000000,1.000000,0.088067,0.693437,0.000000,0.000000,1.000000,0.000000,1.000000,0.024877,0.000000,0.522431,0.974125,0.985032,0.000000,2.000000
/home/daniel/Projects/ppsevolution/data/maps/custom_maps/Custom_7_Run_0_Map.csv,0.086206,1.000000,0.123543,0.420511,0.022297,0.292444,1.000000,0.000000,0.982721,0.134593,0.063494,0.114408,0.743680,1.000000,0.000000,2.000000
/home/daniel/Projects/ppsevolution/data/maps/custom_maps/Custom_7_Run_0_Map.csv,0.000000,1.000000,0.000000,0.497891,0.161052,0.059978,0.841738,2.000000,0.887049,0.000000,0.119298,0.000000,0.977470,0.868877,0.129737,0.000000
/home/daniel/Projects/ppsevolution/data/maps/custom_maps/Custom_7_Run_0_Map.csv,0.227620,1.000000,0.000000,0.515693,0.094143,0.056528,0.930718,1.000000,0.960411,0.380645,0.000000,0.223959,0.862510,0.801504,0.183086,0.000000
/home/daniel/Projects/ppsevolution/data/maps/custom_maps/Custom_7_Run_0_Map.csv,0.388401,0.647386,0.510881,0.000000,0.107149,0.225161,0.255885,0.000000,0.878583,0.174225,0.000000,0.253232,1.000000,0.698235,0.355431,1.000000
/home/daniel/Projects/ppsevolution/data/maps/custom_maps/Custom_7_Run_0_Map.csv,0.602557,0.441508,0.000000,0.496312,0.148832,0.014799,0.719541,1.000000,0.960686,0.249370,0.000000,0.356937,0.616269,0.903531,0.288982,1.000000
/home/daniel/Projects/ppsevolution/data/maps/custom_maps/Custom_7_Run_0_Map.csv,0.403103,1.000000,0.065480,0.380035,0.051375,0.000000,0.790857,1.000000,0.750400,0.134085,0.049460,0.273143,0.985147,0.937854,0.008728,2.000000
/home/daniel/Projects/ppsevolution/data/maps/custom_maps/Custom_7_Run_0_Map.csv,0.070960,0.624309,0.155618,0.278269,0.138234,0.000000,0.920574,1.000000,0.722497,0.000000,0.000000,0.164877,0.962893,0.712904,0.085483,1.000000
/home/daniel/Projects/ppsevolution/data/maps/custom_maps/Custom_7_Run_0_Map.csv,0.205472,0.812850,0.489103,0.000000,0.295173,0.120985,1.000000,2.000000,0.939912,0.355047,0.080954,0.000000,0.942207,0.721091,0.912531,0.000000
/home/daniel/Projects/ppsevolution/data/maps/custom_maps/Custom_7_Run_0_Map.csv,0.148823,1.000000,0.014942,0.447302,0.117425,0.121733,0.700320,1.000000,0.760727,0.000000,0.198936,0.003662,0.653504,0.768660,0.026969,1.000000
/home/daniel/Projects/ppsevolution/data/maps/custom_maps/Custom_7_Run_0_Map.csv,0.156922,1.000000,0.026580,0.513051,0.303181,0.299498,0.889091,2.000000,1.000000,0.754362,0.000000,0.159034,1.000000,0.989256,0.365480,2.000000
/home/daniel/Projects/ppsevolution/data/maps/custom_maps/Custom_8_Run_0_Map.csv,0.307946,0.732098,0.000000,0.403289,0.153242,0.048044,0.241435,2.000000,0.985156,0.000000,0.028586,0.008214,0.878533,0.453860,0.208741,0.000000
/home/daniel/Projects/ppsevolution/data/maps/custom_maps/Custom_8_Run_0_Map.csv,0.193776,0.668198,0.000000,0.323417,0.337717,0.233748,1.000000,0.000000,0.864098,0.061839,0.000000,0.000000,1.000000,0.853764,0.046143,1.000000
/home/daniel/Projects/ppsevolution/data/maps/custom_maps/Custom_8_Run_0_Map.csv,0.278940,0.861545,0.000000,0.362671,0.000000,0.167542,0.830005,2.000000,1.000000,0.266063,0.000000,0.000000,0.515468,1.000000,0.210042,2.000000
/home/daniel/Projects/ppsevolution/data/maps/custom_maps/Custom_8_Run_0_Map.csv,0.290872,0.597711,0.145635,0.207613,0.279479,0.000000,0.808720,1.000000,0.980861,0.000000,0.021044,0.000000,1.000000,1.000000,0.064616,2.000000
/home/daniel/Projects/ppsevolution/data/maps/custom_maps/Custom_8_Run_0_Map.csv,0.209745,0.714906,0.062304,0.306675,0.196392,0.008274,1.000000,0.000000,0.999950,0.281325,0.000000,0.000000,0.755025,0.438849,0.023816,1.000000
/home/daniel/Projects/ppsevolution/data/maps/custom_maps/Custom_8_Run_0_Map.csv,0.872311,1.000000,0.000000,0.361610,0.104216,0.131774,0.736298,1.000000,1.000000,0.068437,0.186084,0.140133,1.000000,1.000000,0.000000,0.000000
/home/daniel/Projects/ppsevolution/data/maps/custom_maps/Custom_8_Run_0_Map.csv,0.274849,0.941282,0.147619,0.095136,0.428382,0.243057,0.503504,0.000000,0.629421,0.107171,0.015946,0.000000,0.999670,0.869350,0.270540,2.000000
/home/daniel/Projects/ppsevolution/data/maps/custom_maps/Custom_8_Run_0_Map.csv,0.184334,0.832135,0.000000,0.316138,0.179876,0.095877,0.695848,0.000000,0.771851,0.299299,0.012060,0.000000,1.000000,1.000000,0.000000,2.000000
/home/daniel/Projects/ppsevolution/data/maps/custom_maps/Custom_8_Run_0_Map.csv,0.396761,0.907988,0.109943,0.202388,0.163511,0.375679,0.714143,2.000000,0.865354,0.027181,0.018016,0.074900,0.952310,0.574492,0.041049,0.000000
/home/daniel/Projects/ppsevolution/data/maps/custom_maps/Custom_8_Run_0_Map.csv,0.280572,0.912504,0.000000,0.356320,0.365574,0.000000,0.553455,1.000000,0.900241,0.000000,0.000000,0.000000,0.393685,0.527718,0.466958,0.000000
/home/daniel/Projects/ppsevolution/data/maps/custom_maps/Custom_9_Run_0_Map.csv,0.848995,0.927798,0.026211,0.091590,0.248207,0.000000,0.518537,2.000000,0.828235,0.209105,0.042081,0.138096,0.835821,0.370408,0.034496,0.000000
/home/daniel/Projects/ppsevolution/data/maps/custom_maps/Custom_9_Run_0_Map.csv,0.598569,1.000000,0.000000,0.174340,0.011559,0.485003,0.963881,2.000000,1.000000,0.362370,0.000000,0.031458,0.913436,0.627412,0.096926,1.000000
/home/daniel/Projects/ppsevolution/data/maps/custom_maps/Custom_9_Run_0_Map.csv,0.514586,0.679418,0.049576,0.099316,0.096520,0.000000,0.950994,1.000000,0.952623,0.022516,0.000000,0.000000,0.787001,0.919943,0.103855,1.000000
/home/daniel/Projects/ppsevolution/data/maps/custom_maps/Custom_9_Run_0_Map.csv,0.654574,0.707441,0.000000,0.104821,0.236136,0.275665,0.984487,1.000000,0.843204,0.269661,0.057289,0.000000,1.000000,0.598048,0.135149,0.000000
/home/daniel/Projects/ppsevolution/data/maps/custom_maps/Custom_9_Run_0_Map.csv,0.546571,1.000000,0.000000,0.158296,0.279904,0.159128,0.658423,0.000000,0.875505,0.056334,0.000000,0.000000,0.706892,0.820518,0.274607,1.000000
/home/daniel/Projects/ppsevolution/data/maps/custom_maps/Custom_9_Run_0_Map.csv,0.496237,0.483554,0.000000,0.026703,0.588820,0.418500,0.990838,2.000000,0.676277,0.022702,0.000000,0.000000,0.990573,0.917656,0.132589,0.000000
/home/daniel/Projects/ppsevolution/data/maps/custom_maps/Custom_9_Run_0_Map.csv,0.590899,1.000000,0.000000,0.146997,0.675412,0.020681,0.886297,0.000000,0.903525,0.000000,0.022261,0.000000,0.856654,0.833549,0.195909,2.000000
/home/daniel/Projects/ppsevolution/data/maps/custom_maps/Custom_9_Run_0_Map.csv,0.544743,0.773045,0.109043,0.114850,0.373178,0.070176,0.161574,2.000000,0.975773,0.246317,0.000000,0.000000,1.000000,0.958077,0.115340,0.000000
/home/daniel/Projects/ppsevolution/data/maps/custom_maps/Custom_9_Run_0_Map.csv,0.867729,0.697129,0.090288,0.002229,0.184801,0.203573,0.704940,0.000000,0.800819,0.444756,0.144327,0.000000,0.649016,1.000000,0.175545,0.000000
/home/daniel/Projects/ppsevolution/data/maps/custom_maps/Custom_9_Run_0_Map.csv,0.550991,1.000000,0.000000,0.133471,0.102003,0.253692,0.890919,1.000000,0.858030,0.018581,0.000000,0.001532,1.000000,0.986587,0.275031,2.000000
/home/daniel/Projects/ppsevolution/data/maps/custom_maps/Custom_10_Run_0_Map.csv,0.345144,0.710760,0.041678,0.363520,0.143296,0.543122,0.963136,1.000000,0.838843,0.465556,0.107504,0.104354,1.000000,0.744777,0.000000,0.000000
/home/daniel/Projects/ppsevolution/data/maps/custom_maps/Custom_10_Run_0_Map.csv,0.000000,1.000000,0.000000,0.480713,0.312278,0.370229,0.890200,0.000000,0.980524,0.080900,0.065954,0.000000,0.803902,0.934407,0.000000,0.000000
/home/daniel/Projects/ppsevolution/data/maps/custom_maps/Custom_10_Run_0_Map.csv,0.326710,0.940423,0.009974,0.417790,0.000000,0.000000,0.971139,0.000000,0.887757,0.077427,0.000000,0.232394,0.703519,0.888009,0.000000,2.000000
/home/daniel/Projects/ppsevolution/data/maps/custom_maps/Custom_10_Run_0_Map.csv,0.252773,1.000000,0.000000,0.398929,0.617508,0.351282,0.973199,1.000000,0.841537,0.000000,0.080013,0.090822,0.776222,0.342232,0.068292,0.000000
/home/daniel/Projects/ppsevolution/data/maps/custom_maps/Custom_10_Run_0_Map.csv,0.313843,0.936742,0.269527,0.207277,0.352270,0.000000,0.680895,1.000000,1.000000,0.000000,0.117064,0.070734,0.659737,0.900747,0.000000,0.000000
/home/daniel/Projects/ppsevolution/data/maps/custom_maps/Custom_10_Run_0_Map.csv,0.101069,0.971735,0.174334,0.294429,0.107977,0.142331,0.804567,1.000000,0.962675,0.010491,0.082324,0.000000,0.916354,0.926825,0.000000,2.000000
/home/daniel/Projects/ppsevolution/data/maps/custom_maps/Custom_10_Run_0_Map.csv,0.204617,0.899001,0.200956,0.093853,0.259221,0.218395,0.669203,1.000000,0.498797,0.000000,0.000631,0.173149,1.000000,0.781188,0.190049,2.000000
/home/daniel/Projects/ppsevolution/data/maps/custom_maps/Custom_10_Run_0_Map.csv,0.340463,0.603292,0.070344,0.340471,0.264387,0.053687,0.988688,1.000000,0.871920,0.179661,0.142749,0.000000,0.905373,0.620595,0.385574,1.000000
/home/daniel/Projects/ppsevolution/data/maps/custom_maps/Custom_10_Run_0_Map.csv,0.137562,1.000000,0.000000,0.411328,0.384044,0.152983,1.000000,0.000000,0.795470,0.133158,0.083453,0.061470,1.000000,0.914144,0.017488,1.000000
/home/daniel/Projects/ppsevolution/data/maps/custom_maps/Custom_10_Run_0_Map.csv,0.487557,0.553872,0.073750,0.355828,0.188298,0.308370,1.000000,1.000000,0.961548,0.217713,0.093038,0.166917,0.899495,0.923463,0.056138,1.000000
