/home/daniel/Projects/ppsevolution/data/maps/custom_maps/Custom_1_Run_0_Map.csv,1.000000,0.712836,0.000000,0.027939,0.000000,0.000000,0.438061,1.000000,1.000000,0.333527,0.086195,0.000000,0.994326,0.817302,0.000000,2.000000
/home/daniel/Projects/ppsevolution/data/maps/custom_maps/Custom_1_Run_0_Map.csv,0.904717,0.943964,0.000000,0.000000,0.442498,0.249359,0.832269,0.000000,0.997642,0.401280,0.000000,0.033490,0.961487,0.611340,0.191231,2.000000
/home/daniel/Projects/ppsevolution/data/maps/custom_maps/Custom_1_Run_0_Map.csv,0.890596,1.000000,0.000000,0.000000,0.028206,0.382415,0.457773,0.000000,0.978879,0.000000,0.025616,0.000000,0.351252,0.674943,0.113808,0.000000
/home/daniel/Projects/ppsevolution/data/maps/custom_maps/Custom_1_Run_0_Map.csv,0.908031,0.662725,0.000000,0.000000,0.463502,0.000000,0.642053,0.000000,1.000000,0.546917,0.000000,0.053841,0.700051,0.000000,0.003440,1.000000
/home/daniel/Projects/ppsevolution/data/maps/custom_maps/Custom_1_Run_0_Map.csv,0.824528,0.959437,0.000000,0.000000,0.000000,0.071677,0.769391,1.000000,1.000000,0.112775,0.013408,0.000000,0.795117,1.000000,0.055485,1.000000
/home/daniel/Projects/ppsevolution/data/maps/custom_maps/Custom_1_Run_0_Map.csv,0.938705,0.642614,0.000000,0.000000,0.286361,0.236412,0.604144,2.000000,1.000000,0.176791,0.023808,0.000000,0.700751,0.890959,0.284379,2.000000
/home/daniel/Projects/ppsevolution/data/maps/custom_maps/Custom_1_Run_0_Map.csv,0.892891,0.631950,0.000000,0.000000,0.000000,0.172532,0.602361,0.000000,0.961806,0.293852,0.014493,0.029185,0.984553,0.103430,0.071488,0.000000
/home/daniel/Projects/ppsevolution/data/maps/custom_maps/Custom_1_Run_0_Map.csv,0.934141,0.705212,0.000000,0.000000,0.747874,0.617599,0.231489,0.000000,0.923879,0.411022,0.030516,0.000000,0.642117,0.775807,0.199803,1.000000
/home/daniel/Projects/ppsevolution/data/maps/custom_maps/Custom_1_Run_0_Map.csv,0.908319,0.490213,0.000000,0.000000,0.072099,0.000000,0.874597,0.000000,1.000000,0.335830,0.000000,0.011713,1.000000,1.000000,0.372154,2.000000
/home/daniel/Projects/ppsevolution/data/maps/custom_maps/Custom_1_Run_0_Map.csv,0.875575,0.655858,0.000000,0.000000,0.238326,0.069124,0.794844,1.000000,1.000000,0.358247,0.007035,0.000000,0.907672,0.871862,0.259915,0.000000
/home/daniel/Projects/ppsevolution/data/maps/custom_maps/Custom_2_Run_0_Map.csv,0.098388,0.792344,0.000000,0.539805,0.265366,0.411621,1.000000,2.000000,0.955813,0.092095,0.082314,0.109836,0.730090,0.869304,0.000000,1.000000
/home/daniel/Projects/ppsevolution/data/maps/custom_maps/Custom_2_Run_0_Map.csv,0.170525,0.979394,0.105037,0.480505,0.109462,0.514295,0.787255,1.000000,1.000000,0.478119,0.024103,0.179920,0.715746,0.419545,0.103580,2.000000
/home/daniel/Projects/ppsevolution/data/maps/custom_maps/Custom_2_Run_0_Map.csv,0.440396,0.947332,0.003594,0.522150,0.000000,0.000000,0.873524,0.000000,0.900262,0.267745,0.000000,0.306498,1.000000,1.000000,0.380766,0.000000
/home/daniel/Projects/ppsevolution/data/maps/custom_maps/Custom_2_Run_0_Map.csv,0.541782,0.644236,0.027813,0.555228,0.272140,0.486402,0.324318,1.000000,1.000000,0.069075,0.141573,0.245946,1.000000,0.926149,0.134741,1.000000
/home/daniel/Projects/ppsevolution/data/maps/custom_maps/Custom_2_Run_0_Map.csv,0.000000,0.916926,0.095623,0.494088,0.514749,0.000000,0.688124,2.000000,0.947692,0.000000,0.026963,0.083571,1.000000,0.814304,0.427407,2.000000
/home/daniel/Projects/ppsevolution/data/maps/custom_maps/Custom_2_Run_0_Map.csv,0.156107,0.152733,0.223462,0.303257,0.000000,0.692589,0.953024,1.000000,0.897719,0.103354,0.000000,0.194726,0.936029,0.673595,0.080235,2.000000
/home/daniel/Projects/ppsevolution/data/maps/custom_maps/Custom_2_Run_0_Map.csv,0.030426,0.821994,0.048229,0.337415,0.252085,0.000000,0.959569,0.000000,0.511018,0.242827,0.000000,0.152608,0.270089,1.000000,0.158087,2.000000
/home/daniel/Projects/ppsevolution/data/maps/custom_maps/Custom_2_Run_0_Map.csv,0.152621,0.740218,0.000000,0.440117,0.444197,0.221364,0.919757,2.000000,0.701209,0.149255,0.127230,0.075202,0.427479,0.786495,0.000000,0.000000
/home/daniel/Projects/ppsevolution/data/maps/custom_maps/Custom_2_Run_0_Map.csv,0.181660,0.707485,0.018713,0.547885,0.435050,0.053277,0.893845,1.000000,1.000000,0.073892,0.073928,0.165343,1.000000,1.000000,0.000000,0.000000
/home/daniel/Projects/ppsevolution/data/maps/custom_maps/Custom_2_Run_0_Map.csv,0.000000,0.763445,0.000000,0.554866,0.064013,0.514911,0.996776,1.000000,0.973805,0.101573,0.000000,0.128790,0.988209,0.805100,0.085204,1.000000
/home/daniel/Projects/ppsevolution/data/maps/custom_maps/Custom_3_Run_0_Map.csv,0.313395,1.000000,0.126775,0.509383,0.000000,0.085402,0.983100,2.000000,1.000000,0.017584,0.262341,0.120068,0.945272,1.000000,0.313862,1.000000
/home/daniel/Projects/ppsevolution/data/maps/custom_maps/Custom_3_Run_0_Map.csv,0.126326,1.000000,0.214078,0.409746,0.258038,0.354897,0.754374,2.000000,0.863764,0.000000,0.004183,0.321644,0.691788,0.598959,0.103832,1.000000
/home/daniel/Projects/ppsevolution/data/maps/custom_maps/Custom_3_Run_0_Map.csv,0.000000,1.000000,0.300714,0.296571,0.117731,0.093091,0.888123,0.000000,0.731401,0.157017,0.034893,0.274618,0.525166,0.847164,0.000000,0.000000
/home/daniel/Projects/ppsevolution/data/maps/custom_maps/Custom_3_Run_0_Map.csv,0.121136,1.000000,0.000000,0.518509,0.600848,0.233443,0.657439,1.000000,0.557643,0.120086,0.054342,0.328617,0.654997,0.909839,0.000000,0.000000
/home/daniel/Projects/ppsevolution/data/maps/custom_maps/Custom_3_Run_0_Map.csv,0.040983,0.876504,0.042044,0.590590,0.067630,0.215346,0.875659,2.000000,1.000000,0.151136,0.000000,0.248036,0.620829,0.704975,0.427814,0.000000
/home/daniel/Projects/ppsevolution/data/maps/custom_maps/Custom_3_Run_0_Map.csv,0.125103,0.795468,0.429248,0.158858,0.000000,0.258574,0.945214,1.000000,0.818855,0.000000,0.000000,0.315437,1.000000,1.000000,0.231766,2.000000
/home/daniel/Projects/ppsevolution/data/maps/custom_maps/Custom_3_Run_0_Map.csv,0.110873,0.868529,0.212569,0.462209,0.000000,0.166997,0.927509,0.000000,0.966014,0.471508,0.000000,0.324516,1.000000,0.808606,0.115376,2.000000
/home/daniel/Projects/ppsevolution/data/maps/custom_maps/Custom_3_Run_0_Map.csv,0.282696,1.000000,0.076240,0.562452,0.000000,0.204316,1.000000,2.000000,1.000000,0.532942,0.091662,0.326111,1.000000,0.900844,0.000000,1.000000
/home/daniel/Projects/ppsevolution/data/maps/custom_maps/Custom_3_Run_0_Map.csv,0.004412,1.000000,0.069662,0.575315,0.166732,0.092853,0.643523,2.000000,0.894069,0.470831,0.000000,0.308622,0.930743,0.847423,0.001922,1.000000
/home/daniel/Projects/ppsevolution/data/maps/custom_maps/Custom_3_Run_0_Map.csv,0.061504,0.961433,0.509969,0.075857,0.353702,0.000000,1.000000,0.000000,0.775968,0.051115,0.000000,0.311786,1.000000,0.796226,0.122773,2.000000
/home/daniel/Projects/ppsevolution/data/maps/custom_maps/Custom_4_Run_0_Map.csv,0.498063,0.778853,0.194153,0.067064,0.004520,0.335280,1.000000,1.000000,1.000000,0.000000,0.000000,0.005899,1.000000,0.951985,0.023134,2.000000
/home/daniel/Projects/ppsevolution/data/maps/custom_maps/Custom_4_Run_0_Map.csv,0.680254,0.917263,0.245885,0.000000,0.038776,0.216918,1.000000,0.000000,1.000000,0.401935,0.024403,0.035351,0.835449,0.526096,0.179216,1.000000
/home/daniel/Projects/ppsevolution/data/maps/custom_maps/Custom_4_Run_0_Map.csv,0.685023,0.681914,0.083029,0.174647,0.000000,0.276749,1.000000,0.000000,0.981360,0.235128,0.031886,0.038856,0.896786,0.715148,0.232949,2.000000
/home/daniel/Projects/ppsevolution/data/maps/custom_maps/Custom_4_Run_0_Map.csv,0.671467,0.869769,0.054782,0.012251,0.000000,0.553593,0.651910,2.000000,0.461236,0.050532,0.028263,0.103977,1.000000,0.871188,0.000000,2.000000
/home/daniel/Projects/ppsevolution/data/maps/custom_maps/Custom_4_Run_0_Map.csv,0.664093,0.962055,0.066205,0.186524,0.029833,0.329134,1.000000,1.000000,1.000000,0.000000,0.000000,0.063689,0.391952,0.724040,0.258539,2.000000
/home/daniel/Projects/ppsevolution/data/maps/custom_maps/Custom_4_Run_0_Map.csv,0.500131,0.989036,0.000000,0.182961,0.239642,0.137873,0.957334,1.000000,0.721072,0.370607,0.000000,0.010647,1.000000,0.776940,0.266997,0.000000
/home/daniel/Projects/ppsevolution/data/maps/custom_maps/Custom_4_Run_0_Map.csv,0.421941,0.858917,0.141726,0.000000,0.317858,0.124443,0.961347,0.000000,0.682863,0.211239,0.000000,0.000000,1.000000,0.791944,0.038717,0.000000
/home/daniel/Projects/ppsevolution/data/maps/custom_maps/Custom_4_Run_0_Map.csv,0.526154,1.000000,0.006511,0.173723,0.000000,0.129434,1.000000,0.000000,0.749850,0.100710,0.008649,0.000000,0.578197,0.741834,0.375366,0.000000
/home/daniel/Projects/ppsevolution/data/maps/custom_maps/Custom_4_Run_0_Map.csv,0.675776,0.891835,0.000000,0.198984,0.514559,0.475375,0.679832,1.000000,0.757899,0.081097,0.000000,0.083461,0.552528,1.000000,0.391409,0.000000
/home/daniel/Projects/ppsevolution/data/maps/custom_maps/Custom_4_Run_0_Map.csv,0.445976,0.923758,0.011685,0.250130,0.319113,0.197735,0.978151,1.000000,0.916025,0.434767,0.000000,0.000000,0.982120,1.000000,0.000000,0.000000
/home/daniel/Projects/ppsevolution/data/maps/custom_maps/Custom_5_Run_0_Map.csv,0.091388,0.959552,0.073062,0.189988,0.000000,0.270031,0.675865,0.000000,0.470319,0.397225,0.066206,0.000000,0.905229,0.276528,0.000000,2.000000
/home/daniel/Projects/ppsevolution/data/maps/custom_maps/Custom_5_Run_0_Map.csv,0.021586,0.787511,0.226342,0.092010,0.070598,0.000000,0.985448,2.000000,0.751236,0.000000,0.000000,0.012724,0.877510,0.880688,0.062943,0.000000
/home/daniel/Projects/ppsevolution/data/maps/custom_maps/Custom_5_Run_0_Map.csv,0.445345,0.948486,0.103594,0.316886,0.573075,0.000000,1.000000,1.000000,1.000000,0.038678,0.061075,0.144236,0.835277,0.989727,0.046897,2.000000
/home/daniel/Projects/ppsevolution/data/maps/custom_maps/Custom_5_Run_0_Map.csv,0.130108,1.000000,0.122654,0.345043,0.000000,0.267605,0.550867,2.000000,1.000000,0.300124,0.045091,0.000000,0.560377,1.000000,0.056997,1.000000
/home/daniel/Projects/ppsevolution/data/maps/custom_maps/Custom_5_Run_0_Map.csv,0.239552,0.660833,0.189131,0.000000,0.000000,0.033651,1.000000,1.000000,0.520742,0.039876,0.000000,0.098978,0.741498,0.850828,0.298749,2.000000
/home/daniel/Projects/ppsevolution/data/maps/custom_maps/Custom_5_Run_0_Map.csv,0.054156,0.919707,0.000000,0.368220,0.290529,0.288713,1.000000,0.000000,0.754179,0.018079,0.000000,0.008815,0.858122,0.954342,0.405750,0.000000
/home/daniel/Projects/ppsevolution/data/maps/custom_maps/Custom_5_Run_0_Map.csv,0.287210,0.613164,0.077097,0.283786,0.007259,0.000000,1.000000,2.000000,0.841415,0.326934,0.000000,0.113193,0.888213,0.759953,0.204256,1.000000
/home/daniel/Projects/ppsevolution/data/maps/custom_maps/Custom_5_Run_0_Map.csv,0.457469,0.871521,0.000000,0.435846,0.154760,0.143912,0.700519,0.000000,0.935023,0.028720,0.213543,0.006664,0.983700,0.933576,0.104617,1.000000
/home/daniel/Projects/ppsevolution/data/maps/custom_maps/Custom_5_Run_0_Map.csv,0.348409,0.750687,0.163561,0.130247,0.000000,0.249988,0.319139,1.000000,0.579465,0.220727,0.000000,0.195028,0.773480,0.062345,0.000000,1.000000
/home/daniel/Projects/ppsevolution/data/maps/custom_maps/Custom_5_Run_0_Map.csv,0.385360,1.000000,0.005517,0.445811,0.223825,0.043560,0.666257,0.000000,1.000000,0.196308,0.040468,0.151124,0.729639,0.930842,0.000000,2.000000
/home/daniel/Projects/ppsevolution/data/maps/custom_maps/Custom_6_Run_0_Map.csv,0.000000,1.000000,0.236604,0.496348,0.000000,0.375101,0.933301,2.000000,0.721907,0.096786,0.030129,0.475835,0.945338,0.851898,0.074049,0.000000
/home/daniel/Projects/ppsevolution/data/maps/custom_maps/Custom_6_Run_0_Map.csv,0.000000,1.000000,0.118936,0.651349,0.208687,0.143953,0.885602,0.000000,0.802594,0.000000,0.123195,0.446312,0.968108,1.000000,0.089407,0.000000
/home/daniel/Projects/ppsevolution/data/maps/custom_maps/Custom_6_Run_0_Map.csv,0.101757,0.855787,0.044892,0.725317,0.130747,0.411833,0.854265,0.000000,1.000000,0.262857,0.145700,0.438765,1.000000,0.940442,0.222127,1.000000
/home/daniel/Projects/ppsevolution/data/maps/custom_maps/Custom_6_Run_0_Map.csv,0.323181,0.618335,0.226131,0.579424,0.280220,0.251235,0.669858,1.000000,0.850060,0.000000,0.226385,0.463884,1.000000,0.949914,0.043516,2.000000
/home/daniel/Projects/ppsevolution/data/maps/custom_maps/Custom_6_Run_0_Map.csv,0.016865,0.915039,0.046747,0.701599,0.068657,0.051475,1.000000,0.000000,0.812410,0.229471,0.279439,0.347538,0.712990,0.939561,0.106910,0.000000
/home/daniel/Projects/ppsevolution/data/maps/custom_maps/Custom_6_Run_0_Map.csv,0.107788,0.672677,0.405677,0.427397,0.283533,0.410528,0.534023,0.000000,0.754851,0.000000,0.229970,0.385324,0.903320,0.737558,0.000000,0.000000
/home/daniel/Projects/ppsevolution/data/maps/custom_maps/Custom_6_Run_0_Map.csv,0.000000,0.865212,0.307855,0.540225,0.167194,0.187239,1.000000,2.000000,1.000000,0.000000,0.111195,0.410557,0.734558,0.923127,0.170950,0.000000
/home/daniel/Projects/ppsevolution/data/maps/custom_maps/Custom_6_Run_0_Map.csv,0.140303,0.958476,0.272197,0.520114,0.113394,0.521130,0.715888,0.000000,0.788910,0.020134,0.000000,0.561110,0.929279,0.890298,0.000000,1.000000
/home/daniel/Projects/ppsevolution/data/maps/custom_maps/Custom_6_Run_0_Map.csv,0.331762,0.907434,0.000000,0.713098,0.000000,0.034903,0.897251,2.000000,1.000000,0.125796,0.000000,0.604172,0.877709,0.998784,0.000000,1.000000
/home/daniel/Projects/ppsevolution/data/maps/custom_maps/Custom_6_Run_0_Map.csv,0.000000,0.948827,0.353039,0.478930,0.202220,0.000000,0.728576,0.000000,0.772683,0.039291,0.191801,0.363716,0.698443,0.970470,0.244992,2.000000
/home/daniel/Projects/ppsevolution/data/maps/custom_maps/Custom_7_Run_0_Map.csv,0.157311,0.763062,0.119793,0.411846,0.401220,0.016723,0.990752,0.000000,0.983712,0.281607,0.000000,0.182083,0.911474,0.922000,0.152542,1.000000
/home/daniel/Projects/ppsevolution/data/maps/custom_maps/Custom_7_Run_0_Map.csv,0.102552,1.000000,0.000000,0.537460,0.000000,0.250963,1.000000,0.000000,1.000000,0.000000,0.156360,0.002370,1.000000,1.000000,0.222236,2.000000
/home/daniel/Projects/ppsevolution/data/maps/custom_maps/Custom_7_Run_0_Map.csv,0.000000,0.763062,0.229762,0.297548,0.120503,0.222700,0.807648,0.000000,0.885523,0.138298,0.028689,0.101862,0.404803,0.636175,0.000000,2.000000
/home/daniel/Projects/ppsevolution/data/maps/custom_maps/Custom_7_Run_0_Map.csv,0.140860,1.000000,0.251246,0.293618,0.000000,0.032911,0.912316,2.000000,1.000000,0.157543,0.008003,0.164544,0.863462,1.000000,0.147948,1.000000
/home/daniel/Projects/ppsevolution/data/maps/custom_maps/Custom_7_Run_0_Map.csv,0.394423,0.787410,0.402807,0.077836,0.182706,0.049915,1.000000,0.000000,0.961435,0.177625,0.026328,0.240721,0.831080,0.919638,0.308157,1.000000
/home/daniel/Projects/ppsevolution/data/maps/custom_maps/Custom_7_Run_0_Map.csv,0.383508,1.000000,0.000000,0.521153,0.119636,0.000000,0.799073,2.000000,1.000000,0.752570,0.000000,0.261077,0.813223,0.516432,0.322213,1.000000
/home/daniel/Projects/ppsevolution/data/maps/custom_maps/Custom_7_Run_0_Map.csv,0.000000,0.948232,0.197239,0.375799,0.000000,0.000000,0.845385,1.000000,1.000000,0.434434,0.112457,0.000000,1.000000,0.375117,0.091342,1.000000
/home/daniel/Projects/ppsevolution/data/maps/custom_maps/Custom_7_Run_0_Map.csv,0.000000,0.967412,0.000000,0.526904,0.126458,0.270328,0.947770,1.000000,1.000000,0.423478,0.109811,0.000000,0.948179,0.893534,0.070604,1.000000
/home/daniel/Projects/ppsevolution/data/maps/custom_maps/Custom_7_Run_0_Map.csv,0.038270,0.798248,0.285679,0.149569,0.000000,0.000000,0.866385,2.000000,0.705981,0.057211,0.076720,0.069039,0.982101,0.962851,0.044040,2.000000
/home/daniel/Projects/ppsevolution/data/maps/custom_maps/Custom_7_Run_0_Map.csv,0.216734,0.798395,0.386106,0.067455,0.229303,0.489831,0.836386,2.000000,0.831381,0.197515,0.040710,0.146196,1.000000,0.836401,0.121896,1.000000
/home/daniel/Projects/ppsevolution/data/maps/custom_maps/Custom_8_Run_0_Map.csv,0.256562,0.741448,0.000000,0.297488,0.146991,0.033683,1.000000,0.000000,0.810265,0.009105,0.000000,0.000000,0.923513,1.000000,0.351368,1.000000
/home/daniel/Projects/ppsevolution/data/maps/custom_maps/Custom_8_Run_0_Map.csv,0.293743,0.987148,0.000000,0.264380,0.232967,0.548450,1.000000,0.000000,0.765916,0.238742,0.000000,0.000000,0.558494,0.747220,0.349919,2.000000
/home/daniel/Projects/ppsevolution/data/maps/custom_maps/Custom_8_Run_0_Map.csv,0.268780,0.774936,0.066346,0.340484,0.098642,0.492296,0.451487,0.000000,1.000000,0.153424,0.024693,0.000000,0.780803,1.000000,0.110066,1.000000
/home/daniel/Projects/ppsevolution/data/maps/custom_maps/Custom_8_Run_0_Map.csv,0.409863,0.689725,0.000000,0.312605,0.321063,0.210955,0.529233,0.000000,0.780076,0.000000,0.093140,0.000000,0.705141,0.675974,0.148419,0.000000
/home/daniel/Projects/ppsevolution/data/maps/custom_maps/Custom_8_Run_0_Map.csv,0.226585,0.674228,0.000000,0.341435,0.393640,0.060601,0.931132,1.000000,0.938801,0.000000,0.000000,0.000000,0.713525,1.000000,0.137848,0.000000
/home/daniel/Projects/ppsevolution/data/maps/custom_maps/Custom_8_Run_0_Map.csv,0.516229,0.913737,0.000000,0.225899,0.000000,0.038313,0.832348,1.000000,0.668721,0.000000,0.050906,0.085208,1.000000,1.000000,0.265786,2.000000
/home/daniel/Projects/ppsevolution/data/maps/custom_maps/Custom_8_Run_0_Map.csv,0.388280,0.941506,0.073121,0.268371,0.201689,0.241929,0.861290,2.000000,0.966340,0.205457,0.000000,0.065736,1.000000,0.546675,0.142890,0.000000
/home/daniel/Projects/ppsevolution/data/maps/custom_maps/Custom_8_Run_0_Map.csv,0.344845,0.422956,0.000000,0.253255,0.398391,0.000000,1.000000,0.000000,0.725176,0.509668,0.064712,0.000000,0.865567,1.000000,0.000000,1.000000
/home/daniel/Projects/ppsevolution/data/maps/custom_maps/Custom_8_Run_0_Map.csv,0.566893,0.903539,0.020622,0.320625,0.000000,0.211742,1.000000,1.000000,0.998303,0.401872,0.116177,0.009419,0.729624,0.714524,0.255418,0.000000
/home/daniel/Projects/ppsevolution/data/maps/custom_maps/Custom_8_Run_0_Map.csv,0.140823,0.868683,0.000000,0.412378,0.044931,0.209105,0.591839,0.000000,1.000000,0.328167,0.000000,0.000000,0.846759,0.837190,0.000000,1.000000
/home/daniel/Projects/ppsevolution/data/maps/custom_maps/Custom_9_Run_0_Map.csv,0.623125,0.620856,0.085449,0.000000,0.207596,0.000000,0.940037,0.000000,0.806145,0.129169,0.069979,0.000000,1.000000,0.637684,0.000000,1.000000
/home/daniel/Projects/ppsevolution/data/maps/custom_maps/Custom_9_Run_0_Map.csv,0.537268,0.468576,0.091063,0.092003,0.000000,0.422992,0.618923,2.000000,1.000000,0.205002,0.000000,0.000000,0.925915,0.968229,0.000000,1.000000
/home/daniel/Projects/ppsevolution/data/maps/custom_maps/Custom_9_Run_0_Map.csv,0.894501,0.866500,0.026736,0.116342,0.745483,0.000000,0.997490,1.000000,1.000000,0.704480,0.100631,0.039707,0.485612,0.363662,0.184530,1.000000
/home/daniel/Projects/ppsevolution/data/maps/custom_maps/Custom_9_Run_0_Map.csv,0.500615,0.912432,0.087443,0.075856,0.211705,0.000000,0.660550,0.000000,0.914544,0.000000,0.000000,0.007349,1.000000,0.179085,0.081077,2.000000
/home/daniel/Projects/ppsevolution/data/maps/custom_maps/Custom_9_Run_0_Map.csv,0.588620,0.972357,0.000000,0.176052,0.551916,0.174734,0.652063,2.000000,0.969302,0.000000,0.032316,0.000000,0.725275,0.595255,0.000000,2.000000
/home/daniel/Projects/ppsevolution/data/maps/custom_maps/Custom_9_Run_0_Map.csv,0.608723,0.984774,0.088229,0.000000,0.369112,0.022558,0.576166,2.000000,0.767837,0.000000,0.045176,0.000000,0.976422,0.960280,0.184506,0.000000
/home/daniel/Projects/ppsevolution/data/maps/custom_maps/Custom_9_Run_0_Map.csv,0.547306,0.932533,0.088249,0.000000,0.065741,0.000000,1.000000,0.000000,0.837940,0.307900,0.000000,0.000000,0.256533,1.000000,0.303756,1.000000
/home/daniel/Projects/ppsevolution/data/maps/custom_maps/Custom_9_Run_0_Map.csv,0.506531,0.774701,0.012120,0.063043,0.285260,0.396360,0.514407,2.000000,0.674398,0.555605,0.000000,0.000000,1.000000,0.540660,0.089965,2.000000
/home/daniel/Projects/ppsevolution/data/maps/custom_maps/Custom_9_Run_0_Map.csv,0.511585,0.629834,0.042162,0.076175,0.000000,0.028743,0.833231,1.000000,0.834775,0.352332,0.000000,0.000000,0.666485,1.000000,0.132935,1.000000
/home/daniel/Projects/ppsevolution/data/maps/custom_maps/Custom_9_Run_0_Map.csv,0.564198,0.928548,0.000000,0.189187,0.367599,0.076314,0.658619,2.000000,0.975810,0.000000,0.000000,0.033772,1.000000,0.685182,0.025613,2.000000
/home/daniel/Projects/ppsevolution/data/maps/custom_maps/Custom_10_Run_0_Map.csv,0.384478,0.983657,0.117073,0.356242,0.264248,0.000000,1.000000,0.000000,1.000000,0.286504,0.077989,0.168846,0.822739,0.941589,0.000000,0.000000
/home/daniel/Projects/ppsevolution/data/maps/custom_maps/Custom_10_Run_0_Map.csv,0.000000,0.729658,0.396072,0.058396,0.035247,0.000000,0.630669,1.000000,0.935206,0.254047,0.011368,0.000000,0.532421,0.802635,0.137445,2.000000
/home/daniel/Projects/ppsevolution/data/maps/custom_maps/Custom_10_Run_0_Map.csv,0.118048,0.977308,0.000000,0.477705,0.031839,0.000000,0.481416,2.000000,0.927810,0.294254,0.000000,0.099530,0.728431,0.881913,0.215426,0.000000
/home/daniel/Projects/ppsevolution/data/maps/custom_maps/Custom_10_Run_0_Map.csv,0.341856,0.913989,0.180602,0.284351,0.993105,0.157382,1.000000,0.000000,0.991816,0.394949,0.000000,0.165533,1.000000,1.000000,0.413646,1.000000
/home/daniel/Projects/ppsevolution/data/maps/custom_maps/Custom_10_Run_0_Map.csv,0.374201,0.967790,0.042887,0.425154,0.000000,0.000000,0.982365,1.000000,1.000000,0.436969,0.108887,0.116434,0.960394,0.703108,0.063401,0.000000
/home/daniel/Projects/ppsevolution/data/maps/custom_maps/Custom_10_Run_0_Map.csv,0.000000,0.642063,0.205659,0.177742,0.254372,0.473182,0.879678,1.000000,0.765852,0.021384,0.000000,0.056906,0.767689,0.840691,0.000000,2.000000
/home/daniel/Projects/ppsevolution/data/maps/custom_maps/Custom_10_Run_0_Map.csv,0.188202,0.602314,0.087683,0.383192,0.000000,0.000000,1.000000,1.000000,1.000000,0.226125,0.000000,0.147723,0.992489,0.492360,0.019106,0.000000
/home/daniel/Projects/ppsevolution/data/maps/custom_maps/Custom_10_Run_0_Map.csv,0.000000,0.726994,0.000000,0.457713,0.151767,0.203134,1.000000,0.000000,0.958699,0.264324,0.000000,0.044070,0.420815,0.875879,0.061106,2.000000
/home/daniel/Projects/ppsevolution/data/maps/custom_maps/Custom_10_Run_0_Map.csv,0.121058,0.863466,0.000000,0.542737,0.044451,0.437113,0.106213,0.000000,0.996393,0.196288,0.000000,0.142545,0.779445,0.792285,0.032741,2.000000
/home/daniel/Projects/ppsevolution/data/maps/custom_maps/Custom_10_Run_0_Map.csv,0.295196,0.998389,0.211283,0.199190,0.857958,0.212514,0.000000,2.000000,0.665683,0.232699,0.165187,0.000000,0.777652,0.968733,0.106422,2.000000
