map,fitness,fitness value,team0ratio,time,HP,Speed,Damage,Acc,ClipSize,RateOfFire,NrBullets,Range,HP,Speed,Damage,Acc,ClipSize,RateOfFire,NrBullets,Range,HP,Speed,Damage,Acc,ClipSize,RateOfFire,NrBullets,Range,HP,Speed,Damage,Acc,ClipSize,RateOfFire,NrBullets,Range,Run,target team0ratio: 0.5,target time: 0.36
/home/daniel/Projects/ppsevolution/data/maps/custom_maps/Custom_1_Run_0_Map.csv,squared_error,5.206367819312044e-07,0.4995,0.3591,0.099680,0.754456,0.342419,0.587346,0.140023,0.000000,1.000000,0.000000,1.000000,0.209640,0.510981,0.247816,0.666405,0.968328,0.178226,0.000000,142.443956,1.192495,57.281087,0.587346,28.864564,0.500000,10.000000,0.000000,300.000000,0.887398,81.048300,0.247816,133.614508,9.699114,2.604032,0.000000,0
/home/daniel/Projects/ppsevolution/data/maps/custom_maps/Custom_1_Run_0_Map.csv,squared_error,1.0378499407927802e-06,0.5011,0.3609,0.284587,1.000000,0.000000,0.684763,0.464641,0.000000,0.730645,1.000000,0.597557,0.247227,0.341739,0.453436,0.763273,0.623336,0.000000,2.000000,174.802663,1.330000,9.000000,0.684763,93.463479,0.500000,7.575807,1.000000,229.572559,0.908447,57.185209,0.453436,152.891343,6.421697,1.000000,2.000000,1
/home/daniel/Projects/ppsevolution/data/maps/custom_maps/Custom_1_Run_0_Map.csv,squared_error,2.246932084975125e-06,0.5021,0.3598,0.397663,1.000000,0.286508,0.507520,0.000000,0.025135,0.862412,2.000000,0.652800,0.071555,0.416511,0.442030,0.796341,0.922080,0.000000,0.000000,194.591001,1.330000,49.397691,0.507520,1.000000,0.738782,8.761705,2.000000,239.239987,0.810071,67.728007,0.442030,159.471935,9.259761,1.000000,0.000000,2
/home/daniel/Projects/ppsevolution/data/maps/custom_maps/Custom_1_Run_0_Map.csv,squared_error,5.377856642598998e-06,0.5033,0.3599,0.193443,0.929434,0.196069,0.614030,0.154959,0.000000,1.000000,0.000000,0.752749,0.000000,0.147162,0.560940,1.000000,0.625783,0.032844,0.000000,158.852517,1.290483,36.645773,0.614030,31.836809,0.500000,10.000000,0.000000,256.731058,0.770000,29.749882,0.560940,200.000000,6.444934,1.295597,0.000000,3
/home/daniel/Projects/ppsevolution/data/maps/custom_maps/Custom_1_Run_0_Map.csv,squared_error,1.779198556304272e-05,0.4997,0.3540,0.000000,1.000000,0.083044,0.748679,0.000000,0.153658,1.000000,0.000000,1.000000,0.228119,0.152690,0.520603,1.000000,0.826814,0.000000,0.000000,125.000000,1.330000,20.709268,0.748679,1.000000,1.959747,10.000000,0.000000,300.000000,0.897747,30.529260,0.520603,200.000000,8.354730,1.000000,0.000000,4
/home/daniel/Projects/ppsevolution/data/maps/custom_maps/Custom_1_Run_0_Map.csv,squared_error,6.49411008783146e-06,0.5035,0.3591,0.022247,1.000000,0.502637,0.469794,0.156962,0.001172,0.940246,0.000000,0.978860,0.250909,0.534315,0.201626,1.000000,0.950146,0.000000,2.000000,128.893277,1.330000,79.871762,0.469794,32.235362,0.511138,9.462215,0.000000,296.300503,0.910509,84.338480,0.201626,200.000000,9.526388,1.000000,2.000000,5
/home/daniel/Projects/ppsevolution/data/maps/custom_maps/Custom_1_Run_0_Map.csv,squared_error,7.514909384158794e-06,0.4984,0.3565,0.215445,1.000000,0.086715,0.731771,0.000000,0.000000,0.906820,0.000000,1.000000,0.000000,0.123432,0.584753,1.000000,0.812637,0.000000,2.000000,162.702820,1.330000,21.226801,0.731771,1.000000,0.500000,9.161380,0.000000,300.000000,0.770000,26.403874,0.584753,200.000000,8.220056,1.000000,2.000000,6
/home/daniel/Projects/ppsevolution/data/maps/custom_maps/Custom_1_Run_0_Map.csv,squared_error,3.9623611440404794e-07,0.5009,0.3601,0.106540,0.760068,0.433500,0.489425,0.044225,0.000000,0.818863,0.000000,0.901664,0.149805,0.200041,0.463876,0.753296,1.000000,0.224180,2.000000,143.644462,1.195638,70.123430,0.489425,9.800728,0.500000,8.369770,0.000000,282.791214,0.853891,37.205736,0.463876,150.905979,10.000000,3.017622,2.000000,7
/home/daniel/Projects/ppsevolution/data/maps/custom_maps/Custom_1_Run_0_Map.csv,squared_error,1.2641644159425822e-05,0.4975,0.3557,0.080100,0.730521,0.567739,0.431663,0.432907,0.323964,0.932143,0.000000,1.000000,0.000000,0.445994,0.314888,1.000000,0.830410,0.020465,1.000000,139.017515,1.179092,89.051238,0.431663,87.148520,3.577661,9.389287,0.000000,300.000000,0.770000,71.885154,0.314888,200.000000,8.388896,1.184186,1.000000,8
/home/daniel/Projects/ppsevolution/data/maps/custom_maps/Custom_1_Run_0_Map.csv,squared_error,4.175613712533158e-07,0.5002,0.3591,0.228806,0.581356,0.279616,0.603403,0.347606,0.052085,1.000000,0.000000,0.927100,0.183215,0.000000,0.643872,0.964357,0.715113,0.000000,1.000000,165.041079,1.095560,48.425829,0.603403,70.173553,0.994806,10.000000,0.000000,287.242541,0.872600,9.000000,0.643872,192.907070,7.293576,1.000000,1.000000,9
map,fitness,fitness value,team0ratio,time,HP,Speed,Damage,Acc,ClipSize,RateOfFire,NrBullets,Range,HP,Speed,Damage,Acc,ClipSize,RateOfFire,NrBullets,Range,HP,Speed,Damage,Acc,ClipSize,RateOfFire,NrBullets,Range,HP,Speed,Damage,Acc,ClipSize,RateOfFire,NrBullets,Range,Run,target team0ratio: 0.5,target time: 0.36
/home/daniel/Projects/ppsevolution/data/maps/custom_maps/Custom_2_Run_0_Map.csv,squared_error,0.00043957911906648275,0.5015,0.3896,0.000000,1.000000,0.648837,1.000000,0.015025,0.000000,1.000000,2.000000,0.413373,0.514391,1.000000,1.000000,0.951715,0.781443,1.000000,2.000000,125.000000,1.330000,100.485955,1.000000,3.989939,0.500000,10.000000,2.000000,197.340244,1.058059,150.000000,1.000000,190.391302,7.923705,10.000000,2.000000,0
/home/daniel/Projects/ppsevolution/data/maps/custom_maps/Custom_2_Run_0_Map.csv,squared_error,0.0006127327847442883,0.4922,0.3941,0.136391,0.979233,0.624676,1.000000,0.072779,0.143289,0.961468,2.000000,0.866562,0.429648,1.000000,0.977231,1.000000,0.597196,0.799823,2.000000,148.868380,1.318371,97.079379,1.000000,15.482931,1.861241,9.653214,2.000000,276.648279,1.010603,150.000000,0.977231,200.000000,6.173364,8.198410,2.000000,1
/home/daniel/Projects/ppsevolution/data/maps/custom_maps/Custom_2_Run_0_Map.csv,squared_error,0.000667711215233165,0.4934,0.3959,0.000000,1.000000,0.571458,1.000000,0.027649,0.191989,0.689827,2.000000,0.499195,0.047453,0.838059,1.000000,0.973010,0.810285,0.822340,2.000000,125.000000,1.330000,89.575508,1.000000,6.502118,2.323891,7.208444,2.000000,212.359182,0.796574,127.166319,1.000000,194.629020,8.197704,8.401058,2.000000,2
/home/daniel/Projects/ppsevolution/data/maps/custom_maps/Custom_2_Run_0_Map.csv,squared_error,0.000529127093076443,0.5016,0.3925,0.000000,1.000000,0.766026,1.000000,0.187437,0.136217,0.954499,2.000000,0.615574,0.234556,1.000000,1.000000,1.000000,0.909247,0.734946,2.000000,125.000000,1.330000,117.009694,1.000000,38.300040,1.794061,9.590494,2.000000,232.725377,0.901351,150.000000,1.000000,200.000000,9.137842,7.614513,2.000000,3
/home/daniel/Projects/ppsevolution/data/maps/custom_maps/Custom_2_Run_0_Map.csv,squared_error,0.0005467962118182218,0.4982,0.3930,0.045592,1.000000,0.633256,1.000000,0.066203,0.000000,0.822532,2.000000,0.543204,0.463692,1.000000,0.998419,0.829721,1.000000,0.673598,2.000000,132.978598,1.330000,98.289155,1.000000,14.174417,0.500000,8.402784,2.000000,220.060772,1.029668,150.000000,0.998419,166.114418,10.000000,7.062385,2.000000,4
/home/daniel/Projects/ppsevolution/data/maps/custom_maps/Custom_2_Run_0_Map.csv,squared_error,0.0006637139428209832,0.4877,0.3943,0.030593,1.000000,0.919496,1.000000,0.043994,0.199960,0.846891,1.000000,1.000000,0.316561,1.000000,1.000000,0.799300,1.000000,0.744247,2.000000,130.353794,1.330000,138.648946,1.000000,9.754862,2.399618,8.622019,1.000000,300.000000,0.947274,150.000000,1.000000,160.060684,10.000000,7.698219,2.000000,5
/home/daniel/Projects/ppsevolution/data/maps/custom_maps/Custom_2_Run_0_Map.csv,squared_error,0.0004523466319117159,0.4928,0.3892,0.000954,0.705209,0.902657,1.000000,0.075932,0.217956,1.000000,2.000000,1.000000,0.215185,1.000000,1.000000,0.999926,1.000000,1.000000,2.000000,125.166990,1.164917,136.274590,1.000000,16.110538,2.570583,10.000000,2.000000,300.000000,0.890503,150.000000,1.000000,199.985341,10.000000,10.000000,2.000000,6
/home/daniel/Projects/ppsevolution/data/maps/custom_maps/Custom_2_Run_0_Map.csv,squared_error,0.0005354224048772556,0.4960,0.3925,0.181841,0.585469,0.513305,1.000000,0.091576,0.000000,1.000000,2.000000,0.395787,0.361732,1.000000,1.000000,1.000000,0.825687,0.912931,2.000000,156.822261,1.097863,81.376056,1.000000,19.223589,0.500000,10.000000,2.000000,194.262676,0.972570,150.000000,1.000000,200.000000,8.344023,9.216383,2.000000,7
/home/daniel/Projects/ppsevolution/data/maps/custom_maps/Custom_2_Run_0_Map.csv,squared_error,0.0005379472543320991,0.4932,0.3921,0.000000,0.769293,0.790744,1.000000,0.029475,0.366434,1.000000,2.000000,0.796057,0.451689,0.910114,1.000000,0.956408,0.762486,0.988071,2.000000,125.000000,1.200804,120.494899,1.000000,6.865595,3.981126,10.000000,2.000000,264.309941,1.022946,137.326144,1.000000,191.325189,7.743614,9.892640,2.000000,8
/home/daniel/Projects/ppsevolution/data/maps/custom_maps/Custom_2_Run_0_Map.csv,squared_error,0.0005399575465234603,0.4982,0.3928,0.000000,0.220603,0.494761,1.000000,0.109277,0.000000,1.000000,2.000000,0.187841,0.570649,0.986117,1.000000,0.873703,1.000000,0.766150,2.000000,125.000000,0.893538,78.761278,1.000000,22.746210,0.500000,10.000000,2.000000,157.872239,1.089563,148.042564,1.000000,174.866953,10.000000,7.895347,2.000000,9
map,fitness,fitness value,team0ratio,time,HP,Speed,Damage,Acc,ClipSize,RateOfFire,NrBullets,Range,HP,Speed,Damage,Acc,ClipSize,RateOfFire,NrBullets,Range,HP,Speed,Damage,Acc,ClipSize,RateOfFire,NrBullets,Range,HP,Speed,Damage,Acc,ClipSize,RateOfFire,NrBullets,Range,Run,target team0ratio: 0.5,target time: 0.36
/home/daniel/Projects/ppsevolution/data/maps/custom_maps/Custom_3_Run_0_Map.csv,squared_error,0.006520462788793215,0.5018,0.4742,0.000000,1.000000,0.617567,1.000000,0.000000,0.156510,1.000000,2.000000,0.092066,0.068238,0.960811,1.000000,0.640187,0.000000,1.000000,1.000000,125.000000,1.330000,96.076887,1.000000,1.000000,1.986849,10.000000,2.000000,141.111563,0.808213,144.474303,1.000000,128.397237,0.500000,10.000000,1.000000,0
/home/daniel/Projects/ppsevolution/data/maps/custom_maps/Custom_3_Run_0_Map.csv,squared_error,0.006637466136910992,0.5126,0.4745,0.078511,0.595847,1.000000,0.982724,0.000000,0.180522,1.000000,2.000000,0.229391,0.001416,0.899173,1.000000,0.863174,0.000000,0.185174,2.000000,138.739449,1.103674,150.000000,0.982724,1.000000,2.214956,10.000000,2.000000,165.143480,0.770793,135.783403,1.000000,172.771686,0.500000,2.666563,2.000000,1
/home/daniel/Projects/ppsevolution/data/maps/custom_maps/Custom_3_Run_0_Map.csv,squared_error,0.006369843256025367,0.5171,0.4716,0.000000,0.567203,0.878704,1.000000,0.080613,0.236362,1.000000,2.000000,0.395409,0.169217,1.000000,1.000000,1.000000,0.091840,1.000000,2.000000,125.000000,1.087634,132.897199,1.000000,17.042031,2.745437,10.000000,2.000000,194.196568,0.864761,150.000000,1.000000,200.000000,1.372477,10.000000,2.000000,2
/home/daniel/Projects/ppsevolution/data/maps/custom_maps/Custom_3_Run_0_Map.csv,squared_error,0.006795779815900268,0.4956,0.4765,0.083587,1.000000,0.923416,0.975786,0.185175,0.149463,0.932701,2.000000,0.447884,0.054778,0.940373,1.000000,0.727210,0.645747,0.955036,2.000000,139.627668,1.330000,139.201636,0.975786,37.849824,1.919898,9.394309,2.000000,203.379787,0.800676,141.592527,1.000000,145.714817,6.634598,9.595328,2.000000,3
/home/daniel/Projects/ppsevolution/data/maps/custom_maps/Custom_3_Run_0_Map.csv,squared_error,0.006377014273355034,0.5083,0.4726,0.000000,1.000000,0.796816,1.000000,0.000000,0.295688,1.000000,2.000000,0.327625,0.209219,1.000000,1.000000,0.524804,0.094111,0.881790,2.000000,125.000000,1.330000,121.350992,1.000000,1.000000,3.309040,10.000000,2.000000,182.334423,0.887163,150.000000,1.000000,105.436007,1.394059,8.936108,2.000000,4
/home/daniel/Projects/ppsevolution/data/maps/custom_maps/Custom_3_Run_0_Map.csv,squared_error,0.00669198092306505,0.5077,0.4754,0.000000,0.908451,0.731775,0.991185,0.022205,0.000000,1.000000,2.000000,0.256114,0.041179,0.964003,1.000000,1.000000,1.000000,0.489898,2.000000,125.000000,1.278733,112.180293,0.991185,5.418716,0.500000,10.000000,2.000000,169.819889,0.793060,144.924400,1.000000,200.000000,10.000000,5.409084,2.000000,5
/home/daniel/Projects/ppsevolution/data/maps/custom_maps/Custom_3_Run_0_Map.csv,squared_error,0.00663098672709754,0.5123,0.4745,0.000000,0.539557,1.000000,0.978364,0.185955,1.000000,0.912871,2.000000,0.297513,0.145075,1.000000,1.000000,0.900669,0.633343,0.809970,2.000000,125.000000,1.072152,150.000000,0.978364,38.005130,10.000000,9.215836,2.000000,177.064699,0.851242,150.000000,1.000000,180.233087,6.516758,8.289732,2.000000,6
/home/daniel/Projects/ppsevolution/data/maps/custom_maps/Custom_3_Run_0_Map.csv,squared_error,0.006572868508911306,0.5009,0.4747,0.000000,0.545353,0.536729,1.000000,0.000000,0.385192,1.000000,2.000000,0.032993,0.155402,1.000000,1.000000,0.597699,0.766232,0.712722,2.000000,125.000000,1.075398,84.678815,1.000000,1.000000,4.159322,10.000000,2.000000,130.773827,0.857025,150.000000,1.000000,119.942100,7.779207,7.414496,2.000000,7
/home/daniel/Projects/ppsevolution/data/maps/custom_maps/Custom_3_Run_0_Map.csv,squared_error,0.006534748838047794,0.5277,0.4709,0.000000,0.802598,1.000000,0.993295,0.040186,0.018433,1.000000,2.000000,0.354541,0.439660,0.985018,1.000000,1.000000,0.000000,0.843245,2.000000,125.000000,1.219455,150.000000,0.993295,8.996988,0.675113,10.000000,2.000000,187.044725,1.016210,147.887516,1.000000,200.000000,0.500000,8.589209,2.000000,8
/home/daniel/Projects/ppsevolution/data/maps/custom_maps/Custom_3_Run_0_Map.csv,squared_error,0.00692624404719792,0.5105,0.4772,0.000000,0.861960,0.913799,0.997635,0.262330,0.506546,0.993504,2.000000,0.604406,0.744229,1.000000,1.000000,0.867369,0.674036,0.494495,2.000000,125.000000,1.252698,137.845610,0.997635,53.203713,5.312189,9.941534,2.000000,230.771005,1.186768,150.000000,1.000000,173.606498,6.903342,5.450457,2.000000,9
map,fitness,fitness value,team0ratio,time,HP,Speed,Damage,Acc,ClipSize,RateOfFire,NrBullets,Range,HP,Speed,Damage,Acc,ClipSize,RateOfFire,NrBullets,Range,HP,Speed,Damage,Acc,ClipSize,RateOfFire,NrBullets,Range,HP,Speed,Damage,Acc,ClipSize,RateOfFire,NrBullets,Range,Run,target team0ratio: 0.5,target time: 0.36
/home/daniel/Projects/ppsevolution/data/maps/custom_maps/Custom_4_Run_0_Map.csv,squared_error,1.2583409236867656e-06,0.5015,0.3594,0.000000,1.000000,0.198149,0.780855,0.118861,0.063291,1.000000,0.000000,1.000000,0.000000,0.163494,0.589547,1.000000,0.951030,0.000000,1.000000,125.000000,1.330000,36.939014,0.780855,24.653368,1.101267,10.000000,0.000000,300.000000,0.770000,32.052649,0.589547,200.000000,9.534788,1.000000,1.000000,0
/home/daniel/Projects/ppsevolution/data/maps/custom_maps/Custom_4_Run_0_Map.csv,squared_error,7.564894686453423e-07,0.5005,0.3611,0.058145,0.953437,0.242903,0.662574,0.058530,0.000000,0.873245,2.000000,0.629172,0.028334,0.143024,0.576709,0.925071,0.826919,0.093206,2.000000,135.175390,1.303925,43.249336,0.662574,12.647518,0.500000,8.859206,2.000000,235.105175,0.785867,29.166431,0.576709,185.089110,8.355733,1.838851,2.000000,1
/home/daniel/Projects/ppsevolution/data/maps/custom_maps/Custom_4_Run_0_Map.csv,squared_error,3.3594445914793226e-05,0.4931,0.3645,0.000000,0.817539,0.164933,0.761824,0.418927,0.100854,0.992392,0.000000,0.846981,0.149858,0.000000,0.661203,0.991913,1.000000,0.175999,0.000000,125.000000,1.227822,32.255531,0.761824,84.366512,1.458112,9.931525,0.000000,273.221588,0.853921,9.000000,0.661203,198.390733,10.000000,2.583991,0.000000,2
/home/daniel/Projects/ppsevolution/data/maps/custom_maps/Custom_4_Run_0_Map.csv,squared_error,4.601271081088536e-06,0.5011,0.3628,0.000000,0.816648,0.194157,0.754872,0.000000,0.239449,1.000000,1.000000,0.906027,0.130342,0.000000,0.657921,0.724950,1.000000,0.000000,0.000000,125.000000,1.227323,36.376088,0.754872,1.000000,2.774770,10.000000,1.000000,283.554744,0.842991,9.000000,0.657921,145.265017,10.000000,1.000000,0.000000,3
/home/daniel/Projects/ppsevolution/data/maps/custom_maps/Custom_4_Run_0_Map.csv,squared_error,1.95805539663987e-05,0.4955,0.3643,0.040178,1.000000,0.106123,0.729047,0.225212,0.270986,1.000000,2.000000,0.683002,0.090349,0.000000,0.650806,0.783203,0.841253,0.174469,0.000000,132.031173,1.330000,23.963282,0.729047,45.817270,3.074370,10.000000,2.000000,244.525300,0.820595,9.000000,0.650806,156.857419,8.491906,2.570218,0.000000,4
/home/daniel/Projects/ppsevolution/data/maps/custom_maps/Custom_4_Run_0_Map.csv,squared_error,3.1437255816470896e-06,0.4987,0.3621,0.042875,1.000000,0.393578,0.662308,0.089825,0.242015,1.000000,1.000000,0.895615,0.000000,0.014860,0.653194,0.875601,0.993087,0.000000,0.000000,132.503148,1.330000,64.494431,0.662308,18.875234,2.799140,10.000000,1.000000,281.732590,0.770000,11.095282,0.653194,175.244696,9.934327,1.000000,0.000000,5
/home/daniel/Projects/ppsevolution/data/maps/custom_maps/Custom_4_Run_0_Map.csv,squared_error,6.7004761902957e-06,0.5012,0.3566,0.000000,1.000000,0.044165,0.843996,0.154009,0.410274,0.568357,1.000000,0.941821,0.168219,0.233851,0.592789,0.811603,0.752756,0.080055,0.000000,125.000000,1.330000,15.227284,0.843996,31.647859,4.397603,6.115217,1.000000,289.818650,0.864202,41.973014,0.592789,162.509025,7.651177,1.720493,0.000000,6
/home/daniel/Projects/ppsevolution/data/maps/custom_maps/Custom_4_Run_0_Map.csv,squared_error,1.546553562808773e-05,0.5039,0.3640,0.056762,1.000000,0.181520,0.780746,0.189739,0.014257,0.699608,2.000000,1.000000,0.223300,0.000000,0.672344,0.839072,0.916882,0.000000,0.000000,134.933416,1.330000,34.594355,0.780746,38.758066,0.635441,7.296473,2.000000,300.000000,0.895048,9.000000,0.672344,167.975235,9.210376,1.000000,0.000000,7
/home/daniel/Projects/ppsevolution/data/maps/custom_maps/Custom_4_Run_0_Map.csv,squared_error,9.024195266562235e-07,0.5013,0.3605,0.011753,1.000000,0.654708,0.576469,0.282922,0.292601,0.505470,2.000000,1.000000,0.057942,0.170102,0.549075,1.000000,0.921039,0.086191,2.000000,127.056707,1.330000,101.313814,0.576469,57.301540,3.279714,5.549231,2.000000,300.000000,0.802447,32.984409,0.549075,200.000000,9.249872,1.775718,2.000000,8
/home/daniel/Projects/ppsevolution/data/maps/custom_maps/Custom_4_Run_0_Map.csv,squared_error,8.091424034542214e-06,0.4977,0.3633,0.000000,1.000000,0.421689,0.688600,0.008078,0.085682,0.510782,0.000000,0.875522,0.327993,0.536488,0.363248,0.510246,0.894527,0.051059,0.000000,125.000000,1.330000,68.458156,0.688600,2.607466,1.313981,5.597037,0.000000,278.216365,0.953676,84.644783,0.363248,102.539033,8.998002,1.459530,0.000000,9
map,fitness,fitness value,team0ratio,time,HP,Speed,Damage,Acc,ClipSize,RateOfFire,NrBullets,Range,HP,Speed,Damage,Acc,ClipSize,RateOfFire,NrBullets,Range,HP,Speed,Damage,Acc,ClipSize,RateOfFire,NrBullets,Range,HP,Speed,Damage,Acc,ClipSize,RateOfFire,NrBullets,Range,Run,target team0ratio: 0.5,target time: 0.36
/home/daniel/Projects/ppsevolution/data/maps/custom_maps/Custom_5_Run_0_Map.csv,squared_error,4.733771038050309e-06,0.4994,0.3570,0.245089,0.402113,0.376059,0.995947,0.315368,0.000000,0.771895,0.000000,0.968891,0.000000,0.000000,1.000000,0.970812,0.680872,0.204740,2.000000,167.890625,0.995183,62.024340,0.995947,63.758242,0.500000,7.947059,0.000000,294.556005,0.770000,9.000000,1.000000,194.191519,6.968284,2.842660,2.000000,0
/home/daniel/Projects/ppsevolution/data/maps/custom_maps/Custom_5_Run_0_Map.csv,squared_error,1.7971461719447973e-06,0.4992,0.3617,0.000000,0.643353,0.556955,0.947018,0.000000,0.219127,0.554229,2.000000,1.000000,0.397498,0.516798,0.890076,0.877395,0.909831,0.000000,1.000000,125.000000,1.130277,87.530652,0.947018,1.000000,2.581704,5.988059,2.000000,300.000000,0.992599,81.868520,0.890076,175.601538,9.143394,1.000000,1.000000,1
/home/daniel/Projects/ppsevolution/data/maps/custom_maps/Custom_5_Run_0_Map.csv,squared_error,3.016474197426106e-06,0.4988,0.3621,0.191432,0.987468,0.358711,1.000000,0.000000,0.318495,0.755769,0.000000,1.000000,0.000000,0.000000,1.000000,0.886409,0.938775,0.000000,1.000000,158.500603,1.322982,59.578187,1.000000,1.000000,3.525706,7.801917,0.000000,300.000000,0.770000,9.000000,1.000000,177.395441,9.418366,1.000000,1.000000,2
/home/daniel/Projects/ppsevolution/data/maps/custom_maps/Custom_5_Run_0_Map.csv,squared_error,9.505979852299458e-07,0.5007,0.3588,0.082727,1.000000,0.231919,1.000000,0.082874,0.352901,1.000000,0.000000,0.893133,0.318410,0.226257,0.956843,0.308864,0.956838,0.550526,2.000000,139.477250,1.330000,41.700571,1.000000,17.491841,3.852562,10.000000,0.000000,281.298286,0.948310,40.902287,0.956843,62.463911,9.589963,5.954738,2.000000,3
/home/daniel/Projects/ppsevolution/data/maps/custom_maps/Custom_5_Run_0_Map.csv,squared_error,3.420513809025008e-06,0.5012,0.3577,0.586187,0.791783,0.254392,0.992701,0.167619,0.276920,0.830670,0.000000,0.692713,0.025859,0.206703,1.000000,0.865975,0.839480,0.102956,0.000000,227.582704,1.213399,44.869332,0.992701,34.356235,3.130737,8.476032,0.000000,246.224689,0.784481,38.145149,1.000000,173.328936,8.475059,1.926605,0.000000,4
/home/daniel/Projects/ppsevolution/data/maps/custom_maps/Custom_5_Run_0_Map.csv,squared_error,1.2065208675473216e-06,0.5014,0.3607,0.000000,0.917533,0.282384,1.000000,0.411614,0.295486,0.711593,1.000000,0.957593,0.278343,0.000000,0.984039,0.813435,0.892832,0.000000,2.000000,125.000000,1.283819,48.816179,1.000000,82.911127,3.307116,7.404334,1.000000,292.578802,0.925872,9.000000,0.984039,162.873506,8.981907,1.000000,2.000000,5
/home/daniel/Projects/ppsevolution/data/maps/custom_maps/Custom_5_Run_0_Map.csv,squared_error,2.8076555976810196e-06,0.4989,0.3621,0.264516,1.000000,0.284068,1.000000,0.044097,0.055078,0.769744,0.000000,0.905909,0.291102,0.000000,1.000000,0.961324,0.497629,0.387956,0.000000,171.290313,1.330000,49.053646,1.000000,9.775345,1.023242,7.927697,0.000000,283.534050,0.933017,9.000000,1.000000,192.303411,5.227479,4.491605,0.000000,6
/home/daniel/Projects/ppsevolution/data/maps/custom_maps/Custom_5_Run_0_Map.csv,squared_error,7.197129221261081e-07,0.5001,0.3612,0.355947,0.791161,0.000000,1.000000,0.000000,0.283593,0.844457,2.000000,0.648270,0.000000,0.082754,1.000000,1.000000,1.000000,0.078308,0.000000,187.290766,1.213050,9.000000,1.000000,1.000000,3.194136,8.600116,2.000000,238.447188,0.770000,20.668268,1.000000,200.000000,10.000000,1.704774,0.000000,7
/home/daniel/Projects/ppsevolution/data/maps/custom_maps/Custom_5_Run_0_Map.csv,squared_error,4.870189924190414e-07,0.5005,0.3592,0.113680,0.943025,0.451740,0.938028,0.127163,0.469302,0.810032,0.000000,0.533300,0.000000,0.172197,0.942967,0.971377,0.511039,0.124413,0.000000,144.893933,1.298094,72.695292,0.938028,26.305396,4.958370,8.290288,0.000000,218.327515,0.770000,33.279719,0.942967,194.304122,5.354867,2.119715,0.000000,8
/home/daniel/Projects/ppsevolution/data/maps/custom_maps/Custom_5_Run_0_Map.csv,squared_error,5.160282199372513e-06,0.4979,0.3576,0.000000,1.000000,0.159980,1.000000,0.000000,0.000000,0.930092,2.000000,0.830651,0.152332,0.051304,0.980192,0.865160,0.610679,0.000000,0.000000,125.000000,1.330000,31.557198,1.000000,1.000000,0.500000,9.370830,2.000000,270.363982,0.855306,16.233894,0.980192,173.166884,6.301450,1.000000,0.000000,9
map,fitness,fitness value,team0ratio,time,HP,Speed,Damage,Acc,ClipSize,RateOfFire,NrBullets,Range,HP,Speed,Damage,Acc,ClipSize,RateOfFire,NrBullets,Range,HP,Speed,Damage,Acc,ClipSize,RateOfFire,NrBullets,Range,HP,Speed,Damage,Acc,ClipSize,RateOfFire,NrBullets,Range,Run,target team0ratio: 0.5,target time: 0.36
/home/daniel/Projects/ppsevolution/data/maps/custom_maps/Custom_6_Run_0_Map.csv,squared_error,0.008392279921612535,0.4791,0.4879,0.102865,0.761044,0.000000,1.000000,0.000000,0.000000,0.838267,2.000000,1.000000,0.139322,1.000000,0.893382,0.677165,0.922055,1.000000,2.000000,143.001457,1.196185,9.000000,1.000000,1.000000,0.500000,8.544407,2.000000,300.000000,0.848020,150.000000,0.893382,135.755917,9.259522,10.000000,2.000000,0
/home/daniel/Projects/ppsevolution/data/maps/custom_maps/Custom_6_Run_0_Map.csv,squared_error,0.008590348913740973,0.4784,0.4893,0.035776,0.785559,0.000000,1.000000,0.000000,0.251891,0.276546,2.000000,1.000000,0.295713,0.959118,0.890304,0.848055,0.903443,0.909153,2.000000,131.260790,1.209913,9.000000,1.000000,1.000000,2.892961,3.488911,2.000000,300.000000,0.935599,144.235698,0.890304,169.762904,9.082711,9.182378,2.000000,1
/home/daniel/Projects/ppsevolution/data/maps/custom_maps/Custom_6_Run_0_Map.csv,squared_error,0.009869420413865322,0.4672,0.4966,0.145090,0.473788,0.030051,1.000000,0.056354,0.303161,0.924507,2.000000,0.886796,0.051422,0.892942,0.926383,0.995451,0.915938,0.370455,2.000000,150.390684,1.035321,13.237156,1.000000,12.214443,3.380027,9.320559,2.000000,280.189316,0.798796,134.904873,0.926383,199.094775,9.201407,4.334095,2.000000,2
/home/daniel/Projects/ppsevolution/data/maps/custom_maps/Custom_6_Run_0_Map.csv,squared_error,0.008867938030946473,0.4751,0.4908,0.151090,0.903596,0.000000,1.000000,0.352515,0.106223,0.905924,2.000000,0.985564,0.058274,0.925186,0.908261,0.963834,1.000000,0.659267,2.000000,151.440711,1.276014,9.000000,1.000000,71.150497,1.509121,9.153312,2.000000,297.473655,0.802633,139.451180,0.908261,192.802868,10.000000,6.933406,2.000000,3
/home/daniel/Projects/ppsevolution/data/maps/custom_maps/Custom_6_Run_0_Map.csv,squared_error,0.00914397163527651,0.4609,0.4895,0.262699,0.857427,0.023035,1.000000,0.000000,0.000000,0.652646,2.000000,1.000000,0.147466,0.723147,0.952069,1.000000,0.952577,0.871747,2.000000,170.972347,1.250159,12.247894,1.000000,1.000000,0.500000,6.873815,2.000000,300.000000,0.852581,110.963748,0.952069,200.000000,9.549482,8.845719,2.000000,4
/home/daniel/Projects/ppsevolution/data/maps/custom_maps/Custom_6_Run_0_Map.csv,squared_error,0.009483439870212657,0.4814,0.4965,0.000000,0.761900,0.000000,1.000000,0.000000,0.000000,1.000000,2.000000,0.979186,0.377907,0.872214,0.888603,0.824410,0.852761,0.202326,2.000000,125.000000,1.196664,9.000000,1.000000,1.000000,0.500000,10.000000,2.000000,296.357503,0.981628,131.982147,0.888603,165.057521,8.601231,2.820931,2.000000,5
/home/daniel/Projects/ppsevolution/data/maps/custom_maps/Custom_6_Run_0_Map.csv,squared_error,0.0091498742396379,0.4904,0.4949,0.140456,0.781304,0.000000,1.000000,0.000000,0.000000,0.720859,2.000000,1.000000,0.168773,0.907358,0.893761,0.637737,0.833883,0.721863,2.000000,149.579885,1.207530,9.000000,1.000000,1.000000,0.500000,7.487735,2.000000,300.000000,0.864513,136.937547,0.893761,127.909608,8.421889,7.496763,2.000000,6
/home/daniel/Projects/ppsevolution/data/maps/custom_maps/Custom_6_Run_0_Map.csv,squared_error,0.008857228741632032,0.4746,0.4906,0.043996,0.847539,0.000000,1.000000,0.502326,0.287443,0.268747,2.000000,1.000000,0.017331,0.902631,0.897449,1.000000,0.811226,0.950953,2.000000,132.699218,1.244622,9.000000,1.000000,100.962941,3.230710,3.418726,2.000000,300.000000,0.779705,136.270917,0.897449,200.000000,8.206643,9.558573,2.000000,7
/home/daniel/Projects/ppsevolution/data/maps/custom_maps/Custom_6_Run_0_Map.csv,squared_error,0.009879537232862369,0.4569,0.4938,0.000000,0.726923,0.000000,1.000000,0.396963,0.823390,0.617653,2.000000,1.000000,0.094667,0.878705,0.901475,0.988044,0.704253,0.305984,2.000000,125.000000,1.177077,9.000000,1.000000,79.995736,8.322201,6.558873,2.000000,300.000000,0.823013,132.897367,0.901475,197.620796,7.190400,3.753855,2.000000,8
/home/daniel/Projects/ppsevolution/data/maps/custom_maps/Custom_6_Run_0_Map.csv,squared_error,0.009157862240238328,0.4464,0.4843,0.209066,1.000000,0.000000,1.000000,0.122307,0.000000,0.617404,1.000000,1.000000,0.356435,1.000000,0.921946,1.000000,1.000000,0.412477,2.000000,161.586605,1.330000,9.000000,1.000000,25.339066,0.500000,6.556638,1.000000,300.000000,0.969604,150.000000,0.921946,200.000000,10.000000,4.712294,2.000000,9
map,fitness,fitness value,team0ratio,time,HP,Speed,Damage,Acc,ClipSize,RateOfFire,NrBullets,Range,HP,Speed,Damage,Acc,ClipSize,RateOfFire,NrBullets,Range,HP,Speed,Damage,Acc,ClipSize,RateOfFire,NrBullets,Range,HP,Speed,Damage,Acc,ClipSize,RateOfFire,NrBullets,Range,Run,target team0ratio: 0.5,target time: 0.36
/home/daniel/Projects/ppsevolution/data/maps/custom_maps/Custom_7_Run_0_Map.csv,squared_error,3.3132021916699353e-07,0.5008,0.3597,0.058170,0.807287,0.032196,0.994653,0.120337,0.452723,0.746340,2.000000,0.893444,0.195006,0.000000,0.976178,0.545653,0.819425,0.389145,2.000000,135.179795,1.222081,13.539679,0.994653,24.947047,4.800873,7.717057,2.000000,281.352676,0.879203,9.000000,0.976178,109.584941,8.284539,4.502308,2.000000,0
/home/daniel/Projects/ppsevolution/data/maps/custom_maps/Custom_7_Run_0_Map.csv,squared_error,1.3472628223667198e-06,0.4991,0.3614,0.135808,0.872325,0.278772,1.000000,0.151645,0.136504,0.929326,0.000000,0.870570,0.158600,0.044610,1.000000,0.832729,1.000000,0.232315,1.000000,148.766430,1.258502,48.306801,1.000000,31.177449,1.796791,9.363937,0.000000,277.349764,0.858816,15.289965,1.000000,166.713105,10.000000,3.090834,1.000000,1
/home/daniel/Projects/ppsevolution/data/maps/custom_maps/Custom_7_Run_0_Map.csv,squared_error,8.308848906814481e-07,0.5009,0.3591,0.040186,0.920229,0.392232,1.000000,0.560192,0.000000,1.000000,1.000000,0.885926,0.000000,0.137599,1.000000,0.851132,1.000000,0.000000,0.000000,132.032503,1.285328,64.304661,1.000000,112.478155,0.500000,10.000000,1.000000,280.037076,0.770000,28.401454,1.000000,170.375279,10.000000,1.000000,0.000000,2
/home/daniel/Projects/ppsevolution/data/maps/custom_maps/Custom_7_Run_0_Map.csv,squared_error,4.174556116640786e-06,0.5019,0.3578,0.000000,0.649985,0.220436,1.000000,0.045632,0.082873,0.905787,0.000000,0.782680,0.124791,0.375816,0.948474,0.948434,0.891596,0.162836,0.000000,125.000000,1.133992,40.081421,1.000000,10.080852,1.287294,9.152086,0.000000,261.969086,0.839883,61.990047,0.948474,189.738321,8.970161,2.465520,0.000000,3
/home/daniel/Projects/ppsevolution/data/maps/custom_maps/Custom_7_Run_0_Map.csv,squared_error,2.7150914281072978e-06,0.5021,0.3609,0.235833,0.668378,0.263956,1.000000,0.009955,0.000000,1.000000,1.000000,1.000000,0.048176,0.000000,1.000000,0.707377,0.494941,0.101506,2.000000,166.270709,1.144292,46.217814,1.000000,2.981038,0.500000,10.000000,1.000000,300.000000,0.796979,9.000000,1.000000,141.767925,5.201939,1.913551,2.000000,4
/home/daniel/Projects/ppsevolution/data/maps/custom_maps/Custom_7_Run_0_Map.csv,squared_error,2.938979996571251e-07,0.4996,0.3594,0.309676,0.832126,0.428323,1.000000,0.176383,0.228797,0.390120,0.000000,1.000000,0.022777,0.261280,1.000000,0.690945,1.000000,0.088648,1.000000,179.193241,1.235991,69.393612,1.000000,36.100148,2.673575,4.511078,0.000000,300.000000,0.782755,45.840443,1.000000,138.498000,10.000000,1.797836,1.000000,5
/home/daniel/Projects/ppsevolution/data/maps/custom_maps/Custom_7_Run_0_Map.csv,squared_error,1.8463664220604167e-06,0.4995,0.3581,0.000000,0.785012,0.339375,1.000000,0.179723,0.164406,1.000000,1.000000,0.892660,0.000000,0.047859,1.000000,0.228671,0.812742,0.337423,0.000000,125.000000,1.209607,56.851850,1.000000,36.764888,2.061858,10.000000,1.000000,281.215423,0.770000,15.748136,1.000000,46.505460,8.221050,4.036803,0.000000,6
/home/daniel/Projects/ppsevolution/data/maps/custom_maps/Custom_7_Run_0_Map.csv,squared_error,1.4777301448944582e-06,0.4984,0.3605,0.000000,0.822502,0.145083,1.000000,0.000000,0.175292,0.907921,0.000000,0.517252,0.000000,0.057454,1.000000,0.448958,0.990180,0.306602,0.000000,125.000000,1.230601,29.456673,1.000000,1.000000,2.165274,9.171291,0.000000,215.519021,0.770000,17.101065,1.000000,90.342567,9.906708,3.759415,0.000000,7
/home/daniel/Projects/ppsevolution/data/maps/custom_maps/Custom_7_Run_0_Map.csv,squared_error,1.1009925751672214e-06,0.4985,0.3597,0.148731,0.772359,0.273535,1.000000,0.305518,0.034763,0.927283,1.000000,1.000000,0.518656,0.000000,1.000000,0.475611,0.804495,0.168794,2.000000,151.027988,1.202521,47.568496,1.000000,61.798098,0.830250,9.345550,1.000000,300.000000,1.060447,9.000000,1.000000,95.646558,8.142702,2.519146,2.000000,8
/home/daniel/Projects/ppsevolution/data/maps/custom_maps/Custom_7_Run_0_Map.csv,squared_error,1.867797653005481e-08,0.5001,0.3598,0.000000,0.921152,0.149811,1.000000,0.000000,0.308050,0.322789,0.000000,0.720864,0.381787,0.035438,0.990167,0.865026,0.931173,0.190523,2.000000,125.000000,1.285845,30.123385,1.000000,1.000000,3.426473,3.905105,0.000000,251.151119,0.983801,13.996798,0.990167,173.140180,9.346147,2.714706,2.000000,9
map,fitness,fitness value,team0ratio,time,HP,Speed,Damage,Acc,ClipSize,RateOfFire,NrBullets,Range,HP,Speed,Damage,Acc,ClipSize,RateOfFire,NrBullets,Range,HP,Speed,Damage,Acc,ClipSize,RateOfFire,NrBullets,Range,HP,Speed,Damage,Acc,ClipSize,RateOfFire,NrBullets,Range,Run,target team0ratio: 0.5,target time: 0.36
/home/daniel/Projects/ppsevolution/data/maps/custom_maps/Custom_8_Run_0_Map.csv,squared_error,4.243407436752723e-06,0.5028,0.3592,0.000000,0.956601,0.206574,0.809084,0.071141,0.045937,0.805562,1.000000,0.882964,0.060862,0.322130,0.593462,0.851842,0.851594,0.088819,1.000000,125.000000,1.305697,38.126992,0.809084,15.157147,0.936403,8.250056,1.000000,279.518762,0.804083,54.420324,0.593462,170.516587,8.590141,1.799369,1.000000,0
/home/daniel/Projects/ppsevolution/data/maps/custom_maps/Custom_8_Run_0_Map.csv,squared_error,9.607682184156393e-06,0.4958,0.3614,0.090043,0.999466,0.150798,0.845702,0.000000,0.165908,0.835401,0.000000,1.000000,0.000000,0.053432,0.731152,0.939814,0.941803,0.297892,1.000000,140.757451,1.329701,30.262465,0.845702,1.000000,2.076130,8.518608,0.000000,300.000000,0.770000,16.533916,0.731152,188.022895,9.447128,3.681031,1.000000,1
/home/daniel/Projects/ppsevolution/data/maps/custom_maps/Custom_8_Run_0_Map.csv,squared_error,3.094244980768518e-05,0.4985,0.3677,0.045725,1.000000,0.182163,0.793710,0.100472,0.152494,1.000000,2.000000,1.000000,0.186079,0.000000,0.697670,0.847201,0.885775,0.230729,2.000000,133.001874,1.330000,34.684979,0.793710,20.993996,1.948697,10.000000,2.000000,300.000000,0.874204,9.000000,0.697670,169.592910,8.914860,3.076565,2.000000,2
/home/daniel/Projects/ppsevolution/data/maps/custom_maps/Custom_8_Run_0_Map.csv,squared_error,6.721931949328865e-07,0.4999,0.3588,0.019003,0.773968,0.325107,0.781448,0.000000,0.224137,0.701442,0.000000,0.880762,0.147500,0.000000,0.739609,0.964731,0.839822,0.000000,2.000000,128.325451,1.203422,54.840156,0.781448,1.000000,2.629297,7.312976,0.000000,279.133353,0.852600,9.000000,0.739609,192.981528,8.478313,1.000000,2.000000,3
/home/daniel/Projects/ppsevolution/data/maps/custom_maps/Custom_8_Run_0_Map.csv,squared_error,3.141726522955198e-08,0.4998,0.3602,0.000000,1.000000,0.191606,0.830544,0.553359,0.000000,0.933545,1.000000,1.000000,0.000000,0.178579,0.676112,0.882127,1.000000,0.000000,0.000000,125.000000,1.330000,36.016424,0.830544,111.118424,0.500000,9.401901,1.000000,300.000000,0.770000,34.179590,0.676112,176.543181,10.000000,1.000000,0.000000,4
/home/daniel/Projects/ppsevolution/data/maps/custom_maps/Custom_8_Run_0_Map.csv,squared_error,9.822334885491717e-07,0.4993,0.3612,0.091902,0.847622,0.082184,0.806890,0.000000,0.207655,0.965814,2.000000,0.828822,0.044877,0.432722,0.492875,0.781952,0.863274,0.464890,1.000000,141.082798,1.244669,20.587902,0.806890,1.000000,2.472723,9.692326,2.000000,270.043827,0.795131,70.013732,0.492875,156.608447,8.701107,5.184006,1.000000,5
/home/daniel/Projects/ppsevolution/data/maps/custom_maps/Custom_8_Run_0_Map.csv,squared_error,2.843879170185497e-05,0.4965,0.3667,0.362071,0.124187,0.049956,0.802669,0.280615,0.297640,0.853090,2.000000,0.730869,0.118023,0.521258,0.546521,0.974494,0.756900,0.183988,1.000000,188.362375,0.839545,16.043747,0.802669,56.842300,3.327581,8.677806,2.000000,252.902091,0.836093,82.497348,0.546521,194.924218,7.690549,2.655890,1.000000,6
/home/daniel/Projects/ppsevolution/data/maps/custom_maps/Custom_8_Run_0_Map.csv,squared_error,1.1210558295495278e-06,0.4986,0.3596,0.023669,0.922437,0.433699,0.684510,0.123106,0.320085,0.886252,2.000000,0.802578,0.044818,0.000000,0.714938,0.996833,0.972870,0.166736,2.000000,129.142014,1.286565,70.151614,0.684510,25.498096,3.540809,8.976264,2.000000,265.451235,0.795098,9.000000,0.714938,199.369804,9.742268,2.500621,2.000000,7
/home/daniel/Projects/ppsevolution/data/maps/custom_maps/Custom_8_Run_0_Map.csv,squared_error,9.834511308383576e-07,0.5004,0.3587,0.274276,0.435818,0.778506,0.593122,0.308159,0.403601,1.000000,2.000000,0.961228,0.229906,0.260481,0.676746,0.783150,0.965419,0.000000,1.000000,172.998322,1.014058,118.769291,0.593122,62.323668,4.334207,10.000000,2.000000,293.214877,0.898747,45.727841,0.676746,156.846927,9.671476,1.000000,1.000000,8
/home/daniel/Projects/ppsevolution/data/maps/custom_maps/Custom_8_Run_0_Map.csv,squared_error,3.7068397875430026e-06,0.5027,0.3599,0.107127,1.000000,0.550583,0.696550,0.000798,0.151110,0.821880,0.000000,0.869195,0.459617,0.000000,0.753397,1.000000,0.797697,0.000000,1.000000,143.747144,1.330000,86.632218,0.696550,1.158737,1.935545,8.396917,0.000000,277.109053,1.027385,9.000000,0.753397,200.000000,8.078123,1.000000,1.000000,9
map,fitness,fitness value,team0ratio,time,HP,Speed,Damage,Acc,ClipSize,RateOfFire,NrBullets,Range,HP,Speed,Damage,Acc,ClipSize,RateOfFire,NrBullets,Range,HP,Speed,Damage,Acc,ClipSize,RateOfFire,NrBullets,Range,HP,Speed,Damage,Acc,ClipSize,RateOfFire,NrBullets,Range,Run,target team0ratio: 0.5,target time: 0.36
/home/daniel/Projects/ppsevolution/data/maps/custom_maps/Custom_9_Run_0_Map.csv,squared_error,4.2360417871381406e-08,0.4998,0.3602,0.036260,0.920480,0.071279,0.753074,0.000000,0.182706,0.990691,2.000000,0.895194,0.185802,0.053439,0.625422,1.000000,0.787085,0.000000,0.000000,131.345556,1.285469,19.050291,0.753074,1.000000,2.235706,9.916223,2.000000,281.658869,0.874049,16.534933,0.625422,200.000000,7.977306,1.000000,0.000000,0
/home/daniel/Projects/ppsevolution/data/maps/custom_maps/Custom_9_Run_0_Map.csv,squared_error,5.1066489587504884e-06,0.5015,0.3572,0.147815,1.000000,0.335577,0.575364,0.018560,0.000000,1.000000,0.000000,0.576739,0.340126,0.000000,0.674048,1.000000,0.905359,0.326573,1.000000,150.867670,1.330000,56.316422,0.575364,4.693474,0.500000,10.000000,0.000000,225.929239,0.960470,9.000000,0.674048,200.000000,9.100915,3.939160,1.000000,1
/home/daniel/Projects/ppsevolution/data/maps/custom_maps/Custom_9_Run_0_Map.csv,squared_error,1.297753683983338e-05,0.5005,0.3549,0.000000,1.000000,0.266604,0.632042,0.000000,0.350795,0.871567,1.000000,0.617843,0.116940,0.201581,0.559005,0.977410,1.000000,0.000000,1.000000,125.000000,1.330000,46.591214,0.632042,1.000000,3.832549,8.844107,1.000000,233.122535,0.835486,37.422971,0.559005,195.504674,10.000000,1.000000,1.000000,2
/home/daniel/Projects/ppsevolution/data/maps/custom_maps/Custom_9_Run_0_Map.csv,squared_error,2.1137590057265046e-06,0.5007,0.3619,0.000000,1.000000,0.000000,0.814446,0.095607,0.251204,0.924986,1.000000,1.000000,0.065672,0.000000,0.663516,0.936677,0.924968,0.000000,1.000000,125.000000,1.330000,9.000000,0.814446,20.025796,2.886433,9.324878,1.000000,300.000000,0.806777,9.000000,0.663516,187.398637,9.287196,1.000000,1.000000,3
/home/daniel/Projects/ppsevolution/data/maps/custom_maps/Custom_9_Run_0_Map.csv,squared_error,2.2750206524115667e-06,0.5009,0.3619,0.000000,0.966761,0.343561,0.460619,0.266514,0.194752,0.828849,0.000000,0.115000,0.260177,0.360083,0.473038,1.000000,0.677598,0.000000,2.000000,125.000000,1.311386,57.442117,0.460619,54.036259,2.350145,8.459641,0.000000,145.124914,0.915699,59.771640,0.473038,200.000000,6.937184,1.000000,2.000000,4
/home/daniel/Projects/ppsevolution/data/maps/custom_maps/Custom_9_Run_0_Map.csv,squared_error,4.083120807130302e-06,0.4973,0.3591,0.120121,1.000000,0.352240,0.636173,0.000000,0.218012,0.782142,2.000000,0.942487,0.058746,0.209114,0.546712,0.840822,0.907049,0.211871,1.000000,146.021149,1.330000,58.665818,0.636173,1.000000,2.571117,8.039282,2.000000,289.935224,0.802898,38.485069,0.546712,168.323629,9.116968,2.906842,1.000000,5
/home/daniel/Projects/ppsevolution/data/maps/custom_maps/Custom_9_Run_0_Map.csv,squared_error,1.1579464010629394e-05,0.5036,0.3568,0.000000,0.942385,0.384737,0.645437,0.239013,0.384991,0.760864,0.000000,0.934712,0.071261,0.000000,0.618625,0.778452,0.780347,0.549441,2.000000,125.000000,1.297735,63.247863,0.645437,48.563629,4.157416,7.847776,0.000000,288.574600,0.809906,9.000000,0.618625,155.912032,7.913294,5.944970,2.000000,6
/home/daniel/Projects/ppsevolution/data/maps/custom_maps/Custom_9_Run_0_Map.csv,squared_error,1.386495118140304e-07,0.5000,0.3595,0.051396,0.840446,0.180813,0.734362,0.060401,0.336372,1.000000,0.000000,0.952179,0.000000,0.000000,0.657769,0.649503,1.000000,0.000000,2.000000,133.994287,1.240650,34.494654,0.734362,13.019874,3.695530,10.000000,0.000000,291.631318,0.770000,9.000000,0.657769,130.251020,10.000000,1.000000,2.000000,7
/home/daniel/Projects/ppsevolution/data/maps/custom_maps/Custom_9_Run_0_Map.csv,squared_error,4.036194035381899e-06,0.5016,0.3623,0.045739,0.983733,0.226364,0.706603,0.342698,0.060028,0.942574,0.000000,0.919566,0.062035,0.059913,0.623868,0.939287,0.884638,0.000000,2.000000,133.004399,1.320890,40.917286,0.706603,69.196994,1.070264,9.483169,0.000000,285.923991,0.804740,17.447674,0.623868,187.918197,8.904065,1.000000,2.000000,8
/home/daniel/Projects/ppsevolution/data/maps/custom_maps/Custom_9_Run_0_Map.csv,squared_error,6.314990428847896e-07,0.5009,0.3594,0.086110,0.983654,0.225839,0.726508,0.219069,0.000000,1.000000,0.000000,1.000000,0.170646,0.260033,0.539531,1.000000,0.897305,0.000000,1.000000,140.069255,1.320846,40.843314,0.726508,44.594778,0.500000,10.000000,0.000000,300.000000,0.865562,45.664705,0.539531,200.000000,9.024401,1.000000,1.000000,9
map,fitness,fitness value,team0ratio,time,HP,Speed,Damage,Acc,ClipSize,RateOfFire,NrBullets,Range,HP,Speed,Damage,Acc,ClipSize,RateOfFire,NrBullets,Range,HP,Speed,Damage,Acc,ClipSize,RateOfFire,NrBullets,Range,HP,Speed,Damage,Acc,ClipSize,RateOfFire,NrBullets,Range,Run,target team0ratio: 0.5,target time: 0.36
/home/daniel/Projects/ppsevolution/data/maps/custom_maps/Custom_10_Run_0_Map.csv,squared_error,1.3560027228609852e-05,0.5010,0.3651,0.000000,0.645085,0.952383,1.000000,0.782497,0.067574,1.000000,2.000000,0.807203,0.103866,0.808692,1.000000,0.915549,1.000000,0.266702,2.000000,125.000000,1.131247,143.285980,1.000000,156.716870,1.141951,10.000000,2.000000,266.260595,0.828165,123.025596,1.000000,183.194232,10.000000,3.400321,2.000000,0
/home/daniel/Projects/ppsevolution/data/maps/custom_maps/Custom_10_Run_0_Map.csv,squared_error,3.558750274694977e-06,0.5010,0.3625,0.000000,1.000000,0.687068,1.000000,0.093833,0.280916,0.853597,2.000000,0.323144,0.168840,0.805167,1.000000,0.665500,0.457307,0.446991,1.000000,125.000000,1.330000,105.876621,1.000000,19.672831,3.168707,8.682374,2.000000,181.550181,0.864550,122.528515,1.000000,133.434508,4.844415,5.022921,1.000000,1
/home/daniel/Projects/ppsevolution/data/maps/custom_maps/Custom_10_Run_0_Map.csv,squared_error,6.140596871119996e-07,0.5008,0.3607,0.032918,0.692394,0.924026,1.000000,0.154553,0.000000,0.856836,1.000000,0.473896,0.155963,0.947991,1.000000,0.935786,0.288237,0.634793,2.000000,130.760706,1.157740,139.287734,1.000000,31.756111,0.500000,8.711526,1.000000,207.931841,0.857339,142.666722,1.000000,187.221408,3.238252,6.713136,2.000000,2
/home/daniel/Projects/ppsevolution/data/maps/custom_maps/Custom_10_Run_0_Map.csv,squared_error,9.69482488719838e-07,0.5000,0.3614,0.122991,0.828643,1.000000,0.984033,0.142355,0.231257,0.943163,2.000000,0.684817,0.119942,0.712573,1.000000,0.473691,0.820459,0.619550,2.000000,146.523429,1.234040,150.000000,0.984033,29.328552,2.696939,9.488467,2.000000,244.842971,0.837168,109.472780,1.000000,95.264556,8.294361,6.575952,2.000000,3
/home/daniel/Projects/ppsevolution/data/maps/custom_maps/Custom_10_Run_0_Map.csv,squared_error,9.052425271562528e-07,0.5013,0.3604,0.092723,0.703360,1.000000,1.000000,0.095147,0.997957,1.000000,1.000000,0.513205,0.211685,0.731704,1.000000,0.761292,0.000000,0.207199,2.000000,141.226546,1.163882,150.000000,1.000000,19.934237,9.980587,10.000000,1.000000,214.810864,0.888544,112.170329,1.000000,152.497137,0.500000,2.864794,2.000000,4
/home/daniel/Projects/ppsevolution/data/maps/custom_maps/Custom_10_Run_0_Map.csv,squared_error,1.5063656416771432e-06,0.5005,0.3617,0.000000,0.968991,1.000000,1.000000,0.255432,0.434984,1.000000,2.000000,0.893314,0.077586,0.801753,1.000000,0.939420,0.857220,0.612551,2.000000,125.000000,1.312635,150.000000,1.000000,51.831015,4.632346,10.000000,2.000000,281.329944,0.813448,122.047211,1.000000,187.944542,8.643588,6.512962,2.000000,5
/home/daniel/Projects/ppsevolution/data/maps/custom_maps/Custom_10_Run_0_Map.csv,squared_error,1.530771595006563e-06,0.5007,0.3616,0.172915,0.827536,1.000000,1.000000,0.000000,0.591649,1.000000,2.000000,0.883900,0.223493,0.761135,1.000000,0.414389,0.306048,0.527729,2.000000,155.260133,1.233420,150.000000,1.000000,1.000000,6.120669,10.000000,2.000000,279.682508,0.895156,116.320018,1.000000,83.463457,3.407455,5.749558,2.000000,6
/home/daniel/Projects/ppsevolution/data/maps/custom_maps/Custom_10_Run_0_Map.csv,squared_error,1.2053617269949008e-06,0.5002,0.3615,0.067493,0.000000,0.989816,1.000000,0.110603,0.121612,1.000000,1.000000,0.539640,0.134246,0.931210,1.000000,0.705001,0.319798,0.350418,1.000000,136.811214,0.770000,148.563989,1.000000,23.009977,1.655313,10.000000,1.000000,219.436985,0.845178,140.300589,1.000000,141.295250,3.538082,4.153766,1.000000,7
/home/daniel/Projects/ppsevolution/data/maps/custom_maps/Custom_10_Run_0_Map.csv,squared_error,4.7397214592372765e-06,0.4980,0.3623,0.036497,0.338560,0.965300,1.000000,0.019084,0.366347,0.908637,2.000000,0.916561,0.136637,0.884910,1.000000,0.615088,1.000000,0.923632,2.000000,131.387022,0.959594,145.107265,1.000000,4.797627,3.980299,9.177732,2.000000,285.398206,0.846517,133.772298,1.000000,123.402532,10.000000,9.312684,2.000000,8
/home/daniel/Projects/ppsevolution/data/maps/custom_maps/Custom_10_Run_0_Map.csv,squared_error,6.933283636079373e-06,0.5006,0.3637,0.051807,0.798970,0.782144,1.000000,0.192105,0.751319,0.793632,2.000000,0.385626,0.106193,0.871213,1.000000,0.118369,0.491136,0.000000,2.000000,134.066307,1.217423,119.282313,1.000000,39.228991,7.637533,8.142687,2.000000,192.484548,0.829468,131.841054,1.000000,24.555527,5.165794,1.000000,2.000000,9
