/home/daniel/Projects/ppsevolution/data/maps/custom_maps/Custom_1_Run_0_Map.csv,0.000000,0.909454,0.155894,0.654497,0.082623,0.000000,0.963892,1.000000,0.864639,0.025117,0.015062,0.571314,0.848319,0.718118,0.000000,2.000000
/home/daniel/Projects/ppsevolution/data/maps/custom_maps/Custom_1_Run_0_Map.csv,0.295913,0.917099,0.123963,0.700454,0.286791,0.103993,1.000000,2.000000,1.000000,0.000000,0.000000,0.665854,1.000000,0.581323,0.000000,0.000000
/home/daniel/Projects/ppsevolution/data/maps/custom_maps/Custom_1_Run_0_Map.csv,0.000000,1.000000,0.000000,0.780112,0.059877,0.000000,0.774016,1.000000,1.000000,0.188887,0.066690,0.572637,1.000000,0.832106,0.006531,0.000000
/home/daniel/Projects/ppsevolution/data/maps/custom_maps/Custom_1_Run_0_Map.csv,0.000000,1.000000,0.229311,0.576549,0.000000,0.000000,1.000000,2.000000,0.749962,0.083750,0.012672,0.583728,0.863998,0.834283,0.016653,0.000000
/home/daniel/Projects/ppsevolution/data/maps/custom_maps/Custom_1_Run_0_Map.csv,0.000000,0.958100,0.210000,0.660330,0.096694,0.000000,1.000000,1.000000,1.000000,0.170712,0.062609,0.535598,0.855214,0.942184,0.170797,0.000000
/home/daniel/Projects/ppsevolution/data/maps/custom_maps/Custom_1_Run_0_Map.csv,0.023412,1.000000,0.167917,0.703816,0.345471,0.089035,0.712459,1.000000,1.000000,0.198407,0.000000,0.600000,0.848061,0.855114,0.115316,0.000000
/home/daniel/Projects/ppsevolution/data/maps/custom_maps/Custom_1_Run_0_Map.csv,0.000000,1.000000,0.203310,0.599796,0.119758,0.363592,0.965415,2.000000,0.799130,0.367821,0.000000,0.558132,0.836391,0.988939,0.160709,2.000000
/home/daniel/Projects/ppsevolution/data/maps/custom_maps/Custom_1_Run_0_Map.csv,0.133034,1.000000,0.257190,0.607200,0.000000,0.293930,0.799205,1.000000,0.898463,0.123334,0.000000,0.606894,1.000000,0.963973,0.132781,1.000000
/home/daniel/Projects/ppsevolution/data/maps/custom_maps/Custom_1_Run_0_Map.csv,0.000000,0.772757,0.068026,0.675259,0.180866,0.067519,0.947804,0.000000,0.644292,0.214062,0.185824,0.465973,0.951253,0.865726,0.184694,0.000000
/home/daniel/Projects/ppsevolution/data/maps/custom_maps/Custom_1_Run_0_Map.csv,0.000000,1.000000,0.140239,0.698625,0.047184,0.030000,0.911616,1.000000,0.994200,0.000000,0.000000,0.576363,0.945561,1.000000,0.141623,1.000000
/home/daniel/Projects/ppsevolution/data/maps/custom_maps/Custom_2_Run_0_Map.csv,0.000000,1.000000,0.554337,1.000000,0.401773,0.000000,1.000000,2.000000,0.364698,0.271316,1.000000,1.000000,0.769923,1.000000,0.408466,2.000000
/home/daniel/Projects/ppsevolution/data/maps/custom_maps/Custom_2_Run_0_Map.csv,0.000000,0.889221,0.842526,1.000000,0.000000,0.062627,0.987384,2.000000,0.857215,0.359788,1.000000,1.000000,0.675715,0.887751,0.977975,2.000000
/home/daniel/Projects/ppsevolution/data/maps/custom_maps/Custom_2_Run_0_Map.csv,0.000000,1.000000,0.710333,1.000000,0.174696,0.127430,1.000000,2.000000,0.638470,0.000000,0.996583,1.000000,0.812447,0.848452,1.000000,2.000000
/home/daniel/Projects/ppsevolution/data/maps/custom_maps/Custom_2_Run_0_Map.csv,0.000000,1.000000,0.879980,1.000000,0.225923,0.110280,0.896054,2.000000,0.936516,0.000000,1.000000,1.000000,0.842099,0.800514,0.604965,2.000000
/home/daniel/Projects/ppsevolution/data/maps/custom_maps/Custom_2_Run_0_Map.csv,0.000000,0.604126,0.603479,1.000000,0.000000,0.000000,1.000000,2.000000,0.373083,0.545394,1.000000,1.000000,0.560361,1.000000,1.000000,2.000000
/home/daniel/Projects/ppsevolution/data/maps/custom_maps/Custom_2_Run_0_Map.csv,0.083347,0.817829,0.395744,1.000000,0.074861,0.000000,1.000000,2.000000,0.162034,0.383832,1.000000,0.999357,0.953593,1.000000,1.000000,2.000000
/home/daniel/Projects/ppsevolution/data/maps/custom_maps/Custom_2_Run_0_Map.csv,0.021377,0.968324,0.711760,1.000000,0.109595,0.053890,0.927419,2.000000,0.632264,0.000000,1.000000,1.000000,0.985466,0.879180,0.935581,2.000000
/home/daniel/Projects/ppsevolution/data/maps/custom_maps/Custom_2_Run_0_Map.csv,0.058915,0.958497,0.412414,1.000000,0.000000,0.045276,0.991398,2.000000,0.032609,0.000000,1.000000,1.000000,0.939943,1.000000,1.000000,2.000000
/home/daniel/Projects/ppsevolution/data/maps/custom_maps/Custom_2_Run_0_Map.csv,0.000000,0.764103,0.667484,1.000000,0.214577,0.103036,1.000000,2.000000,0.561999,0.294010,0.987654,0.996484,0.612339,0.868617,0.997735,2.000000
/home/daniel/Projects/ppsevolution/data/maps/custom_maps/Custom_2_Run_0_Map.csv,0.000000,0.711634,0.936632,1.000000,0.037421,0.005359,1.000000,2.000000,0.977933,0.069659,1.000000,1.000000,0.802494,0.973593,1.000000,2.000000
/home/daniel/Projects/ppsevolution/data/maps/custom_maps/Custom_3_Run_0_Map.csv,0.000000,0.887085,0.924915,1.000000,0.050444,0.000000,1.000000,2.000000,0.619388,0.000000,1.000000,1.000000,1.000000,0.000000,1.000000,2.000000
/home/daniel/Projects/ppsevolution/data/maps/custom_maps/Custom_3_Run_0_Map.csv,0.060672,0.562765,0.948839,0.975272,0.000000,0.000000,1.000000,2.000000,0.356466,0.342023,1.000000,1.000000,0.908826,0.776329,0.903306,2.000000
/home/daniel/Projects/ppsevolution/data/maps/custom_maps/Custom_3_Run_0_Map.csv,0.033853,0.571940,0.803550,1.000000,0.048699,0.082346,0.981520,2.000000,0.472936,0.274495,1.000000,1.000000,0.855539,0.282317,1.000000,2.000000
/home/daniel/Projects/ppsevolution/data/maps/custom_maps/Custom_3_Run_0_Map.csv,0.000000,1.000000,0.663877,1.000000,0.103994,0.127936,1.000000,2.000000,0.190894,0.000000,1.000000,1.000000,0.801490,0.555186,0.746971,2.000000
/home/daniel/Projects/ppsevolution/data/maps/custom_maps/Custom_3_Run_0_Map.csv,0.000000,0.739946,0.897756,1.000000,0.031550,0.567194,1.000000,2.000000,0.416018,0.123231,1.000000,1.000000,0.989374,0.000000,1.000000,2.000000
/home/daniel/Projects/ppsevolution/data/maps/custom_maps/Custom_3_Run_0_Map.csv,0.000000,0.682130,0.774525,1.000000,0.000000,0.677712,0.969704,2.000000,0.155206,0.000000,0.999453,1.000000,0.892392,0.000000,0.922834,2.000000
/home/daniel/Projects/ppsevolution/data/maps/custom_maps/Custom_3_Run_0_Map.csv,0.000000,1.000000,0.579494,1.000000,0.000000,0.394381,1.000000,2.000000,0.005302,0.040668,1.000000,1.000000,0.779753,0.440986,0.804574,2.000000
/home/daniel/Projects/ppsevolution/data/maps/custom_maps/Custom_3_Run_0_Map.csv,0.000000,1.000000,0.868351,0.987897,0.000000,0.183892,1.000000,2.000000,0.298715,0.025983,0.979829,1.000000,0.829767,0.276318,1.000000,2.000000
/home/daniel/Projects/ppsevolution/data/maps/custom_maps/Custom_3_Run_0_Map.csv,0.000000,0.973565,0.648262,1.000000,0.064894,0.168616,1.000000,2.000000,0.077403,0.003875,1.000000,1.000000,0.862412,0.410251,0.924945,2.000000
/home/daniel/Projects/ppsevolution/data/maps/custom_maps/Custom_3_Run_0_Map.csv,0.000000,0.995945,0.991931,0.986961,0.025766,0.202742,1.000000,2.000000,0.413757,0.493401,1.000000,1.000000,0.551171,0.000000,0.639124,2.000000
/home/daniel/Projects/ppsevolution/data/maps/custom_maps/Custom_4_Run_0_Map.csv,0.000000,0.940732,0.300362,0.716540,0.276280,0.179527,0.957793,2.000000,1.000000,0.162211,0.078554,0.600000,0.655746,1.000000,0.157291,1.000000
/home/daniel/Projects/ppsevolution/data/maps/custom_maps/Custom_4_Run_0_Map.csv,0.000000,0.906303,0.346597,0.714220,0.409655,0.135261,0.891225,0.000000,0.941803,0.159041,0.187961,0.567921,0.975091,0.877145,0.044789,1.000000
/home/daniel/Projects/ppsevolution/data/maps/custom_maps/Custom_4_Run_0_Map.csv,0.001098,0.855388,0.661511,0.570582,0.000000,0.148261,0.514946,2.000000,1.000000,0.000000,0.073759,0.592785,0.793409,1.000000,0.250476,2.000000
/home/daniel/Projects/ppsevolution/data/maps/custom_maps/Custom_4_Run_0_Map.csv,0.001931,0.667214,0.196488,0.757945,0.318030,0.000000,1.000000,2.000000,1.000000,0.059312,0.284224,0.495513,0.732237,0.919497,0.138917,0.000000
/home/daniel/Projects/ppsevolution/data/maps/custom_maps/Custom_4_Run_0_Map.csv,0.000000,0.961107,0.050901,0.813520,0.079686,0.000000,1.000000,2.000000,1.000000,0.000000,0.000000,0.666322,1.000000,1.000000,0.000000,1.000000
/home/daniel/Projects/ppsevolution/data/maps/custom_maps/Custom_4_Run_0_Map.csv,0.226638,1.000000,0.336356,0.706681,0.000000,0.000000,0.736438,0.000000,0.887114,0.052605,0.000000,0.689523,1.000000,1.000000,0.156298,2.000000
/home/daniel/Projects/ppsevolution/data/maps/custom_maps/Custom_4_Run_0_Map.csv,0.154173,1.000000,0.119108,0.795525,0.043221,0.133217,0.965149,2.000000,0.998984,0.151408,0.000000,0.695134,0.800414,0.912266,0.000000,1.000000
/home/daniel/Projects/ppsevolution/data/maps/custom_maps/Custom_4_Run_0_Map.csv,0.013305,0.677345,0.192887,0.768165,0.313403,0.046835,0.925503,1.000000,1.000000,0.000000,0.204963,0.548458,0.977319,0.983398,0.177796,1.000000
/home/daniel/Projects/ppsevolution/data/maps/custom_maps/Custom_4_Run_0_Map.csv,0.000000,0.855238,0.184731,0.767153,0.250442,0.050660,1.000000,1.000000,1.000000,0.165760,0.000000,0.632984,1.000000,0.938701,0.336787,2.000000
/home/daniel/Projects/ppsevolution/data/maps/custom_maps/Custom_4_Run_0_Map.csv,0.000000,0.837479,0.215294,0.729075,0.440963,0.118260,1.000000,1.000000,0.840794,0.157216,0.000000,0.647017,0.675675,0.948879,0.000000,2.000000
/home/daniel/Projects/ppsevolution/data/maps/custom_maps/Custom_5_Run_0_Map.csv,0.015123,0.734695,0.000000,1.000000,0.016025,0.052010,0.576741,0.000000,0.281679,0.127687,0.000000,1.000000,0.983947,1.000000,0.072340,1.000000
/home/daniel/Projects/ppsevolution/data/maps/custom_maps/Custom_5_Run_0_Map.csv,0.537985,0.940480,0.473487,0.951966,0.204669,0.000000,0.677819,2.000000,1.000000,0.268863,0.393784,0.946811,0.720958,1.000000,0.119419,1.000000
/home/daniel/Projects/ppsevolution/data/maps/custom_maps/Custom_5_Run_0_Map.csv,0.289722,1.000000,0.023309,1.000000,0.000000,0.000000,0.935847,2.000000,0.724975,0.223321,0.031359,1.000000,1.000000,1.000000,0.000000,1.000000
/home/daniel/Projects/ppsevolution/data/maps/custom_maps/Custom_5_Run_0_Map.csv,0.184438,0.911249,0.210000,1.000000,0.008874,0.507754,0.917767,2.000000,0.964005,0.389039,0.210300,0.971209,0.740103,1.000000,0.000000,1.000000
/home/daniel/Projects/ppsevolution/data/maps/custom_maps/Custom_5_Run_0_Map.csv,0.150457,1.000000,0.444307,0.948142,0.132893,0.000000,1.000000,2.000000,1.000000,0.114325,0.000000,0.955377,0.903595,0.867061,0.000000,1.000000
/home/daniel/Projects/ppsevolution/data/maps/custom_maps/Custom_5_Run_0_Map.csv,0.094908,0.927066,0.651585,0.898231,0.072802,0.294335,1.000000,2.000000,0.973222,0.000000,0.164674,0.907226,1.000000,1.000000,0.407798,0.000000
/home/daniel/Projects/ppsevolution/data/maps/custom_maps/Custom_5_Run_0_Map.csv,0.152899,1.000000,0.328218,1.000000,0.000529,0.000000,0.575145,0.000000,0.947183,0.000000,0.000000,1.000000,0.884024,0.896343,0.055452,2.000000
/home/daniel/Projects/ppsevolution/data/maps/custom_maps/Custom_5_Run_0_Map.csv,0.090386,0.780247,0.120772,1.000000,0.198940,0.130849,1.000000,1.000000,0.738044,0.096389,0.428215,0.935114,1.000000,0.933879,0.060914,2.000000
/home/daniel/Projects/ppsevolution/data/maps/custom_maps/Custom_5_Run_0_Map.csv,0.270309,0.443196,0.135594,1.000000,0.000000,0.255511,1.000000,0.000000,0.698359,0.000000,0.000000,1.000000,1.000000,0.926138,0.000000,2.000000
/home/daniel/Projects/ppsevolution/data/maps/custom_maps/Custom_5_Run_0_Map.csv,0.282104,0.907299,0.168125,1.000000,0.141864,0.024273,0.902685,1.000000,0.817602,0.450223,0.000000,1.000000,0.901160,0.743694,0.000000,2.000000
/home/daniel/Projects/ppsevolution/data/maps/custom_maps/Custom_6_Run_0_Map.csv,0.127736,1.000000,0.000000,1.000000,0.000000,0.155250,0.165699,2.000000,1.000000,0.415002,1.000000,0.923264,0.886714,1.000000,1.000000,2.000000
/home/daniel/Projects/ppsevolution/data/maps/custom_maps/Custom_6_Run_0_Map.csv,0.206161,1.000000,0.000000,1.000000,0.000000,0.033505,0.614335,2.000000,1.000000,0.418281,1.000000,0.922842,1.000000,1.000000,0.871444,2.000000
/home/daniel/Projects/ppsevolution/data/maps/custom_maps/Custom_6_Run_0_Map.csv,0.088317,1.000000,0.000000,1.000000,0.056624,0.112543,0.953405,2.000000,1.000000,0.106579,0.994518,0.896599,1.000000,0.952641,0.528825,2.000000
/home/daniel/Projects/ppsevolution/data/maps/custom_maps/Custom_6_Run_0_Map.csv,0.052375,0.787253,0.000000,1.000000,0.068410,0.000000,0.769122,2.000000,1.000000,0.019421,1.000000,0.910391,1.000000,1.000000,1.000000,2.000000
/home/daniel/Projects/ppsevolution/data/maps/custom_maps/Custom_6_Run_0_Map.csv,0.000000,0.818735,0.000000,1.000000,0.000000,0.229554,0.871972,2.000000,1.000000,0.343480,1.000000,0.890783,0.677788,0.984292,0.569360,2.000000
/home/daniel/Projects/ppsevolution/data/maps/custom_maps/Custom_6_Run_0_Map.csv,0.000000,0.672787,0.000000,1.000000,0.112869,0.035753,0.648600,2.000000,0.986954,0.440281,1.000000,0.903255,0.681529,1.000000,0.916919,2.000000
/home/daniel/Projects/ppsevolution/data/maps/custom_maps/Custom_6_Run_0_Map.csv,0.190639,1.000000,0.000000,1.000000,0.000000,0.113605,0.373041,2.000000,1.000000,0.143449,0.962430,0.916869,1.000000,0.891416,0.702975,2.000000
/home/daniel/Projects/ppsevolution/data/maps/custom_maps/Custom_6_Run_0_Map.csv,0.233584,0.852995,0.000000,1.000000,0.014310,0.044977,1.000000,2.000000,1.000000,0.225856,1.000000,0.913643,0.949348,1.000000,0.982003,2.000000
/home/daniel/Projects/ppsevolution/data/maps/custom_maps/Custom_6_Run_0_Map.csv,0.000000,1.000000,0.000000,1.000000,0.060834,0.394246,0.147666,2.000000,0.979649,0.021347,0.756536,0.915942,0.922835,1.000000,0.639260,2.000000
/home/daniel/Projects/ppsevolution/data/maps/custom_maps/Custom_6_Run_0_Map.csv,0.092011,0.834146,0.000000,1.000000,0.000000,0.032629,0.638099,2.000000,0.993784,0.107317,0.866303,0.917997,0.896837,0.994630,1.000000,2.000000
/home/daniel/Projects/ppsevolution/data/maps/custom_maps/Custom_7_Run_0_Map.csv,0.514858,0.792745,0.749385,0.960640,0.038735,0.000000,0.967188,1.000000,0.827149,0.000000,0.313075,1.000000,1.000000,1.000000,0.141082,1.000000
/home/daniel/Projects/ppsevolution/data/maps/custom_maps/Custom_7_Run_0_Map.csv,0.010022,1.000000,0.344939,1.000000,0.000000,0.000000,1.000000,1.000000,0.862153,0.360879,0.056057,1.000000,0.980200,0.607466,0.071465,0.000000
/home/daniel/Projects/ppsevolution/data/maps/custom_maps/Custom_7_Run_0_Map.csv,0.166154,0.946697,0.127116,1.000000,0.265403,0.000000,0.775744,2.000000,0.867098,0.000000,0.052088,1.000000,1.000000,0.952184,0.000000,1.000000
/home/daniel/Projects/ppsevolution/data/maps/custom_maps/Custom_7_Run_0_Map.csv,0.000000,0.682982,0.282242,1.000000,0.009784,0.000000,1.000000,0.000000,0.773788,0.044115,0.000000,1.000000,0.750464,0.854997,0.000000,1.000000
/home/daniel/Projects/ppsevolution/data/maps/custom_maps/Custom_7_Run_0_Map.csv,0.000000,1.000000,0.118890,1.000000,0.096022,0.035500,0.926743,0.000000,0.306148,0.062767,0.145505,1.000000,0.916234,1.000000,0.000000,0.000000
/home/daniel/Projects/ppsevolution/data/maps/custom_maps/Custom_7_Run_0_Map.csv,0.291934,0.943515,0.295437,1.000000,0.000000,0.000000,1.000000,1.000000,1.000000,0.125346,0.134698,1.000000,0.847177,0.857061,0.225932,0.000000
/home/daniel/Projects/ppsevolution/data/maps/custom_maps/Custom_7_Run_0_Map.csv,0.130935,1.000000,0.287622,1.000000,0.000000,0.254151,0.794417,0.000000,0.975538,0.135534,0.213531,0.973739,0.915738,0.998245,0.059560,1.000000
/home/daniel/Projects/ppsevolution/data/maps/custom_maps/Custom_7_Run_0_Map.csv,0.000000,1.000000,0.294254,1.000000,0.000000,0.375931,0.985830,1.000000,0.913353,0.144925,0.000000,1.000000,0.986286,0.928192,0.203460,0.000000
/home/daniel/Projects/ppsevolution/data/maps/custom_maps/Custom_7_Run_0_Map.csv,0.000000,0.781617,0.549008,1.000000,0.067520,0.064061,0.980314,0.000000,1.000000,0.151143,0.093054,1.000000,0.950758,0.674076,0.000000,0.000000
/home/daniel/Projects/ppsevolution/data/maps/custom_maps/Custom_7_Run_0_Map.csv,0.001515,0.466777,0.357632,1.000000,0.038663,0.000000,0.546433,0.000000,0.982547,0.303602,0.000000,1.000000,0.700001,0.942347,0.262888,1.000000
/home/daniel/Projects/ppsevolution/data/maps/custom_maps/Custom_8_Run_0_Map.csv,0.000000,0.807937,0.232585,0.800000,0.112984,0.294706,0.878021,1.000000,0.870771,0.147440,0.000000,0.732789,1.000000,0.833986,0.194170,0.000000
/home/daniel/Projects/ppsevolution/data/maps/custom_maps/Custom_8_Run_0_Map.csv,0.000000,0.831263,0.290690,0.780493,0.089946,0.000000,0.994227,1.000000,0.907013,0.093239,0.209302,0.651389,0.838808,0.946773,0.052982,0.000000
/home/daniel/Projects/ppsevolution/data/maps/custom_maps/Custom_8_Run_0_Map.csv,0.000000,0.976972,0.558632,0.675841,0.000000,0.078758,1.000000,1.000000,0.851488,0.000000,0.000000,0.744310,1.000000,0.614710,0.000000,0.000000
/home/daniel/Projects/ppsevolution/data/maps/custom_maps/Custom_8_Run_0_Map.csv,0.069007,1.000000,0.210000,0.800000,0.104589,0.160295,0.986008,2.000000,1.000000,0.007234,0.084564,0.698498,0.855296,1.000000,0.000000,2.000000
/home/daniel/Projects/ppsevolution/data/maps/custom_maps/Custom_8_Run_0_Map.csv,0.000000,0.946424,0.210000,0.796103,0.000000,0.000000,0.971698,2.000000,1.000000,0.097187,0.000000,0.703276,1.000000,0.856101,0.205474,2.000000
/home/daniel/Projects/ppsevolution/data/maps/custom_maps/Custom_8_Run_0_Map.csv,0.000000,1.000000,0.143150,0.824499,0.265333,0.000000,0.955811,2.000000,0.959769,0.129772,0.035775,0.712055,0.850116,0.792905,0.221587,0.000000
/home/daniel/Projects/ppsevolution/data/maps/custom_maps/Custom_8_Run_0_Map.csv,0.094542,1.000000,0.253900,0.816217,0.123030,0.087061,1.000000,1.000000,1.000000,0.031848,0.000000,0.763110,1.000000,1.000000,0.000000,0.000000
/home/daniel/Projects/ppsevolution/data/maps/custom_maps/Custom_8_Run_0_Map.csv,0.026599,1.000000,0.138059,0.846537,0.083755,0.000000,0.900371,0.000000,0.889282,0.320128,0.112015,0.716289,0.976355,0.910579,0.086470,0.000000
/home/daniel/Projects/ppsevolution/data/maps/custom_maps/Custom_8_Run_0_Map.csv,0.088863,1.000000,0.578254,0.693445,0.269574,0.529703,0.929500,1.000000,1.000000,0.029783,0.449921,0.550617,0.885590,0.801747,0.222226,0.000000
/home/daniel/Projects/ppsevolution/data/maps/custom_maps/Custom_8_Run_0_Map.csv,0.014083,1.000000,0.485445,0.714492,0.119200,0.158984,0.896367,2.000000,1.000000,0.358995,0.000000,0.727082,0.819568,1.000000,0.000000,1.000000
/home/daniel/Projects/ppsevolution/data/maps/custom_maps/Custom_9_Run_0_Map.csv,0.175897,0.922029,0.296128,0.681023,0.269597,0.073336,1.000000,0.000000,1.000000,0.344236,0.157326,0.592550,1.000000,1.000000,0.131575,2.000000
/home/daniel/Projects/ppsevolution/data/maps/custom_maps/Custom_9_Run_0_Map.csv,0.000000,0.884265,0.228968,0.672457,0.069968,0.063833,0.988364,1.000000,0.867248,0.239019,0.000000,0.593840,0.969414,0.843946,0.532811,2.000000
/home/daniel/Projects/ppsevolution/data/maps/custom_maps/Custom_9_Run_0_Map.csv,0.000000,1.000000,0.000000,0.822039,0.000000,0.000000,0.877080,0.000000,0.975149,0.075260,0.000000,0.672369,0.927357,1.000000,0.079721,1.000000
/home/daniel/Projects/ppsevolution/data/maps/custom_maps/Custom_9_Run_0_Map.csv,0.015301,0.874301,0.195687,0.733412,0.000000,0.000000,0.799332,0.000000,0.927239,0.292201,0.019212,0.644164,0.739007,0.787354,0.000000,2.000000
/home/daniel/Projects/ppsevolution/data/maps/custom_maps/Custom_9_Run_0_Map.csv,0.000000,0.765164,0.219868,0.734335,0.003048,0.158114,0.809951,0.000000,1.000000,0.000000,0.002158,0.639236,0.908183,1.000000,0.169940,2.000000
/home/daniel/Projects/ppsevolution/data/maps/custom_maps/Custom_9_Run_0_Map.csv,0.000000,0.635337,0.001603,0.800000,0.099001,0.000000,0.947280,1.000000,0.938245,0.000000,0.000000,0.653182,1.000000,0.908283,0.088090,2.000000
/home/daniel/Projects/ppsevolution/data/maps/custom_maps/Custom_9_Run_0_Map.csv,0.463596,0.695069,0.048696,0.761175,0.016209,0.047955,1.000000,2.000000,1.000000,0.058243,0.278259,0.602703,1.000000,1.000000,0.120877,1.000000
/home/daniel/Projects/ppsevolution/data/maps/custom_maps/Custom_9_Run_0_Map.csv,0.000000,0.872195,0.187617,0.750680,0.123843,0.211454,0.842062,0.000000,0.977912,0.152296,0.000000,0.647211,0.941061,0.910805,0.376294,0.000000
/home/daniel/Projects/ppsevolution/data/maps/custom_maps/Custom_9_Run_0_Map.csv,0.000000,1.000000,0.210000,0.715778,0.078041,0.084277,1.000000,0.000000,0.897010,0.000000,0.000000,0.654006,1.000000,1.000000,0.000000,1.000000
/home/daniel/Projects/ppsevolution/data/maps/custom_maps/Custom_9_Run_0_Map.csv,0.000000,1.000000,0.182081,0.715346,0.000000,0.073696,0.977913,1.000000,0.935388,0.194755,0.000000,0.619523,0.981204,1.000000,0.245145,2.000000
/home/daniel/Projects/ppsevolution/data/maps/custom_maps/Custom_10_Run_0_Map.csv,0.002424,0.842409,0.947935,0.987080,0.123518,0.000000,0.954964,2.000000,0.725130,0.331107,0.601973,1.000000,0.884040,0.906371,0.650758,2.000000
/home/daniel/Projects/ppsevolution/data/maps/custom_maps/Custom_10_Run_0_Map.csv,0.076215,0.557800,0.620476,1.000000,0.151645,0.199727,1.000000,2.000000,0.240041,0.138950,0.948873,1.000000,1.000000,1.000000,0.270194,1.000000
/home/daniel/Projects/ppsevolution/data/maps/custom_maps/Custom_10_Run_0_Map.csv,0.037017,0.916327,0.775212,1.000000,0.149892,0.339459,1.000000,2.000000,0.562916,0.000000,0.882610,1.000000,0.504611,0.809239,0.693390,0.000000
/home/daniel/Projects/ppsevolution/data/maps/custom_maps/Custom_10_Run_0_Map.csv,0.000000,0.901420,0.789725,1.000000,0.387996,0.000000,1.000000,2.000000,0.457720,0.095857,0.836487,1.000000,0.603689,0.477025,0.758378,2.000000
/home/daniel/Projects/ppsevolution/data/maps/custom_maps/Custom_10_Run_0_Map.csv,0.080166,0.679784,0.527033,1.000000,0.000000,0.204648,0.897881,2.000000,0.000000,0.048439,1.000000,1.000000,0.697914,0.663380,0.493183,2.000000
/home/daniel/Projects/ppsevolution/data/maps/custom_maps/Custom_10_Run_0_Map.csv,0.000000,0.901969,0.939875,1.000000,0.000000,0.780572,1.000000,2.000000,0.678710,0.000000,0.997865,1.000000,0.913424,0.907945,0.240744,0.000000
/home/daniel/Projects/ppsevolution/data/maps/custom_maps/Custom_10_Run_0_Map.csv,0.414534,0.884522,0.907642,0.987239,0.021148,0.302588,1.000000,2.000000,0.587196,0.409025,0.921739,1.000000,0.543296,0.343078,0.111282,1.000000
/home/daniel/Projects/ppsevolution/data/maps/custom_maps/Custom_10_Run_0_Map.csv,0.000000,0.568746,0.874777,1.000000,0.000000,0.179595,1.000000,2.000000,0.689763,0.436997,0.676546,1.000000,0.926276,0.407712,0.367600,0.000000
/home/daniel/Projects/ppsevolution/data/maps/custom_maps/Custom_10_Run_0_Map.csv,0.000000,0.871240,0.953649,1.000000,0.593955,0.072867,0.922310,2.000000,0.720931,0.026785,0.722135,1.000000,0.631065,0.000000,0.929806,2.000000
/home/daniel/Projects/ppsevolution/data/maps/custom_maps/Custom_10_Run_0_Map.csv,0.217355,0.381508,0.808324,1.000000,0.263328,0.974400,1.000000,2.000000,0.585460,0.250306,1.000000,1.000000,1.000000,0.670807,0.643092,2.000000
