map,fitness,multi_squared_error 0,multi_squared_error 1,team0ratio,time,Sqrt. sum of fitnesses,HP,Speed,Damage,Acc,ClipSize,RateOfFire,NrBullets,Range,HP,Speed,Damage,Acc,ClipSize,RateOfFire,NrBullets,Range,HP,Speed,Damage,Acc,ClipSize,RateOfFire,NrBullets,Range,HP,Speed,Damage,Acc,ClipSize,RateOfFire,NrBullets,Range,Run,target team0ratio: 0.5,target time: 0.36
/home/daniel/Projects/ppsevolution/data/maps/custom_maps/Custom_8_Run_0_Map.csv,multi_squared_error,0.000000,0.000005,0.500013,0.362210,0.0022095973973880315,0.096715,1.000000,0.270289,0.800000,0.095070,0.181218,0.932769,1.000000,1.000000,0.000000,0.122835,0.705169,0.919273,1.000000,0.000000,0.000000,141.925051,1.330000,66.812909,0.800000,19.918962,2.221572,9.394923,1.000000,300.000000,0.770000,50.003204,0.705169,183.935241,10.000000,1.000000,0.000000,0
/home/daniel/Projects/ppsevolution/data/maps/custom_maps/Custom_8_Run_0_Map.csv,multi_squared_error,0.000000,0.000000,0.499952,0.360314,0.0003171784115281712,0.000000,0.935418,0.210000,0.800000,0.030000,0.063533,1.000000,2.000000,1.000000,0.130478,0.104730,0.666390,0.891692,0.616344,0.134425,1.000000,125.000000,1.293834,59.940000,0.800000,6.970000,1.103559,10.000000,2.000000,300.000000,0.843068,47.939266,0.666390,178.446668,6.355265,2.209826,1.000000,0
/home/daniel/Projects/ppsevolution/data/maps/custom_maps/Custom_8_Run_0_Map.csv,multi_squared_error,0.000000,0.000000,0.499806,0.360211,0.0002868055565690478,0.000000,0.935418,0.210000,0.800000,0.030000,0.063533,1.000000,2.000000,1.000000,0.130478,0.104730,0.666390,0.891692,0.616344,0.138592,1.000000,125.000000,1.293834,59.940000,0.800000,6.970000,1.103559,10.000000,2.000000,300.000000,0.843068,47.939266,0.666390,178.446668,6.355265,2.247327,1.000000,0
/home/daniel/Projects/ppsevolution/data/maps/custom_maps/Custom_8_Run_0_Map.csv,multi_squared_error,0.000000,0.000000,0.499300,0.359802,0.0007278848789987065,0.000000,0.935418,0.210000,0.800000,0.030000,0.063533,1.000000,2.000000,1.000000,0.121839,0.104730,0.666390,0.891692,0.616344,0.155473,1.000000,125.000000,1.293834,59.940000,0.800000,6.970000,1.103559,10.000000,2.000000,300.000000,0.838230,47.939266,0.666390,178.446668,6.355265,2.399255,1.000000,0
/home/daniel/Projects/ppsevolution/data/maps/custom_maps/Custom_8_Run_0_Map.csv,multi_squared_error,0.000001,0.000000,0.499273,0.360164,0.0007450910034468626,0.000000,0.935418,0.210000,0.800000,0.030000,0.164271,1.000000,2.000000,1.000000,0.116730,0.104730,0.666390,0.891692,0.612774,0.134425,1.000000,125.000000,1.293834,59.940000,0.800000,6.970000,2.060579,10.000000,2.000000,300.000000,0.835369,47.939266,0.666390,178.446668,6.321352,2.209826,1.000000,0
/home/daniel/Projects/ppsevolution/data/maps/custom_maps/Custom_8_Run_0_Map.csv,multi_squared_error,0.000005,0.000000,0.502248,0.360073,0.0022488675962894842,0.000000,1.000000,0.210000,0.800000,0.030000,0.063533,1.000000,2.000000,1.000000,0.121839,0.104730,0.666390,0.891692,0.810887,0.134425,1.000000,125.000000,1.330000,59.940000,0.800000,6.970000,1.103559,10.000000,2.000000,300.000000,0.838230,47.939266,0.666390,178.446668,8.203425,2.209826,1.000000,0
/home/daniel/Projects/ppsevolution/data/maps/custom_maps/Custom_8_Run_0_Map.csv,multi_squared_error,0.000011,0.000000,0.503330,0.360026,0.0033303324537018873,0.000000,1.000000,0.210000,0.800000,0.030000,0.063533,1.000000,2.000000,1.000000,0.000000,0.104730,0.666390,0.891692,0.810887,0.138592,1.000000,125.000000,1.330000,59.940000,0.800000,6.970000,1.103559,10.000000,2.000000,300.000000,0.770000,47.939266,0.666390,178.446668,8.203425,2.247327,1.000000,0
/home/daniel/Projects/ppsevolution/data/maps/custom_maps/Custom_8_Run_0_Map.csv,multi_squared_error,0.000028,0.000000,0.494713,0.359991,0.00528682031805759,0.000000,0.947868,0.258698,0.803366,0.023739,0.000000,0.900504,0.000000,0.981408,0.000000,0.259417,0.618278,0.989168,1.000000,0.176471,2.000000,125.000000,1.300806,65.491556,0.803366,5.724068,0.500000,9.104534,0.000000,296.746320,0.770000,65.573536,0.618278,197.844493,10.000000,2.588235,2.000000,0
map,fitness,multi_squared_error 0,multi_squared_error 1,team0ratio,time,Sqrt. sum of fitnesses,HP,Speed,Damage,Acc,ClipSize,RateOfFire,NrBullets,Range,HP,Speed,Damage,Acc,ClipSize,RateOfFire,NrBullets,Range,HP,Speed,Damage,Acc,ClipSize,RateOfFire,NrBullets,Range,HP,Speed,Damage,Acc,ClipSize,RateOfFire,NrBullets,Range,Run,target team0ratio: 0.5,target time: 0.36
/home/daniel/Projects/ppsevolution/data/maps/custom_maps/Custom_8_Run_0_Map.csv,multi_squared_error,0.000000,0.000007,0.499983,0.357424,0.0025762158363604095,0.000000,1.000000,0.279769,0.800000,0.000000,0.000000,0.795124,2.000000,1.000000,0.086505,0.001065,0.740837,0.689914,1.000000,0.000000,0.000000,125.000000,1.330000,67.893633,0.800000,1.000000,0.500000,8.156115,2.000000,300.000000,0.818443,36.121387,0.740837,138.292899,10.000000,1.000000,0.000000,1
/home/daniel/Projects/ppsevolution/data/maps/custom_maps/Custom_8_Run_0_Map.csv,multi_squared_error,0.000000,0.000006,0.500040,0.362470,0.002470297865117256,0.153264,1.000000,0.210000,0.800000,0.000000,0.072350,0.967877,2.000000,1.000000,0.064122,0.000000,0.741140,1.000000,1.000000,0.092714,1.000000,151.821189,1.330000,59.940000,0.800000,1.000000,1.187322,9.710889,2.000000,300.000000,0.805908,36.000000,0.741140,200.000000,10.000000,1.834424,1.000000,1
/home/daniel/Projects/ppsevolution/data/maps/custom_maps/Custom_8_Run_0_Map.csv,multi_squared_error,0.000000,0.000003,0.500080,0.358258,0.0017443463673937956,0.063568,1.000000,0.210000,0.823102,0.157327,0.060498,1.000000,0.000000,1.000000,0.175828,0.000000,0.741140,0.689914,1.000000,0.045575,2.000000,136.124385,1.330000,59.940000,0.823102,32.308039,1.074732,10.000000,0.000000,300.000000,0.868464,36.000000,0.741140,138.292899,10.000000,1.410171,2.000000,1
/home/daniel/Projects/ppsevolution/data/maps/custom_maps/Custom_8_Run_0_Map.csv,multi_squared_error,0.000000,0.000000,0.500149,0.359318,0.0006981626332036058,0.007672,0.973586,0.279769,0.800000,0.030000,0.060427,1.000000,1.000000,1.000000,0.000000,0.000000,0.741140,0.689914,1.000000,0.000000,0.000000,126.342522,1.315208,67.893633,0.800000,6.970000,1.074056,10.000000,1.000000,300.000000,0.770000,36.000000,0.741140,138.292899,10.000000,1.000000,0.000000,1
/home/daniel/Projects/ppsevolution/data/maps/custom_maps/Custom_8_Run_0_Map.csv,multi_squared_error,0.000001,0.000000,0.498820,0.360020,0.0011800649537044028,0.202027,0.959447,0.306234,0.781928,0.099718,0.060498,1.000000,1.000000,1.000000,0.000000,0.058081,0.740837,0.832032,0.973496,0.000000,1.000000,160.354705,1.307290,70.910650,0.781928,20.843934,1.074732,10.000000,1.000000,300.000000,0.770000,42.621226,0.740837,166.574340,9.748209,1.000000,1.000000,1
/home/daniel/Projects/ppsevolution/data/maps/custom_maps/Custom_8_Run_0_Map.csv,multi_squared_error,0.001067,0.000000,0.467331,0.359999,0.032669216421367185,0.000000,1.000000,0.210000,0.800000,0.000000,0.000000,1.000000,2.000000,1.000000,0.136815,0.000000,0.741140,1.000000,1.000000,0.052843,0.000000,125.000000,1.330000,59.940000,0.800000,1.000000,0.500000,10.000000,2.000000,300.000000,0.846617,36.000000,0.741140,200.000000,10.000000,1.475586,0.000000,1
map,fitness,multi_squared_error 0,multi_squared_error 1,team0ratio,time,Sqrt. sum of fitnesses,HP,Speed,Damage,Acc,ClipSize,RateOfFire,NrBullets,Range,HP,Speed,Damage,Acc,ClipSize,RateOfFire,NrBullets,Range,HP,Speed,Damage,Acc,ClipSize,RateOfFire,NrBullets,Range,HP,Speed,Damage,Acc,ClipSize,RateOfFire,NrBullets,Range,Run,target team0ratio: 0.5,target time: 0.36
/home/daniel/Projects/ppsevolution/data/maps/custom_maps/Custom_8_Run_0_Map.csv,multi_squared_error,0.000000,0.000009,0.500006,0.362991,0.002990863227118917,0.000000,0.867334,0.210000,0.800000,0.000000,0.138149,0.995361,2.000000,0.972278,0.010922,0.000000,0.722918,0.961631,1.000000,0.037842,0.000000,125.000000,1.255707,59.940000,0.800000,1.000000,1.812419,9.958251,2.000000,295.148642,0.776117,36.000000,0.722918,192.364643,10.000000,1.340582,0.000000,2
/home/daniel/Projects/ppsevolution/data/maps/custom_maps/Custom_8_Run_0_Map.csv,multi_squared_error,0.000000,0.000000,0.500023,0.359568,0.0004322896725876592,0.000000,0.952406,0.210000,0.829907,0.113541,0.008074,0.977262,0.000000,1.000000,0.125021,0.105627,0.700419,0.961631,1.000000,0.037842,1.000000,125.000000,1.303348,59.940000,0.829907,23.594741,0.576700,9.795354,0.000000,300.000000,0.840012,48.041469,0.700419,192.364643,10.000000,1.340582,1.000000,2
/home/daniel/Projects/ppsevolution/data/maps/custom_maps/Custom_8_Run_0_Map.csv,multi_squared_error,0.000001,0.000000,0.501186,0.360379,0.0012449057299556562,0.000000,0.869969,0.210000,0.800000,0.080109,0.068687,1.000000,2.000000,1.000000,0.017102,0.031767,0.700419,1.000000,0.842438,0.000000,2.000000,125.000000,1.257183,59.940000,0.800000,16.941691,1.152529,10.000000,2.000000,300.000000,0.779577,39.621408,0.700419,200.000000,8.503159,1.000000,2.000000,2
/home/daniel/Projects/ppsevolution/data/maps/custom_maps/Custom_8_Run_0_Map.csv,multi_squared_error,0.000002,0.000000,0.501253,0.360178,0.0012652933111357298,0.000000,0.869969,0.210000,0.800000,0.017891,0.068687,1.000000,2.000000,1.000000,0.017102,0.031767,0.700419,1.000000,0.842438,0.000000,2.000000,125.000000,1.257183,59.940000,0.800000,4.560332,1.152529,10.000000,2.000000,300.000000,0.779577,39.621408,0.700419,200.000000,8.503159,1.000000,2.000000,2
/home/daniel/Projects/ppsevolution/data/maps/custom_maps/Custom_8_Run_0_Map.csv,multi_squared_error,0.000002,0.000000,0.498546,0.359893,0.0014575083699896842,0.000000,1.000000,0.210000,0.800000,0.004833,0.156533,0.995361,2.000000,0.972278,0.010922,0.000000,0.722918,1.000000,1.000000,0.000000,1.000000,125.000000,1.330000,59.940000,0.800000,1.961817,1.987068,9.958251,2.000000,295.148642,0.776117,36.000000,0.722918,200.000000,10.000000,1.000000,1.000000,2
/home/daniel/Projects/ppsevolution/data/maps/custom_maps/Custom_8_Run_0_Map.csv,multi_squared_error,0.000002,0.000000,0.498506,0.359914,0.0014969496807844531,0.000000,1.000000,0.210000,0.800000,0.000000,0.138149,0.995361,2.000000,0.972278,0.000000,0.000000,0.722918,1.000000,0.975350,0.000000,1.000000,125.000000,1.330000,59.940000,0.800000,1.000000,1.812419,9.958251,2.000000,295.148642,0.770000,36.000000,0.722918,200.000000,9.765829,1.000000,1.000000,2
/home/daniel/Projects/ppsevolution/data/maps/custom_maps/Custom_8_Run_0_Map.csv,multi_squared_error,0.000002,0.000000,0.501510,0.359972,0.00151058996897257,0.000000,0.962080,0.210000,0.800000,0.004833,0.054006,1.000000,2.000000,1.000000,0.017102,0.031767,0.700419,1.000000,0.842438,0.000000,2.000000,125.000000,1.308765,59.940000,0.800000,1.961817,1.013057,10.000000,2.000000,300.000000,0.779577,39.621408,0.700419,200.000000,8.503159,1.000000,2.000000,2
/home/daniel/Projects/ppsevolution/data/maps/custom_maps/Custom_8_Run_0_Map.csv,multi_squared_error,0.000189,0.000000,0.513739,0.360002,0.013739466871356638,0.119834,1.000000,0.239381,0.821125,0.004833,0.036072,1.000000,0.000000,1.000000,0.000000,0.171585,0.687657,1.000000,0.875144,0.000000,1.000000,145.971023,1.330000,63.289416,0.821125,1.961817,0.842685,10.000000,0.000000,300.000000,0.770000,55.560696,0.687657,200.000000,8.813868,1.000000,1.000000,2
map,fitness,multi_squared_error 0,multi_squared_error 1,team0ratio,time,Sqrt. sum of fitnesses,HP,Speed,Damage,Acc,ClipSize,RateOfFire,NrBullets,Range,HP,Speed,Damage,Acc,ClipSize,RateOfFire,NrBullets,Range,HP,Speed,Damage,Acc,ClipSize,RateOfFire,NrBullets,Range,HP,Speed,Damage,Acc,ClipSize,RateOfFire,NrBullets,Range,Run,target team0ratio: 0.5,target time: 0.36
/home/daniel/Projects/ppsevolution/data/maps/custom_maps/Custom_8_Run_0_Map.csv,multi_squared_error,0.000000,0.000031,0.499979,0.365600,0.005600150209362597,0.000000,0.863019,0.000000,0.874013,0.000000,0.030000,0.958469,1.000000,0.900481,0.000000,0.000000,0.752766,1.000000,0.844246,0.000000,0.000000,125.000000,1.253291,36.000000,0.874013,1.000000,0.785000,9.626225,1.000000,282.584105,0.770000,36.000000,0.752766,200.000000,8.520337,1.000000,0.000000,3
/home/daniel/Projects/ppsevolution/data/maps/custom_maps/Custom_8_Run_0_Map.csv,multi_squared_error,0.000000,0.000003,0.500055,0.358392,0.0016084804739205146,0.000000,0.938984,0.287274,0.800000,0.000000,0.224573,0.953342,0.000000,1.000000,0.000000,0.000000,0.728661,1.000000,0.966559,0.013639,2.000000,125.000000,1.295831,68.749196,0.800000,1.000000,2.633441,9.580077,0.000000,300.000000,0.770000,36.000000,0.728661,200.000000,9.682311,1.122749,2.000000,3
/home/daniel/Projects/ppsevolution/data/maps/custom_maps/Custom_8_Run_0_Map.csv,multi_squared_error,0.000000,0.000002,0.499693,0.361261,0.001298038409638872,0.000000,0.796058,0.287274,0.800000,0.000000,0.001161,0.863879,0.000000,1.000000,0.000000,0.000000,0.728661,1.000000,0.983293,0.000000,2.000000,125.000000,1.215792,68.749196,0.800000,1.000000,0.511030,8.774908,0.000000,300.000000,0.770000,36.000000,0.728661,200.000000,9.841286,1.000000,2.000000,3
/home/daniel/Projects/ppsevolution/data/maps/custom_maps/Custom_8_Run_0_Map.csv,multi_squared_error,0.000000,0.000001,0.500409,0.359164,0.0009312217700145087,0.000000,0.796058,0.287274,0.800000,0.000000,0.080908,0.943474,0.000000,1.000000,0.000000,0.000000,0.728661,1.000000,0.910708,0.000000,2.000000,125.000000,1.215792,68.749196,0.800000,1.000000,1.268629,9.491269,0.000000,300.000000,0.770000,36.000000,0.728661,200.000000,9.151722,1.000000,2.000000,3
/home/daniel/Projects/ppsevolution/data/maps/custom_maps/Custom_8_Run_0_Map.csv,multi_squared_error,0.000001,0.000000,0.499175,0.359881,0.0008330821795173142,0.000000,0.796058,0.287274,0.800000,0.165229,0.080908,0.943474,0.000000,1.000000,0.000000,0.000000,0.728661,1.000000,0.820651,0.000000,2.000000,125.000000,1.215792,68.749196,0.800000,33.880528,1.268629,9.491269,0.000000,300.000000,0.770000,36.000000,0.728661,200.000000,8.296185,1.000000,2.000000,3
/home/daniel/Projects/ppsevolution/data/maps/custom_maps/Custom_8_Run_0_Map.csv,multi_squared_error,0.000021,0.000000,0.495395,0.359903,0.004605604469483318,0.000000,0.796058,0.287274,0.800000,0.165229,0.000000,1.000000,0.000000,1.000000,0.000000,0.015908,0.728661,1.000000,0.982708,0.092275,1.000000,125.000000,1.215792,68.749196,0.800000,33.880528,0.500000,10.000000,0.000000,300.000000,0.770000,37.813548,0.728661,200.000000,9.835724,1.830477,1.000000,3
/home/daniel/Projects/ppsevolution/data/maps/custom_maps/Custom_8_Run_0_Map.csv,multi_squared_error,0.000039,0.000000,0.506218,0.359951,0.006217911751627421,0.000000,0.911554,0.287274,0.800000,0.000000,0.080908,0.943474,0.000000,1.000000,0.000000,0.000000,0.725742,0.752536,0.922971,0.000000,2.000000,125.000000,1.280470,68.749196,0.800000,1.000000,1.268629,9.491269,0.000000,300.000000,0.770000,36.000000,0.725742,150.754717,9.268225,1.000000,2.000000,3
/home/daniel/Projects/ppsevolution/data/maps/custom_maps/Custom_8_Run_0_Map.csv,multi_squared_error,0.001590,0.000000,0.539872,0.360025,0.03987235634576146,0.071093,1.000000,0.247492,0.800000,0.030000,0.066557,0.740537,2.000000,0.897458,0.000000,0.000000,0.728661,0.839713,0.983293,0.092275,0.000000,137.441228,1.330000,64.214089,0.800000,6.970000,1.132292,7.664830,2.000000,282.055158,0.770000,36.000000,0.728661,168.102811,9.841286,1.830477,0.000000,3
/home/daniel/Projects/ppsevolution/data/maps/custom_maps/Custom_8_Run_0_Map.csv,multi_squared_error,0.002047,0.000000,0.545242,0.359976,0.04524219676180651,0.000000,0.812382,0.009101,0.874013,0.000000,0.030000,0.958469,2.000000,0.900481,0.000000,0.000000,0.728661,1.000000,0.858341,0.000000,0.000000,125.000000,1.224934,37.037546,0.874013,1.000000,0.785000,9.626225,2.000000,282.584105,0.770000,36.000000,0.728661,200.000000,8.654235,1.000000,0.000000,3
/home/daniel/Projects/ppsevolution/data/maps/custom_maps/Custom_8_Run_0_Map.csv,multi_squared_error,0.004460,0.000000,0.433215,0.360002,0.06678470973723799,0.000000,1.000000,0.185160,0.801323,0.000000,0.000000,0.765597,1.000000,0.932586,0.004537,0.000000,0.756591,0.796268,1.000000,0.148082,1.000000,125.000000,1.330000,57.108276,0.801323,1.000000,0.500000,7.890371,1.000000,288.202471,0.772541,36.000000,0.756591,159.457269,10.000000,2.332741,1.000000,3
map,fitness,multi_squared_error 0,multi_squared_error 1,team0ratio,time,Sqrt. sum of fitnesses,HP,Speed,Damage,Acc,ClipSize,RateOfFire,NrBullets,Range,HP,Speed,Damage,Acc,ClipSize,RateOfFire,NrBullets,Range,HP,Speed,Damage,Acc,ClipSize,RateOfFire,NrBullets,Range,HP,Speed,Damage,Acc,ClipSize,RateOfFire,NrBullets,Range,Run,target team0ratio: 0.5,target time: 0.36
/home/daniel/Projects/ppsevolution/data/maps/custom_maps/Custom_8_Run_0_Map.csv,multi_squared_error,0.000000,0.000157,0.499993,0.372540,0.012539820326760764,0.000000,0.904592,0.120580,0.818522,0.239918,0.000000,1.000000,2.000000,1.000000,0.000000,0.077329,0.675700,0.988876,1.000000,0.000000,1.000000,125.000000,1.276571,49.746117,0.818522,48.743583,0.500000,10.000000,2.000000,300.000000,0.770000,44.815475,0.675700,197.786356,10.000000,1.000000,1.000000,4
/home/daniel/Projects/ppsevolution/data/maps/custom_maps/Custom_8_Run_0_Map.csv,multi_squared_error,0.000000,0.000016,0.500075,0.356040,0.003960742105827989,0.000000,0.891907,0.322243,0.792803,0.000000,0.030000,0.928011,1.000000,1.000000,0.283229,0.169953,0.675700,0.785284,0.922997,0.035825,0.000000,125.000000,1.269468,72.735758,0.792803,1.000000,0.785000,9.352095,1.000000,300.000000,0.928608,55.374688,0.675700,157.271526,9.268469,1.322428,0.000000,4
/home/daniel/Projects/ppsevolution/data/maps/custom_maps/Custom_8_Run_0_Map.csv,multi_squared_error,0.000000,0.000013,0.499869,0.363570,0.0035728589024093442,0.000000,1.000000,0.210000,0.793438,0.078060,0.122120,0.984817,2.000000,1.000000,0.000000,0.070928,0.675700,0.988876,0.927955,0.046045,2.000000,125.000000,1.330000,59.940000,0.793438,16.533884,1.660137,9.863357,2.000000,300.000000,0.770000,44.085781,0.675700,197.786356,9.315573,1.414403,2.000000,4
/home/daniel/Projects/ppsevolution/data/maps/custom_maps/Custom_8_Run_0_Map.csv,multi_squared_error,0.000000,0.000011,0.500212,0.363369,0.0033752954647543357,0.000000,0.963934,0.210000,0.793438,0.078060,0.008532,1.000000,2.000000,1.000000,0.000000,0.070928,0.675700,0.988876,0.837770,0.046045,2.000000,125.000000,1.309803,59.940000,0.793438,16.533884,0.581055,10.000000,2.000000,300.000000,0.770000,44.085781,0.675700,197.786356,8.458816,1.414403,2.000000,4
/home/daniel/Projects/ppsevolution/data/maps/custom_maps/Custom_8_Run_0_Map.csv,multi_squared_error,0.000000,0.000008,0.499451,0.362790,0.00284333517773551,0.157572,1.000000,0.210000,0.800000,0.204428,0.073104,1.000000,2.000000,1.000000,0.137552,0.193808,0.673309,1.000000,1.000000,0.000000,0.000000,152.575112,1.330000,59.940000,0.800000,41.681212,1.194491,10.000000,2.000000,300.000000,0.847029,58.094157,0.673309,200.000000,10.000000,1.000000,0.000000,4
/home/daniel/Projects/ppsevolution/data/maps/custom_maps/Custom_8_Run_0_Map.csv,multi_squared_error,0.000001,0.000000,0.498942,0.359755,0.001085859002001558,0.000000,0.942622,0.294096,0.780778,0.245500,0.073104,0.975171,2.000000,1.000000,0.283229,0.123297,0.675700,0.913555,0.889168,0.015357,0.000000,125.000000,1.297869,69.526942,0.780778,49.854544,1.194491,9.776536,2.000000,300.000000,0.928608,50.055903,0.675700,182.797422,8.947101,1.138217,0.000000,4
/home/daniel/Projects/ppsevolution/data/maps/custom_maps/Custom_8_Run_0_Map.csv,multi_squared_error,0.000015,0.000000,0.496102,0.359836,0.0039019043871281953,0.000000,1.000000,0.263414,0.800000,0.000000,0.056357,0.830407,0.000000,0.923787,0.114044,0.249864,0.634370,0.973313,1.000000,0.024614,2.000000,125.000000,1.330000,66.029222,0.800000,1.000000,1.035389,8.473661,0.000000,286.662733,0.833865,64.484533,0.634370,194.689265,10.000000,1.221526,2.000000,4
/home/daniel/Projects/ppsevolution/data/maps/custom_maps/Custom_8_Run_0_Map.csv,multi_squared_error,0.000023,0.000000,0.495165,0.359919,0.004835904418206089,0.000000,1.000000,0.263414,0.800000,0.000000,0.056357,0.830407,0.000000,0.923787,0.114044,0.249864,0.634370,0.955569,0.895694,0.024614,2.000000,125.000000,1.330000,66.029222,0.800000,1.000000,1.035389,8.473661,0.000000,286.662733,0.833865,64.484533,0.634370,191.158289,9.009094,1.221526,2.000000,4
/home/daniel/Projects/ppsevolution/data/maps/custom_maps/Custom_8_Run_0_Map.csv,multi_squared_error,0.000240,0.000000,0.515507,0.360013,0.015507107543813509,0.073903,0.994183,0.210000,0.793438,0.078060,0.122120,0.888042,2.000000,0.914824,0.000000,0.117196,0.675700,0.988876,0.927955,0.000000,2.000000,137.933080,1.326743,59.940000,0.793438,16.533884,1.660137,8.992376,2.000000,285.094215,0.770000,49.360336,0.675700,197.786356,9.315573,1.000000,2.000000,4
/home/daniel/Projects/ppsevolution/data/maps/custom_maps/Custom_8_Run_0_Map.csv,multi_squared_error,0.001726,0.000000,0.541545,0.359991,0.04154455764181596,0.000000,0.942622,0.320545,0.780778,0.185749,0.000000,1.000000,2.000000,1.000000,0.000000,0.106035,0.662109,1.000000,1.000000,0.000000,0.000000,125.000000,1.297869,72.542146,0.780778,37.964010,0.500000,10.000000,2.000000,300.000000,0.770000,48.087958,0.662109,200.000000,10.000000,1.000000,0.000000,4
/home/daniel/Projects/ppsevolution/data/maps/custom_maps/Custom_8_Run_0_Map.csv,multi_squared_error,0.053251,0.000000,0.730762,0.360005,0.23076188569506875,0.000000,1.000000,0.210000,0.871088,0.000000,0.030000,1.000000,1.000000,1.000000,0.000000,0.000000,0.600000,1.000000,0.950942,0.000000,2.000000,125.000000,1.330000,59.940000,0.871088,1.000000,0.785000,10.000000,1.000000,300.000000,0.770000,36.000000,0.600000,200.000000,9.533948,1.000000,2.000000,4
map,fitness,multi_squared_error 0,multi_squared_error 1,team0ratio,time,Sqrt. sum of fitnesses,HP,Speed,Damage,Acc,ClipSize,RateOfFire,NrBullets,Range,HP,Speed,Damage,Acc,ClipSize,RateOfFire,NrBullets,Range,HP,Speed,Damage,Acc,ClipSize,RateOfFire,NrBullets,Range,HP,Speed,Damage,Acc,ClipSize,RateOfFire,NrBullets,Range,Run,target team0ratio: 0.5,target time: 0.36
/home/daniel/Projects/ppsevolution/data/maps/custom_maps/Custom_8_Run_0_Map.csv,multi_squared_error,0.000000,0.000832,0.500003,0.388851,0.028850540076641767,0.000000,0.876747,0.210000,0.765977,0.095682,0.078061,1.000000,2.000000,1.000000,0.000000,0.131178,0.600000,1.000000,0.873663,0.214885,0.000000,125.000000,1.260978,59.940000,0.765977,20.040817,1.241576,10.000000,2.000000,300.000000,0.770000,50.954264,0.600000,200.000000,8.799794,2.933968,0.000000,5
/home/daniel/Projects/ppsevolution/data/maps/custom_maps/Custom_8_Run_0_Map.csv,multi_squared_error,0.000000,0.000824,0.499992,0.388697,0.02869714860002102,0.000000,0.876747,0.210000,0.765977,0.038739,0.078061,1.000000,2.000000,1.000000,0.000000,0.131178,0.600000,1.000000,0.873663,0.214885,0.000000,125.000000,1.260978,59.940000,0.765977,8.709111,1.241576,10.000000,2.000000,300.000000,0.770000,50.954264,0.600000,200.000000,8.799794,2.933968,0.000000,5
/home/daniel/Projects/ppsevolution/data/maps/custom_maps/Custom_8_Run_0_Map.csv,multi_squared_error,0.000000,0.000019,0.499989,0.355657,0.004342614114508243,0.000000,1.000000,0.210000,0.815055,0.000000,0.030592,1.000000,1.000000,0.943544,0.072440,0.000000,0.738806,1.000000,0.905864,0.000000,1.000000,125.000000,1.330000,59.940000,0.815055,1.000000,0.790619,10.000000,1.000000,290.120181,0.810567,36.000000,0.738806,200.000000,9.105713,1.000000,1.000000,5
/home/daniel/Projects/ppsevolution/data/maps/custom_maps/Custom_8_Run_0_Map.csv,multi_squared_error,0.000000,0.000019,0.499960,0.355686,0.004314205708844162,0.000000,0.985809,0.210000,0.815055,0.000000,0.030592,1.000000,1.000000,0.943544,0.072440,0.000000,0.738806,1.000000,0.905864,0.000000,1.000000,125.000000,1.322053,59.940000,0.815055,1.000000,0.790619,10.000000,1.000000,290.120181,0.810567,36.000000,0.738806,200.000000,9.105713,1.000000,1.000000,5
/home/daniel/Projects/ppsevolution/data/maps/custom_maps/Custom_8_Run_0_Map.csv,multi_squared_error,0.000000,0.000002,0.499945,0.358610,0.001390858890886668,0.039619,0.930401,0.243382,0.800000,0.095983,0.030000,0.958667,2.000000,1.000000,0.000000,0.096010,0.701766,0.911965,1.000000,0.000000,0.000000,131.933291,1.291025,63.745553,0.800000,20.100625,0.785000,9.628004,2.000000,300.000000,0.770000,46.945106,0.701766,182.481113,10.000000,1.000000,0.000000,5
/home/daniel/Projects/ppsevolution/data/maps/custom_maps/Custom_8_Run_0_Map.csv,multi_squared_error,0.000001,0.000001,0.500800,0.360808,0.001137421073490193,0.000000,1.000000,0.210000,0.815055,0.000000,0.106262,0.936988,1.000000,0.943544,0.000000,0.000000,0.738806,1.000000,1.000000,0.050369,0.000000,125.000000,1.330000,59.940000,0.815055,1.000000,1.509486,9.432889,1.000000,290.120181,0.770000,36.000000,0.738806,200.000000,10.000000,1.453325,0.000000,5
/home/daniel/Projects/ppsevolution/data/maps/custom_maps/Custom_8_Run_0_Map.csv,multi_squared_error,0.000002,0.000000,0.501244,0.360344,0.0012904436249861779,0.000000,1.000000,0.210000,0.815055,0.000000,0.068756,0.992476,1.000000,0.943544,0.178961,0.000000,0.738806,1.000000,0.905864,0.000000,0.000000,125.000000,1.330000,59.940000,0.815055,1.000000,1.153184,9.932284,1.000000,290.120181,0.870218,36.000000,0.738806,200.000000,9.105713,1.000000,0.000000,5
/home/daniel/Projects/ppsevolution/data/maps/custom_maps/Custom_8_Run_0_Map.csv,multi_squared_error,0.000005,0.000000,0.497840,0.359937,0.002160742646278876,0.000000,1.000000,0.210000,0.815055,0.125568,0.030592,0.867816,1.000000,0.943544,0.050045,0.000000,0.738806,1.000000,1.000000,0.000000,1.000000,125.000000,1.330000,59.940000,0.815055,25.988009,0.790619,8.810348,1.000000,290.120181,0.798025,36.000000,0.738806,200.000000,10.000000,1.000000,1.000000,5
/home/daniel/Projects/ppsevolution/data/maps/custom_maps/Custom_8_Run_0_Map.csv,multi_squared_error,0.000110,0.000000,0.489518,0.359948,0.01048252914409199,0.000000,1.000000,0.210000,0.800000,0.396849,0.110178,1.000000,2.000000,1.000000,0.164608,0.000000,0.719040,1.000000,0.751213,0.000000,2.000000,125.000000,1.330000,59.940000,0.800000,79.972889,1.546693,10.000000,2.000000,300.000000,0.862180,36.000000,0.719040,200.000000,7.636520,1.000000,2.000000,5
/home/daniel/Projects/ppsevolution/data/maps/custom_maps/Custom_8_Run_0_Map.csv,multi_squared_error,0.002667,0.000000,0.551644,0.359952,0.05164422832326678,0.000000,1.000000,0.210000,0.815055,0.000000,0.030000,0.992476,2.000000,0.992870,0.000000,0.000000,0.696865,1.000000,1.000000,0.038852,1.000000,125.000000,1.330000,59.940000,0.815055,1.000000,0.785000,9.932284,2.000000,298.752167,0.770000,36.000000,0.696865,200.000000,10.000000,1.349666,1.000000,5
/home/daniel/Projects/ppsevolution/data/maps/custom_maps/Custom_8_Run_0_Map.csv,multi_squared_error,0.003000,0.000000,0.554768,0.359974,0.05476827069508051,0.000000,0.876747,0.362142,0.765977,0.038739,0.000000,0.935227,2.000000,1.000000,0.000000,0.000000,0.690463,1.000000,1.000000,0.000000,2.000000,125.000000,1.260978,77.284232,0.765977,8.709111,0.500000,9.417046,2.000000,300.000000,0.770000,36.000000,0.690463,200.000000,10.000000,1.000000,2.000000,5
/home/daniel/Projects/ppsevolution/data/maps/custom_maps/Custom_8_Run_0_Map.csv,multi_squared_error,0.030783,0.000000,0.675450,0.359999,0.17544984817861206,0.000000,1.000000,0.153847,0.874122,0.030000,0.103487,1.000000,0.000000,0.848365,0.072128,0.000000,0.665581,1.000000,1.000000,0.018007,0.000000,125.000000,1.330000,53.538530,0.874122,6.970000,1.483128,10.000000,0.000000,273.463894,0.810392,36.000000,0.665581,200.000000,10.000000,1.162063,0.000000,5
map,fitness,multi_squared_error 0,multi_squared_error 1,team0ratio,time,Sqrt. sum of fitnesses,HP,Speed,Damage,Acc,ClipSize,RateOfFire,NrBullets,Range,HP,Speed,Damage,Acc,ClipSize,RateOfFire,NrBullets,Range,HP,Speed,Damage,Acc,ClipSize,RateOfFire,NrBullets,Range,HP,Speed,Damage,Acc,ClipSize,RateOfFire,NrBullets,Range,Run,target team0ratio: 0.5,target time: 0.36
/home/daniel/Projects/ppsevolution/data/maps/custom_maps/Custom_8_Run_0_Map.csv,multi_squared_error,0.000000,0.002394,0.500012,0.408931,0.048931226904558534,0.000000,0.913480,0.135101,0.800000,0.030000,0.117634,1.000000,0.000000,1.000000,0.000000,0.061077,0.643101,1.000000,0.996913,0.000000,1.000000,125.000000,1.281549,51.401511,0.800000,6.970000,1.617528,10.000000,0.000000,300.000000,0.770000,42.962745,0.643101,200.000000,9.970677,1.000000,1.000000,6
/home/daniel/Projects/ppsevolution/data/maps/custom_maps/Custom_8_Run_0_Map.csv,multi_squared_error,0.000000,0.000001,0.500028,0.359192,0.0008085292678382399,0.000000,1.000000,0.270824,0.804887,0.000000,0.367598,1.000000,0.000000,0.929205,0.002588,0.348596,0.600000,1.000000,1.000000,0.000000,0.000000,125.000000,1.330000,66.873885,0.804887,1.000000,3.992177,10.000000,0.000000,287.610861,0.771449,75.739959,0.600000,200.000000,10.000000,1.000000,0.000000,6
/home/daniel/Projects/ppsevolution/data/maps/custom_maps/Custom_8_Run_0_Map.csv,multi_squared_error,0.000000,0.000000,0.500335,0.360609,0.0006951270923904496,0.000000,0.873964,0.270824,0.804887,0.018181,0.183027,0.797135,1.000000,1.000000,0.000000,0.318729,0.600000,0.847852,0.996913,0.000000,1.000000,125.000000,1.259420,66.873885,0.804887,4.617921,2.238760,8.174212,1.000000,300.000000,0.770000,72.335070,0.600000,169.722487,9.970677,1.000000,1.000000,6
/home/daniel/Projects/ppsevolution/data/maps/custom_maps/Custom_8_Run_0_Map.csv,multi_squared_error,0.000000,0.000000,0.499545,0.360119,0.0004701059846318741,0.001978,1.000000,0.298771,0.804887,0.000000,0.155631,1.000000,0.000000,1.000000,0.000000,0.348596,0.600000,0.894335,0.999076,0.000000,0.000000,125.346193,1.330000,70.059866,0.804887,1.000000,1.978492,10.000000,0.000000,300.000000,0.770000,75.739959,0.600000,178.972725,9.991218,1.000000,0.000000,6
/home/daniel/Projects/ppsevolution/data/maps/custom_maps/Custom_8_Run_0_Map.csv,multi_squared_error,0.000001,0.000000,0.499005,0.360018,0.000995197123607725,0.001978,1.000000,0.298771,0.804887,0.000000,0.155631,1.000000,0.000000,1.000000,0.000000,0.348596,0.600000,1.000000,0.990525,0.000000,0.000000,125.346193,1.330000,70.059866,0.804887,1.000000,1.978492,10.000000,0.000000,300.000000,0.770000,75.739959,0.600000,200.000000,9.909987,1.000000,0.000000,6
/home/daniel/Projects/ppsevolution/data/maps/custom_maps/Custom_8_Run_0_Map.csv,multi_squared_error,0.000417,0.000000,0.520428,0.360011,0.020427945211709837,0.000000,0.769615,0.231858,0.800000,0.030000,0.030000,0.963952,2.000000,1.000000,0.000000,0.000000,0.707670,0.937904,1.000000,0.000000,2.000000,125.000000,1.200985,62.431836,0.800000,6.970000,0.785000,9.675568,2.000000,300.000000,0.770000,36.000000,0.707670,187.642981,10.000000,1.000000,2.000000,6
/home/daniel/Projects/ppsevolution/data/maps/custom_maps/Custom_8_Run_0_Map.csv,multi_squared_error,0.001541,0.000000,0.460749,0.359991,0.039251447692050155,0.000000,1.000000,0.270824,0.804887,0.000000,0.139162,0.896476,0.000000,1.000000,0.000000,0.190672,0.691222,1.000000,1.000000,0.060360,0.000000,125.000000,1.330000,66.873885,0.804887,1.000000,1.822039,9.068288,0.000000,300.000000,0.770000,57.736662,0.691222,200.000000,10.000000,1.543241,0.000000,6
/home/daniel/Projects/ppsevolution/data/maps/custom_maps/Custom_8_Run_0_Map.csv,multi_squared_error,0.022083,0.000000,0.351396,0.360001,0.14860442281360595,0.004615,1.000000,0.279413,0.748502,0.136325,0.030000,1.000000,1.000000,1.000000,0.286371,0.000000,0.784916,1.000000,1.000000,0.000000,0.000000,125.807623,1.330000,67.853134,0.748502,28.128727,0.785000,10.000000,1.000000,300.000000,0.930368,36.000000,0.784916,200.000000,10.000000,1.000000,0.000000,6
map,fitness,multi_squared_error 0,multi_squared_error 1,team0ratio,time,Sqrt. sum of fitnesses,HP,Speed,Damage,Acc,ClipSize,RateOfFire,NrBullets,Range,HP,Speed,Damage,Acc,ClipSize,RateOfFire,NrBullets,Range,HP,Speed,Damage,Acc,ClipSize,RateOfFire,NrBullets,Range,HP,Speed,Damage,Acc,ClipSize,RateOfFire,NrBullets,Range,Run,target team0ratio: 0.5,target time: 0.36
/home/daniel/Projects/ppsevolution/data/maps/custom_maps/Custom_8_Run_0_Map.csv,multi_squared_error,0.000000,0.001381,0.499999,0.322833,0.0371668195832024,0.000000,0.932619,0.201243,0.897531,0.387237,0.000000,0.974924,0.000000,1.000000,0.000000,0.000000,0.822521,0.992763,0.910580,0.132788,0.000000,125.000000,1.292266,58.941755,0.897531,78.060223,0.500000,9.774313,0.000000,300.000000,0.770000,36.000000,0.822521,198.559934,9.150512,2.195088,0.000000,7
/home/daniel/Projects/ppsevolution/data/maps/custom_maps/Custom_8_Run_0_Map.csv,multi_squared_error,0.000000,0.000599,0.499988,0.335534,0.024465757928722874,0.000000,0.959914,0.210000,0.836393,0.260713,0.030000,0.909156,2.000000,0.988331,0.000000,0.439439,0.600000,0.918116,0.960966,0.000000,2.000000,125.000000,1.307552,59.940000,0.836393,52.881962,0.785000,9.182405,2.000000,297.958002,0.770000,86.096049,0.600000,183.705068,9.629182,1.000000,2.000000,7
/home/daniel/Projects/ppsevolution/data/maps/custom_maps/Custom_8_Run_0_Map.csv,multi_squared_error,0.000000,0.000060,0.500042,0.367721,0.007721044824349298,0.000000,1.000000,0.210000,0.800000,0.090359,0.000000,0.956280,2.000000,1.000000,0.039122,0.044826,0.700344,0.949894,1.000000,0.000000,0.000000,125.000000,1.330000,59.940000,0.800000,18.981349,0.500000,9.606520,2.000000,300.000000,0.791908,41.110161,0.700344,190.028949,10.000000,1.000000,0.000000,7
/home/daniel/Projects/ppsevolution/data/maps/custom_maps/Custom_8_Run_0_Map.csv,multi_squared_error,0.000000,0.000000,0.499908,0.360454,0.00046299812195008474,0.000000,0.704697,0.065118,0.800000,0.000000,0.000000,0.910995,2.000000,0.657452,0.172178,0.000000,0.722743,0.938231,0.960966,0.000000,2.000000,125.000000,1.164631,43.423431,0.800000,1.000000,0.500000,9.198959,2.000000,240.054163,0.866420,36.000000,0.722743,187.707890,9.629182,1.000000,2.000000,7
/home/daniel/Projects/ppsevolution/data/maps/custom_maps/Custom_8_Run_0_Map.csv,multi_squared_error,0.000001,0.000000,0.500909,0.359667,0.0009685514903905588,0.000000,1.000000,0.193657,0.800000,0.032406,0.491030,1.000000,2.000000,0.933661,0.000000,0.014428,0.713636,0.845516,0.817558,0.009397,1.000000,125.000000,1.330000,58.076930,0.800000,7.448858,5.164784,10.000000,2.000000,288.390621,0.770000,37.644763,0.713636,169.257624,8.266799,1.084572,1.000000,7
/home/daniel/Projects/ppsevolution/data/maps/custom_maps/Custom_8_Run_0_Map.csv,multi_squared_error,0.000004,0.000000,0.501985,0.360003,0.0019847177208076436,0.000000,1.000000,0.065118,0.800000,0.000000,0.000000,0.910995,2.000000,0.657452,0.000000,0.000000,0.722743,1.000000,0.960966,0.000000,2.000000,125.000000,1.330000,43.423431,0.800000,1.000000,0.500000,9.198959,2.000000,240.054163,0.770000,36.000000,0.722743,200.000000,9.629182,1.000000,2.000000,7
/home/daniel/Projects/ppsevolution/data/maps/custom_maps/Custom_8_Run_0_Map.csv,multi_squared_error,0.000277,0.000000,0.483347,0.360001,0.01665332915561706,0.000000,1.000000,0.210000,0.800000,0.035276,0.000000,0.956280,2.000000,1.000000,0.000000,0.163314,0.663489,0.789255,1.000000,0.132788,0.000000,125.000000,1.330000,59.940000,0.800000,8.020004,0.500000,9.606520,2.000000,300.000000,0.770000,54.617755,0.663489,158.061803,10.000000,2.195088,0.000000,7
/home/daniel/Projects/ppsevolution/data/maps/custom_maps/Custom_8_Run_0_Map.csv,multi_squared_error,0.001615,0.000000,0.540183,0.360001,0.04018265009389936,0.000000,0.784654,0.390236,0.785392,0.030000,0.030000,0.828654,0.000000,0.988331,0.000000,0.276697,0.600000,0.878778,0.884898,0.000000,2.000000,125.000000,1.209406,80.486929,0.785392,6.970000,0.785000,8.457890,0.000000,297.958002,0.770000,67.543402,0.600000,175.876866,8.906533,1.000000,2.000000,7
map,fitness,multi_squared_error 0,multi_squared_error 1,team0ratio,time,Sqrt. sum of fitnesses,HP,Speed,Damage,Acc,ClipSize,RateOfFire,NrBullets,Range,HP,Speed,Damage,Acc,ClipSize,RateOfFire,NrBullets,Range,HP,Speed,Damage,Acc,ClipSize,RateOfFire,NrBullets,Range,HP,Speed,Damage,Acc,ClipSize,RateOfFire,NrBullets,Range,Run,target team0ratio: 0.5,target time: 0.36
/home/daniel/Projects/ppsevolution/data/maps/custom_maps/Custom_8_Run_0_Map.csv,multi_squared_error,0.000000,0.000002,0.500000,0.361313,0.0013126576163328353,0.019963,0.883733,0.210000,0.800000,0.003648,0.030000,1.000000,2.000000,1.000000,0.182135,0.169123,0.649947,1.000000,0.913076,0.000000,1.000000,128.493501,1.264890,59.940000,0.800000,1.725853,0.785000,10.000000,2.000000,300.000000,0.871996,55.279997,0.649947,200.000000,9.174221,1.000000,1.000000,8
/home/daniel/Projects/ppsevolution/data/maps/custom_maps/Custom_8_Run_0_Map.csv,multi_squared_error,0.000000,0.000000,0.499962,0.359515,0.0004869387235284385,0.000000,1.000000,0.166327,0.800000,0.092016,0.131988,1.000000,2.000000,0.905048,0.015658,0.026907,0.706081,0.983512,0.976042,0.000000,2.000000,125.000000,1.330000,54.961222,0.800000,19.311244,1.753881,10.000000,2.000000,283.383325,0.778769,39.067438,0.706081,196.718862,9.772401,1.000000,2.000000,8
/home/daniel/Projects/ppsevolution/data/maps/custom_maps/Custom_8_Run_0_Map.csv,multi_squared_error,0.000000,0.000000,0.499547,0.359662,0.000565152370551792,0.000000,0.973766,0.164822,0.800000,0.074471,0.170359,1.000000,2.000000,0.905048,0.000000,0.026907,0.706081,0.939017,1.000000,0.000000,2.000000,125.000000,1.315309,54.789674,0.800000,15.819717,2.118409,10.000000,2.000000,283.383325,0.770000,39.067438,0.706081,187.864424,10.000000,1.000000,2.000000,8
/home/daniel/Projects/ppsevolution/data/maps/custom_maps/Custom_8_Run_0_Map.csv,multi_squared_error,0.000001,0.000000,0.499042,0.359685,0.0010086318419674928,0.000000,0.925881,0.166327,0.800000,0.092016,0.131988,1.000000,2.000000,0.905048,0.015658,0.026907,0.706081,0.983512,0.910289,0.000000,2.000000,125.000000,1.288493,54.961222,0.800000,19.311244,1.753881,10.000000,2.000000,283.383325,0.778769,39.067438,0.706081,196.718862,9.147742,1.000000,2.000000,8
/home/daniel/Projects/ppsevolution/data/maps/custom_maps/Custom_8_Run_0_Map.csv,multi_squared_error,0.000002,0.000000,0.498530,0.360153,0.0014783289473765254,0.000000,0.914393,0.210000,0.794988,0.000000,0.000000,1.000000,0.000000,0.839576,0.003061,0.060827,0.706081,0.973221,1.000000,0.000000,2.000000,125.000000,1.282060,59.940000,0.794988,1.000000,0.500000,10.000000,0.000000,271.925752,0.771714,42.934277,0.706081,194.671006,10.000000,1.000000,2.000000,8
/home/daniel/Projects/ppsevolution/data/maps/custom_maps/Custom_8_Run_0_Map.csv,multi_squared_error,0.000003,0.000000,0.501755,0.360120,0.0017589718087302189,0.000000,0.973766,0.218456,0.798725,0.030000,0.030000,1.000000,2.000000,1.000000,0.000000,0.169123,0.648166,1.000000,1.000000,0.000000,1.000000,125.000000,1.315309,60.904010,0.798725,6.970000,0.785000,10.000000,2.000000,300.000000,0.770000,55.279997,0.648166,200.000000,10.000000,1.000000,1.000000,8
/home/daniel/Projects/ppsevolution/data/maps/custom_maps/Custom_8_Run_0_Map.csv,multi_squared_error,0.000003,0.000000,0.501863,0.359908,0.0018655935113629063,0.000000,1.000000,0.192287,0.798725,0.030000,0.000000,1.000000,2.000000,0.937735,0.044403,0.169123,0.648166,1.000000,0.833132,0.000000,1.000000,125.000000,1.330000,57.920732,0.798725,6.970000,0.500000,10.000000,2.000000,289.103631,0.794866,55.279997,0.648166,200.000000,8.414752,1.000000,1.000000,8
/home/daniel/Projects/ppsevolution/data/maps/custom_maps/Custom_8_Run_0_Map.csv,multi_squared_error,0.000006,0.000000,0.502363,0.360048,0.002363863241469656,0.000000,0.928637,0.192287,0.798725,0.030000,0.007956,1.000000,2.000000,0.937735,0.044403,0.169123,0.648166,1.000000,0.890959,0.000000,1.000000,125.000000,1.290037,57.920732,0.798725,6.970000,0.575580,10.000000,2.000000,289.103631,0.794866,55.279997,0.648166,200.000000,8.964111,1.000000,1.000000,8
/home/daniel/Projects/ppsevolution/data/maps/custom_maps/Custom_8_Run_0_Map.csv,multi_squared_error,0.000018,0.000000,0.504252,0.360016,0.004252104987980194,0.000000,1.000000,0.181596,0.800000,0.092016,0.131988,1.000000,2.000000,0.905048,0.094384,0.026907,0.706081,1.000000,0.910289,0.169877,0.000000,125.000000,1.330000,56.701898,0.800000,19.311244,1.753881,10.000000,2.000000,283.383325,0.822855,39.067438,0.706081,200.000000,9.147742,2.528892,0.000000,8
/home/daniel/Projects/ppsevolution/data/maps/custom_maps/Custom_8_Run_0_Map.csv,multi_squared_error,0.000111,0.000000,0.510549,0.360007,0.010548713157478249,0.000000,0.925881,0.210000,0.800000,0.092016,0.214425,1.000000,2.000000,0.955994,0.000000,0.026907,0.706081,0.799489,0.894865,0.000000,1.000000,125.000000,1.288493,59.940000,0.800000,19.311244,2.537034,10.000000,2.000000,292.298925,0.770000,39.067438,0.706081,160.098251,9.001221,1.000000,1.000000,8
/home/daniel/Projects/ppsevolution/data/maps/custom_maps/Custom_8_Run_0_Map.csv,multi_squared_error,0.000719,0.000000,0.526816,0.359998,0.026816248944784897,0.000000,0.973766,0.210000,0.800000,0.092016,0.049265,1.000000,2.000000,0.905048,0.067272,0.026907,0.706081,1.000000,1.000000,0.000000,0.000000,125.000000,1.315309,59.940000,0.800000,19.311244,0.968021,10.000000,2.000000,283.383325,0.807672,39.067438,0.706081,200.000000,10.000000,1.000000,0.000000,8
map,fitness,multi_squared_error 0,multi_squared_error 1,team0ratio,time,Sqrt. sum of fitnesses,HP,Speed,Damage,Acc,ClipSize,RateOfFire,NrBullets,Range,HP,Speed,Damage,Acc,ClipSize,RateOfFire,NrBullets,Range,HP,Speed,Damage,Acc,ClipSize,RateOfFire,NrBullets,Range,HP,Speed,Damage,Acc,ClipSize,RateOfFire,NrBullets,Range,Run,target team0ratio: 0.5,target time: 0.36
/home/daniel/Projects/ppsevolution/data/maps/custom_maps/Custom_8_Run_0_Map.csv,multi_squared_error,0.000000,0.000002,0.499994,0.361505,0.0015051908044912384,0.000000,1.000000,0.210000,0.799616,0.014151,0.064451,1.000000,2.000000,1.000000,0.133422,0.235584,0.612446,0.970199,0.799501,0.000000,1.000000,125.000000,1.330000,59.940000,0.799616,3.815960,1.112284,10.000000,2.000000,300.000000,0.844716,62.856529,0.612446,194.069580,8.095259,1.000000,1.000000,9
/home/daniel/Projects/ppsevolution/data/maps/custom_maps/Custom_8_Run_0_Map.csv,multi_squared_error,0.000000,0.000002,0.500107,0.361469,0.0014730526323369826,0.000000,1.000000,0.209085,0.800000,0.000000,0.033082,1.000000,2.000000,1.000000,0.166803,0.235584,0.612493,0.957122,0.799501,0.000000,1.000000,125.000000,1.330000,59.835743,0.800000,1.000000,0.814280,10.000000,2.000000,300.000000,0.863410,62.856529,0.612493,191.467366,8.095259,1.000000,1.000000,9
/home/daniel/Projects/ppsevolution/data/maps/custom_maps/Custom_8_Run_0_Map.csv,multi_squared_error,0.000000,0.000000,0.500112,0.360441,0.00045502591253738833,0.000000,0.950184,0.210000,0.800000,0.054370,0.000000,0.908230,2.000000,1.000000,0.000000,0.235584,0.612446,0.955444,0.959184,0.028979,2.000000,125.000000,1.302103,59.940000,0.800000,11.819668,0.500000,9.174071,2.000000,300.000000,0.770000,62.856529,0.612446,191.133373,9.612245,1.260814,2.000000,9
/home/daniel/Projects/ppsevolution/data/maps/custom_maps/Custom_8_Run_0_Map.csv,multi_squared_error,0.000000,0.000000,0.500155,0.360381,0.0004115565590380421,0.000000,0.950184,0.210000,0.800000,0.054370,0.030000,0.908230,2.000000,1.000000,0.000000,0.235584,0.612446,0.955444,0.984675,0.028979,2.000000,125.000000,1.302103,59.940000,0.800000,11.819668,0.785000,9.174071,2.000000,300.000000,0.770000,62.856529,0.612446,191.133373,9.854412,1.260814,2.000000,9
/home/daniel/Projects/ppsevolution/data/maps/custom_maps/Custom_8_Run_0_Map.csv,multi_squared_error,0.000000,0.000000,0.500418,0.359874,0.0004368734991900759,0.000000,0.942005,0.210000,0.800000,0.003834,0.033082,0.908230,2.000000,1.000000,0.000000,0.235584,0.612446,0.809087,1.000000,0.045495,2.000000,125.000000,1.297523,59.940000,0.800000,1.763003,0.814280,9.174071,2.000000,300.000000,0.770000,62.856529,0.612446,162.008256,10.000000,1.409453,2.000000,9
/home/daniel/Projects/ppsevolution/data/maps/custom_maps/Custom_8_Run_0_Map.csv,multi_squared_error,0.000000,0.000000,0.499296,0.360002,0.000703636147153185,0.000000,1.000000,0.209085,0.800000,0.046782,0.033082,0.908230,2.000000,1.000000,0.000000,0.235584,0.612446,0.822587,0.939133,0.045495,2.000000,125.000000,1.330000,59.835743,0.800000,10.309671,0.814280,9.174071,2.000000,300.000000,0.770000,62.856529,0.612446,164.694804,9.421768,1.409453,2.000000,9
