gen,obj1 min,obj1 max,obj1 avg,obj1 std,obj2 min,obj2 max,obj2 avg,obj2 std
0.000000,0.013100,0.013100,0.013100,0.000000,0.076947,0.076947,0.076947,0.000000
1.000000,0.000056,0.154204,0.018490,0.022396,0.029826,0.116249,0.073281,0.012738
2.000000,0.000001,0.157215,0.031860,0.042100,0.027537,0.119534,0.064659,0.019911
3.000000,0.000001,0.157928,0.049932,0.055774,0.026523,0.109466,0.055610,0.021801
4.000000,0.000000,0.160763,0.048497,0.056151,0.024344,0.109466,0.053734,0.025185
5.000000,0.000000,0.171216,0.040201,0.049903,0.022535,0.109466,0.050111,0.024570
6.000000,0.000000,0.170683,0.036050,0.048018,0.016290,0.109473,0.047669,0.025442
7.000000,0.000000,0.126865,0.018678,0.029121,0.016210,0.109473,0.049957,0.026176
8.000000,0.000000,0.185577,0.018031,0.035630,0.013162,0.109473,0.048017,0.027871
9.000000,0.000000,0.175760,0.018206,0.035651,0.011389,0.109473,0.041794,0.028775
10.000000,0.000000,0.187887,0.017198,0.037467,0.011389,0.109473,0.039790,0.029382
11.000000,0.000000,0.196329,0.016316,0.038651,0.011236,0.109473,0.038142,0.030159
12.000000,0.000000,0.157585,0.007662,0.019641,0.009881,0.109473,0.039231,0.030179
13.000000,0.000000,0.054512,0.004688,0.010592,0.009881,0.109473,0.040222,0.031145
14.000000,0.000000,0.042640,0.003206,0.007518,0.009833,0.109473,0.039913,0.032095
15.000000,0.000000,0.041987,0.002036,0.005562,0.009833,0.109473,0.040756,0.031871
16.000000,0.000000,0.041987,0.002229,0.005582,0.009393,0.109473,0.036860,0.031550
17.000000,0.000000,0.041987,0.002577,0.006015,0.009393,0.109473,0.035402,0.033918
18.000000,0.000000,0.023367,0.001706,0.003261,0.008926,0.109466,0.033481,0.033462
19.000000,0.000000,0.023367,0.002150,0.003936,0.008926,0.107074,0.031525,0.031980
20.000000,0.000000,0.023367,0.002155,0.004151,0.008775,0.106474,0.030339,0.030388
21.000000,0.000000,0.033053,0.002302,0.004766,0.008698,0.106474,0.027972,0.030102
22.000000,0.000000,0.033053,0.001735,0.004392,0.008698,0.111792,0.028884,0.031269
23.000000,0.000000,0.019230,0.001555,0.003610,0.008292,0.111792,0.029305,0.032289
24.000000,0.000000,0.012922,0.001632,0.003372,0.008292,0.106474,0.022779,0.027646
25.000000,0.000000,0.019998,0.001341,0.003210,0.007816,0.106474,0.023263,0.027978
26.000000,0.000000,0.012320,0.001109,0.002734,0.007816,0.106474,0.023221,0.028004
27.000000,0.000000,0.011775,0.001029,0.002348,0.007816,0.106474,0.022201,0.027089
28.000000,0.000000,0.006030,0.000510,0.001361,0.007605,0.106474,0.024235,0.028306
29.000000,0.000000,0.005978,0.000462,0.001280,0.007588,0.106474,0.022451,0.027088
30.000000,0.000000,0.005599,0.000325,0.000917,0.007411,0.106474,0.023104,0.027703
31.000000,0.000000,0.004447,0.000326,0.000827,0.007169,0.106474,0.020024,0.025993
32.000000,0.000000,0.004447,0.000314,0.000783,0.006955,0.106474,0.018463,0.024659
33.000000,0.000000,0.002324,0.000251,0.000510,0.006941,0.106474,0.017365,0.023220
34.000000,0.000000,0.002383,0.000341,0.000614,0.006850,0.106474,0.017225,0.023276
35.000000,0.000000,0.005770,0.000343,0.000783,0.006850,0.106474,0.017163,0.023302
36.000000,0.000000,0.005961,0.000520,0.001147,0.006725,0.106474,0.016042,0.022744
37.000000,0.000000,0.005781,0.000399,0.000923,0.006578,0.106474,0.016171,0.022710
38.000000,0.000000,0.005781,0.000349,0.000904,0.006578,0.106474,0.018542,0.025858
39.000000,0.000000,0.003344,0.000395,0.000843,0.006578,0.106474,0.016589,0.023781
40.000000,0.000000,0.003344,0.000395,0.000820,0.006374,0.106474,0.016264,0.023386
41.000000,0.000000,0.003192,0.000367,0.000747,0.006323,0.106474,0.015994,0.023333
42.000000,0.000000,0.003192,0.000327,0.000643,0.006323,0.106474,0.015718,0.023409
43.000000,0.000000,0.003192,0.000143,0.000432,0.006315,0.106474,0.017344,0.025165
44.000000,0.000000,0.001231,0.000075,0.000202,0.006117,0.106474,0.018073,0.025861
45.000000,0.000000,0.002701,0.000127,0.000377,0.006068,0.097295,0.017785,0.025637
46.000000,0.000000,0.002701,0.000151,0.000413,0.005838,0.097295,0.017657,0.025683
47.000000,0.000000,0.002701,0.000258,0.000556,0.005764,0.083536,0.015104,0.022674
48.000000,0.000000,0.002701,0.000380,0.000640,0.005764,0.083536,0.013953,0.021730
49.000000,0.000000,0.002701,0.000497,0.000695,0.005764,0.083536,0.012997,0.020631
