gen,obj1 min,obj1 max,obj1 avg,obj1 std,obj2 min,obj2 max,obj2 avg,obj2 std
0.000000,0.013100,0.013100,0.013100,0.000000,0.091571,0.091571,0.091571,0.000000
1.000000,0.000735,0.049732,0.013040,0.007746,0.067700,0.122841,0.091346,0.008766
2.000000,0.000056,0.049732,0.011748,0.011676,0.039940,0.130873,0.089190,0.018443
3.000000,0.000056,0.066147,0.008191,0.012299,0.031529,0.132290,0.080024,0.021790
4.000000,0.000000,0.097225,0.007629,0.015719,0.013072,0.128830,0.066241,0.023799
5.000000,0.000000,0.117219,0.011589,0.024378,0.010205,0.128830,0.057044,0.027085
6.000000,0.000000,0.116262,0.007546,0.021093,0.004221,0.128830,0.053106,0.030417
7.000000,0.000000,0.097225,0.003561,0.012163,0.004221,0.128830,0.049890,0.033532
8.000000,0.000000,0.085879,0.003976,0.013260,0.003129,0.128830,0.042386,0.035362
9.000000,0.000000,0.084992,0.005095,0.015770,0.002392,0.128830,0.037369,0.035295
10.000000,0.000000,0.082727,0.004260,0.013711,0.001262,0.129066,0.034387,0.035627
11.000000,0.000000,0.082727,0.006601,0.016079,0.001128,0.128830,0.027909,0.033429
12.000000,0.000000,0.074198,0.007602,0.015791,0.000005,0.128830,0.022394,0.031697
13.000000,0.000000,0.061364,0.008239,0.013882,0.000000,0.125501,0.017927,0.028090
14.000000,0.000000,0.049550,0.006540,0.012549,0.000000,0.125501,0.015797,0.026418
15.000000,0.000000,0.049550,0.006452,0.012176,0.000000,0.125501,0.015934,0.026556
16.000000,0.000000,0.046794,0.006843,0.012265,0.000000,0.125501,0.016008,0.028336
17.000000,0.000000,0.046794,0.006213,0.011307,0.000000,0.131787,0.017061,0.030771
18.000000,0.000000,0.046794,0.006133,0.011373,0.000000,0.131787,0.017496,0.030866
19.000000,0.000000,0.046794,0.006512,0.011760,0.000000,0.131787,0.016555,0.031111
20.000000,0.000000,0.046794,0.004724,0.010369,0.000000,0.131787,0.017797,0.031132
21.000000,0.000000,0.036507,0.004083,0.008585,0.000000,0.131787,0.018587,0.032592
22.000000,0.000000,0.036507,0.004068,0.008380,0.000000,0.131787,0.017700,0.033048
23.000000,0.000000,0.037053,0.004384,0.008986,0.000000,0.131787,0.018514,0.033435
24.000000,0.000000,0.037053,0.005048,0.009430,0.000000,0.131787,0.018634,0.033527
25.000000,0.000000,0.036507,0.004022,0.008771,0.000000,0.131787,0.019417,0.033536
26.000000,0.000000,0.036507,0.003820,0.008700,0.000000,0.131787,0.018705,0.033453
27.000000,0.000000,0.050779,0.004119,0.009562,0.000000,0.125501,0.018005,0.031905
28.000000,0.000000,0.050779,0.004086,0.009618,0.000000,0.125501,0.016872,0.031895
29.000000,0.000000,0.050779,0.004131,0.009892,0.000000,0.125501,0.017430,0.033258
30.000000,0.000000,0.050779,0.004144,0.009911,0.000000,0.125501,0.016348,0.031437
31.000000,0.000000,0.050779,0.004120,0.009915,0.000000,0.125501,0.016223,0.031574
32.000000,0.000000,0.050779,0.003956,0.009924,0.000000,0.125501,0.017467,0.033300
33.000000,0.000000,0.050779,0.003917,0.009933,0.000000,0.125501,0.018480,0.034528
34.000000,0.000000,0.036507,0.003778,0.009234,0.000000,0.125501,0.017794,0.034490
35.000000,0.000000,0.036507,0.003816,0.009363,0.000000,0.125501,0.016647,0.033121
36.000000,0.000000,0.036591,0.004152,0.009916,0.000000,0.125501,0.015282,0.030782
37.000000,0.000000,0.044166,0.004247,0.010364,0.000000,0.125501,0.015938,0.031144
38.000000,0.000000,0.044166,0.004266,0.010360,0.000000,0.125501,0.014951,0.030611
39.000000,0.000000,0.044166,0.004267,0.010360,0.000000,0.125501,0.013602,0.029000
40.000000,0.000000,0.044166,0.003672,0.009853,0.000000,0.125501,0.012886,0.029334
41.000000,0.000000,0.044166,0.004545,0.010711,0.000000,0.125501,0.010406,0.027682
42.000000,0.000000,0.044166,0.003981,0.010238,0.000000,0.125501,0.010902,0.027848
43.000000,0.000000,0.044166,0.004106,0.010269,0.000000,0.125501,0.010433,0.027542
44.000000,0.000000,0.044166,0.004086,0.010274,0.000000,0.125501,0.010270,0.027547
45.000000,0.000000,0.044166,0.004097,0.010270,0.000000,0.125501,0.010206,0.027564
46.000000,0.000000,0.044166,0.003587,0.009853,0.000000,0.125501,0.010206,0.027564
47.000000,0.000000,0.044166,0.003589,0.009853,0.000000,0.125501,0.009600,0.027626
48.000000,0.000000,0.044166,0.003782,0.009902,0.000000,0.125501,0.009384,0.027659
49.000000,0.000000,0.044166,0.003833,0.009895,0.000000,0.125501,0.009366,0.027665
