map,fitness,fitness value,team0ratio,time,HP,Speed,Damage,Acc,ClipSize,RateOfFire,NrBullets,Range,HP,Speed,Damage,Acc,ClipSize,RateOfFire,NrBullets,Range,HP,Speed,Damage,Acc,ClipSize,RateOfFire,NrBullets,Range,HP,Speed,Damage,Acc,ClipSize,RateOfFire,NrBullets,Range,Run,target team0ratio: 0.5,target time: 0.14
/home/daniel/Projects/ppsEvolution/data/maps/custom_maps/Custom_1_Run_0_Map.csv,squared_error,0.0001434769236223365,0.5016,0.1569,0.000000,1.000000,0.883135,0.972246,0.000000,0.034804,1.000000,2.000000,0.478676,0.308959,1.000000,1.000000,0.945310,0.050244,0.477543,2.000000,125.000000,1.330000,133.522012,0.972246,1.000000,0.830640,10.000000,2.000000,208.768233,0.943017,150.000000,1.000000,189.116609,0.977316,5.297884,2.000000,0
/home/daniel/Projects/ppsEvolution/data/maps/custom_maps/Custom_1_Run_0_Map.csv,squared_error,0.00013607856724661357,0.5010,0.1565,0.000000,0.980542,0.227280,1.000000,0.000000,0.205906,1.000000,2.000000,0.060313,0.348860,0.995570,1.000000,0.941463,0.701340,0.452972,2.000000,125.000000,1.319104,41.046481,1.000000,1.000000,2.456109,10.000000,2.000000,135.554743,0.965361,149.375326,1.000000,188.351163,7.162728,5.076744,2.000000,1
/home/daniel/Projects/ppsEvolution/data/maps/custom_maps/Custom_1_Run_0_Map.csv,squared_error,0.0001594886559970154,0.5022,0.1577,0.000000,1.000000,0.602593,1.000000,0.000000,0.096383,1.000000,2.000000,0.761855,0.000000,1.000000,1.000000,0.925772,0.799362,0.661321,2.000000,125.000000,1.330000,93.965599,1.000000,1.000000,1.415640,10.000000,2.000000,258.324613,0.770000,150.000000,1.000000,185.228615,8.093935,6.951890,2.000000,2
/home/daniel/Projects/ppsEvolution/data/maps/custom_maps/Custom_1_Run_0_Map.csv,squared_error,0.00015080755811044616,0.5005,0.1574,0.000000,0.870379,0.398350,1.000000,0.048902,0.123256,1.000000,2.000000,0.477595,0.383281,1.000000,1.000000,0.650862,0.975164,0.884921,2.000000,125.000000,1.257412,65.167285,1.000000,10.731408,1.670935,10.000000,2.000000,208.579069,0.984638,150.000000,1.000000,130.521502,9.764054,8.964292,2.000000,3
/home/daniel/Projects/ppsEvolution/data/maps/custom_maps/Custom_1_Run_0_Map.csv,squared_error,0.00012624645556911227,0.4990,0.1559,0.000000,1.000000,0.428959,1.000000,0.000000,0.000000,1.000000,2.000000,0.357772,0.000000,0.995022,1.000000,1.000000,0.272041,0.539365,2.000000,125.000000,1.330000,69.483202,1.000000,1.000000,0.500000,10.000000,2.000000,187.610127,0.770000,149.298096,1.000000,200.000000,3.084389,5.854288,2.000000,4
/home/daniel/Projects/ppsEvolution/data/maps/custom_maps/Custom_1_Run_0_Map.csv,squared_error,0.0001565183253877,0.5001,0.1577,0.000000,0.944244,0.549458,1.000000,0.000000,0.036209,1.000000,2.000000,0.700952,0.355015,1.000000,1.000000,1.000000,0.798567,0.651161,2.000000,125.000000,1.298776,86.473587,1.000000,1.000000,0.843988,10.000000,2.000000,247.666559,0.968808,150.000000,1.000000,200.000000,8.086388,6.860451,2.000000,5
/home/daniel/Projects/ppsEvolution/data/maps/custom_maps/Custom_1_Run_0_Map.csv,squared_error,0.00013036253882535927,0.5020,0.1560,0.000000,0.869234,0.336720,1.000000,0.000000,0.000000,1.000000,2.000000,0.365032,0.150148,1.000000,0.999550,1.000000,1.000000,0.794075,2.000000,125.000000,1.256771,56.477586,1.000000,1.000000,0.500000,10.000000,2.000000,188.880530,0.854083,150.000000,0.999550,200.000000,10.000000,8.146677,2.000000,6
/home/daniel/Projects/ppsEvolution/data/maps/custom_maps/Custom_1_Run_0_Map.csv,squared_error,0.0001253658430602433,0.5017,0.1557,0.000000,1.000000,0.343789,1.000000,0.076150,0.030480,1.000000,2.000000,0.311071,0.027155,1.000000,1.000000,1.000000,0.768526,0.759420,2.000000,125.000000,1.330000,57.474275,1.000000,16.153880,0.789559,10.000000,2.000000,179.437359,0.785207,150.000000,1.000000,200.000000,7.800993,7.834781,2.000000,7
/home/daniel/Projects/ppsEvolution/data/maps/custom_maps/Custom_1_Run_0_Map.csv,squared_error,0.00014310711349291955,0.5012,0.1569,0.000000,0.755504,0.379970,1.000000,0.000000,0.087867,1.000000,2.000000,0.413693,0.000000,1.000000,1.000000,0.966325,1.000000,0.626095,2.000000,125.000000,1.193082,62.575828,1.000000,1.000000,1.334740,10.000000,2.000000,197.396270,0.770000,150.000000,1.000000,193.298598,10.000000,6.634859,2.000000,8
/home/daniel/Projects/ppsEvolution/data/maps/custom_maps/Custom_1_Run_0_Map.csv,squared_error,0.00014422298243577098,0.5002,0.1570,0.000000,1.000000,0.438054,1.000000,0.001667,0.000000,1.000000,2.000000,0.543375,0.191941,1.000000,1.000000,0.977768,0.989044,0.664772,2.000000,125.000000,1.330000,70.765549,1.000000,1.331822,0.500000,10.000000,2.000000,220.090560,0.877487,150.000000,1.000000,195.575843,9.895916,6.982951,2.000000,9
map,fitness,fitness value,team0ratio,time,HP,Speed,Damage,Acc,ClipSize,RateOfFire,NrBullets,Range,HP,Speed,Damage,Acc,ClipSize,RateOfFire,NrBullets,Range,HP,Speed,Damage,Acc,ClipSize,RateOfFire,NrBullets,Range,HP,Speed,Damage,Acc,ClipSize,RateOfFire,NrBullets,Range,Run,target team0ratio: 0.5,target time: 0.14
/home/daniel/Projects/ppsEvolution/data/maps/custom_maps/Custom_2_Run_0_Map.csv,squared_error,0.030274709244409666,0.4705,0.3843,0.000000,1.000000,0.664060,1.000000,0.000000,0.000000,1.000000,2.000000,0.831962,0.322438,1.000000,1.000000,0.990412,1.000000,1.000000,2.000000,125.000000,1.330000,102.632465,1.000000,1.000000,0.500000,10.000000,2.000000,270.593346,0.950565,150.000000,1.000000,198.091969,10.000000,10.000000,2.000000,0
/home/daniel/Projects/ppsEvolution/data/maps/custom_maps/Custom_2_Run_0_Map.csv,squared_error,0.030254309653089024,0.4614,0.3829,0.000000,1.000000,0.703663,1.000000,0.000000,0.000000,1.000000,2.000000,1.000000,0.227710,1.000000,1.000000,1.000000,1.000000,1.000000,2.000000,125.000000,1.330000,108.216442,1.000000,1.000000,0.500000,10.000000,2.000000,300.000000,0.897518,150.000000,1.000000,200.000000,10.000000,10.000000,2.000000,1
/home/daniel/Projects/ppsEvolution/data/maps/custom_maps/Custom_2_Run_0_Map.csv,squared_error,0.03022024960794112,0.4624,0.3829,0.000000,1.000000,0.558124,1.000000,0.000000,0.000000,0.991523,2.000000,0.740937,0.759428,1.000000,1.000000,1.000000,1.000000,1.000000,2.000000,125.000000,1.330000,87.695520,1.000000,1.000000,0.500000,9.923706,2.000000,254.664017,1.195280,150.000000,1.000000,200.000000,10.000000,10.000000,2.000000,2
/home/daniel/Projects/ppsEvolution/data/maps/custom_maps/Custom_2_Run_0_Map.csv,squared_error,0.03027871673546817,0.4622,0.3832,0.000000,0.996393,0.540012,1.000000,0.000000,0.000000,0.983625,2.000000,0.693797,0.455473,1.000000,1.000000,0.993517,1.000000,1.000000,2.000000,125.000000,1.327980,85.141633,1.000000,1.000000,0.500000,9.852626,2.000000,246.414407,1.025065,150.000000,1.000000,198.709926,10.000000,10.000000,2.000000,3
/home/daniel/Projects/ppsEvolution/data/maps/custom_maps/Custom_2_Run_0_Map.csv,squared_error,0.03029176883366641,0.4704,0.3844,0.000000,1.000000,0.602158,1.000000,0.000000,0.000000,1.000000,2.000000,0.714503,0.299570,1.000000,1.000000,0.980884,1.000000,1.000000,2.000000,125.000000,1.330000,93.904233,1.000000,1.000000,0.500000,10.000000,2.000000,250.037951,0.937759,150.000000,1.000000,196.195969,10.000000,10.000000,2.000000,4
/home/daniel/Projects/ppsEvolution/data/maps/custom_maps/Custom_2_Run_0_Map.csv,squared_error,0.030233336702487314,0.4600,0.3826,0.000000,1.000000,0.667929,1.000000,0.000000,0.000000,1.000000,2.000000,0.960044,0.465827,1.000000,1.000000,1.000000,1.000000,1.000000,2.000000,125.000000,1.330000,103.178045,1.000000,1.000000,0.500000,10.000000,2.000000,293.007622,1.030863,150.000000,1.000000,200.000000,10.000000,10.000000,2.000000,5
/home/daniel/Projects/ppsEvolution/data/maps/custom_maps/Custom_2_Run_0_Map.csv,squared_error,0.0302408426336629,0.4597,0.3826,0.000000,1.000000,0.689533,1.000000,0.000000,0.000000,1.000000,2.000000,1.000000,0.386874,1.000000,1.000000,1.000000,1.000000,1.000000,2.000000,125.000000,1.330000,106.224101,1.000000,1.000000,0.500000,10.000000,2.000000,300.000000,0.986649,150.000000,1.000000,200.000000,10.000000,10.000000,2.000000,6
/home/daniel/Projects/ppsEvolution/data/maps/custom_maps/Custom_2_Run_0_Map.csv,squared_error,0.030231063830555672,0.4619,0.3829,0.000000,1.000000,0.576676,1.000000,0.039157,0.000000,1.000000,2.000000,0.781529,0.788349,1.000000,1.000000,1.000000,1.000000,1.000000,2.000000,125.000000,1.330000,90.311256,1.000000,8.792224,0.500000,10.000000,2.000000,261.767538,1.211476,150.000000,1.000000,200.000000,10.000000,10.000000,2.000000,7
/home/daniel/Projects/ppsEvolution/data/maps/custom_maps/Custom_2_Run_0_Map.csv,squared_error,0.030276392635156073,0.4666,0.3838,0.000000,1.000000,0.484274,1.000000,0.000000,0.000000,1.000000,2.000000,0.536347,0.412158,1.000000,1.000000,1.000000,1.000000,0.995628,2.000000,125.000000,1.330000,77.282668,1.000000,1.000000,0.500000,10.000000,2.000000,218.860677,1.000809,150.000000,1.000000,200.000000,10.000000,9.960648,2.000000,8
/home/daniel/Projects/ppsEvolution/data/maps/custom_maps/Custom_2_Run_0_Map.csv,squared_error,0.030234783137334305,0.4693,0.3840,0.000000,1.000000,0.625102,1.000000,0.000000,0.000000,1.000000,2.000000,0.804434,0.866714,0.993295,1.000000,0.992545,1.000000,1.000000,2.000000,125.000000,1.330000,97.139416,1.000000,1.000000,0.500000,10.000000,2.000000,265.775876,1.255360,149.054665,1.000000,198.516439,10.000000,10.000000,2.000000,9
map,fitness,fitness value,team0ratio,time,HP,Speed,Damage,Acc,ClipSize,RateOfFire,NrBullets,Range,HP,Speed,Damage,Acc,ClipSize,RateOfFire,NrBullets,Range,HP,Speed,Damage,Acc,ClipSize,RateOfFire,NrBullets,Range,HP,Speed,Damage,Acc,ClipSize,RateOfFire,NrBullets,Range,Run,target team0ratio: 0.5,target time: 0.14
/home/daniel/Projects/ppsEvolution/data/maps/custom_maps/Custom_3_Run_0_Map.csv,squared_error,0.05407727455336594,0.5307,0.4674,0.000000,0.815551,1.000000,0.980046,0.000000,0.000000,1.000000,2.000000,0.000000,0.000000,1.000000,1.000000,1.000000,0.000000,1.000000,2.000000,125.000000,1.226709,150.000000,0.980046,1.000000,0.500000,10.000000,2.000000,125.000000,0.770000,150.000000,1.000000,200.000000,0.500000,10.000000,2.000000,0
/home/daniel/Projects/ppsEvolution/data/maps/custom_maps/Custom_3_Run_0_Map.csv,squared_error,0.054120856270515064,0.5271,0.4679,0.000000,0.435863,1.000000,0.979050,0.000000,0.000000,1.000000,2.000000,0.000000,0.021109,0.999551,1.000000,1.000000,0.002484,1.000000,2.000000,125.000000,1.014083,150.000000,0.979050,1.000000,0.500000,10.000000,2.000000,125.000000,0.781821,149.936676,1.000000,200.000000,0.523594,10.000000,2.000000,1
/home/daniel/Projects/ppsEvolution/data/maps/custom_maps/Custom_3_Run_0_Map.csv,squared_error,0.05408534545772125,0.5290,0.4676,0.000000,0.918645,1.000000,0.978814,0.000000,0.000000,1.000000,2.000000,0.000000,0.000000,1.000000,1.000000,0.951141,0.012632,1.000000,2.000000,125.000000,1.284441,150.000000,0.978814,1.000000,0.500000,10.000000,2.000000,125.000000,0.770000,150.000000,1.000000,190.277154,0.620005,10.000000,2.000000,2
/home/daniel/Projects/ppsEvolution/data/maps/custom_maps/Custom_3_Run_0_Map.csv,squared_error,0.05409393200957292,0.5172,0.4685,0.000000,1.000000,1.000000,0.972349,0.000000,0.000000,1.000000,2.000000,0.000000,0.000000,0.997432,1.000000,1.000000,0.000000,1.000000,2.000000,125.000000,1.330000,150.000000,0.972349,1.000000,0.500000,10.000000,2.000000,125.000000,0.770000,149.637859,1.000000,200.000000,0.500000,10.000000,2.000000,3
/home/daniel/Projects/ppsEvolution/data/maps/custom_maps/Custom_3_Run_0_Map.csv,squared_error,0.05414326177935306,0.5339,0.4673,0.000000,0.432077,1.000000,0.983462,0.000000,0.512990,1.000000,2.000000,0.000000,0.000000,1.000000,1.000000,0.961000,0.000000,1.000000,2.000000,125.000000,1.011963,150.000000,0.983462,1.000000,5.373406,10.000000,2.000000,125.000000,0.770000,150.000000,1.000000,192.238921,0.500000,10.000000,2.000000,4
/home/daniel/Projects/ppsEvolution/data/maps/custom_maps/Custom_3_Run_0_Map.csv,squared_error,0.05409827772464662,0.5177,0.4685,0.000000,1.000000,1.000000,0.972635,0.000000,0.038015,1.000000,2.000000,0.000000,0.000000,1.000000,1.000000,0.986736,0.008673,1.000000,2.000000,125.000000,1.330000,150.000000,0.972635,1.000000,0.861138,10.000000,2.000000,125.000000,0.770000,150.000000,1.000000,197.360509,0.582397,10.000000,2.000000,5
/home/daniel/Projects/ppsEvolution/data/maps/custom_maps/Custom_3_Run_0_Map.csv,squared_error,0.054077435721657234,0.5261,0.4678,0.000000,0.857679,1.000000,0.977667,0.000000,0.036481,1.000000,2.000000,0.001444,0.000000,1.000000,1.000000,0.976418,0.000000,1.000000,2.000000,125.000000,1.250300,150.000000,0.977667,1.000000,0.846571,10.000000,2.000000,125.252655,0.770000,150.000000,1.000000,195.307253,0.500000,10.000000,2.000000,6
/home/daniel/Projects/ppsEvolution/data/maps/custom_maps/Custom_3_Run_0_Map.csv,squared_error,0.05449831495431821,0.5261,0.4691,0.000000,1.000000,0.701649,1.000000,0.000000,0.062805,0.998222,2.000000,0.000000,0.000000,1.000000,1.000000,1.000000,0.000000,1.000000,2.000000,125.000000,1.330000,107.932570,1.000000,1.000000,1.096647,9.984001,2.000000,125.000000,0.770000,150.000000,1.000000,200.000000,0.500000,10.000000,2.000000,7
/home/daniel/Projects/ppsEvolution/data/maps/custom_maps/Custom_3_Run_0_Map.csv,squared_error,0.05419199641673683,0.5186,0.4687,0.000000,0.998302,1.000000,0.972766,0.000000,0.091805,1.000000,2.000000,0.000000,0.000000,1.000000,1.000000,0.820859,0.066793,1.000000,2.000000,125.000000,1.329049,150.000000,0.972766,1.000000,1.372149,10.000000,2.000000,125.000000,0.770000,150.000000,1.000000,164.351013,1.134537,10.000000,2.000000,8
/home/daniel/Projects/ppsEvolution/data/maps/custom_maps/Custom_3_Run_0_Map.csv,squared_error,0.05405508474653,0.5227,0.4680,0.000000,1.000000,1.000000,0.975324,0.000000,0.000000,1.000000,2.000000,0.000000,0.000000,1.000000,1.000000,1.000000,0.000000,1.000000,2.000000,125.000000,1.330000,150.000000,0.975324,1.000000,0.500000,10.000000,2.000000,125.000000,0.770000,150.000000,1.000000,200.000000,0.500000,10.000000,2.000000,9
map,fitness,fitness value,team0ratio,time,HP,Speed,Damage,Acc,ClipSize,RateOfFire,NrBullets,Range,HP,Speed,Damage,Acc,ClipSize,RateOfFire,NrBullets,Range,HP,Speed,Damage,Acc,ClipSize,RateOfFire,NrBullets,Range,HP,Speed,Damage,Acc,ClipSize,RateOfFire,NrBullets,Range,Run,target team0ratio: 0.5,target time: 0.14
/home/daniel/Projects/ppsEvolution/data/maps/custom_maps/Custom_4_Run_0_Map.csv,squared_error,0.0013538065713213849,0.5055,0.1917,0.000000,0.900383,0.848801,0.994142,0.000000,0.000000,1.000000,2.000000,0.076023,0.000000,0.995894,1.000000,0.991251,0.000000,0.971677,2.000000,125.000000,1.274215,128.680930,0.994142,1.000000,0.500000,10.000000,2.000000,138.303964,0.770000,149.421053,1.000000,198.259006,0.500000,9.745091,2.000000,0
/home/daniel/Projects/ppsEvolution/data/maps/custom_maps/Custom_4_Run_0_Map.csv,squared_error,0.0014078787885867068,0.5020,0.1930,0.000000,1.000000,0.880714,1.000000,0.000000,0.000000,1.000000,2.000000,0.294082,0.000000,1.000000,1.000000,0.906383,0.038579,0.918008,2.000000,125.000000,1.330000,133.180652,1.000000,1.000000,0.500000,10.000000,2.000000,176.464316,0.770000,150.000000,1.000000,181.370279,0.866503,9.262074,2.000000,1
/home/daniel/Projects/ppsEvolution/data/maps/custom_maps/Custom_4_Run_0_Map.csv,squared_error,0.0013950824721174011,0.5083,0.1922,0.000000,0.829880,0.764735,1.000000,0.000000,0.007419,1.000000,2.000000,0.000000,0.000000,1.000000,1.000000,0.969124,0.000000,0.703963,2.000000,125.000000,1.234733,116.827630,1.000000,1.000000,0.570477,10.000000,2.000000,125.000000,0.770000,150.000000,1.000000,193.855580,0.500000,7.335663,2.000000,2
/home/daniel/Projects/ppsEvolution/data/maps/custom_maps/Custom_4_Run_0_Map.csv,squared_error,0.0014435532289567505,0.5082,0.1931,0.000000,0.668979,0.889743,0.995330,0.000000,0.000000,1.000000,2.000000,0.066428,0.240667,1.000000,1.000000,1.000000,0.000000,0.325269,2.000000,125.000000,1.144628,134.453773,0.995330,1.000000,0.500000,10.000000,2.000000,136.624922,0.904774,150.000000,1.000000,200.000000,0.500000,3.927422,2.000000,3
/home/daniel/Projects/ppsEvolution/data/maps/custom_maps/Custom_4_Run_0_Map.csv,squared_error,0.0013914579847129711,0.5069,0.1923,0.000000,1.000000,0.799213,1.000000,0.000000,0.008453,1.000000,2.000000,0.085699,0.000000,1.000000,1.000000,0.826224,0.000000,0.820350,2.000000,125.000000,1.330000,121.688983,1.000000,1.000000,0.580308,10.000000,2.000000,139.997399,0.770000,150.000000,1.000000,165.418538,0.500000,8.383146,2.000000,4
/home/daniel/Projects/ppsEvolution/data/maps/custom_maps/Custom_4_Run_0_Map.csv,squared_error,0.001363774546967042,0.5044,0.1920,0.000000,0.985075,1.000000,0.990752,0.000000,0.000000,1.000000,2.000000,0.252188,0.001089,1.000000,1.000000,1.000000,0.000000,0.920910,2.000000,125.000000,1.321642,150.000000,0.990752,1.000000,0.500000,10.000000,2.000000,169.132952,0.770610,150.000000,1.000000,200.000000,0.500000,9.288189,2.000000,5
/home/daniel/Projects/ppsEvolution/data/maps/custom_maps/Custom_4_Run_0_Map.csv,squared_error,0.001431679506706835,0.5021,0.1935,0.000000,0.622396,0.934186,1.000000,0.000000,0.093240,1.000000,2.000000,0.362607,0.045197,1.000000,1.000000,0.695186,0.016399,1.000000,2.000000,125.000000,1.118542,140.720277,1.000000,1.000000,1.385784,10.000000,2.000000,188.456300,0.795310,150.000000,1.000000,139.341995,0.655794,10.000000,2.000000,6
/home/daniel/Projects/ppsEvolution/data/maps/custom_maps/Custom_4_Run_0_Map.csv,squared_error,0.0013412500616233908,0.5091,0.1910,0.000000,0.478609,0.981585,0.983842,0.000000,0.015815,1.000000,2.000000,0.000000,0.030551,1.000000,1.000000,1.000000,0.000000,0.880419,2.000000,125.000000,1.038021,147.403447,0.983842,1.000000,0.650241,10.000000,2.000000,125.000000,0.787108,150.000000,1.000000,200.000000,0.500000,8.923772,2.000000,7
/home/daniel/Projects/ppsEvolution/data/maps/custom_maps/Custom_4_Run_0_Map.csv,squared_error,0.0013447140899355277,0.5002,0.1919,0.000000,0.711156,0.892387,0.984645,0.000000,0.000000,1.000000,2.000000,0.000000,0.000000,1.000000,1.000000,0.877297,0.052279,0.895985,2.000000,125.000000,1.168248,134.826599,0.984645,1.000000,0.500000,10.000000,2.000000,125.000000,0.770000,150.000000,1.000000,175.582171,0.996654,9.063864,2.000000,8
/home/daniel/Projects/ppsEvolution/data/maps/custom_maps/Custom_4_Run_0_Map.csv,squared_error,0.0015213517569181384,0.5088,0.1945,0.000000,0.936629,0.951580,1.000000,0.028355,0.222098,1.000000,2.000000,0.435950,0.000000,1.000000,1.000000,0.943997,0.489767,0.944060,2.000000,125.000000,1.294512,143.172830,1.000000,6.642696,2.609928,10.000000,2.000000,201.291204,0.770000,150.000000,1.000000,188.855447,5.152783,9.496536,2.000000,9
map,fitness,fitness value,team0ratio,time,HP,Speed,Damage,Acc,ClipSize,RateOfFire,NrBullets,Range,HP,Speed,Damage,Acc,ClipSize,RateOfFire,NrBullets,Range,HP,Speed,Damage,Acc,ClipSize,RateOfFire,NrBullets,Range,HP,Speed,Damage,Acc,ClipSize,RateOfFire,NrBullets,Range,Run,target team0ratio: 0.5,target time: 0.14
/home/daniel/Projects/ppsEvolution/data/maps/custom_maps/Custom_5_Run_0_Map.csv,squared_error,0.010279420828929162,0.5177,0.2823,0.419245,0.721325,1.000000,0.963447,0.000000,1.000000,1.000000,2.000000,0.000000,0.000000,1.000000,1.000000,0.898764,0.000000,1.000000,2.000000,198.367957,1.173942,150.000000,0.963447,1.000000,10.000000,10.000000,2.000000,125.000000,0.770000,150.000000,1.000000,179.853944,0.500000,10.000000,2.000000,0
/home/daniel/Projects/ppsEvolution/data/maps/custom_maps/Custom_5_Run_0_Map.csv,squared_error,0.010231659057544846,0.5198,0.2817,0.000000,0.153835,1.000000,0.980058,0.000000,0.000000,1.000000,2.000000,0.000000,0.000000,1.000000,1.000000,0.234884,0.000000,1.000000,2.000000,125.000000,0.856148,150.000000,0.980058,1.000000,0.500000,10.000000,2.000000,125.000000,0.770000,150.000000,1.000000,47.741918,0.500000,10.000000,2.000000,1
/home/daniel/Projects/ppsEvolution/data/maps/custom_maps/Custom_5_Run_0_Map.csv,squared_error,0.010256060608234023,0.5242,0.2812,0.000000,0.655114,1.000000,0.980737,0.000000,0.236003,1.000000,2.000000,0.000000,0.000000,1.000000,1.000000,0.714270,0.041125,0.958275,2.000000,125.000000,1.136864,150.000000,0.980737,1.000000,2.742032,10.000000,2.000000,125.000000,0.770000,150.000000,1.000000,143.139656,0.890685,9.624478,2.000000,2
/home/daniel/Projects/ppsEvolution/data/maps/custom_maps/Custom_5_Run_0_Map.csv,squared_error,0.010414929938263059,0.5231,0.2825,0.000000,0.365977,1.000000,0.987385,0.000000,0.118163,1.000000,2.000000,0.000000,0.000000,1.000000,1.000000,1.000000,0.000000,0.239490,2.000000,125.000000,0.974947,150.000000,0.987385,1.000000,1.622550,10.000000,2.000000,125.000000,0.770000,150.000000,1.000000,200.000000,0.500000,3.155412,2.000000,3
/home/daniel/Projects/ppsEvolution/data/maps/custom_maps/Custom_5_Run_0_Map.csv,squared_error,0.0102410640100847,0.5116,0.2826,0.014781,1.000000,1.000000,0.972373,0.000000,0.000000,1.000000,2.000000,0.006339,0.000000,0.995551,1.000000,0.942721,0.000000,1.000000,2.000000,127.586762,1.330000,150.000000,0.972373,1.000000,0.500000,10.000000,2.000000,126.109338,0.770000,149.372682,1.000000,188.601528,0.500000,10.000000,2.000000,4
/home/daniel/Projects/ppsEvolution/data/maps/custom_maps/Custom_5_Run_0_Map.csv,squared_error,0.010188057472112917,0.5132,0.2821,0.000000,0.559871,1.000000,0.974796,0.000000,0.205680,1.000000,2.000000,0.000000,0.000000,1.000000,1.000000,1.000000,0.000000,1.000000,2.000000,125.000000,1.083528,150.000000,0.974796,1.000000,2.453956,10.000000,2.000000,125.000000,0.770000,150.000000,1.000000,200.000000,0.500000,10.000000,2.000000,5
/home/daniel/Projects/ppsEvolution/data/maps/custom_maps/Custom_5_Run_0_Map.csv,squared_error,0.010151452503113377,0.5216,0.2808,0.000000,0.326142,1.000000,0.981031,0.000000,0.933285,1.000000,2.000000,0.000000,0.015801,1.000000,1.000000,0.855816,0.000000,1.000000,2.000000,125.000000,0.952639,150.000000,0.981031,1.000000,9.366211,10.000000,2.000000,125.000000,0.778848,150.000000,1.000000,171.307297,0.500000,10.000000,2.000000,6
/home/daniel/Projects/ppsEvolution/data/maps/custom_maps/Custom_5_Run_0_Map.csv,squared_error,0.010194845122024562,0.5195,0.2815,0.000000,0.745871,1.000000,0.978117,0.000000,1.000000,1.000000,2.000000,0.000000,0.188946,1.000000,1.000000,1.000000,0.000000,1.000000,2.000000,125.000000,1.187688,150.000000,0.978117,1.000000,10.000000,10.000000,2.000000,125.000000,0.875810,150.000000,1.000000,200.000000,0.500000,10.000000,2.000000,7
/home/daniel/Projects/ppsEvolution/data/maps/custom_maps/Custom_5_Run_0_Map.csv,squared_error,0.010197517663335535,0.5204,0.2813,0.000000,0.659576,1.000000,0.978028,0.000000,0.000000,1.000000,2.000000,0.000000,0.000000,1.000000,1.000000,1.000000,0.000000,1.000000,2.000000,125.000000,1.139363,150.000000,0.978028,1.000000,0.500000,10.000000,2.000000,125.000000,0.770000,150.000000,1.000000,200.000000,0.500000,10.000000,2.000000,8
/home/daniel/Projects/ppsEvolution/data/maps/custom_maps/Custom_5_Run_0_Map.csv,squared_error,0.01015551200293513,0.5189,0.2813,0.000000,0.749929,1.000000,0.978488,0.000000,0.907596,1.000000,2.000000,0.000000,0.000000,1.000000,1.000000,1.000000,0.000000,0.984048,2.000000,125.000000,1.189960,150.000000,0.978488,1.000000,9.122165,10.000000,2.000000,125.000000,0.770000,150.000000,1.000000,200.000000,0.500000,9.856432,2.000000,9
map,fitness,fitness value,team0ratio,time,HP,Speed,Damage,Acc,ClipSize,RateOfFire,NrBullets,Range,HP,Speed,Damage,Acc,ClipSize,RateOfFire,NrBullets,Range,HP,Speed,Damage,Acc,ClipSize,RateOfFire,NrBullets,Range,HP,Speed,Damage,Acc,ClipSize,RateOfFire,NrBullets,Range,Run,target team0ratio: 0.5,target time: 0.14
/home/daniel/Projects/ppsEvolution/data/maps/custom_maps/Custom_6_Run_0_Map.csv,squared_error,0.05659188597767751,0.3928,0.4589,0.000438,0.976428,0.000000,1.000000,0.000000,0.000000,0.000000,2.000000,1.000000,0.457877,0.987193,0.973899,1.000000,1.000000,1.000000,2.000000,125.076661,1.316800,9.000000,1.000000,1.000000,0.500000,1.000000,2.000000,300.000000,1.026411,148.194269,0.973899,200.000000,10.000000,10.000000,2.000000,0
/home/daniel/Projects/ppsEvolution/data/maps/custom_maps/Custom_6_Run_0_Map.csv,squared_error,0.056678065281937785,0.3914,0.4587,0.000000,1.000000,0.000000,1.000000,0.000000,0.000000,0.000000,2.000000,1.000000,0.000000,1.000000,0.972522,1.000000,1.000000,0.972348,2.000000,125.000000,1.330000,9.000000,1.000000,1.000000,0.500000,1.000000,2.000000,300.000000,0.770000,150.000000,0.972522,200.000000,10.000000,9.751129,2.000000,1
/home/daniel/Projects/ppsEvolution/data/maps/custom_maps/Custom_6_Run_0_Map.csv,squared_error,0.056565144629164045,0.3958,0.4598,0.000000,1.000000,0.000000,1.000000,0.017840,0.000000,0.030752,2.000000,1.000000,0.480101,1.000000,0.969489,1.000000,1.000000,1.000000,2.000000,125.000000,1.330000,9.000000,1.000000,4.550235,0.500000,1.276768,2.000000,300.000000,1.038857,150.000000,0.969489,200.000000,10.000000,10.000000,2.000000,2
/home/daniel/Projects/ppsEvolution/data/maps/custom_maps/Custom_6_Run_0_Map.csv,squared_error,0.05653528072820632,0.3976,0.4603,0.000000,1.000000,0.000000,1.000000,0.000000,0.000000,0.025330,2.000000,1.000000,0.474565,1.000000,0.967761,1.000000,1.000000,1.000000,2.000000,125.000000,1.330000,9.000000,1.000000,1.000000,0.500000,1.227972,2.000000,300.000000,1.035757,150.000000,0.967761,200.000000,10.000000,10.000000,2.000000,3
/home/daniel/Projects/ppsEvolution/data/maps/custom_maps/Custom_6_Run_0_Map.csv,squared_error,0.05646809392502807,0.3988,0.4605,0.014105,0.964989,0.000000,1.000000,0.018037,0.000000,0.000000,2.000000,1.000000,1.000000,1.000000,0.970209,1.000000,1.000000,1.000000,2.000000,127.468433,1.310394,9.000000,1.000000,4.589400,0.500000,1.000000,2.000000,300.000000,1.330000,150.000000,0.970209,200.000000,10.000000,10.000000,2.000000,4
/home/daniel/Projects/ppsEvolution/data/maps/custom_maps/Custom_6_Run_0_Map.csv,squared_error,0.05652899893465242,0.4003,0.4611,0.000000,1.000000,0.000000,1.000000,0.000000,0.000000,0.000000,2.000000,1.000000,0.434144,1.000000,0.965112,1.000000,1.000000,1.000000,2.000000,125.000000,1.330000,9.000000,1.000000,1.000000,0.500000,1.000000,2.000000,300.000000,1.013121,150.000000,0.965112,200.000000,10.000000,10.000000,2.000000,5
/home/daniel/Projects/ppsEvolution/data/maps/custom_maps/Custom_6_Run_0_Map.csv,squared_error,0.05659342061638083,0.3995,0.4611,0.000000,1.000000,0.000000,1.000000,0.000000,0.000000,0.000000,2.000000,1.000000,0.060400,1.000000,0.964612,1.000000,1.000000,1.000000,2.000000,125.000000,1.330000,9.000000,1.000000,1.000000,0.500000,1.000000,2.000000,300.000000,0.803824,150.000000,0.964612,200.000000,10.000000,10.000000,2.000000,6
/home/daniel/Projects/ppsEvolution/data/maps/custom_maps/Custom_6_Run_0_Map.csv,squared_error,0.05641600218673919,0.3987,0.4603,0.022573,1.000000,0.000000,1.000000,0.000000,0.000000,0.000000,2.000000,1.000000,1.000000,1.000000,0.971261,1.000000,1.000000,1.000000,2.000000,128.950273,1.330000,9.000000,1.000000,1.000000,0.500000,1.000000,2.000000,300.000000,1.330000,150.000000,0.971261,200.000000,10.000000,10.000000,2.000000,7
/home/daniel/Projects/ppsEvolution/data/maps/custom_maps/Custom_6_Run_0_Map.csv,squared_error,0.056587407455964724,0.3982,0.4607,0.000000,1.000000,0.000000,1.000000,0.000000,0.000000,0.000000,2.000000,1.000000,0.167879,1.000000,0.966132,1.000000,0.993792,1.000000,2.000000,125.000000,1.330000,9.000000,1.000000,1.000000,0.500000,1.000000,2.000000,300.000000,0.864012,150.000000,0.966132,200.000000,9.941028,10.000000,2.000000,8
/home/daniel/Projects/ppsEvolution/data/maps/custom_maps/Custom_6_Run_0_Map.csv,squared_error,0.05653230730244023,0.3936,0.4590,0.045556,1.000000,0.000000,1.000000,0.000000,0.000000,0.000000,2.000000,1.000000,0.530605,1.000000,0.977048,1.000000,1.000000,1.000000,2.000000,132.972363,1.330000,9.000000,1.000000,1.000000,0.500000,1.000000,2.000000,300.000000,1.067139,150.000000,0.977048,200.000000,10.000000,10.000000,2.000000,9
map,fitness,fitness value,team0ratio,time,HP,Speed,Damage,Acc,ClipSize,RateOfFire,NrBullets,Range,HP,Speed,Damage,Acc,ClipSize,RateOfFire,NrBullets,Range,HP,Speed,Damage,Acc,ClipSize,RateOfFire,NrBullets,Range,HP,Speed,Damage,Acc,ClipSize,RateOfFire,NrBullets,Range,Run,target team0ratio: 0.5,target time: 0.14
/home/daniel/Projects/ppsEvolution/data/maps/custom_maps/Custom_7_Run_0_Map.csv,squared_error,0.016239256696518867,0.4800,0.3191,0.000000,1.000000,0.560637,1.000000,0.000000,0.000000,1.000000,2.000000,0.591316,0.035216,1.000000,1.000000,1.000000,1.000000,1.000000,2.000000,125.000000,1.330000,88.049796,1.000000,1.000000,0.500000,10.000000,2.000000,228.480273,0.789721,150.000000,1.000000,200.000000,10.000000,10.000000,2.000000,0
/home/daniel/Projects/ppsEvolution/data/maps/custom_maps/Custom_7_Run_0_Map.csv,squared_error,0.016349017168987293,0.4819,0.3199,0.000000,0.508236,0.683380,1.000000,0.000000,0.000000,1.000000,2.000000,0.789039,0.040308,1.000000,1.000000,1.000000,0.994841,1.000000,2.000000,125.000000,1.054612,105.356582,1.000000,1.000000,0.500000,10.000000,2.000000,263.081757,0.792573,150.000000,1.000000,200.000000,9.950993,10.000000,2.000000,1
/home/daniel/Projects/ppsEvolution/data/maps/custom_maps/Custom_7_Run_0_Map.csv,squared_error,0.01621914484979418,0.4830,0.3193,0.000000,1.000000,0.380675,1.000000,0.000562,0.000000,1.000000,2.000000,0.238610,0.099509,1.000000,1.000000,0.948286,1.000000,1.000000,2.000000,125.000000,1.330000,62.675118,1.000000,1.111739,0.500000,10.000000,2.000000,166.756833,0.825725,150.000000,1.000000,189.708858,10.000000,10.000000,2.000000,2
/home/daniel/Projects/ppsEvolution/data/maps/custom_maps/Custom_7_Run_0_Map.csv,squared_error,0.016258641122614208,0.4827,0.3195,0.000000,1.000000,0.569578,1.000000,0.000000,0.000000,1.000000,2.000000,0.593464,0.000000,0.987722,1.000000,1.000000,1.000000,1.000000,2.000000,125.000000,1.330000,89.310496,1.000000,1.000000,0.500000,10.000000,2.000000,228.856147,0.770000,148.268838,1.000000,200.000000,10.000000,10.000000,2.000000,3
/home/daniel/Projects/ppsEvolution/data/maps/custom_maps/Custom_7_Run_0_Map.csv,squared_error,0.01627859899899993,0.4796,0.3193,0.000000,0.931487,0.665698,1.000000,0.000000,0.000000,1.000000,2.000000,0.787323,0.046335,1.000000,1.000000,1.000000,1.000000,1.000000,2.000000,125.000000,1.291633,102.863360,1.000000,1.000000,0.500000,10.000000,2.000000,262.781559,0.795948,150.000000,1.000000,200.000000,10.000000,10.000000,2.000000,4
/home/daniel/Projects/ppsEvolution/data/maps/custom_maps/Custom_7_Run_0_Map.csv,squared_error,0.016273956575943053,0.4802,0.3193,0.000000,1.000000,0.721176,1.000000,0.000000,0.000000,1.000000,2.000000,0.884891,0.000000,1.000000,1.000000,1.000000,1.000000,1.000000,2.000000,125.000000,1.330000,110.685838,1.000000,1.000000,0.500000,10.000000,2.000000,279.855875,0.770000,150.000000,1.000000,200.000000,10.000000,10.000000,2.000000,5
/home/daniel/Projects/ppsEvolution/data/maps/custom_maps/Custom_7_Run_0_Map.csv,squared_error,0.016217480946093012,0.4884,0.3197,0.000000,0.858966,0.307895,1.000000,0.000000,0.000000,1.000000,2.000000,0.055435,0.013008,1.000000,1.000000,0.987631,1.000000,1.000000,2.000000,125.000000,1.251021,52.413146,1.000000,1.000000,0.500000,10.000000,2.000000,134.701212,0.777284,150.000000,1.000000,197.538603,10.000000,10.000000,2.000000,6
/home/daniel/Projects/ppsEvolution/data/maps/custom_maps/Custom_7_Run_0_Map.csv,squared_error,0.016207590956166088,0.4802,0.3190,0.000000,0.990501,0.411607,1.000000,0.000000,0.000000,1.000000,2.000000,0.317204,0.049786,1.000000,1.000000,1.000000,1.000000,1.000000,2.000000,125.000000,1.324681,67.036542,1.000000,1.000000,0.500000,10.000000,2.000000,180.510728,0.797880,150.000000,1.000000,200.000000,10.000000,10.000000,2.000000,7
/home/daniel/Projects/ppsEvolution/data/maps/custom_maps/Custom_7_Run_0_Map.csv,squared_error,0.01629051009624907,0.4849,0.3199,0.000000,0.896441,0.658528,1.000000,0.000000,0.020801,1.000000,2.000000,0.726480,0.028872,1.000000,1.000000,1.000000,1.000000,1.000000,2.000000,125.000000,1.272007,101.852407,1.000000,1.000000,0.697609,10.000000,2.000000,252.133937,0.786168,150.000000,1.000000,200.000000,10.000000,10.000000,2.000000,8
/home/daniel/Projects/ppsEvolution/data/maps/custom_maps/Custom_7_Run_0_Map.csv,squared_error,0.016202081372447018,0.4800,0.3189,0.000000,1.000000,0.419901,1.000000,0.000000,0.000000,1.000000,2.000000,0.332863,0.000000,1.000000,1.000000,1.000000,1.000000,1.000000,2.000000,125.000000,1.330000,68.206104,1.000000,1.000000,0.500000,10.000000,2.000000,183.251033,0.770000,150.000000,1.000000,200.000000,10.000000,10.000000,2.000000,9
map,fitness,fitness value,team0ratio,time,HP,Speed,Damage,Acc,ClipSize,RateOfFire,NrBullets,Range,HP,Speed,Damage,Acc,ClipSize,RateOfFire,NrBullets,Range,HP,Speed,Damage,Acc,ClipSize,RateOfFire,NrBullets,Range,HP,Speed,Damage,Acc,ClipSize,RateOfFire,NrBullets,Range,Run,target team0ratio: 0.5,target time: 0.14
/home/daniel/Projects/ppsEvolution/data/maps/custom_maps/Custom_8_Run_0_Map.csv,squared_error,0.0028474710275416364,0.4987,0.2155,0.000000,0.629833,0.873994,1.000000,0.000000,0.000000,0.983994,2.000000,0.606550,0.000000,1.000000,1.000000,0.858325,0.497061,1.000000,2.000000,125.000000,1.122706,132.233101,1.000000,1.000000,0.500000,9.855944,2.000000,231.146300,0.770000,150.000000,1.000000,171.806700,5.222076,10.000000,2.000000,0
/home/daniel/Projects/ppsEvolution/data/maps/custom_maps/Custom_8_Run_0_Map.csv,squared_error,0.0027465583225975356,0.5094,0.2135,0.000000,0.983339,0.604264,1.000000,0.000000,0.000000,1.000000,2.000000,0.090295,0.052641,1.000000,1.000000,0.794262,0.710240,0.980820,2.000000,125.000000,1.320670,94.201284,1.000000,1.000000,0.500000,10.000000,2.000000,140.801610,0.799479,150.000000,1.000000,159.058072,7.247277,9.827384,2.000000,1
/home/daniel/Projects/ppsEvolution/data/maps/custom_maps/Custom_8_Run_0_Map.csv,squared_error,0.00267757703584944,0.5101,0.2125,0.000000,0.969306,1.000000,0.988690,0.000000,0.000000,1.000000,2.000000,0.346565,0.032689,1.000000,1.000000,0.990155,0.000000,0.961531,2.000000,125.000000,1.312812,150.000000,0.988690,1.000000,0.500000,10.000000,2.000000,185.648921,0.788306,150.000000,1.000000,198.040891,0.500000,9.653781,2.000000,2
/home/daniel/Projects/ppsEvolution/data/maps/custom_maps/Custom_8_Run_0_Map.csv,squared_error,0.0026773932773292933,0.5064,0.2129,0.000000,0.851193,0.811935,1.000000,0.027983,0.000000,1.000000,2.000000,0.321986,0.000000,0.997696,1.000000,1.000000,0.000000,1.000000,2.000000,125.000000,1.246668,123.482791,1.000000,6.568532,0.500000,10.000000,2.000000,181.347607,0.770000,149.675088,1.000000,200.000000,0.500000,10.000000,2.000000,3
/home/daniel/Projects/ppsEvolution/data/maps/custom_maps/Custom_8_Run_0_Map.csv,squared_error,0.002620700334943002,0.5008,0.2124,0.000000,1.000000,0.726239,0.988686,0.000000,0.000000,1.000000,2.000000,0.000000,0.206078,1.000000,1.000000,1.000000,0.000000,0.980864,2.000000,125.000000,1.330000,111.399665,0.988686,1.000000,0.500000,10.000000,2.000000,125.000000,0.885404,150.000000,1.000000,200.000000,0.500000,9.827773,2.000000,4
/home/daniel/Projects/ppsEvolution/data/maps/custom_maps/Custom_8_Run_0_Map.csv,squared_error,0.0025952028800949015,0.5043,0.2119,0.000000,0.896636,0.616750,1.000000,0.000000,0.024741,1.000000,2.000000,0.000000,0.000000,1.000000,1.000000,1.000000,0.000000,1.000000,2.000000,125.000000,1.272116,95.961794,1.000000,1.000000,0.735037,10.000000,2.000000,125.000000,0.770000,150.000000,1.000000,200.000000,0.500000,10.000000,2.000000,5
/home/daniel/Projects/ppsEvolution/data/maps/custom_maps/Custom_8_Run_0_Map.csv,squared_error,0.0027555069590618634,0.5044,0.2141,0.000000,0.696165,0.951877,1.000000,0.000000,0.000000,1.000000,2.000000,0.582728,0.085505,1.000000,1.000000,0.873357,0.039497,1.000000,2.000000,125.000000,1.159853,143.214682,1.000000,1.000000,0.500000,10.000000,2.000000,226.977395,0.817883,150.000000,1.000000,174.798126,0.875222,10.000000,2.000000,6
/home/daniel/Projects/ppsEvolution/data/maps/custom_maps/Custom_8_Run_0_Map.csv,squared_error,0.002646118440394484,0.4985,0.2127,0.000000,0.984738,0.632585,1.000000,0.000000,0.000000,0.998329,2.000000,0.107759,0.101039,1.000000,1.000000,1.000000,0.100444,1.000000,2.000000,125.000000,1.321453,98.194427,1.000000,1.000000,0.500000,9.984965,2.000000,143.857871,0.826582,150.000000,1.000000,200.000000,1.454217,10.000000,2.000000,7
/home/daniel/Projects/ppsEvolution/data/maps/custom_maps/Custom_8_Run_0_Map.csv,squared_error,0.0025990348165245074,0.5065,0.2118,0.000000,1.000000,0.641128,1.000000,0.000000,0.000000,1.000000,2.000000,0.027708,0.002634,1.000000,1.000000,1.000000,0.000000,1.000000,2.000000,125.000000,1.330000,99.399068,1.000000,1.000000,0.500000,10.000000,2.000000,129.848958,0.771475,150.000000,1.000000,200.000000,0.500000,10.000000,2.000000,8
/home/daniel/Projects/ppsEvolution/data/maps/custom_maps/Custom_8_Run_0_Map.csv,squared_error,0.0027464486614592323,0.5058,0.2139,0.000000,1.000000,0.981620,1.000000,0.048398,0.000000,0.999709,2.000000,0.621700,0.089863,1.000000,1.000000,1.000000,0.000000,1.000000,2.000000,125.000000,1.330000,147.408452,1.000000,10.631219,0.500000,9.997382,2.000000,233.797472,0.820323,150.000000,1.000000,200.000000,0.500000,10.000000,2.000000,9
map,fitness,fitness value,team0ratio,time,HP,Speed,Damage,Acc,ClipSize,RateOfFire,NrBullets,Range,HP,Speed,Damage,Acc,ClipSize,RateOfFire,NrBullets,Range,HP,Speed,Damage,Acc,ClipSize,RateOfFire,NrBullets,Range,HP,Speed,Damage,Acc,ClipSize,RateOfFire,NrBullets,Range,Run,target team0ratio: 0.5,target time: 0.14
/home/daniel/Projects/ppsEvolution/data/maps/custom_maps/Custom_9_Run_0_Map.csv,squared_error,0.0010243156515870795,0.5064,0.1848,0.000000,0.915290,0.636674,0.999572,0.000000,0.000000,1.000000,2.000000,0.317988,0.000000,1.000000,1.000000,0.905063,0.000000,1.000000,2.000000,125.000000,1.282563,98.770976,0.999572,1.000000,0.500000,10.000000,2.000000,180.647874,0.770000,150.000000,1.000000,181.107461,0.500000,10.000000,2.000000,0
/home/daniel/Projects/ppsEvolution/data/maps/custom_maps/Custom_9_Run_0_Map.csv,squared_error,0.0009768798742287995,0.5015,0.1842,0.000000,1.000000,0.425695,1.000000,0.000000,0.000000,1.000000,2.000000,0.000000,0.000000,1.000000,1.000000,1.000000,0.000000,1.000000,2.000000,125.000000,1.330000,69.022970,1.000000,1.000000,0.500000,10.000000,2.000000,125.000000,0.770000,150.000000,1.000000,200.000000,0.500000,10.000000,2.000000,1
/home/daniel/Projects/ppsEvolution/data/maps/custom_maps/Custom_9_Run_0_Map.csv,squared_error,0.0012159427314329813,0.5008,0.1893,0.000000,0.890191,0.498327,1.000000,0.000000,0.486216,1.000000,2.000000,0.228858,0.000000,1.000000,1.000000,0.815462,0.757050,0.367061,2.000000,125.000000,1.268507,79.264103,1.000000,1.000000,5.119048,10.000000,2.000000,165.050110,0.770000,150.000000,1.000000,163.276938,7.691971,4.303548,2.000000,2
/home/daniel/Projects/ppsEvolution/data/maps/custom_maps/Custom_9_Run_0_Map.csv,squared_error,0.0010623737928435867,0.5083,0.1853,0.000000,0.695097,0.762910,0.990245,0.000000,0.149006,1.000000,2.000000,0.355638,0.000000,1.000000,1.000000,0.958286,0.272352,0.928838,2.000000,125.000000,1.159254,116.570345,0.990245,1.000000,1.915557,10.000000,2.000000,187.236587,0.770000,150.000000,1.000000,191.698937,3.087344,9.359546,2.000000,3
/home/daniel/Projects/ppsEvolution/data/maps/custom_maps/Custom_9_Run_0_Map.csv,squared_error,0.0010942054724504043,0.5051,0.1865,0.000000,1.000000,0.596195,1.000000,0.000000,0.421568,1.000000,2.000000,0.281490,0.000000,1.000000,1.000000,1.000000,0.225848,0.745773,2.000000,125.000000,1.330000,93.063476,1.000000,1.000000,4.504897,10.000000,2.000000,174.260714,0.770000,150.000000,1.000000,200.000000,2.645558,7.711954,2.000000,4
/home/daniel/Projects/ppsEvolution/data/maps/custom_maps/Custom_9_Run_0_Map.csv,squared_error,0.00106700098307225,0.5040,0.1860,0.000000,0.750556,0.836550,1.000000,0.000000,0.003536,1.000000,2.000000,0.695828,0.000000,1.000000,1.000000,1.000000,0.000000,1.000000,2.000000,125.000000,1.190311,126.953516,1.000000,1.000000,0.533591,10.000000,2.000000,246.769962,0.770000,150.000000,1.000000,200.000000,0.500000,10.000000,2.000000,5
/home/daniel/Projects/ppsEvolution/data/maps/custom_maps/Custom_9_Run_0_Map.csv,squared_error,0.001004825717232531,0.4995,0.1848,0.009991,0.483560,0.613738,0.991133,0.011608,0.191641,1.000000,2.000000,0.141819,0.000000,1.000000,1.000000,1.000000,0.000000,1.000000,2.000000,126.748484,1.040793,95.537048,0.991133,3.309894,2.320590,10.000000,2.000000,149.818397,0.770000,150.000000,1.000000,200.000000,0.500000,10.000000,2.000000,6
/home/daniel/Projects/ppsEvolution/data/maps/custom_maps/Custom_9_Run_0_Map.csv,squared_error,0.0009923856877810872,0.5039,0.1844,0.000000,0.957139,0.616936,0.991430,0.000000,0.027307,0.987585,2.000000,0.148551,0.000000,1.000000,1.000000,1.000000,0.095382,1.000000,2.000000,125.000000,1.305998,95.987993,0.991430,1.000000,0.759421,9.888261,2.000000,150.996492,0.770000,150.000000,1.000000,200.000000,1.406128,10.000000,2.000000,7
/home/daniel/Projects/ppsEvolution/data/maps/custom_maps/Custom_9_Run_0_Map.csv,squared_error,0.0009999062762136286,0.5078,0.1840,0.004668,0.220914,0.918919,0.976777,0.000000,0.000000,1.000000,2.000000,0.186526,0.000000,1.000000,1.000000,0.978317,0.001533,0.525659,2.000000,125.816986,0.893712,138.567640,0.976777,1.000000,0.500000,10.000000,2.000000,157.641984,0.770000,150.000000,1.000000,195.685119,0.514568,5.730927,2.000000,8
/home/daniel/Projects/ppsEvolution/data/maps/custom_maps/Custom_9_Run_0_Map.csv,squared_error,0.0011143537515870602,0.5036,0.1871,0.000000,1.000000,0.614238,1.000000,0.000000,0.000000,1.000000,2.000000,0.380268,0.000000,1.000000,1.000000,0.756016,0.399262,0.694271,2.000000,125.000000,1.330000,95.607559,1.000000,1.000000,0.500000,10.000000,2.000000,191.546942,0.770000,150.000000,1.000000,151.447240,4.292988,7.248440,2.000000,9
map,fitness,fitness value,team0ratio,time,HP,Speed,Damage,Acc,ClipSize,RateOfFire,NrBullets,Range,HP,Speed,Damage,Acc,ClipSize,RateOfFire,NrBullets,Range,HP,Speed,Damage,Acc,ClipSize,RateOfFire,NrBullets,Range,HP,Speed,Damage,Acc,ClipSize,RateOfFire,NrBullets,Range,Run,target team0ratio: 0.5,target time: 0.14
/home/daniel/Projects/ppsEvolution/data/maps/custom_maps/Custom_10_Run_0_Map.csv,squared_error,0.020137627847892248,0.5367,0.3373,0.000000,0.735140,1.000000,0.993186,0.000000,1.000000,1.000000,2.000000,0.000000,0.000000,1.000000,1.000000,0.830532,0.000000,1.000000,0.000000,125.000000,1.181679,150.000000,0.993186,1.000000,10.000000,10.000000,2.000000,125.000000,0.770000,150.000000,1.000000,166.275786,0.500000,10.000000,0.000000,0
/home/daniel/Projects/ppsEvolution/data/maps/custom_maps/Custom_10_Run_0_Map.csv,squared_error,0.02013826462999009,0.5219,0.3395,0.000000,0.802976,1.000000,0.983619,0.000000,1.000000,1.000000,2.000000,0.000000,0.000000,1.000000,1.000000,0.998135,0.000000,1.000000,0.000000,125.000000,1.219666,150.000000,0.983619,1.000000,10.000000,10.000000,2.000000,125.000000,0.770000,150.000000,1.000000,199.628890,0.500000,10.000000,0.000000,1
/home/daniel/Projects/ppsEvolution/data/maps/custom_maps/Custom_10_Run_0_Map.csv,squared_error,0.020106434937834435,0.5296,0.3383,0.002537,1.000000,1.000000,0.987828,0.000000,1.000000,1.000000,2.000000,0.000000,0.000000,1.000000,1.000000,0.942461,0.000000,1.000000,0.000000,125.443902,1.330000,150.000000,0.987828,1.000000,10.000000,10.000000,2.000000,125.000000,0.770000,150.000000,1.000000,188.549723,0.500000,10.000000,0.000000,2
/home/daniel/Projects/ppsEvolution/data/maps/custom_maps/Custom_10_Run_0_Map.csv,squared_error,0.020108924668987217,0.5306,0.3382,0.000000,0.601390,1.000000,0.989421,0.001695,1.000000,1.000000,2.000000,0.000000,0.000000,1.000000,1.000000,1.000000,0.007044,1.000000,0.000000,125.000000,1.106779,150.000000,0.989421,1.337362,10.000000,10.000000,2.000000,125.000000,0.770000,150.000000,1.000000,200.000000,0.566915,10.000000,0.000000,3
/home/daniel/Projects/ppsEvolution/data/maps/custom_maps/Custom_10_Run_0_Map.csv,squared_error,0.020110438595971846,0.5277,0.3386,0.000000,0.587190,1.000000,0.987744,0.000000,1.000000,1.000000,2.000000,0.000000,0.000000,1.000000,1.000000,0.976945,0.000000,1.000000,0.000000,125.000000,1.098826,150.000000,0.987744,1.000000,10.000000,10.000000,2.000000,125.000000,0.770000,150.000000,1.000000,195.412120,0.500000,10.000000,0.000000,4
/home/daniel/Projects/ppsEvolution/data/maps/custom_maps/Custom_10_Run_0_Map.csv,squared_error,0.02010112301874526,0.5289,0.3384,0.000000,0.855657,1.000000,0.987780,0.000000,1.000000,1.000000,2.000000,0.000000,0.000000,1.000000,1.000000,1.000000,0.000000,1.000000,0.000000,125.000000,1.249168,150.000000,0.987780,1.000000,10.000000,10.000000,2.000000,125.000000,0.770000,150.000000,1.000000,200.000000,0.500000,10.000000,0.000000,5
/home/daniel/Projects/ppsEvolution/data/maps/custom_maps/Custom_10_Run_0_Map.csv,squared_error,0.020140960222143508,0.5239,0.3393,0.000000,1.000000,1.000000,0.984581,0.000000,1.000000,1.000000,2.000000,0.000000,0.000000,1.000000,1.000000,0.818944,0.000000,1.000000,0.000000,125.000000,1.330000,150.000000,0.984581,1.000000,10.000000,10.000000,2.000000,125.000000,0.770000,150.000000,1.000000,163.969804,0.500000,10.000000,0.000000,6
/home/daniel/Projects/ppsEvolution/data/maps/custom_maps/Custom_10_Run_0_Map.csv,squared_error,0.020149615192564696,0.5368,0.3373,0.000000,0.888333,1.000000,0.992702,0.000000,1.000000,1.000000,2.000000,0.000000,0.000000,1.000000,1.000000,0.814711,0.017213,1.000000,0.000000,125.000000,1.267467,150.000000,0.992702,1.000000,10.000000,10.000000,2.000000,125.000000,0.770000,150.000000,1.000000,163.127540,0.663525,10.000000,0.000000,7
/home/daniel/Projects/ppsEvolution/data/maps/custom_maps/Custom_10_Run_0_Map.csv,squared_error,0.02010122994075853,0.5280,0.3385,0.000000,1.000000,1.000000,0.986855,0.000000,1.000000,1.000000,2.000000,0.000000,0.000000,1.000000,1.000000,1.000000,0.000000,1.000000,0.000000,125.000000,1.330000,150.000000,0.986855,1.000000,10.000000,10.000000,2.000000,125.000000,0.770000,150.000000,1.000000,200.000000,0.500000,10.000000,0.000000,8
/home/daniel/Projects/ppsEvolution/data/maps/custom_maps/Custom_10_Run_0_Map.csv,squared_error,0.020282841085903443,0.5357,0.3382,0.000000,0.545187,1.000000,0.992578,0.047517,0.738220,1.000000,2.000000,0.000000,0.000000,0.998516,1.000000,0.790436,0.000000,1.000000,0.000000,125.000000,1.075305,150.000000,0.992578,10.455875,7.513092,10.000000,2.000000,125.000000,0.770000,149.790699,1.000000,158.296859,0.500000,10.000000,0.000000,9
