map,fitness,fitness value,team0ratio,time,HP,Speed,Damage,Acc,ClipSize,RateOfFire,NrBullets,Range,HP,Speed,Damage,Acc,ClipSize,RateOfFire,NrBullets,Range,HP,Speed,Damage,Acc,ClipSize,RateOfFire,NrBullets,Range,HP,Speed,Damage,Acc,ClipSize,RateOfFire,NrBullets,Range,Run,target team0ratio: 0.5,target time: 0.72
/home/daniel/Projects/ppsEvolution/data/maps/custom_maps/Custom_1_Run_0_Map.csv,squared_error,9.701747349140537e-07,0.4986,0.7200,1.000000,1.000000,0.000000,0.000000,0.341403,0.243643,0.591964,1.000000,1.000000,0.109278,0.088217,0.000000,1.000000,0.089838,0.000000,2.000000,300.000000,1.330000,9.000000,0.000000,68.939107,2.814611,6.327672,1.000000,300.000000,0.831196,21.438663,0.000000,200.000000,1.353462,1.000000,2.000000,0
/home/daniel/Projects/ppsEvolution/data/maps/custom_maps/Custom_1_Run_0_Map.csv,squared_error,3.1555508334405833e-07,0.5007,0.7197,0.956502,0.930427,0.000000,0.000000,0.000000,0.061125,0.743939,0.000000,1.000000,0.257783,0.028562,0.000000,0.484597,0.932143,0.380771,1.000000,292.387783,1.291039,9.000000,0.000000,1.000000,1.080684,7.695455,0.000000,300.000000,0.914358,13.027289,0.000000,97.434770,9.355354,4.426943,1.000000,1
/home/daniel/Projects/ppsEvolution/data/maps/custom_maps/Custom_1_Run_0_Map.csv,squared_error,5.201669379087498e-06,0.5026,0.7181,0.779898,0.943517,0.000000,0.000000,0.000000,0.000000,0.904800,1.000000,1.000000,0.359248,0.000000,0.000000,0.884562,1.000000,0.000000,1.000000,261.482114,1.298369,9.000000,0.000000,1.000000,0.500000,9.143203,1.000000,300.000000,0.971179,9.000000,0.000000,177.027807,10.000000,1.000000,1.000000,2
/home/daniel/Projects/ppsEvolution/data/maps/custom_maps/Custom_1_Run_0_Map.csv,squared_error,2.119670401069141e-06,0.4980,0.7205,0.867728,0.755983,0.000000,0.018471,0.000000,0.111247,0.670326,0.000000,1.000000,0.957650,0.000000,0.015298,0.773176,0.974051,0.130013,2.000000,276.852434,1.193351,9.000000,0.018471,1.000000,1.556846,7.032933,0.000000,300.000000,1.306284,9.000000,0.015298,154.862115,9.753485,2.170116,2.000000,3
/home/daniel/Projects/ppsEvolution/data/maps/custom_maps/Custom_1_Run_0_Map.csv,squared_error,1.415960034148587e-06,0.4986,0.7191,0.888272,0.793948,0.000000,0.000000,0.189416,0.218323,0.611521,1.000000,0.965540,0.261628,0.000000,0.000000,0.896792,0.843645,0.414373,0.000000,280.447626,1.214611,9.000000,0.000000,38.693759,2.574067,6.503688,1.000000,293.969456,0.916511,9.000000,0.000000,179.461619,8.514630,4.729354,0.000000,4
/home/daniel/Projects/ppsEvolution/data/maps/custom_maps/Custom_1_Run_0_Map.csv,squared_error,2.9200830040394903e-06,0.4976,0.7197,0.822106,0.730334,0.000000,0.000000,0.085666,0.347408,0.689909,1.000000,1.000000,0.376418,0.000000,0.000000,0.781737,0.741217,0.095638,0.000000,268.868466,1.178987,9.000000,0.000000,18.047607,3.800374,7.209185,1.000000,300.000000,0.980794,9.000000,0.000000,156.565613,7.541562,1.860743,0.000000,5
/home/daniel/Projects/ppsEvolution/data/maps/custom_maps/Custom_1_Run_0_Map.csv,squared_error,1.060855383344223e-06,0.4998,0.7186,0.798375,0.938090,0.008124,0.000000,0.313811,0.056838,0.467384,1.000000,0.959309,0.283526,0.000000,0.000000,0.729913,0.475483,0.059234,2.000000,264.715627,1.295331,10.145460,0.000000,63.448421,1.039966,5.206456,1.000000,292.879039,0.928774,9.000000,0.000000,146.252692,5.017084,1.533107,2.000000,6
/home/daniel/Projects/ppsEvolution/data/maps/custom_maps/Custom_1_Run_0_Map.csv,squared_error,1.3999171519857586e-07,0.5001,0.7205,0.830644,0.797302,0.000000,0.000000,0.581920,0.000000,0.769889,0.000000,1.000000,0.645492,0.000000,0.000000,0.754061,0.479837,0.096056,0.000000,270.362786,1.216489,9.000000,0.000000,116.802151,0.500000,7.929005,0.000000,300.000000,1.131476,9.000000,0.000000,151.058151,5.058455,1.864508,0.000000,7
/home/daniel/Projects/ppsEvolution/data/maps/custom_maps/Custom_1_Run_0_Map.csv,squared_error,1.209164093297261e-06,0.4989,0.7211,0.836222,0.353516,0.000000,0.042085,0.131826,0.000000,0.266802,1.000000,1.000000,0.355451,0.000000,0.000000,0.827806,0.825616,0.120298,1.000000,271.338894,0.967969,9.000000,0.042085,27.233458,0.500000,3.401221,1.000000,300.000000,0.969052,9.000000,0.000000,165.733374,8.343356,2.082682,1.000000,8
/home/daniel/Projects/ppsEvolution/data/maps/custom_maps/Custom_1_Run_0_Map.csv,squared_error,5.827844540647458e-07,0.4994,0.7209,0.834269,1.000000,0.000000,0.000000,0.334146,0.542670,0.695982,2.000000,1.000000,0.704854,0.000000,0.000000,0.961829,0.969696,0.048384,0.000000,270.997156,1.330000,9.000000,0.000000,67.495089,5.655369,7.263840,2.000000,300.000000,1.164718,9.000000,0.000000,192.404051,9.712111,1.435458,0.000000,9
map,fitness,fitness value,team0ratio,time,HP,Speed,Damage,Acc,ClipSize,RateOfFire,NrBullets,Range,HP,Speed,Damage,Acc,ClipSize,RateOfFire,NrBullets,Range,HP,Speed,Damage,Acc,ClipSize,RateOfFire,NrBullets,Range,HP,Speed,Damage,Acc,ClipSize,RateOfFire,NrBullets,Range,Run,target team0ratio: 0.5,target time: 0.72
/home/daniel/Projects/ppsEvolution/data/maps/custom_maps/Custom_2_Run_0_Map.csv,squared_error,2.5915101169544587e-06,0.5012,0.7181,0.144205,0.824869,0.000000,0.547385,0.043028,0.005251,0.847703,2.000000,0.939903,0.000000,0.063690,0.163498,0.985010,0.810853,0.000000,0.000000,150.235878,1.231926,9.000000,0.547385,9.562594,0.549880,8.629326,2.000000,289.482938,0.770000,17.980347,0.163498,197.017049,8.203103,1.000000,0.000000,0
/home/daniel/Projects/ppsEvolution/data/maps/custom_maps/Custom_2_Run_0_Map.csv,squared_error,3.945446910876407e-07,0.4999,0.7209,0.159200,1.000000,0.079729,0.478403,0.000000,0.498269,0.904591,2.000000,1.000000,0.017820,0.025802,0.179858,0.995507,1.000000,0.000000,2.000000,152.860002,1.330000,20.241857,0.478403,1.000000,5.233558,9.141322,2.000000,300.000000,0.779979,12.638068,0.179858,199.105862,10.000000,1.000000,2.000000,1
/home/daniel/Projects/ppsEvolution/data/maps/custom_maps/Custom_2_Run_0_Map.csv,squared_error,8.066120612511688e-07,0.4991,0.7209,0.061105,0.847596,0.000000,0.576015,0.064409,0.043362,0.743440,2.000000,1.000000,0.296062,0.000000,0.145069,0.912146,0.841704,0.293168,0.000000,135.693292,1.244654,9.000000,0.576015,13.817374,0.911943,7.690962,2.000000,300.000000,0.935795,9.000000,0.145069,182.517091,8.496192,3.638516,0.000000,2
/home/daniel/Projects/ppsEvolution/data/maps/custom_maps/Custom_2_Run_0_Map.csv,squared_error,3.978609257160983e-06,0.4977,0.7184,0.077254,0.638639,0.122866,0.439453,0.088032,0.180757,1.000000,2.000000,1.000000,0.279108,0.044207,0.074346,0.126673,0.749393,0.369461,1.000000,138.519470,1.127638,26.324079,0.439453,18.518328,2.217192,10.000000,2.000000,300.000000,0.926301,15.233198,0.074346,26.207961,7.619231,4.325147,1.000000,3
/home/daniel/Projects/ppsEvolution/data/maps/custom_maps/Custom_2_Run_0_Map.csv,squared_error,3.0952610570695635e-07,0.5003,0.7207,0.317602,0.899615,0.098554,0.430724,0.198703,0.000000,1.000000,1.000000,0.926231,0.357069,0.123584,0.127940,0.870710,0.925076,0.214045,1.000000,180.580276,1.273784,22.896072,0.430724,40.541924,0.500000,10.000000,1.000000,287.090408,0.969958,26.425353,0.127940,174.271372,9.288220,2.926405,1.000000,4
/home/daniel/Projects/ppsEvolution/data/maps/custom_maps/Custom_2_Run_0_Map.csv,squared_error,8.412594870862061e-07,0.5007,0.7211,0.242006,0.912744,0.003424,0.471950,0.117324,0.053349,0.962181,1.000000,0.784952,0.099197,0.075986,0.160497,0.806230,0.965593,0.161323,0.000000,167.351067,1.281136,9.482735,0.471950,24.347414,1.006818,9.659631,1.000000,262.366665,0.825550,19.714052,0.160497,161.439675,9.673133,2.451905,0.000000,5
/home/daniel/Projects/ppsEvolution/data/maps/custom_maps/Custom_2_Run_0_Map.csv,squared_error,6.469366511706176e-06,0.4965,0.7192,0.000000,0.984170,0.000000,0.523486,0.024825,0.262698,1.000000,0.000000,0.844528,0.162898,0.111141,0.044644,0.935953,0.812169,0.052103,2.000000,125.000000,1.321135,9.000000,0.523486,5.940170,2.995631,10.000000,0.000000,272.792458,0.861223,24.670861,0.044644,187.254608,8.215601,1.468924,2.000000,6
/home/daniel/Projects/ppsEvolution/data/maps/custom_maps/Custom_2_Run_0_Map.csv,squared_error,2.232317300894987e-06,0.4985,0.7215,0.109980,0.826762,0.157929,0.308656,0.157221,0.105633,0.896464,1.000000,0.744827,0.000000,0.025004,0.172457,0.978505,0.699624,0.000000,0.000000,144.246490,1.232987,31.267993,0.308656,32.287078,1.503516,9.068172,1.000000,255.344729,0.770000,12.525634,0.172457,195.722440,7.146429,1.000000,0.000000,7
/home/daniel/Projects/ppsEvolution/data/maps/custom_maps/Custom_2_Run_0_Map.csv,squared_error,1.0212369181844187e-05,0.4958,0.7218,0.370780,0.594578,0.000000,0.410018,0.143176,0.000000,0.894011,0.000000,0.613884,0.150079,0.000000,0.311937,1.000000,0.975470,0.163485,0.000000,189.886497,1.102964,9.000000,0.410018,29.492094,0.500000,9.046101,0.000000,232.429696,0.854044,9.000000,0.311937,200.000000,9.766964,2.471362,0.000000,8
/home/daniel/Projects/ppsEvolution/data/maps/custom_maps/Custom_2_Run_0_Map.csv,squared_error,5.130184585394274e-06,0.4982,0.7226,0.065785,0.804358,0.112379,0.456248,0.112033,0.195754,0.918665,0.000000,1.000000,0.126896,0.000000,0.144728,0.550715,1.000000,0.154272,1.000000,136.512424,1.220440,24.845422,0.456248,23.294492,2.359665,9.267987,0.000000,300.000000,0.841062,9.000000,0.144728,110.592201,10.000000,2.388445,1.000000,9
map,fitness,fitness value,team0ratio,time,HP,Speed,Damage,Acc,ClipSize,RateOfFire,NrBullets,Range,HP,Speed,Damage,Acc,ClipSize,RateOfFire,NrBullets,Range,HP,Speed,Damage,Acc,ClipSize,RateOfFire,NrBullets,Range,HP,Speed,Damage,Acc,ClipSize,RateOfFire,NrBullets,Range,Run,target team0ratio: 0.5,target time: 0.72
/home/daniel/Projects/ppsEvolution/data/maps/custom_maps/Custom_3_Run_0_Map.csv,squared_error,1.3607695775591646e-07,0.5002,0.7205,0.487223,1.000000,0.075459,0.505801,0.043512,0.137622,0.606707,2.000000,0.790678,0.028698,0.180413,0.337941,0.239562,0.239161,0.000000,0.000000,210.264009,1.330000,19.639695,0.505801,9.658846,1.807407,6.460363,2.000000,263.368568,0.786071,34.438249,0.337941,48.672840,2.772028,1.000000,0.000000,0
/home/daniel/Projects/ppsEvolution/data/maps/custom_maps/Custom_3_Run_0_Map.csv,squared_error,3.988800182597827e-06,0.4982,0.7178,0.243559,0.843093,0.224136,0.411135,0.000000,0.000000,0.884021,0.000000,0.840184,0.072632,0.000000,0.411642,0.970500,1.000000,0.071782,1.000000,167.622798,1.242132,40.603199,0.411135,1.000000,0.500000,8.956188,0.000000,272.032176,0.810674,9.000000,0.411642,194.129560,10.000000,1.646039,1.000000,1
/home/daniel/Projects/ppsEvolution/data/maps/custom_maps/Custom_3_Run_0_Map.csv,squared_error,1.0650491340243267e-06,0.4986,0.7202,0.255368,0.998153,0.005549,0.620300,0.581623,0.022727,0.889191,2.000000,0.979599,0.000000,0.000000,0.418053,0.886101,0.842039,0.000000,1.000000,169.689455,1.328966,9.782376,0.620300,116.742957,0.715907,9.002717,2.000000,296.429747,0.770000,9.000000,0.418053,177.334197,8.499373,1.000000,1.000000,2
/home/daniel/Projects/ppsEvolution/data/maps/custom_maps/Custom_3_Run_0_Map.csv,squared_error,1.023986142326965e-05,0.4980,0.7160,0.000000,0.773773,0.075165,0.571856,0.000000,0.273717,0.819456,1.000000,0.888343,0.000000,0.033509,0.294532,1.000000,0.994376,0.023433,1.000000,125.000000,1.203313,19.598329,0.571856,1.000000,3.100311,8.375108,1.000000,280.459953,0.770000,13.724800,0.294532,200.000000,9.946569,1.210896,1.000000,3
/home/daniel/Projects/ppsEvolution/data/maps/custom_maps/Custom_3_Run_0_Map.csv,squared_error,1.9912511019810584e-06,0.5009,0.7182,0.133291,0.938904,0.333712,0.301978,0.585858,0.610412,0.672272,1.000000,0.802285,0.064007,0.000000,0.358278,1.000000,0.609811,0.000000,0.000000,148.325921,1.295786,56.053395,0.301978,117.585740,6.298914,7.050446,1.000000,265.399938,0.805844,9.000000,0.358278,200.000000,6.293201,1.000000,0.000000,4
/home/daniel/Projects/ppsEvolution/data/maps/custom_maps/Custom_3_Run_0_Map.csv,squared_error,4.221533869212563e-08,0.4998,0.7198,0.000000,0.837416,0.035820,0.609520,0.157089,0.000000,0.966066,1.000000,0.969019,0.000000,0.000000,0.317147,1.000000,0.940503,0.000000,0.000000,125.000000,1.238953,14.050614,0.609520,32.260793,0.500000,9.694596,1.000000,294.578358,0.770000,9.000000,0.317147,200.000000,9.434782,1.000000,0.000000,5
/home/daniel/Projects/ppsEvolution/data/maps/custom_maps/Custom_3_Run_0_Map.csv,squared_error,3.1122338482532396e-06,0.5024,0.7195,0.055570,1.000000,0.000000,0.666047,0.000000,0.041436,0.744960,0.000000,1.000000,0.287586,0.150236,0.202936,0.942862,1.000000,0.099023,1.000000,134.724679,1.330000,9.000000,0.666047,1.000000,0.893639,7.704637,0.000000,300.000000,0.931048,30.183335,0.202936,188.629584,10.000000,1.891207,1.000000,6
/home/daniel/Projects/ppsEvolution/data/maps/custom_maps/Custom_3_Run_0_Map.csv,squared_error,1.6660233358408067e-06,0.5018,0.7201,0.300205,0.919069,0.233544,0.436450,0.065004,0.347446,1.000000,0.000000,1.000000,0.000000,0.083921,0.315608,0.986100,1.000000,0.101753,2.000000,177.535797,1.284679,41.929699,0.436450,13.935709,3.800738,10.000000,0.000000,300.000000,0.770000,20.832888,0.315608,197.233814,10.000000,1.915781,2.000000,7
/home/daniel/Projects/ppsEvolution/data/maps/custom_maps/Custom_3_Run_0_Map.csv,squared_error,4.8561374817530266e-06,0.4995,0.7169,0.417550,0.694503,0.003332,0.655488,0.250608,0.070807,0.610417,0.000000,0.957787,0.230721,0.101274,0.404538,0.808017,0.815927,0.216367,0.000000,198.071316,1.158922,9.469820,0.655488,50.870894,1.172663,6.493751,0.000000,292.612721,0.899203,23.279596,0.404538,161.795304,8.251307,2.947301,0.000000,8
/home/daniel/Projects/ppsEvolution/data/maps/custom_maps/Custom_3_Run_0_Map.csv,squared_error,6.64969484614658e-07,0.5005,0.7210,0.252086,1.000000,0.060561,0.479766,0.204723,0.053124,0.973645,2.000000,0.734656,0.000000,0.257043,0.133112,0.700435,0.760062,0.078113,2.000000,169.115066,1.330000,17.539076,0.479766,41.739962,1.004682,9.762802,2.000000,253.564789,0.770000,45.243050,0.133112,140.386471,7.720593,1.703013,2.000000,9
map,fitness,fitness value,team0ratio,time,HP,Speed,Damage,Acc,ClipSize,RateOfFire,NrBullets,Range,HP,Speed,Damage,Acc,ClipSize,RateOfFire,NrBullets,Range,HP,Speed,Damage,Acc,ClipSize,RateOfFire,NrBullets,Range,HP,Speed,Damage,Acc,ClipSize,RateOfFire,NrBullets,Range,Run,target team0ratio: 0.5,target time: 0.72
/home/daniel/Projects/ppsEvolution/data/maps/custom_maps/Custom_4_Run_0_Map.csv,squared_error,1.293008806283112e-06,0.5000,0.7216,0.694212,1.000000,0.000000,0.303312,0.038988,0.615671,0.734582,0.000000,1.000000,0.321290,0.104626,0.000000,0.914227,0.852876,0.000000,1.000000,246.487079,1.330000,9.000000,0.303312,8.758605,6.348878,7.611235,0.000000,300.000000,0.949922,23.752211,0.000000,182.931116,8.602319,1.000000,1.000000,0
/home/daniel/Projects/ppsEvolution/data/maps/custom_maps/Custom_4_Run_0_Map.csv,squared_error,6.199043607153921e-07,0.5011,0.7199,0.599777,1.000000,0.229105,0.025771,0.333814,0.321547,0.344571,1.000000,0.881235,0.318097,0.000000,0.046271,0.490385,0.758111,0.044548,0.000000,229.960962,1.330000,41.303758,0.025771,67.429043,3.554696,4.101137,1.000000,279.216135,0.948134,9.000000,0.046271,98.586659,7.702050,1.400932,0.000000,1
/home/daniel/Projects/ppsEvolution/data/maps/custom_maps/Custom_4_Run_0_Map.csv,squared_error,4.943760353822345e-06,0.4971,0.7212,0.504758,0.920891,0.000000,0.228970,0.018494,0.076350,0.672322,0.000000,0.773408,0.336333,0.000000,0.041148,1.000000,0.915734,0.061912,2.000000,213.332609,1.285699,9.000000,0.228970,4.680258,1.225329,7.050898,0.000000,260.346373,0.958347,9.000000,0.041148,200.000000,9.199477,1.557206,2.000000,2
/home/daniel/Projects/ppsEvolution/data/maps/custom_maps/Custom_4_Run_0_Map.csv,squared_error,4.174675880904268e-07,0.4998,0.7209,0.469786,1.000000,0.000000,0.304666,0.269120,0.000000,0.857997,0.000000,0.989295,0.267218,0.000000,0.000000,0.798589,0.941222,0.176996,0.000000,207.212510,1.330000,9.000000,0.304666,54.554948,0.500000,8.721974,0.000000,298.126653,0.919642,9.000000,0.000000,159.919136,9.441608,2.592967,0.000000,3
/home/daniel/Projects/ppsEvolution/data/maps/custom_maps/Custom_4_Run_0_Map.csv,squared_error,3.0455201993901853e-06,0.4986,0.7180,0.760530,1.000000,0.178222,0.000000,0.000000,0.032636,0.837101,1.000000,0.816507,0.386295,0.007448,0.111148,0.564134,0.925813,0.282450,2.000000,258.092709,1.330000,34.129300,0.000000,1.000000,0.810042,8.533911,1.000000,267.888735,0.986325,10.050135,0.111148,113.262706,9.295224,3.542046,2.000000,4
/home/daniel/Projects/ppsEvolution/data/maps/custom_maps/Custom_4_Run_0_Map.csv,squared_error,2.673734125747213e-06,0.4996,0.7177,0.513039,1.000000,0.021095,0.298359,0.120948,0.161415,0.560561,2.000000,0.983144,0.526675,0.012055,0.000000,0.908037,0.958022,0.150938,2.000000,214.781787,1.330000,11.974426,0.298359,25.068584,2.033440,6.045052,2.000000,297.050266,1.064938,10.699820,0.000000,181.699459,9.601206,2.358439,2.000000,5
/home/daniel/Projects/ppsEvolution/data/maps/custom_maps/Custom_4_Run_0_Map.csv,squared_error,7.3863221730447595e-06,0.4979,0.7168,0.626532,0.922014,0.142752,0.130223,0.322385,0.280363,0.928620,1.000000,1.000000,0.032720,0.000000,0.000000,1.000000,0.902413,0.673729,2.000000,234.643170,1.286328,29.127992,0.130223,65.154530,3.163446,9.357579,1.000000,300.000000,0.788323,9.000000,0.000000,200.000000,9.072922,7.063558,2.000000,6
/home/daniel/Projects/ppsEvolution/data/maps/custom_maps/Custom_4_Run_0_Map.csv,squared_error,5.055659802533853e-06,0.5024,0.7221,0.453726,0.816772,0.000000,0.113701,0.164856,0.747358,0.913120,2.000000,0.635217,0.000000,0.000000,0.000000,0.357226,0.812968,0.000000,0.000000,204.402007,1.227392,9.000000,0.113701,33.806384,7.599901,9.218079,2.000000,236.162969,0.770000,9.000000,0.000000,72.087934,8.223197,1.000000,0.000000,7
/home/daniel/Projects/ppsEvolution/data/maps/custom_maps/Custom_4_Run_0_Map.csv,squared_error,7.824138051234058e-07,0.5009,0.7209,0.539166,0.921978,0.033325,0.276177,0.043672,0.026558,0.693444,1.000000,1.000000,0.000000,0.000000,0.057361,0.994850,0.905669,0.000000,0.000000,219.353999,1.286308,13.698777,0.276177,9.690706,0.752304,7.240995,1.000000,300.000000,0.770000,9.000000,0.057361,198.975131,9.103854,1.000000,0.000000,8
/home/daniel/Projects/ppsEvolution/data/maps/custom_maps/Custom_4_Run_0_Map.csv,squared_error,2.3580374486868092e-07,0.5006,0.7197,0.506942,0.861620,0.177666,0.086301,0.067118,0.393370,0.871830,2.000000,1.000000,0.199643,0.000000,0.000000,0.782337,0.723433,0.069089,0.000000,213.714767,1.252507,34.050843,0.086301,14.356476,4.237017,8.846468,2.000000,300.000000,0.881800,9.000000,0.000000,156.685078,7.372616,1.621800,0.000000,9
map,fitness,fitness value,team0ratio,time,HP,Speed,Damage,Acc,ClipSize,RateOfFire,NrBullets,Range,HP,Speed,Damage,Acc,ClipSize,RateOfFire,NrBullets,Range,HP,Speed,Damage,Acc,ClipSize,RateOfFire,NrBullets,Range,HP,Speed,Damage,Acc,ClipSize,RateOfFire,NrBullets,Range,Run,target team0ratio: 0.5,target time: 0.72
/home/daniel/Projects/ppsEvolution/data/maps/custom_maps/Custom_5_Run_0_Map.csv,squared_error,2.250890961619992e-06,0.4988,0.7218,0.018555,0.838594,0.000000,0.425168,0.637961,0.168100,0.993219,2.000000,0.987445,0.241862,0.000000,0.000000,0.943438,0.985442,0.000000,2.000000,128.247095,1.239613,9.000000,0.425168,127.954166,2.096951,9.938971,2.000000,297.802802,0.905443,9.000000,0.000000,188.744189,9.861699,1.000000,2.000000,0
/home/daniel/Projects/ppsEvolution/data/maps/custom_maps/Custom_5_Run_0_Map.csv,squared_error,1.3703292283480282e-06,0.4987,0.7190,0.011321,1.000000,0.066318,0.354147,0.307346,0.131445,0.918251,0.000000,0.898293,0.301791,0.000000,0.022288,0.805378,0.615627,0.000000,1.000000,126.981193,1.330000,18.350903,0.354147,62.161855,1.748723,9.264261,0.000000,282.201332,0.939003,9.000000,0.022288,161.270139,6.348460,1.000000,1.000000,1
/home/daniel/Projects/ppsEvolution/data/maps/custom_maps/Custom_5_Run_0_Map.csv,squared_error,5.943355640650247e-06,0.5001,0.7166,0.277644,0.826472,0.125654,0.312163,0.426962,0.000000,1.000000,0.000000,1.000000,0.094186,0.000000,0.139599,0.995194,0.757906,0.040932,2.000000,173.587735,1.232825,26.717179,0.312163,85.965436,0.500000,10.000000,0.000000,300.000000,0.822744,9.000000,0.139599,199.043572,7.700107,1.368391,2.000000,2
/home/daniel/Projects/ppsEvolution/data/maps/custom_maps/Custom_5_Run_0_Map.csv,squared_error,1.6025047852792947e-06,0.4983,0.7206,0.028873,0.767753,0.000000,0.395684,0.137799,0.646625,0.908872,1.000000,0.864927,0.000000,0.000000,0.000000,1.000000,1.000000,0.143101,2.000000,130.052839,1.199941,9.000000,0.395684,28.422047,6.642934,9.179849,1.000000,276.362143,0.770000,9.000000,0.000000,200.000000,10.000000,2.287912,2.000000,3
/home/daniel/Projects/ppsEvolution/data/maps/custom_maps/Custom_5_Run_0_Map.csv,squared_error,2.412024395688798e-07,0.4995,0.7205,0.000000,0.872724,0.000000,0.374562,0.247777,0.088175,0.883114,2.000000,0.798099,0.210164,0.000000,0.000000,1.000000,0.785458,0.085377,1.000000,125.000000,1.258725,9.000000,0.374562,50.307542,1.337667,8.948025,2.000000,264.667383,0.887692,9.000000,0.000000,200.000000,7.961851,1.768394,1.000000,4
/home/daniel/Projects/ppsEvolution/data/maps/custom_maps/Custom_5_Run_0_Map.csv,squared_error,4.587790151163075e-07,0.4990,0.7200,0.154907,0.797324,0.022625,0.365041,0.293814,0.000000,0.902522,0.000000,0.825032,0.261369,0.000000,0.079164,0.942541,0.636295,0.130795,1.000000,152.108779,1.216501,12.190101,0.365041,59.469011,0.500000,9.122702,0.000000,269.380600,0.916367,9.000000,0.079164,188.565651,6.544805,2.177155,1.000000,5
/home/daniel/Projects/ppsEvolution/data/maps/custom_maps/Custom_5_Run_0_Map.csv,squared_error,3.052508229302267e-07,0.5000,0.7192,0.303165,0.886263,0.070060,0.301255,0.071471,0.000000,0.706548,1.000000,0.781187,0.125009,0.000000,0.133714,0.778220,0.988697,0.306220,0.000000,178.053813,1.266307,18.878464,0.301255,15.222739,0.500000,7.358935,1.000000,261.707645,0.840005,9.000000,0.133714,155.865722,9.892621,3.755983,0.000000,6
/home/daniel/Projects/ppsEvolution/data/maps/custom_maps/Custom_5_Run_0_Map.csv,squared_error,1.7597645389429782e-06,0.5007,0.7217,0.096731,0.775679,0.043417,0.406204,0.164129,0.161319,0.902688,1.000000,1.000000,0.211777,0.000000,0.000000,1.000000,1.000000,0.311707,2.000000,141.927993,1.204380,15.121779,0.406204,33.661680,2.032529,9.124193,1.000000,300.000000,0.888595,9.000000,0.000000,200.000000,10.000000,3.805362,2.000000,7
/home/daniel/Projects/ppsEvolution/data/maps/custom_maps/Custom_5_Run_0_Map.csv,squared_error,1.6483206237268658e-06,0.4998,0.7218,0.000000,0.880301,0.147839,0.271490,0.000000,0.057771,0.817104,1.000000,0.915055,0.219286,0.000000,0.000000,0.752959,0.740686,0.000000,0.000000,125.000000,1.262968,29.845311,0.271490,1.000000,1.048827,8.353937,1.000000,285.134698,0.892800,9.000000,0.000000,150.838867,7.536516,1.000000,0.000000,8
/home/daniel/Projects/ppsEvolution/data/maps/custom_maps/Custom_5_Run_0_Map.csv,squared_error,7.174250625048421e-07,0.4997,0.7188,0.461547,0.754611,0.049379,0.326379,0.305076,0.177290,0.804643,2.000000,0.871903,0.702857,0.000000,0.200257,0.376765,0.879843,0.138429,1.000000,205.770758,1.192582,15.962496,0.326379,61.710095,2.184257,8.241783,2.000000,277.583091,1.163600,9.000000,0.200257,75.976290,8.858504,2.245859,1.000000,9
map,fitness,fitness value,team0ratio,time,HP,Speed,Damage,Acc,ClipSize,RateOfFire,NrBullets,Range,HP,Speed,Damage,Acc,ClipSize,RateOfFire,NrBullets,Range,HP,Speed,Damage,Acc,ClipSize,RateOfFire,NrBullets,Range,HP,Speed,Damage,Acc,ClipSize,RateOfFire,NrBullets,Range,Run,target team0ratio: 0.5,target time: 0.72
/home/daniel/Projects/ppsEvolution/data/maps/custom_maps/Custom_6_Run_0_Map.csv,squared_error,1.7682039477123275e-07,0.4995,0.7202,0.202794,0.926572,0.233288,0.570526,0.038756,0.000000,0.822202,2.000000,0.870398,0.242420,0.249319,0.398064,0.806256,1.000000,0.067206,1.000000,160.488939,1.288880,41.893552,0.570526,8.712369,0.500000,8.399814,2.000000,277.319643,0.905755,44.154016,0.398064,161.445030,10.000000,1.604850,1.000000,0
/home/daniel/Projects/ppsEvolution/data/maps/custom_maps/Custom_6_Run_0_Map.csv,squared_error,4.492982959459442e-06,0.5011,0.7228,0.129158,1.000000,0.032560,0.705757,0.013464,0.203252,0.843359,2.000000,1.000000,0.000000,0.000000,0.531173,1.000000,0.700663,0.155774,2.000000,147.602646,1.330000,13.591000,0.705757,3.679417,2.430891,8.590232,2.000000,300.000000,0.770000,9.000000,0.531173,200.000000,7.156294,2.401962,2.000000,1
/home/daniel/Projects/ppsEvolution/data/maps/custom_maps/Custom_6_Run_0_Map.csv,squared_error,4.7077831650880297e-07,0.5009,0.7196,0.066368,1.000000,0.078188,0.683792,0.167772,0.050365,1.000000,2.000000,1.000000,0.000000,0.010952,0.525166,1.000000,1.000000,0.028192,0.000000,136.614459,1.330000,20.024448,0.683792,34.386652,0.978465,10.000000,2.000000,300.000000,0.770000,10.544188,0.525166,200.000000,10.000000,1.253727,0.000000,2
/home/daniel/Projects/ppsEvolution/data/maps/custom_maps/Custom_6_Run_0_Map.csv,squared_error,1.1344205633872784e-05,0.5013,0.7246,0.260954,0.948244,0.210743,0.562598,0.444316,0.000000,1.000000,0.000000,0.862574,0.000000,0.196985,0.410907,0.846815,0.684358,0.339691,1.000000,170.666982,1.301017,38.714770,0.562598,89.418906,0.500000,10.000000,0.000000,275.950382,0.770000,36.774952,0.410907,169.516182,7.001402,4.057221,1.000000,3
/home/daniel/Projects/ppsEvolution/data/maps/custom_maps/Custom_6_Run_0_Map.csv,squared_error,2.1088371931917528e-06,0.4991,0.7218,0.058863,0.977884,0.084037,0.676699,0.000000,0.024036,0.984112,2.000000,0.960660,0.088142,0.219365,0.375053,0.954618,0.988619,0.000000,0.000000,135.300953,1.317615,20.849244,0.676699,1.000000,0.728345,9.857010,2.000000,293.115576,0.819360,39.930459,0.375053,190.969001,9.891879,1.000000,0.000000,4
/home/daniel/Projects/ppsEvolution/data/maps/custom_maps/Custom_6_Run_0_Map.csv,squared_error,1.2447806510066924e-07,0.5005,0.7198,0.214903,0.996688,0.214801,0.597252,0.000000,0.088633,0.926039,0.000000,0.979283,0.000000,0.000000,0.559112,0.663150,1.000000,0.159147,1.000000,162.608050,1.328145,39.286938,0.597252,1.000000,1.342018,9.334351,0.000000,296.374559,0.770000,9.000000,0.559112,132.966824,10.000000,2.432325,1.000000,5
/home/daniel/Projects/ppsEvolution/data/maps/custom_maps/Custom_6_Run_0_Map.csv,squared_error,3.4658573488568763e-07,0.4996,0.7193,0.121225,0.844720,0.084725,0.662334,0.034535,0.038170,1.000000,1.000000,0.896468,0.126434,0.000000,0.553895,0.955431,0.819449,0.003983,1.000000,146.214418,1.243043,20.946235,0.662334,7.872445,0.862611,10.000000,1.000000,281.881874,0.840803,9.000000,0.553895,191.130768,8.284767,1.035851,1.000000,6
/home/daniel/Projects/ppsEvolution/data/maps/custom_maps/Custom_6_Run_0_Map.csv,squared_error,5.816108722652212e-06,0.5005,0.7166,0.000000,0.942479,0.150545,0.662356,0.188709,0.030000,1.000000,1.000000,1.000000,0.070505,0.000000,0.526731,0.959020,1.000000,0.000000,1.000000,125.000000,1.297788,30.226817,0.662356,38.553170,0.785000,10.000000,1.000000,300.000000,0.809483,9.000000,0.526731,191.844965,10.000000,1.000000,1.000000,7
/home/daniel/Projects/ppsEvolution/data/maps/custom_maps/Custom_6_Run_0_Map.csv,squared_error,8.269972776993665e-07,0.4989,0.7207,0.000000,1.000000,0.117894,0.670169,0.013347,0.000000,0.941914,0.000000,0.944581,0.000000,0.053494,0.473146,1.000000,0.967865,0.131996,2.000000,125.000000,1.330000,25.623043,0.670169,3.656018,0.500000,9.477222,0.000000,290.301593,0.770000,16.542672,0.473146,200.000000,9.694719,2.187968,2.000000,8
/home/daniel/Projects/ppsEvolution/data/maps/custom_maps/Custom_6_Run_0_Map.csv,squared_error,7.554789310234199e-07,0.5005,0.7211,0.000000,0.760088,0.299800,0.536099,0.086460,0.145524,1.000000,0.000000,0.955998,0.203222,0.000000,0.483263,0.880361,0.653194,0.229209,1.000000,125.000000,1.195649,51.271745,0.536099,18.205616,1.882482,10.000000,0.000000,292.299668,0.883804,9.000000,0.483263,176.191794,6.705341,3.062885,1.000000,9
map,fitness,fitness value,team0ratio,time,HP,Speed,Damage,Acc,ClipSize,RateOfFire,NrBullets,Range,HP,Speed,Damage,Acc,ClipSize,RateOfFire,NrBullets,Range,HP,Speed,Damage,Acc,ClipSize,RateOfFire,NrBullets,Range,HP,Speed,Damage,Acc,ClipSize,RateOfFire,NrBullets,Range,Run,target team0ratio: 0.5,target time: 0.72
/home/daniel/Projects/ppsEvolution/data/maps/custom_maps/Custom_7_Run_0_Map.csv,squared_error,1.8215746744772839e-06,0.5001,0.7219,0.422052,0.829127,0.265204,0.248501,0.414243,0.344604,0.769231,0.000000,0.957908,0.099159,0.104276,0.186514,1.000000,0.889497,0.000000,0.000000,198.859049,1.234311,46.393829,0.248501,83.434402,3.773737,7.923081,0.000000,292.633913,0.825529,23.702872,0.186514,200.000000,8.950224,1.000000,0.000000,0
/home/daniel/Projects/ppsEvolution/data/maps/custom_maps/Custom_7_Run_0_Map.csv,squared_error,1.7033919375533788e-07,0.5001,0.7194,0.455081,0.817345,0.000000,0.503474,0.000000,0.005425,0.701727,1.000000,0.922119,0.130210,0.043488,0.273657,1.000000,0.894859,0.245189,1.000000,204.639094,1.227713,9.000000,0.503474,1.000000,0.551542,7.315546,1.000000,286.370806,0.842917,15.131757,0.273657,200.000000,9.001159,3.206702,1.000000,1
/home/daniel/Projects/ppsEvolution/data/maps/custom_maps/Custom_7_Run_0_Map.csv,squared_error,1.7322124038628419e-06,0.5018,0.7204,0.000487,0.795777,0.127159,0.403204,0.000000,0.000000,0.687550,0.000000,0.833233,0.160358,0.114585,0.000000,0.854207,0.849850,0.219834,2.000000,125.085311,1.215635,26.929358,0.403204,1.000000,0.500000,7.187947,0.000000,270.815830,0.859801,25.156512,0.000000,170.987132,8.573571,2.978507,2.000000,2
/home/daniel/Projects/ppsEvolution/data/maps/custom_maps/Custom_7_Run_0_Map.csv,squared_error,7.991917606347677e-06,0.4961,0.7192,0.213288,1.000000,0.000000,0.530449,0.130704,0.229669,0.851639,0.000000,0.988087,0.132021,0.018283,0.225926,0.861758,0.650073,0.000000,2.000000,162.325372,1.330000,9.000000,0.530449,27.010163,2.681851,8.664753,0.000000,297.915240,0.843932,11.577885,0.225926,172.489868,6.675694,1.000000,2.000000,3
/home/daniel/Projects/ppsEvolution/data/maps/custom_maps/Custom_7_Run_0_Map.csv,squared_error,5.603304638953014e-07,0.4990,0.7201,0.049506,0.849205,0.103027,0.431990,0.063716,0.092923,0.858017,1.000000,1.000000,0.000000,0.000000,0.149203,0.456856,0.757190,0.000000,0.000000,133.663626,1.245555,23.526828,0.431990,13.679413,1.382768,8.722154,1.000000,300.000000,0.770000,9.000000,0.149203,91.914321,7.693308,1.000000,0.000000,4
/home/daniel/Projects/ppsEvolution/data/maps/custom_maps/Custom_7_Run_0_Map.csv,squared_error,4.5870126902227363e-07,0.4999,0.7190,0.524394,0.944410,0.193485,0.240212,0.587371,0.239308,0.924652,1.000000,0.793914,0.154962,0.000000,0.355168,1.000000,0.441695,0.172986,2.000000,216.768901,1.298870,36.281401,0.240212,117.886786,2.773428,9.321872,1.000000,263.935020,0.856779,9.000000,0.355168,200.000000,4.696103,2.556874,2.000000,5
/home/daniel/Projects/ppsEvolution/data/maps/custom_maps/Custom_7_Run_0_Map.csv,squared_error,3.385864474843533e-07,0.4992,0.7203,0.597250,0.904039,0.080497,0.393921,0.000000,0.625646,0.753699,2.000000,0.906808,0.000000,0.022794,0.330768,0.783015,0.931668,0.260322,2.000000,229.518803,1.276262,20.350104,0.393921,1.000000,6.443640,7.783291,2.000000,283.691415,0.770000,12.213949,0.330768,156.820009,9.350846,3.342895,2.000000,6
/home/daniel/Projects/ppsEvolution/data/maps/custom_maps/Custom_7_Run_0_Map.csv,squared_error,6.535942795522736e-07,0.4992,0.7192,0.000000,0.736743,0.053869,0.450892,0.383031,0.000000,0.828747,2.000000,0.893443,0.106225,0.057426,0.065761,0.838678,0.924454,0.077223,0.000000,125.000000,1.182576,16.595491,0.450892,77.223074,0.500000,8.458727,2.000000,281.352576,0.829486,17.097005,0.065761,167.896973,9.282314,1.695008,0.000000,7
/home/daniel/Projects/ppsEvolution/data/maps/custom_maps/Custom_7_Run_0_Map.csv,squared_error,6.138448709390423e-06,0.5008,0.7234,0.223283,1.000000,0.024083,0.453775,0.321323,0.530080,1.000000,0.000000,0.902879,0.028589,0.000000,0.203174,1.000000,0.876233,0.177628,0.000000,164.074466,1.330000,12.395657,0.453775,64.943256,5.535758,10.000000,0.000000,283.003830,0.786010,9.000000,0.203174,200.000000,8.824218,2.598651,0.000000,8
/home/daniel/Projects/ppsEvolution/data/maps/custom_maps/Custom_7_Run_0_Map.csv,squared_error,9.912338839583684e-08,0.4996,0.7199,0.222532,0.968723,0.010840,0.501162,0.056993,0.000000,0.808213,1.000000,0.926344,0.664801,0.004004,0.218488,0.899141,0.997963,0.139207,0.000000,163.943089,1.312485,10.528439,0.501162,12.341532,0.500000,8.273920,1.000000,287.110158,1.142289,9.564574,0.218488,179.929149,9.980649,2.252861,0.000000,9
map,fitness,fitness value,team0ratio,time,HP,Speed,Damage,Acc,ClipSize,RateOfFire,NrBullets,Range,HP,Speed,Damage,Acc,ClipSize,RateOfFire,NrBullets,Range,HP,Speed,Damage,Acc,ClipSize,RateOfFire,NrBullets,Range,HP,Speed,Damage,Acc,ClipSize,RateOfFire,NrBullets,Range,Run,target team0ratio: 0.5,target time: 0.72
/home/daniel/Projects/ppsEvolution/data/maps/custom_maps/Custom_8_Run_0_Map.csv,squared_error,1.0010973013237306e-06,0.5014,0.7197,0.357008,0.986712,0.174725,0.115649,0.011353,0.000000,0.231698,1.000000,0.697271,0.264858,0.000000,0.089188,0.982934,0.893666,0.000000,2.000000,187.476433,1.322559,33.636197,0.115649,3.259258,0.500000,3.085278,1.000000,247.022458,0.918320,9.000000,0.089188,196.603956,8.989826,1.000000,2.000000,0
/home/daniel/Projects/ppsEvolution/data/maps/custom_maps/Custom_8_Run_0_Map.csv,squared_error,1.3164860473409184e-06,0.5006,0.7185,0.394570,1.000000,0.000000,0.363350,0.051142,0.229256,0.922418,2.000000,1.000000,0.301802,0.048469,0.000000,0.922298,0.838562,0.354148,1.000000,194.049711,1.330000,9.000000,0.363350,11.177324,2.677933,9.301760,2.000000,300.000000,0.939009,15.834077,0.000000,184.537213,8.466337,4.187336,1.000000,1
/home/daniel/Projects/ppsEvolution/data/maps/custom_maps/Custom_8_Run_0_Map.csv,squared_error,1.399260221344872e-06,0.5015,0.7194,0.427260,0.951334,0.178803,0.010145,0.207322,0.236282,0.887437,1.000000,0.650114,0.126362,0.000000,0.095483,0.971528,0.922916,0.261623,1.000000,199.770526,1.302747,34.211185,0.010145,42.257135,2.744679,8.986936,1.000000,238.769872,0.840763,9.000000,0.095483,194.333974,9.267702,3.354611,1.000000,2
/home/daniel/Projects/ppsEvolution/data/maps/custom_maps/Custom_8_Run_0_Map.csv,squared_error,1.8047503027681435e-06,0.4991,0.7217,0.240814,0.720952,0.202809,0.130465,0.057920,0.251059,1.000000,0.000000,1.000000,0.000000,0.000000,0.000000,0.813900,0.870197,0.000000,2.000000,167.142487,1.173733,37.596032,0.130465,12.525984,2.885063,10.000000,0.000000,300.000000,0.770000,9.000000,0.000000,162.966136,8.766871,1.000000,2.000000,3
/home/daniel/Projects/ppsEvolution/data/maps/custom_maps/Custom_8_Run_0_Map.csv,squared_error,4.780144782586378e-07,0.5005,0.7209,0.448596,0.814682,0.060398,0.266929,0.455905,0.152332,0.733450,2.000000,0.910380,0.210768,0.080975,0.000000,0.928150,0.878134,0.210790,0.000000,203.504220,1.226222,17.516126,0.266929,91.725138,1.947153,7.601048,2.000000,284.316565,0.888030,20.417457,0.000000,185.701859,8.842277,2.897108,0.000000,4
/home/daniel/Projects/ppsEvolution/data/maps/custom_maps/Custom_8_Run_0_Map.csv,squared_error,2.1276583761504896e-06,0.5017,0.7188,0.536546,0.893530,0.067901,0.218280,0.330859,0.083478,0.712540,2.000000,0.810310,0.069787,0.027836,0.115093,0.961409,0.167905,0.233586,0.000000,218.895530,1.270377,18.573992,0.218280,66.840992,1.293037,7.412859,2.000000,266.804168,0.809080,12.924942,0.115093,192.320461,2.095101,3.102275,0.000000,5
/home/daniel/Projects/ppsEvolution/data/maps/custom_maps/Custom_8_Run_0_Map.csv,squared_error,7.573703005732885e-07,0.5003,0.7212,0.229567,0.979136,0.018494,0.274636,0.495116,0.000000,0.928775,2.000000,0.852385,0.000000,0.000000,0.006921,0.584796,0.901021,0.024049,2.000000,165.174150,1.318316,11.607634,0.274636,99.528111,0.500000,9.358974,2.000000,274.167383,0.770000,9.000000,0.006921,117.374333,9.059702,1.216437,2.000000,6
/home/daniel/Projects/ppsEvolution/data/maps/custom_maps/Custom_8_Run_0_Map.csv,squared_error,2.7737486941077524e-06,0.4979,0.7189,0.352225,0.571915,0.000000,0.357815,0.078241,0.152950,0.779197,0.000000,0.935113,0.000000,0.024150,0.034411,0.919733,0.904096,0.216875,2.000000,186.639367,1.090272,9.000000,0.357815,16.569899,1.953025,8.012774,0.000000,288.644810,0.770000,12.405166,0.034411,184.026871,9.088916,2.951876,2.000000,7
/home/daniel/Projects/ppsEvolution/data/maps/custom_maps/Custom_8_Run_0_Map.csv,squared_error,2.362953829245334e-06,0.5011,0.7181,0.173968,0.636790,0.000000,0.234740,0.000000,0.000000,0.605719,1.000000,0.570112,0.071759,0.000000,0.000000,0.801933,0.479271,0.135655,1.000000,155.444465,1.126603,9.000000,0.234740,1.000000,0.500000,6.451472,1.000000,224.769552,0.810185,9.000000,0.000000,160.584750,5.053076,2.220896,1.000000,8
/home/daniel/Projects/ppsEvolution/data/maps/custom_maps/Custom_8_Run_0_Map.csv,squared_error,1.611630808594116e-06,0.4983,0.7206,0.705583,1.000000,0.049701,0.000000,0.000000,0.320408,0.597818,0.000000,0.281503,0.000000,0.125876,0.140609,0.299813,0.917316,0.000000,2.000000,248.477014,1.330000,16.007893,0.000000,1.000000,3.543880,6.380360,0.000000,174.263043,0.770000,26.748451,0.140609,60.662750,9.214498,1.000000,2.000000,9
map,fitness,fitness value,team0ratio,time,HP,Speed,Damage,Acc,ClipSize,RateOfFire,NrBullets,Range,HP,Speed,Damage,Acc,ClipSize,RateOfFire,NrBullets,Range,HP,Speed,Damage,Acc,ClipSize,RateOfFire,NrBullets,Range,HP,Speed,Damage,Acc,ClipSize,RateOfFire,NrBullets,Range,Run,target team0ratio: 0.5,target time: 0.72
/home/daniel/Projects/ppsEvolution/data/maps/custom_maps/Custom_9_Run_0_Map.csv,squared_error,1.0498097888784818e-06,0.5003,0.7186,0.632829,0.776380,0.000000,0.178274,0.112181,0.363520,0.863932,0.000000,0.976327,0.000000,0.063185,0.000000,0.819606,0.628947,0.000000,1.000000,235.745003,1.204773,9.000000,0.178274,23.324060,3.953440,8.775391,0.000000,295.857282,0.770000,17.909017,0.000000,164.101507,6.474995,1.000000,1.000000,0
/home/daniel/Projects/ppsEvolution/data/maps/custom_maps/Custom_9_Run_0_Map.csv,squared_error,4.082171580944238e-06,0.5013,0.7175,0.781300,0.770270,0.000000,0.158857,0.186460,0.171287,0.299794,0.000000,0.794615,0.421222,0.113083,0.017505,1.000000,0.676427,0.079443,2.000000,261.727453,1.201351,9.000000,0.158857,38.105637,2.127228,3.698143,0.000000,264.057678,1.005884,24.944698,0.017505,200.000000,6.926060,1.714985,2.000000,1
/home/daniel/Projects/ppsEvolution/data/maps/custom_maps/Custom_9_Run_0_Map.csv,squared_error,2.808195268482862e-06,0.4983,0.7184,0.469462,1.000000,0.006874,0.146902,0.052291,0.425568,0.578488,1.000000,0.849847,0.093521,0.000000,0.000000,0.864158,0.715813,0.000000,2.000000,207.155812,1.330000,9.969263,0.146902,11.405957,4.542899,6.206389,1.000000,273.723156,0.822372,9.000000,0.000000,172.967451,7.300226,1.000000,2.000000,2
/home/daniel/Projects/ppsEvolution/data/maps/custom_maps/Custom_9_Run_0_Map.csv,squared_error,5.557261144613746e-06,0.5029,0.7184,0.417444,0.912613,0.054348,0.003758,0.000000,0.020249,0.747238,0.000000,0.650654,0.156018,0.000000,0.000000,0.853922,0.953662,0.000000,0.000000,198.052689,1.281064,16.663131,0.003758,1.000000,0.692369,7.725139,0.000000,238.864440,0.857370,9.000000,0.000000,170.930398,9.559787,1.000000,0.000000,3
/home/daniel/Projects/ppsEvolution/data/maps/custom_maps/Custom_9_Run_0_Map.csv,squared_error,2.0330285499598417e-07,0.4998,0.7206,0.659589,0.962956,0.102508,0.099604,0.026534,0.324353,0.456322,0.000000,0.971972,0.187795,0.000000,0.030561,0.912921,0.707699,0.454909,0.000000,240.428148,1.309255,23.453644,0.099604,6.280341,3.581352,5.106900,0.000000,295.095014,0.875165,9.000000,0.030561,182.671200,7.223144,5.094185,0.000000,4
/home/daniel/Projects/ppsEvolution/data/maps/custom_maps/Custom_9_Run_0_Map.csv,squared_error,2.8252844318473297e-06,0.5022,0.7208,0.585777,0.803162,0.000000,0.168958,0.401166,0.156355,0.364134,2.000000,0.847552,0.667415,0.038524,0.000000,1.000000,1.000000,0.000000,0.000000,227.510897,1.219770,9.000000,0.168958,80.832118,1.985377,4.277202,2.000000,273.321667,1.143752,14.431879,0.000000,200.000000,10.000000,1.000000,0.000000,5
/home/daniel/Projects/ppsEvolution/data/maps/custom_maps/Custom_9_Run_0_Map.csv,squared_error,7.735782081226863e-07,0.4989,0.7206,0.716732,0.841397,0.180557,0.000000,0.065532,0.151939,0.390275,2.000000,1.000000,0.006626,0.053409,0.000000,0.674812,0.978848,0.298771,1.000000,250.428049,1.241182,34.458534,0.000000,14.040907,1.943422,4.512473,2.000000,300.000000,0.773710,16.530688,0.000000,135.287547,9.799056,3.688935,1.000000,6
/home/daniel/Projects/ppsEvolution/data/maps/custom_maps/Custom_9_Run_0_Map.csv,squared_error,3.245615776351168e-06,0.4989,0.7177,0.967763,0.483467,0.000000,0.000000,0.000000,0.000000,0.976091,1.000000,0.603502,0.117673,0.156671,0.000000,1.000000,0.888248,0.675483,0.000000,294.358573,1.040742,9.000000,0.000000,1.000000,0.500000,9.784815,1.000000,230.612782,0.835897,31.090614,0.000000,200.000000,8.938355,7.079350,0.000000,7
/home/daniel/Projects/ppsEvolution/data/maps/custom_maps/Custom_9_Run_0_Map.csv,squared_error,2.0516838239076418e-07,0.5005,0.7204,0.553317,0.936577,0.055304,0.139007,0.000000,0.457863,0.687840,2.000000,1.000000,0.383061,0.000000,0.000000,0.901831,1.000000,0.153859,0.000000,221.830407,1.294483,16.797859,0.139007,1.000000,4.849694,7.190560,2.000000,300.000000,0.984514,9.000000,0.000000,180.464446,10.000000,2.384728,0.000000,8
/home/daniel/Projects/ppsEvolution/data/maps/custom_maps/Custom_9_Run_0_Map.csv,squared_error,8.815204428287618e-07,0.5009,0.7190,0.555977,1.000000,0.094955,0.108570,0.212707,0.174047,0.419471,2.000000,1.000000,0.009592,0.000000,0.030128,0.626060,0.835061,0.000000,0.000000,222.295900,1.330000,22.388649,0.108570,43.328773,2.153446,4.775235,2.000000,300.000000,0.775372,9.000000,0.030128,125.586038,8.433083,1.000000,0.000000,9
map,fitness,fitness value,team0ratio,time,HP,Speed,Damage,Acc,ClipSize,RateOfFire,NrBullets,Range,HP,Speed,Damage,Acc,ClipSize,RateOfFire,NrBullets,Range,HP,Speed,Damage,Acc,ClipSize,RateOfFire,NrBullets,Range,HP,Speed,Damage,Acc,ClipSize,RateOfFire,NrBullets,Range,Run,target team0ratio: 0.5,target time: 0.72
/home/daniel/Projects/ppsEvolution/data/maps/custom_maps/Custom_10_Run_0_Map.csv,squared_error,5.127419539104544e-06,0.4974,0.7219,0.000000,0.561090,0.013072,0.415995,0.332801,0.273368,1.000000,0.000000,0.850690,0.606848,0.030398,0.000000,1.000000,0.999141,0.191888,1.000000,125.000000,1.084211,10.843167,0.415995,67.227358,3.096999,10.000000,0.000000,273.870722,1.109835,13.286136,0.000000,200.000000,9.991837,2.726996,1.000000,0
/home/daniel/Projects/ppsEvolution/data/maps/custom_maps/Custom_10_Run_0_Map.csv,squared_error,2.9672031001830917e-08,0.5001,0.7198,0.052906,0.706378,0.198547,0.302602,0.000000,0.221623,0.680096,1.000000,1.000000,0.000000,0.000000,0.068727,0.909788,1.000000,0.082712,1.000000,134.258605,1.165572,36.995116,0.302602,1.000000,2.605419,7.120863,1.000000,300.000000,0.770000,9.000000,0.068727,182.047813,10.000000,1.744412,1.000000,1
/home/daniel/Projects/ppsEvolution/data/maps/custom_maps/Custom_10_Run_0_Map.csv,squared_error,9.974710556265362e-08,0.5001,0.7204,0.767320,0.877198,0.000000,0.444539,0.314684,0.043725,1.000000,2.000000,1.000000,0.375347,0.000000,0.400810,1.000000,0.979279,0.111145,0.000000,259.281047,1.261231,9.000000,0.444539,63.622085,0.915392,10.000000,2.000000,300.000000,0.980194,9.000000,0.400810,200.000000,9.803155,2.000302,0.000000,2
/home/daniel/Projects/ppsEvolution/data/maps/custom_maps/Custom_10_Run_0_Map.csv,squared_error,3.5405485907177157e-06,0.4982,0.7220,0.280867,1.000000,0.267798,0.154888,0.280704,0.126783,0.546883,0.000000,0.814781,0.040757,0.087488,0.058170,1.000000,1.000000,0.289736,2.000000,174.151729,1.330000,46.759560,0.154888,56.860033,1.704438,5.921948,0.000000,267.586744,0.792824,21.335771,0.058170,200.000000,10.000000,3.607620,2.000000,3
/home/daniel/Projects/ppsEvolution/data/maps/custom_maps/Custom_10_Run_0_Map.csv,squared_error,5.693453351625706e-07,0.4992,0.7207,0.139319,0.699393,0.200811,0.248563,0.121157,0.170460,0.462854,1.000000,0.849346,0.000000,0.024896,0.080377,0.754381,0.860853,0.150721,1.000000,149.380759,1.161660,37.314412,0.248563,25.110216,2.119368,5.165688,1.000000,273.635521,0.770000,12.510344,0.080377,151.121915,8.678101,2.356492,1.000000,4
/home/daniel/Projects/ppsEvolution/data/maps/custom_maps/Custom_10_Run_0_Map.csv,squared_error,4.937399552514439e-06,0.4969,0.7207,0.235936,0.934119,0.000000,0.457603,0.163397,0.000000,0.507588,1.000000,0.873600,0.026414,0.029319,0.146416,0.952608,0.544557,0.137744,2.000000,166.288825,1.293107,9.000000,0.457603,33.516056,0.500000,5.568293,1.000000,277.880021,0.784792,13.133910,0.146416,190.568996,5.673290,2.239692,2.000000,5
/home/daniel/Projects/ppsEvolution/data/maps/custom_maps/Custom_10_Run_0_Map.csv,squared_error,1.5102642619241614e-07,0.5002,0.7205,0.000000,1.000000,0.115400,0.363919,0.000000,0.126854,0.781323,0.000000,0.915002,0.115981,0.000000,0.000000,0.961695,0.474733,0.521798,0.000000,125.000000,1.330000,25.271469,0.363919,1.000000,1.705116,8.031909,0.000000,285.125391,0.834949,9.000000,0.000000,192.377275,5.009963,5.696178,0.000000,6
/home/daniel/Projects/ppsEvolution/data/maps/custom_maps/Custom_10_Run_0_Map.csv,squared_error,2.3385254783362777e-07,0.5006,0.7197,0.059972,0.864237,0.028339,0.268249,0.192266,0.055482,0.767717,2.000000,0.483044,0.655331,0.000000,0.073609,0.766406,0.791819,0.215644,2.000000,135.495016,1.253973,12.995830,0.268249,39.261027,1.027081,7.909456,2.000000,209.532764,1.136985,9.000000,0.073609,153.514786,8.022284,2.940798,2.000000,7
/home/daniel/Projects/ppsEvolution/data/maps/custom_maps/Custom_10_Run_0_Map.csv,squared_error,5.139707111652318e-07,0.5004,0.7191,0.233756,0.931941,0.030918,0.445132,0.084568,0.000000,0.970444,1.000000,1.000000,0.069111,0.058969,0.101870,0.986108,0.954368,0.132711,1.000000,165.907326,1.291887,13.359483,0.445132,17.829067,0.500000,9.733993,1.000000,300.000000,0.808702,17.314561,0.101870,197.235421,9.566495,2.194396,1.000000,8
/home/daniel/Projects/ppsEvolution/data/maps/custom_maps/Custom_10_Run_0_Map.csv,squared_error,5.957889450776768e-07,0.4992,0.7207,0.117276,1.000000,0.000000,0.276701,0.085029,0.109253,0.994101,2.000000,0.494281,0.393291,0.091796,0.000000,0.871211,0.777802,0.186785,2.000000,145.523308,1.330000,9.000000,0.276701,17.920848,1.537905,9.946909,2.000000,211.499243,0.990243,21.943198,0.000000,174.371053,7.889116,2.681068,2.000000,9
