map,fitness,fitness value,team0ratio,time,HP,Speed,Damage,Acc,ClipSize,RateOfFire,NrBullets,Range,HP,Speed,Damage,Acc,ClipSize,RateOfFire,NrBullets,Range,HP,Speed,Damage,Acc,ClipSize,RateOfFire,NrBullets,Range,HP,Speed,Damage,Acc,ClipSize,RateOfFire,NrBullets,Range,Run,target team0ratio: 0.5,target time: 0.72
/home/daniel/Projects/ppsEvolution/data/maps/custom_maps/Custom_1_Run_0_Map.csv,squared_error,2.4381493888910787e-06,0.5001,0.7222,0.858905,0.871980,0.000000,0.000000,0.403428,0.000000,0.476496,2.000000,1.000000,0.000000,0.020799,0.000000,0.515535,0.845839,0.000000,0.000000,275.308424,1.258309,9.000000,0.000000,81.282244,0.500000,5.288464,2.000000,300.000000,0.770000,11.932605,0.000000,103.591447,8.535470,1.000000,0.000000,0
/home/daniel/Projects/ppsEvolution/data/maps/custom_maps/Custom_1_Run_0_Map.csv,squared_error,7.098594335968757e-06,0.5038,0.7201,1.000000,0.816275,0.000000,0.009990,0.070042,0.214165,0.618602,1.000000,1.000000,0.066476,0.000000,0.042776,0.936189,0.815959,0.480391,1.000000,300.000000,1.227114,9.000000,0.009990,14.938370,2.534566,6.567416,1.000000,300.000000,0.807227,9.000000,0.042776,187.301613,8.251613,5.323522,1.000000,1
/home/daniel/Projects/ppsEvolution/data/maps/custom_maps/Custom_1_Run_0_Map.csv,squared_error,1.0751983307961872e-06,0.4989,0.7191,0.798130,0.878070,0.000000,0.000000,0.562784,0.198298,0.625868,2.000000,0.993382,0.000000,0.003948,0.000000,0.945734,0.908037,0.000000,1.000000,264.672726,1.261719,9.000000,0.000000,112.993964,2.383831,6.632808,2.000000,298.841795,0.770000,9.556665,0.000000,189.201158,9.126356,1.000000,1.000000,2
/home/daniel/Projects/ppsEvolution/data/maps/custom_maps/Custom_1_Run_0_Map.csv,squared_error,1.0236764201295423e-06,0.5002,0.7214,0.885093,0.651919,0.000000,0.000000,0.607867,0.070379,0.529720,1.000000,0.962793,0.357745,0.000000,0.000000,0.895986,1.000000,0.297932,1.000000,279.891292,1.135074,9.000000,0.000000,121.965467,1.168601,5.767479,1.000000,293.488770,0.970337,9.000000,0.000000,179.301186,10.000000,3.681384,1.000000,3
/home/daniel/Projects/ppsEvolution/data/maps/custom_maps/Custom_1_Run_0_Map.csv,squared_error,2.085037754309862e-06,0.4982,0.7209,0.862820,0.786742,0.020214,0.000000,0.401573,0.227299,0.494479,0.000000,1.000000,0.181953,0.000000,0.000000,1.000000,0.756458,0.275544,2.000000,275.993527,1.210576,11.850238,0.000000,80.913070,2.659339,5.450313,0.000000,300.000000,0.871894,9.000000,0.000000,200.000000,7.686354,3.479893,2.000000,4
/home/daniel/Projects/ppsEvolution/data/maps/custom_maps/Custom_1_Run_0_Map.csv,squared_error,9.746615962853618e-07,0.4990,0.7191,0.840131,0.720939,0.000000,0.000000,0.715730,0.126646,0.546339,2.000000,0.984996,0.000000,0.000000,0.024294,0.950604,1.000000,0.000000,2.000000,272.023009,1.173726,9.000000,0.000000,143.430220,1.703140,5.917050,2.000000,297.374257,0.770000,9.000000,0.024294,190.170254,10.000000,1.000000,2.000000,5
/home/daniel/Projects/ppsEvolution/data/maps/custom_maps/Custom_1_Run_0_Map.csv,squared_error,1.8893630985131462e-07,0.5003,0.7195,0.954803,0.987395,0.000000,0.013814,0.087759,0.324631,0.619071,0.000000,1.000000,0.325445,0.040510,0.005468,0.735205,1.000000,0.224717,1.000000,292.090581,1.322941,9.000000,0.013814,18.464111,3.583992,6.571642,0.000000,300.000000,0.952249,14.711895,0.005468,147.305822,10.000000,3.022450,1.000000,6
/home/daniel/Projects/ppsEvolution/data/maps/custom_maps/Custom_1_Run_0_Map.csv,squared_error,2.6516172748898178e-06,0.4990,0.7179,0.928592,0.888648,0.000000,0.000000,0.339019,0.000000,0.705638,0.000000,1.000000,0.000000,0.065947,0.000000,0.644962,1.000000,0.000000,2.000000,287.503564,1.267643,9.000000,0.000000,68.464706,0.500000,7.350746,0.000000,300.000000,0.770000,18.298586,0.000000,129.347425,10.000000,1.000000,2.000000,7
/home/daniel/Projects/ppsEvolution/data/maps/custom_maps/Custom_1_Run_0_Map.csv,squared_error,9.485688832285011e-07,0.5012,0.7194,0.802727,0.839926,0.011044,0.012705,0.325635,0.000000,0.616148,0.000000,1.000000,0.271983,0.000000,0.000000,1.000000,1.000000,0.103491,0.000000,265.477155,1.240358,10.557240,0.012705,65.801372,0.500000,6.545332,0.000000,300.000000,0.922310,9.000000,0.000000,200.000000,10.000000,1.931423,0.000000,8
/home/daniel/Projects/ppsEvolution/data/maps/custom_maps/Custom_1_Run_0_Map.csv,squared_error,2.0403777437223665e-06,0.4981,0.7192,0.845133,0.741504,0.000000,0.004538,0.270136,0.038700,0.714155,0.000000,1.000000,0.113554,0.000000,0.000000,0.680084,1.000000,0.256270,1.000000,272.898328,1.185242,9.000000,0.004538,54.757028,0.867646,7.427396,0.000000,300.000000,0.833590,9.000000,0.000000,136.336753,10.000000,3.306433,1.000000,9
map,fitness,fitness value,team0ratio,time,HP,Speed,Damage,Acc,ClipSize,RateOfFire,NrBullets,Range,HP,Speed,Damage,Acc,ClipSize,RateOfFire,NrBullets,Range,HP,Speed,Damage,Acc,ClipSize,RateOfFire,NrBullets,Range,HP,Speed,Damage,Acc,ClipSize,RateOfFire,NrBullets,Range,Run,target team0ratio: 0.5,target time: 0.72
/home/daniel/Projects/ppsEvolution/data/maps/custom_maps/Custom_2_Run_0_Map.csv,squared_error,7.510234007497483e-07,0.4992,0.7191,0.690091,1.000000,0.016496,0.560680,0.260924,0.165615,0.415677,1.000000,0.969173,0.286733,0.000000,0.463087,1.000000,0.868568,0.022974,1.000000,245.765850,1.330000,11.325894,0.560680,52.923927,2.073342,4.741094,1.000000,294.605347,0.930571,9.000000,0.463087,200.000000,8.751392,1.206766,1.000000,0
/home/daniel/Projects/ppsEvolution/data/maps/custom_maps/Custom_2_Run_0_Map.csv,squared_error,6.9760713241437065e-06,0.4983,0.7233,0.085820,0.810009,0.250216,0.306620,0.279459,0.092970,1.000000,0.000000,1.000000,0.057756,0.149351,0.000000,0.718098,0.685072,0.000000,0.000000,140.018471,1.223605,44.280402,0.306620,56.612247,1.383214,10.000000,0.000000,300.000000,0.802343,30.058532,0.000000,143.901470,7.008187,1.000000,0.000000,1
/home/daniel/Projects/ppsEvolution/data/maps/custom_maps/Custom_2_Run_0_Map.csv,squared_error,9.098913322531742e-07,0.5002,0.7187,0.000000,0.816471,0.428338,0.039837,0.000000,0.004650,0.981596,1.000000,0.753432,0.000000,0.000000,0.142997,0.947411,0.747145,0.212713,2.000000,125.000000,1.227224,69.395651,0.039837,1.000000,0.544179,9.834366,1.000000,256.850632,0.770000,9.000000,0.142997,189.534808,7.597874,2.914413,2.000000,2
/home/daniel/Projects/ppsEvolution/data/maps/custom_maps/Custom_2_Run_0_Map.csv,squared_error,1.7601024315013106e-06,0.5019,0.7201,0.224762,0.843255,0.061874,0.496488,0.000000,0.071554,0.880811,0.000000,0.926790,0.629059,0.000000,0.247101,1.000000,1.000000,0.070953,1.000000,164.333288,1.242223,17.724191,0.496488,1.000000,1.179761,8.927300,0.000000,287.188193,1.122273,9.000000,0.247101,200.000000,10.000000,1.638581,1.000000,3
/home/daniel/Projects/ppsEvolution/data/maps/custom_maps/Custom_2_Run_0_Map.csv,squared_error,1.2652757313531589e-06,0.5005,0.7185,0.295933,1.000000,0.000000,0.526952,0.048102,0.054242,0.743902,0.000000,0.828310,0.014330,0.000000,0.249376,0.921905,0.893137,0.501869,0.000000,176.788341,1.330000,9.000000,0.526952,10.572200,1.015299,7.695118,0.000000,269.954278,0.778025,9.000000,0.249376,184.459116,8.984800,5.516823,0.000000,4
/home/daniel/Projects/ppsEvolution/data/maps/custom_maps/Custom_2_Run_0_Map.csv,squared_error,5.295270195944742e-06,0.4989,0.7170,0.100517,1.000000,0.143595,0.437228,0.000000,0.011149,1.000000,2.000000,1.000000,0.655416,0.074521,0.109526,0.722228,0.671343,0.058311,2.000000,142.590519,1.330000,29.246830,0.437228,1.000000,0.605911,10.000000,2.000000,300.000000,1.137033,19.507396,0.109526,144.723390,6.877762,1.524797,2.000000,5
/home/daniel/Projects/ppsEvolution/data/maps/custom_maps/Custom_2_Run_0_Map.csv,squared_error,8.629852754011952e-07,0.5003,0.7187,0.108165,0.753999,0.272643,0.301229,0.000000,0.211176,0.971898,1.000000,1.000000,0.000000,0.149748,0.000000,0.860044,0.759779,0.193633,0.000000,143.928937,1.192239,47.442706,0.301229,1.000000,2.506173,9.747083,1.000000,300.000000,0.770000,30.114454,0.000000,172.148793,7.717905,2.742697,0.000000,6
/home/daniel/Projects/ppsEvolution/data/maps/custom_maps/Custom_2_Run_0_Map.csv,squared_error,5.922397299514292e-07,0.5010,0.7205,0.000000,0.689011,0.000000,0.591330,0.000000,0.170151,0.593657,1.000000,0.970908,0.104568,0.000000,0.156013,0.926142,0.964617,0.113481,2.000000,125.000000,1.155846,9.000000,0.591330,1.000000,2.116433,6.342909,1.000000,294.908905,0.828558,9.000000,0.156013,185.302327,9.663858,2.021330,2.000000,7
/home/daniel/Projects/ppsEvolution/data/maps/custom_maps/Custom_2_Run_0_Map.csv,squared_error,9.859879790504168e-07,0.4986,0.7204,0.480043,1.000000,0.000000,0.517392,0.130311,0.307528,0.875994,0.000000,0.908268,0.091820,0.072595,0.278380,0.858725,0.915164,0.152838,1.000000,209.007531,1.330000,9.000000,0.517392,26.931939,3.421520,8.883942,0.000000,283.946979,0.821419,19.235920,0.278380,171.886365,9.194057,2.375543,1.000000,8
/home/daniel/Projects/ppsEvolution/data/maps/custom_maps/Custom_2_Run_0_Map.csv,squared_error,1.0814660879539137e-06,0.4990,0.7190,0.118985,1.000000,0.000000,0.279474,0.031597,0.532409,1.000000,2.000000,0.277345,0.070882,0.000000,0.223567,1.000000,0.815907,0.053131,1.000000,145.822379,1.330000,9.000000,0.279474,7.287801,5.557890,10.000000,2.000000,173.535290,0.809694,9.000000,0.223567,200.000000,8.251113,1.478178,1.000000,9
map,fitness,fitness value,team0ratio,time,HP,Speed,Damage,Acc,ClipSize,RateOfFire,NrBullets,Range,HP,Speed,Damage,Acc,ClipSize,RateOfFire,NrBullets,Range,HP,Speed,Damage,Acc,ClipSize,RateOfFire,NrBullets,Range,HP,Speed,Damage,Acc,ClipSize,RateOfFire,NrBullets,Range,Run,target team0ratio: 0.5,target time: 0.72
/home/daniel/Projects/ppsEvolution/data/maps/custom_maps/Custom_3_Run_0_Map.csv,squared_error,2.195324091261646e-06,0.4990,0.7218,0.247498,0.889771,0.200200,0.477824,0.089243,0.000000,0.700488,1.000000,1.000000,0.034610,0.000000,0.373559,0.512730,1.000000,0.146167,2.000000,168.312089,1.268272,37.228195,0.477824,18.759413,0.500000,7.304394,1.000000,300.000000,0.789382,9.000000,0.373559,103.033329,10.000000,2.315500,2.000000,0
/home/daniel/Projects/ppsEvolution/data/maps/custom_maps/Custom_3_Run_0_Map.csv,squared_error,1.7972856044508155e-06,0.4986,0.7187,0.575409,1.000000,0.058292,0.528052,0.000000,0.153816,0.805728,1.000000,0.771369,0.000000,0.000000,0.537670,1.000000,0.723720,0.098372,1.000000,225.696611,1.330000,17.219142,0.528052,1.000000,1.961253,8.251554,1.000000,259.989591,0.770000,9.000000,0.537670,200.000000,7.375337,1.885344,1.000000,1
/home/daniel/Projects/ppsEvolution/data/maps/custom_maps/Custom_3_Run_0_Map.csv,squared_error,3.1090745990240303e-07,0.5007,0.7197,0.033867,0.928242,0.268515,0.343979,0.048241,0.622315,1.000000,1.000000,0.832285,0.346573,0.000000,0.279760,0.879415,0.891212,0.103929,2.000000,130.926682,1.289815,46.860582,0.343979,10.599931,6.411992,10.000000,1.000000,270.649878,0.964081,9.000000,0.279760,176.003519,8.966512,1.935363,2.000000,2
/home/daniel/Projects/ppsEvolution/data/maps/custom_maps/Custom_3_Run_0_Map.csv,squared_error,3.0589533752418705e-06,0.4981,0.7184,0.202794,0.990289,0.184343,0.479452,0.154573,0.000000,0.884195,1.000000,0.953358,0.096065,0.000000,0.388249,0.843569,1.000000,0.058820,0.000000,160.489024,1.324562,34.992364,0.479452,31.760073,0.500000,8.957754,1.000000,291.837624,0.823797,9.000000,0.388249,168.870265,10.000000,1.529383,0.000000,3
/home/daniel/Projects/ppsEvolution/data/maps/custom_maps/Custom_3_Run_0_Map.csv,squared_error,6.934274341404341e-07,0.5002,0.7212,0.205447,1.000000,0.201235,0.370560,0.094544,0.373665,1.000000,0.000000,0.759299,0.000000,0.054071,0.313233,0.634438,0.877712,0.108421,1.000000,160.953191,1.330000,37.374173,0.370560,19.814245,4.049818,10.000000,0.000000,257.877288,0.770000,16.624015,0.313233,127.253110,8.838264,1.975793,1.000000,4
/home/daniel/Projects/ppsEvolution/data/maps/custom_maps/Custom_3_Run_0_Map.csv,squared_error,4.901124366779128e-06,0.4977,0.7178,0.628079,1.000000,0.203011,0.476429,0.130497,0.086415,0.616698,2.000000,0.968616,0.220776,0.000000,0.526627,0.727964,1.000000,0.197415,2.000000,234.913807,1.330000,37.624573,0.476429,26.968980,1.320947,6.550280,2.000000,294.507785,0.893634,9.000000,0.526627,145.864757,10.000000,2.776738,2.000000,5
/home/daniel/Projects/ppsEvolution/data/maps/custom_maps/Custom_3_Run_0_Map.csv,squared_error,2.0098414863240953e-06,0.4999,0.7180,0.091098,0.816492,0.125118,0.548882,0.011177,0.000000,1.000000,0.000000,1.000000,0.333821,0.183337,0.152911,0.605915,0.430572,0.130999,0.000000,140.942073,1.227235,26.641701,0.548882,3.224210,0.500000,10.000000,0.000000,300.000000,0.956940,34.850580,0.152911,121.577002,4.590434,2.178995,0.000000,6
/home/daniel/Projects/ppsEvolution/data/maps/custom_maps/Custom_3_Run_0_Map.csv,squared_error,6.828894270512091e-07,0.4994,0.7190,0.109490,0.759965,0.000000,0.628390,0.148235,0.331098,0.953472,2.000000,1.000000,0.000000,0.017661,0.333385,0.678164,0.867740,0.000000,2.000000,144.160788,1.195580,9.000000,0.628390,30.498861,3.645428,9.581247,2.000000,300.000000,0.770000,11.490156,0.333385,135.954555,8.743533,1.000000,2.000000,7
/home/daniel/Projects/ppsEvolution/data/maps/custom_maps/Custom_3_Run_0_Map.csv,squared_error,8.632619085176175e-07,0.5009,0.7190,0.000000,0.962618,0.028712,0.597373,0.052225,0.342095,0.768353,0.000000,0.851787,0.250278,0.102729,0.219101,0.567219,0.531980,0.000000,1.000000,125.000000,1.309066,13.048383,0.597373,11.392823,3.749906,7.915180,0.000000,274.062773,0.910156,23.484841,0.219101,113.876552,5.553812,1.000000,1.000000,8
/home/daniel/Projects/ppsEvolution/data/maps/custom_maps/Custom_3_Run_0_Map.csv,squared_error,2.64454426287119e-07,0.4994,0.7196,0.211166,1.000000,0.000000,0.583992,0.193352,0.306744,0.846364,2.000000,0.819793,0.441043,0.027268,0.311193,1.000000,0.911030,0.520853,0.000000,161.954018,1.330000,9.000000,0.583992,39.476958,3.414068,8.617273,2.000000,268.463741,1.016984,12.844741,0.311193,200.000000,9.154782,5.687681,0.000000,9
map,fitness,fitness value,team0ratio,time,HP,Speed,Damage,Acc,ClipSize,RateOfFire,NrBullets,Range,HP,Speed,Damage,Acc,ClipSize,RateOfFire,NrBullets,Range,HP,Speed,Damage,Acc,ClipSize,RateOfFire,NrBullets,Range,HP,Speed,Damage,Acc,ClipSize,RateOfFire,NrBullets,Range,Run,target team0ratio: 0.5,target time: 0.72
/home/daniel/Projects/ppsEvolution/data/maps/custom_maps/Custom_4_Run_0_Map.csv,squared_error,3.0251953491784824e-06,0.4976,0.7198,0.923766,1.000000,0.000000,0.201302,0.111249,0.000000,0.671885,2.000000,0.789133,0.387224,0.028508,0.164601,0.991208,0.838771,0.440241,2.000000,286.659039,1.330000,9.000000,0.201302,23.138583,0.500000,7.046965,2.000000,263.098284,0.986845,13.019636,0.164601,198.250314,8.468326,4.962171,2.000000,0
/home/daniel/Projects/ppsEvolution/data/maps/custom_maps/Custom_4_Run_0_Map.csv,squared_error,2.147271975997053e-06,0.4993,0.7220,0.499322,0.856019,0.000000,0.291138,0.500857,0.000000,0.835700,2.000000,1.000000,0.000000,0.000000,0.000000,1.000000,0.852860,0.216992,0.000000,212.381302,1.249370,9.000000,0.291138,100.670592,0.500000,8.521303,2.000000,300.000000,0.770000,9.000000,0.000000,200.000000,8.602175,2.952931,0.000000,1
/home/daniel/Projects/ppsEvolution/data/maps/custom_maps/Custom_4_Run_0_Map.csv,squared_error,9.863544859996193e-07,0.5011,0.7192,0.460061,1.000000,0.123709,0.071501,0.000000,0.139432,1.000000,1.000000,0.798189,0.391998,0.000000,0.000000,0.993591,1.000000,0.117545,0.000000,205.510671,1.330000,26.443037,0.071501,1.000000,1.824601,10.000000,1.000000,264.683016,0.989519,9.000000,0.000000,198.724550,10.000000,2.057908,0.000000,2
/home/daniel/Projects/ppsEvolution/data/maps/custom_maps/Custom_4_Run_0_Map.csv,squared_error,6.024225926265027e-06,0.5020,0.7172,0.693555,0.575224,0.190477,0.000000,0.748536,0.600291,1.000000,1.000000,0.887536,0.125743,0.055328,0.000000,0.561774,0.878398,0.251335,0.000000,246.372201,1.092126,35.857271,0.000000,149.958573,6.202760,10.000000,1.000000,280.318727,0.840416,16.801210,0.000000,112.793106,8.844780,3.262016,0.000000,3
/home/daniel/Projects/ppsEvolution/data/maps/custom_maps/Custom_4_Run_0_Map.csv,squared_error,4.368998260684909e-06,0.4984,0.7175,0.567847,0.885121,0.104812,0.000000,0.010733,0.107015,1.000000,1.000000,0.617364,0.095161,0.029083,0.000000,0.891516,0.688846,0.412966,2.000000,224.373188,1.265668,23.778510,0.000000,3.135836,1.516640,10.000000,1.000000,233.038756,0.823290,13.100667,0.000000,178.411603,7.044035,4.716698,2.000000,4
/home/daniel/Projects/ppsEvolution/data/maps/custom_maps/Custom_4_Run_0_Map.csv,squared_error,7.787089437342314e-08,0.4999,0.7196,0.509887,0.800953,0.238181,0.001357,0.304457,0.562151,0.845972,1.000000,0.951923,0.152530,0.000000,0.000000,1.000000,1.000000,0.018234,2.000000,214.230193,1.218533,42.583528,0.001357,61.586985,5.840434,8.613751,1.000000,291.586453,0.855417,9.000000,0.000000,200.000000,10.000000,1.164103,2.000000,5
/home/daniel/Projects/ppsEvolution/data/maps/custom_maps/Custom_4_Run_0_Map.csv,squared_error,6.218513219079057e-06,0.4972,0.7179,0.431982,0.940141,0.023161,0.248404,0.227857,0.016756,0.977924,1.000000,0.955153,0.264573,0.000000,0.000000,0.693088,0.925347,0.010331,1.000000,200.596890,1.296479,12.265715,0.248404,46.343531,0.659186,9.801315,1.000000,292.151747,0.918161,9.000000,0.000000,138.924459,9.290800,1.092976,1.000000,6
/home/daniel/Projects/ppsEvolution/data/maps/custom_maps/Custom_4_Run_0_Map.csv,squared_error,4.0199446061779507e-07,0.4998,0.7209,0.461437,0.859242,0.000000,0.253059,0.000000,0.526334,0.779329,1.000000,0.896695,0.231630,0.000000,0.004092,0.386424,0.927685,0.000000,0.000000,205.751408,1.251176,9.000000,0.253059,1.000000,5.500171,8.013960,1.000000,281.921698,0.899713,9.000000,0.004092,77.898366,9.313012,1.000000,0.000000,7
/home/daniel/Projects/ppsEvolution/data/maps/custom_maps/Custom_4_Run_0_Map.csv,squared_error,9.916717652032317e-07,0.4988,0.7193,0.556892,0.585972,0.000000,0.245471,0.184687,0.354655,0.986246,1.000000,0.892583,0.731368,0.000000,0.016587,1.000000,1.000000,0.234589,2.000000,222.456129,1.098144,9.000000,0.245471,37.752801,3.869225,9.876218,1.000000,281.201980,1.179566,9.000000,0.016587,200.000000,10.000000,3.111300,2.000000,8
/home/daniel/Projects/ppsEvolution/data/maps/custom_maps/Custom_4_Run_0_Map.csv,squared_error,6.219545621462568e-07,0.4990,0.7205,0.605876,0.862104,0.000000,0.228381,0.000000,0.011189,0.871160,1.000000,0.837348,0.073411,0.052756,0.023230,0.971794,0.879092,0.113611,0.000000,231.028355,1.252778,9.000000,0.228381,1.000000,0.606298,8.840437,1.000000,271.535874,0.811110,16.438529,0.023230,194.387089,8.851374,2.022503,0.000000,9
map,fitness,fitness value,team0ratio,time,HP,Speed,Damage,Acc,ClipSize,RateOfFire,NrBullets,Range,HP,Speed,Damage,Acc,ClipSize,RateOfFire,NrBullets,Range,HP,Speed,Damage,Acc,ClipSize,RateOfFire,NrBullets,Range,HP,Speed,Damage,Acc,ClipSize,RateOfFire,NrBullets,Range,Run,target team0ratio: 0.5,target time: 0.72
/home/daniel/Projects/ppsEvolution/data/maps/custom_maps/Custom_5_Run_0_Map.csv,squared_error,2.5779800031671874e-07,0.4993,0.7203,0.073293,1.000000,0.000000,0.361496,0.000000,0.018991,0.629983,0.000000,0.681338,0.174275,0.000000,0.073951,0.872289,0.750448,0.000000,1.000000,137.826321,1.330000,9.000000,0.361496,1.000000,0.680412,6.669848,0.000000,244.234232,0.867594,9.000000,0.073951,174.585486,7.629260,1.000000,1.000000,0
/home/daniel/Projects/ppsEvolution/data/maps/custom_maps/Custom_5_Run_0_Map.csv,squared_error,6.302344165956766e-06,0.5024,0.7226,0.319209,0.922783,0.000000,0.411462,0.000000,0.355290,0.711113,2.000000,0.928308,0.000846,0.000000,0.107670,0.796832,1.000000,0.314288,2.000000,180.861585,1.286759,9.000000,0.411462,1.000000,3.875253,7.400019,2.000000,287.453929,0.770474,9.000000,0.107670,159.569638,10.000000,3.828594,2.000000,1
/home/daniel/Projects/ppsEvolution/data/maps/custom_maps/Custom_5_Run_0_Map.csv,squared_error,4.045802030088898e-06,0.5028,0.7197,0.296167,0.457588,0.185458,0.235074,0.232844,0.306923,1.000000,0.000000,0.993073,0.000000,0.066481,0.052049,0.983849,0.814078,0.032507,1.000000,176.829282,1.026249,35.149600,0.235074,47.335997,3.415770,10.000000,0.000000,298.787744,0.770000,18.373862,0.052049,196.785949,8.233738,1.292561,1.000000,2
/home/daniel/Projects/ppsEvolution/data/maps/custom_maps/Custom_5_Run_0_Map.csv,squared_error,4.243631528436323e-06,0.5013,0.7226,0.435873,0.919133,0.000000,0.454270,0.282957,0.000000,0.677110,0.000000,1.000000,0.266754,0.000000,0.216637,0.927890,0.944511,0.086366,0.000000,201.277790,1.284715,9.000000,0.454270,57.308522,0.500000,7.093991,0.000000,300.000000,0.919382,9.000000,0.216637,185.650049,9.472854,1.777295,0.000000,3
/home/daniel/Projects/ppsEvolution/data/maps/custom_maps/Custom_5_Run_0_Map.csv,squared_error,3.22069944314783e-07,0.4998,0.7208,0.100371,0.915635,0.233623,0.149915,0.030094,0.000000,0.537906,0.000000,0.787192,0.286250,0.000000,0.045921,0.914171,0.651686,0.059740,2.000000,142.564882,1.282755,41.940800,0.149915,6.988725,0.500000,5.841154,0.000000,262.758632,0.930300,9.000000,0.045921,182.920021,6.691020,1.537660,2.000000,4
/home/daniel/Projects/ppsEvolution/data/maps/custom_maps/Custom_5_Run_0_Map.csv,squared_error,1.9834814290227903e-06,0.4984,0.7211,0.468582,0.939696,0.000000,0.373985,0.335440,0.000000,0.782516,2.000000,0.855873,0.363546,0.192078,0.000000,0.765263,0.716522,0.189739,1.000000,207.001885,1.296230,9.000000,0.373985,67.752650,0.500000,8.042648,2.000000,274.777840,0.973586,36.083035,0.000000,153.287293,7.306963,2.707653,1.000000,5
/home/daniel/Projects/ppsEvolution/data/maps/custom_maps/Custom_5_Run_0_Map.csv,squared_error,1.60641986424251e-06,0.5017,0.7194,0.523267,0.811843,0.000000,0.439647,0.187062,0.131917,0.623189,1.000000,0.962999,0.155695,0.000000,0.260195,1.000000,1.000000,0.066868,1.000000,216.571723,1.224632,9.000000,0.439647,38.225288,1.753211,6.608699,1.000000,293.524912,0.857189,9.000000,0.260195,200.000000,10.000000,1.601816,1.000000,6
/home/daniel/Projects/ppsEvolution/data/maps/custom_maps/Custom_5_Run_0_Map.csv,squared_error,4.4232896177902574e-07,0.5009,0.7200,0.030840,1.000000,0.102133,0.325743,0.148239,0.236394,0.611948,0.000000,0.845613,0.000000,0.000000,0.000000,1.000000,0.929543,0.277660,1.000000,130.396999,1.330000,23.400765,0.325743,30.499538,2.745746,6.507528,0.000000,272.982196,0.770000,9.000000,0.000000,200.000000,9.330658,3.498943,1.000000,7
/home/daniel/Projects/ppsEvolution/data/maps/custom_maps/Custom_5_Run_0_Map.csv,squared_error,7.845065802854264e-07,0.5012,0.7196,0.452411,1.000000,0.013657,0.411151,0.010155,0.000000,0.798273,0.000000,0.929249,0.273103,0.078993,0.147343,0.879784,0.928878,0.058857,1.000000,204.171892,1.330000,10.925582,0.411151,3.020781,0.500000,8.184454,0.000000,287.618565,0.922938,20.137987,0.147343,176.077033,9.324338,1.529713,1.000000,8
/home/daniel/Projects/ppsEvolution/data/maps/custom_maps/Custom_5_Run_0_Map.csv,squared_error,9.352155901439173e-07,0.5014,0.7202,0.030526,0.878789,0.000000,0.473320,0.034829,0.233132,0.778316,0.000000,1.000000,0.000000,0.001383,0.032709,1.000000,0.747926,0.056340,0.000000,130.342045,1.262122,9.000000,0.473320,7.931047,2.714751,8.004842,0.000000,300.000000,0.770000,9.195041,0.032709,200.000000,7.605301,1.507058,0.000000,9
map,fitness,fitness value,team0ratio,time,HP,Speed,Damage,Acc,ClipSize,RateOfFire,NrBullets,Range,HP,Speed,Damage,Acc,ClipSize,RateOfFire,NrBullets,Range,HP,Speed,Damage,Acc,ClipSize,RateOfFire,NrBullets,Range,HP,Speed,Damage,Acc,ClipSize,RateOfFire,NrBullets,Range,Run,target team0ratio: 0.5,target time: 0.72
/home/daniel/Projects/ppsEvolution/data/maps/custom_maps/Custom_6_Run_0_Map.csv,squared_error,1.2005819074374581e-06,0.5013,0.7191,0.228043,0.946147,0.180770,0.636480,0.084289,0.000000,0.866996,1.000000,1.000000,0.000000,0.071552,0.533669,0.999707,0.919651,0.045617,1.000000,164.907595,1.299842,34.488631,0.636480,17.773589,0.500000,8.802960,1.000000,300.000000,0.770000,19.088900,0.533669,199.941662,9.236689,1.410550,1.000000,0
/home/daniel/Projects/ppsEvolution/data/maps/custom_maps/Custom_6_Run_0_Map.csv,squared_error,1.1243963030053584e-07,0.4996,0.7197,0.248908,0.941184,0.000000,0.744188,0.421061,0.189842,0.558750,1.000000,0.979992,0.187255,0.000000,0.607567,0.904280,0.990374,0.022842,0.000000,168.558941,1.297063,9.000000,0.744188,84.791103,2.303494,6.028748,1.000000,296.498617,0.874863,9.000000,0.607567,180.951735,9.908555,1.205580,0.000000,1
/home/daniel/Projects/ppsEvolution/data/maps/custom_maps/Custom_6_Run_0_Map.csv,squared_error,2.4034143341651895e-06,0.5021,0.7205,0.143075,0.955969,0.141141,0.643999,0.233340,0.058146,0.663437,0.000000,0.829126,0.191050,0.000000,0.561768,1.000000,0.820041,0.176183,1.000000,150.038084,1.305342,28.900825,0.643999,47.434596,1.052389,6.970936,0.000000,270.097112,0.876988,9.000000,0.561768,200.000000,8.290391,2.585649,1.000000,2
/home/daniel/Projects/ppsEvolution/data/maps/custom_maps/Custom_6_Run_0_Map.csv,squared_error,1.799787495056624e-06,0.5017,0.7191,0.022120,1.000000,0.000000,0.681231,0.139657,0.715108,0.840705,0.000000,0.589388,0.000000,0.287854,0.342779,1.000000,0.895941,0.064381,2.000000,128.871075,1.330000,9.000000,0.681231,28.791837,7.293524,8.566346,0.000000,228.142939,0.770000,49.587475,0.342779,200.000000,9.011438,1.579431,2.000000,3
/home/daniel/Projects/ppsEvolution/data/maps/custom_maps/Custom_6_Run_0_Map.csv,squared_error,4.855131892736655e-06,0.4974,0.7218,0.000000,0.878250,0.194649,0.622531,0.103370,0.000000,0.838232,1.000000,0.911617,0.035369,0.259059,0.333441,1.000000,0.986373,0.002007,2.000000,125.000000,1.261820,36.445502,0.622531,21.570690,0.500000,8.544092,1.000000,284.533052,0.789807,45.527282,0.333441,200.000000,9.870545,1.018063,2.000000,4
/home/daniel/Projects/ppsEvolution/data/maps/custom_maps/Custom_6_Run_0_Map.csv,squared_error,1.5679881651749803e-06,0.4992,0.7216,0.280082,0.801945,0.295100,0.544085,0.031953,0.058851,0.883657,0.000000,1.000000,0.130704,0.025493,0.534866,1.000000,0.823767,0.402646,1.000000,174.014334,1.219089,50.609143,0.544085,7.358625,1.059081,8.952915,0.000000,300.000000,0.843194,12.594522,0.534866,200.000000,8.325787,4.623815,1.000000,5
/home/daniel/Projects/ppsEvolution/data/maps/custom_maps/Custom_6_Run_0_Map.csv,squared_error,1.5906671267458403e-06,0.5014,0.7189,0.173138,0.865547,0.619527,0.307631,0.000000,0.085241,0.476679,1.000000,0.910589,0.000000,0.000000,0.548930,0.812276,0.365125,0.069937,2.000000,155.299206,1.254706,96.353274,0.307631,1.000000,1.309788,5.290108,1.000000,284.353053,0.770000,9.000000,0.548930,162.642874,3.968687,1.629435,2.000000,6
/home/daniel/Projects/ppsEvolution/data/maps/custom_maps/Custom_6_Run_0_Map.csv,squared_error,2.4155845839864748e-06,0.4986,0.7217,0.000000,0.955020,0.384292,0.450917,0.000000,0.019003,0.929453,1.000000,0.937495,0.075822,0.000000,0.476374,1.000000,0.678166,0.215442,2.000000,125.000000,1.304811,63.185138,0.450917,1.000000,0.680526,9.365077,1.000000,289.061674,0.812460,9.000000,0.476374,200.000000,6.942572,2.938976,2.000000,7
/home/daniel/Projects/ppsEvolution/data/maps/custom_maps/Custom_6_Run_0_Map.csv,squared_error,1.8316639673513404e-07,0.4996,0.7196,0.144841,1.000000,0.216039,0.621863,0.002210,0.000000,0.763181,2.000000,1.000000,0.101252,0.071179,0.504126,0.715506,0.491836,0.160133,1.000000,150.347210,1.330000,39.461454,0.621863,1.439835,0.500000,7.868629,2.000000,300.000000,0.826701,19.036179,0.504126,143.385769,5.172438,2.441195,1.000000,8
/home/daniel/Projects/ppsEvolution/data/maps/custom_maps/Custom_6_Run_0_Map.csv,squared_error,6.090141442001768e-07,0.4991,0.7207,0.000000,1.000000,0.038783,0.682129,0.000000,0.000000,1.000000,0.000000,0.831685,0.088016,0.000000,0.518525,0.800074,0.937113,0.065577,1.000000,125.000000,1.330000,14.468457,0.682129,1.000000,0.500000,10.000000,0.000000,270.544902,0.819289,9.000000,0.518525,160.214687,9.402572,1.590191,1.000000,9
map,fitness,fitness value,team0ratio,time,HP,Speed,Damage,Acc,ClipSize,RateOfFire,NrBullets,Range,HP,Speed,Damage,Acc,ClipSize,RateOfFire,NrBullets,Range,HP,Speed,Damage,Acc,ClipSize,RateOfFire,NrBullets,Range,HP,Speed,Damage,Acc,ClipSize,RateOfFire,NrBullets,Range,Run,target team0ratio: 0.5,target time: 0.72
/home/daniel/Projects/ppsEvolution/data/maps/custom_maps/Custom_7_Run_0_Map.csv,squared_error,8.187224887031186e-07,0.4987,0.7201,0.489484,0.974055,0.051745,0.441865,0.000000,0.000000,0.957795,2.000000,0.987069,0.116958,0.000000,0.299978,0.827177,0.635917,0.372228,0.000000,210.659771,1.315471,16.296085,0.441865,1.000000,0.500000,9.620156,2.000000,297.737086,0.835497,9.000000,0.299978,165.608160,6.541208,4.350048,0.000000,0
/home/daniel/Projects/ppsEvolution/data/maps/custom_maps/Custom_7_Run_0_Map.csv,squared_error,1.4370476977461974e-06,0.4999,0.7217,0.234102,1.000000,0.059234,0.452778,0.131256,0.230668,0.932922,2.000000,1.000000,0.000000,0.013637,0.198011,0.791884,0.902745,0.114920,1.000000,165.967926,1.330000,17.351946,0.452778,27.119856,2.691342,9.396298,2.000000,300.000000,0.770000,10.922788,0.198011,158.585015,9.076074,2.034279,1.000000,1
/home/daniel/Projects/ppsEvolution/data/maps/custom_maps/Custom_7_Run_0_Map.csv,squared_error,1.9692661437716403e-06,0.5018,0.7208,0.122975,0.859092,0.222154,0.320312,0.041236,0.018460,0.905960,1.000000,1.000000,0.053531,0.000000,0.159220,0.922052,0.799618,0.172781,0.000000,146.520619,1.251092,40.323661,0.320312,9.206052,0.675370,9.153636,1.000000,300.000000,0.799977,9.000000,0.159220,184.488351,8.096369,2.555033,0.000000,2
/home/daniel/Projects/ppsEvolution/data/maps/custom_maps/Custom_7_Run_0_Map.csv,squared_error,2.3475816098256644e-07,0.4996,0.7206,0.147660,1.000000,0.106469,0.322523,0.090090,0.265742,0.938526,2.000000,0.731079,0.231295,0.000000,0.184788,1.000000,1.000000,0.172745,0.000000,150.840416,1.330000,24.012128,0.322523,18.927990,3.024553,9.446737,2.000000,252.938796,0.899525,9.000000,0.184788,200.000000,10.000000,2.554707,0.000000,3
/home/daniel/Projects/ppsEvolution/data/maps/custom_maps/Custom_7_Run_0_Map.csv,squared_error,1.835841729783319e-06,0.5014,0.7213,0.024152,0.867209,0.000000,0.518705,0.357969,0.165089,1.000000,1.000000,0.950874,0.155891,0.000000,0.100031,0.874978,0.916565,0.340134,2.000000,129.226687,1.255637,9.000000,0.518705,72.235816,2.068350,10.000000,1.000000,291.403037,0.857299,9.000000,0.100031,175.120718,9.207363,4.061208,2.000000,4
/home/daniel/Projects/ppsEvolution/data/maps/custom_maps/Custom_7_Run_0_Map.csv,squared_error,9.623077197148e-07,0.4991,0.7210,0.133561,1.000000,0.000000,0.513257,0.079385,0.094664,0.907768,0.000000,0.944384,0.164719,0.005452,0.195164,0.769878,1.000000,0.011859,1.000000,148.373183,1.330000,9.000000,0.513257,16.797647,1.399305,9.169911,0.000000,290.267186,0.862243,9.768782,0.195164,154.205718,10.000000,1.106733,1.000000,5
/home/daniel/Projects/ppsEvolution/data/maps/custom_maps/Custom_7_Run_0_Map.csv,squared_error,9.625858280540542e-06,0.5030,0.7232,0.393972,0.937761,0.203742,0.211519,0.257165,0.031846,0.810589,1.000000,0.670030,0.175619,0.242174,0.000000,0.481119,0.833620,0.357740,2.000000,193.945038,1.295146,37.727685,0.211519,52.175763,0.802533,8.295298,1.000000,242.255332,0.868347,43.146512,0.000000,96.742723,8.419386,4.219660,2.000000,6
/home/daniel/Projects/ppsEvolution/data/maps/custom_maps/Custom_7_Run_0_Map.csv,squared_error,2.6828917721929355e-06,0.4996,0.7223,0.468145,0.884484,0.011881,0.484774,0.452962,0.047557,0.945739,1.000000,1.000000,0.097361,0.146092,0.161299,0.725506,0.651938,0.163903,0.000000,206.925423,1.265311,10.675201,0.484774,91.139461,0.951788,9.511651,1.000000,300.000000,0.824522,29.599019,0.161299,145.375725,6.693411,2.475128,0.000000,7
/home/daniel/Projects/ppsEvolution/data/maps/custom_maps/Custom_7_Run_0_Map.csv,squared_error,6.494462112101751e-07,0.5005,0.7210,0.074865,0.652302,0.000000,0.500667,0.000000,0.048041,1.000000,1.000000,0.928904,0.000000,0.014451,0.152179,0.798387,0.774720,0.000000,2.000000,138.101325,1.135289,9.000000,0.500667,1.000000,0.956394,10.000000,1.000000,287.558168,0.770000,11.037648,0.152179,159.879018,7.859839,1.000000,2.000000,8
/home/daniel/Projects/ppsEvolution/data/maps/custom_maps/Custom_7_Run_0_Map.csv,squared_error,4.032708572890413e-06,0.5026,0.7189,0.075825,0.918761,0.035029,0.459783,0.000000,0.177811,1.000000,0.000000,0.865636,0.300698,0.000000,0.177315,0.701095,1.000000,0.000000,1.000000,138.269290,1.284506,13.939074,0.459783,1.000000,2.189202,10.000000,0.000000,276.486251,0.938391,9.000000,0.177315,140.517957,10.000000,1.000000,1.000000,9
map,fitness,fitness value,team0ratio,time,HP,Speed,Damage,Acc,ClipSize,RateOfFire,NrBullets,Range,HP,Speed,Damage,Acc,ClipSize,RateOfFire,NrBullets,Range,HP,Speed,Damage,Acc,ClipSize,RateOfFire,NrBullets,Range,HP,Speed,Damage,Acc,ClipSize,RateOfFire,NrBullets,Range,Run,target team0ratio: 0.5,target time: 0.72
/home/daniel/Projects/ppsEvolution/data/maps/custom_maps/Custom_8_Run_0_Map.csv,squared_error,3.2433976578090948e-06,0.5021,0.7215,0.303449,1.000000,0.087788,0.298525,0.069187,0.105327,0.490584,2.000000,1.000000,0.062852,0.000000,0.042887,0.682402,1.000000,0.000000,1.000000,178.103554,1.330000,21.378091,0.298525,14.768265,1.500602,5.415256,2.000000,300.000000,0.805197,9.000000,0.042887,136.798079,10.000000,1.000000,1.000000,0
/home/daniel/Projects/ppsEvolution/data/maps/custom_maps/Custom_8_Run_0_Map.csv,squared_error,1.605581846160945e-06,0.5017,0.7205,0.234359,0.871274,0.169998,0.228993,0.038344,0.369179,0.457430,0.000000,0.996246,0.250138,0.001073,0.000000,0.725586,1.000000,0.000701,1.000000,166.012884,1.257913,32.969765,0.228993,8.630371,4.007199,5.116870,0.000000,299.342993,0.910077,9.151332,0.000000,145.391641,10.000000,1.006311,1.000000,1
/home/daniel/Projects/ppsEvolution/data/maps/custom_maps/Custom_8_Run_0_Map.csv,squared_error,3.816813609887688e-07,0.5005,0.7207,0.368721,1.000000,0.000000,0.374676,0.000000,0.051137,0.894783,0.000000,1.000000,0.098189,0.050577,0.022591,0.908330,0.955445,0.165886,0.000000,189.526173,1.330000,9.000000,0.374676,1.000000,0.985801,9.053051,0.000000,300.000000,0.824986,16.131424,0.022591,181.757584,9.576728,2.492978,0.000000,2
/home/daniel/Projects/ppsEvolution/data/maps/custom_maps/Custom_8_Run_0_Map.csv,squared_error,1.3726697508503602e-07,0.5004,0.7204,0.618621,0.779512,0.000000,0.195186,0.165229,0.257013,0.867346,0.000000,0.629661,0.000000,0.000000,0.206919,0.733459,0.951693,0.170049,2.000000,233.258710,1.206527,9.000000,0.195186,33.880670,2.941627,8.806113,0.000000,235.190716,0.770000,9.000000,0.206919,146.958387,9.541082,2.530442,2.000000,3
/home/daniel/Projects/ppsEvolution/data/maps/custom_maps/Custom_8_Run_0_Map.csv,squared_error,8.236065351325937e-07,0.4996,0.7188,0.209971,1.000000,0.114556,0.000000,0.312333,0.212692,0.705073,1.000000,0.392503,0.220304,0.029507,0.000000,0.559605,0.863870,0.000000,1.000000,161.744952,1.330000,25.152444,0.000000,63.154264,2.520573,7.345657,1.000000,193.688022,0.893371,13.160429,0.000000,112.361336,8.706769,1.000000,1.000000,4
/home/daniel/Projects/ppsEvolution/data/maps/custom_maps/Custom_8_Run_0_Map.csv,squared_error,5.071991875212225e-07,0.4990,0.7200,0.649041,0.957783,0.000000,0.345504,0.066533,0.161782,0.972254,0.000000,1.000000,0.070620,0.000000,0.227514,0.841943,0.984757,0.000000,1.000000,238.582100,1.306358,9.000000,0.345504,14.240154,2.036925,9.750285,0.000000,300.000000,0.809547,9.000000,0.227514,168.546619,9.855187,1.000000,1.000000,5
/home/daniel/Projects/ppsEvolution/data/maps/custom_maps/Custom_8_Run_0_Map.csv,squared_error,1.8451543392555595e-05,0.5008,0.7260,0.576731,0.687099,0.118606,0.173653,0.146859,0.439029,0.229503,0.000000,0.759894,0.405141,0.076297,0.065977,0.607527,0.870425,0.090214,0.000000,225.927993,1.154775,25.723505,0.173653,30.224932,4.670773,3.065523,0.000000,257.981386,0.996879,19.757880,0.065977,121.897832,8.769042,1.811924,0.000000,6
/home/daniel/Projects/ppsEvolution/data/maps/custom_maps/Custom_8_Run_0_Map.csv,squared_error,1.8441503098650452e-06,0.4991,0.7217,0.533496,0.271349,0.042615,0.294790,0.256690,0.020501,1.000000,1.000000,1.000000,0.171290,0.119005,0.000000,0.886399,0.927739,0.121882,1.000000,218.361825,0.921955,15.008703,0.294790,52.081229,0.694758,10.000000,1.000000,300.000000,0.865922,25.779690,0.000000,177.393346,9.313520,2.096941,1.000000,7
/home/daniel/Projects/ppsEvolution/data/maps/custom_maps/Custom_8_Run_0_Map.csv,squared_error,9.158152329298668e-07,0.4987,0.7198,0.393167,0.806047,0.000000,0.310739,0.000000,0.000000,0.987570,1.000000,0.880438,0.066748,0.000000,0.115050,1.000000,1.000000,0.000000,0.000000,193.804155,1.221386,9.000000,0.310739,1.000000,0.500000,9.888132,1.000000,279.076566,0.807379,9.000000,0.115050,200.000000,10.000000,1.000000,0.000000,8
/home/daniel/Projects/ppsEvolution/data/maps/custom_maps/Custom_8_Run_0_Map.csv,squared_error,1.8902419462392117e-06,0.5009,0.7183,0.377453,0.577722,0.000000,0.385142,0.151207,0.013208,0.573047,2.000000,1.000000,0.040028,0.071660,0.005901,0.782149,1.000000,0.065258,2.000000,191.054346,1.093524,9.000000,0.385142,31.090240,0.625477,6.157421,2.000000,300.000000,0.792416,19.104065,0.005901,156.647576,10.000000,1.587320,2.000000,9
map,fitness,fitness value,team0ratio,time,HP,Speed,Damage,Acc,ClipSize,RateOfFire,NrBullets,Range,HP,Speed,Damage,Acc,ClipSize,RateOfFire,NrBullets,Range,HP,Speed,Damage,Acc,ClipSize,RateOfFire,NrBullets,Range,HP,Speed,Damage,Acc,ClipSize,RateOfFire,NrBullets,Range,Run,target team0ratio: 0.5,target time: 0.72
/home/daniel/Projects/ppsEvolution/data/maps/custom_maps/Custom_9_Run_0_Map.csv,squared_error,9.646105282541701e-07,0.4987,0.7195,0.738281,0.614862,0.000000,0.159941,0.386047,0.254936,0.704878,1.000000,0.935716,0.000000,0.000000,0.121979,0.993624,0.897767,0.062601,2.000000,254.199235,1.114323,9.000000,0.159941,77.823445,2.921897,7.343903,1.000000,288.750242,0.770000,9.000000,0.121979,198.731218,9.028787,1.563412,2.000000,0
/home/daniel/Projects/ppsEvolution/data/maps/custom_maps/Custom_9_Run_0_Map.csv,squared_error,6.336010127057827e-07,0.4998,0.7211,0.509621,0.677798,0.040994,0.150243,0.739781,0.168703,0.778934,0.000000,1.000000,0.211132,0.000000,0.000000,0.985740,0.549950,0.000000,1.000000,214.183739,1.149567,14.780194,0.150243,148.216385,2.102676,8.010402,0.000000,300.000000,0.888234,9.000000,0.000000,197.162267,5.724527,1.000000,1.000000,1
/home/daniel/Projects/ppsEvolution/data/maps/custom_maps/Custom_9_Run_0_Map.csv,squared_error,7.174157887853189e-07,0.4990,0.7206,0.580426,0.759248,0.065749,0.098563,0.154266,0.187527,0.883918,0.000000,0.972838,0.119508,0.000000,0.051063,0.980342,0.788574,0.000000,1.000000,226.574542,1.195179,18.270543,0.098563,31.699023,2.281505,8.955265,0.000000,295.246574,0.836925,9.000000,0.051063,196.087974,7.991453,1.000000,1.000000,2
/home/daniel/Projects/ppsEvolution/data/maps/custom_maps/Custom_9_Run_0_Map.csv,squared_error,1.352899609426614e-06,0.5005,0.7216,0.631844,0.993268,0.066862,0.056837,0.000000,0.000000,1.000000,1.000000,0.911499,0.130742,0.000000,0.062024,1.000000,0.844679,0.185370,0.000000,235.572744,1.326230,18.427490,0.056837,1.000000,0.500000,10.000000,1.000000,284.512299,0.843216,9.000000,0.062024,200.000000,8.524447,2.668328,0.000000,3
/home/daniel/Projects/ppsEvolution/data/maps/custom_maps/Custom_9_Run_0_Map.csv,squared_error,1.5618803439395224e-06,0.5014,0.7211,0.604161,0.738060,0.000000,0.142408,0.132958,0.000000,0.789397,1.000000,0.879026,0.271518,0.000000,0.000000,0.608879,0.879462,0.399885,1.000000,230.728117,1.183313,9.000000,0.142408,27.458636,0.500000,8.104576,1.000000,278.829622,0.922050,9.000000,0.000000,122.166979,8.854885,4.598969,1.000000,4
/home/daniel/Projects/ppsEvolution/data/maps/custom_maps/Custom_9_Run_0_Map.csv,squared_error,8.674448258545671e-07,0.4990,0.7191,0.574108,0.963468,0.000000,0.186911,0.356235,0.070621,1.000000,0.000000,1.000000,0.228904,0.030790,0.000000,0.942163,0.820852,0.089904,1.000000,225.468906,1.309542,9.000000,0.186911,71.890832,1.170904,10.000000,0.000000,300.000000,0.898186,13.341356,0.000000,188.490339,8.298097,1.809137,1.000000,5
/home/daniel/Projects/ppsEvolution/data/maps/custom_maps/Custom_9_Run_0_Map.csv,squared_error,2.060981743597567e-06,0.4988,0.7216,0.467476,0.640442,0.000000,0.010005,0.000000,0.405245,0.810344,2.000000,0.612421,0.135198,0.000000,0.000000,0.738406,0.976722,0.000000,2.000000,206.808267,1.128648,9.000000,0.010005,1.000000,4.349829,8.293098,2.000000,232.173688,0.845711,9.000000,0.000000,147.942834,9.778856,1.000000,2.000000,6
/home/daniel/Projects/ppsEvolution/data/maps/custom_maps/Custom_9_Run_0_Map.csv,squared_error,2.1422390338158225e-07,0.4995,0.7196,0.639602,0.844367,0.000000,0.160259,0.453616,0.447386,0.945584,2.000000,1.000000,0.128082,0.049405,0.003964,0.600084,1.000000,0.000000,0.000000,236.930313,1.242846,9.000000,0.160259,91.269493,4.750169,9.510257,2.000000,300.000000,0.841726,15.966146,0.003964,120.416785,10.000000,1.000000,0.000000,7
/home/daniel/Projects/ppsEvolution/data/maps/custom_maps/Custom_9_Run_0_Map.csv,squared_error,8.226956825303804e-07,0.4988,0.7195,0.575294,0.693599,0.051940,0.144337,0.131292,0.244290,0.741046,0.000000,1.000000,0.008294,0.000000,0.000000,0.830185,0.838839,0.329233,1.000000,225.676503,1.158416,16.323477,0.144337,27.127107,2.820755,7.669418,0.000000,300.000000,0.774645,9.000000,0.000000,166.206892,8.468968,3.963100,1.000000,8
/home/daniel/Projects/ppsEvolution/data/maps/custom_maps/Custom_9_Run_0_Map.csv,squared_error,4.987545655766532e-06,0.4980,0.7224,0.516539,0.899339,0.000000,0.142168,0.287600,0.022544,0.992399,1.000000,0.953975,0.205885,0.000000,0.000000,0.345703,0.916331,0.000000,2.000000,215.394297,1.273630,9.000000,0.142168,58.232475,0.714170,9.931594,1.000000,291.945544,0.885296,9.000000,0.000000,69.794922,9.205142,1.000000,2.000000,9
map,fitness,fitness value,team0ratio,time,HP,Speed,Damage,Acc,ClipSize,RateOfFire,NrBullets,Range,HP,Speed,Damage,Acc,ClipSize,RateOfFire,NrBullets,Range,HP,Speed,Damage,Acc,ClipSize,RateOfFire,NrBullets,Range,HP,Speed,Damage,Acc,ClipSize,RateOfFire,NrBullets,Range,Run,target team0ratio: 0.5,target time: 0.72
/home/daniel/Projects/ppsEvolution/data/maps/custom_maps/Custom_10_Run_0_Map.csv,squared_error,4.4237603523525137e-07,0.4994,0.7193,0.548025,0.979897,0.080858,0.350439,0.370194,0.134156,0.668041,1.000000,0.854368,0.226646,0.109335,0.195751,1.000000,0.910768,0.184874,0.000000,220.904383,1.318742,20.400964,0.350439,74.668594,1.774479,7.012371,1.000000,274.514446,0.896922,24.416272,0.195751,200.000000,9.152300,2.663865,0.000000,0
/home/daniel/Projects/ppsEvolution/data/maps/custom_maps/Custom_10_Run_0_Map.csv,squared_error,7.729344584646601e-07,0.5011,0.7205,0.219977,0.532402,0.117229,0.291436,0.313486,0.016893,0.669256,0.000000,0.772497,0.042666,0.000000,0.142696,0.714429,0.818588,0.268506,1.000000,163.496035,1.068145,25.529258,0.291436,63.383646,0.660486,7.023303,0.000000,260.186948,0.793893,9.000000,0.142696,143.171332,8.276582,3.416558,1.000000,1
/home/daniel/Projects/ppsEvolution/data/maps/custom_maps/Custom_10_Run_0_Map.csv,squared_error,2.289867117735819e-06,0.5012,0.7182,0.429818,0.895107,0.000000,0.336237,0.329982,0.149781,1.000000,0.000000,0.635828,0.381656,0.211347,0.051293,1.000000,0.757309,0.046037,1.000000,200.218213,1.271260,9.000000,0.336237,66.666374,1.922923,10.000000,0.000000,236.269884,0.983727,38.799886,0.051293,200.000000,7.694434,1.414331,1.000000,2
/home/daniel/Projects/ppsEvolution/data/maps/custom_maps/Custom_10_Run_0_Map.csv,squared_error,1.6330390817216565e-06,0.5016,0.7192,0.380535,0.917367,0.000000,0.458478,0.127230,0.214395,1.000000,1.000000,1.000000,0.000000,0.000000,0.220615,0.632172,0.709698,0.201771,1.000000,191.593640,1.283725,9.000000,0.458478,26.318722,2.536757,10.000000,1.000000,300.000000,0.770000,9.000000,0.220615,126.802155,7.242131,2.815939,1.000000,3
/home/daniel/Projects/ppsEvolution/data/maps/custom_maps/Custom_10_Run_0_Map.csv,squared_error,4.468836710441417e-06,0.4996,0.7230,0.420042,1.000000,0.000000,0.393847,0.111914,0.344709,0.989314,2.000000,0.859959,0.581958,0.214620,0.000000,1.000000,0.683645,0.120576,0.000000,198.507305,1.330000,9.000000,0.393847,23.270928,3.774732,9.903828,2.000000,275.492908,1.095896,39.261351,0.000000,200.000000,6.994631,2.085184,0.000000,4
/home/daniel/Projects/ppsEvolution/data/maps/custom_maps/Custom_10_Run_0_Map.csv,squared_error,3.6708685664884483e-06,0.4982,0.7220,0.136980,1.000000,0.098319,0.298871,0.000000,0.000000,0.957176,0.000000,0.768947,0.521150,0.000000,0.119116,0.981790,0.906564,0.173242,0.000000,148.971581,1.330000,22.862910,0.298871,1.000000,0.500000,9.614586,0.000000,259.565713,1.061844,9.000000,0.119116,196.376152,9.112354,2.559175,0.000000,5
/home/daniel/Projects/ppsEvolution/data/maps/custom_maps/Custom_10_Run_0_Map.csv,squared_error,1.396624886325591e-07,0.4995,0.7202,0.232438,1.000000,0.336699,0.000000,0.000000,0.130565,1.000000,1.000000,0.776167,0.176499,0.000000,0.148417,0.493963,0.838190,0.150967,2.000000,165.676578,1.330000,56.474502,0.000000,1.000000,1.740369,10.000000,1.000000,260.829140,0.868839,9.000000,0.148417,99.298728,8.462805,2.358702,2.000000,6
/home/daniel/Projects/ppsEvolution/data/maps/custom_maps/Custom_10_Run_0_Map.csv,squared_error,1.5838583349399142e-06,0.4987,0.7188,0.000000,0.583260,0.020620,0.440720,0.177325,0.000000,0.815576,2.000000,0.938084,0.026585,0.019225,0.038654,0.843771,0.891843,0.010352,2.000000,125.000000,1.096625,11.907472,0.440720,36.287618,0.500000,8.340185,2.000000,289.164744,0.784887,11.710658,0.038654,168.910386,8.972504,1.093170,2.000000,7
/home/daniel/Projects/ppsEvolution/data/maps/custom_maps/Custom_10_Run_0_Map.csv,squared_error,7.556548837808926e-06,0.5039,0.7203,0.222920,0.615284,0.118843,0.340158,0.132363,0.000000,0.764041,0.000000,0.889026,0.278075,0.033485,0.100125,1.000000,0.571447,0.238546,1.000000,164.011059,1.114559,25.756839,0.340158,27.340172,0.500000,7.876372,0.000000,280.579532,0.925722,13.721431,0.100125,200.000000,5.928746,3.146916,1.000000,8
/home/daniel/Projects/ppsEvolution/data/maps/custom_maps/Custom_10_Run_0_Map.csv,squared_error,3.4160352386444245e-06,0.5000,0.7226,0.129197,0.617598,0.039830,0.366324,0.234656,0.000000,0.721690,1.000000,0.786993,0.406509,0.000000,0.099822,0.557669,0.911050,0.126072,2.000000,147.609502,1.115855,14.616017,0.366324,47.696531,0.500000,7.495211,1.000000,262.723818,0.997645,9.000000,0.099822,111.976224,9.154977,2.134649,2.000000,9
