map,fitness,fitness value,team0ratio,time,HP,Speed,Damage,Acc,ClipSize,RateOfFire,NrBullets,Range,HP,Speed,Damage,Acc,ClipSize,RateOfFire,NrBullets,Range,HP,Speed,Damage,Acc,ClipSize,RateOfFire,NrBullets,Range,HP,Speed,Damage,Acc,ClipSize,RateOfFire,NrBullets,Range,Run,target team0ratio: 0.5,target time: 0.36
/home/daniel/Projects/ppsEvolution/data/maps/custom_maps/Custom_1_Run_0_Map.csv,squared_error,8.542738889929196e-07,0.4991,0.3610,0.076381,1.000000,0.167116,0.689124,0.115237,0.000000,0.893790,0.000000,0.961164,0.093764,0.078969,0.550877,1.000000,0.622287,0.262096,0.000000,138.366622,1.330000,32.563331,0.689124,23.932133,0.500000,9.044112,0.000000,293.203691,0.822508,20.134578,0.550877,200.000000,6.411730,3.358866,0.000000,0
/home/daniel/Projects/ppsEvolution/data/maps/custom_maps/Custom_1_Run_0_Map.csv,squared_error,8.755400138539943e-07,0.5013,0.3601,0.080852,0.938861,0.202066,0.664816,0.013238,0.127709,1.000000,0.000000,1.000000,0.091509,0.000000,0.598360,1.000000,0.702107,0.000000,2.000000,139.149064,1.295762,37.491354,0.664816,3.634446,1.713234,10.000000,0.000000,300.000000,0.821245,9.000000,0.598360,200.000000,7.170015,1.000000,2.000000,1
/home/daniel/Projects/ppsEvolution/data/maps/custom_maps/Custom_1_Run_0_Map.csv,squared_error,9.789770567671567e-07,0.5013,0.3605,0.075730,1.000000,0.000000,0.738525,0.076299,0.009925,0.955604,1.000000,0.843871,0.000000,0.000000,0.622827,0.810653,1.000000,0.000000,0.000000,138.252817,1.330000,9.000000,0.738525,16.183433,0.594291,9.600439,1.000000,272.677412,0.770000,9.000000,0.622827,162.320011,10.000000,1.000000,0.000000,2
/home/daniel/Projects/ppsEvolution/data/maps/custom_maps/Custom_1_Run_0_Map.csv,squared_error,1.9239586908100107e-07,0.4995,0.3603,0.016004,1.000000,0.070577,0.704503,0.000000,0.000000,0.982905,2.000000,0.945939,0.097009,0.000000,0.569319,0.824611,0.924603,0.081027,2.000000,127.800613,1.330000,18.951358,0.704503,1.000000,0.500000,9.846147,2.000000,290.539270,0.824325,9.000000,0.569319,165.097578,9.283730,1.729242,2.000000,3
/home/daniel/Projects/ppsEvolution/data/maps/custom_maps/Custom_1_Run_0_Map.csv,squared_error,5.080296453520749e-07,0.4991,0.3595,0.041751,0.848450,0.269830,0.528257,0.008576,0.054827,1.000000,1.000000,0.700287,0.190697,0.000000,0.591326,0.811183,0.803562,0.000000,2.000000,132.306412,1.245132,47.045992,0.528257,2.706623,1.020853,10.000000,1.000000,247.550293,0.876790,9.000000,0.591326,162.425503,8.133842,1.000000,2.000000,4
/home/daniel/Projects/ppsEvolution/data/maps/custom_maps/Custom_1_Run_0_Map.csv,squared_error,1.0617867945541255e-06,0.4992,0.3612,0.147892,0.888161,0.163023,0.674796,0.163841,0.082977,0.961265,1.000000,0.980894,0.000000,0.055871,0.589505,0.902389,1.000000,0.000000,1.000000,150.881157,1.267370,31.986230,0.674796,33.604281,1.288285,9.651389,1.000000,296.656449,0.770000,16.877817,0.589505,180.575432,10.000000,1.000000,1.000000,5
/home/daniel/Projects/ppsEvolution/data/maps/custom_maps/Custom_1_Run_0_Map.csv,squared_error,1.19252642809114e-06,0.4991,0.3588,0.033838,1.000000,0.155513,0.702022,0.068133,0.215581,0.596023,2.000000,1.000000,0.151283,0.509222,0.256771,0.750580,1.000000,0.000000,0.000000,130.921714,1.330000,30.927338,0.702022,14.558371,2.548023,6.364209,2.000000,300.000000,0.854718,80.800309,0.256771,150.365498,10.000000,1.000000,0.000000,6
/home/daniel/Projects/ppsEvolution/data/maps/custom_maps/Custom_1_Run_0_Map.csv,squared_error,5.8138816423540677e-08,0.4999,0.3603,0.054805,1.000000,0.144427,0.705268,0.205170,0.093936,0.816842,0.000000,0.973999,0.000000,0.189769,0.469570,0.843936,1.000000,0.252019,1.000000,134.590907,1.330000,29.364193,0.705268,41.828914,1.392391,8.351575,0.000000,295.449855,0.770000,35.757402,0.469570,168.943246,10.000000,3.268173,1.000000,7
/home/daniel/Projects/ppsEvolution/data/maps/custom_maps/Custom_1_Run_0_Map.csv,squared_error,1.0427100317890964e-06,0.5011,0.3609,0.000000,0.886034,0.033768,0.754079,0.000000,0.005621,0.975843,1.000000,1.000000,0.000000,0.000586,0.600422,0.932938,0.985824,0.000000,0.000000,125.000000,1.266179,13.761318,0.754079,1.000000,0.553404,9.782590,1.000000,300.000000,0.770000,9.082647,0.600422,186.654721,9.865325,1.000000,0.000000,8
/home/daniel/Projects/ppsEvolution/data/maps/custom_maps/Custom_1_Run_0_Map.csv,squared_error,2.809703522834918e-06,0.4984,0.3618,0.000000,1.000000,0.167634,0.642871,0.358504,0.177272,1.000000,1.000000,0.841890,0.051726,0.000000,0.590516,0.668559,0.762706,0.000000,0.000000,125.000000,1.330000,32.636433,0.642871,72.342381,2.184082,10.000000,1.000000,272.330730,0.798966,9.000000,0.590516,134.043312,7.745709,1.000000,0.000000,9
map,fitness,fitness value,team0ratio,time,HP,Speed,Damage,Acc,ClipSize,RateOfFire,NrBullets,Range,HP,Speed,Damage,Acc,ClipSize,RateOfFire,NrBullets,Range,HP,Speed,Damage,Acc,ClipSize,RateOfFire,NrBullets,Range,HP,Speed,Damage,Acc,ClipSize,RateOfFire,NrBullets,Range,Run,target team0ratio: 0.5,target time: 0.36
/home/daniel/Projects/ppsEvolution/data/maps/custom_maps/Custom_2_Run_0_Map.csv,squared_error,0.0004608195616613703,0.4958,0.3901,0.004288,1.000000,0.731263,1.000000,0.000000,0.444586,1.000000,2.000000,0.654454,0.292630,0.993205,1.000000,0.892339,1.000000,0.977891,2.000000,125.750450,1.330000,112.108134,1.000000,1.000000,4.723562,10.000000,2.000000,239.529462,0.933873,149.041891,1.000000,178.575434,10.000000,9.801023,2.000000,0
/home/daniel/Projects/ppsEvolution/data/maps/custom_maps/Custom_2_Run_0_Map.csv,squared_error,0.0004617150007065224,0.4932,0.3896,0.000000,1.000000,0.863737,1.000000,0.244427,0.000000,0.996510,2.000000,0.851502,0.006800,1.000000,1.000000,0.974177,0.679881,1.000000,2.000000,125.000000,1.330000,130.786950,1.000000,49.640917,0.500000,9.968587,2.000000,274.012916,0.773808,150.000000,1.000000,194.861268,6.958873,10.000000,2.000000,1
/home/daniel/Projects/ppsEvolution/data/maps/custom_maps/Custom_2_Run_0_Map.csv,squared_error,0.0004344156296007956,0.4995,0.3895,0.036439,0.935146,0.704285,1.000000,0.000000,0.051800,0.984467,2.000000,0.602274,0.000000,1.000000,1.000000,0.988966,1.000000,1.000000,2.000000,131.376780,1.293682,108.304245,1.000000,1.000000,0.992102,9.860205,2.000000,230.398031,0.770000,150.000000,1.000000,197.804182,10.000000,10.000000,2.000000,2
/home/daniel/Projects/ppsEvolution/data/maps/custom_maps/Custom_2_Run_0_Map.csv,squared_error,0.0004527202156461169,0.4943,0.3895,0.000000,0.884555,0.788406,1.000000,0.027915,0.382558,1.000000,2.000000,0.776949,0.393854,1.000000,1.000000,0.907537,1.000000,1.000000,2.000000,125.000000,1.265351,120.165288,1.000000,6.555130,4.134296,10.000000,2.000000,260.966115,0.990558,150.000000,1.000000,181.599913,10.000000,10.000000,2.000000,3
/home/daniel/Projects/ppsEvolution/data/maps/custom_maps/Custom_2_Run_0_Map.csv,squared_error,0.0004300867579213513,0.4987,0.3893,0.000000,1.000000,0.910233,1.000000,0.002581,0.039135,1.000000,2.000000,0.935319,0.218570,1.000000,1.000000,1.000000,0.929183,0.946502,2.000000,125.000000,1.330000,137.342829,1.000000,1.513708,0.871781,10.000000,2.000000,288.680890,0.892399,150.000000,1.000000,200.000000,9.327235,9.518522,2.000000,4
/home/daniel/Projects/ppsEvolution/data/maps/custom_maps/Custom_2_Run_0_Map.csv,squared_error,0.00047993765689450965,0.5001,0.3910,0.000000,0.786311,0.697793,1.000000,0.079094,0.000000,0.899151,2.000000,0.554677,0.000000,1.000000,1.000000,0.651319,1.000000,1.000000,2.000000,125.000000,1.210334,107.388807,1.000000,16.739766,0.500000,9.092356,2.000000,222.068408,0.770000,150.000000,1.000000,130.612463,10.000000,10.000000,2.000000,5
/home/daniel/Projects/ppsEvolution/data/maps/custom_maps/Custom_2_Run_0_Map.csv,squared_error,0.0004460685581023999,0.4955,0.3895,0.000000,0.638856,0.863735,1.000000,0.029542,0.000000,0.932641,2.000000,0.910068,0.043095,0.993448,1.000000,1.000000,0.980950,1.000000,2.000000,125.000000,1.127759,130.786682,1.000000,6.878767,0.500000,9.393768,2.000000,284.261813,0.794133,149.076109,1.000000,200.000000,9.819026,10.000000,2.000000,6
/home/daniel/Projects/ppsEvolution/data/maps/custom_maps/Custom_2_Run_0_Map.csv,squared_error,0.0004311229652657783,0.4922,0.3883,0.000000,0.994638,0.680258,1.000000,0.032975,0.000000,1.000000,2.000000,0.629952,0.663721,1.000000,1.000000,0.948098,1.000000,0.892684,2.000000,125.000000,1.326997,104.916395,1.000000,7.562020,0.500000,10.000000,2.000000,235.241683,1.141684,150.000000,1.000000,189.671498,10.000000,9.034158,2.000000,7
/home/daniel/Projects/ppsEvolution/data/maps/custom_maps/Custom_2_Run_0_Map.csv,squared_error,0.00046333711379927645,0.4958,0.3901,0.028299,0.970226,0.617415,1.000000,0.042312,0.000000,1.000000,2.000000,0.478625,0.400015,1.000000,1.000000,0.912566,1.000000,0.805107,2.000000,129.952269,1.313327,96.055453,1.000000,9.419989,0.500000,10.000000,2.000000,208.759434,0.994009,150.000000,1.000000,182.600634,10.000000,8.245964,2.000000,8
/home/daniel/Projects/ppsEvolution/data/maps/custom_maps/Custom_2_Run_0_Map.csv,squared_error,0.00040784849076741346,0.4998,0.3886,0.000000,0.974928,0.648772,1.000000,0.000000,0.011164,1.000000,2.000000,0.486294,0.514977,1.000000,1.000000,1.000000,1.000000,1.000000,2.000000,125.000000,1.315959,100.476901,1.000000,1.000000,0.606054,10.000000,2.000000,210.101453,1.058387,150.000000,1.000000,200.000000,10.000000,10.000000,2.000000,9
map,fitness,fitness value,team0ratio,time,HP,Speed,Damage,Acc,ClipSize,RateOfFire,NrBullets,Range,HP,Speed,Damage,Acc,ClipSize,RateOfFire,NrBullets,Range,HP,Speed,Damage,Acc,ClipSize,RateOfFire,NrBullets,Range,HP,Speed,Damage,Acc,ClipSize,RateOfFire,NrBullets,Range,Run,target team0ratio: 0.5,target time: 0.36
/home/daniel/Projects/ppsEvolution/data/maps/custom_maps/Custom_3_Run_0_Map.csv,squared_error,0.006342049465126729,0.5046,0.4725,0.000000,0.945647,1.000000,0.958662,0.044669,0.202074,0.928789,2.000000,0.000000,0.185900,0.984225,1.000000,0.885612,0.546637,0.843966,2.000000,125.000000,1.299562,150.000000,0.958662,9.889165,2.419701,9.359103,2.000000,125.000000,0.874104,147.775734,1.000000,177.236742,5.693052,8.595691,2.000000,0
/home/daniel/Projects/ppsEvolution/data/maps/custom_maps/Custom_3_Run_0_Map.csv,squared_error,0.00641853162319325,0.5168,0.4721,0.001227,0.841193,0.746343,1.000000,0.000000,0.046030,1.000000,2.000000,0.285938,0.107291,1.000000,1.000000,0.775225,0.581545,1.000000,2.000000,125.214645,1.241068,114.234315,1.000000,1.000000,0.937281,10.000000,2.000000,175.039157,0.830083,150.000000,1.000000,155.269770,6.024675,10.000000,2.000000,1
/home/daniel/Projects/ppsEvolution/data/maps/custom_maps/Custom_3_Run_0_Map.csv,squared_error,0.0062163769633808005,0.5032,0.4715,0.000000,0.954260,0.612716,1.000000,0.020788,0.000624,1.000000,2.000000,0.085083,0.000000,1.000000,1.000000,0.866007,0.249610,0.974193,2.000000,125.000000,1.304386,95.392904,1.000000,5.136840,0.505924,10.000000,2.000000,139.889460,0.770000,150.000000,1.000000,173.335472,2.871297,9.767735,2.000000,2
/home/daniel/Projects/ppsEvolution/data/maps/custom_maps/Custom_3_Run_0_Map.csv,squared_error,0.006433347121918566,0.4929,0.4732,0.000000,0.636711,0.698554,1.000000,0.012996,0.169345,1.000000,2.000000,0.338772,0.000000,1.000000,1.000000,1.000000,0.376271,0.937040,2.000000,125.000000,1.126558,107.496175,1.000000,3.586138,2.108774,10.000000,2.000000,184.285110,0.770000,150.000000,1.000000,200.000000,4.074578,9.433359,2.000000,3
/home/daniel/Projects/ppsEvolution/data/maps/custom_maps/Custom_3_Run_0_Map.csv,squared_error,0.006310652699928931,0.5039,0.4723,0.000000,0.873742,0.787432,1.000000,0.000000,0.016339,0.945218,2.000000,0.362116,0.278492,1.000000,1.000000,0.848628,0.000000,1.000000,2.000000,125.000000,1.259295,120.027849,1.000000,1.000000,0.655221,9.506959,2.000000,188.370293,0.925955,150.000000,1.000000,169.876989,0.500000,10.000000,2.000000,4
/home/daniel/Projects/ppsEvolution/data/maps/custom_maps/Custom_3_Run_0_Map.csv,squared_error,0.0063443697353005365,0.5142,0.4717,0.004774,0.971784,1.000000,0.968066,0.158929,0.000000,1.000000,2.000000,0.043632,0.075870,0.926509,1.000000,1.000000,0.304993,0.754188,2.000000,125.835379,1.314199,150.000000,0.968066,32.626862,0.500000,10.000000,2.000000,132.635685,0.812487,139.637800,1.000000,200.000000,3.397431,7.787691,2.000000,5
/home/daniel/Projects/ppsEvolution/data/maps/custom_maps/Custom_3_Run_0_Map.csv,squared_error,0.006335230892417944,0.5066,0.4724,0.000000,0.665935,0.960300,1.000000,0.024032,0.057917,1.000000,2.000000,0.605914,0.000000,1.000000,1.000000,0.690905,0.000000,0.985057,2.000000,125.000000,1.142923,144.402242,1.000000,5.782411,1.050216,10.000000,2.000000,231.034899,0.770000,150.000000,1.000000,138.490044,0.500000,9.865511,2.000000,6
/home/daniel/Projects/ppsEvolution/data/maps/custom_maps/Custom_3_Run_0_Map.csv,squared_error,0.006347898800728282,0.5112,0.4721,0.000000,0.977627,1.000000,1.000000,0.030114,0.207284,1.000000,2.000000,0.637091,0.000000,1.000000,1.000000,0.599448,0.000000,1.000000,2.000000,125.000000,1.317471,150.000000,1.000000,6.992778,2.469200,10.000000,2.000000,236.490970,0.770000,150.000000,1.000000,120.290132,0.500000,10.000000,2.000000,7
/home/daniel/Projects/ppsEvolution/data/maps/custom_maps/Custom_3_Run_0_Map.csv,squared_error,0.006458946523512343,0.5166,0.4724,0.000000,0.652641,0.918538,1.000000,0.000000,0.045580,1.000000,2.000000,0.481098,0.119295,1.000000,1.000000,0.946710,0.193547,0.788606,2.000000,125.000000,1.135479,138.513882,1.000000,1.000000,0.933012,10.000000,2.000000,209.192201,0.836805,150.000000,1.000000,189.395242,2.338700,8.097454,2.000000,8
/home/daniel/Projects/ppsEvolution/data/maps/custom_maps/Custom_3_Run_0_Map.csv,squared_error,0.0064828282389138335,0.5035,0.4738,0.019844,0.443886,0.708784,1.000000,0.005720,0.000000,1.000000,2.000000,0.326488,0.000000,1.000000,1.000000,0.327012,0.597758,1.000000,2.000000,128.472685,1.018576,108.938508,1.000000,2.138282,0.500000,10.000000,2.000000,182.135431,0.770000,150.000000,1.000000,66.075305,6.178700,10.000000,2.000000,9
map,fitness,fitness value,team0ratio,time,HP,Speed,Damage,Acc,ClipSize,RateOfFire,NrBullets,Range,HP,Speed,Damage,Acc,ClipSize,RateOfFire,NrBullets,Range,HP,Speed,Damage,Acc,ClipSize,RateOfFire,NrBullets,Range,HP,Speed,Damage,Acc,ClipSize,RateOfFire,NrBullets,Range,Run,target team0ratio: 0.5,target time: 0.36
/home/daniel/Projects/ppsEvolution/data/maps/custom_maps/Custom_4_Run_0_Map.csv,squared_error,3.86178031017722e-06,0.5027,0.3607,0.156808,1.000000,0.110938,0.800000,0.027967,0.042128,1.000000,1.000000,1.000000,0.079328,0.207982,0.600000,1.000000,0.912818,0.109999,0.000000,152.441446,1.330000,24.642247,0.800000,6.565358,0.900219,10.000000,1.000000,300.000000,0.814424,38.325513,0.600000,200.000000,9.171773,1.989987,0.000000,0
/home/daniel/Projects/ppsEvolution/data/maps/custom_maps/Custom_4_Run_0_Map.csv,squared_error,1.7653559325083196e-06,0.5018,0.3594,0.131687,0.940453,0.176628,0.786261,0.000000,0.000000,1.000000,0.000000,0.977511,0.061201,0.000000,0.689949,0.956275,0.938535,0.056585,1.000000,148.045143,1.296654,33.904497,0.786261,1.000000,0.500000,10.000000,0.000000,296.064451,0.804272,9.000000,0.689949,191.298768,9.416078,1.509261,1.000000,1
/home/daniel/Projects/ppsEvolution/data/maps/custom_maps/Custom_4_Run_0_Map.csv,squared_error,5.027920284237541e-06,0.5031,0.3592,0.000000,1.000000,0.188150,0.758732,0.017617,0.281914,0.928311,2.000000,1.000000,0.147925,0.207974,0.524223,1.000000,0.937771,0.159788,2.000000,125.000000,1.330000,35.529083,0.758732,4.505795,3.178181,9.354797,2.000000,300.000000,0.852838,38.324264,0.524223,200.000000,9.408827,2.438094,2.000000,2
/home/daniel/Projects/ppsEvolution/data/maps/custom_maps/Custom_4_Run_0_Map.csv,squared_error,8.141478762937035e-07,0.4987,0.3601,0.000000,1.000000,0.320695,0.707907,0.003446,0.030000,1.000000,2.000000,1.000000,0.000000,0.100426,0.600000,1.000000,0.973937,0.000000,0.000000,125.000000,1.330000,54.218048,0.707907,1.685656,0.785000,10.000000,2.000000,300.000000,0.770000,23.160036,0.600000,200.000000,9.752397,1.000000,0.000000,3
/home/daniel/Projects/ppsEvolution/data/maps/custom_maps/Custom_4_Run_0_Map.csv,squared_error,5.230963495030512e-07,0.4990,0.3601,0.000000,1.000000,0.210000,0.780487,0.109940,0.050632,0.931707,0.000000,1.000000,0.078230,0.000000,0.667067,1.000000,1.000000,0.021035,1.000000,125.000000,1.330000,38.610000,0.780487,22.878040,0.981009,9.385366,0.000000,300.000000,0.813809,9.000000,0.667067,200.000000,10.000000,1.189319,1.000000,4
/home/daniel/Projects/ppsEvolution/data/maps/custom_maps/Custom_4_Run_0_Map.csv,squared_error,4.008712140169035e-06,0.4973,0.3609,0.000000,1.000000,0.154183,0.800000,0.000000,0.000000,0.851647,0.000000,1.000000,0.000000,0.153476,0.600000,0.930645,0.966881,0.096487,1.000000,125.000000,1.330000,30.739773,0.800000,1.000000,0.500000,8.664822,0.000000,300.000000,0.770000,30.640101,0.600000,186.198362,9.685374,1.868381,1.000000,5
/home/daniel/Projects/ppsEvolution/data/maps/custom_maps/Custom_4_Run_0_Map.csv,squared_error,3.3230252454387366e-06,0.4999,0.3574,0.247548,0.853097,0.223155,0.738022,0.000000,0.000000,0.926383,0.000000,0.828086,0.159591,0.100934,0.661227,0.989788,0.933558,0.031249,2.000000,168.320935,1.247734,40.464842,0.738022,1.000000,0.500000,9.337448,0.000000,269.914985,0.859371,23.231638,0.661227,197.967852,9.368802,1.281241,2.000000,6
/home/daniel/Projects/ppsEvolution/data/maps/custom_maps/Custom_4_Run_0_Map.csv,squared_error,2.0282236736825583e-06,0.4980,0.3598,0.000000,0.846858,0.236409,0.744419,0.235118,0.000000,1.000000,2.000000,1.000000,0.000000,0.130046,0.592387,0.953747,0.951639,0.000513,0.000000,125.000000,1.244240,42.333715,0.744419,47.788573,0.500000,10.000000,2.000000,300.000000,0.770000,27.336436,0.592387,190.795743,9.540569,1.004621,0.000000,7
/home/daniel/Projects/ppsEvolution/data/maps/custom_maps/Custom_4_Run_0_Map.csv,squared_error,2.0425812965639976e-08,0.5002,0.3599,0.372940,0.911720,0.000000,0.807251,0.000000,0.092981,1.000000,2.000000,0.905005,0.006421,0.232260,0.636221,0.750736,0.960754,0.135826,0.000000,190.264424,1.280563,9.000000,0.807251,1.000000,1.383320,10.000000,2.000000,283.375904,0.773596,41.748711,0.636221,150.396553,9.627166,2.222434,0.000000,8
/home/daniel/Projects/ppsEvolution/data/maps/custom_maps/Custom_4_Run_0_Map.csv,squared_error,7.472660378084501e-07,0.4989,0.3594,0.000000,1.000000,0.097163,0.822414,0.171238,0.128570,1.000000,0.000000,1.000000,0.000000,0.273299,0.558145,0.982755,0.946076,0.000000,0.000000,125.000000,1.330000,22.700018,0.822414,35.076326,1.721415,10.000000,0.000000,300.000000,0.770000,47.535095,0.558145,196.568168,9.487723,1.000000,0.000000,9
map,fitness,fitness value,team0ratio,time,HP,Speed,Damage,Acc,ClipSize,RateOfFire,NrBullets,Range,HP,Speed,Damage,Acc,ClipSize,RateOfFire,NrBullets,Range,HP,Speed,Damage,Acc,ClipSize,RateOfFire,NrBullets,Range,HP,Speed,Damage,Acc,ClipSize,RateOfFire,NrBullets,Range,Run,target team0ratio: 0.5,target time: 0.36
/home/daniel/Projects/ppsEvolution/data/maps/custom_maps/Custom_5_Run_0_Map.csv,squared_error,6.325425694655043e-07,0.4989,0.3604,0.251162,0.983915,0.254248,1.000000,0.016042,0.000000,0.947367,1.000000,1.000000,0.059116,0.015557,1.000000,0.807583,1.000000,0.251572,0.000000,168.953410,1.320993,44.848967,1.000000,4.192438,0.500000,9.526304,1.000000,300.000000,0.803105,11.193591,1.000000,161.709086,10.000000,3.264151,0.000000,0
/home/daniel/Projects/ppsEvolution/data/maps/custom_maps/Custom_5_Run_0_Map.csv,squared_error,9.176252168032419e-07,0.4989,0.3609,0.052585,0.993574,0.146999,0.976511,0.000000,0.359688,0.701500,2.000000,0.681677,0.000000,0.063429,0.962504,0.871179,0.916126,0.044212,2.000000,134.202452,1.326401,29.726853,0.976511,1.000000,3.917038,7.313501,2.000000,244.293423,0.770000,17.943528,0.962504,174.364592,9.203198,1.397907,2.000000,1
/home/daniel/Projects/ppsEvolution/data/maps/custom_maps/Custom_5_Run_0_Map.csv,squared_error,4.6695613537224764e-07,0.5009,0.3604,0.259451,0.931422,0.270287,1.000000,0.000000,0.113141,0.705293,0.000000,0.767912,0.093247,0.056171,1.000000,0.828833,0.559695,0.073889,0.000000,170.403867,1.291596,47.110497,1.000000,1.000000,1.574842,7.347635,0.000000,259.384579,0.822218,16.920047,1.000000,165.937711,5.817102,1.664997,0.000000,2
/home/daniel/Projects/ppsEvolution/data/maps/custom_maps/Custom_5_Run_0_Map.csv,squared_error,3.544703777748822e-07,0.4995,0.3606,0.044866,1.000000,0.358068,1.000000,0.166656,0.000000,0.823395,0.000000,0.975370,0.225919,0.052512,0.985940,0.975315,1.000000,0.000000,1.000000,132.851487,1.330000,59.487612,1.000000,34.164640,0.500000,8.410554,0.000000,295.689801,0.896515,16.404218,0.985940,195.087688,10.000000,1.000000,1.000000,3
/home/daniel/Projects/ppsEvolution/data/maps/custom_maps/Custom_5_Run_0_Map.csv,squared_error,2.0470675833124222e-07,0.4994,0.3601,0.416593,0.691395,0.000000,1.000000,0.258879,0.106931,0.911591,2.000000,0.685957,0.096717,0.100780,1.000000,0.639003,0.986399,0.158103,1.000000,197.903852,1.157181,9.000000,1.000000,52.516936,1.515848,9.204318,2.000000,245.042554,0.824162,23.209997,1.000000,128.161566,9.870792,2.422927,1.000000,4
/home/daniel/Projects/ppsEvolution/data/maps/custom_maps/Custom_5_Run_0_Map.csv,squared_error,1.2149617378789003e-06,0.4985,0.3604,0.030812,0.763799,0.823588,0.866378,0.254759,0.000000,0.972342,1.000000,0.862437,0.222339,0.000000,0.925277,0.479936,1.000000,0.086896,2.000000,130.392037,1.197727,125.125965,0.866378,51.697009,0.500000,9.751074,1.000000,275.926499,0.894510,9.000000,0.925277,96.507277,10.000000,1.782061,2.000000,5
/home/daniel/Projects/ppsEvolution/data/maps/custom_maps/Custom_5_Run_0_Map.csv,squared_error,3.854851021635789e-07,0.5007,0.3595,0.205485,0.980632,0.177264,1.000000,0.000000,0.159230,1.000000,0.000000,0.701882,0.024279,0.000000,1.000000,0.738258,0.954377,0.007861,1.000000,160.959790,1.319154,33.994250,1.000000,1.000000,2.012682,10.000000,0.000000,247.829342,0.783596,9.000000,1.000000,147.913286,9.566580,1.070749,1.000000,6
/home/daniel/Projects/ppsEvolution/data/maps/custom_maps/Custom_5_Run_0_Map.csv,squared_error,7.03099074741023e-08,0.4999,0.3604,0.242269,0.738936,0.206371,1.000000,0.120542,0.070351,0.812774,1.000000,0.904095,0.187480,0.012284,1.000000,0.971886,0.937353,0.268139,1.000000,167.397138,1.183804,38.098246,1.000000,24.987885,1.168336,8.314966,1.000000,283.216545,0.874989,10.732040,1.000000,194.405231,9.404855,3.413250,1.000000,7
/home/daniel/Projects/ppsEvolution/data/maps/custom_maps/Custom_5_Run_0_Map.csv,squared_error,4.5984016208607175e-07,0.5009,0.3604,0.059411,0.803141,0.230434,1.000000,0.166743,0.083933,0.981046,1.000000,1.000000,0.091595,0.157553,0.954948,1.000000,0.359758,0.244215,2.000000,135.396917,1.219759,41.491148,1.000000,34.181814,1.297366,9.829410,1.000000,300.000000,0.821293,31.215031,0.954948,200.000000,3.917704,3.197937,2.000000,8
/home/daniel/Projects/ppsEvolution/data/maps/custom_maps/Custom_5_Run_0_Map.csv,squared_error,9.474615283579453e-07,0.4995,0.3587,0.238027,1.000000,0.146399,1.000000,0.000000,0.000000,0.960357,1.000000,0.827296,0.034806,0.000000,1.000000,1.000000,1.000000,0.000000,2.000000,166.654709,1.330000,29.642197,1.000000,1.000000,0.500000,9.643211,1.000000,269.776885,0.789492,9.000000,1.000000,200.000000,10.000000,1.000000,2.000000,9
map,fitness,fitness value,team0ratio,time,HP,Speed,Damage,Acc,ClipSize,RateOfFire,NrBullets,Range,HP,Speed,Damage,Acc,ClipSize,RateOfFire,NrBullets,Range,HP,Speed,Damage,Acc,ClipSize,RateOfFire,NrBullets,Range,HP,Speed,Damage,Acc,ClipSize,RateOfFire,NrBullets,Range,Run,target team0ratio: 0.5,target time: 0.36
/home/daniel/Projects/ppsEvolution/data/maps/custom_maps/Custom_6_Run_0_Map.csv,squared_error,0.008210573960546978,0.4586,0.4813,0.000000,0.791449,0.000000,1.000000,0.000000,0.000000,1.000000,2.000000,1.000000,0.291273,1.000000,0.900706,0.811090,0.970030,1.000000,2.000000,125.000000,1.213211,9.000000,1.000000,1.000000,0.500000,10.000000,2.000000,300.000000,0.933113,150.000000,0.900706,162.406978,9.715281,10.000000,2.000000,0
/home/daniel/Projects/ppsEvolution/data/maps/custom_maps/Custom_6_Run_0_Map.csv,squared_error,0.008076862319633624,0.4578,0.4799,0.026326,0.988879,0.000000,1.000000,0.000000,0.000000,0.751340,2.000000,1.000000,0.000000,0.967120,0.909041,0.984772,0.994893,1.000000,2.000000,129.607046,1.323772,9.000000,1.000000,1.000000,0.500000,7.762058,2.000000,300.000000,0.770000,145.363869,0.909041,196.969627,9.951482,10.000000,2.000000,1
/home/daniel/Projects/ppsEvolution/data/maps/custom_maps/Custom_6_Run_0_Map.csv,squared_error,0.008144706628797047,0.4647,0.4826,0.000000,0.928262,0.000000,1.000000,0.000000,0.032048,0.682082,2.000000,1.000000,0.686619,0.927258,0.905153,0.883537,1.000000,1.000000,2.000000,125.000000,1.289826,9.000000,1.000000,1.000000,0.804455,7.138736,2.000000,300.000000,1.154507,139.743399,0.905153,176.823800,10.000000,10.000000,2.000000,2
/home/daniel/Projects/ppsEvolution/data/maps/custom_maps/Custom_6_Run_0_Map.csv,squared_error,0.008234687469625787,0.4637,0.4831,0.161133,0.874681,0.000000,1.000000,0.000000,0.000000,0.721886,2.000000,1.000000,0.068619,1.000000,0.913223,1.000000,0.917269,0.873952,2.000000,153.198270,1.259821,9.000000,1.000000,1.000000,0.500000,7.496976,2.000000,300.000000,0.808427,150.000000,0.913223,200.000000,9.214056,8.865567,2.000000,3
/home/daniel/Projects/ppsEvolution/data/maps/custom_maps/Custom_6_Run_0_Map.csv,squared_error,0.008121532402160177,0.4684,0.4835,0.085861,0.964051,0.000000,1.000000,0.096652,0.000000,1.000000,2.000000,0.995187,0.250434,1.000000,0.902640,0.933889,1.000000,1.000000,2.000000,140.025590,1.309869,9.000000,1.000000,20.233832,0.500000,10.000000,2.000000,299.157790,0.910243,150.000000,0.902640,186.843894,10.000000,10.000000,2.000000,4
/home/daniel/Projects/ppsEvolution/data/maps/custom_maps/Custom_6_Run_0_Map.csv,squared_error,0.008042476872704308,0.4738,0.4841,0.250256,0.956543,0.000000,1.000000,0.000000,0.000000,0.374815,2.000000,1.000000,0.166841,1.000000,0.918666,1.000000,0.996186,1.000000,2.000000,168.794792,1.305664,9.000000,1.000000,1.000000,0.500000,4.373339,2.000000,300.000000,0.863431,150.000000,0.918666,200.000000,9.963768,10.000000,2.000000,5
/home/daniel/Projects/ppsEvolution/data/maps/custom_maps/Custom_6_Run_0_Map.csv,squared_error,0.008056017056300087,0.4615,0.4810,0.000000,1.000000,0.000000,1.000000,0.000000,0.066264,0.850902,2.000000,1.000000,0.262389,1.000000,0.899231,0.993493,1.000000,1.000000,2.000000,125.000000,1.330000,9.000000,1.000000,1.000000,1.129512,8.658117,2.000000,300.000000,0.916938,150.000000,0.899231,198.705015,10.000000,10.000000,2.000000,6
/home/daniel/Projects/ppsEvolution/data/maps/custom_maps/Custom_6_Run_0_Map.csv,squared_error,0.008184359814755628,0.4588,0.4811,0.099443,0.837018,0.000000,1.000000,0.023996,0.000000,0.825501,2.000000,1.000000,0.179082,1.000000,0.911464,0.999089,0.943083,0.949423,2.000000,142.402557,1.238730,9.000000,1.000000,5.775300,0.500000,8.429511,2.000000,300.000000,0.870286,150.000000,0.911464,199.818702,9.459289,9.544807,2.000000,7
/home/daniel/Projects/ppsEvolution/data/maps/custom_maps/Custom_6_Run_0_Map.csv,squared_error,0.008668141387209293,0.4689,0.4879,0.000000,1.000000,0.000000,1.000000,0.046082,0.000000,0.935319,2.000000,1.000000,0.643015,0.983332,0.891636,0.772395,0.988996,0.434810,2.000000,125.000000,1.330000,9.000000,1.000000,10.170340,0.500000,9.417870,2.000000,300.000000,1.130088,147.649835,0.891636,154.706602,9.895459,4.913287,2.000000,8
/home/daniel/Projects/ppsEvolution/data/maps/custom_maps/Custom_6_Run_0_Map.csv,squared_error,0.008702705886140387,0.4587,0.4853,0.052159,0.999399,0.000000,1.000000,0.010722,0.053743,0.779554,2.000000,1.000000,0.283300,1.000000,0.904859,1.000000,1.000000,0.256055,2.000000,134.127741,1.329664,9.000000,1.000000,3.133693,1.010560,8.015985,2.000000,300.000000,0.928648,150.000000,0.904859,200.000000,10.000000,3.304497,2.000000,9
map,fitness,fitness value,team0ratio,time,HP,Speed,Damage,Acc,ClipSize,RateOfFire,NrBullets,Range,HP,Speed,Damage,Acc,ClipSize,RateOfFire,NrBullets,Range,HP,Speed,Damage,Acc,ClipSize,RateOfFire,NrBullets,Range,HP,Speed,Damage,Acc,ClipSize,RateOfFire,NrBullets,Range,Run,target team0ratio: 0.5,target time: 0.36
/home/daniel/Projects/ppsEvolution/data/maps/custom_maps/Custom_7_Run_0_Map.csv,squared_error,8.201418097321929e-07,0.5006,0.3611,0.063648,0.852188,0.260903,1.000000,0.161064,0.107160,0.998608,1.000000,0.883001,0.000000,0.000000,1.000000,1.000000,0.814509,0.000000,1.000000,136.138363,1.247225,45.787345,1.000000,33.051701,1.518024,9.987468,1.000000,279.525112,0.770000,9.000000,1.000000,200.000000,8.237832,1.000000,1.000000,0
/home/daniel/Projects/ppsEvolution/data/maps/custom_maps/Custom_7_Run_0_Map.csv,squared_error,5.222157132102823e-07,0.4993,0.3607,0.000000,0.879355,0.321808,0.989279,0.555715,0.000000,0.892791,2.000000,0.820328,0.333170,0.000000,1.000000,1.000000,0.621474,0.417878,0.000000,125.000000,1.262439,54.374890,0.989279,111.587357,0.500000,9.035122,2.000000,268.557404,0.956575,9.000000,1.000000,200.000000,6.404007,4.760902,0.000000,1
/home/daniel/Projects/ppsEvolution/data/maps/custom_maps/Custom_7_Run_0_Map.csv,squared_error,5.512385932917231e-07,0.5008,0.3607,0.198334,0.976378,0.034685,1.000000,0.273735,0.000000,0.675896,2.000000,0.854547,0.058137,0.000000,1.000000,0.808852,0.847647,0.207243,2.000000,159.708409,1.316772,13.890582,1.000000,55.473202,0.500000,7.083066,2.000000,274.545801,0.802557,9.000000,1.000000,161.961643,8.552649,2.865183,2.000000,2
/home/daniel/Projects/ppsEvolution/data/maps/custom_maps/Custom_7_Run_0_Map.csv,squared_error,1.6468033652757084e-07,0.4995,0.3603,0.020816,0.899215,0.300277,0.991568,0.000000,0.002977,0.913465,2.000000,0.893573,0.423679,0.000000,1.000000,0.685889,0.840357,0.190605,0.000000,128.642852,1.273561,51.338994,0.991568,1.000000,0.528280,9.221183,2.000000,281.375316,1.007260,9.000000,1.000000,137.491899,8.483388,2.715445,0.000000,3
/home/daniel/Projects/ppsEvolution/data/maps/custom_maps/Custom_7_Run_0_Map.csv,squared_error,8.64388123651608e-07,0.4992,0.3611,0.000000,1.000000,0.336209,0.985656,0.000000,0.000000,1.000000,2.000000,0.828103,0.072788,0.000000,1.000000,0.918436,0.909647,0.000000,0.000000,125.000000,1.330000,56.405515,0.985656,1.000000,0.500000,10.000000,2.000000,269.918112,0.810761,9.000000,1.000000,183.768689,9.141650,1.000000,0.000000,4
/home/daniel/Projects/ppsEvolution/data/maps/custom_maps/Custom_7_Run_0_Map.csv,squared_error,1.5987576780453356e-06,0.4998,0.3582,0.192239,0.699220,0.252663,1.000000,0.223291,0.270145,0.811962,1.000000,0.922373,0.000000,0.071739,1.000000,0.957877,0.985419,0.000000,2.000000,158.641825,1.161563,44.625435,1.000000,45.434847,3.066377,8.307657,1.000000,286.415358,0.770000,19.115182,1.000000,191.617530,9.861483,1.000000,2.000000,5
/home/daniel/Projects/ppsEvolution/data/maps/custom_maps/Custom_7_Run_0_Map.csv,squared_error,6.493251660757084e-07,0.4992,0.3608,0.023854,0.869244,0.125605,1.000000,0.293120,0.142584,0.869479,1.000000,0.714035,0.147572,0.087089,0.983427,0.793243,0.757565,0.027281,1.000000,129.174403,1.256777,26.710369,1.000000,59.330837,1.854544,8.825312,1.000000,249.956112,0.852640,21.279494,0.983427,158.855456,7.696871,1.245531,1.000000,6
/home/daniel/Projects/ppsEvolution/data/maps/custom_maps/Custom_7_Run_0_Map.csv,squared_error,9.420931819505527e-07,0.4986,0.3599,0.031120,0.923966,0.143449,1.000000,0.033017,0.064175,1.000000,1.000000,0.937457,0.000000,0.097527,0.974191,1.000000,0.909498,0.319317,0.000000,130.446057,1.287421,29.226286,1.000000,7.570312,1.109662,10.000000,1.000000,289.054988,0.770000,22.751240,0.974191,200.000000,9.140232,3.873849,0.000000,7
/home/daniel/Projects/ppsEvolution/data/maps/custom_maps/Custom_7_Run_0_Map.csv,squared_error,8.319912654599358e-07,0.5004,0.3612,0.195367,0.932915,0.205435,1.000000,0.000000,0.000000,0.846352,1.000000,0.969918,0.000000,0.000000,1.000000,0.886909,0.836796,0.000000,2.000000,159.189214,1.292432,37.966300,1.000000,1.000000,0.500000,8.617170,1.000000,294.735573,0.770000,9.000000,1.000000,177.494792,8.449565,1.000000,2.000000,8
/home/daniel/Projects/ppsEvolution/data/maps/custom_maps/Custom_7_Run_0_Map.csv,squared_error,7.750371456396048e-07,0.4988,0.3603,0.228091,0.851177,0.078566,1.000000,0.106302,0.000000,0.819264,0.000000,1.000000,0.093743,0.232802,0.947668,0.845170,0.725313,0.198413,2.000000,164.915976,1.246659,20.077858,1.000000,22.154106,0.500000,8.373372,0.000000,300.000000,0.822496,41.825108,0.947668,169.188822,7.390477,2.785713,2.000000,9
map,fitness,fitness value,team0ratio,time,HP,Speed,Damage,Acc,ClipSize,RateOfFire,NrBullets,Range,HP,Speed,Damage,Acc,ClipSize,RateOfFire,NrBullets,Range,HP,Speed,Damage,Acc,ClipSize,RateOfFire,NrBullets,Range,HP,Speed,Damage,Acc,ClipSize,RateOfFire,NrBullets,Range,Run,target team0ratio: 0.5,target time: 0.36
/home/daniel/Projects/ppsEvolution/data/maps/custom_maps/Custom_8_Run_0_Map.csv,squared_error,9.586843405664107e-07,0.5014,0.3603,0.096163,0.841263,0.169577,0.841255,0.069331,0.031724,1.000000,0.000000,1.000000,0.218791,0.000000,0.752817,0.893727,0.865435,0.107736,1.000000,141.828610,1.241107,32.910363,0.841255,14.796841,0.801380,10.000000,0.000000,300.000000,0.892523,9.000000,0.752817,178.851685,8.721635,1.969626,1.000000,0
/home/daniel/Projects/ppsEvolution/data/maps/custom_maps/Custom_8_Run_0_Map.csv,squared_error,2.5871564328873986e-06,0.5019,0.3612,0.000000,0.913990,0.241991,0.803922,0.030000,0.000000,0.882352,1.000000,1.000000,0.000000,0.060201,0.698503,0.936957,1.000000,0.027223,2.000000,125.000000,1.281835,43.120687,0.803922,6.970000,0.500000,8.941172,1.000000,300.000000,0.770000,17.488356,0.698503,187.454531,10.000000,1.245009,2.000000,1
/home/daniel/Projects/ppsEvolution/data/maps/custom_maps/Custom_8_Run_0_Map.csv,squared_error,8.25788793963528e-07,0.4998,0.3613,0.014917,1.000000,0.462552,0.728945,0.358194,0.000000,0.718954,2.000000,1.000000,0.156952,0.087926,0.694515,1.000000,1.000000,0.000000,1.000000,127.610449,1.330000,74.219778,0.728945,72.280592,0.500000,7.470583,2.000000,300.000000,0.857893,21.397567,0.694515,200.000000,10.000000,1.000000,1.000000,2
/home/daniel/Projects/ppsEvolution/data/maps/custom_maps/Custom_8_Run_0_Map.csv,squared_error,1.8908139565844857e-06,0.4981,0.3604,0.031934,1.000000,0.253711,0.800000,0.092197,0.000000,1.000000,0.000000,0.934373,0.192315,0.445592,0.540273,0.983097,0.954162,0.000000,2.000000,130.588421,1.330000,44.773248,0.800000,19.347286,0.500000,10.000000,0.000000,288.515208,0.877697,71.828487,0.540273,196.636296,9.564534,1.000000,2.000000,3
/home/daniel/Projects/ppsEvolution/data/maps/custom_maps/Custom_8_Run_0_Map.csv,squared_error,8.6913486092751e-08,0.4997,0.3597,0.002834,1.000000,0.210000,0.782745,0.363610,0.337084,0.966818,0.000000,0.670781,0.219801,0.406284,0.561018,0.843494,0.969791,0.051600,1.000000,125.495991,1.330000,38.610000,0.782745,73.358428,3.702301,9.701362,0.000000,242.386607,0.893088,66.286060,0.561018,168.855272,9.713010,1.464404,1.000000,4
/home/daniel/Projects/ppsEvolution/data/maps/custom_maps/Custom_8_Run_0_Map.csv,squared_error,1.909464015557181e-06,0.5007,0.3582,0.020119,1.000000,0.273158,0.791316,0.000000,0.000000,1.000000,1.000000,1.000000,0.000000,0.159360,0.661639,1.000000,0.857285,0.000000,2.000000,128.520780,1.330000,47.515267,0.791316,1.000000,0.500000,10.000000,1.000000,300.000000,0.770000,31.469701,0.661639,200.000000,8.644210,1.000000,2.000000,5
/home/daniel/Projects/ppsEvolution/data/maps/custom_maps/Custom_8_Run_0_Map.csv,squared_error,1.2416650361686927e-07,0.5000,0.3605,0.008881,0.966206,0.360264,0.761517,0.371892,0.000000,0.881266,2.000000,0.997395,0.000000,0.147755,0.672902,0.963256,1.000000,0.000000,0.000000,126.554230,1.311076,59.797225,0.761517,75.006418,0.500000,8.931390,2.000000,299.544176,0.770000,29.833484,0.672902,192.688022,10.000000,1.000000,0.000000,6
/home/daniel/Projects/ppsEvolution/data/maps/custom_maps/Custom_8_Run_0_Map.csv,squared_error,9.554380353122865e-08,0.5004,0.3600,0.000000,0.946355,0.222972,0.797213,0.338856,0.151356,0.944695,2.000000,1.000000,0.086708,0.125954,0.657760,0.781245,0.552788,0.062497,2.000000,125.000000,1.299959,40.439107,0.797213,68.432334,1.937882,9.502253,2.000000,300.000000,0.818556,26.759578,0.657760,156.467657,5.751486,1.562473,2.000000,7
/home/daniel/Projects/ppsEvolution/data/maps/custom_maps/Custom_8_Run_0_Map.csv,squared_error,3.900677883268634e-06,0.4990,0.3626,0.090210,1.000000,0.210000,0.791602,0.072162,0.039039,0.973777,2.000000,1.000000,0.000000,0.073406,0.690315,0.911348,1.000000,0.131817,2.000000,140.786834,1.330000,38.610000,0.791602,15.360279,0.870872,9.763993,2.000000,300.000000,0.770000,19.350302,0.690315,182.358284,10.000000,2.186349,2.000000,8
/home/daniel/Projects/ppsEvolution/data/maps/custom_maps/Custom_8_Run_0_Map.csv,squared_error,6.626965425869047e-06,0.4986,0.3634,0.105821,0.878843,0.271071,0.769419,0.167803,0.000000,1.000000,2.000000,1.000000,0.154674,0.220707,0.630545,0.933181,0.953897,0.014358,2.000000,143.518707,1.262152,47.220959,0.769419,34.392716,0.500000,10.000000,2.000000,300.000000,0.856617,40.119672,0.630545,186.702953,9.562022,1.129222,2.000000,9
map,fitness,fitness value,team0ratio,time,HP,Speed,Damage,Acc,ClipSize,RateOfFire,NrBullets,Range,HP,Speed,Damage,Acc,ClipSize,RateOfFire,NrBullets,Range,HP,Speed,Damage,Acc,ClipSize,RateOfFire,NrBullets,Range,HP,Speed,Damage,Acc,ClipSize,RateOfFire,NrBullets,Range,Run,target team0ratio: 0.5,target time: 0.36
/home/daniel/Projects/ppsEvolution/data/maps/custom_maps/Custom_9_Run_0_Map.csv,squared_error,2.0009215485885346e-06,0.5001,0.3620,0.091923,0.782187,0.240634,0.712359,0.176619,0.038318,0.826868,1.000000,1.000000,0.000000,0.000000,0.659229,0.982029,0.928476,0.000000,2.000000,141.086597,1.208025,42.929331,0.712359,36.147187,0.864025,8.441812,1.000000,300.000000,0.770000,9.000000,0.659229,196.423710,9.320519,1.000000,2.000000,0
/home/daniel/Projects/ppsEvolution/data/maps/custom_maps/Custom_9_Run_0_Map.csv,squared_error,4.678535081672677e-06,0.4971,0.3610,0.000000,1.000000,0.197780,0.728274,0.171602,0.024597,0.916829,0.000000,0.902725,0.134949,0.134086,0.599592,1.000000,1.000000,0.000000,0.000000,125.000000,1.330000,36.887046,0.728274,35.148725,0.733671,9.251464,0.000000,282.976828,0.845572,27.906146,0.599592,200.000000,10.000000,1.000000,0.000000,1
/home/daniel/Projects/ppsEvolution/data/maps/custom_maps/Custom_9_Run_0_Map.csv,squared_error,3.204529509140056e-06,0.4983,0.3619,0.000000,1.000000,0.171612,0.762284,0.000000,0.103875,0.745588,0.000000,0.971072,0.178314,0.000000,0.662539,0.968399,0.781921,0.122771,0.000000,125.000000,1.330000,33.197288,0.762284,1.000000,1.486816,7.710295,0.000000,294.937618,0.869856,9.000000,0.662539,193.711442,7.928251,2.104939,0.000000,2
/home/daniel/Projects/ppsEvolution/data/maps/custom_maps/Custom_9_Run_0_Map.csv,squared_error,1.3539866846692162e-06,0.5004,0.3616,0.014047,0.948836,0.355649,0.654560,0.000000,0.030000,1.000000,1.000000,1.000000,0.047856,0.098497,0.600000,0.888332,0.975007,0.018524,0.000000,127.458191,1.301348,59.146568,0.654560,1.000000,0.785000,10.000000,1.000000,300.000000,0.796799,22.888147,0.600000,177.777996,9.762562,1.166714,0.000000,3
/home/daniel/Projects/ppsEvolution/data/maps/custom_maps/Custom_9_Run_0_Map.csv,squared_error,8.001779524093567e-07,0.4994,0.3611,0.044712,0.983638,0.113928,0.762056,0.410898,0.023164,0.935199,0.000000,0.937605,0.028067,0.348262,0.469094,1.000000,0.840076,0.130490,1.000000,132.824634,1.320837,25.063855,0.762056,82.768792,0.720059,9.416793,0.000000,289.080911,0.785717,58.104911,0.469094,200.000000,8.480722,2.174414,1.000000,4
/home/daniel/Projects/ppsEvolution/data/maps/custom_maps/Custom_9_Run_0_Map.csv,squared_error,1.0041404844997557e-06,0.4992,0.3588,0.067395,0.954976,0.000000,0.811554,0.000000,0.344016,0.887625,1.000000,1.000000,0.073691,0.349118,0.500509,1.000000,1.000000,0.069858,0.000000,136.794158,1.304787,9.000000,0.811554,1.000000,3.768149,8.988622,1.000000,300.000000,0.811267,58.225619,0.500509,200.000000,10.000000,1.628723,0.000000,5
/home/daniel/Projects/ppsEvolution/data/maps/custom_maps/Custom_9_Run_0_Map.csv,squared_error,6.012679729707429e-07,0.5007,0.3609,0.365040,1.000000,0.132768,0.756505,0.000000,0.004206,0.820857,0.000000,0.978296,0.000000,0.226844,0.620029,1.000000,0.993679,0.144620,2.000000,188.881926,1.330000,27.720342,0.756505,1.000000,0.539956,8.387717,0.000000,296.201802,0.770000,40.984985,0.620029,200.000000,9.939951,2.301578,2.000000,6
/home/daniel/Projects/ppsEvolution/data/maps/custom_maps/Custom_9_Run_0_Map.csv,squared_error,4.78007192259616e-07,0.5009,0.3604,0.000000,1.000000,0.030932,0.761314,0.352836,0.123296,0.828363,1.000000,0.774163,0.158246,0.066830,0.600000,1.000000,1.000000,0.329263,1.000000,125.000000,1.330000,13.361428,0.761314,71.214442,1.671313,8.455271,1.000000,260.478464,0.858618,18.423090,0.600000,200.000000,10.000000,3.963366,1.000000,7
/home/daniel/Projects/ppsEvolution/data/maps/custom_maps/Custom_9_Run_0_Map.csv,squared_error,1.1120437789237905e-06,0.4989,0.3610,0.109394,0.901413,0.063354,0.764314,0.280927,0.000000,0.979031,1.000000,0.906697,0.000000,0.000000,0.662260,1.000000,0.615835,0.084114,2.000000,144.143874,1.274791,17.932910,0.764314,56.904444,0.500000,9.811281,1.000000,283.671991,0.770000,9.000000,0.662260,200.000000,6.350437,1.757030,2.000000,8
/home/daniel/Projects/ppsEvolution/data/maps/custom_maps/Custom_9_Run_0_Map.csv,squared_error,8.86745206043504e-06,0.5029,0.3631,0.000000,1.000000,0.210000,0.717003,0.030000,0.030000,1.000000,1.000000,1.000000,0.054476,0.157753,0.552217,1.000000,1.000000,0.000000,1.000000,125.000000,1.330000,38.610000,0.717003,6.970000,0.785000,10.000000,1.000000,300.000000,0.800506,31.243174,0.552217,200.000000,10.000000,1.000000,1.000000,9
map,fitness,fitness value,team0ratio,time,HP,Speed,Damage,Acc,ClipSize,RateOfFire,NrBullets,Range,HP,Speed,Damage,Acc,ClipSize,RateOfFire,NrBullets,Range,HP,Speed,Damage,Acc,ClipSize,RateOfFire,NrBullets,Range,HP,Speed,Damage,Acc,ClipSize,RateOfFire,NrBullets,Range,Run,target team0ratio: 0.5,target time: 0.36
/home/daniel/Projects/ppsEvolution/data/maps/custom_maps/Custom_10_Run_0_Map.csv,squared_error,1.5666065453736375e-06,0.5008,0.3616,0.015677,0.885200,1.000000,1.000000,0.343296,0.000000,0.960367,2.000000,0.688072,0.000000,1.000000,1.000000,0.609739,0.679125,0.000000,1.000000,127.743425,1.265712,150.000000,1.000000,69.315942,0.500000,9.643306,2.000000,245.412627,0.770000,150.000000,1.000000,122.338130,6.951685,1.000000,1.000000,0
/home/daniel/Projects/ppsEvolution/data/maps/custom_maps/Custom_10_Run_0_Map.csv,squared_error,5.940964421348931e-07,0.5008,0.3607,0.000000,0.559859,0.515826,1.000000,0.283415,0.000000,0.946753,2.000000,0.000000,0.147628,1.000000,1.000000,1.000000,1.000000,0.493906,0.000000,125.000000,1.083521,81.731476,1.000000,57.399597,0.500000,9.520781,2.000000,125.000000,0.852672,150.000000,1.000000,200.000000,10.000000,5.445151,0.000000,1
/home/daniel/Projects/ppsEvolution/data/maps/custom_maps/Custom_10_Run_0_Map.csv,squared_error,4.566652947126129e-07,0.4993,0.3594,0.087191,1.000000,1.000000,0.980863,0.000000,0.392993,0.511630,2.000000,0.375397,0.227268,1.000000,1.000000,0.395568,0.291068,0.302361,1.000000,140.258343,1.330000,150.000000,0.980863,1.000000,4.233429,5.604668,2.000000,190.694434,0.897270,150.000000,1.000000,79.718086,3.265149,3.721245,1.000000,2
/home/daniel/Projects/ppsEvolution/data/maps/custom_maps/Custom_10_Run_0_Map.csv,squared_error,5.071693779747507e-07,0.4990,0.3602,0.000000,0.908249,0.886840,0.981084,0.005189,0.113618,1.000000,2.000000,0.430800,0.000000,0.566843,1.000000,0.977763,0.614352,0.484392,2.000000,125.000000,1.278619,134.044392,0.981084,2.032631,1.579368,10.000000,2.000000,200.389931,0.770000,88.924880,1.000000,195.574906,6.336344,5.359531,2.000000,3
/home/daniel/Projects/ppsEvolution/data/maps/custom_maps/Custom_10_Run_0_Map.csv,squared_error,3.4665474492286347e-07,0.5007,0.3604,0.000000,0.875314,0.609652,1.000000,0.010478,0.501107,1.000000,2.000000,0.304430,0.000000,0.773253,1.000000,0.712681,0.997905,0.880131,2.000000,125.000000,1.260176,94.960995,1.000000,3.085079,5.260513,10.000000,2.000000,178.275260,0.770000,118.028711,1.000000,142.823424,9.980094,8.921179,2.000000,4
/home/daniel/Projects/ppsEvolution/data/maps/custom_maps/Custom_10_Run_0_Map.csv,squared_error,2.6284333151196243e-06,0.4999,0.3623,0.000000,0.591959,0.606025,1.000000,0.015062,0.020721,1.000000,2.000000,0.250849,0.000000,0.737726,1.000000,0.926299,0.694122,0.397514,2.000000,125.000000,1.101497,94.449564,1.000000,3.997329,0.696846,10.000000,2.000000,168.898502,0.770000,113.019406,1.000000,185.333494,7.094156,4.577625,2.000000,5
/home/daniel/Projects/ppsEvolution/data/maps/custom_maps/Custom_10_Run_0_Map.csv,squared_error,8.396238310616759e-07,0.4990,0.3592,0.000000,0.802865,0.634825,1.000000,0.127013,0.071314,1.000000,2.000000,0.135723,0.079226,0.968662,1.000000,0.860218,0.705705,0.240648,2.000000,125.000000,1.219604,98.510340,1.000000,26.275610,1.177486,10.000000,2.000000,148.751445,0.814367,145.581389,1.000000,172.183449,7.204193,3.165831,2.000000,6
/home/daniel/Projects/ppsEvolution/data/maps/custom_maps/Custom_10_Run_0_Map.csv,squared_error,5.964853948682944e-07,0.5011,0.3599,0.000000,1.000000,0.730281,1.000000,0.099667,0.178942,0.897654,2.000000,0.338752,0.000000,0.993772,1.000000,0.933525,0.802927,0.487562,1.000000,125.000000,1.330000,111.969626,1.000000,20.833757,2.199947,9.078883,2.000000,184.281671,0.770000,149.121873,1.000000,186.771530,8.127803,5.388060,1.000000,7
/home/daniel/Projects/ppsEvolution/data/maps/custom_maps/Custom_10_Run_0_Map.csv,squared_error,4.044493642709432e-07,0.5001,0.3609,0.000000,0.588323,0.487820,1.000000,0.000000,0.360819,0.898909,2.000000,0.104375,0.314739,0.795934,1.000000,1.000000,0.966172,0.909312,2.000000,125.000000,1.099461,77.782582,1.000000,1.000000,3.927785,9.090178,2.000000,143.265630,0.946254,121.226695,1.000000,200.000000,9.678632,9.183804,2.000000,8
/home/daniel/Projects/ppsEvolution/data/maps/custom_maps/Custom_10_Run_0_Map.csv,squared_error,2.3942137755341487e-06,0.5014,0.3617,0.048666,1.000000,1.000000,1.000000,0.000000,0.186486,1.000000,2.000000,0.750622,0.018274,0.628275,1.000000,0.922290,0.273475,0.000000,2.000000,133.516506,1.330000,150.000000,1.000000,1.000000,2.271620,10.000000,2.000000,256.358918,0.780234,97.586828,1.000000,184.535749,3.098012,1.000000,2.000000,9
