/home/daniel/Projects/ppsEvolution/data/maps/custom_maps/Custom_1_Run_0_Map.csv,0.000000,0.573035,0.320004,1.000000,0.018061,0.000000,1.000000,2.000000,0.309345,0.000000,1.000000,1.000000,0.972212,0.756376,1.000000,2.000000
/home/daniel/Projects/ppsEvolution/data/maps/custom_maps/Custom_1_Run_0_Map.csv,0.000000,0.454882,0.518667,1.000000,0.012313,0.022906,0.996609,2.000000,0.543337,0.000000,1.000000,1.000000,1.000000,0.412493,0.982492,2.000000
/home/daniel/Projects/ppsEvolution/data/maps/custom_maps/Custom_1_Run_0_Map.csv,0.000000,1.000000,0.585128,1.000000,0.036287,0.152395,0.959749,2.000000,0.699435,0.344271,0.995972,1.000000,0.530289,0.574205,0.174061,2.000000
/home/daniel/Projects/ppsEvolution/data/maps/custom_maps/Custom_1_Run_0_Map.csv,0.016717,0.526240,0.173817,1.000000,0.075136,0.000000,1.000000,2.000000,0.000000,0.000000,1.000000,1.000000,0.869211,0.737547,0.288234,2.000000
/home/daniel/Projects/ppsEvolution/data/maps/custom_maps/Custom_1_Run_0_Map.csv,0.058970,1.000000,0.526339,1.000000,0.092496,0.038366,1.000000,2.000000,0.636348,0.010010,1.000000,1.000000,0.983787,0.699337,0.529433,2.000000
/home/daniel/Projects/ppsEvolution/data/maps/custom_maps/Custom_1_Run_0_Map.csv,0.000000,0.188219,0.261314,1.000000,0.058592,0.173318,0.930148,2.000000,0.144699,0.589658,0.982194,1.000000,0.989030,0.566268,1.000000,2.000000
/home/daniel/Projects/ppsEvolution/data/maps/custom_maps/Custom_1_Run_0_Map.csv,0.000000,0.735690,0.743200,1.000000,0.126633,0.383928,1.000000,1.000000,0.711456,0.127145,1.000000,1.000000,0.938426,0.328530,0.098074,2.000000
/home/daniel/Projects/ppsEvolution/data/maps/custom_maps/Custom_1_Run_0_Map.csv,0.012468,0.367209,0.534712,1.000000,0.059214,0.041586,1.000000,2.000000,0.752419,0.152462,1.000000,1.000000,0.873906,1.000000,0.780527,2.000000
/home/daniel/Projects/ppsEvolution/data/maps/custom_maps/Custom_1_Run_0_Map.csv,0.041409,0.603135,0.842506,1.000000,0.232254,0.084683,1.000000,2.000000,1.000000,0.075562,1.000000,1.000000,0.869466,0.267144,0.184475,2.000000
/home/daniel/Projects/ppsEvolution/data/maps/custom_maps/Custom_1_Run_0_Map.csv,0.000000,0.428556,0.271560,1.000000,0.000000,0.188284,0.984263,2.000000,0.159923,0.708416,1.000000,0.995912,0.997428,0.446194,0.818533,2.000000
/home/daniel/Projects/ppsEvolution/data/maps/custom_maps/Custom_2_Run_0_Map.csv,0.004527,1.000000,0.588421,1.000000,0.081709,0.000000,0.820643,2.000000,0.849013,0.495851,0.977904,1.000000,1.000000,0.881582,1.000000,2.000000
/home/daniel/Projects/ppsEvolution/data/maps/custom_maps/Custom_2_Run_0_Map.csv,0.000000,0.777858,0.665743,1.000000,0.145926,0.538590,1.000000,2.000000,1.000000,0.617776,0.987905,1.000000,1.000000,0.918618,0.894196,2.000000
/home/daniel/Projects/ppsEvolution/data/maps/custom_maps/Custom_2_Run_0_Map.csv,0.000000,1.000000,0.545448,1.000000,0.165179,0.243536,1.000000,2.000000,0.695348,0.752665,1.000000,1.000000,0.866823,0.989966,0.984239,2.000000
/home/daniel/Projects/ppsEvolution/data/maps/custom_maps/Custom_2_Run_0_Map.csv,0.014507,1.000000,0.665968,1.000000,0.185691,0.098587,1.000000,2.000000,0.938910,0.191606,1.000000,1.000000,0.839718,0.751459,0.681033,2.000000
/home/daniel/Projects/ppsEvolution/data/maps/custom_maps/Custom_2_Run_0_Map.csv,0.026445,0.973105,0.448745,1.000000,0.141249,0.310931,1.000000,2.000000,0.605547,1.000000,1.000000,1.000000,1.000000,0.898774,1.000000,2.000000
/home/daniel/Projects/ppsEvolution/data/maps/custom_maps/Custom_2_Run_0_Map.csv,0.000000,0.603818,0.687808,1.000000,0.189683,0.226979,0.960956,2.000000,0.908463,0.394324,0.978061,1.000000,0.875741,1.000000,0.968613,2.000000
/home/daniel/Projects/ppsEvolution/data/maps/custom_maps/Custom_2_Run_0_Map.csv,0.031254,0.814962,0.867762,1.000000,0.000000,0.049099,0.915392,2.000000,1.000000,0.083824,1.000000,1.000000,0.872461,0.690691,0.971040,2.000000
/home/daniel/Projects/ppsEvolution/data/maps/custom_maps/Custom_2_Run_0_Map.csv,0.021776,1.000000,0.505911,1.000000,0.194415,0.029401,0.886423,2.000000,0.685680,0.480578,1.000000,1.000000,0.372385,0.856838,1.000000,2.000000
/home/daniel/Projects/ppsEvolution/data/maps/custom_maps/Custom_2_Run_0_Map.csv,0.001745,0.813718,0.785598,1.000000,0.187822,0.050276,1.000000,2.000000,1.000000,0.000000,1.000000,1.000000,1.000000,0.890350,1.000000,2.000000
/home/daniel/Projects/ppsEvolution/data/maps/custom_maps/Custom_2_Run_0_Map.csv,0.000000,0.660560,0.675363,1.000000,0.091746,0.000000,0.687472,2.000000,1.000000,0.270171,1.000000,0.996705,1.000000,0.998319,0.960707,2.000000
/home/daniel/Projects/ppsEvolution/data/maps/custom_maps/Custom_3_Run_0_Map.csv,0.021219,0.327314,0.838668,0.976210,0.037344,0.612196,0.981750,2.000000,0.020891,0.796414,1.000000,1.000000,0.937345,0.171872,0.808253,2.000000
/home/daniel/Projects/ppsEvolution/data/maps/custom_maps/Custom_3_Run_0_Map.csv,0.000000,0.000000,0.953504,0.981737,0.000000,0.539817,1.000000,2.000000,0.057686,0.196131,0.996398,1.000000,0.602488,0.016116,0.851996,2.000000
/home/daniel/Projects/ppsEvolution/data/maps/custom_maps/Custom_3_Run_0_Map.csv,0.036293,0.617625,0.869521,0.980274,0.087579,0.021690,1.000000,2.000000,0.041260,0.147874,1.000000,1.000000,0.955596,0.000000,0.924924,2.000000
/home/daniel/Projects/ppsEvolution/data/maps/custom_maps/Custom_3_Run_0_Map.csv,0.010529,0.550227,0.777759,0.985449,0.228644,0.000000,0.983864,2.000000,0.128345,0.244325,1.000000,1.000000,1.000000,0.654622,1.000000,2.000000
/home/daniel/Projects/ppsEvolution/data/maps/custom_maps/Custom_3_Run_0_Map.csv,0.000000,0.930340,0.661826,1.000000,0.000000,0.801417,1.000000,2.000000,0.000000,0.493435,1.000000,1.000000,0.580131,0.374420,1.000000,2.000000
/home/daniel/Projects/ppsEvolution/data/maps/custom_maps/Custom_3_Run_0_Map.csv,0.001737,0.298778,0.837788,0.982637,0.000000,0.000000,1.000000,2.000000,0.218617,0.394180,0.989212,1.000000,0.789509,0.466624,0.931771,2.000000
/home/daniel/Projects/ppsEvolution/data/maps/custom_maps/Custom_3_Run_0_Map.csv,0.022850,0.549491,0.878565,1.000000,0.030194,0.137805,1.000000,2.000000,0.183993,0.052227,0.970610,1.000000,1.000000,0.065986,0.924875,2.000000
/home/daniel/Projects/ppsEvolution/data/maps/custom_maps/Custom_3_Run_0_Map.csv,0.000000,1.000000,1.000000,0.986085,0.187439,0.066964,1.000000,2.000000,0.241517,0.000000,1.000000,1.000000,0.657401,0.497440,0.734748,2.000000
/home/daniel/Projects/ppsEvolution/data/maps/custom_maps/Custom_3_Run_0_Map.csv,0.000000,0.987236,0.967518,0.970113,0.196465,0.069367,1.000000,2.000000,0.175078,0.247212,0.952638,1.000000,0.022947,1.000000,0.476150,2.000000
/home/daniel/Projects/ppsEvolution/data/maps/custom_maps/Custom_3_Run_0_Map.csv,0.000000,0.775782,1.000000,0.988638,0.296633,0.007433,1.000000,2.000000,0.000000,0.000000,1.000000,1.000000,0.951892,0.040232,0.660959,2.000000
/home/daniel/Projects/ppsEvolution/data/maps/custom_maps/Custom_4_Run_0_Map.csv,0.052882,1.000000,0.723349,0.991593,0.087661,0.117846,1.000000,2.000000,0.036917,0.811609,1.000000,1.000000,0.966638,0.843907,0.672726,2.000000
/home/daniel/Projects/ppsEvolution/data/maps/custom_maps/Custom_4_Run_0_Map.csv,0.000668,0.829029,0.858516,1.000000,0.000000,0.209621,0.992626,2.000000,0.450629,0.575434,1.000000,1.000000,0.736900,0.908022,0.983557,2.000000
/home/daniel/Projects/ppsEvolution/data/maps/custom_maps/Custom_4_Run_0_Map.csv,0.028835,0.958243,0.736252,1.000000,0.000000,0.000000,0.908656,2.000000,0.114128,0.168719,0.956988,1.000000,0.580111,0.000000,0.375254,2.000000
/home/daniel/Projects/ppsEvolution/data/maps/custom_maps/Custom_4_Run_0_Map.csv,0.000000,0.487840,1.000000,0.995489,0.118735,0.017577,1.000000,2.000000,0.559095,0.050506,0.962377,1.000000,0.849046,0.847406,0.256728,2.000000
/home/daniel/Projects/ppsEvolution/data/maps/custom_maps/Custom_4_Run_0_Map.csv,0.000000,1.000000,0.896736,1.000000,0.072688,0.045068,1.000000,2.000000,0.365340,0.408426,0.968364,1.000000,0.851714,0.044912,0.839473,2.000000
/home/daniel/Projects/ppsEvolution/data/maps/custom_maps/Custom_4_Run_0_Map.csv,0.000000,1.000000,0.753485,1.000000,0.000000,0.176915,1.000000,2.000000,0.175898,0.179122,1.000000,1.000000,0.914523,0.548101,1.000000,2.000000
/home/daniel/Projects/ppsEvolution/data/maps/custom_maps/Custom_4_Run_0_Map.csv,0.001188,0.297363,0.842980,1.000000,0.000000,0.000000,1.000000,2.000000,0.414960,0.210075,0.808619,1.000000,0.904585,0.792945,0.450993,2.000000
/home/daniel/Projects/ppsEvolution/data/maps/custom_maps/Custom_4_Run_0_Map.csv,0.000000,0.616037,0.720681,1.000000,0.039602,0.201986,0.952086,2.000000,0.000000,0.000000,1.000000,1.000000,0.963111,0.197435,0.269100,2.000000
/home/daniel/Projects/ppsEvolution/data/maps/custom_maps/Custom_4_Run_0_Map.csv,0.000000,0.918585,0.915986,1.000000,0.166419,0.094942,1.000000,2.000000,0.323166,0.876270,1.000000,1.000000,1.000000,0.057099,0.780023,2.000000
/home/daniel/Projects/ppsEvolution/data/maps/custom_maps/Custom_4_Run_0_Map.csv,0.000000,0.809112,0.791949,0.995328,0.085891,0.309026,1.000000,2.000000,0.131941,0.091058,0.983495,1.000000,0.905808,0.823078,0.319969,2.000000
/home/daniel/Projects/ppsEvolution/data/maps/custom_maps/Custom_5_Run_0_Map.csv,0.175742,0.905293,1.000000,0.961764,0.102732,0.135641,1.000000,2.000000,0.000000,0.006613,0.850408,1.000000,0.709722,0.633320,0.209078,2.000000
/home/daniel/Projects/ppsEvolution/data/maps/custom_maps/Custom_5_Run_0_Map.csv,0.118470,0.848011,1.000000,0.983211,0.090751,0.612564,1.000000,2.000000,0.000000,0.173340,1.000000,1.000000,0.163762,0.000000,0.424790,2.000000
/home/daniel/Projects/ppsEvolution/data/maps/custom_maps/Custom_5_Run_0_Map.csv,0.211299,0.520845,1.000000,0.979732,0.000000,0.288716,1.000000,2.000000,0.000000,0.000000,0.881077,1.000000,0.176809,0.058154,0.550314,2.000000
/home/daniel/Projects/ppsEvolution/data/maps/custom_maps/Custom_5_Run_0_Map.csv,0.239833,1.000000,1.000000,0.965469,0.031733,0.265290,1.000000,2.000000,0.040168,0.086202,0.849548,1.000000,0.890815,0.528894,0.121453,2.000000
/home/daniel/Projects/ppsEvolution/data/maps/custom_maps/Custom_5_Run_0_Map.csv,0.000000,0.790618,0.991183,0.981711,0.196131,0.710493,1.000000,2.000000,0.000000,0.000000,1.000000,1.000000,0.631159,0.007867,0.208333,2.000000
/home/daniel/Projects/ppsEvolution/data/maps/custom_maps/Custom_5_Run_0_Map.csv,0.040735,0.471147,1.000000,0.983388,0.503824,0.320912,0.944657,2.000000,0.000000,0.005663,0.862908,1.000000,0.545153,0.070924,0.229601,2.000000
/home/daniel/Projects/ppsEvolution/data/maps/custom_maps/Custom_5_Run_0_Map.csv,0.000000,0.845824,1.000000,0.980906,0.157696,0.379011,0.905136,2.000000,0.000000,0.000000,1.000000,1.000000,0.939894,0.000000,0.000000,0.000000
/home/daniel/Projects/ppsEvolution/data/maps/custom_maps/Custom_5_Run_0_Map.csv,0.113442,0.911173,1.000000,0.965897,0.138652,0.441110,1.000000,2.000000,0.000000,0.000000,0.891430,1.000000,0.852975,0.631899,0.350874,2.000000
/home/daniel/Projects/ppsEvolution/data/maps/custom_maps/Custom_5_Run_0_Map.csv,0.005610,0.557338,1.000000,0.972050,0.040991,0.065118,1.000000,2.000000,0.000000,0.011730,0.718005,1.000000,0.783029,0.168657,0.130248,2.000000
/home/daniel/Projects/ppsEvolution/data/maps/custom_maps/Custom_5_Run_0_Map.csv,0.000000,0.830517,0.948806,0.980895,0.000000,0.086997,1.000000,2.000000,0.000000,0.452685,0.996741,1.000000,1.000000,0.213011,0.198002,2.000000
/home/daniel/Projects/ppsEvolution/data/maps/custom_maps/Custom_6_Run_0_Map.csv,0.000000,0.528198,0.000000,1.000000,0.000000,0.296638,0.911803,2.000000,0.959253,0.307071,0.969968,0.958190,0.680175,0.972841,0.943285,2.000000
/home/daniel/Projects/ppsEvolution/data/maps/custom_maps/Custom_6_Run_0_Map.csv,0.038062,0.845264,0.000000,1.000000,0.000000,0.000000,0.637990,2.000000,1.000000,0.000000,1.000000,0.983734,0.839146,1.000000,0.576463,2.000000
/home/daniel/Projects/ppsEvolution/data/maps/custom_maps/Custom_6_Run_0_Map.csv,0.059936,0.616494,0.000000,1.000000,0.047424,0.000000,0.542669,2.000000,1.000000,0.328336,1.000000,0.964673,0.886929,0.793683,0.734069,2.000000
/home/daniel/Projects/ppsEvolution/data/maps/custom_maps/Custom_6_Run_0_Map.csv,0.095210,1.000000,0.000000,1.000000,0.188420,0.240595,0.474527,2.000000,1.000000,0.634820,0.899125,0.968656,0.792033,0.967863,0.941156,2.000000
/home/daniel/Projects/ppsEvolution/data/maps/custom_maps/Custom_6_Run_0_Map.csv,0.202306,0.868627,0.000000,1.000000,0.000000,0.595627,0.612307,2.000000,1.000000,0.141800,1.000000,1.000000,1.000000,1.000000,0.409548,2.000000
/home/daniel/Projects/ppsEvolution/data/maps/custom_maps/Custom_6_Run_0_Map.csv,0.000000,0.986774,0.000000,1.000000,0.000000,0.000000,0.821364,2.000000,1.000000,0.234433,0.914187,0.945552,1.000000,1.000000,0.410595,2.000000
/home/daniel/Projects/ppsEvolution/data/maps/custom_maps/Custom_6_Run_0_Map.csv,0.078508,0.826584,0.000000,1.000000,0.302222,0.365957,0.517825,2.000000,0.999576,0.657431,0.973889,0.976173,0.882315,0.907277,1.000000,2.000000
/home/daniel/Projects/ppsEvolution/data/maps/custom_maps/Custom_6_Run_0_Map.csv,0.000000,0.765033,0.007996,1.000000,0.065861,0.020438,0.501136,2.000000,1.000000,0.016068,0.991871,0.948184,0.931002,1.000000,0.627727,2.000000
/home/daniel/Projects/ppsEvolution/data/maps/custom_maps/Custom_6_Run_0_Map.csv,0.000000,1.000000,0.000000,1.000000,0.324443,0.181311,0.953719,2.000000,1.000000,0.426131,1.000000,0.935698,0.633113,0.999863,0.569587,2.000000
/home/daniel/Projects/ppsEvolution/data/maps/custom_maps/Custom_6_Run_0_Map.csv,0.000000,0.842661,0.000000,1.000000,0.041695,0.000000,0.000000,2.000000,1.000000,0.251801,0.971040,0.999941,0.839964,0.803733,1.000000,2.000000
/home/daniel/Projects/ppsEvolution/data/maps/custom_maps/Custom_7_Run_0_Map.csv,0.142114,0.633745,0.362432,1.000000,0.032967,0.636326,0.768240,2.000000,0.274205,0.087307,1.000000,1.000000,1.000000,0.590589,0.955257,2.000000
/home/daniel/Projects/ppsEvolution/data/maps/custom_maps/Custom_7_Run_0_Map.csv,0.006217,1.000000,0.564041,1.000000,0.000000,0.148835,1.000000,2.000000,0.698296,0.000000,1.000000,1.000000,0.500468,0.993539,0.743145,2.000000
/home/daniel/Projects/ppsEvolution/data/maps/custom_maps/Custom_7_Run_0_Map.csv,0.049010,0.828058,0.634204,1.000000,0.000000,0.199419,0.981666,2.000000,0.736133,0.697319,1.000000,1.000000,1.000000,1.000000,0.325404,2.000000
/home/daniel/Projects/ppsEvolution/data/maps/custom_maps/Custom_7_Run_0_Map.csv,0.000000,0.727704,0.579286,1.000000,0.000000,0.224307,1.000000,2.000000,0.613843,0.477095,1.000000,1.000000,1.000000,1.000000,1.000000,2.000000
/home/daniel/Projects/ppsEvolution/data/maps/custom_maps/Custom_7_Run_0_Map.csv,0.000000,0.827897,0.455448,1.000000,0.000000,0.314976,1.000000,2.000000,0.264432,0.537607,0.960980,1.000000,0.715174,0.904990,1.000000,2.000000
/home/daniel/Projects/ppsEvolution/data/maps/custom_maps/Custom_7_Run_0_Map.csv,0.101851,0.203553,0.533822,1.000000,0.042401,0.000000,1.000000,2.000000,0.629905,0.170180,1.000000,1.000000,0.921099,0.847638,0.689261,2.000000
/home/daniel/Projects/ppsEvolution/data/maps/custom_maps/Custom_7_Run_0_Map.csv,0.047355,1.000000,0.837026,1.000000,0.000000,0.004789,0.587609,2.000000,1.000000,0.165909,1.000000,1.000000,1.000000,0.658426,0.101633,2.000000
/home/daniel/Projects/ppsEvolution/data/maps/custom_maps/Custom_7_Run_0_Map.csv,0.099272,1.000000,0.423701,1.000000,0.043490,0.146055,1.000000,2.000000,0.382586,0.000000,1.000000,1.000000,0.888859,0.598028,0.802189,2.000000
/home/daniel/Projects/ppsEvolution/data/maps/custom_maps/Custom_7_Run_0_Map.csv,0.000000,0.937425,0.710822,1.000000,0.006768,0.000000,0.773403,2.000000,0.927042,0.252669,1.000000,1.000000,0.475620,0.771874,0.730609,2.000000
/home/daniel/Projects/ppsEvolution/data/maps/custom_maps/Custom_7_Run_0_Map.csv,0.055311,0.949899,0.619289,1.000000,0.000000,0.000000,0.937881,2.000000,0.737426,0.000000,1.000000,1.000000,0.215157,0.912217,0.342940,2.000000
/home/daniel/Projects/ppsEvolution/data/maps/custom_maps/Custom_8_Run_0_Map.csv,0.000000,0.971713,0.673332,1.000000,0.000000,0.203638,0.991063,2.000000,0.355403,0.190316,0.951133,1.000000,0.703591,1.000000,0.823609,2.000000
/home/daniel/Projects/ppsEvolution/data/maps/custom_maps/Custom_8_Run_0_Map.csv,0.000000,0.407732,0.775536,1.000000,0.217179,0.080469,0.915852,2.000000,0.462234,0.666554,1.000000,1.000000,0.616685,0.690729,0.872611,2.000000
/home/daniel/Projects/ppsEvolution/data/maps/custom_maps/Custom_8_Run_0_Map.csv,0.000000,0.370220,0.766006,1.000000,0.176329,0.280190,1.000000,2.000000,0.402069,0.292493,1.000000,1.000000,0.518546,0.353774,0.818570,2.000000
/home/daniel/Projects/ppsEvolution/data/maps/custom_maps/Custom_8_Run_0_Map.csv,0.000000,0.673000,0.633759,1.000000,0.000000,0.000000,1.000000,2.000000,0.294045,0.188342,0.947305,1.000000,0.902420,0.861905,0.373715,2.000000
/home/daniel/Projects/ppsEvolution/data/maps/custom_maps/Custom_8_Run_0_Map.csv,0.013883,0.746231,0.891578,1.000000,0.000282,0.342706,0.973253,2.000000,0.497376,0.620108,1.000000,1.000000,0.888279,0.468382,0.478437,2.000000
/home/daniel/Projects/ppsEvolution/data/maps/custom_maps/Custom_8_Run_0_Map.csv,0.000000,0.921645,0.762951,1.000000,0.204582,0.046383,0.831831,2.000000,0.401177,0.027828,0.969437,1.000000,0.971304,0.731052,0.563742,2.000000
/home/daniel/Projects/ppsEvolution/data/maps/custom_maps/Custom_8_Run_0_Map.csv,0.059054,0.811977,0.858391,1.000000,0.046311,0.067677,1.000000,2.000000,0.575151,0.725222,1.000000,1.000000,0.913192,0.272443,1.000000,2.000000
/home/daniel/Projects/ppsEvolution/data/maps/custom_maps/Custom_8_Run_0_Map.csv,0.052806,0.889905,0.921931,1.000000,0.017991,0.091599,1.000000,2.000000,0.710597,0.226860,1.000000,1.000000,1.000000,0.303607,0.852607,2.000000
/home/daniel/Projects/ppsEvolution/data/maps/custom_maps/Custom_8_Run_0_Map.csv,0.000000,0.953137,0.959230,1.000000,0.064854,0.020225,1.000000,2.000000,0.702180,0.088516,0.982482,1.000000,0.881426,0.694028,0.443521,2.000000
/home/daniel/Projects/ppsEvolution/data/maps/custom_maps/Custom_8_Run_0_Map.csv,0.022904,0.673980,0.833989,1.000000,0.222035,0.014014,1.000000,2.000000,0.519126,0.131244,0.996622,1.000000,0.896582,0.307272,1.000000,2.000000
/home/daniel/Projects/ppsEvolution/data/maps/custom_maps/Custom_9_Run_0_Map.csv,0.159574,1.000000,1.000000,0.979152,0.000000,0.054263,1.000000,2.000000,0.749271,0.143757,1.000000,1.000000,0.527711,0.505048,0.599199,2.000000
/home/daniel/Projects/ppsEvolution/data/maps/custom_maps/Custom_9_Run_0_Map.csv,0.025705,0.668501,0.813127,1.000000,0.133694,0.263805,1.000000,2.000000,0.648794,0.198437,1.000000,1.000000,0.982260,0.307568,0.119627,2.000000
/home/daniel/Projects/ppsEvolution/data/maps/custom_maps/Custom_9_Run_0_Map.csv,0.001080,0.786256,0.807758,1.000000,0.015441,0.000000,0.927974,2.000000,0.788712,0.234594,0.993636,1.000000,0.837187,0.828114,0.603224,2.000000
/home/daniel/Projects/ppsEvolution/data/maps/custom_maps/Custom_9_Run_0_Map.csv,0.000000,0.873218,1.000000,1.000000,0.056839,0.143099,1.000000,2.000000,0.896979,0.195664,1.000000,1.000000,0.049644,0.000000,0.856110,2.000000
/home/daniel/Projects/ppsEvolution/data/maps/custom_maps/Custom_9_Run_0_Map.csv,0.000000,0.354536,0.846907,1.000000,0.000000,0.078868,1.000000,2.000000,0.825893,0.488509,1.000000,1.000000,0.919767,0.729143,0.000000,2.000000
/home/daniel/Projects/ppsEvolution/data/maps/custom_maps/Custom_9_Run_0_Map.csv,0.000000,0.942723,0.646289,1.000000,0.000000,0.602392,1.000000,2.000000,0.409085,0.105413,1.000000,1.000000,0.863607,0.000000,0.925146,2.000000
/home/daniel/Projects/ppsEvolution/data/maps/custom_maps/Custom_9_Run_0_Map.csv,0.000000,0.891139,0.701503,0.983917,0.000000,0.228457,0.984577,2.000000,0.355209,0.257963,1.000000,1.000000,0.895239,1.000000,0.222995,2.000000
/home/daniel/Projects/ppsEvolution/data/maps/custom_maps/Custom_9_Run_0_Map.csv,0.050732,0.901369,0.819748,1.000000,0.000000,0.056440,1.000000,2.000000,0.791881,0.119540,1.000000,1.000000,0.247348,0.820572,0.560270,2.000000
/home/daniel/Projects/ppsEvolution/data/maps/custom_maps/Custom_9_Run_0_Map.csv,0.040936,0.428146,0.761473,1.000000,0.140987,0.018130,0.983474,2.000000,0.513857,0.293744,0.990516,1.000000,0.403576,0.000000,0.774574,2.000000
/home/daniel/Projects/ppsEvolution/data/maps/custom_maps/Custom_9_Run_0_Map.csv,0.007351,0.453009,0.823572,0.990943,0.000000,0.422784,1.000000,2.000000,0.477667,0.000000,1.000000,1.000000,0.892975,0.364717,0.749393,2.000000
/home/daniel/Projects/ppsEvolution/data/maps/custom_maps/Custom_10_Run_0_Map.csv,0.109932,0.922155,1.000000,0.986003,0.000000,0.293435,1.000000,2.000000,0.005621,0.023250,0.988418,1.000000,0.905365,0.019511,0.858048,0.000000
/home/daniel/Projects/ppsEvolution/data/maps/custom_maps/Custom_10_Run_0_Map.csv,0.146661,0.483328,1.000000,0.972939,0.000000,0.496158,1.000000,2.000000,0.000000,0.176750,1.000000,1.000000,0.752060,0.240887,0.733425,0.000000
/home/daniel/Projects/ppsEvolution/data/maps/custom_maps/Custom_10_Run_0_Map.csv,0.010809,0.936744,1.000000,1.000000,0.027836,0.192523,1.000000,2.000000,0.000000,0.180856,1.000000,1.000000,0.883491,0.000000,0.657201,0.000000
/home/daniel/Projects/ppsEvolution/data/maps/custom_maps/Custom_10_Run_0_Map.csv,0.000000,1.000000,1.000000,1.000000,0.033634,0.712068,1.000000,2.000000,0.000000,0.000000,0.984781,1.000000,0.653000,0.071520,0.791898,0.000000
/home/daniel/Projects/ppsEvolution/data/maps/custom_maps/Custom_10_Run_0_Map.csv,0.000000,0.829564,1.000000,0.985590,0.159551,0.671420,1.000000,2.000000,0.000000,0.038361,0.945247,1.000000,0.947169,0.239493,0.609074,0.000000
/home/daniel/Projects/ppsEvolution/data/maps/custom_maps/Custom_10_Run_0_Map.csv,0.133800,0.856442,1.000000,1.000000,0.118481,0.742204,1.000000,2.000000,0.000000,0.026922,0.985798,1.000000,0.793443,0.000000,1.000000,0.000000
/home/daniel/Projects/ppsEvolution/data/maps/custom_maps/Custom_10_Run_0_Map.csv,0.000000,0.454741,1.000000,1.000000,0.124043,0.518313,1.000000,2.000000,0.058038,0.140467,0.987300,1.000000,1.000000,0.000000,1.000000,1.000000
/home/daniel/Projects/ppsEvolution/data/maps/custom_maps/Custom_10_Run_0_Map.csv,0.000000,0.451284,1.000000,0.981099,0.114781,0.666883,0.958064,2.000000,0.000000,0.255193,1.000000,1.000000,0.292365,0.000000,1.000000,0.000000
/home/daniel/Projects/ppsEvolution/data/maps/custom_maps/Custom_10_Run_0_Map.csv,0.033780,0.817832,1.000000,0.988950,0.000000,0.353298,1.000000,2.000000,0.000000,0.226624,1.000000,1.000000,0.959900,0.255502,1.000000,0.000000
/home/daniel/Projects/ppsEvolution/data/maps/custom_maps/Custom_10_Run_0_Map.csv,0.000000,0.898089,1.000000,0.982064,0.087456,0.024495,1.000000,2.000000,0.000000,0.046338,0.949594,1.000000,0.852566,0.074383,0.918782,0.000000
