map,fitness,multi_squared_error 0,multi_squared_error 1,team0ratio,time,Sqrt. sum of fitnesses,HP,Speed,Damage,Acc,ClipSize,RateOfFire,NrBullets,Range,HP,Speed,Damage,Acc,ClipSize,RateOfFire,NrBullets,Range,HP,Speed,Damage,Acc,ClipSize,RateOfFire,NrBullets,Range,HP,Speed,Damage,Acc,ClipSize,RateOfFire,NrBullets,Range,Run,target team0ratio: 0.5,target time: 0.72
/home/daniel/Projects/ppsevolution/data/maps/custom_maps/Custom_3_Run_0_Map.csv,multi_squared_error,0.000000,0.000021,0.500001,0.724534,0.004533558048575331,0.091833,0.953951,0.000000,0.632721,0.000000,0.163838,0.979004,0.000000,0.987760,0.061634,0.000000,0.343630,0.925402,1.000000,0.000000,0.000000,141.070778,1.304212,36.000000,0.632721,1.000000,2.056460,9.811038,0.000000,297.858083,0.804515,36.000000,0.343630,185.154964,10.000000,1.000000,0.000000,0
/home/daniel/Projects/ppsevolution/data/maps/custom_maps/Custom_3_Run_0_Map.csv,multi_squared_error,0.000000,0.000001,0.499916,0.718817,0.0011856591070866158,0.000000,0.735042,0.000000,0.655002,0.109691,0.163838,0.990585,0.000000,1.000000,0.113785,0.000000,0.321384,1.000000,1.000000,0.039603,2.000000,125.000000,1.181624,36.000000,0.655002,22.828506,2.056460,9.915267,0.000000,300.000000,0.833720,36.000000,0.321384,200.000000,10.000000,1.356427,2.000000,0
/home/daniel/Projects/ppsevolution/data/maps/custom_maps/Custom_3_Run_0_Map.csv,multi_squared_error,0.000000,0.000001,0.499887,0.719246,0.000762311484297229,0.000000,0.947724,0.000000,0.655002,0.109691,0.163838,0.969009,0.000000,1.000000,0.113785,0.000000,0.321384,0.932961,1.000000,0.039603,2.000000,125.000000,1.300725,36.000000,0.655002,22.828506,2.056460,9.721079,0.000000,300.000000,0.833720,36.000000,0.321384,186.659197,10.000000,1.356427,2.000000,0
/home/daniel/Projects/ppsevolution/data/maps/custom_maps/Custom_3_Run_0_Map.csv,multi_squared_error,0.000000,0.000000,0.499852,0.719510,0.0005116586070440294,0.000000,1.000000,0.000000,0.655002,0.109691,0.163838,0.969009,0.000000,1.000000,0.113785,0.000000,0.321384,0.932961,1.000000,0.071940,0.000000,125.000000,1.330000,36.000000,0.655002,22.828506,2.056460,9.721079,0.000000,300.000000,0.833720,36.000000,0.321384,186.659197,10.000000,1.647460,0.000000,0
/home/daniel/Projects/ppsevolution/data/maps/custom_maps/Custom_3_Run_0_Map.csv,multi_squared_error,0.000000,0.000000,0.499620,0.719728,0.0004669850345226724,0.000000,1.000000,0.000000,0.655002,0.109691,0.163838,0.969009,0.000000,1.000000,0.113785,0.000000,0.321384,1.000000,1.000000,0.071275,0.000000,125.000000,1.330000,36.000000,0.655002,22.828506,2.056460,9.721079,0.000000,300.000000,0.833720,36.000000,0.321384,200.000000,10.000000,1.641476,0.000000,0
/home/daniel/Projects/ppsevolution/data/maps/custom_maps/Custom_3_Run_0_Map.csv,multi_squared_error,0.000001,0.000000,0.499292,0.719735,0.0007563145582325439,0.000000,1.000000,0.000000,0.655002,0.109691,0.163838,0.969009,0.000000,1.000000,0.149923,0.000000,0.321384,1.000000,1.000000,0.071275,0.000000,125.000000,1.330000,36.000000,0.655002,22.828506,2.056460,9.721079,0.000000,300.000000,0.853957,36.000000,0.321384,200.000000,10.000000,1.641476,0.000000,0
/home/daniel/Projects/ppsevolution/data/maps/custom_maps/Custom_3_Run_0_Map.csv,multi_squared_error,0.000001,0.000000,0.498898,0.719837,0.0011140422861730776,0.000000,1.000000,0.000000,0.655002,0.109691,0.228966,0.918635,0.000000,1.000000,0.155969,0.000000,0.321384,0.820759,1.000000,0.039603,1.000000,125.000000,1.330000,36.000000,0.655002,22.828506,2.675180,9.267712,0.000000,300.000000,0.857342,36.000000,0.321384,164.331069,10.000000,1.356427,1.000000,0
/home/daniel/Projects/ppsevolution/data/maps/custom_maps/Custom_3_Run_0_Map.csv,multi_squared_error,0.000003,0.000000,0.501661,0.719946,0.0016619945959131734,0.012526,0.748761,0.000000,0.655002,0.000000,0.163838,0.969009,0.000000,1.000000,0.113785,0.000000,0.321384,1.000000,1.000000,0.076459,0.000000,127.191984,1.189306,36.000000,0.655002,1.000000,2.056460,9.721079,0.000000,300.000000,0.833720,36.000000,0.321384,200.000000,10.000000,1.688133,0.000000,0
/home/daniel/Projects/ppsevolution/data/maps/custom_maps/Custom_3_Run_0_Map.csv,multi_squared_error,0.000004,0.000000,0.501919,0.720006,0.0019188020713533003,0.000000,0.937571,0.000000,0.655002,0.220626,0.163838,0.969009,0.000000,1.000000,0.113785,0.000000,0.321384,0.988527,0.998827,0.036565,0.000000,125.000000,1.295040,36.000000,0.655002,44.904567,2.056460,9.721079,0.000000,300.000000,0.833720,36.000000,0.321384,197.716875,9.988857,1.329085,0.000000,0
/home/daniel/Projects/ppsevolution/data/maps/custom_maps/Custom_3_Run_0_Map.csv,multi_squared_error,0.000006,0.000000,0.502491,0.720002,0.002490879106953856,0.000000,0.735042,0.000000,0.655002,0.109691,0.163838,0.969009,0.000000,1.000000,0.113785,0.000000,0.321384,1.000000,1.000000,0.000000,1.000000,125.000000,1.181624,36.000000,0.655002,22.828506,2.056460,9.721079,0.000000,300.000000,0.833720,36.000000,0.321384,200.000000,10.000000,1.000000,1.000000,0
/home/daniel/Projects/ppsevolution/data/maps/custom_maps/Custom_3_Run_0_Map.csv,multi_squared_error,0.000108,0.000000,0.510391,0.720001,0.010391116228662383,0.000000,0.937571,0.003761,0.655002,0.109691,0.163838,1.000000,0.000000,1.000000,0.155969,0.000000,0.315570,0.927782,1.000000,0.000000,0.000000,125.000000,1.295040,36.428737,0.655002,22.828506,2.056460,10.000000,0.000000,300.000000,0.857342,36.000000,0.315570,185.628680,10.000000,1.000000,0.000000,0
map,fitness,multi_squared_error 0,multi_squared_error 1,team0ratio,time,Sqrt. sum of fitnesses,HP,Speed,Damage,Acc,ClipSize,RateOfFire,NrBullets,Range,HP,Speed,Damage,Acc,ClipSize,RateOfFire,NrBullets,Range,HP,Speed,Damage,Acc,ClipSize,RateOfFire,NrBullets,Range,HP,Speed,Damage,Acc,ClipSize,RateOfFire,NrBullets,Range,Run,target team0ratio: 0.5,target time: 0.72
/home/daniel/Projects/ppsevolution/data/maps/custom_maps/Custom_3_Run_0_Map.csv,multi_squared_error,0.000000,0.000395,0.499995,0.700136,0.019864054327494635,0.024267,0.972712,0.162692,0.595537,0.000000,0.190975,0.937934,0.000000,1.000000,0.235037,0.036327,0.375156,1.000000,0.985743,0.000000,1.000000,129.246673,1.314719,54.546936,0.595537,1.000000,2.314262,9.441408,0.000000,300.000000,0.901621,40.141247,0.375156,200.000000,9.864560,1.000000,1.000000,1
/home/daniel/Projects/ppsevolution/data/maps/custom_maps/Custom_3_Run_0_Map.csv,multi_squared_error,0.000000,0.000000,0.500083,0.719452,0.0005540490716988534,0.000000,0.829561,0.000000,0.658851,0.111693,0.102574,0.904432,0.000000,1.000000,0.012440,0.000000,0.311110,0.969976,0.888589,0.146484,2.000000,125.000000,1.234554,36.000000,0.658851,23.226847,1.474451,9.139892,0.000000,300.000000,0.776967,36.000000,0.311110,194.025242,8.941595,2.318357,2.000000,1
/home/daniel/Projects/ppsevolution/data/maps/custom_maps/Custom_3_Run_0_Map.csv,multi_squared_error,0.000000,0.000000,0.500107,0.720407,0.0004209187001675885,0.000000,1.000000,0.000000,0.658851,0.082247,0.316515,0.868378,0.000000,1.000000,0.000000,0.000000,0.328788,1.000000,0.890588,0.000000,0.000000,125.000000,1.330000,36.000000,0.658851,17.367195,3.506888,8.815406,0.000000,300.000000,0.770000,36.000000,0.328788,200.000000,8.960587,1.000000,0.000000,1
/home/daniel/Projects/ppsevolution/data/maps/custom_maps/Custom_3_Run_0_Map.csv,multi_squared_error,0.000000,0.000000,0.500200,0.719885,0.00023047226611840505,0.000000,1.000000,0.000000,0.658851,0.082247,0.072894,0.904432,0.000000,1.000000,0.081900,0.000000,0.311110,0.969976,1.000000,0.146484,2.000000,125.000000,1.330000,36.000000,0.658851,17.367195,1.192490,9.139892,0.000000,300.000000,0.815864,36.000000,0.311110,194.025242,10.000000,2.318357,2.000000,1
/home/daniel/Projects/ppsevolution/data/maps/custom_maps/Custom_3_Run_0_Map.csv,multi_squared_error,0.000001,0.000000,0.499257,0.720002,0.0007427959263165102,0.000000,1.000000,0.000000,0.658851,0.082247,0.316515,0.868378,0.000000,1.000000,0.000000,0.000000,0.328788,1.000000,0.932463,0.000000,1.000000,125.000000,1.330000,36.000000,0.658851,17.367195,3.506888,8.815406,0.000000,300.000000,0.770000,36.000000,0.328788,200.000000,9.358402,1.000000,1.000000,1
/home/daniel/Projects/ppsevolution/data/maps/custom_maps/Custom_3_Run_0_Map.csv,multi_squared_error,0.016221,0.000000,0.372639,0.719998,0.1273612082126089,0.119809,0.866899,0.089619,0.431267,0.030000,0.030000,1.000000,2.000000,0.904463,0.000000,0.000000,0.442752,1.000000,1.000000,0.146484,2.000000,145.966534,1.255463,46.216569,0.431267,6.970000,0.785000,10.000000,2.000000,283.281006,0.770000,36.000000,0.442752,200.000000,10.000000,2.318357,2.000000,1
map,fitness,multi_squared_error 0,multi_squared_error 1,team0ratio,time,Sqrt. sum of fitnesses,HP,Speed,Damage,Acc,ClipSize,RateOfFire,NrBullets,Range,HP,Speed,Damage,Acc,ClipSize,RateOfFire,NrBullets,Range,HP,Speed,Damage,Acc,ClipSize,RateOfFire,NrBullets,Range,HP,Speed,Damage,Acc,ClipSize,RateOfFire,NrBullets,Range,Run,target team0ratio: 0.5,target time: 0.72
/home/daniel/Projects/ppsevolution/data/maps/custom_maps/Custom_3_Run_0_Map.csv,multi_squared_error,0.000000,0.000001,0.499993,0.720832,0.0008319043972845294,0.142617,1.000000,0.000000,0.603773,0.000000,0.128781,0.839886,1.000000,0.856295,0.000000,0.030061,0.347557,1.000000,1.000000,0.000000,2.000000,149.957930,1.330000,36.000000,0.603773,1.000000,1.723417,8.558976,1.000000,274.851613,0.770000,39.426899,0.347557,200.000000,10.000000,1.000000,2.000000,2
/home/daniel/Projects/ppsevolution/data/maps/custom_maps/Custom_3_Run_0_Map.csv,multi_squared_error,0.000000,0.000000,0.500156,0.720104,0.00018776245848674532,0.044440,0.899351,0.000000,0.603773,0.000000,0.045064,0.946116,1.000000,0.856295,0.000000,0.000000,0.340721,1.000000,0.951653,0.000000,0.000000,132.777070,1.273636,36.000000,0.603773,1.000000,0.928107,9.515042,1.000000,274.851613,0.770000,36.000000,0.340721,200.000000,9.540703,1.000000,0.000000,2
/home/daniel/Projects/ppsevolution/data/maps/custom_maps/Custom_3_Run_0_Map.csv,multi_squared_error,0.000000,0.000000,0.500437,0.719997,0.00043697244114133195,0.044440,0.885458,0.000000,0.603773,0.083892,0.045064,0.948141,1.000000,0.856295,0.000000,0.000000,0.340721,1.000000,1.000000,0.000000,0.000000,132.777070,1.265857,36.000000,0.603773,17.694472,0.928107,9.533265,1.000000,274.851613,0.770000,36.000000,0.340721,200.000000,10.000000,1.000000,0.000000,2
/home/daniel/Projects/ppsevolution/data/maps/custom_maps/Custom_3_Run_0_Map.csv,multi_squared_error,0.001590,0.000000,0.539881,0.720003,0.03988099109555752,0.245849,0.906352,0.174942,0.481848,0.139117,0.062265,0.896436,1.000000,0.885283,0.000000,0.039196,0.330124,0.752952,0.908069,0.000000,0.000000,168.023524,1.277557,55.943361,0.481848,28.684227,1.091514,9.067927,1.000000,279.924478,0.770000,40.468342,0.330124,150.837408,9.126658,1.000000,0.000000,2
/home/daniel/Projects/ppsevolution/data/maps/custom_maps/Custom_3_Run_0_Map.csv,multi_squared_error,0.001954,0.000000,0.455792,0.719998,0.044207870990667385,0.000000,0.859961,0.070851,0.530744,0.000000,0.128781,1.000000,2.000000,0.944137,0.017347,0.000000,0.330124,1.000000,0.906970,0.044879,2.000000,125.000000,1.251578,44.076988,0.530744,1.000000,1.723417,10.000000,2.000000,290.223942,0.779715,36.000000,0.330124,200.000000,9.116211,1.403914,2.000000,2
/home/daniel/Projects/ppsevolution/data/maps/custom_maps/Custom_3_Run_0_Map.csv,multi_squared_error,0.002726,0.000000,0.447792,0.720001,0.052207529547888154,0.000000,0.909951,0.000000,0.603773,0.100309,0.118371,1.000000,2.000000,1.000000,0.182790,0.000000,0.356227,1.000000,1.000000,0.000000,0.000000,125.000000,1.279573,36.000000,0.603773,20.961572,1.624528,10.000000,2.000000,300.000000,0.872362,36.000000,0.356227,200.000000,10.000000,1.000000,0.000000,2
map,fitness,multi_squared_error 0,multi_squared_error 1,team0ratio,time,Sqrt. sum of fitnesses,HP,Speed,Damage,Acc,ClipSize,RateOfFire,NrBullets,Range,HP,Speed,Damage,Acc,ClipSize,RateOfFire,NrBullets,Range,HP,Speed,Damage,Acc,ClipSize,RateOfFire,NrBullets,Range,HP,Speed,Damage,Acc,ClipSize,RateOfFire,NrBullets,Range,Run,target team0ratio: 0.5,target time: 0.72
/home/daniel/Projects/ppsevolution/data/maps/custom_maps/Custom_3_Run_0_Map.csv,multi_squared_error,0.000000,0.012090,0.500015,0.610046,0.10995361427487853,0.000000,1.000000,0.174065,0.800000,0.284974,0.145463,1.000000,2.000000,1.000000,0.000000,0.234669,0.600000,1.000000,1.000000,0.043141,0.000000,125.000000,1.330000,55.843368,0.800000,57.709840,1.881898,10.000000,2.000000,300.000000,0.770000,62.752228,0.600000,200.000000,10.000000,1.388267,0.000000,3
/home/daniel/Projects/ppsevolution/data/maps/custom_maps/Custom_3_Run_0_Map.csv,multi_squared_error,0.000000,0.004138,0.500040,0.655675,0.0643253759954956,0.040839,0.964286,0.230188,0.688091,0.030000,0.089043,1.000000,1.000000,1.000000,0.086084,0.206821,0.459305,1.000000,0.898959,0.000000,0.000000,132.146807,1.310000,62.241433,0.688091,6.970000,1.345904,10.000000,1.000000,300.000000,0.818207,59.577650,0.459305,200.000000,9.040110,1.000000,0.000000,3
/home/daniel/Projects/ppsevolution/data/maps/custom_maps/Custom_3_Run_0_Map.csv,multi_squared_error,0.000000,0.000405,0.499946,0.699881,0.020118935258910463,0.000000,1.000000,0.174065,0.585737,0.173972,0.000000,0.845866,1.000000,1.000000,0.069111,0.000000,0.394883,1.000000,1.000000,0.000000,2.000000,125.000000,1.330000,55.843368,0.585737,35.620354,0.500000,8.612793,1.000000,300.000000,0.808702,36.000000,0.394883,200.000000,10.000000,1.000000,2.000000,3
/home/daniel/Projects/ppsevolution/data/maps/custom_maps/Custom_3_Run_0_Map.csv,multi_squared_error,0.000000,0.000000,0.500078,0.719840,0.00017828526218498656,0.110577,1.000000,0.230188,0.421905,0.184132,0.120572,1.000000,1.000000,0.948843,0.000000,0.000000,0.337776,0.890533,1.000000,0.000000,1.000000,144.350890,1.330000,62.241433,0.421905,37.642255,1.645434,10.000000,1.000000,291.047495,0.770000,36.000000,0.337776,178.216128,10.000000,1.000000,1.000000,3
/home/daniel/Projects/ppsevolution/data/maps/custom_maps/Custom_3_Run_0_Map.csv,multi_squared_error,0.000000,0.000000,0.500489,0.719966,0.000489956246457979,0.119179,1.000000,0.230188,0.421905,0.189359,0.120572,1.000000,1.000000,0.948843,0.000000,0.000000,0.337776,0.890533,1.000000,0.000000,2.000000,145.856348,1.330000,62.241433,0.421905,38.682369,1.645434,10.000000,1.000000,291.047495,0.770000,36.000000,0.337776,178.216128,10.000000,1.000000,2.000000,3
/home/daniel/Projects/ppsevolution/data/maps/custom_maps/Custom_3_Run_0_Map.csv,multi_squared_error,0.001484,0.000000,0.538525,0.719996,0.038524508705564536,0.211940,0.843255,0.000000,0.591719,0.182416,0.118039,0.720019,2.000000,0.741945,0.060162,0.000000,0.376241,0.903530,1.000000,0.000000,0.000000,162.089462,1.242223,36.000000,0.591719,37.300685,1.621373,7.480175,2.000000,254.840380,0.803691,36.000000,0.376241,180.802379,10.000000,1.000000,0.000000,3
map,fitness,multi_squared_error 0,multi_squared_error 1,team0ratio,time,Sqrt. sum of fitnesses,HP,Speed,Damage,Acc,ClipSize,RateOfFire,NrBullets,Range,HP,Speed,Damage,Acc,ClipSize,RateOfFire,NrBullets,Range,HP,Speed,Damage,Acc,ClipSize,RateOfFire,NrBullets,Range,HP,Speed,Damage,Acc,ClipSize,RateOfFire,NrBullets,Range,Run,target team0ratio: 0.5,target time: 0.72
/home/daniel/Projects/ppsevolution/data/maps/custom_maps/Custom_3_Run_0_Map.csv,multi_squared_error,0.000000,0.000204,0.499997,0.734291,0.014290957780539695,0.000000,0.951687,0.001497,0.606825,0.130119,0.177255,1.000000,0.000000,1.000000,0.126876,0.000000,0.254455,0.929023,1.000000,0.000000,0.000000,125.000000,1.302945,36.170659,0.606825,26.893588,2.183923,10.000000,0.000000,300.000000,0.841051,36.000000,0.254455,185.875523,10.000000,1.000000,0.000000,4
/home/daniel/Projects/ppsevolution/data/maps/custom_maps/Custom_3_Run_0_Map.csv,multi_squared_error,0.000000,0.000040,0.499996,0.726361,0.006360620417109868,0.000000,1.000000,0.001497,0.637098,0.000000,0.005750,0.941247,0.000000,1.000000,0.012626,0.000000,0.297035,0.960856,1.000000,0.000000,2.000000,125.000000,1.330000,36.170659,0.637098,1.000000,0.554625,9.471222,0.000000,300.000000,0.777071,36.000000,0.297035,192.210270,10.000000,1.000000,2.000000,4
/home/daniel/Projects/ppsevolution/data/maps/custom_maps/Custom_3_Run_0_Map.csv,multi_squared_error,0.000000,0.000004,0.499927,0.721933,0.00193443409969082,0.000000,0.879113,0.001497,0.606825,0.000000,0.074533,1.000000,1.000000,0.903120,0.037722,0.000000,0.303496,0.901406,1.000000,0.000000,2.000000,125.000000,1.262303,36.170659,0.606825,1.000000,1.208059,10.000000,1.000000,283.045960,0.791124,36.000000,0.303496,180.379753,10.000000,1.000000,2.000000,4
/home/daniel/Projects/ppsevolution/data/maps/custom_maps/Custom_3_Run_0_Map.csv,multi_squared_error,0.000000,0.000000,0.499756,0.719423,0.000626670163820816,0.000000,1.000000,0.001497,0.606825,0.000000,0.044019,1.000000,2.000000,0.899282,0.197106,0.000000,0.303496,0.991638,0.886161,0.077435,0.000000,125.000000,1.330000,36.170659,0.606825,1.000000,0.918181,10.000000,2.000000,282.374352,0.880379,36.000000,0.303496,198.335883,8.918529,1.696916,0.000000,4
/home/daniel/Projects/ppsevolution/data/maps/custom_maps/Custom_3_Run_0_Map.csv,multi_squared_error,0.000000,0.000000,0.500288,0.720123,0.0003134391779912393,0.000000,1.000000,0.000000,0.606825,0.000000,0.000000,0.981490,2.000000,0.899282,0.000000,0.000000,0.302956,0.998940,0.884504,0.078290,0.000000,125.000000,1.330000,36.000000,0.606825,1.000000,0.500000,9.833411,2.000000,282.374352,0.770000,36.000000,0.302956,199.789062,8.902784,1.704614,0.000000,4
/home/daniel/Projects/ppsevolution/data/maps/custom_maps/Custom_3_Run_0_Map.csv,multi_squared_error,0.000000,0.000000,0.500533,0.720033,0.0005335956910707249,0.000000,1.000000,0.001497,0.637098,0.000000,0.005750,0.941247,2.000000,1.000000,0.012626,0.000000,0.302956,0.965746,1.000000,0.078290,1.000000,125.000000,1.330000,36.170659,0.637098,1.000000,0.554625,9.471222,2.000000,300.000000,0.777071,36.000000,0.302956,193.183471,10.000000,1.704614,1.000000,4
/home/daniel/Projects/ppsevolution/data/maps/custom_maps/Custom_3_Run_0_Map.csv,multi_squared_error,0.000004,0.000000,0.501942,0.720003,0.00194198164636298,0.000000,0.972861,0.000000,0.588015,0.000000,0.105123,0.939567,2.000000,0.835579,0.091415,0.000000,0.302956,0.710072,0.916921,0.000000,2.000000,125.000000,1.314802,36.000000,0.588015,1.000000,1.498666,9.456104,2.000000,271.226264,0.821192,36.000000,0.302956,142.304369,9.210747,1.000000,2.000000,4
map,fitness,multi_squared_error 0,multi_squared_error 1,team0ratio,time,Sqrt. sum of fitnesses,HP,Speed,Damage,Acc,ClipSize,RateOfFire,NrBullets,Range,HP,Speed,Damage,Acc,ClipSize,RateOfFire,NrBullets,Range,HP,Speed,Damage,Acc,ClipSize,RateOfFire,NrBullets,Range,HP,Speed,Damage,Acc,ClipSize,RateOfFire,NrBullets,Range,Run,target team0ratio: 0.5,target time: 0.72
/home/daniel/Projects/ppsevolution/data/maps/custom_maps/Custom_3_Run_0_Map.csv,multi_squared_error,0.000000,0.004964,0.500002,0.649546,0.0704536152056427,0.000000,1.000000,0.210000,0.715163,0.029334,0.000000,1.000000,1.000000,1.000000,0.000000,0.000000,0.611135,1.000000,0.940547,0.000000,0.000000,125.000000,1.330000,59.940000,0.715163,6.837541,0.500000,10.000000,1.000000,300.000000,0.770000,36.000000,0.611135,200.000000,9.435200,1.000000,0.000000,5
/home/daniel/Projects/ppsevolution/data/maps/custom_maps/Custom_3_Run_0_Map.csv,multi_squared_error,0.000000,0.002505,0.499987,0.669951,0.05004921841857611,0.196750,1.000000,0.210000,0.660975,0.000000,0.083002,1.000000,0.000000,0.992910,0.000000,0.000000,0.600000,1.000000,1.000000,0.000000,0.000000,159.431198,1.330000,59.940000,0.660975,1.000000,1.288518,10.000000,0.000000,298.759308,0.770000,36.000000,0.600000,200.000000,10.000000,1.000000,0.000000,5
/home/daniel/Projects/ppsevolution/data/maps/custom_maps/Custom_3_Run_0_Map.csv,multi_squared_error,0.000000,0.000019,0.500040,0.724410,0.0044098206642383805,0.135564,1.000000,0.131438,0.527767,0.000000,0.061776,0.856799,1.000000,1.000000,0.000000,0.000000,0.331277,1.000000,1.000000,0.068413,2.000000,148.723664,1.330000,50.983945,0.527767,1.000000,1.086869,8.711192,1.000000,300.000000,0.770000,36.000000,0.331277,200.000000,10.000000,1.615721,2.000000,5
/home/daniel/Projects/ppsevolution/data/maps/custom_maps/Custom_3_Run_0_Map.csv,multi_squared_error,0.000000,0.000011,0.500251,0.723359,0.0033678911374033513,0.198374,0.974649,0.210000,0.463763,0.000000,0.082389,0.856799,0.000000,1.000000,0.000000,0.000000,0.346879,0.914510,0.935761,0.182221,1.000000,159.715404,1.315804,59.940000,0.463763,1.000000,1.282696,8.711192,0.000000,300.000000,0.770000,36.000000,0.346879,182.987520,9.389733,2.639992,1.000000,5
/home/daniel/Projects/ppsevolution/data/maps/custom_maps/Custom_3_Run_0_Map.csv,multi_squared_error,0.000001,0.000000,0.500805,0.720373,0.00088708376294291,0.102106,1.000000,0.210000,0.463763,0.034249,0.082389,0.859953,2.000000,1.000000,0.084339,0.000000,0.331277,0.895425,0.934279,0.006871,0.000000,142.868567,1.330000,59.940000,0.463763,7.815558,1.282696,8.739579,2.000000,300.000000,0.817230,36.000000,0.331277,179.189500,9.375652,1.061841,0.000000,5
/home/daniel/Projects/ppsevolution/data/maps/custom_maps/Custom_3_Run_0_Map.csv,multi_squared_error,0.000001,0.000000,0.498827,0.720053,0.0011745200163206472,0.102106,0.960529,0.210000,0.463763,0.024044,0.075746,0.859953,2.000000,1.000000,0.084339,0.000000,0.331277,0.895425,0.934279,0.006871,1.000000,142.868567,1.307896,59.940000,0.463763,5.784826,1.219590,8.739579,2.000000,300.000000,0.817230,36.000000,0.331277,179.189500,9.375652,1.061841,1.000000,5
/home/daniel/Projects/ppsevolution/data/maps/custom_maps/Custom_3_Run_0_Map.csv,multi_squared_error,0.000002,0.000000,0.501479,0.719970,0.001478921834653763,0.193518,1.000000,0.000000,0.616157,0.053532,0.070817,0.889323,1.000000,0.895928,0.000000,0.000000,0.404860,1.000000,1.000000,0.000000,0.000000,158.865655,1.330000,36.000000,0.616157,11.652947,1.172762,9.003904,1.000000,281.787362,0.770000,36.000000,0.404860,200.000000,10.000000,1.000000,0.000000,5
/home/daniel/Projects/ppsevolution/data/maps/custom_maps/Custom_3_Run_0_Map.csv,multi_squared_error,0.000010,0.000000,0.503086,0.719989,0.003086108226956371,0.198374,0.987536,0.210000,0.463763,0.010069,0.082389,0.856799,2.000000,1.000000,0.000000,0.000000,0.346879,0.914510,0.935761,0.182221,2.000000,159.715404,1.323020,59.940000,0.463763,3.003778,1.282696,8.711192,2.000000,300.000000,0.770000,36.000000,0.346879,182.987520,9.389733,2.639992,2.000000,5
/home/daniel/Projects/ppsevolution/data/maps/custom_maps/Custom_3_Run_0_Map.csv,multi_squared_error,0.001703,0.000000,0.541270,0.720008,0.041270495310473804,0.199897,1.000000,0.210000,0.506123,0.111967,0.037171,0.798281,1.000000,1.000000,0.000000,0.000000,0.346879,0.982964,0.703746,0.000000,0.000000,159.981939,1.330000,59.940000,0.506123,23.281429,0.853124,8.184528,1.000000,300.000000,0.770000,36.000000,0.346879,196.609848,7.185589,1.000000,0.000000,5
/home/daniel/Projects/ppsevolution/data/maps/custom_maps/Custom_3_Run_0_Map.csv,multi_squared_error,0.026911,0.000000,0.335953,0.719993,0.1640469731606395,0.000000,0.934965,0.000000,0.533622,0.212839,0.264821,0.678639,0.000000,0.914096,0.000000,0.020189,0.429412,1.000000,1.000000,0.251296,0.000000,125.000000,1.293581,36.000000,0.533622,43.355040,3.015802,7.107755,0.000000,284.966733,0.770000,38.301563,0.429412,200.000000,10.000000,3.261663,0.000000,5
map,fitness,multi_squared_error 0,multi_squared_error 1,team0ratio,time,Sqrt. sum of fitnesses,HP,Speed,Damage,Acc,ClipSize,RateOfFire,NrBullets,Range,HP,Speed,Damage,Acc,ClipSize,RateOfFire,NrBullets,Range,HP,Speed,Damage,Acc,ClipSize,RateOfFire,NrBullets,Range,HP,Speed,Damage,Acc,ClipSize,RateOfFire,NrBullets,Range,Run,target team0ratio: 0.5,target time: 0.72
/home/daniel/Projects/ppsevolution/data/maps/custom_maps/Custom_3_Run_0_Map.csv,multi_squared_error,0.000000,0.001053,0.499999,0.687547,0.03245338917703594,0.106703,0.896767,0.000000,0.729564,0.000000,0.073988,0.947267,0.000000,0.942026,0.083853,0.000000,0.526399,1.000000,0.983318,0.000000,0.000000,143.673055,1.272190,36.000000,0.729564,1.000000,1.202891,9.525402,0.000000,289.854564,0.816958,36.000000,0.526399,200.000000,9.841524,1.000000,0.000000,6
/home/daniel/Projects/ppsevolution/data/maps/custom_maps/Custom_3_Run_0_Map.csv,multi_squared_error,0.000000,0.001016,0.499994,0.688131,0.03186866813241661,0.000000,1.000000,0.000000,0.729564,0.000000,0.103888,0.816614,2.000000,1.000000,0.239177,0.000000,0.471132,0.939753,1.000000,0.000000,0.000000,125.000000,1.330000,36.000000,0.729564,1.000000,1.486938,8.349526,2.000000,300.000000,0.903939,36.000000,0.471132,188.010946,10.000000,1.000000,0.000000,6
/home/daniel/Projects/ppsevolution/data/maps/custom_maps/Custom_3_Run_0_Map.csv,multi_squared_error,0.000000,0.000000,0.500022,0.720035,4.135600103160312e-05,0.000000,1.000000,0.086197,0.589845,0.132213,0.000000,0.926245,0.000000,1.000000,0.045086,0.000000,0.318122,1.000000,0.945837,0.000000,0.000000,125.000000,1.330000,45.826426,0.589845,27.310374,0.500000,9.336204,0.000000,300.000000,0.795248,36.000000,0.318122,200.000000,9.485450,1.000000,0.000000,6
/home/daniel/Projects/ppsevolution/data/maps/custom_maps/Custom_3_Run_0_Map.csv,multi_squared_error,0.000001,0.000000,0.500929,0.720005,0.0009288917938242737,0.006363,1.000000,0.086197,0.589845,0.132213,0.084166,0.926245,0.000000,1.000000,0.108949,0.000000,0.317987,0.990423,0.929615,0.000000,0.000000,126.113445,1.330000,45.826426,0.589845,27.310374,1.299579,9.336204,0.000000,300.000000,0.831012,36.000000,0.317987,198.094233,9.331343,1.000000,0.000000,6
/home/daniel/Projects/ppsevolution/data/maps/custom_maps/Custom_3_Run_0_Map.csv,multi_squared_error,0.018682,0.000000,0.636683,0.720002,0.13668310644268106,0.000000,0.997605,0.000000,0.729564,0.000000,0.073988,0.947267,0.000000,1.000000,0.121947,0.000000,0.200071,0.990423,0.945837,0.000000,0.000000,125.000000,1.328659,36.000000,0.729564,1.000000,1.202891,9.525402,0.000000,300.000000,0.838290,36.000000,0.200071,198.094233,9.485450,1.000000,0.000000,6
/home/daniel/Projects/ppsevolution/data/maps/custom_maps/Custom_3_Run_0_Map.csv,multi_squared_error,0.018722,0.000000,0.636830,0.720000,0.13682997226788504,0.000000,1.000000,0.000000,0.729564,0.000000,0.073988,0.947267,0.000000,1.000000,0.107841,0.000000,0.200071,0.990423,0.945837,0.000000,0.000000,125.000000,1.330000,36.000000,0.729564,1.000000,1.202891,9.525402,0.000000,300.000000,0.830391,36.000000,0.200071,198.094233,9.485450,1.000000,0.000000,6
map,fitness,multi_squared_error 0,multi_squared_error 1,team0ratio,time,Sqrt. sum of fitnesses,HP,Speed,Damage,Acc,ClipSize,RateOfFire,NrBullets,Range,HP,Speed,Damage,Acc,ClipSize,RateOfFire,NrBullets,Range,HP,Speed,Damage,Acc,ClipSize,RateOfFire,NrBullets,Range,HP,Speed,Damage,Acc,ClipSize,RateOfFire,NrBullets,Range,Run,target team0ratio: 0.5,target time: 0.72
/home/daniel/Projects/ppsevolution/data/maps/custom_maps/Custom_3_Run_0_Map.csv,multi_squared_error,0.000000,0.000010,0.499997,0.723218,0.003218203659559494,0.081758,1.000000,0.210000,0.401053,0.000000,0.151229,1.000000,0.000000,0.849420,0.000000,0.000000,0.321387,1.000000,1.000000,0.000000,1.000000,139.307658,1.330000,59.940000,0.401053,1.000000,1.936674,10.000000,0.000000,273.648482,0.770000,36.000000,0.321387,200.000000,10.000000,1.000000,1.000000,7
/home/daniel/Projects/ppsevolution/data/maps/custom_maps/Custom_3_Run_0_Map.csv,multi_squared_error,0.000000,0.000001,0.499972,0.721148,0.0011484749967923488,0.134616,1.000000,0.000000,0.617607,0.105996,0.018519,1.000000,2.000000,0.970485,0.016539,0.000000,0.363833,0.926892,0.880247,0.000000,0.000000,148.557832,1.330000,36.000000,0.617607,22.093292,0.675933,10.000000,2.000000,294.834935,0.779262,36.000000,0.363833,185.451543,8.862346,1.000000,0.000000,7
/home/daniel/Projects/ppsevolution/data/maps/custom_maps/Custom_3_Run_0_Map.csv,multi_squared_error,0.000000,0.000000,0.500340,0.719914,0.0003506902086878311,0.024438,1.000000,0.210000,0.401142,0.030000,0.042982,1.000000,0.000000,0.804231,0.000000,0.000000,0.312918,0.935291,0.937559,0.025578,1.000000,129.276671,1.330000,59.940000,0.401142,6.970000,0.908331,10.000000,0.000000,265.740430,0.770000,36.000000,0.312918,187.122973,9.406807,1.230202,1.000000,7
/home/daniel/Projects/ppsevolution/data/maps/custom_maps/Custom_3_Run_0_Map.csv,multi_squared_error,0.000004,0.000000,0.501903,0.719986,0.001902628167776913,0.081758,1.000000,0.210000,0.401053,0.000000,0.151229,1.000000,2.000000,0.849420,0.000000,0.000000,0.321387,1.000000,0.719486,0.000000,2.000000,139.307658,1.330000,59.940000,0.401053,1.000000,1.936674,10.000000,2.000000,273.648482,0.770000,36.000000,0.321387,200.000000,7.335115,1.000000,2.000000,7
/home/daniel/Projects/ppsevolution/data/maps/custom_maps/Custom_3_Run_0_Map.csv,multi_squared_error,0.000023,0.000000,0.504768,0.720004,0.004768433143676689,0.000000,0.841532,0.000000,0.617607,0.000000,0.036195,0.943103,1.000000,0.882049,0.211294,0.000000,0.312918,0.990100,1.000000,0.025578,0.000000,125.000000,1.241258,36.000000,0.617607,1.000000,0.843857,9.487927,1.000000,279.358538,0.888324,36.000000,0.312918,198.029864,10.000000,1.230202,0.000000,7
/home/daniel/Projects/ppsevolution/data/maps/custom_maps/Custom_3_Run_0_Map.csv,multi_squared_error,0.000085,0.000000,0.490782,0.720001,0.009218037168852906,0.000000,1.000000,0.210000,0.401053,0.000000,0.100124,1.000000,0.000000,0.821639,0.000000,0.000000,0.312918,1.000000,1.000000,0.000000,1.000000,125.000000,1.330000,59.940000,0.401053,1.000000,1.451181,10.000000,0.000000,268.786873,0.770000,36.000000,0.312918,200.000000,10.000000,1.000000,1.000000,7
map,fitness,multi_squared_error 0,multi_squared_error 1,team0ratio,time,Sqrt. sum of fitnesses,HP,Speed,Damage,Acc,ClipSize,RateOfFire,NrBullets,Range,HP,Speed,Damage,Acc,ClipSize,RateOfFire,NrBullets,Range,HP,Speed,Damage,Acc,ClipSize,RateOfFire,NrBullets,Range,HP,Speed,Damage,Acc,ClipSize,RateOfFire,NrBullets,Range,Run,target team0ratio: 0.5,target time: 0.72
/home/daniel/Projects/ppsevolution/data/maps/custom_maps/Custom_3_Run_0_Map.csv,multi_squared_error,0.000000,0.005130,0.499991,0.648375,0.07162526421960023,0.000000,0.887916,0.000000,0.788660,0.074190,0.184724,1.000000,2.000000,1.000000,0.000000,0.000000,0.600000,1.000000,1.000000,0.021748,2.000000,125.000000,1.267233,36.000000,0.788660,15.763799,2.254875,10.000000,2.000000,300.000000,0.770000,36.000000,0.600000,200.000000,10.000000,1.195736,2.000000,8
/home/daniel/Projects/ppsevolution/data/maps/custom_maps/Custom_3_Run_0_Map.csv,multi_squared_error,0.000000,0.000017,0.500010,0.715897,0.004102570593689607,0.000000,0.887916,0.210000,0.489344,0.000000,0.215442,0.956162,0.000000,1.000000,0.089735,0.006113,0.306408,0.725621,0.779847,0.000000,1.000000,125.000000,1.267233,59.940000,0.489344,1.000000,2.546700,9.605456,0.000000,300.000000,0.820251,36.696897,0.306408,145.398576,7.908542,1.000000,1.000000,8
/home/daniel/Projects/ppsevolution/data/maps/custom_maps/Custom_3_Run_0_Map.csv,multi_squared_error,0.000000,0.000000,0.499932,0.720106,0.00012593924438288577,0.118394,0.671876,0.121062,0.497916,0.156944,0.161598,0.926166,2.000000,0.883039,0.182921,0.000000,0.342790,1.000000,0.772411,0.000000,1.000000,145.718903,1.146250,49.801113,0.497916,32.231822,2.035183,9.335493,2.000000,279.531902,0.872436,36.000000,0.342790,200.000000,7.837909,1.000000,1.000000,8
/home/daniel/Projects/ppsevolution/data/maps/custom_maps/Custom_3_Run_0_Map.csv,multi_squared_error,0.000002,0.000000,0.501447,0.719926,0.0014486505194270776,0.136743,0.768614,0.121062,0.497916,0.000000,0.161598,0.926166,2.000000,0.883039,0.113252,0.048348,0.303631,1.000000,0.800397,0.000000,1.000000,148.930082,1.200424,49.801113,0.497916,1.000000,2.035183,9.335493,2.000000,279.531902,0.833421,41.511712,0.303631,200.000000,8.103774,1.000000,1.000000,8
/home/daniel/Projects/ppsevolution/data/maps/custom_maps/Custom_3_Run_0_Map.csv,multi_squared_error,0.000013,0.000000,0.503590,0.719929,0.003591038334890824,0.011632,1.000000,0.210000,0.489344,0.000000,0.000000,0.876119,0.000000,1.000000,0.071030,0.000000,0.301248,1.000000,1.000000,0.000000,2.000000,127.035605,1.330000,59.940000,0.489344,1.000000,0.500000,8.885075,0.000000,300.000000,0.809777,36.000000,0.301248,200.000000,10.000000,1.000000,2.000000,8
/home/daniel/Projects/ppsevolution/data/maps/custom_maps/Custom_3_Run_0_Map.csv,multi_squared_error,0.000019,0.000000,0.504359,0.720051,0.004359181739364324,0.000000,1.000000,0.210000,0.489344,0.000000,0.000000,0.876119,0.000000,1.000000,0.057208,0.000000,0.301248,1.000000,1.000000,0.000000,0.000000,125.000000,1.330000,59.940000,0.489344,1.000000,0.500000,8.885075,0.000000,300.000000,0.802036,36.000000,0.301248,200.000000,10.000000,1.000000,0.000000,8
/home/daniel/Projects/ppsevolution/data/maps/custom_maps/Custom_3_Run_0_Map.csv,multi_squared_error,0.000479,0.000000,0.521895,0.719966,0.02189525585463561,0.000000,1.000000,0.210000,0.489344,0.000000,0.000000,0.945440,1.000000,1.000000,0.099914,0.000000,0.264079,1.000000,1.000000,0.057088,2.000000,125.000000,1.330000,59.940000,0.489344,1.000000,0.500000,9.508957,1.000000,300.000000,0.825952,36.000000,0.264079,200.000000,10.000000,1.513789,2.000000,8
/home/daniel/Projects/ppsevolution/data/maps/custom_maps/Custom_3_Run_0_Map.csv,multi_squared_error,0.001148,0.000000,0.533875,0.719971,0.03387541835411639,0.000000,0.900007,0.210000,0.489344,0.000000,0.000000,0.945440,1.000000,0.977305,0.099914,0.000000,0.264079,0.995220,0.758331,0.000000,0.000000,125.000000,1.274004,59.940000,0.489344,1.000000,0.500000,9.508957,1.000000,296.028335,0.825952,36.000000,0.264079,199.048817,7.704140,1.000000,0.000000,8
/home/daniel/Projects/ppsevolution/data/maps/custom_maps/Custom_3_Run_0_Map.csv,multi_squared_error,0.001166,0.000000,0.534141,0.720016,0.03414130602863332,0.000000,0.900007,0.210000,0.489344,0.000000,0.000000,0.945440,1.000000,0.977305,0.099914,0.000000,0.264079,1.000000,1.000000,0.000000,0.000000,125.000000,1.274004,59.940000,0.489344,1.000000,0.500000,9.508957,1.000000,296.028335,0.825952,36.000000,0.264079,200.000000,10.000000,1.000000,0.000000,8
/home/daniel/Projects/ppsevolution/data/maps/custom_maps/Custom_3_Run_0_Map.csv,multi_squared_error,0.001167,0.000000,0.534165,0.720003,0.03416484609777189,0.000000,0.900007,0.210000,0.489344,0.000000,0.000000,0.945440,1.000000,0.977305,0.099914,0.000000,0.264079,0.995220,1.000000,0.000000,0.000000,125.000000,1.274004,59.940000,0.489344,1.000000,0.500000,9.508957,1.000000,296.028335,0.825952,36.000000,0.264079,199.048817,10.000000,1.000000,0.000000,8
map,fitness,multi_squared_error 0,multi_squared_error 1,team0ratio,time,Sqrt. sum of fitnesses,HP,Speed,Damage,Acc,ClipSize,RateOfFire,NrBullets,Range,HP,Speed,Damage,Acc,ClipSize,RateOfFire,NrBullets,Range,HP,Speed,Damage,Acc,ClipSize,RateOfFire,NrBullets,Range,HP,Speed,Damage,Acc,ClipSize,RateOfFire,NrBullets,Range,Run,target team0ratio: 0.5,target time: 0.72
/home/daniel/Projects/ppsevolution/data/maps/custom_maps/Custom_3_Run_0_Map.csv,multi_squared_error,0.000000,0.007097,0.499986,0.635755,0.0842452370160634,0.000000,1.000000,0.076880,0.800000,0.000000,0.000000,0.936961,1.000000,1.000000,0.070976,0.094668,0.602200,0.979254,1.000000,0.059194,1.000000,125.000000,1.330000,44.764317,0.800000,1.000000,0.500000,9.432646,1.000000,300.000000,0.809747,46.792107,0.602200,195.871537,10.000000,1.532749,1.000000,9
/home/daniel/Projects/ppsevolution/data/maps/custom_maps/Custom_3_Run_0_Map.csv,multi_squared_error,0.000000,0.000123,0.500021,0.708909,0.011091223646818445,0.000000,0.818512,0.168834,0.562846,0.000000,0.000000,0.845296,0.000000,0.987231,0.000000,0.068626,0.288902,1.000000,0.784066,0.100434,0.000000,125.000000,1.228367,55.247128,0.562846,1.000000,0.500000,8.607667,0.000000,297.765393,0.770000,43.823315,0.288902,200.000000,7.948627,1.903910,0.000000,9
/home/daniel/Projects/ppsevolution/data/maps/custom_maps/Custom_3_Run_0_Map.csv,multi_squared_error,0.000000,0.000009,0.500035,0.716932,0.0030679061769115926,0.201321,0.943340,0.340859,0.329253,0.180058,0.018239,1.000000,1.000000,0.943616,0.462230,0.000000,0.373341,1.000000,1.000000,0.059194,2.000000,160.231154,1.298270,74.857902,0.329253,36.831615,0.673268,10.000000,1.000000,290.132823,1.028849,36.000000,0.373341,200.000000,10.000000,1.532749,2.000000,9
/home/daniel/Projects/ppsevolution/data/maps/custom_maps/Custom_3_Run_0_Map.csv,multi_squared_error,0.000000,0.000006,0.500138,0.717533,0.0024707278584156314,0.201321,1.000000,0.279443,0.400697,0.239560,0.114860,0.887333,2.000000,0.989003,0.026685,0.000000,0.373341,1.000000,0.957613,0.058989,1.000000,160.231154,1.330000,67.856512,0.400697,48.672478,1.591173,8.986000,2.000000,298.075580,0.784944,36.000000,0.373341,200.000000,9.597319,1.530905,1.000000,9
/home/daniel/Projects/ppsevolution/data/maps/custom_maps/Custom_3_Run_0_Map.csv,multi_squared_error,0.000000,0.000000,0.499787,0.719499,0.0005440094318589141,0.201321,1.000000,0.340859,0.316788,0.180058,0.018239,1.000000,1.000000,0.943616,0.462230,0.000000,0.373341,1.000000,1.000000,0.000000,0.000000,160.231154,1.330000,74.857902,0.316788,36.831615,0.673268,10.000000,1.000000,290.132823,1.028849,36.000000,0.373341,200.000000,10.000000,1.000000,0.000000,9
/home/daniel/Projects/ppsevolution/data/maps/custom_maps/Custom_3_Run_0_Map.csv,multi_squared_error,0.000000,0.000000,0.499573,0.720145,0.0004512444221579847,0.201321,1.000000,0.279443,0.400697,0.152885,0.138893,0.853445,1.000000,0.989003,0.067574,0.000000,0.373341,0.975471,0.933667,0.000000,1.000000,160.231154,1.330000,67.856512,0.400697,31.424071,1.819483,8.681002,1.000000,298.075580,0.807841,36.000000,0.373341,195.118718,9.369835,1.000000,1.000000,9
/home/daniel/Projects/ppsevolution/data/maps/custom_maps/Custom_3_Run_0_Map.csv,multi_squared_error,0.000005,0.000000,0.497789,0.719987,0.0022110723107018238,0.201321,1.000000,0.279443,0.400697,0.152885,0.138893,0.853445,1.000000,0.989003,0.067574,0.000000,0.373341,1.000000,0.933667,0.000000,2.000000,160.231154,1.330000,67.856512,0.400697,31.424071,1.819483,8.681002,1.000000,298.075580,0.807841,36.000000,0.373341,200.000000,9.369835,1.000000,2.000000,9
/home/daniel/Projects/ppsevolution/data/maps/custom_maps/Custom_3_Run_0_Map.csv,multi_squared_error,0.000228,0.000000,0.484915,0.720007,0.015085460521945896,0.276318,0.746748,0.150280,0.509116,0.000000,0.102300,0.944097,0.000000,1.000000,0.000000,0.058722,0.364321,1.000000,1.000000,0.059194,2.000000,173.355573,1.188179,53.131904,0.509116,1.000000,1.471850,9.496877,0.000000,300.000000,0.770000,42.694340,0.364321,200.000000,10.000000,1.532749,2.000000,9
/home/daniel/Projects/ppsevolution/data/maps/custom_maps/Custom_3_Run_0_Map.csv,multi_squared_error,0.000288,0.000000,0.483040,0.720002,0.016959548107017358,0.000000,1.000000,0.010419,0.610944,0.087631,0.225186,1.000000,2.000000,1.000000,0.000000,0.060779,0.262460,0.883890,0.958800,0.000000,0.000000,125.000000,1.330000,37.187735,0.610944,18.438489,2.639267,10.000000,2.000000,300.000000,0.770000,42.928780,0.262460,176.894120,9.608596,1.000000,0.000000,9
/home/daniel/Projects/ppsevolution/data/maps/custom_maps/Custom_3_Run_0_Map.csv,multi_squared_error,0.015831,0.000000,0.374180,0.720001,0.12582048773985455,0.000000,0.950954,0.050232,0.523176,0.009407,0.018239,0.988313,0.000000,1.000000,0.000000,0.058722,0.364321,1.000000,1.000000,0.059194,1.000000,125.000000,1.302534,41.726490,0.523176,2.872016,0.673268,9.894820,0.000000,300.000000,0.770000,42.694340,0.364321,200.000000,10.000000,1.532749,1.000000,9
