map,fitness,multi_squared_error 0,multi_squared_error 1,team0ratio,time,Sqrt. sum of fitnesses,HP,Speed,Damage,Acc,ClipSize,RateOfFire,NrBullets,Range,HP,Speed,Damage,Acc,ClipSize,RateOfFire,NrBullets,Range,HP,Speed,Damage,Acc,ClipSize,RateOfFire,NrBullets,Range,HP,Speed,Damage,Acc,ClipSize,RateOfFire,NrBullets,Range,Run,target team0ratio: 0.5,target time: 0.72
/home/daniel/Projects/ppsevolution/data/maps/custom_maps/Custom_10_Run_0_Map.csv,multi_squared_error,0.000003,0.000005,0.501627,0.722164,0.002707494202283618,0.341396,0.949454,0.061921,0.403538,0.086401,0.000000,0.963739,1.000000,1.000000,0.043586,0.012553,0.210138,1.000000,0.906847,0.000000,1.000000,184.744291,1.301694,43.059001,0.403538,18.193850,0.500000,9.673652,1.000000,300.000000,0.794408,37.431022,0.210138,200.000000,9.115045,1.000000,1.000000,0
/home/daniel/Projects/ppsevolution/data/maps/custom_maps/Custom_10_Run_0_Map.csv,multi_squared_error,0.000001,0.000000,0.499231,0.719781,0.0007992267926926893,0.333798,0.890062,0.000000,0.491416,0.059193,0.092402,0.689323,1.000000,1.000000,0.186935,0.000000,0.232864,1.000000,0.941991,0.045336,1.000000,183.414653,1.268435,36.000000,0.491416,12.779489,1.377817,7.203911,1.000000,300.000000,0.874684,36.000000,0.232864,200.000000,9.448914,1.408024,1.000000,1
/home/daniel/Projects/ppsevolution/data/maps/custom_maps/Custom_10_Run_0_Map.csv,multi_squared_error,0.000000,0.000000,0.499855,0.720083,0.00016692790609968133,0.064093,0.916862,0.041002,0.344560,0.186366,0.000000,0.827781,2.000000,0.742123,0.000000,0.084867,0.000000,0.972433,0.710108,0.017308,2.000000,136.216233,1.283443,40.674174,0.344560,38.086787,0.500000,8.450030,2.000000,254.871483,0.770000,45.674821,0.000000,194.514097,7.246023,1.155770,2.000000,2
/home/daniel/Projects/ppsevolution/data/maps/custom_maps/Custom_10_Run_0_Map.csv,multi_squared_error,0.000000,0.000000,0.499745,0.719871,0.000285716995123571,0.088810,1.000000,0.000000,0.497061,0.000000,0.000000,0.735632,1.000000,1.000000,0.000000,0.000000,0.118782,0.989295,0.898583,0.010244,2.000000,140.541688,1.330000,36.000000,0.497061,1.000000,0.500000,7.620687,1.000000,300.000000,0.770000,36.000000,0.118782,197.869691,9.036539,1.092192,2.000000,3
/home/daniel/Projects/ppsevolution/data/maps/custom_maps/Custom_10_Run_0_Map.csv,multi_squared_error,0.000000,0.000000,0.499829,0.719716,0.0003311057646531612,0.380770,0.783728,0.000000,0.478779,0.041795,0.307025,0.797948,1.000000,1.000000,0.019091,0.000000,0.259208,1.000000,1.000000,0.000000,0.000000,191.634726,1.208887,36.000000,0.478779,9.317231,3.416733,8.181530,1.000000,300.000000,0.780691,36.000000,0.259208,200.000000,10.000000,1.000000,0.000000,4
/home/daniel/Projects/ppsevolution/data/maps/custom_maps/Custom_10_Run_0_Map.csv,multi_squared_error,0.000000,0.000000,0.500227,0.720220,0.00031645343332030836,0.297875,1.000000,0.029193,0.381073,0.058585,0.030000,0.959015,2.000000,0.862345,0.000000,0.021343,0.193339,0.849027,1.000000,0.000000,0.000000,177.128173,1.330000,39.328029,0.381073,12.658397,0.785000,9.631133,2.000000,275.910296,0.770000,38.433079,0.193339,169.956387,10.000000,1.000000,0.000000,5
/home/daniel/Projects/ppsevolution/data/maps/custom_maps/Custom_10_Run_0_Map.csv,multi_squared_error,0.000000,0.000002,0.500282,0.721360,0.0013886040004508558,0.000000,0.756738,0.000000,0.504596,0.047734,0.086005,0.751675,0.000000,1.000000,0.000000,0.000000,0.065205,0.935560,1.000000,0.108511,0.000000,125.000000,1.193773,36.000000,0.504596,10.499073,1.317043,7.765071,0.000000,300.000000,0.770000,36.000000,0.065205,187.176400,10.000000,1.976597,0.000000,6
/home/daniel/Projects/ppsevolution/data/maps/custom_maps/Custom_10_Run_0_Map.csv,multi_squared_error,0.000000,0.000001,0.500278,0.719150,0.0008945418496826222,0.363072,1.000000,0.115322,0.240190,0.000000,0.033948,0.962796,2.000000,0.736658,0.037766,0.000000,0.253380,0.924310,0.974855,0.000000,1.000000,188.537677,1.330000,49.146742,0.240190,1.000000,0.822506,9.665162,2.000000,253.915153,0.791149,36.000000,0.253380,184.937667,9.761118,1.000000,1.000000,7
/home/daniel/Projects/ppsevolution/data/maps/custom_maps/Custom_10_Run_0_Map.csv,multi_squared_error,0.000000,0.000000,0.499729,0.720351,0.00044296580796517195,0.000000,0.935277,0.000000,0.445923,0.392341,0.085538,0.582094,0.000000,0.796258,0.202993,0.000000,0.079168,0.883561,0.749227,0.077102,0.000000,125.000000,1.293755,36.000000,0.445923,79.075937,1.312609,6.238844,0.000000,264.345110,0.883676,36.000000,0.079168,176.828667,7.617657,1.693919,0.000000,8
/home/daniel/Projects/ppsevolution/data/maps/custom_maps/Custom_10_Run_0_Map.csv,multi_squared_error,0.000000,0.000000,0.500617,0.720117,0.0006283876049296858,0.533782,0.997517,0.000000,0.447487,0.239553,0.093391,1.000000,0.000000,0.956196,0.125854,0.000000,0.316569,0.831477,1.000000,0.085702,1.000000,218.411795,1.328609,36.000000,0.447487,48.670983,1.387212,10.000000,0.000000,292.334221,0.840478,36.000000,0.316569,166.463967,10.000000,1.771322,1.000000,9
